1875
-0.500819, 1, 33, 500, 288
-0.507663, 1, 1, 500, 333
-0.513192, 225, 1, 480, 333
-0.567469, 129, 1, 384, 333
-0.614631, 1, 1, 256, 333
-0.694503, 257, 1, 500, 256
-0.711957, 161, 33, 416, 288
-0.766899, 1, 1, 256, 256
-0.875294, 273, 1, 400, 256
-0.888278, 273, 1, 400, 333
-0.892657, 113, 1, 240, 333
-0.895666, 225, 1, 352, 333
-0.897831, 225, 33, 352, 288
-0.9031, 177, 1, 304, 333
-0.907271, 129, 1, 256, 256
-0.90839, 1, 17, 500, 144
-0.910918, 49, 1, 176, 256
-0.911586, 1, 1, 128, 333
-0.914166, 321, 1, 448, 333
-0.916512, 65, 1, 192, 333
-0.917628, 177, 65, 304, 320
-0.918678, 337, 1, 464, 256
-0.925563, 1, 65, 500, 192
-0.929485, 1, 65, 128, 320
-0.929798, 1, 129, 500, 256
-0.93343, 369, 1, 496, 333
-0.934699, 1, 177, 500, 304
-0.940776, 257, 17, 500, 144
-0.941064, 1, 1, 256, 128
-0.944077, 161, 49, 416, 176
-0.948787, 193, 1, 320, 128
-0.950485, 129, 1, 384, 128
-0.951734, 273, 1, 400, 128
-0.952472, 329, 1, 392, 128
-0.956473, 65, 49, 320, 176
-0.956526, 257, 129, 500, 256
-0.957612, 225, 49, 352, 176
-0.959596, 249, 17, 312, 144
-0.960795, 161, 65, 288, 192
-0.962205, 209, 73, 272, 136
-0.962316, 417, 193, 480, 320
-0.962921, 129, 1, 256, 128
-0.963038, 257, 209, 500, 333
-0.96377, 17, 1, 144, 128
-0.96389, 257, 65, 500, 192
-0.965745, 273, 49, 400, 176
-0.96623, 281, 49, 344, 176
-0.966345, 1, 113, 256, 240
-0.966601, 353, 193, 480, 320
-0.966608, 169, 57, 232, 120
-0.966704, 209, 1, 272, 128
-0.966732, 201, 65, 264, 192
-0.967117, 289, 1, 352, 128
-0.967298, 81, 17, 208, 144
-0.967488, 177, 49, 240, 176
-0.967496, 249, 49, 312, 112
-0.967665, 393, 209, 456, 333
-0.968558, 161, 1, 224, 128
-0.968954, 209, 49, 272, 112
-0.969164, 161, 177, 416, 304
-0.969388, 377, 225, 440, 288
-0.970129, 337, 97, 464, 224
-0.971649, 153, 49, 216, 176
-0.971714, 225, 49, 288, 176
-0.971794, 97, 97, 352, 224
-0.97297, 225, 1, 288, 64
-0.973444, 185, 81, 248, 144
-0.973625, 105, 1, 168, 128
-0.973636, 1, 177, 256, 304
-0.973751, 353, 1, 416, 128
-0.973859, 33, 49, 160, 176
-0.973875, 321, 145, 448, 272
-0.973966, 345, 1, 408, 64
-0.974341, 225, 57, 352, 120
-0.974526, 281, 49, 344, 112
-0.974897, 161, 73, 288, 136
-0.975037, 369, 33, 496, 160
-0.975039, 369, 209, 432, 333
-0.975149, 369, 145, 496, 272
-0.975279, 33, 1, 96, 128
-0.975422, 233, 73, 296, 136
-0.975997, 345, 49, 408, 176
-0.976023, 321, 1, 384, 256
-0.976057, 321, 1, 448, 128
-0.97645, 73, 65, 136, 192
-0.976798, 129, 49, 192, 176
-0.976866, 1, 177, 128, 304
-0.976933, 137, 1, 200, 128
-0.976986, 401, 217, 464, 280
-0.977234, 33, 65, 96, 192
-0.977326, 113, 65, 240, 192
-0.977431, 257, 97, 384, 224
-0.977663, 393, 161, 456, 288
-0.978008, 313, 49, 376, 176
-0.978175, 33, 113, 160, 240
-0.978497, 209, 25, 272, 88
-0.978561, 57, 1, 120, 128
-0.978979, 81, 1, 144, 128
-0.979226, 273, 177, 400, 304
-0.979564, 433, 249, 496, 312
-0.979879, 185, 1, 248, 128
-0.980151, 193, 33, 320, 96
-0.980227, 321, 17, 384, 80
-0.980282, 241, 25, 304, 88
-0.980424, 321, 41, 384, 104
-0.980642, 257, 65, 320, 192
-0.980686, 145, 49, 272, 112
-0.980709, 353, 81, 416, 144
-0.980824, 97, 49, 160, 176
-0.980952, 241, 1, 304, 256
-0.981276, 225, 81, 256, 144
-0.981713, 113, 129, 176, 256
-0.981755, 17, 225, 80, 288
-0.981764, 209, 161, 336, 288
-0.981776, 185, 233, 248, 296
-0.981918, 357, 1, 388, 128
-0.981934, 417, 129, 480, 192
-0.981945, 281, 9, 344, 72
-0.981995, 393, 49, 456, 176
-0.982059, 253, 49, 284, 112
-0.98207, 1, 33, 64, 160
-0.982116, 401, 113, 464, 240
-0.982161, 1, 177, 64, 304
-0.982253, 369, 217, 496, 280
-0.982374, 161, 33, 224, 96
-0.982409, 425, 209, 488, 272
-0.982434, 209, 97, 272, 160
-0.982459, 97, 65, 160, 128
-0.982495, 209, 1, 272, 256
-0.982595, 409, 241, 472, 304
-0.982697, 385, 97, 448, 160
-0.982723, 313, 97, 376, 224
-0.982969, 145, 73, 208, 136
-0.982979, 281, 1, 344, 256
-0.983166, 401, 193, 464, 256
-0.983206, 417, 33, 480, 160
-0.983235, 177, 113, 304, 240
-0.98331, 81, 129, 208, 256
-0.983416, 337, 1, 368, 128
-0.983466, 193, 1, 256, 64
-0.983491, 425, 273, 488, 333
-0.983579, 433, 129, 496, 256
-0.983835, 205, 73, 236, 136
-0.983964, 353, 9, 384, 72
-0.983976, 401, 217, 432, 280
-0.984024, 369, 65, 432, 192
-0.984097, 73, 65, 136, 128
-0.984165, 277, 49, 308, 112
-0.984175, 289, 49, 320, 176
-0.984192, 209, 81, 336, 144
-0.984352, 273, 65, 400, 128
-0.984434, 321, 49, 448, 176
-0.984508, 289, 73, 352, 136
-0.984515, 241, 97, 304, 160
-0.984517, 453, 257, 484, 320
-0.984577, 273, 17, 400, 80
-0.98467, 193, 57, 224, 120
-0.984911, 289, 49, 320, 112
-0.984995, 217, 57, 248, 120
-0.985089, 237, 73, 268, 136
-0.985106, 249, 1, 280, 128
-0.985146, 49, 1, 112, 256
-0.985151, 329, 73, 392, 136
-0.985165, 245, 1, 276, 64
-0.98524, 373, 1, 404, 64
-0.985388, 277, 1, 308, 128
-0.985417, 289, 161, 352, 288
-0.985474, 465, 257, 496, 320
-0.985488, 345, 1, 408, 256
-0.985529, 49, 73, 112, 136
-0.985559, 249, 1, 312, 64
-0.985575, 265, 1, 296, 64
-0.985668, 353, 241, 416, 304
-0.985739, 353, 161, 416, 288
-0.985797, 17, 33, 80, 96
-0.985886, 1, 1, 128, 64
-0.98593, 73, 113, 136, 240
-0.985957, 121, 1, 184, 256
-0.98611, 385, 121, 448, 184
-0.986192, 241, 177, 304, 304
-0.986221, 17, 65, 80, 128
-0.986242, 1, 25, 128, 88
-0.986382, 369, 1, 400, 128
-0.986383, 145, 193, 272, 320
-0.986405, 49, 65, 176, 128
-0.986468, 345, 25, 408, 88
-0.986512, 237, 49, 268, 112
-0.986535, 177, 9, 304, 72
-0.986541, 97, 49, 224, 112
-0.986734, 337, 9, 464, 72
-0.986736, 433, 249, 464, 312
-0.986757, 185, 105, 248, 168
-0.986808, 305, 41, 432, 104
-0.986833, 437, 273, 468, 333
-0.986875, 221, 1, 252, 128
-0.986879, 353, 217, 416, 280
-0.98691, 449, 233, 480, 296
-0.986936, 377, 249, 440, 312
-0.98696, 389, 217, 420, 280
-0.986998, 385, 1, 416, 64
-0.987055, 413, 225, 444, 288
-0.987094, 253, 25, 284, 88
-0.987165, 457, 193, 488, 320
-0.987179, 257, 73, 320, 136
-0.98718, 321, 81, 448, 144
-0.987238, 421, 193, 452, 320
-0.987344, 161, 1, 224, 256
-0.987368, 401, 265, 464, 328
-0.987517, 277, 25, 308, 88
-0.987522, 81, 25, 208, 88
-0.987526, 97, 1, 160, 256
-0.987557, 189, 33, 220, 160
-0.987567, 225, 1, 256, 64
-0.987594, 313, 1, 376, 333
-0.987646, 17, 201, 80, 264
-0.987675, 49, 49, 112, 112
-0.987684, 41, 113, 104, 240
-0.987702, 113, 73, 240, 136
-0.987708, 225, 209, 352, 333
-0.987734, 257, 89, 384, 152
-0.987945, 225, 1, 352, 64
-0.98795, 441, 193, 472, 320
-0.987955, 89, 177, 152, 304
-0.988013, 161, 1, 224, 333
-0.988033, 121, 57, 184, 120
-0.988057, 1, 65, 128, 128
-0.988064, 353, 49, 416, 112
-0.988066, 353, 241, 480, 304
-0.988076, 369, 121, 496, 184
-0.988207, 281, 97, 344, 224
-0.988293, 41, 241, 104, 304
-0.988357, 9, 33, 72, 288
-0.988407, 25, 177, 88, 240
-0.98842, 233, 33, 264, 160
-0.988459, 425, 81, 488, 208
-0.988461, 281, 1, 344, 333
-0.988536, 129, 25, 192, 88
-0.988561, 425, 177, 488, 240
-0.988568, 1, 1, 64, 64
-0.988629, 161, 113, 224, 240
-0.988667, 49, 113, 112, 176
-0.988803, 57, 217, 120, 280
-0.988814, 217, 1, 280, 333
-0.988965, 305, 217, 432, 280
-0.988972, 185, 33, 248, 96
-0.989007, 153, 97, 216, 160
-0.98905, 369, 273, 496, 333
-0.989096, 369, 1, 432, 64
-0.989147, 121, 1, 184, 333
-0.989217, 165, 1, 196, 128
-0.989317, 297, 97, 360, 160
-0.989353, 425, 105, 488, 168
-0.989367, 9, 1, 72, 333
-0.989371, 385, 65, 448, 128
-0.989373, 117, 1, 148, 128
-0.989373, 169, 61, 232, 92
-0.989376, 249, 1, 312, 333
-0.989391, 121, 65, 152, 128
-0.989396, 113, 105, 176, 168
-0.989511, 433, 209, 464, 272
-0.989555, 201, 49, 232, 176
-0.989597, 265, 1, 296, 128
-0.989729, 353, 41, 480, 104
-0.98973, 161, 105, 288, 168
-0.989747, 209, 105, 336, 168
-0.989747, 1, 225, 128, 288
-0.989768, 209, 65, 272, 96
-0.989785, 65, 121, 192, 184
-0.989806, 369, 65, 496, 128
-0.989822, 317, 57, 348, 120
-0.989836, 401, 241, 432, 304
-0.989839, 321, 49, 352, 176
-0.989842, 417, 153, 480, 216
-0.989863, 49, 209, 176, 272
-0.989867, 73, 121, 136, 184
-0.98991, 353, 105, 416, 168
-0.989913, 89, 97, 152, 160
-0.990028, 129, 129, 256, 256
-0.990031, 217, 209, 280, 272
-0.990044, 321, 273, 448, 333
-0.990048, 361, 113, 424, 240
-0.990061, 145, 1, 176, 128
-0.990062, 33, 209, 96, 333
-0.990072, 377, 201, 440, 264
-0.990093, 185, 1, 248, 333
-0.990096, 277, 49, 308, 176
-0.990174, 249, 73, 280, 136
-0.990236, 333, 41, 364, 104
-0.990243, 217, 65, 248, 192
-0.990267, 265, 25, 296, 88
-0.990304, 345, 209, 408, 333
-0.99042, 97, 33, 160, 96
-0.990483, 49, 177, 176, 304
-0.990491, 145, 209, 208, 272
-0.990508, 93, 49, 124, 176
-0.990554, 161, 193, 224, 320
-0.990564, 409, 81, 472, 144
-0.990575, 321, 113, 448, 176
-0.990596, 209, 81, 272, 112
-0.990613, 177, 65, 208, 128
-0.990623, 129, 25, 256, 88
-0.990648, 385, 221, 448, 252
-0.990687, 65, 233, 192, 296
-0.990698, 433, 1, 496, 256
-0.990704, 209, 53, 272, 84
-0.990738, 17, 249, 144, 312
-0.990764, 325, 1, 356, 128
-0.99079, 305, 249, 432, 312
-0.990848, 65, 65, 96, 192
-0.990857, 469, 233, 500, 296
-0.990858, 289, 1, 320, 128
-0.990882, 241, 1, 304, 32
-0.990894, 97, 97, 224, 160
-0.99091, 249, 53, 312, 84
-0.990917, 73, 33, 136, 96
-0.990947, 401, 233, 464, 264
-0.990955, 105, 1, 136, 128
-0.99098, 405, 209, 436, 333
-0.991, 225, 25, 256, 88
-0.991013, 273, 225, 336, 288
-0.991038, 417, 1, 480, 64
-0.991038, 313, 1, 344, 128
-0.991087, 369, 193, 496, 256
-0.99114, 377, 237, 440, 268
-0.991171, 313, 265, 376, 328
-0.991179, 301, 49, 332, 112
-0.991195, 1, 169, 128, 232
-0.991239, 385, 41, 448, 104
-0.991239, 1, 177, 64, 240
-0.991248, 369, 1, 432, 333
-0.991263, 113, 177, 176, 304
-0.991265, 73, 1, 136, 256
-0.991295, 249, 233, 312, 296
-0.99131, 321, 1, 384, 32
-0.991316, 105, 129, 168, 192
-0.991323, 121, 233, 184, 296
-0.991325, 433, 245, 496, 276
-0.991328, 241, 113, 304, 240
-0.991333, 353, 1, 416, 32
-0.991337, 205, 49, 236, 112
-0.991363, 425, 33, 488, 96
-0.99138, 445, 185, 476, 248
-0.991408, 97, 193, 224, 320
-0.991409, 265, 97, 328, 160
-0.991411, 169, 77, 232, 108
-0.991414, 329, 13, 392, 44
-0.991419, 137, 97, 200, 224
-0.991442, 217, 101, 280, 132
-0.991476, 241, 69, 304, 100
-0.99148, 241, 41, 304, 72
-0.99148, 453, 33, 484, 160
-0.991487, 425, 213, 488, 244
-0.991498, 137, 69, 200, 100
-0.991508, 289, 57, 352, 88
-0.991512, 353, 145, 480, 208
-0.991547, 301, 49, 332, 176
-0.991557, 389, 209, 420, 333
-0.99156, 401, 245, 464, 276
-0.991566, 17, 1, 48, 128
-0.99157, 177, 93, 240, 124
-0.991576, 241, 105, 304, 136
-0.991576, 1, 249, 64, 312
-0.991583, 377, 1, 440, 256
-0.991592, 305, 193, 432, 256
-0.991628, 353, 193, 416, 256
-0.991648, 361, 77, 424, 108
-0.991679, 113, 233, 240, 296
-0.991688, 33, 73, 96, 104
-0.991717, 177, 1, 208, 128
-0.991734, 297, 241, 360, 304
-0.991753, 381, 81, 412, 144
-0.991767, 381, 241, 412, 304
-0.991779, 185, 1, 248, 256
-0.991783, 337, 1, 400, 333
-0.991796, 93, 1, 124, 128
-0.991812, 241, 13, 304, 44
-0.99182, 193, 105, 256, 136
-0.991826, 361, 221, 424, 252
-0.991827, 209, 233, 272, 296
-0.991831, 281, 101, 344, 132
-0.991835, 241, 29, 304, 60
-0.991844, 217, 21, 280, 52
-0.991844, 81, 69, 144, 100
-0.991854, 433, 265, 496, 296
-0.991859, 201, 41, 264, 72
-0.991864, 169, 49, 232, 80
-0.991895, 433, 189, 496, 220
-0.991903, 393, 1, 456, 333
-0.991915, 41, 1, 104, 333
-0.991916, 353, 237, 416, 268
-0.991919, 305, 13, 368, 44
-0.991927, 17, 97, 144, 160
-0.991928, 401, 209, 464, 240
-0.991971, 145, 49, 176, 176
-0.991992, 281, 1, 344, 32
-0.992005, 1, 121, 128, 184
-0.992009, 49, 61, 112, 92
-0.992016, 109, 65, 140, 128
-0.992033, 137, 57, 200, 88
-0.992047, 321, 81, 384, 112
-0.992053, 377, 49, 408, 176
-0.992085, 233, 85, 296, 116
-0.992085, 301, 1, 332, 128
-0.992109, 409, 257, 472, 288
-0.992111, 425, 233, 488, 264
-0.992111, 369, 81, 400, 144
-0.992118, 401, 125, 464, 156
-0.992136, 297, 113, 360, 144
-0.992138, 265, 209, 328, 333
-0.99215, 421, 249, 452, 312
-0.992169, 289, 77, 352, 108
-0.992218, 129, 81, 160, 208
-0.992231, 409, 1, 472, 256
-0.992234, 433, 57, 496, 120
-0.992242, 353, 13, 416, 44
-0.992247, 329, 41, 392, 72
-0.992247, 13, 177, 44, 304
-0.992275, 81, 49, 112, 176
-0.992284, 49, 185, 112, 248
-0.992287, 361, 33, 392, 96
-0.992292, 185, 237, 248, 268
-0.9923, 57, 81, 120, 112
-0.99231, 1, 189, 64, 220
-0.992318, 1, 145, 128, 208
-0.992363, 393, 109, 456, 140
-0.992369, 109, 49, 140, 176
-0.992395, 409, 57, 472, 120
-0.992426, 113, 1, 240, 64
-0.992434, 201, 1, 264, 32
-0.992448, 57, 1, 120, 64
-0.992458, 145, 93, 208, 124
-0.992461, 25, 181, 88, 212
-0.992465, 17, 225, 80, 256
-0.992465, 321, 97, 384, 128
-0.992483, 113, 65, 176, 96
-0.992485, 385, 1, 448, 128
-0.992488, 385, 69, 448, 100
-0.99249, 369, 89, 496, 152
-0.9925, 241, 117, 304, 148
-0.992501, 225, 57, 480, 120
-0.992516, 353, 109, 416, 140
-0.992516, 261, 89, 292, 152
-0.992516, 9, 69, 72, 100
-0.992536, 49, 1, 176, 64
-0.992554, 433, 201, 496, 232
-0.992554, 417, 285, 480, 316
-0.992559, 345, 25, 408, 56
-0.992562, 17, 121, 80, 184
-0.992565, 113, 237, 176, 268
-0.992566, 353, 153, 416, 216
-0.992582, 169, 105, 232, 136
-0.992583, 17, 237, 80, 268
-0.992583, 265, 49, 296, 112
-0.992586, 429, 113, 460, 176
-0.992602, 241, 25, 272, 88
-0.992609, 273, 229, 336, 260
-0.992611, 165, 49, 196, 176
-0.992612, 453, 209, 484, 272
-0.992622, 289, 169, 416, 232
-0.992626, 329, 65, 392, 96
-0.992633, 321, 113, 384, 144
-0.992634, 281, 177, 344, 240
-0.99264, 401, 161, 432, 288
-0.99264, 161, 233, 288, 296
-0.992641, 369, 33, 432, 64
-0.992646, 469, 113, 500, 176
-0.992662, 405, 33, 436, 160
-0.992665, 1, 17, 64, 48
-0.99267, 409, 193, 472, 224
-0.992673, 273, 89, 336, 120
-0.992683, 201, 233, 232, 296
-0.992684, 425, 113, 488, 144
-0.992694, 81, 113, 144, 144
-0.992698, 73, 1, 136, 333
-0.992731, 389, 65, 420, 192
-0.992742, 321, 209, 384, 333
-0.992742, 57, 117, 120, 148
-0.992752, 289, 41, 352, 72
-0.992757, 329, 293, 392, 324
-0.992773, 417, 153, 480, 184
-0.992777, 17, 129, 80, 256
-0.99278, 229, 81, 260, 208
-0.992791, 377, 249, 440, 280
-0.992797, 281, 17, 344, 48
-0.992803, 469, 33, 500, 160
-0.992812, 213, 69, 244, 100
-0.992812, 217, 113, 280, 144
-0.992812, 209, 85, 240, 116
-0.992818, 53, 65, 84, 192
-0.992819, 153, 121, 216, 184
-0.992819, 217, 121, 280, 184
-0.992822, 361, 65, 424, 96
-0.992833, 193, 117, 256, 148
-0.992845, 425, 177, 488, 208
-0.992849, 433, 297, 496, 328
-0.992857, 361, 65, 392, 192
-0.992863, 113, 201, 240, 264
-0.992866, 81, 1, 144, 64
-0.99287, 81, 125, 144, 156
-0.992874, 413, 225, 444, 256
-0.992892, 233, 1, 264, 32
-0.992893, 273, 113, 336, 144
-0.992913, 149, 65, 180, 128
-0.992915, 5, 33, 36, 96
-0.992921, 313, 161, 376, 288
-0.992923, 437, 245, 468, 276
-0.992934, 321, 25, 384, 56
-0.992937, 225, 85, 256, 116
-0.992945, 297, 229, 360, 260
-0.99295, 245, 1, 276, 32
-0.992955, 33, 1, 96, 64
-0.992956, 253, 49, 284, 80
-0.992964, 453, 261, 484, 292
-0.992965, 273, 45, 304, 76
-0.992972, 393, 237, 424, 268
-0.992973, 329, 209, 392, 272
-0.992976, 57, 237, 120, 268
-0.992978, 329, 233, 392, 264
-0.992988, 393, 89, 456, 120
-0.992992, 209, 229, 272, 260
-0.992999, 1, 209, 64, 240
-0.993, 177, 49, 208, 176
-0.993, 409, 69, 472, 100
-0.993, 385, 225, 416, 256
-0.993007, 393, 285, 456, 316
-0.993011, 265, 1, 296, 32
-0.993015, 193, 21, 256, 52
-0.993015, 33, 109, 96, 140
-0.993017, 193, 193, 256, 320
-0.993017, 369, 89, 432, 120
-0.993018, 409, 241, 440, 272
-0.99302, 353, 209, 416, 240
-0.993021, 197, 57, 228, 88
-0.993022, 429, 233, 460, 264
-0.993027, 441, 205, 472, 236
-0.993029, 281, 177, 344, 208
-0.993034, 369, 1, 400, 32
-0.99304, 81, 1, 112, 128
-0.993041, 377, 121, 440, 152
-0.993046, 365, 13, 396, 44
-0.993048, 425, 125, 488, 156
-0.993051, 113, 161, 176, 224
-0.993056, 377, 1, 440, 32
-0.99306, 153, 225, 216, 256
-0.993061, 241, 13, 272, 44
-0.993064, 25, 169, 88, 200
-0.993067, 373, 237, 404, 268
-0.993068, 325, 9, 356, 40
-0.993073, 401, 225, 432, 256
-0.993074, 97, 253, 160, 284
-0.993075, 177, 57, 208, 88
-0.993081, 385, 169, 448, 232
-0.993095, 469, 153, 500, 216
-0.993103, 409, 297, 472, 328
-0.993105, 161, 241, 224, 272
-0.993108, 441, 265, 472, 296
-0.993108, 433, 65, 496, 96
-0.993109, 37, 81, 68, 208
-0.993114, 1, 33, 64, 64
-0.993116, 449, 249, 480, 280
-0.993119, 145, 81, 208, 112
-0.993127, 1, 57, 64, 88
-0.993132, 321, 101, 352, 132
-0.993135, 409, 273, 472, 304
-0.993135, 41, 225, 72, 288
-0.993138, 197, 77, 228, 108
-0.993142, 201, 233, 232, 264
-0.99315, 225, 97, 256, 128
-0.993154, 121, 137, 184, 168
-0.993157, 321, 53, 384, 84
-0.993159, 449, 233, 480, 264
-0.99316, 273, 217, 336, 248
-0.993163, 161, 117, 224, 148
-0.993165, 189, 237, 220, 268
-0.993168, 209, 1, 240, 128
-0.993168, 249, 233, 312, 264
-0.993169, 453, 217, 484, 248
-0.99317, 445, 189, 476, 220
-0.99317, 381, 1, 412, 32
-0.993174, 365, 73, 396, 104
-0.99318, 25, 125, 88, 156
-0.99318, 281, 29, 344, 60
-0.993183, 305, 57, 336, 88
-0.993184, 377, 73, 408, 104
-0.993193, 133, 65, 164, 128
-0.993199, 349, 17, 380, 48
-0.993199, 233, 61, 264, 92
-0.993201, 233, 73, 264, 104
-0.993205, 353, 297, 416, 328
-0.993205, 185, 201, 248, 264
-0.993207, 289, 53, 320, 84
-0.993209, 237, 85, 268, 116
-0.993214, 157, 53, 188, 84
-0.993226, 425, 253, 456, 284
-0.993228, 409, 117, 440, 148
-0.993229, 137, 105, 200, 136
-0.993229, 25, 57, 88, 88
-0.993244, 229, 13, 260, 44
-0.993247, 345, 293, 376, 324
-0.993247, 325, 69, 356, 100
-0.99325, 265, 13, 296, 44
-0.993253, 205, 101, 236, 132
-0.993253, 265, 101, 296, 132
-0.993256, 269, 33, 300, 64
-0.993262, 57, 77, 88, 108
-0.993264, 245, 29, 276, 60
-0.993265, 429, 113, 460, 144
-0.993269, 209, 185, 336, 248
-0.99327, 253, 13, 284, 44
-0.993271, 309, 105, 340, 136
-0.993284, 25, 49, 56, 176
-0.993285, 457, 189, 488, 220
-0.993286, 329, 113, 360, 144
-0.993287, 329, 297, 360, 328
-0.99329, 377, 25, 408, 56
-0.993297, 129, 1, 160, 128
-0.993297, 433, 217, 464, 248
-0.993302, 161, 69, 192, 100
-0.993304, 253, 97, 284, 128
-0.993306, 469, 193, 500, 224
-0.993312, 425, 125, 456, 156
-0.993313, 461, 245, 492, 276
-0.993318, 77, 77, 108, 108
-0.993318, 5, 33, 36, 160
-0.99332, 249, 61, 280, 92
-0.993325, 189, 93, 220, 124
-0.993327, 421, 273, 452, 304
-0.993335, 249, 77, 280, 108
-0.993336, 469, 153, 500, 184
-0.993337, 109, 33, 140, 96
-0.993344, 257, 37, 288, 68
-0.993348, 37, 161, 68, 288
-0.99335, 241, 273, 368, 333
-0.99335, 245, 49, 276, 176
-0.993351, 53, 225, 84, 288
-0.993351, 257, 25, 288, 56
-0.993354, 353, 1, 384, 32
-0.993354, 373, 61, 404, 92
-0.993358, 177, 97, 208, 128
-0.993359, 421, 213, 452, 244
-0.993366, 133, 229, 164, 260
-0.993374, 333, 49, 364, 80
-0.993375, 45, 77, 76, 108
-0.993386, 97, 69, 128, 100
-0.993392, 229, 49, 260, 80
-0.993393, 45, 17, 76, 144
-0.993394, 217, 109, 248, 140
-0.993403, 189, 105, 220, 136
-0.993405, 217, 1, 248, 32
-0.993406, 337, 13, 368, 44
-0.993408, 377, 85, 408, 116
-0.99341, 461, 229, 492, 260
-0.99341, 133, 65, 164, 96
-0.993416, 305, 77, 336, 108
-0.993418, 345, 29, 376, 60
-0.993418, 353, 73, 384, 104
-0.993419, 121, 65, 152, 96
-0.99342, 97, 161, 224, 224
-0.993421, 1, 189, 32, 220
-0.993422, 241, 41, 272, 72
-0.993423, 369, 169, 496, 232
-0.993429, 361, 33, 392, 64
-0.993429, 465, 261, 496, 292
-0.993442, 205, 221, 236, 252
-0.993446, 269, 229, 300, 260
-0.993447, 173, 69, 204, 100
-0.993451, 453, 65, 484, 96
-0.993455, 437, 277, 468, 308
-0.99346, 37, 181, 68, 212
-0.993463, 217, 57, 248, 88
-0.993467, 277, 5, 308, 36
-0.99347, 33, 169, 64, 200
-0.993472, 245, 109, 276, 140
-0.993472, 329, 81, 360, 112
-0.993474, 469, 141, 500, 172
-0.993478, 145, 61, 176, 92
-0.993478, 453, 173, 484, 204
-0.993478, 45, 229, 76, 260
-0.993479, 141, 141, 172, 172
-0.993479, 409, 105, 440, 136
-0.99348, 177, 85, 208, 116
-0.993485, 405, 97, 436, 160
-0.993489, 437, 125, 468, 156
-0.993492, 277, 113, 308, 144
-0.993492, 77, 65, 108, 96
-0.993493, 341, 113, 372, 144
-0.993494, 361, 229, 392, 260
-0.993497, 129, 137, 256, 200
-0.993498, 21, 181, 52, 212
-0.993508, 433, 181, 464, 212
-0.993509, 185, 225, 216, 256
-0.993514, 389, 81, 420, 112
-0.99352, 73, 117, 104, 148
-0.993521, 309, 93, 340, 124
-0.993523, 61, 65, 92, 96
-0.99354, 349, 49, 380, 176
-0.993548, 169, 1, 232, 64
-0.993651, 273, 249, 336, 312
-0.993666, 217, 113, 280, 240
-0.993746, 349, 81, 380, 144
-0.993758, 197, 25, 228, 88
-0.993829, 121, 129, 152, 256
-0.993837, 469, 193, 500, 320
-0.993846, 189, 233, 220, 296
-0.993861, 337, 81, 368, 208
-0.993875, 5, 1, 36, 64
-0.993891, 377, 273, 440, 333
-0.993923, 17, 153, 80, 216
-0.993923, 89, 185, 152, 248
-0.993966, 25, 89, 88, 152
-0.993972, 113, 1, 176, 64
-0.993995, 213, 97, 244, 160
-0.993998, 97, 1, 160, 333
-0.994002, 1, 177, 32, 304
-0.994025, 469, 145, 500, 272
-0.994052, 433, 1, 496, 333
-0.994076, 61, 1, 92, 128
-0.994081, 401, 97, 432, 224
-0.994083, 321, 129, 384, 192
-0.994089, 193, 53, 320, 84
-0.994133, 273, 121, 400, 184
-0.99414, 225, 9, 480, 72
-0.994158, 241, 121, 304, 184
-0.99416, 273, 73, 304, 136
-0.994179, 337, 97, 400, 224
-0.994227, 241, 97, 272, 160
-0.994264, 241, 233, 368, 296
-0.994272, 305, 169, 368, 232
-0.994294, 161, 241, 224, 304
-0.99433, 29, 33, 60, 96
-0.994366, 65, 65, 320, 128
-0.994419, 341, 9, 372, 72
-0.994421, 377, 217, 408, 280
-0.99443, 1, 201, 128, 264
-0.994432, 93, 65, 124, 128
-0.994461, 137, 145, 200, 272
-0.994471, 177, 33, 208, 96
-0.994493, 421, 273, 452, 333
-0.994496, 385, 41, 416, 104
-0.994517, 289, 73, 320, 136
-0.994565, 137, 1, 200, 64
-0.994574, 325, 9, 356, 72
-0.994602, 429, 137, 460, 200
-0.994673, 73, 113, 104, 240
-0.994693, 193, 69, 320, 100
-0.994701, 353, 273, 416, 333
-0.994737, 161, 65, 192, 128
-0.994754, 241, 193, 304, 256
-0.994798, 1, 33, 256, 96
-0.994802, 49, 25, 112, 88
-0.994819, 281, 273, 344, 333
-0.994835, 469, 97, 500, 224
-0.994847, 241, 53, 368, 84
-0.994877, 225, 33, 480, 96
-0.994905, 433, 81, 496, 144
-0.994997, 65, 185, 192, 248
-0.994999, 193, 81, 448, 144
-0.995, 205, 209, 236, 272
-0.995026, 121, 25, 152, 88
-0.995029, 381, 1, 412, 128
-0.995031, 129, 41, 384, 104
-0.995031, 33, 65, 64, 128
-0.99507, 243, 1, 258, 64
-0.995084, 161, 25, 192, 88
-0.995097, 49, 145, 176, 208
-0.99512, 445, 113, 476, 176
-0.995149, 421, 201, 452, 264
-0.995168, 251, 9, 266, 72
-0.995175, 437, 113, 468, 240
-0.99519, 361, 129, 424, 192
-0.995219, 217, 177, 280, 304
-0.995257, 229, 81, 244, 144
-0.995282, 97, 249, 128, 312
-0.995286, 73, 161, 136, 224
-0.995286, 249, 257, 312, 320
-0.995287, 285, 1, 316, 64
-0.995308, 321, 97, 384, 160
-0.99536, 209, 209, 336, 272
-0.995383, 161, 193, 288, 256
-0.995385, 17, 201, 48, 264
-0.99539, 333, 81, 364, 144
-0.995433, 225, 81, 352, 112
-0.995437, 273, 201, 336, 264
-0.995438, 289, 145, 416, 208
-0.99546, 137, 25, 168, 88
-0.995464, 201, 97, 232, 160
-0.995474, 465, 201, 496, 264
-0.995498, 449, 81, 480, 208
-0.995534, 109, 161, 140, 288
-0.995559, 21, 65, 52, 128
-0.995567, 177, 85, 304, 116
-0.995569, 257, 217, 500, 280
-0.995572, 321, 81, 352, 144
-0.995598, 369, 57, 400, 120
-0.995624, 193, 161, 320, 224
-0.995634, 457, 145, 488, 272
-0.995651, 45, 73, 76, 136
-0.995654, 145, 65, 272, 96
-0.995684, 97, 1, 128, 64
-0.995772, 97, 225, 160, 288
-0.995788, 417, 33, 448, 160
-0.995813, 405, 217, 420, 280
-0.995815, 257, 241, 500, 304
-0.995823, 417, 121, 448, 184
-0.995848, 105, 113, 136, 240
-0.99585, 277, 1, 292, 64
-0.995913, 235, 81, 250, 144
-0.995918, 243, 49, 258, 112
-0.995927, 237, 1, 252, 64
-0.995928, 1, 81, 500, 144
-0.995951, 1, 49, 500, 112
-0.995964, 301, 161, 332, 288
-0.995968, 185, 113, 248, 240
-0.995974, 393, 81, 424, 144
-0.995975, 329, 161, 392, 224
-0.995978, 257, 105, 500, 168
-0.995986, 433, 185, 464, 248
-0.995998, 137, 193, 200, 320
-0.996005, 185, 97, 216, 160
-0.996005, 225, 105, 256, 168
-0.996026, 41, 249, 72, 312
-0.996051, 221, 73, 236, 136
-0.996065, 81, 65, 112, 128
-0.996067, 117, 1, 148, 64
-0.996069, 241, 65, 368, 96
-0.996086, 297, 217, 360, 280
-0.996158, 457, 113, 488, 176
-0.996164, 409, 273, 440, 333
-0.996173, 391, 1, 406, 64
-0.996187, 17, 33, 48, 96
-0.996227, 277, 105, 308, 168
-0.996243, 393, 17, 424, 144
-0.996256, 367, 1, 382, 64
-0.996268, 33, 89, 288, 152
-0.996284, 321, 113, 352, 240
-0.996287, 217, 233, 248, 296
-0.996292, 25, 177, 56, 304
-0.996294, 113, 53, 240, 84
-0.996311, 65, 73, 96, 136
-0.996339, 433, 33, 464, 160
-0.99634, 41, 201, 72, 264
-0.996343, 121, 81, 184, 144
-0.996347, 137, 233, 168, 296
-0.99635, 145, 161, 272, 224
-0.99636, 255, 49, 270, 112
-0.996407, 453, 33, 484, 96
-0.996407, 417, 97, 448, 160
-0.996408, 141, 97, 172, 224
-0.996438, 349, 49, 380, 112
-0.996442, 289, 209, 320, 333
-0.996446, 305, 81, 432, 112
-0.996464, 289, 49, 304, 112
-0.996477, 169, 193, 200, 320
-0.996481, 305, 73, 336, 136
-0.996491, 249, 81, 264, 144
-0.996509, 215, 65, 230, 128
-0.996532, 1, 225, 500, 288
-0.996533, 241, 145, 368, 208
-0.996576, 331, 57, 346, 120
-0.996577, 93, 97, 124, 160
-0.996583, 57, 129, 88, 256
-0.996595, 193, 41, 320, 72
-0.996595, 353, 241, 480, 272
-0.996604, 421, 145, 452, 272
-0.996618, 29, 209, 60, 272
-0.99662, 399, 217, 414, 280
-0.996622, 213, 1, 244, 64
-0.996626, 237, 57, 252, 120
-0.996639, 57, 49, 88, 112
-0.996652, 265, 161, 328, 288
-0.996653, 117, 225, 148, 288
-0.996665, 289, 161, 320, 288
-0.99667, 441, 249, 456, 312
-0.996679, 349, 1, 380, 256
-0.99668, 461, 177, 492, 240
-0.996681, 245, 25, 260, 88
-0.996688, 451, 273, 466, 333
-0.996695, 225, 105, 352, 136
-0.996709, 449, 89, 480, 152
-0.996719, 243, 81, 258, 144
-0.996759, 325, 57, 340, 120
-0.996767, 365, 209, 396, 333
-0.996775, 339, 9, 354, 72
-0.996793, 177, 97, 304, 128
-0.996805, 41, 209, 72, 333
-0.996809, 281, 25, 296, 88
-0.996832, 345, 17, 360, 80
-0.996847, 295, 49, 310, 112
-0.996866, 161, 265, 288, 328
-0.996886, 267, 1, 282, 64
-0.9969, 129, 97, 160, 160
-0.996917, 25, 113, 56, 240
-0.996919, 385, 1, 400, 64
-0.99694, 223, 49, 238, 112
-0.996946, 385, 161, 416, 288
-0.996962, 145, 121, 176, 184
-0.996968, 273, 5, 400, 36
-0.996975, 457, 241, 472, 304
-0.996979, 129, 77, 256, 108
-0.996985, 229, 57, 244, 120
-0.996998, 209, 1, 336, 32
-0.997009, 273, 49, 288, 112
-0.997029, 387, 225, 402, 288
-0.997037, 465, 265, 480, 328
-0.997041, 109, 129, 140, 192
-0.997044, 393, 225, 408, 288
-0.997051, 411, 209, 426, 272
-0.997064, 249, 57, 264, 120
-0.997067, 353, 253, 480, 284
-0.997092, 451, 233, 466, 296
-0.997104, 377, 209, 408, 333
-0.997107, 465, 225, 480, 288
-0.997111, 385, 193, 416, 256
-0.997118, 93, 33, 124, 96
-0.997119, 257, 25, 272, 88
-0.99713, 125, 73, 140, 136
-0.997134, 405, 33, 436, 96
-0.997141, 289, 97, 320, 224
-0.99715, 209, 65, 224, 128
-0.997158, 257, 1, 272, 64
-0.997159, 369, 1, 496, 32
-0.997179, 129, 1, 384, 64
-0.997225, 41, 41, 72, 104
-0.997227, 109, 249, 140, 312
-0.997228, 257, 273, 500, 333
-0.997235, 133, 145, 164, 272
-0.997246, 333, 17, 348, 80
-0.997248, 215, 89, 230, 152
-0.997261, 49, 65, 176, 96
-0.997261, 369, 221, 496, 252
-0.997285, 241, 37, 368, 68
-0.997295, 41, 161, 104, 288
-0.997312, 49, 233, 176, 264
-0.997317, 231, 1, 246, 64
-0.997324, 241, 25, 368, 56
-0.997333, 1, 1, 16, 64
-0.997351, 263, 25, 278, 88
-0.997352, 463, 193, 478, 256
-0.997365, 173, 49, 188, 112
-0.997375, 483, 153, 498, 216
-0.997375, 7, 1, 22, 64
-0.997382, 1, 233, 256, 296
-0.997406, 457, 209, 472, 272
-0.997414, 303, 49, 318, 112
-0.997415, 55, 225, 70, 288
-0.997448, 265, 1, 296, 256
-0.997459, 457, 273, 472, 333
-0.997466, 63, 225, 78, 288
-0.997468, 297, 1, 328, 256
-0.997475, 451, 201, 466, 264
-0.997477, 289, 69, 416, 100
-0.997487, 305, 97, 432, 128
-0.997487, 17, 273, 144, 333
-0.997497, 17, 77, 144, 108
-0.997501, 419, 225, 434, 288
-0.997513, 333, 1, 348, 32
-0.997514, 441, 225, 456, 288
-0.997533, 1, 201, 256, 264
-0.997535, 115, 57, 130, 120
-0.997537, 9, 33, 24, 96
-0.997539, 183, 49, 198, 112
-0.997541, 281, 49, 296, 112
-0.997553, 447, 177, 462, 240
-0.997556, 261, 49, 292, 176
-0.997568, 445, 273, 460, 333
-0.997569, 457, 185, 472, 248
-0.997576, 237, 33, 252, 96
-0.997578, 289, 49, 416, 80
-0.997579, 355, 41, 370, 104
-0.99758, 337, 117, 464, 148
-0.99758, 267, 49, 282, 112
-0.99759, 359, 17, 374, 80
-0.997597, 273, 89, 288, 152
-0.997599, 159, 57, 174, 120
-0.997605, 229, 1, 260, 256
-0.997609, 235, 1, 250, 32
-0.997615, 351, 17, 366, 80
-0.997615, 281, 81, 296, 144
-0.997624, 305, 233, 432, 264
-0.997627, 49, 65, 64, 128
-0.997628, 257, 169, 500, 232
-0.997633, 381, 65, 396, 128
-0.997648, 429, 217, 444, 280
-0.997648, 225, 93, 352, 124
-0.997652, 245, 1, 260, 32
-0.997656, 81, 101, 208, 132
-0.997672, 111, 25, 126, 88
-0.997676, 229, 81, 244, 112
-0.997684, 427, 249, 442, 312
-0.997687, 305, 301, 432, 332
-0.997687, 475, 249, 490, 312
-0.9977, 277, 33, 308, 288
-0.997703, 129, 105, 384, 168
-0.997707, 361, 1, 392, 256
-0.99771, 257, 117, 384, 148
-0.997713, 337, 161, 464, 192
-0.997714, 319, 57, 334, 120
-0.997733, 277, 177, 308, 304
-0.997738, 435, 209, 450, 272
-0.997748, 177, 109, 304, 140
-0.997749, 423, 273, 438, 333
-0.997749, 203, 233, 218, 296
-0.997768, 1, 17, 128, 48
-0.997771, 195, 49, 210, 112
-0.997782, 153, 65, 168, 128
-0.99779, 29, 1, 60, 128
-0.997792, 209, 225, 224, 288
-0.997792, 81, 257, 208, 320
-0.997792, 17, 117, 144, 148
-0.997796, 1, 37, 128, 68
-0.997798, 129, 97, 256, 128
-0.99781, 217, 69, 232, 100
-0.997812, 189, 65, 204, 128
-0.997814, 217, 89, 232, 120
-0.997814, 433, 249, 448, 312
-0.997832, 145, 41, 272, 72
-0.997833, 413, 233, 428, 296
-0.997853, 321, 5, 448, 36
-0.997861, 97, 65, 224, 96
-0.997863, 377, 1, 392, 64
-0.99787, 485, 233, 500, 296
-0.997876, 1, 9, 256, 72
-0.997887, 437, 273, 452, 333
-0.997891, 247, 13, 262, 44
-0.997896, 289, 9, 304, 72
-0.9979, 381, 225, 396, 288
-0.997905, 117, 25, 132, 88
-0.997906, 33, 33, 48, 96
-0.997908, 353, 297, 480, 328
-0.997919, 439, 113, 454, 176
-0.997921, 369, 145, 496, 176
-0.997926, 289, 17, 416, 48
-0.997927, 209, 13, 336, 44
-0.997934, 203, 57, 218, 120
-0.997938, 383, 1, 398, 32
-0.997943, 1, 121, 256, 184
-0.997948, 1, 185, 128, 216
-0.997948, 177, 129, 304, 192
-0.997948, 369, 181, 496, 212
-0.997949, 37, 65, 52, 128
-0.997952, 485, 265, 500, 328
-0.997965, 215, 41, 230, 104
-0.997972, 169, 25, 184, 88
-0.997976, 465, 169, 480, 232
-0.997979, 473, 225, 488, 288
-0.997983, 161, 5, 288, 36
-0.997989, 141, 65, 156, 128
-0.99799, 367, 1, 382, 32
-0.997992, 431, 129, 446, 192
-0.997999, 373, 1, 388, 32
-0.998001, 397, 81, 412, 144
-0.998002, 1, 173, 128, 204
-0.998002, 337, 1, 368, 256
-0.998017, 387, 249, 402, 312
-0.998022, 221, 97, 236, 160
-0.998026, 445, 201, 460, 264
-0.998036, 405, 221, 420, 252
-0.998038, 1, 105, 500, 168
-0.998043, 133, 57, 148, 120
-0.998048, 241, 21, 256, 52
-0.998056, 117, 1, 132, 64
-0.998056, 1, 201, 500, 264
-0.998058, 401, 241, 416, 304
-0.998064, 239, 85, 254, 116
-0.998069, 185, 113, 216, 240
-0.99807, 343, 41, 358, 104
-0.998074, 23, 33, 38, 96
-0.998084, 373, 89, 388, 152
-0.998089, 423, 121, 438, 184
-0.998097, 145, 21, 272, 52
-0.998102, 367, 13, 382, 44
-0.998103, 297, 81, 312, 144
-0.998107, 143, 225, 158, 288
-0.998108, 317, 1, 348, 256
-0.998113, 321, 221, 448, 252
-0.998119, 245, 33, 260, 64
-0.998126, 369, 65, 496, 96
-0.998127, 377, 41, 392, 104
-0.998132, 283, 225, 298, 288
-0.998134, 349, 41, 364, 104
-0.998136, 183, 25, 198, 88
-0.99814, 473, 161, 488, 224
-0.998142, 1, 161, 256, 224
-0.998142, 481, 113, 496, 176
-0.998146, 165, 57, 180, 120
-0.998146, 257, 201, 384, 264
-0.99815, 69, 73, 84, 136
-0.998154, 273, 53, 288, 84
-0.998156, 89, 97, 120, 224
-0.99816, 97, 225, 352, 288
-0.998161, 171, 57, 186, 88
-0.998166, 1, 9, 500, 72
-0.998172, 245, 49, 260, 80
-0.998175, 165, 1, 196, 256
-0.998191, 273, 177, 400, 208
-0.998209, 183, 53, 198, 84
-0.998213, 353, 265, 480, 296
-0.998229, 441, 241, 456, 272
-0.99823, 339, 9, 354, 40
-0.99823, 245, 85, 260, 116
-0.998231, 253, 45, 268, 76
-0.998251, 223, 85, 238, 116
-0.998252, 411, 221, 426, 252
-0.998255, 245, 65, 260, 96
-0.998256, 405, 233, 420, 264
-0.998256, 253, 29, 268, 60
-0.998263, 223, 69, 238, 100
-0.99827, 369, 209, 496, 240
-0.998272, 201, 237, 216, 268
-0.998276, 453, 249, 468, 280
-0.998285, 257, 193, 500, 256
-0.998288, 257, 137, 500, 200
-0.998288, 49, 221, 176, 252
-0.998288, 447, 245, 462, 276
-0.998292, 321, 37, 448, 68
-0.998299, 245, 1, 276, 256
-0.998301, 1, 225, 128, 256
-0.998302, 397, 221, 412, 252
-0.998303, 33, 53, 160, 84
-0.998305, 145, 229, 272, 260
-0.998305, 377, 249, 408, 264
-0.998306, 109, 249, 140, 264
-0.998306, 141, 61, 172, 76
-0.998307, 309, 111, 340, 126
-0.998307, 297, 77, 328, 92
-0.998307, 317, 71, 348, 86
-0.998307, 365, 21, 396, 36
-0.998308, 233, 49, 264, 64
-0.998308, 341, 47, 372, 62
-0.998308, 401, 243, 432, 258
-0.998308, 325, 115, 356, 130
-0.998309, 325, 311, 356, 326
-0.998309, 245, 99, 276, 114
-0.99831, 133, 233, 164, 248
-0.998311, 429, 131, 460, 146
-0.998311, 385, 113, 416, 128
-0.998312, 225, 99, 256, 114
-0.998312, 433, 279, 464, 294
-0.998315, 233, 65, 264, 80
-0.998316, 189, 109, 220, 124
-0.998316, 233, 13, 264, 28
-0.998316, 53, 247, 84, 262
-0.998316, 293, 229, 324, 244
-0.998317, 449, 269, 480, 284
-0.998318, 261, 103, 292, 118
-0.998318, 445, 239, 476, 254
-0.998318, 457, 247, 488, 262
-0.998319, 249, 65, 280, 80
-0.998319, 241, 27, 272, 42
-0.998319, 397, 249, 428, 264
-0.998319, 205, 101, 236, 116
-0.998319, 157, 245, 188, 260
-0.998319, 397, 219, 428, 234
-0.99832, 421, 277, 452, 292
-0.998321, 313, 161, 344, 288
-0.998321, 233, 73, 264, 88
-0.998321, 453, 277, 484, 292
-0.998323, 133, 67, 164, 82
-0.998323, 409, 121, 440, 136
-0.998324, 49, 77, 80, 92
-0.998324, 349, 23, 380, 38
-0.998324, 353, 197, 480, 228
-0.998324, 77, 71, 108, 86
-0.998324, 461, 189, 492, 204
-0.998325, 437, 267, 468, 282
-0.998326, 225, 111, 256, 126
-0.998326, 357, 41, 388, 56
-0.998327, 233, 7, 264, 22
-0.998327, 229, 21, 260, 36
-0.998328, 33, 129, 160, 160
-0.998328, 5, 27, 36, 42
-0.998329, 421, 255, 452, 270
-0.998329, 105, 255, 136, 270
-0.99833, 381, 3, 412, 18
-0.99833, 365, 83, 396, 98
-0.99833, 193, 225, 320, 256
-0.998332, 349, 17, 380, 32
-0.998332, 401, 231, 432, 246
-0.998333, 465, 267, 496, 282
-0.998333, 149, 67, 180, 82
-0.998334, 417, 249, 448, 264
-0.998335, 245, 43, 276, 58
-0.998335, 161, 63, 192, 78
-0.998335, 459, 241, 474, 272
-0.998336, 353, 77, 480, 108
-0.998339, 445, 205, 476, 220
-0.998341, 285, 115, 316, 130
-0.998341, 209, 63, 240, 78
-0.998342, 249, 81, 280, 96
-0.998343, 189, 57, 220, 72
-0.998345, 365, 237, 396, 252
-0.998345, 445, 193, 476, 208
-0.998345, 37, 73, 68, 88
-0.998347, 257, 43, 288, 58
-0.998348, 345, 293, 376, 308
-0.998348, 265, 21, 296, 36
-0.998349, 333, 21, 364, 36
-0.998349, 197, 241, 228, 256
-0.998352, 209, 229, 224, 260
-0.998352, 233, 79, 264, 94
-0.998353, 285, 55, 316, 70
-0.998353, 161, 129, 416, 192
-0.998354, 329, 11, 360, 26
-0.998354, 369, 243, 400, 258
-0.998356, 449, 199, 480, 214
-0.998356, 465, 259, 496, 274
-0.998358, 429, 245, 460, 260
-0.998358, 297, 111, 328, 126
-0.998358, 197, 81, 228, 96
-0.998359, 385, 83, 416, 98
-0.998359, 369, 101, 496, 132
-0.998359, 269, 43, 300, 58
-0.99836, 469, 157, 500, 172
-0.99836, 381, 239, 412, 254
-0.998361, 253, 1, 284, 16
-0.998361, 1, 1, 32, 256
-0.998362, 73, 79, 104, 94
-0.998363, 97, 71, 128, 86
-0.998366, 121, 65, 152, 80
-0.998366, 265, 15, 296, 30
-0.998366, 353, 79, 384, 94
-0.998366, 233, 1, 264, 16
-0.998367, 437, 259, 468, 274
-0.998368, 245, 11, 276, 26
-0.998369, 369, 3, 400, 18
-0.99837, 437, 253, 468, 268
-0.99837, 281, 227, 312, 242
-0.998371, 211, 73, 226, 104
-0.998371, 329, 305, 360, 320
-0.998372, 249, 59, 280, 74
-0.998372, 327, 1, 342, 32
-0.998372, 81, 33, 208, 64
-0.998373, 245, 17, 276, 32
-0.998373, 265, 7, 296, 22
-0.998376, 185, 237, 216, 252
-0.998376, 177, 67, 208, 82
-0.998376, 177, 57, 208, 72
-0.998377, 365, 15, 396, 30
-0.998378, 417, 225, 432, 256
-0.99838, 253, 75, 284, 90
-0.998381, 17, 153, 144, 184
-0.998381, 241, 297, 368, 328
-0.998384, 281, 41, 296, 72
-0.998384, 369, 9, 400, 24
-0.998389, 61, 79, 92, 94
-0.998389, 433, 125, 464, 140
-0.998391, 141, 239, 172, 254
-0.998391, 205, 91, 236, 106
-0.998391, 129, 109, 256, 140
-0.998391, 69, 1, 100, 256
-0.998392, 449, 255, 480, 270
-0.998393, 405, 225, 436, 240
-0.998393, 397, 237, 428, 252
-0.998393, 253, 49, 284, 64
-0.998394, 213, 71, 244, 86
-0.998395, 383, 241, 398, 272
-0.998397, 353, 277, 480, 308
-0.998399, 215, 57, 230, 88
-0.998403, 381, 233, 412, 248
-0.998405, 273, 49, 304, 64
-0.998407, 437, 233, 468, 248
-0.998409, 253, 13, 268, 44
-0.99841, 441, 211, 472, 226
-0.998414, 453, 263, 484, 278
-0.998415, 373, 75, 404, 90
-0.998415, 33, 93, 160, 124
-0.998418, 421, 239, 452, 254
-0.998419, 201, 235, 232, 250
-0.998421, 267, 1, 282, 32
-0.998424, 97, 237, 224, 268
-0.998429, 229, 85, 260, 100
-0.998435, 209, 61, 224, 92
-0.99844, 197, 63, 228, 78
-0.998441, 235, 13, 250, 44
-0.998441, 413, 233, 444, 248
-0.998451, 201, 93, 216, 124
-0.998451, 343, 21, 358, 52
-0.998453, 217, 89, 248, 104
-0.998453, 381, 73, 396, 104
-0.998454, 467, 261, 482, 292
-0.998457, 433, 121, 448, 152
-0.99846, 217, 81, 248, 96
-0.998462, 325, 97, 340, 128
-0.998463, 289, 53, 304, 84
-0.998464, 149, 145, 180, 272
-0.998464, 453, 237, 468, 268
-0.99848, 265, 1, 296, 16
-0.998483, 411, 237, 426, 268
-0.99849, 277, 5, 292, 36
-0.99849, 209, 71, 272, 86
-0.99849, 81, 137, 208, 168
-0.998493, 329, 65, 344, 96
-0.998493, 193, 25, 320, 56
-0.998495, 169, 63, 232, 78
-0.998495, 219, 101, 234, 132
-0.998502, 435, 241, 450, 272
-0.998508, 189, 53, 204, 84
-0.998513, 339, 113, 354, 144
-0.998517, 181, 65, 196, 96
-0.998518, 423, 121, 438, 152
-0.998519, 257, 1, 272, 32
-0.998531, 33, 209, 160, 240
-0.998532, 435, 257, 450, 288
-0.998534, 1, 237, 128, 268
-0.998539, 209, 81, 272, 96
-0.998542, 77, 77, 92, 108
-0.998543, 53, 177, 84, 304
-0.998543, 385, 237, 448, 252
-0.998544, 151, 241, 166, 272
-0.998551, 395, 237, 410, 268
-0.998553, 1, 21, 16, 52
-0.998553, 193, 1, 224, 256
-0.998554, 369, 73, 384, 104
-0.998554, 359, 293, 374, 324
-0.99856, 437, 213, 452, 244
-0.99856, 169, 69, 232, 84
-0.998561, 441, 253, 456, 284
-0.998566, 249, 53, 312, 68
-0.998566, 209, 65, 272, 80
-0.998569, 251, 77, 266, 108
-0.998569, 321, 9, 384, 24
-0.998572, 409, 235, 472, 250
-0.998573, 229, 97, 244, 128
-0.998573, 161, 65, 176, 96
-0.998577, 329, 161, 360, 288
-0.998578, 145, 229, 160, 260
-0.998583, 201, 89, 264, 104
-0.998585, 321, 15, 384, 30
-0.998587, 255, 61, 270, 92
-0.998589, 57, 71, 120, 86
-0.99859, 333, 13, 348, 44
-0.998594, 309, 113, 340, 240
-0.998595, 211, 93, 226, 124
-0.998598, 431, 229, 446, 260
-0.998599, 181, 1, 212, 256
-0.998601, 209, 59, 272, 74
-0.998602, 241, 1, 304, 16
-0.998603, 185, 103, 248, 118
-0.998603, 319, 105, 334, 136
-0.998607, 169, 79, 232, 94
-0.998608, 445, 205, 460, 236
-0.998611, 257, 229, 384, 260
-0.998612, 361, 237, 424, 252
-0.998614, 321, 3, 384, 18
-0.998614, 267, 33, 282, 64
-0.998616, 225, 15, 288, 30
-0.998618, 57, 79, 120, 94
-0.998618, 425, 229, 440, 260
-0.998619, 137, 67, 200, 82
-0.998621, 169, 241, 232, 256
-0.998621, 165, 53, 180, 84
-0.998622, 369, 243, 432, 258
-0.998622, 173, 69, 188, 100
-0.998622, 485, 153, 500, 184
-0.998623, 233, 105, 296, 120
-0.998623, 161, 57, 224, 72
-0.998623, 425, 211, 488, 226
-0.998624, 361, 11, 424, 26
-0.998625, 241, 7, 304, 22
-0.998626, 89, 73, 152, 88
-0.998626, 401, 243, 464, 258
-0.998627, 241, 81, 304, 96
-0.998627, 455, 209, 470, 240
-0.998628, 377, 229, 440, 244
-0.998628, 89, 1, 120, 256
-0.998628, 281, 11, 344, 26
-0.998629, 455, 193, 470, 224
-0.998629, 281, 3, 344, 18
-0.998631, 387, 229, 402, 260
-0.998632, 433, 261, 496, 276
-0.998632, 321, 81, 384, 96
-0.998634, 305, 115, 368, 130
-0.998636, 281, 111, 344, 126
-0.998637, 241, 47, 304, 62
-0.998637, 331, 113, 346, 144
-0.998639, 33, 77, 96, 92
-0.998639, 169, 113, 200, 240
-0.998639, 41, 33, 72, 288
-0.99864, 417, 127, 480, 142
-0.99864, 403, 245, 418, 276
-0.99864, 185, 109, 248, 124
-0.998641, 433, 233, 496, 248
-0.998641, 249, 75, 312, 90
-0.998644, 273, 229, 336, 244
-0.998645, 393, 221, 456, 236
-0.998646, 447, 265, 462, 296
-0.998646, 409, 255, 472, 270
-0.998646, 241, 39, 304, 54
-0.998648, 193, 237, 256, 252
-0.998649, 281, 17, 344, 32
-0.99865, 241, 65, 304, 80
-0.99865, 289, 57, 352, 72
-0.998651, 241, 59, 304, 74
-0.998651, 361, 1, 424, 16
-0.998652, 209, 97, 272, 112
-0.998653, 177, 87, 240, 102
-0.998654, 277, 101, 292, 132
-0.998655, 137, 61, 200, 76
-0.998655, 329, 23, 392, 38
-0.998655, 433, 255, 496, 270
-0.998656, 401, 229, 464, 244
-0.998656, 17, 71, 80, 86
-0.998658, 121, 239, 184, 254
-0.998659, 305, 245, 432, 276
-0.998659, 465, 189, 480, 220
-0.998659, 279, 229, 294, 260
-0.998659, 337, 235, 400, 250
-0.99866, 433, 195, 496, 210
-0.99866, 385, 125, 448, 140
-0.998662, 57, 209, 120, 333
-0.998663, 321, 95, 384, 110
-0.998663, 159, 53, 174, 84
-0.998664, 409, 277, 472, 292
-0.998664, 209, 109, 272, 124
-0.998664, 361, 75, 424, 90
-0.998666, 117, 1, 148, 256
-0.998667, 417, 249, 480, 264
-0.998667, 389, 245, 404, 276
-0.998667, 459, 257, 474, 288
-0.998668, 377, 249, 440, 264
-0.998668, 337, 129, 464, 160
-0.998669, 353, 17, 416, 32
-0.99867, 233, 137, 296, 152
-0.998672, 161, 95, 224, 110
-0.998672, 433, 267, 496, 282
-0.998673, 273, 41, 288, 72
-0.998674, 249, 13, 312, 28
-0.998675, 193, 121, 320, 152
-0.998675, 433, 239, 496, 254
-0.998676, 223, 1, 238, 32
-0.998676, 369, 223, 432, 238
-0.998676, 321, 309, 384, 324
-0.998677, 113, 63, 176, 78
-0.998677, 353, 27, 416, 42
-0.998677, 397, 1, 412, 32
-0.998677, 353, 85, 416, 100
-0.998678, 209, 53, 272, 68
-0.998678, 305, 107, 368, 122
-0.998678, 153, 233, 216, 248
-0.998681, 281, 101, 344, 116
-0.998682, 329, 293, 392, 308
-0.998683, 353, 113, 416, 128
-0.998683, 33, 105, 160, 136
-0.998684, 417, 121, 480, 136
-0.998685, 129, 245, 192, 260
-0.998685, 295, 53, 310, 84
-0.998686, 257, 109, 320, 124
-0.998686, 209, 47, 272, 62
-0.998686, 149, 209, 180, 333
-0.998686, 281, 117, 344, 132
-0.998687, 25, 247, 88, 262
-0.998687, 389, 1, 404, 32
-0.998688, 1, 33, 64, 48
-0.998688, 189, 93, 204, 124
-0.99869, 425, 223, 488, 238
-0.99869, 289, 65, 352, 80
-0.99869, 329, 29, 392, 44
-0.998691, 17, 181, 80, 196
-0.998693, 209, 115, 272, 130
-0.998693, 161, 109, 224, 124
-0.998694, 289, 47, 352, 62
-0.998694, 283, 105, 298, 136
-0.998695, 177, 115, 240, 130
-0.998695, 433, 203, 496, 218
-0.998695, 81, 81, 144, 96
-0.998696, 257, 103, 320, 118
-0.998697, 225, 25, 288, 40
-0.998697, 145, 73, 208, 88
-0.998698, 329, 47, 392, 62
-0.998699, 475, 189, 490, 220
-0.998699, 257, 117, 320, 132
-0.998699, 113, 69, 176, 84
-0.998699, 369, 35, 432, 50
-0.9987, 193, 231, 256, 246
-0.9987, 41, 189, 104, 204
-0.9987, 433, 273, 496, 288
-0.9987, 105, 133, 168, 148
-0.9987, 377, 119, 440, 134
-0.998701, 313, 75, 376, 90
-0.998702, 289, 71, 352, 86
-0.998703, 385, 79, 448, 94
-0.998703, 409, 267, 472, 282
-0.998704, 129, 1, 160, 256
-0.998706, 9, 209, 72, 224
-0.998706, 281, 77, 344, 92
-0.998706, 425, 217, 488, 232
-0.998707, 193, 19, 256, 34
-0.998707, 145, 101, 208, 116
-0.998708, 9, 43, 72, 58
-0.998708, 393, 215, 456, 230
-0.998708, 445, 229, 460, 260
-0.998708, 417, 189, 480, 204
-0.998709, 393, 1, 456, 16
-0.998711, 269, 89, 284, 120
-0.998714, 101, 69, 116, 100
-0.998714, 225, 109, 240, 140
-0.998714, 263, 45, 278, 76
-0.998716, 265, 17, 280, 48
-0.998716, 49, 73, 64, 104
-0.998717, 463, 217, 478, 248
-0.998721, 239, 73, 254, 104
-0.998722, 377, 85, 392, 116
-0.998723, 9, 81, 72, 208
-0.998726, 145, 1, 176, 256
-0.99873, 423, 245, 438, 276
-0.998736, 279, 25, 294, 56
-0.998736, 335, 97, 350, 128
-0.998737, 17, 33, 48, 288
-0.998739, 29, 33, 60, 288
-0.998741, 273, 217, 400, 248
-0.998743, 471, 245, 486, 276
-0.998746, 193, 225, 208, 256
-0.998748, 377, 233, 392, 264
-0.998751, 39, 177, 54, 208
-0.998752, 465, 245, 480, 276
-0.998753, 229, 5, 244, 36
-0.998754, 271, 237, 286, 268
-0.998755, 429, 253, 444, 284
-0.998758, 57, 225, 72, 256
-0.998761, 157, 237, 172, 268
-0.998766, 1, 65, 128, 96
-0.998767, 97, 201, 352, 264
-0.99877, 337, 17, 464, 48
-0.998789, 1, 129, 500, 192
-0.998837, 129, 141, 256, 172
-0.998856, 97, 221, 224, 252
-0.998878, 81, 113, 208, 144
-0.998884, 217, 1, 248, 256
-0.998911, 1, 249, 500, 312
-0.998921, 237, 1, 252, 128
-0.998935, 373, 1, 404, 256
-0.998936, 225, 177, 352, 208
-0.998938, 321, 173, 448, 204
-0.998957, 57, 1, 88, 256
-0.998977, 193, 197, 320, 228
-0.998999, 49, 189, 176, 220
-0.999001, 105, 1, 136, 256
-0.999023, 81, 89, 208, 120
-0.999025, 33, 257, 288, 320
-0.999028, 257, 137, 384, 168
-0.999028, 49, 245, 176, 276
-0.999058, 1, 169, 500, 232
-0.999068, 305, 289, 432, 320
-0.999076, 341, 1, 356, 128
-0.999094, 1, 141, 128, 172
-0.999108, 81, 157, 208, 188
-0.999132, 365, 1, 380, 128
-0.999133, 273, 97, 304, 224
-0.99915, 279, 1, 294, 128
-0.999177, 371, 1, 386, 128
-0.99918, 459, 177, 474, 304
-0.999192, 425, 97, 456, 224
-0.999199, 17, 1, 144, 32
-0.99921, 291, 1, 306, 128
-0.999219, 161, 273, 416, 333
-0.999219, 81, 177, 208, 208
-0.999231, 335, 1, 350, 128
-0.999232, 321, 209, 448, 240
-0.999233, 97, 21, 224, 52
-0.999233, 291, 49, 306, 176
-0.999237, 145, 121, 272, 152
-0.999237, 209, 213, 336, 244
-0.999242, 425, 1, 456, 256
-0.999253, 109, 1, 124, 128
-0.999259, 65, 77, 192, 108
-0.999274, 285, 33, 300, 160
-0.999279, 1, 249, 128, 280
-0.999282, 251, 1, 266, 128
-0.999285, 257, 285, 384, 316
-0.999288, 1, 197, 128, 228
-0.999288, 117, 1, 132, 128
-0.999291, 385, 65, 416, 320
-0.999292, 161, 177, 416, 240
-0.999293, 97, 249, 224, 280
-0.999294, 469, 193, 484, 320
-0.999297, 369, 45, 496, 76
-0.999303, 347, 1, 362, 128
-0.999308, 193, 33, 208, 160
-0.999311, 241, 257, 368, 288
-0.999313, 245, 1, 260, 128
-0.999316, 449, 1, 480, 256
-0.999316, 297, 49, 312, 176
-0.999323, 273, 165, 400, 196
-0.999327, 233, 193, 264, 320
-0.999333, 353, 89, 480, 120
-0.999334, 269, 1, 284, 128
-0.999342, 49, 13, 176, 44
-0.999343, 369, 29, 496, 60
-0.999354, 321, 141, 448, 172
-0.999355, 81, 125, 208, 156
-0.999367, 229, 65, 244, 192
-0.999371, 117, 49, 132, 176
-0.999378, 353, 209, 384, 333
-0.999386, 1, 1, 16, 128
-0.999392, 297, 1, 312, 128
-0.999398, 199, 33, 214, 160
-0.9994, 113, 197, 240, 228
-0.999405, 381, 1, 396, 128
-0.99941, 129, 157, 256, 188
-0.99941, 449, 193, 464, 320
-0.999411, 303, 49, 318, 176
-0.999428, 21, 1, 36, 128
-0.999429, 177, 169, 304, 200
-0.999429, 257, 1, 272, 128
-0.999432, 161, 241, 288, 272
-0.999437, 231, 1, 246, 128
-0.999438, 77, 65, 92, 192
-0.999439, 241, 189, 368, 220
-0.999439, 143, 49, 158, 176
-0.99944, 235, 65, 250, 192
-0.999442, 339, 81, 354, 208
-0.999446, 327, 1, 342, 128
-0.999446, 205, 33, 220, 160
-0.999448, 359, 17, 374, 144
-0.999456, 419, 209, 434, 333
-0.999458, 123, 1, 138, 128
-0.999459, 165, 1, 180, 128
-0.999459, 141, 1, 156, 128
-0.999461, 215, 49, 230, 176
-0.999462, 399, 209, 414, 333
-0.999464, 151, 1, 166, 128
-0.999465, 329, 49, 344, 176
-0.999474, 209, 237, 336, 268
-0.999478, 183, 1, 198, 128
-0.99948, 185, 49, 200, 176
-0.99948, 83, 65, 98, 192
-0.999481, 485, 193, 500, 320
-0.999483, 303, 1, 318, 128
-0.999484, 163, 49, 178, 176
-0.999485, 247, 49, 262, 176
-0.999488, 305, 277, 432, 308
-0.99949, 241, 49, 256, 176
-0.999491, 109, 49, 124, 176
-0.999492, 435, 209, 450, 333
-0.999493, 91, 1, 106, 128
-0.999504, 63, 1, 78, 128
-0.999505, 459, 33, 474, 160
-0.999507, 173, 1, 188, 128
-0.99951, 425, 193, 440, 320
-0.999511, 477, 193, 492, 320
-0.999516, 405, 193, 420, 320
-0.999516, 97, 1, 112, 128
-0.999517, 97, 49, 112, 176
-0.999518, 473, 33, 488, 160
-0.999522, 399, 65, 414, 192
-0.999524, 469, 1, 500, 256
-0.999529, 125, 129, 140, 256
-0.99953, 159, 1, 174, 128
-0.99953, 9, 33, 24, 160
-0.99953, 255, 67, 270, 82
-0.999531, 345, 303, 360, 318
-0.999531, 431, 253, 446, 268
-0.999531, 145, 233, 160, 248
-0.999531, 257, 5, 272, 20
-0.999531, 257, 45, 272, 60
-0.999532, 441, 193, 456, 320
-0.999532, 345, 23, 360, 38
-0.999533, 279, 21, 294, 36
-0.999533, 155, 65, 170, 80
-0.999533, 413, 227, 428, 242
-0.999533, 49, 73, 64, 88
-0.999535, 413, 209, 428, 333
-0.999535, 431, 237, 446, 252
-0.999535, 265, 47, 280, 62
-0.999535, 249, 29, 264, 44
-0.999535, 475, 257, 490, 272
-0.999536, 327, 7, 342, 22
-0.999536, 223, 1, 238, 128
-0.999536, 257, 25, 272, 40
-0.999536, 211, 89, 226, 104
-0.999536, 441, 253, 456, 268
-0.999536, 439, 125, 454, 140
-0.999536, 251, 9, 266, 24
-0.999538, 333, 129, 348, 144
-0.999538, 383, 243, 398, 258
-0.999539, 171, 75, 186, 90
-0.999539, 193, 55, 208, 70
-0.999539, 465, 221, 480, 236
-0.99954, 293, 55, 308, 70
-0.99954, 405, 65, 436, 320
-0.999541, 229, 103, 244, 118
-0.999541, 481, 33, 496, 160
-0.999542, 267, 19, 282, 34
-0.999542, 61, 79, 76, 94
-0.999543, 413, 81, 444, 208
-0.999543, 451, 209, 466, 224
-0.999544, 289, 257, 416, 288
-0.999544, 439, 211, 454, 226
-0.999545, 277, 247, 292, 262
-0.999545, 347, 33, 362, 48
-0.999545, 99, 71, 114, 86
-0.999545, 439, 231, 454, 246
-0.999545, 67, 81, 82, 96
-0.999546, 419, 245, 434, 260
-0.999546, 221, 65, 236, 80
-0.999546, 273, 99, 288, 114
-0.999547, 401, 229, 416, 244
-0.999547, 373, 77, 388, 92
-0.999548, 353, 33, 368, 160
-0.99955, 43, 81, 58, 208
-0.99955, 17, 177, 32, 304
-0.999551, 331, 309, 346, 324
-0.999551, 425, 249, 440, 264
-0.999551, 27, 33, 42, 160
-0.999551, 263, 1, 278, 128
-0.999551, 273, 45, 288, 60
-0.999551, 369, 83, 384, 98
-0.999551, 279, 107, 294, 122
-0.999551, 463, 211, 478, 226
-0.999551, 109, 253, 124, 268
-0.999552, 461, 191, 476, 206
-0.999552, 229, 111, 244, 126
-0.999553, 273, 53, 288, 68
-0.999553, 191, 109, 206, 124
-0.999554, 219, 105, 234, 120
-0.999554, 463, 259, 478, 274
-0.999554, 337, 307, 352, 322
-0.999555, 173, 65, 188, 80
-0.999555, 55, 77, 70, 92
-0.999555, 259, 135, 274, 150
-0.999555, 289, 111, 304, 126
-0.999556, 413, 239, 428, 254
-0.999556, 357, 293, 372, 308
-0.999557, 333, 17, 348, 32
-0.999557, 449, 187, 464, 202
-0.999558, 33, 33, 48, 160
-0.999558, 245, 41, 260, 56
-0.999559, 319, 1, 334, 128
-0.99956, 217, 83, 232, 98
-0.99956, 289, 117, 304, 132
-0.99956, 113, 9, 240, 40
-0.99956, 461, 205, 476, 220
-0.999561, 3, 33, 18, 48
-0.999562, 217, 91, 232, 106
-0.999563, 17, 261, 144, 292
-0.999563, 449, 265, 464, 280
-0.999564, 457, 199, 472, 214
-0.999564, 245, 59, 260, 74
-0.999565, 205, 1, 236, 256
-0.999565, 339, 17, 354, 32
-0.999565, 245, 51, 260, 66
-0.999565, 143, 239, 158, 254
-0.999565, 451, 257, 466, 272
-0.999566, 213, 1, 228, 128
-0.999566, 385, 233, 400, 248
-0.999566, 243, 33, 258, 48
-0.999567, 161, 65, 176, 80
-0.999567, 255, 79, 270, 94
-0.999568, 191, 65, 206, 80
-0.999569, 449, 113, 464, 240
-0.999569, 245, 85, 260, 100
-0.999571, 279, 49, 294, 176
-0.999571, 197, 237, 212, 252
-0.999571, 193, 301, 320, 332
-0.999571, 239, 23, 254, 38
-0.999573, 379, 237, 394, 252
-0.999573, 455, 193, 470, 208
-0.999573, 77, 79, 92, 94
-0.999573, 149, 49, 164, 176
-0.999574, 223, 65, 238, 192
-0.999576, 281, 47, 296, 62
-0.999577, 239, 85, 254, 100
-0.999577, 433, 125, 448, 140
-0.999578, 335, 1, 350, 16
-0.999578, 439, 259, 454, 274
-0.999579, 251, 15, 266, 30
-0.999579, 373, 7, 388, 22
-0.999579, 245, 23, 260, 38
-0.999579, 255, 53, 270, 68
-0.99958, 233, 9, 248, 24
-0.999581, 239, 91, 254, 106
-0.999582, 405, 235, 420, 250
-0.999583, 365, 1, 380, 16
-0.999584, 91, 65, 106, 192
-0.999585, 457, 259, 472, 274
-0.999586, 103, 1, 118, 128
-0.999586, 183, 67, 198, 82
-0.999586, 251, 47, 266, 62
-0.999587, 419, 161, 434, 288
-0.999587, 485, 155, 500, 170
-0.999588, 349, 81, 364, 208
-0.999588, 339, 23, 354, 38
-0.999592, 381, 1, 396, 16
-0.999592, 69, 65, 84, 192
-0.999595, 369, 15, 384, 30
-0.999596, 373, 65, 388, 192
-0.999596, 349, 113, 380, 240
-0.999597, 81, 17, 96, 144
-0.999597, 115, 113, 130, 240
-0.999598, 449, 33, 464, 160
-0.999598, 151, 239, 166, 254
-0.999599, 37, 145, 52, 272
-0.999599, 135, 1, 150, 128
-0.999599, 425, 145, 440, 272
-0.999601, 399, 1, 414, 128
-0.999602, 393, 209, 408, 333
-0.999602, 267, 1, 282, 16
-0.999603, 441, 145, 456, 272
-0.999603, 133, 81, 148, 208
-0.999603, 371, 1, 386, 16
-0.999603, 405, 221, 420, 236
-0.999604, 407, 33, 422, 160
-0.999604, 225, 89, 240, 104
-0.999604, 237, 15, 252, 30
-0.999604, 233, 3, 248, 18
-0.999606, 63, 65, 78, 192
-0.999608, 413, 97, 428, 224
-0.999609, 129, 1, 144, 128
-0.99961, 183, 59, 198, 74
-0.999611, 339, 9, 354, 24
-0.999612, 203, 235, 218, 250
-0.999615, 215, 73, 230, 88
-0.999615, 245, 17, 260, 32
-0.999615, 245, 5, 260, 20
-0.999618, 209, 233, 224, 248
-0.99962, 465, 33, 480, 160
-0.999622, 233, 87, 248, 102
-0.999622, 481, 145, 496, 272
-0.999628, 31, 177, 46, 304
-0.999631, 157, 49, 172, 176
-0.999633, 333, 11, 348, 26
-0.999635, 213, 63, 228, 78
-0.999636, 69, 1, 84, 128
-0.999637, 329, 1, 344, 16
-0.99964, 275, 1, 290, 16
-0.99964, 243, 11, 258, 26
-0.999641, 249, 177, 280, 304
-0.999642, 315, 49, 330, 176
-0.999648, 43, 161, 58, 288
-0.999651, 239, 5, 254, 20
-0.999652, 103, 49, 118, 176
-0.999653, 49, 81, 64, 208
-0.999654, 387, 1, 402, 128
-0.999654, 19, 49, 34, 176
-0.999655, 293, 161, 308, 288
-0.999661, 229, 81, 244, 96
-0.999661, 117, 161, 132, 288
-0.999663, 75, 1, 90, 128
-0.999664, 49, 161, 64, 288
-0.999665, 437, 65, 468, 320
-0.999668, 41, 17, 56, 144
-0.999671, 1, 289, 128, 320
-0.999672, 455, 97, 470, 224
-0.999675, 333, 113, 348, 240
-0.999678, 475, 97, 490, 224
-0.999684, 125, 81, 140, 208
-0.999684, 49, 33, 64, 160
-0.999686, 7, 177, 22, 304
-0.999687, 323, 49, 338, 176
-0.999688, 171, 49, 186, 176
-0.99969, 481, 97, 496, 224
-0.999698, 273, 205, 400, 236
-0.999737, 13, 129, 44, 256
-0.999754, 289, 209, 352, 333
-0.999757, 361, 113, 392, 240
-0.999804, 389, 113, 420, 240
-0.999932, 193, 193, 224, 320
-0.999944, 161, 249, 416, 312
-0.999962, 245, 97, 276, 224
-1.0003, 97, 153, 352, 216
-1.00038, 1, 273, 500, 333
-1.0004, 213, 193, 244, 320
-1.00047, 377, 113, 408, 240
-1.00054, 325, 209, 356, 333
-1.00057, 341, 161, 372, 288
-1.0006, 301, 209, 332, 333
-1.00061, 121, 177, 152, 304
-1.00072, 137, 193, 168, 320
-1.00075, 77, 193, 108, 320
-1.00095, 369, 161, 400, 288
-1.00098, 353, 161, 384, 288
-1.001, 65, 209, 96, 333
-1.00103, 337, 209, 368, 333
-1.00121, 97, 177, 128, 304
-1.00304, 65, 161, 128, 288
