1979
-0.418886, 225, 1, 480, 375
-0.440072, 1, 129, 500, 375
-0.508183, 1, 1, 500, 375
-0.528817, 161, 129, 416, 375
-0.557077, 1, 1, 500, 256
-0.570372, 129, 1, 384, 375
-0.614579, 1, 1, 256, 375
-0.643519, 65, 97, 320, 352
-0.679147, 225, 1, 480, 256
-0.774153, 257, 129, 500, 375
-0.840557, 145, 97, 272, 352
-0.841479, 241, 129, 368, 375
-0.847268, 65, 1, 320, 256
-0.855942, 305, 1, 432, 375
-0.872551, 193, 129, 320, 375
-0.877302, 241, 1, 368, 375
-0.879636, 177, 1, 304, 375
-0.885003, 289, 97, 416, 352
-0.885285, 305, 1, 432, 256
-0.885775, 97, 129, 224, 375
-0.889987, 1, 241, 500, 368
-0.896896, 1, 193, 500, 320
-0.898757, 225, 33, 352, 288
-0.903821, 337, 129, 464, 375
-0.905043, 1, 129, 128, 375
-0.905408, 97, 1, 224, 375
-0.905487, 65, 225, 320, 352
-0.907025, 353, 1, 480, 375
-0.909657, 353, 1, 480, 256
-0.909903, 161, 225, 416, 352
-0.912269, 49, 129, 176, 375
-0.912857, 1, 145, 500, 272
-0.91458, 161, 145, 416, 272
-0.919468, 65, 177, 320, 304
-0.925901, 1, 1, 500, 128
-0.927129, 225, 129, 352, 256
-0.927384, 161, 81, 416, 208
-0.927403, 177, 1, 304, 256
-0.927824, 41, 241, 104, 368
-0.928898, 1, 1, 128, 375
-0.929713, 49, 1, 176, 375
-0.930509, 177, 225, 304, 352
-0.934997, 1, 241, 128, 368
-0.936132, 65, 241, 192, 368
-0.937917, 65, 97, 320, 224
-0.939387, 1, 81, 500, 208
-0.939402, 145, 113, 272, 240
-0.939681, 105, 241, 168, 368
-0.939697, 129, 1, 256, 256
-0.941886, 257, 1, 500, 128
-0.942154, 233, 97, 296, 224
-0.942652, 257, 241, 500, 368
-0.942895, 225, 81, 352, 208
-0.943325, 81, 241, 144, 368
-0.9437, 241, 177, 368, 304
-0.944248, 225, 241, 352, 368
-0.946197, 201, 129, 264, 256
-0.946663, 129, 225, 192, 352
-0.946911, 153, 241, 216, 368
-0.947417, 81, 33, 208, 288
-0.948431, 161, 177, 288, 304
-0.949033, 257, 65, 500, 192
-0.949118, 153, 281, 216, 344
-0.949414, 73, 177, 136, 304
-0.950102, 33, 233, 96, 296
-0.950519, 209, 241, 272, 368
-0.950788, 1, 305, 64, 368
-0.951382, 129, 225, 256, 352
-0.952138, 169, 97, 232, 224
-0.952423, 17, 177, 144, 304
-0.95284, 313, 209, 376, 336
-0.953029, 273, 81, 400, 208
-0.953032, 233, 209, 296, 336
-0.953089, 1, 33, 128, 288
-0.953431, 57, 257, 120, 320
-0.95424, 17, 241, 80, 368
-0.955548, 289, 177, 416, 304
-0.955879, 89, 265, 152, 328
-0.955908, 177, 225, 240, 352
-0.955952, 201, 177, 264, 304
-0.956229, 81, 289, 144, 352
-0.956379, 289, 129, 352, 256
-0.956393, 177, 137, 240, 200
-0.9564, 41, 313, 104, 375
-0.956615, 129, 281, 192, 344
-0.956899, 113, 177, 176, 304
-0.956995, 337, 241, 464, 368
-0.957028, 257, 193, 500, 320
-0.957045, 65, 193, 192, 320
-0.95755, 169, 305, 232, 368
-0.957676, 273, 65, 336, 192
-0.957772, 257, 113, 320, 240
-0.9581, 105, 289, 168, 352
-0.958194, 153, 161, 216, 288
-0.95835, 257, 241, 320, 368
-0.958507, 193, 81, 256, 208
-0.958865, 113, 249, 176, 312
-0.9595, 281, 241, 344, 368
-0.960199, 233, 137, 296, 200
-0.960959, 57, 289, 120, 352
-0.961027, 193, 161, 256, 224
-0.961157, 273, 225, 400, 352
-0.961257, 41, 193, 104, 320
-0.961809, 321, 1, 448, 128
-0.961859, 65, 313, 128, 375
-0.962285, 57, 233, 120, 296
-0.962557, 257, 113, 500, 240
-0.962593, 257, 273, 320, 336
-0.962641, 169, 113, 232, 176
-0.962647, 329, 97, 392, 224
-0.962885, 177, 177, 240, 304
-0.963376, 177, 65, 304, 192
-0.963378, 241, 249, 304, 312
-0.964205, 193, 113, 256, 176
-0.964542, 33, 265, 96, 328
-0.964666, 153, 169, 216, 232
-0.964797, 97, 145, 224, 272
-0.964914, 129, 305, 192, 368
-0.964971, 297, 81, 360, 208
-0.966023, 145, 257, 208, 320
-0.966051, 313, 249, 376, 312
-0.966251, 153, 225, 216, 288
-0.966462, 217, 97, 280, 160
-0.966579, 177, 265, 240, 328
-0.966711, 305, 129, 432, 256
-0.967315, 33, 289, 96, 352
-0.967506, 81, 241, 144, 304
-0.96769, 209, 137, 272, 200
-0.968064, 249, 49, 312, 176
-0.968372, 337, 241, 400, 368
-0.968957, 17, 177, 80, 304
-0.969056, 289, 161, 352, 224
-0.969121, 201, 281, 264, 344
-0.969226, 9, 273, 72, 336
-0.969245, 177, 185, 240, 248
-0.969258, 273, 193, 336, 320
-0.969527, 33, 241, 160, 304
-0.969767, 209, 185, 272, 248
-0.969956, 353, 193, 416, 320
-0.970001, 105, 217, 168, 280
-0.970432, 65, 185, 128, 248
-0.970542, 89, 289, 120, 352
-0.970568, 9, 249, 72, 312
-0.970823, 225, 137, 352, 200
-0.97089, 65, 33, 320, 160
-0.971157, 321, 17, 384, 144
-0.971164, 145, 113, 208, 240
-0.971173, 97, 289, 224, 352
-0.971361, 85, 241, 116, 368
-0.971504, 337, 193, 464, 320
-0.971848, 265, 129, 328, 375
-0.972209, 233, 145, 296, 272
-0.972224, 129, 193, 192, 256
-0.972478, 65, 313, 192, 375
-0.972521, 153, 129, 216, 375
-0.972561, 157, 225, 188, 352
-0.973136, 241, 97, 304, 352
-0.97315, 281, 273, 344, 336
-0.973203, 73, 313, 104, 375
-0.97325, 345, 145, 408, 272
-0.973381, 153, 201, 216, 264
-0.973412, 273, 137, 336, 200
-0.97352, 97, 265, 224, 328
-0.973623, 257, 113, 320, 176
-0.973636, 61, 233, 92, 296
-0.973672, 153, 137, 216, 200
-0.973863, 1, 217, 64, 280
-0.973963, 313, 161, 376, 288
-0.974032, 177, 265, 304, 328
-0.974059, 209, 97, 272, 352
-0.974077, 217, 225, 280, 288
-0.974104, 177, 241, 304, 304
-0.974166, 161, 1, 416, 128
-0.974229, 145, 113, 272, 176
-0.974338, 93, 249, 124, 312
-0.974392, 45, 233, 76, 296
-0.97456, 225, 161, 352, 224
-0.974645, 129, 225, 192, 288
-0.974663, 73, 209, 136, 272
-0.974673, 41, 209, 104, 272
-0.974742, 33, 265, 160, 328
-0.974795, 305, 129, 368, 375
-0.974898, 185, 129, 248, 375
-0.974899, 265, 233, 328, 296
-0.975116, 17, 193, 80, 256
-0.975192, 53, 313, 84, 375
-0.975208, 241, 89, 304, 152
-0.975233, 245, 81, 276, 208
-0.975246, 25, 305, 56, 368
-0.975363, 257, 33, 384, 160
-0.97552, 1, 305, 128, 368
-0.97552, 145, 289, 272, 352
-0.975523, 241, 185, 368, 248
-0.975566, 221, 113, 252, 240
-0.97558, 89, 313, 152, 375
-0.975662, 41, 185, 104, 248
-0.97582, 241, 225, 304, 288
-0.975862, 225, 265, 352, 328
-0.976108, 273, 73, 336, 136
-0.976294, 217, 161, 280, 224
-0.976374, 65, 241, 96, 368
-0.976396, 41, 265, 72, 328
-0.976436, 1, 313, 32, 375
-0.976678, 369, 65, 496, 192
-0.976692, 97, 233, 224, 296
-0.976758, 241, 185, 304, 248
-0.977082, 345, 17, 408, 144
-0.97709, 37, 241, 68, 368
-0.97715, 201, 305, 264, 368
-0.977162, 145, 161, 272, 224
-0.9772, 177, 209, 240, 272
-0.977298, 97, 97, 224, 224
-0.977318, 145, 105, 208, 168
-0.977341, 77, 241, 108, 304
-0.977351, 189, 289, 220, 352
-0.977425, 353, 249, 416, 312
-0.977459, 49, 289, 176, 352
-0.977659, 161, 217, 288, 280
-0.977693, 245, 209, 276, 336
-0.977725, 105, 241, 136, 368
-0.977917, 305, 81, 368, 144
-0.977939, 273, 241, 400, 304
-0.977964, 161, 185, 288, 248
-0.977966, 161, 281, 192, 344
-0.978018, 369, 1, 432, 128
-0.978154, 97, 193, 160, 256
-0.978174, 361, 241, 424, 368
-0.978219, 13, 305, 44, 368
-0.978235, 49, 241, 80, 368
-0.978319, 137, 289, 168, 352
-0.978406, 141, 241, 172, 368
-0.978487, 41, 313, 72, 375
-0.97851, 193, 241, 256, 304
-0.978792, 297, 185, 360, 248
-0.978881, 161, 137, 288, 200
-0.978889, 321, 1, 384, 256
-0.978924, 337, 257, 464, 320
-0.979349, 177, 105, 208, 168
-0.979408, 217, 49, 280, 176
-0.979413, 65, 257, 96, 320
-0.979513, 161, 313, 288, 375
-0.979523, 113, 281, 144, 344
-0.979808, 57, 129, 120, 375
-0.979887, 65, 177, 96, 304
-0.979898, 105, 305, 136, 368
-0.979944, 229, 105, 260, 168
-0.980011, 169, 241, 200, 368
-0.980039, 225, 97, 352, 160
-0.980451, 241, 137, 272, 200
-0.980497, 125, 289, 156, 352
-0.98051, 345, 97, 408, 352
-0.980565, 33, 217, 160, 280
-0.980583, 181, 137, 212, 200
-0.980646, 85, 217, 116, 280
-0.98066, 153, 233, 184, 296
-0.980666, 321, 281, 384, 344
-0.980785, 217, 257, 280, 320
-0.980792, 433, 41, 496, 104
-0.9808, 269, 241, 300, 368
-0.980853, 253, 233, 284, 296
-0.980928, 233, 145, 264, 272
-0.980978, 393, 1, 456, 128
-0.981135, 353, 217, 416, 280
-0.9812, 281, 113, 312, 240
-0.981203, 17, 185, 144, 248
-0.981253, 329, 153, 392, 216
-0.981264, 245, 129, 276, 256
-0.981279, 369, 1, 496, 128
-0.981286, 113, 313, 240, 375
-0.981513, 181, 97, 212, 224
-0.981603, 297, 1, 360, 128
-0.98165, 89, 177, 120, 304
-0.981676, 201, 161, 232, 288
-0.981745, 281, 65, 312, 192
-0.981768, 233, 97, 264, 224
-0.981892, 169, 137, 200, 200
-0.981919, 345, 273, 408, 336
-0.981943, 173, 289, 204, 352
-0.98196, 289, 273, 320, 336
-0.982009, 293, 65, 324, 192
-0.982035, 241, 73, 368, 136
-0.982047, 269, 265, 300, 328
-0.982084, 209, 241, 240, 368
-0.982113, 141, 265, 172, 328
-0.982131, 189, 241, 220, 368
-0.9822, 161, 305, 192, 368
-0.982214, 45, 177, 76, 304
-0.98237, 97, 161, 224, 224
-0.982406, 289, 249, 352, 312
-0.982407, 49, 289, 80, 352
-0.982433, 161, 257, 192, 320
-0.982478, 105, 129, 168, 375
-0.982495, 97, 209, 224, 272
-0.982531, 77, 289, 108, 352
-0.982533, 289, 129, 416, 192
-0.982543, 341, 193, 372, 320
-0.982565, 241, 209, 368, 272
-0.982703, 221, 145, 252, 208
-0.982722, 149, 297, 180, 360
-0.982822, 1, 129, 128, 256
-0.982831, 305, 153, 432, 216
-0.982875, 209, 297, 240, 360
-0.98296, 145, 193, 176, 320
-0.982977, 313, 225, 376, 288
-0.98314, 117, 225, 148, 352
-0.983146, 269, 65, 300, 192
-0.983257, 25, 241, 56, 368
-0.983342, 185, 89, 248, 152
-0.983366, 289, 265, 416, 328
-0.983456, 241, 161, 304, 224
-0.98349, 41, 145, 104, 272
-0.983627, 281, 105, 344, 168
-0.983792, 129, 129, 192, 375
-0.983805, 101, 273, 132, 336
-0.983845, 193, 313, 224, 375
-0.983872, 225, 241, 352, 304
-0.983887, 321, 1, 384, 375
-0.983948, 49, 193, 80, 256
-0.984154, 289, 105, 416, 168
-0.984163, 305, 81, 336, 208
-0.984189, 101, 193, 132, 320
-0.984291, 317, 161, 348, 224
-0.984336, 177, 89, 304, 152
-0.984366, 301, 241, 332, 368
-0.984435, 345, 1, 408, 375
-0.984436, 181, 169, 212, 232
-0.984461, 93, 313, 124, 375
-0.984479, 53, 257, 84, 320
-0.984487, 329, 97, 392, 160
-0.984567, 297, 1, 360, 256
-0.984609, 113, 249, 144, 312
-0.98462, 229, 177, 260, 240
-0.984706, 305, 113, 368, 176
-0.984765, 209, 265, 240, 328
-0.984796, 169, 33, 232, 288
-0.9848, 293, 113, 324, 240
-0.984865, 329, 1, 392, 64
-0.984956, 129, 161, 192, 224
-0.984977, 217, 121, 248, 184
-0.985049, 97, 169, 160, 232
-0.985051, 173, 313, 204, 375
-0.985164, 433, 65, 496, 128
-0.985179, 257, 289, 384, 352
-0.985254, 241, 97, 272, 160
-0.985269, 353, 193, 416, 256
-0.985287, 309, 257, 340, 320
-0.985314, 169, 217, 200, 280
-0.985326, 325, 161, 356, 288
-0.985472, 233, 1, 296, 375
-0.985511, 169, 113, 200, 240
-0.985584, 361, 1, 424, 256
-0.985622, 33, 241, 64, 304
-0.985721, 185, 145, 216, 272
-0.985767, 305, 177, 432, 240
-0.985772, 113, 185, 240, 248
-0.985853, 249, 185, 280, 248
-0.98586, 161, 17, 288, 144
-0.985865, 329, 177, 392, 240
-0.98587, 285, 249, 316, 312
-0.985881, 257, 81, 288, 208
-0.985884, 157, 201, 188, 264
-0.985908, 221, 209, 252, 336
-0.986015, 5, 241, 36, 368
-0.98603, 241, 1, 304, 256
-0.986104, 377, 249, 440, 312
-0.986156, 201, 153, 232, 216
-0.986165, 197, 97, 228, 224
-0.986206, 305, 145, 336, 208
-0.986229, 305, 201, 432, 264
-0.986242, 97, 225, 128, 288
-0.986332, 193, 289, 320, 352
-0.986431, 313, 241, 344, 368
-0.986434, 297, 137, 360, 200
-0.986446, 193, 33, 256, 160
-0.986456, 133, 177, 164, 304
-0.986527, 189, 113, 220, 176
-0.986557, 353, 145, 480, 272
-0.986611, 345, 121, 408, 184
-0.986612, 129, 225, 160, 352
-0.986618, 401, 273, 464, 336
-0.986663, 169, 177, 200, 240
-0.986698, 269, 113, 300, 240
-0.986786, 265, 1, 328, 375
-0.986819, 137, 201, 168, 264
-0.986906, 209, 17, 336, 144
-0.986915, 385, 241, 448, 368
-0.986953, 61, 289, 92, 352
-0.986974, 85, 177, 116, 240
-0.987008, 97, 185, 128, 248
-0.987067, 157, 161, 188, 288
-0.987172, 297, 1, 360, 375
-0.987182, 245, 257, 276, 320
-0.987191, 369, 1, 432, 375
-0.987216, 177, 257, 208, 320
-0.987232, 225, 281, 288, 344
-0.987321, 77, 161, 108, 288
-0.987462, 337, 281, 464, 344
-0.987471, 281, 241, 312, 368
-0.987515, 205, 177, 236, 240
-0.987523, 109, 217, 140, 280
-0.98756, 433, 313, 496, 375
-0.987569, 361, 265, 392, 328
-0.987597, 265, 177, 328, 240
-0.987652, 181, 217, 212, 280
-0.987788, 161, 1, 224, 375
-0.987815, 49, 161, 112, 224
-0.987922, 321, 81, 448, 208
-0.987984, 257, 225, 288, 352
-0.987989, 77, 265, 108, 328
-0.988035, 65, 209, 96, 272
-0.988102, 305, 129, 336, 256
-0.988111, 257, 89, 288, 152
-0.988178, 233, 201, 264, 264
-0.988191, 1, 281, 256, 344
-0.988246, 337, 225, 464, 288
-0.988277, 29, 265, 60, 328
-0.988342, 433, 17, 496, 144
-0.988377, 37, 201, 68, 264
-0.988422, 201, 113, 232, 176
-0.98846, 41, 241, 104, 272
-0.988497, 65, 225, 320, 288
-0.988576, 249, 65, 312, 128
-0.988594, 181, 193, 212, 320
-0.988636, 133, 241, 164, 304
-0.98873, 21, 225, 52, 288
-0.988734, 289, 193, 320, 320
-0.988744, 1, 305, 256, 368
-0.988772, 97, 129, 160, 256
-0.988814, 265, 121, 296, 184
-0.988849, 425, 289, 488, 352
-0.988859, 41, 321, 104, 352
-0.988915, 385, 1, 448, 256
-0.988951, 25, 337, 88, 368
-0.988993, 209, 1, 272, 375
-0.988995, 349, 281, 380, 344
-0.989009, 273, 241, 304, 304
-0.989018, 341, 209, 372, 272
-0.989026, 377, 193, 440, 320
-0.989048, 297, 297, 360, 360
-0.989153, 265, 33, 328, 288
-0.989218, 169, 193, 200, 320
-0.989219, 129, 293, 192, 324
-0.989245, 329, 209, 360, 336
-0.989298, 113, 309, 176, 340
-0.989408, 129, 137, 192, 200
-0.989431, 81, 313, 144, 344
-0.989434, 57, 309, 120, 340
-0.989438, 145, 1, 208, 256
-0.989442, 321, 1, 448, 64
-0.989475, 161, 309, 224, 340
-0.989484, 65, 185, 192, 248
-0.989576, 325, 65, 356, 192
-0.989596, 289, 81, 416, 144
-0.989601, 369, 17, 432, 80
-0.989617, 105, 289, 168, 320
-0.989639, 5, 281, 36, 344
-0.989666, 345, 17, 376, 144
-0.989674, 73, 257, 136, 288
-0.989691, 1, 313, 64, 344
-0.989722, 241, 265, 304, 296
-0.989727, 129, 265, 160, 328
-0.989741, 169, 285, 232, 316
-0.989774, 161, 249, 416, 312
-0.989814, 333, 17, 364, 144
-0.989839, 69, 185, 100, 248
-0.989933, 73, 245, 136, 276
-0.989939, 193, 133, 256, 164
-0.989961, 257, 277, 320, 308
-0.989975, 113, 265, 176, 296
-0.98998, 209, 185, 272, 216
-0.990038, 1, 341, 64, 372
-0.990044, 65, 325, 128, 356
-0.990056, 193, 165, 256, 196
-0.990064, 329, 201, 392, 264
-0.990132, 97, 137, 224, 200
-0.990153, 121, 201, 184, 232
-0.990154, 1, 249, 256, 312
-0.99017, 97, 105, 224, 168
-0.990174, 281, 121, 312, 184
-0.990174, 17, 273, 48, 336
-0.990209, 325, 185, 356, 248
-0.990236, 289, 177, 352, 208
-0.990237, 233, 193, 264, 320
-0.990266, 277, 193, 308, 320
-0.99029, 49, 257, 112, 288
-0.990291, 193, 153, 256, 184
-0.990292, 169, 329, 232, 360
-0.990308, 65, 297, 128, 328
-0.990321, 253, 33, 284, 160
-0.990325, 161, 205, 224, 236
-0.990327, 337, 57, 464, 120
-0.990351, 153, 297, 216, 328
-0.990353, 17, 129, 80, 375
-0.990411, 129, 277, 192, 308
-0.990414, 185, 1, 248, 375
-0.990438, 105, 277, 168, 308
-0.990525, 357, 241, 388, 368
-0.990526, 145, 233, 208, 264
-0.990547, 345, 257, 376, 320
-0.990556, 217, 1, 280, 128
-0.990558, 81, 285, 144, 316
-0.990562, 169, 145, 232, 176
-0.990579, 25, 265, 88, 296
-0.990633, 137, 213, 200, 244
-0.990654, 393, 1, 456, 375
-0.990656, 169, 173, 232, 204
-0.990674, 233, 141, 296, 172
-0.9907, 129, 313, 160, 375
-0.990727, 129, 145, 384, 208
-0.990743, 81, 269, 144, 300
-0.990743, 353, 193, 384, 320
-0.990806, 89, 301, 152, 332
-0.990807, 177, 297, 240, 328
-0.990819, 49, 281, 112, 312
-0.990858, 113, 253, 176, 284
-0.990904, 37, 289, 68, 352
-0.990924, 41, 297, 104, 328
-0.990925, 121, 217, 152, 280
-0.990926, 241, 129, 304, 160
-0.990934, 137, 265, 200, 296
-0.990942, 137, 321, 200, 352
-0.99095, 161, 117, 224, 148
-0.990956, 49, 337, 112, 368
-0.990963, 153, 245, 216, 276
-0.990973, 169, 157, 232, 188
-0.990975, 289, 165, 352, 196
-0.990976, 201, 293, 264, 324
-0.991031, 197, 241, 228, 304
-0.99105, 1, 169, 64, 232
-0.99108, 57, 189, 120, 220
-0.991083, 301, 113, 332, 176
-0.991101, 33, 309, 96, 340
-0.991113, 217, 121, 280, 152
-0.991131, 253, 121, 284, 184
-0.991138, 257, 177, 288, 304
-0.991139, 313, 257, 376, 288
-0.991143, 345, 233, 376, 296
-0.99116, 169, 273, 232, 304
-0.991171, 153, 193, 216, 224
-0.991178, 137, 173, 200, 204
-0.991195, 281, 269, 344, 300
-0.991201, 137, 309, 200, 340
-0.991211, 97, 273, 352, 336
-0.991235, 265, 209, 328, 272
-0.991266, 17, 225, 80, 256
-0.991277, 169, 129, 232, 160
-0.991296, 177, 193, 240, 224
-0.991299, 281, 73, 312, 136
-0.991326, 193, 1, 256, 256
-0.99133, 209, 225, 272, 256
-0.991344, 369, 113, 400, 240
-0.991349, 309, 73, 340, 136
-0.991356, 57, 229, 120, 260
-0.991356, 49, 269, 112, 300
-0.991369, 81, 233, 144, 264
-0.991369, 89, 325, 152, 356
-0.991383, 189, 265, 220, 328
-0.991407, 157, 113, 188, 240
-0.991435, 201, 317, 264, 348
-0.991448, 361, 105, 392, 168
-0.991454, 265, 253, 328, 284
-0.991457, 241, 245, 304, 276
-0.991473, 293, 137, 324, 200
-0.991493, 201, 197, 264, 228
-0.991493, 201, 273, 264, 304
-0.991496, 169, 233, 232, 264
-0.991508, 9, 253, 72, 284
-0.991508, 169, 261, 232, 292
-0.991528, 41, 205, 104, 236
-0.991554, 233, 173, 296, 204
-0.991555, 337, 145, 368, 272
-0.991578, 137, 177, 168, 240
-0.991583, 105, 241, 168, 272
-0.991627, 161, 217, 224, 248
-0.991627, 193, 121, 256, 152
-0.991629, 265, 77, 328, 108
-0.991635, 297, 281, 360, 312
-0.991663, 393, 1, 456, 64
-0.991664, 225, 201, 480, 264
-0.991683, 217, 237, 280, 268
-0.99171, 233, 101, 296, 132
-0.991728, 121, 225, 184, 256
-0.991747, 105, 189, 168, 220
-0.991757, 73, 201, 136, 232
-0.991759, 241, 185, 304, 216
-0.991771, 233, 277, 296, 308
-0.991776, 169, 341, 232, 372
-0.991779, 345, 241, 376, 368
-0.991811, 321, 269, 384, 300
-0.991825, 305, 85, 368, 116
-0.991831, 329, 9, 392, 40
-0.991876, 185, 101, 248, 132
-0.991882, 249, 233, 312, 264
-0.991882, 321, 17, 352, 144
-0.991883, 217, 249, 280, 280
-0.991895, 249, 297, 312, 360
-0.991906, 241, 201, 304, 232
-0.991907, 321, 289, 384, 320
-0.991912, 269, 81, 300, 144
-0.991918, 281, 153, 344, 184
-0.991919, 329, 189, 392, 220
-0.99192, 217, 1, 280, 256
-0.991924, 209, 209, 272, 240
-0.991936, 361, 257, 424, 288
-0.991952, 81, 129, 144, 375
-0.991965, 329, 169, 392, 200
-0.991983, 217, 153, 280, 184
-0.991991, 137, 161, 200, 192
-0.991994, 97, 205, 160, 236
-0.992001, 17, 297, 80, 328
-0.992002, 9, 277, 72, 308
-0.992012, 305, 1, 368, 64
-0.992015, 393, 1, 424, 128
-0.992023, 433, 65, 496, 96
-0.992032, 17, 205, 80, 236
-0.99204, 249, 221, 312, 252
-0.992061, 273, 141, 336, 172
-0.992086, 297, 189, 360, 220
-0.992086, 165, 113, 196, 176
-0.992092, 265, 129, 328, 160
-0.9921, 313, 245, 376, 276
-0.992102, 353, 145, 416, 208
-0.992103, 341, 161, 372, 224
-0.992114, 249, 89, 312, 120
-0.992119, 161, 105, 224, 136
-0.992119, 273, 17, 336, 144
-0.992123, 73, 217, 136, 248
-0.992137, 353, 81, 480, 144
-0.992173, 321, 149, 384, 180
-0.992187, 353, 273, 416, 304
-0.992211, 201, 305, 264, 336
-0.992227, 245, 209, 276, 272
-0.992242, 73, 337, 136, 368
-0.992244, 129, 189, 192, 220
-0.992266, 221, 161, 252, 288
-0.992283, 1, 193, 32, 320
-0.992294, 321, 113, 352, 240
-0.992305, 17, 325, 80, 356
-0.992318, 329, 109, 392, 140
-0.99233, 33, 193, 96, 224
-0.99233, 177, 245, 240, 276
-0.992341, 373, 17, 404, 144
-0.992378, 161, 65, 288, 128
-0.992386, 381, 161, 412, 288
-0.992416, 1, 201, 32, 264
-0.992424, 93, 293, 124, 324
-0.992424, 369, 313, 496, 375
-0.99245, 353, 97, 416, 224
-0.992468, 225, 137, 480, 200
-0.992477, 65, 169, 320, 232
-0.992488, 137, 1, 200, 375
-0.992489, 161, 177, 416, 240
-0.992505, 85, 249, 116, 280
-0.992575, 273, 1, 400, 64
-0.992592, 53, 337, 84, 368
-0.992592, 437, 49, 468, 112
-0.99261, 297, 249, 328, 312
-0.992617, 193, 305, 224, 336
-0.992628, 97, 249, 128, 280
-0.992646, 45, 245, 76, 276
-0.992646, 229, 49, 260, 176
-0.992656, 105, 285, 136, 316
-0.992667, 9, 129, 72, 256
-0.992672, 49, 317, 80, 348
-0.992683, 85, 317, 116, 348
-0.992693, 69, 321, 100, 352
-0.99271, 113, 309, 144, 340
-0.992716, 193, 293, 224, 324
-0.992718, 73, 253, 104, 284
-0.992728, 33, 337, 64, 368
-0.992734, 321, 257, 352, 320
-0.992745, 177, 109, 208, 140
-0.992745, 289, 273, 320, 304
-0.992746, 225, 225, 480, 288
-0.992748, 161, 289, 192, 320
-0.992754, 153, 257, 184, 288
-0.992756, 357, 17, 388, 144
-0.992757, 137, 289, 168, 320
-0.992765, 129, 121, 384, 184
-0.992772, 157, 229, 188, 260
-0.992796, 65, 237, 96, 268
-0.992809, 353, 169, 416, 232
-0.992812, 29, 309, 60, 340
-0.992813, 209, 297, 240, 328
-0.992815, 169, 225, 200, 256
-0.992819, 93, 305, 124, 336
-0.992826, 177, 177, 208, 208
-0.992826, 77, 333, 108, 364
-0.992834, 253, 253, 284, 284
-0.992837, 233, 225, 264, 288
-0.992842, 49, 161, 176, 224
-0.992848, 61, 309, 92, 340
-0.992848, 269, 273, 300, 304
-0.99285, 65, 201, 320, 264
-0.992851, 93, 261, 124, 292
-0.992852, 357, 97, 388, 224
-0.992859, 333, 137, 364, 200
-0.992871, 193, 177, 224, 240
-0.992873, 161, 277, 192, 308
-0.992875, 81, 305, 112, 336
-0.992879, 25, 193, 56, 320
-0.992884, 153, 245, 184, 276
-0.992889, 81, 289, 112, 320
-0.99289, 117, 269, 148, 300
-0.992912, 193, 317, 224, 348
-0.992922, 309, 265, 340, 296
-0.992924, 221, 137, 252, 168
-0.992928, 29, 261, 60, 292
-0.992931, 241, 161, 272, 224
-0.992943, 169, 141, 200, 172
-0.992949, 181, 141, 212, 172
-0.992957, 149, 309, 180, 340
-0.992959, 325, 81, 356, 144
-0.992961, 181, 329, 212, 360
-0.992962, 257, 209, 288, 272
-0.992968, 193, 329, 224, 360
-0.992972, 101, 317, 132, 348
-0.992984, 149, 269, 180, 300
-0.992988, 149, 297, 180, 328
-0.99299, 21, 341, 52, 372
-0.992991, 161, 325, 192, 356
-0.992995, 113, 253, 144, 284
-0.992999, 185, 165, 216, 196
-0.993001, 53, 265, 84, 296
-0.993003, 409, 241, 472, 368
-0.993006, 161, 305, 192, 336
-0.993009, 221, 281, 252, 344
-0.99301, 9, 345, 40, 375
-0.99301, 85, 237, 116, 268
-0.993017, 193, 281, 224, 312
-0.993035, 41, 265, 72, 296
-0.993035, 245, 97, 276, 128
-0.993037, 165, 265, 196, 296
-0.99304, 209, 313, 240, 344
-0.993042, 173, 293, 204, 324
-0.993043, 49, 129, 176, 256
-0.993045, 141, 245, 172, 276
-0.993046, 165, 161, 196, 192
-0.993052, 469, 49, 500, 112
-0.993057, 241, 141, 272, 172
-0.993066, 253, 241, 284, 272
-0.993066, 129, 301, 160, 332
-0.993067, 49, 305, 80, 336
-0.993067, 149, 281, 180, 312
-0.993069, 221, 169, 252, 200
-0.993073, 33, 245, 160, 276
-0.993073, 157, 201, 188, 232
-0.993074, 217, 157, 248, 188
-0.993076, 245, 265, 276, 296
-0.993081, 9, 309, 40, 340
-0.993082, 257, 129, 288, 256
-0.993083, 209, 273, 240, 304
-0.993089, 169, 237, 200, 268
-0.993091, 57, 205, 88, 236
-0.993092, 229, 189, 260, 220
-0.993093, 361, 225, 392, 288
-0.993096, 173, 313, 204, 344
-0.993098, 41, 225, 72, 256
-0.9931, 133, 313, 164, 344
-0.993101, 281, 261, 312, 292
-0.993103, 161, 213, 192, 244
-0.993103, 233, 217, 264, 248
-0.993104, 177, 281, 208, 312
-0.993106, 185, 233, 216, 264
-0.993113, 333, 1, 364, 32
-0.993119, 65, 221, 96, 252
-0.99312, 225, 125, 256, 156
-0.993127, 233, 109, 264, 140
-0.993131, 129, 277, 160, 308
-0.993131, 89, 189, 120, 220
-0.99314, 165, 189, 196, 220
-0.993141, 201, 177, 232, 208
-0.993152, 201, 249, 232, 280
-0.993155, 265, 261, 296, 292
-0.993156, 245, 193, 276, 224
-0.993156, 61, 297, 92, 328
-0.993156, 261, 85, 292, 116
-0.993168, 185, 129, 216, 160
-0.993171, 165, 249, 196, 280
-0.993175, 173, 125, 204, 156
-0.993175, 181, 153, 212, 184
-0.99318, 309, 157, 340, 188
-0.993184, 49, 193, 80, 224
-0.993185, 85, 225, 116, 256
-0.993187, 341, 293, 372, 324
-0.993188, 285, 177, 316, 208
-0.99319, 181, 197, 212, 228
-0.993192, 125, 289, 156, 320
-0.993195, 45, 293, 76, 324
-0.993196, 177, 269, 208, 300
-0.993196, 265, 125, 296, 156
-0.993196, 97, 273, 128, 304
-0.9932, 137, 265, 168, 296
-0.993206, 241, 177, 272, 208
-0.993208, 109, 297, 140, 328
-0.99321, 341, 89, 372, 152
-0.993215, 201, 149, 232, 180
-0.993217, 29, 249, 60, 280
-0.993222, 165, 173, 196, 204
-0.993222, 249, 209, 280, 240
-0.993223, 109, 237, 140, 268
-0.993226, 93, 329, 124, 360
-0.99323, 149, 325, 180, 356
-0.993231, 177, 213, 208, 244
-0.993232, 229, 205, 260, 236
-0.993232, 357, 277, 388, 308
-0.993232, 77, 277, 108, 308
-0.993237, 129, 233, 160, 264
-0.993237, 1, 1, 128, 128
-0.993238, 197, 165, 228, 196
-0.993256, 369, 1, 496, 64
-0.99329, 217, 169, 248, 232
-0.993292, 129, 313, 384, 375
-0.99335, 393, 209, 424, 336
-0.99336, 401, 193, 464, 320
-0.993521, 233, 265, 264, 328
-0.993545, 373, 129, 404, 192
-0.993565, 153, 169, 184, 232
-0.993617, 41, 1, 104, 375
-0.993619, 161, 89, 416, 152
-0.993626, 301, 281, 332, 344
-0.993628, 337, 289, 368, 352
-0.993657, 301, 193, 332, 320
-0.993688, 81, 49, 208, 176
-0.993719, 1, 313, 128, 344
-0.99373, 289, 209, 352, 272
-0.993747, 117, 177, 148, 304
-0.99375, 113, 1, 176, 375
-0.993791, 65, 317, 192, 348
-0.993837, 233, 241, 264, 368
-0.993855, 65, 293, 192, 324
-0.993858, 225, 273, 480, 336
-0.993893, 157, 145, 188, 208
-0.993919, 225, 145, 352, 176
-0.993969, 113, 313, 240, 344
-0.994029, 1, 233, 500, 296
-0.994085, 49, 241, 64, 304
-0.994138, 1, 265, 500, 328
-0.994177, 95, 289, 110, 352
-0.994202, 257, 249, 500, 312
-0.99422, 97, 277, 224, 308
-0.994227, 161, 125, 288, 156
-0.994229, 57, 233, 72, 296
-0.994232, 177, 269, 304, 300
-0.994247, 209, 113, 240, 240
-0.994259, 353, 193, 480, 256
-0.994344, 225, 113, 480, 176
-0.99437, 241, 181, 368, 212
-0.994398, 177, 245, 304, 276
-0.994436, 409, 73, 472, 136
-0.994444, 33, 269, 160, 300
-0.994486, 17, 257, 144, 288
-0.994535, 89, 289, 104, 352
-0.99454, 177, 257, 304, 288
-0.994551, 225, 157, 352, 188
-0.994555, 369, 153, 496, 216
-0.994568, 49, 305, 176, 336
-0.994578, 249, 1, 312, 128
-0.994665, 41, 305, 56, 368
-0.994676, 225, 273, 352, 304
-0.994768, 161, 213, 288, 244
-0.99479, 161, 225, 288, 256
-0.994806, 161, 189, 288, 220
-0.994815, 165, 233, 180, 296
-0.994817, 241, 33, 272, 160
-0.994821, 445, 33, 476, 160
-0.99487, 369, 129, 496, 192
-0.994899, 5, 313, 20, 375
-0.9949, 17, 305, 32, 368
-0.994917, 145, 165, 272, 196
-0.994927, 159, 225, 174, 288
-0.994935, 113, 301, 240, 332
-0.994946, 209, 313, 336, 375
-0.994958, 75, 233, 90, 296
-0.994961, 49, 265, 64, 328
-0.994967, 337, 81, 368, 208
-0.994968, 47, 313, 62, 375
-0.994982, 257, 261, 384, 292
-0.995003, 241, 193, 368, 224
-0.995033, 1, 209, 500, 272
-0.995033, 369, 129, 432, 375
-0.995042, 205, 289, 220, 352
-0.995052, 97, 257, 224, 288
-0.995062, 17, 325, 144, 356
-0.995116, 49, 281, 176, 312
-0.995121, 161, 177, 288, 208
-0.995152, 101, 289, 116, 352
-0.995156, 65, 129, 128, 256
-0.995162, 225, 169, 352, 200
-0.995162, 365, 193, 396, 320
-0.995198, 115, 281, 130, 344
-0.995223, 27, 305, 42, 368
-0.995227, 377, 225, 440, 288
-0.99524, 65, 233, 80, 296
-0.99525, 171, 233, 186, 296
-0.995257, 1, 161, 128, 224
-0.995272, 225, 133, 352, 164
-0.995301, 95, 265, 110, 328
-0.99532, 161, 281, 288, 312
-0.995333, 1, 289, 500, 352
-0.995336, 393, 49, 456, 112
-0.995337, 65, 233, 192, 264
-0.995338, 83, 241, 98, 304
-0.995344, 1, 1, 64, 375
-0.995353, 183, 137, 198, 200
-0.995365, 81, 313, 96, 375
-0.99539, 133, 289, 148, 352
-0.995406, 35, 305, 50, 368
-0.995414, 67, 313, 82, 375
-0.995414, 161, 201, 288, 232
-0.995425, 65, 1, 128, 375
-0.995442, 257, 73, 500, 136
-0.995443, 165, 265, 180, 328
-0.995451, 1, 301, 128, 332
-0.995462, 97, 245, 224, 276
-0.995507, 43, 241, 58, 304
-0.995508, 177, 233, 192, 296
-0.995508, 161, 313, 288, 344
-0.995528, 161, 113, 288, 144
-0.995541, 241, 81, 368, 112
-0.995564, 1, 281, 128, 312
-0.995592, 273, 273, 400, 304
-0.995608, 209, 65, 272, 128
-0.995631, 11, 313, 26, 375
-0.995647, 161, 141, 288, 172
-0.995648, 189, 137, 204, 200
-0.995661, 121, 1, 184, 256
-0.995682, 257, 245, 384, 276
-0.995684, 241, 285, 368, 316
-0.995693, 145, 65, 208, 192
-0.995695, 49, 217, 64, 280
-0.9957, 401, 225, 464, 288
-0.995747, 57, 313, 72, 375
-0.995757, 91, 313, 106, 375
-0.995791, 1, 169, 500, 232
-0.995793, 107, 249, 122, 312
-0.995793, 195, 289, 210, 352
-0.995797, 65, 257, 80, 320
-0.995808, 65, 329, 192, 360
-0.995843, 337, 269, 464, 300
-0.995848, 127, 305, 142, 368
-0.995856, 433, 1, 496, 375
-0.995901, 167, 305, 182, 368
-0.995904, 161, 325, 288, 356
-0.995917, 405, 241, 436, 368
-0.995927, 253, 185, 268, 248
-0.995932, 177, 293, 304, 324
-0.995948, 53, 289, 68, 352
-0.995952, 81, 177, 208, 208
-0.995969, 165, 201, 180, 264
-0.99597, 171, 257, 186, 320
-0.995995, 55, 265, 70, 328
-0.996008, 255, 233, 270, 296
-0.996011, 307, 265, 322, 328
-0.996012, 257, 161, 500, 224
-0.996018, 153, 265, 168, 328
-0.996021, 243, 137, 258, 200
-0.996025, 239, 105, 254, 168
-0.996026, 209, 109, 336, 140
-0.99603, 73, 161, 136, 224
-0.996035, 81, 201, 208, 232
-0.99605, 177, 113, 192, 176
-0.996061, 55, 201, 70, 264
-0.996061, 159, 289, 174, 352
-0.996066, 101, 145, 132, 272
-0.996076, 113, 233, 240, 264
-0.996081, 177, 281, 192, 344
-0.996084, 97, 313, 112, 375
-0.996086, 1, 313, 500, 375
-0.996115, 75, 313, 90, 375
-0.996127, 145, 153, 272, 184
-0.996137, 49, 189, 176, 220
-0.996141, 185, 161, 200, 224
-0.996141, 107, 297, 122, 360
-0.996151, 17, 337, 144, 368
-0.996171, 189, 305, 204, 368
-0.996175, 89, 249, 104, 312
-0.996178, 305, 173, 432, 204
-0.996183, 241, 213, 368, 244
-0.996189, 113, 325, 240, 356
-0.996199, 33, 145, 288, 208
-0.996204, 305, 157, 432, 188
-0.99625, 33, 121, 288, 184
-0.996263, 65, 193, 80, 256
-0.996284, 33, 221, 160, 252
-0.9963, 173, 305, 188, 368
-0.996308, 65, 97, 320, 160
-0.996333, 201, 49, 232, 176
-0.996343, 125, 281, 140, 344
-0.996355, 43, 265, 58, 328
-0.996359, 369, 241, 400, 368
-0.996359, 241, 177, 256, 240
-0.996362, 169, 49, 232, 176
-0.996365, 257, 17, 500, 80
-0.996371, 139, 281, 154, 344
-0.996373, 353, 105, 480, 168
-0.996385, 289, 137, 416, 168
-0.996391, 101, 249, 116, 312
-0.996392, 337, 281, 464, 312
-0.996408, 113, 289, 240, 320
-0.996409, 305, 257, 432, 288
-0.996433, 271, 249, 286, 312
-0.99644, 289, 273, 304, 336
-0.996454, 211, 305, 226, 368
-0.996467, 301, 273, 316, 336
-0.996486, 115, 257, 130, 320
-0.996496, 173, 137, 188, 200
-0.99651, 191, 105, 206, 168
-0.996514, 159, 257, 174, 320
-0.996526, 17, 233, 144, 264
-0.996526, 461, 33, 492, 160
-0.996529, 257, 49, 500, 112
-0.996538, 249, 97, 264, 160
-0.996538, 161, 129, 192, 375
-0.99654, 189, 281, 204, 344
-0.996549, 249, 225, 264, 288
-0.996549, 157, 313, 172, 375
-0.996557, 231, 113, 246, 176
-0.996572, 305, 57, 368, 120
-0.996588, 321, 25, 448, 88
-0.996591, 121, 249, 136, 312
-0.996597, 313, 265, 328, 328
-0.996604, 225, 121, 240, 184
-0.996615, 81, 217, 96, 280
-0.996621, 241, 49, 368, 112
-0.996622, 385, 161, 448, 224
-0.996633, 121, 225, 136, 288
-0.996635, 95, 217, 110, 280
-0.996636, 101, 225, 116, 288
-0.996665, 401, 249, 464, 312
-0.996669, 155, 193, 170, 256
-0.996672, 209, 121, 336, 152
-0.996672, 145, 281, 160, 344
-0.996673, 183, 305, 198, 368
-0.996673, 175, 209, 190, 272
-0.996674, 289, 125, 416, 156
-0.996689, 89, 217, 104, 280
-0.996694, 199, 113, 214, 176
-0.996701, 321, 1, 448, 32
-0.996704, 295, 273, 310, 336
-0.996711, 241, 225, 368, 256
-0.996712, 149, 201, 164, 264
-0.996717, 293, 249, 308, 312
-0.996729, 261, 225, 276, 288
-0.996737, 115, 305, 130, 368
-0.996745, 301, 129, 332, 375
-0.996747, 177, 257, 192, 320
-0.996752, 101, 185, 116, 248
-0.996756, 195, 313, 210, 375
-0.996775, 183, 225, 198, 288
-0.996797, 1, 193, 128, 224
-0.996818, 279, 241, 294, 304
-0.99682, 241, 93, 368, 124
-0.996821, 111, 225, 126, 288
-0.996834, 433, 241, 496, 368
-0.996836, 319, 257, 334, 320
-0.996847, 97, 213, 224, 244
-0.996853, 333, 169, 348, 232
-0.996862, 363, 265, 378, 328
-0.996871, 131, 265, 146, 328
-0.996876, 71, 257, 86, 320
-0.996876, 433, 33, 464, 160
-0.996878, 279, 273, 294, 336
-0.996884, 89, 1, 152, 375
-0.996898, 161, 341, 288, 372
-0.996899, 121, 305, 136, 368
-0.996929, 327, 161, 342, 224
-0.99693, 97, 145, 160, 208
-0.996932, 229, 97, 260, 352
-0.996933, 241, 297, 368, 328
-0.996935, 253, 97, 284, 352
-0.99694, 49, 193, 64, 256
-0.996941, 287, 249, 302, 312
-0.996942, 173, 49, 204, 176
-0.996943, 281, 49, 344, 112
-0.996954, 21, 281, 36, 344
-0.996984, 153, 289, 168, 352
-0.996997, 97, 289, 112, 320
-0.996999, 141, 305, 156, 368
-0.997024, 289, 129, 320, 375
-0.997034, 193, 41, 320, 104
-0.997047, 109, 273, 124, 336
-0.997051, 357, 145, 388, 272
-0.997056, 275, 113, 290, 176
-0.997074, 161, 101, 288, 132
-0.997077, 289, 285, 416, 316
-0.997092, 77, 257, 92, 320
-0.997101, 213, 177, 228, 240
-0.997104, 179, 161, 194, 224
-0.997108, 339, 185, 354, 248
-0.99711, 255, 97, 270, 160
-0.997112, 267, 225, 282, 288
-0.997112, 145, 145, 176, 272
-0.997128, 369, 33, 496, 96
-0.997128, 7, 201, 22, 264
-0.99713, 299, 249, 314, 312
-0.997149, 305, 185, 432, 216
-0.997149, 7, 281, 22, 344
-0.997161, 95, 177, 110, 240
-0.997167, 81, 81, 208, 144
-0.997168, 247, 193, 262, 256
-0.99717, 215, 273, 230, 336
-0.997174, 191, 217, 206, 280
-0.997203, 317, 129, 348, 375
-0.997223, 181, 97, 212, 352
-0.997226, 129, 65, 384, 128
-0.997261, 361, 81, 424, 144
-0.9973, 289, 57, 416, 120
-0.99731, 337, 1, 368, 256
-0.997314, 183, 173, 198, 204
-0.997319, 1, 209, 128, 240
-0.997325, 269, 97, 300, 352
-0.997339, 97, 165, 224, 196
-0.997341, 305, 197, 432, 228
-0.99741, 329, 129, 360, 375
-0.997439, 113, 113, 240, 144
-0.997479, 273, 113, 400, 144
-0.997482, 97, 189, 224, 220
-0.9975, 305, 209, 432, 240
-0.9975, 393, 185, 456, 248
-0.997504, 241, 97, 272, 352
-0.997522, 369, 49, 432, 176
-0.997529, 373, 1, 404, 256
-0.99753, 353, 253, 480, 284
-0.99753, 405, 1, 436, 128
-0.997547, 305, 229, 432, 260
-0.997575, 225, 297, 480, 360
-0.997606, 205, 129, 236, 375
-0.997615, 43, 249, 58, 280
-0.997683, 305, 241, 432, 272
-0.9977, 303, 273, 318, 304
-0.997704, 377, 105, 440, 168
-0.997704, 377, 137, 440, 200
-0.997713, 175, 213, 190, 244
-0.997719, 125, 313, 140, 344
-0.997721, 103, 309, 118, 340
-0.997728, 79, 241, 94, 272
-0.997762, 425, 65, 488, 192
-0.997777, 289, 101, 416, 132
-0.99778, 93, 301, 108, 332
-0.997786, 47, 329, 62, 360
-0.997803, 167, 233, 182, 264
-0.997817, 167, 217, 182, 248
-0.997825, 173, 229, 188, 260
-0.997843, 103, 293, 118, 324
-0.997849, 177, 173, 192, 204
-0.997856, 89, 317, 104, 348
-0.997884, 91, 285, 106, 316
-0.997885, 205, 293, 220, 324
-0.997889, 79, 325, 94, 356
-0.997889, 79, 257, 94, 288
-0.997907, 313, 193, 344, 320
-0.997908, 289, 297, 416, 328
-0.997908, 85, 245, 100, 276
-0.99791, 55, 321, 70, 352
-0.997918, 109, 313, 124, 344
-0.997925, 99, 249, 114, 280
-0.997939, 179, 229, 194, 260
-0.997941, 49, 245, 64, 276
-0.99795, 161, 233, 176, 264
-0.997954, 115, 317, 130, 348
-0.997964, 43, 313, 58, 344
-0.997974, 137, 129, 168, 375
-0.997975, 83, 313, 98, 344
-0.997984, 181, 161, 196, 192
-0.998002, 293, 177, 308, 208
-0.998017, 171, 265, 186, 296
-0.998018, 161, 1, 416, 64
-0.998042, 325, 1, 356, 256
-0.998053, 73, 261, 88, 292
-0.998064, 165, 265, 180, 296
-0.998065, 69, 341, 84, 372
-0.998065, 157, 253, 172, 284
-0.998069, 205, 309, 220, 340
-0.998075, 109, 257, 124, 288
-0.998082, 311, 269, 326, 300
-0.998087, 155, 309, 170, 340
-0.99809, 57, 265, 72, 296
-0.998098, 41, 337, 56, 368
-0.998104, 179, 245, 194, 276
-0.998112, 29, 341, 44, 372
-0.998113, 155, 281, 170, 312
-0.99812, 389, 1, 420, 256
-0.998123, 57, 225, 72, 256
-0.998125, 177, 89, 304, 120
-0.998127, 111, 245, 126, 276
-0.998134, 1, 145, 500, 208
-0.998149, 337, 81, 464, 112
-0.998158, 43, 265, 58, 296
-0.998162, 97, 137, 224, 168
-0.998167, 165, 253, 180, 284
-0.998168, 295, 277, 310, 308
-0.99817, 183, 141, 198, 172
-0.998176, 251, 185, 266, 216
-0.998177, 121, 129, 184, 256
-0.99818, 119, 269, 134, 300
-0.998182, 189, 141, 204, 172
-0.998184, 119, 305, 134, 336
-0.998189, 217, 129, 248, 375
-0.998194, 191, 109, 206, 140
-0.998195, 259, 241, 274, 272
-0.998199, 153, 265, 168, 296
-0.998205, 161, 221, 176, 252
-0.998208, 289, 277, 304, 308
-0.99821, 159, 265, 174, 296
-0.998215, 349, 1, 380, 256
-0.998215, 357, 97, 388, 352
-0.998222, 185, 329, 200, 360
-0.998225, 49, 265, 64, 296
-0.998229, 95, 317, 110, 348
-0.998231, 67, 221, 82, 252
-0.998233, 273, 269, 288, 300
-0.998242, 433, 33, 496, 288
-0.998247, 299, 177, 314, 208
-0.998254, 171, 249, 186, 280
-0.998254, 173, 325, 188, 356
-0.998255, 321, 13, 448, 44
-0.998257, 207, 325, 222, 356
-0.998266, 95, 181, 110, 212
-0.998268, 189, 161, 204, 192
-0.998271, 153, 297, 168, 328
-0.998272, 215, 305, 230, 336
-0.998274, 19, 345, 34, 375
-0.998276, 97, 125, 224, 156
-0.998278, 213, 181, 228, 212
-0.998285, 91, 249, 106, 280
-0.998291, 173, 201, 188, 232
-0.998291, 3, 317, 18, 348
-0.998292, 87, 301, 102, 332
-0.998295, 159, 197, 174, 228
-0.998298, 179, 325, 194, 356
-0.998298, 57, 333, 72, 364
-0.9983, 47, 209, 62, 240
-0.998306, 283, 277, 298, 308
-0.998309, 185, 233, 200, 264
-0.998311, 193, 129, 224, 375
-0.998313, 175, 161, 190, 192
-0.998319, 175, 277, 190, 308
-0.99832, 77, 313, 92, 344
-0.998321, 23, 309, 38, 340
-0.998321, 213, 321, 228, 352
-0.99833, 49, 317, 64, 348
-0.998331, 369, 273, 384, 304
-0.998333, 101, 329, 116, 360
-0.998334, 363, 281, 378, 312
-0.998337, 11, 313, 26, 344
-0.998339, 353, 241, 480, 272
-0.998342, 175, 141, 190, 172
-0.998346, 65, 321, 80, 352
-0.998361, 251, 229, 266, 260
-0.998369, 107, 325, 122, 356
-0.99837, 53, 197, 68, 228
-0.99837, 129, 281, 144, 312
-0.998373, 229, 191, 260, 206
-0.998374, 139, 221, 154, 252
-0.998374, 49, 311, 80, 326
-0.998374, 141, 255, 172, 270
-0.998375, 221, 177, 252, 192
-0.998375, 221, 151, 252, 166
-0.998375, 5, 353, 36, 368
-0.998375, 73, 299, 104, 314
-0.998376, 221, 163, 252, 178
-0.998376, 177, 285, 208, 300
-0.998376, 221, 183, 252, 198
-0.998376, 161, 323, 192, 338
-0.998376, 181, 329, 212, 344
-0.998377, 145, 321, 176, 336
-0.998377, 193, 177, 224, 192
-0.998377, 165, 193, 196, 208
-0.998378, 233, 219, 264, 234
-0.998379, 61, 317, 92, 332
-0.998381, 169, 237, 200, 252
-0.998381, 141, 241, 172, 256
-0.998381, 165, 223, 196, 238
-0.998381, 193, 335, 224, 350
-0.998381, 269, 253, 284, 284
-0.998381, 165, 331, 196, 346
-0.998382, 105, 293, 136, 308
-0.998383, 85, 329, 116, 344
-0.998383, 209, 325, 240, 340
-0.998384, 165, 167, 196, 182
-0.998384, 117, 265, 148, 280
-0.998385, 113, 275, 144, 290
-0.998385, 193, 317, 224, 332
-0.998385, 53, 209, 84, 224
-0.998385, 165, 265, 196, 280
-0.998386, 161, 209, 192, 224
-0.998386, 73, 337, 104, 352
-0.998387, 61, 233, 92, 248
-0.998387, 101, 185, 116, 216
-0.998387, 113, 257, 144, 272
-0.998387, 221, 171, 252, 186
-0.998387, 201, 151, 232, 166
-0.998387, 33, 313, 64, 328
-0.998387, 53, 241, 84, 256
-0.998388, 185, 167, 216, 182
-0.998389, 29, 265, 60, 280
-0.998389, 93, 287, 124, 302
-0.998389, 149, 303, 180, 318
-0.99839, 181, 265, 196, 296
-0.99839, 177, 109, 192, 140
-0.998391, 229, 213, 260, 228
-0.998392, 153, 311, 184, 326
-0.998392, 181, 295, 212, 310
-0.998393, 93, 317, 124, 332
-0.998393, 185, 137, 216, 152
-0.998394, 153, 281, 184, 296
-0.998395, 173, 177, 204, 192
-0.998397, 113, 345, 240, 375
-0.998397, 193, 289, 224, 304
-0.998398, 209, 315, 240, 330
-0.998398, 281, 271, 312, 286
-0.998401, 209, 301, 240, 316
-0.998401, 85, 329, 100, 360
-0.998402, 217, 157, 248, 172
-0.998403, 133, 199, 164, 214
-0.998406, 57, 343, 88, 358
-0.998406, 125, 307, 156, 322
-0.998406, 81, 153, 208, 184
-0.998408, 181, 183, 212, 198
-0.998408, 253, 253, 284, 268
-0.998409, 55, 309, 70, 340
-0.998409, 129, 313, 160, 328
-0.99841, 289, 181, 320, 196
-0.998413, 9, 313, 40, 328
-0.998413, 221, 143, 252, 158
-0.998416, 181, 143, 212, 158
-0.998417, 101, 247, 132, 262
-0.998417, 65, 265, 96, 280
-0.998418, 433, 249, 496, 312
-0.998418, 165, 259, 196, 274
-0.998418, 53, 349, 84, 364
-0.99842, 309, 33, 340, 160
-0.99842, 241, 145, 256, 176
-0.998421, 141, 247, 172, 262
-0.998422, 65, 341, 192, 372
-0.998422, 245, 193, 276, 208
-0.998423, 61, 311, 92, 326
-0.998424, 81, 287, 112, 302
-0.998425, 161, 291, 192, 306
-0.998425, 165, 243, 196, 258
-0.998426, 93, 299, 124, 314
-0.998427, 153, 197, 184, 212
-0.998427, 137, 287, 168, 302
-0.998427, 157, 237, 188, 252
-0.998428, 301, 275, 332, 290
-0.998428, 105, 245, 120, 276
-0.998428, 81, 185, 112, 200
-0.998428, 251, 197, 266, 228
-0.998429, 169, 277, 184, 308
-0.998429, 153, 273, 184, 288
-0.99843, 113, 281, 144, 296
-0.99843, 41, 243, 104, 258
-0.998435, 53, 267, 84, 282
-0.998435, 63, 265, 78, 296
-0.998436, 181, 217, 196, 248
-0.998436, 141, 285, 156, 316
-0.998436, 165, 273, 196, 288
-0.998436, 193, 323, 224, 338
-0.998437, 327, 165, 342, 196
-0.998438, 197, 297, 212, 328
-0.99844, 61, 325, 92, 340
-0.99844, 137, 297, 168, 312
-0.99844, 231, 117, 246, 148
-0.998442, 241, 5, 368, 36
-0.998443, 213, 253, 228, 284
-0.998444, 193, 329, 224, 344
-0.998444, 85, 305, 116, 320
-0.998444, 71, 321, 86, 352
-0.998445, 165, 281, 196, 296
-0.998445, 113, 307, 144, 322
-0.998445, 243, 193, 258, 224
-0.998447, 141, 311, 172, 326
-0.998447, 241, 187, 272, 202
-0.998447, 355, 289, 370, 320
-0.998447, 153, 265, 184, 280
-0.998448, 169, 143, 200, 158
-0.998449, 49, 319, 80, 334
-0.998449, 1, 181, 128, 212
-0.998452, 269, 275, 300, 290
-0.998453, 133, 237, 148, 268
-0.998453, 165, 253, 196, 268
-0.998454, 105, 327, 136, 342
-0.998455, 169, 231, 200, 246
-0.998455, 341, 129, 372, 375
-0.998455, 1, 313, 64, 328
-0.998455, 153, 303, 216, 318
-0.998457, 105, 313, 168, 328
-0.998457, 35, 341, 50, 372
-0.998457, 161, 305, 192, 320
-0.998457, 57, 241, 72, 272
-0.998459, 193, 311, 224, 326
-0.998462, 237, 109, 252, 140
-0.998463, 113, 315, 144, 330
-0.998463, 21, 311, 52, 326
-0.998463, 161, 299, 192, 314
-0.998466, 65, 241, 96, 256
-0.998466, 105, 287, 136, 302
-0.998467, 257, 189, 272, 220
-0.998467, 163, 317, 178, 348
-0.998469, 85, 323, 116, 338
-0.99847, 177, 301, 208, 316
-0.998471, 157, 231, 188, 246
-0.998472, 89, 249, 120, 264
-0.998473, 153, 243, 184, 258
-0.998473, 41, 323, 104, 338
-0.998477, 73, 255, 136, 270
-0.998477, 153, 253, 184, 268
-0.998478, 129, 307, 192, 322
-0.99848, 137, 303, 168, 318
-0.998483, 41, 335, 104, 350
-0.998484, 73, 259, 104, 274
-0.998489, 193, 295, 224, 310
-0.99849, 17, 347, 48, 362
-0.998493, 153, 295, 216, 310
-0.998493, 361, 1, 392, 256
-0.998493, 73, 261, 136, 276
-0.998493, 49, 1, 176, 64
-0.998494, 129, 301, 192, 316
-0.998494, 289, 277, 320, 292
-0.998494, 81, 315, 112, 330
-0.998494, 25, 341, 88, 356
-0.998496, 193, 305, 224, 320
-0.998497, 129, 295, 192, 310
-0.998498, 69, 331, 100, 346
-0.9985, 45, 335, 76, 350
-0.998506, 9, 347, 72, 362
-0.998507, 177, 109, 208, 124
-0.998507, 153, 259, 184, 274
-0.99851, 41, 317, 104, 332
-0.998511, 97, 261, 128, 276
-0.998511, 169, 289, 232, 304
-0.998513, 81, 325, 144, 340
-0.998513, 33, 255, 96, 270
-0.998515, 257, 277, 320, 292
-0.998516, 161, 311, 224, 326
-0.99852, 89, 303, 152, 318
-0.99852, 161, 1, 288, 64
-0.998521, 193, 143, 256, 158
-0.998523, 33, 341, 64, 356
-0.998523, 145, 283, 208, 298
-0.998525, 89, 287, 152, 302
-0.998526, 137, 201, 200, 216
-0.998527, 85, 293, 116, 308
-0.998528, 41, 265, 104, 280
-0.998528, 73, 319, 136, 334
-0.998529, 73, 311, 136, 326
-0.998529, 41, 329, 104, 344
-0.998531, 113, 287, 176, 302
-0.998532, 193, 181, 256, 196
-0.998532, 193, 175, 256, 190
-0.998535, 177, 303, 240, 318
-0.998535, 193, 153, 256, 168
-0.998538, 209, 189, 272, 204
-0.998538, 193, 161, 256, 176
-0.998539, 49, 287, 112, 302
-0.998539, 233, 271, 296, 286
-0.99854, 89, 297, 152, 312
-0.998541, 137, 215, 200, 230
-0.998542, 245, 1, 276, 256
-0.998543, 289, 89, 416, 120
-0.998544, 85, 255, 116, 270
-0.998544, 113, 279, 176, 294
-0.998545, 93, 311, 124, 326
-0.998547, 57, 295, 120, 310
-0.99855, 145, 289, 208, 304
-0.998551, 201, 137, 264, 152
-0.998551, 161, 327, 224, 342
-0.998552, 177, 137, 240, 152
-0.998552, 153, 259, 216, 274
-0.998552, 161, 207, 224, 222
-0.998553, 193, 167, 256, 182
-0.998553, 153, 247, 216, 262
-0.998554, 289, 183, 352, 198
-0.998554, 65, 303, 128, 318
-0.998555, 113, 265, 176, 280
-0.998556, 337, 293, 464, 324
-0.998558, 41, 309, 104, 324
-0.99856, 177, 295, 240, 310
-0.998567, 33, 249, 96, 264
-0.998568, 85, 129, 116, 375
-0.998568, 161, 131, 224, 146
-0.998568, 169, 145, 232, 160
-0.998572, 129, 243, 192, 258
-0.998572, 137, 209, 200, 224
-0.998573, 57, 237, 120, 252
-0.998573, 97, 259, 160, 274
-0.998573, 113, 253, 176, 268
-0.998573, 185, 123, 248, 138
-0.998574, 65, 333, 128, 348
-0.998575, 233, 277, 296, 292
-0.998577, 153, 237, 216, 252
-0.998579, 81, 281, 144, 296
-0.998579, 145, 221, 208, 236
-0.998581, 153, 273, 216, 288
-0.998583, 169, 165, 232, 180
-0.998583, 281, 275, 344, 290
-0.998585, 105, 323, 168, 338
-0.998585, 81, 247, 144, 262
-0.998585, 113, 273, 176, 288
-0.998586, 169, 151, 232, 166
-0.998586, 153, 253, 216, 268
-0.998587, 289, 175, 352, 190
-0.998588, 113, 205, 176, 220
-0.99859, 161, 119, 224, 134
-0.99859, 233, 265, 296, 280
-0.998591, 165, 225, 180, 352
-0.998593, 209, 195, 272, 210
-0.998593, 81, 237, 144, 252
-0.998596, 161, 321, 224, 336
-0.998596, 233, 141, 296, 156
-0.998596, 1, 319, 64, 334
-0.998597, 145, 231, 208, 246
-0.998597, 241, 251, 304, 266
-0.998598, 249, 241, 312, 256
-0.998599, 9, 289, 72, 304
-0.9986, 185, 131, 248, 146
-0.9986, 161, 125, 224, 140
-0.998602, 209, 223, 272, 238
-0.998603, 81, 267, 144, 282
-0.998603, 137, 265, 200, 280
-0.998603, 65, 129, 96, 375
-0.998604, 217, 183, 280, 198
-0.998604, 121, 259, 184, 274
-0.998605, 97, 331, 160, 346
-0.998606, 217, 131, 280, 146
-0.998607, 49, 341, 112, 356
-0.998607, 233, 147, 296, 162
-0.998607, 41, 281, 104, 296
-0.998607, 281, 281, 344, 296
-0.998607, 65, 189, 128, 204
-0.998607, 177, 335, 240, 350
-0.998608, 169, 279, 232, 294
-0.998608, 273, 81, 336, 96
-0.998609, 273, 269, 336, 284
-0.99861, 33, 347, 96, 362
-0.99861, 201, 297, 264, 312
-0.998611, 169, 183, 232, 198
-0.998613, 129, 323, 192, 338
-0.998613, 9, 263, 72, 278
-0.998614, 105, 193, 168, 208
-0.998614, 177, 201, 240, 216
-0.998616, 169, 157, 232, 172
-0.998616, 209, 201, 272, 216
-0.998616, 57, 227, 120, 242
-0.998616, 193, 113, 256, 128
-0.998617, 233, 175, 296, 190
-0.998617, 105, 199, 168, 214
-0.998618, 257, 181, 320, 196
-0.998618, 1, 353, 64, 368
-0.998619, 17, 335, 80, 350
-0.998621, 241, 131, 304, 146
-0.998621, 73, 273, 136, 288
-0.998621, 161, 111, 224, 126
-0.998624, 201, 325, 264, 340
-0.998625, 169, 221, 232, 236
-0.998627, 161, 267, 224, 282
-0.99863, 381, 129, 412, 375
-0.998647, 225, 1, 352, 64
-0.998671, 241, 309, 368, 340
-0.998689, 45, 129, 76, 375
-0.998723, 149, 129, 180, 375
-0.998743, 297, 17, 328, 144
-0.998773, 159, 225, 174, 352
-0.998794, 247, 81, 262, 208
-0.998814, 321, 69, 448, 100
-0.998818, 107, 241, 122, 368
-0.998827, 161, 77, 288, 108
-0.998831, 53, 241, 68, 368
-0.998832, 97, 241, 112, 368
-0.998835, 171, 225, 186, 352
-0.998836, 1, 89, 500, 152
-0.998854, 1, 41, 500, 104
-0.998868, 353, 229, 480, 260
-0.998877, 401, 1, 432, 256
-0.998878, 301, 33, 332, 288
-0.998881, 1, 137, 128, 200
-0.998887, 85, 241, 100, 368
-0.998888, 305, 305, 432, 368
-0.998893, 285, 33, 316, 288
-0.99891, 369, 145, 432, 272
-0.998933, 13, 177, 44, 304
-0.998938, 381, 113, 412, 240
-0.99894, 145, 81, 208, 144
-0.998941, 113, 1, 240, 64
-0.998946, 313, 1, 344, 256
-0.998946, 43, 241, 58, 368
-0.998955, 185, 65, 248, 128
-0.998965, 1, 1, 500, 64
-0.998967, 249, 129, 264, 256
-0.998967, 369, 9, 496, 40
-0.998967, 337, 117, 464, 148
-0.998968, 369, 97, 400, 352
-0.998969, 197, 33, 228, 288
-0.99897, 215, 241, 230, 368
-0.998983, 153, 225, 168, 352
-0.998985, 369, 345, 496, 375
-0.998991, 177, 1, 208, 256
-0.99901, 221, 1, 252, 256
-0.999017, 241, 97, 256, 224
-0.999022, 33, 73, 288, 136
-0.999036, 97, 101, 224, 132
-0.999039, 381, 209, 412, 336
-0.99904, 289, 113, 304, 240
-0.99904, 369, 309, 496, 340
-0.999043, 353, 217, 480, 248
-0.999055, 61, 209, 76, 336
-0.999059, 193, 65, 320, 96
-0.99906, 159, 177, 174, 304
-0.999061, 305, 25, 432, 56
-0.999069, 253, 81, 268, 208
-0.999073, 235, 97, 250, 224
-0.999077, 113, 241, 128, 368
-0.999085, 1, 33, 64, 288
-0.999106, 153, 1, 184, 256
-0.99911, 295, 113, 310, 240
-0.999113, 243, 177, 258, 304
-0.999117, 369, 177, 496, 208
-0.99912, 295, 65, 310, 192
-0.99912, 177, 225, 192, 352
-0.999128, 1, 1, 128, 64
-0.99913, 73, 241, 88, 368
-0.999138, 37, 241, 52, 368
-0.999139, 209, 321, 336, 352
-0.999139, 305, 65, 320, 192
-0.999139, 67, 209, 82, 336
-0.999145, 285, 65, 300, 192
-0.999153, 353, 193, 368, 320
-0.999155, 205, 225, 220, 352
-0.999164, 279, 65, 294, 192
-0.999172, 97, 129, 128, 375
-0.999174, 195, 97, 210, 224
-0.999174, 183, 241, 198, 368
-0.999185, 267, 209, 282, 336
-0.999187, 91, 241, 106, 368
-0.999191, 253, 209, 268, 336
-0.999193, 129, 25, 256, 88
-0.999196, 131, 225, 146, 352
-0.9992, 259, 81, 274, 208
-0.999206, 79, 225, 94, 352
-0.99921, 369, 69, 496, 100
-0.999211, 55, 177, 70, 304
-0.999212, 301, 113, 316, 240
-0.999216, 315, 81, 330, 208
-0.999228, 119, 225, 134, 352
-0.999232, 221, 129, 236, 256
-0.999241, 273, 81, 288, 208
-0.999242, 165, 177, 180, 304
-0.999243, 149, 177, 164, 304
-0.999243, 347, 209, 362, 336
-0.999243, 337, 93, 464, 124
-0.999243, 209, 345, 336, 375
-0.999249, 181, 97, 196, 224
-0.999251, 317, 241, 332, 368
-0.999253, 369, 165, 496, 196
-0.999256, 29, 241, 44, 368
-0.99926, 213, 161, 228, 288
-0.99926, 65, 129, 96, 256
-0.999261, 19, 241, 34, 368
-0.99927, 255, 129, 270, 256
-0.999272, 79, 177, 94, 304
-0.999273, 189, 129, 204, 256
-0.99929, 273, 225, 288, 352
-0.999291, 91, 193, 106, 320
-0.999294, 285, 241, 300, 368
-0.999301, 227, 113, 242, 240
-0.999304, 369, 193, 496, 224
-0.999306, 293, 241, 308, 368
-0.999311, 283, 113, 298, 240
-0.999312, 417, 1, 448, 128
-0.999313, 171, 177, 186, 304
-0.999314, 237, 145, 252, 272
-0.999316, 307, 113, 322, 240
-0.999317, 105, 177, 120, 304
-0.999328, 13, 209, 28, 336
-0.999329, 73, 177, 88, 304
-0.99933, 97, 161, 112, 288
-0.99933, 369, 141, 496, 172
-0.999334, 241, 17, 368, 48
-0.999334, 49, 177, 64, 304
-0.999334, 259, 225, 274, 352
-0.999336, 199, 241, 214, 368
-0.999337, 189, 241, 204, 368
-0.999339, 179, 177, 194, 304
-0.999343, 331, 161, 346, 288
-0.999343, 299, 241, 314, 368
-0.99935, 53, 129, 84, 256
-0.999351, 267, 97, 282, 224
-0.999351, 353, 205, 480, 236
-0.999363, 279, 241, 294, 368
-0.999365, 49, 25, 176, 88
-0.999365, 125, 225, 140, 352
-0.999366, 337, 17, 352, 144
-0.999378, 323, 241, 338, 368
-0.99938, 141, 241, 156, 368
-0.999381, 97, 41, 352, 104
-0.999383, 369, 333, 496, 364
-0.999386, 199, 193, 214, 320
-0.999387, 369, 65, 400, 192
-0.99939, 197, 145, 212, 272
-0.999399, 305, 241, 320, 368
-0.999401, 1, 121, 500, 184
-0.999411, 175, 113, 190, 240
-0.999416, 325, 81, 340, 208
-0.999418, 169, 129, 184, 256
-0.999419, 147, 241, 162, 368
-0.999424, 341, 193, 356, 320
-0.999425, 241, 41, 304, 104
-0.999426, 259, 177, 274, 304
-0.99943, 347, 145, 362, 272
-0.999431, 113, 193, 128, 320
-0.999435, 311, 209, 326, 336
-0.999438, 295, 193, 310, 320
-0.999438, 337, 113, 352, 240
-0.999443, 347, 17, 362, 144
-0.999449, 65, 161, 80, 288
-0.999451, 353, 105, 480, 136
-0.999453, 357, 17, 372, 144
-0.999454, 221, 177, 236, 304
-0.999455, 359, 225, 374, 352
-0.999465, 367, 17, 382, 144
-0.999466, 393, 97, 456, 352
-0.999467, 253, 33, 268, 160
-0.999471, 301, 193, 316, 320
-0.999473, 369, 153, 496, 184
-0.999474, 203, 113, 218, 240
-0.999487, 5, 225, 20, 352
-0.999489, 187, 81, 202, 208
-0.999489, 135, 177, 150, 304
-0.999491, 257, 1, 288, 256
-0.999492, 395, 1, 410, 128
-0.999493, 331, 97, 346, 224
-0.999494, 227, 209, 242, 336
-0.999499, 331, 1, 346, 128
-0.999509, 365, 241, 380, 368
-0.999517, 189, 193, 204, 320
-0.999518, 345, 57, 408, 120
-0.999518, 369, 21, 496, 52
-0.999518, 207, 177, 222, 304
-0.99952, 85, 161, 100, 288
-0.999521, 261, 129, 276, 256
-0.999524, 369, 57, 496, 88
-0.999524, 381, 113, 396, 240
-0.999525, 289, 193, 304, 320
-0.999527, 241, 333, 368, 364
-0.999528, 279, 193, 294, 320
-0.999532, 325, 145, 340, 272
-0.999532, 257, 69, 384, 100
-0.999535, 319, 145, 334, 272
-0.999538, 269, 1, 300, 256
-0.999548, 401, 193, 416, 320
-0.999551, 337, 65, 352, 192
-0.999551, 165, 33, 196, 288
-0.999557, 239, 49, 254, 176
-0.999558, 263, 33, 278, 160
-0.999558, 313, 129, 328, 256
-0.999561, 373, 97, 388, 224
-0.999563, 259, 95, 274, 110
-0.999563, 101, 291, 116, 306
-0.999563, 189, 145, 204, 160
-0.999564, 33, 129, 64, 375
-0.999564, 381, 17, 396, 144
-0.999565, 177, 283, 192, 298
-0.999565, 337, 241, 352, 368
-0.999565, 213, 323, 228, 338
-0.999565, 205, 295, 220, 310
-0.999567, 91, 299, 106, 314
-0.999569, 39, 311, 54, 326
-0.99957, 243, 191, 258, 206
-0.99957, 157, 275, 172, 290
-0.99957, 49, 201, 64, 216
-0.99957, 183, 249, 198, 264
-0.99957, 55, 325, 70, 340
-0.99957, 25, 311, 40, 326
-0.999571, 203, 289, 218, 304
-0.999571, 55, 313, 70, 328
-0.999572, 109, 327, 124, 342
-0.999572, 139, 225, 154, 240
-0.999573, 177, 265, 192, 280
-0.999573, 203, 329, 218, 344
-0.999574, 139, 313, 154, 328
-0.999574, 93, 285, 108, 300
-0.999574, 283, 279, 298, 294
-0.999574, 125, 321, 140, 336
-0.999576, 101, 319, 116, 334
-0.999577, 177, 165, 192, 180
-0.999577, 185, 233, 200, 248
-0.999578, 215, 313, 230, 328
-0.999578, 205, 323, 220, 338
-0.999578, 103, 303, 118, 318
-0.999578, 15, 313, 30, 328
-0.999579, 285, 185, 300, 200
-0.999579, 99, 187, 114, 202
-0.99958, 53, 243, 68, 258
-0.999581, 177, 173, 192, 188
-0.999581, 103, 249, 118, 264
-0.999581, 9, 317, 24, 332
-0.999582, 117, 279, 132, 294
-0.999582, 139, 285, 154, 300
-0.999582, 59, 241, 74, 256
-0.999582, 189, 177, 204, 192
-0.999584, 167, 243, 182, 258
-0.999584, 177, 253, 192, 268
-0.999585, 93, 315, 108, 330
-0.999585, 131, 283, 146, 298
-0.999586, 79, 327, 94, 342
-0.999586, 91, 305, 106, 320
-0.999587, 205, 309, 220, 324
-0.999588, 153, 295, 168, 310
-0.999588, 47, 247, 62, 262
-0.999588, 163, 211, 178, 226
-0.999588, 175, 215, 190, 230
-0.99959, 87, 249, 102, 264
-0.99959, 89, 181, 104, 196
-0.99959, 159, 197, 174, 212
-0.999591, 183, 183, 198, 198
-0.999591, 3, 319, 18, 334
-0.999591, 291, 181, 306, 196
-0.999591, 251, 99, 266, 114
-0.999591, 191, 109, 206, 124
-0.999591, 155, 303, 170, 318
-0.999592, 117, 309, 132, 324
-0.999592, 291, 279, 306, 294
-0.999592, 125, 305, 140, 320
-0.999594, 109, 317, 124, 332
-0.999594, 209, 329, 224, 344
-0.999594, 175, 275, 190, 290
-0.999596, 173, 237, 188, 252
-0.999596, 95, 255, 110, 270
-0.999596, 69, 265, 84, 280
-0.999597, 39, 341, 54, 356
-0.999597, 73, 317, 88, 332
-0.999597, 53, 331, 68, 346
-0.999598, 169, 215, 184, 230
-0.999599, 171, 259, 186, 274
-0.9996, 215, 305, 230, 320
-0.999601, 273, 271, 288, 286
-0.999602, 173, 243, 188, 258
-0.999602, 205, 301, 220, 316
-0.999603, 179, 243, 194, 258
-0.999604, 149, 313, 164, 328
-0.999604, 61, 267, 76, 282
-0.999604, 297, 279, 312, 294
-0.999606, 45, 315, 60, 330
-0.999607, 75, 261, 90, 276
-0.99961, 163, 275, 178, 290
-0.99961, 125, 315, 140, 330
-0.99961, 159, 237, 174, 252
-0.99961, 309, 273, 324, 288
-0.999613, 171, 207, 186, 222
-0.999614, 161, 243, 176, 258
-0.999614, 25, 161, 88, 224
-0.999615, 95, 181, 110, 196
-0.999615, 163, 269, 178, 284
-0.999616, 297, 181, 312, 196
-0.999616, 197, 295, 212, 310
-0.999617, 281, 17, 312, 144
-0.999618, 183, 167, 198, 182
-0.99962, 157, 269, 172, 284
-0.99962, 177, 209, 192, 224
-0.99962, 167, 253, 182, 268
-0.99962, 47, 335, 62, 350
-0.99962, 157, 259, 172, 274
-0.999621, 117, 129, 148, 375
-0.999621, 179, 233, 194, 248
-0.999621, 83, 255, 98, 270
-0.999622, 33, 343, 48, 358
-0.999623, 81, 243, 96, 258
-0.999625, 169, 273, 184, 288
-0.999627, 167, 221, 182, 236
-0.999627, 171, 265, 186, 280
-0.999628, 155, 309, 170, 324
-0.999628, 183, 143, 198, 158
-0.999631, 111, 257, 126, 272
-0.999632, 165, 259, 180, 274
-0.999636, 393, 161, 424, 288
-0.99964, 131, 307, 146, 322
-0.999644, 161, 253, 176, 268
-0.999648, 167, 237, 182, 252
-0.999649, 173, 231, 188, 246
-0.999649, 97, 305, 112, 320
-0.999651, 27, 343, 42, 358
-0.999652, 83, 317, 98, 332
-0.999652, 161, 231, 176, 246
-0.999652, 97, 297, 112, 312
-0.999653, 251, 189, 266, 204
-0.999653, 21, 345, 36, 360
-0.999654, 105, 311, 120, 326
-0.999654, 185, 49, 216, 176
-0.999656, 177, 223, 192, 238
-0.999663, 115, 323, 130, 338
-0.999673, 303, 277, 318, 292
-0.999686, 167, 231, 182, 246
-0.999692, 183, 175, 198, 190
-0.999703, 425, 241, 456, 368
-0.999718, 41, 33, 104, 288
-0.999756, 95, 291, 110, 306
-0.999785, 233, 1, 264, 256
-0.999859, 229, 1, 260, 128
-0.999925, 405, 177, 436, 304
-0.999983, 9, 97, 40, 352
-1, 21, 97, 52, 352
-1.00005, 1, 25, 128, 88
-1.00006, 209, 33, 240, 288
-1.00007, 449, 1, 480, 256
-1.00011, 393, 129, 424, 375
-1.00013, 1, 25, 256, 88
-1.00015, 437, 1, 468, 256
-1.00015, 57, 33, 88, 288
-1.00023, 461, 1, 492, 256
-1.00027, 409, 129, 440, 375
-1.00031, 97, 33, 160, 288
-1.00032, 137, 33, 168, 288
-1.00041, 37, 33, 68, 288
-1.00042, 441, 241, 472, 368
-1.00045, 257, 25, 384, 88
-1.00045, 1, 49, 256, 112
-1.00045, 65, 1, 320, 64
-1.0005, 85, 33, 116, 288
-1.00051, 1, 65, 500, 128
-1.00056, 437, 97, 468, 352
-1.00058, 425, 1, 456, 256
-1.00059, 81, 113, 112, 240
-1.0006, 49, 105, 176, 168
-1.00061, 113, 33, 144, 288
-1.00061, 257, 313, 384, 375
-1.00062, 97, 57, 224, 120
-1.00069, 413, 1, 444, 256
-1.00075, 73, 1, 104, 256
-1.00078, 453, 97, 484, 352
-1.00079, 1, 1, 32, 256
-1.00087, 385, 97, 448, 224
-1.00087, 465, 241, 496, 368
-1.00088, 425, 129, 456, 375
-1.00088, 1, 145, 32, 272
-1.00089, 101, 1, 132, 256
-1.00093, 125, 1, 156, 256
-1.00098, 213, 65, 244, 192
-1.00098, 465, 97, 496, 352
-1.00098, 41, 97, 104, 224
-1.00106, 25, 1, 56, 256
-1.00108, 49, 49, 176, 112
-1.00113, 97, 1, 224, 128
-1.00114, 1, 57, 128, 120
-1.00122, 393, 145, 456, 272
-1.00122, 13, 1, 44, 256
-1.00124, 49, 129, 176, 192
-1.00133, 401, 49, 464, 176
-1.00136, 1, 113, 128, 176
-1.00157, 417, 193, 448, 320
-1.00164, 121, 129, 152, 256
-1.00166, 437, 81, 468, 208
-1.00171, 465, 81, 496, 208
-1.00174, 453, 81, 484, 208
-1.00174, 33, 81, 160, 144
-1.00176, 49, 1, 176, 128
-1.00189, 393, 97, 424, 224
-1.00192, 409, 1, 472, 256
-1.00198, 33, 129, 64, 256
-1.00212, 265, 17, 296, 144
-1.00225, 133, 129, 164, 256
-1.00227, 453, 225, 484, 352
-1.00235, 121, 81, 184, 208
-1.00237, 1, 1, 64, 128
-1.00252, 157, 65, 188, 192
-1.00344, 41, 1, 104, 128
-1.00359, 65, 33, 128, 288
-1.00361, 105, 1, 168, 128
-1.00378, 417, 129, 480, 375
-1.00399, 433, 193, 496, 320
-1.00424, 1, 49, 128, 176
-1.00504, 145, 17, 208, 144
-1.0062, 65, 1, 128, 128
-1.00737, 1, 49, 64, 176
-1.00855, 81, 81, 144, 208
-1.01055, 49, 49, 112, 176
-1.01078, 25, 49, 88, 176
-1.01089, 169, 1, 232, 128
-1.01367, 433, 129, 496, 256
