1957
-0.261216, 1, 1, 375, 500
-0.410181, 33, 1, 288, 500
-0.423822, 1, 65, 375, 320
-0.454621, 1, 161, 375, 416
-0.491657, 129, 1, 375, 500
-0.549175, 1, 257, 375, 500
-0.624463, 129, 65, 375, 320
-0.625183, 1, 193, 256, 448
-0.687954, 1, 65, 256, 320
-0.728179, 97, 193, 352, 448
-0.820372, 129, 1, 256, 500
-0.838239, 1, 1, 128, 500
-0.862616, 81, 1, 208, 500
-0.868175, 1, 225, 128, 480
-0.870479, 209, 1, 336, 500
-0.87083, 193, 33, 320, 288
-0.879547, 65, 161, 192, 416
-0.881779, 129, 33, 256, 288
-0.884752, 113, 193, 240, 448
-0.89372, 81, 33, 208, 288
-0.895475, 161, 129, 288, 384
-0.895791, 1, 193, 375, 320
-0.896388, 17, 65, 144, 320
-0.896397, 241, 65, 368, 320
-0.902677, 1, 97, 375, 224
-0.909535, 1, 145, 375, 272
-0.911326, 1, 33, 375, 160
-0.91271, 33, 161, 288, 288
-0.918156, 1, 321, 375, 448
-0.919247, 193, 225, 320, 480
-0.926709, 129, 97, 375, 224
-0.933194, 129, 49, 375, 176
-0.937215, 129, 145, 375, 272
-0.938489, 113, 177, 240, 304
-0.938497, 193, 113, 320, 240
-0.939112, 1, 321, 256, 448
-0.941504, 1, 273, 375, 400
-0.941722, 49, 257, 176, 500
-0.941837, 225, 65, 352, 192
-0.94379, 241, 161, 368, 416
-0.944865, 65, 177, 192, 304
-0.948039, 97, 305, 352, 432
-0.948061, 33, 97, 288, 224
-0.948107, 1, 209, 256, 336
-0.948382, 217, 113, 280, 240
-0.949684, 241, 257, 368, 500
-0.94992, 145, 113, 272, 240
-0.949964, 169, 177, 232, 304
-0.950718, 241, 113, 368, 240
-0.950773, 281, 65, 344, 192
-0.950866, 1, 337, 128, 464
-0.951864, 33, 49, 288, 176
-0.952315, 177, 33, 304, 160
-0.952379, 193, 145, 256, 272
-0.953085, 1, 257, 128, 384
-0.953746, 1, 273, 256, 400
-0.95449, 25, 161, 88, 288
-0.954656, 65, 1, 320, 128
-0.955121, 81, 305, 208, 432
-0.955159, 97, 257, 352, 384
-0.9564, 137, 161, 200, 288
-0.95647, 169, 129, 232, 256
-0.957384, 129, 193, 375, 320
-0.957927, 129, 33, 256, 160
-0.958163, 81, 1, 208, 128
-0.958399, 65, 337, 128, 464
-0.958684, 225, 121, 288, 184
-0.959269, 9, 241, 72, 368
-0.959419, 313, 113, 375, 240
-0.959655, 177, 161, 304, 288
-0.959953, 257, 49, 320, 176
-0.960106, 1, 209, 128, 336
-0.960433, 1, 369, 375, 496
-0.961889, 241, 1, 304, 128
-0.961954, 1, 337, 64, 464
-0.96248, 281, 81, 344, 144
-0.962656, 1, 193, 64, 320
-0.962747, 273, 113, 336, 240
-0.962998, 129, 353, 375, 480
-0.96303, 201, 49, 264, 176
-0.963897, 145, 1, 208, 128
-0.963909, 129, 169, 192, 232
-0.963949, 161, 305, 224, 432
-0.963997, 113, 241, 240, 368
-0.964234, 161, 209, 288, 336
-0.96472, 161, 305, 288, 432
-0.965437, 65, 145, 128, 272
-0.965546, 1, 161, 128, 288
-0.965754, 161, 257, 224, 384
-0.965794, 241, 97, 304, 224
-0.966561, 169, 1, 232, 128
-0.966939, 57, 193, 120, 320
-0.966986, 121, 305, 184, 432
-0.967261, 33, 353, 96, 480
-0.967368, 49, 225, 176, 352
-0.967489, 265, 57, 328, 120
-0.967668, 177, 137, 240, 200
-0.967849, 81, 129, 208, 256
-0.967974, 305, 81, 368, 144
-0.968281, 249, 25, 312, 88
-0.968689, 265, 113, 328, 176
-0.968715, 233, 49, 296, 176
-0.96881, 313, 113, 375, 176
-0.969107, 209, 1, 272, 128
-0.969737, 65, 353, 128, 416
-0.970112, 305, 65, 368, 192
-0.97023, 145, 353, 272, 480
-0.97058, 49, 353, 176, 480
-0.97124, 41, 225, 104, 288
-0.971719, 1, 257, 64, 320
-0.971736, 89, 337, 152, 464
-0.971739, 225, 17, 352, 144
-0.97187, 225, 97, 288, 160
-0.971877, 17, 33, 144, 160
-0.97188, 97, 193, 160, 320
-0.971992, 193, 225, 256, 352
-0.97217, 97, 185, 160, 248
-0.972288, 217, 161, 280, 288
-0.972376, 1, 369, 256, 496
-0.972379, 33, 113, 160, 240
-0.972398, 209, 337, 336, 464
-0.972459, 33, 209, 96, 336
-0.973037, 209, 105, 336, 168
-0.973089, 177, 65, 240, 192
-0.973162, 185, 169, 248, 232
-0.973329, 153, 49, 216, 176
-0.973585, 97, 129, 160, 256
-0.97393, 113, 177, 240, 240
-0.974293, 225, 161, 352, 288
-0.974557, 65, 209, 128, 272
-0.974764, 25, 361, 88, 424
-0.974813, 57, 81, 120, 208
-0.974998, 313, 57, 375, 120
-0.975093, 25, 225, 88, 480
-0.975184, 289, 337, 352, 400
-0.975376, 153, 17, 216, 80
-0.975472, 89, 329, 152, 392
-0.975492, 65, 49, 192, 176
-0.97553, 289, 49, 352, 112
-0.975565, 273, 137, 336, 200
-0.975707, 209, 25, 272, 88
-0.975953, 137, 241, 200, 368
-0.976063, 145, 369, 208, 496
-0.976253, 209, 129, 336, 192
-0.97639, 241, 57, 304, 120
-0.976602, 185, 289, 248, 416
-0.976714, 153, 153, 216, 216
-0.976749, 57, 65, 120, 320
-0.976958, 201, 161, 232, 288
-0.977003, 201, 145, 264, 208
-0.977186, 129, 145, 256, 208
-0.977225, 161, 177, 224, 240
-0.977304, 281, 321, 344, 448
-0.977395, 25, 305, 88, 432
-0.977459, 129, 161, 192, 416
-0.977495, 225, 33, 288, 288
-0.977583, 201, 113, 264, 176
-0.978, 41, 177, 104, 240
-0.978021, 49, 193, 112, 448
-0.978028, 137, 297, 200, 360
-0.978035, 193, 225, 256, 288
-0.978235, 257, 337, 320, 400
-0.978435, 49, 33, 112, 160
-0.978468, 97, 161, 160, 416
-0.978578, 169, 33, 232, 288
-0.978586, 193, 33, 256, 288
-0.978841, 161, 161, 224, 416
-0.978906, 1, 353, 64, 416
-0.97895, 313, 345, 375, 408
-0.979065, 265, 1, 328, 128
-0.979078, 1, 225, 64, 480
-0.979109, 201, 369, 264, 496
-0.979135, 33, 81, 96, 208
-0.979231, 97, 289, 160, 416
-0.979245, 217, 305, 280, 432
-0.979297, 221, 33, 252, 160
-0.979385, 65, 161, 128, 224
-0.97943, 161, 257, 288, 384
-0.979567, 217, 209, 280, 336
-0.979571, 113, 1, 176, 128
-0.979639, 137, 113, 200, 240
-0.979692, 25, 337, 88, 400
-0.979742, 177, 161, 304, 224
-0.979834, 257, 361, 320, 424
-0.979864, 97, 369, 224, 496
-0.979871, 177, 345, 240, 408
-0.979967, 17, 233, 80, 296
-0.980028, 9, 33, 72, 160
-0.980033, 209, 97, 240, 224
-0.980052, 225, 289, 352, 416
-0.980177, 145, 377, 208, 440
-0.980201, 305, 17, 368, 144
-0.980289, 229, 113, 260, 240
-0.980315, 241, 81, 368, 144
-0.980381, 129, 49, 192, 176
-0.980418, 49, 433, 112, 496
-0.980526, 9, 257, 40, 384
-0.980527, 89, 209, 152, 272
-0.980543, 177, 177, 208, 304
-0.980648, 309, 81, 340, 144
-0.980681, 145, 49, 208, 112
-0.980778, 213, 145, 244, 272
-0.980816, 81, 329, 208, 392
-0.980824, 205, 137, 236, 200
-0.98091, 161, 265, 224, 328
-0.980922, 73, 193, 136, 448
-0.98099, 257, 289, 320, 416
-0.981014, 17, 353, 144, 416
-0.981015, 25, 1, 88, 500
-0.981111, 177, 353, 240, 480
-0.981299, 225, 153, 288, 216
-0.981314, 201, 89, 264, 152
-0.981378, 1, 233, 128, 296
-0.981451, 249, 161, 312, 288
-0.981512, 81, 49, 144, 176
-0.981541, 113, 297, 176, 360
-0.981691, 161, 177, 192, 304
-0.981756, 73, 185, 136, 248
-0.98179, 153, 1, 216, 500
-0.981868, 189, 33, 220, 160
-0.981945, 17, 201, 80, 264
-0.981963, 217, 49, 280, 112
-0.98197, 129, 321, 192, 384
-0.981973, 49, 201, 176, 264
-0.982078, 89, 153, 152, 216
-0.982104, 65, 169, 192, 232
-0.982106, 257, 305, 320, 368
-0.982122, 65, 1, 128, 500
-0.982275, 145, 33, 208, 288
-0.982301, 121, 193, 184, 256
-0.982372, 229, 121, 260, 184
-0.98253, 161, 313, 224, 376
-0.982618, 249, 353, 312, 480
-0.98264, 321, 113, 352, 240
-0.982669, 217, 209, 280, 272
-0.982712, 209, 345, 272, 408
-0.982763, 81, 17, 208, 80
-0.982842, 1, 321, 64, 384
-0.982843, 309, 65, 340, 192
-0.98287, 121, 353, 184, 480
-0.982911, 265, 121, 296, 184
-0.983048, 233, 1, 264, 128
-0.983107, 129, 145, 192, 208
-0.983146, 177, 1, 240, 500
-0.983195, 33, 65, 96, 320
-0.983488, 177, 105, 240, 168
-0.983497, 305, 337, 368, 464
-0.983514, 189, 177, 220, 304
-0.983537, 105, 17, 168, 80
-0.983587, 97, 425, 160, 488
-0.983633, 241, 329, 368, 392
-0.983683, 177, 57, 240, 120
-0.983761, 265, 113, 296, 240
-0.983788, 193, 129, 256, 384
-0.983792, 153, 169, 184, 232
-0.983831, 153, 433, 216, 496
-0.983852, 193, 433, 256, 496
-0.983861, 97, 41, 224, 104
-0.983865, 133, 161, 164, 288
-0.98388, 113, 353, 176, 416
-0.983958, 233, 361, 296, 424
-0.983975, 249, 33, 312, 288
-0.983984, 285, 65, 316, 192
-0.98403, 221, 153, 252, 216
-0.984078, 197, 25, 228, 88
-0.984127, 161, 121, 288, 184
-0.984152, 1, 177, 128, 240
-0.984242, 145, 161, 176, 288
-0.984332, 209, 49, 336, 112
-0.984346, 49, 289, 112, 416
-0.984349, 241, 1, 304, 64
-0.984395, 285, 113, 316, 176
-0.984539, 213, 113, 244, 176
-0.984546, 165, 305, 196, 432
-0.984558, 137, 353, 200, 416
-0.984574, 293, 49, 324, 112
-0.984598, 281, 369, 344, 432
-0.984651, 169, 241, 232, 304
-0.984666, 137, 273, 200, 336
-0.984701, 1, 145, 64, 272
-0.984719, 193, 297, 256, 360
-0.984792, 17, 337, 48, 464
-0.984871, 329, 113, 360, 176
-0.984879, 217, 313, 280, 376
-0.98488, 161, 17, 288, 80
-0.984973, 69, 353, 100, 416
-0.985011, 313, 289, 375, 416
-0.985069, 9, 129, 72, 384
-0.985105, 17, 161, 80, 224
-0.98523, 129, 177, 160, 240
-0.985277, 241, 121, 272, 184
-0.985313, 333, 97, 364, 224
-0.98534, 85, 345, 116, 408
-0.985343, 297, 65, 328, 192
-0.985343, 297, 137, 360, 200
-0.985421, 305, 1, 368, 500
-0.985436, 145, 265, 272, 328
-0.985464, 241, 17, 272, 80
-0.985501, 53, 161, 84, 288
-0.9856, 33, 89, 96, 152
-0.985615, 5, 265, 36, 328
-0.985615, 313, 1, 375, 256
-0.985637, 177, 369, 240, 432
-0.985677, 145, 57, 272, 120
-0.985683, 177, 33, 208, 160
-0.985712, 129, 417, 256, 480
-0.985758, 313, 369, 375, 432
-0.985788, 49, 433, 176, 496
-0.985792, 1, 1, 64, 500
-0.985849, 185, 41, 216, 104
-0.985905, 5, 193, 36, 320
-0.985928, 241, 113, 272, 240
-0.985945, 253, 97, 284, 160
-0.985959, 317, 121, 348, 184
-0.98601, 225, 129, 288, 384
-0.986061, 181, 129, 212, 256
-0.986066, 193, 337, 320, 400
-0.986086, 89, 369, 152, 432
-0.986147, 281, 313, 344, 376
-0.986178, 145, 305, 272, 368
-0.986229, 89, 1, 152, 500
-0.986266, 173, 241, 204, 368
-0.986307, 241, 153, 368, 216
-0.986311, 269, 49, 300, 176
-0.986355, 341, 1, 372, 64
-0.986373, 17, 329, 144, 392
-0.986381, 129, 97, 256, 160
-0.986419, 121, 433, 184, 496
-0.986461, 85, 337, 116, 464
-0.986488, 205, 169, 236, 232
-0.986508, 217, 433, 280, 496
-0.986571, 241, 353, 368, 416
-0.986583, 129, 1, 192, 500
-0.986599, 209, 17, 336, 80
-0.986604, 117, 177, 148, 304
-0.986618, 57, 89, 120, 152
-0.986619, 345, 97, 375, 224
-0.986621, 161, 129, 192, 256
-0.986632, 89, 49, 152, 112
-0.986672, 49, 41, 112, 104
-0.986684, 81, 65, 144, 320
-0.986698, 37, 353, 68, 480
-0.986728, 129, 9, 192, 72
-0.986797, 225, 25, 256, 88
-0.986815, 233, 337, 296, 400
-0.986965, 233, 49, 264, 176
-0.987004, 185, 193, 248, 256
-0.987053, 9, 41, 72, 104
-0.987059, 1, 1, 64, 256
-0.987074, 49, 225, 176, 288
-0.987077, 49, 145, 176, 208
-0.987109, 313, 97, 375, 352
-0.98713, 165, 153, 196, 216
-0.987153, 225, 353, 288, 480
-0.98719, 141, 169, 172, 232
-0.987221, 25, 177, 56, 304
-0.98726, 193, 361, 320, 424
-0.987272, 241, 281, 304, 344
-0.98733, 1, 305, 32, 432
-0.987352, 1, 41, 128, 104
-0.987375, 65, 353, 192, 416
-0.987386, 101, 321, 132, 448
-0.987414, 153, 409, 216, 472
-0.987446, 113, 201, 240, 264
-0.987458, 57, 353, 88, 480
-0.987527, 145, 257, 208, 500
-0.987563, 109, 185, 140, 248
-0.987584, 9, 97, 72, 224
-0.9876, 65, 17, 128, 80
-0.987608, 253, 129, 284, 256
-0.987627, 197, 97, 228, 224
-0.987642, 129, 241, 256, 304
-0.987644, 177, 209, 304, 272
-0.987651, 273, 1, 336, 500
-0.987669, 201, 1, 264, 500
-0.987678, 1, 9, 128, 72
-0.987749, 73, 145, 104, 272
-0.987789, 285, 17, 316, 144
-0.987807, 65, 329, 128, 392
-0.987859, 41, 361, 72, 424
-0.987883, 313, 33, 375, 96
-0.987917, 201, 33, 232, 160
-0.987933, 73, 209, 104, 336
-0.987943, 1, 209, 128, 272
-0.987967, 97, 193, 128, 256
-0.987984, 241, 409, 368, 472
-0.987986, 81, 305, 208, 368
-0.988021, 229, 161, 260, 288
-0.988035, 49, 49, 176, 112
-0.988076, 49, 409, 176, 472
-0.988099, 193, 313, 320, 376
-0.988114, 41, 409, 104, 472
-0.988121, 185, 305, 216, 432
-0.988124, 61, 209, 92, 336
-0.988125, 1, 137, 64, 200
-0.988128, 209, 209, 336, 336
-0.988132, 241, 201, 304, 264
-0.988137, 73, 1, 136, 128
-0.98814, 249, 89, 312, 152
-0.988214, 317, 345, 348, 408
-0.988229, 249, 1, 312, 500
-0.988245, 169, 257, 232, 500
-0.988258, 177, 81, 304, 144
-0.988264, 73, 433, 136, 496
-0.988275, 153, 305, 184, 432
-0.988341, 281, 65, 344, 320
-0.988342, 153, 217, 216, 280
-0.988361, 69, 337, 100, 464
-0.988388, 45, 233, 76, 296
-0.988427, 165, 177, 196, 240
-0.988433, 321, 65, 352, 192
-0.988433, 165, 353, 196, 480
-0.98845, 313, 417, 375, 480
-0.988528, 81, 81, 208, 144
-0.988541, 1, 289, 64, 416
-0.988559, 321, 81, 352, 144
-0.988566, 277, 113, 308, 240
-0.988626, 297, 89, 328, 152
-0.988626, 209, 1, 272, 64
-0.988628, 181, 17, 212, 80
-0.988657, 185, 241, 216, 368
-0.98871, 129, 409, 192, 472
-0.988718, 305, 129, 336, 192
-0.988736, 253, 49, 284, 176
-0.988783, 97, 329, 128, 392
-0.988786, 329, 57, 360, 120
-0.988824, 217, 257, 280, 320
-0.988841, 161, 185, 288, 248
-0.988902, 161, 385, 288, 448
-0.988922, 221, 217, 252, 280
-0.988931, 193, 433, 320, 496
-0.988953, 17, 81, 144, 144
-0.988954, 177, 81, 240, 144
-0.988974, 177, 185, 208, 248
-0.989022, 193, 177, 224, 240
-0.989061, 253, 121, 284, 184
-0.989125, 249, 129, 312, 384
-0.989134, 113, 129, 144, 256
-0.98914, 169, 305, 200, 368
-0.989146, 217, 281, 280, 344
-0.989149, 249, 153, 312, 216
-0.989163, 25, 249, 56, 312
-0.989211, 121, 377, 184, 440
-0.989247, 281, 369, 344, 496
-0.989254, 1, 417, 64, 480
-0.989282, 73, 401, 136, 464
-0.989298, 225, 1, 288, 500
-0.989324, 229, 97, 260, 160
-0.989329, 5, 321, 36, 384
-0.989345, 205, 233, 236, 296
-0.98936, 57, 225, 88, 288
-0.989449, 57, 65, 120, 128
-0.989466, 113, 121, 240, 184
-0.989489, 161, 33, 192, 160
-0.989535, 345, 49, 375, 112
-0.98955, 177, 17, 240, 80
-0.989599, 129, 353, 256, 416
-0.989655, 21, 241, 52, 368
-0.989696, 209, 177, 272, 240
-0.989721, 73, 273, 136, 400
-0.98973, 241, 209, 272, 336
-0.989753, 113, 321, 144, 384
-0.989822, 221, 209, 252, 336
-0.989822, 289, 17, 352, 80
-0.989823, 1, 257, 128, 320
-0.989829, 193, 289, 320, 352
-0.989838, 57, 361, 88, 424
-0.989844, 309, 113, 340, 240
-0.989862, 1, 305, 128, 368
-0.989918, 93, 161, 124, 288
-0.989931, 241, 377, 368, 440
-0.989931, 201, 369, 264, 432
-0.98997, 93, 49, 124, 176
-0.989972, 273, 117, 336, 148
-0.989993, 185, 321, 248, 384
-0.989996, 129, 181, 192, 212
-0.990009, 177, 145, 208, 208
-0.990027, 45, 209, 76, 336
-0.990059, 213, 89, 244, 152
-0.990061, 185, 273, 248, 336
-0.990153, 161, 289, 224, 352
-0.99016, 209, 225, 272, 480
-0.990166, 81, 377, 208, 440
-0.990182, 65, 357, 128, 388
-0.99019, 177, 353, 208, 480
-0.9902, 161, 257, 192, 384
-0.990361, 129, 329, 256, 392
-0.990372, 333, 81, 364, 144
-0.990387, 341, 113, 372, 176
-0.990395, 121, 241, 184, 304
-0.990413, 17, 385, 80, 448
-0.990443, 85, 209, 116, 272
-0.990448, 177, 241, 304, 304
-0.990487, 257, 337, 288, 400
-0.99049, 149, 145, 180, 208
-0.990493, 57, 129, 120, 192
-0.990501, 209, 125, 272, 156
-0.990503, 69, 217, 100, 280
-0.990526, 297, 321, 328, 384
-0.990532, 41, 209, 72, 272
-0.990539, 1, 153, 128, 216
-0.990592, 205, 225, 236, 352
-0.990592, 293, 345, 324, 408
-0.990597, 241, 209, 272, 272
-0.990638, 9, 233, 40, 296
-0.990646, 245, 1, 276, 128
-0.990654, 165, 361, 196, 424
-0.990657, 121, 33, 184, 288
-0.990679, 57, 185, 88, 248
-0.990712, 201, 105, 232, 168
-0.990727, 1, 433, 128, 496
-0.99074, 185, 141, 248, 172
-0.990781, 1, 281, 64, 344
-0.990806, 177, 409, 240, 472
-0.99081, 149, 289, 180, 352
-0.990821, 105, 129, 168, 192
-0.990822, 281, 41, 312, 104
-0.990832, 345, 25, 375, 88
-0.990838, 281, 57, 344, 88
-0.990852, 313, 81, 375, 112
-0.990918, 105, 81, 168, 208
-0.99092, 241, 97, 272, 160
-0.990932, 241, 209, 304, 336
-0.990932, 313, 121, 375, 152
-0.990937, 105, 177, 136, 304
-0.990939, 153, 89, 216, 152
-0.990963, 73, 185, 104, 248
-0.990981, 145, 53, 208, 84
-0.990987, 177, 49, 240, 80
-0.990999, 249, 53, 312, 84
-0.991006, 169, 181, 232, 212
-0.991046, 233, 105, 296, 136
-0.991048, 193, 137, 224, 200
-0.991088, 29, 217, 60, 280
-0.991104, 273, 145, 336, 176
-0.991111, 97, 197, 160, 228
-0.991156, 129, 81, 192, 144
-0.991176, 117, 161, 148, 224
-0.991179, 289, 305, 320, 432
-0.991179, 289, 81, 352, 112
-0.991204, 41, 201, 104, 264
-0.991212, 57, 425, 88, 488
-0.991213, 225, 153, 288, 184
-0.991228, 113, 321, 144, 448
-0.991248, 225, 177, 352, 240
-0.991263, 197, 1, 228, 64
-0.991267, 345, 433, 375, 496
-0.991268, 249, 333, 312, 364
-0.991277, 265, 185, 328, 248
-0.991307, 345, 89, 375, 152
-0.991317, 241, 41, 272, 104
-0.99132, 269, 145, 300, 208
-0.991355, 25, 365, 88, 396
-0.991369, 233, 365, 296, 396
-0.991371, 249, 41, 312, 72
-0.991394, 41, 437, 104, 468
-0.99142, 161, 317, 224, 348
-0.991426, 25, 353, 88, 384
-0.991437, 33, 209, 96, 240
-0.991478, 289, 101, 352, 132
-0.991487, 201, 169, 264, 200
-0.99152, 1, 409, 128, 472
-0.991525, 69, 81, 100, 208
-0.991526, 89, 209, 152, 240
-0.991529, 17, 221, 80, 252
-0.991529, 145, 1, 208, 32
-0.991576, 97, 185, 160, 216
-0.991581, 129, 169, 192, 200
-0.991598, 273, 361, 336, 392
-0.991628, 65, 369, 128, 400
-0.991666, 65, 217, 128, 248
-0.991667, 217, 53, 280, 84
-0.991681, 233, 141, 296, 172
-0.991682, 289, 45, 352, 76
-0.991685, 345, 369, 375, 496
-0.991703, 185, 305, 248, 336
-0.991707, 281, 337, 312, 400
-0.991724, 25, 353, 56, 416
-0.991739, 193, 409, 320, 472
-0.991745, 257, 377, 320, 408
-0.991825, 221, 49, 252, 112
-0.99183, 249, 121, 312, 152
-0.991841, 273, 1, 304, 128
-0.991847, 225, 201, 352, 264
-0.991851, 1, 357, 64, 388
-0.991856, 73, 433, 104, 496
-0.991857, 9, 265, 72, 296
-0.991877, 313, 369, 375, 400
-0.991878, 49, 81, 80, 208
-0.991878, 1, 129, 128, 192
-0.991881, 153, 169, 216, 200
-0.991888, 41, 237, 104, 268
-0.991894, 153, 193, 216, 224
-0.991932, 289, 345, 352, 376
-0.991935, 129, 329, 192, 360
-0.991935, 105, 333, 168, 364
-0.991937, 149, 257, 180, 384
-0.991974, 209, 17, 240, 80
-0.991989, 169, 25, 200, 88
-0.991994, 161, 369, 224, 400
-0.991994, 145, 25, 208, 56
-0.991994, 33, 185, 96, 216
-0.992002, 217, 41, 280, 72
-0.992011, 97, 373, 160, 404
-0.992012, 257, 133, 320, 164
-0.99204, 201, 457, 264, 488
-0.992043, 65, 177, 128, 208
-0.992044, 305, 133, 368, 164
-0.992048, 121, 373, 184, 404
-0.992063, 9, 445, 72, 476
-0.992066, 161, 385, 224, 416
-0.992077, 241, 297, 368, 360
-0.992079, 233, 1, 296, 32
-0.992079, 273, 97, 304, 160
-0.992079, 89, 169, 152, 200
-0.992082, 57, 193, 120, 224
-0.992091, 289, 373, 352, 404
-0.992099, 17, 173, 80, 204
-0.992116, 105, 257, 168, 500
-0.992117, 33, 225, 64, 352
-0.99213, 129, 193, 192, 224
-0.992136, 205, 289, 236, 416
-0.992146, 185, 249, 248, 280
-0.992146, 33, 185, 288, 248
-0.992158, 281, 69, 344, 100
-0.992164, 145, 13, 208, 44
-0.992199, 273, 333, 336, 364
-0.99221, 1, 233, 64, 264
-0.992215, 153, 321, 184, 384
-0.992224, 217, 257, 280, 384
-0.992227, 129, 309, 192, 340
-0.992231, 249, 353, 312, 384
-0.992237, 233, 17, 296, 48
-0.992246, 49, 161, 112, 192
-0.992265, 145, 37, 208, 68
-0.992267, 89, 437, 152, 468
-0.992277, 245, 345, 276, 408
-0.992278, 265, 85, 328, 116
-0.992291, 17, 253, 80, 284
-0.992301, 301, 321, 332, 448
-0.992302, 65, 121, 192, 184
-0.992333, 209, 233, 272, 264
-0.992345, 81, 345, 144, 376
-0.992345, 289, 273, 352, 400
-0.992346, 65, 205, 128, 236
-0.992357, 217, 325, 280, 356
-0.992358, 105, 29, 168, 60
-0.992358, 209, 365, 272, 396
-0.992365, 41, 221, 104, 252
-0.992375, 193, 181, 256, 212
-0.992385, 33, 377, 96, 408
-0.992416, 185, 381, 248, 412
-0.992422, 105, 321, 168, 352
-0.992424, 313, 61, 375, 92
-0.992424, 169, 261, 232, 292
-0.99244, 153, 453, 216, 484
-0.992443, 281, 385, 344, 416
-0.992447, 337, 353, 368, 416
-0.992448, 113, 45, 176, 76
-0.992461, 189, 105, 220, 168
-0.992463, 185, 369, 248, 400
-0.992477, 65, 229, 128, 260
-0.992484, 57, 449, 120, 480
-0.992512, 281, 133, 344, 164
-0.992517, 1, 277, 64, 308
-0.992526, 137, 297, 200, 328
-0.992548, 1, 201, 64, 232
-0.992567, 177, 37, 240, 68
-0.992585, 313, 321, 344, 448
-0.992586, 113, 445, 176, 476
-0.992586, 41, 161, 72, 288
-0.992593, 217, 217, 280, 248
-0.992596, 305, 385, 368, 416
-0.992599, 153, 329, 216, 360
-0.9926, 185, 469, 248, 500
-0.992607, 313, 81, 344, 112
-0.99261, 105, 17, 168, 48
-0.992614, 217, 301, 280, 332
-0.99262, 209, 17, 272, 48
-0.992622, 225, 345, 288, 376
-0.992649, 49, 257, 176, 320
-0.992659, 161, 273, 224, 304
-0.99266, 273, 161, 336, 288
-0.992672, 65, 329, 320, 392
-0.992674, 305, 1, 368, 32
-0.992705, 185, 113, 248, 144
-0.992706, 201, 49, 232, 112
-0.992708, 125, 409, 156, 472
-0.992714, 165, 385, 196, 448
-0.992715, 281, 53, 312, 84
-0.992721, 325, 77, 356, 108
-0.992723, 113, 361, 176, 392
-0.992724, 85, 185, 116, 248
-0.992738, 265, 321, 328, 352
-0.99274, 153, 469, 216, 500
-0.992744, 249, 65, 312, 96
-0.992747, 133, 113, 164, 240
-0.992747, 193, 325, 256, 356
-0.992755, 297, 17, 328, 144
-0.992759, 313, 357, 375, 388
-0.992766, 169, 157, 232, 188
-0.99277, 269, 337, 300, 400
-0.992776, 201, 1, 264, 32
-0.992783, 129, 157, 192, 188
-0.992786, 185, 49, 216, 80
-0.99279, 265, 161, 296, 288
-0.992796, 97, 81, 160, 112
-0.992808, 137, 297, 168, 360
-0.992808, 105, 5, 168, 36
-0.992812, 225, 445, 288, 476
-0.992828, 193, 153, 256, 184
-0.992851, 189, 241, 220, 304
-0.992863, 237, 233, 268, 296
-0.992866, 337, 1, 368, 32
-0.992879, 345, 57, 375, 88
-0.992892, 221, 45, 252, 76
-0.992898, 1, 233, 256, 296
-0.992919, 213, 149, 244, 180
-0.99293, 297, 81, 328, 112
-0.992933, 169, 313, 200, 344
-0.992933, 241, 161, 272, 288
-0.99294, 277, 113, 308, 144
-0.992948, 97, 113, 352, 176
-0.992955, 157, 173, 188, 204
-0.992961, 213, 169, 244, 200
-0.992977, 325, 121, 356, 152
-0.99298, 201, 45, 232, 76
-0.992988, 177, 37, 208, 68
-0.992994, 173, 181, 204, 212
-0.992996, 197, 181, 228, 212
-0.993006, 137, 177, 168, 208
-0.993017, 129, 153, 375, 216
-0.993024, 169, 49, 200, 80
-0.993032, 189, 13, 220, 44
-0.993041, 309, 129, 340, 160
-0.993044, 245, 57, 276, 88
-0.993056, 261, 121, 292, 152
-0.993057, 149, 189, 180, 220
-0.99308, 69, 361, 100, 392
-0.993085, 225, 161, 256, 192
-0.993092, 189, 1, 220, 32
-0.993096, 233, 45, 264, 76
-0.993106, 125, 185, 156, 216
-0.993109, 233, 33, 264, 64
-0.993111, 33, 33, 64, 160
-0.993111, 185, 189, 216, 220
-0.993114, 201, 137, 232, 168
-0.993115, 293, 53, 324, 84
-0.993124, 129, 49, 375, 112
-0.993125, 197, 33, 228, 64
-0.993125, 193, 265, 320, 328
-0.993143, 261, 25, 292, 88
-0.993143, 37, 369, 68, 400
-0.993148, 329, 61, 360, 92
-0.993154, 221, 33, 252, 64
-0.993169, 49, 237, 80, 268
-0.993169, 297, 373, 328, 404
-0.993169, 109, 201, 140, 232
-0.993173, 261, 141, 292, 172
-0.993174, 285, 313, 316, 376
-0.993175, 345, 45, 375, 76
-0.993182, 137, 145, 168, 208
-0.993189, 173, 257, 204, 320
-0.99319, 305, 93, 336, 124
-0.993192, 161, 185, 192, 216
-0.993195, 293, 337, 324, 368
-0.993197, 61, 229, 92, 260
-0.9932, 153, 37, 184, 68
-0.993205, 241, 5, 272, 36
-0.993205, 1, 273, 32, 304
-0.993209, 73, 221, 104, 252
-0.99321, 129, 197, 160, 228
-0.99321, 157, 49, 188, 80
-0.99321, 221, 125, 252, 156
-0.993222, 257, 313, 288, 376
-0.993223, 317, 377, 348, 408
-0.993224, 13, 353, 44, 416
-0.993224, 225, 425, 256, 488
-0.993224, 281, 145, 312, 176
-0.993227, 13, 265, 44, 296
-0.993228, 241, 21, 272, 52
-0.993236, 85, 353, 116, 384
-0.993242, 45, 221, 76, 252
-0.993244, 337, 113, 368, 144
-0.993249, 217, 57, 248, 88
-0.993251, 257, 361, 288, 392
-0.993258, 89, 209, 120, 240
-0.993259, 1, 297, 32, 360
-0.993267, 257, 105, 288, 136
-0.993268, 293, 97, 324, 128
-0.993278, 65, 437, 96, 468
-0.993278, 337, 369, 368, 400
-0.993281, 269, 153, 300, 184
-0.99329, 293, 65, 324, 96
-0.993292, 197, 241, 228, 272
-0.993298, 221, 225, 252, 256
-0.993305, 81, 197, 112, 228
-0.993307, 37, 245, 68, 276
-0.993307, 17, 357, 48, 388
-0.993315, 153, 325, 184, 356
-0.99332, 253, 337, 284, 368
-0.993323, 9, 245, 40, 276
-0.993331, 201, 309, 232, 340
-0.993334, 145, 441, 176, 472
-0.993335, 113, 185, 144, 216
-0.993335, 165, 265, 196, 296
-0.99334, 281, 41, 312, 72
-0.993341, 53, 369, 84, 400
-0.993343, 241, 217, 272, 248
-0.993344, 165, 377, 196, 408
-0.993346, 113, 169, 144, 200
-0.993348, 153, 157, 184, 188
-0.993348, 173, 193, 204, 224
-0.99335, 133, 449, 164, 480
-0.993357, 209, 233, 240, 264
-0.993358, 237, 121, 268, 152
-0.993358, 309, 69, 340, 100
-0.99336, 185, 253, 216, 284
-0.993369, 25, 253, 56, 284
-0.993374, 293, 141, 324, 172
-0.993374, 157, 469, 188, 500
-0.993375, 37, 449, 68, 480
-0.993375, 345, 461, 375, 492
-0.993378, 289, 129, 320, 160
-0.993381, 221, 13, 252, 44
-0.993388, 153, 369, 184, 496
-0.993389, 61, 209, 92, 240
-0.99339, 177, 17, 208, 48
-0.993392, 129, 329, 160, 392
-0.993395, 249, 45, 280, 76
-0.993395, 105, 161, 136, 224
-0.993396, 181, 317, 212, 348
-0.993397, 201, 5, 232, 36
-0.993399, 209, 453, 240, 484
-0.993401, 109, 329, 140, 360
-0.993407, 281, 101, 312, 132
-0.993413, 37, 353, 68, 384
-0.993414, 209, 117, 240, 148
-0.993415, 289, 361, 320, 392
-0.993417, 101, 373, 132, 404
-0.99342, 305, 141, 336, 172
-0.993423, 1, 285, 32, 316
-0.993424, 29, 221, 60, 252
-0.993429, 217, 301, 248, 332
-0.993429, 57, 185, 88, 216
-0.993432, 125, 433, 156, 464
-0.993434, 261, 45, 292, 76
-0.993437, 321, 369, 352, 432
-0.993438, 101, 189, 132, 220
-0.99344, 89, 441, 120, 472
-0.993441, 189, 137, 220, 168
-0.993441, 53, 449, 84, 480
-0.993442, 273, 125, 304, 156
-0.993443, 233, 57, 264, 88
-0.993445, 165, 389, 196, 420
-0.993446, 45, 185, 76, 216
-0.993451, 257, 57, 288, 88
-0.993453, 73, 177, 104, 208
-0.993465, 333, 33, 364, 160
-0.993468, 157, 17, 188, 80
-0.993504, 133, 201, 164, 264
-0.993542, 113, 241, 176, 368
-0.993544, 1, 209, 256, 272
-0.9936, 289, 113, 320, 240
-0.993679, 81, 81, 112, 208
-0.993688, 49, 89, 80, 152
-0.99369, 281, 377, 312, 440
-0.993717, 97, 281, 224, 344
-0.993756, 129, 305, 160, 432
-0.99376, 153, 377, 184, 440
-0.993763, 57, 33, 88, 160
-0.993772, 17, 105, 144, 168
-0.993778, 249, 353, 280, 480
-0.993825, 257, 361, 288, 424
-0.993837, 313, 57, 344, 120
-0.993856, 101, 49, 132, 112
-0.993887, 185, 313, 216, 376
-0.993895, 225, 1, 256, 64
-0.993968, 101, 369, 132, 432
-0.993974, 173, 49, 204, 112
-0.993974, 65, 89, 320, 152
-0.994011, 17, 377, 144, 440
-0.994014, 81, 89, 112, 152
-0.994015, 233, 337, 264, 464
-0.99403, 113, 433, 144, 496
-0.994094, 133, 225, 164, 352
-0.994152, 33, 145, 288, 208
-0.994155, 17, 329, 48, 392
-0.994175, 213, 433, 244, 496
-0.994194, 149, 49, 180, 176
-0.994204, 285, 73, 316, 136
-0.994222, 21, 289, 52, 416
-0.994238, 65, 25, 320, 88
-0.994254, 237, 305, 268, 368
-0.994322, 65, 89, 96, 152
-0.994412, 1, 97, 375, 160
-0.994454, 249, 257, 312, 500
-0.99451, 77, 33, 108, 160
-0.994517, 113, 361, 144, 424
-0.994538, 209, 353, 240, 480
-0.994604, 237, 289, 268, 416
-0.994619, 5, 1, 36, 128
-0.994703, 37, 305, 68, 432
-0.994713, 241, 433, 368, 496
-0.994797, 285, 353, 316, 480
-0.994816, 113, 185, 240, 216
-0.994833, 21, 33, 52, 160
-0.994859, 229, 121, 244, 184
-0.994914, 193, 125, 320, 156
-0.994982, 253, 177, 284, 304
-0.995003, 129, 265, 375, 328
-0.995004, 1, 353, 32, 480
-0.99507, 129, 177, 375, 240
-0.995106, 209, 137, 336, 168
-0.995132, 225, 113, 352, 144
-0.995196, 97, 305, 352, 368
-0.995221, 209, 153, 336, 184
-0.995234, 1, 225, 375, 288
-0.995346, 229, 9, 244, 72
-0.995348, 145, 97, 176, 224
-0.995416, 17, 365, 144, 396
-0.995421, 269, 353, 300, 480
-0.995496, 1, 281, 128, 344
-0.995507, 129, 149, 256, 180
-0.995545, 141, 321, 172, 448
-0.995566, 239, 17, 254, 80
-0.995611, 1, 129, 375, 192
-0.99563, 1, 169, 375, 232
-0.995642, 195, 17, 210, 80
-0.99565, 279, 113, 294, 176
-0.995676, 227, 145, 242, 208
-0.995677, 85, 209, 116, 336
-0.995715, 221, 369, 252, 496
-0.995755, 97, 45, 224, 76
-0.995764, 129, 173, 256, 204
-0.995764, 223, 121, 238, 184
-0.995807, 193, 169, 320, 200
-0.995819, 253, 17, 268, 80
-0.995834, 241, 57, 368, 88
-0.995841, 97, 113, 128, 240
-0.995883, 1, 321, 375, 384
-0.995884, 189, 1, 204, 64
-0.995885, 177, 101, 304, 132
-0.995902, 97, 361, 352, 424
-0.995937, 345, 49, 375, 176
-0.995956, 1, 353, 256, 416
-0.995972, 225, 289, 256, 416
-0.996012, 49, 281, 176, 344
-0.996016, 273, 121, 288, 184
-0.996017, 169, 169, 184, 232
-0.996067, 17, 353, 144, 384
-0.996069, 33, 57, 288, 120
-0.996071, 217, 137, 232, 200
-0.996071, 161, 161, 176, 224
-0.996083, 65, 213, 192, 244
-0.996111, 5, 273, 20, 336
-0.996132, 333, 353, 364, 480
-0.996137, 137, 1, 168, 128
-0.996146, 241, 273, 368, 336
-0.996147, 37, 81, 68, 208
-0.996158, 315, 73, 330, 136
-0.996172, 65, 177, 192, 208
-0.996184, 45, 33, 76, 160
-0.99619, 193, 53, 320, 84
-0.996201, 177, 41, 304, 72
-0.996206, 359, 1, 374, 64
-0.996218, 149, 1, 180, 128
-0.996253, 33, 417, 288, 480
-0.99627, 1, 49, 375, 112
-0.996294, 81, 377, 208, 408
-0.996303, 145, 321, 272, 352
-0.996342, 105, 49, 136, 176
-0.996371, 113, 369, 144, 496
-0.996393, 211, 137, 226, 200
-0.996401, 227, 33, 242, 96
-0.996414, 293, 17, 308, 80
-0.996414, 129, 241, 375, 304
-0.996452, 321, 81, 336, 144
-0.996455, 323, 121, 338, 184
-0.996466, 239, 121, 254, 184
-0.996468, 5, 129, 36, 256
-0.996472, 305, 257, 368, 500
-0.996477, 277, 161, 308, 288
-0.9965, 81, 201, 208, 232
-0.9965, 281, 257, 344, 500
-0.996512, 81, 33, 208, 64
-0.996512, 65, 165, 192, 196
-0.996526, 347, 1, 362, 64
-0.996531, 1, 197, 128, 228
-0.996545, 225, 381, 352, 412
-0.996545, 341, 49, 356, 112
-0.996551, 1, 345, 375, 408
-0.996556, 155, 169, 170, 232
-0.996562, 109, 273, 140, 400
-0.99658, 1, 305, 256, 368
-0.996593, 131, 185, 146, 248
-0.996597, 285, 113, 300, 176
-0.996601, 65, 357, 192, 388
-0.996615, 109, 1, 140, 128
-0.996644, 185, 81, 216, 208
-0.996647, 177, 181, 304, 212
-0.996658, 129, 5, 256, 36
-0.996671, 69, 361, 84, 424
-0.996675, 279, 145, 294, 208
-0.996704, 293, 41, 308, 104
-0.996712, 145, 53, 272, 84
-0.996725, 197, 41, 212, 104
-0.996727, 335, 113, 350, 176
-0.996736, 81, 333, 208, 364
-0.996741, 317, 129, 332, 192
-0.996753, 185, 185, 200, 248
-0.996777, 1, 261, 128, 292
-0.996783, 329, 121, 344, 184
-0.996788, 85, 289, 116, 416
-0.996797, 187, 25, 202, 88
-0.996797, 145, 161, 272, 192
-0.996799, 193, 369, 320, 400
-0.996817, 217, 113, 232, 176
-0.996824, 141, 177, 156, 240
-0.996827, 241, 81, 368, 112
-0.996831, 299, 57, 314, 120
-0.996889, 193, 337, 320, 368
-0.996898, 65, 85, 192, 116
-0.996903, 267, 121, 282, 184
-0.996914, 353, 1, 368, 64
-0.996916, 233, 145, 248, 208
-0.996917, 197, 337, 228, 464
-0.996919, 75, 353, 90, 416
-0.99693, 205, 17, 220, 80
-0.99694, 49, 441, 176, 472
-0.99694, 147, 169, 162, 232
-0.996946, 49, 225, 176, 256
-0.996953, 53, 361, 68, 424
-0.996971, 129, 209, 375, 272
-0.996975, 241, 341, 368, 372
-0.996977, 221, 25, 236, 88
-0.99698, 241, 125, 368, 156
-0.996983, 225, 233, 352, 296
-0.99699, 129, 21, 256, 52
-0.997006, 145, 385, 272, 416
-0.997044, 89, 345, 104, 408
-0.997059, 125, 185, 140, 248
-0.997062, 241, 45, 368, 76
-0.997062, 57, 305, 88, 432
-0.997069, 217, 169, 232, 232
-0.997092, 129, 137, 256, 168
-0.997095, 189, 1, 220, 256
-0.997096, 233, 33, 264, 288
-0.997098, 129, 441, 256, 472
-0.997114, 33, 237, 160, 268
-0.997119, 129, 385, 375, 448
-0.997119, 177, 5, 304, 36
-0.997122, 181, 161, 212, 416
-0.997129, 347, 49, 362, 112
-0.997132, 179, 185, 194, 248
-0.997133, 205, 177, 220, 240
-0.997134, 145, 209, 176, 336
-0.99714, 221, 49, 236, 112
-0.997141, 211, 169, 226, 232
-0.997148, 1, 201, 375, 264
-0.99715, 195, 177, 210, 240
-0.997157, 253, 33, 284, 288
-0.997163, 213, 33, 244, 288
-0.997166, 83, 353, 98, 416
-0.997181, 267, 329, 282, 392
-0.997183, 107, 329, 122, 392
-0.997183, 265, 97, 280, 160
-0.997184, 95, 345, 110, 408
-0.997185, 305, 57, 320, 120
-0.997193, 81, 345, 208, 376
-0.997209, 65, 189, 192, 220
-0.997211, 241, 357, 368, 388
-0.997211, 327, 89, 342, 152
-0.997217, 129, 433, 375, 496
-0.997238, 237, 97, 252, 160
-0.997239, 175, 361, 190, 424
-0.997239, 293, 53, 308, 84
-0.997249, 153, 161, 184, 416
-0.997255, 361, 49, 375, 112
-0.997258, 249, 97, 264, 160
-0.997269, 1, 257, 256, 320
-0.997282, 1, 225, 32, 480
-0.99729, 17, 45, 144, 76
-0.997293, 233, 33, 248, 96
-0.997294, 259, 321, 274, 384
-0.997295, 11, 265, 26, 328
-0.997298, 81, 1, 208, 32
-0.997302, 287, 41, 302, 104
-0.997307, 175, 153, 190, 216
-0.997311, 259, 97, 274, 160
-0.997317, 251, 41, 266, 104
-0.997317, 89, 65, 120, 320
-0.997321, 193, 449, 320, 480
-0.997329, 339, 81, 354, 144
-0.99733, 59, 233, 74, 296
-0.997334, 1, 221, 128, 252
-0.997336, 1, 25, 128, 56
-0.997349, 309, 81, 324, 144
-0.997357, 29, 225, 60, 480
-0.997361, 259, 25, 274, 88
-0.997372, 253, 121, 268, 184
-0.997378, 341, 113, 356, 176
-0.997387, 209, 17, 336, 48
-0.997391, 91, 209, 106, 272
-0.997396, 245, 25, 260, 88
-0.997411, 15, 233, 30, 296
-0.997412, 63, 369, 78, 432
-0.997415, 69, 225, 84, 288
-0.997417, 97, 57, 224, 88
-0.997418, 37, 249, 52, 312
-0.997423, 113, 185, 128, 248
-0.997429, 129, 33, 256, 64
-0.997432, 243, 209, 258, 272
-0.997439, 97, 453, 224, 484
-0.997445, 315, 345, 330, 408
-0.997453, 259, 121, 274, 184
-0.997455, 311, 129, 326, 192
-0.997461, 339, 25, 354, 88
-0.997471, 145, 265, 272, 296
-0.997482, 17, 341, 144, 372
-0.99749, 193, 321, 320, 352
-0.997497, 177, 17, 192, 80
-0.997498, 231, 97, 246, 160
-0.997499, 17, 249, 144, 280
-0.9975, 103, 201, 118, 264
-0.997502, 129, 201, 256, 232
-0.997504, 1, 329, 128, 360
-0.997508, 11, 313, 26, 376
-0.997509, 65, 469, 192, 500
-0.997509, 51, 209, 66, 272
-0.997513, 57, 209, 72, 272
-0.997517, 25, 113, 56, 240
-0.997517, 89, 193, 120, 448
-0.997517, 297, 337, 312, 400
-0.99752, 109, 161, 140, 416
-0.997524, 243, 97, 258, 160
-0.997526, 119, 185, 134, 248
-0.997526, 221, 225, 236, 288
-0.997527, 17, 209, 144, 240
-0.997528, 169, 145, 184, 208
-0.99753, 247, 121, 262, 184
-0.997533, 199, 1, 214, 32
-0.997536, 221, 1, 236, 64
-0.997544, 259, 353, 274, 416
-0.997548, 351, 89, 366, 152
-0.99755, 81, 13, 208, 44
-0.997552, 57, 225, 88, 480
-0.997553, 101, 337, 116, 400
-0.997557, 3, 249, 18, 312
-0.997566, 113, 309, 240, 340
-0.99757, 201, 33, 232, 288
-0.997573, 241, 329, 368, 360
-0.997577, 347, 1, 362, 32
-0.997583, 161, 253, 288, 284
-0.99759, 17, 177, 144, 208
-0.997594, 315, 97, 330, 160
-0.997595, 67, 185, 82, 248
-0.997595, 41, 225, 72, 480
-0.997603, 163, 185, 178, 248
-0.997604, 29, 353, 44, 416
-0.997607, 75, 185, 90, 248
-0.997611, 357, 81, 372, 144
-0.997614, 347, 113, 362, 176
-0.997617, 215, 49, 230, 112
-0.997617, 181, 41, 196, 104
-0.99762, 129, 297, 256, 328
-0.997642, 13, 257, 44, 500
-0.997646, 81, 217, 96, 280
-0.997653, 283, 1, 298, 64
-0.997665, 281, 161, 344, 416
-0.99767, 207, 105, 222, 168
-0.997673, 177, 29, 304, 60
-0.997675, 233, 217, 248, 280
-0.997675, 291, 337, 306, 400
-0.997685, 31, 249, 46, 312
-0.997688, 211, 233, 226, 296
-0.997691, 49, 65, 80, 320
-0.997692, 105, 57, 120, 120
-0.997692, 241, 441, 368, 472
-0.997693, 69, 193, 100, 448
-0.997697, 97, 201, 112, 264
-0.997699, 271, 97, 286, 160
-0.997699, 1, 25, 375, 88
-0.9977, 259, 49, 274, 112
-0.997703, 169, 265, 184, 328
-0.997715, 355, 1, 370, 32
-0.997732, 241, 101, 368, 132
-0.997743, 73, 65, 104, 320
-0.997748, 33, 393, 288, 456
-0.997758, 227, 37, 242, 68
-0.997779, 313, 81, 328, 112
-0.997779, 145, 469, 272, 500
-0.99778, 129, 365, 256, 396
-0.997782, 121, 161, 152, 416
-0.997784, 129, 409, 375, 472
-0.99779, 97, 321, 224, 352
-0.997792, 193, 309, 320, 340
-0.997804, 197, 161, 228, 416
-0.997822, 177, 241, 304, 272
-0.99783, 195, 17, 210, 48
-0.997832, 305, 161, 368, 288
-0.997884, 337, 1, 368, 256
-0.997893, 177, 49, 192, 80
-0.997894, 325, 77, 340, 108
-0.997899, 341, 61, 356, 92
-0.99791, 169, 193, 200, 448
-0.997912, 177, 113, 304, 144
-0.997917, 113, 217, 240, 248
-0.997925, 1, 1, 256, 64
-0.997929, 33, 73, 160, 104
-0.997936, 241, 1, 368, 32
-0.997938, 241, 369, 368, 400
-0.997946, 129, 333, 256, 364
-0.997947, 209, 69, 336, 100
-0.997948, 253, 1, 268, 32
-0.997968, 169, 173, 184, 204
-0.997968, 243, 5, 258, 36
-0.99797, 227, 149, 242, 180
-0.997972, 195, 49, 210, 80
-0.997988, 177, 33, 208, 288
-0.997997, 361, 61, 375, 92
-0.998007, 113, 421, 240, 452
-0.998009, 287, 53, 302, 84
-0.998012, 209, 217, 336, 248
-0.998021, 145, 89, 272, 120
-0.998027, 195, 29, 210, 60
-0.998044, 5, 1, 36, 256
-0.998047, 251, 53, 266, 84
-0.99806, 17, 161, 48, 416
-0.99807, 299, 53, 314, 84
-0.998075, 265, 33, 296, 288
-0.998075, 275, 121, 290, 152
-0.998078, 193, 297, 320, 328
-0.998085, 61, 65, 92, 320
-0.998086, 177, 185, 192, 216
-0.998091, 189, 37, 204, 68
-0.998094, 231, 25, 246, 56
-0.998098, 165, 33, 196, 288
-0.998114, 189, 1, 204, 32
-0.998115, 221, 45, 236, 76
-0.99812, 229, 13, 244, 44
-0.998123, 17, 61, 144, 92
-0.998129, 183, 49, 198, 80
-0.998131, 227, 49, 242, 80
-0.998162, 293, 41, 308, 72
-0.998163, 133, 161, 164, 416
-0.998173, 319, 81, 334, 112
-0.998173, 145, 457, 272, 488
-0.998177, 145, 277, 272, 308
-0.998181, 249, 21, 264, 52
-0.998184, 237, 49, 252, 80
-0.998197, 341, 1, 356, 32
-0.998203, 81, 241, 208, 272
-0.998209, 1, 121, 256, 184
-0.998213, 331, 77, 346, 108
-0.998227, 1, 433, 128, 464
-0.998236, 17, 165, 144, 196
-0.998237, 177, 437, 304, 468
-0.998253, 163, 173, 178, 204
-0.998268, 233, 153, 248, 184
-0.998272, 329, 121, 344, 152
-0.998273, 281, 149, 296, 180
-0.998274, 201, 49, 216, 80
-0.998292, 1, 369, 375, 432
-0.998296, 241, 165, 368, 196
-0.998299, 361, 1, 375, 32
-0.9983, 193, 89, 320, 120
-0.998305, 89, 215, 120, 230
-0.998306, 265, 143, 296, 158
-0.998307, 165, 189, 180, 220
-0.998307, 305, 141, 336, 156
-0.998307, 105, 199, 136, 214
-0.998307, 337, 373, 368, 388
-0.998307, 73, 227, 104, 242
-0.998308, 315, 133, 330, 164
-0.998308, 101, 33, 132, 288
-0.998309, 77, 221, 108, 236
-0.998309, 301, 389, 332, 404
-0.998309, 69, 185, 100, 200
-0.99831, 153, 33, 184, 288
-0.998312, 69, 361, 100, 376
-0.998313, 253, 369, 284, 384
-0.998314, 169, 481, 200, 496
-0.998314, 197, 251, 228, 266
-0.998314, 293, 103, 324, 118
-0.998314, 37, 217, 68, 232
-0.998315, 189, 35, 220, 50
-0.998315, 239, 17, 254, 48
-0.998315, 57, 187, 88, 202
-0.998316, 221, 27, 252, 42
-0.998316, 65, 215, 96, 230
-0.998317, 265, 155, 296, 170
-0.998317, 253, 363, 284, 378
-0.998318, 157, 55, 188, 70
-0.998318, 209, 457, 240, 472
-0.998319, 273, 335, 304, 350
-0.998319, 129, 201, 160, 216
-0.998319, 265, 109, 296, 124
-0.99832, 165, 275, 196, 290
-0.99832, 277, 381, 308, 396
-0.99832, 225, 9, 256, 24
-0.998321, 285, 111, 316, 126
-0.998321, 145, 191, 176, 206
-0.998322, 283, 117, 298, 148
-0.998323, 109, 369, 140, 384
-0.998324, 13, 271, 44, 286
-0.998324, 233, 125, 264, 140
-0.998325, 173, 323, 204, 338
-0.998326, 49, 447, 80, 462
-0.998326, 241, 217, 272, 232
-0.998326, 177, 33, 208, 48
-0.998327, 233, 159, 264, 174
-0.998328, 221, 145, 236, 176
-0.998328, 65, 233, 96, 248
-0.998328, 81, 357, 112, 372
-0.998328, 153, 199, 184, 214
-0.998329, 293, 97, 324, 112
-0.99833, 189, 41, 220, 56
-0.998331, 217, 171, 248, 186
-0.998331, 205, 179, 236, 194
-0.998331, 253, 339, 284, 354
-0.998331, 233, 59, 264, 74
-0.998332, 1, 281, 256, 344
-0.998332, 221, 33, 252, 48
-0.998332, 197, 185, 228, 200
-0.998332, 177, 23, 208, 38
-0.998333, 313, 135, 344, 150
-0.998333, 49, 371, 80, 386
-0.998333, 289, 385, 320, 400
-0.998334, 161, 193, 192, 208
-0.998334, 225, 165, 256, 180
-0.998335, 13, 359, 44, 374
-0.998335, 61, 367, 92, 382
-0.998336, 129, 229, 256, 260
-0.998336, 281, 153, 312, 168
-0.998336, 269, 57, 300, 72
-0.998336, 145, 447, 176, 462
-0.998336, 253, 41, 268, 72
-0.998337, 225, 449, 256, 464
-0.99834, 261, 149, 292, 164
-0.99834, 197, 55, 228, 70
-0.99834, 209, 147, 240, 162
-0.998342, 293, 77, 324, 92
-0.998343, 241, 35, 272, 50
-0.998343, 301, 127, 332, 142
-0.998343, 181, 183, 212, 198
-0.998344, 241, 5, 272, 20
-0.998344, 241, 11, 272, 26
-0.998346, 1, 389, 128, 420
-0.998346, 345, 461, 375, 476
-0.998346, 57, 485, 88, 500
-0.998346, 233, 1, 248, 32
-0.998347, 341, 65, 372, 80
-0.998347, 185, 57, 216, 72
-0.998349, 273, 123, 304, 138
-0.998349, 221, 43, 252, 58
-0.99835, 237, 47, 268, 62
-0.998352, 321, 127, 352, 142
-0.998352, 241, 17, 272, 32
-0.998352, 257, 125, 288, 140
-0.998353, 241, 53, 272, 68
-0.998353, 129, 113, 256, 144
-0.998353, 293, 85, 324, 100
-0.998354, 309, 97, 340, 112
-0.998355, 205, 5, 220, 36
-0.998357, 153, 331, 184, 346
-0.998357, 165, 383, 196, 398
-0.998357, 217, 153, 248, 168
-0.998358, 243, 41, 258, 72
-0.998358, 301, 379, 332, 394
-0.998359, 307, 81, 322, 112
-0.998361, 169, 57, 200, 72
-0.998361, 177, 195, 208, 210
-0.998362, 317, 91, 348, 106
-0.998362, 285, 147, 316, 162
-0.998362, 65, 429, 192, 460
-0.998362, 323, 125, 338, 156
-0.998365, 241, 27, 272, 42
-0.998365, 105, 205, 136, 220
-0.998369, 197, 141, 228, 156
-0.99837, 1, 73, 375, 136
-0.998372, 153, 49, 184, 64
-0.998372, 297, 91, 328, 106
-0.998373, 321, 383, 352, 398
-0.998374, 189, 11, 220, 26
-0.99838, 337, 3, 368, 18
-0.998382, 257, 59, 288, 74
-0.998383, 285, 61, 316, 76
-0.998384, 157, 181, 188, 196
-0.998384, 189, 5, 220, 20
-0.998385, 189, 23, 220, 38
-0.998386, 171, 49, 186, 80
-0.998387, 37, 369, 68, 384
-0.998388, 313, 77, 344, 92
-0.998393, 189, 29, 220, 44
-0.998393, 293, 55, 324, 70
-0.998394, 189, 17, 220, 32
-0.998395, 157, 175, 188, 190
-0.998397, 169, 317, 200, 332
-0.998397, 1, 453, 128, 484
-0.998398, 335, 117, 350, 148
-0.9984, 281, 117, 312, 132
-0.998406, 177, 33, 192, 64
-0.998406, 161, 213, 288, 244
-0.998411, 177, 45, 208, 60
-0.998412, 217, 57, 248, 72
-0.998412, 161, 187, 192, 202
-0.998415, 201, 49, 232, 64
-0.998415, 97, 253, 224, 284
-0.998423, 137, 181, 168, 196
-0.998426, 347, 57, 362, 88
-0.998431, 321, 85, 352, 100
-0.998432, 169, 51, 200, 66
-0.998435, 173, 189, 204, 204
-0.998441, 65, 153, 192, 184
-0.998442, 333, 121, 364, 136
-0.998445, 185, 17, 200, 48
-0.998448, 241, 201, 368, 232
-0.998452, 221, 33, 236, 64
-0.998456, 217, 51, 248, 66
-0.998456, 245, 59, 276, 74
-0.998457, 33, 377, 160, 408
-0.998458, 341, 59, 372, 74
-0.998458, 227, 165, 242, 196
-0.998461, 325, 79, 356, 94
-0.998468, 257, 55, 320, 70
-0.998468, 5, 277, 20, 308
-0.998473, 177, 193, 304, 224
-0.998485, 229, 53, 260, 68
-0.998485, 239, 29, 254, 60
-0.998488, 275, 145, 290, 176
-0.998488, 313, 373, 328, 404
-0.998492, 71, 365, 86, 396
-0.998494, 155, 181, 170, 212
-0.998495, 249, 129, 280, 384
-0.998497, 181, 51, 212, 66
-0.998502, 309, 137, 324, 168
-0.998503, 189, 49, 204, 80
-0.998504, 281, 55, 312, 70
-0.998504, 129, 1, 375, 64
-0.998508, 17, 85, 144, 116
-0.998509, 305, 83, 336, 98
-0.998512, 199, 185, 214, 216
-0.998517, 157, 169, 172, 200
-0.998521, 65, 309, 192, 340
-0.998527, 221, 169, 236, 200
-0.998529, 257, 57, 272, 88
-0.998536, 173, 313, 188, 344
-0.998537, 205, 181, 220, 212
-0.998541, 1, 13, 128, 44
-0.998543, 339, 45, 354, 76
-0.998548, 177, 51, 240, 66
-0.998549, 147, 177, 162, 208
-0.99855, 193, 229, 320, 260
-0.998552, 259, 353, 274, 384
-0.998554, 269, 125, 284, 156
-0.998556, 11, 273, 26, 304
-0.998556, 153, 57, 216, 72
-0.998557, 281, 83, 344, 98
-0.998562, 305, 83, 368, 98
-0.998562, 65, 233, 80, 264
-0.998563, 133, 185, 148, 216
-0.99857, 137, 191, 200, 206
-0.998575, 1, 121, 128, 152
-0.998576, 65, 363, 128, 378
-0.998578, 241, 393, 368, 424
-0.998578, 129, 185, 192, 200
-0.99858, 281, 57, 344, 72
-0.99858, 257, 61, 320, 76
-0.998586, 193, 357, 320, 388
-0.998587, 217, 57, 280, 72
-0.998587, 265, 337, 328, 352
-0.998591, 215, 173, 230, 204
-0.998591, 153, 51, 216, 66
-0.998591, 193, 153, 256, 168
-0.998591, 127, 189, 142, 220
-0.998598, 313, 123, 375, 138
-0.998601, 273, 121, 336, 136
-0.998604, 185, 147, 248, 162
-0.998607, 25, 369, 88, 384
-0.998608, 319, 69, 334, 100
-0.998609, 153, 183, 216, 198
-0.998609, 233, 157, 296, 172
-0.998612, 65, 369, 128, 384
-0.998613, 49, 389, 176, 420
-0.998614, 145, 7, 208, 22
-0.998615, 325, 1, 356, 256
-0.998619, 25, 363, 88, 378
-0.998619, 41, 443, 104, 458
-0.99862, 169, 191, 232, 206
-0.99862, 169, 269, 184, 300
-0.998621, 65, 369, 80, 400
-0.998621, 337, 77, 352, 108
-0.998622, 191, 321, 206, 352
-0.998623, 121, 377, 184, 392
-0.998623, 265, 127, 328, 142
-0.998623, 243, 213, 258, 244
-0.998624, 273, 151, 336, 166
-0.998626, 139, 181, 154, 212
-0.998627, 97, 199, 160, 214
-0.998628, 129, 177, 192, 192
-0.998629, 297, 381, 360, 396
-0.99863, 281, 115, 344, 130
-0.998631, 293, 9, 308, 40
-0.998631, 161, 323, 224, 338
-0.998632, 145, 27, 208, 42
-0.998632, 209, 237, 224, 268
-0.998632, 281, 89, 344, 104
-0.998633, 249, 121, 312, 136
-0.998633, 315, 93, 330, 124
-0.998634, 225, 127, 288, 142
-0.998634, 177, 141, 240, 156
-0.998635, 233, 151, 296, 166
-0.998635, 215, 129, 230, 160
-0.998636, 145, 1, 208, 16
-0.998637, 33, 217, 96, 232
-0.99864, 25, 223, 88, 238
-0.99864, 145, 15, 208, 30
-0.99864, 145, 329, 208, 344
-0.998642, 79, 221, 94, 252
-0.998643, 89, 211, 152, 226
-0.998643, 25, 357, 88, 372
-0.998643, 229, 129, 260, 384
-0.998643, 225, 367, 288, 382
-0.998644, 97, 205, 160, 220
-0.998645, 241, 13, 304, 28
-0.998646, 161, 381, 224, 396
-0.998648, 105, 335, 168, 350
-0.998648, 161, 387, 224, 402
-0.998649, 41, 449, 104, 464
-0.99865, 201, 457, 264, 472
-0.99865, 249, 381, 312, 396
-0.998651, 65, 375, 128, 390
-0.998652, 1, 361, 64, 376
-0.998652, 97, 441, 160, 456
-0.998653, 225, 163, 288, 178
-0.998653, 281, 375, 344, 390
-0.998655, 37, 97, 68, 352
-0.998655, 177, 57, 240, 72
-0.998655, 193, 421, 320, 452
-0.998655, 241, 7, 304, 22
-0.998658, 177, 185, 240, 200
-0.998659, 145, 21, 208, 36
-0.998659, 209, 175, 272, 190
-0.998659, 59, 237, 74, 268
-0.99866, 73, 357, 136, 372
-0.998661, 281, 77, 344, 92
-0.998661, 5, 189, 20, 220
-0.998661, 275, 105, 290, 136
-0.998662, 313, 77, 375, 92
-0.998662, 17, 181, 80, 196
-0.998662, 305, 89, 368, 104
-0.998662, 233, 21, 296, 36
-0.998663, 105, 369, 168, 384
-0.998663, 313, 1, 375, 16
-0.998664, 201, 181, 264, 196
-0.998664, 347, 109, 362, 140
-0.998666, 161, 177, 224, 192
-0.998666, 217, 169, 280, 184
-0.998666, 273, 141, 336, 156
-0.998666, 153, 45, 216, 60
-0.998667, 287, 41, 302, 72
-0.998668, 129, 51, 192, 66
-0.998668, 129, 197, 192, 212
-0.998669, 57, 185, 120, 200
-0.998671, 233, 31, 296, 46
-0.998671, 97, 193, 160, 208
-0.998671, 277, 133, 292, 164
-0.998671, 17, 1, 144, 32
-0.998672, 57, 201, 120, 216
-0.998672, 245, 53, 260, 84
-0.998672, 17, 1, 48, 256
-0.998672, 217, 51, 280, 66
-0.998672, 169, 317, 232, 332
-0.998673, 289, 95, 352, 110
-0.998673, 265, 133, 328, 148
-0.998673, 65, 229, 128, 244
-0.998674, 209, 137, 272, 152
-0.998674, 9, 271, 72, 286
-0.998675, 289, 51, 352, 66
-0.998675, 57, 437, 120, 452
-0.998676, 153, 457, 216, 472
-0.998676, 313, 57, 375, 72
-0.998676, 169, 171, 232, 186
-0.998677, 185, 253, 248, 268
-0.998678, 313, 131, 375, 146
-0.998678, 305, 377, 320, 408
-0.99868, 205, 37, 220, 68
-0.99868, 81, 219, 144, 234
-0.99868, 87, 217, 102, 248
-0.99868, 129, 311, 192, 326
-0.99868, 201, 305, 264, 320
-0.998681, 185, 387, 248, 402
-0.998681, 25, 375, 88, 390
-0.998681, 305, 337, 320, 368
-0.998681, 257, 361, 320, 376
-0.998681, 145, 65, 272, 96
-0.998681, 49, 485, 112, 500
-0.998682, 183, 37, 198, 68
-0.998682, 153, 485, 216, 500
-0.998682, 305, 137, 368, 152
-0.998683, 345, 97, 375, 352
-0.998683, 1, 277, 64, 292
-0.998685, 193, 189, 208, 220
-0.998685, 209, 129, 240, 384
-0.998686, 241, 107, 304, 122
-0.998686, 177, 311, 240, 326
-0.998686, 259, 329, 274, 360
-0.998686, 289, 349, 352, 364
-0.998687, 137, 383, 200, 398
-0.998687, 257, 49, 320, 64
-0.998687, 273, 385, 336, 400
-0.998688, 53, 369, 68, 400
-0.998688, 201, 243, 264, 258
-0.998688, 105, 43, 168, 58
-0.998689, 57, 235, 120, 250
-0.99869, 105, 29, 168, 44
-0.99869, 145, 479, 208, 494
-0.99869, 17, 445, 80, 460
-0.998691, 105, 329, 168, 344
-0.998691, 281, 157, 344, 172
-0.998692, 225, 145, 288, 160
-0.998692, 161, 373, 224, 388
-0.998692, 97, 375, 160, 390
-0.998692, 265, 331, 328, 346
-0.998693, 201, 129, 264, 144
-0.998693, 97, 187, 160, 202
-0.998693, 297, 143, 360, 158
-0.998694, 73, 443, 136, 458
-0.998695, 165, 325, 180, 356
-0.998699, 205, 17, 220, 48
-0.998703, 171, 185, 186, 216
-0.998703, 77, 357, 92, 388
-0.998706, 31, 361, 46, 392
-0.998707, 233, 221, 248, 252
-0.998707, 259, 5, 274, 36
-0.998708, 97, 209, 112, 240
-0.998712, 287, 141, 302, 172
-0.998716, 81, 73, 208, 104
-0.998717, 55, 445, 70, 476
-0.998719, 1, 301, 16, 332
-0.998719, 149, 441, 164, 472
-0.998719, 241, 425, 368, 456
-0.998721, 49, 453, 176, 484
-0.998723, 211, 141, 226, 172
-0.998723, 187, 193, 202, 224
-0.998729, 293, 105, 308, 136
-0.99873, 233, 37, 248, 68
-0.99873, 241, 317, 368, 348
-0.998731, 143, 441, 158, 472
-0.998731, 221, 129, 236, 160
-0.998733, 331, 65, 346, 96
-0.998738, 299, 41, 314, 72
-0.998738, 187, 257, 202, 288
-0.99877, 49, 409, 176, 440
-0.998773, 277, 1, 308, 256
-0.99884, 65, 265, 192, 296
-0.998849, 161, 397, 288, 428
-0.99886, 97, 125, 224, 156
-0.998892, 137, 257, 168, 500
-0.998899, 195, 1, 210, 128
-0.99897, 227, 33, 242, 160
-0.998973, 289, 33, 320, 288
-0.999006, 1, 297, 375, 360
-0.999034, 223, 145, 238, 272
-0.99904, 181, 257, 212, 500
-0.999042, 223, 97, 238, 224
-0.999049, 217, 145, 232, 272
-0.999055, 13, 257, 28, 384
-0.999065, 233, 33, 248, 160
-0.999075, 233, 113, 248, 240
-0.999078, 209, 145, 224, 272
-0.999079, 141, 33, 172, 288
-0.999087, 313, 97, 344, 352
-0.999092, 195, 177, 210, 304
-0.999097, 181, 1, 196, 128
-0.999103, 185, 177, 200, 304
-0.999105, 179, 177, 194, 304
-0.999108, 245, 225, 276, 480
-0.999112, 265, 129, 296, 384
-0.999126, 289, 17, 304, 144
-0.999149, 169, 305, 184, 432
-0.999158, 5, 129, 36, 384
-0.999161, 205, 1, 220, 128
-0.999165, 325, 65, 340, 192
-0.999174, 7, 257, 22, 384
-0.999178, 211, 97, 226, 224
-0.99918, 203, 161, 218, 288
-0.999183, 21, 257, 36, 384
-0.999184, 217, 97, 232, 224
-0.999191, 173, 177, 188, 304
-0.999193, 295, 17, 310, 144
-0.999198, 189, 1, 204, 128
-0.999202, 239, 49, 254, 176
-0.999208, 323, 113, 338, 240
-0.999213, 73, 209, 88, 336
-0.999214, 217, 225, 248, 480
-0.999221, 243, 1, 258, 128
-0.999227, 117, 65, 148, 320
-0.999232, 175, 305, 190, 432
-0.999235, 339, 97, 354, 224
-0.999248, 1, 249, 375, 312
-0.999257, 281, 113, 296, 240
-0.99926, 203, 113, 218, 240
-0.999261, 139, 161, 154, 288
-0.999266, 311, 65, 326, 192
-0.999269, 91, 337, 106, 464
-0.99927, 357, 113, 372, 240
-0.999271, 69, 161, 84, 288
-0.999277, 179, 129, 194, 256
-0.999278, 239, 113, 254, 240
-0.999284, 345, 97, 360, 224
-0.999285, 295, 65, 310, 192
-0.999288, 271, 129, 286, 256
-0.999289, 265, 129, 280, 256
-0.999293, 151, 161, 166, 288
-0.999296, 331, 113, 346, 240
-0.999299, 185, 129, 200, 256
-0.9993, 333, 97, 364, 352
-0.999304, 173, 33, 188, 160
-0.999306, 27, 337, 42, 464
-0.999306, 19, 193, 34, 320
-0.999308, 319, 65, 334, 192
-0.999315, 55, 353, 70, 480
-0.999319, 29, 193, 44, 320
-0.999321, 249, 33, 264, 160
-0.999323, 157, 161, 172, 288
-0.999324, 63, 145, 78, 272
-0.999331, 249, 113, 264, 240
-0.999333, 1, 273, 16, 400
-0.999335, 351, 97, 366, 224
-0.999336, 317, 113, 332, 240
-0.999339, 85, 337, 100, 464
-0.999343, 183, 241, 198, 368
-0.999356, 199, 49, 214, 176
-0.999364, 167, 129, 182, 256
-0.999366, 175, 257, 190, 384
-0.99937, 221, 17, 236, 144
-0.999374, 145, 161, 160, 288
-0.999376, 101, 321, 116, 448
-0.999383, 49, 353, 64, 480
-0.999385, 13, 193, 28, 320
-0.999386, 113, 305, 128, 432
-0.999386, 305, 81, 320, 208
-0.999387, 259, 113, 274, 240
-0.999391, 189, 241, 204, 368
-0.999397, 177, 353, 192, 480
-0.999398, 167, 177, 182, 304
-0.999398, 43, 353, 58, 480
-0.999399, 129, 193, 144, 320
-0.999402, 7, 305, 22, 432
-0.999405, 79, 337, 94, 464
-0.999407, 67, 209, 82, 336
-0.999413, 283, 1, 298, 128
-0.999418, 263, 49, 278, 176
-0.999423, 117, 257, 148, 500
-0.999425, 195, 241, 210, 368
-0.999427, 211, 49, 226, 176
-0.999428, 21, 337, 36, 464
-0.999431, 205, 225, 220, 352
-0.999433, 163, 273, 178, 400
-0.999435, 33, 337, 48, 464
-0.999438, 15, 321, 30, 448
-0.999439, 57, 177, 72, 304
-0.999442, 357, 65, 372, 192
-0.999447, 181, 305, 196, 432
-0.999447, 105, 49, 120, 176
-0.99945, 333, 65, 348, 192
-0.999451, 75, 145, 90, 272
-0.999452, 197, 129, 212, 256
-0.999453, 277, 97, 308, 352
-0.999453, 79, 209, 94, 336
-0.999454, 57, 225, 72, 352
-0.999457, 29, 1, 60, 256
-0.999457, 261, 257, 292, 500
-0.99946, 229, 161, 244, 288
-0.999461, 361, 369, 375, 496
-0.999466, 287, 97, 302, 224
-0.999468, 273, 49, 288, 176
-0.999469, 27, 241, 42, 368
-0.99947, 51, 177, 66, 304
-0.999471, 129, 65, 160, 320
-0.999471, 107, 321, 122, 448
-0.999476, 245, 193, 260, 320
-0.999477, 127, 129, 142, 256
-0.999478, 123, 177, 138, 304
-0.999484, 43, 225, 58, 352
-0.999485, 61, 369, 76, 496
-0.999486, 169, 257, 184, 384
-0.999488, 157, 49, 172, 176
-0.999488, 87, 209, 102, 336
-0.999491, 301, 1, 316, 128
-0.999493, 173, 129, 188, 256
-0.999494, 225, 209, 240, 336
-0.999497, 191, 129, 206, 256
-0.999498, 109, 129, 124, 256
-0.999498, 57, 81, 72, 208
-0.999499, 69, 353, 84, 480
-0.9995, 169, 353, 184, 480
-0.999502, 257, 49, 272, 176
-0.999507, 283, 49, 298, 176
-0.999509, 113, 177, 128, 304
-0.999511, 35, 177, 50, 304
-0.999511, 99, 177, 114, 304
-0.999514, 1, 337, 16, 464
-0.999521, 197, 257, 228, 500
-0.999522, 219, 225, 234, 352
-0.999522, 193, 49, 208, 176
-0.999524, 307, 97, 322, 112
-0.999524, 73, 231, 88, 246
-0.999526, 75, 363, 90, 378
-0.999528, 159, 189, 174, 204
-0.999529, 205, 23, 220, 38
-0.999529, 243, 51, 258, 66
-0.999529, 189, 33, 204, 48
-0.999529, 217, 59, 232, 74
-0.99953, 205, 11, 220, 26
-0.99953, 225, 57, 240, 72
-0.999531, 53, 369, 68, 384
-0.999531, 195, 191, 210, 206
-0.999531, 221, 35, 236, 50
-0.999532, 289, 113, 304, 128
-0.999532, 163, 323, 178, 338
-0.999532, 293, 13, 308, 28
-0.999533, 183, 57, 198, 72
-0.999533, 61, 237, 76, 252
-0.999535, 13, 273, 28, 288
-0.999535, 53, 447, 68, 462
-0.999535, 143, 445, 158, 460
-0.999536, 241, 45, 256, 60
-0.999536, 311, 139, 326, 154
-0.999536, 287, 53, 302, 68
-0.999537, 67, 189, 82, 204
-0.999537, 259, 361, 274, 376
-0.999537, 279, 145, 294, 160
-0.999538, 235, 163, 250, 178
-0.999539, 281, 159, 296, 174
-0.999539, 157, 257, 188, 500
-0.99954, 293, 19, 308, 34
-0.999541, 211, 179, 226, 194
-0.999541, 265, 59, 280, 74
-0.999542, 237, 157, 252, 172
-0.999542, 257, 341, 272, 356
-0.999542, 145, 179, 160, 194
-0.999543, 201, 187, 216, 202
-0.999543, 171, 53, 186, 68
-0.999546, 243, 217, 258, 232
-0.999547, 187, 43, 202, 58
-0.999548, 233, 33, 248, 48
-0.999549, 233, 3, 248, 18
-0.999549, 221, 45, 236, 60
-0.999549, 211, 141, 226, 156
-0.999549, 217, 175, 232, 190
-0.99955, 295, 63, 310, 78
-0.999551, 313, 97, 328, 112
-0.999551, 167, 197, 182, 212
-0.999552, 185, 13, 200, 28
-0.999552, 205, 5, 220, 20
-0.999552, 285, 147, 300, 162
-0.999553, 239, 29, 254, 44
-0.999553, 223, 171, 238, 186
-0.999554, 67, 233, 82, 248
-0.999554, 281, 257, 312, 500
-0.999554, 329, 85, 344, 100
-0.999555, 249, 35, 264, 50
-0.999555, 339, 1, 354, 16
-0.999557, 341, 65, 356, 80
-0.999558, 315, 89, 330, 104
-0.999559, 151, 179, 166, 194
-0.999559, 139, 181, 154, 196
-0.999559, 351, 57, 366, 72
-0.999562, 275, 121, 290, 136
-0.999562, 195, 37, 210, 52
-0.999562, 253, 51, 268, 66
-0.999562, 359, 65, 374, 80
-0.999564, 229, 167, 244, 182
-0.999564, 239, 35, 254, 50
-0.999565, 283, 153, 298, 168
-0.999565, 283, 117, 298, 132
-0.999565, 169, 177, 184, 192
-0.999566, 177, 193, 192, 208
-0.999566, 217, 145, 232, 160
-0.999566, 253, 27, 268, 42
-0.999567, 185, 27, 200, 42
-0.999567, 165, 185, 180, 200
-0.99957, 239, 23, 254, 38
-0.999574, 351, 3, 366, 18
-0.999574, 325, 127, 340, 142
-0.999575, 317, 135, 332, 150
-0.999575, 185, 21, 200, 36
-0.999578, 223, 147, 238, 162
-0.999578, 299, 55, 314, 70
-0.999579, 199, 55, 214, 70
-0.999581, 321, 87, 336, 102
-0.999583, 339, 57, 354, 72
-0.999584, 229, 25, 244, 40
-0.999585, 277, 151, 292, 166
-0.999591, 359, 3, 374, 18
-0.999591, 337, 77, 352, 92
-0.999598, 239, 17, 254, 32
-0.999598, 229, 17, 244, 32
-0.999598, 335, 121, 350, 136
-0.999599, 249, 21, 264, 36
-0.999599, 231, 153, 246, 168
-0.999601, 345, 59, 360, 74
-0.999602, 173, 187, 188, 202
-0.999603, 285, 59, 300, 74
-0.999604, 361, 59, 375, 74
-0.999604, 247, 57, 262, 72
-0.999606, 229, 9, 244, 24
-0.999606, 231, 57, 246, 72
-0.999607, 249, 11, 264, 26
-0.999608, 193, 45, 208, 60
-0.99961, 157, 183, 172, 198
-0.999611, 227, 35, 242, 50
-0.999613, 185, 7, 200, 22
-0.999614, 259, 59, 274, 74
-0.999615, 231, 51, 246, 66
-0.999618, 345, 3, 360, 18
-0.999618, 183, 51, 198, 66
-0.999623, 249, 5, 264, 20
-0.999624, 237, 51, 252, 66
-0.999624, 195, 31, 210, 46
-0.999627, 243, 5, 258, 20
-0.999629, 331, 79, 346, 94
-0.99963, 189, 1, 204, 16
-0.999631, 231, 45, 246, 60
-0.999632, 239, 11, 254, 26
-0.999635, 165, 191, 180, 206
-0.999636, 323, 81, 338, 96
-0.999639, 195, 25, 210, 40
-0.999647, 313, 83, 328, 98
-0.999648, 195, 11, 210, 26
-0.999659, 195, 19, 210, 34
-0.999661, 223, 51, 238, 66
-0.999667, 177, 51, 192, 66
-0.999669, 1, 401, 375, 464
-0.999674, 193, 51, 208, 66
-0.999676, 101, 257, 132, 500
-0.999684, 199, 5, 214, 20
-0.999698, 289, 225, 352, 352
-0.999699, 253, 57, 268, 72
-0.999717, 301, 97, 332, 352
-0.999752, 293, 55, 308, 70
-0.999801, 293, 257, 324, 500
-0.999813, 233, 257, 264, 500
-0.99987, 301, 1, 332, 256
-0.999874, 313, 257, 344, 500
-0.999994, 313, 1, 344, 256
-1.00013, 333, 257, 364, 500
-1.00023, 1, 433, 375, 496
-1.00042, 289, 161, 320, 416
-1.00058, 1, 1, 375, 64
-1.00093, 345, 225, 375, 480
-1.00148, 1, 273, 375, 336
-1.00364, 265, 241, 328, 368
-1.0055, 313, 241, 375, 368
