1885
-0.430525, 1, 65, 500, 320
-0.508941, 1, 1, 500, 333
-0.538033, 65, 1, 320, 333
-0.557016, 161, 1, 416, 333
-0.664783, 257, 1, 500, 333
-0.679548, 161, 65, 416, 320
-0.721566, 33, 33, 288, 288
-0.837549, 257, 65, 500, 320
-0.867564, 257, 1, 384, 333
-0.872467, 1, 65, 128, 320
-0.878607, 273, 65, 400, 320
-0.880191, 17, 1, 144, 333
-0.884784, 1, 193, 500, 320
-0.887985, 49, 65, 176, 320
-0.892289, 65, 1, 192, 333
-0.897474, 97, 33, 224, 288
-0.901761, 1, 145, 500, 272
-0.903711, 225, 65, 352, 320
-0.903779, 193, 1, 320, 333
-0.904393, 1, 97, 500, 224
-0.912486, 305, 1, 432, 333
-0.914331, 129, 1, 256, 333
-0.91503, 321, 65, 448, 320
-0.918929, 161, 65, 288, 320
-0.919287, 161, 129, 416, 256
-0.923798, 161, 81, 416, 208
-0.926679, 161, 209, 416, 333
-0.928751, 65, 97, 320, 224
-0.936776, 1, 49, 500, 176
-0.937769, 273, 113, 400, 240
-0.939609, 65, 161, 320, 288
-0.93985, 193, 113, 320, 240
-0.94275, 33, 209, 288, 333
-0.943017, 273, 65, 400, 192
-0.943047, 257, 129, 500, 256
-0.943075, 257, 209, 500, 333
-0.9443, 273, 193, 400, 320
-0.946033, 329, 273, 392, 333
-0.946187, 313, 209, 376, 333
-0.946673, 337, 113, 400, 240
-0.946854, 65, 49, 320, 176
-0.94691, 353, 1, 480, 333
-0.947457, 337, 129, 464, 256
-0.948381, 49, 97, 176, 224
-0.949519, 297, 129, 360, 256
-0.950874, 257, 49, 500, 176
-0.951182, 273, 113, 336, 240
-0.95168, 97, 81, 224, 208
-0.952101, 369, 65, 496, 320
-0.952752, 345, 209, 408, 333
-0.952927, 273, 49, 336, 176
-0.953141, 1, 145, 128, 272
-0.953811, 105, 81, 168, 208
-0.954727, 97, 145, 224, 272
-0.955642, 345, 161, 408, 288
-0.955843, 297, 49, 360, 176
-0.955991, 145, 97, 272, 224
-0.956093, 337, 121, 400, 184
-0.95748, 97, 33, 160, 160
-0.957551, 337, 249, 400, 312
-0.957786, 65, 97, 128, 224
-0.958118, 369, 265, 432, 328
-0.959055, 225, 49, 352, 176
-0.959076, 321, 161, 384, 288
-0.959344, 201, 113, 264, 240
-0.959437, 33, 209, 160, 333
-0.959482, 249, 113, 312, 240
-0.95976, 313, 185, 376, 248
-0.959923, 17, 1, 144, 128
-0.96122, 1, 1, 500, 128
-0.961248, 257, 121, 320, 184
-0.96134, 225, 161, 352, 288
-0.961882, 313, 241, 376, 304
-0.961891, 81, 33, 208, 160
-0.963422, 1, 193, 64, 320
-0.963615, 321, 209, 448, 333
-0.963744, 57, 1, 120, 128
-0.964066, 249, 65, 312, 192
-0.964192, 289, 193, 352, 320
-0.96464, 1, 81, 128, 208
-0.964658, 145, 81, 208, 208
-0.964702, 177, 129, 240, 256
-0.965372, 177, 81, 240, 208
-0.965986, 305, 273, 368, 333
-0.966342, 105, 129, 168, 256
-0.966482, 313, 129, 376, 192
-0.966506, 153, 129, 216, 192
-0.967161, 289, 153, 352, 216
-0.967657, 161, 33, 416, 160
-0.967955, 209, 209, 336, 333
-0.968106, 361, 113, 424, 240
-0.96834, 1, 1, 256, 128
-0.968554, 73, 209, 136, 333
-0.96871, 273, 65, 336, 128
-0.968997, 289, 121, 352, 184
-0.969359, 265, 209, 328, 333
-0.969688, 161, 209, 288, 333
-0.969766, 305, 273, 432, 333
-0.96982, 297, 57, 360, 120
-0.9699, 273, 89, 336, 152
-0.970014, 105, 97, 168, 160
-0.970107, 321, 209, 384, 272
-0.970302, 393, 273, 456, 333
-0.970313, 153, 129, 216, 256
-0.970774, 1, 241, 32, 304
-0.970945, 265, 225, 328, 288
-0.971017, 233, 121, 296, 184
-0.971229, 273, 137, 400, 200
-0.971391, 209, 121, 272, 184
-0.971474, 65, 49, 128, 176
-0.971591, 177, 129, 240, 192
-0.971631, 33, 17, 96, 144
-0.971644, 65, 105, 128, 168
-0.971666, 17, 249, 80, 312
-0.971782, 225, 97, 288, 224
-0.972133, 273, 265, 336, 328
-0.972581, 129, 33, 256, 160
-0.97263, 313, 105, 376, 168
-0.972739, 361, 273, 392, 333
-0.972803, 161, 161, 288, 288
-0.972904, 353, 273, 480, 333
-0.973051, 289, 193, 352, 256
-0.973128, 105, 177, 168, 304
-0.973135, 329, 65, 392, 192
-0.973765, 177, 49, 304, 176
-0.973857, 341, 273, 372, 333
-0.973882, 217, 161, 280, 288
-0.974068, 265, 161, 328, 288
-0.974302, 345, 225, 408, 288
-0.97438, 241, 97, 304, 160
-0.974398, 345, 145, 408, 208
-0.974476, 81, 193, 208, 320
-0.974791, 97, 73, 160, 136
-0.974915, 241, 225, 304, 288
-0.974935, 289, 249, 416, 312
-0.975008, 1, 65, 64, 192
-0.975036, 1, 57, 64, 120
-0.975104, 233, 209, 296, 333
-0.975116, 145, 105, 208, 168
-0.975225, 369, 209, 432, 333
-0.975333, 41, 33, 104, 96
-0.975457, 57, 9, 120, 72
-0.975761, 65, 33, 128, 288
-0.975814, 313, 65, 376, 320
-0.975816, 381, 265, 412, 328
-0.975926, 341, 169, 372, 232
-0.976014, 49, 209, 112, 333
-0.97609, 177, 97, 240, 160
-0.97616, 289, 65, 352, 320
-0.976483, 105, 121, 168, 184
-0.976544, 321, 153, 384, 216
-0.976566, 321, 193, 352, 320
-0.976584, 145, 81, 208, 144
-0.976723, 345, 201, 408, 264
-0.976931, 257, 113, 384, 176
-0.977036, 105, 145, 168, 208
-0.977217, 161, 113, 288, 176
-0.977268, 249, 145, 312, 208
-0.977306, 337, 65, 400, 320
-0.977353, 329, 273, 360, 333
-0.977798, 17, 145, 80, 272
-0.977938, 41, 81, 104, 208
-0.977948, 353, 145, 384, 272
-0.977968, 105, 65, 168, 320
-0.978265, 81, 145, 208, 208
-0.978352, 181, 129, 212, 192
-0.978358, 257, 161, 384, 224
-0.9784, 333, 145, 364, 272
-0.978417, 209, 121, 336, 184
-0.978472, 353, 249, 384, 312
-0.97859, 369, 241, 432, 304
-0.978618, 373, 113, 404, 240
-0.978784, 321, 129, 448, 192
-0.9788, 81, 105, 208, 168
-0.979087, 297, 1, 360, 333
-0.979088, 325, 193, 356, 256
-0.979123, 361, 121, 424, 184
-0.979204, 301, 129, 332, 256
-0.979372, 353, 193, 384, 320
-0.979543, 225, 49, 288, 176
-0.979648, 5, 193, 36, 320
-0.979809, 361, 121, 392, 184
-0.979875, 185, 33, 248, 160
-0.980031, 417, 273, 480, 333
-0.98005, 289, 97, 320, 224
-0.980171, 217, 233, 280, 296
-0.980287, 341, 241, 372, 304
-0.980379, 281, 49, 312, 176
-0.980421, 337, 177, 400, 240
-0.980422, 269, 121, 300, 184
-0.980637, 129, 145, 192, 272
-0.980696, 1, 225, 64, 288
-0.980757, 17, 137, 144, 200
-0.980915, 369, 81, 496, 208
-0.980956, 57, 73, 120, 136
-0.981009, 225, 97, 256, 224
-0.981111, 257, 209, 384, 272
-0.981117, 217, 209, 280, 272
-0.981164, 341, 209, 372, 333
-0.981182, 161, 137, 288, 200
-0.9812, 41, 273, 104, 333
-0.981228, 265, 201, 328, 264
-0.981243, 289, 233, 352, 296
-0.981299, 321, 129, 352, 256
-0.981414, 249, 65, 312, 320
-0.981452, 289, 113, 320, 176
-0.981453, 97, 49, 160, 112
-0.981465, 257, 273, 384, 333
-0.981649, 373, 121, 404, 184
-0.981688, 33, 9, 96, 72
-0.981723, 277, 113, 308, 240
-0.981742, 317, 273, 348, 333
-0.981943, 317, 249, 348, 312
-0.982016, 177, 241, 304, 304
-0.982017, 365, 249, 396, 312
-0.98204, 345, 97, 376, 224
-0.982079, 137, 169, 200, 232
-0.982116, 145, 33, 208, 160
-0.982223, 1, 241, 128, 304
-0.982223, 181, 81, 212, 208
-0.98223, 169, 153, 232, 216
-0.982246, 257, 185, 384, 248
-0.982292, 321, 81, 448, 208
-0.982316, 65, 225, 128, 288
-0.982395, 357, 145, 388, 208
-0.982508, 241, 161, 304, 288
-0.982601, 121, 257, 184, 320
-0.982632, 225, 233, 352, 296
-0.982689, 273, 57, 400, 120
-0.982753, 353, 209, 384, 272
-0.982835, 169, 209, 232, 333
-0.982963, 193, 1, 320, 128
-0.982975, 193, 177, 256, 304
-0.982979, 17, 161, 144, 224
-0.983037, 41, 233, 104, 296
-0.983196, 81, 161, 144, 288
-0.983278, 1, 201, 128, 264
-0.983284, 297, 81, 360, 144
-0.983301, 41, 129, 104, 256
-0.983456, 301, 65, 332, 192
-0.983497, 97, 169, 224, 232
-0.983522, 273, 89, 400, 152
-0.98353, 25, 209, 88, 333
-0.983658, 65, 129, 128, 192
-0.983673, 209, 145, 336, 208
-0.983685, 49, 145, 176, 272
-0.983831, 337, 249, 464, 312
-0.983859, 73, 257, 136, 320
-0.983943, 305, 161, 432, 224
-0.984038, 1, 201, 64, 264
-0.984162, 105, 177, 168, 240
-0.984208, 129, 129, 192, 192
-0.98441, 33, 113, 160, 176
-0.984424, 81, 81, 208, 144
-0.984481, 273, 1, 336, 333
-0.984566, 305, 185, 432, 248
-0.984591, 345, 129, 376, 192
-0.984648, 265, 169, 328, 232
-0.984653, 393, 249, 456, 312
-0.98472, 65, 257, 192, 320
-0.98473, 241, 201, 304, 264
-0.98475, 273, 1, 336, 128
-0.984771, 129, 81, 256, 144
-0.984873, 177, 73, 240, 136
-0.984887, 1, 33, 64, 288
-0.984892, 229, 113, 260, 176
-0.984933, 33, 1, 96, 256
-0.985, 17, 249, 48, 312
-0.985223, 361, 97, 392, 224
-0.985246, 301, 129, 332, 192
-0.985309, 33, 65, 96, 128
-0.985338, 209, 97, 336, 160
-0.985414, 181, 129, 212, 256
-0.985432, 285, 89, 316, 152
-0.985446, 97, 1, 160, 333
-0.985513, 369, 209, 496, 333
-0.985535, 137, 81, 168, 208
-0.985541, 301, 265, 332, 328
-0.985599, 337, 97, 400, 160
-0.985604, 1, 81, 128, 144
-0.985632, 177, 33, 240, 288
-0.985676, 81, 1, 112, 128
-0.985884, 217, 97, 280, 160
-0.98591, 17, 25, 144, 88
-0.985953, 365, 161, 396, 288
-0.986067, 61, 1, 92, 64
-0.986096, 209, 177, 336, 240
-0.986113, 113, 129, 144, 256
-0.986225, 97, 257, 160, 320
-0.986311, 73, 41, 136, 104
-0.986447, 33, 97, 96, 160
-0.986472, 185, 273, 248, 333
-0.98651, 181, 105, 212, 168
-0.986525, 281, 137, 312, 200
-0.986532, 325, 153, 356, 216
-0.98662, 265, 225, 296, 288
-0.986682, 341, 217, 372, 280
-0.98673, 209, 129, 240, 256
-0.986753, 321, 49, 352, 176
-0.986757, 265, 97, 296, 224
-0.986768, 17, 33, 80, 96
-0.986861, 17, 49, 144, 112
-0.986958, 409, 273, 440, 333
-0.987054, 1, 217, 32, 280
-0.987072, 301, 153, 332, 216
-0.987077, 57, 1, 120, 333
-0.987096, 1, 177, 64, 240
-0.987325, 145, 265, 272, 328
-0.98735, 217, 145, 280, 208
-0.98742, 161, 129, 192, 192
-0.987487, 17, 1, 80, 333
-0.98752, 209, 209, 336, 272
-0.987615, 273, 41, 336, 104
-0.987642, 297, 89, 328, 152
-0.987689, 393, 273, 424, 333
-0.987714, 365, 209, 396, 333
-0.987739, 93, 97, 124, 224
-0.987757, 1, 273, 64, 333
-0.98777, 209, 265, 336, 328
-0.987792, 401, 209, 464, 333
-0.987917, 289, 57, 320, 120
-0.987976, 193, 81, 224, 208
-0.988101, 353, 169, 384, 232
-0.988245, 5, 265, 36, 328
-0.988253, 41, 137, 104, 200
-0.988263, 129, 209, 192, 333
-0.988273, 369, 113, 496, 176
-0.988289, 9, 113, 72, 176
-0.988345, 129, 65, 192, 320
-0.988355, 373, 145, 404, 208
-0.988478, 241, 249, 304, 312
-0.988512, 49, 233, 176, 296
-0.988564, 385, 97, 448, 224
-0.988613, 289, 145, 320, 272
-0.988625, 109, 33, 140, 160
-0.988626, 257, 129, 320, 160
-0.988642, 325, 57, 356, 120
-0.988651, 1, 89, 64, 152
-0.988661, 325, 217, 356, 280
-0.988695, 321, 1, 384, 333
-0.988702, 1, 65, 32, 192
-0.988735, 193, 241, 256, 304
-0.988791, 421, 273, 452, 333
-0.988811, 137, 57, 200, 120
-0.988858, 89, 97, 120, 160
-0.988877, 253, 217, 284, 280
-0.988916, 313, 285, 376, 316
-0.988932, 217, 177, 280, 240
-0.988947, 193, 65, 320, 128
-0.989001, 161, 217, 288, 280
-0.989123, 137, 105, 168, 168
-0.989156, 321, 185, 384, 216
-0.989224, 73, 161, 136, 224
-0.989235, 309, 65, 340, 128
-0.989333, 249, 129, 280, 256
-0.989348, 161, 161, 288, 224
-0.989403, 209, 129, 240, 192
-0.989418, 337, 277, 400, 308
-0.989431, 161, 241, 416, 304
-0.989453, 241, 113, 272, 176
-0.989473, 201, 65, 264, 320
-0.989477, 193, 41, 320, 104
-0.989514, 309, 193, 340, 320
-0.989565, 65, 1, 96, 128
-0.9896, 345, 125, 408, 156
-0.989613, 105, 201, 168, 264
-0.989629, 305, 217, 432, 280
-0.989721, 81, 17, 144, 80
-0.989743, 97, 193, 128, 320
-0.989784, 93, 49, 124, 176
-0.989903, 1, 153, 64, 216
-0.989906, 145, 273, 208, 333
-0.989964, 297, 125, 360, 156
-0.989985, 61, 265, 92, 328
-0.989999, 369, 289, 432, 320
-0.990062, 97, 201, 224, 264
-0.990067, 297, 33, 360, 96
-0.990076, 353, 169, 480, 232
-0.9901, 329, 297, 392, 328
-0.990107, 249, 57, 312, 120
-0.990109, 1, 65, 32, 128
-0.990128, 369, 273, 432, 304
-0.99015, 305, 241, 336, 304
-0.990175, 1, 273, 128, 333
-0.990207, 193, 129, 224, 192
-0.990243, 169, 129, 200, 256
-0.990253, 297, 137, 360, 168
-0.990278, 193, 153, 256, 216
-0.990279, 81, 57, 208, 120
-0.990288, 193, 129, 224, 256
-0.9903, 317, 121, 348, 184
-0.990306, 25, 161, 88, 224
-0.990318, 329, 145, 392, 176
-0.990318, 297, 57, 360, 88
-0.990328, 17, 177, 48, 304
-0.990329, 297, 153, 360, 184
-0.990338, 241, 117, 304, 148
-0.990345, 169, 249, 232, 312
-0.990377, 37, 41, 68, 104
-0.99042, 313, 273, 376, 304
-0.99046, 185, 217, 248, 280
-0.990497, 249, 233, 312, 264
-0.990499, 381, 209, 412, 333
-0.990528, 321, 65, 384, 128
-0.990534, 233, 225, 264, 288
-0.990536, 329, 249, 360, 312
-0.99056, 305, 225, 368, 256
-0.990576, 273, 109, 336, 140
-0.99058, 81, 17, 112, 80
-0.990583, 177, 1, 240, 333
-0.990586, 341, 105, 372, 168
-0.990587, 273, 145, 336, 176
-0.990592, 193, 105, 224, 168
-0.990638, 53, 241, 84, 304
-0.990654, 145, 133, 208, 164
-0.990659, 157, 65, 188, 192
-0.990671, 385, 113, 416, 240
-0.990692, 273, 17, 400, 144
-0.990698, 269, 97, 300, 160
-0.990699, 105, 101, 168, 132
-0.990702, 177, 121, 240, 152
-0.990743, 153, 33, 216, 288
-0.990759, 377, 241, 408, 304
-0.990775, 321, 197, 384, 228
-0.990792, 217, 241, 280, 272
-0.990797, 169, 133, 232, 164
-0.990822, 353, 261, 416, 292
-0.990831, 209, 1, 272, 333
-0.990841, 225, 65, 288, 320
-0.990847, 305, 213, 368, 244
-0.990865, 305, 297, 368, 328
-0.99089, 329, 241, 392, 272
-0.990891, 33, 249, 64, 312
-0.990892, 217, 117, 280, 148
-0.990901, 129, 241, 256, 304
-0.990905, 49, 33, 80, 96
-0.990922, 309, 89, 340, 152
-0.990961, 393, 281, 456, 312
-0.990976, 273, 229, 336, 260
-0.990992, 73, 193, 136, 256
-0.990992, 89, 225, 152, 288
-0.991063, 65, 109, 128, 140
-0.991064, 433, 273, 464, 333
-0.991089, 61, 209, 92, 333
-0.991094, 289, 193, 352, 224
-0.991118, 269, 49, 300, 176
-0.991127, 313, 113, 376, 144
-0.991145, 305, 193, 336, 256
-0.991161, 33, 281, 96, 312
-0.991162, 273, 65, 336, 96
-0.991171, 105, 113, 168, 144
-0.991182, 153, 1, 216, 333
-0.991197, 245, 137, 276, 200
-0.991205, 257, 273, 500, 333
-0.991207, 225, 161, 256, 288
-0.99121, 221, 241, 252, 304
-0.991215, 209, 129, 272, 160
-0.991222, 57, 17, 120, 48
-0.991229, 13, 65, 44, 128
-0.991268, 241, 177, 272, 304
-0.991284, 81, 265, 112, 328
-0.991298, 81, 209, 112, 333
-0.991327, 157, 105, 188, 168
-0.991346, 289, 285, 352, 316
-0.991367, 417, 289, 480, 320
-0.991401, 257, 1, 500, 128
-0.991406, 313, 153, 344, 216
-0.991432, 49, 209, 176, 272
-0.991441, 1, 261, 64, 292
-0.991443, 425, 301, 488, 332
-0.991497, 225, 221, 288, 252
-0.991498, 1, 233, 64, 264
-0.99152, 241, 141, 304, 172
-0.991542, 93, 1, 124, 128
-0.991546, 105, 141, 168, 172
-0.991593, 281, 297, 344, 328
-0.991618, 97, 33, 224, 96
-0.991626, 161, 137, 416, 200
-0.99164, 105, 153, 168, 184
-0.991649, 385, 129, 416, 192
-0.991653, 361, 177, 424, 240
-0.991666, 385, 137, 448, 200
-0.991666, 145, 145, 208, 176
-0.991668, 237, 97, 268, 224
-0.991683, 273, 93, 336, 124
-0.991694, 345, 201, 408, 232
-0.991697, 121, 257, 184, 288
-0.991702, 13, 49, 44, 176
-0.99171, 161, 193, 288, 256
-0.991724, 113, 145, 144, 208
-0.991728, 305, 241, 368, 272
-0.991729, 33, 45, 96, 76
-0.991739, 329, 257, 392, 288
-0.991739, 249, 1, 312, 333
-0.991747, 337, 169, 400, 200
-0.991748, 313, 217, 344, 280
-0.991763, 353, 301, 416, 332
-0.991776, 49, 29, 112, 60
-0.9918, 273, 217, 336, 248
-0.991825, 297, 177, 360, 208
-0.991827, 273, 273, 336, 304
-0.99184, 177, 149, 240, 180
-0.991848, 145, 117, 208, 148
-0.99187, 257, 121, 288, 184
-0.991896, 145, 105, 208, 136
-0.991912, 97, 89, 160, 120
-0.991927, 161, 105, 416, 168
-0.991953, 105, 165, 168, 196
-0.991959, 305, 257, 368, 288
-0.991961, 137, 85, 200, 116
-0.991975, 333, 97, 364, 224
-0.991977, 17, 57, 80, 88
-0.991977, 233, 129, 296, 160
-0.991979, 217, 141, 280, 172
-0.99199, 321, 133, 384, 164
-0.991991, 9, 249, 72, 280
-0.992001, 249, 221, 312, 252
-0.992013, 241, 105, 304, 136
-0.99202, 9, 277, 72, 308
-0.992049, 297, 101, 360, 132
-0.992054, 57, 281, 120, 312
-0.992059, 265, 181, 328, 212
-0.992088, 49, 269, 112, 300
-0.992113, 345, 1, 408, 333
-0.992126, 281, 233, 312, 296
-0.992136, 105, 125, 168, 156
-0.992143, 285, 129, 316, 160
-0.99215, 273, 81, 336, 112
-0.99216, 409, 249, 440, 312
-0.992162, 29, 161, 60, 288
-0.992168, 241, 153, 304, 184
-0.992174, 353, 149, 416, 180
-0.992186, 61, 65, 92, 192
-0.992213, 33, 1, 160, 64
-0.992218, 321, 281, 352, 312
-0.992219, 137, 169, 200, 200
-0.992229, 1, 69, 64, 100
-0.992241, 393, 249, 424, 312
-0.992242, 1, 237, 32, 268
-0.992244, 329, 217, 392, 248
-0.992266, 177, 161, 240, 192
-0.992294, 9, 177, 40, 240
-0.992307, 297, 73, 360, 104
-0.992309, 353, 137, 416, 168
-0.99231, 133, 81, 164, 144
-0.99232, 221, 209, 252, 333
-0.99232, 277, 57, 308, 120
-0.992325, 245, 241, 276, 304
-0.992332, 281, 241, 344, 272
-0.992346, 297, 85, 360, 116
-0.992358, 41, 293, 104, 324
-0.992371, 161, 273, 416, 333
-0.992402, 65, 113, 320, 176
-0.992403, 129, 33, 160, 160
-0.992403, 141, 177, 172, 304
-0.992404, 365, 285, 396, 316
-0.992411, 73, 269, 136, 300
-0.992416, 145, 157, 208, 188
-0.992417, 297, 165, 360, 196
-0.99242, 329, 229, 392, 260
-0.992426, 65, 129, 128, 160
-0.992434, 137, 73, 200, 104
-0.992442, 193, 241, 256, 272
-0.992447, 97, 65, 160, 96
-0.992466, 109, 121, 140, 184
-0.992477, 269, 125, 300, 156
-0.992483, 73, 301, 136, 332
-0.992495, 73, 221, 136, 252
-0.992497, 261, 209, 292, 333
-0.9925, 201, 229, 264, 260
-0.992508, 185, 109, 248, 140
-0.992516, 385, 105, 448, 168
-0.992518, 333, 293, 364, 324
-0.992537, 273, 53, 336, 84
-0.992538, 49, 81, 80, 208
-0.992549, 337, 273, 368, 304
-0.992551, 53, 17, 84, 144
-0.992554, 329, 129, 360, 192
-0.992557, 377, 161, 408, 288
-0.992567, 65, 97, 128, 128
-0.992577, 337, 193, 368, 256
-0.992581, 297, 1, 360, 128
-0.992581, 9, 17, 72, 144
-0.992603, 97, 49, 160, 80
-0.992613, 97, 77, 160, 108
-0.992614, 73, 29, 136, 60
-0.992619, 201, 153, 264, 184
-0.992636, 153, 257, 184, 320
-0.992637, 321, 193, 352, 224
-0.992638, 281, 161, 312, 224
-0.992647, 393, 253, 456, 284
-0.992661, 57, 73, 120, 104
-0.992663, 337, 113, 400, 144
-0.992664, 369, 241, 432, 272
-0.99269, 213, 33, 244, 160
-0.992701, 129, 1, 192, 333
-0.992714, 73, 49, 136, 80
-0.992723, 33, 9, 96, 40
-0.992729, 49, 233, 112, 264
-0.992741, 369, 137, 496, 200
-0.992743, 25, 265, 88, 296
-0.992751, 353, 149, 384, 180
-0.992763, 105, 181, 168, 212
-0.992767, 57, 85, 120, 116
-0.992771, 377, 145, 440, 176
-0.992773, 177, 229, 240, 260
-0.992775, 1, 265, 500, 328
-0.992778, 341, 185, 372, 216
-0.992788, 193, 49, 256, 112
-0.992795, 381, 289, 412, 320
-0.992796, 81, 281, 144, 312
-0.992799, 233, 169, 296, 200
-0.992799, 357, 205, 388, 236
-0.9928, 233, 93, 296, 124
-0.992804, 129, 269, 192, 300
-0.992806, 241, 169, 304, 232
-0.992806, 349, 273, 380, 304
-0.992809, 285, 141, 316, 172
-0.992811, 321, 105, 448, 168
-0.992812, 345, 297, 376, 328
-0.992819, 265, 285, 328, 316
-0.992824, 285, 117, 316, 148
-0.992837, 193, 177, 256, 240
-0.992849, 257, 137, 384, 168
-0.992865, 181, 133, 212, 164
-0.992865, 261, 225, 292, 256
-0.992871, 361, 161, 392, 192
-0.992908, 341, 137, 372, 168
-0.992929, 401, 273, 432, 304
-0.992931, 341, 173, 372, 204
-0.992933, 33, 33, 64, 160
-0.992937, 381, 149, 412, 180
-0.99295, 341, 237, 372, 268
-0.992952, 301, 133, 332, 164
-0.992959, 353, 65, 416, 192
-0.992966, 361, 297, 392, 328
-0.992991, 237, 237, 268, 268
-0.992992, 365, 273, 396, 304
-0.993, 25, 49, 56, 112
-0.993004, 369, 257, 400, 288
-0.993007, 1, 249, 32, 280
-0.993019, 381, 261, 412, 292
-0.993027, 313, 297, 344, 328
-0.99303, 273, 229, 304, 260
-0.993032, 9, 261, 40, 292
-0.993038, 205, 81, 236, 208
-0.993043, 417, 281, 448, 312
-0.993046, 129, 57, 256, 120
-0.993046, 265, 137, 296, 168
-0.993048, 301, 145, 332, 176
-0.993073, 225, 241, 256, 272
-0.993079, 297, 121, 328, 152
-0.993083, 433, 289, 464, 320
-0.993092, 73, 49, 104, 176
-0.9931, 229, 117, 260, 148
-0.9931, 353, 193, 384, 224
-0.993101, 61, 281, 92, 312
-0.993102, 325, 205, 356, 236
-0.993104, 157, 129, 188, 256
-0.993109, 445, 297, 476, 328
-0.99311, 65, 9, 96, 40
-0.993114, 357, 253, 388, 284
-0.993121, 253, 237, 284, 268
-0.993121, 1, 225, 32, 256
-0.993126, 65, 241, 96, 304
-0.993133, 193, 121, 224, 152
-0.993134, 349, 285, 380, 316
-0.99314, 361, 121, 392, 152
-0.993144, 325, 57, 356, 88
-0.993155, 233, 273, 296, 333
-0.993157, 297, 109, 328, 140
-0.99316, 353, 225, 384, 256
-0.993163, 205, 121, 236, 152
-0.993166, 109, 81, 140, 208
-0.99317, 329, 181, 360, 212
-0.99317, 457, 301, 488, 332
-0.993171, 289, 281, 416, 312
-0.993171, 313, 241, 344, 272
-0.993176, 361, 173, 392, 204
-0.993185, 341, 225, 372, 256
-0.993185, 309, 189, 340, 220
-0.993189, 377, 125, 408, 156
-0.993193, 381, 273, 412, 304
-0.993202, 81, 13, 112, 44
-0.993203, 245, 121, 276, 152
-0.993203, 325, 225, 356, 256
-0.99321, 133, 109, 164, 140
-0.993213, 93, 109, 124, 140
-0.993213, 293, 61, 324, 92
-0.993218, 65, 293, 96, 324
-0.99322, 49, 281, 80, 312
-0.993224, 353, 217, 480, 280
-0.993226, 309, 121, 340, 152
-0.993232, 169, 81, 200, 208
-0.993234, 181, 121, 212, 152
-0.993235, 277, 153, 308, 184
-0.993238, 161, 129, 192, 160
-0.993252, 341, 113, 372, 144
-0.993254, 325, 157, 356, 188
-0.993255, 301, 289, 332, 320
-0.993256, 277, 105, 308, 136
-0.99326, 245, 137, 276, 168
-0.993263, 321, 17, 448, 144
-0.993265, 149, 257, 180, 288
-0.993267, 205, 137, 236, 168
-0.993272, 257, 145, 500, 208
-0.993273, 289, 97, 320, 128
-0.993276, 249, 221, 280, 252
-0.993279, 181, 153, 212, 184
-0.993284, 341, 149, 372, 180
-0.993285, 309, 61, 340, 92
-0.99329, 17, 245, 48, 276
-0.993291, 333, 261, 364, 292
-0.993291, 193, 133, 224, 164
-0.993291, 133, 97, 164, 128
-0.993293, 341, 209, 372, 240
-0.993297, 309, 109, 340, 140
-0.993301, 213, 241, 244, 272
-0.993304, 317, 269, 348, 300
-0.993308, 225, 225, 256, 256
-0.993315, 257, 113, 500, 176
-0.993326, 337, 197, 368, 228
-0.993326, 53, 269, 84, 300
-0.993328, 369, 149, 400, 180
-0.993333, 229, 105, 260, 136
-0.993337, 277, 65, 308, 96
-0.993341, 25, 81, 56, 208
-0.993341, 109, 121, 140, 152
-0.993345, 281, 217, 312, 248
-0.993353, 373, 301, 404, 332
-0.993356, 353, 237, 384, 268
-0.993356, 137, 257, 168, 288
-0.993356, 317, 137, 348, 168
-0.99336, 457, 289, 488, 320
-0.993363, 301, 269, 332, 300
-0.993364, 161, 149, 192, 180
-0.993364, 365, 241, 396, 272
-0.993369, 325, 113, 356, 144
-0.993372, 445, 281, 476, 312
-0.993374, 301, 237, 332, 268
-0.993377, 217, 133, 248, 164
-0.993379, 257, 125, 288, 156
-0.993379, 213, 229, 244, 260
-0.993384, 421, 269, 452, 300
-0.993395, 357, 133, 388, 164
-0.993396, 345, 261, 376, 292
-0.993397, 5, 69, 36, 100
-0.993401, 109, 145, 140, 176
-0.993402, 37, 45, 68, 76
-0.993405, 469, 293, 500, 324
-0.993409, 21, 53, 52, 84
-0.993413, 297, 85, 328, 116
-0.993414, 65, 269, 96, 300
-0.993416, 49, 29, 80, 60
-0.993416, 329, 237, 360, 268
-0.993417, 193, 217, 448, 280
-0.993426, 353, 289, 480, 320
-0.993473, 65, 137, 320, 200
-0.993508, 337, 41, 400, 104
-0.993543, 457, 273, 488, 333
-0.993553, 277, 161, 308, 288
-0.993702, 193, 185, 448, 248
-0.99375, 369, 169, 400, 232
-0.993753, 109, 177, 140, 304
-0.993775, 85, 73, 116, 136
-0.993811, 161, 161, 416, 224
-0.993871, 289, 125, 416, 156
-0.993889, 141, 129, 172, 256
-0.993924, 97, 81, 352, 144
-0.993944, 9, 113, 40, 240
-0.993946, 349, 273, 364, 333
-0.993968, 209, 177, 240, 304
-0.993976, 77, 97, 108, 160
-0.994088, 13, 201, 44, 264
-0.994098, 181, 73, 212, 136
-0.994125, 297, 217, 328, 280
-0.994125, 375, 273, 390, 333
-0.99417, 229, 89, 260, 152
-0.994185, 321, 41, 448, 104
-0.994227, 1, 217, 256, 280
-0.994241, 105, 81, 136, 144
-0.994245, 337, 273, 464, 304
-0.994256, 269, 201, 300, 264
-0.994275, 273, 33, 400, 96
-0.994285, 209, 225, 240, 288
-0.994316, 1, 209, 500, 272
-0.994332, 165, 273, 196, 333
-0.994355, 113, 233, 176, 296
-0.994475, 1, 249, 256, 312
-0.994489, 125, 81, 156, 208
-0.994494, 233, 249, 264, 312
-0.994497, 289, 149, 416, 180
-0.994503, 343, 273, 358, 333
-0.994514, 357, 273, 372, 333
-0.994533, 85, 225, 116, 288
-0.994551, 193, 117, 320, 148
-0.994579, 49, 265, 80, 328
-0.994596, 61, 89, 92, 152
-0.994627, 17, 273, 48, 333
-0.994643, 1, 185, 500, 248
-0.994651, 93, 145, 124, 272
-0.994657, 321, 65, 448, 128
-0.994662, 257, 249, 500, 312
-0.994684, 257, 113, 384, 144
-0.994701, 29, 137, 60, 200
-0.994716, 209, 133, 336, 164
-0.994762, 257, 293, 384, 324
-0.994768, 93, 17, 124, 80
-0.99479, 369, 273, 384, 333
-0.994812, 363, 273, 378, 333
-0.994815, 181, 153, 212, 216
-0.994821, 213, 105, 244, 168
-0.994835, 1, 161, 256, 224
-0.994881, 257, 97, 288, 160
-0.994886, 49, 185, 176, 248
-0.994909, 305, 293, 432, 324
-0.994931, 73, 65, 104, 128
-0.99494, 229, 153, 260, 216
-0.994965, 293, 193, 324, 320
-0.994983, 445, 273, 476, 333
-0.995012, 49, 209, 80, 333
-0.99505, 337, 273, 352, 333
-0.995073, 81, 153, 208, 184
-0.995077, 209, 17, 336, 80
-0.995083, 305, 137, 432, 168
-0.995122, 161, 177, 224, 240
-0.995151, 209, 237, 336, 268
-0.995156, 273, 165, 400, 196
-0.995184, 1, 153, 500, 216
-0.995185, 347, 233, 362, 296
-0.995193, 329, 273, 344, 333
-0.995198, 293, 121, 308, 184
-0.995205, 417, 249, 480, 312
-0.995215, 17, 225, 48, 288
-0.995243, 33, 273, 288, 333
-0.995251, 15, 241, 30, 304
-0.995261, 361, 65, 424, 320
-0.995269, 279, 121, 294, 184
-0.995279, 353, 241, 368, 304
-0.99529, 1, 233, 500, 296
-0.995303, 281, 209, 312, 333
-0.995332, 49, 113, 176, 144
-0.995335, 309, 113, 324, 176
-0.995341, 385, 265, 400, 328
-0.995356, 1, 89, 256, 152
-0.995367, 369, 249, 384, 312
-0.995386, 299, 129, 314, 192
-0.995409, 3, 241, 18, 304
-0.995456, 337, 125, 464, 156
-0.995475, 97, 9, 224, 72
-0.995476, 101, 217, 132, 280
-0.995498, 287, 113, 302, 176
-0.995517, 257, 89, 500, 152
-0.995552, 273, 177, 400, 208
-0.995564, 375, 121, 390, 184
-0.995578, 273, 189, 400, 220
-0.995619, 141, 145, 172, 208
-0.995632, 57, 65, 88, 128
-0.995637, 97, 165, 224, 196
-0.995643, 161, 133, 288, 164
-0.995656, 209, 145, 336, 176
-0.995667, 165, 169, 196, 232
-0.995668, 41, 161, 72, 288
-0.995708, 385, 121, 400, 184
-0.995712, 359, 249, 374, 312
-0.995715, 29, 169, 60, 232
-0.995745, 337, 49, 368, 176
-0.995752, 363, 121, 378, 184
-0.995777, 129, 57, 384, 120
-0.995821, 257, 237, 384, 268
-0.995825, 65, 193, 320, 256
-0.99584, 353, 301, 480, 332
-0.995844, 9, 225, 24, 288
-0.995871, 375, 249, 390, 312
-0.995878, 37, 81, 68, 208
-0.99588, 1, 129, 500, 192
-0.995883, 185, 129, 200, 192
-0.995893, 5, 89, 36, 152
-0.995895, 93, 49, 124, 112
-0.995897, 469, 113, 500, 176
-0.995907, 9, 153, 40, 216
-0.995929, 209, 25, 272, 88
-0.995944, 105, 25, 168, 88
-0.995967, 287, 137, 302, 200
-0.995999, 97, 141, 224, 172
-0.996017, 21, 257, 36, 320
-0.996019, 209, 153, 240, 216
-0.996045, 337, 261, 464, 292
-0.996048, 113, 169, 144, 232
-0.996053, 289, 257, 416, 288
-0.996078, 373, 65, 404, 192
-0.996087, 145, 33, 272, 96
-0.99611, 363, 145, 378, 208
-0.996116, 353, 161, 368, 224
-0.996126, 299, 105, 314, 168
-0.996138, 355, 217, 370, 280
-0.996144, 337, 185, 352, 248
-0.996146, 17, 153, 144, 184
-0.996158, 73, 97, 104, 224
-0.996162, 323, 193, 338, 256
-0.996177, 81, 125, 208, 156
-0.996177, 1, 105, 500, 168
-0.996194, 1, 41, 256, 104
-0.99629, 153, 225, 216, 288
-0.996312, 97, 217, 352, 280
-0.996338, 357, 129, 372, 192
-0.99634, 169, 41, 232, 104
-0.996341, 257, 61, 384, 92
-0.996344, 129, 153, 256, 184
-0.996358, 137, 33, 200, 96
-0.996367, 321, 273, 336, 333
-0.996369, 347, 177, 362, 240
-0.996372, 97, 113, 224, 144
-0.996373, 369, 217, 432, 280
-0.99638, 341, 249, 356, 312
-0.996382, 391, 265, 406, 328
-0.996395, 309, 89, 324, 152
-0.996395, 289, 269, 416, 300
-0.996426, 305, 57, 320, 120
-0.996444, 257, 49, 288, 176
-0.996446, 17, 169, 144, 200
-0.996451, 257, 217, 384, 248
-0.996464, 411, 273, 426, 333
-0.996466, 293, 145, 308, 208
-0.99649, 311, 257, 326, 320
-0.996494, 401, 273, 416, 333
-0.996497, 329, 201, 344, 264
-0.996535, 3, 217, 18, 280
-0.996547, 321, 225, 336, 288
-0.996551, 287, 89, 302, 152
-0.996554, 175, 129, 190, 192
-0.996556, 337, 149, 464, 180
-0.99656, 359, 185, 374, 248
-0.996564, 369, 89, 496, 152
-0.996572, 325, 65, 356, 320
-0.99661, 373, 169, 388, 232
-0.996613, 337, 153, 352, 216
-0.996616, 71, 1, 86, 64
-0.996625, 237, 89, 252, 152
-0.996626, 29, 209, 60, 333
-0.996628, 393, 209, 424, 333
-0.996639, 149, 105, 164, 168
-0.996645, 97, 33, 352, 96
-0.996666, 305, 137, 320, 200
-0.996709, 125, 193, 156, 320
-0.996738, 1, 109, 128, 140
-0.99674, 383, 241, 398, 304
-0.99674, 17, 141, 144, 172
-0.996756, 353, 193, 480, 256
-0.996764, 347, 201, 362, 264
-0.996769, 229, 49, 260, 176
-0.996777, 225, 73, 288, 136
-0.996782, 233, 33, 296, 96
-0.996787, 225, 281, 352, 312
-0.996806, 369, 145, 384, 208
-0.996822, 369, 121, 384, 184
-0.996841, 391, 129, 406, 192
-0.996851, 257, 101, 384, 132
-0.996852, 193, 157, 320, 188
-0.996858, 27, 257, 42, 320
-0.996864, 183, 105, 198, 168
-0.996865, 49, 101, 176, 132
-0.996882, 265, 161, 296, 288
-0.996912, 145, 117, 272, 148
-0.996914, 195, 129, 210, 192
-0.996928, 377, 145, 392, 208
-0.996934, 325, 57, 340, 120
-0.996941, 321, 173, 448, 204
-0.996942, 193, 225, 320, 256
-0.996952, 339, 57, 354, 120
-0.99696, 397, 249, 412, 312
-0.996969, 383, 145, 398, 208
-0.996978, 225, 173, 352, 204
-0.996989, 129, 101, 256, 132
-0.996991, 169, 177, 200, 304
-0.997038, 299, 125, 314, 156
-0.997041, 17, 45, 144, 76
-0.997048, 289, 201, 416, 232
-0.997049, 9, 201, 24, 264
-0.997055, 319, 113, 334, 176
-0.997056, 93, 9, 108, 72
-0.99706, 81, 261, 208, 292
-0.997061, 225, 65, 480, 128
-0.997062, 367, 169, 382, 232
-0.997079, 319, 153, 334, 216
-0.997091, 279, 97, 294, 160
-0.997099, 195, 105, 210, 168
-0.997138, 33, 129, 160, 160
-0.99714, 161, 245, 288, 276
-0.997147, 1, 65, 256, 128
-0.997149, 17, 181, 144, 212
-0.997158, 417, 273, 432, 333
-0.997159, 201, 33, 232, 160
-0.997161, 51, 33, 66, 96
-0.997169, 329, 153, 344, 216
-0.997173, 311, 65, 326, 128
-0.997186, 121, 33, 184, 160
-0.997203, 1, 17, 256, 80
-0.997207, 17, 245, 144, 276
-0.997229, 251, 129, 266, 192
-0.997241, 3, 265, 18, 328
-0.997252, 153, 193, 184, 320
-0.997253, 1, 229, 128, 260
-0.997273, 97, 177, 224, 208
-0.997276, 73, 265, 88, 328
-0.997281, 305, 245, 432, 276
-0.997286, 103, 97, 118, 160
-0.997286, 377, 285, 392, 316
-0.997298, 65, 277, 192, 308
-0.997314, 321, 249, 336, 312
-0.997323, 43, 41, 58, 104
-0.997325, 147, 73, 162, 136
-0.997326, 279, 125, 294, 156
-0.997329, 343, 153, 358, 216
-0.997335, 33, 49, 48, 112
-0.997336, 1, 281, 128, 312
-0.997338, 271, 217, 286, 280
-0.997341, 23, 57, 38, 120
-0.997357, 299, 153, 314, 216
-0.997366, 241, 113, 256, 176
-0.997366, 257, 137, 272, 200
-0.997378, 351, 137, 366, 200
-0.997384, 279, 225, 294, 288
-0.997393, 259, 225, 274, 288
-0.997397, 345, 65, 376, 320
-0.997401, 287, 133, 302, 164
-0.997414, 245, 241, 260, 304
-0.997414, 231, 89, 246, 152
-0.997417, 407, 249, 422, 312
-0.997418, 423, 273, 438, 333
-0.997419, 283, 57, 298, 120
-0.99742, 253, 225, 268, 288
-0.997429, 59, 25, 74, 88
-0.997436, 309, 133, 324, 164
-0.997437, 293, 57, 308, 120
-0.997438, 369, 161, 432, 288
-0.997439, 293, 97, 308, 160
-0.997443, 327, 249, 342, 312
-0.99745, 433, 105, 496, 168
-0.997451, 229, 113, 244, 176
-0.997451, 449, 273, 464, 333
-0.997465, 205, 129, 220, 192
-0.997467, 237, 225, 252, 288
-0.997472, 293, 177, 308, 240
-0.997476, 21, 233, 36, 296
-0.997477, 361, 209, 376, 272
-0.997483, 273, 113, 288, 176
-0.997498, 241, 261, 368, 292
-0.9975, 227, 241, 242, 304
-0.997503, 337, 197, 464, 228
-0.997515, 433, 273, 448, 333
-0.997524, 241, 249, 368, 280
-0.997528, 33, 29, 160, 60
-0.997531, 321, 285, 336, 316
-0.997536, 209, 105, 336, 136
-0.997539, 331, 57, 346, 120
-0.997549, 317, 185, 332, 248
-0.997553, 257, 81, 384, 112
-0.997557, 209, 185, 336, 216
-0.997566, 55, 241, 70, 304
-0.997572, 241, 201, 368, 232
-0.997576, 201, 105, 216, 168
-0.997578, 17, 65, 32, 128
-0.997584, 347, 113, 362, 176
-0.997585, 281, 153, 296, 216
-0.997593, 11, 233, 26, 264
-0.997598, 17, 193, 144, 224
-0.997601, 33, 265, 160, 296
-0.997607, 331, 177, 346, 240
-0.997618, 293, 129, 308, 160
-0.997623, 265, 217, 280, 280
-0.997627, 211, 129, 226, 192
-0.997628, 405, 209, 436, 333
-0.997638, 7, 73, 22, 136
-0.997645, 83, 25, 98, 88
-0.99765, 1, 293, 128, 324
-0.997654, 327, 281, 342, 312
-0.99766, 289, 117, 304, 148
-0.997664, 113, 81, 240, 112
-0.997673, 305, 113, 432, 144
-0.997681, 49, 65, 176, 96
-0.997684, 361, 97, 424, 160
-0.997691, 177, 301, 304, 332
-0.997705, 81, 289, 208, 320
-0.997708, 177, 169, 304, 200
-0.997719, 369, 137, 496, 168
-0.997719, 189, 33, 220, 160
-0.997724, 49, 89, 176, 120
-0.997726, 359, 293, 374, 324
-0.997735, 49, 77, 176, 108
-0.997739, 3, 237, 18, 268
-0.997746, 325, 189, 340, 220
-0.997751, 365, 193, 380, 224
-0.997772, 337, 161, 464, 192
-0.997775, 347, 297, 362, 328
-0.997775, 245, 49, 276, 176
-0.997777, 305, 65, 336, 320
-0.99778, 33, 17, 160, 48
-0.997783, 193, 69, 320, 100
-0.997789, 353, 273, 368, 304
-0.9978, 209, 273, 272, 333
-0.997804, 339, 277, 354, 308
-0.99781, 353, 165, 368, 196
-0.997815, 1, 205, 128, 236
-0.997829, 337, 289, 352, 320
-0.997836, 1, 93, 128, 124
-0.997837, 17, 253, 32, 284
-0.997838, 371, 281, 386, 312
-0.997844, 275, 225, 290, 256
-0.997864, 383, 289, 398, 320
-0.997869, 335, 193, 350, 224
-0.99787, 193, 89, 320, 120
-0.997882, 345, 277, 360, 308
-0.997895, 281, 137, 296, 168
-0.997942, 97, 189, 224, 220
-0.997942, 3, 225, 18, 256
-0.997951, 303, 145, 318, 176
-0.997955, 1, 217, 128, 248
-0.997964, 161, 273, 288, 304
-0.997965, 233, 1, 296, 128
-0.997983, 355, 225, 370, 256
-0.997989, 181, 129, 196, 160
-0.998002, 289, 1, 320, 128
-0.998003, 209, 213, 336, 244
-0.998006, 357, 65, 388, 320
-0.998014, 1, 81, 128, 112
-0.998025, 309, 121, 324, 152
-0.998032, 137, 193, 200, 256
-0.998033, 1, 65, 128, 96
-0.99805, 97, 213, 224, 244
-0.998067, 353, 297, 368, 328
-0.99807, 137, 65, 168, 320
-0.998072, 375, 149, 390, 180
-0.99808, 145, 229, 272, 260
-0.998088, 97, 69, 224, 100
-0.998112, 359, 129, 374, 160
-0.998112, 359, 205, 374, 236
-0.99812, 161, 289, 288, 320
-0.998122, 343, 185, 358, 216
-0.998136, 49, 229, 176, 260
-0.998142, 281, 229, 296, 260
-0.998144, 321, 185, 448, 216
-0.998147, 283, 113, 298, 144
-0.998151, 145, 257, 272, 288
-0.998168, 359, 273, 374, 304
-0.998184, 281, 33, 312, 288
-0.998185, 305, 61, 320, 92
-0.998187, 341, 57, 356, 88
-0.998198, 369, 113, 496, 144
-0.998202, 93, 33, 124, 288
-0.998207, 359, 185, 374, 216
-0.998209, 97, 201, 224, 232
-0.99821, 17, 241, 32, 272
-0.998216, 393, 225, 456, 288
-0.998226, 145, 249, 208, 312
-0.998226, 365, 281, 380, 312
-0.998247, 237, 93, 252, 124
-0.998248, 73, 281, 88, 312
-0.998251, 247, 233, 262, 264
-0.998255, 391, 129, 406, 160
-0.998264, 149, 17, 180, 144
-0.998277, 353, 249, 480, 280
-0.998277, 333, 273, 348, 304
-0.998282, 161, 201, 224, 264
-0.998283, 305, 233, 432, 264
-0.998283, 409, 273, 424, 304
-0.998284, 363, 149, 378, 180
-0.998284, 401, 269, 416, 300
-0.998295, 417, 277, 432, 308
-0.998297, 381, 273, 396, 304
-0.998301, 129, 129, 160, 256
-0.998304, 65, 301, 192, 332
-0.998305, 347, 229, 362, 260
-0.998314, 97, 33, 224, 64
-0.998315, 23, 257, 38, 288
-0.998327, 181, 137, 212, 152
-0.998327, 375, 161, 390, 192
-0.998328, 189, 129, 220, 144
-0.99833, 253, 233, 268, 264
-0.99833, 133, 101, 164, 116
-0.99833, 353, 141, 384, 156
-0.99833, 331, 293, 346, 324
-0.998332, 157, 125, 188, 140
-0.998332, 33, 1, 64, 256
-0.998333, 249, 129, 280, 144
-0.998333, 221, 245, 252, 260
-0.998334, 241, 241, 256, 272
-0.998334, 423, 281, 438, 312
-0.998335, 337, 217, 368, 232
-0.998335, 309, 111, 340, 126
-0.998335, 373, 165, 404, 180
-0.998336, 249, 121, 280, 136
-0.998336, 453, 289, 484, 304
-0.998337, 177, 125, 208, 140
-0.998338, 301, 155, 332, 170
-0.99834, 1, 279, 32, 294
-0.998342, 1, 265, 16, 296
-0.998343, 347, 241, 362, 272
-0.998344, 289, 109, 320, 124
-0.998344, 1, 245, 32, 260
-0.998346, 321, 107, 352, 122
-0.998346, 409, 267, 440, 282
-0.998348, 277, 103, 308, 118
-0.998348, 421, 289, 452, 304
-0.998349, 341, 179, 372, 194
-0.998349, 273, 121, 304, 136
-0.99835, 321, 237, 352, 252
-0.99835, 17, 249, 48, 264
-0.998351, 249, 233, 280, 248
-0.998351, 377, 277, 408, 292
-0.998351, 345, 247, 376, 262
-0.998352, 13, 279, 44, 294
-0.998352, 157, 133, 188, 148
-0.998352, 205, 121, 220, 152
-0.998353, 405, 281, 436, 296
-0.998353, 329, 289, 360, 304
-0.998355, 297, 143, 328, 158
-0.998356, 341, 149, 372, 164
-0.998356, 265, 139, 296, 154
-0.998356, 281, 65, 312, 80
-0.998356, 209, 123, 240, 138
-0.998357, 81, 15, 112, 30
-0.998357, 209, 241, 240, 256
-0.998358, 1, 33, 32, 288
-0.998358, 113, 273, 240, 304
-0.998358, 317, 61, 348, 76
-0.998359, 393, 269, 424, 284
-0.998359, 373, 159, 404, 174
-0.99836, 345, 209, 376, 224
-0.99836, 297, 123, 328, 138
-0.99836, 341, 201, 372, 216
-0.998361, 305, 297, 336, 312
-0.998363, 421, 273, 452, 288
-0.998363, 317, 307, 348, 322
-0.998365, 341, 227, 372, 242
-0.998365, 305, 135, 336, 150
-0.998366, 309, 127, 340, 142
-0.998366, 245, 141, 276, 156
-0.998366, 297, 61, 328, 76
-0.998367, 269, 221, 284, 252
-0.998368, 385, 285, 416, 300
-0.998369, 97, 49, 224, 80
-0.998371, 341, 169, 372, 184
-0.998371, 441, 283, 472, 298
-0.998372, 341, 143, 372, 158
-0.998372, 1, 233, 32, 248
-0.998372, 401, 275, 432, 290
-0.998374, 445, 297, 476, 312
-0.998374, 469, 311, 500, 326
-0.998374, 273, 125, 288, 156
-0.998375, 319, 229, 334, 260
-0.998378, 61, 285, 92, 300
-0.998379, 457, 305, 488, 320
-0.998379, 301, 109, 316, 140
-0.998379, 285, 121, 316, 136
-0.998381, 319, 297, 334, 328
-0.998381, 189, 123, 220, 138
-0.998381, 313, 245, 344, 260
-0.998382, 1, 253, 32, 268
-0.998383, 363, 261, 378, 292
-0.998384, 353, 197, 384, 212
-0.998386, 329, 59, 360, 74
-0.998386, 315, 57, 330, 88
-0.998387, 89, 109, 120, 124
-0.998388, 369, 257, 400, 272
-0.998391, 361, 159, 392, 174
-0.998391, 433, 291, 464, 306
-0.998391, 349, 235, 380, 250
-0.998391, 1, 265, 32, 280
-0.998391, 357, 283, 388, 298
-0.998392, 293, 177, 308, 208
-0.998392, 325, 301, 340, 332
-0.998394, 357, 255, 388, 270
-0.998394, 301, 237, 332, 252
-0.998395, 341, 301, 356, 332
-0.998395, 17, 257, 48, 272
-0.998396, 351, 285, 366, 316
-0.998397, 369, 301, 400, 316
-0.998397, 381, 263, 412, 278
-0.998397, 261, 231, 292, 246
-0.9984, 95, 13, 110, 44
-0.9984, 321, 205, 352, 220
-0.9984, 23, 241, 38, 272
-0.998401, 289, 103, 320, 118
-0.998402, 361, 295, 392, 310
-0.998402, 417, 283, 448, 298
-0.998402, 353, 149, 384, 164
-0.998403, 281, 233, 312, 248
-0.998404, 233, 237, 264, 252
-0.998405, 251, 125, 266, 156
-0.998406, 295, 141, 310, 172
-0.998407, 333, 243, 364, 258
-0.998408, 365, 123, 396, 138
-0.998409, 253, 239, 284, 254
-0.998409, 221, 239, 252, 254
-0.998409, 309, 105, 340, 120
-0.998409, 369, 265, 384, 296
-0.998413, 341, 309, 372, 324
-0.998415, 373, 65, 404, 320
-0.998416, 341, 287, 372, 302
-0.998417, 283, 65, 298, 96
-0.998419, 373, 153, 404, 168
-0.998419, 337, 191, 368, 206
-0.99842, 301, 149, 332, 164
-0.99842, 309, 191, 340, 206
-0.998422, 357, 207, 388, 222
-0.998422, 361, 175, 392, 190
-0.998429, 369, 297, 384, 328
-0.99843, 319, 189, 334, 220
-0.998431, 229, 117, 260, 132
-0.998431, 315, 285, 330, 316
-0.998433, 357, 245, 372, 276
-0.998433, 341, 185, 372, 200
-0.998434, 273, 133, 304, 148
-0.998434, 357, 305, 388, 320
-0.998434, 285, 151, 316, 166
-0.998435, 383, 149, 398, 180
-0.998435, 269, 237, 300, 252
-0.998436, 67, 281, 82, 312
-0.998442, 445, 293, 460, 324
-0.998444, 337, 287, 400, 302
-0.998446, 145, 97, 160, 128
-0.998447, 357, 275, 388, 290
-0.998447, 431, 285, 446, 316
-0.998447, 319, 133, 334, 164
-0.998449, 387, 277, 402, 308
-0.998449, 397, 81, 428, 208
-0.998453, 361, 165, 392, 180
-0.998454, 207, 133, 222, 164
-0.998454, 345, 297, 376, 312
-0.998455, 211, 121, 226, 152
-0.998456, 453, 297, 468, 328
-0.998456, 369, 283, 400, 298
-0.998458, 309, 109, 324, 140
-0.998459, 233, 243, 264, 258
-0.998459, 375, 301, 390, 332
-0.99846, 439, 289, 454, 320
-0.99846, 241, 127, 304, 142
-0.99846, 371, 253, 386, 284
-0.99846, 313, 289, 376, 304
-0.998461, 461, 301, 476, 332
-0.998461, 1, 253, 16, 284
-0.998463, 285, 145, 316, 160
-0.998464, 193, 49, 320, 80
-0.998465, 371, 177, 386, 208
-0.998472, 387, 265, 402, 296
-0.998474, 309, 145, 324, 176
-0.998474, 329, 279, 392, 294
-0.998477, 385, 291, 416, 306
-0.998478, 265, 133, 328, 148
-0.998479, 333, 303, 364, 318
-0.99848, 177, 131, 208, 146
-0.998484, 321, 297, 384, 312
-0.998488, 321, 187, 352, 202
-0.998489, 265, 65, 296, 320
-0.99849, 347, 169, 362, 200
-0.99849, 297, 129, 328, 144
-0.998493, 289, 135, 320, 150
-0.998493, 333, 279, 364, 294
-0.998496, 289, 145, 304, 176
-0.998497, 69, 5, 84, 36
-0.998499, 321, 195, 384, 210
-0.998503, 289, 141, 352, 156
-0.998505, 317, 283, 348, 298
-0.998506, 321, 195, 352, 210
-0.998509, 325, 295, 356, 310
-0.998511, 345, 277, 376, 292
-0.998511, 151, 105, 166, 136
-0.998514, 365, 289, 396, 304
-0.998519, 235, 241, 250, 272
-0.998521, 265, 235, 328, 250
-0.998522, 377, 281, 440, 296
-0.998523, 17, 265, 32, 296
-0.998523, 313, 187, 376, 202
-0.998523, 325, 61, 340, 92
-0.998523, 61, 281, 76, 312
-0.998524, 113, 65, 144, 320
-0.998527, 393, 265, 408, 296
-0.998528, 337, 209, 464, 240
-0.998534, 375, 269, 390, 300
-0.998535, 241, 237, 304, 252
-0.998536, 289, 131, 352, 146
-0.998536, 269, 127, 300, 142
-0.998537, 195, 121, 210, 152
-0.998537, 225, 65, 256, 320
-0.998537, 193, 133, 208, 164
-0.998538, 297, 61, 360, 76
-0.998541, 377, 295, 440, 310
-0.998543, 1, 239, 32, 254
-0.998543, 363, 249, 378, 280
-0.998543, 263, 237, 278, 268
-0.998545, 371, 197, 386, 228
-0.998546, 273, 121, 336, 136
-0.998547, 333, 181, 348, 212
-0.998553, 105, 115, 168, 130
-0.998556, 313, 147, 376, 162
-0.998556, 345, 125, 408, 140
-0.998556, 21, 277, 36, 308
-0.998557, 369, 275, 432, 290
-0.998557, 329, 307, 392, 322
-0.998557, 321, 273, 336, 304
-0.998558, 305, 233, 368, 248
-0.99856, 393, 287, 456, 302
-0.99856, 65, 111, 128, 126
-0.998562, 257, 145, 320, 160
-0.998562, 217, 119, 280, 134
-0.998563, 293, 165, 308, 196
-0.998565, 361, 289, 424, 304
-0.998566, 273, 65, 336, 80
-0.998566, 161, 181, 288, 212
-0.998566, 337, 149, 400, 164
-0.998567, 97, 105, 160, 120
-0.998567, 215, 137, 230, 168
-0.998567, 17, 65, 48, 320
-0.998569, 313, 133, 376, 148
-0.99857, 321, 245, 384, 260
-0.998571, 381, 261, 396, 292
-0.998574, 281, 105, 344, 120
-0.998576, 297, 123, 360, 138
-0.998579, 273, 151, 336, 166
-0.998579, 145, 131, 208, 146
-0.99858, 317, 289, 348, 304
-0.998581, 249, 139, 312, 154
-0.998581, 81, 17, 96, 48
-0.998583, 297, 193, 360, 208
-0.998584, 305, 217, 368, 232
-0.998585, 353, 137, 368, 168
-0.99859, 265, 127, 328, 142
-0.99859, 367, 165, 382, 196
-0.998592, 345, 131, 408, 146
-0.998592, 273, 229, 336, 244
-0.998593, 345, 141, 408, 156
-0.998593, 305, 227, 368, 242
-0.998594, 209, 243, 272, 258
-0.998596, 217, 235, 280, 250
-0.998596, 185, 125, 248, 140
-0.998596, 297, 155, 360, 170
-0.998596, 353, 305, 416, 320
-0.998597, 329, 253, 392, 268
-0.998598, 33, 283, 96, 298
-0.998599, 289, 291, 352, 306
-0.998601, 361, 269, 424, 284
-0.998602, 305, 283, 368, 298
-0.998605, 57, 29, 72, 60
-0.998605, 289, 305, 352, 320
-0.998606, 241, 121, 304, 136
-0.998608, 49, 37, 64, 68
-0.998608, 145, 1, 272, 64
-0.998612, 297, 111, 360, 126
-0.998614, 401, 293, 464, 308
-0.998615, 145, 117, 208, 132
-0.998615, 193, 117, 256, 132
-0.998618, 345, 295, 408, 310
-0.998619, 305, 205, 368, 220
-0.998619, 417, 301, 480, 316
-0.99862, 57, 27, 120, 42
-0.99862, 121, 259, 184, 274
-0.99862, 281, 299, 344, 314
-0.998621, 97, 99, 160, 114
-0.998621, 329, 207, 392, 222
-0.998621, 313, 239, 376, 254
-0.998622, 273, 115, 336, 130
-0.998623, 241, 243, 304, 258
-0.998623, 273, 191, 336, 206
-0.998624, 241, 133, 304, 148
-0.998625, 305, 311, 368, 326
-0.998625, 217, 131, 280, 146
-0.998625, 145, 149, 208, 164
-0.998629, 337, 259, 400, 274
-0.998629, 105, 149, 168, 164
-0.99863, 433, 307, 496, 322
-0.99863, 1, 81, 500, 144
-0.998631, 329, 201, 392, 216
-0.998631, 9, 279, 72, 294
-0.998631, 57, 17, 120, 32
-0.998632, 337, 187, 400, 202
-0.998634, 169, 133, 232, 148
-0.998634, 313, 141, 376, 156
-0.998635, 105, 165, 168, 180
-0.998636, 285, 129, 316, 144
-0.998639, 193, 193, 224, 320
-0.998642, 305, 211, 368, 226
-0.998643, 105, 121, 168, 136
-0.998643, 137, 93, 200, 108
-0.998643, 129, 143, 192, 158
-0.998644, 137, 99, 200, 114
-0.998647, 169, 153, 232, 168
-0.99865, 273, 97, 336, 112
-0.99865, 273, 285, 336, 300
-0.998651, 297, 181, 360, 196
-0.998651, 257, 109, 320, 124
-0.998652, 337, 273, 400, 288
-0.998653, 209, 137, 272, 152
-0.998654, 353, 281, 416, 296
-0.998654, 241, 231, 304, 246
-0.998655, 169, 141, 232, 156
-0.998655, 105, 157, 168, 172
-0.998655, 145, 137, 208, 152
-0.998656, 73, 117, 136, 132
-0.998657, 281, 241, 344, 256
-0.998658, 105, 143, 168, 158
-0.998659, 57, 287, 120, 302
-0.998659, 217, 125, 280, 140
-0.99866, 409, 273, 472, 288
-0.99866, 297, 271, 360, 286
-0.99866, 337, 167, 400, 182
-0.998661, 145, 109, 208, 124
-0.998661, 353, 207, 416, 222
-0.998661, 257, 103, 320, 118
-0.998662, 273, 79, 336, 94
-0.998664, 305, 277, 368, 292
-0.998666, 41, 35, 104, 50
-0.998666, 361, 151, 424, 166
-0.998667, 313, 117, 376, 132
-0.998669, 425, 281, 488, 296
-0.998669, 313, 105, 376, 120
-0.99867, 65, 293, 128, 308
-0.99867, 145, 125, 208, 140
-0.998672, 137, 163, 200, 178
-0.998672, 297, 71, 360, 86
-0.998672, 169, 147, 232, 162
-0.998672, 345, 241, 408, 256
-0.998673, 9, 265, 72, 280
-0.998673, 105, 171, 168, 186
-0.998674, 297, 97, 360, 112
-0.998688, 45, 1, 76, 256
-0.998714, 305, 221, 432, 252
-0.998717, 77, 1, 108, 256
-0.998728, 305, 53, 432, 84
-0.998746, 129, 301, 256, 332
-0.998758, 421, 209, 452, 333
-0.998782, 181, 33, 212, 288
-0.998786, 305, 101, 432, 132
-0.998807, 61, 1, 92, 256
-0.998832, 201, 1, 232, 256
-0.998839, 257, 41, 500, 104
-0.998881, 49, 217, 176, 248
-0.998909, 113, 245, 240, 276
-0.998909, 291, 113, 306, 240
-0.99891, 49, 205, 176, 236
-0.998923, 213, 65, 244, 320
-0.998925, 149, 97, 164, 224
-0.998942, 347, 161, 362, 288
-0.998945, 149, 65, 180, 320
-0.998951, 1, 49, 500, 112
-0.998956, 371, 113, 386, 240
-0.998972, 283, 113, 298, 240
-0.998979, 283, 65, 298, 192
-0.998983, 293, 65, 324, 320
-0.998988, 177, 201, 304, 232
-0.998996, 353, 209, 368, 333
-0.999011, 363, 113, 378, 240
-0.99903, 377, 113, 392, 240
-0.999032, 181, 193, 212, 320
-0.999034, 53, 129, 84, 256
-0.99904, 353, 237, 480, 268
-0.999053, 125, 33, 156, 288
-0.999053, 309, 65, 324, 192
-0.999063, 387, 113, 402, 240
-0.999076, 321, 85, 448, 116
-0.999083, 7, 193, 22, 320
-0.99909, 385, 1, 448, 333
-0.999093, 297, 97, 312, 224
-0.999118, 359, 193, 374, 320
-0.999122, 293, 49, 308, 176
-0.999134, 337, 129, 352, 256
-0.999138, 301, 17, 332, 144
-0.999154, 331, 145, 346, 272
-0.999162, 373, 177, 388, 304
-0.99917, 13, 193, 28, 320
-0.999176, 241, 45, 368, 76
-0.999181, 321, 69, 448, 100
-0.999185, 161, 213, 288, 244
-0.999192, 193, 261, 320, 292
-0.999192, 301, 49, 316, 176
-0.999198, 65, 249, 192, 280
-0.999204, 323, 193, 338, 320
-0.999216, 337, 193, 352, 320
-0.999221, 325, 145, 340, 272
-0.999234, 1, 5, 128, 36
-0.999235, 95, 1, 110, 128
-0.999236, 337, 1, 400, 128
-0.999237, 277, 113, 292, 240
-0.999244, 185, 81, 200, 208
-0.999247, 441, 209, 472, 333
-0.999249, 347, 209, 362, 333
-0.99925, 319, 145, 334, 272
-0.999251, 303, 113, 318, 240
-0.999252, 229, 97, 244, 224
-0.999253, 253, 65, 284, 320
-0.999256, 241, 97, 256, 224
-0.999271, 23, 193, 38, 320
-0.999279, 185, 129, 200, 256
-0.99929, 313, 145, 328, 272
-0.999304, 367, 161, 382, 288
-0.999306, 343, 113, 358, 240
-0.999307, 357, 129, 372, 256
-0.999311, 199, 129, 214, 256
-0.999324, 161, 65, 192, 320
-0.999333, 253, 129, 268, 256
-0.999341, 339, 49, 354, 176
-0.999342, 393, 113, 408, 240
-0.999343, 1, 193, 16, 320
-0.999347, 329, 209, 344, 333
-0.999354, 319, 49, 334, 176
-0.999357, 277, 65, 292, 192
-0.99936, 111, 33, 126, 160
-0.99936, 369, 173, 496, 204
-0.999364, 83, 1, 98, 128
-0.999364, 69, 1, 84, 128
-0.99937, 317, 193, 332, 320
-0.99938, 103, 81, 118, 208
-0.999395, 229, 177, 244, 304
-0.999395, 195, 81, 210, 208
-0.999396, 205, 113, 220, 240
-0.999397, 365, 209, 380, 333
-0.999398, 115, 97, 130, 224
-0.999399, 321, 97, 336, 224
-0.999399, 235, 97, 250, 224
-0.999407, 221, 129, 236, 256
-0.999412, 173, 33, 204, 160
-0.99942, 237, 65, 268, 320
-0.999424, 379, 209, 394, 333
-0.999427, 193, 129, 208, 256
-0.999427, 291, 177, 306, 304
-0.999431, 97, 233, 224, 264
-0.999432, 325, 49, 340, 176
-0.999438, 385, 65, 416, 320
-0.999451, 75, 49, 90, 176
-0.999453, 381, 161, 396, 288
-0.999453, 89, 1, 104, 128
-0.999455, 179, 129, 194, 256
-0.999459, 213, 129, 228, 256
-0.999461, 155, 113, 170, 240
-0.999463, 41, 81, 56, 208
-0.999468, 77, 1, 92, 128
-0.999473, 369, 185, 496, 216
-0.999474, 9, 65, 24, 192
-0.999476, 97, 21, 224, 52
-0.999479, 305, 41, 432, 72
-0.999479, 327, 97, 342, 224
-0.999484, 237, 161, 252, 288
-0.999486, 349, 113, 364, 240
-0.999491, 155, 161, 170, 288
-0.999498, 19, 49, 34, 176
-0.999498, 385, 209, 400, 333
-0.9995, 265, 129, 280, 256
-0.999502, 247, 113, 262, 240
-0.999504, 103, 33, 118, 160
-0.999504, 331, 49, 346, 176
-0.999504, 145, 33, 160, 160
-0.999506, 77, 209, 92, 333
-0.999522, 95, 209, 110, 333
-0.999525, 3, 97, 18, 224
-0.999525, 259, 129, 274, 256
-0.99953, 85, 49, 100, 176
-0.999531, 65, 209, 80, 333
-0.999532, 301, 161, 316, 288
-0.999534, 71, 209, 86, 333
-0.999535, 179, 81, 194, 208
-0.999537, 259, 209, 274, 333
-0.999539, 69, 81, 84, 208
-0.999539, 237, 209, 252, 333
-0.999544, 109, 193, 124, 320
-0.999545, 55, 17, 70, 144
-0.999546, 63, 17, 78, 144
-0.99955, 55, 81, 70, 208
-0.999552, 243, 177, 258, 304
-0.999553, 31, 49, 46, 176
-0.999554, 483, 315, 498, 330
-0.999555, 271, 233, 286, 248
-0.999555, 227, 239, 242, 254
-0.999555, 235, 111, 250, 126
-0.999555, 273, 239, 288, 254
-0.999555, 357, 141, 372, 156
-0.999556, 341, 59, 356, 74
-0.999556, 283, 65, 298, 80
-0.999556, 325, 247, 340, 262
-0.999557, 323, 187, 338, 202
-0.999557, 359, 249, 374, 264
-0.999557, 285, 235, 300, 250
-0.999558, 341, 283, 356, 298
-0.999558, 371, 275, 386, 290
-0.999558, 75, 291, 90, 306
-0.999558, 309, 123, 324, 138
-0.999559, 315, 289, 330, 304
-0.999559, 339, 107, 354, 122
-0.99956, 281, 103, 296, 118
-0.99956, 241, 243, 256, 258
-0.99956, 305, 151, 320, 166
-0.999561, 197, 123, 212, 138
-0.999561, 361, 297, 376, 312
-0.999561, 355, 299, 370, 314
-0.999562, 29, 177, 44, 304
-0.999562, 385, 123, 400, 138
-0.999562, 339, 193, 354, 208
-0.999562, 409, 275, 424, 290
-0.999563, 303, 103, 318, 118
-0.999563, 73, 283, 88, 298
-0.999564, 391, 265, 406, 280
-0.999564, 253, 237, 268, 252
-0.999565, 377, 257, 392, 272
-0.999565, 293, 65, 308, 80
-0.999565, 281, 161, 296, 288
-0.999566, 353, 291, 368, 306
-0.999566, 319, 243, 334, 258
-0.999567, 21, 145, 36, 272
-0.999568, 207, 123, 222, 138
-0.999568, 13, 145, 28, 272
-0.999568, 325, 61, 340, 76
-0.999569, 335, 303, 350, 318
-0.999569, 349, 299, 364, 314
-0.999569, 113, 117, 128, 132
-0.999569, 317, 297, 332, 312
-0.999569, 305, 63, 320, 78
-0.999569, 355, 227, 370, 242
-0.99957, 377, 279, 392, 294
-0.99957, 321, 105, 336, 120
-0.999571, 61, 65, 76, 192
-0.999571, 25, 279, 40, 294
-0.999571, 369, 253, 384, 268
-0.999572, 315, 57, 330, 72
-0.999572, 293, 177, 308, 192
-0.999572, 433, 287, 448, 302
-0.999572, 439, 291, 454, 306
-0.999573, 299, 139, 314, 154
-0.999573, 321, 283, 336, 298
-0.999573, 301, 121, 316, 136
-0.999575, 385, 297, 400, 312
-0.999575, 243, 237, 258, 252
-0.999576, 279, 237, 294, 252
-0.999576, 447, 295, 462, 310
-0.999576, 1, 145, 16, 272
-0.999578, 103, 109, 118, 124
-0.999578, 323, 303, 338, 318
-0.999578, 367, 305, 382, 320
-0.999579, 467, 305, 482, 320
-0.999579, 375, 167, 390, 182
-0.999579, 331, 297, 346, 312
-0.99958, 201, 65, 216, 192
-0.99958, 391, 209, 406, 333
-0.999582, 351, 245, 366, 260
-0.999582, 331, 203, 346, 218
-0.999582, 17, 259, 32, 274
-0.999582, 399, 269, 414, 284
-0.999583, 365, 149, 380, 164
-0.999583, 455, 299, 470, 314
-0.999583, 149, 161, 164, 288
-0.999584, 379, 301, 394, 316
-0.999584, 45, 17, 60, 144
-0.999584, 265, 209, 280, 333
-0.999585, 363, 277, 378, 292
-0.999585, 143, 81, 158, 208
-0.999586, 325, 295, 340, 310
-0.999586, 23, 259, 38, 274
-0.999587, 95, 15, 110, 30
-0.999587, 287, 119, 302, 134
-0.999588, 293, 135, 308, 150
-0.999588, 329, 307, 344, 322
-0.999588, 461, 303, 476, 318
-0.999588, 59, 209, 74, 333
-0.999588, 299, 145, 314, 160
-0.999589, 317, 237, 332, 252
-0.999589, 83, 209, 98, 333
-0.999589, 33, 97, 48, 224
-0.999589, 15, 243, 30, 258
-0.999591, 309, 105, 324, 120
-0.999591, 425, 283, 440, 298
-0.999592, 361, 207, 376, 222
-0.999594, 315, 63, 330, 78
-0.999594, 247, 243, 262, 258
-0.999595, 473, 309, 488, 324
-0.999595, 417, 279, 432, 294
-0.999596, 235, 245, 250, 260
-0.999596, 287, 143, 302, 158
-0.999597, 49, 81, 64, 208
-0.999599, 107, 129, 122, 256
-0.9996, 361, 307, 376, 322
-0.9996, 221, 209, 236, 333
-0.999602, 333, 187, 348, 202
-0.999602, 367, 123, 382, 138
-0.999603, 253, 209, 268, 333
-0.999605, 115, 193, 130, 320
-0.999606, 383, 151, 398, 166
-0.999609, 277, 231, 292, 246
-0.999609, 373, 65, 388, 192
-0.99961, 403, 209, 418, 333
-0.99961, 21, 253, 36, 268
-0.999611, 101, 209, 116, 333
-0.999612, 343, 187, 358, 202
-0.999613, 257, 9, 384, 72
-0.999613, 371, 281, 386, 296
-0.999613, 275, 125, 290, 140
-0.999617, 387, 291, 402, 306
-0.999622, 21, 97, 36, 224
-0.999622, 37, 33, 52, 160
-0.999622, 281, 137, 296, 152
-0.999624, 9, 231, 24, 246
-0.999625, 287, 125, 302, 140
-0.999626, 271, 113, 286, 240
-0.999627, 173, 97, 188, 224
-0.999628, 35, 161, 50, 288
-0.999629, 1, 241, 16, 256
-0.99963, 345, 277, 360, 292
-0.999633, 333, 289, 348, 304
-0.999634, 49, 145, 64, 272
-0.999635, 357, 275, 372, 290
-0.999636, 339, 293, 354, 308
-0.999637, 333, 197, 348, 212
-0.999637, 309, 129, 324, 144
-0.999638, 351, 277, 366, 292
-0.999639, 335, 279, 350, 294
-0.99964, 97, 49, 112, 176
-0.99964, 367, 197, 382, 212
-0.999644, 353, 167, 368, 182
-0.999652, 309, 145, 324, 160
-0.999659, 381, 287, 396, 302
-0.99966, 281, 127, 296, 142
-0.999666, 181, 131, 196, 146
-0.999669, 375, 153, 390, 168
-0.999669, 375, 159, 390, 174
-0.999674, 309, 139, 324, 154
-0.999697, 299, 131, 314, 146
-0.999699, 287, 137, 302, 152
-0.999702, 327, 283, 342, 298
-0.999708, 321, 289, 336, 304
-0.999711, 323, 193, 338, 208
-0.999714, 11, 237, 26, 252
-0.999742, 293, 129, 308, 144
-0.99978, 287, 131, 302, 146
-0.999834, 397, 65, 428, 320
-0.999862, 425, 209, 488, 333
-1.00009, 193, 17, 448, 80
-1.00014, 349, 49, 380, 176
-1.00017, 97, 1, 352, 64
-1.0004, 1, 25, 500, 88
-1.00052, 321, 17, 448, 80
-1.00054, 469, 81, 500, 208
-1.00079, 361, 49, 392, 176
-1.0008, 385, 65, 448, 320
-1.00103, 385, 65, 416, 192
-1.0011, 433, 1, 496, 333
-1.00118, 469, 1, 500, 256
-1.00118, 369, 33, 496, 160
-1.0012, 325, 1, 356, 128
-1.00121, 1, 17, 32, 144
-1.00126, 1, 1, 500, 64
-1.00133, 417, 65, 448, 320
-1.00144, 17, 1, 48, 128
-1.00157, 77, 161, 108, 288
-1.00158, 453, 1, 484, 256
-1.00164, 209, 1, 272, 128
-1.00167, 261, 1, 292, 128
-1.0017, 437, 1, 468, 256
-1.00181, 313, 1, 344, 128
-1.00203, 65, 145, 96, 272
-1.0022, 433, 97, 496, 224
-1.00237, 277, 1, 308, 128
-1.00266, 369, 1, 496, 64
-1.00277, 369, 25, 496, 88
-1.00285, 409, 1, 472, 333
-1.00302, 369, 57, 496, 120
-1.00342, 397, 129, 428, 256
-1.00399, 161, 17, 192, 144
-1.00403, 469, 129, 500, 256
-1.00426, 453, 209, 484, 333
-1.00433, 401, 161, 464, 288
-1.00443, 225, 1, 256, 128
-1.00445, 341, 1, 372, 128
-1.0052, 237, 1, 268, 128
-1.00526, 457, 97, 488, 224
-1.00546, 465, 209, 496, 333
-1.00559, 433, 33, 496, 288
-1.00602, 469, 33, 500, 160
-1.00639, 433, 49, 496, 176
-1.00661, 457, 49, 488, 176
-1.00673, 377, 49, 440, 176
-1.00708, 409, 113, 440, 240
-1.00784, 409, 65, 472, 320
-1.00958, 433, 145, 496, 272
-1.01169, 401, 49, 464, 176
-1.01198, 409, 97, 472, 224
-1.01379, 361, 1, 424, 128
-1.01445, 401, 1, 464, 128
-1.01529, 425, 1, 488, 128
