1953
-0.595105, 1, 1, 500, 375
-0.625848, 1, 129, 500, 375
-0.662485, 1, 33, 500, 288
-0.709776, 257, 1, 500, 375
-0.735157, 129, 1, 384, 375
-0.786008, 33, 1, 288, 375
-0.923233, 241, 1, 368, 375
-0.925885, 321, 1, 448, 375
-0.929878, 145, 1, 272, 375
-0.939216, 273, 129, 400, 375
-0.940138, 369, 1, 496, 375
-0.940193, 193, 1, 320, 375
-0.943346, 225, 1, 480, 256
-0.945135, 1, 209, 500, 336
-0.947826, 97, 1, 224, 375
-0.948047, 321, 1, 448, 256
-0.951743, 241, 1, 368, 256
-0.952326, 337, 129, 464, 375
-0.954616, 257, 241, 500, 368
-0.957424, 1, 33, 500, 160
-0.957637, 193, 1, 320, 256
-0.959767, 225, 97, 352, 352
-0.960741, 305, 241, 432, 368
-0.961201, 369, 1, 496, 256
-0.963843, 129, 1, 256, 256
-0.96526, 257, 33, 500, 160
-0.96712, 1, 1, 128, 375
-0.967174, 1, 161, 500, 288
-0.968131, 369, 225, 432, 352
-0.968294, 129, 1, 384, 256
-0.96892, 321, 225, 384, 352
-0.971957, 49, 1, 176, 375
-0.974082, 281, 241, 344, 368
-0.97602, 1, 81, 500, 208
-0.976181, 81, 33, 208, 288
-0.976552, 33, 97, 160, 352
-0.976639, 257, 241, 384, 368
-0.976678, 321, 33, 448, 160
-0.976956, 281, 273, 344, 336
-0.97716, 129, 33, 384, 160
-0.978025, 161, 97, 288, 352
-0.978351, 241, 33, 368, 160
-0.980041, 161, 241, 416, 368
-0.980048, 321, 249, 384, 312
-0.980411, 297, 193, 360, 320
-0.981339, 305, 33, 368, 160
-0.98137, 353, 241, 480, 368
-0.981415, 369, 33, 496, 160
-0.981806, 257, 193, 500, 320
-0.981843, 345, 241, 408, 368
-0.982441, 369, 241, 432, 304
-0.982445, 17, 1, 144, 256
-0.982712, 345, 265, 408, 328
-0.982984, 385, 265, 448, 328
-0.983868, 361, 33, 424, 160
-0.983933, 281, 33, 344, 160
-0.984499, 337, 265, 464, 328
-0.984843, 417, 33, 480, 160
-0.985189, 201, 57, 264, 120
-0.985382, 321, 177, 384, 304
-0.985396, 329, 33, 392, 160
-0.986305, 273, 265, 400, 328
-0.986374, 273, 193, 336, 320
-0.986418, 305, 113, 432, 240
-0.986593, 393, 33, 456, 160
-0.986732, 265, 49, 328, 112
-0.98679, 281, 241, 344, 304
-0.987177, 321, 281, 384, 344
-0.987285, 241, 49, 304, 112
-0.987335, 249, 273, 312, 336
-0.987862, 225, 129, 480, 375
-0.988188, 177, 57, 240, 120
-0.988259, 177, 57, 304, 120
-0.988321, 305, 193, 432, 320
-0.988695, 361, 177, 424, 304
-0.988788, 397, 241, 428, 368
-0.988832, 97, 129, 224, 375
-0.988865, 193, 33, 320, 160
-0.989196, 393, 41, 456, 104
-0.989393, 281, 273, 312, 336
-0.98941, 333, 225, 364, 352
-0.989412, 161, 177, 416, 304
-0.989477, 65, 225, 320, 352
-0.989603, 241, 49, 368, 112
-0.989641, 353, 49, 416, 112
-0.989756, 297, 49, 360, 112
-0.990138, 297, 217, 360, 280
-0.99014, 385, 241, 416, 368
-0.990191, 417, 281, 480, 344
-0.990235, 193, 225, 320, 352
-0.990323, 257, 241, 320, 368
-0.990423, 329, 49, 392, 112
-0.990432, 129, 49, 256, 176
-0.990458, 257, 33, 320, 160
-0.990553, 257, 241, 320, 304
-0.990584, 33, 33, 288, 288
-0.990751, 337, 265, 400, 296
-0.990785, 417, 41, 480, 104
-0.990917, 241, 81, 368, 208
-0.991141, 33, 33, 288, 160
-0.991147, 285, 241, 316, 368
-0.99127, 289, 49, 416, 112
-0.991362, 129, 57, 256, 120
-0.991383, 369, 41, 496, 104
-0.991416, 393, 289, 456, 352
-0.991477, 361, 253, 424, 284
-0.991665, 353, 289, 480, 352
-0.99167, 333, 249, 364, 312
-0.991678, 313, 265, 376, 296
-0.99169, 273, 277, 336, 308
-0.991759, 393, 273, 456, 304
-0.991769, 361, 269, 424, 300
-0.991802, 297, 193, 360, 256
-0.99183, 257, 273, 500, 336
-0.991865, 313, 273, 344, 336
-0.99193, 225, 281, 352, 344
-0.992181, 345, 1, 408, 375
-0.992211, 313, 241, 344, 368
-0.992215, 353, 241, 384, 368
-0.992262, 305, 129, 432, 192
-0.992341, 373, 265, 404, 328
-0.992347, 161, 65, 224, 96
-0.992388, 345, 233, 408, 296
-0.992464, 425, 289, 488, 320
-0.992499, 281, 1, 344, 375
-0.992528, 385, 261, 448, 292
-0.992573, 397, 257, 428, 320
-0.992581, 417, 273, 480, 304
-0.992649, 185, 65, 248, 96
-0.99273, 385, 237, 448, 268
-0.992758, 217, 61, 280, 92
-0.992786, 321, 277, 384, 308
-0.992788, 321, 225, 384, 288
-0.992806, 401, 233, 464, 296
-0.992808, 385, 285, 448, 316
-0.992885, 385, 249, 448, 280
-0.992893, 353, 265, 384, 296
-0.992898, 233, 273, 296, 304
-0.992903, 341, 265, 372, 296
-0.992903, 265, 265, 328, 296
-0.993019, 289, 265, 352, 296
-0.993042, 297, 205, 360, 236
-0.993054, 321, 253, 384, 284
-0.993062, 129, 81, 384, 208
-0.993062, 393, 297, 456, 328
-0.993074, 365, 265, 396, 296
-0.993079, 345, 241, 408, 272
-0.993086, 281, 49, 344, 80
-0.993089, 249, 57, 312, 88
-0.993097, 305, 53, 368, 84
-0.9931, 301, 273, 332, 336
-0.993138, 137, 69, 200, 100
-0.993141, 273, 297, 336, 360
-0.993143, 297, 217, 360, 248
-0.993157, 401, 269, 432, 300
-0.993175, 241, 285, 304, 316
-0.993185, 425, 273, 456, 304
-0.9932, 301, 241, 332, 368
-0.993209, 329, 261, 360, 292
-0.993237, 153, 57, 216, 120
-0.993249, 281, 273, 312, 304
-0.993268, 273, 289, 336, 320
-0.993285, 377, 265, 408, 296
-0.993287, 377, 49, 440, 80
-0.993315, 433, 289, 464, 320
-0.993348, 329, 273, 360, 304
-0.993353, 389, 257, 420, 288
-0.99336, 345, 281, 408, 312
-0.993367, 297, 277, 360, 308
-0.993375, 265, 281, 296, 312
-0.993417, 321, 225, 384, 256
-0.993418, 341, 253, 372, 284
-0.993425, 321, 201, 384, 264
-0.993428, 417, 49, 480, 80
-0.993433, 297, 253, 360, 284
-0.993434, 437, 277, 468, 308
-0.993439, 417, 285, 448, 316
-0.993454, 169, 77, 232, 108
-0.993459, 321, 209, 384, 240
-0.993461, 361, 225, 424, 256
-0.993468, 353, 277, 384, 308
-0.993474, 181, 65, 212, 96
-0.993487, 165, 65, 196, 96
-0.993493, 385, 213, 448, 244
-0.993495, 413, 269, 444, 300
-0.993497, 273, 301, 336, 332
-0.9935, 389, 269, 420, 300
-0.993506, 257, 241, 384, 304
-0.993513, 393, 309, 456, 340
-0.993518, 385, 201, 448, 264
-0.99354, 201, 65, 232, 96
-0.993541, 317, 269, 348, 300
-0.993544, 145, 33, 208, 160
-0.993553, 385, 225, 448, 256
-0.993559, 365, 277, 396, 308
-0.993561, 401, 225, 464, 352
-0.993563, 229, 61, 260, 92
-0.993573, 421, 297, 452, 328
-0.993586, 153, 65, 184, 96
-0.993586, 341, 277, 372, 308
-0.99359, 377, 253, 408, 284
-0.993593, 281, 193, 344, 224
-0.993596, 253, 269, 284, 300
-0.993598, 217, 61, 248, 92
-0.993609, 297, 229, 360, 260
-0.993612, 377, 1, 440, 375
-0.993617, 377, 277, 408, 308
-0.993621, 269, 269, 300, 300
-0.993621, 281, 289, 312, 320
-0.993639, 417, 261, 480, 292
-0.993643, 313, 49, 344, 80
-0.993656, 329, 33, 360, 160
-0.993659, 361, 213, 424, 244
-0.993676, 293, 277, 324, 308
-0.99368, 189, 77, 220, 108
-0.99369, 321, 237, 384, 268
-0.993692, 245, 61, 276, 92
-0.993698, 333, 229, 364, 260
-0.993703, 305, 273, 336, 304
-0.993704, 345, 53, 408, 84
-0.993706, 405, 257, 436, 288
-0.993713, 261, 57, 292, 88
-0.993713, 293, 53, 324, 84
-0.993729, 321, 229, 352, 260
-0.993732, 337, 157, 368, 188
-0.993736, 449, 281, 480, 312
-0.993736, 325, 153, 356, 184
-0.993737, 249, 297, 312, 328
-0.993739, 169, 77, 200, 108
-0.99374, 393, 49, 424, 80
-0.993741, 337, 53, 368, 84
-0.993745, 353, 253, 384, 284
-0.993757, 321, 241, 352, 272
-0.993757, 401, 157, 432, 188
-0.993758, 325, 141, 356, 172
-0.993759, 313, 257, 344, 288
-0.99376, 337, 145, 368, 176
-0.993764, 381, 49, 412, 80
-0.993769, 321, 305, 384, 368
-0.993773, 321, 309, 384, 340
-0.993774, 385, 201, 448, 232
-0.993775, 281, 53, 312, 84
-0.993778, 325, 53, 356, 84
-0.993781, 269, 293, 300, 324
-0.993781, 405, 49, 436, 80
-0.993781, 389, 157, 420, 188
-0.993781, 417, 309, 480, 340
-0.993783, 349, 53, 380, 84
-0.993783, 437, 265, 468, 296
-0.993785, 469, 53, 500, 84
-0.993795, 281, 261, 312, 292
-0.9938, 397, 237, 428, 268
-0.993809, 365, 53, 396, 84
-0.993811, 333, 217, 364, 248
-0.993813, 449, 49, 480, 80
-0.993813, 337, 41, 400, 72
-0.993814, 293, 265, 324, 296
-0.993815, 193, 77, 256, 108
-0.993818, 325, 165, 356, 196
-0.993822, 333, 241, 364, 272
-0.993826, 421, 309, 452, 340
-0.99383, 421, 49, 452, 80
-0.993835, 281, 301, 312, 332
-0.993839, 433, 309, 464, 340
-0.99385, 337, 241, 464, 304
-0.99385, 401, 169, 432, 200
-0.993864, 433, 49, 464, 80
-0.993874, 141, 69, 172, 100
-0.993878, 445, 293, 476, 324
-0.99388, 285, 205, 316, 236
-0.993883, 257, 257, 288, 288
-0.993887, 201, 77, 232, 108
-0.99389, 333, 41, 364, 72
-0.993891, 269, 45, 300, 76
-0.993891, 401, 181, 432, 212
-0.993892, 405, 281, 436, 312
-0.993895, 309, 305, 340, 336
-0.993897, 233, 209, 296, 336
-0.993901, 269, 257, 300, 288
-0.993903, 321, 217, 352, 248
-0.993914, 157, 77, 188, 108
-0.993916, 425, 261, 456, 292
-0.993916, 369, 241, 400, 368
-0.993919, 325, 177, 356, 208
-0.993922, 389, 169, 420, 200
-0.993923, 389, 189, 420, 220
-0.993924, 377, 313, 408, 344
-0.993929, 293, 37, 324, 68
-0.993931, 273, 225, 304, 256
-0.993931, 241, 49, 272, 80
-0.993932, 241, 269, 272, 300
-0.993934, 297, 305, 328, 336
-0.993935, 297, 241, 360, 272
-0.993935, 321, 197, 384, 228
-0.993937, 337, 169, 368, 200
-0.99394, 385, 225, 416, 256
-0.993945, 337, 133, 368, 164
-0.993945, 329, 309, 360, 340
-0.99395, 325, 129, 356, 160
-0.993952, 389, 281, 420, 312
-0.993958, 357, 309, 388, 340
-0.993959, 313, 317, 344, 348
-0.993961, 257, 41, 320, 72
-0.993961, 361, 197, 424, 228
-0.993961, 361, 317, 424, 348
-0.993961, 229, 77, 260, 108
-0.993962, 381, 81, 412, 112
-0.993966, 349, 41, 380, 72
-0.993968, 369, 41, 400, 72
-0.99397, 213, 77, 244, 108
-0.99397, 385, 237, 416, 268
-0.99397, 365, 253, 396, 284
-0.993973, 273, 81, 304, 112
-0.993973, 177, 53, 240, 84
-0.993974, 329, 285, 360, 316
-0.993975, 425, 37, 456, 68
-0.993976, 469, 73, 500, 104
-0.993977, 401, 37, 432, 68
-0.993979, 333, 81, 364, 112
-0.99398, 457, 269, 488, 300
-0.993981, 469, 41, 500, 72
-0.993984, 337, 113, 368, 144
-0.993984, 185, 53, 216, 84
-0.993985, 389, 37, 420, 68
-0.993985, 241, 81, 272, 112
-0.993986, 445, 37, 476, 68
-0.993988, 401, 193, 432, 224
-0.99399, 233, 81, 296, 112
-0.994018, 209, 49, 272, 80
-0.994018, 233, 45, 296, 76
-0.994052, 281, 313, 344, 344
-0.994058, 305, 41, 368, 72
-0.994071, 333, 273, 364, 336
-0.994083, 333, 177, 364, 304
-0.994104, 417, 37, 480, 68
-0.994116, 137, 57, 200, 88
-0.994125, 385, 321, 448, 352
-0.994127, 273, 205, 336, 236
-0.994129, 281, 37, 344, 68
-0.994141, 105, 57, 168, 88
-0.994153, 257, 81, 320, 112
-0.994172, 401, 1, 464, 375
-0.994174, 241, 261, 304, 292
-0.994174, 369, 81, 432, 112
-0.994198, 113, 69, 176, 100
-0.994221, 393, 37, 456, 68
-0.994229, 305, 149, 368, 180
-0.994244, 261, 265, 292, 328
-0.994255, 265, 221, 328, 252
-0.994276, 425, 81, 488, 112
-0.994276, 305, 85, 368, 116
-0.994281, 241, 69, 304, 100
-0.994292, 361, 37, 424, 68
-0.994294, 385, 189, 448, 220
-0.994296, 353, 281, 384, 344
-0.994299, 393, 81, 456, 112
-0.994302, 345, 85, 408, 116
-0.994307, 297, 289, 360, 320
-0.994317, 297, 301, 360, 332
-0.994328, 297, 73, 360, 104
-0.99433, 297, 169, 360, 200
-0.994333, 241, 233, 304, 264
-0.994335, 273, 253, 336, 284
-0.994336, 273, 165, 336, 196
-0.994336, 281, 85, 344, 116
-0.994341, 337, 321, 400, 352
-0.994375, 353, 69, 416, 100
-0.994378, 249, 209, 312, 240
-0.994385, 205, 57, 236, 120
-0.994391, 145, 81, 208, 112
-0.994404, 329, 73, 392, 104
-0.994409, 393, 69, 456, 100
-0.994411, 321, 289, 384, 320
-0.994411, 305, 185, 368, 216
-0.994411, 409, 321, 472, 352
-0.994413, 153, 1, 216, 375
-0.994424, 273, 289, 400, 352
-0.994427, 385, 333, 448, 364
-0.994454, 233, 249, 296, 312
-0.994457, 345, 305, 408, 336
-0.99446, 249, 249, 312, 280
-0.994463, 361, 185, 424, 216
-0.994473, 249, 193, 312, 224
-0.994477, 249, 309, 312, 340
-0.994488, 257, 193, 384, 320
-0.994508, 321, 177, 352, 304
-0.994518, 417, 69, 480, 100
-0.994525, 265, 69, 328, 100
-0.994547, 297, 325, 360, 356
-0.994552, 265, 233, 328, 264
-0.994555, 361, 329, 424, 360
-0.994559, 217, 261, 280, 292
-0.994571, 269, 49, 300, 112
-0.994581, 321, 333, 384, 364
-0.994596, 369, 33, 400, 160
-0.994603, 369, 305, 432, 336
-0.994629, 337, 185, 400, 216
-0.994643, 321, 161, 384, 192
-0.994651, 409, 249, 472, 280
-0.994669, 297, 137, 360, 168
-0.994677, 409, 257, 472, 320
-0.99469, 321, 173, 384, 204
-0.994693, 153, 93, 216, 124
-0.994695, 385, 177, 448, 208
-0.994696, 281, 181, 344, 212
-0.994708, 329, 145, 392, 176
-0.994711, 297, 337, 360, 368
-0.994724, 433, 321, 496, 352
-0.994747, 329, 133, 392, 164
-0.994752, 265, 149, 328, 180
-0.9948, 321, 1, 384, 375
-0.994865, 389, 33, 420, 160
-0.994898, 225, 81, 480, 208
-0.994932, 297, 33, 328, 160
-0.994932, 385, 177, 448, 304
-0.994968, 257, 129, 384, 192
-0.994971, 349, 257, 380, 320
-0.994992, 305, 153, 432, 216
-0.995011, 257, 1, 320, 375
-0.995019, 321, 249, 352, 312
-0.99506, 309, 33, 340, 160
-0.995122, 217, 33, 280, 96
-0.995162, 177, 265, 304, 328
-0.995168, 169, 33, 232, 160
-0.995191, 281, 97, 344, 352
-0.995222, 409, 241, 440, 368
-0.995251, 217, 57, 248, 120
-0.995264, 321, 265, 448, 296
-0.995283, 289, 169, 352, 232
-0.995342, 273, 269, 400, 300
-0.995395, 385, 225, 416, 288
-0.995482, 353, 193, 480, 320
-0.995504, 469, 33, 500, 160
-0.995537, 357, 33, 388, 160
-0.995583, 401, 33, 432, 160
-0.995585, 233, 33, 296, 160
-0.995598, 177, 1, 240, 375
-0.995607, 229, 57, 260, 120
-0.99568, 417, 33, 448, 160
-0.995777, 437, 281, 468, 344
-0.995863, 225, 81, 352, 144
-0.995885, 193, 57, 224, 120
-0.995914, 249, 297, 312, 360
-0.995919, 353, 313, 480, 375
-0.996013, 225, 305, 352, 368
-0.996025, 361, 201, 424, 264
-0.996083, 257, 129, 384, 256
-0.996096, 337, 277, 464, 308
-0.996126, 453, 33, 484, 160
-0.996134, 241, 57, 272, 120
-0.996142, 305, 313, 432, 375
-0.9962, 193, 33, 320, 96
-0.996297, 305, 81, 432, 144
-0.996304, 201, 1, 264, 375
-0.996316, 421, 289, 452, 352
-0.996341, 433, 1, 496, 375
-0.99635, 345, 97, 408, 352
-0.996395, 281, 49, 312, 112
-0.9964, 209, 33, 272, 160
-0.996407, 281, 249, 312, 312
-0.996443, 225, 49, 480, 112
-0.996459, 253, 57, 284, 120
-0.996489, 297, 305, 360, 368
-0.996522, 225, 1, 288, 375
-0.996541, 437, 33, 468, 160
-0.996569, 177, 81, 304, 144
-0.996603, 341, 33, 372, 160
-0.996645, 209, 241, 336, 304
-0.996675, 417, 305, 480, 368
-0.996765, 285, 33, 316, 160
-0.996798, 129, 33, 256, 96
-0.996818, 129, 81, 256, 144
-0.99687, 257, 281, 384, 312
-0.996888, 401, 41, 432, 104
-0.996981, 385, 249, 416, 312
-0.996994, 337, 249, 352, 312
-0.997002, 81, 73, 208, 136
-0.997038, 305, 105, 432, 168
-0.997041, 417, 265, 448, 328
-0.99717, 369, 73, 496, 136
-0.997199, 257, 153, 384, 216
-0.99722, 81, 33, 208, 160
-0.99723, 309, 49, 340, 112
-0.997269, 97, 57, 352, 120
-0.997277, 381, 49, 412, 112
-0.997294, 289, 273, 304, 336
-0.997306, 337, 49, 368, 112
-0.997317, 145, 1, 272, 128
-0.997325, 129, 1, 192, 375
-0.997326, 145, 65, 272, 96
-0.997371, 289, 17, 416, 80
-0.997432, 361, 313, 424, 375
-0.997462, 257, 297, 500, 360
-0.997512, 327, 273, 342, 336
-0.997515, 161, 281, 416, 344
-0.997538, 293, 49, 324, 112
-0.997549, 225, 273, 288, 336
-0.997591, 317, 273, 332, 336
-0.997663, 369, 49, 400, 112
-0.997704, 399, 249, 414, 312
-0.997743, 281, 273, 296, 336
-0.997756, 385, 177, 416, 304
-0.997766, 337, 193, 352, 256
-0.997766, 397, 233, 428, 296
-0.99779, 397, 225, 412, 288
-0.997816, 357, 49, 388, 112
-0.997828, 433, 41, 464, 104
-0.997828, 269, 241, 300, 304
-0.997868, 295, 273, 310, 336
-0.997895, 311, 273, 326, 336
-0.997911, 225, 105, 352, 168
-0.997971, 181, 57, 212, 120
-0.997974, 257, 257, 384, 288
-0.997985, 339, 225, 354, 288
-0.997991, 331, 233, 346, 296
-0.997998, 303, 273, 318, 336
-0.998029, 225, 249, 480, 312
-0.99805, 215, 57, 230, 120
-0.998059, 281, 193, 312, 320
-0.99806, 359, 265, 374, 296
-0.998078, 207, 57, 222, 120
-0.998093, 193, 33, 256, 96
-0.9981, 369, 73, 432, 136
-0.998148, 363, 281, 378, 344
-0.99815, 369, 17, 496, 80
-0.998153, 367, 265, 382, 296
-0.998158, 321, 49, 352, 112
-0.998165, 337, 113, 352, 176
-0.998165, 209, 57, 336, 88
-0.998167, 233, 73, 296, 136
-0.998171, 393, 313, 456, 375
-0.998171, 453, 287, 484, 302
-0.998172, 161, 77, 192, 92
-0.998172, 197, 61, 228, 76
-0.998173, 333, 199, 364, 214
-0.998173, 397, 223, 428, 238
-0.998174, 401, 175, 432, 190
-0.998175, 245, 55, 276, 70
-0.998176, 313, 261, 344, 276
-0.998176, 469, 49, 500, 64
-0.998177, 389, 169, 420, 184
-0.998177, 285, 211, 316, 226
-0.998177, 409, 263, 440, 278
-0.998178, 329, 47, 360, 62
-0.998178, 329, 111, 360, 126
-0.998179, 185, 79, 216, 94
-0.998179, 413, 293, 444, 308
-0.99818, 337, 143, 368, 158
-0.998182, 173, 79, 204, 94
-0.998182, 173, 93, 204, 108
-0.998183, 345, 51, 376, 66
-0.998185, 413, 49, 444, 64
-0.998185, 413, 41, 444, 104
-0.998185, 337, 169, 368, 184
-0.998186, 401, 169, 432, 184
-0.998186, 141, 77, 172, 92
-0.998187, 317, 199, 348, 214
-0.998188, 457, 51, 488, 66
-0.998188, 273, 299, 304, 314
-0.998189, 321, 221, 352, 236
-0.998189, 201, 67, 232, 82
-0.99819, 285, 289, 316, 304
-0.99819, 277, 225, 308, 240
-0.998193, 349, 259, 380, 274
-0.998193, 369, 263, 400, 278
-0.998193, 433, 49, 464, 64
-0.998193, 325, 171, 356, 186
-0.998193, 353, 265, 368, 296
-0.998195, 325, 143, 356, 158
-0.998197, 389, 163, 420, 178
-0.998197, 385, 227, 416, 242
-0.998199, 265, 293, 296, 308
-0.9982, 333, 221, 364, 236
-0.998201, 437, 269, 468, 284
-0.998202, 401, 283, 432, 298
-0.998204, 289, 273, 320, 288
-0.998204, 321, 227, 352, 242
-0.998206, 321, 247, 352, 262
-0.998207, 345, 57, 376, 72
-0.998207, 337, 261, 352, 292
-0.998207, 339, 169, 354, 232
-0.998207, 321, 241, 352, 256
-0.998208, 333, 249, 364, 264
-0.998212, 217, 65, 248, 80
-0.998212, 325, 163, 356, 178
-0.998212, 417, 301, 448, 316
-0.998213, 401, 163, 432, 178
-0.998213, 321, 233, 352, 248
-0.998215, 401, 157, 432, 172
-0.998216, 337, 163, 368, 178
-0.998217, 401, 49, 432, 64
-0.998217, 279, 49, 294, 112
-0.998218, 445, 293, 476, 308
-0.998218, 325, 157, 356, 172
-0.998218, 285, 295, 316, 310
-0.998219, 277, 271, 308, 286
-0.998219, 137, 71, 168, 86
-0.99822, 333, 241, 364, 256
-0.99822, 227, 57, 242, 120
-0.998221, 321, 255, 352, 270
-0.998222, 393, 251, 424, 266
-0.998222, 377, 253, 408, 268
-0.998223, 301, 273, 332, 288
-0.998223, 189, 67, 220, 82
-0.998224, 389, 157, 420, 172
-0.998225, 445, 49, 476, 64
-0.998225, 249, 269, 280, 284
-0.998225, 333, 227, 364, 242
-0.998226, 173, 67, 204, 82
-0.998226, 469, 55, 500, 70
-0.998226, 425, 307, 456, 322
-0.998226, 337, 157, 368, 172
-0.998227, 233, 63, 264, 78
-0.998228, 325, 149, 356, 164
-0.998229, 293, 55, 324, 70
-0.998229, 333, 233, 364, 248
-0.99823, 449, 281, 480, 296
-0.99823, 265, 267, 296, 282
-0.998231, 353, 81, 480, 208
-0.998232, 277, 57, 308, 72
-0.998232, 337, 149, 368, 164
-0.998234, 373, 283, 404, 298
-0.998237, 397, 261, 428, 276
-0.998238, 245, 61, 276, 76
-0.998238, 365, 55, 396, 70
-0.998239, 265, 59, 296, 74
-0.99824, 381, 53, 412, 68
-0.99824, 345, 113, 360, 176
-0.998246, 329, 55, 360, 70
-0.998248, 297, 279, 328, 294
-0.998248, 333, 257, 364, 272
-0.99825, 385, 265, 400, 328
-0.998251, 313, 51, 344, 66
-0.998251, 357, 283, 388, 298
-0.998252, 341, 281, 372, 296
-0.998253, 433, 275, 464, 290
-0.998253, 433, 299, 464, 314
-0.998253, 317, 271, 348, 286
-0.998254, 273, 49, 288, 112
-0.998254, 221, 57, 236, 120
-0.998255, 265, 281, 296, 296
-0.99826, 325, 263, 356, 278
-0.998261, 413, 281, 444, 296
-0.998265, 309, 279, 340, 294
-0.998267, 161, 69, 192, 84
-0.99827, 433, 293, 464, 308
-0.998271, 437, 281, 468, 296
-0.998273, 397, 277, 428, 292
-0.998273, 285, 283, 316, 298
-0.998277, 385, 259, 416, 274
-0.998277, 265, 287, 296, 302
-0.998279, 241, 25, 368, 88
-0.99828, 403, 225, 418, 288
-0.998281, 399, 201, 414, 264
-0.998282, 329, 271, 360, 286
-0.998293, 149, 69, 180, 84
-0.998299, 265, 275, 296, 290
-0.998301, 351, 273, 366, 336
-0.998304, 365, 277, 396, 292
-0.998305, 379, 265, 394, 328
-0.998308, 441, 287, 472, 302
-0.998308, 393, 273, 408, 336
-0.998309, 377, 277, 408, 292
-0.99831, 421, 275, 452, 290
-0.99831, 273, 33, 304, 160
-0.998314, 385, 265, 416, 280
-0.998315, 357, 281, 372, 344
-0.998317, 421, 287, 452, 302
-0.998317, 409, 271, 440, 286
-0.998322, 451, 277, 466, 308
-0.998326, 253, 275, 284, 290
-0.998331, 353, 275, 384, 290
-0.998331, 397, 267, 428, 282
-0.998331, 321, 277, 352, 292
-0.998332, 321, 253, 448, 284
-0.998332, 353, 267, 384, 282
-0.998333, 439, 273, 454, 336
-0.998334, 345, 265, 360, 296
-0.998335, 373, 265, 388, 328
-0.998336, 241, 57, 256, 120
-0.998339, 369, 265, 496, 296
-0.998342, 263, 57, 278, 120
-0.998343, 425, 281, 456, 296
-0.998347, 277, 277, 308, 292
-0.998348, 341, 273, 372, 288
-0.998363, 233, 57, 248, 120
-0.998369, 485, 49, 500, 112
-0.998387, 365, 269, 396, 284
-0.998387, 337, 265, 368, 280
-0.998388, 201, 57, 216, 120
-0.998389, 377, 271, 408, 286
-0.998391, 407, 265, 422, 328
-0.998396, 343, 249, 358, 312
-0.998408, 341, 145, 356, 208
-0.99841, 193, 277, 320, 308
-0.998428, 305, 81, 368, 144
-0.99843, 357, 257, 372, 320
-0.998434, 273, 241, 304, 368
-0.99844, 341, 281, 356, 344
-0.998454, 247, 57, 262, 120
-0.998456, 257, 53, 384, 84
-0.998458, 405, 153, 420, 216
-0.998462, 451, 273, 466, 336
-0.998474, 345, 81, 408, 144
-0.998477, 331, 193, 346, 256
-0.998479, 255, 57, 270, 120
-0.998494, 373, 265, 388, 296
-0.998497, 413, 265, 428, 328
-0.998505, 335, 273, 350, 336
-0.998506, 285, 49, 300, 112
-0.998507, 425, 269, 440, 300
-0.998513, 353, 49, 480, 80
-0.998521, 401, 177, 432, 304
-0.99853, 347, 89, 362, 152
-0.998533, 405, 177, 420, 240
-0.998544, 337, 297, 464, 328
-0.998555, 291, 49, 306, 112
-0.998564, 277, 281, 292, 312
-0.998566, 343, 49, 358, 112
-0.998569, 393, 253, 408, 284
-0.998581, 403, 41, 418, 104
-0.998588, 129, 73, 192, 136
-0.998592, 329, 267, 392, 282
-0.998599, 305, 141, 432, 172
-0.998603, 429, 289, 444, 352
-0.998606, 469, 49, 500, 112
-0.998606, 337, 275, 400, 290
-0.998617, 379, 265, 394, 296
-0.99862, 337, 81, 352, 144
-0.998621, 299, 49, 314, 112
-0.998624, 377, 271, 440, 286
-0.998625, 395, 49, 410, 112
-0.99863, 265, 277, 328, 292
-0.998631, 321, 97, 384, 352
-0.998634, 351, 49, 366, 112
-0.998634, 379, 49, 394, 112
-0.998649, 353, 269, 416, 284
-0.998651, 385, 129, 448, 375
-0.998656, 417, 281, 480, 296
-0.99866, 369, 279, 432, 294
-0.99866, 145, 69, 208, 84
-0.998662, 313, 273, 376, 288
-0.998668, 279, 269, 294, 300
-0.998673, 399, 153, 414, 216
-0.998678, 275, 265, 290, 328
-0.998685, 327, 49, 342, 112
-0.998688, 377, 265, 440, 280
-0.998691, 393, 281, 456, 296
-0.998692, 81, 41, 208, 104
-0.998694, 361, 259, 424, 274
-0.998694, 363, 257, 378, 320
-0.998694, 373, 49, 388, 112
-0.998695, 385, 251, 448, 266
-0.998697, 337, 49, 352, 112
-0.998699, 289, 277, 352, 292
-0.9987, 433, 265, 448, 328
-0.998701, 409, 287, 472, 302
-0.998702, 265, 271, 328, 286
-0.998703, 359, 49, 374, 112
-0.998703, 401, 265, 416, 296
-0.998705, 335, 145, 350, 208
-0.998706, 393, 249, 408, 312
-0.998708, 241, 59, 304, 74
-0.998708, 417, 275, 480, 290
-0.998711, 305, 265, 368, 280
-0.998713, 437, 289, 452, 320
-0.998713, 281, 53, 344, 68
-0.998713, 273, 283, 336, 298
-0.998715, 297, 215, 360, 230
-0.998716, 285, 273, 300, 304
-0.998716, 329, 281, 392, 296
-0.998717, 289, 271, 352, 286
-0.998719, 387, 49, 402, 112
-0.99872, 209, 63, 272, 78
-0.998723, 425, 295, 488, 310
-0.998723, 241, 275, 304, 290
-0.998726, 433, 273, 448, 304
-0.998728, 305, 49, 320, 112
-0.998729, 385, 245, 448, 260
-0.99873, 169, 67, 232, 82
-0.998731, 353, 53, 416, 68
-0.998732, 297, 229, 360, 244
-0.998733, 361, 251, 424, 266
-0.998734, 321, 259, 384, 274
-0.998735, 305, 53, 368, 68
-0.998736, 417, 51, 480, 66
-0.998736, 287, 249, 302, 312
-0.998737, 365, 49, 380, 112
-0.998737, 385, 223, 448, 238
-0.998738, 433, 287, 496, 302
-0.99874, 281, 205, 344, 220
-0.998742, 297, 257, 360, 272
-0.998743, 281, 221, 344, 236
-0.998743, 241, 287, 304, 302
-0.998744, 361, 227, 424, 242
-0.998744, 305, 1, 368, 256
-0.998744, 321, 223, 384, 238
-0.998745, 321, 217, 384, 232
-0.998746, 377, 49, 440, 64
-0.998748, 415, 269, 430, 300
-0.998749, 331, 257, 346, 288
-0.998751, 233, 281, 296, 296
-0.998752, 329, 57, 392, 72
-0.998752, 273, 289, 336, 304
-0.998754, 385, 231, 448, 246
-0.998757, 321, 229, 384, 244
-0.998758, 273, 295, 336, 310
-0.998759, 113, 71, 176, 86
-0.998759, 385, 301, 448, 316
-0.998759, 385, 289, 448, 304
-0.99876, 385, 237, 448, 252
-0.998761, 315, 49, 330, 112
-0.998762, 385, 257, 448, 272
-0.998763, 137, 77, 200, 92
-0.998763, 321, 211, 384, 226
-0.998764, 195, 57, 210, 120
-0.998765, 385, 217, 448, 232
-0.998766, 281, 235, 344, 250
-0.998767, 321, 235, 384, 250
-0.998767, 361, 243, 424, 258
-0.998768, 361, 217, 424, 232
-0.998768, 393, 307, 456, 322
-0.998769, 337, 247, 400, 262
-0.998769, 401, 269, 464, 284
-0.99877, 337, 253, 400, 268
-0.99877, 361, 237, 424, 252
-0.998772, 425, 301, 488, 316
-0.998773, 443, 41, 458, 104
-0.998774, 329, 49, 392, 64
-0.998778, 397, 237, 412, 268
-0.998779, 385, 209, 448, 224
-0.998779, 281, 245, 344, 260
-0.99878, 273, 301, 336, 316
-0.99878, 321, 205, 384, 220
-0.998782, 297, 199, 360, 214
-0.998782, 161, 79, 224, 94
-0.998784, 297, 191, 360, 206
-0.998784, 241, 301, 304, 316
-0.998784, 361, 211, 424, 226
-0.998784, 241, 293, 304, 308
-0.998786, 321, 241, 384, 256
-0.998789, 265, 59, 328, 74
-0.998791, 337, 249, 352, 280
-0.998794, 185, 59, 248, 74
-0.998794, 281, 251, 344, 266
-0.998795, 321, 199, 384, 214
-0.998795, 257, 235, 320, 250
-0.998795, 185, 73, 248, 88
-0.998795, 161, 61, 224, 76
-0.998796, 417, 309, 480, 324
-0.998796, 281, 265, 344, 280
-0.998796, 385, 203, 448, 218
-0.998797, 361, 205, 424, 220
-0.998797, 297, 283, 360, 298
-0.998797, 217, 81, 280, 96
-0.998798, 217, 273, 280, 288
-0.998799, 297, 47, 360, 62
-0.998799, 273, 307, 336, 322
-0.9988, 425, 267, 488, 282
-0.998801, 321, 49, 336, 112
-0.998801, 385, 195, 448, 210
-0.998802, 337, 273, 352, 304
-0.998802, 393, 295, 456, 310
-0.998803, 321, 287, 384, 302
-0.998803, 393, 317, 456, 332
-0.998803, 423, 41, 438, 104
-0.998804, 439, 297, 454, 360
-0.998805, 321, 315, 384, 330
-0.998805, 321, 309, 384, 324
-0.998806, 361, 195, 424, 210
-0.998806, 353, 285, 416, 300
-0.998806, 113, 77, 176, 92
-0.998806, 421, 281, 436, 344
-0.998807, 193, 79, 256, 94
-0.998808, 105, 65, 168, 80
-0.998809, 401, 45, 464, 60
-0.998809, 401, 263, 464, 278
-0.99881, 385, 81, 448, 96
-0.99881, 257, 53, 320, 68
-0.99881, 209, 57, 272, 72
-0.99881, 281, 181, 344, 196
-0.998811, 249, 249, 312, 264
-0.998812, 393, 323, 456, 338
-0.998813, 241, 83, 304, 98
-0.998817, 297, 173, 360, 188
-0.998817, 361, 81, 424, 96
-0.998818, 353, 47, 416, 62
-0.998819, 425, 45, 488, 60
-0.998819, 249, 263, 312, 278
-0.998819, 137, 63, 200, 78
-0.99882, 257, 223, 320, 238
-0.99882, 417, 315, 480, 330
-0.998821, 257, 209, 320, 224
-0.998821, 425, 257, 440, 320
-0.998821, 233, 53, 296, 68
-0.998822, 369, 321, 432, 336
-0.998822, 281, 83, 344, 98
-0.998829, 129, 77, 256, 108
-0.998842, 445, 285, 460, 316
-0.998849, 351, 249, 366, 312
-0.998852, 479, 49, 494, 112
-0.998875, 387, 269, 402, 300
-0.998882, 161, 33, 224, 96
-0.998885, 413, 41, 428, 104
-0.998885, 129, 81, 384, 144
-0.998886, 429, 285, 444, 316
-0.998888, 281, 81, 344, 144
-0.998889, 445, 281, 460, 344
-0.99889, 161, 305, 416, 368
-0.998897, 437, 41, 452, 104
-0.998903, 191, 65, 206, 96
-0.998908, 397, 225, 412, 256
-0.998913, 353, 309, 480, 340
-0.998915, 177, 289, 304, 352
-0.998924, 399, 177, 414, 240
-0.998925, 331, 273, 346, 304
-0.998926, 257, 297, 384, 328
-0.998926, 333, 129, 364, 375
-0.998933, 181, 65, 196, 96
-0.998936, 97, 65, 224, 96
-0.998937, 459, 41, 474, 104
-0.998938, 385, 1, 448, 256
-0.998942, 201, 65, 216, 96
-0.998942, 207, 65, 222, 96
-0.998948, 273, 269, 288, 300
-0.998955, 271, 241, 286, 304
-0.998956, 469, 49, 484, 112
-0.998964, 439, 277, 454, 308
-0.998965, 369, 277, 384, 308
-0.998968, 187, 57, 202, 120
-0.99897, 357, 277, 372, 308
-0.998975, 405, 201, 420, 264
-0.998976, 363, 277, 378, 308
-0.998981, 305, 153, 432, 184
-0.998984, 257, 141, 384, 172
-0.998984, 407, 265, 422, 296
-0.998986, 449, 41, 480, 104
-0.999, 403, 217, 418, 248
-0.999001, 449, 41, 464, 104
-0.999001, 281, 249, 296, 312
-0.999008, 339, 225, 354, 256
-0.999008, 175, 65, 190, 96
-0.999011, 167, 65, 182, 96
-0.999012, 269, 265, 284, 328
-0.999027, 213, 65, 228, 96
-0.99903, 399, 249, 414, 280
-0.999031, 429, 41, 444, 104
-0.999032, 349, 277, 364, 308
-0.999036, 341, 113, 372, 240
-0.99904, 263, 265, 278, 328
-0.999041, 305, 129, 432, 160
-0.999055, 293, 277, 308, 308
-0.999057, 393, 273, 408, 304
-0.999058, 343, 253, 358, 284
-0.99907, 283, 289, 298, 320
-0.999071, 343, 137, 358, 168
-0.999078, 431, 301, 446, 332
-0.999079, 271, 281, 286, 312
-0.999083, 233, 61, 248, 92
-0.999083, 377, 277, 392, 308
-0.999096, 419, 281, 434, 312
-0.9991, 215, 33, 230, 96
-0.999104, 337, 109, 352, 140
-0.999105, 343, 117, 358, 148
-0.999106, 403, 237, 418, 268
-0.999108, 181, 57, 196, 120
-0.999114, 341, 153, 356, 184
-0.999121, 405, 157, 420, 188
-0.999122, 333, 201, 348, 232
-0.999124, 337, 141, 352, 172
-0.999125, 333, 213, 348, 244
-0.999131, 245, 61, 260, 92
-0.999132, 341, 173, 356, 204
-0.999135, 413, 241, 428, 304
-0.999136, 337, 237, 352, 268
-0.999139, 219, 65, 234, 96
-0.99914, 333, 169, 348, 232
-0.999142, 339, 193, 354, 224
-0.999152, 335, 161, 350, 192
-0.999154, 225, 61, 240, 92
-0.999155, 193, 265, 320, 296
-0.999157, 185, 77, 200, 108
-0.999158, 1, 81, 256, 208
-0.999162, 191, 77, 206, 108
-0.999165, 339, 213, 354, 244
-0.999167, 257, 81, 320, 144
-0.999168, 337, 121, 352, 152
-0.999171, 189, 33, 220, 160
-0.999173, 399, 205, 414, 236
-0.999175, 391, 225, 406, 288
-0.999176, 331, 237, 346, 268
-0.999179, 353, 253, 368, 284
-0.999181, 369, 145, 496, 208
-0.999183, 419, 257, 434, 320
-0.999183, 175, 57, 190, 120
-0.999184, 239, 61, 254, 92
-0.999184, 399, 185, 414, 216
-0.999184, 455, 289, 470, 320
-0.999186, 457, 277, 472, 308
-0.999186, 325, 305, 340, 368
-0.999193, 405, 185, 420, 216
-0.999194, 323, 273, 338, 304
-0.999198, 333, 225, 348, 256
-0.999208, 399, 169, 414, 200
-0.99921, 405, 201, 420, 232
-0.999213, 405, 173, 420, 204
-0.999214, 255, 61, 270, 92
-0.999214, 299, 277, 314, 308
-0.999218, 363, 253, 378, 284
-0.999219, 333, 225, 364, 288
-0.999222, 161, 65, 176, 96
-0.999223, 399, 153, 414, 184
-0.999223, 279, 225, 294, 256
-0.999229, 169, 57, 184, 120
-0.999236, 291, 53, 306, 84
-0.999238, 283, 297, 298, 360
-0.999241, 407, 249, 422, 280
-0.999242, 257, 129, 384, 160
-0.999245, 175, 77, 190, 108
-0.999246, 335, 181, 350, 212
-0.999247, 151, 57, 166, 120
-0.999249, 343, 193, 358, 256
-0.999251, 265, 57, 280, 88
-0.999251, 149, 69, 164, 100
-0.999256, 305, 49, 432, 80
-0.999259, 305, 277, 320, 308
-0.99926, 155, 65, 170, 96
-0.999261, 351, 53, 366, 84
-0.999261, 293, 241, 308, 304
-0.999264, 193, 289, 320, 320
-0.999272, 437, 301, 452, 332
-0.999274, 369, 241, 384, 304
-0.999275, 163, 57, 178, 120
-0.999277, 311, 273, 326, 304
-0.99929, 177, 81, 304, 112
-0.999292, 227, 33, 242, 96
-0.999297, 255, 269, 270, 300
-0.999297, 293, 249, 324, 312
-0.999298, 485, 53, 500, 84
-0.999301, 297, 53, 312, 84
-0.999302, 307, 249, 322, 312
-0.999302, 323, 49, 338, 80
-0.999302, 157, 57, 172, 120
-0.999304, 401, 153, 432, 216
-0.999312, 273, 193, 400, 256
-0.999312, 463, 49, 478, 80
-0.999313, 207, 33, 222, 96
-0.999319, 325, 249, 340, 312
-0.99932, 365, 53, 380, 84
-0.99932, 381, 241, 396, 304
-0.999322, 221, 33, 236, 96
-0.999328, 333, 53, 348, 84
-0.999329, 337, 177, 352, 304
-0.999332, 337, 225, 352, 352
-0.999338, 393, 49, 408, 80
-0.999339, 317, 273, 332, 304
-0.999345, 1, 281, 500, 344
-0.999347, 299, 249, 314, 312
-0.99935, 303, 265, 318, 296
-0.99935, 209, 301, 336, 332
-0.999352, 387, 257, 402, 288
-0.999353, 257, 309, 384, 340
-0.999355, 267, 269, 282, 300
-0.999357, 341, 53, 356, 84
-0.999358, 315, 49, 330, 80
-0.999359, 343, 277, 358, 308
-0.999363, 445, 273, 460, 304
-0.99937, 303, 53, 318, 84
-0.999371, 97, 257, 352, 320
-0.999373, 225, 81, 480, 144
-0.999376, 309, 53, 324, 84
-0.999377, 271, 57, 286, 88
-0.99938, 403, 225, 418, 352
-0.999385, 297, 265, 312, 296
-0.999398, 415, 45, 430, 76
-0.999406, 261, 265, 276, 296
-0.999407, 233, 33, 248, 96
-0.999412, 429, 49, 444, 80
-0.999413, 393, 73, 456, 136
-0.999414, 239, 33, 254, 96
-0.999414, 423, 49, 438, 80
-0.999415, 279, 57, 294, 88
-0.999415, 271, 233, 286, 264
-0.999416, 285, 53, 300, 84
-0.999421, 357, 53, 372, 84
-0.999429, 319, 249, 334, 312
-0.999432, 409, 129, 424, 192
-0.999436, 373, 241, 404, 304
-0.999438, 297, 297, 312, 360
-0.999443, 353, 281, 368, 296
-0.999443, 255, 61, 270, 76
-0.999443, 297, 55, 312, 70
-0.999444, 377, 283, 392, 298
-0.999444, 435, 307, 450, 322
-0.999445, 185, 67, 200, 82
-0.999445, 383, 265, 398, 280
-0.999445, 337, 159, 352, 174
-0.999446, 405, 155, 420, 170
-0.999446, 267, 59, 282, 74
-0.999446, 285, 57, 300, 72
-0.999446, 331, 245, 346, 260
-0.999447, 333, 209, 348, 224
-0.999448, 391, 313, 406, 375
-0.999448, 279, 227, 294, 242
-0.999449, 341, 169, 356, 184
-0.999449, 343, 143, 358, 158
-0.999449, 245, 63, 260, 78
-0.99945, 343, 137, 358, 152
-0.99945, 373, 55, 388, 70
-0.99945, 275, 235, 290, 250
-0.99945, 239, 63, 254, 78
-0.99945, 333, 215, 348, 230
-0.999451, 335, 183, 350, 198
-0.999451, 331, 257, 346, 272
-0.999452, 305, 281, 320, 296
-0.999452, 441, 277, 456, 292
-0.999453, 445, 283, 460, 298
-0.999453, 405, 185, 420, 200
-0.999454, 343, 113, 358, 240
-0.999454, 369, 289, 384, 352
-0.999454, 341, 175, 356, 190
-0.999455, 185, 93, 200, 108
-0.999455, 337, 147, 352, 162
-0.999455, 405, 165, 420, 180
-0.999455, 335, 167, 350, 182
-0.999456, 397, 243, 412, 258
-0.999456, 343, 149, 358, 164
-0.999456, 397, 237, 412, 252
-0.999456, 263, 269, 278, 284
-0.999457, 405, 171, 420, 186
-0.999458, 403, 237, 418, 252
-0.999458, 343, 125, 358, 140
-0.999458, 337, 241, 352, 256
-0.999459, 337, 141, 352, 156
-0.999459, 171, 69, 186, 84
-0.99946, 361, 289, 424, 352
-0.99946, 405, 193, 420, 208
-0.999461, 399, 193, 414, 208
-0.999461, 337, 235, 352, 250
-0.999461, 333, 227, 348, 242
-0.999462, 339, 203, 354, 218
-0.999462, 335, 191, 350, 206
-0.999462, 425, 287, 440, 302
-0.999462, 369, 283, 384, 298
-0.999463, 403, 261, 418, 276
-0.999463, 337, 123, 352, 138
-0.999463, 333, 221, 348, 236
-0.999464, 341, 181, 356, 196
-0.999464, 345, 281, 360, 296
-0.999464, 403, 231, 418, 246
-0.999464, 337, 153, 352, 168
-0.999465, 337, 247, 352, 262
-0.999465, 273, 269, 288, 284
-0.999465, 403, 249, 418, 264
-0.999466, 343, 131, 358, 146
-0.999467, 451, 277, 466, 292
-0.999467, 355, 275, 370, 290
-0.999469, 345, 111, 360, 126
-0.999469, 339, 217, 354, 232
-0.999471, 363, 283, 378, 298
-0.999472, 331, 251, 346, 266
-0.999472, 457, 279, 472, 294
-0.999473, 339, 223, 354, 238
-0.999474, 287, 283, 302, 298
-0.999475, 339, 209, 354, 224
-0.999475, 327, 277, 342, 292
-0.999476, 457, 281, 472, 344
-0.999477, 337, 253, 352, 268
-0.999477, 339, 279, 354, 294
-0.999477, 321, 129, 352, 375
-0.999477, 317, 277, 332, 292
-0.999479, 485, 55, 500, 70
-0.999479, 165, 69, 180, 84
-0.99948, 349, 273, 364, 288
-0.99948, 311, 277, 326, 292
-0.99948, 333, 203, 348, 218
-0.999483, 431, 287, 446, 302
-0.999483, 289, 37, 416, 68
-0.999484, 443, 291, 458, 306
-0.999484, 339, 113, 354, 128
-0.999484, 339, 229, 354, 244
-0.999485, 289, 241, 304, 368
-0.999485, 385, 277, 400, 292
-0.999486, 393, 241, 408, 368
-0.999488, 277, 287, 292, 302
-0.999488, 337, 197, 352, 212
-0.99949, 419, 271, 434, 286
-0.999492, 155, 69, 170, 84
-0.999492, 341, 187, 356, 202
-0.999493, 419, 283, 434, 298
-0.999493, 295, 277, 310, 292
-0.999494, 355, 265, 370, 280
-0.999496, 331, 271, 346, 286
-0.999497, 399, 255, 414, 270
-0.999497, 431, 273, 446, 288
-0.999497, 449, 289, 464, 304
-0.999501, 393, 265, 408, 280
-0.999502, 275, 275, 290, 290
-0.999504, 393, 273, 408, 288
-0.999505, 363, 275, 378, 290
-0.999507, 435, 279, 450, 294
-0.999507, 265, 275, 280, 290
-0.999508, 333, 277, 348, 292
-0.999508, 149, 71, 164, 86
-0.999509, 399, 221, 414, 236
-0.999514, 437, 297, 452, 312
-0.999514, 439, 285, 454, 300
-0.999515, 305, 309, 432, 340
-0.999518, 283, 277, 298, 292
-0.99952, 331, 225, 346, 352
-0.99952, 337, 33, 352, 160
-0.999521, 161, 45, 288, 76
-0.999523, 377, 277, 392, 292
-0.999524, 377, 269, 392, 284
-0.999525, 425, 273, 440, 288
-0.999525, 273, 281, 288, 296
-0.999526, 349, 265, 364, 280
-0.999529, 337, 271, 352, 286
-0.99953, 397, 249, 412, 264
-0.99953, 369, 275, 384, 290
-0.999531, 337, 265, 352, 280
-0.999531, 193, 1, 256, 256
-0.999534, 379, 241, 394, 368
-0.999534, 301, 241, 316, 368
-0.999534, 403, 267, 418, 282
-0.999535, 397, 227, 412, 242
-0.999537, 343, 273, 358, 288
-0.999538, 343, 265, 358, 280
-0.999539, 363, 267, 378, 282
-0.999542, 307, 241, 322, 368
-0.999544, 393, 255, 408, 270
-0.999547, 425, 279, 440, 294
-0.999548, 373, 241, 388, 368
-0.99955, 399, 177, 414, 304
-0.99955, 451, 283, 466, 298
-0.999556, 371, 269, 386, 284
-0.999558, 315, 241, 330, 368
-0.999564, 321, 113, 352, 240
-0.999565, 343, 33, 358, 160
-0.999566, 337, 259, 352, 274
-0.99957, 405, 177, 420, 304
-0.999572, 331, 177, 346, 304
-0.999575, 367, 241, 382, 368
-0.999576, 383, 271, 398, 286
-0.999579, 169, 57, 200, 120
-0.999588, 385, 241, 400, 368
-0.999592, 283, 241, 298, 368
-0.999594, 321, 193, 352, 256
-0.999596, 265, 185, 328, 248
-0.999598, 1, 185, 500, 248
-0.999601, 295, 241, 310, 368
-0.999602, 425, 241, 488, 368
-0.999603, 337, 129, 352, 256
-0.999604, 241, 41, 368, 72
-0.999604, 405, 129, 436, 375
-0.999612, 121, 49, 184, 176
-0.999613, 433, 241, 464, 368
-0.999614, 411, 241, 426, 368
-0.999617, 433, 257, 496, 320
-0.999626, 305, 165, 432, 196
-0.999627, 391, 33, 406, 160
-0.999627, 343, 161, 358, 288
-0.999637, 485, 33, 500, 160
-0.999638, 217, 1, 280, 256
-0.999645, 403, 33, 418, 160
-0.999645, 373, 33, 388, 160
-0.999645, 361, 241, 376, 368
-0.999647, 329, 33, 344, 160
-0.99965, 321, 241, 336, 368
-0.999652, 193, 69, 320, 100
-0.999654, 257, 25, 500, 88
-0.999657, 321, 33, 336, 160
-0.999658, 423, 241, 438, 368
-0.999665, 367, 33, 382, 160
-0.999666, 419, 33, 434, 160
-0.999667, 385, 33, 400, 160
-0.999668, 297, 33, 312, 160
-0.999668, 257, 153, 384, 184
-0.999671, 349, 33, 364, 160
-0.999672, 315, 33, 330, 160
-0.999676, 343, 241, 358, 368
-0.999676, 303, 33, 318, 160
-0.999682, 417, 241, 432, 368
-0.999682, 177, 33, 208, 160
-0.999682, 425, 33, 440, 160
-0.999684, 407, 129, 422, 256
-0.999687, 467, 33, 482, 160
-0.999693, 379, 33, 394, 160
-0.999696, 431, 33, 446, 160
-0.999697, 455, 33, 470, 160
-0.999698, 351, 241, 366, 368
-0.999699, 437, 33, 452, 160
-0.999703, 225, 85, 352, 116
-0.999704, 309, 33, 324, 160
-0.999705, 397, 33, 412, 160
-0.99971, 335, 81, 350, 208
-0.999713, 49, 57, 176, 88
-0.999717, 445, 33, 460, 160
-0.999717, 461, 33, 476, 160
-0.999717, 411, 33, 426, 160
-0.999719, 353, 321, 480, 352
-0.999722, 385, 97, 416, 352
-0.999727, 479, 33, 494, 160
-0.999738, 281, 1, 344, 256
-0.99974, 291, 33, 306, 160
-0.999741, 361, 1, 424, 256
-0.999743, 257, 217, 384, 280
-0.999753, 1, 49, 500, 112
-0.999756, 361, 33, 376, 160
-0.99976, 209, 197, 336, 228
-0.999763, 289, 193, 416, 224
-0.999763, 473, 33, 488, 160
-0.999767, 273, 73, 400, 104
-0.999776, 399, 129, 414, 256
-0.999783, 81, 77, 208, 108
-0.999786, 289, 85, 416, 116
-0.999796, 9, 1, 72, 375
-0.999796, 355, 33, 370, 160
-0.999804, 201, 33, 216, 160
-0.999805, 369, 81, 496, 112
-0.999811, 275, 209, 290, 336
-0.999818, 189, 33, 204, 160
-0.99982, 285, 33, 300, 160
-0.999821, 209, 33, 224, 160
-0.999835, 277, 33, 292, 160
-0.999837, 195, 33, 210, 160
-0.999838, 181, 33, 196, 160
-0.999838, 393, 177, 408, 304
-0.999838, 283, 193, 298, 320
-0.999849, 1, 57, 256, 120
-0.999851, 333, 1, 364, 256
-0.999855, 289, 193, 304, 320
-0.999859, 175, 33, 190, 160
-0.999862, 433, 241, 448, 368
-0.999863, 409, 81, 424, 208
-0.999864, 451, 241, 466, 368
-0.999866, 271, 33, 286, 160
-0.999868, 265, 33, 280, 160
-0.999871, 399, 81, 414, 208
-0.999871, 305, 117, 432, 148
-0.999874, 269, 289, 300, 352
-0.999874, 215, 33, 230, 160
-0.999874, 255, 33, 270, 160
-0.999875, 305, 321, 432, 352
-0.999876, 169, 33, 184, 160
-0.999881, 433, 81, 496, 144
-0.999885, 149, 33, 164, 160
-0.999885, 221, 33, 236, 160
-0.999891, 321, 1, 352, 256
-0.999893, 249, 33, 264, 160
-0.999894, 163, 33, 178, 160
-0.999895, 385, 1, 416, 256
-0.999896, 241, 33, 256, 160
-0.999896, 295, 193, 310, 320
-0.999896, 349, 81, 364, 208
-0.999898, 235, 33, 250, 160
-0.999902, 229, 33, 244, 160
-0.999911, 157, 33, 172, 160
-0.999918, 301, 193, 316, 320
-0.999918, 325, 193, 340, 320
-0.999921, 385, 177, 400, 304
-0.999922, 369, 193, 384, 320
-0.999929, 361, 241, 392, 304
-0.999936, 307, 193, 322, 320
-0.999939, 269, 209, 284, 336
-0.999941, 405, 1, 436, 256
-0.999941, 441, 241, 456, 368
-0.999942, 329, 129, 344, 256
-0.999944, 113, 53, 240, 84
-0.999948, 337, 37, 464, 68
-0.999949, 413, 193, 428, 320
-0.99995, 325, 145, 356, 208
-0.999955, 143, 49, 158, 176
-0.999959, 379, 193, 394, 320
-0.999965, 369, 253, 496, 284
-0.999967, 357, 193, 372, 320
-0.99997, 257, 117, 384, 148
-0.99997, 273, 177, 400, 208
-0.999974, 317, 193, 332, 320
-0.999977, 273, 209, 400, 240
-0.999991, 345, 97, 376, 352
-0.999995, 211, 81, 226, 208
-0.999997, 241, 245, 368, 276
-0.999999, 349, 177, 364, 304
-0.999999, 423, 193, 438, 320
-1, 175, 81, 190, 208
-1, 363, 193, 378, 320
-1, 191, 81, 206, 208
-1.00001, 137, 17, 152, 144
-1.00001, 197, 81, 212, 208
-1.00002, 183, 81, 198, 208
-1.00002, 315, 81, 330, 208
-1.00002, 457, 241, 472, 368
-1.00002, 163, 81, 178, 208
-1.00002, 205, 81, 220, 208
-1.00003, 329, 81, 344, 208
-1.00003, 169, 81, 184, 208
-1.00004, 333, 193, 364, 256
-1.00004, 321, 81, 336, 208
-1.00005, 257, 1, 320, 256
-1.00005, 393, 129, 408, 256
-1.00005, 157, 81, 172, 208
-1.00005, 457, 81, 472, 208
-1.00006, 231, 81, 246, 208
-1.00006, 259, 225, 274, 352
-1.00006, 219, 81, 234, 208
-1.00006, 355, 81, 370, 208
-1.00006, 23, 81, 38, 208
-1.00007, 177, 81, 304, 208
-1.00008, 1, 225, 500, 288
-1.00009, 321, 177, 448, 240
-1.00009, 193, 193, 320, 256
-1.00009, 1, 257, 500, 320
-1.00011, 409, 177, 472, 304
-1.00012, 397, 201, 428, 264
-1.00012, 321, 73, 448, 104
-1.00013, 261, 33, 292, 160
-1.00014, 369, 69, 496, 100
-1.00014, 293, 1, 324, 256
-1.00016, 293, 193, 324, 320
-1.00017, 369, 157, 496, 188
-1.00018, 225, 209, 352, 240
-1.00021, 349, 1, 380, 256
-1.00021, 165, 33, 196, 160
-1.00021, 33, 33, 288, 96
-1.00022, 1, 73, 500, 136
-1.00022, 241, 165, 368, 196
-1.00024, 189, 1, 220, 256
-1.00025, 161, 25, 416, 88
-1.00027, 345, 25, 408, 88
-1.00027, 209, 1, 240, 256
-1.00027, 33, 1, 96, 375
-1.00028, 281, 1, 312, 256
-1.00028, 265, 1, 296, 256
-1.00029, 337, 161, 368, 224
-1.00029, 273, 221, 400, 252
-1.0003, 449, 1, 480, 256
-1.0003, 237, 1, 268, 256
-1.0003, 309, 129, 340, 375
-1.0003, 313, 305, 344, 368
-1.00031, 209, 313, 336, 344
-1.00032, 65, 281, 320, 344
-1.00033, 221, 1, 252, 256
-1.00033, 209, 33, 240, 160
-1.00034, 337, 189, 464, 220
-1.00034, 57, 1, 120, 375
-1.00036, 469, 1, 500, 256
-1.00036, 1, 97, 128, 160
-1.00036, 225, 177, 352, 208
-1.00037, 253, 1, 284, 256
-1.00037, 33, 81, 288, 144
-1.00038, 321, 333, 448, 364
-1.00038, 305, 1, 336, 256
-1.00038, 273, 25, 336, 88
-1.00039, 417, 1, 448, 256
-1.0004, 261, 209, 292, 336
-1.0004, 177, 1, 208, 256
-1.0004, 361, 1, 392, 256
-1.0004, 437, 1, 468, 256
-1.00041, 421, 241, 452, 368
-1.00041, 321, 177, 448, 208
-1.00041, 177, 81, 240, 144
-1.00041, 257, 321, 384, 352
-1.00042, 209, 225, 336, 256
-1.00043, 393, 17, 456, 80
-1.00043, 293, 97, 324, 352
-1.00044, 213, 33, 244, 96
-1.00044, 417, 1, 480, 256
-1.00045, 337, 177, 400, 240
-1.00045, 193, 33, 320, 64
-1.00047, 305, 105, 432, 136
-1.00048, 249, 33, 280, 160
-1.00048, 1, 101, 128, 132
-1.00048, 81, 1, 144, 375
-1.00048, 353, 113, 480, 176
-1.00049, 369, 333, 496, 364
-1.00049, 329, 1, 392, 256
-1.0005, 257, 105, 384, 136
-1.00051, 321, 241, 448, 272
-1.00051, 373, 1, 404, 256
-1.00055, 369, 193, 496, 256
-1.00058, 65, 97, 192, 160
-1.00059, 161, 221, 288, 252
-1.00059, 129, 233, 384, 296
-1.0006, 17, 193, 144, 256
-1.0006, 177, 181, 304, 212
-1.00062, 177, 253, 304, 284
-1.00062, 305, 25, 368, 88
-1.00062, 321, 225, 352, 288
-1.00062, 357, 97, 388, 352
-1.00063, 373, 129, 404, 375
-1.00063, 157, 57, 188, 120
-1.00065, 353, 217, 480, 280
-1.00067, 65, 101, 192, 132
-1.00067, 369, 345, 496, 375
-1.00067, 369, 141, 496, 172
-1.00067, 17, 193, 144, 224
-1.00068, 281, 297, 312, 360
-1.00068, 177, 209, 304, 240
-1.00068, 321, 205, 448, 236
-1.00068, 321, 217, 448, 248
-1.00068, 273, 333, 400, 364
-1.00069, 369, 233, 496, 264
-1.0007, 97, 189, 224, 220
-1.0007, 321, 229, 448, 260
-1.00072, 385, 273, 416, 336
-1.00073, 165, 1, 196, 256
-1.00074, 17, 217, 144, 248
-1.00074, 65, 117, 192, 148
-1.00075, 65, 233, 192, 264
-1.00075, 385, 177, 448, 240
-1.00076, 1, 233, 128, 264
-1.00076, 1, 305, 500, 368
-1.00076, 145, 101, 272, 132
-1.00077, 369, 169, 496, 200
-1.00077, 17, 177, 144, 208
-1.00077, 369, 221, 496, 252
-1.00077, 1, 113, 128, 144
-1.00077, 225, 333, 352, 364
-1.00077, 277, 97, 308, 352
-1.00077, 305, 345, 432, 375
-1.00078, 113, 117, 240, 148
-1.00078, 321, 61, 448, 92
-1.00078, 417, 129, 448, 375
-1.00078, 145, 265, 272, 296
-1.00079, 389, 153, 420, 216
-1.00079, 257, 345, 384, 375
-1.0008, 113, 41, 240, 72
-1.0008, 145, 193, 272, 224
-1.0008, 209, 125, 336, 156
-1.00081, 193, 157, 320, 188
-1.00081, 97, 89, 224, 120
-1.00081, 369, 201, 496, 232
-1.00082, 337, 93, 464, 124
-1.00083, 145, 237, 272, 268
-1.00083, 161, 1, 224, 256
-1.00083, 1, 65, 32, 320
-1.00084, 149, 1, 180, 256
-1.00085, 1, 89, 128, 120
-1.00085, 81, 221, 208, 252
-1.00085, 353, 125, 480, 156
-1.00086, 17, 205, 144, 236
-1.00086, 145, 57, 176, 120
-1.00087, 17, 269, 144, 300
-1.00087, 65, 45, 192, 76
-1.00087, 177, 325, 304, 356
-1.00088, 161, 309, 288, 340
-1.00088, 21, 65, 52, 320
-1.00088, 33, 73, 160, 136
-1.00089, 17, 281, 144, 312
-1.0009, 113, 105, 240, 168
-1.0009, 209, 137, 336, 168
-1.0009, 241, 25, 368, 56
-1.00091, 369, 113, 496, 144
-1.00091, 65, 173, 192, 204
-1.00092, 193, 237, 320, 268
-1.00092, 97, 209, 224, 240
-1.00092, 265, 129, 296, 375
-1.00093, 17, 165, 144, 196
-1.00093, 1, 257, 128, 288
-1.00093, 161, 121, 288, 152
-1.00093, 257, 233, 384, 264
-1.00094, 49, 65, 80, 320
-1.00094, 49, 89, 176, 120
-1.00095, 93, 65, 124, 320
-1.00095, 1, 53, 128, 84
-1.00096, 73, 65, 104, 320
-1.00096, 81, 185, 208, 248
-1.00097, 33, 65, 64, 320
-1.00098, 125, 65, 156, 320
-1.00099, 153, 33, 184, 160
-1.00099, 237, 33, 268, 160
-1.00099, 113, 65, 144, 320
-1.001, 61, 65, 92, 320
-1.001, 137, 33, 168, 288
-1.00105, 253, 97, 284, 352
-1.00106, 437, 97, 468, 352
-1.00106, 209, 217, 336, 280
-1.00106, 201, 97, 232, 352
-1.00106, 241, 97, 272, 352
-1.00107, 105, 1, 168, 375
-1.00108, 153, 81, 216, 144
-1.00108, 201, 81, 264, 144
-1.00112, 213, 97, 244, 352
-1.00112, 469, 97, 500, 352
-1.00113, 33, 49, 160, 112
-1.00114, 229, 97, 260, 352
-1.00114, 341, 305, 372, 368
-1.00114, 369, 25, 432, 88
-1.00114, 225, 225, 480, 288
-1.00115, 185, 97, 216, 352
-1.00115, 49, 225, 176, 288
-1.00115, 297, 145, 360, 272
-1.00117, 225, 185, 480, 248
-1.00118, 429, 257, 460, 320
-1.00118, 1, 161, 500, 224
-1.0012, 457, 97, 488, 352
-1.00123, 173, 97, 204, 352
-1.00124, 1, 105, 256, 168
-1.00125, 329, 81, 360, 144
-1.0013, 1, 81, 128, 208
-1.00131, 221, 33, 252, 160
-1.00132, 249, 217, 312, 280
-1.00133, 97, 105, 352, 168
-1.00133, 137, 129, 168, 375
-1.00136, 209, 129, 336, 192
-1.00136, 369, 169, 496, 232
-1.00136, 33, 185, 288, 248
-1.00141, 157, 97, 188, 352
-1.00143, 249, 33, 280, 96
-1.00143, 405, 281, 436, 344
-1.00146, 305, 249, 336, 312
-1.00147, 129, 209, 384, 272
-1.00148, 161, 105, 288, 168
-1.00148, 129, 169, 384, 232
-1.0015, 161, 145, 416, 208
-1.00151, 361, 177, 424, 240
-1.00151, 1, 161, 256, 224
-1.00152, 305, 217, 432, 280
-1.00154, 225, 33, 256, 96
-1.00154, 257, 145, 500, 208
-1.00154, 1, 217, 128, 280
-1.00156, 385, 313, 416, 375
-1.00157, 65, 9, 320, 72
-1.00159, 433, 305, 464, 368
-1.00161, 105, 73, 168, 136
-1.00162, 301, 297, 332, 360
-1.00163, 225, 113, 480, 176
-1.00163, 1, 233, 256, 296
-1.00163, 225, 1, 480, 64
-1.00165, 145, 241, 272, 304
-1.00168, 129, 185, 256, 248
-1.00168, 329, 305, 360, 368
-1.0017, 369, 129, 496, 256
-1.00171, 237, 33, 268, 96
-1.00171, 349, 81, 380, 144
-1.00176, 449, 273, 480, 336
-1.00182, 337, 129, 368, 192
-1.00182, 17, 169, 144, 232
-1.00183, 241, 25, 304, 88
-1.00184, 345, 161, 376, 288
-1.00184, 373, 193, 404, 320
-1.0019, 129, 161, 256, 224
-1.00191, 1, 257, 256, 320
-1.00191, 65, 305, 320, 368
-1.00192, 33, 209, 288, 272
-1.00192, 1, 137, 256, 200
-1.00193, 65, 161, 192, 224
-1.00194, 201, 33, 232, 96
-1.00196, 309, 193, 340, 320
-1.00197, 325, 121, 356, 184
-1.00198, 417, 17, 480, 80
-1.00199, 353, 305, 384, 368
-1.00202, 385, 129, 416, 256
-1.00202, 177, 161, 304, 224
-1.00205, 97, 217, 224, 280
-1.00207, 145, 217, 272, 280
-1.00208, 177, 9, 304, 72
-1.00209, 177, 313, 304, 375
-1.00212, 285, 81, 316, 144
-1.00213, 417, 241, 448, 304
-1.00213, 65, 249, 192, 312
-1.00213, 97, 313, 224, 375
-1.00215, 81, 17, 208, 80
-1.00216, 357, 193, 388, 320
-1.00217, 141, 33, 172, 160
-1.00218, 17, 145, 144, 208
-1.00218, 65, 121, 192, 184
-1.00221, 193, 177, 320, 304
-1.00222, 417, 313, 448, 375
-1.00227, 33, 289, 160, 352
-1.00227, 129, 289, 256, 352
-1.00228, 249, 265, 280, 328
-1.0023, 17, 249, 144, 312
-1.00232, 1, 17, 500, 80
-1.00234, 129, 265, 256, 328
-1.00239, 33, 313, 160, 375
-1.00239, 365, 81, 396, 144
-1.00244, 401, 129, 432, 256
-1.00244, 17, 121, 144, 184
-1.00246, 189, 33, 220, 96
-1.00248, 81, 81, 208, 208
-1.0025, 373, 313, 404, 375
-1.00253, 281, 193, 312, 256
-1.00255, 257, 161, 320, 224
-1.00256, 1, 25, 128, 88
-1.00259, 145, 129, 272, 192
-1.00263, 241, 129, 304, 375
-1.00264, 365, 289, 396, 352
-1.00264, 301, 81, 332, 144
-1.00273, 377, 81, 408, 144
-1.00274, 33, 1, 160, 64
-1.00274, 81, 273, 208, 336
-1.00277, 389, 81, 420, 208
-1.00277, 269, 73, 300, 136
-1.00278, 405, 313, 436, 375
-1.00286, 253, 81, 284, 144
-1.00286, 137, 1, 200, 256
-1.00287, 33, 17, 160, 144
-1.00287, 129, 9, 256, 72
-1.00291, 1, 97, 500, 160
-1.00296, 297, 145, 360, 208
-1.00297, 129, 41, 192, 104
-1.00302, 393, 73, 424, 136
-1.00305, 145, 81, 208, 208
-1.00308, 297, 81, 360, 208
-1.00309, 325, 169, 356, 232
-1.0031, 405, 81, 436, 208
-1.00313, 225, 1, 352, 64
-1.00316, 401, 177, 432, 240
-1.00317, 469, 81, 500, 144
-1.00319, 169, 81, 232, 208
-1.00321, 345, 105, 376, 168
-1.00326, 317, 81, 348, 144
-1.00332, 1, 121, 500, 184
-1.00348, 409, 97, 472, 352
-1.0035, 293, 177, 324, 240
-1.00357, 389, 177, 420, 240
-1.00361, 133, 73, 164, 136
-1.00364, 249, 241, 280, 304
-1.00367, 97, 129, 352, 375
-1.00369, 177, 81, 208, 144
-1.00372, 257, 145, 500, 272
-1.00373, 269, 217, 300, 280
-1.00376, 181, 81, 212, 208
-1.00377, 145, 81, 176, 144
-1.00378, 149, 81, 180, 208
-1.0038, 165, 81, 196, 144
-1.00381, 421, 81, 452, 144
-1.00383, 405, 73, 436, 136
-1.00383, 237, 81, 268, 144
-1.00383, 273, 209, 336, 272
-1.00386, 401, 17, 432, 80
-1.00389, 197, 81, 228, 144
-1.00391, 457, 81, 488, 144
-1.00392, 329, 25, 360, 88
-1.00395, 437, 81, 468, 144
-1.00397, 429, 17, 460, 80
-1.00402, 17, 65, 80, 320
-1.00403, 381, 17, 412, 80
-1.00403, 105, 41, 168, 104
-1.00405, 165, 81, 196, 208
-1.00405, 197, 81, 228, 208
-1.00406, 209, 81, 240, 144
-1.00412, 445, 17, 476, 80
-1.00412, 469, 17, 500, 80
-1.00412, 209, 241, 272, 304
-1.00416, 321, 153, 384, 216
-1.00418, 309, 25, 340, 88
-1.00419, 345, 233, 376, 296
-1.00421, 129, 97, 256, 224
-1.00422, 57, 65, 120, 320
-1.00428, 1, 177, 128, 304
-1.00428, 225, 81, 256, 144
-1.00429, 257, 81, 320, 208
-1.0043, 337, 129, 400, 256
-1.00434, 417, 17, 448, 80
-1.00437, 281, 25, 312, 88
-1.00441, 145, 177, 272, 304
-1.00443, 385, 201, 416, 264
-1.00447, 65, 177, 192, 304
-1.00448, 297, 25, 328, 88
-1.00449, 1, 97, 64, 160
-1.00451, 381, 129, 412, 192
-1.00453, 241, 193, 304, 256
-1.00454, 97, 17, 160, 144
-1.00457, 409, 129, 440, 192
-1.0046, 349, 25, 380, 88
-1.00461, 177, 33, 208, 96
-1.00462, 33, 145, 288, 272
-1.00468, 321, 113, 384, 176
-1.00472, 129, 97, 192, 160
-1.00474, 201, 81, 264, 208
-1.00475, 209, 81, 240, 208
-1.00476, 217, 97, 280, 352
-1.00481, 129, 49, 160, 176
-1.0049, 361, 81, 424, 208
-1.00494, 445, 241, 476, 368
-1.00497, 81, 65, 144, 320
-1.00498, 49, 97, 112, 160
-1.00504, 413, 193, 444, 320
-1.00507, 281, 81, 312, 208
-1.00508, 21, 81, 52, 208
-1.00513, 229, 81, 260, 208
-1.00516, 365, 81, 396, 208
-1.00526, 321, 81, 384, 208
-1.00528, 105, 97, 168, 160
-1.00528, 177, 105, 240, 168
-1.00534, 353, 81, 384, 208
-1.00536, 385, 153, 448, 216
-1.00538, 113, 65, 176, 320
-1.00539, 25, 97, 88, 160
-1.00543, 1, 97, 32, 224
-1.00546, 153, 185, 216, 248
-1.00546, 297, 81, 328, 208
-1.00553, 81, 97, 144, 160
-1.00554, 425, 193, 456, 320
-1.00555, 249, 225, 280, 352
-1.00558, 33, 193, 96, 256
-1.00559, 409, 201, 472, 264
-1.00562, 377, 81, 408, 208
-1.00564, 469, 81, 500, 208
-1.00566, 249, 81, 280, 208
-1.0057, 37, 81, 68, 208
-1.00572, 261, 81, 292, 208
-1.00574, 177, 97, 240, 352
-1.00578, 437, 81, 468, 208
-1.0058, 433, 97, 496, 352
-1.00583, 401, 113, 464, 176
-1.00591, 105, 81, 136, 208
-1.00594, 85, 81, 116, 208
-1.00594, 117, 81, 148, 208
-1.00594, 457, 225, 488, 352
-1.00599, 361, 153, 424, 216
-1.00599, 309, 81, 340, 208
-1.00602, 49, 81, 80, 208
-1.00602, 449, 81, 480, 208
-1.00606, 9, 73, 72, 136
-1.00607, 33, 129, 160, 256
-1.00607, 249, 177, 280, 304
-1.00613, 33, 73, 96, 136
-1.00615, 1, 33, 32, 160
-1.00618, 129, 1, 160, 128
-1.00619, 425, 233, 488, 296
-1.0062, 421, 81, 452, 208
-1.00624, 73, 185, 136, 248
-1.00624, 113, 185, 176, 248
-1.00626, 73, 81, 104, 208
-1.00629, 297, 113, 360, 176
-1.00629, 73, 73, 136, 136
-1.00637, 129, 97, 160, 224
-1.00638, 273, 129, 336, 192
-1.0064, 269, 161, 300, 288
-1.0064, 233, 81, 296, 208
-1.00645, 345, 113, 408, 176
-1.00645, 117, 33, 148, 160
-1.0065, 201, 105, 264, 168
-1.0065, 17, 217, 80, 280
-1.00652, 61, 81, 92, 208
-1.00652, 41, 225, 104, 288
-1.00654, 229, 177, 260, 304
-1.00656, 145, 225, 272, 352
-1.00666, 417, 81, 480, 208
-1.00666, 33, 161, 64, 288
-1.00672, 1, 81, 64, 208
-1.00673, 241, 105, 304, 168
-1.00673, 201, 201, 264, 264
-1.00675, 153, 105, 216, 168
-1.00676, 13, 161, 44, 288
-1.00677, 233, 169, 296, 232
-1.00679, 49, 177, 80, 304
-1.00679, 153, 97, 216, 352
-1.00682, 9, 185, 72, 248
-1.00685, 69, 177, 100, 304
-1.00687, 65, 225, 128, 288
-1.00689, 125, 177, 156, 304
-1.00689, 281, 145, 312, 272
-1.00694, 433, 161, 496, 224
-1.00696, 453, 177, 484, 304
-1.00696, 45, 33, 76, 160
-1.00698, 121, 1, 184, 128
-1.00698, 129, 217, 192, 280
-1.00699, 297, 129, 328, 256
-1.00703, 177, 217, 240, 280
-1.00707, 129, 289, 192, 352
-1.00708, 81, 177, 112, 304
-1.00711, 101, 33, 132, 160
-1.00711, 1, 209, 32, 336
-1.00712, 425, 113, 488, 176
-1.00712, 177, 193, 240, 256
-1.00712, 193, 177, 224, 304
-1.00713, 249, 161, 312, 288
-1.00714, 93, 161, 124, 288
-1.00717, 105, 209, 168, 272
-1.00717, 1, 145, 32, 272
-1.00718, 161, 129, 416, 256
-1.00719, 193, 169, 256, 232
-1.0072, 29, 33, 60, 160
-1.0072, 213, 177, 244, 304
-1.00721, 369, 113, 432, 176
-1.00724, 113, 209, 144, 336
-1.00725, 437, 193, 468, 320
-1.00726, 145, 161, 208, 224
-1.00727, 13, 209, 44, 336
-1.00732, 61, 33, 92, 160
-1.00732, 237, 225, 268, 352
-1.00733, 433, 201, 496, 264
-1.00735, 85, 33, 116, 160
-1.00737, 273, 105, 336, 168
-1.00738, 105, 161, 136, 288
-1.0074, 73, 81, 136, 208
-1.00741, 33, 209, 64, 336
-1.00744, 97, 225, 224, 352
-1.00745, 369, 1, 432, 64
-1.00747, 153, 297, 216, 360
-1.00747, 385, 81, 448, 208
-1.00749, 225, 305, 288, 368
-1.00749, 141, 177, 172, 304
-1.0075, 41, 81, 104, 208
-1.00752, 73, 33, 104, 160
-1.00755, 93, 209, 124, 336
-1.00757, 1, 241, 128, 368
-1.00758, 33, 161, 96, 224
-1.00758, 105, 161, 168, 224
-1.00763, 17, 33, 48, 160
-1.00767, 145, 241, 176, 368
-1.00767, 57, 161, 120, 224
-1.00769, 97, 81, 160, 208
-1.0077, 9, 153, 72, 216
-1.0077, 153, 209, 216, 272
-1.00775, 153, 177, 184, 304
-1.00778, 61, 129, 92, 256
-1.0079, 217, 129, 248, 256
-1.00796, 309, 129, 340, 256
-1.00797, 413, 129, 444, 256
-1.00802, 49, 129, 80, 256
-1.00802, 193, 129, 224, 256
-1.00804, 273, 145, 336, 272
-1.00806, 49, 225, 176, 352
-1.00811, 393, 129, 456, 256
-1.00829, 193, 129, 320, 256
-1.00877, 33, 33, 96, 160
-1.00891, 81, 129, 208, 256
-1.009, 65, 177, 128, 304
-1.00919, 121, 97, 184, 224
-1.00919, 25, 177, 88, 304
-1.00948, 73, 33, 136, 160
-1.00948, 209, 177, 272, 304
-1.00981, 113, 177, 176, 304
-1.00984, 225, 129, 288, 256
-1.00984, 1, 33, 64, 160
-1.00984, 185, 177, 248, 304
-1.01007, 1, 161, 64, 288
-1.01026, 89, 177, 152, 304
-1.01039, 145, 177, 208, 304
-1.01058, 361, 129, 424, 256
-1.01111, 33, 225, 96, 352
-1.0112, 1, 241, 64, 368
-1.0113, 185, 225, 248, 352
-1.01133, 129, 225, 192, 352
-1.01137, 153, 225, 216, 352
-1.01149, 57, 129, 120, 256
-1.01169, 81, 129, 144, 256
-1.01182, 25, 129, 88, 256
-1.01189, 73, 225, 136, 352
-1.01197, 433, 193, 496, 320
-1.01208, 209, 225, 272, 352
-1.01211, 177, 129, 240, 256
-1.01218, 105, 225, 168, 352
-1.0125, 425, 129, 488, 256
-1.01267, 153, 129, 216, 256
-1.01344, 201, 129, 264, 256
-1.04966, 1, 129, 256, 375
