1953
-0.494603, 1, 65, 500, 320
-0.549438, 1, 1, 500, 375
-0.676599, 161, 1, 416, 375
-0.697663, 65, 1, 320, 375
-0.753127, 161, 97, 416, 352
-0.75324, 1, 97, 256, 352
-0.79585, 257, 1, 500, 375
-0.869478, 257, 65, 500, 320
-0.880363, 49, 97, 176, 352
-0.883906, 65, 1, 320, 256
-0.904588, 129, 129, 256, 375
-0.909161, 1, 97, 500, 224
-0.910036, 193, 65, 320, 320
-0.911552, 161, 1, 288, 375
-0.911824, 81, 1, 208, 375
-0.912458, 289, 65, 416, 320
-0.914183, 113, 1, 240, 256
-0.91849, 257, 1, 384, 375
-0.921651, 241, 65, 368, 320
-0.925775, 1, 129, 128, 375
-0.927354, 369, 65, 496, 320
-0.928393, 33, 1, 160, 375
-0.93312, 1, 145, 500, 272
-0.933455, 369, 1, 496, 375
-0.936045, 161, 1, 416, 256
-0.936225, 225, 129, 480, 256
-0.940312, 321, 1, 448, 375
-0.942574, 209, 1, 336, 375
-0.943331, 1, 209, 500, 336
-0.943654, 97, 193, 352, 320
-0.944969, 97, 129, 352, 256
-0.945193, 1, 1, 128, 256
-0.945579, 225, 81, 480, 208
-0.946678, 1, 49, 500, 176
-0.948772, 1, 97, 256, 224
-0.949794, 241, 129, 368, 256
-0.94982, 225, 177, 480, 304
-0.950595, 1, 241, 256, 368
-0.953685, 49, 1, 176, 256
-0.954909, 145, 209, 208, 336
-0.95543, 321, 129, 384, 256
-0.956092, 345, 129, 408, 256
-0.957887, 289, 129, 416, 256
-0.958159, 369, 97, 496, 224
-0.959802, 129, 65, 384, 192
-0.961642, 129, 97, 256, 224
-0.961938, 289, 97, 352, 224
-0.962123, 241, 81, 368, 208
-0.962491, 321, 81, 448, 208
-0.963986, 313, 145, 376, 208
-0.965144, 177, 65, 304, 192
-0.965836, 33, 65, 160, 192
-0.966103, 1, 193, 256, 320
-0.966518, 353, 153, 416, 216
-0.966866, 97, 241, 352, 368
-0.966904, 297, 145, 360, 272
-0.967096, 209, 121, 272, 184
-0.967114, 433, 97, 496, 224
-0.967177, 361, 81, 424, 208
-0.967595, 145, 233, 208, 296
-0.967697, 177, 129, 304, 256
-0.967945, 393, 97, 456, 224
-0.968163, 273, 177, 336, 240
-0.968407, 265, 97, 328, 224
-0.968844, 81, 241, 208, 368
-0.968884, 305, 177, 432, 304
-0.968985, 121, 193, 184, 320
-0.96926, 361, 177, 424, 304
-0.969459, 137, 257, 200, 320
-0.96989, 217, 81, 280, 208
-0.970139, 161, 193, 288, 320
-0.9705, 33, 49, 288, 176
-0.971148, 129, 113, 192, 240
-0.971159, 353, 145, 480, 272
-0.97122, 257, 153, 320, 216
-0.971348, 353, 177, 416, 240
-0.971473, 81, 113, 208, 240
-0.971509, 281, 153, 344, 216
-0.971624, 121, 241, 184, 368
-0.97164, 233, 129, 296, 256
-0.971646, 337, 129, 400, 192
-0.972023, 169, 129, 232, 256
-0.972275, 241, 177, 368, 304
-0.972377, 25, 97, 88, 224
-0.972566, 209, 145, 272, 208
-0.972717, 289, 113, 352, 176
-0.972776, 153, 81, 216, 208
-0.972792, 329, 81, 392, 208
-0.972946, 369, 129, 432, 256
-0.973085, 81, 193, 208, 320
-0.973209, 313, 177, 376, 240
-0.973422, 145, 209, 208, 272
-0.974144, 157, 193, 188, 320
-0.974274, 185, 105, 248, 168
-0.974343, 113, 105, 176, 168
-0.974402, 217, 81, 280, 144
-0.974494, 81, 105, 144, 168
-0.974594, 393, 153, 456, 216
-0.974656, 129, 241, 256, 368
-0.974933, 33, 105, 96, 168
-0.975336, 113, 97, 176, 352
-0.975389, 1, 121, 64, 184
-0.975428, 49, 97, 112, 224
-0.975433, 393, 145, 456, 272
-0.975606, 1, 113, 128, 240
-0.975635, 289, 153, 416, 216
-0.976058, 273, 145, 336, 272
-0.976065, 241, 121, 304, 184
-0.976198, 193, 225, 448, 352
-0.976249, 241, 65, 304, 192
-0.97648, 257, 177, 384, 240
-0.976571, 193, 81, 256, 208
-0.976719, 157, 193, 188, 256
-0.976777, 337, 177, 400, 304
-0.976882, 89, 65, 152, 192
-0.976912, 369, 129, 432, 192
-0.977367, 89, 129, 152, 192
-0.978577, 1, 105, 128, 168
-0.979602, 161, 137, 224, 200
-0.979648, 129, 49, 256, 176
-0.979751, 193, 145, 320, 208
-0.979926, 241, 153, 368, 216
-0.980068, 361, 145, 392, 208
-0.980096, 57, 105, 120, 168
-0.980146, 265, 121, 328, 184
-0.980291, 153, 233, 184, 296
-0.98031, 161, 113, 224, 176
-0.980331, 161, 129, 224, 375
-0.980359, 81, 65, 208, 192
-0.980523, 169, 177, 232, 304
-0.98077, 257, 97, 320, 160
-0.980827, 381, 177, 412, 240
-0.980971, 129, 145, 256, 272
-0.98106, 105, 129, 168, 256
-0.981097, 241, 113, 368, 176
-0.981382, 305, 177, 432, 240
-0.981392, 121, 233, 184, 296
-0.981577, 201, 129, 264, 256
-0.981786, 333, 145, 364, 208
-0.981796, 313, 121, 376, 184
-0.981937, 377, 177, 440, 240
-0.98201, 121, 209, 184, 272
-0.982095, 381, 129, 412, 256
-0.98236, 321, 129, 448, 192
-0.982372, 321, 145, 352, 208
-0.98242, 193, 121, 320, 184
-0.982493, 145, 209, 176, 336
-0.982598, 137, 113, 200, 176
-0.982622, 113, 105, 240, 168
-0.982631, 433, 113, 496, 176
-0.982681, 233, 153, 296, 216
-0.9827, 369, 145, 400, 272
-0.982726, 185, 137, 248, 200
-0.982785, 113, 137, 240, 200
-0.982851, 169, 225, 232, 288
-0.983143, 149, 257, 180, 320
-0.983145, 1, 145, 256, 272
-0.983233, 369, 161, 496, 224
-0.983353, 81, 265, 208, 328
-0.983525, 13, 121, 44, 184
-0.983529, 153, 281, 216, 344
-0.983572, 417, 137, 480, 200
-0.983622, 373, 153, 404, 216
-0.983792, 301, 153, 332, 216
-0.983885, 113, 105, 144, 168
-0.983971, 353, 209, 416, 272
-0.984116, 169, 193, 200, 320
-0.984122, 105, 265, 168, 328
-0.984149, 349, 145, 380, 272
-0.98417, 161, 193, 288, 256
-0.984196, 193, 137, 224, 200
-0.984285, 89, 105, 120, 168
-0.984295, 401, 105, 464, 168
-0.984302, 329, 129, 360, 256
-0.984304, 213, 137, 244, 200
-0.984319, 249, 177, 312, 240
-0.984327, 65, 105, 192, 168
-0.98445, 369, 49, 496, 176
-0.984493, 369, 137, 496, 200
-0.984595, 49, 129, 176, 192
-0.984722, 433, 145, 496, 272
-0.9848, 129, 137, 192, 200
-0.984817, 349, 137, 380, 200
-0.98489, 285, 153, 316, 216
-0.985017, 465, 97, 496, 224
-0.985121, 225, 193, 288, 256
-0.98521, 89, 97, 152, 352
-0.985236, 281, 97, 312, 224
-0.98527, 1, 121, 32, 184
-0.985482, 241, 177, 304, 304
-0.985487, 1, 97, 64, 224
-0.985511, 257, 201, 320, 264
-0.985622, 169, 177, 232, 240
-0.985741, 369, 113, 496, 176
-0.985744, 129, 65, 192, 192
-0.985914, 1, 129, 128, 192
-0.985916, 261, 129, 292, 256
-0.985924, 301, 177, 332, 240
-0.985962, 193, 89, 320, 152
-0.985985, 217, 65, 280, 320
-0.985996, 169, 225, 232, 352
-0.986029, 245, 65, 276, 192
-0.986223, 249, 65, 312, 320
-0.986403, 185, 97, 248, 352
-0.986422, 193, 81, 256, 144
-0.986436, 313, 209, 376, 336
-0.98646, 129, 233, 256, 296
-0.986573, 65, 81, 128, 144
-0.986633, 137, 97, 200, 352
-0.986809, 301, 129, 332, 256
-0.98686, 313, 97, 344, 224
-0.986899, 17, 225, 144, 352
-0.986911, 329, 209, 392, 272
-0.98728, 209, 193, 336, 256
-0.987308, 129, 257, 256, 320
-0.987361, 353, 89, 480, 152
-0.987563, 249, 121, 280, 184
-0.98757, 125, 97, 156, 224
-0.987768, 225, 121, 256, 184
-0.987803, 69, 81, 100, 208
-0.98785, 361, 89, 424, 152
-0.987928, 405, 161, 436, 224
-0.987946, 289, 89, 352, 152
-0.987974, 397, 113, 428, 240
-0.988101, 245, 81, 276, 144
-0.988132, 433, 89, 496, 152
-0.988149, 361, 177, 392, 240
-0.988211, 169, 225, 200, 288
-0.988238, 81, 209, 208, 272
-0.988307, 353, 65, 416, 320
-0.988371, 245, 129, 276, 256
-0.988377, 225, 33, 480, 160
-0.98841, 65, 137, 128, 200
-0.98846, 297, 81, 328, 208
-0.988462, 257, 89, 288, 152
-0.988475, 289, 49, 352, 176
-0.988485, 9, 289, 72, 352
-0.988491, 57, 97, 88, 224
-0.988524, 137, 257, 168, 320
-0.988547, 329, 113, 360, 176
-0.988582, 161, 33, 224, 288
-0.988734, 305, 209, 432, 272
-0.988745, 417, 161, 480, 224
-0.988754, 205, 113, 236, 176
-0.988783, 353, 97, 384, 224
-0.98883, 341, 97, 372, 224
-0.988831, 101, 105, 132, 168
-0.988874, 289, 201, 352, 264
-0.988899, 185, 305, 248, 368
-0.988976, 69, 113, 100, 176
-0.988992, 349, 169, 380, 232
-0.989002, 81, 241, 208, 304
-0.989008, 337, 105, 400, 168
-0.989095, 305, 33, 432, 160
-0.989161, 289, 209, 352, 336
-0.989206, 129, 297, 256, 360
-0.989229, 317, 177, 348, 240
-0.989238, 273, 65, 336, 320
-0.989375, 317, 145, 348, 272
-0.989379, 329, 65, 392, 320
-0.989401, 237, 121, 268, 184
-0.989401, 277, 177, 308, 240
-0.989457, 141, 97, 172, 224
-0.989513, 453, 97, 484, 224
-0.989523, 409, 81, 440, 208
-0.989525, 65, 49, 128, 176
-0.989551, 25, 121, 56, 184
-0.989565, 161, 169, 288, 232
-0.989573, 113, 1, 176, 375
-0.98959, 9, 97, 72, 160
-0.98966, 97, 241, 160, 368
-0.989686, 373, 129, 404, 192
-0.989719, 385, 81, 416, 208
-0.989788, 401, 137, 432, 200
-0.989831, 241, 89, 368, 152
-0.98985, 265, 177, 296, 240
-0.989863, 41, 281, 104, 344
-0.989983, 297, 65, 360, 320
-0.990059, 353, 105, 384, 168
-0.990109, 337, 177, 368, 240
-0.990115, 65, 129, 128, 375
-0.990128, 37, 105, 68, 168
-0.990132, 145, 81, 272, 144
-0.990178, 109, 129, 140, 192
-0.990202, 137, 105, 168, 168
-0.990207, 125, 105, 156, 168
-0.990254, 305, 89, 432, 152
-0.990299, 25, 129, 88, 192
-0.990322, 381, 177, 412, 304
-0.990343, 65, 81, 192, 144
-0.990353, 209, 177, 272, 304
-0.990367, 169, 201, 232, 264
-0.990372, 273, 153, 304, 216
-0.990484, 365, 81, 396, 208
-0.990488, 193, 169, 256, 232
-0.990513, 33, 281, 160, 344
-0.990532, 121, 129, 152, 192
-0.990557, 285, 145, 316, 272
-0.990576, 145, 229, 208, 260
-0.990659, 169, 257, 200, 320
-0.990667, 257, 201, 384, 264
-0.990685, 145, 217, 208, 248
-0.990689, 257, 81, 288, 208
-0.990761, 17, 49, 80, 176
-0.990784, 201, 145, 264, 176
-0.990789, 289, 177, 320, 240
-0.990831, 133, 241, 164, 368
-0.990834, 269, 121, 300, 184
-0.990861, 301, 129, 332, 192
-0.990863, 257, 153, 288, 216
-0.990867, 393, 129, 456, 192
-0.990912, 369, 185, 496, 248
-0.990922, 345, 173, 408, 204
-0.990936, 73, 113, 136, 240
-0.990975, 469, 121, 500, 184
-0.991, 153, 205, 216, 236
-0.99103, 177, 241, 304, 368
-0.991052, 209, 125, 272, 156
-0.991054, 281, 153, 344, 184
-0.9911, 433, 49, 496, 176
-0.991105, 145, 249, 208, 280
-0.991112, 289, 173, 352, 204
-0.99117, 265, 49, 328, 176
-0.99117, 385, 161, 448, 192
-0.991174, 145, 161, 208, 288
-0.991195, 229, 145, 260, 208
-0.991201, 193, 129, 224, 256
-0.991222, 289, 129, 320, 192
-0.991226, 137, 261, 200, 292
-0.991297, 233, 125, 296, 156
-0.991303, 265, 209, 328, 336
-0.991321, 169, 1, 232, 375
-0.991384, 97, 65, 128, 192
-0.991393, 121, 245, 184, 276
-0.991394, 89, 133, 152, 164
-0.991398, 97, 129, 128, 192
-0.9914, 57, 105, 120, 136
-0.99142, 137, 273, 200, 304
-0.991442, 441, 97, 472, 224
-0.991487, 113, 105, 176, 136
-0.991495, 297, 117, 360, 148
-0.991502, 241, 161, 304, 192
-0.991504, 225, 225, 352, 352
-0.991536, 33, 113, 96, 144
-0.991555, 233, 205, 296, 236
-0.991583, 233, 217, 296, 280
-0.991587, 209, 161, 240, 224
-0.991598, 81, 101, 144, 132
-0.991598, 225, 177, 480, 240
-0.991641, 345, 153, 408, 184
-0.991658, 265, 109, 328, 140
-0.991663, 353, 185, 416, 216
-0.991669, 377, 201, 440, 264
-0.991673, 165, 241, 196, 368
-0.991719, 417, 149, 480, 180
-0.991733, 73, 145, 136, 176
-0.991734, 377, 149, 440, 180
-0.991739, 137, 145, 168, 272
-0.991739, 233, 113, 296, 144
-0.991749, 409, 81, 472, 144
-0.991755, 313, 153, 376, 184
-0.991764, 197, 81, 228, 208
-0.99177, 249, 145, 312, 176
-0.991773, 1, 129, 64, 160
-0.991784, 129, 201, 192, 232
-0.9918, 265, 201, 296, 264
-0.991807, 97, 193, 160, 320
-0.991808, 317, 113, 348, 176
-0.99185, 233, 129, 264, 256
-0.991852, 257, 205, 320, 236
-0.991864, 81, 117, 144, 148
-0.991895, 113, 125, 176, 156
-0.991903, 97, 241, 160, 304
-0.991921, 265, 173, 328, 204
-0.991935, 153, 129, 184, 256
-0.99195, 177, 141, 240, 172
-0.991972, 49, 241, 112, 368
-0.991993, 341, 113, 372, 176
-0.992001, 217, 165, 280, 196
-0.992005, 385, 137, 416, 200
-0.992037, 377, 65, 440, 320
-0.992043, 193, 113, 224, 176
-0.99205, 313, 137, 376, 168
-0.992054, 185, 113, 248, 144
-0.992061, 121, 233, 184, 264
-0.99208, 217, 85, 280, 116
-0.992085, 177, 129, 208, 256
-0.992107, 249, 73, 312, 136
-0.992123, 313, 173, 376, 204
-0.992136, 81, 65, 112, 192
-0.992145, 393, 49, 456, 176
-0.992158, 153, 129, 216, 160
-0.992159, 337, 137, 400, 168
-0.992167, 73, 89, 104, 152
-0.992182, 361, 201, 424, 232
-0.992204, 325, 81, 356, 208
-0.992204, 121, 221, 184, 252
-0.992223, 185, 125, 248, 156
-0.992238, 9, 141, 72, 172
-0.99224, 9, 117, 72, 148
-0.99225, 365, 193, 396, 320
-0.99226, 209, 81, 240, 208
-0.992274, 273, 189, 336, 220
-0.992286, 337, 205, 400, 236
-0.992296, 97, 81, 160, 144
-0.992299, 361, 89, 424, 120
-0.992326, 209, 109, 272, 140
-0.992327, 433, 117, 496, 148
-0.992339, 145, 285, 208, 316
-0.99236, 41, 129, 104, 160
-0.992361, 137, 97, 200, 128
-0.992372, 65, 1, 128, 375
-0.992388, 241, 217, 304, 248
-0.992413, 65, 129, 128, 160
-0.992424, 157, 209, 188, 240
-0.992431, 257, 125, 320, 156
-0.992461, 177, 273, 304, 336
-0.992463, 169, 225, 232, 256
-0.992475, 153, 89, 216, 152
-0.992486, 233, 189, 296, 220
-0.992521, 113, 269, 176, 300
-0.99253, 233, 345, 296, 375
-0.992538, 57, 117, 120, 148
-0.992552, 417, 161, 480, 192
-0.992574, 153, 249, 184, 280
-0.992581, 129, 185, 192, 248
-0.992582, 89, 1, 152, 375
-0.992589, 161, 101, 224, 132
-0.992597, 433, 105, 496, 136
-0.992598, 273, 141, 336, 172
-0.992601, 401, 109, 464, 140
-0.99262, 153, 221, 184, 252
-0.992632, 209, 217, 336, 280
-0.992635, 185, 93, 248, 124
-0.992639, 297, 105, 360, 136
-0.992653, 209, 197, 272, 228
-0.992657, 361, 133, 424, 164
-0.99267, 169, 201, 200, 264
-0.992674, 113, 137, 176, 168
-0.992679, 313, 185, 376, 216
-0.992688, 153, 237, 184, 268
-0.992692, 249, 1, 312, 375
-0.992721, 149, 265, 180, 296
-0.992721, 313, 209, 376, 240
-0.992726, 225, 149, 288, 180
-0.992726, 113, 65, 144, 192
-0.99273, 41, 289, 104, 320
-0.992738, 249, 97, 312, 128
-0.992745, 277, 201, 308, 264
-0.992751, 13, 97, 44, 160
-0.992778, 161, 261, 224, 292
-0.992797, 113, 257, 176, 288
-0.992803, 361, 213, 424, 244
-0.992827, 169, 281, 200, 344
-0.992827, 161, 113, 224, 144
-0.992857, 145, 141, 208, 172
-0.992863, 13, 125, 44, 156
-0.992872, 377, 185, 440, 216
-0.992872, 169, 301, 232, 332
-0.992879, 425, 65, 488, 320
-0.992882, 225, 153, 480, 216
-0.992908, 169, 193, 232, 224
-0.992912, 273, 221, 336, 252
-0.992926, 297, 173, 328, 204
-0.992939, 157, 197, 188, 228
-0.99294, 209, 209, 272, 240
-0.992942, 25, 101, 88, 132
-0.992944, 417, 145, 448, 208
-0.992948, 297, 221, 360, 252
-0.992948, 97, 281, 160, 312
-0.992954, 225, 137, 288, 168
-0.992956, 361, 121, 424, 152
-0.992965, 201, 141, 232, 172
-0.992971, 109, 129, 140, 160
-0.992973, 321, 113, 384, 144
-0.99301, 353, 193, 480, 320
-0.993011, 253, 193, 284, 256
-0.993013, 261, 205, 292, 236
-0.99302, 57, 93, 120, 124
-0.993024, 221, 145, 252, 176
-0.993024, 17, 81, 144, 144
-0.99303, 273, 145, 304, 272
-0.993031, 49, 145, 112, 176
-0.993033, 225, 81, 256, 144
-0.993045, 449, 113, 480, 176
-0.993048, 281, 205, 344, 236
-0.993062, 177, 105, 208, 168
-0.993062, 385, 201, 448, 232
-0.993065, 61, 109, 92, 140
-0.99307, 365, 153, 396, 184
-0.993073, 337, 221, 400, 252
-0.99308, 237, 125, 268, 156
-0.993082, 213, 161, 244, 192
-0.993083, 417, 89, 480, 120
-0.993084, 89, 129, 120, 160
-0.99309, 117, 105, 148, 136
-0.99309, 281, 109, 312, 140
-0.993099, 137, 269, 168, 300
-0.993101, 277, 161, 308, 192
-0.993106, 377, 173, 408, 204
-0.993107, 233, 145, 264, 176
-0.993133, 201, 157, 232, 188
-0.993133, 193, 177, 256, 208
-0.993138, 1, 129, 32, 160
-0.993139, 109, 117, 140, 148
-0.993139, 225, 33, 352, 160
-0.99314, 353, 101, 416, 132
-0.993141, 185, 317, 248, 348
-0.993141, 273, 97, 336, 128
-0.993144, 369, 201, 400, 232
-0.993152, 41, 81, 104, 144
-0.993153, 245, 113, 276, 144
-0.993153, 1, 289, 64, 320
-0.99316, 245, 161, 276, 224
-0.993164, 49, 105, 80, 136
-0.993181, 225, 97, 288, 128
-0.993181, 233, 65, 264, 192
-0.993191, 321, 173, 352, 204
-0.993192, 385, 97, 448, 128
-0.993195, 89, 141, 120, 172
-0.993209, 125, 141, 156, 172
-0.99321, 389, 149, 420, 180
-0.993211, 209, 333, 272, 364
-0.993214, 289, 153, 320, 184
-0.993217, 153, 277, 184, 308
-0.99322, 309, 173, 340, 204
-0.993224, 177, 157, 240, 188
-0.993247, 385, 185, 416, 216
-0.993252, 113, 89, 176, 120
-0.993253, 385, 133, 448, 164
-0.993253, 337, 133, 368, 164
-0.993256, 417, 137, 480, 168
-0.993256, 261, 125, 292, 156
-0.993257, 401, 145, 432, 176
-0.993259, 281, 173, 312, 204
-0.993261, 169, 233, 200, 264
-0.993262, 377, 157, 408, 188
-0.99327, 237, 197, 268, 228
-0.993273, 97, 117, 128, 148
-0.993278, 301, 117, 332, 148
-0.993281, 173, 217, 204, 248
-0.993281, 73, 285, 136, 316
-0.993282, 317, 153, 348, 184
-0.993282, 225, 125, 256, 156
-0.993283, 169, 197, 200, 228
-0.993286, 45, 97, 76, 224
-0.993286, 417, 153, 448, 184
-0.993291, 261, 161, 292, 192
-0.993295, 169, 245, 200, 276
-0.993295, 301, 153, 332, 184
-0.993299, 201, 169, 232, 200
-0.993305, 129, 105, 160, 136
-0.993306, 133, 129, 164, 160
-0.993307, 105, 97, 136, 128
-0.993314, 121, 129, 152, 160
-0.993315, 221, 109, 252, 140
-0.993315, 269, 149, 300, 180
-0.993316, 345, 169, 376, 200
-0.993317, 273, 205, 304, 236
-0.993321, 81, 89, 144, 120
-0.993322, 353, 153, 384, 184
-0.993324, 169, 181, 232, 212
-0.993331, 333, 173, 364, 204
-0.993337, 73, 137, 104, 168
-0.993338, 281, 185, 312, 216
-0.993338, 1, 105, 256, 168
-0.993338, 85, 101, 116, 132
-0.993342, 289, 129, 352, 160
-0.993344, 385, 205, 416, 236
-0.993344, 257, 149, 288, 180
-0.993345, 169, 261, 200, 292
-0.993346, 133, 241, 164, 272
-0.993348, 217, 129, 248, 256
-0.993352, 333, 153, 364, 184
-0.993355, 213, 125, 244, 156
-0.993364, 329, 101, 392, 132
-0.993369, 49, 117, 80, 148
-0.993369, 1, 141, 32, 172
-0.993369, 361, 213, 392, 244
-0.993371, 249, 205, 280, 236
-0.993373, 361, 169, 392, 200
-0.993374, 185, 285, 248, 316
-0.993374, 249, 129, 280, 160
-0.993379, 381, 133, 412, 164
-0.99338, 245, 85, 276, 116
-0.993385, 57, 105, 88, 168
-0.993389, 37, 113, 68, 144
-0.993395, 321, 113, 352, 144
-0.993397, 69, 97, 100, 128
-0.9934, 257, 113, 288, 144
-0.993403, 353, 133, 384, 164
-0.993404, 189, 145, 220, 176
-0.993407, 469, 121, 500, 152
-0.99341, 169, 237, 232, 268
-0.993414, 169, 281, 200, 312
-0.993419, 121, 117, 152, 148
-0.993422, 281, 141, 312, 172
-0.993426, 141, 281, 172, 312
-0.993427, 249, 165, 280, 196
-0.993439, 273, 225, 400, 352
-0.993442, 373, 213, 404, 244
-0.993443, 401, 161, 432, 192
-0.993447, 161, 85, 224, 116
-0.993449, 369, 189, 400, 220
-0.993453, 25, 125, 56, 156
-0.993455, 449, 149, 480, 180
-0.993468, 145, 1, 208, 375
-0.993469, 305, 189, 336, 220
-0.99347, 377, 85, 408, 116
-0.99347, 341, 189, 372, 220
-0.993474, 233, 113, 264, 144
-0.993475, 389, 161, 420, 192
-0.993475, 469, 145, 500, 176
-0.993476, 73, 113, 104, 144
-0.99348, 341, 117, 372, 148
-0.993481, 101, 145, 132, 176
-0.993483, 369, 133, 400, 164
-0.993484, 201, 221, 264, 252
-0.993484, 209, 1, 272, 375
-0.993485, 389, 121, 420, 152
-0.993485, 349, 205, 380, 236
-0.993488, 125, 281, 156, 312
-0.993489, 141, 105, 172, 136
-0.993491, 393, 173, 456, 204
-0.993497, 305, 221, 336, 252
-0.993498, 13, 145, 44, 176
-0.993502, 137, 257, 168, 288
-0.993503, 261, 97, 292, 128
-0.993504, 205, 93, 236, 124
-0.993514, 317, 137, 348, 168
-0.993516, 197, 129, 228, 160
-0.993516, 265, 189, 296, 220
-0.99352, 369, 173, 432, 204
-0.99352, 205, 313, 236, 344
-0.993521, 29, 137, 60, 168
-0.993525, 249, 193, 280, 224
-0.993529, 273, 121, 304, 152
-0.993531, 261, 217, 292, 248
-0.993532, 293, 189, 324, 220
-0.993537, 241, 177, 304, 208
-0.993539, 189, 105, 220, 136
-0.99354, 305, 105, 336, 136
-0.993542, 145, 141, 176, 172
-0.993558, 201, 193, 264, 256
-0.993559, 209, 301, 272, 332
-0.993562, 329, 125, 392, 156
-0.993586, 137, 233, 168, 296
-0.993591, 281, 97, 312, 160
-0.993624, 313, 97, 376, 160
-0.993629, 461, 145, 492, 272
-0.993656, 129, 81, 192, 144
-0.993674, 197, 161, 228, 224
-0.993674, 369, 209, 400, 272
-0.993674, 161, 113, 416, 176
-0.993718, 333, 177, 364, 304
-0.993732, 269, 81, 300, 208
-0.99379, 129, 281, 192, 344
-0.993838, 89, 1, 152, 256
-0.993905, 385, 1, 448, 375
-0.994027, 225, 305, 352, 368
-0.994038, 269, 97, 300, 160
-0.99404, 41, 97, 104, 352
-0.994049, 353, 193, 384, 320
-0.994073, 33, 249, 160, 312
-0.99408, 209, 313, 272, 375
-0.994098, 245, 177, 276, 304
-0.994112, 137, 1, 200, 256
-0.994144, 401, 65, 464, 320
-0.994146, 145, 209, 176, 272
-0.994158, 1, 265, 64, 328
-0.994161, 65, 281, 128, 344
-0.99417, 185, 1, 248, 256
-0.994227, 1, 129, 64, 375
-0.994262, 241, 193, 272, 256
-0.994284, 1, 241, 64, 368
-0.994339, 81, 129, 112, 192
-0.994376, 421, 97, 452, 224
-0.994377, 273, 1, 336, 375
-0.994441, 13, 145, 44, 208
-0.994526, 97, 145, 352, 208
-0.99453, 465, 161, 496, 224
-0.99453, 81, 289, 208, 352
-0.994534, 97, 209, 352, 272
-0.994537, 193, 265, 256, 328
-0.99455, 133, 129, 164, 192
-0.994612, 1, 121, 500, 184
-0.994633, 349, 193, 380, 256
-0.994657, 289, 173, 416, 204
-0.994738, 41, 1, 104, 375
-0.994768, 409, 97, 440, 160
-0.994786, 97, 89, 352, 152
-0.994811, 213, 81, 244, 144
-0.994893, 217, 225, 280, 352
-0.994919, 167, 193, 182, 256
-0.99493, 1, 281, 256, 344
-0.994933, 165, 97, 196, 160
-0.994943, 49, 257, 112, 320
-0.995029, 337, 1, 400, 375
-0.995054, 73, 241, 136, 368
-0.995068, 389, 113, 420, 176
-0.995072, 149, 97, 180, 160
-0.995079, 41, 49, 104, 176
-0.995088, 29, 97, 60, 224
-0.99516, 221, 81, 252, 208
-0.995163, 25, 225, 88, 352
-0.995169, 25, 257, 88, 320
-0.995217, 213, 313, 244, 375
-0.995227, 161, 257, 224, 320
-0.995238, 129, 185, 384, 248
-0.995279, 177, 305, 304, 368
-0.995327, 393, 177, 424, 240
-0.995386, 1, 145, 64, 208
-0.995414, 273, 153, 400, 184
-0.99542, 105, 81, 136, 144
-0.99543, 449, 145, 480, 272
-0.99543, 193, 161, 320, 192
-0.995443, 465, 97, 496, 160
-0.99549, 1, 97, 32, 224
-0.99551, 157, 81, 188, 208
-0.995549, 233, 177, 264, 304
-0.995559, 113, 1, 176, 256
-0.995563, 315, 153, 330, 216
-0.995576, 309, 153, 324, 216
-0.995581, 371, 145, 386, 208
-0.995602, 425, 1, 488, 375
-0.995617, 1, 133, 128, 164
-0.995634, 325, 153, 340, 216
-0.995648, 385, 201, 416, 264
-0.995654, 1, 145, 500, 208
-0.995717, 181, 289, 212, 352
-0.995719, 329, 217, 360, 280
-0.995726, 305, 105, 336, 168
-0.995737, 385, 81, 448, 144
-0.995745, 49, 185, 176, 248
-0.99578, 159, 209, 174, 272
-0.995782, 17, 113, 144, 144
-0.995793, 321, 209, 352, 336
-0.995806, 81, 113, 112, 240
-0.995877, 377, 145, 392, 208
-0.995889, 217, 137, 232, 200
-0.995892, 151, 257, 166, 320
-0.995911, 257, 121, 500, 184
-0.995925, 133, 49, 164, 176
-0.995943, 353, 209, 480, 272
-0.995983, 13, 97, 44, 224
-0.995995, 365, 145, 380, 208
-0.995998, 257, 97, 500, 160
-0.996007, 23, 121, 38, 184
-0.996007, 13, 289, 44, 352
-0.996023, 241, 117, 368, 148
-0.996035, 303, 153, 318, 216
-0.996066, 65, 1, 128, 256
-0.996069, 257, 65, 384, 128
-0.99607, 81, 129, 208, 160
-0.996103, 193, 305, 224, 368
-0.996169, 353, 145, 368, 208
-0.996202, 1, 177, 500, 240
-0.996202, 331, 145, 346, 208
-0.996203, 177, 145, 304, 176
-0.996208, 297, 153, 312, 216
-0.996211, 395, 177, 410, 240
-0.996216, 409, 129, 440, 256
-0.996223, 339, 145, 354, 208
-0.996232, 173, 233, 188, 296
-0.996248, 261, 177, 292, 304
-0.996265, 369, 161, 496, 192
-0.996272, 449, 137, 480, 200
-0.996279, 383, 169, 398, 232
-0.996287, 81, 277, 208, 308
-0.996297, 209, 289, 272, 352
-0.996298, 17, 121, 32, 184
-0.996312, 113, 105, 240, 136
-0.996358, 161, 209, 288, 240
-0.99636, 127, 105, 142, 168
-0.996372, 1, 129, 256, 192
-0.996376, 297, 1, 360, 375
-0.996381, 301, 177, 332, 304
-0.996384, 105, 105, 120, 168
-0.996426, 203, 137, 218, 200
-0.996427, 359, 145, 374, 208
-0.996437, 1, 225, 256, 288
-0.996448, 129, 141, 256, 172
-0.996458, 289, 189, 416, 220
-0.996465, 133, 193, 164, 320
-0.996468, 121, 241, 152, 368
-0.996472, 181, 81, 212, 208
-0.996509, 345, 145, 360, 208
-0.996516, 337, 81, 400, 144
-0.996517, 45, 49, 76, 176
-0.996524, 97, 233, 352, 296
-0.996526, 317, 177, 332, 240
-0.996539, 193, 225, 224, 352
-0.996572, 1, 249, 256, 312
-0.996583, 211, 137, 226, 200
-0.996588, 113, 161, 240, 224
-0.99659, 225, 201, 480, 264
-0.996599, 365, 97, 396, 160
-0.996608, 301, 177, 316, 240
-0.996615, 65, 105, 192, 136
-0.996634, 257, 225, 384, 288
-0.99666, 153, 281, 184, 344
-0.996668, 209, 33, 272, 160
-0.996669, 369, 149, 496, 180
-0.996671, 335, 105, 350, 168
-0.996694, 163, 249, 178, 312
-0.996701, 5, 121, 20, 184
-0.996706, 119, 105, 134, 168
-0.996721, 133, 97, 164, 352
-0.996743, 73, 257, 136, 320
-0.996762, 17, 1, 80, 375
-0.996765, 49, 141, 176, 172
-0.996777, 173, 193, 188, 256
-0.996797, 205, 161, 236, 288
-0.996805, 321, 153, 448, 184
-0.99681, 393, 177, 424, 304
-0.996812, 403, 137, 418, 200
-0.996818, 133, 105, 148, 168
-0.996822, 279, 177, 294, 240
-0.99684, 239, 113, 254, 176
-0.996845, 201, 81, 232, 144
-0.996845, 293, 105, 324, 168
-0.99686, 81, 117, 208, 148
-0.996869, 125, 249, 156, 312
-0.996873, 129, 261, 256, 292
-0.996874, 361, 1, 424, 375
-0.996875, 145, 121, 272, 152
-0.996891, 389, 153, 404, 216
-0.996897, 307, 177, 322, 240
-0.996904, 193, 241, 256, 368
-0.996905, 97, 257, 352, 320
-0.996921, 369, 177, 384, 240
-0.996927, 113, 105, 128, 168
-0.996971, 227, 121, 242, 184
-0.996991, 437, 113, 468, 176
-0.996996, 1, 97, 500, 160
-0.997002, 353, 121, 368, 184
-0.997003, 323, 177, 338, 240
-0.997012, 289, 201, 416, 232
-0.997012, 283, 153, 298, 216
-0.997016, 341, 217, 372, 280
-0.997023, 375, 185, 390, 248
-0.997029, 233, 297, 296, 360
-0.997039, 129, 225, 256, 256
-0.997044, 241, 177, 368, 208
-0.997046, 133, 129, 148, 192
-0.997053, 291, 153, 306, 216
-0.997109, 95, 105, 110, 168
-0.99711, 161, 305, 224, 368
-0.997114, 111, 129, 126, 192
-0.997121, 271, 153, 286, 216
-0.99713, 369, 121, 384, 184
-0.99714, 221, 113, 236, 176
-0.997149, 181, 137, 212, 200
-0.997149, 429, 145, 460, 208
-0.997153, 229, 193, 260, 256
-0.997173, 151, 233, 166, 296
-0.997176, 277, 153, 292, 216
-0.997177, 213, 161, 228, 224
-0.99718, 149, 129, 180, 192
-0.997196, 11, 121, 26, 184
-0.997199, 33, 93, 160, 124
-0.997199, 145, 265, 160, 328
-0.997237, 259, 121, 274, 184
-0.997252, 129, 17, 384, 144
-0.997263, 29, 297, 60, 360
-0.997267, 355, 169, 370, 232
-0.997268, 33, 285, 160, 316
-0.997269, 241, 205, 368, 236
-0.997271, 1, 201, 256, 264
-0.997279, 29, 121, 44, 184
-0.997282, 383, 145, 398, 208
-0.99729, 313, 49, 344, 176
-0.997293, 105, 129, 120, 192
-0.9973, 173, 177, 204, 240
-0.997304, 485, 121, 500, 184
-0.997306, 225, 189, 352, 220
-0.997328, 281, 105, 296, 168
-0.997328, 331, 177, 346, 240
-0.997335, 247, 121, 262, 184
-0.997348, 295, 185, 310, 248
-0.997358, 301, 129, 316, 192
-0.997365, 287, 177, 302, 240
-0.99737, 363, 177, 378, 240
-0.997391, 55, 113, 70, 176
-0.997396, 263, 89, 278, 152
-0.997397, 317, 201, 348, 264
-0.997399, 213, 157, 228, 188
-0.9974, 125, 273, 156, 336
-0.997411, 271, 177, 286, 240
-0.997415, 225, 141, 352, 172
-0.997416, 233, 121, 248, 184
-0.997416, 161, 197, 288, 228
-0.997419, 349, 177, 364, 240
-0.997423, 269, 97, 284, 160
-0.997428, 305, 201, 336, 264
-0.997434, 419, 137, 434, 200
-0.997434, 275, 121, 290, 184
-0.997442, 223, 145, 238, 208
-0.997444, 169, 197, 184, 228
-0.997455, 381, 121, 396, 184
-0.997459, 213, 113, 228, 176
-0.997474, 141, 105, 156, 168
-0.997482, 305, 213, 432, 244
-0.997487, 397, 153, 412, 216
-0.997488, 407, 161, 422, 224
-0.99749, 71, 105, 86, 168
-0.997492, 389, 177, 404, 240
-0.997494, 281, 201, 296, 264
-0.997496, 253, 121, 268, 184
-0.997498, 207, 113, 222, 176
-0.9975, 329, 105, 344, 168
-0.997503, 119, 129, 134, 192
-0.997503, 309, 129, 324, 192
-0.997508, 177, 109, 304, 140
-0.997514, 257, 81, 272, 144
-0.997516, 63, 105, 78, 168
-0.997519, 177, 249, 304, 312
-0.997519, 257, 105, 384, 136
-0.997525, 347, 113, 362, 176
-0.997535, 251, 81, 266, 144
-0.997536, 83, 113, 98, 176
-0.997536, 197, 137, 212, 200
-0.997537, 305, 133, 432, 164
-0.997547, 81, 253, 208, 284
-0.99755, 259, 193, 274, 256
-0.997556, 227, 97, 242, 160
-0.997566, 125, 129, 140, 192
-0.997575, 193, 125, 320, 156
-0.997589, 1, 265, 500, 328
-0.997596, 453, 89, 484, 152
-0.997627, 209, 65, 336, 128
-0.997634, 375, 121, 390, 184
-0.997635, 341, 113, 356, 176
-0.99764, 381, 193, 396, 256
-0.997642, 81, 265, 208, 296
-0.997643, 359, 121, 374, 184
-0.997651, 217, 57, 280, 120
-0.997652, 37, 241, 68, 368
-0.99767, 35, 113, 50, 176
-0.99767, 467, 153, 482, 216
-0.99769, 267, 121, 282, 184
-0.997695, 81, 209, 208, 240
-0.997697, 425, 145, 440, 208
-0.997704, 265, 193, 280, 256
-0.997704, 281, 49, 312, 176
-0.997712, 323, 129, 338, 192
-0.997715, 209, 221, 336, 252
-0.997724, 199, 113, 214, 176
-0.997726, 337, 177, 352, 240
-0.997727, 129, 237, 256, 268
-0.997732, 225, 73, 480, 136
-0.997735, 305, 121, 432, 152
-0.997737, 153, 97, 184, 352
-0.997738, 477, 161, 492, 224
-0.997738, 117, 81, 148, 144
-0.997742, 403, 113, 418, 176
-0.997746, 113, 57, 240, 120
-0.99776, 455, 113, 470, 176
-0.997769, 461, 121, 476, 184
-0.99777, 337, 181, 464, 212
-0.997794, 409, 137, 424, 200
-0.997795, 315, 129, 330, 192
-0.997807, 157, 273, 172, 336
-0.997808, 293, 129, 308, 192
-0.997812, 259, 161, 274, 224
-0.997814, 467, 113, 482, 176
-0.997819, 89, 121, 104, 184
-0.997824, 1, 97, 32, 160
-0.997839, 83, 89, 98, 152
-0.997845, 157, 233, 172, 296
-0.997851, 121, 129, 152, 375
-0.997851, 353, 217, 384, 280
-0.997863, 295, 105, 310, 168
-0.997863, 81, 221, 208, 252
-0.997876, 1, 289, 32, 352
-0.997885, 179, 193, 194, 256
-0.997887, 165, 97, 180, 160
-0.997897, 109, 97, 140, 352
-0.997933, 149, 273, 164, 304
-0.997949, 241, 129, 368, 160
-0.997961, 177, 89, 304, 120
-0.997963, 1, 145, 128, 176
-0.997978, 129, 249, 256, 280
-0.997983, 109, 241, 140, 368
-0.997996, 129, 273, 256, 304
-0.998001, 215, 141, 230, 172
-0.998006, 257, 221, 384, 252
-0.998007, 449, 161, 480, 224
-0.998007, 241, 165, 368, 196
-0.998009, 177, 173, 304, 204
-0.998024, 289, 209, 320, 336
-0.998034, 369, 113, 496, 144
-0.998036, 353, 137, 480, 168
-0.998041, 81, 289, 208, 320
-0.998047, 105, 185, 168, 248
-0.998052, 77, 281, 108, 344
-0.998054, 113, 301, 240, 332
-0.998065, 65, 281, 96, 344
-0.99808, 213, 169, 228, 200
-0.998086, 161, 281, 416, 344
-0.998089, 301, 81, 332, 144
-0.998089, 49, 281, 80, 344
-0.998106, 109, 117, 124, 148
-0.998124, 111, 129, 126, 160
-0.998128, 321, 97, 448, 128
-0.998141, 201, 129, 232, 375
-0.998156, 153, 257, 168, 288
-0.998157, 159, 209, 174, 240
-0.998175, 93, 113, 124, 240
-0.99818, 63, 105, 78, 136
-0.998191, 353, 33, 416, 160
-0.998192, 425, 121, 456, 184
-0.998194, 1, 81, 256, 144
-0.998197, 277, 209, 308, 336
-0.998197, 13, 125, 28, 156
-0.998201, 281, 165, 296, 196
-0.998205, 177, 129, 208, 375
-0.998208, 321, 65, 448, 128
-0.998223, 269, 201, 284, 232
-0.998225, 205, 141, 220, 172
-0.998233, 33, 305, 288, 368
-0.998246, 307, 173, 322, 204
-0.998253, 223, 145, 238, 176
-0.998266, 275, 205, 290, 236
-0.998274, 135, 129, 150, 160
-0.998281, 433, 161, 464, 176
-0.998281, 113, 103, 144, 118
-0.998282, 345, 131, 376, 146
-0.998282, 301, 171, 332, 186
-0.998283, 269, 115, 300, 130
-0.998283, 229, 199, 260, 214
-0.998283, 177, 121, 208, 136
-0.998283, 393, 133, 424, 148
-0.998284, 269, 65, 300, 320
-0.998284, 1, 129, 32, 144
-0.998284, 169, 241, 200, 256
-0.998284, 53, 123, 84, 138
-0.998285, 237, 123, 268, 138
-0.998285, 165, 285, 196, 300
-0.998285, 273, 189, 304, 204
-0.998285, 401, 121, 432, 136
-0.998286, 137, 223, 168, 238
-0.998286, 129, 107, 160, 122
-0.998287, 309, 147, 340, 162
-0.998288, 161, 271, 192, 286
-0.998288, 217, 139, 248, 154
-0.998288, 173, 213, 204, 228
-0.998289, 241, 199, 272, 214
-0.998289, 217, 65, 248, 320
-0.99829, 407, 145, 422, 176
-0.998291, 389, 213, 420, 228
-0.998291, 369, 207, 400, 222
-0.998291, 381, 87, 412, 102
-0.998292, 13, 149, 44, 164
-0.998292, 261, 125, 292, 140
-0.998292, 109, 135, 140, 150
-0.998293, 469, 161, 500, 176
-0.998293, 133, 275, 164, 290
-0.998294, 137, 243, 168, 258
-0.998294, 157, 121, 188, 136
-0.998294, 389, 127, 420, 142
-0.998294, 37, 115, 68, 130
-0.998295, 317, 153, 348, 168
-0.998295, 333, 151, 364, 166
-0.998295, 301, 183, 332, 198
-0.998296, 313, 225, 344, 240
-0.998297, 301, 107, 332, 122
-0.998297, 315, 173, 330, 204
-0.998298, 225, 127, 256, 142
-0.9983, 163, 265, 178, 296
-0.9983, 249, 165, 280, 180
-0.998301, 201, 117, 232, 132
-0.998302, 233, 161, 264, 176
-0.998302, 321, 175, 352, 190
-0.998304, 333, 131, 364, 146
-0.998304, 221, 165, 252, 180
-0.998305, 73, 115, 104, 130
-0.998306, 249, 123, 280, 138
-0.998306, 277, 159, 308, 174
-0.998308, 381, 181, 412, 196
-0.998308, 169, 263, 200, 278
-0.998308, 405, 153, 436, 168
-0.998309, 293, 115, 324, 130
-0.998309, 421, 163, 452, 178
-0.99831, 217, 147, 248, 162
-0.998311, 257, 217, 288, 232
-0.998312, 385, 199, 416, 214
-0.998312, 241, 141, 272, 156
-0.998313, 297, 149, 328, 164
-0.998313, 177, 205, 208, 220
-0.998314, 69, 99, 100, 114
-0.998314, 89, 135, 120, 150
-0.998315, 175, 225, 190, 256
-0.998316, 113, 93, 240, 124
-0.998316, 241, 131, 272, 146
-0.998316, 197, 161, 228, 176
-0.998319, 381, 81, 412, 144
-0.998321, 57, 241, 88, 368
-0.998322, 121, 139, 152, 154
-0.998324, 13, 125, 44, 140
-0.998324, 133, 137, 164, 152
-0.998325, 469, 121, 500, 136
-0.998329, 173, 235, 204, 250
-0.99833, 285, 187, 316, 202
-0.99833, 265, 165, 296, 180
-0.99833, 29, 145, 60, 160
-0.998332, 169, 247, 200, 262
-0.998333, 381, 153, 396, 184
-0.998334, 117, 119, 148, 134
-0.998334, 153, 281, 184, 296
-0.998335, 241, 87, 272, 102
-0.998336, 273, 149, 304, 164
-0.998336, 377, 175, 408, 190
-0.998338, 13, 139, 44, 154
-0.998339, 73, 145, 104, 160
-0.99834, 369, 201, 400, 216
-0.99834, 397, 181, 412, 212
-0.998342, 141, 281, 172, 296
-0.998344, 285, 149, 316, 164
-0.998344, 109, 129, 140, 144
-0.998345, 147, 261, 162, 292
-0.998345, 69, 121, 100, 136
-0.998347, 169, 199, 200, 214
-0.998347, 125, 105, 140, 136
-0.998348, 257, 117, 288, 132
-0.998348, 93, 147, 124, 162
-0.998349, 101, 99, 132, 114
-0.998349, 389, 153, 420, 168
-0.99835, 289, 157, 320, 172
-0.99835, 381, 207, 412, 222
-0.998351, 369, 155, 400, 170
-0.998352, 301, 193, 332, 208
-0.998354, 369, 215, 400, 230
-0.998355, 49, 115, 80, 130
-0.998355, 417, 157, 448, 172
-0.998356, 209, 167, 240, 182
-0.998357, 149, 145, 180, 160
-0.998361, 273, 121, 304, 136
-0.998362, 101, 119, 132, 134
-0.998363, 157, 229, 172, 260
-0.998366, 265, 157, 296, 172
-0.998369, 265, 205, 296, 220
-0.998371, 53, 109, 84, 124
-0.998371, 89, 125, 120, 140
-0.998371, 1, 141, 32, 156
-0.998371, 281, 111, 312, 126
-0.998372, 125, 129, 140, 160
-0.998374, 201, 173, 232, 188
-0.998375, 81, 241, 208, 272
-0.998376, 283, 145, 298, 176
-0.998378, 145, 285, 272, 316
-0.998381, 317, 89, 348, 152
-0.998387, 117, 129, 132, 160
-0.998387, 391, 161, 406, 192
-0.998387, 209, 161, 240, 176
-0.998389, 253, 159, 284, 174
-0.998389, 105, 129, 120, 160
-0.99839, 173, 229, 204, 244
-0.998391, 369, 201, 496, 232
-0.998396, 89, 141, 120, 156
-0.998396, 157, 199, 188, 214
-0.998397, 301, 177, 332, 192
-0.998398, 61, 115, 92, 130
-0.998408, 275, 161, 290, 192
-0.998409, 109, 141, 140, 156
-0.99841, 155, 269, 170, 300
-0.998412, 149, 275, 180, 290
-0.998414, 321, 109, 448, 140
-0.998414, 149, 263, 180, 278
-0.998416, 281, 173, 312, 188
-0.998421, 113, 129, 144, 256
-0.998426, 165, 129, 196, 375
-0.998435, 23, 125, 38, 156
-0.998437, 153, 243, 184, 258
-0.998441, 73, 105, 88, 136
-0.998441, 117, 117, 132, 148
-0.998443, 93, 97, 124, 352
-0.998445, 129, 313, 256, 344
-0.998447, 237, 125, 252, 156
-0.998449, 197, 143, 228, 158
-0.998454, 149, 269, 180, 284
-0.998469, 153, 251, 184, 266
-0.998471, 299, 173, 314, 204
-0.998474, 125, 145, 156, 160
-0.998484, 263, 201, 278, 232
-0.998488, 383, 201, 398, 232
-0.998493, 135, 145, 150, 176
-0.998493, 149, 257, 180, 272
-0.998494, 153, 229, 184, 244
-0.9985, 157, 213, 188, 228
-0.998502, 157, 219, 188, 234
-0.99851, 133, 105, 148, 136
-0.998512, 129, 157, 256, 188
-0.998514, 93, 145, 108, 176
-0.998515, 419, 153, 434, 184
-0.998518, 95, 129, 110, 160
-0.99852, 403, 129, 418, 160
-0.998531, 397, 65, 428, 192
-0.998538, 157, 207, 188, 222
-0.998542, 363, 153, 378, 184
-0.998545, 327, 173, 342, 204
-0.998545, 145, 233, 208, 248
-0.998547, 89, 145, 152, 160
-0.99855, 3, 125, 18, 156
-0.998557, 265, 313, 328, 375
-0.998559, 153, 237, 184, 252
-0.998559, 171, 209, 186, 240
-0.99856, 119, 101, 134, 132
-0.998561, 249, 65, 280, 320
-0.998561, 323, 153, 338, 184
-0.998561, 145, 223, 208, 238
-0.998562, 429, 149, 444, 180
-0.998563, 251, 129, 266, 160
-0.998565, 353, 169, 368, 200
-0.99857, 145, 239, 208, 254
-0.998571, 281, 205, 296, 236
-0.998587, 477, 165, 492, 196
-0.998588, 235, 145, 250, 176
-0.998592, 17, 241, 48, 368
-0.998592, 143, 273, 158, 304
-0.998594, 201, 145, 264, 160
-0.998596, 253, 153, 268, 184
-0.998598, 145, 259, 208, 274
-0.9986, 145, 217, 208, 232
-0.9986, 373, 153, 388, 184
-0.998601, 241, 155, 304, 170
-0.998602, 385, 153, 448, 168
-0.998603, 467, 165, 482, 196
-0.998605, 131, 117, 146, 148
-0.998606, 375, 213, 390, 244
-0.998607, 345, 175, 408, 190
-0.998609, 113, 97, 128, 128
-0.998614, 145, 253, 208, 268
-0.998615, 291, 161, 306, 192
-0.998617, 163, 253, 178, 284
-0.998617, 329, 153, 392, 168
-0.998617, 281, 65, 312, 320
-0.998618, 81, 139, 144, 154
-0.998619, 257, 113, 272, 144
-0.998619, 161, 57, 288, 120
-0.99862, 97, 119, 160, 134
-0.998624, 363, 205, 378, 236
-0.998624, 249, 123, 312, 138
-0.998625, 201, 159, 264, 174
-0.998626, 113, 143, 176, 158
-0.998627, 145, 247, 208, 262
-0.998628, 289, 155, 352, 170
-0.998631, 353, 213, 480, 244
-0.998632, 41, 115, 104, 130
-0.998632, 297, 177, 360, 192
-0.998632, 137, 265, 200, 280
-0.998633, 121, 257, 184, 272
-0.998634, 121, 241, 184, 256
-0.998634, 53, 113, 68, 144
-0.998634, 49, 143, 112, 158
-0.998635, 153, 211, 216, 226
-0.998636, 343, 169, 358, 200
-0.998637, 361, 187, 424, 202
-0.998639, 123, 117, 138, 148
-0.998641, 217, 89, 280, 104
-0.998641, 147, 237, 162, 268
-0.998641, 217, 165, 280, 180
-0.998641, 401, 149, 416, 180
-0.998643, 225, 119, 288, 134
-0.998644, 145, 145, 208, 160
-0.998645, 121, 247, 184, 262
-0.998646, 299, 113, 314, 144
-0.998647, 129, 211, 192, 226
-0.998648, 391, 173, 406, 204
-0.99865, 153, 205, 216, 220
-0.998651, 65, 99, 128, 114
-0.998651, 249, 161, 312, 176
-0.998651, 417, 161, 480, 176
-0.998652, 205, 225, 220, 256
-0.998653, 273, 177, 336, 192
-0.998653, 353, 155, 416, 170
-0.998655, 1, 139, 64, 154
-0.998655, 129, 201, 192, 216
-0.998657, 265, 113, 328, 128
-0.998657, 353, 203, 416, 218
-0.998657, 265, 149, 328, 164
-0.99866, 171, 257, 186, 288
-0.99866, 393, 201, 408, 232
-0.998661, 217, 201, 280, 216
-0.998662, 379, 173, 394, 204
-0.998662, 113, 137, 176, 152
-0.998663, 63, 117, 78, 148
-0.998663, 297, 117, 360, 132
-0.998664, 137, 273, 200, 288
-0.998666, 9, 145, 72, 160
-0.998666, 321, 173, 336, 204
-0.998667, 357, 153, 372, 184
-0.998668, 65, 119, 128, 134
-0.998669, 345, 133, 360, 164
-0.998671, 241, 207, 304, 222
-0.998672, 169, 217, 232, 232
-0.998672, 185, 139, 248, 154
-0.998673, 201, 177, 264, 192
-0.998674, 241, 167, 304, 182
-0.998675, 273, 191, 336, 206
-0.998675, 81, 129, 144, 144
-0.998675, 351, 133, 366, 164
-0.998675, 145, 287, 208, 302
-0.998676, 169, 231, 232, 246
-0.998677, 169, 117, 232, 132
-0.998678, 225, 141, 288, 156
-0.998678, 361, 65, 392, 320
-0.998678, 97, 101, 160, 116
-0.998679, 225, 129, 288, 144
-0.998679, 185, 123, 248, 138
-0.998679, 33, 121, 96, 136
-0.99868, 65, 105, 128, 120
-0.99868, 273, 183, 336, 198
-0.99868, 145, 139, 208, 154
-0.99868, 289, 129, 352, 144
-0.99868, 87, 137, 102, 168
-0.99868, 207, 173, 222, 204
-0.998681, 121, 235, 184, 250
-0.998681, 401, 117, 464, 132
-0.998682, 317, 153, 332, 184
-0.998682, 233, 347, 296, 362
-0.998682, 241, 149, 304, 164
-0.998683, 361, 149, 424, 164
-0.998687, 129, 123, 192, 138
-0.998687, 243, 117, 258, 148
-0.998688, 121, 229, 184, 244
-0.998688, 385, 159, 448, 174
-0.998688, 241, 219, 304, 234
-0.998688, 1, 293, 64, 308
-0.998689, 275, 109, 290, 140
-0.998689, 199, 141, 214, 172
-0.998689, 193, 345, 320, 375
-0.998691, 5, 137, 20, 168
-0.998692, 345, 217, 408, 232
-0.998692, 433, 117, 496, 132
-0.998692, 217, 151, 280, 166
-0.998692, 361, 95, 424, 110
-0.998692, 153, 199, 216, 214
-0.998692, 275, 149, 290, 180
-0.998692, 417, 155, 480, 170
-0.998692, 129, 279, 192, 294
-0.998694, 9, 121, 72, 136
-0.998694, 337, 133, 400, 148
-0.998695, 113, 129, 176, 144
-0.998695, 177, 145, 240, 160
-0.998695, 73, 111, 136, 126
-0.998695, 209, 113, 272, 128
-0.998695, 297, 109, 360, 124
-0.998696, 353, 209, 416, 224
-0.998698, 305, 135, 368, 150
-0.998698, 121, 223, 184, 238
-0.998699, 169, 223, 232, 238
-0.998699, 65, 149, 128, 164
-0.998701, 297, 187, 360, 202
-0.998702, 153, 127, 216, 142
-0.998702, 433, 123, 496, 138
-0.998703, 433, 167, 496, 182
-0.998703, 249, 129, 312, 144
-0.998703, 329, 127, 392, 142
-0.998704, 137, 101, 200, 116
-0.998704, 161, 265, 224, 280
-0.998706, 297, 219, 360, 234
-0.998706, 171, 245, 186, 276
-0.998708, 353, 181, 416, 196
-0.998708, 57, 125, 120, 140
-0.998709, 305, 171, 368, 186
-0.998709, 361, 123, 424, 138
-0.998709, 153, 303, 216, 318
-0.998709, 259, 145, 274, 176
-0.998709, 395, 145, 410, 176
-0.998709, 313, 147, 376, 162
-0.998711, 217, 213, 280, 228
-0.998711, 241, 191, 304, 206
-0.998712, 289, 123, 352, 138
-0.998713, 113, 95, 176, 110
-0.998713, 361, 197, 424, 212
-0.998714, 385, 165, 448, 180
-0.998715, 121, 217, 184, 232
-0.998715, 249, 173, 312, 188
-0.998715, 281, 225, 344, 240
-0.998716, 293, 173, 308, 204
-0.998716, 165, 129, 196, 256
-0.998719, 361, 133, 424, 148
-0.998719, 313, 225, 376, 240
-0.99872, 17, 115, 80, 130
-0.99872, 335, 173, 350, 204
-0.99872, 321, 219, 384, 234
-0.99872, 129, 141, 144, 172
-0.99872, 269, 113, 284, 144
-0.99872, 463, 149, 478, 180
-0.99872, 273, 219, 336, 234
-0.998721, 113, 107, 176, 122
-0.998721, 241, 197, 304, 212
-0.998722, 321, 183, 384, 198
-0.998725, 483, 153, 498, 184
-0.998728, 239, 197, 254, 228
-0.998733, 243, 145, 258, 176
-0.998735, 339, 133, 354, 164
-0.99874, 263, 117, 278, 148
-0.998742, 101, 117, 116, 148
-0.998746, 285, 105, 300, 136
-0.998746, 179, 201, 194, 232
-0.998748, 347, 117, 362, 148
-0.998748, 385, 173, 400, 204
-0.998753, 397, 161, 412, 192
-0.998757, 333, 113, 348, 144
-0.998759, 189, 129, 220, 375
-0.998759, 177, 297, 304, 328
-0.998765, 221, 161, 236, 192
-0.998767, 169, 117, 184, 148
-0.998768, 273, 125, 288, 156
-0.998769, 219, 105, 234, 136
-0.99877, 297, 65, 328, 320
-0.998775, 357, 133, 372, 164
-0.998777, 335, 153, 350, 184
-0.998779, 245, 129, 260, 160
-0.998782, 169, 65, 232, 128
-0.998786, 277, 189, 292, 220
-0.998786, 81, 97, 112, 352
-0.99879, 201, 129, 216, 160
-0.998794, 267, 165, 282, 196
-0.998794, 223, 125, 238, 156
-0.998795, 205, 161, 220, 192
-0.998795, 145, 325, 272, 356
-0.998798, 257, 205, 272, 236
-0.9988, 329, 153, 344, 184
-0.998803, 269, 213, 284, 244
-0.998807, 143, 141, 158, 172
-0.998831, 177, 241, 208, 368
-0.998841, 1, 153, 128, 216
-0.998846, 385, 65, 416, 320
-0.998865, 197, 33, 228, 288
-0.998872, 1, 209, 500, 272
-0.998873, 161, 193, 176, 320
-0.998897, 309, 65, 340, 320
-0.998904, 65, 153, 192, 216
-0.998905, 305, 225, 432, 256
-0.998916, 121, 33, 152, 288
-0.998974, 225, 93, 352, 124
-0.998979, 173, 193, 188, 320
-0.998987, 33, 177, 160, 304
-0.999005, 241, 17, 304, 144
-0.999006, 321, 65, 352, 320
-0.999029, 349, 65, 380, 320
-0.999042, 225, 281, 352, 344
-0.999067, 113, 185, 240, 248
-0.999068, 5, 241, 36, 368
-0.999083, 369, 101, 496, 132
-0.999108, 333, 65, 364, 320
-0.999112, 353, 125, 480, 156
-0.999113, 209, 309, 336, 340
-0.999115, 49, 313, 176, 375
-0.999124, 193, 313, 448, 375
-0.999133, 373, 65, 404, 320
-0.999133, 273, 93, 400, 124
-0.999147, 167, 177, 182, 304
-0.999154, 341, 129, 356, 256
-0.999156, 69, 97, 100, 352
-0.999159, 379, 129, 394, 256
-0.999165, 77, 241, 108, 368
-0.999168, 225, 333, 352, 364
-0.999168, 335, 129, 350, 256
-0.999173, 237, 65, 268, 320
-0.999176, 73, 193, 136, 320
-0.999177, 153, 209, 168, 336
-0.999189, 349, 145, 364, 272
-0.999199, 373, 129, 388, 256
-0.999207, 33, 261, 160, 292
-0.999215, 1, 73, 500, 136
-0.999216, 129, 173, 256, 204
-0.999224, 471, 97, 486, 224
-0.999226, 33, 273, 160, 304
-0.999233, 279, 129, 294, 256
-0.999245, 385, 129, 400, 256
-0.999249, 405, 97, 420, 224
-0.99925, 265, 129, 280, 256
-0.99926, 355, 145, 370, 272
-0.999267, 285, 97, 300, 224
-0.99927, 477, 97, 492, 224
-0.999271, 141, 97, 156, 224
-0.999272, 361, 145, 376, 272
-0.999286, 193, 225, 448, 288
-0.999296, 295, 97, 310, 224
-0.999303, 273, 129, 288, 256
-0.999303, 465, 97, 480, 224
-0.999306, 401, 65, 432, 320
-0.99932, 329, 129, 344, 256
-0.99932, 353, 85, 480, 116
-0.999321, 253, 65, 268, 192
-0.999321, 169, 33, 200, 288
-0.999323, 167, 225, 182, 352
-0.999325, 349, 97, 364, 224
-0.999338, 301, 129, 316, 256
-0.999338, 249, 129, 264, 256
-0.999339, 203, 81, 218, 208
-0.999345, 367, 161, 382, 288
-0.999348, 305, 81, 320, 208
-0.999348, 241, 345, 368, 375
-0.999351, 255, 145, 270, 272
-0.999354, 135, 97, 150, 224
-0.999355, 97, 241, 128, 368
-0.999355, 1, 297, 128, 328
-0.999357, 161, 185, 288, 216
-0.999366, 315, 129, 330, 256
-0.999378, 329, 81, 344, 208
-0.999381, 97, 1, 128, 256
-0.999383, 133, 1, 164, 256
-0.999387, 225, 321, 352, 352
-0.999387, 393, 129, 408, 256
-0.999388, 13, 97, 44, 352
-0.999389, 343, 81, 358, 208
-0.999396, 377, 177, 392, 304
-0.999398, 97, 81, 224, 112
-0.999405, 147, 241, 162, 368
-0.999407, 465, 49, 496, 176
-0.999413, 457, 65, 488, 320
-0.999418, 75, 81, 90, 208
-0.999424, 337, 81, 352, 208
-0.999428, 65, 97, 80, 224
-0.999432, 459, 97, 474, 224
-0.999433, 33, 177, 288, 240
-0.999434, 467, 145, 482, 272
-0.999434, 257, 81, 384, 112
-0.999435, 247, 65, 262, 192
-0.999436, 399, 97, 414, 224
-0.99944, 323, 97, 338, 224
-0.99944, 241, 129, 256, 256
-0.999448, 149, 129, 164, 256
-0.999454, 309, 129, 324, 256
-0.999456, 213, 81, 228, 208
-0.99946, 413, 81, 428, 208
-0.999462, 129, 97, 144, 224
-0.999464, 355, 97, 370, 224
-0.999465, 315, 81, 330, 208
-0.999472, 413, 65, 444, 320
-0.999474, 57, 97, 88, 352
-0.999476, 1, 129, 32, 375
-0.999477, 485, 97, 500, 224
-0.99948, 451, 97, 466, 224
-0.999485, 295, 145, 310, 272
-0.999488, 259, 65, 274, 192
-0.999488, 197, 97, 212, 224
-0.999492, 421, 145, 452, 272
-0.999493, 85, 81, 100, 208
-0.999498, 109, 1, 140, 256
-0.999499, 97, 65, 352, 128
-0.999501, 343, 177, 358, 304
-0.999504, 227, 351, 242, 366
-0.999504, 265, 81, 280, 208
-0.999505, 157, 225, 172, 240
-0.999505, 83, 147, 98, 162
-0.999505, 59, 123, 74, 138
-0.999506, 339, 129, 354, 144
-0.999506, 247, 131, 262, 146
-0.999506, 289, 187, 304, 202
-0.999506, 89, 151, 104, 166
-0.999507, 95, 65, 110, 192
-0.999507, 275, 219, 290, 234
-0.999507, 229, 121, 244, 136
-0.999508, 317, 193, 332, 208
-0.999508, 333, 113, 348, 128
-0.999509, 179, 117, 194, 132
-0.999509, 235, 127, 250, 142
-0.999509, 279, 121, 294, 136
-0.999509, 157, 249, 172, 264
-0.99951, 241, 129, 256, 144
-0.99951, 291, 149, 306, 164
-0.99951, 167, 111, 182, 126
-0.99951, 235, 141, 250, 156
-0.999511, 269, 203, 284, 218
-0.999512, 391, 175, 406, 190
-0.999512, 145, 281, 160, 296
-0.999513, 147, 247, 162, 262
-0.999513, 363, 103, 378, 118
-0.999513, 59, 109, 74, 124
-0.999513, 177, 273, 304, 304
-0.999513, 287, 173, 302, 188
-0.999514, 351, 133, 366, 148
-0.999514, 165, 239, 180, 254
-0.999514, 147, 241, 162, 256
-0.999514, 289, 145, 304, 272
-0.999515, 255, 87, 270, 102
-0.999515, 131, 119, 146, 134
-0.999515, 307, 193, 322, 208
-0.999516, 259, 159, 274, 174
-0.999516, 273, 115, 288, 130
-0.999516, 95, 149, 110, 164
-0.999517, 171, 261, 186, 276
-0.999517, 237, 197, 252, 212
-0.999517, 471, 161, 486, 176
-0.999517, 163, 251, 178, 266
-0.999518, 115, 119, 130, 134
-0.999518, 123, 103, 138, 118
-0.999518, 163, 121, 178, 136
-0.999518, 273, 65, 288, 192
-0.999519, 285, 167, 300, 182
-0.999519, 291, 157, 306, 172
-0.99952, 171, 249, 186, 264
-0.99952, 217, 175, 232, 190
-0.999521, 143, 141, 158, 156
-0.999522, 53, 115, 68, 130
-0.999523, 205, 175, 220, 190
-0.999523, 383, 209, 398, 224
-0.999523, 157, 231, 172, 246
-0.999524, 281, 157, 296, 172
-0.999524, 273, 125, 288, 140
-0.999526, 345, 131, 360, 146
-0.999527, 111, 129, 126, 144
-0.999527, 305, 177, 320, 192
-0.999528, 407, 155, 422, 170
-0.999528, 227, 147, 242, 162
-0.999528, 147, 81, 162, 208
-0.999529, 205, 143, 220, 158
-0.999529, 245, 121, 260, 136
-0.999529, 275, 207, 290, 222
-0.99953, 365, 81, 380, 208
-0.999531, 301, 187, 316, 202
-0.999531, 95, 125, 110, 140
-0.999532, 65, 123, 80, 138
-0.999533, 221, 151, 236, 166
-0.999533, 403, 121, 418, 136
-0.999533, 379, 155, 394, 170
-0.999534, 301, 193, 316, 208
-0.999535, 267, 161, 282, 176
-0.999536, 437, 161, 452, 176
-0.999536, 405, 147, 420, 162
-0.999537, 467, 167, 482, 182
-0.999537, 205, 225, 220, 240
-0.999537, 129, 145, 144, 160
-0.999538, 425, 155, 440, 170
-0.999538, 211, 181, 226, 196
-0.999538, 163, 207, 178, 222
-0.999539, 417, 155, 432, 170
-0.999539, 59, 97, 74, 224
-0.99954, 163, 277, 178, 292
-0.99954, 279, 81, 294, 208
-0.99954, 405, 145, 420, 272
-0.999541, 399, 145, 414, 272
-0.999541, 269, 217, 284, 232
-0.999541, 297, 149, 312, 164
-0.999542, 403, 127, 418, 142
-0.999543, 163, 265, 178, 280
-0.999543, 161, 213, 176, 228
-0.999543, 173, 221, 188, 236
-0.999543, 275, 161, 290, 176
-0.999543, 383, 177, 398, 304
-0.999546, 179, 203, 194, 218
-0.999547, 105, 119, 120, 134
-0.999547, 5, 141, 20, 156
-0.999548, 169, 121, 184, 136
-0.999548, 159, 219, 174, 234
-0.999549, 97, 143, 112, 158
-0.99955, 213, 143, 228, 158
-0.99955, 403, 133, 418, 148
-0.999551, 201, 231, 216, 246
-0.999552, 221, 163, 236, 178
-0.999552, 239, 65, 254, 192
-0.999553, 199, 143, 214, 158
-0.999553, 481, 145, 496, 272
-0.999554, 235, 129, 250, 256
-0.999556, 175, 229, 190, 244
-0.999557, 169, 129, 184, 256
-0.999557, 71, 109, 86, 124
-0.999558, 277, 167, 292, 182
-0.999558, 285, 149, 300, 164
-0.999562, 163, 129, 178, 256
-0.999562, 145, 147, 160, 162
-0.999562, 321, 145, 336, 272
-0.999562, 295, 187, 310, 202
-0.999563, 477, 167, 492, 182
-0.999563, 153, 263, 168, 278
-0.999564, 213, 155, 228, 170
-0.999564, 53, 97, 68, 224
-0.999565, 473, 145, 488, 272
-0.999568, 169, 33, 232, 160
-0.999568, 155, 237, 170, 252
-0.999569, 203, 129, 218, 256
-0.999573, 295, 175, 310, 190
-0.999577, 105, 141, 120, 156
-0.999578, 23, 97, 38, 224
-0.999579, 15, 97, 30, 224
-0.999579, 73, 115, 88, 130
-0.999579, 149, 275, 164, 290
-0.999581, 179, 177, 194, 304
-0.999582, 159, 271, 174, 286
-0.999582, 155, 277, 170, 292
-0.999582, 153, 147, 168, 162
-0.999584, 253, 157, 268, 172
-0.999585, 89, 143, 104, 158
-0.999586, 155, 113, 170, 240
-0.999586, 431, 159, 446, 174
-0.999587, 101, 65, 116, 192
-0.999588, 65, 109, 80, 124
-0.999589, 389, 193, 404, 320
-0.999589, 125, 139, 140, 154
-0.999589, 115, 141, 130, 156
-0.999592, 173, 241, 188, 368
-0.999593, 337, 177, 352, 304
-0.999597, 375, 215, 390, 230
-0.9996, 151, 269, 166, 284
-0.999601, 219, 81, 234, 208
-0.999602, 105, 289, 168, 352
-0.999602, 29, 129, 60, 375
-0.999605, 63, 115, 78, 130
-0.999606, 421, 81, 436, 208
-0.999608, 141, 241, 156, 368
-0.999609, 135, 145, 150, 160
-0.999611, 145, 1, 176, 256
-0.999614, 213, 169, 228, 184
-0.999614, 445, 97, 460, 224
-0.999619, 371, 81, 386, 208
-0.99962, 383, 65, 398, 192
-0.999621, 247, 177, 262, 304
-0.999621, 327, 177, 342, 304
-0.999632, 225, 81, 240, 208
-0.999632, 361, 65, 424, 128
-0.999632, 123, 65, 138, 192
-0.999633, 461, 145, 476, 272
-0.999637, 177, 129, 192, 256
-0.999638, 211, 175, 226, 190
-0.999638, 209, 129, 224, 256
-0.999639, 57, 49, 88, 176
-0.999639, 49, 197, 176, 228
-0.999647, 355, 209, 370, 336
-0.999649, 349, 209, 364, 336
-0.999649, 193, 209, 208, 336
-0.999655, 169, 205, 184, 220
-0.999655, 153, 65, 168, 192
-0.999656, 223, 129, 238, 256
-0.999661, 45, 97, 60, 224
-0.999662, 393, 65, 408, 192
-0.999667, 181, 33, 212, 288
-0.999667, 435, 97, 450, 224
-0.999669, 429, 97, 444, 224
-0.999678, 365, 209, 380, 336
-0.99968, 5, 97, 20, 224
-0.99968, 257, 193, 272, 320
-0.999692, 231, 65, 246, 192
-0.999694, 263, 193, 278, 320
-0.999694, 29, 97, 44, 224
-0.999695, 213, 161, 228, 176
-0.999697, 127, 241, 142, 368
-0.999698, 117, 65, 132, 192
-0.999699, 377, 81, 392, 208
-0.999704, 191, 129, 206, 256
-0.999704, 191, 81, 206, 208
-0.999706, 37, 97, 52, 224
-0.999707, 133, 49, 148, 176
-0.999708, 145, 193, 160, 320
-0.999713, 91, 113, 106, 240
-0.999715, 403, 49, 418, 176
-0.999716, 301, 177, 316, 304
-0.999717, 171, 199, 186, 214
-0.999717, 63, 49, 78, 176
-0.999729, 77, 1, 108, 256
-0.999766, 469, 65, 500, 320
-0.999791, 145, 337, 272, 368
-0.999797, 305, 81, 432, 112
-0.999798, 81, 153, 208, 184
-0.999801, 45, 129, 76, 375
-0.999836, 49, 17, 176, 144
-0.999845, 1, 81, 128, 112
-0.99986, 49, 81, 176, 112
-0.999861, 313, 73, 376, 136
-0.999884, 273, 225, 336, 288
-0.999891, 1, 337, 128, 368
-0.999915, 161, 77, 288, 108
-0.999952, 445, 65, 476, 320
-0.99996, 65, 301, 192, 332
-0.999985, 341, 49, 372, 176
-1.00006, 25, 1, 88, 256
-1.0001, 81, 317, 208, 348
-1.0001, 169, 65, 200, 192
-1.00014, 145, 49, 176, 176
-1.00017, 209, 77, 336, 108
-1.00017, 177, 237, 304, 268
-1.00017, 273, 333, 400, 364
-1.00018, 425, 65, 456, 320
-1.0002, 65, 57, 192, 120
-1.0002, 1, 57, 256, 120
-1.0002, 193, 285, 320, 316
-1.00022, 33, 325, 160, 356
-1.00022, 33, 225, 160, 288
-1.00023, 157, 1, 188, 256
-1.0003, 1, 305, 128, 368
-1.00032, 297, 225, 360, 288
-1.00033, 369, 57, 496, 120
-1.00034, 369, 73, 496, 104
-1.00035, 113, 185, 240, 216
-1.00035, 257, 289, 384, 320
-1.00035, 241, 257, 368, 320
-1.00038, 369, 345, 496, 375
-1.00038, 177, 253, 304, 284
-1.0004, 33, 249, 160, 280
-1.00042, 225, 273, 352, 304
-1.00044, 113, 197, 240, 228
-1.00045, 449, 49, 480, 176
-1.00046, 321, 341, 448, 372
-1.00048, 273, 313, 400, 344
-1.00048, 225, 41, 352, 104
-1.00048, 17, 309, 144, 340
-1.00049, 1, 1, 32, 256
-1.00049, 65, 1, 96, 256
-1.0005, 261, 33, 292, 160
-1.00051, 49, 337, 176, 368
-1.00054, 257, 301, 384, 332
-1.00054, 273, 305, 400, 368
-1.00054, 13, 1, 44, 256
-1.00055, 17, 73, 80, 136
-1.00055, 329, 33, 392, 160
-1.00056, 53, 1, 84, 256
-1.00057, 321, 325, 448, 356
-1.00058, 321, 313, 448, 344
-1.00059, 225, 257, 352, 288
-1.00059, 17, 57, 144, 120
-1.0006, 97, 341, 224, 372
-1.00062, 381, 33, 412, 160
-1.00063, 177, 65, 304, 96
-1.00063, 273, 281, 400, 344
-1.00064, 201, 217, 264, 280
-1.00064, 353, 225, 480, 256
-1.00064, 241, 233, 368, 264
-1.00064, 193, 49, 448, 112
-1.00065, 369, 333, 496, 364
-1.00065, 69, 33, 100, 160
-1.00067, 305, 69, 432, 100
-1.00069, 1, 153, 256, 216
-1.0007, 1, 313, 500, 375
-1.0007, 321, 293, 448, 324
-1.00071, 225, 65, 352, 96
-1.00071, 25, 1, 56, 256
-1.00072, 321, 313, 448, 375
-1.00073, 225, 245, 352, 276
-1.00074, 97, 69, 224, 100
-1.00075, 433, 145, 464, 272
-1.00075, 1, 313, 64, 375
-1.00076, 213, 241, 244, 368
-1.00077, 97, 329, 224, 360
-1.00079, 289, 261, 416, 292
-1.00079, 337, 273, 464, 304
-1.00079, 37, 1, 68, 256
-1.00083, 273, 277, 400, 308
-1.00092, 369, 313, 496, 375
-1.00097, 181, 193, 212, 320
-1.00098, 1, 1, 500, 128
-1.00109, 257, 265, 500, 328
-1.00114, 229, 17, 260, 144
-1.00118, 25, 49, 56, 176
-1.00129, 333, 225, 364, 352
-1.00139, 193, 33, 224, 160
-1.00139, 1, 289, 500, 352
-1.00145, 257, 289, 500, 352
-1.00148, 69, 129, 100, 256
-1.00152, 337, 281, 464, 344
-1.00154, 1, 241, 500, 304
-1.00155, 121, 193, 152, 320
-1.00156, 353, 49, 384, 176
-1.00164, 289, 65, 352, 128
-1.0017, 129, 305, 192, 368
-1.00177, 289, 257, 416, 320
-1.00178, 229, 241, 260, 368
-1.00192, 429, 49, 460, 176
-1.00198, 129, 25, 384, 88
-1.00203, 33, 1, 288, 128
-1.00205, 257, 17, 500, 80
-1.00211, 1, 17, 256, 80
-1.00212, 161, 1, 416, 64
-1.00212, 1, 17, 128, 144
-1.00215, 193, 57, 256, 120
-1.00216, 81, 57, 144, 120
-1.00218, 249, 225, 280, 352
-1.00219, 41, 153, 104, 216
-1.00221, 249, 49, 312, 112
-1.00227, 109, 193, 140, 320
-1.00228, 301, 225, 332, 352
-1.00232, 337, 257, 464, 320
-1.00238, 337, 225, 400, 352
-1.00245, 1, 1, 64, 256
-1.00246, 13, 49, 44, 176
-1.00247, 177, 33, 304, 96
-1.00251, 217, 33, 248, 160
-1.00258, 321, 233, 448, 296
-1.00259, 177, 17, 304, 144
-1.00259, 353, 33, 480, 96
-1.00266, 365, 33, 396, 160
-1.00269, 289, 41, 416, 104
-1.00271, 49, 33, 176, 96
-1.00271, 113, 17, 240, 80
-1.00275, 121, 161, 184, 224
-1.00279, 241, 225, 304, 352
-1.00281, 9, 145, 40, 272
-1.00282, 205, 33, 236, 160
-1.00283, 177, 9, 304, 72
-1.00285, 289, 17, 416, 80
-1.00288, 97, 193, 128, 320
-1.00288, 241, 17, 368, 80
-1.00291, 65, 9, 192, 72
-1.00291, 369, 9, 496, 72
-1.00291, 1, 17, 128, 80
-1.00291, 1, 185, 128, 248
-1.00293, 245, 17, 276, 144
-1.00297, 369, 233, 496, 296
-1.003, 297, 33, 328, 160
-1.00303, 49, 193, 112, 320
-1.00311, 57, 305, 120, 368
-1.00315, 409, 33, 440, 160
-1.00322, 9, 145, 72, 272
-1.00324, 1, 49, 32, 176
-1.00325, 221, 193, 252, 320
-1.00325, 385, 193, 448, 320
-1.00338, 33, 305, 96, 368
-1.0034, 97, 217, 160, 280
-1.00359, 77, 193, 108, 320
-1.0036, 125, 145, 156, 272
-1.00362, 181, 33, 212, 160
-1.00367, 1, 25, 500, 88
-1.00376, 401, 49, 464, 112
-1.00378, 1, 49, 500, 112
-1.00378, 1, 1, 500, 64
-1.00386, 41, 57, 104, 120
-1.00403, 145, 17, 208, 144
-1.00405, 401, 185, 464, 248
-1.00406, 105, 57, 168, 120
-1.00414, 297, 297, 360, 360
-1.00423, 217, 265, 280, 328
-1.00446, 241, 273, 304, 336
-1.00447, 97, 153, 160, 216
-1.00454, 137, 57, 200, 120
-1.00455, 49, 145, 112, 272
-1.00463, 249, 249, 312, 312
-1.00491, 433, 65, 496, 128
-1.00511, 321, 313, 384, 375
-1.00537, 1, 193, 64, 320
-1.0055, 345, 313, 408, 375
-1.00559, 329, 49, 392, 112
-1.00566, 273, 257, 336, 320
-1.00575, 89, 17, 152, 144
-1.00577, 321, 241, 448, 368
-1.00693, 113, 1, 240, 128
-1.00718, 369, 241, 496, 368
-1.00748, 113, 17, 176, 144
-1.0094, 385, 1, 448, 128
-1.00949, 265, 1, 328, 128
-1.01049, 361, 225, 424, 352
-1.01073, 305, 1, 368, 128
-1.01095, 369, 1, 496, 128
-1.01162, 385, 241, 448, 368
-1.01232, 65, 1, 128, 128
-1.01284, 41, 1, 104, 128
-1.01293, 417, 1, 480, 128
-1.01321, 425, 241, 488, 368
-1.01439, 425, 193, 488, 320
-1.01531, 9, 1, 72, 128
