1982
-0.679677, 1, 1, 500, 256
-0.688928, 1, 129, 500, 375
-0.745943, 97, 1, 352, 375
-0.866069, 193, 1, 448, 375
-0.873114, 97, 129, 352, 375
-0.874804, 1, 1, 500, 375
-0.892457, 65, 33, 320, 288
-0.935551, 145, 1, 272, 375
-0.94035, 209, 129, 336, 375
-0.942035, 193, 1, 320, 375
-0.943848, 49, 129, 176, 375
-0.945156, 1, 129, 256, 375
-0.949313, 161, 97, 288, 352
-0.955445, 1, 1, 256, 375
-0.956041, 241, 1, 368, 375
-0.957807, 129, 225, 384, 352
-0.961228, 1, 225, 500, 352
-0.963151, 129, 1, 256, 256
-0.963446, 257, 129, 384, 375
-0.965299, 177, 1, 304, 256
-0.965329, 81, 1, 208, 375
-0.965717, 225, 129, 480, 375
-0.967774, 97, 129, 224, 375
-0.968511, 1, 241, 256, 368
-0.969325, 289, 241, 416, 368
-0.969581, 33, 1, 160, 375
-0.969924, 65, 97, 320, 224
-0.970779, 233, 113, 296, 240
-0.971479, 241, 33, 368, 288
-0.971497, 81, 33, 208, 288
-0.972031, 137, 273, 200, 336
-0.972989, 129, 177, 384, 304
-0.973294, 129, 225, 192, 352
-0.973588, 1, 65, 128, 320
-0.97388, 281, 289, 344, 352
-0.974368, 33, 49, 288, 176
-0.974477, 1, 145, 500, 272
-0.975147, 209, 241, 336, 368
-0.97586, 225, 241, 480, 368
-0.97707, 289, 1, 416, 375
-0.977249, 321, 129, 448, 375
-0.97765, 161, 241, 288, 368
-0.977677, 209, 49, 272, 176
-0.977917, 225, 121, 288, 184
-0.978406, 145, 297, 208, 360
-0.978565, 81, 241, 208, 368
-0.979536, 289, 241, 352, 368
-0.980186, 289, 265, 352, 328
-0.980476, 153, 241, 216, 368
-0.981334, 305, 305, 368, 368
-0.981451, 257, 161, 320, 288
-0.981634, 169, 305, 232, 368
-0.98177, 97, 153, 160, 216
-0.982243, 177, 97, 304, 224
-0.982461, 89, 113, 152, 240
-0.982913, 321, 281, 384, 344
-0.982966, 113, 281, 176, 344
-0.983337, 257, 297, 320, 360
-0.983552, 169, 281, 232, 344
-0.983623, 313, 241, 376, 368
-0.983667, 209, 97, 272, 224
-0.983725, 65, 177, 192, 304
-0.984408, 1, 49, 500, 176
-0.98465, 105, 241, 168, 368
-0.984924, 289, 289, 416, 352
-0.98496, 177, 241, 240, 368
-0.985361, 65, 81, 128, 208
-0.985368, 281, 313, 344, 375
-0.985372, 209, 145, 336, 272
-0.985428, 321, 289, 352, 352
-0.985655, 137, 249, 200, 312
-0.986066, 369, 1, 496, 375
-0.986072, 113, 297, 240, 360
-0.986109, 105, 313, 168, 375
-0.986149, 241, 289, 368, 352
-0.986246, 233, 145, 296, 208
-0.986725, 165, 241, 196, 368
-0.986775, 193, 297, 256, 360
-0.986782, 113, 273, 240, 336
-0.986914, 73, 121, 136, 184
-0.986934, 1, 97, 500, 224
-0.987028, 209, 97, 272, 160
-0.987068, 145, 241, 176, 368
-0.987072, 289, 297, 320, 360
-0.98723, 145, 193, 272, 320
-0.987316, 145, 273, 176, 336
-0.987332, 33, 145, 288, 272
-0.987489, 265, 241, 328, 368
-0.987602, 177, 289, 304, 352
-0.987799, 333, 305, 364, 368
-0.98789, 257, 273, 320, 336
-0.987892, 225, 65, 480, 192
-0.987924, 249, 97, 280, 224
-0.988006, 169, 273, 200, 336
-0.988081, 33, 129, 160, 256
-0.988142, 241, 169, 304, 232
-0.9884, 177, 297, 208, 360
-0.988425, 305, 313, 432, 375
-0.988583, 241, 193, 368, 320
-0.988757, 329, 305, 392, 368
-0.988848, 265, 145, 296, 208
-0.988996, 289, 33, 416, 288
-0.989027, 145, 49, 272, 176
-0.989121, 309, 289, 340, 352
-0.98924, 321, 313, 352, 375
-0.989313, 185, 33, 248, 160
-0.989335, 105, 185, 168, 248
-0.989348, 65, 289, 192, 352
-0.98969, 161, 313, 288, 375
-0.989699, 217, 305, 280, 368
-0.98974, 253, 121, 284, 184
-0.989835, 161, 257, 224, 320
-0.989908, 209, 161, 336, 224
-0.98997, 261, 129, 292, 256
-0.989999, 309, 241, 340, 368
-0.990092, 265, 241, 328, 304
-0.99026, 33, 225, 160, 352
-0.990274, 257, 313, 384, 375
-0.990404, 137, 301, 200, 332
-0.990437, 277, 289, 308, 352
-0.990478, 289, 241, 352, 304
-0.990525, 137, 289, 200, 320
-0.990562, 57, 89, 120, 152
-0.990581, 257, 137, 320, 200
-0.990598, 289, 265, 416, 328
-0.990609, 137, 277, 200, 308
-0.990698, 229, 65, 260, 192
-0.990785, 73, 345, 136, 375
-0.990862, 337, 241, 400, 368
-0.990988, 201, 73, 264, 136
-0.991003, 321, 257, 384, 320
-0.991306, 161, 113, 416, 240
-0.991353, 197, 313, 228, 375
-0.991405, 281, 193, 344, 320
-0.991408, 273, 309, 336, 340
-0.991456, 353, 313, 416, 375
-0.991467, 113, 257, 176, 320
-0.99149, 133, 281, 164, 344
-0.991558, 129, 265, 192, 296
-0.991568, 161, 309, 224, 340
-0.991571, 277, 313, 308, 375
-0.991573, 185, 33, 248, 96
-0.991605, 169, 321, 232, 352
-0.991648, 65, 313, 192, 375
-0.991665, 161, 297, 224, 328
-0.991686, 217, 121, 280, 152
-0.991706, 257, 113, 320, 240
-0.991728, 177, 121, 304, 184
-0.991748, 161, 281, 224, 312
-0.991754, 157, 265, 188, 328
-0.991819, 165, 305, 196, 368
-0.991844, 145, 321, 208, 352
-0.991849, 193, 313, 256, 344
-0.991855, 273, 297, 336, 328
-0.991855, 297, 301, 360, 332
-0.99186, 297, 317, 360, 348
-0.991924, 345, 317, 408, 348
-0.991958, 233, 65, 296, 192
-0.992007, 241, 241, 304, 368
-0.992103, 65, 265, 192, 328
-0.992131, 113, 281, 176, 312
-0.992143, 233, 169, 296, 200
-0.992144, 161, 269, 224, 300
-0.99216, 17, 81, 144, 208
-0.992299, 89, 153, 152, 184
-0.992323, 233, 317, 296, 348
-0.992328, 113, 301, 176, 332
-0.99234, 289, 285, 352, 316
-0.992372, 153, 297, 184, 360
-0.992387, 321, 313, 384, 344
-0.992406, 209, 101, 272, 132
-0.992407, 369, 321, 432, 352
-0.992445, 281, 209, 344, 272
-0.99245, 113, 177, 176, 304
-0.992455, 257, 129, 320, 375
-0.992486, 97, 345, 160, 375
-0.992531, 121, 313, 184, 344
-0.992594, 241, 265, 368, 328
-0.992624, 81, 137, 144, 168
-0.992628, 353, 305, 480, 368
-0.992672, 313, 269, 376, 300
-0.992682, 145, 281, 176, 312
-0.992707, 233, 153, 296, 184
-0.992741, 257, 165, 320, 196
-0.992743, 1, 1, 500, 128
-0.992747, 273, 321, 336, 352
-0.992753, 289, 273, 352, 304
-0.992757, 209, 313, 336, 375
-0.992799, 177, 265, 304, 328
-0.992833, 101, 345, 132, 375
-0.992834, 49, 345, 112, 375
-0.992838, 105, 269, 168, 300
-0.992862, 313, 329, 376, 360
-0.992888, 185, 301, 248, 332
-0.992895, 177, 309, 208, 340
-0.992896, 201, 85, 264, 116
-0.992912, 149, 293, 180, 324
-0.992912, 169, 297, 200, 328
-0.992913, 249, 293, 312, 324
-0.99292, 233, 305, 296, 336
-0.992935, 145, 269, 176, 300
-0.992953, 185, 37, 248, 68
-0.992955, 161, 285, 192, 316
-0.992963, 193, 73, 256, 104
-0.992968, 73, 121, 136, 152
-0.992974, 241, 113, 304, 144
-0.993009, 233, 141, 296, 172
-0.993011, 165, 273, 196, 304
-0.993013, 337, 329, 400, 360
-0.993025, 305, 317, 336, 348
-0.993027, 121, 345, 184, 375
-0.993034, 353, 305, 416, 336
-0.993036, 89, 165, 152, 196
-0.993037, 209, 325, 272, 356
-0.993041, 257, 193, 320, 256
-0.993045, 289, 305, 320, 336
-0.993056, 225, 177, 480, 304
-0.993064, 209, 33, 240, 160
-0.993106, 329, 289, 392, 320
-0.993111, 301, 305, 332, 336
-0.993113, 245, 117, 276, 148
-0.993117, 317, 317, 348, 348
-0.993141, 173, 285, 204, 316
-0.993156, 57, 93, 120, 124
-0.993166, 121, 253, 184, 284
-0.993166, 257, 185, 320, 216
-0.993182, 153, 305, 184, 336
-0.993185, 133, 269, 164, 300
-0.993195, 97, 185, 160, 216
-0.993207, 73, 345, 104, 375
-0.993211, 325, 305, 356, 336
-0.993211, 193, 57, 256, 88
-0.993229, 333, 317, 364, 348
-0.993234, 385, 309, 448, 340
-0.993239, 289, 253, 352, 284
-0.993259, 313, 301, 344, 332
-0.993259, 165, 309, 196, 340
-0.993304, 301, 293, 332, 324
-0.993317, 65, 109, 128, 140
-0.993321, 57, 81, 120, 112
-0.993339, 329, 301, 392, 332
-0.993341, 73, 145, 136, 208
-0.993345, 289, 289, 320, 320
-0.993349, 197, 321, 228, 352
-0.993355, 133, 285, 164, 316
-0.993356, 25, 345, 88, 375
-0.993357, 373, 313, 404, 344
-0.993377, 241, 125, 304, 156
-0.993378, 177, 321, 208, 352
-0.993386, 117, 157, 148, 188
-0.993398, 217, 309, 248, 340
-0.993402, 189, 309, 220, 340
-0.993404, 65, 313, 128, 375
-0.993406, 261, 165, 292, 196
-0.993413, 105, 137, 136, 168
-0.993414, 277, 293, 308, 324
-0.993416, 265, 265, 328, 296
-0.993421, 89, 345, 120, 375
-0.993429, 137, 297, 168, 328
-0.993433, 237, 101, 268, 132
-0.993436, 313, 273, 344, 304
-0.993437, 113, 149, 176, 180
-0.99344, 113, 345, 144, 375
-0.993444, 277, 305, 308, 336
-0.993452, 385, 317, 416, 348
-0.993456, 273, 165, 304, 196
-0.993463, 125, 177, 156, 208
-0.993467, 333, 269, 364, 300
-0.993467, 293, 317, 324, 348
-0.993477, 321, 289, 352, 320
-0.993479, 157, 261, 188, 292
-0.993483, 353, 317, 384, 348
-0.993483, 165, 321, 196, 352
-0.993484, 69, 81, 100, 112
-0.993491, 297, 273, 328, 336
-0.993498, 249, 129, 280, 160
-0.993506, 57, 333, 120, 364
-0.993507, 205, 33, 236, 64
-0.993507, 265, 153, 296, 184
-0.993511, 273, 325, 304, 356
-0.993512, 225, 97, 288, 352
-0.993514, 241, 165, 272, 196
-0.993514, 241, 233, 368, 296
-0.993521, 1, 309, 64, 340
-0.993522, 225, 73, 256, 104
-0.993527, 265, 161, 328, 224
-0.993528, 233, 313, 264, 344
-0.99353, 369, 129, 496, 375
-0.993532, 185, 289, 248, 320
-0.993535, 365, 325, 396, 356
-0.993542, 369, 333, 432, 364
-0.993542, 233, 121, 264, 152
-0.993553, 345, 329, 376, 360
-0.993555, 133, 257, 164, 288
-0.993555, 61, 345, 92, 375
-0.993561, 217, 61, 248, 92
-0.993563, 313, 257, 376, 288
-0.993563, 181, 297, 212, 328
-0.993568, 241, 329, 304, 360
-0.99357, 277, 153, 308, 184
-0.993571, 185, 269, 216, 300
-0.993585, 249, 105, 280, 136
-0.993587, 129, 97, 256, 224
-0.993595, 397, 321, 428, 352
-0.993599, 261, 137, 292, 168
-0.9936, 97, 125, 128, 156
-0.993603, 273, 153, 336, 184
-0.993604, 289, 277, 320, 308
-0.993615, 281, 237, 344, 268
-0.993622, 101, 113, 132, 240
-0.993622, 265, 205, 328, 236
-0.993628, 133, 309, 164, 340
-0.993628, 233, 325, 264, 356
-0.993629, 121, 277, 152, 308
-0.993632, 93, 157, 124, 188
-0.993632, 241, 209, 368, 272
-0.993634, 105, 157, 136, 188
-0.993642, 337, 305, 368, 336
-0.993642, 229, 89, 260, 120
-0.993644, 85, 137, 116, 168
-0.993644, 381, 329, 412, 360
-0.993658, 345, 265, 376, 296
-0.993661, 393, 305, 424, 336
-0.993664, 321, 329, 352, 360
-0.993673, 149, 317, 180, 348
-0.993675, 97, 197, 160, 228
-0.993677, 325, 253, 356, 284
-0.993679, 57, 137, 120, 168
-0.99368, 257, 233, 320, 264
-0.99368, 125, 345, 156, 375
-0.993682, 117, 145, 148, 176
-0.993682, 209, 157, 272, 188
-0.993684, 305, 209, 336, 240
-0.993692, 333, 329, 364, 360
-0.993693, 189, 281, 220, 312
-0.993694, 121, 265, 152, 296
-0.993694, 81, 89, 112, 120
-0.993694, 313, 261, 344, 292
-0.993695, 213, 49, 244, 80
-0.993698, 261, 121, 292, 152
-0.9937, 233, 101, 296, 132
-0.9937, 65, 157, 128, 188
-0.993705, 121, 225, 184, 256
-0.99371, 17, 113, 144, 176
-0.993712, 125, 297, 156, 328
-0.993716, 201, 309, 232, 340
-0.993722, 293, 265, 324, 296
-0.993724, 49, 153, 176, 216
-0.993725, 369, 301, 400, 332
-0.993727, 109, 189, 140, 220
-0.99373, 1, 309, 32, 340
-0.99373, 221, 325, 252, 356
-0.993735, 301, 197, 332, 228
-0.993736, 209, 301, 272, 332
-0.993738, 289, 177, 320, 208
-0.993739, 121, 237, 184, 268
-0.993744, 305, 249, 336, 280
-0.993745, 337, 241, 368, 368
-0.993747, 297, 213, 360, 244
-0.993752, 265, 253, 328, 284
-0.993757, 97, 257, 160, 288
-0.993759, 297, 237, 328, 268
-0.993759, 193, 37, 224, 68
-0.993766, 101, 333, 132, 364
-0.993766, 265, 313, 296, 344
-0.993766, 273, 185, 304, 216
-0.993769, 281, 265, 312, 296
-0.993776, 237, 153, 268, 184
-0.993776, 105, 333, 168, 364
-0.993778, 225, 109, 256, 140
-0.993778, 113, 173, 176, 204
-0.993782, 253, 153, 284, 184
-0.993782, 249, 309, 280, 340
-0.993784, 209, 321, 240, 352
-0.993786, 97, 313, 160, 344
-0.993787, 393, 333, 424, 364
-0.99379, 193, 297, 224, 328
-0.993795, 241, 85, 272, 116
-0.993796, 241, 89, 304, 120
-0.993797, 81, 77, 112, 108
-0.9938, 81, 333, 112, 364
-0.993803, 269, 273, 300, 304
-0.993806, 285, 165, 316, 196
-0.993812, 297, 225, 328, 256
-0.993816, 137, 181, 168, 212
-0.993817, 221, 157, 252, 188
-0.993819, 265, 217, 328, 248
-0.993819, 249, 281, 312, 312
-0.99382, 129, 197, 160, 228
-0.993821, 153, 257, 216, 288
-0.993822, 121, 309, 152, 340
-0.993822, 233, 181, 296, 212
-0.993823, 101, 169, 132, 200
-0.993824, 289, 205, 320, 236
-0.993825, 281, 185, 344, 216
-0.993826, 49, 345, 80, 375
-0.993854, 245, 97, 276, 160
-0.993859, 217, 57, 280, 88
-0.993908, 337, 265, 400, 296
-0.993916, 257, 141, 320, 172
-0.993916, 393, 321, 456, 352
-0.993927, 121, 185, 184, 216
-0.993937, 217, 73, 280, 104
-0.993949, 233, 121, 264, 184
-0.993968, 289, 169, 352, 200
-0.993976, 289, 197, 352, 228
-0.993979, 33, 81, 96, 112
-0.993994, 113, 161, 176, 192
-0.993994, 97, 121, 160, 152
-0.994004, 313, 245, 376, 276
-0.994013, 81, 329, 144, 360
-0.994018, 97, 105, 160, 136
-0.99402, 185, 277, 248, 308
-0.994027, 385, 297, 448, 328
-0.994033, 265, 129, 328, 160
-0.99404, 113, 137, 176, 168
-0.994049, 105, 209, 168, 240
-0.994054, 193, 113, 256, 144
-0.994054, 241, 269, 304, 300
-0.994065, 385, 305, 448, 368
-0.994065, 209, 173, 272, 204
-0.994091, 345, 341, 408, 372
-0.994093, 209, 25, 272, 56
-0.994109, 297, 225, 360, 256
-0.994116, 89, 285, 152, 316
-0.994117, 145, 229, 208, 260
-0.994145, 217, 45, 280, 76
-0.994145, 81, 73, 144, 104
-0.994171, 145, 245, 208, 276
-0.994171, 73, 305, 136, 336
-0.994182, 121, 197, 184, 228
-0.99419, 241, 257, 304, 288
-0.994227, 81, 193, 208, 256
-0.994234, 233, 281, 296, 344
-0.994249, 177, 241, 208, 368
-0.994319, 33, 1, 288, 128
-0.994352, 321, 241, 352, 368
-0.994363, 229, 81, 260, 144
-0.994396, 145, 145, 272, 272
-0.994407, 337, 281, 368, 344
-0.994428, 113, 153, 144, 216
-0.994484, 201, 33, 264, 288
-0.994489, 321, 265, 352, 328
-0.994563, 337, 225, 464, 352
-0.994564, 237, 113, 268, 240
-0.994614, 141, 305, 172, 368
-0.994622, 289, 241, 320, 368
-0.99468, 353, 289, 416, 352
-0.994868, 81, 97, 144, 352
-0.994912, 113, 129, 176, 192
-0.994953, 145, 89, 272, 152
-0.994953, 81, 241, 208, 304
-0.994964, 257, 137, 384, 200
-0.995014, 73, 185, 136, 248
-0.995044, 241, 97, 304, 160
-0.995093, 77, 81, 108, 144
-0.995093, 233, 161, 296, 288
-0.995119, 209, 49, 336, 176
-0.995128, 225, 97, 352, 224
-0.995224, 161, 225, 288, 288
-0.995265, 161, 153, 288, 216
-0.995371, 17, 305, 144, 368
-0.995399, 193, 97, 320, 160
-0.995404, 277, 153, 308, 216
-0.995424, 265, 121, 296, 184
-0.995448, 161, 289, 416, 352
-0.995453, 273, 129, 304, 256
-0.995482, 81, 113, 208, 240
-0.995503, 141, 193, 172, 320
-0.99551, 145, 57, 272, 120
-0.995555, 129, 249, 256, 312
-0.99556, 193, 17, 448, 144
-0.995586, 249, 153, 280, 216
-0.995641, 113, 129, 176, 256
-0.995756, 309, 313, 340, 375
-0.995771, 65, 121, 192, 184
-0.995797, 133, 257, 164, 320
-0.995851, 313, 233, 376, 296
-0.995903, 89, 193, 152, 320
-0.995956, 335, 289, 350, 352
-0.996005, 125, 161, 156, 224
-0.99603, 129, 225, 192, 288
-0.996106, 101, 145, 132, 208
-0.996131, 217, 305, 248, 368
-0.996138, 209, 185, 336, 248
-0.996179, 1, 89, 128, 152
-0.996213, 167, 281, 182, 344
-0.996219, 65, 97, 192, 160
-0.996303, 225, 309, 352, 340
-0.996381, 285, 257, 316, 320
-0.99641, 241, 113, 368, 176
-0.996423, 277, 241, 308, 368
-0.996471, 353, 281, 480, 344
-0.996474, 329, 273, 344, 336
-0.996494, 285, 289, 300, 352
-0.996549, 133, 241, 164, 368
-0.996574, 209, 1, 272, 375
-0.996577, 97, 233, 352, 296
-0.996635, 97, 265, 352, 328
-0.996655, 189, 297, 204, 360
-0.996692, 189, 265, 220, 328
-0.996706, 293, 305, 308, 368
-0.996718, 229, 305, 260, 368
-0.996729, 305, 193, 368, 320
-0.996746, 185, 1, 248, 375
-0.996817, 197, 289, 228, 352
-0.996828, 289, 301, 416, 332
-0.996883, 273, 313, 400, 344
-0.996891, 261, 113, 276, 176
-0.996908, 161, 233, 224, 296
-0.996911, 145, 305, 272, 336
-0.99694, 157, 273, 172, 336
-0.99694, 241, 233, 304, 296
-0.996944, 145, 177, 272, 240
-0.996945, 237, 145, 268, 208
-0.996997, 181, 281, 196, 344
-0.997, 175, 273, 190, 336
-0.997008, 1, 281, 256, 344
-0.997009, 291, 281, 306, 344
-0.99701, 33, 313, 288, 375
-0.997023, 325, 297, 340, 360
-0.997054, 89, 273, 152, 336
-0.997072, 381, 305, 412, 368
-0.997077, 97, 161, 352, 224
-0.997099, 153, 241, 184, 304
-0.997104, 269, 129, 284, 192
-0.99711, 217, 169, 280, 232
-0.99712, 129, 289, 256, 320
-0.997125, 337, 257, 368, 320
-0.997144, 113, 33, 240, 96
-0.997151, 97, 113, 128, 176
-0.99716, 97, 169, 224, 232
-0.997166, 129, 177, 160, 304
-0.997168, 121, 145, 136, 208
-0.997171, 309, 257, 340, 320
-0.997173, 193, 313, 448, 375
-0.997184, 299, 297, 314, 360
-0.997196, 275, 137, 290, 200
-0.997219, 265, 281, 296, 344
-0.997224, 193, 73, 320, 136
-0.997262, 117, 241, 148, 368
-0.997263, 81, 269, 208, 300
-0.997293, 193, 121, 256, 184
-0.9973, 113, 321, 240, 352
-0.997301, 257, 161, 384, 224
-0.997314, 97, 305, 224, 336
-0.997333, 265, 313, 296, 375
-0.997337, 161, 317, 288, 348
-0.997352, 205, 33, 236, 96
-0.997355, 121, 313, 152, 375
-0.997359, 225, 297, 352, 328
-0.997365, 81, 65, 112, 192
-0.997366, 273, 269, 400, 300
-0.997382, 161, 297, 176, 360
-0.997442, 251, 97, 266, 160
-0.997443, 183, 305, 198, 368
-0.997445, 113, 113, 240, 176
-0.997449, 305, 297, 320, 360
-0.997451, 121, 265, 152, 328
-0.997465, 153, 193, 184, 320
-0.997472, 121, 161, 184, 224
-0.997494, 113, 129, 144, 256
-0.997517, 151, 265, 166, 328
-0.997521, 129, 277, 256, 308
-0.997551, 253, 297, 284, 360
-0.99759, 97, 145, 224, 208
-0.997593, 129, 201, 192, 264
-0.997596, 369, 305, 400, 368
-0.997603, 319, 289, 334, 352
-0.997603, 333, 313, 348, 375
-0.99762, 145, 273, 160, 336
-0.997629, 341, 289, 356, 352
-0.997659, 193, 49, 320, 112
-0.997669, 159, 281, 174, 312
-0.997704, 173, 305, 188, 368
-0.997709, 97, 345, 224, 375
-0.997713, 169, 285, 184, 316
-0.997717, 257, 265, 500, 328
-0.997717, 165, 193, 196, 320
-0.997736, 97, 33, 224, 160
-0.99774, 193, 273, 256, 336
-0.997755, 247, 121, 262, 184
-0.997761, 197, 313, 212, 375
-0.997776, 229, 49, 244, 112
-0.997804, 161, 201, 288, 264
-0.997807, 257, 289, 500, 352
-0.997837, 281, 145, 296, 208
-0.997862, 369, 1, 496, 256
-0.997869, 257, 325, 384, 356
-0.997875, 65, 293, 192, 324
-0.997876, 17, 345, 144, 375
-0.997894, 127, 145, 142, 208
-0.997901, 167, 305, 182, 368
-0.997901, 149, 273, 164, 304
-0.99791, 297, 273, 312, 336
-0.997927, 65, 185, 320, 248
-0.997929, 163, 257, 178, 320
-0.997937, 113, 345, 128, 375
-0.997938, 313, 313, 328, 344
-0.99795, 139, 169, 154, 232
-0.997952, 171, 297, 186, 328
-0.997969, 321, 309, 336, 340
-0.997997, 81, 97, 144, 160
-0.998001, 137, 281, 152, 344
-0.998002, 101, 313, 132, 375
-0.998003, 321, 317, 448, 348
-0.998003, 33, 177, 160, 240
-0.998011, 323, 257, 338, 320
-0.998018, 241, 73, 256, 136
-0.99802, 289, 289, 416, 320
-0.99803, 253, 49, 284, 176
-0.99803, 1, 297, 500, 360
-0.998041, 345, 305, 376, 368
-0.998049, 327, 313, 342, 344
-0.998082, 257, 129, 500, 256
-0.998098, 155, 297, 170, 360
-0.998107, 115, 145, 130, 208
-0.998108, 309, 201, 340, 264
-0.99811, 113, 121, 128, 184
-0.99811, 217, 57, 248, 120
-0.998117, 147, 297, 162, 360
-0.998127, 191, 309, 206, 340
-0.998135, 217, 33, 232, 96
-0.998152, 81, 241, 144, 368
-0.998174, 97, 137, 352, 200
-0.998179, 149, 289, 164, 320
-0.998211, 383, 305, 398, 368
-0.998212, 265, 241, 296, 368
-0.998217, 287, 313, 302, 375
-0.998222, 331, 285, 346, 316
-0.998232, 89, 249, 152, 312
-0.998237, 81, 281, 208, 312
-0.998239, 269, 153, 284, 216
-0.99824, 175, 277, 190, 308
-0.99824, 289, 201, 416, 264
-0.998241, 143, 273, 158, 304
-0.998242, 339, 313, 354, 375
-0.998256, 313, 297, 328, 360
-0.998256, 185, 277, 216, 292
-0.998257, 49, 355, 80, 370
-0.998258, 337, 307, 368, 322
-0.998258, 89, 105, 120, 120
-0.998258, 269, 317, 300, 332
-0.998258, 269, 155, 300, 170
-0.99826, 137, 293, 168, 308
-0.998261, 317, 285, 348, 300
-0.998261, 101, 187, 132, 202
-0.998263, 217, 63, 248, 78
-0.998264, 245, 329, 276, 344
-0.998264, 121, 181, 152, 196
-0.998264, 69, 87, 100, 102
-0.998265, 81, 73, 208, 136
-0.998265, 373, 313, 404, 328
-0.998265, 273, 189, 304, 204
-0.998265, 313, 277, 344, 292
-0.998266, 269, 173, 300, 188
-0.998266, 289, 271, 320, 286
-0.998266, 121, 357, 152, 372
-0.998267, 129, 265, 160, 280
-0.998267, 217, 319, 248, 334
-0.998267, 117, 155, 148, 170
-0.998269, 141, 319, 172, 334
-0.998269, 277, 277, 308, 292
-0.998271, 255, 121, 270, 184
-0.998272, 385, 333, 416, 348
-0.998272, 373, 331, 404, 346
-0.998273, 81, 95, 112, 110
-0.998273, 197, 313, 228, 328
-0.998274, 397, 327, 428, 342
-0.998274, 121, 189, 152, 204
-0.998276, 349, 317, 380, 332
-0.998276, 85, 349, 116, 364
-0.998277, 245, 113, 276, 128
-0.998278, 381, 319, 412, 334
-0.998279, 241, 257, 368, 288
-0.99828, 245, 163, 276, 178
-0.99828, 107, 345, 122, 375
-0.998281, 121, 351, 152, 366
-0.998281, 65, 81, 96, 96
-0.998281, 285, 187, 316, 202
-0.998282, 313, 301, 328, 332
-0.998282, 205, 37, 236, 52
-0.998285, 337, 267, 368, 282
-0.998285, 361, 317, 392, 332
-0.998285, 237, 169, 268, 184
-0.998285, 377, 325, 408, 340
-0.998287, 169, 325, 200, 340
-0.998287, 305, 211, 336, 226
-0.998287, 93, 161, 124, 176
-0.99829, 237, 127, 268, 142
-0.998292, 233, 161, 264, 176
-0.998292, 303, 301, 318, 332
-0.998292, 229, 95, 260, 110
-0.998293, 273, 167, 304, 182
-0.998293, 169, 279, 200, 294
-0.998294, 313, 265, 344, 280
-0.998294, 105, 155, 136, 170
-0.998294, 197, 325, 228, 340
-0.998294, 277, 307, 308, 322
-0.998295, 325, 329, 356, 344
-0.998298, 101, 137, 132, 152
-0.998301, 309, 295, 340, 310
-0.998301, 225, 79, 256, 94
-0.998301, 233, 121, 264, 136
-0.998302, 65, 355, 96, 370
-0.998303, 145, 313, 176, 328
-0.998304, 289, 303, 320, 318
-0.998306, 261, 161, 292, 176
-0.998307, 289, 285, 320, 300
-0.998307, 321, 303, 352, 318
-0.998308, 293, 321, 324, 336
-0.998309, 221, 73, 252, 88
-0.998309, 137, 299, 168, 314
-0.99831, 237, 103, 268, 118
-0.998314, 301, 271, 332, 286
-0.998316, 161, 297, 192, 312
-0.998317, 249, 169, 280, 184
-0.998323, 157, 325, 188, 340
-0.998324, 181, 313, 212, 328
-0.998325, 155, 269, 170, 300
-0.998325, 301, 309, 332, 324
-0.998326, 97, 361, 128, 375
-0.998327, 365, 325, 396, 340
-0.998328, 105, 161, 136, 176
-0.99833, 179, 313, 194, 344
-0.99833, 169, 257, 184, 320
-0.99833, 253, 137, 284, 152
-0.998331, 181, 325, 212, 340
-0.998332, 289, 293, 320, 308
-0.998335, 177, 301, 192, 332
-0.998336, 325, 309, 356, 324
-0.998336, 325, 269, 356, 284
-0.998337, 321, 297, 352, 312
-0.998338, 281, 315, 312, 330
-0.998341, 327, 273, 342, 304
-0.998342, 169, 291, 200, 306
-0.998346, 261, 167, 292, 182
-0.998347, 101, 349, 132, 364
-0.998348, 161, 269, 176, 300
-0.99835, 349, 241, 380, 368
-0.998351, 177, 305, 208, 320
-0.998354, 249, 129, 280, 144
-0.998355, 167, 273, 182, 304
-0.99836, 157, 277, 188, 292
-0.998362, 273, 323, 304, 338
-0.998363, 263, 137, 278, 200
-0.998365, 97, 105, 352, 168
-0.998365, 321, 291, 352, 306
-0.998365, 157, 309, 188, 324
-0.998366, 349, 323, 380, 338
-0.998368, 117, 161, 148, 176
-0.998368, 337, 327, 368, 342
-0.998368, 79, 345, 94, 375
-0.998369, 101, 169, 132, 232
-0.99837, 289, 309, 320, 324
-0.998371, 391, 317, 406, 348
-0.998375, 313, 271, 344, 286
-0.998376, 245, 121, 276, 136
-0.998376, 141, 285, 172, 300
-0.998376, 53, 361, 84, 375
-0.998379, 173, 299, 204, 314
-0.99838, 301, 301, 332, 316
-0.99838, 333, 315, 364, 330
-0.998381, 157, 319, 188, 334
-0.998384, 197, 319, 228, 334
-0.998384, 149, 293, 180, 308
-0.998388, 109, 355, 140, 370
-0.998392, 133, 271, 164, 286
-0.998393, 153, 271, 184, 286
-0.998397, 259, 117, 274, 148
-0.998403, 169, 313, 200, 328
-0.998418, 313, 309, 344, 324
-0.998418, 181, 281, 196, 312
-0.998421, 325, 323, 356, 338
-0.998422, 241, 85, 256, 116
-0.998422, 143, 285, 158, 316
-0.998424, 161, 303, 192, 318
-0.998429, 73, 355, 136, 370
-0.998429, 153, 283, 184, 298
-0.998438, 309, 321, 340, 336
-0.998438, 109, 361, 140, 375
-0.998439, 137, 277, 168, 292
-0.99844, 209, 173, 336, 204
-0.998441, 321, 317, 352, 332
-0.998442, 219, 297, 234, 360
-0.998442, 177, 319, 208, 334
-0.998444, 149, 303, 180, 318
-0.998446, 279, 281, 294, 344
-0.998447, 169, 285, 200, 300
-0.998451, 253, 109, 268, 140
-0.998453, 337, 321, 368, 336
-0.998453, 249, 1, 312, 375
-0.99846, 391, 305, 406, 368
-0.998464, 309, 273, 324, 336
-0.998469, 293, 315, 324, 330
-0.998473, 155, 293, 170, 324
-0.998474, 161, 193, 224, 320
-0.998476, 349, 321, 364, 352
-0.998478, 129, 209, 384, 272
-0.998481, 185, 309, 200, 340
-0.998486, 335, 297, 350, 328
-0.998488, 309, 315, 340, 330
-0.998489, 177, 289, 304, 320
-0.99849, 319, 313, 334, 375
-0.998493, 103, 105, 118, 168
-0.998496, 77, 357, 108, 372
-0.998498, 295, 309, 310, 340
-0.998503, 85, 345, 100, 375
-0.998505, 279, 305, 294, 368
-0.998506, 121, 145, 136, 176
-0.998509, 161, 109, 288, 140
-0.998513, 97, 1, 160, 375
-0.99852, 257, 145, 384, 272
-0.99853, 169, 319, 232, 334
-0.998533, 203, 313, 218, 375
-0.998533, 33, 193, 288, 320
-0.998536, 97, 355, 128, 370
-0.998537, 225, 213, 352, 244
-0.998539, 101, 345, 116, 375
-0.99854, 139, 257, 154, 320
-0.998542, 65, 361, 96, 375
-0.998543, 163, 293, 178, 324
-0.998544, 281, 321, 344, 336
-0.998547, 265, 105, 328, 168
-0.998548, 49, 359, 112, 374
-0.99855, 145, 301, 208, 316
-0.998555, 291, 257, 306, 320
-0.998556, 89, 89, 120, 152
-0.998558, 321, 321, 384, 336
-0.998559, 249, 121, 264, 152
-0.998562, 239, 73, 254, 104
-0.998563, 281, 315, 344, 330
-0.998565, 245, 97, 260, 160
-0.998572, 65, 317, 192, 348
-0.998575, 307, 313, 322, 344
-0.998578, 321, 297, 336, 328
-0.998578, 93, 345, 108, 375
-0.998579, 137, 291, 200, 306
-0.99858, 305, 311, 368, 326
-0.998581, 133, 153, 148, 216
-0.998584, 289, 233, 416, 296
-0.998589, 209, 157, 336, 188
-0.998589, 143, 297, 158, 328
-0.998596, 137, 275, 200, 290
-0.9986, 153, 313, 216, 328
-0.998602, 335, 309, 350, 340
-0.998602, 89, 361, 152, 375
-0.998602, 145, 323, 208, 338
-0.998605, 281, 271, 344, 286
-0.998605, 115, 313, 130, 375
-0.998608, 241, 225, 368, 256
-0.99861, 337, 329, 464, 360
-0.998611, 121, 157, 136, 188
-0.998612, 345, 313, 360, 375
-0.998614, 169, 313, 184, 344
-0.998615, 137, 285, 152, 316
-0.998616, 357, 313, 388, 375
-0.998625, 145, 285, 208, 300
-0.998627, 145, 193, 160, 256
-0.99863, 275, 161, 290, 224
-0.998631, 121, 121, 136, 184
-0.998633, 217, 127, 280, 142
-0.998635, 193, 317, 256, 332
-0.998635, 129, 265, 256, 296
-0.998636, 121, 303, 184, 318
-0.998637, 89, 163, 152, 178
-0.998638, 169, 325, 232, 340
-0.998639, 313, 269, 376, 284
-0.998646, 361, 321, 424, 336
-0.998646, 289, 303, 352, 318
-0.998647, 81, 349, 144, 364
-0.998648, 337, 327, 400, 342
-0.998649, 277, 165, 292, 196
-0.99865, 281, 285, 344, 300
-0.99865, 257, 325, 320, 340
-0.998654, 217, 121, 280, 136
-0.998655, 193, 323, 256, 338
-0.998658, 265, 307, 328, 322
-0.998658, 233, 169, 296, 184
-0.998659, 257, 189, 320, 204
-0.998661, 129, 315, 192, 330
-0.998662, 121, 283, 184, 298
-0.998663, 223, 41, 238, 104
-0.998664, 291, 293, 306, 324
-0.998667, 145, 307, 208, 322
-0.998671, 289, 327, 352, 342
-0.998671, 185, 293, 200, 324
-0.998673, 113, 355, 176, 370
-0.998675, 287, 153, 302, 216
-0.998676, 241, 313, 256, 344
-0.998677, 209, 103, 272, 118
-0.998679, 109, 313, 124, 375
-0.998679, 285, 265, 300, 328
-0.99868, 313, 327, 376, 342
-0.99868, 129, 269, 192, 284
-0.998681, 333, 321, 348, 352
-0.998682, 121, 323, 184, 338
-0.998682, 273, 97, 400, 224
-0.998683, 89, 155, 152, 170
-0.998684, 209, 329, 272, 344
-0.998685, 233, 321, 296, 336
-0.998685, 81, 139, 144, 154
-0.998685, 329, 315, 392, 330
-0.998686, 73, 345, 88, 375
-0.998687, 297, 295, 360, 310
-0.99869, 385, 309, 400, 340
-0.99869, 113, 295, 176, 310
-0.998691, 25, 361, 88, 375
-0.998692, 121, 309, 184, 324
-0.998692, 225, 137, 288, 152
-0.998693, 281, 187, 344, 202
-0.998695, 161, 291, 224, 306
-0.998696, 169, 299, 232, 314
-0.998697, 169, 283, 232, 298
-0.998698, 287, 309, 302, 340
-0.998698, 273, 291, 336, 306
-0.998699, 257, 315, 320, 330
-0.998701, 233, 315, 296, 330
-0.998703, 77, 73, 92, 136
-0.998705, 175, 249, 190, 312
-0.998705, 65, 81, 320, 144
-0.998705, 361, 327, 424, 342
-0.998709, 305, 263, 368, 278
-0.998709, 257, 167, 320, 182
-0.998709, 249, 127, 312, 142
-0.998709, 321, 265, 336, 296
-0.998711, 201, 79, 264, 94
-0.998711, 197, 317, 212, 348
-0.998711, 225, 163, 288, 178
-0.998711, 113, 157, 176, 172
-0.998711, 113, 277, 176, 292
-0.998712, 209, 321, 336, 352
-0.998713, 105, 349, 168, 364
-0.998714, 233, 327, 296, 342
-0.998715, 201, 91, 264, 106
-0.998716, 161, 275, 224, 290
-0.998716, 259, 89, 274, 152
-0.998716, 185, 311, 248, 326
-0.998717, 241, 121, 304, 136
-0.998719, 201, 85, 264, 100
-0.998719, 97, 183, 160, 198
-0.998721, 297, 213, 360, 228
-0.998721, 193, 71, 256, 86
-0.998723, 209, 115, 272, 130
-0.998723, 273, 297, 336, 312
-0.998724, 73, 127, 136, 142
-0.998724, 97, 191, 160, 206
-0.998725, 25, 355, 88, 370
-0.998725, 249, 161, 312, 176
-0.998725, 209, 109, 272, 124
-0.998726, 249, 181, 312, 196
-0.998726, 273, 265, 336, 280
-0.998727, 107, 161, 122, 224
-0.998727, 281, 277, 344, 292
-0.998728, 209, 97, 272, 112
-0.998731, 121, 169, 136, 232
-0.998731, 321, 305, 384, 320
-0.998732, 337, 269, 352, 300
-0.998734, 231, 121, 246, 184
-0.998734, 313, 275, 376, 290
-0.998737, 177, 39, 240, 54
-0.998737, 305, 289, 368, 304
-0.998739, 49, 349, 112, 364
-0.998739, 185, 305, 248, 320
-0.998739, 57, 93, 120, 108
-0.998739, 257, 133, 320, 148
-0.99874, 97, 271, 160, 286
-0.998741, 233, 175, 296, 190
-0.998742, 241, 153, 304, 168
-0.998743, 249, 97, 264, 128
-0.998743, 281, 181, 344, 196
-0.998743, 65, 117, 128, 132
-0.998743, 145, 329, 208, 344
-0.998744, 273, 153, 288, 184
-0.998744, 185, 57, 248, 72
-0.998745, 113, 361, 176, 375
-0.998745, 137, 265, 152, 296
-0.998746, 353, 333, 416, 348
-0.998746, 233, 115, 296, 130
-0.998747, 153, 267, 216, 282
-0.998747, 65, 161, 128, 176
-0.998749, 433, 305, 496, 368
-0.998749, 341, 265, 356, 328
-0.998751, 65, 111, 128, 126
-0.998751, 257, 239, 320, 254
-0.998751, 57, 99, 120, 114
-0.998751, 241, 305, 256, 368
-0.998751, 359, 313, 374, 375
-0.998752, 193, 123, 256, 138
-0.998753, 225, 309, 288, 324
-0.998753, 105, 265, 168, 280
-0.998754, 81, 147, 144, 162
-0.998754, 297, 237, 360, 252
-0.998755, 239, 137, 254, 200
-0.998755, 257, 173, 320, 188
-0.998756, 65, 105, 128, 120
-0.998756, 329, 333, 392, 348
-0.998756, 73, 133, 136, 148
-0.998757, 193, 63, 256, 78
-0.998758, 385, 329, 448, 344
-0.998758, 97, 197, 160, 212
-0.998758, 233, 95, 296, 110
-0.998758, 229, 17, 260, 144
-0.998759, 265, 207, 328, 222
-0.998759, 329, 285, 392, 300
-0.99876, 177, 331, 240, 346
-0.998761, 49, 83, 112, 98
-0.998761, 267, 129, 282, 160
-0.998763, 353, 313, 416, 328
-0.998763, 337, 267, 400, 282
-0.998763, 129, 229, 192, 244
-0.99877, 335, 265, 350, 328
-0.998771, 297, 225, 328, 288
-0.998777, 127, 149, 142, 180
-0.998777, 161, 233, 176, 296
-0.998782, 187, 273, 202, 336
-0.998782, 321, 321, 336, 352
-0.998792, 33, 141, 160, 172
-0.998792, 343, 321, 358, 352
-0.998799, 1, 309, 16, 340
-0.9988, 235, 313, 250, 344
-0.998823, 229, 61, 244, 92
-0.998827, 265, 81, 296, 208
-0.998839, 317, 201, 332, 264
-0.998842, 351, 305, 366, 368
-0.998843, 273, 129, 304, 375
-0.998845, 149, 261, 164, 292
-0.998845, 239, 97, 254, 160
-0.998846, 175, 265, 190, 296
-0.998851, 341, 305, 356, 336
-0.998852, 107, 117, 122, 148
-0.998853, 191, 321, 206, 352
-0.998862, 193, 25, 320, 88
-0.998863, 273, 137, 288, 168
-0.998864, 365, 313, 380, 375
-0.998867, 285, 153, 300, 184
-0.998874, 185, 321, 200, 352
-0.998876, 95, 89, 110, 152
-0.998881, 283, 173, 298, 204
-0.998885, 315, 241, 330, 304
-0.998885, 211, 313, 226, 375
-0.998889, 281, 169, 296, 232
-0.998889, 119, 345, 134, 375
-0.998893, 175, 325, 190, 356
-0.998895, 235, 305, 250, 368
-0.998895, 161, 305, 176, 336
-0.998898, 65, 73, 96, 136
-0.9989, 233, 73, 248, 104
-0.998906, 373, 289, 388, 352
-0.99891, 209, 289, 224, 352
-0.998921, 193, 193, 320, 320
-0.998924, 337, 285, 352, 316
-0.998926, 209, 189, 336, 220
-0.998926, 287, 321, 302, 352
-0.998931, 177, 273, 304, 304
-0.998933, 319, 253, 334, 284
-0.998934, 217, 37, 232, 68
-0.99894, 229, 309, 244, 340
-0.998946, 161, 329, 288, 360
-0.998948, 327, 325, 342, 356
-0.998951, 265, 117, 280, 148
-0.998954, 113, 253, 240, 284
-0.998957, 131, 265, 146, 328
-0.998963, 297, 297, 312, 328
-0.998965, 97, 149, 112, 180
-0.998966, 241, 245, 368, 276
-0.998967, 193, 141, 320, 172
-0.998968, 195, 289, 210, 352
-0.998973, 399, 321, 414, 352
-0.998979, 191, 297, 206, 328
-0.99898, 113, 129, 176, 375
-0.99898, 87, 77, 102, 108
-0.998981, 223, 45, 238, 76
-0.998983, 243, 117, 258, 148
-0.998985, 151, 185, 166, 248
-0.998994, 197, 305, 212, 336
-0.998994, 235, 57, 250, 120
-0.998997, 279, 153, 294, 184
-0.999001, 89, 73, 104, 136
-0.999001, 397, 305, 412, 368
-0.999001, 249, 85, 264, 116
-0.999012, 357, 313, 372, 344
-0.999016, 261, 161, 276, 224
-0.999017, 251, 73, 266, 136
-0.999017, 1, 137, 128, 200
-0.999018, 1, 305, 128, 336
-0.999029, 395, 305, 410, 336
-0.999034, 241, 165, 256, 196
-0.999035, 129, 313, 144, 375
-0.999036, 145, 309, 160, 340
-0.99904, 329, 301, 344, 332
-0.999041, 49, 161, 176, 192
-0.999043, 251, 153, 266, 216
-0.999044, 311, 205, 326, 236
-0.999046, 105, 185, 120, 248
-0.999047, 267, 145, 282, 176
-0.999047, 291, 169, 306, 200
-0.999049, 303, 213, 318, 244
-0.999049, 97, 313, 112, 375
-0.999049, 263, 165, 278, 196
-0.99905, 193, 1, 320, 128
-0.999052, 239, 325, 254, 356
-0.999052, 309, 233, 324, 264
-0.999053, 169, 233, 184, 296
-0.999064, 65, 129, 128, 256
-0.999064, 145, 53, 272, 84
-0.999064, 83, 73, 98, 136
-0.999067, 211, 317, 226, 348
-0.999068, 367, 321, 382, 352
-0.999069, 285, 293, 300, 324
-0.99907, 225, 201, 352, 232
-0.999072, 321, 265, 448, 296
-0.999073, 397, 333, 412, 364
-0.999074, 77, 77, 92, 108
-0.999081, 203, 317, 218, 348
-0.999082, 393, 305, 424, 368
-0.999085, 347, 309, 362, 340
-0.999093, 1, 265, 500, 328
-0.999095, 273, 313, 288, 375
-0.999095, 403, 313, 418, 375
-0.999097, 303, 289, 318, 320
-0.999098, 377, 325, 392, 356
-0.999099, 7, 309, 22, 340
-0.9991, 361, 325, 376, 356
-0.999101, 301, 177, 316, 240
-0.999106, 283, 241, 298, 304
-0.999108, 141, 189, 156, 220
-0.999109, 257, 129, 272, 160
-0.99911, 243, 105, 258, 136
-0.99911, 311, 193, 326, 256
-0.999114, 301, 313, 316, 344
-0.999115, 275, 317, 290, 348
-0.999116, 293, 321, 308, 352
-0.999116, 385, 321, 400, 352
-0.999117, 177, 129, 304, 160
-0.999117, 225, 273, 352, 304
-0.999117, 331, 257, 346, 288
-0.999119, 141, 305, 156, 368
-0.999119, 257, 145, 384, 176
-0.999124, 257, 157, 384, 188
-0.999132, 303, 273, 318, 336
-0.999136, 165, 225, 180, 352
-0.999136, 161, 97, 288, 128
-0.999143, 201, 289, 216, 352
-0.999143, 65, 129, 192, 160
-0.999144, 49, 305, 176, 336
-0.999146, 251, 305, 266, 368
-0.999163, 151, 241, 166, 304
-0.999174, 225, 297, 240, 360
-0.999177, 241, 81, 368, 144
-0.999177, 303, 217, 318, 280
-0.999178, 145, 81, 272, 112
-0.99918, 111, 185, 126, 248
-0.999181, 235, 169, 250, 232
-0.999202, 99, 185, 114, 248
-0.999204, 103, 305, 118, 368
-0.999206, 209, 145, 272, 208
-0.999211, 225, 285, 352, 316
-0.999214, 267, 105, 282, 168
-0.999216, 295, 169, 310, 232
-0.999222, 289, 217, 416, 248
-0.999224, 177, 261, 304, 292
-0.999231, 305, 253, 432, 284
-0.999234, 311, 217, 326, 280
-0.999234, 315, 265, 330, 328
-0.99926, 193, 85, 320, 116
-0.999261, 209, 117, 336, 148
-0.999264, 257, 337, 384, 368
-0.999267, 301, 193, 332, 320
-0.99927, 1, 257, 256, 320
-0.99927, 81, 197, 208, 228
-0.999271, 265, 169, 296, 232
-0.999282, 337, 301, 464, 332
-0.999297, 109, 121, 140, 184
-0.9993, 171, 241, 186, 368
-0.999314, 161, 229, 288, 260
-0.999317, 225, 33, 256, 288
-0.999342, 313, 241, 328, 368
-0.999346, 81, 141, 208, 172
-0.999356, 193, 65, 320, 96
-0.999357, 65, 257, 192, 288
-0.999375, 145, 65, 272, 96
-0.999376, 159, 209, 174, 336
-0.999381, 209, 101, 336, 132
-0.999381, 129, 41, 256, 72
-0.999382, 17, 333, 144, 364
-0.999384, 253, 97, 284, 352
-0.999391, 145, 193, 272, 224
-0.999393, 269, 129, 284, 256
-0.999406, 249, 145, 280, 272
-0.999428, 241, 73, 304, 136
-0.99943, 177, 241, 192, 368
-0.99943, 1, 281, 128, 344
-0.999439, 1, 85, 128, 116
-0.999448, 161, 157, 288, 188
-0.999457, 225, 201, 480, 264
-0.999457, 241, 65, 256, 192
-0.999476, 323, 241, 338, 368
-0.999478, 97, 333, 224, 364
-0.999482, 1, 233, 256, 296
-0.999496, 153, 1, 216, 375
-0.999502, 293, 301, 308, 316
-0.999502, 335, 271, 350, 286
-0.999503, 63, 355, 78, 370
-0.999503, 181, 289, 196, 304
-0.999503, 87, 79, 102, 94
-0.999504, 85, 351, 100, 366
-0.999504, 339, 297, 354, 312
-0.999504, 291, 285, 306, 300
-0.999504, 351, 265, 366, 280
-0.999505, 243, 121, 258, 136
-0.999506, 283, 317, 298, 332
-0.999507, 265, 127, 280, 142
-0.999507, 145, 299, 160, 314
-0.999508, 323, 287, 338, 302
-0.999508, 265, 169, 280, 184
-0.999508, 183, 295, 198, 310
-0.999508, 371, 327, 386, 342
-0.999508, 301, 315, 316, 330
-0.999508, 279, 173, 294, 188
-0.999508, 283, 181, 298, 196
-0.999509, 173, 285, 188, 300
-0.999509, 195, 315, 210, 330
-0.99951, 389, 319, 404, 334
-0.99951, 275, 129, 290, 256
-0.99951, 179, 307, 194, 322
-0.999511, 269, 139, 284, 154
-0.999512, 239, 85, 254, 100
-0.999512, 113, 161, 128, 176
-0.999513, 343, 327, 358, 342
-0.999513, 377, 325, 392, 340
-0.999514, 197, 323, 212, 338
-0.999514, 107, 121, 122, 136
-0.999515, 235, 77, 250, 92
-0.999516, 171, 291, 186, 306
-0.999517, 175, 325, 190, 340
-0.999517, 177, 301, 192, 316
-0.999517, 183, 319, 198, 334
-0.999518, 225, 55, 240, 70
-0.999518, 315, 321, 330, 336
-0.999518, 193, 53, 320, 84
-0.999518, 287, 189, 302, 204
-0.999519, 321, 265, 336, 280
-0.999523, 349, 327, 364, 342
-0.999524, 161, 313, 176, 328
-0.999524, 333, 301, 348, 316
-0.999525, 137, 271, 152, 286
-0.999526, 157, 277, 172, 292
-0.999528, 227, 61, 242, 76
-0.999528, 201, 315, 216, 330
-0.999529, 151, 293, 166, 308
-0.99953, 317, 271, 332, 286
-0.99953, 259, 97, 274, 224
-0.999531, 177, 37, 304, 68
-0.999532, 185, 313, 200, 328
-0.999532, 177, 277, 192, 292
-0.999533, 295, 307, 310, 322
-0.999533, 215, 37, 230, 52
-0.999533, 307, 305, 322, 320
-0.999533, 261, 137, 276, 152
-0.999533, 293, 323, 308, 338
-0.999533, 369, 313, 496, 344
-0.999534, 145, 291, 160, 306
-0.999534, 319, 299, 334, 314
-0.999534, 241, 65, 272, 320
-0.999534, 69, 355, 84, 370
-0.999535, 65, 57, 320, 120
-0.999537, 329, 269, 344, 284
-0.999537, 201, 241, 264, 368
-0.999538, 125, 153, 140, 168
-0.999539, 189, 307, 204, 322
-0.999539, 145, 241, 160, 368
-0.999539, 307, 311, 322, 326
-0.99954, 243, 91, 258, 106
-0.999542, 143, 277, 158, 292
-0.999542, 127, 159, 142, 174
-0.999543, 113, 105, 176, 168
-0.999543, 151, 307, 166, 322
-0.999544, 251, 129, 266, 144
-0.999544, 143, 285, 158, 300
-0.999544, 249, 121, 264, 136
-0.999546, 355, 321, 370, 336
-0.999546, 251, 97, 266, 224
-0.999547, 189, 241, 220, 368
-0.999547, 169, 313, 184, 328
-0.999549, 327, 279, 342, 294
-0.999549, 153, 209, 168, 336
-0.99955, 385, 313, 400, 328
-0.99955, 193, 113, 448, 176
-0.999553, 331, 309, 346, 324
-0.999554, 277, 167, 292, 182
-0.999555, 253, 113, 268, 128
-0.999558, 167, 321, 182, 336
-0.999558, 337, 319, 352, 334
-0.999559, 303, 299, 318, 314
-0.99956, 191, 321, 206, 336
-0.999561, 33, 241, 160, 304
-0.999563, 151, 301, 166, 316
-0.999564, 339, 303, 354, 318
-0.999564, 333, 295, 348, 310
-0.999567, 151, 285, 166, 300
-0.99957, 295, 315, 310, 330
-0.99957, 179, 283, 194, 298
-0.999571, 349, 321, 364, 336
-0.999572, 17, 129, 144, 160
-0.999572, 175, 313, 190, 328
-0.999572, 161, 293, 176, 308
-0.999574, 107, 349, 122, 364
-0.999575, 259, 121, 274, 136
-0.999576, 171, 305, 186, 320
-0.999577, 343, 321, 358, 336
-0.999578, 329, 289, 344, 304
-0.999578, 259, 127, 274, 142
-0.999578, 269, 133, 284, 148
-0.999578, 313, 297, 328, 312
-0.999579, 331, 317, 346, 332
-0.999579, 337, 341, 464, 372
-0.99958, 325, 309, 340, 324
-0.99958, 301, 241, 316, 368
-0.999581, 161, 303, 176, 318
-0.999582, 337, 325, 352, 340
-0.999583, 57, 65, 120, 320
-0.999586, 113, 217, 240, 280
-0.999588, 95, 357, 110, 372
-0.999589, 287, 323, 302, 338
-0.99959, 301, 309, 316, 324
-0.99959, 245, 97, 260, 112
-0.999591, 177, 319, 192, 334
-0.999592, 151, 279, 166, 294
-0.999594, 315, 309, 330, 324
-0.999595, 97, 233, 224, 264
-0.999596, 109, 97, 124, 224
-0.999597, 145, 1, 272, 128
-0.999597, 129, 181, 256, 212
-0.999598, 113, 361, 128, 375
-0.999601, 121, 159, 136, 174
-0.999601, 223, 33, 238, 160
-0.999602, 307, 317, 322, 332
-0.999611, 331, 241, 346, 368
-0.999612, 171, 299, 186, 314
-0.999618, 323, 271, 338, 286
-0.999618, 167, 283, 182, 298
-0.999619, 323, 321, 338, 336
-0.99962, 61, 361, 76, 375
-0.999621, 231, 49, 246, 176
-0.999621, 213, 1, 244, 256
-0.999625, 157, 283, 172, 298
-0.999627, 17, 97, 144, 128
-0.999627, 103, 355, 118, 370
-0.999627, 119, 357, 134, 372
-0.999632, 17, 117, 144, 148
-0.999634, 113, 349, 128, 364
-0.999639, 85, 65, 116, 320
-0.999642, 149, 273, 164, 288
-0.999646, 89, 357, 104, 372
-0.999651, 81, 357, 96, 372
-0.999652, 183, 241, 198, 368
-0.999653, 343, 241, 358, 368
-0.999659, 269, 81, 284, 208
-0.999662, 145, 193, 160, 320
-0.999665, 281, 129, 296, 256
-0.999666, 329, 323, 344, 338
-0.999669, 295, 241, 310, 368
-0.99967, 115, 113, 130, 240
-0.999674, 97, 153, 224, 184
-0.999677, 125, 129, 140, 256
-0.99968, 225, 113, 256, 240
-0.99968, 135, 225, 150, 352
-0.99968, 67, 361, 82, 375
-0.999683, 75, 359, 90, 374
-0.999684, 323, 315, 338, 330
-0.999686, 1, 105, 256, 168
-0.999687, 273, 185, 400, 216
-0.999689, 33, 273, 160, 304
-0.999692, 313, 315, 328, 330
-0.999696, 113, 355, 128, 370
-0.999703, 103, 97, 118, 224
-0.999713, 49, 81, 176, 112
-0.999718, 289, 205, 416, 236
-0.999718, 349, 241, 364, 368
-0.999719, 49, 185, 176, 216
-0.999723, 225, 241, 480, 304
-0.999724, 307, 241, 322, 368
-0.999726, 283, 241, 298, 368
-0.999735, 33, 73, 96, 136
-0.999738, 409, 305, 472, 368
-0.999744, 245, 113, 260, 240
-0.99975, 33, 305, 96, 368
-0.99975, 65, 173, 192, 204
-0.999751, 289, 241, 304, 368
-0.999756, 135, 145, 150, 272
-0.999763, 251, 49, 266, 176
-0.999763, 257, 169, 384, 200
-0.999765, 273, 1, 336, 375
-0.999765, 337, 241, 352, 368
-0.999767, 93, 65, 124, 192
-0.999767, 275, 81, 290, 208
-0.999768, 93, 81, 108, 208
-0.99977, 355, 241, 370, 368
-0.999775, 161, 217, 288, 248
-0.999776, 287, 145, 302, 272
-0.999779, 191, 241, 206, 368
-0.999779, 1, 153, 128, 184
-0.999782, 217, 17, 232, 144
-0.999786, 307, 193, 322, 320
-0.999794, 145, 145, 272, 176
-0.999808, 41, 81, 104, 208
-0.999811, 171, 193, 186, 320
-0.999814, 261, 145, 276, 272
-0.999818, 277, 241, 292, 368
-0.999818, 269, 241, 284, 368
-0.999821, 81, 65, 96, 192
-0.999824, 81, 209, 208, 240
-0.999829, 127, 193, 142, 320
-0.99983, 231, 97, 246, 224
-0.999839, 65, 117, 192, 148
-0.999844, 239, 113, 254, 240
-0.999845, 273, 177, 288, 304
-0.999846, 211, 17, 226, 144
-0.999846, 209, 49, 272, 112
-0.999849, 289, 229, 416, 260
-0.999856, 241, 17, 256, 144
-0.999863, 225, 81, 240, 208
-0.999864, 257, 49, 272, 176
-0.999865, 225, 137, 480, 200
-0.999865, 97, 129, 112, 256
-0.999871, 129, 169, 256, 200
-0.999876, 87, 81, 102, 208
-0.999876, 165, 177, 180, 304
-0.999877, 105, 145, 120, 272
-0.999881, 209, 333, 336, 364
-0.999883, 129, 241, 144, 368
-0.999886, 115, 65, 130, 192
-0.999886, 133, 185, 164, 248
-0.999886, 297, 161, 312, 288
-0.999888, 3, 241, 18, 368
-0.999891, 267, 177, 282, 304
-0.999892, 321, 193, 336, 320
-0.999894, 387, 241, 402, 368
-0.999895, 161, 249, 288, 280
-0.999898, 197, 17, 228, 144
-0.999904, 263, 225, 278, 352
-0.999908, 231, 1, 246, 128
-0.999914, 361, 241, 376, 368
-0.999915, 117, 161, 132, 288
-0.999917, 255, 161, 270, 288
-0.999917, 261, 177, 292, 304
-0.999919, 113, 129, 240, 160
-0.999919, 177, 193, 192, 320
-0.999921, 201, 1, 216, 128
-0.999923, 177, 1, 240, 256
-0.999925, 245, 161, 260, 288
-0.999927, 151, 161, 166, 288
-0.999928, 75, 49, 90, 176
-0.999928, 287, 97, 302, 224
-0.999928, 105, 49, 120, 176
-0.999933, 33, 201, 160, 264
-0.999935, 209, 241, 224, 368
-0.999941, 141, 145, 156, 272
-0.999941, 65, 97, 192, 128
-0.999943, 233, 241, 248, 368
-0.999945, 281, 81, 296, 208
-0.999946, 99, 49, 114, 176
-0.999948, 217, 65, 232, 192
-0.999949, 393, 241, 408, 368
-0.999958, 375, 241, 390, 368
-0.999959, 243, 241, 258, 368
-0.999961, 193, 161, 448, 224
-0.999961, 157, 161, 172, 288
-0.999962, 199, 241, 214, 368
-0.999963, 225, 1, 288, 256
-0.999966, 121, 225, 136, 352
-0.999968, 313, 193, 328, 320
-0.999973, 81, 221, 208, 252
-0.999973, 235, 161, 250, 288
-0.999976, 337, 289, 464, 320
-0.999977, 279, 177, 294, 304
-0.999979, 125, 129, 156, 256
-0.999979, 109, 209, 124, 336
-0.99998, 13, 241, 28, 368
-0.999984, 135, 97, 150, 224
-0.999987, 337, 193, 352, 320
-0.999991, 217, 33, 248, 96
-0.999992, 399, 241, 414, 368
-0.999998, 113, 93, 240, 124
-0.999999, 221, 241, 236, 368
-1, 257, 225, 272, 352
-1, 115, 209, 130, 336
-1, 263, 49, 278, 176
-1, 331, 193, 346, 320
-1, 289, 193, 304, 320
-1.00001, 351, 193, 366, 320
-1.00001, 127, 81, 142, 208
-1.00001, 377, 281, 440, 344
-1.00001, 87, 33, 102, 160
-1.00001, 215, 241, 230, 368
-1.00001, 367, 241, 382, 368
-1.00002, 69, 65, 84, 192
-1.00003, 73, 65, 104, 320
-1.00003, 251, 209, 266, 336
-1.00003, 209, 161, 272, 288
-1.00003, 309, 145, 324, 272
-1.00003, 381, 241, 396, 368
-1.00003, 103, 193, 118, 320
-1.00004, 405, 241, 420, 368
-1.00004, 303, 129, 318, 256
-1.00004, 121, 81, 136, 208
-1.00004, 183, 193, 198, 320
-1.00005, 195, 17, 210, 144
-1.00005, 121, 129, 152, 375
-1.00005, 257, 125, 384, 156
-1.00005, 229, 145, 244, 272
-1.00005, 19, 241, 34, 368
-1.00005, 343, 193, 358, 320
-1.00005, 305, 241, 432, 272
-1.00005, 293, 113, 308, 240
-1.00006, 217, 113, 232, 240
-1.00006, 471, 241, 486, 368
-1.00006, 227, 241, 242, 368
-1.00006, 223, 129, 238, 256
-1.00006, 25, 241, 40, 368
-1.00006, 481, 241, 496, 368
-1.00007, 285, 145, 316, 272
-1.00008, 305, 201, 368, 264
-1.00009, 337, 249, 464, 312
-1.00012, 149, 129, 180, 375
-1.00013, 257, 109, 384, 140
-1.00015, 65, 245, 192, 276
-1.00016, 17, 197, 144, 228
-1.00016, 225, 89, 480, 152
-1.00016, 1, 209, 256, 272
-1.00016, 105, 97, 136, 352
-1.00017, 57, 1, 120, 375
-1.00017, 145, 205, 272, 236
-1.00017, 113, 177, 144, 304
-1.00019, 81, 313, 112, 375
-1.00019, 161, 57, 416, 120
-1.0002, 113, 105, 240, 136
-1.0002, 1, 185, 128, 216
-1.0002, 249, 33, 312, 288
-1.00026, 1, 65, 128, 128
-1.00026, 33, 233, 160, 264
-1.00027, 201, 1, 232, 256
-1.00027, 193, 25, 320, 56
-1.00029, 229, 169, 260, 232
-1.0003, 241, 89, 368, 120
-1.0003, 17, 321, 144, 352
-1.0003, 49, 69, 176, 100
-1.00031, 129, 29, 256, 60
-1.00031, 49, 153, 112, 216
-1.00039, 285, 129, 316, 375
-1.00039, 229, 129, 260, 375
-1.0004, 113, 117, 240, 148
-1.0004, 97, 81, 224, 112
-1.00041, 89, 137, 120, 200
-1.00042, 17, 261, 144, 292
-1.00043, 185, 97, 248, 160
-1.00043, 1, 33, 256, 96
-1.00044, 225, 41, 352, 72
-1.00044, 193, 345, 320, 375
-1.00046, 165, 241, 196, 304
-1.00046, 1, 137, 256, 200
-1.00047, 1, 73, 128, 104
-1.00047, 241, 305, 272, 368
-1.00047, 1, 173, 128, 204
-1.00049, 321, 277, 448, 308
-1.0005, 317, 193, 348, 320
-1.00053, 133, 129, 164, 375
-1.00054, 17, 293, 144, 324
-1.00054, 65, 33, 128, 160
-1.00056, 97, 53, 224, 84
-1.00056, 277, 233, 308, 296
-1.00056, 113, 177, 144, 240
-1.00057, 97, 1, 128, 256
-1.0006, 69, 65, 100, 192
-1.00061, 145, 345, 272, 375
-1.00062, 17, 209, 144, 240
-1.00062, 353, 253, 480, 284
-1.00062, 265, 1, 296, 256
-1.00063, 17, 221, 144, 252
-1.00064, 225, 209, 288, 272
-1.00064, 301, 129, 332, 375
-1.00065, 185, 81, 248, 208
-1.00065, 229, 161, 260, 288
-1.00069, 177, 249, 208, 312
-1.00071, 169, 129, 200, 375
-1.00071, 277, 33, 308, 288
-1.00075, 361, 281, 392, 344
-1.00077, 321, 129, 352, 375
-1.00079, 253, 1, 284, 256
-1.00079, 297, 177, 360, 240
-1.00082, 177, 1, 304, 64
-1.00084, 161, 33, 416, 96
-1.0009, 129, 233, 160, 296
-1.0009, 377, 241, 408, 368
-1.0009, 217, 129, 248, 375
-1.00091, 189, 1, 220, 256
-1.00092, 297, 177, 328, 240
-1.00094, 337, 225, 464, 288
-1.00094, 81, 1, 144, 256
-1.00094, 129, 9, 256, 72
-1.00095, 121, 33, 152, 288
-1.00096, 145, 177, 208, 240
-1.00097, 121, 289, 152, 352
-1.00098, 89, 65, 152, 128
-1.00102, 81, 161, 112, 224
-1.00102, 217, 17, 280, 80
-1.00104, 333, 129, 364, 375
-1.00104, 221, 113, 252, 176
-1.00104, 329, 233, 360, 296
-1.00104, 181, 129, 212, 375
-1.00105, 281, 129, 344, 192
-1.00105, 321, 1, 384, 375
-1.00107, 209, 281, 240, 344
-1.00109, 217, 81, 248, 144
-1.00109, 361, 241, 424, 368
-1.00112, 257, 65, 320, 192
-1.00116, 241, 17, 304, 144
-1.00117, 229, 57, 260, 120
-1.00118, 109, 1, 140, 256
-1.00119, 1, 161, 256, 224
-1.00121, 253, 225, 284, 352
-1.00121, 41, 113, 104, 176
-1.00122, 121, 1, 184, 375
-1.00122, 349, 281, 380, 344
-1.00123, 205, 129, 236, 375
-1.00124, 49, 49, 176, 112
-1.00125, 61, 33, 92, 288
-1.00126, 289, 201, 320, 264
-1.00128, 289, 33, 320, 288
-1.00131, 349, 257, 380, 320
-1.00133, 1, 241, 500, 304
-1.00136, 361, 129, 392, 375
-1.00137, 237, 193, 268, 256
-1.00137, 1, 297, 64, 360
-1.00142, 241, 49, 272, 176
-1.00142, 289, 193, 320, 320
-1.00143, 133, 33, 164, 288
-1.00143, 213, 81, 244, 208
-1.00144, 425, 129, 456, 375
-1.00144, 445, 129, 476, 375
-1.00144, 17, 129, 48, 375
-1.00145, 297, 129, 360, 375
-1.00145, 469, 129, 500, 375
-1.00145, 349, 129, 380, 375
-1.00147, 161, 9, 416, 72
-1.00147, 149, 33, 180, 288
-1.00148, 405, 305, 436, 368
-1.00149, 45, 129, 76, 375
-1.00151, 1, 129, 32, 375
-1.00153, 301, 33, 332, 288
-1.00155, 397, 129, 428, 375
-1.00156, 193, 129, 224, 375
-1.00156, 29, 129, 60, 375
-1.00157, 457, 129, 488, 375
-1.00158, 277, 129, 308, 192
-1.00159, 105, 65, 168, 192
-1.00159, 93, 193, 124, 256
-1.00159, 373, 129, 404, 375
-1.00161, 313, 33, 344, 288
-1.00161, 1, 9, 256, 72
-1.00161, 81, 9, 208, 72
-1.00162, 257, 49, 384, 176
-1.00162, 57, 65, 120, 128
-1.00164, 49, 1, 80, 256
-1.00166, 233, 257, 296, 320
-1.00166, 361, 241, 392, 368
-1.00168, 437, 1, 468, 256
-1.0017, 169, 33, 200, 288
-1.00171, 253, 177, 284, 240
-1.00171, 113, 241, 144, 304
-1.00171, 241, 57, 368, 120
-1.00174, 413, 129, 444, 375
-1.00174, 449, 33, 480, 288
-1.00174, 253, 233, 284, 296
-1.00175, 305, 177, 432, 240
-1.00176, 201, 241, 232, 368
-1.00179, 17, 1, 48, 256
-1.00179, 33, 1, 64, 256
-1.00179, 1, 161, 500, 224
-1.0018, 425, 1, 456, 256
-1.0018, 461, 33, 492, 288
-1.00181, 341, 33, 372, 288
-1.00181, 5, 1, 36, 256
-1.00182, 61, 129, 92, 375
-1.00184, 365, 1, 396, 256
-1.00184, 377, 1, 408, 256
-1.00184, 389, 33, 420, 288
-1.00184, 401, 33, 432, 288
-1.00184, 413, 33, 444, 288
-1.00185, 353, 1, 384, 256
-1.00187, 325, 33, 356, 288
-1.00193, 257, 1, 500, 64
-1.00195, 201, 129, 264, 375
-1.00195, 385, 129, 416, 375
-1.00197, 281, 81, 312, 208
-1.00197, 257, 65, 500, 128
-1.00201, 89, 129, 120, 256
-1.00201, 257, 41, 500, 104
-1.00202, 1, 217, 500, 280
-1.00204, 169, 57, 232, 120
-1.00208, 285, 177, 316, 240
-1.00211, 309, 233, 340, 296
-1.00213, 205, 57, 236, 120
-1.00213, 397, 241, 428, 368
-1.00213, 101, 161, 132, 288
-1.00221, 177, 129, 240, 375
-1.00224, 297, 1, 360, 375
-1.00227, 1, 193, 500, 256
-1.00228, 217, 145, 248, 208
-1.00228, 1, 137, 500, 200
-1.00231, 137, 177, 200, 304
-1.00231, 145, 193, 176, 256
-1.00234, 1, 41, 128, 104
-1.00236, 297, 249, 328, 312
-1.00237, 125, 129, 156, 192
-1.00237, 81, 57, 112, 120
-1.00246, 65, 313, 96, 375
-1.00247, 1, 65, 500, 128
-1.00252, 141, 233, 172, 296
-1.00253, 273, 177, 304, 304
-1.00253, 337, 201, 464, 264
-1.00255, 217, 1, 280, 128
-1.00256, 1, 241, 32, 368
-1.00257, 153, 209, 216, 272
-1.00257, 233, 49, 296, 112
-1.00258, 113, 65, 144, 192
-1.0026, 269, 257, 300, 320
-1.00262, 33, 1, 160, 64
-1.00262, 417, 305, 448, 368
-1.00265, 137, 129, 200, 375
-1.00268, 305, 153, 432, 216
-1.00269, 1, 89, 500, 152
-1.00272, 289, 193, 416, 320
-1.00273, 469, 305, 500, 368
-1.00276, 241, 17, 368, 80
-1.00281, 1, 41, 500, 104
-1.00283, 269, 97, 300, 160
-1.00284, 345, 265, 408, 328
-1.00287, 161, 33, 224, 96
-1.00291, 321, 9, 448, 72
-1.00291, 369, 9, 496, 72
-1.00291, 321, 33, 448, 96
-1.00291, 369, 33, 496, 96
-1.00291, 321, 57, 448, 120
-1.00291, 369, 57, 496, 120
-1.00291, 321, 81, 448, 144
-1.00291, 369, 81, 496, 144
-1.00291, 321, 105, 448, 168
-1.00291, 369, 105, 496, 168
-1.00291, 321, 129, 448, 192
-1.00291, 369, 129, 496, 192
-1.00291, 369, 153, 496, 216
-1.00291, 369, 177, 496, 240
-1.003, 49, 305, 80, 368
-1.00305, 381, 281, 412, 344
-1.00305, 385, 241, 448, 368
-1.00308, 33, 1, 96, 375
-1.00318, 85, 113, 116, 176
-1.00318, 429, 305, 460, 368
-1.00328, 145, 169, 176, 232
-1.0033, 1, 113, 500, 176
-1.0033, 105, 225, 168, 288
-1.00337, 1, 241, 64, 368
-1.00341, 1, 9, 500, 72
-1.00341, 221, 241, 252, 368
-1.00341, 265, 209, 296, 272
-1.00344, 233, 281, 264, 344
-1.00345, 185, 153, 248, 216
-1.00345, 241, 49, 272, 112
-1.00345, 353, 1, 416, 375
-1.00346, 209, 121, 240, 184
-1.00349, 329, 193, 360, 320
-1.00351, 185, 249, 248, 312
-1.00354, 217, 233, 280, 296
-1.0036, 441, 305, 472, 368
-1.00361, 65, 289, 128, 352
-1.00362, 13, 241, 44, 368
-1.00363, 69, 49, 100, 112
-1.00366, 1, 305, 32, 368
-1.00366, 281, 113, 344, 240
-1.00369, 109, 289, 140, 352
-1.00369, 193, 33, 224, 96
-1.00373, 377, 1, 440, 375
-1.00374, 141, 145, 172, 272
-1.00375, 289, 153, 352, 216
-1.00377, 401, 281, 464, 344
-1.00381, 21, 305, 52, 368
-1.00382, 49, 177, 112, 240
-1.00385, 49, 33, 176, 160
-1.00391, 249, 73, 280, 136
-1.00391, 273, 33, 336, 288
-1.00394, 433, 281, 496, 344
-1.00396, 201, 193, 264, 256
-1.00398, 241, 193, 272, 320
-1.00399, 417, 1, 480, 375
-1.00399, 101, 209, 132, 336
-1.004, 69, 129, 100, 192
-1.00403, 25, 281, 88, 344
-1.00403, 185, 33, 216, 160
-1.00405, 9, 1, 72, 375
-1.00408, 53, 81, 84, 144
-1.00408, 213, 129, 244, 256
-1.00412, 241, 217, 272, 280
-1.00418, 457, 305, 488, 368
-1.00421, 137, 137, 200, 200
-1.00422, 257, 97, 288, 160
-1.00424, 241, 241, 272, 368
-1.00424, 289, 137, 320, 200
-1.00426, 197, 9, 228, 72
-1.00438, 161, 17, 224, 144
-1.0044, 305, 145, 368, 272
-1.00441, 77, 129, 108, 256
-1.00446, 17, 177, 144, 304
-1.00446, 305, 145, 432, 272
-1.00453, 169, 9, 232, 72
-1.00456, 25, 49, 88, 112
-1.00483, 57, 81, 88, 208
-1.00483, 201, 97, 232, 224
-1.00484, 73, 17, 104, 144
-1.00492, 421, 241, 452, 368
-1.00493, 345, 241, 408, 304
-1.00504, 161, 89, 224, 152
-1.00514, 177, 193, 208, 320
-1.0052, 417, 241, 480, 368
-1.0052, 193, 9, 256, 72
-1.00529, 1, 273, 64, 336
-1.00534, 81, 217, 144, 280
-1.0054, 297, 145, 328, 272
-1.0055, 29, 241, 60, 368
-1.00552, 313, 145, 344, 272
-1.00553, 453, 241, 484, 368
-1.00555, 441, 241, 472, 368
-1.00557, 73, 41, 136, 104
-1.00559, 85, 17, 116, 144
-1.00559, 469, 241, 500, 368
-1.00562, 349, 193, 380, 320
-1.00566, 89, 177, 120, 304
-1.00567, 125, 81, 156, 208
-1.00575, 57, 241, 88, 368
-1.00581, 409, 241, 440, 368
-1.00586, 321, 129, 384, 375
-1.00587, 121, 33, 184, 288
-1.00591, 293, 97, 324, 224
-1.00596, 153, 129, 184, 256
-1.00603, 137, 97, 168, 224
-1.00607, 33, 33, 96, 288
-1.00611, 89, 241, 120, 368
-1.00616, 1, 33, 128, 160
-1.00621, 329, 193, 392, 320
-1.00622, 189, 193, 220, 320
-1.00632, 45, 241, 76, 368
-1.00652, 53, 33, 84, 160
-1.00662, 253, 1, 284, 128
-1.00668, 137, 129, 200, 256
-1.00674, 345, 129, 408, 375
-1.00677, 329, 201, 392, 264
-1.00685, 65, 129, 96, 256
-1.00691, 113, 81, 176, 144
-1.00693, 57, 265, 120, 328
-1.00694, 25, 241, 88, 368
-1.00698, 185, 129, 248, 256
-1.00702, 369, 257, 432, 320
-1.00705, 169, 177, 232, 240
-1.00709, 101, 1, 132, 128
-1.00717, 165, 145, 196, 272
-1.0072, 189, 81, 220, 208
-1.00725, 173, 1, 204, 128
-1.00728, 321, 177, 384, 240
-1.00735, 177, 209, 240, 272
-1.00735, 97, 17, 160, 144
-1.00737, 145, 9, 208, 72
-1.00742, 169, 121, 232, 184
-1.00744, 361, 193, 392, 320
-1.00746, 33, 33, 96, 160
-1.00749, 57, 209, 120, 272
-1.00753, 265, 81, 328, 144
-1.00754, 269, 33, 300, 160
-1.00755, 69, 225, 100, 352
-1.00769, 129, 81, 192, 208
-1.00776, 17, 97, 80, 160
-1.00777, 241, 1, 272, 128
-1.00777, 329, 145, 360, 272
-1.00782, 153, 1, 216, 256
-1.00796, 297, 33, 360, 288
-1.00804, 113, 17, 144, 144
-1.00805, 65, 177, 128, 304
-1.00816, 145, 57, 208, 120
-1.00825, 9, 129, 72, 375
-1.00839, 433, 129, 496, 375
-1.0084, 49, 41, 112, 104
-1.00841, 9, 73, 72, 136
-1.00846, 137, 33, 200, 96
-1.00852, 305, 97, 336, 224
-1.00874, 209, 193, 240, 320
-1.00877, 41, 129, 104, 256
-1.00892, 349, 145, 380, 272
-1.00906, 49, 17, 112, 80
-1.00917, 369, 129, 432, 375
-1.00919, 389, 193, 420, 320
-1.00919, 313, 153, 376, 216
-1.00919, 149, 81, 180, 208
-1.0092, 393, 241, 456, 304
-1.00921, 41, 33, 72, 160
-1.00922, 361, 217, 424, 280
-1.00924, 9, 241, 72, 304
-1.00924, 417, 241, 480, 304
-1.00926, 185, 129, 216, 256
-1.00927, 125, 33, 156, 160
-1.00929, 409, 217, 472, 280
-1.00929, 433, 217, 496, 280
-1.00929, 49, 241, 112, 304
-1.00933, 57, 241, 120, 368
-1.00933, 413, 193, 444, 320
-1.00935, 401, 129, 464, 375
-1.00937, 325, 97, 356, 224
-1.00939, 285, 1, 316, 128
-1.00939, 301, 1, 332, 128
-1.00939, 313, 1, 344, 128
-1.00939, 469, 17, 500, 144
-1.0094, 377, 193, 408, 320
-1.00943, 293, 49, 324, 176
-1.00951, 197, 145, 228, 272
-1.00953, 137, 49, 168, 176
-1.00956, 421, 145, 452, 272
-1.00956, 5, 161, 36, 288
-1.00956, 17, 161, 48, 288
-1.00956, 29, 161, 60, 288
-1.00956, 41, 161, 72, 288
-1.00956, 53, 161, 84, 288
-1.00956, 401, 161, 432, 288
-1.00956, 433, 161, 464, 288
-1.00956, 445, 161, 476, 288
-1.00956, 457, 161, 488, 288
-1.00956, 469, 161, 500, 288
-1.00966, 369, 17, 496, 144
-1.00969, 241, 1, 368, 128
-1.0097, 353, 193, 416, 320
-1.00971, 161, 81, 224, 208
-1.00978, 185, 193, 248, 320
-1.01032, 321, 17, 448, 144
-1.01038, 321, 65, 448, 192
-1.01038, 369, 81, 496, 208
-1.01038, 369, 129, 496, 256
-1.01043, 409, 1, 472, 256
-1.01043, 433, 1, 496, 256
-1.01044, 353, 177, 480, 304
-1.01046, 9, 1, 72, 256
-1.01082, 329, 33, 392, 288
-1.01086, 361, 1, 424, 256
-1.01086, 385, 33, 448, 288
-1.0114, 33, 129, 96, 375
-1.01226, 161, 145, 224, 272
-1.01275, 305, 97, 368, 224
-1.01275, 329, 145, 392, 272
-1.01307, 281, 65, 344, 192
-1.01338, 137, 1, 200, 128
-1.01393, 9, 49, 72, 176
-1.01406, 409, 1, 472, 128
-1.01413, 433, 1, 496, 128
-1.0144, 225, 33, 480, 288
-1.01442, 281, 1, 344, 128
-1.01442, 305, 1, 368, 128
-1.01442, 425, 49, 488, 176
-1.01452, 9, 1, 72, 128
-1.01478, 329, 1, 392, 128
-1.01478, 353, 33, 416, 160
-1.01478, 377, 33, 440, 160
-1.01478, 313, 49, 376, 176
-1.01478, 401, 65, 464, 192
-1.01478, 337, 81, 400, 208
-1.01478, 361, 81, 424, 208
-1.01478, 9, 113, 72, 240
-1.01478, 385, 113, 448, 240
-1.01478, 409, 113, 472, 240
-1.01478, 433, 113, 496, 240
-1.01478, 361, 129, 424, 256
-1.01478, 17, 161, 80, 288
-1.01478, 385, 161, 448, 288
-1.01478, 409, 161, 472, 288
-1.01478, 433, 161, 496, 288
-1.01493, 41, 193, 104, 320
