2073
-0.519266, 1, 193, 445, 448
-0.631053, 1, 97, 445, 352
-0.650937, 129, 1, 384, 500
-0.708046, 33, 1, 288, 500
-0.709588, 129, 193, 384, 448
-0.720349, 33, 225, 288, 480
-0.746979, 1, 1, 445, 256
-0.748053, 1, 1, 445, 500
-0.7971, 129, 97, 384, 352
-0.833977, 33, 129, 288, 384
-0.874858, 177, 1, 304, 500
-0.877284, 145, 161, 272, 416
-0.88956, 193, 225, 320, 480
-0.899441, 193, 97, 320, 352
-0.90142, 129, 1, 256, 500
-0.913771, 225, 1, 352, 500
-0.917902, 1, 273, 445, 400
-0.91791, 145, 65, 272, 320
-0.91825, 65, 225, 192, 480
-0.919487, 33, 33, 288, 288
-0.924065, 1, 225, 445, 352
-0.926276, 161, 1, 416, 256
-0.928506, 241, 97, 368, 352
-0.931718, 1, 369, 445, 496
-0.932621, 241, 257, 368, 500
-0.933328, 65, 1, 192, 500
-0.935751, 217, 177, 280, 304
-0.937301, 65, 209, 320, 336
-0.93928, 145, 193, 272, 320
-0.939428, 129, 257, 256, 500
-0.941814, 97, 97, 224, 352
-0.943009, 17, 257, 144, 500
-0.945295, 193, 1, 320, 256
-0.945569, 1, 321, 445, 448
-0.946554, 193, 129, 256, 256
-0.947461, 273, 1, 400, 500
-0.948736, 193, 225, 320, 352
-0.949341, 201, 225, 264, 352
-0.94975, 129, 257, 384, 384
-0.950211, 241, 225, 304, 352
-0.950583, 1, 257, 256, 384
-0.951235, 217, 177, 280, 240
-0.951938, 193, 177, 256, 304
-0.953606, 169, 177, 232, 304
-0.955194, 225, 217, 288, 280
-0.955909, 193, 145, 320, 272
-0.95607, 1, 177, 445, 304
-0.956153, 201, 209, 264, 272
-0.957487, 289, 257, 416, 500
-0.958401, 161, 209, 416, 336
-0.958717, 97, 97, 352, 224
-0.9591, 33, 337, 288, 464
-0.959157, 177, 193, 240, 256
-0.959629, 225, 97, 288, 224
-0.959807, 241, 1, 368, 256
-0.960237, 161, 305, 416, 432
-0.960455, 177, 97, 304, 224
-0.960603, 1, 1, 128, 500
-0.961532, 249, 273, 312, 400
-0.96233, 145, 145, 272, 272
-0.962747, 129, 161, 384, 288
-0.962763, 97, 1, 224, 256
-0.962778, 81, 257, 144, 384
-0.963061, 97, 273, 224, 400
-0.963735, 177, 273, 304, 400
-0.963865, 49, 129, 176, 384
-0.965428, 241, 177, 304, 304
-0.965592, 185, 169, 248, 232
-0.965844, 217, 105, 280, 168
-0.966256, 241, 257, 368, 384
-0.966319, 209, 273, 272, 400
-0.966329, 233, 137, 296, 200
-0.966897, 1, 129, 445, 256
-0.96696, 177, 225, 240, 352
-0.967521, 97, 209, 224, 336
-0.967996, 145, 193, 208, 320
-0.968112, 209, 321, 336, 448
-0.968237, 1, 161, 128, 416
-0.968322, 33, 161, 288, 288
-0.968874, 193, 145, 256, 208
-0.969072, 129, 353, 384, 480
-0.969293, 233, 321, 296, 448
-0.969486, 161, 321, 288, 448
-0.969916, 201, 369, 264, 496
-0.970234, 177, 217, 240, 280
-0.970408, 241, 369, 304, 496
-0.971483, 49, 273, 176, 400
-0.971645, 105, 273, 168, 400
-0.971745, 185, 305, 248, 432
-0.971843, 221, 201, 252, 264
-0.971845, 153, 193, 216, 256
-0.971967, 249, 97, 312, 224
-0.97223, 193, 81, 256, 208
-0.972449, 57, 257, 120, 384
-0.972805, 145, 209, 272, 272
-0.972857, 49, 321, 176, 448
-0.973081, 321, 1, 445, 500
-0.973277, 273, 321, 400, 448
-0.973592, 209, 369, 336, 496
-0.973675, 1, 113, 256, 240
-0.973681, 105, 209, 168, 336
-0.973692, 201, 201, 232, 264
-0.973789, 193, 97, 445, 224
-0.973828, 169, 129, 232, 256
-0.974207, 225, 193, 288, 448
-0.974229, 209, 241, 272, 304
-0.974263, 229, 193, 260, 320
-0.974445, 129, 369, 256, 496
-0.974705, 233, 241, 296, 304
-0.974871, 289, 161, 416, 416
-0.97499, 73, 257, 136, 320
-0.975098, 241, 193, 368, 320
-0.975126, 249, 217, 280, 280
-0.975165, 249, 209, 312, 272
-0.975231, 185, 97, 248, 352
-0.975286, 217, 281, 280, 344
-0.975365, 49, 225, 176, 352
-0.976179, 1, 257, 128, 384
-0.976189, 257, 321, 320, 448
-0.976394, 129, 289, 192, 416
-0.976454, 1, 81, 445, 208
-0.976501, 161, 49, 416, 176
-0.976535, 193, 209, 320, 272
-0.976728, 233, 209, 264, 272
-0.97685, 241, 97, 304, 160
-0.976922, 177, 177, 304, 240
-0.97719, 273, 273, 336, 400
-0.977256, 225, 81, 352, 208
-0.977385, 225, 97, 288, 352
-0.977583, 193, 121, 256, 184
-0.977654, 193, 89, 256, 152
-0.97775, 169, 105, 232, 168
-0.978124, 121, 289, 184, 352
-0.97829, 177, 233, 304, 296
-0.978329, 185, 193, 248, 448
-0.978391, 169, 65, 232, 192
-0.978576, 209, 225, 240, 352
-0.978588, 1, 65, 256, 192
-0.9789, 249, 265, 312, 328
-0.978946, 177, 297, 240, 360
-0.978985, 209, 177, 240, 240
-0.979103, 217, 161, 248, 288
-0.979152, 249, 129, 312, 384
-0.97916, 217, 425, 280, 488
-0.979161, 209, 321, 272, 448
-0.979262, 177, 129, 304, 192
-0.979311, 237, 169, 268, 232
-0.979336, 137, 241, 200, 368
-0.979473, 189, 177, 220, 304
-0.979488, 241, 161, 272, 288
-0.979592, 241, 177, 304, 240
-0.979601, 33, 369, 160, 496
-0.9798, 153, 281, 216, 344
-0.979969, 153, 161, 216, 416
-0.979977, 129, 97, 256, 224
-0.980124, 189, 185, 220, 248
-0.980124, 105, 233, 168, 296
-0.980124, 201, 393, 264, 456
-0.980192, 257, 121, 320, 184
-0.980278, 49, 265, 112, 328
-0.980297, 217, 49, 280, 176
-0.980354, 257, 369, 384, 496
-0.980603, 177, 49, 304, 176
-0.980648, 113, 321, 240, 448
-0.980749, 257, 289, 320, 352
-0.980894, 353, 337, 416, 464
-0.980965, 205, 225, 236, 288
-0.980999, 105, 265, 168, 328
-0.981029, 289, 1, 416, 256
-0.981057, 161, 161, 224, 224
-0.981203, 177, 273, 240, 336
-0.98127, 261, 209, 292, 272
-0.981274, 289, 273, 416, 400
-0.981323, 229, 241, 260, 368
-0.981464, 249, 193, 280, 256
-0.981492, 229, 145, 260, 272
-0.981584, 217, 305, 280, 368
-0.981612, 81, 321, 144, 448
-0.981675, 97, 161, 224, 288
-0.98168, 245, 209, 276, 336
-0.981844, 253, 145, 284, 208
-0.981963, 145, 257, 208, 320
-0.982156, 225, 377, 288, 440
-0.982165, 161, 305, 224, 432
-0.982199, 249, 169, 280, 232
-0.982234, 93, 241, 124, 368
-0.982261, 221, 177, 252, 240
-0.982338, 177, 153, 304, 216
-0.982384, 153, 313, 216, 376
-0.982409, 321, 337, 384, 400
-0.98248, 225, 353, 288, 416
-0.982576, 257, 145, 320, 208
-0.982577, 213, 137, 244, 200
-0.982755, 257, 209, 288, 336
-0.982797, 1, 1, 445, 128
-0.98282, 185, 241, 248, 304
-0.982864, 205, 177, 236, 304
-0.983009, 169, 129, 232, 192
-0.98301, 313, 273, 376, 400
-0.983061, 161, 289, 288, 352
-0.983075, 261, 81, 292, 208
-0.983151, 241, 409, 304, 472
-0.983161, 261, 89, 292, 152
-0.983283, 177, 369, 240, 496
-0.983302, 177, 177, 208, 304
-0.983418, 265, 161, 328, 288
-0.983624, 177, 97, 304, 160
-0.983659, 129, 185, 256, 248
-0.983843, 81, 369, 208, 496
-0.983887, 57, 297, 120, 360
-0.983928, 201, 129, 232, 256
-0.983929, 129, 265, 256, 328
-0.98394, 33, 273, 96, 400
-0.983945, 233, 425, 264, 488
-0.983955, 177, 185, 208, 248
-0.98398, 337, 289, 400, 416
-0.984026, 177, 369, 240, 432
-0.984063, 241, 353, 272, 480
-0.984171, 49, 353, 112, 480
-0.984184, 265, 185, 328, 248
-0.984337, 265, 369, 328, 496
-0.984403, 241, 145, 368, 272
-0.984426, 93, 249, 124, 312
-0.984437, 313, 337, 376, 464
-0.984475, 185, 1, 248, 500
-0.984548, 237, 233, 268, 296
-0.984573, 265, 49, 328, 176
-0.984573, 265, 337, 328, 400
-0.984576, 249, 313, 312, 376
-0.984655, 193, 161, 224, 224
-0.984659, 281, 321, 344, 448
-0.98484, 361, 305, 424, 368
-0.984919, 65, 273, 192, 336
-0.984936, 253, 145, 284, 272
-0.98499, 273, 313, 336, 376
-0.985065, 201, 81, 232, 208
-0.985065, 229, 289, 260, 416
-0.985083, 153, 217, 216, 280
-0.985108, 201, 353, 264, 416
-0.985111, 265, 361, 328, 424
-0.985122, 189, 209, 220, 272
-0.98513, 193, 417, 256, 480
-0.98518, 261, 121, 292, 184
-0.985227, 249, 97, 280, 160
-0.985312, 221, 393, 252, 456
-0.985347, 205, 89, 236, 152
-0.985358, 185, 321, 248, 384
-0.985414, 321, 369, 445, 496
-0.985448, 265, 97, 328, 160
-0.985547, 353, 345, 416, 408
-0.98555, 345, 433, 408, 496
-0.985584, 217, 97, 248, 224
-0.985591, 249, 257, 312, 500
-0.985665, 321, 377, 384, 440
-0.985668, 321, 313, 384, 376
-0.985752, 221, 425, 252, 488
-0.985914, 193, 425, 320, 488
-0.985917, 197, 129, 228, 192
-0.985926, 209, 289, 336, 352
-0.985961, 81, 305, 144, 368
-0.985999, 193, 265, 320, 328
-0.986052, 57, 305, 120, 432
-0.986056, 129, 377, 256, 440
-0.98606, 185, 353, 216, 416
-0.98612, 169, 313, 200, 376
-0.986122, 369, 273, 432, 400
-0.986213, 145, 129, 208, 256
-0.986213, 25, 369, 88, 496
-0.986303, 129, 233, 256, 296
-0.986357, 41, 345, 104, 408
-0.986422, 1, 409, 64, 472
-0.986463, 177, 313, 304, 376
-0.986553, 81, 369, 144, 496
-0.986587, 97, 297, 224, 360
-0.986593, 217, 241, 248, 304
-0.98673, 273, 209, 336, 336
-0.986765, 9, 289, 72, 416
-0.986836, 25, 433, 88, 496
-0.986881, 245, 97, 276, 224
-0.986902, 81, 257, 144, 500
-0.986903, 161, 257, 224, 500
-0.98692, 177, 393, 304, 456
-0.986923, 97, 209, 224, 272
-0.986932, 17, 273, 80, 336
-0.986954, 153, 337, 216, 400
-0.986992, 209, 289, 240, 416
-0.987126, 225, 329, 288, 392
-0.987189, 145, 393, 208, 456
-0.987202, 241, 401, 272, 464
-0.987207, 129, 337, 192, 400
-0.987231, 249, 121, 280, 184
-0.987236, 129, 193, 192, 448
-0.98727, 1, 305, 128, 432
-0.987371, 225, 185, 352, 248
-0.987461, 361, 377, 424, 440
-0.987467, 321, 417, 384, 480
-0.987485, 241, 209, 368, 272
-0.987507, 65, 337, 128, 400
-0.987646, 41, 321, 104, 384
-0.987676, 81, 233, 208, 296
-0.987683, 129, 145, 256, 208
-0.987747, 193, 105, 224, 168
-0.987786, 169, 65, 232, 128
-0.987786, 297, 353, 360, 416
-0.98785, 249, 73, 312, 136
-0.987886, 225, 105, 256, 168
-0.987947, 217, 217, 280, 248
-0.98795, 97, 337, 160, 400
-0.987961, 17, 273, 144, 336
-0.987997, 241, 273, 272, 400
-0.987998, 77, 273, 108, 336
-0.988065, 253, 289, 284, 416
-0.988096, 241, 321, 368, 384
-0.988125, 369, 401, 432, 464
-0.988129, 177, 353, 304, 416
-0.988168, 73, 273, 104, 400
-0.988204, 221, 369, 252, 496
-0.988238, 129, 121, 256, 184
-0.98824, 273, 273, 304, 400
-0.988311, 25, 409, 88, 472
-0.988312, 225, 385, 352, 448
-0.988322, 233, 1, 296, 500
-0.988412, 225, 281, 256, 344
-0.988515, 177, 393, 240, 456
-0.988521, 33, 377, 96, 440
-0.988565, 97, 337, 224, 400
-0.988568, 297, 409, 360, 472
-0.988669, 241, 281, 272, 344
-0.988697, 229, 97, 260, 224
-0.988725, 217, 65, 280, 128
-0.988778, 321, 281, 384, 344
-0.988818, 177, 345, 240, 408
-0.988871, 17, 305, 80, 368
-0.988887, 193, 73, 224, 136
-0.988892, 17, 345, 80, 408
-0.988908, 285, 305, 316, 368
-0.988939, 269, 369, 300, 432
-0.988946, 117, 273, 148, 400
-0.988953, 257, 409, 288, 472
-0.98896, 145, 417, 208, 480
-0.989121, 241, 265, 368, 328
-0.989143, 265, 393, 328, 456
-0.989181, 197, 369, 228, 432
-0.989239, 81, 281, 144, 344
-0.989285, 81, 425, 144, 488
-0.989328, 129, 233, 192, 296
-0.989377, 233, 145, 264, 208
-0.989384, 149, 297, 180, 360
-0.989412, 225, 105, 352, 168
-0.989421, 289, 281, 352, 344
-0.989422, 133, 289, 164, 352
-0.989489, 241, 417, 368, 480
-0.989492, 177, 281, 208, 344
-0.989504, 209, 1, 272, 500
-0.989514, 57, 257, 120, 500
-0.98956, 289, 433, 352, 496
-0.989568, 57, 273, 88, 336
-0.989585, 289, 377, 352, 440
-0.989597, 265, 265, 296, 328
-0.989599, 145, 425, 272, 488
-0.989616, 201, 201, 264, 232
-0.989631, 129, 209, 192, 272
-0.989678, 105, 393, 168, 456
-0.989691, 161, 65, 224, 320
-0.989704, 129, 97, 256, 160
-0.989731, 189, 129, 220, 256
-0.989741, 169, 273, 200, 400
-0.989761, 377, 321, 440, 448
-0.98981, 105, 361, 168, 424
-0.989832, 261, 289, 292, 352
-0.989853, 297, 305, 360, 368
-0.989933, 285, 289, 316, 416
-0.989996, 65, 369, 128, 432
-0.990026, 217, 237, 280, 268
-0.990057, 105, 321, 168, 448
-0.990104, 201, 369, 232, 496
-0.990139, 49, 353, 176, 416
-0.990188, 193, 213, 256, 244
-0.990228, 129, 313, 192, 376
-0.990254, 301, 289, 332, 416
-0.990265, 81, 209, 144, 336
-0.990294, 265, 185, 296, 248
-0.990295, 129, 401, 256, 464
-0.990304, 209, 417, 240, 480
-0.990323, 193, 229, 256, 260
-0.990328, 241, 229, 304, 260
-0.990358, 237, 105, 268, 168
-0.990406, 217, 133, 280, 164
-0.99041, 169, 417, 232, 480
-0.990449, 269, 425, 300, 488
-0.990452, 253, 369, 284, 496
-0.990466, 249, 353, 280, 416
-0.990489, 177, 201, 240, 232
-0.990535, 1, 337, 64, 464
-0.990544, 321, 321, 445, 448
-0.990547, 193, 181, 256, 212
-0.990552, 225, 197, 288, 228
-0.990555, 273, 321, 304, 448
-0.990584, 49, 297, 176, 360
-0.990607, 149, 385, 180, 448
-0.990698, 137, 273, 168, 400
-0.990706, 233, 173, 296, 204
-0.990745, 193, 137, 256, 168
-0.990765, 273, 257, 336, 500
-0.990771, 121, 369, 184, 496
-0.990777, 105, 225, 168, 480
-0.990783, 161, 1, 224, 500
-0.990788, 1, 417, 128, 480
-0.990823, 225, 233, 352, 296
-0.990824, 385, 433, 445, 496
-0.990827, 289, 297, 416, 360
-0.990833, 233, 185, 296, 216
-0.990856, 81, 393, 144, 456
-0.990856, 157, 209, 188, 336
-0.990857, 81, 233, 144, 296
-0.990956, 49, 329, 176, 392
-0.990967, 109, 225, 140, 352
-0.990983, 193, 33, 256, 160
-0.990985, 49, 433, 112, 496
-0.991034, 197, 225, 228, 352
-0.991062, 49, 385, 176, 448
-0.991063, 153, 361, 216, 424
-0.991079, 181, 329, 212, 392
-0.991132, 241, 213, 304, 244
-0.99114, 177, 73, 304, 136
-0.99114, 193, 149, 256, 180
-0.991148, 193, 305, 224, 368
-0.991152, 57, 409, 120, 472
-0.991195, 9, 369, 72, 432
-0.991239, 241, 433, 304, 496
-0.991272, 161, 345, 192, 408
-0.991277, 321, 377, 445, 440
-0.991334, 113, 249, 144, 312
-0.991335, 181, 273, 212, 400
-0.991346, 169, 213, 232, 244
-0.99138, 241, 305, 272, 368
-0.99138, 225, 145, 288, 176
-0.991381, 273, 73, 336, 136
-0.991414, 265, 145, 296, 272
-0.991424, 105, 417, 168, 480
-0.991427, 213, 289, 244, 352
-0.991456, 209, 169, 272, 200
-0.991474, 245, 377, 276, 440
-0.991487, 261, 233, 292, 296
-0.991493, 189, 337, 220, 464
-0.991496, 225, 137, 352, 200
-0.991502, 217, 309, 280, 340
-0.991516, 253, 313, 284, 376
-0.991525, 209, 369, 272, 400
-0.991525, 169, 377, 232, 408
-0.991533, 273, 297, 304, 360
-0.991576, 153, 201, 216, 232
-0.991579, 125, 225, 156, 352
-0.991586, 73, 265, 136, 296
-0.9916, 113, 49, 240, 176
-0.991602, 249, 137, 312, 168
-0.991616, 169, 225, 232, 256
-0.991625, 241, 241, 304, 272
-0.991647, 193, 105, 256, 136
-0.991653, 229, 353, 260, 416
-0.991665, 225, 121, 288, 152
-0.991668, 185, 165, 248, 196
-0.991688, 161, 289, 192, 352
-0.991691, 305, 313, 336, 376
-0.991724, 177, 301, 240, 332
-0.991732, 241, 49, 304, 176
-0.991767, 169, 129, 232, 160
-0.991774, 241, 361, 368, 424
-0.991779, 169, 189, 232, 220
-0.991827, 225, 161, 352, 224
-0.991831, 97, 425, 224, 488
-0.991833, 17, 249, 144, 312
-0.991848, 53, 273, 84, 400
-0.991885, 49, 233, 112, 296
-0.991895, 193, 241, 256, 272
-0.99191, 385, 361, 445, 424
-0.99192, 233, 329, 264, 392
-0.991929, 161, 1, 416, 128
-0.991934, 233, 161, 296, 192
-0.991944, 257, 309, 320, 340
-0.991952, 169, 369, 200, 432
-0.991959, 105, 273, 136, 400
-0.991999, 89, 253, 152, 284
-0.991999, 277, 401, 308, 464
-0.992, 145, 285, 208, 316
-0.992007, 249, 93, 312, 124
-0.992013, 193, 381, 256, 412
-0.992017, 289, 345, 416, 408
-0.992018, 217, 297, 280, 328
-0.992033, 225, 101, 288, 132
-0.992042, 225, 381, 288, 412
-0.992046, 137, 297, 200, 328
-0.992058, 201, 393, 264, 424
-0.992075, 249, 105, 312, 136
-0.992109, 113, 289, 176, 320
-0.992114, 49, 33, 176, 288
-0.992116, 249, 297, 312, 328
-0.992124, 193, 117, 256, 148
-0.992128, 73, 277, 136, 308
-0.992144, 269, 225, 300, 352
-0.992195, 105, 269, 168, 300
-0.992238, 145, 209, 176, 336
-0.992252, 201, 409, 264, 440
-0.992254, 1, 345, 128, 408
-0.992256, 285, 281, 316, 344
-0.992262, 177, 317, 240, 348
-0.992275, 149, 361, 180, 424
-0.992281, 345, 281, 408, 344
-0.99231, 297, 377, 328, 440
-0.992311, 213, 213, 244, 244
-0.992312, 249, 333, 312, 364
-0.992315, 337, 345, 400, 376
-0.992318, 273, 65, 400, 192
-0.992319, 265, 369, 328, 400
-0.99232, 265, 369, 296, 496
-0.99233, 249, 273, 312, 304
-0.992335, 185, 365, 248, 396
-0.99234, 185, 341, 248, 372
-0.992341, 185, 93, 248, 124
-0.992341, 209, 429, 272, 460
-0.992348, 265, 209, 328, 240
-0.992351, 121, 281, 152, 344
-0.992355, 49, 209, 112, 336
-0.992356, 233, 345, 296, 376
-0.992359, 241, 417, 304, 448
-0.99236, 169, 117, 232, 148
-0.99238, 49, 277, 112, 308
-0.992408, 217, 285, 280, 316
-0.992423, 201, 225, 232, 256
-0.992432, 245, 425, 276, 488
-0.992452, 169, 149, 232, 180
-0.992452, 201, 469, 264, 500
-0.992467, 249, 321, 312, 352
-0.992468, 73, 333, 136, 364
-0.992483, 65, 313, 128, 344
-0.992487, 217, 249, 280, 280
-0.992491, 377, 337, 440, 400
-0.992493, 177, 289, 240, 320
-0.992505, 305, 313, 368, 344
-0.992509, 169, 177, 232, 208
-0.992516, 201, 205, 232, 236
-0.992519, 273, 81, 304, 208
-0.992531, 33, 409, 96, 440
-0.992537, 257, 125, 320, 156
-0.992545, 225, 221, 256, 252
-0.992557, 361, 341, 424, 372
-0.992561, 97, 209, 352, 272
-0.992561, 225, 357, 288, 388
-0.992564, 57, 461, 120, 492
-0.992564, 209, 361, 240, 424
-0.99257, 273, 341, 336, 372
-0.992582, 249, 285, 312, 316
-0.992584, 233, 173, 264, 204
-0.992585, 281, 313, 344, 344
-0.992586, 37, 273, 68, 336
-0.992588, 249, 149, 312, 180
-0.99259, 249, 229, 280, 260
-0.992591, 161, 105, 224, 136
-0.992593, 329, 333, 392, 364
-0.992601, 281, 449, 344, 480
-0.992613, 105, 241, 168, 272
-0.992617, 189, 417, 220, 480
-0.992624, 265, 433, 328, 496
-0.992626, 241, 261, 304, 292
-0.992632, 257, 165, 320, 196
-0.992634, 57, 357, 120, 388
-0.992644, 233, 405, 296, 436
-0.992645, 105, 313, 168, 376
-0.992648, 273, 113, 304, 176
-0.992656, 313, 349, 376, 380
-0.992658, 265, 225, 328, 256
-0.99267, 193, 353, 256, 384
-0.992671, 49, 341, 112, 372
-0.992674, 209, 441, 272, 472
-0.992679, 209, 341, 272, 372
-0.992698, 41, 425, 72, 488
-0.992704, 249, 217, 280, 248
-0.992711, 25, 361, 88, 392
-0.992713, 73, 345, 136, 376
-0.992718, 213, 137, 244, 168
-0.992724, 261, 217, 292, 248
-0.992728, 217, 321, 280, 352
-0.992729, 257, 389, 320, 420
-0.992733, 185, 329, 248, 360
-0.992736, 213, 233, 244, 264
-0.992738, 153, 361, 216, 392
-0.992742, 145, 81, 208, 208
-0.992747, 221, 201, 252, 232
-0.992758, 89, 273, 120, 336
-0.992769, 129, 73, 256, 136
-0.992772, 337, 381, 400, 412
-0.992775, 161, 161, 224, 192
-0.992782, 65, 233, 320, 296
-0.992783, 185, 425, 248, 456
-0.992794, 321, 409, 445, 472
-0.992796, 65, 253, 128, 284
-0.992797, 189, 201, 220, 232
-0.992801, 25, 469, 88, 500
-0.992801, 285, 361, 316, 424
-0.992818, 261, 137, 292, 168
-0.992821, 1, 469, 64, 500
-0.992837, 161, 345, 224, 376
-0.992839, 265, 93, 296, 124
-0.992848, 353, 369, 416, 400
-0.992851, 321, 393, 352, 456
-0.992852, 345, 409, 408, 472
-0.992853, 265, 405, 328, 436
-0.992856, 153, 333, 216, 364
-0.992859, 237, 225, 268, 256
-0.992865, 137, 401, 168, 464
-0.992866, 145, 217, 208, 248
-0.992868, 233, 393, 296, 424
-0.992869, 241, 369, 304, 400
-0.992869, 257, 177, 320, 208
-0.99287, 1, 305, 128, 368
-0.992872, 345, 453, 408, 484
-0.992882, 177, 393, 240, 424
-0.992882, 41, 321, 104, 352
-0.992883, 249, 205, 280, 236
-0.992885, 9, 425, 72, 456
-0.992889, 237, 241, 268, 272
-0.992894, 217, 89, 280, 120
-0.992895, 89, 321, 152, 352
-0.992897, 145, 273, 208, 304
-0.9929, 121, 353, 184, 384
-0.992907, 149, 273, 180, 336
-0.992908, 345, 321, 408, 352
-0.992918, 189, 213, 220, 244
-0.992919, 153, 309, 216, 340
-0.992919, 81, 361, 144, 392
-0.992925, 193, 1, 320, 128
-0.992925, 217, 1, 280, 256
-0.992928, 225, 305, 256, 368
-0.992937, 209, 193, 240, 224
-0.992937, 321, 433, 445, 496
-0.992939, 249, 357, 312, 388
-0.992939, 185, 189, 216, 220
-0.992959, 233, 193, 264, 224
-0.992963, 225, 233, 256, 264
-0.992963, 237, 213, 268, 244
-0.992964, 289, 273, 416, 336
-0.992976, 193, 365, 224, 396
-0.993, 217, 173, 248, 204
-0.993024, 253, 185, 284, 216
-0.993029, 273, 65, 336, 320
-0.99303, 49, 425, 176, 488
-0.993033, 93, 265, 124, 296
-0.993033, 197, 133, 228, 164
-0.993038, 249, 137, 280, 168
-0.993051, 217, 245, 248, 276
-0.993068, 25, 257, 88, 500
-0.993082, 221, 189, 252, 220
-0.993083, 1, 377, 128, 440
-0.993086, 209, 381, 240, 412
-0.993087, 333, 273, 364, 400
-0.993087, 197, 89, 228, 120
-0.993102, 261, 229, 292, 260
-0.993102, 193, 377, 224, 408
-0.993115, 237, 425, 268, 456
-0.993119, 193, 289, 224, 416
-0.993122, 253, 425, 284, 456
-0.993126, 137, 1, 200, 500
-0.993131, 93, 253, 124, 284
-0.993137, 209, 369, 240, 400
-0.993143, 205, 181, 236, 212
-0.993145, 369, 385, 400, 448
-0.993147, 261, 149, 292, 180
-0.993154, 253, 97, 284, 128
-0.99316, 173, 193, 204, 224
-0.993164, 221, 413, 252, 444
-0.993174, 185, 1, 248, 256
-0.993174, 205, 105, 236, 136
-0.993177, 193, 173, 224, 204
-0.993178, 225, 293, 256, 324
-0.993181, 237, 437, 268, 468
-0.993185, 221, 397, 252, 428
-0.993192, 165, 309, 196, 340
-0.993199, 253, 169, 284, 200
-0.993212, 217, 149, 248, 180
-0.993216, 225, 425, 256, 456
-0.993219, 181, 369, 212, 400
-0.993221, 201, 237, 232, 268
-0.993227, 225, 137, 256, 168
-0.993227, 233, 161, 264, 192
-0.993232, 229, 365, 260, 396
-0.993253, 177, 97, 208, 224
-0.993254, 265, 105, 296, 136
-0.993257, 241, 413, 272, 444
-0.993258, 125, 289, 156, 320
-0.993258, 197, 121, 228, 152
-0.993261, 209, 337, 240, 400
-0.993262, 149, 289, 180, 416
-0.993266, 197, 149, 228, 180
-0.99327, 249, 149, 280, 180
-0.993275, 217, 125, 248, 156
-0.993289, 261, 389, 292, 420
-0.993291, 145, 137, 208, 200
-0.993295, 269, 373, 300, 404
-0.993299, 81, 249, 112, 312
-0.993299, 261, 125, 292, 156
-0.993306, 321, 401, 352, 432
-0.993306, 201, 393, 232, 456
-0.993316, 269, 405, 300, 436
-0.993316, 129, 361, 192, 424
-0.993319, 269, 81, 300, 112
-0.993322, 157, 293, 188, 324
-0.993322, 249, 373, 280, 404
-0.993323, 213, 445, 244, 476
-0.993326, 229, 381, 260, 412
-0.993326, 257, 413, 288, 444
-0.993329, 81, 265, 112, 296
-0.993332, 169, 289, 200, 320
-0.993332, 189, 353, 220, 384
-0.993333, 293, 301, 324, 332
-0.993334, 209, 433, 240, 464
-0.993334, 253, 109, 284, 140
-0.993343, 245, 309, 276, 340
-0.993343, 169, 321, 200, 352
-0.993346, 227, 209, 242, 272
-0.993348, 193, 101, 224, 132
-0.993348, 269, 305, 300, 336
-0.993348, 241, 393, 272, 424
-0.993351, 265, 205, 296, 236
-0.993355, 217, 309, 248, 340
-0.993357, 273, 129, 304, 160
-0.993361, 273, 445, 304, 476
-0.993365, 213, 357, 244, 388
-0.993365, 177, 205, 208, 236
-0.993366, 225, 337, 256, 368
-0.993371, 233, 309, 264, 340
-0.993372, 201, 465, 232, 496
-0.993373, 209, 409, 240, 440
-0.993378, 285, 313, 316, 344
-0.993378, 273, 285, 304, 316
-0.993381, 121, 357, 152, 388
-0.993384, 217, 161, 248, 192
-0.993384, 105, 245, 136, 276
-0.993386, 113, 261, 144, 292
-0.993389, 225, 441, 256, 472
-0.99339, 213, 293, 244, 324
-0.993392, 181, 381, 212, 412
-0.993395, 285, 373, 316, 404
-0.993399, 81, 277, 112, 308
-0.9934, 97, 329, 128, 360
-0.993402, 105, 345, 136, 376
-0.993407, 285, 329, 316, 360
-0.993411, 177, 301, 208, 332
-0.993411, 153, 305, 184, 336
-0.993414, 245, 125, 276, 156
-0.993414, 141, 281, 172, 312
-0.993416, 197, 161, 228, 192
-0.993419, 117, 329, 148, 360
-0.99342, 189, 313, 220, 344
-0.99342, 273, 317, 304, 348
-0.993421, 149, 409, 180, 440
-0.993423, 169, 333, 200, 364
-0.993427, 121, 341, 152, 372
-0.993427, 193, 77, 224, 108
-0.993431, 257, 301, 288, 332
-0.993433, 241, 285, 272, 316
-0.993433, 249, 241, 280, 272
-0.993434, 193, 449, 224, 480
-0.993438, 189, 421, 220, 452
-0.993442, 205, 305, 236, 336
-0.993445, 201, 393, 232, 424
-0.993464, 181, 377, 212, 440
-0.993471, 57, 305, 88, 368
-0.993472, 285, 369, 316, 496
-0.993474, 273, 233, 336, 296
-0.993476, 313, 289, 344, 416
-0.993528, 53, 409, 84, 472
-0.99354, 25, 273, 56, 400
-0.993586, 153, 433, 184, 496
-0.993588, 137, 169, 200, 232
-0.993593, 269, 145, 300, 208
-0.993638, 81, 113, 208, 240
-0.993639, 321, 321, 445, 384
-0.993641, 69, 305, 100, 368
-0.993663, 281, 337, 312, 400
-0.993742, 257, 385, 288, 448
-0.993792, 105, 209, 168, 272
-0.993804, 1, 17, 256, 144
-0.993807, 217, 209, 232, 272
-0.99382, 177, 321, 208, 448
-0.993901, 165, 201, 196, 264
-0.993908, 377, 369, 440, 496
-0.993913, 289, 369, 352, 496
-0.993926, 329, 361, 360, 424
-0.993938, 273, 257, 336, 320
-0.99394, 213, 113, 244, 176
-0.993945, 269, 329, 300, 392
-0.993946, 181, 161, 212, 224
-0.993948, 77, 369, 108, 496
-0.993984, 385, 297, 445, 360
-0.99399, 177, 433, 208, 496
-0.993993, 161, 401, 192, 464
-0.994, 189, 273, 220, 336
-0.994007, 349, 337, 380, 400
-0.99404, 309, 377, 340, 440
-0.994055, 177, 97, 208, 160
-0.994058, 369, 273, 432, 336
-0.994074, 189, 49, 220, 176
-0.994191, 297, 329, 360, 392
-0.994205, 145, 353, 208, 480
-0.994227, 149, 209, 180, 272
-0.994237, 129, 321, 160, 448
-0.994254, 209, 201, 224, 264
-0.994272, 137, 265, 168, 328
-0.994284, 185, 225, 216, 352
-0.994287, 105, 273, 136, 336
-0.994311, 177, 409, 208, 472
-0.994325, 249, 33, 312, 288
-0.994327, 145, 217, 272, 248
-0.994334, 145, 81, 208, 144
-0.994345, 109, 225, 140, 288
-0.994347, 289, 401, 320, 464
-0.994361, 381, 345, 412, 408
-0.994414, 141, 337, 172, 464
-0.994466, 263, 209, 278, 272
-0.994483, 45, 297, 76, 360
-0.994484, 193, 217, 320, 248
-0.994486, 317, 313, 348, 376
-0.994494, 129, 273, 384, 336
-0.994498, 33, 345, 288, 408
-0.9945, 257, 1, 320, 500
-0.994536, 105, 329, 136, 392
-0.994551, 165, 369, 196, 496
-0.994611, 251, 193, 266, 256
-0.994619, 69, 225, 100, 352
-0.994628, 305, 225, 432, 352
-0.994643, 257, 81, 384, 144
-0.994686, 37, 321, 68, 448
-0.994747, 305, 345, 336, 408
-0.994751, 121, 329, 152, 392
-0.994759, 269, 65, 300, 128
-0.994765, 41, 273, 72, 400
-0.994792, 169, 225, 200, 352
-0.994794, 97, 321, 128, 448
-0.994822, 241, 209, 256, 272
-0.994828, 233, 209, 248, 272
-0.99483, 215, 129, 230, 192
-0.994832, 215, 185, 230, 248
-0.994854, 285, 241, 316, 368
-0.99487, 145, 229, 272, 260
-0.994871, 33, 281, 288, 344
-0.994873, 145, 321, 176, 384
-0.994873, 141, 425, 172, 488
-0.99488, 201, 193, 216, 256
-0.994904, 181, 57, 212, 120
-0.994905, 273, 385, 400, 448
-0.994911, 265, 129, 280, 192
-0.994926, 177, 189, 304, 220
-0.994931, 249, 249, 280, 312
-0.994933, 129, 217, 160, 280
-0.99497, 113, 369, 144, 496
-0.994972, 153, 337, 184, 464
-0.994983, 93, 305, 124, 368
-0.994998, 69, 409, 100, 472
-0.995032, 77, 321, 108, 448
-0.995034, 193, 241, 320, 272
-0.995077, 81, 169, 208, 232
-0.9951, 333, 321, 364, 448
-0.995113, 313, 353, 344, 480
-0.995114, 273, 97, 336, 224
-0.995196, 65, 185, 320, 248
-0.995293, 97, 113, 352, 176
-0.995382, 61, 337, 92, 464
-0.995449, 193, 65, 256, 128
-0.995459, 129, 305, 384, 368
-0.995484, 255, 217, 270, 280
-0.995503, 221, 185, 236, 248
-0.995562, 165, 145, 196, 272
-0.995564, 1, 193, 128, 320
-0.995594, 247, 217, 262, 280
-0.995597, 193, 229, 320, 260
-0.995615, 191, 185, 206, 248
-0.995642, 129, 329, 384, 392
-0.995643, 161, 361, 416, 424
-0.995661, 227, 185, 242, 248
-0.995676, 273, 105, 400, 168
-0.995687, 193, 185, 445, 248
-0.995713, 253, 169, 268, 232
-0.995716, 237, 185, 252, 248
-0.995718, 33, 369, 64, 496
-0.995754, 5, 273, 36, 400
-0.995769, 221, 129, 236, 192
-0.995843, 93, 369, 124, 496
-0.995856, 263, 97, 278, 160
-0.995889, 193, 97, 445, 160
-0.995926, 193, 205, 320, 236
-0.99593, 33, 257, 288, 320
-0.995951, 337, 257, 400, 500
-0.996006, 239, 233, 254, 296
-0.996022, 269, 185, 284, 248
-0.99603, 203, 217, 218, 280
-0.996036, 345, 289, 376, 416
-0.996077, 243, 185, 258, 248
-0.99608, 199, 161, 214, 224
-0.996099, 193, 141, 320, 172
-0.996104, 205, 169, 220, 232
-0.996111, 273, 169, 400, 232
-0.996143, 177, 173, 304, 204
-0.996153, 33, 433, 288, 496
-0.996161, 273, 241, 400, 304
-0.996215, 243, 161, 258, 224
-0.996287, 233, 241, 248, 304
-0.996296, 259, 177, 274, 240
-0.996313, 219, 105, 234, 168
-0.996328, 271, 129, 286, 192
-0.996376, 225, 233, 240, 296
-0.996376, 129, 385, 384, 448
-0.996378, 235, 401, 250, 464
-0.996379, 129, 97, 192, 352
-0.996383, 257, 129, 272, 192
-0.996394, 95, 249, 110, 312
-0.996402, 257, 417, 272, 480
-0.996405, 145, 205, 272, 236
-0.996407, 25, 225, 88, 352
-0.996428, 227, 145, 242, 208
-0.996441, 65, 89, 320, 152
-0.996448, 193, 113, 320, 144
-0.996452, 211, 225, 226, 288
-0.996453, 177, 49, 304, 112
-0.996457, 161, 153, 416, 216
-0.996512, 285, 321, 300, 384
-0.996554, 269, 209, 284, 272
-0.996567, 33, 305, 288, 368
-0.99657, 269, 89, 284, 152
-0.996572, 193, 209, 445, 272
-0.996585, 241, 17, 368, 144
-0.996596, 209, 129, 224, 192
-0.9966, 237, 425, 252, 488
-0.996617, 181, 297, 196, 360
-0.996621, 185, 321, 200, 384
-0.996626, 177, 153, 304, 184
-0.996626, 203, 361, 218, 424
-0.996651, 219, 233, 234, 296
-0.996659, 243, 385, 258, 448
-0.996687, 161, 249, 416, 312
-0.996733, 1, 257, 445, 320
-0.996748, 145, 241, 272, 272
-0.996754, 257, 105, 272, 168
-0.996756, 5, 369, 36, 496
-0.996781, 213, 49, 244, 176
-0.996784, 221, 161, 236, 224
-0.996785, 199, 113, 214, 176
-0.996803, 103, 241, 118, 304
-0.996822, 197, 81, 212, 144
-0.996833, 237, 49, 268, 176
-0.996846, 261, 33, 292, 160
-0.996848, 1, 297, 445, 360
-0.996849, 177, 101, 304, 132
-0.996861, 1, 409, 256, 472
-0.996878, 229, 425, 244, 488
-0.996886, 129, 281, 256, 312
-0.996892, 161, 409, 416, 472
-0.996911, 105, 1, 168, 500
-0.996916, 193, 125, 320, 156
-0.996919, 185, 185, 200, 248
-0.996937, 135, 281, 150, 344
-0.996949, 333, 369, 364, 496
-0.996956, 33, 377, 288, 440
-0.996976, 227, 105, 242, 168
-0.996981, 357, 289, 388, 416
-0.996991, 205, 105, 220, 168
-0.996992, 191, 161, 206, 224
-0.997023, 297, 369, 328, 496
-0.997024, 259, 153, 274, 216
-0.997031, 89, 265, 104, 328
-0.997041, 225, 129, 256, 384
-0.997046, 79, 273, 94, 336
-0.99706, 129, 433, 384, 496
-0.997092, 235, 161, 250, 224
-0.997111, 231, 361, 246, 424
-0.997113, 197, 353, 212, 416
-0.997114, 265, 401, 280, 464
-0.997114, 161, 293, 288, 324
-0.997117, 215, 229, 230, 260
-0.997119, 213, 161, 244, 416
-0.997124, 217, 213, 232, 244
-0.997128, 173, 305, 188, 368
-0.997137, 255, 289, 270, 352
-0.997139, 109, 321, 140, 448
-0.997148, 229, 225, 260, 480
-0.997152, 205, 65, 236, 320
-0.997156, 271, 361, 286, 424
-0.997162, 245, 273, 260, 336
-0.997165, 279, 329, 294, 392
-0.997165, 129, 129, 256, 160
-0.997171, 193, 313, 320, 344
-0.997177, 195, 209, 210, 272
-0.997179, 199, 137, 214, 200
-0.997184, 65, 261, 192, 292
-0.997198, 81, 225, 112, 352
-0.997208, 209, 209, 224, 240
-0.997224, 265, 153, 280, 216
-0.997225, 219, 137, 234, 168
-0.99724, 275, 81, 290, 144
-0.99724, 211, 369, 226, 432
-0.997241, 281, 1, 344, 500
-0.99727, 65, 161, 320, 224
-0.997272, 1, 233, 445, 296
-0.997277, 241, 229, 368, 260
-0.997289, 209, 297, 336, 328
-0.99729, 1, 209, 256, 272
-0.997302, 129, 181, 256, 212
-0.997312, 129, 369, 160, 496
-0.997316, 243, 425, 258, 488
-0.997318, 177, 361, 304, 392
-0.997325, 275, 105, 290, 168
-0.997335, 201, 33, 232, 160
-0.997356, 1, 257, 64, 500
-0.99736, 65, 137, 320, 200
-0.997361, 191, 297, 206, 360
-0.997369, 223, 337, 238, 400
-0.997378, 279, 305, 294, 368
-0.997378, 215, 153, 230, 216
-0.997381, 177, 373, 304, 404
-0.997382, 183, 273, 198, 336
-0.997387, 305, 1, 432, 128
-0.997391, 161, 17, 224, 144
-0.997401, 223, 213, 238, 244
-0.997403, 49, 281, 176, 312
-0.997406, 209, 81, 224, 144
-0.997406, 257, 217, 272, 248
-0.997413, 251, 321, 266, 384
-0.99742, 155, 297, 170, 360
-0.997436, 129, 305, 256, 336
-0.997444, 143, 289, 158, 352
-0.997462, 223, 377, 238, 440
-0.997463, 299, 329, 314, 392
-0.997465, 251, 113, 266, 176
-0.997473, 289, 297, 304, 360
-0.997474, 229, 281, 244, 344
-0.997475, 173, 161, 204, 416
-0.997481, 191, 321, 206, 384
-0.997483, 297, 257, 360, 500
-0.997492, 261, 297, 276, 360
-0.997503, 225, 233, 240, 264
-0.997506, 203, 201, 218, 232
-0.997509, 225, 393, 352, 424
-0.997512, 177, 253, 304, 284
-0.997514, 185, 193, 216, 448
-0.997524, 241, 129, 272, 384
-0.997524, 273, 145, 400, 208
-0.997529, 221, 417, 236, 480
-0.99754, 161, 401, 288, 432
-0.997559, 193, 129, 445, 192
-0.997568, 249, 297, 264, 360
-0.997568, 149, 361, 164, 424
-0.997577, 167, 305, 182, 368
-0.997582, 261, 161, 292, 416
-0.997589, 161, 421, 288, 452
-0.9976, 113, 281, 128, 344
-0.997603, 377, 353, 408, 480
-0.99761, 177, 273, 192, 336
-0.997611, 245, 241, 260, 304
-0.997622, 113, 293, 240, 324
-0.997623, 305, 297, 320, 360
-0.997625, 193, 65, 224, 320
-0.997632, 251, 409, 266, 472
-0.997635, 139, 345, 154, 408
-0.997644, 265, 377, 280, 440
-0.997645, 33, 201, 160, 264
-0.997646, 1, 321, 445, 384
-0.997646, 225, 433, 352, 464
-0.997647, 223, 281, 238, 344
-0.997652, 405, 289, 436, 416
-0.997664, 241, 413, 368, 444
-0.997667, 193, 269, 320, 300
-0.997671, 193, 281, 320, 312
-0.99768, 243, 353, 258, 416
-0.997687, 241, 209, 368, 240
-0.997693, 81, 1, 144, 500
-0.997695, 243, 221, 258, 252
-0.997699, 251, 433, 266, 496
-0.997704, 241, 329, 368, 360
-0.997722, 207, 221, 222, 252
-0.997741, 149, 337, 164, 400
-0.997744, 145, 117, 272, 148
-0.997751, 263, 217, 278, 248
-0.997757, 239, 289, 254, 352
-0.997757, 241, 309, 368, 340
-0.997758, 129, 281, 144, 344
-0.997758, 49, 353, 80, 480
-0.997778, 229, 393, 244, 456
-0.997778, 277, 129, 308, 256
-0.997785, 251, 353, 266, 416
-0.997788, 321, 321, 336, 384
-0.99779, 171, 345, 186, 408
-0.99779, 69, 273, 84, 336
-0.997792, 257, 369, 384, 400
-0.997793, 249, 225, 280, 480
-0.997793, 177, 341, 304, 372
-0.997796, 251, 137, 266, 200
-0.997796, 271, 153, 286, 216
-0.997798, 263, 137, 278, 168
-0.9978, 123, 281, 138, 344
-0.997804, 259, 393, 274, 456
-0.997805, 243, 137, 258, 200
-0.997811, 173, 385, 188, 448
-0.997815, 129, 153, 256, 184
-0.997816, 251, 225, 266, 256
-0.997827, 233, 113, 248, 176
-0.99783, 253, 65, 284, 320
-0.997835, 165, 321, 196, 448
-0.997836, 233, 337, 248, 400
-0.997839, 163, 329, 178, 392
-0.997843, 1, 385, 445, 448
-0.997847, 229, 217, 244, 248
-0.997854, 315, 313, 330, 376
-0.997857, 187, 361, 202, 424
-0.997859, 273, 161, 336, 416
-0.997866, 149, 289, 164, 352
-0.997866, 159, 393, 174, 456
-0.997869, 213, 133, 228, 164
-0.997878, 281, 81, 296, 144
-0.997904, 197, 161, 228, 416
-0.997909, 259, 229, 274, 260
-0.997919, 177, 33, 208, 160
-0.997929, 237, 173, 252, 204
-0.997939, 177, 433, 304, 464
-0.99794, 269, 213, 284, 244
-0.997947, 97, 233, 224, 264
-0.997948, 129, 377, 256, 408
-0.997953, 285, 65, 316, 192
-0.997955, 271, 89, 286, 120
-0.997964, 113, 353, 240, 384
-0.99797, 17, 321, 48, 448
-0.997978, 97, 217, 224, 248
-0.997986, 81, 309, 208, 340
-0.997986, 161, 325, 288, 356
-0.997994, 233, 201, 248, 232
-0.997999, 161, 73, 416, 136
-0.998004, 129, 269, 256, 300
-0.998008, 177, 81, 304, 112
-0.998011, 1, 113, 256, 176
-0.998018, 233, 425, 248, 456
-0.998031, 225, 137, 240, 168
-0.998035, 205, 373, 220, 404
-0.998043, 191, 193, 206, 224
-0.998051, 223, 197, 238, 228
-0.998053, 81, 249, 208, 280
-0.998055, 233, 413, 248, 444
-0.998056, 225, 1, 288, 128
-0.998062, 313, 241, 344, 368
-0.998079, 197, 197, 212, 228
-0.998082, 289, 433, 416, 464
-0.998082, 237, 241, 252, 272
-0.998089, 183, 321, 198, 352
-0.998091, 277, 257, 308, 500
-0.998094, 177, 389, 304, 420
-0.9981, 1, 1, 128, 256
-0.998106, 1, 425, 445, 488
-0.998116, 81, 145, 208, 208
-0.998121, 249, 169, 264, 200
-0.998121, 97, 49, 224, 112
-0.998127, 229, 177, 244, 208
-0.998129, 245, 237, 260, 268
-0.998149, 33, 313, 160, 344
-0.99815, 129, 193, 256, 224
-0.998154, 269, 133, 284, 164
-0.998155, 17, 385, 144, 416
-0.998159, 129, 341, 256, 372
-0.998163, 199, 213, 214, 244
-0.998174, 129, 257, 256, 288
-0.998179, 197, 369, 212, 400
-0.998185, 81, 89, 208, 152
-0.998192, 257, 357, 384, 388
-0.998203, 161, 193, 192, 448
-0.998215, 273, 381, 400, 412
-0.998217, 289, 453, 416, 484
-0.998222, 153, 145, 184, 272
-0.998223, 289, 317, 416, 348
-0.998224, 227, 373, 242, 404
-0.998232, 289, 321, 304, 352
-0.998234, 253, 205, 268, 236
-0.998238, 265, 97, 280, 128
-0.998239, 235, 229, 250, 260
-0.998253, 1, 281, 128, 312
-0.998257, 161, 449, 288, 480
-0.998259, 251, 237, 266, 268
-0.998265, 197, 181, 212, 212
-0.998272, 225, 177, 352, 208
-0.998274, 149, 193, 180, 448
-0.998282, 241, 281, 368, 312
-0.998303, 181, 65, 212, 320
-0.998306, 231, 245, 246, 276
-0.998307, 239, 433, 254, 464
-0.998307, 49, 357, 176, 388
-0.998312, 269, 389, 300, 404
-0.998312, 197, 199, 228, 214
-0.998312, 213, 151, 244, 166
-0.998312, 253, 99, 284, 114
-0.998312, 257, 169, 288, 184
-0.998312, 89, 275, 120, 290
-0.998313, 277, 337, 308, 352
-0.998314, 129, 349, 160, 364
-0.998314, 261, 403, 292, 418
-0.998314, 213, 249, 244, 264
-0.998314, 201, 387, 232, 402
-0.998315, 229, 189, 244, 220
-0.998315, 177, 379, 208, 394
-0.998315, 241, 401, 272, 416
-0.998316, 269, 139, 300, 154
-0.998316, 283, 337, 298, 368
-0.998317, 253, 107, 284, 122
-0.998317, 237, 445, 268, 460
-0.998318, 113, 457, 240, 488
-0.998318, 49, 315, 80, 330
-0.998318, 257, 141, 272, 172
-0.998318, 185, 353, 216, 368
-0.998319, 197, 129, 228, 144
-0.998319, 329, 397, 360, 412
-0.99832, 185, 473, 216, 488
-0.99832, 225, 137, 256, 152
-0.99832, 241, 145, 272, 160
-0.99832, 289, 325, 320, 340
-0.998321, 249, 153, 280, 168
-0.998321, 225, 343, 256, 358
-0.998321, 253, 199, 284, 214
-0.998321, 193, 173, 224, 188
-0.998322, 185, 361, 216, 376
-0.998323, 197, 237, 228, 252
-0.998324, 285, 331, 316, 346
-0.998325, 217, 175, 248, 190
-0.998325, 225, 143, 256, 158
-0.99833, 221, 409, 252, 424
-0.99833, 221, 465, 252, 480
-0.99833, 121, 291, 152, 306
-0.998331, 169, 319, 200, 334
-0.998331, 237, 217, 252, 248
-0.998332, 253, 183, 284, 198
-0.998332, 269, 111, 300, 126
-0.998332, 161, 383, 192, 398
-0.998332, 265, 145, 296, 160
-0.998333, 219, 125, 234, 156
-0.998333, 273, 345, 400, 376
-0.998334, 173, 199, 204, 214
-0.998334, 141, 289, 172, 304
-0.998336, 237, 237, 268, 252
-0.998337, 237, 313, 268, 328
-0.998338, 225, 437, 256, 452
-0.998338, 205, 109, 236, 124
-0.998338, 221, 195, 252, 210
-0.998339, 229, 375, 260, 390
-0.998342, 191, 181, 206, 212
-0.998342, 225, 443, 256, 458
-0.998343, 201, 147, 232, 162
-0.998343, 221, 397, 252, 412
-0.998343, 213, 445, 244, 460
-0.998344, 177, 373, 208, 388
-0.998345, 233, 209, 264, 224
-0.998345, 225, 245, 240, 276
-0.998346, 121, 339, 152, 354
-0.998347, 265, 309, 296, 324
-0.998347, 261, 205, 276, 236
-0.998347, 221, 403, 252, 418
-0.998347, 259, 421, 274, 452
-0.998348, 205, 473, 236, 488
-0.998348, 241, 197, 256, 228
-0.998349, 261, 425, 292, 440
-0.99835, 93, 253, 124, 268
-0.998352, 209, 237, 240, 252
-0.998352, 221, 417, 252, 432
-0.998352, 221, 425, 252, 440
-0.998354, 237, 225, 268, 240
-0.998355, 213, 385, 244, 400
-0.998357, 249, 211, 280, 226
-0.998358, 209, 373, 240, 388
-0.99836, 97, 261, 128, 276
-0.99836, 205, 243, 236, 258
-0.998361, 193, 109, 224, 124
-0.998361, 213, 133, 244, 148
-0.998362, 241, 401, 256, 432
-0.998362, 289, 301, 416, 332
-0.998363, 197, 89, 228, 104
-0.998364, 233, 169, 264, 184
-0.998364, 261, 151, 292, 166
-0.998366, 217, 229, 248, 244
-0.998367, 233, 361, 248, 392
-0.998367, 265, 133, 296, 148
-0.998369, 197, 103, 228, 118
-0.998369, 221, 431, 252, 446
-0.99837, 93, 269, 124, 284
-0.998375, 217, 183, 248, 198
-0.998375, 269, 91, 300, 106
-0.998375, 189, 373, 220, 388
-0.998376, 205, 191, 236, 206
-0.998376, 185, 207, 216, 222
-0.998377, 253, 431, 284, 446
-0.998378, 185, 195, 216, 210
-0.998378, 185, 215, 216, 230
-0.99838, 261, 215, 292, 230
-0.998383, 189, 381, 220, 396
-0.998384, 113, 365, 240, 396
-0.998388, 221, 207, 252, 222
-0.998389, 201, 217, 232, 232
-0.99839, 215, 193, 230, 224
-0.99839, 253, 145, 284, 160
-0.99839, 237, 439, 268, 454
-0.998391, 229, 231, 260, 246
-0.998392, 197, 183, 228, 198
-0.998393, 241, 421, 256, 452
-0.998397, 241, 431, 272, 446
-0.998397, 199, 161, 214, 192
-0.998397, 1, 333, 128, 364
-0.998397, 261, 225, 292, 240
-0.998398, 253, 189, 284, 204
-0.998398, 201, 141, 232, 156
-0.998398, 193, 367, 224, 382
-0.998403, 97, 321, 224, 352
-0.998403, 265, 97, 296, 112
-0.998406, 17, 469, 144, 500
-0.998407, 247, 201, 262, 232
-0.99841, 49, 329, 176, 360
-0.99841, 1, 433, 128, 464
-0.998411, 101, 249, 116, 280
-0.998411, 233, 193, 264, 208
-0.998412, 265, 103, 296, 118
-0.998412, 49, 293, 176, 324
-0.998413, 217, 241, 232, 272
-0.998415, 211, 145, 226, 176
-0.998416, 189, 221, 220, 236
-0.998416, 217, 149, 232, 180
-0.998417, 201, 135, 232, 150
-0.99842, 185, 201, 216, 216
-0.998422, 209, 199, 240, 214
-0.998423, 259, 105, 274, 136
-0.998424, 257, 231, 288, 246
-0.998425, 233, 219, 264, 234
-0.998427, 95, 261, 110, 292
-0.998435, 277, 357, 292, 388
-0.998435, 233, 199, 264, 214
-0.998436, 225, 125, 240, 156
-0.998437, 233, 183, 264, 198
-0.998437, 129, 169, 256, 200
-0.998441, 233, 425, 264, 440
-0.998441, 49, 421, 176, 452
-0.998441, 225, 245, 256, 260
-0.998441, 145, 141, 272, 172
-0.998444, 233, 175, 264, 190
-0.998445, 217, 223, 248, 238
-0.998448, 203, 189, 218, 220
-0.998448, 217, 189, 248, 204
-0.998448, 241, 93, 368, 124
-0.998451, 193, 209, 208, 240
-0.998454, 241, 241, 368, 272
-0.998456, 97, 205, 224, 236
-0.998457, 321, 361, 445, 392
-0.998459, 201, 217, 264, 232
-0.998462, 237, 243, 268, 258
-0.998463, 257, 139, 288, 154
-0.998463, 249, 237, 280, 252
-0.998465, 213, 145, 244, 160
-0.998466, 257, 177, 272, 208
-0.998469, 173, 257, 204, 500
-0.998475, 249, 223, 280, 238
-0.998479, 241, 129, 368, 160
-0.99848, 213, 217, 244, 232
-0.998482, 201, 225, 232, 240
-0.998486, 213, 139, 244, 154
-0.998489, 197, 205, 228, 220
-0.998496, 17, 269, 144, 300
-0.998497, 217, 235, 280, 250
-0.998498, 231, 389, 246, 420
-0.998499, 217, 223, 280, 238
-0.998499, 207, 81, 222, 112
-0.998504, 205, 361, 220, 392
-0.998504, 225, 381, 352, 412
-0.998508, 223, 385, 238, 416
-0.998515, 217, 241, 280, 256
-0.998517, 249, 217, 280, 232
-0.99852, 265, 149, 280, 180
-0.998524, 205, 231, 236, 246
-0.998531, 221, 237, 252, 252
-0.998535, 233, 373, 248, 404
-0.998536, 177, 211, 240, 226
-0.99854, 289, 421, 416, 452
-0.998543, 219, 181, 234, 212
-0.998546, 113, 393, 240, 424
-0.998549, 217, 229, 280, 244
-0.99855, 227, 293, 242, 324
-0.99855, 241, 239, 304, 254
-0.998552, 225, 193, 352, 224
-0.998553, 93, 193, 124, 320
-0.998556, 217, 207, 280, 222
-0.998556, 169, 205, 232, 220
-0.998558, 233, 189, 296, 204
-0.998558, 49, 177, 176, 304
-0.998558, 201, 211, 232, 226
-0.998562, 49, 457, 176, 488
-0.998565, 193, 201, 256, 216
-0.998568, 205, 145, 220, 176
-0.998568, 253, 429, 268, 460
-0.998568, 209, 185, 224, 216
-0.998572, 193, 239, 256, 254
-0.998581, 277, 85, 292, 116
-0.998583, 207, 133, 222, 164
-0.998583, 199, 101, 214, 132
-0.998583, 209, 135, 272, 150
-0.998586, 225, 145, 288, 160
-0.998587, 231, 401, 246, 432
-0.998592, 227, 417, 242, 448
-0.998593, 289, 289, 416, 320
-0.998594, 199, 89, 214, 120
-0.998594, 185, 191, 248, 206
-0.998596, 241, 229, 304, 244
-0.998597, 177, 313, 192, 344
-0.998598, 225, 217, 288, 232
-0.998599, 209, 197, 224, 228
-0.998602, 353, 369, 384, 496
-0.998602, 209, 185, 272, 200
-0.998604, 241, 445, 368, 476
-0.998604, 1, 457, 128, 488
-0.998606, 233, 175, 296, 190
-0.998606, 235, 189, 250, 220
-0.998606, 185, 137, 248, 152
-0.998607, 153, 211, 216, 226
-0.998607, 197, 357, 212, 388
-0.998608, 185, 229, 248, 244
-0.998609, 241, 185, 256, 216
-0.998609, 233, 197, 296, 212
-0.998611, 161, 219, 224, 234
-0.998611, 273, 149, 288, 180
-0.998611, 193, 149, 256, 164
-0.998612, 209, 175, 272, 190
-0.998614, 251, 185, 266, 216
-0.998621, 265, 229, 280, 260
-0.998622, 271, 201, 286, 232
-0.998623, 273, 57, 400, 120
-0.998623, 243, 161, 258, 192
-0.998624, 217, 257, 248, 500
-0.998625, 89, 271, 152, 286
-0.998625, 137, 289, 200, 304
-0.998626, 241, 223, 304, 238
-0.998626, 245, 437, 260, 468
-0.998627, 193, 143, 256, 158
-0.998631, 201, 377, 264, 392
-0.998631, 249, 139, 312, 154
-0.998632, 185, 185, 248, 200
-0.998633, 169, 381, 232, 396
-0.998633, 201, 247, 264, 262
-0.998633, 225, 57, 352, 120
-0.998634, 211, 369, 226, 400
-0.998634, 185, 223, 248, 238
-0.998635, 233, 183, 296, 198
-0.998636, 209, 193, 272, 208
-0.998637, 281, 1, 312, 128
-0.998637, 255, 153, 270, 184
-0.998639, 33, 345, 160, 376
-0.998639, 257, 117, 384, 148
-0.99864, 185, 171, 248, 186
-0.998641, 89, 265, 152, 280
-0.998642, 273, 401, 400, 432
-0.998643, 209, 433, 272, 448
-0.998645, 217, 311, 280, 326
-0.998646, 209, 383, 272, 398
-0.998647, 129, 105, 256, 136
-0.998648, 169, 199, 232, 214
-0.998648, 257, 129, 272, 160
-0.998648, 169, 131, 232, 146
-0.998651, 233, 427, 296, 442
-0.998651, 271, 373, 286, 404
-0.998652, 265, 413, 280, 444
-0.998654, 185, 113, 248, 128
-0.998654, 185, 107, 248, 122
-0.998656, 193, 155, 256, 170
-0.998657, 217, 129, 280, 144
-0.998658, 223, 149, 238, 180
-0.998658, 249, 311, 312, 326
-0.998658, 65, 409, 192, 440
-0.99866, 185, 177, 248, 192
-0.998662, 249, 145, 312, 160
-0.998662, 177, 375, 240, 390
-0.998663, 205, 117, 220, 148
-0.998667, 233, 247, 296, 262
-0.998669, 389, 273, 420, 400
-0.998669, 89, 259, 152, 274
-0.99867, 169, 145, 232, 160
-0.99867, 249, 105, 312, 120
-0.998671, 201, 389, 264, 404
-0.998671, 49, 331, 112, 346
-0.998671, 89, 333, 152, 348
-0.998671, 249, 339, 312, 354
-0.998672, 233, 169, 296, 184
-0.998673, 105, 277, 168, 292
-0.998673, 193, 127, 256, 142
-0.998674, 241, 211, 304, 226
-0.998674, 267, 185, 282, 216
-0.998674, 223, 397, 238, 428
-0.998674, 353, 381, 416, 396
-0.998674, 189, 325, 204, 356
-0.998675, 217, 151, 280, 166
-0.998675, 193, 393, 208, 424
-0.998676, 201, 423, 264, 438
-0.998677, 233, 363, 296, 378
-0.998678, 369, 361, 432, 376
-0.998678, 273, 347, 336, 362
-0.998679, 177, 327, 240, 342
-0.99868, 225, 105, 288, 120
-0.99868, 249, 111, 312, 126
-0.998681, 217, 305, 280, 320
-0.998681, 217, 443, 280, 458
-0.998681, 73, 279, 136, 294
-0.998681, 65, 265, 128, 280
-0.998682, 217, 317, 280, 332
-0.998682, 193, 119, 256, 134
-0.998682, 249, 99, 312, 114
-0.998683, 201, 417, 264, 432
-0.998683, 257, 189, 272, 220
-0.998683, 249, 327, 312, 342
-0.998683, 177, 317, 240, 332
-0.998685, 193, 367, 256, 382
-0.998685, 169, 151, 232, 166
-0.998685, 213, 89, 228, 120
-0.998685, 201, 403, 264, 418
-0.998685, 145, 295, 208, 310
-0.998686, 193, 475, 256, 490
-0.998686, 233, 387, 296, 402
-0.998686, 177, 387, 240, 402
-0.998686, 81, 377, 208, 408
-0.998687, 225, 375, 288, 390
-0.998687, 161, 107, 224, 122
-0.998687, 149, 381, 164, 412
-0.998687, 193, 469, 208, 500
-0.998688, 227, 165, 242, 196
-0.998688, 257, 305, 320, 320
-0.998688, 193, 165, 256, 180
-0.998689, 121, 377, 184, 392
-0.99869, 41, 303, 104, 318
-0.99869, 81, 377, 144, 392
-0.99869, 17, 423, 80, 438
-0.998692, 57, 371, 120, 386
-0.998692, 121, 283, 184, 298
-0.998692, 177, 287, 240, 302
-0.998692, 49, 281, 112, 296
-0.998694, 257, 419, 320, 434
-0.998694, 185, 101, 248, 116
-0.998694, 233, 289, 296, 304
-0.998694, 265, 225, 328, 240
-0.998694, 105, 289, 168, 304
-0.998695, 225, 369, 288, 384
-0.998696, 233, 413, 296, 428
-0.998696, 201, 397, 264, 412
-0.998696, 205, 429, 220, 460
-0.998696, 245, 353, 260, 384
-0.998697, 105, 371, 168, 386
-0.998697, 65, 273, 128, 288
-0.998697, 241, 437, 304, 452
-0.998697, 57, 353, 120, 368
-0.998698, 281, 101, 296, 132
-0.998698, 257, 133, 320, 148
-0.998699, 65, 337, 128, 352
-0.998699, 191, 337, 206, 368
-0.998699, 57, 363, 120, 378
-0.998699, 169, 157, 232, 172
-0.998699, 41, 377, 104, 392
-0.998699, 201, 409, 264, 424
-0.998699, 353, 345, 416, 360
-0.9987, 249, 295, 312, 310
-0.9987, 25, 471, 88, 486
-0.9987, 313, 347, 376, 362
-0.998701, 1, 473, 64, 488
-0.998701, 241, 443, 304, 458
-0.998701, 377, 483, 440, 498
-0.998701, 241, 457, 304, 472
-0.998705, 137, 257, 168, 500
-0.998706, 1, 421, 128, 452
-0.998708, 215, 413, 230, 444
-0.998709, 203, 177, 218, 208
-0.998709, 197, 425, 212, 456
-0.998711, 301, 241, 332, 368
-0.998711, 265, 65, 296, 320
-0.998713, 219, 169, 234, 200
-0.998713, 213, 381, 228, 412
-0.998715, 263, 125, 278, 156
-0.998718, 237, 465, 252, 496
-0.998718, 199, 117, 214, 148
-0.998719, 241, 157, 368, 188
-0.99872, 245, 365, 260, 396
-0.998725, 251, 309, 266, 340
-0.998731, 203, 385, 218, 416
-0.998748, 369, 273, 400, 400
-0.998753, 321, 469, 445, 500
-0.998757, 321, 389, 445, 420
-0.998776, 1, 361, 128, 392
-0.998788, 81, 445, 208, 476
-0.998807, 225, 345, 352, 376
-0.998814, 225, 33, 256, 288
-0.998817, 1, 405, 128, 436
-0.998817, 277, 97, 308, 352
-0.998817, 321, 249, 445, 312
-0.998839, 257, 261, 384, 292
-0.998839, 129, 93, 256, 124
-0.998849, 205, 257, 236, 500
-0.998858, 385, 257, 445, 500
-0.998868, 289, 329, 416, 360
-0.998868, 227, 193, 242, 320
-0.998876, 121, 257, 152, 500
-0.998887, 81, 341, 208, 372
-0.998897, 177, 465, 304, 496
-0.998913, 257, 465, 384, 496
-0.998932, 81, 225, 112, 480
-0.998938, 113, 421, 240, 452
-0.998941, 237, 193, 252, 320
-0.998954, 113, 433, 240, 464
-0.998958, 249, 193, 264, 320
-0.99896, 33, 373, 160, 404
-0.998963, 65, 433, 192, 464
-0.998974, 1, 301, 128, 332
-0.99898, 241, 105, 368, 136
-0.998995, 225, 9, 352, 72
-0.999005, 321, 377, 445, 408
-0.999007, 161, 17, 288, 80
-0.999011, 219, 193, 234, 320
-0.999012, 97, 225, 128, 480
-0.999014, 321, 349, 445, 380
-0.999025, 243, 193, 258, 320
-0.999043, 1, 345, 445, 408
-0.999049, 207, 177, 222, 304
-0.999055, 289, 277, 416, 308
-0.999056, 241, 145, 256, 272
-0.999059, 321, 409, 445, 440
-0.99906, 231, 241, 246, 368
-0.999068, 241, 33, 272, 288
-0.999077, 65, 469, 192, 500
-0.999081, 129, 81, 256, 112
-0.999088, 65, 397, 192, 428
-0.999097, 33, 65, 288, 128
-0.9991, 221, 145, 236, 272
-0.999109, 1, 445, 128, 476
-0.99911, 197, 145, 212, 272
-0.999112, 97, 129, 160, 384
-0.99912, 235, 145, 250, 272
-0.999136, 297, 225, 360, 352
-0.999136, 81, 113, 208, 176
-0.999141, 255, 209, 270, 336
-0.999146, 215, 145, 230, 272
-0.999148, 229, 145, 244, 272
-0.999171, 253, 145, 268, 272
-0.999191, 261, 209, 276, 336
-0.9992, 247, 145, 262, 272
-0.99921, 169, 65, 200, 320
-0.999212, 33, 225, 160, 288
-0.999213, 213, 209, 228, 336
-0.999219, 191, 177, 206, 304
-0.999231, 245, 369, 260, 496
-0.999231, 203, 129, 218, 256
-0.999233, 261, 257, 292, 500
-0.999241, 221, 321, 236, 448
-0.999241, 57, 257, 88, 500
-0.999248, 273, 1, 400, 64
-0.999248, 225, 241, 240, 368
-0.999261, 259, 145, 274, 272
-0.999263, 263, 81, 278, 208
-0.999284, 245, 241, 260, 368
-0.999296, 227, 97, 242, 224
-0.999298, 85, 273, 100, 400
-0.999298, 241, 289, 256, 416
-0.9993, 279, 321, 294, 448
-0.999302, 289, 257, 320, 500
-0.999304, 257, 97, 272, 224
-0.999315, 209, 129, 224, 256
-0.999315, 145, 1, 272, 128
-0.999315, 41, 1, 104, 500
-0.999317, 1, 201, 445, 264
-0.999321, 251, 97, 266, 224
-0.999342, 137, 273, 152, 400
-0.999344, 185, 177, 200, 304
-0.999346, 215, 81, 230, 208
-0.999349, 121, 273, 136, 400
-0.999351, 267, 193, 282, 320
-0.999355, 285, 305, 300, 432
-0.999359, 275, 81, 290, 208
-0.999359, 251, 273, 266, 400
-0.999368, 201, 209, 216, 336
-0.999371, 243, 97, 258, 224
-0.999372, 223, 369, 238, 496
-0.999373, 101, 241, 116, 368
-0.999381, 197, 97, 212, 224
-0.999395, 229, 369, 244, 496
-0.999397, 235, 97, 250, 224
-0.9994, 107, 225, 122, 352
-0.999402, 183, 273, 198, 400
-0.999402, 205, 65, 220, 192
-0.999405, 237, 241, 252, 368
-0.999405, 109, 257, 140, 500
-0.999405, 95, 241, 110, 368
-0.999409, 131, 273, 146, 400
-0.999413, 209, 353, 224, 480
-0.999417, 267, 145, 282, 272
-0.999428, 269, 81, 284, 208
-0.999435, 273, 353, 288, 480
-0.999436, 283, 257, 298, 384
-0.999442, 113, 273, 128, 400
-0.999444, 305, 257, 336, 500
-0.999445, 273, 209, 288, 336
-0.999454, 213, 305, 228, 432
-0.999457, 251, 353, 266, 480
-0.999458, 249, 1, 312, 128
-0.999468, 207, 225, 222, 352
-0.999469, 235, 337, 250, 464
-0.999469, 295, 273, 310, 400
-0.999482, 219, 241, 234, 368
-0.999483, 235, 289, 250, 416
-0.999483, 227, 289, 242, 416
-0.999483, 263, 289, 278, 416
-0.999484, 179, 177, 194, 304
-0.999493, 277, 257, 292, 384
-0.999498, 271, 305, 286, 432
-0.9995, 129, 225, 144, 352
-0.999503, 267, 369, 282, 496
-0.999504, 143, 273, 158, 400
-0.999507, 221, 97, 236, 224
-0.999509, 53, 273, 68, 400
-0.999509, 185, 321, 200, 448
-0.99951, 197, 49, 212, 176
-0.999511, 195, 305, 210, 432
-0.999511, 69, 257, 100, 500
-0.999515, 191, 113, 206, 240
-0.999517, 299, 321, 314, 448
-0.999523, 173, 289, 188, 416
-0.999526, 21, 257, 52, 500
-0.999529, 191, 257, 206, 384
-0.99953, 401, 337, 432, 464
-0.999531, 279, 107, 294, 122
-0.999531, 215, 207, 230, 222
-0.999532, 199, 103, 214, 118
-0.999532, 239, 481, 254, 496
-0.999533, 197, 377, 212, 392
-0.999533, 215, 471, 230, 486
-0.999533, 199, 157, 214, 172
-0.999533, 227, 375, 242, 390
-0.999533, 193, 471, 208, 486
-0.999533, 257, 311, 272, 326
-0.999533, 217, 187, 232, 202
-0.999534, 271, 143, 286, 158
-0.999534, 279, 353, 294, 368
-0.999534, 283, 343, 298, 358
-0.999534, 227, 227, 242, 242
-0.999534, 199, 167, 214, 182
-0.999534, 197, 93, 212, 108
-0.999536, 211, 151, 226, 166
-0.999536, 199, 353, 214, 480
-0.999537, 199, 391, 214, 406
-0.999537, 191, 399, 206, 414
-0.999537, 287, 349, 302, 364
-0.999538, 289, 323, 304, 338
-0.999539, 227, 203, 242, 218
-0.999539, 243, 431, 258, 446
-0.999539, 251, 313, 266, 328
-0.99954, 257, 423, 272, 438
-0.99954, 237, 405, 252, 420
-0.999541, 199, 195, 214, 210
-0.999541, 215, 385, 230, 400
-0.999541, 223, 385, 238, 400
-0.999542, 241, 197, 256, 212
-0.999543, 75, 273, 90, 400
-0.999543, 267, 97, 282, 112
-0.999544, 227, 191, 242, 206
-0.999544, 45, 273, 60, 400
-0.999545, 133, 291, 148, 306
-0.999545, 91, 289, 106, 416
-0.999545, 227, 197, 242, 212
-0.999546, 107, 273, 122, 400
-0.999546, 233, 213, 248, 228
-0.999546, 239, 445, 254, 460
-0.999546, 237, 417, 252, 432
-0.999547, 229, 427, 244, 442
-0.999547, 247, 199, 262, 214
-0.999547, 203, 223, 218, 238
-0.999547, 219, 245, 234, 260
-0.999548, 227, 421, 242, 436
-0.999549, 275, 87, 290, 102
-0.999549, 207, 371, 222, 386
-0.99955, 207, 85, 222, 100
-0.99955, 231, 409, 246, 424
-0.99955, 245, 437, 260, 452
-0.99955, 189, 335, 204, 350
-0.99955, 225, 249, 240, 264
-0.999551, 263, 105, 278, 120
-0.999551, 223, 149, 238, 164
-0.999551, 243, 169, 258, 184
-0.999551, 257, 185, 272, 200
-0.999552, 191, 191, 206, 206
-0.999552, 217, 151, 232, 166
-0.999553, 263, 423, 278, 438
-0.999553, 253, 223, 268, 238
-0.999554, 121, 225, 136, 352
-0.999555, 227, 137, 242, 152
-0.999555, 13, 273, 28, 400
-0.999556, 285, 337, 300, 352
-0.999556, 269, 211, 284, 226
-0.999557, 199, 173, 214, 188
-0.999557, 197, 371, 212, 386
-0.999558, 215, 219, 230, 234
-0.999558, 239, 439, 254, 454
-0.999558, 233, 191, 248, 206
-0.999558, 255, 191, 270, 206
-0.999558, 203, 305, 218, 432
-0.999559, 49, 161, 112, 416
-0.999561, 211, 231, 226, 246
-0.999561, 189, 201, 204, 216
-0.999562, 221, 225, 236, 240
-0.999563, 233, 371, 248, 386
-0.999563, 265, 131, 280, 146
-0.999564, 267, 229, 282, 244
-0.999564, 205, 381, 220, 396
-0.999564, 273, 161, 288, 288
-0.999566, 181, 319, 196, 334
-0.999566, 293, 321, 308, 448
-0.999566, 209, 209, 224, 224
-0.999567, 227, 185, 242, 200
-0.999567, 227, 219, 242, 234
-0.999567, 19, 273, 34, 400
-0.999569, 153, 209, 168, 336
-0.999571, 193, 209, 208, 224
-0.999571, 173, 209, 188, 336
-0.999572, 259, 429, 274, 444
-0.999572, 263, 153, 278, 168
-0.999572, 245, 225, 260, 240
-0.999573, 235, 431, 250, 446
-0.999573, 237, 175, 252, 190
-0.999573, 139, 225, 154, 352
-0.999574, 273, 93, 288, 108
-0.999576, 289, 329, 304, 344
-0.999577, 199, 217, 214, 232
-0.999578, 247, 241, 262, 256
-0.999578, 179, 369, 194, 496
-0.99958, 251, 217, 266, 232
-0.999582, 233, 197, 248, 212
-0.999582, 215, 239, 230, 254
-0.999583, 249, 175, 264, 190
-0.999583, 237, 425, 252, 440
-0.999584, 183, 325, 198, 340
-0.999584, 271, 217, 286, 232
-0.999586, 117, 321, 132, 448
-0.999591, 201, 257, 216, 384
-0.999591, 225, 233, 240, 248
-0.999592, 217, 129, 232, 144
-0.999592, 235, 219, 250, 234
-0.999594, 261, 231, 276, 246
-0.999595, 231, 415, 246, 430
-0.999595, 287, 353, 302, 480
-0.999595, 325, 257, 356, 500
-0.999596, 71, 337, 86, 464
-0.999598, 231, 247, 246, 262
-0.999599, 215, 213, 230, 228
-0.999599, 253, 433, 268, 448
-0.999599, 211, 145, 226, 160
-0.999601, 257, 145, 272, 160
-0.999605, 249, 235, 264, 250
-0.999607, 241, 219, 256, 234
-0.999608, 217, 369, 232, 496
-0.999608, 337, 273, 352, 400
-0.999608, 1, 289, 16, 416
-0.99961, 35, 273, 50, 400
-0.999611, 209, 135, 224, 150
-0.999612, 209, 215, 224, 230
-0.999615, 289, 257, 304, 384
-0.999619, 105, 161, 168, 288
-0.999619, 239, 243, 254, 258
-0.999621, 163, 273, 178, 400
-0.999621, 257, 353, 272, 480
-0.999623, 221, 215, 236, 230
-0.999623, 149, 289, 164, 416
-0.999624, 271, 137, 286, 152
-0.999625, 83, 337, 98, 464
-0.999626, 255, 235, 270, 250
-0.999626, 183, 225, 198, 352
-0.999626, 67, 273, 82, 400
-0.999626, 283, 81, 298, 208
-0.999627, 83, 225, 98, 352
-0.999628, 227, 143, 242, 158
-0.99963, 281, 369, 296, 496
-0.999631, 269, 223, 284, 238
-0.999633, 29, 273, 44, 400
-0.999634, 307, 273, 322, 400
-0.999634, 257, 305, 272, 432
-0.999635, 77, 337, 92, 464
-0.999635, 259, 139, 274, 154
-0.999636, 345, 305, 360, 432
-0.999638, 159, 209, 174, 336
-0.999639, 61, 289, 76, 416
-0.999641, 61, 369, 76, 496
-0.999643, 51, 321, 66, 448
-0.999643, 265, 143, 280, 158
-0.999646, 169, 369, 184, 496
-0.999646, 271, 257, 286, 384
-0.999647, 145, 209, 160, 336
-0.999648, 203, 207, 218, 222
-0.999656, 253, 229, 268, 244
-0.999657, 263, 215, 278, 230
-0.999659, 209, 225, 224, 240
-0.999663, 1, 241, 64, 368
-0.999667, 217, 145, 232, 160
-0.999668, 225, 239, 240, 254
-0.999674, 215, 225, 230, 240
-0.999676, 199, 201, 214, 216
-0.999679, 259, 221, 274, 236
-0.999684, 321, 1, 445, 64
-0.999695, 265, 137, 280, 152
-0.999698, 177, 369, 208, 496
-0.999702, 341, 257, 372, 500
-0.999717, 353, 1, 416, 500
-0.999724, 215, 139, 230, 154
-0.999733, 221, 137, 236, 152
-0.99974, 129, 161, 160, 416
-0.999748, 133, 177, 164, 304
-0.999751, 217, 231, 232, 246
-0.999777, 5, 257, 36, 500
-0.999784, 389, 337, 420, 464
-0.999799, 225, 49, 256, 176
-0.999804, 285, 1, 316, 256
-0.999816, 49, 225, 80, 352
-0.999831, 413, 337, 444, 464
-0.999834, 41, 257, 72, 500
-0.999844, 277, 177, 308, 304
-0.999848, 21, 369, 52, 496
-0.999856, 249, 49, 280, 176
-0.999916, 157, 97, 188, 352
-0.999929, 377, 1, 440, 500
-0.999983, 117, 161, 148, 416
-0.999993, 1, 1, 64, 500
-0.999994, 289, 49, 352, 176
-1.0001, 109, 177, 140, 304
-1.00015, 373, 257, 404, 500
-1.00015, 353, 257, 384, 500
-1.00022, 193, 9, 445, 72
-1.00023, 365, 369, 396, 496
-1.00024, 405, 257, 436, 500
-1.00025, 313, 1, 376, 500
-1.00026, 289, 161, 320, 416
-1.00026, 161, 49, 416, 112
-1.00026, 113, 25, 240, 88
-1.00035, 393, 257, 424, 500
-1.00047, 97, 129, 128, 384
-1.00047, 65, 161, 96, 416
-1.00048, 37, 161, 68, 416
-1.0005, 337, 241, 400, 368
-1.00058, 145, 97, 176, 352
-1.00059, 5, 161, 36, 416
-1.0006, 1, 137, 445, 200
-1.00061, 81, 129, 112, 384
-1.00065, 17, 161, 48, 416
-1.00065, 325, 161, 356, 416
-1.00067, 1, 177, 445, 240
-1.00067, 305, 161, 336, 416
-1.00073, 325, 1, 356, 256
-1.00077, 53, 161, 84, 416
-1.00077, 97, 25, 352, 88
-1.00078, 341, 161, 372, 416
-1.00083, 153, 1, 184, 256
-1.00087, 1, 113, 445, 176
-1.00099, 297, 1, 328, 256
-1.00104, 33, 1, 288, 64
-1.00105, 73, 161, 136, 416
-1.00108, 405, 161, 436, 416
-1.00111, 321, 169, 445, 232
-1.00112, 361, 161, 392, 416
-1.00112, 289, 33, 416, 96
-1.00121, 337, 1, 368, 256
-1.00126, 385, 161, 416, 416
-1.00129, 129, 65, 160, 320
-1.0013, 321, 113, 445, 176
-1.00136, 109, 65, 140, 320
-1.00139, 141, 1, 172, 256
-1.00145, 373, 161, 404, 416
-1.00147, 49, 65, 176, 128
-1.00147, 321, 137, 445, 200
-1.00151, 313, 1, 344, 256
-1.00153, 33, 177, 160, 240
-1.00157, 353, 1, 384, 256
-1.00159, 401, 1, 432, 256
-1.00159, 1, 41, 256, 104
-1.00161, 1, 1, 32, 256
-1.00162, 113, 1, 240, 64
-1.00164, 389, 1, 420, 256
-1.00164, 369, 1, 400, 256
-1.00169, 345, 241, 376, 368
-1.00171, 413, 1, 444, 256
-1.00177, 21, 1, 52, 256
-1.0018, 57, 65, 88, 320
-1.00181, 73, 1, 104, 256
-1.00182, 45, 1, 76, 256
-1.00183, 89, 1, 120, 256
-1.00184, 33, 1, 64, 256
-1.00186, 321, 193, 445, 256
-1.00187, 325, 225, 356, 352
-1.00189, 65, 49, 192, 176
-1.00189, 65, 17, 192, 80
-1.0019, 189, 1, 220, 128
-1.00195, 25, 161, 88, 416
-1.00199, 1, 57, 445, 120
-1.00199, 225, 33, 352, 96
-1.00199, 321, 81, 445, 144
-1.002, 273, 1, 336, 128
-1.00203, 413, 241, 444, 368
-1.00211, 5, 321, 36, 448
-1.00211, 305, 1, 368, 128
-1.00217, 33, 41, 160, 104
-1.00218, 5, 225, 36, 352
-1.00222, 33, 89, 160, 152
-1.00229, 321, 57, 445, 120
-1.00232, 389, 225, 420, 352
-1.00234, 361, 257, 424, 500
-1.00237, 37, 225, 68, 352
-1.00243, 33, 129, 160, 192
-1.00252, 241, 1, 272, 128
-1.00254, 1, 153, 128, 216
-1.00254, 373, 1, 404, 128
-1.00255, 81, 177, 112, 304
-1.00268, 1, 1, 128, 64
-1.00268, 1, 65, 128, 128
-1.00269, 321, 217, 445, 280
-1.0028, 1, 89, 445, 152
-1.00322, 1, 17, 445, 80
-1.00322, 137, 1, 200, 256
-1.00328, 1, 161, 64, 416
-1.00347, 321, 161, 384, 416
-1.00354, 297, 161, 360, 416
-1.00355, 297, 1, 360, 256
-1.00371, 97, 1, 224, 128
-1.00385, 369, 225, 432, 352
-1.0041, 369, 1, 432, 128
-1.00448, 377, 161, 440, 416
-1.00503, 137, 33, 200, 160
-1.00529, 321, 1, 384, 256
-1.00597, 321, 129, 445, 256
-1.00598, 345, 161, 408, 416
-1.00604, 345, 1, 408, 128
-1.00609, 321, 177, 445, 304
-1.00671, 33, 129, 160, 256
-1.00754, 321, 65, 445, 192
-1.00759, 121, 113, 184, 240
-1.0076, 49, 1, 176, 128
-1.00785, 337, 193, 400, 320
-1.00787, 1, 193, 64, 320
-1.00815, 49, 65, 112, 320
-1.00857, 369, 1, 432, 256
-1.00886, 345, 1, 408, 256
-1.00911, 17, 49, 144, 176
-1.00968, 1, 1, 64, 256
-1.00984, 329, 113, 392, 240
-1.01003, 345, 49, 408, 176
-1.0103, 113, 1, 176, 256
-1.01043, 49, 161, 112, 288
-1.01048, 1, 1, 128, 128
-1.01065, 113, 17, 176, 144
-1.01068, 25, 1, 88, 256
-1.01078, 369, 161, 432, 288
-1.01081, 81, 33, 144, 288
-1.01085, 369, 113, 432, 240
-1.01091, 313, 49, 376, 176
-1.01109, 81, 145, 144, 272
-1.01114, 385, 65, 445, 192
-1.0119, 313, 177, 376, 304
-1.01192, 113, 65, 176, 192
-1.01211, 305, 129, 368, 256
-1.01273, 25, 129, 88, 256
-1.01334, 1, 129, 64, 256
-1.01335, 25, 1, 88, 128
-1.01351, 89, 1, 152, 128
-1.014, 49, 1, 112, 128
-1.01404, 25, 177, 88, 304
-1.01412, 1, 81, 64, 208
-1.01442, 1, 1, 64, 128
-1.01442, 57, 49, 120, 176
-1.01442, 81, 49, 144, 176
-1.01445, 25, 81, 88, 208
-1.01465, 65, 97, 128, 224
-1.0151, 89, 97, 152, 224
