1958
-0.300415, 1, 1, 500, 375
-0.393725, 1, 1, 500, 256
-0.460472, 1, 1, 256, 375
-0.464003, 97, 1, 352, 375
-0.486255, 193, 1, 448, 375
-0.501224, 1, 97, 500, 352
-0.576776, 161, 1, 416, 256
-0.603902, 257, 1, 500, 256
-0.604591, 33, 1, 288, 256
-0.671461, 1, 97, 256, 352
-0.745121, 161, 97, 416, 352
-0.792391, 257, 97, 500, 352
-0.847566, 1, 1, 128, 375
-0.848826, 257, 1, 384, 375
-0.854953, 113, 1, 240, 375
-0.855647, 273, 1, 400, 256
-0.863796, 49, 1, 176, 375
-0.863918, 129, 1, 256, 256
-0.874231, 65, 65, 192, 320
-0.878303, 305, 1, 432, 375
-0.880998, 193, 65, 320, 320
-0.882009, 1, 17, 500, 144
-0.887063, 321, 1, 448, 256
-0.887623, 145, 97, 272, 352
-0.891015, 161, 1, 288, 375
-0.894966, 209, 1, 336, 375
-0.899596, 1, 65, 500, 192
-0.903354, 97, 1, 352, 128
-0.906749, 369, 1, 496, 375
-0.911995, 369, 1, 496, 256
-0.913398, 1, 1, 128, 256
-0.914077, 17, 97, 144, 352
-0.915055, 1, 33, 256, 160
-0.916573, 337, 97, 464, 352
-0.919017, 129, 49, 384, 176
-0.920755, 257, 1, 500, 128
-0.925929, 1, 113, 500, 240
-0.927915, 273, 97, 400, 352
-0.928215, 113, 33, 240, 160
-0.930713, 1, 161, 500, 288
-0.932702, 257, 33, 384, 160
-0.933948, 33, 81, 288, 208
-0.93396, 225, 49, 480, 176
-0.937932, 169, 1, 232, 128
-0.938858, 129, 17, 192, 144
-0.940663, 225, 97, 480, 224
-0.943319, 17, 1, 144, 128
-0.943395, 265, 33, 328, 160
-0.943556, 33, 161, 288, 288
-0.944978, 161, 1, 288, 128
-0.945603, 129, 97, 384, 224
-0.945802, 305, 17, 368, 144
-0.946362, 177, 65, 304, 192
-0.948105, 105, 49, 168, 176
-0.948161, 65, 33, 192, 160
-0.94992, 65, 81, 192, 208
-0.951467, 129, 33, 192, 96
-0.952304, 17, 1, 80, 128
-0.952519, 1, 209, 500, 336
-0.953162, 337, 1, 400, 128
-0.953277, 305, 17, 432, 144
-0.953349, 161, 49, 224, 176
-0.954616, 433, 1, 496, 128
-0.955017, 225, 81, 288, 208
-0.955541, 241, 81, 368, 208
-0.956133, 121, 57, 184, 120
-0.956325, 161, 17, 224, 80
-0.956492, 129, 145, 384, 272
-0.956715, 153, 41, 216, 104
-0.957518, 369, 1, 496, 128
-0.957546, 89, 1, 152, 128
-0.957611, 65, 17, 128, 144
-0.957882, 113, 81, 240, 208
-0.958751, 161, 97, 224, 224
-0.958912, 193, 113, 320, 240
-0.96058, 305, 97, 432, 224
-0.961272, 305, 25, 368, 88
-0.96129, 201, 81, 264, 208
-0.961843, 257, 145, 500, 272
-0.962855, 129, 65, 192, 192
-0.963559, 265, 57, 328, 120
-0.963683, 249, 81, 312, 208
-0.964296, 17, 145, 80, 272
-0.9643, 145, 1, 208, 256
-0.96521, 145, 145, 272, 272
-0.965302, 137, 9, 200, 72
-0.965325, 225, 161, 352, 288
-0.965606, 1, 209, 256, 336
-0.966256, 49, 161, 176, 288
-0.966578, 49, 161, 112, 288
-0.967004, 281, 33, 344, 96
-0.967486, 1, 113, 128, 240
-0.96769, 1, 41, 64, 104
-0.967993, 89, 73, 152, 136
-0.968098, 189, 1, 220, 128
-0.968393, 57, 97, 120, 224
-0.968525, 329, 17, 392, 80
-0.96868, 9, 81, 72, 208
-0.968735, 217, 89, 280, 152
-0.968745, 153, 17, 184, 144
-0.969203, 177, 1, 240, 256
-0.969293, 433, 49, 496, 176
-0.969297, 289, 1, 352, 256
-0.969414, 433, 9, 496, 72
-0.969463, 297, 65, 360, 192
-0.969517, 17, 209, 144, 336
-0.969659, 273, 97, 336, 224
-0.969837, 193, 1, 256, 128
-0.969979, 1, 65, 128, 192
-0.970021, 185, 9, 248, 72
-0.970364, 81, 65, 144, 192
-0.970397, 353, 65, 480, 192
-0.970513, 153, 65, 216, 128
-0.97065, 97, 41, 224, 104
-0.970726, 33, 81, 96, 208
-0.970859, 33, 73, 96, 136
-0.970896, 361, 1, 424, 128
-0.971243, 41, 17, 104, 144
-0.971273, 353, 9, 416, 72
-0.97137, 465, 1, 496, 128
-0.971544, 409, 81, 472, 208
-0.971803, 173, 1, 204, 128
-0.972097, 321, 1, 384, 256
-0.972142, 177, 121, 240, 184
-0.972419, 185, 129, 248, 256
-0.972473, 57, 169, 120, 232
-0.972585, 41, 209, 104, 336
-0.972594, 105, 97, 168, 224
-0.97265, 17, 225, 80, 352
-0.973084, 97, 49, 160, 112
-0.973215, 105, 1, 168, 256
-0.97328, 33, 185, 96, 248
-0.973385, 133, 33, 164, 160
-0.973477, 241, 81, 304, 144
-0.973505, 9, 153, 72, 216
-0.973619, 1, 1, 64, 256
-0.974179, 177, 57, 240, 120
-0.974201, 97, 97, 160, 160
-0.974295, 117, 33, 148, 160
-0.974773, 117, 73, 148, 136
-0.974812, 25, 49, 88, 112
-0.974875, 97, 161, 224, 288
-0.975065, 129, 49, 160, 112
-0.975091, 65, 49, 128, 112
-0.975108, 457, 1, 488, 64
-0.975151, 33, 41, 160, 104
-0.975154, 273, 153, 336, 216
-0.97519, 281, 89, 344, 152
-0.975286, 129, 81, 192, 144
-0.975298, 1, 17, 64, 80
-0.975331, 165, 17, 196, 80
-0.975637, 317, 17, 348, 144
-0.975762, 321, 81, 384, 208
-0.975888, 377, 81, 440, 208
-0.975894, 57, 73, 120, 136
-0.976012, 105, 25, 168, 88
-0.976053, 209, 129, 272, 256
-0.976084, 269, 49, 300, 176
-0.976135, 113, 65, 240, 128
-0.976211, 49, 65, 176, 128
-0.976355, 17, 129, 80, 192
-0.976378, 185, 161, 248, 224
-0.976471, 401, 1, 464, 128
-0.976486, 257, 121, 320, 184
-0.976543, 289, 33, 320, 160
-0.976643, 305, 73, 368, 136
-0.976711, 185, 81, 248, 144
-0.976847, 129, 129, 192, 256
-0.976915, 357, 1, 388, 128
-0.97697, 161, 225, 416, 352
-0.976994, 321, 17, 448, 80
-0.977024, 217, 33, 280, 160
-0.977101, 365, 1, 396, 64
-0.97712, 265, 1, 328, 256
-0.97719, 273, 49, 400, 112
-0.97724, 25, 17, 88, 80
-0.977332, 353, 73, 416, 136
-0.977359, 257, 193, 500, 320
-0.977427, 97, 17, 224, 80
-0.977473, 25, 33, 88, 288
-0.977619, 353, 113, 480, 240
-0.977678, 1, 1, 32, 128
-0.977694, 1, 65, 64, 128
-0.977742, 53, 17, 84, 144
-0.977785, 337, 25, 368, 88
-0.977884, 185, 17, 216, 80
-0.977902, 177, 81, 304, 144
-0.977978, 73, 161, 136, 288
-0.978058, 433, 33, 496, 96
-0.978188, 345, 113, 408, 240
-0.978251, 241, 73, 368, 136
-0.978298, 165, 49, 196, 176
-0.978325, 217, 145, 280, 208
-0.978348, 149, 33, 180, 96
-0.978414, 65, 121, 128, 184
-0.978433, 1, 161, 128, 288
-0.978464, 177, 97, 240, 352
-0.978586, 337, 17, 368, 144
-0.978601, 265, 65, 296, 128
-0.978702, 173, 41, 204, 104
-0.978762, 197, 1, 228, 64
-0.978915, 133, 25, 164, 88
-0.978981, 121, 105, 184, 168
-0.979105, 161, 145, 224, 272
-0.979115, 1, 73, 128, 136
-0.979124, 145, 1, 272, 64
-0.979144, 465, 25, 496, 88
-0.979169, 309, 25, 340, 88
-0.979175, 153, 153, 216, 216
-0.979302, 313, 105, 376, 168
-0.979448, 273, 25, 400, 88
-0.979454, 177, 225, 304, 352
-0.979506, 185, 49, 216, 112
-0.979528, 33, 97, 96, 160
-0.979624, 161, 49, 288, 112
-0.979737, 185, 177, 248, 304
-0.979925, 17, 129, 80, 375
-0.980056, 385, 81, 448, 144
-0.980059, 249, 129, 312, 256
-0.980084, 345, 49, 408, 176
-0.980217, 177, 161, 304, 224
-0.980305, 33, 1, 160, 64
-0.980364, 305, 1, 368, 375
-0.980432, 177, 49, 208, 176
-0.980514, 417, 81, 480, 144
-0.980749, 393, 113, 456, 176
-0.980815, 305, 17, 336, 144
-0.98086, 401, 49, 464, 112
-0.980989, 113, 1, 176, 64
-0.981023, 293, 41, 324, 104
-0.98105, 321, 25, 352, 88
-0.981055, 433, 97, 496, 224
-0.981131, 369, 177, 496, 304
-0.981178, 225, 121, 288, 184
-0.98121, 329, 81, 392, 144
-0.981276, 257, 65, 288, 192
-0.981299, 145, 129, 208, 192
-0.981349, 217, 65, 280, 320
-0.981374, 89, 1, 152, 64
-0.981422, 81, 25, 144, 88
-0.981478, 313, 49, 376, 112
-0.981486, 201, 1, 232, 128
-0.981524, 9, 25, 40, 88
-0.981628, 265, 1, 328, 375
-0.981735, 369, 105, 432, 168
-0.981742, 433, 1, 496, 256
-0.981748, 161, 57, 192, 120
-0.981789, 201, 81, 232, 208
-0.981899, 153, 97, 216, 352
-0.981905, 225, 81, 256, 208
-0.981963, 49, 89, 176, 152
-0.982066, 57, 97, 120, 160
-0.982066, 241, 169, 304, 232
-0.982119, 349, 17, 380, 80
-0.982175, 257, 177, 320, 304
-0.982179, 113, 241, 240, 368
-0.98239, 129, 97, 192, 352
-0.982432, 281, 49, 312, 112
-0.982435, 353, 1, 416, 256
-0.98244, 241, 65, 304, 320
-0.982465, 153, 9, 184, 72
-0.98252, 133, 81, 164, 208
-0.982522, 169, 241, 232, 368
-0.982585, 41, 145, 104, 208
-0.98262, 209, 17, 336, 144
-0.982718, 137, 177, 200, 304
-0.982752, 377, 17, 440, 80
-0.982771, 225, 169, 352, 232
-0.982829, 49, 65, 112, 320
-0.982859, 1, 1, 32, 64
-0.982895, 153, 89, 216, 152
-0.98294, 369, 1, 496, 64
-0.98305, 1, 137, 128, 200
-0.983141, 337, 41, 400, 104
-0.983174, 49, 169, 176, 232
-0.983203, 177, 25, 304, 88
-0.983259, 273, 97, 400, 160
-0.983343, 241, 33, 304, 160
-0.983345, 273, 161, 400, 288
-0.983352, 9, 185, 72, 248
-0.983426, 97, 89, 224, 152
-0.983427, 321, 73, 448, 136
-0.983433, 149, 57, 180, 120
-0.983488, 241, 57, 304, 120
-0.983505, 209, 137, 336, 200
-0.98352, 129, 121, 256, 184
-0.983602, 41, 121, 104, 184
-0.983668, 57, 65, 88, 192
-0.983669, 133, 81, 164, 144
-0.983671, 117, 49, 148, 112
-0.983717, 61, 73, 92, 136
-0.983794, 417, 105, 480, 168
-0.983833, 1, 1, 64, 375
-0.983865, 13, 17, 44, 144
-0.983917, 385, 1, 448, 256
-0.984001, 1, 249, 64, 312
-0.984237, 297, 153, 360, 216
-0.984345, 105, 81, 136, 144
-0.984379, 121, 1, 184, 375
-0.984391, 113, 153, 176, 216
-0.984412, 417, 145, 480, 272
-0.984495, 433, 57, 496, 120
-0.984644, 265, 177, 328, 240
-0.984656, 281, 113, 344, 176
-0.984672, 345, 113, 408, 176
-0.984752, 217, 57, 280, 120
-0.984778, 25, 1, 88, 375
-0.984835, 1, 105, 64, 168
-0.984842, 49, 73, 80, 136
-0.984929, 33, 225, 96, 288
-0.984944, 65, 1, 128, 64
-0.984967, 277, 169, 308, 232
-0.985133, 289, 153, 416, 216
-0.985136, 173, 65, 204, 128
-0.985138, 169, 97, 200, 224
-0.985159, 41, 1, 72, 128
-0.985179, 305, 1, 368, 64
-0.985182, 81, 113, 144, 240
-0.985184, 445, 1, 476, 64
-0.985219, 1, 225, 64, 288
-0.985224, 329, 1, 392, 375
-0.985247, 393, 145, 456, 208
-0.98528, 249, 89, 280, 152
-0.9854, 409, 65, 472, 320
-0.985471, 369, 1, 400, 128
-0.985477, 49, 113, 176, 176
-0.985511, 213, 65, 244, 192
-0.98558, 57, 25, 120, 88
-0.985593, 1, 193, 128, 256
-0.985646, 297, 153, 328, 216
-0.985659, 129, 161, 256, 224
-0.985667, 161, 1, 224, 375
-0.985743, 57, 193, 88, 320
-0.985963, 21, 25, 52, 88
-0.986044, 1, 81, 32, 208
-0.986105, 233, 177, 296, 304
-0.986116, 81, 161, 144, 224
-0.986125, 153, 177, 216, 240
-0.986172, 369, 33, 496, 96
-0.986185, 145, 81, 176, 208
-0.986215, 33, 257, 96, 320
-0.986236, 217, 169, 280, 232
-0.986255, 453, 1, 484, 128
-0.986265, 377, 169, 440, 232
-0.986273, 437, 33, 468, 160
-0.986326, 97, 121, 160, 184
-0.986336, 49, 193, 176, 256
-0.986362, 121, 81, 152, 208
-0.986444, 81, 1, 144, 256
-0.986448, 237, 81, 268, 208
-0.986502, 225, 97, 352, 160
-0.986638, 33, 217, 160, 280
-0.986659, 49, 137, 176, 200
-0.986678, 1, 145, 32, 272
-0.986739, 457, 49, 488, 176
-0.98674, 5, 129, 36, 192
-0.986765, 73, 313, 136, 375
-0.986767, 209, 129, 240, 256
-0.986819, 17, 65, 48, 192
-0.98684, 81, 225, 144, 352
-0.986867, 465, 49, 496, 112
-0.98699, 241, 145, 304, 208
-0.987022, 49, 1, 112, 375
-0.987049, 213, 81, 244, 144
-0.98705, 57, 201, 120, 264
-0.987051, 265, 89, 296, 152
-0.987093, 105, 49, 136, 176
-0.987125, 189, 81, 220, 208
-0.987171, 445, 33, 476, 96
-0.987174, 277, 97, 308, 224
-0.987232, 409, 17, 472, 80
-0.987251, 225, 49, 352, 112
-0.987343, 41, 289, 104, 352
-0.987428, 297, 113, 360, 240
-0.987458, 321, 113, 448, 176
-0.987463, 73, 97, 136, 352
-0.987527, 105, 1, 136, 128
-0.987532, 89, 273, 152, 336
-0.987535, 129, 177, 192, 240
-0.987623, 93, 1, 124, 128
-0.987687, 157, 97, 188, 224
-0.987699, 65, 241, 192, 368
-0.987717, 105, 97, 168, 352
-0.987724, 281, 161, 344, 288
-0.987792, 1, 113, 128, 176
-0.987802, 145, 185, 272, 248
-0.987829, 201, 121, 264, 184
-0.987836, 221, 145, 252, 208
-0.987847, 369, 41, 432, 104
-0.987864, 1, 161, 128, 224
-0.987869, 321, 49, 448, 112
-0.987874, 237, 89, 268, 152
-0.9879, 209, 121, 240, 184
-0.98792, 241, 1, 304, 375
-0.987941, 177, 105, 304, 168
-0.98795, 201, 153, 232, 216
-0.987954, 257, 129, 384, 192
-0.987976, 97, 1, 160, 375
-0.988036, 425, 153, 488, 216
-0.988169, 97, 57, 352, 120
-0.988199, 57, 193, 88, 256
-0.988303, 113, 177, 176, 304
-0.988338, 369, 129, 432, 256
-0.988356, 317, 65, 348, 192
-0.988358, 121, 61, 184, 92
-0.988393, 17, 49, 48, 112
-0.988448, 369, 73, 496, 136
-0.988456, 13, 1, 44, 64
-0.988465, 197, 57, 228, 120
-0.988477, 433, 1, 496, 375
-0.988496, 225, 209, 352, 336
-0.988525, 81, 185, 144, 248
-0.988566, 445, 57, 476, 120
-0.988595, 469, 49, 500, 176
-0.988598, 137, 29, 200, 60
-0.988638, 277, 129, 308, 192
-0.988663, 309, 153, 340, 216
-0.988666, 145, 45, 208, 76
-0.988709, 153, 145, 184, 272
-0.988783, 29, 1, 60, 128
-0.988845, 1, 241, 128, 304
-0.988877, 45, 145, 76, 272
-0.988893, 257, 145, 288, 208
-0.988953, 293, 89, 324, 152
-0.989007, 353, 145, 416, 208
-0.98907, 369, 105, 496, 168
-0.989152, 193, 241, 256, 368
-0.98916, 53, 33, 84, 96
-0.989182, 393, 145, 456, 272
-0.989216, 53, 1, 84, 64
-0.989239, 369, 65, 400, 192
-0.989364, 305, 29, 368, 60
-0.989392, 445, 81, 476, 208
-0.989399, 305, 129, 368, 192
-0.989423, 1, 41, 256, 104
-0.989477, 5, 153, 36, 216
-0.989496, 121, 49, 184, 80
-0.989514, 69, 17, 100, 144
-0.98952, 273, 177, 400, 240
-0.989535, 289, 129, 320, 192
-0.989537, 193, 81, 224, 144
-0.989556, 145, 81, 176, 144
-0.98959, 161, 1, 224, 32
-0.989616, 5, 73, 36, 136
-0.989631, 193, 185, 256, 248
-0.989678, 417, 73, 448, 136
-0.989678, 281, 89, 312, 152
-0.989882, 225, 89, 256, 152
-0.989897, 25, 25, 88, 56
-0.989923, 97, 81, 352, 144
-0.989937, 97, 25, 352, 88
-0.98995, 265, 113, 296, 240
-0.989954, 153, 61, 216, 92
-0.990014, 221, 129, 252, 256
-0.990016, 65, 33, 96, 96
-0.990059, 45, 65, 76, 192
-0.990084, 105, 81, 168, 112
-0.990086, 1, 297, 128, 360
-0.990089, 57, 145, 88, 272
-0.990099, 305, 177, 368, 240
-0.990138, 177, 21, 240, 52
-0.99014, 353, 1, 416, 375
-0.99017, 297, 81, 328, 208
-0.990175, 277, 145, 308, 272
-0.99019, 321, 161, 448, 288
-0.990197, 145, 17, 208, 48
-0.990206, 25, 313, 88, 375
-0.990218, 361, 97, 424, 352
-0.990219, 397, 81, 428, 144
-0.990229, 265, 69, 328, 100
-0.99023, 73, 1, 136, 375
-0.990231, 265, 121, 296, 184
-0.990234, 421, 97, 452, 224
-0.990246, 185, 1, 248, 375
-0.990253, 417, 185, 480, 248
-0.990281, 329, 161, 392, 224
-0.990296, 17, 145, 48, 272
-0.99035, 365, 89, 396, 152
-0.990365, 389, 97, 420, 224
-0.990416, 433, 21, 496, 52
-0.990447, 69, 161, 100, 224
-0.990556, 257, 81, 320, 112
-0.990578, 57, 29, 120, 60
-0.990601, 281, 49, 344, 80
-0.990607, 1, 49, 64, 80
-0.990609, 201, 157, 264, 188
-0.990651, 257, 177, 320, 208
-0.990711, 225, 93, 288, 124
-0.990727, 113, 17, 144, 80
-0.990755, 369, 145, 496, 208
-0.990761, 1, 29, 64, 60
-0.990772, 57, 161, 88, 224
-0.990772, 425, 1, 488, 32
-0.990783, 69, 201, 100, 264
-0.990807, 97, 93, 160, 124
-0.99081, 341, 73, 372, 136
-0.990828, 129, 297, 192, 360
-0.990833, 457, 73, 488, 136
-0.990842, 385, 97, 448, 352
-0.990859, 185, 169, 248, 200
-0.990876, 357, 49, 388, 176
-0.99088, 369, 185, 496, 248
-0.990884, 41, 49, 72, 112
-0.990889, 25, 13, 88, 44
-0.990915, 409, 1, 472, 375
-0.990935, 433, 129, 496, 192
-0.990952, 433, 97, 496, 352
-0.990952, 69, 129, 100, 256
-0.990998, 225, 233, 288, 296
-0.990999, 445, 81, 476, 144
-0.991, 297, 101, 360, 132
-0.991006, 5, 49, 36, 112
-0.991015, 353, 13, 416, 44
-0.991021, 369, 1, 432, 32
-0.991031, 273, 165, 336, 196
-0.991031, 257, 33, 500, 96
-0.991062, 9, 65, 72, 96
-0.991084, 241, 193, 304, 256
-0.991164, 29, 49, 60, 112
-0.991188, 137, 225, 200, 352
-0.991192, 97, 105, 160, 136
-0.991194, 1, 17, 256, 80
-0.9912, 1, 149, 64, 180
-0.991201, 105, 41, 136, 104
-0.991207, 177, 153, 208, 216
-0.991211, 193, 233, 320, 296
-0.991215, 225, 65, 480, 128
-0.991218, 249, 93, 312, 124
-0.99122, 97, 57, 160, 88
-0.991229, 233, 157, 296, 188
-0.991231, 185, 5, 248, 36
-0.99124, 105, 241, 168, 368
-0.991242, 329, 17, 392, 48
-0.991266, 169, 49, 232, 80
-0.991271, 225, 173, 288, 204
-0.991303, 41, 225, 72, 352
-0.991303, 17, 129, 48, 192
-0.991305, 141, 129, 172, 256
-0.991333, 137, 93, 200, 124
-0.991345, 209, 145, 272, 176
-0.991371, 217, 1, 280, 375
-0.99138, 33, 37, 96, 68
-0.991411, 57, 121, 88, 184
-0.991485, 337, 97, 400, 352
-0.991514, 65, 273, 192, 336
-0.991528, 37, 73, 68, 136
-0.991529, 185, 33, 248, 96
-0.991535, 49, 17, 112, 48
-0.991545, 325, 57, 356, 120
-0.991545, 161, 33, 224, 64
-0.991549, 117, 97, 148, 160
-0.991551, 73, 89, 136, 120
-0.991554, 265, 177, 296, 240
-0.991574, 33, 17, 64, 80
-0.991577, 89, 45, 152, 76
-0.991588, 97, 313, 160, 375
-0.991591, 161, 169, 224, 200
-0.991598, 25, 81, 88, 112
-0.991606, 129, 81, 192, 112
-0.99161, 225, 209, 352, 272
-0.99162, 1, 65, 256, 128
-0.991621, 225, 77, 288, 108
-0.991625, 185, 85, 248, 116
-0.991635, 57, 173, 120, 204
-0.991645, 289, 161, 320, 288
-0.991648, 25, 193, 88, 224
-0.991653, 29, 225, 60, 352
-0.991655, 57, 97, 88, 160
-0.991655, 177, 129, 240, 160
-0.991673, 177, 141, 240, 172
-0.991681, 65, 289, 128, 352
-0.991705, 329, 65, 360, 192
-0.991711, 257, 105, 320, 136
-0.991715, 161, 193, 224, 320
-0.991722, 73, 9, 104, 72
-0.991729, 89, 69, 152, 100
-0.99173, 217, 133, 280, 164
-0.991738, 97, 29, 160, 60
-0.991744, 377, 113, 408, 240
-0.991747, 417, 1, 448, 128
-0.991752, 405, 49, 436, 176
-0.99176, 353, 73, 416, 104
-0.99177, 281, 97, 344, 352
-0.991778, 33, 101, 96, 132
-0.991795, 313, 77, 376, 108
-0.991802, 185, 249, 248, 312
-0.991817, 157, 177, 188, 240
-0.991825, 401, 81, 464, 112
-0.99184, 257, 57, 320, 88
-0.991846, 1, 17, 64, 48
-0.991848, 57, 225, 120, 288
-0.991857, 329, 29, 392, 60
-0.991857, 385, 1, 448, 375
-0.991863, 1, 81, 64, 112
-0.991866, 257, 149, 320, 180
-0.991869, 297, 89, 360, 120
-0.991878, 129, 1, 384, 64
-0.991884, 177, 153, 240, 184
-0.991899, 281, 37, 344, 68
-0.991907, 9, 137, 72, 168
-0.991927, 417, 105, 480, 136
-0.991936, 25, 149, 88, 180
-0.991936, 193, 1, 320, 64
-0.991942, 85, 177, 116, 240
-0.991944, 57, 105, 120, 136
-0.991949, 217, 117, 280, 148
-0.991976, 1, 265, 128, 328
-0.991979, 25, 53, 88, 84
-0.992006, 241, 25, 304, 88
-0.992006, 57, 77, 120, 108
-0.992018, 249, 117, 312, 148
-0.992019, 97, 193, 224, 256
-0.99204, 153, 153, 216, 184
-0.992074, 337, 1, 368, 64
-0.992078, 337, 85, 400, 116
-0.992087, 389, 49, 420, 176
-0.992095, 129, 49, 160, 80
-0.992096, 73, 121, 136, 152
-0.992102, 105, 193, 168, 256
-0.992119, 129, 105, 160, 168
-0.992135, 57, 157, 120, 188
-0.99215, 425, 93, 488, 124
-0.992158, 73, 17, 136, 48
-0.992163, 393, 105, 424, 168
-0.992164, 49, 297, 112, 328
-0.992165, 341, 49, 372, 112
-0.992209, 9, 93, 72, 124
-0.99221, 121, 105, 184, 136
-0.992223, 33, 121, 96, 152
-0.992223, 233, 185, 296, 216
-0.992228, 385, 53, 448, 84
-0.99223, 401, 97, 432, 224
-0.992232, 377, 117, 440, 148
-0.992235, 165, 21, 196, 52
-0.992244, 17, 73, 48, 136
-0.992244, 325, 89, 356, 152
-0.992248, 433, 61, 496, 92
-0.992258, 433, 33, 496, 64
-0.992262, 17, 161, 80, 192
-0.992272, 337, 109, 400, 140
-0.992289, 185, 181, 248, 212
-0.992297, 137, 5, 200, 36
-0.992304, 153, 185, 216, 216
-0.992306, 381, 1, 412, 64
-0.992316, 401, 69, 464, 100
-0.992343, 177, 49, 208, 80
-0.992351, 129, 61, 160, 92
-0.992356, 437, 105, 468, 168
-0.992356, 1, 1, 64, 32
-0.992357, 157, 53, 188, 84
-0.992364, 225, 225, 288, 352
-0.992366, 353, 61, 416, 92
-0.99237, 413, 113, 444, 176
-0.992371, 217, 105, 280, 136
-0.992371, 297, 61, 360, 92
-0.992374, 97, 117, 160, 148
-0.992377, 153, 73, 216, 104
-0.992391, 465, 97, 496, 160
-0.992397, 177, 113, 240, 144
-0.992398, 113, 273, 176, 336
-0.992404, 433, 49, 496, 80
-0.992405, 65, 189, 128, 220
-0.992414, 9, 105, 72, 136
-0.992416, 189, 121, 220, 184
-0.992421, 401, 93, 464, 124
-0.992434, 89, 281, 152, 312
-0.992444, 193, 1, 224, 32
-0.992444, 177, 65, 240, 96
-0.992445, 81, 165, 144, 196
-0.992447, 417, 149, 480, 180
-0.992456, 317, 29, 348, 60
-0.992461, 141, 37, 172, 68
-0.992466, 465, 21, 496, 52
-0.992472, 341, 81, 372, 208
-0.992475, 1, 125, 64, 156
-0.992479, 329, 65, 392, 96
-0.992481, 297, 161, 360, 192
-0.992491, 65, 5, 128, 36
-0.9925, 141, 49, 172, 80
-0.992507, 157, 145, 188, 208
-0.992509, 89, 129, 120, 192
-0.99251, 129, 117, 192, 148
-0.992525, 65, 201, 128, 232
-0.992539, 53, 81, 84, 112
-0.992544, 265, 189, 328, 220
-0.992545, 277, 173, 308, 204
-0.992553, 345, 45, 408, 76
-0.992561, 121, 17, 184, 48
-0.992562, 169, 37, 200, 68
-0.992579, 65, 65, 128, 96
-0.992581, 345, 121, 408, 152
-0.992584, 337, 97, 400, 128
-0.992587, 257, 137, 320, 168
-0.992591, 121, 177, 184, 208
-0.992604, 281, 177, 344, 208
-0.992614, 425, 113, 456, 176
-0.992629, 249, 169, 280, 232
-0.992648, 77, 137, 108, 200
-0.992648, 25, 241, 56, 304
-0.992649, 177, 61, 208, 92
-0.99265, 53, 21, 84, 52
-0.99265, 1, 149, 32, 180
-0.992676, 13, 25, 44, 56
-0.992684, 177, 5, 208, 36
-0.992686, 453, 1, 484, 32
-0.992707, 337, 29, 368, 60
-0.992708, 145, 153, 176, 216
-0.992739, 289, 49, 320, 80
-0.992743, 157, 89, 188, 152
-0.992758, 145, 65, 176, 96
-0.992774, 365, 5, 396, 36
-0.992778, 185, 17, 216, 48
-0.992781, 117, 77, 148, 108
-0.992793, 205, 5, 236, 36
-0.992816, 157, 9, 188, 40
-0.992819, 321, 177, 448, 240
-0.992849, 297, 37, 328, 68
-0.992856, 357, 17, 388, 48
-0.992876, 269, 69, 300, 100
-0.99288, 465, 33, 496, 64
-0.992884, 205, 153, 236, 184
-0.992889, 45, 189, 76, 220
-0.992897, 377, 1, 408, 32
-0.992902, 149, 25, 180, 56
-0.992907, 377, 81, 408, 144
-0.992912, 117, 53, 148, 84
-0.992914, 469, 1, 500, 64
-0.992923, 157, 41, 188, 72
-0.992924, 29, 29, 60, 60
-0.992933, 137, 25, 168, 56
-0.992936, 245, 93, 276, 124
-0.99294, 237, 137, 268, 200
-0.99294, 117, 65, 148, 96
-0.992945, 129, 81, 160, 112
-0.992951, 465, 45, 496, 76
-0.992952, 45, 177, 76, 240
-0.992957, 145, 241, 272, 304
-0.99296, 261, 177, 292, 208
-0.992967, 141, 1, 172, 64
-0.992969, 13, 81, 44, 112
-0.992994, 49, 305, 176, 368
-0.992995, 417, 49, 448, 176
-0.992996, 277, 57, 308, 88
-0.992999, 1, 17, 32, 48
-0.993001, 1, 137, 256, 200
-0.993002, 193, 49, 224, 80
-0.993003, 189, 165, 220, 196
-0.993011, 201, 165, 232, 196
-0.993013, 161, 313, 224, 375
-0.993017, 125, 97, 156, 128
-0.993018, 297, 161, 328, 192
-0.993044, 109, 89, 140, 120
-0.993045, 217, 153, 248, 184
-0.993054, 233, 89, 264, 120
-0.993069, 33, 73, 64, 104
-0.993088, 13, 9, 44, 40
-0.993089, 73, 21, 104, 52
-0.99309, 13, 65, 44, 96
-0.993091, 73, 249, 136, 312
-0.993092, 1, 77, 32, 108
-0.993099, 1, 137, 32, 168
-0.993102, 29, 41, 60, 72
-0.993107, 117, 33, 148, 64
-0.993107, 185, 33, 216, 64
-0.993111, 13, 37, 44, 68
-0.993114, 37, 61, 68, 92
-0.993115, 369, 209, 496, 272
-0.993125, 57, 93, 88, 124
-0.993128, 329, 101, 360, 132
-0.993129, 49, 33, 80, 64
-0.993133, 165, 65, 196, 96
-0.993134, 349, 29, 380, 60
-0.99314, 9, 161, 40, 192
-0.99314, 1, 81, 500, 144
-0.99314, 345, 81, 376, 112
-0.993147, 193, 65, 224, 96
-0.993155, 233, 161, 264, 192
-0.993159, 265, 85, 296, 116
-0.99316, 437, 61, 468, 92
-0.99316, 293, 101, 324, 132
-0.993161, 213, 177, 244, 208
-0.993161, 33, 49, 64, 176
-0.993162, 57, 201, 88, 232
-0.993164, 177, 169, 208, 200
-0.993166, 225, 173, 256, 204
-0.993167, 213, 165, 244, 196
-0.993175, 305, 25, 336, 56
-0.993177, 129, 37, 160, 68
-0.993179, 365, 69, 396, 100
-0.993192, 29, 13, 60, 44
-0.993194, 17, 49, 48, 80
-0.993194, 145, 81, 176, 112
-0.9932, 313, 97, 376, 352
-0.993206, 337, 41, 368, 72
-0.993207, 201, 17, 232, 48
-0.993212, 465, 57, 496, 88
-0.993213, 193, 153, 224, 184
-0.993217, 353, 81, 384, 144
-0.99322, 201, 141, 232, 172
-0.99322, 61, 33, 92, 64
-0.993226, 321, 41, 352, 72
-0.99323, 49, 69, 80, 100
-0.993231, 265, 133, 296, 164
-0.993233, 1, 65, 32, 96
-0.993236, 45, 257, 76, 320
-0.993239, 41, 85, 72, 116
-0.99324, 185, 181, 216, 212
-0.993249, 145, 93, 176, 124
-0.993252, 217, 201, 280, 264
-0.993254, 41, 17, 72, 48
-0.993256, 453, 13, 484, 44
-0.993256, 253, 81, 284, 112
-0.99326, 257, 157, 288, 188
-0.99327, 1, 1, 32, 32
-0.993274, 357, 113, 388, 240
-0.993274, 221, 89, 252, 120
-0.993276, 325, 81, 356, 112
-0.993277, 433, 73, 464, 136
-0.993279, 377, 73, 408, 104
-0.993282, 245, 33, 276, 160
-0.993284, 273, 121, 304, 152
-0.993291, 437, 33, 468, 64
-0.993296, 437, 85, 468, 116
-0.993303, 341, 61, 372, 92
-0.993304, 289, 177, 320, 208
-0.99331, 61, 173, 92, 204
-0.993322, 209, 129, 240, 160
-0.993324, 309, 41, 340, 72
-0.993325, 309, 165, 340, 196
-0.993328, 453, 33, 484, 64
-0.993329, 165, 145, 196, 272
-0.99333, 17, 153, 48, 216
-0.99333, 305, 85, 336, 116
-0.993331, 221, 137, 252, 168
-0.993334, 137, 105, 168, 136
-0.993335, 337, 17, 368, 48
-0.993335, 317, 97, 348, 128
-0.993338, 413, 97, 444, 128
-0.993338, 345, 109, 376, 140
-0.99334, 65, 77, 96, 108
-0.993343, 241, 1, 368, 64
-0.993345, 277, 185, 308, 216
-0.993345, 245, 161, 276, 192
-0.993348, 169, 273, 232, 336
-0.993356, 133, 145, 164, 208
-0.993373, 245, 65, 276, 128
-0.993375, 377, 113, 408, 176
-0.993397, 425, 209, 488, 272
-0.9934, 321, 129, 384, 256
-0.993414, 369, 177, 432, 304
-0.993425, 185, 129, 216, 256
-0.993435, 325, 1, 356, 64
-0.993437, 37, 137, 68, 200
-0.993468, 189, 161, 220, 224
-0.993469, 81, 1, 112, 128
-0.993545, 121, 129, 184, 192
-0.993551, 69, 193, 100, 320
-0.993572, 361, 41, 392, 104
-0.993617, 1, 25, 500, 88
-0.993624, 1, 1, 500, 64
-0.993655, 345, 105, 376, 168
-0.993658, 257, 9, 500, 72
-0.993662, 197, 129, 228, 256
-0.993665, 101, 105, 132, 168
-0.993667, 73, 57, 104, 120
-0.993681, 225, 89, 480, 152
-0.993696, 209, 177, 272, 304
-0.993724, 265, 9, 328, 72
-0.993731, 5, 241, 36, 368
-0.993763, 293, 177, 324, 240
-0.993774, 161, 209, 288, 272
-0.993798, 213, 1, 244, 128
-0.993808, 357, 113, 388, 176
-0.993829, 257, 161, 288, 288
-0.993847, 167, 25, 182, 88
-0.993855, 97, 53, 224, 84
-0.99387, 113, 65, 240, 96
-0.993884, 17, 225, 48, 352
-0.993889, 101, 97, 132, 224
-0.993901, 265, 201, 328, 264
-0.993906, 113, 297, 240, 360
-0.993916, 241, 129, 272, 256
-0.994051, 221, 177, 252, 304
-0.994062, 393, 193, 456, 256
-0.994069, 369, 1, 496, 32
-0.994074, 125, 65, 140, 128
-0.994119, 97, 41, 224, 72
-0.994167, 171, 1, 186, 64
-0.994193, 49, 249, 176, 312
-0.994197, 113, 273, 240, 336
-0.994209, 113, 217, 240, 280
-0.994262, 33, 145, 64, 272
-0.99434, 33, 169, 288, 232
-0.994349, 409, 193, 472, 320
-0.99439, 69, 65, 100, 192
-0.994464, 1, 77, 128, 108
-0.994468, 131, 49, 146, 112
-0.994498, 429, 145, 460, 272
-0.99451, 49, 69, 176, 100
-0.994526, 273, 49, 400, 80
-0.99453, 129, 161, 384, 224
-0.994563, 375, 1, 390, 64
-0.994652, 177, 9, 192, 72
-0.994687, 257, 161, 500, 224
-0.994745, 191, 17, 206, 80
-0.994759, 33, 105, 288, 168
-0.994762, 257, 113, 500, 176
-0.994787, 181, 1, 212, 256
-0.994792, 1, 57, 500, 120
-0.994794, 85, 145, 116, 272
-0.994806, 161, 25, 176, 88
-0.994831, 89, 97, 120, 224
-0.994857, 201, 1, 216, 64
-0.994879, 49, 81, 176, 112
-0.99488, 201, 177, 232, 304
-0.994904, 177, 173, 304, 204
-0.994914, 33, 201, 288, 264
-0.994922, 97, 25, 224, 56
-0.994955, 241, 81, 368, 112
-0.994978, 305, 25, 432, 56
-0.994987, 253, 113, 284, 240
-0.99502, 185, 17, 200, 80
-0.995068, 473, 9, 488, 72
-0.995075, 347, 25, 362, 88
-0.995124, 177, 161, 304, 192
-0.995145, 481, 25, 496, 88
-0.995157, 175, 41, 190, 104
-0.995182, 69, 241, 100, 368
-0.995216, 257, 61, 384, 92
-0.995234, 187, 49, 202, 112
-0.995274, 15, 1, 30, 64
-0.995281, 289, 201, 416, 264
-0.995316, 269, 1, 300, 128
-0.995326, 97, 81, 224, 112
-0.995343, 139, 33, 154, 96
-0.995344, 5, 1, 20, 64
-0.99536, 359, 17, 374, 80
-0.995383, 97, 241, 224, 304
-0.995384, 381, 1, 412, 128
-0.995385, 289, 37, 416, 68
-0.995389, 153, 41, 168, 104
-0.99539, 225, 25, 352, 88
-0.995393, 241, 101, 368, 132
-0.995402, 317, 25, 332, 88
-0.995436, 169, 1, 200, 256
-0.99544, 335, 17, 350, 80
-0.995453, 185, 177, 216, 304
-0.995498, 169, 49, 184, 112
-0.995513, 193, 89, 320, 120
-0.995528, 225, 185, 480, 248
-0.995545, 161, 265, 288, 328
-0.995574, 113, 1, 240, 32
-0.995579, 137, 1, 168, 256
-0.995581, 1, 17, 128, 48
-0.995585, 119, 81, 134, 144
-0.995585, 345, 161, 408, 288
-0.995599, 147, 25, 162, 88
-0.995604, 1, 137, 16, 200
-0.995639, 177, 53, 304, 84
-0.995685, 1, 65, 128, 96
-0.99569, 457, 97, 488, 224
-0.995696, 23, 25, 38, 88
-0.995698, 257, 173, 384, 204
-0.995705, 269, 65, 284, 128
-0.995712, 369, 1, 384, 64
-0.995737, 133, 193, 164, 320
-0.995739, 1, 177, 500, 240
-0.995752, 393, 1, 424, 128
-0.995757, 195, 41, 210, 104
-0.995774, 341, 25, 356, 88
-0.995785, 287, 49, 302, 112
-0.995793, 163, 1, 178, 64
-0.995813, 155, 17, 170, 80
-0.995819, 145, 21, 272, 52
-0.995831, 81, 49, 112, 176
-0.995857, 369, 13, 496, 44
-0.995861, 211, 1, 226, 64
-0.995863, 1, 153, 128, 184
-0.995878, 29, 33, 44, 96
-0.995879, 67, 73, 82, 136
-0.995881, 177, 73, 304, 104
-0.995885, 131, 81, 146, 144
-0.995919, 301, 41, 316, 104
-0.995921, 17, 29, 144, 60
-0.995929, 313, 161, 328, 224
-0.995939, 163, 49, 178, 112
-0.995945, 181, 41, 196, 104
-0.995974, 1, 225, 256, 288
-0.99602, 7, 137, 22, 200
-0.996083, 53, 241, 84, 368
-0.996087, 129, 137, 384, 200
-0.996101, 329, 25, 344, 88
-0.996114, 461, 65, 476, 128
-0.996122, 469, 161, 500, 288
-0.996124, 321, 97, 448, 128
-0.996131, 323, 25, 338, 88
-0.996143, 301, 1, 332, 256
-0.996144, 153, 1, 184, 256
-0.996147, 147, 57, 162, 120
-0.996164, 433, 193, 496, 320
-0.996168, 279, 65, 294, 128
-0.996176, 467, 1, 482, 64
-0.996181, 405, 1, 436, 128
-0.996185, 129, 169, 256, 200
-0.996186, 263, 89, 278, 152
-0.996216, 9, 25, 24, 88
-0.996216, 139, 81, 154, 144
-0.996223, 349, 1, 380, 256
-0.996225, 125, 1, 156, 256
-0.996226, 311, 25, 326, 88
-0.996239, 353, 25, 368, 88
-0.996251, 49, 93, 176, 124
-0.996253, 1, 141, 128, 172
-0.996266, 145, 81, 160, 144
-0.996281, 329, 1, 360, 256
-0.996291, 137, 57, 152, 120
-0.996295, 193, 1, 224, 256
-0.996319, 161, 113, 416, 176
-0.996319, 33, 53, 160, 84
-0.996369, 129, 185, 384, 248
-0.996383, 193, 149, 320, 180
-0.996435, 461, 1, 476, 64
-0.99644, 33, 97, 64, 224
-0.996453, 129, 129, 160, 256
-0.99646, 309, 113, 340, 240
-0.996463, 433, 81, 464, 208
-0.996465, 455, 65, 470, 128
-0.996474, 295, 41, 310, 104
-0.996483, 133, 25, 148, 88
-0.996493, 57, 65, 72, 128
-0.996508, 461, 41, 476, 104
-0.996522, 21, 1, 36, 64
-0.996536, 5, 193, 36, 320
-0.996537, 67, 193, 82, 256
-0.99654, 113, 153, 240, 184
-0.99656, 317, 1, 348, 256
-0.996564, 13, 145, 28, 208
-0.996567, 33, 177, 160, 208
-0.996572, 273, 161, 400, 192
-0.996597, 277, 161, 292, 224
-0.996597, 269, 33, 300, 288
-0.996613, 97, 13, 224, 44
-0.996624, 209, 117, 336, 148
-0.996662, 29, 9, 44, 72
-0.996664, 153, 65, 168, 128
-0.99667, 65, 1, 80, 64
-0.996683, 201, 49, 216, 112
-0.9967, 177, 65, 192, 128
-0.996709, 97, 145, 128, 272
-0.99671, 177, 9, 304, 40
-0.996726, 15, 33, 30, 96
-0.996729, 273, 113, 400, 144
-0.996733, 457, 1, 488, 256
-0.996743, 257, 137, 500, 200
-0.996747, 219, 121, 234, 184
-0.996755, 455, 41, 470, 104
-0.996772, 161, 313, 288, 375
-0.996773, 441, 129, 472, 256
-0.996791, 223, 153, 238, 216
-0.996791, 287, 161, 302, 224
-0.996801, 113, 241, 144, 368
-0.996804, 177, 101, 304, 132
-0.996818, 233, 33, 264, 160
-0.996822, 1, 41, 128, 72
-0.996831, 61, 193, 76, 256
-0.996835, 113, 73, 128, 136
-0.996864, 145, 85, 272, 116
-0.99687, 193, 65, 208, 128
-0.996872, 69, 33, 84, 96
-0.996878, 281, 121, 296, 184
-0.996897, 255, 89, 270, 152
-0.996906, 133, 53, 148, 84
-0.996912, 13, 1, 44, 256
-0.996932, 209, 137, 336, 168
-0.996937, 125, 89, 140, 152
-0.996939, 177, 41, 304, 72
-0.99694, 321, 13, 448, 44
-0.996947, 321, 225, 448, 288
-0.996954, 81, 169, 208, 200
-0.99697, 305, 161, 320, 224
-0.996975, 49, 105, 176, 136
-0.996983, 49, 209, 176, 240
-0.996986, 241, 233, 368, 296
-0.996993, 469, 1, 500, 256
-0.996994, 73, 161, 88, 224
-0.997007, 369, 37, 496, 68
-0.997008, 289, 1, 320, 256
-0.997018, 281, 225, 344, 352
-0.997026, 3, 161, 18, 224
-0.997047, 97, 181, 224, 212
-0.99705, 209, 297, 336, 360
-0.997055, 1, 89, 128, 120
-0.997058, 337, 49, 352, 112
-0.997062, 269, 89, 284, 152
-0.997079, 211, 81, 226, 144
-0.997095, 209, 185, 336, 216
-0.997107, 97, 241, 128, 368
-0.997107, 49, 17, 176, 48
-0.997107, 225, 161, 352, 192
-0.997108, 461, 89, 476, 152
-0.997109, 1, 1, 32, 256
-0.997122, 295, 89, 310, 152
-0.997129, 97, 1, 112, 64
-0.997132, 13, 73, 28, 136
-0.997137, 129, 129, 256, 160
-0.997137, 205, 1, 220, 32
-0.997155, 123, 41, 138, 104
-0.997161, 381, 1, 396, 64
-0.997164, 397, 73, 412, 136
-0.997165, 271, 177, 286, 240
-0.997167, 217, 81, 232, 144
-0.997167, 21, 73, 36, 136
-0.997168, 321, 53, 448, 84
-0.997171, 9, 49, 24, 112
-0.997176, 65, 153, 192, 184
-0.997177, 153, 153, 168, 216
-0.997186, 211, 121, 226, 184
-0.997193, 49, 193, 176, 224
-0.997193, 129, 117, 256, 148
-0.997198, 267, 145, 282, 208
-0.9972, 369, 49, 496, 80
-0.997218, 93, 49, 124, 176
-0.997229, 455, 89, 470, 152
-0.997256, 229, 81, 244, 144
-0.997264, 49, 41, 176, 72
-0.997264, 395, 105, 410, 168
-0.997271, 199, 161, 214, 224
-0.997273, 1, 5, 128, 36
-0.997274, 217, 153, 232, 216
-0.997276, 205, 81, 220, 144
-0.997279, 21, 49, 36, 112
-0.997284, 73, 201, 88, 264
-0.997302, 1, 201, 500, 264
-0.997315, 67, 161, 82, 224
-0.997325, 31, 57, 46, 120
-0.99733, 485, 49, 500, 112
-0.99733, 145, 141, 272, 172
-0.99734, 181, 21, 196, 52
-0.997341, 249, 89, 264, 152
-0.997347, 289, 89, 304, 152
-0.997347, 97, 93, 224, 124
-0.99735, 369, 153, 496, 184
-0.997364, 159, 145, 174, 208
-0.997382, 289, 121, 304, 184
-0.997383, 467, 33, 482, 96
-0.997402, 363, 81, 378, 144
-0.997403, 187, 17, 202, 48
-0.997406, 319, 161, 334, 224
-0.997408, 409, 9, 424, 72
-0.99741, 419, 73, 434, 136
-0.997414, 153, 29, 168, 60
-0.997421, 1, 113, 16, 176
-0.997422, 1, 205, 128, 236
-0.997432, 59, 89, 74, 152
-0.997433, 197, 1, 212, 32
-0.997436, 51, 233, 66, 296
-0.997438, 257, 17, 288, 144
-0.997438, 339, 81, 354, 144
-0.99744, 1, 105, 500, 168
-0.997444, 103, 113, 118, 176
-0.997447, 305, 161, 336, 288
-0.997449, 9, 149, 24, 180
-0.99745, 57, 9, 72, 72
-0.997456, 61, 169, 76, 232
-0.997464, 33, 297, 288, 360
-0.997466, 289, 81, 416, 112
-0.997479, 129, 65, 144, 96
-0.997488, 33, 165, 160, 196
-0.997491, 139, 45, 154, 76
-0.997496, 481, 33, 496, 64
-0.997502, 321, 65, 448, 96
-0.997506, 25, 1, 56, 256
-0.997509, 257, 33, 288, 288
-0.997512, 163, 57, 178, 88
-0.997535, 25, 29, 40, 60
-0.997543, 211, 1, 226, 32
-0.997545, 241, 37, 368, 68
-0.997555, 205, 1, 236, 256
-0.997556, 197, 241, 228, 368
-0.997566, 145, 45, 160, 76
-0.997575, 187, 33, 202, 64
-0.997584, 53, 1, 84, 256
-0.997586, 49, 221, 176, 252
-0.997586, 379, 1, 394, 32
-0.997586, 175, 13, 190, 44
-0.9976, 129, 105, 256, 136
-0.997601, 473, 17, 488, 48
-0.997611, 201, 97, 232, 352
-0.99762, 213, 241, 244, 368
-0.997624, 173, 61, 188, 92
-0.997632, 139, 57, 154, 88
-0.997632, 169, 17, 184, 48
-0.997635, 469, 97, 500, 224
-0.997636, 1, 105, 128, 136
-0.99764, 369, 25, 496, 56
-0.997641, 25, 129, 56, 375
-0.997642, 159, 25, 174, 56
-0.997642, 123, 73, 138, 104
-0.997647, 49, 141, 176, 172
-0.997649, 109, 1, 140, 256
-0.997651, 277, 177, 292, 208
-0.997657, 305, 177, 368, 304
-0.997658, 181, 41, 196, 72
-0.997674, 333, 29, 348, 60
-0.997676, 67, 77, 82, 108
-0.99768, 1, 193, 128, 224
-0.997683, 145, 97, 176, 352
-0.997684, 161, 289, 288, 352
-0.997686, 217, 65, 248, 320
-0.997699, 1, 217, 128, 248
-0.997716, 313, 161, 328, 192
-0.997716, 225, 49, 352, 80
-0.997716, 49, 121, 176, 152
-0.997723, 65, 293, 192, 324
-0.997727, 191, 49, 206, 80
-0.997728, 369, 109, 496, 140
-0.997734, 81, 273, 208, 304
-0.99774, 67, 25, 82, 56
-0.997751, 257, 145, 384, 176
-0.997754, 161, 41, 176, 72
-0.997763, 409, 145, 440, 272
-0.997764, 165, 97, 196, 352
-0.99777, 15, 153, 30, 184
-0.997773, 321, 113, 448, 144
-0.997783, 313, 33, 328, 64
-0.997798, 17, 293, 144, 324
-0.997819, 289, 53, 304, 84
-0.997821, 13, 129, 44, 375
-0.997829, 3, 13, 18, 44
-0.997835, 467, 1, 482, 32
-0.997838, 271, 181, 286, 212
-0.99784, 187, 61, 202, 92
-0.997847, 147, 65, 162, 96
-0.997855, 287, 173, 302, 204
-0.997858, 345, 29, 360, 60
-0.997859, 369, 13, 384, 44
-0.997877, 1, 153, 500, 216
-0.997878, 273, 185, 400, 216
-0.997883, 133, 81, 148, 112
-0.997889, 461, 1, 476, 32
-0.997893, 189, 1, 204, 32
-0.997894, 49, 97, 80, 352
-0.997896, 97, 141, 224, 172
-0.997899, 3, 145, 18, 176
-0.997901, 37, 65, 68, 320
-0.997919, 369, 61, 496, 92
-0.99792, 237, 65, 268, 320
-0.997929, 353, 25, 368, 56
-0.99793, 167, 29, 182, 60
-0.997934, 181, 1, 196, 32
-0.997936, 217, 153, 232, 184
-0.997939, 319, 29, 334, 60
-0.997944, 181, 97, 212, 352
-0.997948, 307, 41, 322, 72
-0.997965, 209, 197, 336, 228
-0.997971, 299, 45, 314, 76
-0.997974, 175, 29, 190, 60
-0.997975, 339, 25, 354, 56
-0.997975, 197, 49, 212, 80
-0.99798, 461, 65, 476, 96
-0.997982, 247, 89, 262, 120
-0.997983, 161, 185, 288, 216
-0.997991, 153, 61, 168, 92
-0.997999, 363, 17, 378, 48
-0.998, 207, 13, 222, 44
-0.99801, 1, 273, 256, 336
-0.998015, 133, 97, 164, 352
-0.998024, 321, 1, 448, 32
-0.998035, 147, 33, 162, 64
-0.998039, 201, 13, 216, 44
-0.998041, 139, 33, 154, 64
-0.998048, 425, 65, 456, 320
-0.99805, 1, 1, 16, 32
-0.99805, 353, 165, 480, 196
-0.998051, 245, 177, 276, 304
-0.998063, 113, 193, 240, 224
-0.99807, 205, 165, 220, 196
-0.998083, 271, 73, 286, 104
-0.998086, 257, 25, 384, 56
-0.998094, 121, 177, 152, 304
-0.998095, 155, 49, 170, 80
-0.9981, 327, 29, 342, 60
-0.998103, 479, 21, 494, 52
-0.998104, 17, 237, 144, 268
-0.998107, 321, 181, 448, 212
-0.998112, 175, 45, 190, 76
-0.998119, 199, 165, 214, 196
-0.99812, 193, 169, 208, 200
-0.998126, 161, 13, 176, 44
-0.998127, 61, 21, 76, 52
-0.998142, 361, 1, 392, 256
-0.998147, 19, 25, 34, 56
-0.998169, 117, 81, 132, 112
-0.99817, 305, 209, 432, 336
-0.998175, 31, 29, 46, 60
-0.998175, 279, 65, 294, 96
-0.998184, 273, 13, 400, 44
-0.998188, 61, 81, 76, 112
-0.998204, 1, 129, 128, 160
-0.998204, 67, 13, 82, 44
-0.998205, 369, 89, 496, 120
-0.998207, 25, 17, 40, 48
-0.998207, 123, 85, 138, 116
-0.998229, 167, 41, 182, 72
-0.998233, 467, 13, 482, 44
-0.998239, 149, 193, 180, 320
-0.998245, 481, 45, 496, 76
-0.998246, 23, 81, 38, 112
-0.998247, 193, 17, 208, 48
-0.998248, 113, 261, 240, 292
-0.99825, 49, 33, 64, 64
-0.998253, 17, 281, 144, 312
-0.998254, 437, 65, 468, 320
-0.998256, 455, 49, 470, 80
-0.998278, 225, 165, 240, 196
-0.998278, 259, 93, 274, 124
-0.998281, 133, 41, 148, 72
-0.998297, 43, 29, 58, 60
-0.998299, 69, 65, 100, 320
-0.998302, 17, 305, 144, 336
-0.998302, 67, 197, 82, 228
-0.998304, 53, 21, 68, 52
-0.998305, 181, 53, 196, 84
-0.998306, 201, 61, 216, 92
-0.998308, 1, 269, 128, 300
-0.998312, 253, 93, 268, 124
-0.998314, 29, 77, 44, 108
-0.998317, 385, 1, 400, 32
-0.998322, 369, 233, 496, 296
-0.998326, 211, 157, 226, 188
-0.998333, 461, 49, 476, 80
-0.998334, 225, 221, 352, 252
-0.998335, 109, 85, 124, 116
-0.998339, 127, 49, 142, 80
-0.998345, 199, 177, 214, 208
-0.998347, 279, 165, 294, 196
-0.99835, 455, 69, 470, 100
-0.998353, 73, 29, 88, 60
-0.998355, 1, 161, 16, 192
-0.998358, 297, 163, 328, 178
-0.998358, 87, 1, 102, 32
-0.998358, 113, 53, 144, 68
-0.998359, 221, 157, 252, 172
-0.998361, 5, 63, 36, 78
-0.998361, 169, 11, 200, 26
-0.998362, 145, 333, 272, 364
-0.998363, 269, 81, 300, 96
-0.998363, 41, 83, 72, 98
-0.998363, 457, 57, 488, 72
-0.998365, 149, 49, 180, 64
-0.998365, 325, 89, 356, 104
-0.998366, 437, 65, 468, 80
-0.998367, 145, 103, 176, 118
-0.998368, 41, 267, 72, 282
-0.998368, 45, 19, 76, 34
-0.998369, 449, 1, 480, 16
-0.998369, 461, 93, 476, 124
-0.99837, 65, 17, 96, 32
-0.998371, 121, 99, 152, 114
-0.998371, 437, 43, 468, 58
-0.998372, 137, 83, 168, 98
-0.998372, 337, 45, 352, 76
-0.998373, 253, 87, 284, 102
-0.998375, 257, 133, 288, 148
-0.998375, 21, 23, 52, 38
-0.998376, 193, 69, 208, 100
-0.998376, 41, 95, 72, 110
-0.998377, 1, 149, 32, 164
-0.998378, 117, 35, 148, 50
-0.998378, 57, 93, 88, 108
-0.998379, 197, 177, 228, 192
-0.998379, 65, 81, 96, 96
-0.998379, 57, 37, 88, 52
-0.998382, 309, 163, 340, 178
-0.998383, 341, 43, 372, 58
-0.998383, 225, 177, 240, 208
-0.998384, 161, 217, 288, 248
-0.998385, 129, 345, 256, 375
-0.998385, 389, 61, 404, 92
-0.998386, 209, 157, 240, 172
-0.998387, 5, 47, 36, 62
-0.998389, 217, 9, 232, 40
-0.99839, 229, 173, 260, 188
-0.99839, 33, 31, 64, 46
-0.998391, 13, 15, 44, 30
-0.998391, 149, 23, 180, 38
-0.998391, 173, 31, 204, 46
-0.998391, 161, 67, 192, 82
-0.998392, 257, 179, 288, 194
-0.998393, 217, 165, 232, 196
-0.998394, 201, 19, 232, 34
-0.998395, 289, 53, 320, 68
-0.998395, 193, 157, 208, 188
-0.998396, 129, 45, 160, 60
-0.998396, 193, 61, 224, 76
-0.998396, 301, 41, 332, 56
-0.998396, 197, 159, 228, 174
-0.998397, 169, 5, 184, 36
-0.998398, 293, 169, 324, 184
-0.9984, 161, 225, 416, 288
-0.9984, 145, 69, 176, 84
-0.9984, 329, 33, 360, 48
-0.9984, 153, 61, 216, 76
-0.998401, 457, 33, 472, 64
-0.998401, 249, 95, 280, 110
-0.998403, 121, 61, 184, 76
-0.998404, 73, 31, 104, 46
-0.998404, 273, 125, 304, 140
-0.998404, 177, 47, 208, 62
-0.998405, 201, 169, 232, 184
-0.998406, 29, 77, 60, 92
-0.998406, 269, 87, 300, 102
-0.998406, 17, 71, 48, 86
-0.998409, 307, 165, 322, 196
-0.998411, 25, 41, 56, 56
-0.998412, 457, 9, 488, 24
-0.998415, 57, 99, 88, 114
-0.998415, 461, 81, 476, 112
-0.998417, 465, 65, 496, 80
-0.998419, 139, 81, 154, 112
-0.99842, 1, 129, 32, 375
-0.99842, 377, 3, 408, 18
-0.998421, 209, 177, 240, 192
-0.998422, 457, 47, 488, 62
-0.998423, 137, 31, 200, 46
-0.998425, 235, 173, 250, 204
-0.998425, 49, 81, 64, 112
-0.998426, 45, 61, 60, 92
-0.998427, 349, 25, 380, 40
-0.998427, 269, 71, 300, 86
-0.998427, 53, 75, 84, 90
-0.998428, 1, 21, 32, 36
-0.998429, 121, 67, 184, 82
-0.998429, 361, 19, 392, 34
-0.998429, 393, 65, 424, 320
-0.998431, 113, 59, 144, 74
-0.998431, 33, 17, 48, 48
-0.998433, 185, 55, 216, 70
-0.998435, 117, 85, 148, 100
-0.998435, 313, 149, 328, 180
-0.998435, 343, 97, 358, 128
-0.998436, 21, 29, 52, 44
-0.998438, 237, 93, 268, 108
-0.998438, 369, 11, 400, 26
-0.998439, 409, 33, 440, 288
-0.998439, 273, 179, 304, 194
-0.998443, 149, 35, 180, 50
-0.998443, 5, 161, 36, 176
-0.998443, 285, 59, 316, 74
-0.998444, 13, 81, 44, 96
-0.998444, 109, 69, 140, 84
-0.998445, 465, 41, 496, 56
-0.998446, 461, 21, 492, 36
-0.99845, 137, 37, 168, 52
-0.99845, 185, 15, 216, 30
-0.998451, 189, 171, 220, 186
-0.998452, 161, 33, 192, 48
-0.998453, 273, 1, 400, 32
-0.998455, 173, 41, 204, 56
-0.998457, 297, 47, 328, 62
-0.998458, 313, 37, 344, 52
-0.998459, 161, 249, 416, 312
-0.998459, 133, 33, 148, 160
-0.998462, 169, 59, 200, 74
-0.998463, 53, 87, 84, 102
-0.998464, 317, 29, 348, 44
-0.998465, 121, 55, 184, 70
-0.998465, 9, 41, 40, 56
-0.998467, 205, 7, 236, 22
-0.998468, 161, 45, 192, 60
-0.998469, 109, 91, 140, 106
-0.99847, 337, 27, 368, 42
-0.998471, 185, 23, 216, 38
-0.998474, 149, 43, 180, 58
-0.998478, 157, 13, 188, 28
-0.998478, 169, 3, 232, 18
-0.99848, 137, 29, 168, 44
-0.99848, 125, 55, 156, 70
-0.998481, 45, 193, 76, 208
-0.998485, 53, 31, 84, 46
-0.998486, 161, 39, 192, 54
-0.998487, 189, 1, 220, 16
-0.998493, 109, 145, 140, 272
-0.998497, 9, 27, 40, 42
-0.998504, 13, 35, 44, 50
-0.998507, 241, 173, 304, 188
-0.998508, 229, 225, 260, 352
-0.998509, 49, 5, 176, 36
-0.998513, 173, 67, 204, 82
-0.998513, 321, 149, 448, 180
-0.998514, 169, 13, 232, 28
-0.998516, 145, 45, 208, 60
-0.998519, 121, 79, 152, 94
-0.998519, 149, 55, 180, 70
-0.99852, 181, 61, 212, 76
-0.99852, 33, 257, 160, 288
-0.998521, 161, 201, 288, 232
-0.998522, 305, 29, 368, 44
-0.998523, 457, 15, 488, 30
-0.998523, 201, 13, 232, 28
-0.998525, 149, 29, 180, 44
-0.998525, 145, 51, 208, 66
-0.998525, 17, 317, 144, 348
-0.998526, 1, 155, 32, 170
-0.998527, 369, 141, 496, 172
-0.998528, 161, 19, 192, 34
-0.998529, 25, 25, 88, 40
-0.998529, 265, 71, 328, 86
-0.998536, 129, 39, 192, 54
-0.998539, 97, 57, 160, 72
-0.998539, 433, 31, 496, 46
-0.998539, 173, 17, 204, 32
-0.998542, 277, 173, 308, 188
-0.998544, 53, 25, 84, 40
-0.998544, 281, 53, 344, 68
-0.998544, 281, 59, 344, 74
-0.998545, 57, 31, 120, 46
-0.998546, 1, 43, 64, 58
-0.998547, 145, 25, 208, 40
-0.998548, 25, 33, 88, 48
-0.99855, 465, 31, 496, 46
-0.99855, 105, 87, 168, 102
-0.998551, 17, 83, 80, 98
-0.998552, 65, 341, 192, 372
-0.998553, 129, 67, 160, 82
-0.998553, 169, 53, 200, 68
-0.998554, 1, 31, 64, 46
-0.998554, 169, 25, 200, 40
-0.998556, 17, 77, 80, 92
-0.998557, 121, 49, 184, 64
-0.998557, 53, 81, 84, 96
-0.998561, 1, 49, 64, 64
-0.998566, 169, 23, 232, 38
-0.998566, 289, 47, 352, 62
-0.998567, 137, 51, 168, 66
-0.998568, 121, 73, 184, 88
-0.998569, 65, 83, 128, 98
-0.99857, 161, 171, 224, 186
-0.99857, 417, 1, 480, 16
-0.998571, 433, 15, 496, 30
-0.998572, 201, 177, 264, 192
-0.998573, 105, 81, 168, 96
-0.998573, 17, 19, 80, 34
-0.998574, 353, 19, 416, 34
-0.998575, 361, 11, 424, 26
-0.998578, 257, 89, 320, 104
-0.998579, 97, 101, 160, 116
-0.998581, 289, 125, 416, 156
-0.998583, 225, 95, 288, 110
-0.998584, 273, 65, 336, 80
-0.998585, 145, 67, 208, 82
-0.998587, 201, 155, 264, 170
-0.998588, 1, 63, 64, 78
-0.998589, 265, 175, 328, 190
-0.998592, 141, 63, 172, 78
-0.998592, 161, 177, 224, 192
-0.998592, 265, 83, 328, 98
-0.998593, 145, 19, 208, 34
-0.998595, 433, 21, 496, 36
-0.998596, 377, 1, 440, 16
-0.998596, 25, 39, 88, 54
-0.998597, 1, 37, 64, 52
-0.998597, 305, 37, 368, 52
-0.998598, 433, 65, 496, 80
-0.998599, 89, 65, 152, 80
-0.998602, 225, 83, 288, 98
-0.998602, 169, 157, 232, 172
-0.998602, 57, 169, 120, 184
-0.998604, 113, 31, 176, 46
-0.998604, 1, 69, 64, 84
-0.998605, 49, 23, 112, 38
-0.998606, 1, 117, 128, 148
-0.998607, 233, 183, 296, 198
-0.998608, 185, 167, 248, 182
-0.998608, 329, 27, 392, 42
-0.998611, 89, 73, 152, 88
-0.998612, 1, 225, 500, 288
-0.998612, 265, 181, 328, 196
-0.998613, 97, 93, 160, 108
-0.998613, 25, 197, 88, 212
-0.998614, 249, 107, 312, 122
-0.998615, 25, 89, 88, 104
-0.998619, 49, 37, 112, 52
-0.998619, 191, 1, 206, 128
-0.99862, 129, 83, 192, 98
-0.998621, 193, 13, 256, 28
-0.998621, 177, 147, 240, 162
-0.998622, 1, 55, 64, 70
-0.998623, 265, 77, 328, 92
-0.998624, 217, 171, 280, 186
-0.998625, 281, 169, 344, 184
-0.998625, 169, 51, 232, 66
-0.998625, 25, 97, 88, 112
-0.998626, 217, 131, 280, 146
-0.998627, 217, 121, 280, 136
-0.998627, 425, 9, 488, 24
-0.998628, 65, 77, 128, 92
-0.998628, 161, 33, 224, 48
-0.998628, 281, 99, 344, 114
-0.998629, 249, 97, 312, 112
-0.998629, 105, 37, 168, 52
-0.99863, 225, 89, 288, 104
-0.998634, 1, 25, 64, 40
-0.998635, 177, 129, 240, 144
-0.998635, 153, 165, 216, 180
-0.998635, 65, 95, 128, 110
-0.998635, 153, 39, 216, 54
-0.998636, 193, 7, 256, 22
-0.998636, 177, 135, 240, 150
-0.998636, 57, 163, 120, 178
-0.998637, 157, 61, 188, 76
-0.998638, 257, 125, 320, 140
-0.998638, 177, 57, 240, 72
-0.998638, 313, 89, 376, 104
-0.998638, 57, 15, 120, 30
-0.998639, 249, 113, 312, 128
-0.998639, 177, 41, 240, 56
-0.998639, 425, 47, 488, 62
-0.998639, 17, 163, 80, 178
-0.99864, 313, 61, 376, 76
-0.998641, 25, 11, 88, 26
-0.998642, 25, 47, 88, 62
-0.998643, 129, 95, 192, 110
-0.998646, 137, 105, 200, 120
-0.998647, 145, 13, 208, 28
-0.998647, 193, 161, 256, 176
-0.998648, 97, 107, 160, 122
-0.99865, 209, 183, 272, 198
-0.998652, 305, 117, 368, 132
-0.998652, 153, 183, 216, 198
-0.998654, 425, 153, 488, 168
-0.998654, 65, 89, 128, 104
-0.998655, 17, 155, 80, 170
-0.998656, 89, 31, 152, 46
-0.998656, 137, 177, 200, 192
-0.998659, 257, 159, 320, 174
-0.998659, 185, 183, 248, 198
-0.998661, 201, 149, 264, 164
-0.998662, 185, 63, 248, 78
-0.998662, 97, 115, 160, 130
-0.998663, 225, 77, 288, 92
-0.99868, 129, 233, 256, 264
-0.998682, 129, 61, 160, 76
-0.998683, 177, 253, 304, 284
-0.998687, 177, 233, 304, 264
-0.998689, 49, 329, 176, 360
-0.998691, 225, 237, 352, 268
-0.99871, 5, 1, 20, 128
-0.998731, 369, 205, 496, 236
-0.998736, 171, 1, 186, 128
-0.998749, 139, 33, 154, 160
-0.998752, 161, 1, 176, 128
-0.998766, 225, 209, 352, 240
-0.998769, 93, 1, 124, 256
-0.998773, 369, 121, 496, 152
-0.998775, 205, 1, 220, 128
-0.998779, 475, 1, 490, 128
-0.99878, 185, 1, 200, 128
-0.998782, 225, 273, 352, 336
-0.998792, 363, 1, 378, 128
-0.998796, 63, 1, 78, 128
-0.998803, 369, 73, 496, 104
-0.998804, 65, 249, 320, 312
-0.998808, 257, 209, 500, 272
-0.998812, 331, 17, 346, 144
-0.998824, 197, 1, 212, 128
-0.998827, 1, 129, 500, 192
-0.998829, 467, 1, 482, 128
-0.998849, 279, 49, 294, 176
-0.99885, 315, 17, 330, 144
-0.998852, 113, 249, 240, 280
-0.998867, 179, 49, 194, 176
-0.998871, 155, 17, 170, 144
-0.998883, 381, 1, 412, 256
-0.998884, 1, 333, 128, 364
-0.998906, 97, 97, 128, 352
-0.998906, 127, 33, 142, 160
-0.998908, 369, 1, 384, 128
-0.998915, 171, 49, 186, 176
-0.998924, 351, 17, 366, 144
-0.998941, 145, 33, 160, 160
-0.998944, 273, 49, 288, 176
-0.998945, 325, 17, 340, 144
-0.998945, 11, 1, 26, 128
-0.998956, 339, 17, 354, 144
-0.998958, 287, 49, 302, 176
-0.99899, 345, 17, 360, 144
-0.998991, 307, 33, 322, 160
-0.998991, 177, 1, 192, 128
-0.999001, 285, 97, 316, 352
-0.999005, 295, 33, 310, 160
-0.999011, 483, 33, 498, 160
-0.999014, 211, 1, 226, 128
-0.999029, 449, 97, 480, 352
-0.999034, 375, 1, 390, 128
-0.999057, 357, 1, 372, 128
-0.999062, 267, 65, 282, 192
-0.999076, 19, 1, 34, 128
-0.999091, 81, 1, 112, 256
-0.999106, 461, 33, 476, 160
-0.999107, 165, 49, 180, 176
-0.999108, 215, 81, 230, 208
-0.999124, 3, 81, 18, 208
-0.999142, 133, 81, 148, 208
-0.999155, 301, 33, 316, 160
-0.99916, 205, 81, 220, 208
-0.999166, 121, 97, 152, 352
-0.999169, 187, 49, 202, 176
-0.999176, 261, 81, 276, 208
-0.999176, 413, 129, 444, 375
-0.999177, 9, 81, 24, 208
-0.999178, 29, 1, 44, 128
-0.99918, 195, 49, 210, 176
-0.999186, 225, 65, 240, 192
-0.999206, 53, 17, 68, 144
-0.999206, 455, 33, 470, 160
-0.99921, 221, 113, 236, 240
-0.999212, 69, 65, 84, 192
-0.999224, 129, 273, 384, 336
-0.999235, 13, 129, 28, 256
-0.999239, 253, 81, 268, 208
-0.999245, 159, 97, 174, 224
-0.999246, 145, 81, 160, 208
-0.999252, 65, 145, 80, 272
-0.999255, 129, 297, 384, 360
-0.999256, 139, 81, 154, 208
-0.999262, 121, 49, 136, 176
-0.99927, 69, 17, 84, 144
-0.999273, 121, 1, 136, 128
-0.99928, 113, 49, 128, 176
-0.999285, 273, 265, 400, 328
-0.999285, 231, 81, 246, 208
-0.999286, 199, 97, 214, 224
-0.999304, 41, 17, 56, 144
-0.999307, 81, 97, 112, 352
-0.99931, 257, 297, 384, 360
-0.999311, 257, 129, 288, 375
-0.999317, 169, 97, 184, 224
-0.999319, 59, 81, 74, 208
-0.999323, 285, 113, 300, 240
-0.99933, 151, 97, 166, 224
-0.999339, 35, 1, 50, 128
-0.999341, 115, 1, 130, 128
-0.999355, 73, 145, 88, 272
-0.999356, 185, 97, 200, 224
-0.999358, 393, 33, 408, 160
-0.999365, 5, 145, 20, 272
-0.99937, 19, 49, 34, 176
-0.999372, 353, 97, 384, 352
-0.999374, 47, 1, 62, 128
-0.999378, 59, 145, 74, 272
-0.99938, 211, 129, 226, 256
-0.999386, 461, 81, 476, 208
-0.999386, 279, 97, 294, 224
-0.999396, 179, 97, 194, 224
-0.9994, 383, 49, 398, 176
-0.999403, 313, 81, 328, 208
-0.999408, 239, 81, 254, 208
-0.99941, 67, 193, 82, 320
-0.999411, 193, 97, 208, 224
-0.99942, 51, 225, 66, 352
-0.999428, 127, 81, 142, 208
-0.999431, 381, 1, 396, 128
-0.999442, 223, 161, 238, 288
-0.999442, 389, 97, 404, 224
-0.999443, 319, 65, 334, 192
-0.999445, 455, 81, 470, 208
-0.999453, 273, 129, 304, 375
-0.999453, 395, 97, 410, 224
-0.999463, 73, 193, 88, 320
-0.999465, 373, 49, 388, 176
-0.999466, 403, 97, 418, 224
-0.999467, 53, 65, 68, 192
-0.999467, 109, 1, 124, 128
-0.999467, 61, 193, 76, 320
-0.999469, 165, 145, 180, 272
-0.99947, 449, 33, 464, 160
-0.999473, 325, 65, 340, 192
-0.999475, 381, 97, 396, 224
-0.999476, 373, 97, 404, 352
-0.999478, 415, 97, 430, 224
-0.999481, 433, 97, 448, 224
-0.999482, 245, 81, 260, 208
-0.999484, 331, 81, 346, 208
-0.999485, 299, 113, 314, 240
-0.999492, 53, 177, 68, 304
-0.999492, 45, 225, 60, 352
-0.999493, 375, 97, 390, 224
-0.999494, 205, 129, 220, 256
-0.999496, 291, 161, 306, 288
-0.999497, 403, 33, 418, 160
-0.999497, 25, 49, 40, 176
-0.999503, 19, 145, 34, 272
-0.999504, 217, 161, 232, 288
-0.999509, 219, 1, 234, 128
-0.999509, 307, 81, 322, 208
-0.999512, 107, 65, 122, 192
-0.999515, 33, 225, 48, 352
-0.999517, 337, 65, 352, 192
-0.999517, 159, 145, 174, 272
-0.999519, 365, 49, 380, 176
-0.999521, 439, 33, 454, 160
-0.99957, 465, 97, 496, 352
-0.999581, 285, 65, 300, 80
-0.999582, 201, 159, 216, 174
-0.999583, 61, 31, 76, 46
-0.999583, 199, 55, 214, 70
-0.999583, 49, 33, 64, 48
-0.999586, 333, 33, 348, 48
-0.999586, 461, 95, 476, 110
-0.999586, 161, 41, 176, 56
-0.999586, 127, 57, 142, 72
-0.999587, 463, 13, 478, 28
-0.999587, 197, 171, 212, 186
-0.999587, 17, 159, 32, 174
-0.999588, 215, 177, 230, 192
-0.999588, 463, 7, 478, 22
-0.999588, 49, 79, 64, 94
-0.999588, 117, 91, 132, 106
-0.999588, 273, 177, 288, 192
-0.99959, 27, 73, 42, 88
-0.99959, 185, 55, 200, 70
-0.999591, 287, 125, 302, 140
-0.999591, 137, 81, 152, 96
-0.999592, 51, 265, 66, 280
-0.999593, 207, 19, 222, 34
-0.999593, 21, 71, 36, 86
-0.999594, 363, 21, 378, 36
-0.999595, 169, 45, 184, 60
-0.999595, 483, 43, 498, 58
-0.999595, 455, 67, 470, 82
-0.999596, 353, 27, 368, 42
-0.999597, 475, 23, 490, 38
-0.999598, 69, 15, 84, 30
-0.999598, 337, 97, 368, 352
-0.999599, 161, 59, 176, 74
-0.999599, 5, 17, 20, 32
-0.9996, 205, 7, 220, 22
-0.9996, 21, 77, 36, 92
-0.999602, 197, 165, 212, 180
-0.999602, 171, 37, 186, 52
-0.999602, 307, 43, 322, 58
-0.999602, 195, 63, 210, 78
-0.999604, 313, 169, 328, 184
-0.999605, 69, 75, 84, 90
-0.999605, 161, 67, 176, 82
-0.999606, 295, 49, 310, 64
-0.999607, 57, 25, 72, 40
-0.999609, 463, 1, 478, 16
-0.999609, 479, 31, 494, 46
-0.99961, 69, 35, 84, 50
-0.999611, 461, 87, 476, 102
-0.999612, 165, 19, 180, 34
-0.999617, 279, 67, 294, 82
-0.999617, 273, 73, 288, 88
-0.999617, 193, 57, 208, 72
-0.999619, 139, 45, 154, 60
-0.99962, 13, 27, 28, 42
-0.999621, 17, 39, 32, 54
-0.999623, 23, 83, 38, 98
-0.999623, 141, 37, 156, 52
-0.999624, 129, 77, 144, 92
-0.999625, 267, 179, 282, 194
-0.999625, 111, 91, 126, 106
-0.999626, 383, 1, 398, 16
-0.999626, 461, 69, 476, 84
-0.999627, 301, 45, 316, 60
-0.999627, 375, 9, 390, 24
-0.999628, 287, 171, 302, 186
-0.999628, 179, 33, 194, 48
-0.999628, 119, 85, 134, 100
-0.999629, 139, 63, 154, 78
-0.999629, 257, 233, 500, 296
-0.99963, 155, 23, 170, 38
-0.99963, 169, 25, 184, 40
-0.999631, 59, 81, 74, 96
-0.999633, 339, 27, 354, 42
-0.999634, 175, 67, 190, 82
-0.999635, 131, 51, 146, 66
-0.999636, 165, 33, 180, 48
-0.999638, 147, 31, 162, 46
-0.999638, 27, 41, 42, 56
-0.999639, 369, 13, 384, 28
-0.999639, 185, 41, 200, 56
-0.999639, 149, 51, 164, 66
-0.99964, 181, 15, 196, 30
-0.99964, 163, 13, 178, 28
-0.999642, 175, 23, 190, 38
-0.999642, 147, 63, 162, 78
-0.999643, 315, 33, 330, 48
-0.999643, 183, 25, 198, 40
-0.999644, 171, 51, 186, 66
-0.999644, 7, 157, 22, 172
-0.999644, 321, 29, 336, 44
-0.999646, 483, 37, 498, 52
-0.999647, 289, 57, 304, 72
-0.999647, 153, 35, 168, 50
-0.999649, 211, 5, 226, 20
-0.999651, 201, 1, 216, 16
-0.999651, 205, 13, 220, 28
-0.999651, 67, 29, 82, 44
-0.999652, 207, 157, 222, 172
-0.999653, 217, 13, 232, 28
-0.999653, 25, 31, 40, 46
-0.999657, 161, 53, 176, 68
-0.999658, 19, 33, 34, 48
-0.999659, 297, 97, 328, 352
-0.999659, 19, 27, 34, 42
-0.999659, 203, 171, 218, 186
-0.999663, 131, 65, 146, 80
-0.999663, 279, 175, 294, 190
-0.999663, 189, 21, 204, 36
-0.999663, 109, 97, 140, 352
-0.999664, 275, 183, 290, 198
-0.999664, 197, 15, 212, 30
-0.999665, 179, 43, 194, 58
-0.999665, 15, 153, 30, 168
-0.999672, 175, 57, 190, 72
-0.999672, 67, 81, 82, 96
-0.999674, 143, 51, 158, 66
-0.999677, 183, 49, 198, 64
-0.999677, 211, 11, 226, 26
-0.999677, 313, 163, 328, 178
-0.999679, 169, 11, 184, 26
-0.999681, 167, 61, 182, 76
-0.999681, 1, 313, 500, 375
-0.999681, 153, 29, 168, 44
-0.999689, 63, 23, 78, 38
-0.999689, 123, 75, 138, 90
-0.99969, 471, 15, 486, 30
-0.999692, 153, 61, 168, 76
-0.999698, 185, 61, 200, 76
-0.999704, 175, 17, 190, 32
-0.999722, 145, 57, 160, 72
-0.999727, 159, 31, 174, 46
-0.99973, 137, 51, 152, 66
-0.999738, 139, 57, 154, 72
-0.999748, 317, 97, 348, 352
-0.999751, 1, 273, 500, 336
-0.999764, 133, 57, 148, 72
-1.00016, 321, 265, 448, 328
-1.00025, 1, 249, 500, 312
-1.00031, 257, 257, 500, 320
-1.00048, 225, 305, 480, 368
-1.00051, 305, 305, 432, 368
-1.00066, 225, 281, 480, 344
-1.00114, 353, 305, 480, 368
-1.00124, 369, 257, 496, 320
-1.0013, 257, 225, 320, 352
-1.00202, 369, 281, 496, 344
-1.00232, 369, 225, 496, 352
-1.00292, 305, 225, 368, 352
-1.00513, 385, 225, 448, 352
-1.00539, 337, 209, 400, 336
-1.00597, 257, 241, 500, 368
-1.00665, 433, 241, 496, 368
-1.00756, 361, 225, 424, 352
-1.00867, 409, 241, 472, 368
