1964
-0.392512, 1, 129, 500, 375
-0.425067, 1, 1, 500, 375
-0.535393, 161, 1, 416, 375
-0.536163, 1, 33, 500, 288
-0.64045, 65, 1, 320, 375
-0.687859, 1, 97, 256, 352
-0.694008, 161, 129, 416, 375
-0.712662, 257, 1, 500, 375
-0.769429, 257, 97, 500, 352
-0.777852, 161, 33, 416, 288
-0.857005, 33, 1, 288, 256
-0.871821, 1, 225, 500, 352
-0.87381, 193, 1, 320, 375
-0.87716, 1, 177, 500, 304
-0.882161, 257, 1, 500, 256
-0.884831, 209, 1, 336, 256
-0.898559, 193, 129, 320, 375
-0.899432, 65, 129, 192, 375
-0.900716, 17, 129, 144, 375
-0.901611, 257, 129, 384, 375
-0.907465, 337, 97, 464, 352
-0.912091, 257, 1, 384, 375
-0.913688, 1, 113, 500, 240
-0.915146, 161, 193, 416, 320
-0.916025, 337, 1, 464, 375
-0.916369, 1, 241, 256, 368
-0.916914, 113, 97, 240, 352
-0.916988, 257, 33, 384, 288
-0.917157, 97, 1, 224, 375
-0.919933, 65, 193, 320, 320
-0.92653, 145, 1, 272, 256
-0.931172, 1, 1, 128, 375
-0.932335, 145, 1, 272, 375
-0.934279, 257, 241, 500, 368
-0.934349, 1, 33, 500, 160
-0.93768, 25, 225, 88, 352
-0.938018, 129, 241, 384, 368
-0.941862, 33, 177, 96, 304
-0.941884, 57, 177, 120, 304
-0.944704, 65, 1, 192, 256
-0.944871, 1, 145, 256, 272
-0.944964, 369, 241, 496, 368
-0.944983, 17, 241, 144, 368
-0.945231, 65, 225, 128, 352
-0.945658, 257, 177, 384, 304
-0.946157, 409, 241, 472, 368
-0.946596, 1, 1, 128, 256
-0.948065, 177, 177, 304, 304
-0.948975, 65, 225, 192, 352
-0.949308, 257, 193, 500, 320
-0.95019, 17, 177, 144, 304
-0.950333, 97, 193, 160, 320
-0.951564, 89, 241, 152, 368
-0.952466, 433, 313, 496, 375
-0.954044, 113, 241, 240, 368
-0.954605, 289, 225, 416, 352
-0.954905, 41, 185, 104, 248
-0.955045, 193, 49, 448, 176
-0.956112, 161, 145, 416, 272
-0.956118, 121, 289, 184, 352
-0.956348, 25, 241, 88, 304
-0.956349, 305, 1, 432, 256
-0.956414, 305, 177, 368, 304
-0.957108, 257, 97, 500, 224
-0.957157, 57, 281, 120, 344
-0.957583, 433, 241, 496, 368
-0.957615, 337, 193, 464, 320
-0.959025, 385, 241, 448, 368
-0.959104, 65, 241, 128, 304
-0.96011, 97, 145, 224, 272
-0.961224, 1, 241, 64, 368
-0.961645, 33, 281, 96, 344
-0.962198, 225, 1, 352, 128
-0.962239, 193, 177, 256, 304
-0.962601, 1, 289, 64, 352
-0.962983, 49, 1, 176, 375
-0.963359, 97, 297, 160, 360
-0.963541, 17, 185, 80, 248
-0.964215, 33, 209, 96, 272
-0.964823, 433, 281, 496, 344
-0.964845, 313, 97, 376, 224
-0.965396, 353, 1, 480, 256
-0.96541, 113, 193, 240, 320
-0.965778, 265, 177, 328, 304
-0.965872, 409, 257, 472, 320
-0.965894, 49, 305, 112, 368
-0.965976, 161, 241, 224, 368
-0.966192, 25, 313, 88, 375
-0.966418, 257, 1, 500, 128
-0.966432, 225, 49, 352, 176
-0.966473, 297, 17, 360, 144
-0.966557, 241, 241, 368, 368
-0.966777, 81, 273, 144, 336
-0.966859, 201, 97, 264, 160
-0.966865, 345, 225, 408, 352
-0.966989, 193, 185, 256, 248
-0.967212, 209, 97, 272, 224
-0.968886, 57, 217, 120, 280
-0.968982, 73, 185, 136, 248
-0.969345, 65, 97, 320, 224
-0.969554, 129, 241, 192, 368
-0.96961, 9, 217, 72, 280
-0.969639, 177, 97, 304, 224
-0.969877, 305, 97, 368, 160
-0.970163, 9, 177, 72, 304
-0.970673, 33, 273, 160, 336
-0.970912, 281, 249, 344, 312
-0.971176, 233, 49, 296, 176
-0.971762, 73, 305, 136, 368
-0.971852, 129, 1, 384, 128
-0.971893, 177, 225, 304, 352
-0.972288, 313, 225, 376, 352
-0.972375, 81, 145, 144, 272
-0.97242, 393, 289, 456, 352
-0.972569, 225, 113, 352, 240
-0.972896, 33, 129, 96, 375
-0.973083, 329, 105, 392, 168
-0.973221, 465, 313, 496, 375
-0.973226, 33, 313, 64, 375
-0.973285, 409, 313, 472, 375
-0.973343, 225, 177, 288, 304
-0.973455, 17, 185, 144, 248
-0.973633, 225, 97, 288, 160
-0.973703, 85, 185, 116, 248
-0.973873, 305, 193, 368, 256
-0.973901, 313, 257, 376, 320
-0.973934, 433, 257, 496, 320
-0.974037, 377, 313, 440, 375
-0.974065, 89, 209, 152, 272
-0.974398, 345, 281, 408, 344
-0.97444, 73, 185, 104, 248
-0.974507, 417, 193, 480, 320
-0.974612, 57, 185, 88, 248
-0.974647, 65, 297, 192, 360
-0.974662, 161, 97, 416, 224
-0.974761, 93, 241, 124, 368
-0.974821, 89, 281, 120, 344
-0.974848, 33, 241, 64, 368
-0.974998, 337, 289, 464, 352
-0.975184, 337, 145, 464, 272
-0.975263, 333, 97, 364, 160
-0.975471, 25, 185, 56, 248
-0.975517, 33, 1, 288, 128
-0.975827, 113, 297, 240, 360
-0.975882, 445, 241, 476, 368
-0.976068, 257, 41, 320, 104
-0.976133, 337, 49, 400, 176
-0.976285, 313, 281, 376, 344
-0.976365, 385, 257, 448, 320
-0.976578, 89, 257, 120, 320
-0.976684, 25, 233, 56, 296
-0.976757, 369, 313, 496, 375
-0.977067, 153, 313, 216, 375
-0.977085, 153, 193, 216, 320
-0.977135, 453, 313, 484, 375
-0.97727, 337, 249, 464, 312
-0.97728, 305, 65, 368, 320
-0.977556, 233, 113, 296, 240
-0.977571, 97, 185, 160, 248
-0.977675, 345, 249, 408, 312
-0.977748, 17, 241, 48, 368
-0.977834, 33, 289, 64, 352
-0.977864, 229, 97, 260, 160
-0.977883, 417, 241, 448, 368
-0.977947, 305, 233, 368, 296
-0.978062, 97, 249, 160, 312
-0.978118, 353, 305, 416, 368
-0.978217, 17, 241, 144, 304
-0.978225, 57, 129, 120, 256
-0.978286, 89, 177, 120, 304
-0.978331, 97, 49, 352, 176
-0.978549, 45, 185, 76, 248
-0.978606, 57, 129, 120, 375
-0.978693, 233, 65, 296, 128
-0.978756, 457, 241, 488, 368
-0.978789, 281, 89, 344, 152
-0.978796, 21, 281, 52, 344
-0.978908, 97, 233, 224, 296
-0.978963, 145, 33, 272, 160
-0.979279, 1, 265, 64, 328
-0.979296, 241, 17, 304, 80
-0.979515, 273, 113, 400, 240
-0.979598, 33, 257, 64, 320
-0.979818, 469, 273, 500, 336
-0.980129, 457, 281, 488, 344
-0.980139, 69, 297, 100, 360
-0.980179, 433, 233, 496, 296
-0.980184, 425, 265, 456, 328
-0.980199, 281, 65, 344, 128
-0.980206, 109, 241, 140, 368
-0.980238, 45, 297, 76, 360
-0.980284, 1, 305, 128, 368
-0.980288, 177, 193, 304, 256
-0.980322, 345, 177, 408, 304
-0.980412, 1, 49, 256, 176
-0.98045, 337, 225, 464, 288
-0.9806, 93, 233, 124, 296
-0.980633, 273, 33, 336, 160
-0.980647, 213, 97, 244, 160
-0.981015, 93, 313, 124, 375
-0.981023, 409, 249, 440, 312
-0.981031, 225, 89, 352, 152
-0.981055, 445, 273, 476, 336
-0.981075, 57, 161, 120, 224
-0.981178, 257, 145, 500, 272
-0.981251, 209, 121, 272, 184
-0.98137, 153, 265, 216, 328
-0.981483, 433, 241, 464, 368
-0.981539, 341, 193, 372, 256
-0.981618, 65, 185, 192, 248
-0.981629, 313, 129, 376, 192
-0.981738, 257, 193, 384, 256
-0.981739, 437, 305, 468, 368
-0.981902, 129, 289, 160, 352
-0.981913, 317, 1, 348, 128
-0.982004, 289, 113, 352, 240
-0.982009, 281, 225, 344, 352
-0.982056, 97, 161, 160, 224
-0.982227, 17, 257, 48, 320
-0.982351, 225, 193, 288, 256
-0.982366, 297, 41, 360, 104
-0.982432, 97, 209, 224, 272
-0.982512, 49, 129, 176, 256
-0.982534, 129, 97, 256, 224
-0.982534, 77, 177, 108, 304
-0.982548, 273, 17, 400, 144
-0.982568, 33, 193, 64, 320
-0.982608, 185, 241, 248, 368
-0.98274, 405, 241, 436, 368
-0.982749, 321, 313, 448, 375
-0.982828, 429, 241, 460, 304
-0.982851, 393, 193, 456, 320
-0.982891, 105, 145, 168, 272
-0.982902, 1, 129, 128, 256
-0.98302, 341, 177, 372, 304
-0.983036, 177, 105, 304, 168
-0.983084, 177, 241, 304, 304
-0.983088, 145, 289, 208, 352
-0.983201, 257, 65, 320, 128
-0.983218, 81, 129, 144, 375
-0.983304, 105, 289, 136, 352
-0.983308, 333, 97, 364, 224
-0.983311, 209, 25, 336, 88
-0.983479, 321, 97, 448, 224
-0.983523, 145, 145, 208, 272
-0.983655, 85, 209, 116, 272
-0.983704, 77, 273, 108, 336
-0.98372, 265, 17, 328, 80
-0.98378, 281, 1, 344, 256
-0.983803, 209, 65, 272, 320
-0.983823, 13, 193, 44, 320
-0.9839, 257, 233, 384, 296
-0.983906, 337, 97, 400, 224
-0.983958, 353, 97, 416, 160
-0.983983, 57, 297, 88, 360
-0.983992, 237, 97, 268, 224
-0.984099, 401, 233, 464, 296
-0.9841, 313, 249, 344, 312
-0.984147, 273, 273, 336, 336
-0.984277, 241, 33, 272, 160
-0.984333, 469, 241, 500, 368
-0.984359, 33, 161, 96, 224
-0.984364, 113, 273, 240, 336
-0.984366, 345, 225, 408, 288
-0.984512, 177, 105, 240, 168
-0.984512, 233, 1, 296, 256
-0.984558, 313, 305, 376, 368
-0.984641, 1, 241, 64, 304
-0.984713, 49, 209, 80, 336
-0.984731, 289, 257, 416, 320
-0.984792, 329, 81, 392, 144
-0.984797, 249, 257, 312, 320
-0.984934, 81, 241, 112, 368
-0.984972, 249, 193, 312, 256
-0.985058, 345, 201, 408, 264
-0.985062, 105, 161, 136, 288
-0.985068, 85, 161, 116, 224
-0.985125, 225, 65, 352, 128
-0.985126, 9, 161, 72, 224
-0.985136, 389, 281, 420, 344
-0.98519, 45, 273, 76, 336
-0.985198, 33, 129, 96, 256
-0.985297, 121, 313, 184, 375
-0.985321, 17, 209, 144, 272
-0.985322, 153, 201, 216, 264
-0.985386, 297, 17, 360, 80
-0.985452, 241, 25, 272, 88
-0.985454, 313, 177, 344, 304
-0.985564, 345, 129, 408, 375
-0.985683, 249, 89, 312, 152
-0.9857, 201, 177, 232, 304
-0.98583, 113, 97, 176, 224
-0.985834, 121, 129, 184, 375
-0.985888, 149, 289, 180, 352
-0.985955, 97, 193, 128, 256
-0.985956, 65, 161, 192, 224
-0.985968, 281, 193, 344, 256
-0.986211, 333, 257, 364, 320
-0.986296, 65, 241, 96, 368
-0.986352, 109, 265, 140, 328
-0.986409, 249, 1, 312, 128
-0.986429, 413, 273, 444, 336
-0.986498, 337, 201, 464, 264
-0.986596, 201, 185, 232, 248
-0.986638, 265, 177, 296, 304
-0.986694, 425, 201, 488, 264
-0.986809, 329, 177, 360, 304
-0.986869, 305, 113, 432, 176
-0.987051, 65, 161, 96, 288
-0.987066, 113, 49, 176, 176
-0.987108, 177, 81, 240, 144
-0.987152, 53, 161, 84, 288
-0.987158, 369, 281, 432, 344
-0.987264, 217, 25, 280, 88
-0.987292, 329, 49, 360, 176
-0.987458, 129, 73, 256, 136
-0.987471, 153, 161, 216, 224
-0.987492, 233, 233, 296, 296
-0.987519, 9, 129, 72, 375
-0.987527, 401, 273, 432, 336
-0.987545, 433, 193, 464, 320
-0.987561, 13, 201, 44, 264
-0.987625, 1, 313, 64, 375
-0.987685, 13, 225, 44, 288
-0.987708, 129, 185, 256, 248
-0.987774, 133, 241, 164, 368
-0.987823, 17, 161, 144, 224
-0.987853, 149, 241, 180, 368
-0.987867, 153, 97, 216, 352
-0.987896, 449, 249, 480, 312
-0.987917, 241, 81, 272, 144
-0.987953, 185, 97, 248, 224
-0.988145, 5, 257, 36, 320
-0.988203, 225, 113, 256, 240
-0.988209, 105, 169, 136, 232
-0.98823, 297, 177, 328, 304
-0.988256, 257, 1, 320, 256
-0.988271, 241, 177, 272, 304
-0.988275, 121, 193, 184, 320
-0.988339, 97, 49, 224, 176
-0.988359, 117, 305, 148, 368
-0.988436, 161, 49, 288, 112
-0.988443, 177, 217, 304, 280
-0.988447, 305, 65, 368, 128
-0.98851, 241, 1, 304, 375
-0.988516, 301, 241, 332, 304
-0.988522, 257, 305, 384, 368
-0.988524, 281, 97, 344, 352
-0.988639, 169, 289, 232, 352
-0.988642, 57, 305, 120, 336
-0.988645, 281, 177, 312, 304
-0.988654, 81, 305, 112, 368
-0.988667, 289, 121, 352, 184
-0.988681, 81, 97, 144, 224
-0.988685, 193, 305, 256, 368
-0.988714, 257, 281, 384, 344
-0.988732, 85, 129, 116, 256
-0.988743, 57, 161, 88, 224
-0.988755, 129, 113, 256, 176
-0.988757, 153, 225, 216, 288
-0.988858, 333, 241, 364, 368
-0.988902, 9, 129, 72, 256
-0.988969, 65, 273, 96, 336
-0.988972, 161, 193, 416, 256
-0.988997, 417, 297, 448, 360
-0.988997, 313, 49, 344, 176
-0.989041, 321, 105, 352, 168
-0.989117, 193, 49, 256, 176
-0.98916, 461, 249, 492, 312
-0.989196, 185, 217, 248, 280
-0.989238, 153, 97, 216, 224
-0.989284, 41, 189, 104, 220
-0.989295, 241, 113, 368, 176
-0.989317, 433, 1, 496, 128
-0.989348, 265, 129, 328, 256
-0.989358, 353, 177, 480, 240
-0.989397, 177, 81, 304, 144
-0.989418, 217, 1, 280, 375
-0.989419, 65, 249, 128, 280
-0.989471, 45, 161, 76, 224
-0.989487, 1, 273, 256, 336
-0.989533, 73, 161, 104, 224
-0.989591, 453, 193, 484, 320
-0.989615, 273, 225, 336, 288
-0.989648, 25, 309, 88, 340
-0.989704, 21, 305, 52, 368
-0.98974, 241, 57, 272, 120
-0.989759, 301, 41, 332, 104
-0.989802, 345, 97, 376, 224
-0.989843, 345, 105, 376, 168
-0.989849, 193, 265, 320, 328
-0.989885, 425, 169, 488, 232
-0.989905, 9, 197, 72, 228
-0.989909, 81, 305, 144, 336
-0.989924, 385, 285, 448, 316
-0.989929, 17, 245, 80, 276
-0.990004, 65, 261, 128, 292
-0.990009, 417, 129, 480, 375
-0.99002, 57, 281, 120, 312
-0.990044, 33, 293, 96, 324
-0.990078, 65, 189, 128, 220
-0.99012, 209, 109, 272, 140
-0.990145, 105, 313, 136, 375
-0.990197, 433, 317, 496, 348
-0.990267, 425, 265, 488, 296
-0.990302, 321, 25, 352, 88
-0.990308, 37, 233, 68, 296
-0.990333, 81, 317, 144, 348
-0.990352, 33, 265, 96, 296
-0.990376, 57, 293, 120, 324
-0.990387, 333, 281, 364, 344
-0.990393, 409, 301, 472, 332
-0.990401, 185, 97, 248, 352
-0.990417, 129, 161, 192, 224
-0.990437, 121, 293, 184, 324
-0.990443, 73, 205, 136, 236
-0.990506, 113, 129, 176, 192
-0.990514, 57, 321, 120, 352
-0.990521, 81, 289, 144, 320
-0.990542, 1, 241, 256, 304
-0.990597, 101, 113, 132, 240
-0.990602, 145, 25, 272, 88
-0.990602, 185, 257, 248, 320
-0.990608, 1, 309, 64, 340
-0.990613, 57, 237, 120, 268
-0.990624, 317, 113, 348, 240
-0.990635, 469, 193, 500, 320
-0.990655, 233, 169, 296, 232
-0.990679, 377, 233, 440, 296
-0.990682, 417, 329, 480, 360
-0.990684, 409, 317, 472, 348
-0.990718, 81, 233, 112, 296
-0.99077, 385, 305, 448, 336
-0.990812, 285, 249, 316, 312
-0.990815, 249, 97, 280, 224
-0.990819, 217, 185, 248, 248
-0.990855, 185, 193, 248, 224
-0.990858, 1, 185, 256, 248
-0.990858, 25, 321, 88, 352
-0.990866, 121, 305, 184, 336
-0.990879, 33, 277, 96, 308
-0.990893, 49, 205, 112, 236
-0.990921, 33, 217, 96, 248
-0.990957, 1, 281, 64, 312
-0.990977, 1, 297, 64, 328
-0.990988, 409, 277, 472, 308
-0.991, 273, 89, 400, 152
-0.991007, 305, 249, 368, 280
-0.991008, 329, 129, 360, 192
-0.991009, 337, 89, 464, 152
-0.991067, 401, 253, 464, 284
-0.991069, 433, 277, 496, 308
-0.991116, 97, 189, 160, 220
-0.99112, 305, 273, 368, 304
-0.991121, 345, 285, 408, 316
-0.991147, 89, 225, 152, 256
-0.991162, 321, 117, 384, 148
-0.991173, 433, 1, 496, 375
-0.991197, 305, 261, 368, 292
-0.991208, 281, 261, 344, 292
-0.991229, 273, 249, 336, 280
-0.991232, 185, 113, 248, 144
-0.991245, 113, 225, 176, 288
-0.991245, 301, 1, 332, 128
-0.991291, 193, 169, 320, 232
-0.991314, 253, 177, 284, 304
-0.991327, 217, 97, 280, 128
-0.991333, 345, 101, 408, 132
-0.991349, 309, 89, 340, 152
-0.991352, 313, 197, 376, 228
-0.991367, 121, 317, 184, 348
-0.991374, 289, 65, 320, 128
-0.991378, 433, 305, 496, 336
-0.991386, 305, 1, 368, 375
-0.991386, 245, 113, 276, 176
-0.991402, 193, 89, 448, 152
-0.991417, 329, 33, 392, 288
-0.991423, 313, 65, 344, 128
-0.99143, 177, 289, 304, 352
-0.991432, 89, 1, 152, 375
-0.991467, 409, 289, 472, 320
-0.991477, 249, 193, 280, 256
-0.991478, 65, 1, 128, 375
-0.991501, 25, 129, 56, 256
-0.99152, 329, 1, 360, 128
-0.991523, 121, 81, 184, 144
-0.991535, 273, 41, 304, 104
-0.991549, 345, 301, 408, 332
-0.991572, 257, 49, 320, 80
-0.991581, 105, 217, 136, 280
-0.991594, 33, 1, 96, 128
-0.991602, 305, 105, 368, 136
-0.991604, 17, 185, 80, 216
-0.991616, 145, 113, 208, 176
-0.991631, 113, 161, 240, 224
-0.991643, 97, 201, 160, 232
-0.991667, 329, 233, 360, 296
-0.991674, 345, 113, 408, 144
-0.991679, 9, 209, 72, 240
-0.991681, 313, 237, 376, 268
-0.991703, 313, 285, 376, 316
-0.991714, 1, 289, 500, 352
-0.991724, 229, 185, 260, 248
-0.991727, 257, 249, 500, 312
-0.991746, 89, 249, 152, 280
-0.991748, 153, 329, 216, 360
-0.991749, 17, 233, 80, 264
-0.991754, 229, 33, 260, 160
-0.991771, 97, 333, 160, 364
-0.991773, 29, 209, 60, 272
-0.991777, 417, 193, 448, 320
-0.991779, 393, 225, 424, 352
-0.991782, 425, 249, 488, 280
-0.991798, 209, 121, 272, 152
-0.991805, 385, 273, 448, 304
-0.991809, 265, 37, 328, 68
-0.99182, 353, 177, 416, 240
-0.991831, 233, 97, 296, 352
-0.991853, 1, 321, 64, 352
-0.991859, 281, 93, 344, 124
-0.991864, 241, 257, 368, 320
-0.991871, 97, 273, 160, 304
-0.991888, 241, 93, 304, 124
-0.991898, 249, 241, 312, 272
-0.991904, 297, 37, 360, 68
-0.991934, 417, 345, 480, 375
-0.991949, 289, 41, 320, 104
-0.991983, 353, 321, 416, 352
-0.991986, 97, 177, 160, 208
-0.991995, 313, 129, 376, 160
-0.992003, 257, 41, 384, 104
-0.992005, 89, 237, 152, 268
-0.992016, 261, 41, 292, 104
-0.992026, 281, 53, 344, 84
-0.992053, 225, 193, 288, 224
-0.992056, 345, 269, 408, 300
-0.992062, 345, 341, 408, 372
-0.992066, 1, 209, 256, 272
-0.992077, 153, 293, 216, 324
-0.992099, 161, 249, 416, 312
-0.992148, 153, 317, 216, 348
-0.992181, 289, 197, 352, 228
-0.992181, 297, 21, 360, 52
-0.992189, 377, 345, 440, 375
-0.992205, 305, 93, 368, 124
-0.992213, 81, 105, 208, 168
-0.992217, 433, 289, 496, 320
-0.992223, 393, 129, 456, 375
-0.992229, 273, 273, 336, 304
-0.992266, 89, 65, 152, 128
-0.992277, 261, 17, 292, 80
-0.99228, 9, 281, 40, 344
-0.992285, 153, 281, 216, 312
-0.992292, 85, 189, 116, 220
-0.992325, 65, 41, 192, 104
-0.992325, 153, 305, 216, 336
-0.992334, 161, 313, 288, 375
-0.99234, 233, 113, 296, 144
-0.992351, 433, 205, 496, 236
-0.992353, 377, 333, 440, 364
-0.992358, 405, 313, 436, 375
-0.992363, 301, 49, 332, 176
-0.992364, 81, 49, 144, 176
-0.992366, 97, 261, 160, 292
-0.992372, 1, 193, 500, 256
-0.99239, 41, 177, 104, 208
-0.992405, 313, 225, 376, 256
-0.99241, 37, 301, 68, 332
-0.99242, 321, 273, 352, 336
-0.99243, 213, 177, 244, 304
-0.99243, 225, 177, 256, 304
-0.992441, 225, 1, 288, 128
-0.992451, 161, 225, 416, 288
-0.992451, 21, 193, 52, 224
-0.992453, 89, 285, 120, 316
-0.992464, 1, 269, 64, 300
-0.992468, 377, 317, 440, 348
-0.992468, 85, 301, 116, 332
-0.992474, 313, 305, 376, 336
-0.992475, 345, 125, 408, 156
-0.992481, 233, 53, 296, 84
-0.992491, 177, 97, 240, 128
-0.992493, 49, 189, 80, 220
-0.992495, 9, 221, 72, 252
-0.992499, 241, 25, 304, 56
-0.992504, 257, 197, 320, 228
-0.99251, 213, 109, 244, 140
-0.992515, 257, 61, 320, 92
-0.992516, 321, 1, 384, 128
-0.992516, 273, 65, 400, 128
-0.992528, 121, 265, 184, 328
-0.992539, 69, 305, 100, 336
-0.992546, 93, 249, 124, 280
-0.992557, 33, 313, 64, 344
-0.992566, 313, 169, 376, 232
-0.992578, 89, 273, 120, 304
-0.992582, 145, 181, 208, 212
-0.992585, 345, 257, 408, 288
-0.992587, 73, 177, 136, 208
-0.992589, 465, 321, 496, 352
-0.99259, 97, 213, 160, 244
-0.992591, 425, 237, 488, 268
-0.992594, 85, 205, 116, 236
-0.992596, 153, 209, 216, 240
-0.992608, 265, 21, 328, 52
-0.99261, 209, 73, 272, 136
-0.99262, 29, 265, 60, 296
-0.992625, 229, 101, 260, 132
-0.992626, 437, 317, 468, 348
-0.992641, 57, 305, 88, 336
-0.992643, 233, 37, 296, 68
-0.992651, 17, 1, 144, 128
-0.992652, 25, 249, 56, 280
-0.992655, 333, 101, 364, 132
-0.992655, 37, 277, 68, 308
-0.992659, 241, 1, 368, 64
-0.992664, 321, 193, 352, 256
-0.992669, 297, 117, 360, 148
-0.992685, 93, 313, 124, 344
-0.992686, 73, 189, 104, 220
-0.992688, 425, 269, 456, 300
-0.992692, 1, 297, 256, 360
-0.992694, 313, 225, 344, 352
-0.992694, 453, 317, 484, 348
-0.992699, 129, 337, 192, 368
-0.992705, 345, 217, 408, 248
-0.992706, 25, 333, 88, 364
-0.992712, 309, 273, 340, 336
-0.992723, 145, 193, 208, 224
-0.992724, 233, 65, 296, 96
-0.992725, 69, 285, 100, 316
-0.992727, 273, 237, 336, 268
-0.99273, 29, 161, 60, 224
-0.992731, 161, 273, 416, 336
-0.992733, 33, 189, 64, 220
-0.992739, 249, 257, 312, 288
-0.992741, 345, 205, 408, 236
-0.992748, 61, 189, 92, 220
-0.992759, 17, 261, 48, 292
-0.992772, 469, 341, 500, 372
-0.992774, 33, 325, 64, 356
-0.992777, 49, 293, 80, 324
-0.992781, 409, 277, 440, 308
-0.992791, 153, 89, 216, 152
-0.992797, 89, 261, 120, 292
-0.992807, 37, 289, 68, 320
-0.992822, 457, 265, 488, 296
-0.992825, 1, 265, 500, 328
-0.992827, 461, 277, 492, 308
-0.992828, 369, 193, 432, 320
-0.992835, 201, 113, 232, 240
-0.99284, 449, 301, 480, 332
-0.99284, 45, 313, 76, 344
-0.992843, 421, 297, 452, 328
-0.99285, 77, 273, 108, 304
-0.99287, 257, 129, 320, 375
-0.992877, 73, 317, 104, 348
-0.992883, 17, 273, 48, 304
-0.992886, 81, 137, 144, 200
-0.992889, 109, 313, 140, 344
-0.992898, 265, 1, 328, 375
-0.992909, 445, 269, 476, 300
-0.992911, 445, 193, 476, 256
-0.992916, 313, 269, 344, 300
-0.992924, 25, 237, 56, 268
-0.992926, 113, 325, 144, 356
-0.992928, 313, 249, 344, 280
-0.992943, 93, 325, 124, 356
-0.992946, 73, 205, 104, 236
-0.992947, 389, 293, 420, 324
-0.992956, 13, 229, 44, 260
-0.992958, 81, 113, 144, 176
-0.992967, 25, 289, 56, 320
-0.992969, 337, 117, 368, 148
-0.992972, 105, 197, 136, 228
-0.992982, 425, 257, 456, 288
-0.992983, 401, 289, 432, 320
-0.992984, 341, 201, 372, 232
-0.992984, 333, 273, 364, 304
-0.992986, 105, 293, 136, 324
-0.992996, 193, 1, 256, 375
-0.992997, 197, 193, 228, 224
-0.993007, 445, 257, 476, 288
-0.99302, 185, 161, 248, 224
-0.993026, 453, 333, 484, 364
-0.993033, 345, 249, 376, 312
-0.993038, 325, 261, 356, 292
-0.993058, 217, 121, 248, 152
-0.993073, 57, 1, 120, 64
-0.99308, 177, 129, 304, 192
-0.993089, 325, 117, 356, 148
-0.993101, 337, 49, 464, 176
-0.993107, 405, 313, 436, 344
-0.993107, 5, 253, 36, 284
-0.993116, 233, 121, 264, 184
-0.993119, 129, 293, 160, 324
-0.993122, 417, 309, 448, 340
-0.993125, 233, 113, 264, 144
-0.993138, 409, 265, 440, 296
-0.993143, 85, 217, 116, 248
-0.993149, 21, 205, 52, 236
-0.99315, 301, 65, 332, 128
-0.99315, 469, 265, 500, 296
-0.993153, 25, 1, 88, 375
-0.993155, 93, 237, 124, 268
-0.993157, 57, 33, 120, 288
-0.993159, 269, 245, 300, 276
-0.993162, 21, 313, 52, 344
-0.993168, 105, 209, 136, 240
-0.993174, 97, 221, 128, 252
-0.993177, 109, 253, 140, 284
-0.993177, 1, 225, 500, 288
-0.993179, 61, 205, 92, 236
-0.993181, 301, 261, 332, 292
-0.993182, 49, 205, 80, 236
-0.993184, 25, 301, 56, 332
-0.99319, 413, 253, 444, 284
-0.99319, 149, 289, 180, 320
-0.993195, 105, 181, 136, 212
-0.993195, 437, 297, 468, 328
-0.993203, 73, 209, 104, 272
-0.993208, 13, 297, 44, 328
-0.993208, 241, 93, 272, 124
-0.993214, 57, 281, 88, 312
-0.99322, 9, 189, 40, 220
-0.99322, 301, 53, 332, 84
-0.993222, 405, 301, 436, 332
-0.993223, 241, 29, 272, 60
-0.993226, 313, 93, 344, 124
-0.993227, 449, 281, 480, 312
-0.99324, 289, 241, 320, 272
-0.993243, 17, 189, 144, 220
-0.993245, 57, 321, 88, 352
-0.993246, 129, 1, 256, 64
-0.993249, 301, 41, 332, 72
-0.993252, 437, 281, 468, 312
-0.993258, 241, 53, 272, 84
-0.993259, 421, 281, 452, 312
-0.993259, 441, 329, 472, 360
-0.993259, 457, 345, 488, 375
-0.993261, 45, 265, 60, 328
-0.993261, 257, 169, 320, 232
-0.993264, 77, 261, 108, 292
-0.993272, 325, 249, 356, 280
-0.993272, 133, 185, 164, 216
-0.993273, 321, 49, 352, 80
-0.993273, 245, 113, 276, 144
-0.993274, 461, 305, 492, 336
-0.993277, 193, 109, 224, 140
-0.993284, 9, 205, 40, 236
-0.993285, 389, 277, 420, 308
-0.993285, 85, 177, 116, 208
-0.993292, 321, 29, 352, 60
-0.993308, 417, 329, 448, 360
-0.993309, 21, 333, 52, 364
-0.993312, 25, 225, 56, 256
-0.993318, 129, 305, 160, 336
-0.993319, 265, 57, 296, 88
-0.993324, 257, 169, 384, 232
-0.993326, 301, 249, 332, 280
-0.993326, 289, 253, 320, 284
-0.993328, 341, 257, 372, 288
-0.99333, 321, 285, 352, 316
-0.993334, 389, 305, 420, 336
-0.993335, 329, 197, 360, 228
-0.993336, 273, 65, 304, 128
-0.993337, 205, 121, 236, 152
-0.993343, 13, 241, 44, 272
-0.993367, 213, 121, 244, 184
-0.99345, 33, 257, 48, 320
-0.993451, 317, 129, 348, 192
-0.993479, 43, 241, 58, 304
-0.99348, 33, 309, 160, 340
-0.993489, 37, 289, 52, 352
-0.993502, 261, 65, 292, 128
-0.993514, 67, 185, 82, 248
-0.993533, 59, 185, 74, 248
-0.993564, 265, 193, 296, 256
-0.993586, 337, 129, 400, 192
-0.993656, 121, 1, 184, 375
-0.993682, 193, 97, 224, 160
-0.993691, 121, 105, 184, 168
-0.993758, 97, 1, 224, 128
-0.99378, 253, 49, 284, 176
-0.99378, 97, 241, 112, 304
-0.993783, 89, 17, 152, 80
-0.993803, 81, 33, 144, 288
-0.993815, 51, 185, 66, 248
-0.993835, 9, 305, 40, 368
-0.993843, 65, 65, 192, 128
-0.993885, 273, 65, 400, 192
-0.99391, 85, 185, 100, 248
-0.993918, 169, 145, 232, 272
-0.993923, 281, 193, 312, 256
-0.993938, 17, 273, 144, 304
-0.993938, 229, 73, 260, 136
-0.993938, 401, 1, 464, 375
-0.99394, 93, 209, 108, 272
-0.993942, 79, 185, 94, 248
-0.993986, 213, 97, 244, 224
-0.993994, 429, 217, 460, 280
-0.993995, 249, 241, 312, 368
-0.994008, 33, 297, 160, 328
-0.99402, 341, 129, 372, 192
-0.994023, 137, 49, 200, 176
-0.994037, 121, 41, 184, 104
-0.994044, 169, 241, 200, 368
-0.994054, 457, 265, 472, 328
-0.994062, 233, 121, 296, 184
-0.994086, 59, 257, 74, 320
-0.994087, 463, 313, 478, 375
-0.994118, 89, 281, 104, 344
-0.994129, 133, 153, 164, 216
-0.99415, 269, 249, 300, 312
-0.994182, 95, 185, 110, 248
-0.994183, 5, 241, 36, 368
-0.994196, 101, 297, 116, 360
-0.994199, 73, 185, 88, 248
-0.994205, 91, 257, 106, 320
-0.994241, 193, 281, 256, 344
-0.994242, 53, 233, 68, 296
-0.994287, 121, 193, 184, 256
-0.994294, 49, 209, 80, 272
-0.994306, 43, 201, 58, 264
-0.994312, 81, 41, 144, 104
-0.994325, 153, 1, 216, 375
-0.99433, 461, 201, 492, 264
-0.994331, 103, 249, 118, 312
-0.994397, 39, 265, 54, 328
-0.994428, 471, 273, 486, 336
-0.994466, 401, 209, 464, 272
-0.994471, 341, 217, 372, 280
-0.994476, 401, 177, 464, 240
-0.994478, 29, 233, 44, 296
-0.994479, 209, 161, 272, 224
-0.99454, 81, 1, 144, 128
-0.994541, 377, 89, 440, 152
-0.99455, 461, 289, 476, 352
-0.994552, 365, 97, 396, 160
-0.994555, 473, 313, 488, 375
-0.994577, 369, 329, 496, 360
-0.994582, 59, 209, 74, 272
-0.994596, 353, 281, 384, 344
-0.994605, 81, 257, 96, 320
-0.99461, 337, 1, 400, 375
-0.99461, 65, 17, 192, 80
-0.994615, 67, 257, 82, 320
-0.994621, 337, 317, 464, 348
-0.994636, 61, 233, 76, 296
-0.994647, 105, 241, 136, 304
-0.99465, 51, 209, 66, 272
-0.994653, 33, 321, 160, 352
-0.994659, 353, 113, 480, 176
-0.994665, 257, 297, 500, 360
-0.994681, 117, 177, 148, 304
-0.994696, 1, 97, 500, 160
-0.994701, 57, 1, 120, 128
-0.994732, 51, 257, 66, 320
-0.994748, 345, 225, 376, 352
-0.994754, 17, 1, 80, 64
-0.994778, 101, 145, 132, 208
-0.99478, 337, 305, 368, 368
-0.994783, 281, 169, 344, 232
-0.994791, 423, 249, 438, 312
-0.994799, 301, 193, 332, 256
-0.994832, 65, 161, 320, 224
-0.994853, 197, 121, 228, 184
-0.994854, 89, 233, 104, 296
-0.994859, 57, 281, 72, 344
-0.99487, 337, 269, 464, 300
-0.994886, 197, 241, 228, 368
-0.994896, 129, 193, 160, 320
-0.994913, 485, 313, 500, 375
-0.994928, 105, 1, 168, 128
-0.99493, 31, 201, 46, 264
-0.994942, 235, 97, 250, 160
-0.994959, 95, 281, 110, 344
-0.994995, 101, 209, 116, 272
-0.995018, 397, 249, 428, 312
-0.995038, 107, 305, 122, 368
-0.99506, 453, 313, 468, 375
-0.995092, 69, 249, 100, 312
-0.995103, 353, 313, 384, 375
-0.995156, 97, 233, 224, 264
-0.995162, 257, 245, 384, 276
-0.995167, 453, 289, 468, 352
-0.995168, 37, 225, 52, 288
-0.995175, 445, 217, 476, 280
-0.995177, 33, 285, 160, 316
-0.995178, 193, 65, 448, 128
-0.99519, 71, 281, 86, 344
-0.99519, 479, 313, 494, 375
-0.995198, 257, 113, 500, 176
-0.995212, 161, 113, 416, 176
-0.995249, 433, 257, 448, 320
-0.995257, 25, 185, 40, 248
-0.995263, 129, 313, 160, 375
-0.995265, 361, 209, 392, 272
-0.995273, 447, 265, 462, 328
-0.995287, 325, 65, 356, 128
-0.995304, 437, 169, 468, 232
-0.995318, 337, 257, 464, 288
-0.99533, 45, 305, 60, 368
-0.995333, 337, 289, 464, 320
-0.995335, 357, 209, 388, 336
-0.995338, 113, 289, 240, 320
-0.99534, 73, 257, 88, 320
-0.995362, 17, 1, 144, 64
-0.995368, 113, 305, 240, 336
-0.995387, 345, 97, 360, 160
-0.995388, 321, 305, 448, 336
-0.995436, 69, 233, 84, 296
-0.995452, 481, 273, 496, 336
-0.995468, 81, 89, 144, 152
-0.995517, 213, 49, 244, 176
-0.995517, 83, 281, 98, 344
-0.995546, 257, 225, 500, 288
-0.995567, 241, 97, 256, 160
-0.995604, 113, 321, 240, 352
-0.995608, 257, 273, 500, 336
-0.99561, 17, 261, 144, 292
-0.995645, 101, 185, 116, 248
-0.995649, 289, 17, 416, 80
-0.995664, 67, 209, 82, 272
-0.99567, 209, 313, 336, 375
-0.995677, 65, 281, 80, 344
-0.995686, 193, 193, 320, 224
-0.995702, 109, 249, 124, 312
-0.995721, 101, 273, 116, 336
-0.995724, 335, 97, 350, 160
-0.995739, 65, 197, 192, 228
-0.995756, 441, 273, 456, 336
-0.995765, 433, 137, 496, 200
-0.995771, 289, 1, 320, 128
-0.99578, 97, 245, 224, 276
-0.995812, 37, 313, 52, 375
-0.995813, 131, 297, 146, 360
-0.995846, 77, 281, 92, 344
-0.995872, 81, 129, 208, 192
-0.995912, 369, 301, 496, 332
-0.995916, 225, 97, 352, 128
-0.995982, 405, 193, 436, 320
-0.995998, 29, 281, 44, 344
-0.995998, 189, 177, 220, 304
-0.996013, 443, 305, 458, 368
-0.996016, 85, 209, 100, 272
-0.996022, 77, 209, 92, 272
-0.996037, 21, 209, 36, 272
-0.996043, 177, 113, 304, 144
-0.996043, 33, 49, 160, 176
-0.996059, 369, 97, 496, 224
-0.996067, 97, 221, 224, 252
-0.996072, 65, 273, 192, 304
-0.996078, 377, 1, 440, 375
-0.996087, 369, 137, 496, 200
-0.9961, 441, 249, 456, 312
-0.996106, 41, 177, 56, 240
-0.996117, 261, 113, 292, 240
-0.996126, 75, 233, 90, 296
-0.996127, 17, 201, 144, 232
-0.996131, 81, 233, 96, 296
-0.996135, 107, 281, 122, 344
-0.996136, 161, 313, 416, 375
-0.996146, 405, 281, 420, 344
-0.996154, 257, 197, 384, 228
-0.99617, 113, 333, 240, 364
-0.996213, 133, 129, 164, 256
-0.996235, 321, 329, 448, 360
-0.996257, 425, 9, 488, 72
-0.996261, 17, 249, 144, 280
-0.996268, 97, 17, 352, 80
-0.99627, 225, 97, 240, 160
-0.996285, 97, 185, 224, 216
-0.996292, 177, 245, 304, 276
-0.996317, 33, 333, 160, 364
-0.996325, 321, 25, 384, 88
-0.996352, 225, 17, 480, 80
-0.996361, 349, 49, 380, 176
-0.996361, 415, 257, 430, 320
-0.996372, 353, 193, 368, 256
-0.996372, 337, 345, 464, 375
-0.996386, 257, 265, 384, 296
-0.996392, 89, 305, 104, 368
-0.996413, 329, 105, 344, 168
-0.99645, 1, 313, 500, 375
-0.996467, 1, 121, 500, 184
-0.996469, 305, 169, 432, 232
-0.996475, 351, 257, 366, 320
-0.996484, 23, 257, 38, 320
-0.99649, 97, 209, 224, 240
-0.996504, 233, 313, 296, 375
-0.99652, 51, 281, 66, 344
-0.996526, 53, 305, 68, 368
-0.99653, 225, 21, 352, 52
-0.996544, 209, 45, 336, 76
-0.996549, 351, 113, 366, 176
-0.996551, 107, 209, 122, 272
-0.996558, 337, 245, 464, 276
-0.996563, 121, 1, 184, 256
-0.996581, 181, 241, 212, 368
-0.996585, 97, 161, 112, 224
-0.996585, 217, 97, 232, 160
-0.996603, 209, 69, 336, 100
-0.996604, 207, 113, 222, 176
-0.996613, 203, 185, 218, 248
-0.996614, 257, 193, 500, 256
-0.99663, 361, 145, 392, 272
-0.996702, 97, 57, 352, 120
-0.996706, 185, 1, 248, 256
-0.996709, 65, 97, 320, 160
-0.996717, 337, 65, 464, 128
-0.996757, 399, 289, 414, 352
-0.996776, 97, 261, 224, 292
-0.996778, 441, 1, 472, 128
-0.996811, 1, 49, 500, 112
-0.996811, 177, 257, 304, 288
-0.996813, 3, 281, 18, 344
-0.99682, 305, 121, 432, 152
-0.996823, 301, 225, 332, 352
-0.996836, 31, 177, 46, 240
-0.996836, 393, 281, 408, 344
-0.996837, 349, 281, 364, 344
-0.996838, 463, 265, 478, 328
-0.99684, 95, 305, 110, 368
-0.996849, 225, 113, 352, 144
-0.996851, 27, 249, 42, 280
-0.996857, 327, 249, 342, 312
-0.996862, 333, 129, 364, 375
-0.996892, 51, 161, 66, 224
-0.996909, 91, 297, 106, 328
-0.996924, 209, 33, 336, 64
-0.996928, 85, 161, 100, 224
-0.996941, 373, 97, 404, 224
-0.996947, 467, 241, 482, 304
-0.996959, 431, 233, 446, 296
-0.996964, 337, 209, 464, 240
-0.996977, 23, 233, 38, 296
-0.996988, 163, 289, 178, 352
-0.997, 247, 17, 262, 80
-0.997006, 253, 1, 284, 128
-0.997008, 107, 185, 122, 248
-0.997013, 305, 137, 432, 200
-0.99703, 31, 305, 46, 368
-0.997044, 19, 185, 34, 248
-0.997048, 161, 169, 416, 232
-0.99706, 1, 73, 256, 136
-0.997066, 137, 289, 152, 352
-0.997068, 31, 261, 46, 292
-0.997076, 209, 57, 336, 88
-0.997084, 249, 113, 264, 176
-0.997085, 209, 85, 336, 116
-0.997098, 45, 273, 60, 304
-0.997098, 59, 161, 74, 224
-0.997099, 315, 249, 330, 312
-0.997105, 17, 49, 144, 112
-0.99712, 289, 281, 416, 312
-0.997136, 113, 113, 144, 240
-0.997137, 225, 41, 480, 104
-0.99714, 67, 305, 82, 368
-0.997147, 39, 305, 54, 336
-0.997151, 71, 161, 86, 224
-0.997158, 17, 25, 144, 88
-0.997161, 113, 277, 240, 308
-0.997173, 289, 341, 416, 372
-0.997173, 245, 73, 260, 136
-0.997177, 341, 129, 356, 192
-0.997182, 449, 241, 464, 304
-0.997183, 85, 129, 116, 375
-0.997183, 427, 273, 442, 336
-0.997186, 439, 225, 454, 288
-0.997203, 187, 97, 202, 160
-0.997206, 369, 129, 432, 375
-0.997212, 301, 65, 316, 128
-0.997219, 229, 65, 260, 320
-0.997229, 417, 281, 432, 344
-0.997235, 277, 113, 308, 240
-0.997237, 59, 305, 74, 368
-0.997243, 39, 281, 54, 312
-0.997257, 273, 233, 400, 264
-0.997258, 23, 189, 38, 220
-0.997272, 115, 249, 130, 312
-0.997277, 91, 285, 106, 316
-0.997277, 121, 241, 152, 368
-0.997282, 177, 229, 304, 260
-0.997284, 63, 261, 78, 292
-0.997293, 433, 313, 448, 375
-0.997313, 85, 261, 100, 292
-0.997314, 97, 249, 112, 280
-0.997315, 329, 281, 344, 344
-0.997322, 71, 261, 86, 292
-0.997326, 337, 233, 464, 264
-0.997331, 277, 1, 308, 128
-0.997332, 353, 9, 480, 72
-0.997336, 101, 305, 116, 336
-0.99734, 143, 289, 158, 352
-0.99735, 33, 129, 64, 375
-0.997359, 43, 261, 58, 292
-0.997366, 73, 129, 104, 375
-0.99737, 103, 317, 118, 348
-0.997394, 99, 189, 114, 220
-0.997414, 289, 317, 416, 348
-0.997416, 33, 273, 48, 304
-0.997438, 161, 101, 288, 132
-0.997445, 99, 293, 114, 324
-0.997457, 113, 197, 240, 228
-0.997474, 369, 1, 496, 128
-0.997482, 1, 169, 500, 232
-0.997495, 471, 277, 486, 308
-0.997499, 1, 193, 32, 320
-0.997502, 51, 261, 66, 292
-0.997502, 85, 189, 100, 220
-0.997504, 71, 273, 86, 304
-0.997506, 381, 241, 412, 368
-0.997513, 433, 257, 448, 288
-0.997534, 103, 253, 118, 284
-0.997539, 45, 309, 60, 340
-0.997544, 51, 189, 66, 220
-0.997553, 93, 237, 108, 268
-0.997553, 1, 25, 500, 88
-0.997555, 93, 205, 108, 236
-0.997577, 109, 249, 124, 280
-0.997577, 99, 237, 114, 268
-0.997578, 241, 33, 272, 288
-0.997578, 337, 221, 464, 252
-0.99759, 35, 245, 50, 276
-0.997591, 461, 317, 476, 348
-0.997594, 451, 261, 466, 292
-0.997603, 45, 245, 60, 276
-0.997607, 273, 221, 400, 252
-0.997618, 85, 273, 100, 304
-0.997626, 51, 209, 66, 240
-0.997626, 53, 277, 68, 308
-0.997627, 97, 261, 112, 292
-0.997632, 63, 273, 78, 304
-0.997639, 129, 89, 256, 120
-0.997641, 79, 189, 94, 220
-0.997648, 429, 269, 444, 300
-0.99766, 95, 309, 110, 340
-0.997664, 449, 313, 464, 344
-0.997665, 35, 329, 50, 360
-0.997666, 81, 173, 208, 204
-0.997679, 71, 189, 86, 220
-0.997686, 459, 297, 474, 328
-0.997693, 337, 197, 464, 228
-0.997702, 83, 305, 98, 336
-0.997703, 59, 245, 74, 276
-0.99771, 17, 225, 144, 256
-0.99771, 25, 1, 88, 256
-0.99771, 67, 249, 82, 280
-0.997717, 219, 109, 234, 140
-0.997717, 85, 205, 100, 236
-0.997717, 79, 205, 94, 236
-0.997723, 421, 297, 436, 328
-0.997727, 423, 261, 438, 292
-0.997732, 85, 249, 100, 280
-0.997733, 33, 189, 48, 220
-0.997735, 81, 285, 96, 316
-0.997737, 455, 317, 470, 348
-0.997741, 27, 237, 42, 268
-0.997742, 53, 245, 68, 276
-0.997743, 17, 177, 144, 208
-0.997747, 333, 33, 364, 288
-0.99775, 289, 49, 320, 176
-0.997756, 417, 281, 432, 312
-0.997763, 17, 237, 144, 268
-0.997766, 75, 305, 90, 336
-0.997766, 57, 265, 72, 296
-0.997766, 427, 289, 442, 320
-0.997768, 193, 345, 320, 375
-0.997775, 305, 113, 336, 240
-0.99779, 33, 233, 48, 264
-0.997791, 63, 189, 78, 220
-0.997792, 177, 209, 304, 240
-0.997792, 1, 73, 500, 136
-0.997793, 59, 309, 74, 340
-0.997801, 45, 129, 76, 375
-0.997801, 407, 285, 422, 316
-0.997816, 79, 261, 94, 292
-0.99782, 57, 189, 72, 220
-0.997841, 51, 313, 66, 344
-0.997846, 273, 133, 400, 164
-0.997847, 129, 117, 256, 148
-0.997851, 91, 273, 106, 304
-0.997853, 39, 293, 54, 324
-0.997859, 297, 1, 328, 256
-0.997859, 89, 225, 104, 256
-0.997861, 43, 189, 58, 220
-0.997864, 289, 293, 416, 324
-0.997865, 177, 269, 304, 300
-0.99787, 435, 269, 450, 300
-0.997882, 457, 261, 472, 292
-0.997887, 63, 205, 78, 236
-0.99789, 73, 205, 88, 236
-0.997899, 1, 137, 128, 200
-0.997903, 65, 305, 80, 336
-0.997905, 467, 317, 482, 348
-0.997906, 101, 281, 116, 312
-0.997907, 43, 225, 58, 256
-0.997912, 23, 225, 38, 256
-0.997914, 225, 105, 240, 136
-0.997916, 305, 109, 432, 140
-0.997917, 37, 261, 52, 292
-0.997919, 27, 205, 42, 236
-0.997921, 289, 113, 320, 240
-0.997921, 97, 321, 112, 352
-0.997925, 401, 289, 416, 320
-0.997927, 423, 273, 438, 304
-0.997929, 233, 101, 248, 132
-0.997933, 239, 101, 254, 132
-0.997939, 17, 213, 144, 244
-0.997941, 107, 329, 122, 360
-0.997944, 33, 285, 48, 316
-0.997946, 317, 1, 348, 256
-0.997954, 443, 313, 458, 344
-0.997956, 65, 121, 320, 184
-0.997958, 225, 125, 352, 156
-0.997966, 93, 49, 124, 176
-0.997966, 439, 257, 454, 288
-0.997969, 465, 301, 480, 332
-0.997973, 321, 97, 352, 352
-0.997975, 345, 101, 360, 132
-0.997975, 445, 269, 460, 300
-0.997986, 77, 273, 92, 304
-0.997993, 51, 301, 66, 332
-0.997993, 285, 1, 316, 256
-0.997995, 209, 117, 224, 148
-0.998001, 461, 277, 476, 308
-0.998008, 5, 129, 36, 256
-0.998009, 481, 341, 496, 372
-0.998013, 257, 329, 384, 360
-0.998014, 43, 205, 58, 236
-0.998015, 481, 269, 496, 300
-0.998021, 161, 61, 288, 92
-0.998032, 451, 301, 466, 332
-0.998034, 273, 305, 400, 336
-0.998037, 91, 257, 106, 288
-0.998039, 153, 97, 184, 224
-0.998046, 257, 169, 500, 232
-0.998062, 57, 129, 88, 375
-0.998079, 479, 321, 494, 352
-0.998079, 57, 205, 72, 236
-0.998089, 87, 317, 102, 348
-0.99809, 67, 237, 82, 268
-0.99809, 253, 109, 268, 140
-0.998098, 153, 145, 184, 272
-0.998105, 77, 245, 92, 276
-0.998107, 29, 297, 44, 328
-0.998107, 75, 285, 90, 316
-0.998116, 469, 265, 484, 296
-0.99812, 409, 301, 424, 332
-0.998127, 65, 285, 80, 316
-0.998131, 113, 101, 240, 132
-0.998133, 145, 29, 272, 60
-0.998136, 101, 205, 116, 236
-0.998138, 37, 317, 52, 348
-0.998139, 353, 113, 480, 144
-0.998141, 99, 217, 114, 248
-0.998143, 245, 109, 260, 140
-0.998148, 33, 221, 48, 252
-0.998148, 47, 289, 62, 320
-0.998154, 93, 185, 108, 216
-0.998155, 59, 225, 74, 256
-0.998157, 51, 225, 66, 256
-0.998158, 455, 281, 470, 312
-0.998166, 473, 321, 488, 352
-0.998183, 257, 61, 384, 92
-0.998214, 1, 113, 128, 176
-0.998219, 273, 209, 400, 240
-0.998223, 105, 129, 136, 375
-0.998242, 65, 53, 192, 84
-0.998252, 145, 129, 272, 160
-0.998273, 273, 21, 400, 52
-0.998281, 161, 317, 288, 348
-0.998332, 305, 41, 432, 104
-0.998339, 1, 17, 256, 80
-0.998362, 409, 303, 440, 318
-0.998362, 73, 307, 104, 322
-0.998364, 273, 63, 304, 78
-0.998364, 25, 237, 56, 252
-0.998364, 469, 283, 500, 298
-0.998364, 85, 245, 116, 260
-0.998365, 449, 333, 480, 348
-0.998366, 325, 261, 356, 276
-0.998366, 97, 219, 128, 234
-0.998367, 17, 289, 48, 304
-0.998367, 449, 311, 480, 326
-0.998368, 177, 301, 304, 332
-0.998369, 49, 209, 80, 224
-0.998369, 45, 315, 76, 330
-0.99837, 429, 245, 460, 260
-0.99837, 429, 311, 460, 326
-0.998371, 261, 65, 292, 80
-0.998371, 413, 277, 444, 292
-0.998371, 105, 295, 136, 310
-0.998373, 13, 237, 44, 252
-0.998373, 13, 231, 44, 246
-0.998374, 437, 277, 468, 292
-0.998375, 417, 259, 448, 274
-0.998375, 25, 243, 56, 258
-0.998375, 241, 111, 272, 126
-0.998375, 293, 253, 324, 268
-0.998378, 85, 201, 116, 216
-0.998378, 425, 319, 456, 334
-0.998378, 469, 289, 500, 304
-0.998379, 13, 263, 44, 278
-0.998381, 77, 281, 108, 296
-0.998381, 105, 301, 136, 316
-0.998381, 437, 265, 468, 280
-0.998382, 205, 123, 236, 138
-0.998383, 97, 207, 128, 222
-0.998383, 45, 287, 76, 302
-0.998383, 273, 245, 304, 260
-0.998384, 29, 333, 60, 348
-0.998384, 65, 207, 96, 222
-0.998384, 297, 245, 328, 260
-0.998385, 409, 293, 440, 308
-0.998387, 425, 295, 456, 310
-0.998387, 333, 111, 364, 126
-0.998389, 17, 283, 48, 298
-0.99839, 85, 221, 116, 236
-0.998391, 397, 309, 428, 324
-0.998391, 193, 125, 224, 140
-0.998391, 465, 271, 496, 286
-0.998392, 25, 299, 56, 314
-0.998394, 313, 265, 344, 280
-0.998394, 217, 123, 248, 138
-0.998394, 457, 283, 488, 298
-0.998394, 13, 191, 44, 206
-0.998395, 449, 295, 480, 310
-0.998397, 457, 361, 488, 375
-0.998399, 97, 331, 128, 346
-0.9984, 301, 263, 332, 278
-0.998401, 57, 291, 88, 306
-0.998402, 45, 321, 76, 336
-0.998404, 329, 267, 360, 282
-0.998404, 109, 307, 140, 322
-0.998404, 145, 13, 272, 44
-0.998404, 53, 189, 84, 204
-0.998408, 309, 129, 340, 375
-0.998412, 17, 273, 48, 288
-0.998413, 105, 201, 136, 216
-0.998413, 461, 337, 492, 352
-0.998413, 89, 311, 120, 326
-0.998413, 261, 249, 292, 264
-0.998416, 409, 267, 440, 282
-0.998417, 313, 253, 344, 268
-0.998418, 417, 253, 448, 268
-0.99842, 341, 201, 372, 216
-0.99842, 69, 113, 100, 240
-0.99842, 93, 257, 124, 272
-0.998422, 433, 289, 464, 304
-0.998423, 85, 215, 116, 230
-0.998425, 33, 199, 64, 214
-0.998425, 453, 263, 484, 278
-0.998426, 105, 323, 136, 338
-0.998426, 45, 309, 76, 324
-0.998428, 113, 331, 144, 346
-0.998431, 437, 325, 468, 340
-0.998431, 253, 243, 284, 258
-0.998432, 413, 311, 444, 326
-0.998432, 109, 313, 140, 328
-0.998433, 393, 291, 424, 306
-0.998437, 453, 277, 484, 292
-0.998437, 421, 271, 452, 286
-0.998438, 213, 117, 244, 132
-0.998439, 25, 205, 56, 220
-0.998439, 201, 193, 232, 208
-0.998441, 41, 191, 72, 206
-0.998441, 469, 343, 500, 358
-0.998443, 25, 249, 56, 264
-0.998444, 129, 77, 256, 108
-0.998446, 37, 303, 68, 318
-0.998447, 73, 321, 104, 336
-0.998448, 29, 283, 60, 298
-0.99845, 425, 265, 456, 280
-0.998452, 89, 301, 120, 316
-0.998456, 425, 277, 456, 292
-0.998456, 405, 285, 436, 300
-0.998456, 21, 199, 52, 214
-0.998458, 89, 295, 120, 310
-0.998459, 93, 317, 124, 332
-0.99846, 177, 281, 304, 312
-0.998461, 13, 257, 44, 272
-0.998462, 81, 149, 208, 180
-0.998469, 33, 323, 64, 338
-0.99847, 273, 93, 400, 124
-0.998472, 229, 105, 260, 120
-0.998473, 69, 297, 100, 312
-0.998474, 45, 293, 76, 308
-0.998474, 313, 259, 344, 274
-0.998475, 25, 257, 56, 272
-0.998475, 29, 273, 60, 288
-0.998475, 433, 317, 496, 332
-0.998479, 89, 275, 120, 290
-0.99848, 69, 291, 100, 306
-0.998486, 41, 297, 104, 312
-0.998486, 333, 105, 364, 120
-0.998487, 465, 277, 496, 292
-0.998487, 377, 291, 440, 306
-0.99849, 89, 269, 120, 284
-0.998493, 33, 309, 64, 324
-0.998494, 93, 323, 124, 338
-0.998497, 89, 287, 120, 302
-0.998498, 85, 189, 116, 204
-0.9985, 85, 207, 116, 222
-0.998502, 89, 281, 120, 296
-0.998503, 65, 263, 128, 278
-0.998505, 145, 41, 272, 72
-0.998506, 81, 303, 144, 318
-0.998508, 93, 263, 124, 278
-0.998511, 9, 209, 72, 224
-0.998512, 25, 193, 56, 208
-0.998512, 81, 319, 144, 334
-0.998512, 97, 251, 128, 266
-0.998513, 25, 191, 88, 206
-0.998513, 57, 191, 120, 206
-0.998515, 65, 275, 128, 290
-0.998515, 25, 267, 56, 282
-0.998516, 445, 271, 476, 286
-0.998517, 65, 253, 128, 268
-0.998519, 9, 129, 40, 375
-0.998519, 25, 291, 88, 306
-0.99852, 41, 309, 104, 324
-0.998521, 453, 319, 484, 334
-0.998528, 25, 315, 88, 330
-0.998529, 65, 269, 128, 284
-0.998529, 209, 111, 272, 126
-0.99853, 241, 341, 368, 372
-0.998531, 37, 241, 52, 368
-0.998531, 433, 271, 496, 286
-0.998534, 29, 289, 60, 304
-0.998537, 57, 285, 120, 300
-0.998539, 437, 317, 468, 332
-0.998539, 409, 273, 472, 288
-0.998542, 33, 285, 96, 300
-0.998544, 409, 281, 472, 296
-0.998544, 33, 275, 96, 290
-0.998545, 57, 207, 120, 222
-0.998546, 409, 297, 472, 312
-0.998547, 257, 41, 384, 72
-0.998549, 9, 201, 72, 216
-0.99855, 433, 271, 464, 286
-0.998554, 41, 323, 104, 338
-0.998554, 409, 263, 472, 278
-0.998555, 1, 293, 64, 308
-0.99856, 1, 309, 64, 324
-0.998561, 47, 209, 62, 336
-0.998562, 305, 259, 368, 274
-0.998563, 17, 249, 80, 264
-0.998563, 57, 245, 120, 260
-0.998565, 65, 293, 128, 308
-0.998566, 1, 319, 64, 334
-0.998566, 193, 193, 256, 208
-0.998568, 433, 281, 496, 296
-0.998571, 81, 313, 144, 328
-0.998571, 33, 89, 160, 152
-0.998572, 33, 267, 96, 282
-0.998576, 385, 297, 448, 312
-0.998577, 33, 209, 96, 224
-0.998583, 401, 325, 464, 340
-0.998586, 433, 339, 496, 354
-0.998586, 385, 313, 448, 328
-0.998586, 409, 257, 472, 272
-0.998587, 97, 333, 160, 348
-0.998587, 273, 265, 336, 280
-0.998589, 25, 259, 88, 274
-0.998591, 89, 289, 152, 304
-0.998593, 377, 285, 440, 300
-0.998594, 209, 119, 272, 134
-0.998594, 25, 303, 88, 318
-0.998594, 313, 201, 376, 216
-0.998596, 41, 201, 104, 216
-0.998596, 1, 49, 256, 112
-0.998597, 433, 265, 496, 280
-0.9986, 313, 283, 376, 298
-0.9986, 273, 259, 336, 274
-0.998601, 273, 245, 336, 260
-0.998602, 313, 125, 376, 140
-0.998602, 121, 305, 184, 320
-0.998603, 89, 233, 152, 248
-0.998603, 97, 189, 160, 204
-0.998605, 89, 295, 152, 310
-0.998605, 305, 267, 368, 282
-0.998605, 257, 251, 320, 266
-0.998605, 345, 105, 408, 120
-0.998605, 1, 287, 64, 302
-0.998606, 425, 287, 488, 302
-0.998606, 417, 333, 480, 348
-0.998607, 81, 325, 144, 340
-0.998608, 97, 203, 160, 218
-0.998609, 249, 245, 312, 260
-0.99861, 129, 293, 192, 308
-0.99861, 305, 249, 368, 264
-0.998611, 9, 215, 72, 230
-0.998612, 409, 303, 472, 318
-0.998614, 209, 105, 272, 120
-0.998616, 1, 299, 64, 314
-0.998617, 33, 315, 64, 330
-0.998618, 305, 275, 368, 290
-0.998618, 377, 303, 440, 318
-0.998619, 49, 239, 112, 254
-0.998619, 89, 251, 152, 266
-0.998621, 105, 197, 168, 212
-0.998622, 313, 119, 376, 134
-0.998622, 345, 299, 408, 314
-0.998622, 185, 119, 248, 134
-0.998622, 241, 285, 368, 316
-0.998623, 17, 243, 80, 258
-0.998624, 193, 1, 320, 64
-0.998624, 1, 193, 64, 208
-0.998624, 41, 217, 104, 232
-0.998625, 401, 291, 464, 306
-0.998626, 337, 185, 464, 216
-0.998626, 417, 357, 480, 372
-0.998626, 369, 173, 496, 204
-0.998626, 265, 49, 296, 176
-0.998629, 345, 311, 408, 326
-0.998629, 103, 241, 118, 368
-0.998629, 281, 251, 344, 266
-0.99863, 305, 107, 368, 122
-0.99863, 313, 241, 376, 256
-0.99863, 409, 319, 472, 334
-0.99863, 345, 111, 408, 126
-0.998632, 225, 243, 288, 258
-0.998632, 345, 287, 408, 302
-0.998633, 201, 125, 264, 140
-0.998634, 57, 303, 120, 318
-0.998635, 121, 329, 184, 344
-0.998639, 89, 239, 152, 254
-0.99864, 121, 299, 184, 314
-0.998641, 81, 225, 144, 240
-0.998643, 337, 293, 400, 308
-0.998643, 345, 305, 408, 320
-0.998645, 121, 315, 184, 330
-0.998645, 385, 269, 448, 284
-0.998646, 345, 117, 408, 132
-0.998647, 281, 277, 344, 292
-0.998649, 353, 125, 480, 156
-0.998651, 417, 311, 480, 326
-0.998651, 1, 325, 64, 340
-0.998652, 177, 113, 240, 128
-0.998652, 89, 219, 152, 234
-0.998652, 433, 323, 496, 338
-0.998653, 345, 99, 408, 114
-0.998654, 321, 113, 384, 128
-0.998654, 41, 185, 104, 200
-0.998656, 97, 183, 160, 198
-0.998657, 153, 333, 216, 348
-0.998658, 33, 223, 96, 238
-0.998658, 257, 43, 320, 58
-0.998659, 281, 199, 344, 214
-0.99866, 73, 213, 136, 228
-0.99866, 121, 321, 184, 336
-0.99866, 257, 63, 320, 78
-0.998661, 73, 201, 136, 216
-0.998661, 345, 321, 408, 336
-0.998662, 233, 101, 296, 116
-0.998662, 345, 343, 408, 358
-0.998672, 97, 209, 112, 336
-0.998682, 61, 209, 76, 336
-0.998691, 257, 185, 384, 216
-0.998708, 161, 329, 288, 360
-0.998712, 85, 209, 100, 336
-0.998712, 31, 225, 46, 352
-0.998713, 145, 345, 272, 375
-0.998717, 345, 129, 376, 375
-0.998718, 145, 181, 272, 212
-0.998726, 65, 25, 192, 56
-0.998734, 153, 1, 216, 256
-0.998738, 41, 193, 56, 320
-0.99874, 225, 233, 352, 264
-0.998755, 257, 81, 384, 112
-0.998761, 53, 209, 68, 336
-0.998766, 201, 129, 232, 375
-0.998767, 453, 129, 484, 256
-0.998803, 103, 193, 118, 320
-0.998803, 217, 65, 248, 320
-0.998805, 69, 209, 84, 336
-0.998814, 457, 241, 472, 368
-0.998842, 137, 81, 168, 208
-0.998852, 225, 9, 352, 40
-0.998857, 293, 97, 324, 352
-0.998874, 149, 129, 180, 375
-0.998885, 65, 37, 192, 68
-0.998891, 261, 225, 292, 352
-0.998897, 141, 193, 172, 320
-0.9989, 193, 181, 320, 212
-0.998913, 289, 225, 320, 352
-0.998913, 91, 241, 106, 368
-0.998923, 51, 161, 66, 288
-0.998923, 189, 113, 220, 240
-0.998932, 25, 225, 40, 352
-0.998941, 59, 161, 74, 288
-0.998956, 65, 69, 192, 100
-0.998956, 93, 161, 108, 288
-0.99896, 337, 97, 464, 128
-0.998967, 109, 241, 124, 368
-0.998983, 77, 209, 92, 336
-0.998986, 81, 137, 208, 168
-0.998995, 257, 137, 384, 200
-0.998995, 67, 161, 82, 288
-0.999013, 65, 81, 192, 112
-0.999031, 449, 97, 480, 352
-0.999032, 29, 177, 44, 304
-0.999033, 471, 241, 486, 368
-0.999043, 305, 81, 432, 112
-0.999044, 353, 177, 368, 304
-0.999044, 451, 241, 466, 368
-0.99905, 65, 1, 192, 32
-0.99905, 241, 49, 256, 176
-0.999051, 75, 161, 90, 288
-0.999057, 129, 129, 160, 375
-0.999061, 417, 241, 432, 368
-0.999072, 87, 161, 102, 288
-0.999094, 341, 97, 356, 224
-0.999102, 235, 97, 250, 224
-0.999103, 437, 129, 468, 375
-0.999108, 273, 1, 304, 256
-0.999113, 19, 193, 34, 320
-0.999113, 253, 1, 284, 256
-0.999135, 241, 317, 368, 348
-0.999136, 81, 161, 208, 192
-0.999147, 347, 97, 362, 224
-0.999151, 21, 129, 52, 375
-0.999156, 439, 241, 454, 368
-0.999158, 485, 241, 500, 368
-0.999165, 109, 193, 124, 320
-0.999169, 61, 1, 92, 128
-0.999173, 241, 113, 256, 240
-0.999179, 479, 225, 494, 352
-0.999187, 425, 241, 440, 368
-0.999192, 445, 241, 460, 368
-0.999212, 431, 241, 446, 368
-0.999214, 129, 137, 256, 200
-0.999224, 81, 161, 96, 288
-0.999228, 463, 241, 478, 368
-0.999232, 353, 41, 480, 104
-0.999238, 17, 33, 144, 64
-0.999244, 265, 129, 296, 375
-0.999245, 425, 129, 456, 375
-0.999248, 65, 109, 192, 140
-0.999254, 35, 177, 50, 304
-0.999263, 331, 1, 346, 128
-0.999265, 369, 161, 496, 192
-0.99928, 247, 113, 262, 240
-0.99928, 457, 1, 488, 128
-0.99929, 281, 129, 312, 375
-0.999291, 203, 177, 218, 304
-0.999292, 321, 177, 336, 304
-0.999293, 327, 177, 342, 304
-0.9993, 271, 177, 286, 304
-0.999301, 369, 145, 496, 176
-0.999308, 65, 13, 192, 44
-0.999317, 335, 49, 350, 176
-0.999336, 265, 177, 280, 304
-0.999337, 133, 241, 148, 368
-0.999346, 333, 177, 348, 304
-0.999352, 105, 145, 120, 272
-0.999355, 247, 33, 262, 160
-0.999357, 325, 1, 340, 128
-0.999358, 309, 177, 324, 304
-0.999363, 145, 241, 160, 368
-0.999364, 341, 49, 356, 176
-0.999364, 303, 177, 318, 304
-0.999367, 281, 177, 296, 304
-0.999373, 313, 1, 328, 128
-0.999377, 253, 177, 268, 304
-0.999378, 17, 49, 144, 80
-0.99938, 259, 177, 274, 304
-0.999387, 139, 241, 154, 368
-0.999387, 287, 177, 302, 304
-0.999387, 335, 97, 350, 224
-0.999389, 439, 193, 454, 320
-0.999392, 341, 177, 356, 304
-0.999397, 17, 13, 144, 44
-0.999399, 315, 177, 330, 304
-0.999404, 161, 33, 192, 160
-0.999407, 161, 137, 416, 200
-0.999411, 431, 193, 446, 320
-0.999415, 209, 113, 224, 240
-0.999425, 449, 193, 464, 320
-0.999428, 161, 241, 176, 368
-0.999441, 81, 33, 112, 288
-0.999443, 297, 177, 312, 304
-0.999449, 403, 241, 418, 368
-0.999453, 425, 145, 488, 272
-0.999456, 307, 1, 322, 128
-0.999467, 305, 53, 432, 84
-0.99947, 463, 177, 478, 304
-0.999471, 411, 241, 426, 368
-0.999472, 129, 1, 192, 128
-0.999474, 105, 33, 136, 288
-0.999474, 153, 241, 168, 368
-0.999476, 385, 33, 448, 160
-0.999478, 329, 113, 344, 240
-0.999481, 229, 97, 244, 224
-0.999487, 99, 145, 114, 272
-0.999492, 327, 225, 342, 352
-0.999492, 235, 49, 250, 176
-0.999497, 115, 225, 130, 352
-0.999502, 395, 241, 410, 368
-0.999503, 349, 241, 364, 368
-0.999504, 253, 97, 268, 224
-0.999505, 347, 177, 362, 304
-0.999507, 347, 49, 362, 176
-0.999509, 319, 1, 334, 128
-0.999511, 29, 129, 44, 256
-0.999513, 425, 193, 440, 320
-0.999514, 213, 177, 228, 304
-0.999521, 315, 49, 330, 176
-0.999521, 65, 93, 192, 124
-0.99953, 247, 177, 262, 304
-0.999531, 239, 177, 254, 304
-0.999532, 149, 49, 180, 176
-0.999537, 225, 177, 240, 304
-0.999537, 361, 97, 424, 224
-0.99954, 219, 177, 234, 304
-0.999544, 455, 193, 470, 320
-0.999545, 121, 65, 152, 192
-0.999548, 363, 209, 378, 336
-0.999549, 231, 177, 246, 304
-0.999553, 345, 33, 376, 288
-0.999556, 329, 49, 344, 176
-0.99956, 17, 1, 144, 32
-0.999566, 17, 165, 144, 196
-0.999568, 353, 113, 368, 240
-0.999568, 323, 49, 338, 176
-0.999575, 65, 121, 192, 152
-0.999579, 337, 1, 352, 128
-0.999582, 101, 97, 116, 224
-0.999589, 469, 193, 484, 320
-0.999595, 133, 161, 148, 288
-0.999597, 1, 1, 64, 375
-0.999601, 153, 97, 168, 224
-0.999602, 257, 137, 500, 200
-0.999603, 419, 193, 434, 320
-0.999605, 485, 193, 500, 320
-0.999605, 73, 209, 88, 224
-0.999605, 423, 263, 438, 278
-0.999605, 411, 193, 426, 320
-0.999605, 45, 145, 60, 272
-0.999607, 263, 243, 278, 258
-0.999607, 41, 129, 72, 256
-0.999607, 41, 205, 56, 220
-0.999607, 101, 209, 116, 224
-0.999608, 345, 101, 360, 116
-0.999608, 59, 293, 74, 308
-0.999609, 23, 231, 38, 246
-0.999609, 333, 241, 348, 368
-0.999609, 429, 269, 444, 284
-0.999609, 85, 319, 100, 334
-0.999609, 35, 235, 50, 250
-0.99961, 71, 249, 86, 264
-0.99961, 223, 111, 238, 126
-0.999611, 43, 243, 58, 258
-0.999611, 323, 97, 338, 224
-0.999612, 47, 293, 62, 308
-0.999612, 479, 177, 494, 304
-0.999612, 429, 263, 444, 278
-0.999614, 435, 295, 450, 310
-0.999614, 99, 239, 114, 254
-0.999615, 355, 225, 370, 352
-0.999615, 309, 49, 324, 176
-0.999615, 103, 315, 118, 330
-0.999615, 31, 299, 46, 314
-0.999616, 35, 325, 50, 340
-0.999617, 99, 245, 114, 260
-0.999619, 103, 295, 118, 310
-0.99962, 103, 259, 118, 274
-0.99962, 55, 263, 70, 278
-0.99962, 441, 265, 456, 280
-0.999621, 59, 247, 74, 262
-0.999621, 63, 279, 78, 294
-0.999621, 83, 291, 98, 306
-0.999621, 39, 293, 54, 308
-0.999622, 81, 281, 96, 296
-0.999622, 51, 247, 66, 262
-0.999622, 447, 315, 462, 330
-0.999625, 47, 309, 62, 324
-0.999625, 67, 209, 82, 224
-0.999625, 35, 241, 50, 256
-0.999626, 473, 283, 488, 298
-0.999626, 427, 255, 442, 270
-0.999626, 33, 193, 48, 208
-0.999626, 21, 197, 36, 212
-0.999626, 49, 283, 64, 298
-0.999626, 43, 191, 58, 206
-0.999626, 425, 277, 440, 292
-0.999627, 99, 327, 114, 342
-0.999628, 79, 207, 94, 222
-0.999629, 53, 293, 68, 308
-0.999629, 111, 129, 126, 256
-0.99963, 93, 269, 108, 284
-0.999632, 35, 331, 50, 346
-0.999632, 119, 161, 134, 288
-0.999633, 81, 255, 96, 270
-0.999633, 57, 271, 72, 286
-0.999634, 259, 113, 274, 240
-0.999635, 43, 249, 58, 264
-0.999635, 55, 257, 70, 272
-0.999636, 45, 257, 60, 272
-0.999636, 33, 251, 48, 266
-0.999637, 51, 209, 66, 224
-0.999637, 103, 309, 118, 324
-0.999638, 241, 129, 272, 375
-0.999638, 25, 241, 40, 256
-0.999639, 85, 207, 100, 222
-0.999639, 47, 299, 62, 314
-0.99964, 71, 255, 86, 270
-0.999641, 105, 325, 120, 340
-0.999641, 479, 279, 494, 294
-0.999643, 99, 189, 114, 204
-0.999644, 423, 269, 438, 284
-0.999644, 59, 209, 74, 224
-0.999645, 63, 253, 78, 268
-0.999646, 33, 289, 48, 304
-0.999646, 95, 279, 110, 294
-0.999646, 397, 289, 412, 304
-0.999647, 83, 297, 98, 312
-0.999648, 91, 291, 106, 306
-0.999648, 395, 193, 410, 320
-0.999649, 39, 301, 54, 316
-0.99965, 483, 343, 498, 358
-0.99965, 441, 317, 456, 332
-0.999651, 71, 281, 86, 296
-0.999652, 57, 283, 72, 298
-0.999652, 89, 281, 104, 296
-0.999652, 79, 275, 94, 290
-0.999652, 97, 263, 112, 278
-0.999654, 253, 49, 268, 176
-0.999655, 45, 265, 60, 280
-0.999655, 93, 1, 124, 256
-0.999656, 39, 259, 54, 274
-0.999657, 461, 273, 476, 288
-0.999658, 101, 287, 116, 302
-0.99966, 93, 207, 108, 222
-0.999661, 89, 251, 104, 266
-0.999661, 27, 249, 42, 264
-0.999661, 93, 113, 108, 240
-0.999662, 43, 283, 58, 298
-0.999662, 381, 97, 396, 224
-0.999663, 261, 49, 276, 176
-0.999663, 469, 1, 500, 128
-0.999664, 93, 233, 108, 248
-0.999664, 215, 97, 230, 224
-0.999664, 209, 123, 224, 138
-0.999666, 171, 241, 186, 368
-0.999667, 85, 261, 100, 276
-0.999667, 99, 251, 114, 266
-0.999671, 455, 265, 470, 280
-0.999673, 1, 33, 64, 288
-0.999673, 45, 315, 60, 330
-0.999677, 57, 277, 72, 292
-0.999677, 93, 245, 108, 260
-0.999681, 63, 267, 78, 282
-0.999682, 49, 271, 64, 286
-0.999686, 435, 271, 450, 286
-0.999686, 427, 293, 442, 308
-0.99969, 41, 271, 56, 286
-0.99969, 93, 257, 108, 272
-0.999691, 63, 259, 78, 274
-0.999691, 71, 261, 86, 276
-0.999693, 469, 277, 484, 292
-0.999694, 63, 273, 78, 288
-0.999694, 33, 279, 48, 294
-0.999696, 451, 273, 466, 288
-0.999703, 99, 321, 114, 336
-0.999704, 37, 315, 52, 330
-0.999705, 93, 239, 108, 254
-0.999705, 85, 267, 100, 282
-0.999707, 43, 277, 58, 292
-0.999708, 25, 191, 40, 206
-0.999708, 453, 317, 468, 332
-0.999708, 29, 261, 44, 276
-0.999709, 39, 265, 54, 280
-0.999712, 181, 97, 212, 352
-0.999712, 71, 269, 86, 284
-0.999715, 445, 271, 460, 286
-0.999718, 215, 113, 230, 128
-0.999725, 49, 277, 64, 292
-0.999727, 71, 275, 86, 290
-0.999731, 31, 271, 46, 286
-0.999734, 85, 275, 100, 290
-0.999734, 117, 129, 148, 375
-0.999737, 99, 303, 114, 318
-0.999738, 39, 309, 54, 324
-0.999739, 109, 251, 124, 266
-0.999741, 97, 297, 112, 312
-0.999744, 89, 1, 120, 128
-0.999758, 93, 303, 108, 318
-0.999762, 27, 255, 42, 270
-0.999766, 91, 297, 106, 312
-0.999774, 253, 129, 284, 375
-0.999776, 409, 129, 440, 375
-0.999784, 397, 129, 428, 375
-0.999807, 153, 193, 184, 320
-0.99983, 129, 33, 160, 288
-0.999833, 177, 145, 208, 272
-0.999846, 109, 33, 140, 160
-0.999877, 357, 129, 388, 375
-0.999878, 69, 1, 100, 256
-0.999904, 57, 1, 88, 256
-0.99991, 113, 49, 240, 112
-0.999912, 265, 1, 296, 128
-0.999932, 173, 97, 204, 224
-0.999964, 161, 17, 224, 144
-0.999965, 205, 33, 236, 288
-0.999969, 461, 97, 492, 352
-1.00003, 277, 49, 308, 176
-1.0001, 409, 1, 472, 128
-1.00011, 189, 49, 220, 176
-1.00012, 25, 33, 56, 288
-1.00016, 385, 49, 416, 176
-1.00017, 161, 97, 192, 352
-1.00025, 377, 97, 408, 352
-1.00029, 13, 1, 44, 256
-1.00036, 45, 1, 76, 256
-1.00038, 141, 1, 172, 256
-1.00039, 437, 113, 468, 240
-1.00042, 73, 1, 104, 128
-1.00043, 161, 1, 192, 256
-1.00048, 117, 1, 148, 256
-1.00052, 1, 1, 500, 64
-1.00052, 357, 33, 388, 288
-1.00054, 441, 1, 472, 256
-1.00056, 425, 1, 456, 256
-1.00058, 57, 49, 120, 176
-1.00059, 193, 33, 224, 288
-1.00059, 37, 1, 68, 128
-1.00074, 1, 1, 32, 256
-1.00081, 393, 1, 456, 256
-1.00082, 181, 1, 212, 256
-1.00083, 365, 49, 396, 176
-1.00085, 277, 225, 308, 352
-1.00094, 1, 145, 500, 208
-1.00096, 385, 1, 416, 256
-1.00099, 453, 1, 484, 256
-1.00103, 13, 17, 44, 144
-1.00106, 369, 225, 400, 352
-1.0012, 9, 1, 72, 128
-1.00134, 413, 1, 444, 256
-1.00135, 469, 1, 500, 256
-1.00151, 369, 1, 400, 256
-1.00157, 397, 1, 428, 256
-1.00161, 385, 145, 448, 272
-1.00161, 465, 145, 496, 272
-1.00171, 177, 193, 208, 320
-1.00175, 393, 177, 424, 304
-1.00178, 417, 97, 480, 224
-1.00182, 133, 33, 164, 160
-1.00183, 425, 145, 456, 272
-1.00233, 381, 193, 412, 320
-1.0027, 9, 49, 72, 176
-1.00308, 257, 81, 320, 208
-1.00309, 193, 1, 256, 128
-1.0034, 393, 81, 456, 208
-1.00348, 209, 241, 272, 368
-1.00365, 353, 33, 416, 288
-1.0037, 321, 1, 448, 128
-1.00376, 425, 33, 488, 288
-1.00393, 417, 49, 480, 176
-1.00513, 33, 81, 96, 208
-1.0099, 361, 49, 424, 176
-1.01222, 353, 1, 416, 128
