1957
-0.404553, 1, 161, 375, 416
-0.441183, 1, 1, 375, 500
-0.467068, 1, 257, 375, 500
-0.501114, 65, 1, 320, 500
-0.507009, 1, 33, 375, 288
-0.685264, 65, 129, 320, 384
-0.720077, 33, 33, 288, 288
-0.723359, 65, 257, 320, 500
-0.795402, 129, 1, 375, 256
-0.856612, 97, 1, 224, 500
-0.884023, 145, 1, 272, 500
-0.884941, 65, 129, 192, 384
-0.893005, 177, 161, 304, 416
-0.89551, 1, 161, 375, 288
-0.89787, 129, 97, 256, 352
-0.898759, 49, 1, 176, 500
-0.898881, 225, 129, 352, 384
-0.899384, 97, 257, 224, 500
-0.901322, 241, 1, 368, 500
-0.902391, 193, 1, 320, 500
-0.90383, 1, 273, 375, 400
-0.905656, 177, 1, 304, 256
-0.905787, 1, 113, 375, 240
-0.907482, 1, 353, 375, 480
-0.910111, 17, 193, 144, 448
-0.910553, 193, 257, 320, 500
-0.912454, 129, 1, 256, 256
-0.914752, 225, 33, 352, 288
-0.914809, 65, 1, 192, 256
-0.916476, 1, 65, 375, 192
-0.917489, 1, 225, 375, 352
-0.926017, 65, 129, 320, 256
-0.928347, 241, 257, 368, 500
-0.928474, 1, 1, 128, 500
-0.928744, 17, 97, 144, 352
-0.934641, 65, 337, 320, 464
-0.935353, 1, 1, 375, 128
-0.938214, 65, 257, 320, 384
-0.93881, 17, 1, 144, 256
-0.939563, 129, 65, 375, 192
-0.944647, 65, 145, 192, 272
-0.946102, 145, 257, 272, 500
-0.946118, 33, 177, 288, 304
-0.94681, 225, 145, 352, 272
-0.947413, 145, 113, 272, 240
-0.9511, 65, 241, 128, 368
-0.952057, 73, 161, 136, 288
-0.952518, 185, 129, 248, 256
-0.952695, 113, 65, 240, 192
-0.952848, 1, 81, 256, 208
-0.953467, 17, 225, 144, 352
-0.954121, 89, 241, 152, 368
-0.954163, 145, 81, 208, 208
-0.954504, 209, 129, 272, 256
-0.95491, 209, 97, 336, 224
-0.955112, 177, 353, 304, 480
-0.955822, 209, 321, 272, 448
-0.956643, 225, 353, 352, 480
-0.958047, 217, 137, 280, 200
-0.958417, 225, 289, 352, 416
-0.958431, 241, 169, 304, 232
-0.959814, 129, 177, 375, 304
-0.959832, 257, 129, 320, 256
-0.960418, 17, 177, 144, 304
-0.960718, 113, 145, 176, 272
-0.961804, 97, 321, 224, 448
-0.962451, 169, 81, 232, 208
-0.962609, 177, 289, 304, 416
-0.963191, 233, 353, 296, 480
-0.963308, 129, 1, 375, 128
-0.965271, 177, 1, 304, 128
-0.965454, 89, 241, 152, 304
-0.965524, 97, 273, 224, 400
-0.965969, 233, 145, 296, 272
-0.96597, 161, 65, 288, 192
-0.965977, 1, 33, 256, 160
-0.966129, 177, 145, 240, 208
-0.96619, 273, 385, 336, 448
-0.966311, 265, 137, 328, 200
-0.96647, 97, 369, 224, 496
-0.967217, 161, 129, 224, 256
-0.967325, 193, 121, 256, 184
-0.967509, 257, 289, 320, 416
-0.967544, 201, 369, 264, 496
-0.967889, 177, 161, 304, 288
-0.96797, 113, 241, 176, 368
-0.968031, 105, 81, 168, 208
-0.968253, 201, 81, 264, 208
-0.968339, 145, 129, 208, 192
-0.968426, 49, 81, 176, 208
-0.968493, 241, 385, 304, 448
-0.968841, 97, 225, 224, 352
-0.969529, 241, 49, 368, 176
-0.969602, 89, 153, 152, 216
-0.969814, 217, 313, 280, 376
-0.97008, 257, 425, 320, 488
-0.970159, 257, 369, 320, 496
-0.970478, 49, 193, 112, 320
-0.970898, 209, 273, 272, 400
-0.970919, 289, 145, 352, 272
-0.971022, 121, 193, 184, 320
-0.971181, 201, 345, 264, 408
-0.971666, 113, 161, 240, 288
-0.971691, 113, 145, 176, 208
-0.971948, 233, 305, 296, 432
-0.972015, 105, 289, 168, 416
-0.972123, 297, 289, 360, 352
-0.972229, 57, 241, 120, 304
-0.972831, 113, 241, 176, 304
-0.972933, 305, 313, 368, 376
-0.973125, 17, 289, 144, 416
-0.973798, 1, 113, 128, 240
-0.974019, 169, 73, 232, 136
-0.974148, 209, 177, 272, 304
-0.974383, 257, 297, 320, 360
-0.974647, 313, 113, 375, 240
-0.974698, 225, 145, 352, 208
-0.974822, 97, 265, 160, 328
-0.974875, 241, 169, 368, 232
-0.974917, 313, 273, 375, 400
-0.974917, 297, 337, 360, 464
-0.974965, 241, 353, 304, 416
-0.975019, 161, 145, 288, 208
-0.975023, 201, 161, 264, 224
-0.975041, 145, 241, 272, 368
-0.975144, 25, 145, 88, 272
-0.975281, 105, 241, 136, 304
-0.975596, 225, 81, 288, 208
-0.975633, 305, 113, 368, 176
-0.975841, 233, 409, 296, 472
-0.975916, 161, 105, 224, 168
-0.976043, 97, 17, 224, 144
-0.976112, 113, 145, 240, 208
-0.976251, 201, 369, 264, 432
-0.976294, 65, 169, 128, 232
-0.976594, 193, 225, 320, 352
-0.976732, 185, 321, 248, 448
-0.976765, 225, 385, 352, 448
-0.976958, 281, 417, 344, 480
-0.977305, 177, 385, 304, 448
-0.977318, 305, 137, 368, 200
-0.977336, 105, 297, 168, 360
-0.977494, 249, 169, 280, 232
-0.977511, 281, 273, 344, 400
-0.977551, 305, 1, 368, 128
-0.977646, 217, 185, 280, 248
-0.977647, 281, 65, 344, 192
-0.977654, 161, 33, 224, 160
-0.977663, 249, 81, 312, 208
-0.977768, 297, 385, 360, 448
-0.977782, 233, 193, 296, 320
-0.977909, 225, 425, 352, 488
-0.977979, 193, 313, 256, 376
-0.977999, 73, 113, 136, 240
-0.978177, 273, 321, 336, 384
-0.978192, 65, 217, 128, 280
-0.978225, 129, 1, 192, 128
-0.978332, 105, 321, 168, 384
-0.978443, 89, 129, 152, 192
-0.97845, 241, 193, 368, 320
-0.978529, 225, 1, 352, 128
-0.978563, 193, 137, 224, 200
-0.978567, 193, 97, 224, 224
-0.978622, 121, 217, 184, 280
-0.978643, 177, 369, 240, 496
-0.978649, 113, 121, 240, 184
-0.979011, 65, 161, 128, 416
-0.979049, 185, 425, 248, 488
-0.979058, 81, 289, 144, 416
-0.979132, 161, 49, 224, 112
-0.97931, 265, 1, 328, 128
-0.979342, 73, 265, 136, 328
-0.979439, 17, 241, 144, 304
-0.979552, 249, 145, 280, 208
-0.97971, 113, 121, 176, 184
-0.979717, 265, 177, 328, 240
-0.979856, 277, 385, 308, 448
-0.979925, 97, 129, 160, 384
-0.980007, 213, 113, 244, 240
-0.980035, 201, 393, 264, 456
-0.980193, 49, 17, 176, 144
-0.980197, 177, 121, 304, 184
-0.980282, 233, 289, 296, 352
-0.980397, 137, 129, 200, 256
-0.980411, 201, 1, 264, 128
-0.980485, 241, 145, 304, 208
-0.980528, 177, 409, 304, 472
-0.980613, 49, 153, 176, 216
-0.980638, 177, 169, 240, 232
-0.980704, 241, 337, 272, 464
-0.980768, 169, 177, 232, 304
-0.980824, 177, 169, 304, 232
-0.980924, 161, 65, 224, 320
-0.981153, 241, 297, 368, 360
-0.981204, 73, 177, 104, 304
-0.981317, 93, 241, 124, 304
-0.981352, 145, 153, 208, 216
-0.981356, 1, 65, 128, 192
-0.981359, 41, 145, 104, 208
-0.981412, 49, 113, 112, 240
-0.981635, 265, 345, 328, 408
-0.981682, 221, 313, 252, 376
-0.981686, 101, 265, 132, 328
-0.98179, 97, 193, 160, 320
-0.981839, 193, 313, 320, 376
-0.981868, 109, 241, 140, 368
-0.981881, 169, 81, 200, 208
-0.981893, 225, 121, 352, 184
-0.981927, 209, 433, 272, 496
-0.982013, 129, 65, 192, 128
-0.982038, 305, 409, 368, 472
-0.982066, 65, 145, 128, 208
-0.982246, 205, 145, 236, 208
-0.98226, 121, 145, 152, 208
-0.982338, 209, 225, 272, 352
-0.982366, 177, 353, 304, 416
-0.982451, 193, 97, 256, 352
-0.982497, 233, 209, 296, 272
-0.982521, 161, 433, 288, 496
-0.982528, 121, 129, 184, 384
-0.982546, 265, 385, 296, 448
-0.982608, 169, 273, 232, 400
-0.982638, 93, 241, 124, 368
-0.982744, 221, 137, 252, 200
-0.982769, 97, 17, 160, 144
-0.982809, 225, 129, 256, 256
-0.982831, 97, 225, 224, 288
-0.982837, 277, 425, 308, 488
-0.982868, 97, 249, 224, 312
-0.982979, 241, 321, 368, 384
-0.98317, 113, 273, 144, 336
-0.9832, 217, 193, 280, 448
-0.983206, 241, 1, 304, 128
-0.983222, 181, 137, 212, 200
-0.983222, 81, 161, 112, 224
-0.983258, 17, 265, 144, 328
-0.983352, 201, 57, 264, 120
-0.983479, 129, 169, 256, 232
-0.983609, 305, 65, 368, 192
-0.983694, 261, 161, 292, 224
-0.983697, 241, 241, 368, 368
-0.983791, 137, 41, 200, 104
-0.983797, 225, 161, 256, 224
-0.98381, 113, 57, 240, 120
-0.983826, 41, 217, 104, 280
-0.983892, 273, 273, 336, 336
-0.983915, 105, 337, 168, 464
-0.983937, 289, 161, 352, 224
-0.984093, 17, 369, 144, 496
-0.984159, 121, 273, 184, 336
-0.984166, 97, 329, 224, 392
-0.984192, 249, 113, 312, 176
-0.984194, 65, 305, 128, 368
-0.984217, 113, 425, 240, 488
-0.984315, 145, 193, 272, 256
-0.984346, 97, 297, 224, 360
-0.984353, 193, 97, 256, 160
-0.984357, 193, 1, 256, 256
-0.984372, 249, 321, 312, 384
-0.984419, 209, 209, 272, 272
-0.984486, 237, 145, 268, 208
-0.98452, 281, 89, 344, 152
-0.984601, 97, 401, 224, 464
-0.984613, 313, 337, 375, 400
-0.984633, 81, 241, 112, 304
-0.984659, 25, 193, 88, 320
-0.984672, 33, 177, 96, 240
-0.984694, 185, 145, 216, 272
-0.984734, 129, 81, 160, 208
-0.984783, 289, 385, 320, 448
-0.984841, 17, 217, 144, 280
-0.984841, 73, 65, 136, 192
-0.984859, 121, 1, 184, 256
-0.984873, 281, 257, 344, 500
-0.984875, 17, 305, 144, 368
-0.984954, 193, 289, 320, 352
-0.984995, 213, 345, 244, 408
-0.985034, 129, 89, 192, 152
-0.985046, 273, 193, 336, 320
-0.985051, 97, 81, 224, 144
-0.9852, 201, 145, 232, 272
-0.985213, 65, 193, 128, 256
-0.985223, 145, 97, 272, 160
-0.985329, 49, 177, 176, 240
-0.985354, 229, 193, 260, 256
-0.985433, 313, 257, 375, 500
-0.98551, 189, 161, 220, 224
-0.985543, 253, 353, 284, 480
-0.985552, 81, 1, 144, 256
-0.985569, 233, 433, 296, 496
-0.985614, 245, 129, 276, 256
-0.985627, 133, 145, 164, 208
-0.985633, 161, 1, 224, 500
-0.985641, 137, 369, 200, 496
-0.985663, 217, 1, 280, 256
-0.985695, 289, 345, 352, 408
-0.985706, 125, 145, 156, 272
-0.985736, 169, 249, 232, 312
-0.985822, 129, 425, 192, 488
-0.985845, 193, 193, 320, 256
-0.985984, 245, 177, 276, 304
-0.985997, 109, 289, 140, 416
-0.986014, 177, 201, 240, 264
-0.986059, 185, 1, 216, 128
-0.986082, 177, 73, 304, 136
-0.98619, 177, 337, 240, 400
-0.986236, 177, 281, 240, 344
-0.986267, 241, 161, 304, 416
-0.986275, 81, 241, 112, 368
-0.986283, 17, 65, 80, 192
-0.986402, 317, 289, 348, 352
-0.986429, 241, 345, 368, 408
-0.986453, 105, 377, 168, 440
-0.986475, 117, 233, 148, 296
-0.986493, 217, 321, 248, 448
-0.986502, 97, 361, 224, 424
-0.986508, 153, 137, 184, 200
-0.986545, 205, 113, 236, 176
-0.986555, 225, 97, 288, 160
-0.986598, 193, 97, 320, 160
-0.986619, 149, 97, 180, 224
-0.986634, 65, 129, 192, 192
-0.986686, 65, 201, 192, 264
-0.986725, 65, 257, 128, 500
-0.98675, 97, 73, 160, 136
-0.986791, 313, 193, 375, 320
-0.986835, 265, 425, 296, 488
-0.986975, 161, 225, 224, 288
-0.986976, 285, 129, 316, 256
-0.986986, 137, 145, 168, 272
-0.987091, 85, 161, 116, 288
-0.987131, 105, 1, 168, 500
-0.987133, 101, 161, 132, 288
-0.987159, 141, 121, 172, 184
-0.987164, 265, 129, 296, 256
-0.987177, 93, 145, 124, 208
-0.987206, 121, 225, 152, 352
-0.987217, 265, 65, 328, 128
-0.9873, 225, 345, 256, 408
-0.987319, 209, 321, 240, 384
-0.987331, 273, 313, 304, 376
-0.987333, 313, 89, 375, 152
-0.987349, 161, 321, 224, 448
-0.987355, 257, 257, 320, 500
-0.987436, 113, 297, 144, 360
-0.987469, 137, 1, 200, 500
-0.987475, 237, 169, 268, 232
-0.987483, 1, 145, 128, 208
-0.987496, 233, 257, 296, 384
-0.987537, 257, 289, 288, 416
-0.987587, 145, 313, 272, 376
-0.987611, 93, 289, 124, 352
-0.987637, 105, 225, 168, 480
-0.987643, 177, 393, 240, 456
-0.987663, 177, 49, 304, 112
-0.987665, 89, 217, 152, 280
-0.987667, 81, 273, 208, 336
-0.987686, 305, 49, 368, 112
-0.987735, 213, 169, 244, 232
-0.987754, 209, 281, 272, 344
-0.987793, 329, 313, 360, 376
-0.987826, 261, 313, 292, 376
-0.987841, 177, 225, 240, 352
-0.98788, 285, 177, 316, 240
-0.987908, 273, 129, 336, 384
-0.987961, 213, 161, 244, 288
-0.987986, 229, 337, 260, 464
-0.988006, 1, 17, 128, 144
-0.988023, 253, 345, 284, 408
-0.988058, 265, 353, 296, 480
-0.988194, 193, 113, 224, 176
-0.988237, 241, 89, 368, 152
-0.988288, 273, 289, 304, 352
-0.988319, 241, 33, 304, 288
-0.988453, 97, 345, 160, 408
-0.988458, 73, 201, 104, 264
-0.988459, 61, 177, 92, 304
-0.988466, 253, 377, 284, 440
-0.988475, 309, 145, 340, 208
-0.988628, 241, 377, 272, 440
-0.988817, 297, 313, 328, 376
-0.988827, 261, 289, 292, 352
-0.988831, 289, 425, 320, 488
-0.988833, 173, 161, 204, 224
-0.988889, 177, 361, 240, 424
-0.98891, 1, 169, 128, 232
-0.988956, 81, 369, 144, 496
-0.98897, 285, 313, 316, 376
-0.988985, 313, 433, 375, 496
-0.989073, 189, 57, 220, 120
-0.989103, 225, 73, 288, 136
-0.989135, 265, 353, 296, 416
-0.989145, 209, 1, 272, 500
-0.989182, 169, 17, 232, 80
-0.98921, 301, 385, 332, 448
-0.98923, 237, 289, 268, 416
-0.989282, 161, 433, 224, 496
-0.989296, 173, 145, 204, 272
-0.989307, 241, 193, 272, 256
-0.989326, 69, 177, 100, 240
-0.989408, 49, 97, 176, 160
-0.989424, 69, 241, 100, 304
-0.989443, 145, 209, 208, 336
-0.989448, 41, 241, 104, 368
-0.989454, 321, 289, 352, 416
-0.989489, 325, 113, 356, 240
-0.989611, 193, 49, 224, 176
-0.989612, 205, 337, 236, 464
-0.989665, 57, 17, 120, 144
-0.989665, 57, 289, 120, 416
-0.989666, 41, 161, 104, 416
-0.989687, 113, 145, 144, 272
-0.98974, 89, 265, 120, 328
-0.989743, 241, 181, 304, 212
-0.989746, 217, 145, 280, 176
-0.98978, 69, 225, 100, 352
-0.989792, 341, 129, 372, 256
-0.989882, 201, 241, 264, 304
-0.989893, 169, 305, 232, 368
-0.989967, 185, 1, 248, 500
-0.989975, 205, 377, 236, 440
-0.990017, 81, 249, 144, 280
-0.990019, 177, 217, 304, 280
-0.990058, 65, 57, 192, 120
-0.990062, 177, 157, 240, 188
-0.990063, 225, 157, 288, 188
-0.990085, 157, 257, 188, 320
-0.99011, 65, 153, 320, 216
-0.990132, 193, 33, 256, 96
-0.99014, 169, 121, 200, 184
-0.990143, 269, 137, 300, 200
-0.990157, 325, 97, 356, 160
-0.990174, 217, 97, 280, 352
-0.990183, 173, 33, 204, 160
-0.990193, 305, 129, 368, 384
-0.9902, 229, 369, 260, 432
-0.990207, 325, 145, 356, 208
-0.990215, 241, 49, 368, 112
-0.990231, 241, 345, 272, 408
-0.990259, 241, 273, 368, 336
-0.990273, 177, 145, 240, 176
-0.990294, 177, 49, 208, 112
-0.9903, 145, 265, 176, 328
-0.990345, 313, 257, 375, 320
-0.990346, 145, 281, 272, 344
-0.990352, 97, 261, 160, 292
-0.990389, 317, 385, 348, 448
-0.99042, 345, 113, 375, 176
-0.990465, 49, 65, 112, 192
-0.990581, 305, 145, 336, 272
-0.9906, 181, 81, 212, 208
-0.99065, 105, 145, 136, 208
-0.990657, 81, 1, 144, 500
-0.99067, 25, 73, 88, 136
-0.990677, 1, 153, 64, 216
-0.990709, 193, 133, 256, 164
-0.990716, 129, 113, 160, 176
-0.990724, 337, 281, 368, 344
-0.990727, 89, 217, 120, 280
-0.990758, 209, 353, 272, 384
-0.990768, 233, 385, 296, 416
-0.990779, 309, 313, 340, 376
-0.990782, 265, 393, 328, 424
-0.990788, 105, 401, 168, 464
-0.990794, 153, 145, 216, 176
-0.990797, 113, 245, 176, 276
-0.990826, 97, 161, 160, 192
-0.990831, 101, 97, 132, 224
-0.990859, 217, 341, 280, 372
-0.990862, 149, 49, 180, 176
-0.990871, 137, 17, 200, 80
-0.990874, 281, 113, 344, 176
-0.990876, 85, 97, 116, 224
-0.990887, 57, 1, 120, 256
-0.990892, 313, 169, 375, 232
-0.990904, 89, 105, 152, 168
-0.990927, 65, 81, 128, 144
-0.990934, 233, 321, 264, 384
-0.990935, 305, 81, 336, 208
-0.990949, 109, 321, 140, 384
-0.990951, 201, 169, 232, 232
-0.99096, 313, 361, 375, 424
-0.99102, 89, 433, 152, 496
-0.991024, 73, 129, 104, 256
-0.991025, 169, 73, 200, 136
-0.991028, 193, 257, 256, 500
-0.991028, 241, 169, 304, 200
-0.991039, 229, 81, 260, 208
-0.991046, 269, 289, 300, 416
-0.991066, 205, 257, 236, 384
-0.991085, 233, 177, 264, 304
-0.9911, 341, 89, 372, 152
-0.991107, 17, 329, 144, 392
-0.991113, 201, 389, 264, 420
-0.991124, 145, 273, 208, 336
-0.991164, 113, 97, 144, 224
-0.991167, 73, 169, 136, 200
-0.99119, 241, 405, 304, 436
-0.991196, 265, 161, 328, 192
-0.991251, 341, 305, 372, 368
-0.991258, 201, 173, 264, 204
-0.99127, 197, 321, 228, 384
-0.991296, 325, 121, 356, 184
-0.991312, 305, 141, 368, 172
-0.991333, 1, 145, 64, 272
-0.991355, 205, 65, 236, 192
-0.991358, 129, 425, 375, 488
-0.991365, 209, 325, 272, 356
-0.991368, 57, 249, 120, 280
-0.991372, 273, 293, 336, 324
-0.99139, 193, 265, 320, 328
-0.99139, 217, 313, 280, 344
-0.991391, 201, 201, 264, 232
-0.991407, 217, 133, 280, 164
-0.99142, 65, 129, 320, 192
-0.991425, 97, 305, 352, 368
-0.991454, 17, 17, 80, 144
-0.991467, 81, 237, 144, 268
-0.991473, 345, 337, 375, 400
-0.991478, 297, 1, 360, 500
-0.991495, 105, 33, 168, 96
-0.991502, 249, 137, 312, 168
-0.991544, 57, 129, 88, 256
-0.991554, 209, 401, 272, 432
-0.991554, 345, 137, 375, 200
-0.991557, 301, 273, 332, 400
-0.991574, 297, 405, 360, 436
-0.991579, 265, 409, 328, 440
-0.991585, 201, 377, 264, 408
-0.991596, 233, 193, 296, 224
-0.991614, 185, 337, 248, 368
-0.991628, 249, 321, 280, 384
-0.991638, 313, 1, 375, 64
-0.991643, 129, 153, 192, 184
-0.991646, 169, 77, 232, 108
-0.99165, 265, 461, 328, 492
-0.991672, 293, 137, 324, 200
-0.991677, 73, 265, 136, 296
-0.991687, 65, 329, 128, 392
-0.991689, 305, 385, 368, 416
-0.991691, 249, 425, 280, 488
-0.991707, 169, 193, 232, 448
-0.991738, 69, 145, 100, 208
-0.991739, 17, 73, 144, 136
-0.991747, 337, 273, 368, 400
-0.991772, 265, 149, 328, 180
-0.991774, 153, 177, 216, 240
-0.991781, 241, 457, 304, 488
-0.991803, 249, 1, 312, 500
-0.991813, 289, 289, 320, 352
-0.991827, 309, 113, 340, 176
-0.991841, 105, 313, 168, 344
-0.991844, 237, 417, 268, 480
-0.991857, 97, 17, 224, 80
-0.991883, 177, 169, 240, 200
-0.99189, 193, 369, 224, 496
-0.9919, 33, 201, 288, 264
-0.991904, 197, 401, 228, 464
-0.991906, 305, 129, 368, 160
-0.991906, 233, 213, 296, 244
-0.991927, 89, 281, 152, 312
-0.991938, 185, 413, 248, 444
-0.991943, 161, 133, 224, 164
-0.991956, 129, 89, 192, 120
-0.991982, 49, 433, 176, 496
-0.99199, 221, 401, 252, 464
-0.991992, 73, 153, 136, 184
-0.992002, 241, 49, 304, 112
-0.992007, 241, 193, 368, 256
-0.992021, 33, 185, 96, 216
-0.992037, 1, 153, 375, 216
-0.992038, 17, 121, 144, 184
-0.992045, 301, 289, 332, 352
-0.992045, 49, 121, 112, 184
-0.992049, 265, 33, 328, 288
-0.992056, 161, 9, 288, 72
-0.992078, 305, 153, 368, 184
-0.992089, 233, 353, 296, 384
-0.992089, 121, 261, 184, 292
-0.992098, 105, 149, 168, 180
-0.992106, 105, 301, 168, 332
-0.992107, 345, 1, 375, 128
-0.992109, 281, 185, 344, 216
-0.992122, 185, 441, 248, 472
-0.992132, 313, 337, 375, 368
-0.992134, 49, 25, 176, 88
-0.992136, 189, 81, 220, 144
-0.992136, 153, 105, 184, 168
-0.992146, 201, 161, 264, 192
-0.992157, 185, 325, 248, 356
-0.992171, 1, 193, 128, 256
-0.992177, 265, 173, 328, 204
-0.992187, 313, 285, 375, 316
-0.992188, 129, 385, 375, 448
-0.992192, 265, 381, 328, 412
-0.992194, 201, 189, 264, 220
-0.992196, 201, 345, 232, 408
-0.992203, 105, 325, 168, 356
-0.992213, 257, 201, 320, 264
-0.992249, 161, 93, 224, 124
-0.992252, 193, 121, 256, 152
-0.992254, 137, 457, 200, 488
-0.992258, 201, 453, 264, 484
-0.992266, 121, 233, 184, 264
-0.992273, 113, 273, 176, 304
-0.992284, 257, 349, 320, 380
-0.992286, 305, 165, 368, 196
-0.992321, 161, 117, 224, 148
-0.992322, 185, 425, 216, 488
-0.992324, 161, 105, 224, 136
-0.992327, 241, 337, 304, 368
-0.99233, 65, 353, 320, 416
-0.992333, 297, 297, 360, 328
-0.99235, 177, 309, 240, 340
-0.992354, 289, 417, 352, 448
-0.992355, 153, 201, 216, 264
-0.992367, 233, 469, 296, 500
-0.992372, 305, 317, 368, 348
-0.992372, 249, 297, 312, 328
-0.992378, 241, 249, 368, 312
-0.992382, 113, 129, 176, 160
-0.99239, 241, 425, 304, 456
-0.992407, 209, 89, 240, 152
-0.992408, 185, 401, 248, 432
-0.992409, 185, 353, 248, 384
-0.992413, 129, 101, 192, 132
-0.992416, 145, 1, 176, 128
-0.99242, 201, 365, 264, 396
-0.992423, 25, 1, 88, 500
-0.99243, 65, 225, 128, 256
-0.992432, 41, 237, 104, 268
-0.992445, 305, 177, 368, 208
-0.992451, 289, 461, 352, 492
-0.992452, 245, 121, 276, 184
-0.992458, 313, 425, 375, 456
-0.992463, 73, 181, 136, 212
-0.992466, 209, 417, 272, 448
-0.992467, 305, 117, 368, 148
-0.992468, 185, 429, 248, 460
-0.992468, 49, 153, 112, 184
-0.992477, 225, 373, 288, 404
-0.992477, 129, 141, 192, 172
-0.992478, 105, 261, 136, 292
-0.992481, 313, 461, 375, 492
-0.992497, 325, 1, 356, 128
-0.992505, 73, 309, 136, 340
-0.992507, 129, 65, 192, 96
-0.992507, 241, 309, 304, 340
-0.992512, 153, 157, 216, 188
-0.992528, 273, 337, 336, 368
-0.992535, 217, 289, 280, 320
-0.992536, 281, 137, 344, 168
-0.992539, 169, 265, 232, 296
-0.992543, 57, 1, 120, 500
-0.99255, 161, 233, 192, 296
-0.992555, 205, 157, 236, 188
-0.992562, 177, 453, 240, 484
-0.992576, 49, 173, 112, 204
-0.992582, 177, 241, 304, 304
-0.992607, 189, 145, 220, 176
-0.992608, 281, 49, 312, 176
-0.992609, 137, 297, 200, 360
-0.992629, 161, 253, 224, 284
-0.992636, 125, 73, 156, 136
-0.992652, 289, 1, 352, 64
-0.992656, 161, 465, 224, 496
-0.992664, 305, 425, 336, 488
-0.992669, 33, 197, 96, 228
-0.992671, 113, 249, 144, 280
-0.992687, 89, 249, 120, 280
-0.992699, 241, 125, 304, 156
-0.992717, 253, 81, 284, 208
-0.99272, 177, 389, 240, 420
-0.992724, 25, 225, 88, 256
-0.992726, 121, 117, 184, 148
-0.992728, 129, 77, 192, 108
-0.992728, 161, 53, 224, 84
-0.99273, 313, 97, 375, 128
-0.992737, 277, 353, 308, 416
-0.992749, 225, 137, 256, 168
-0.992754, 193, 157, 224, 188
-0.992761, 153, 145, 184, 272
-0.992773, 65, 209, 128, 240
-0.992793, 257, 241, 320, 368
-0.99281, 185, 89, 248, 120
-0.992815, 217, 161, 248, 192
-0.992819, 161, 237, 224, 268
-0.992823, 217, 97, 280, 128
-0.99283, 181, 17, 212, 80
-0.99283, 317, 345, 348, 408
-0.992835, 125, 153, 156, 184
-0.992838, 249, 177, 280, 208
-0.992839, 177, 17, 240, 48
-0.992846, 97, 361, 160, 392
-0.992854, 249, 157, 280, 188
-0.992859, 249, 401, 280, 464
-0.99286, 225, 177, 256, 208
-0.992869, 297, 1, 328, 128
-0.992877, 137, 241, 200, 304
-0.992891, 85, 169, 116, 200
-0.992907, 149, 57, 180, 120
-0.992943, 101, 245, 132, 276
-0.992948, 197, 1, 228, 128
-0.99295, 213, 145, 244, 176
-0.992966, 217, 341, 248, 372
-0.99298, 253, 389, 284, 420
-0.992982, 217, 317, 248, 348
-0.992984, 217, 65, 248, 192
-0.99299, 245, 345, 276, 376
-0.992991, 225, 113, 256, 176
-0.992996, 101, 273, 132, 304
-0.993033, 125, 273, 156, 336
-0.993035, 125, 33, 156, 160
-0.993046, 113, 281, 144, 312
-0.993051, 265, 169, 296, 200
-0.993051, 217, 353, 248, 384
-0.993069, 193, 297, 224, 360
-0.993072, 117, 269, 148, 300
-0.993075, 125, 245, 156, 276
-0.993076, 277, 393, 308, 424
-0.99308, 309, 145, 340, 176
-0.99308, 237, 209, 268, 240
-0.993082, 205, 345, 236, 376
-0.993089, 233, 381, 264, 412
-0.993096, 57, 181, 88, 212
-0.993102, 113, 157, 144, 188
-0.993117, 241, 193, 272, 224
-0.99312, 201, 169, 232, 200
-0.993122, 73, 173, 104, 204
-0.993123, 229, 165, 260, 196
-0.993124, 209, 401, 240, 432
-0.993133, 265, 393, 296, 424
-0.993137, 121, 177, 184, 240
-0.993152, 97, 157, 128, 188
-0.993153, 201, 329, 232, 360
-0.993166, 249, 457, 280, 488
-0.993167, 65, 281, 320, 344
-0.993174, 85, 157, 116, 188
-0.993176, 181, 165, 212, 196
-0.993179, 237, 137, 268, 168
-0.993179, 325, 65, 356, 192
-0.993183, 225, 201, 256, 232
-0.993185, 117, 293, 148, 324
-0.993186, 305, 393, 336, 424
-0.993188, 213, 329, 244, 360
-0.993188, 233, 341, 264, 372
-0.993198, 241, 401, 272, 432
-0.993199, 265, 405, 296, 436
-0.993201, 289, 353, 320, 416
-0.993203, 309, 1, 340, 128
-0.993212, 141, 137, 172, 168
-0.993217, 229, 397, 260, 428
-0.993218, 137, 153, 168, 184
-0.993218, 289, 393, 320, 424
-0.993218, 285, 185, 316, 216
-0.993222, 173, 149, 204, 180
-0.993223, 269, 461, 300, 492
-0.993229, 213, 173, 244, 204
-0.993236, 217, 389, 248, 420
-0.993236, 273, 293, 304, 324
-0.993238, 113, 309, 144, 340
-0.993238, 233, 265, 296, 328
-0.993241, 321, 301, 352, 332
-0.993244, 205, 129, 236, 160
-0.993246, 97, 289, 128, 320
-0.993253, 253, 413, 284, 444
-0.993253, 297, 161, 328, 224
-0.993254, 205, 389, 236, 420
-0.993258, 197, 409, 228, 440
-0.993263, 113, 321, 144, 352
-0.993265, 93, 261, 124, 292
-0.993266, 277, 417, 308, 448
-0.993269, 325, 165, 356, 196
-0.99327, 57, 153, 88, 216
-0.99327, 325, 389, 356, 420
-0.993276, 333, 317, 364, 348
-0.993277, 157, 265, 188, 296
-0.993288, 209, 373, 240, 404
-0.993288, 201, 145, 232, 176
-0.993291, 73, 213, 104, 244
-0.993294, 113, 121, 144, 184
-0.993295, 221, 377, 252, 408
-0.993299, 277, 405, 308, 436
-0.993299, 169, 201, 200, 264
-0.993301, 205, 433, 236, 496
-0.993316, 229, 353, 260, 384
-0.99332, 329, 401, 360, 432
-0.993325, 193, 133, 224, 164
-0.993328, 309, 405, 340, 436
-0.993328, 321, 317, 352, 348
-0.993329, 69, 245, 100, 276
-0.993329, 221, 189, 252, 220
-0.993332, 345, 337, 375, 368
-0.993334, 237, 177, 268, 208
-0.993336, 289, 65, 320, 128
-0.993342, 249, 213, 280, 244
-0.993343, 281, 461, 312, 492
-0.993345, 185, 77, 216, 108
-0.993345, 169, 137, 200, 168
-0.993346, 333, 333, 364, 364
-0.993346, 309, 165, 340, 196
-0.993346, 257, 345, 288, 376
-0.993348, 249, 137, 280, 168
-0.993349, 277, 353, 308, 480
-0.993355, 289, 133, 320, 164
-0.993357, 305, 293, 336, 324
-0.993357, 133, 261, 164, 292
-0.993364, 229, 313, 260, 344
-0.993364, 273, 349, 304, 380
-0.993367, 205, 357, 236, 388
-0.993372, 261, 137, 292, 168
-0.993375, 113, 145, 144, 176
-0.993377, 225, 329, 256, 360
-0.99338, 345, 125, 375, 156
-0.99338, 97, 301, 128, 332
-0.993383, 169, 89, 200, 120
-0.993385, 97, 169, 128, 200
-0.993385, 125, 141, 156, 172
-0.993385, 237, 149, 268, 180
-0.993387, 209, 117, 240, 148
-0.993389, 253, 401, 284, 432
-0.99339, 253, 309, 284, 340
-0.99339, 129, 249, 160, 312
-0.993391, 225, 9, 352, 72
-0.993393, 189, 89, 220, 120
-0.993396, 233, 449, 264, 480
-0.9934, 205, 281, 236, 344
-0.9934, 205, 89, 236, 120
-0.9934, 337, 349, 368, 380
-0.993401, 261, 181, 292, 212
-0.993403, 289, 417, 320, 448
-0.993404, 329, 369, 360, 432
-0.993407, 297, 405, 328, 436
-0.993408, 57, 193, 88, 224
-0.993409, 313, 177, 344, 208
-0.99341, 341, 81, 372, 208
-0.99341, 225, 149, 256, 180
-0.993414, 337, 289, 368, 320
-0.993417, 229, 125, 260, 156
-0.993417, 129, 273, 160, 304
-0.993421, 269, 429, 300, 460
-0.993422, 145, 97, 176, 128
-0.993484, 145, 393, 208, 456
-0.993505, 273, 1, 336, 500
-0.993508, 233, 9, 296, 72
-0.993515, 81, 369, 144, 432
-0.993516, 305, 353, 336, 480
-0.993523, 129, 273, 160, 400
-0.99353, 129, 305, 192, 432
-0.993576, 221, 217, 252, 280
-0.993583, 265, 193, 296, 320
-0.993587, 1, 177, 375, 240
-0.9936, 293, 81, 324, 208
-0.993627, 225, 273, 256, 400
-0.993634, 249, 89, 312, 152
-0.993642, 101, 121, 132, 184
-0.993662, 289, 273, 320, 400
-0.993681, 89, 289, 120, 416
-0.993703, 129, 297, 160, 360
-0.993743, 341, 321, 372, 448
-0.993746, 33, 177, 288, 240
-0.993747, 33, 401, 160, 464
-0.993756, 65, 329, 320, 392
-0.993775, 17, 353, 144, 416
-0.99378, 17, 201, 80, 264
-0.993804, 217, 369, 248, 432
-0.993828, 101, 217, 132, 280
-0.993877, 1, 241, 256, 304
-0.993886, 285, 177, 316, 304
-0.99389, 1, 305, 375, 368
-0.99395, 213, 1, 244, 128
-0.993987, 277, 1, 308, 128
-0.993991, 129, 321, 192, 384
-0.993997, 1, 97, 128, 160
-0.994102, 193, 9, 256, 72
-0.994136, 33, 65, 96, 320
-0.994137, 1, 265, 375, 328
-0.994141, 325, 353, 356, 480
-0.994209, 249, 1, 280, 128
-0.994271, 1, 377, 375, 440
-0.994331, 221, 209, 252, 336
-0.994341, 113, 149, 240, 180
-0.994388, 193, 137, 208, 200
-0.994406, 161, 153, 288, 184
-0.994421, 225, 405, 352, 436
-0.994528, 17, 377, 144, 440
-0.994542, 49, 177, 80, 304
-0.994572, 113, 353, 144, 480
-0.994655, 241, 161, 368, 192
-0.994657, 129, 73, 375, 136
-0.994731, 1, 105, 256, 168
-0.99478, 269, 49, 300, 176
-0.994799, 305, 1, 368, 256
-0.994839, 1, 305, 256, 368
-0.994868, 243, 185, 258, 248
-0.99492, 129, 177, 375, 240
-0.994935, 241, 81, 272, 208
-0.994946, 145, 137, 272, 168
-0.994949, 33, 57, 288, 120
-0.994952, 1, 201, 375, 264
-0.994958, 121, 241, 136, 304
-0.994963, 111, 241, 126, 304
-0.995001, 217, 145, 232, 208
-0.995056, 141, 257, 172, 384
-0.995092, 253, 169, 268, 232
-0.995111, 225, 389, 352, 420
-0.995121, 1, 25, 128, 88
-0.995147, 45, 97, 76, 224
-0.995163, 281, 393, 296, 456
-0.995211, 225, 185, 352, 216
-0.995223, 241, 173, 368, 204
-0.995243, 217, 369, 248, 496
-0.995277, 33, 433, 288, 496
-0.99528, 177, 405, 304, 436
-0.995308, 261, 1, 292, 128
-0.995352, 95, 241, 110, 304
-0.995375, 289, 369, 320, 496
-0.995404, 105, 249, 120, 312
-0.995406, 287, 385, 302, 448
-0.995448, 321, 225, 352, 352
-0.995471, 193, 137, 320, 168
-0.995477, 33, 377, 288, 440
-0.995498, 345, 369, 375, 496
-0.995516, 221, 313, 236, 376
-0.995526, 263, 153, 278, 216
-0.995598, 1, 353, 375, 416
-0.995616, 33, 401, 288, 464
-0.995642, 57, 81, 88, 208
-0.995645, 177, 393, 304, 424
-0.995672, 241, 217, 368, 280
-0.995685, 17, 245, 144, 276
-0.995699, 129, 97, 375, 160
-0.995705, 275, 385, 290, 448
-0.995719, 255, 145, 270, 208
-0.995729, 161, 457, 288, 488
-0.995755, 49, 169, 176, 200
-0.995784, 341, 225, 372, 352
-0.995786, 1, 129, 375, 192
-0.995815, 119, 273, 134, 336
-0.995819, 225, 149, 352, 180
-0.995831, 111, 265, 126, 328
-0.995858, 17, 49, 144, 112
-0.995878, 201, 193, 232, 320
-0.995879, 145, 125, 272, 156
-0.995923, 199, 137, 214, 200
-0.995927, 161, 165, 288, 196
-0.995963, 145, 257, 208, 384
-0.995983, 209, 153, 224, 216
-0.995989, 189, 305, 220, 432
-0.995999, 81, 169, 96, 232
-0.996005, 177, 381, 304, 412
-0.996008, 277, 241, 308, 368
-0.996015, 129, 257, 192, 500
-0.996016, 223, 153, 238, 216
-0.996025, 97, 257, 224, 288
-0.996034, 217, 345, 232, 408
-0.996079, 193, 349, 320, 380
-0.996115, 1, 1, 128, 64
-0.996117, 97, 257, 352, 320
-0.99619, 177, 417, 304, 448
-0.996248, 241, 329, 368, 360
-0.996251, 283, 417, 298, 480
-0.996253, 227, 129, 242, 192
-0.996263, 109, 17, 140, 144
-0.996291, 293, 385, 308, 448
-0.996292, 115, 297, 130, 360
-0.996312, 1, 153, 128, 184
-0.996326, 113, 161, 240, 192
-0.996335, 205, 129, 220, 192
-0.996363, 277, 425, 292, 488
-0.996372, 177, 177, 304, 208
-0.996373, 1, 89, 375, 152
-0.996378, 95, 145, 110, 208
-0.996389, 229, 313, 244, 376
-0.996405, 137, 145, 152, 208
-0.996435, 75, 201, 90, 264
-0.996436, 1, 329, 375, 392
-0.996465, 243, 145, 258, 208
-0.996487, 163, 105, 178, 168
-0.996487, 217, 169, 232, 232
-0.996491, 225, 457, 352, 488
-0.996493, 113, 85, 240, 116
-0.996499, 207, 385, 222, 448
-0.99652, 129, 209, 375, 272
-0.996526, 275, 313, 290, 376
-0.996552, 89, 241, 104, 304
-0.996561, 1, 401, 375, 464
-0.996569, 1, 1, 64, 500
-0.996573, 17, 265, 144, 296
-0.996602, 97, 245, 224, 276
-0.996606, 253, 241, 284, 368
-0.996629, 209, 309, 336, 340
-0.996629, 97, 349, 224, 380
-0.996633, 21, 97, 52, 224
-0.996653, 225, 429, 352, 460
-0.996669, 129, 49, 375, 112
-0.996677, 335, 313, 350, 376
-0.99669, 97, 413, 224, 444
-0.996697, 17, 277, 144, 308
-0.996705, 275, 289, 290, 352
-0.996709, 25, 145, 56, 272
-0.99671, 241, 137, 368, 168
-0.996722, 17, 273, 80, 400
-0.996728, 241, 293, 368, 324
-0.996731, 57, 225, 88, 352
-0.996741, 273, 345, 288, 408
-0.996748, 341, 313, 356, 376
-0.996748, 145, 197, 272, 228
-0.996762, 289, 417, 304, 480
-0.99677, 263, 321, 278, 384
-0.996773, 75, 177, 90, 240
-0.996773, 197, 401, 212, 464
-0.996777, 265, 129, 280, 192
-0.996779, 129, 445, 256, 476
-0.99682, 215, 313, 230, 376
-0.99682, 265, 177, 280, 240
-0.996825, 193, 161, 208, 224
-0.996839, 97, 321, 224, 352
-0.99684, 233, 1, 264, 128
-0.996846, 89, 161, 104, 224
-0.996849, 193, 325, 320, 356
-0.996857, 333, 289, 348, 352
-0.996861, 127, 241, 142, 304
-0.996878, 145, 113, 160, 176
-0.996891, 249, 145, 264, 208
-0.996898, 161, 469, 288, 500
-0.996901, 107, 289, 122, 352
-0.996903, 271, 425, 286, 488
-0.996905, 299, 385, 314, 448
-0.996915, 265, 345, 280, 408
-0.996915, 281, 289, 296, 352
-0.996916, 193, 337, 320, 368
-0.996939, 33, 81, 288, 144
-0.996939, 113, 433, 240, 464
-0.99694, 303, 313, 318, 376
-0.996943, 187, 153, 202, 216
-0.996946, 321, 177, 352, 304
-0.996949, 157, 225, 188, 352
-0.996953, 197, 113, 212, 176
-0.996965, 145, 153, 160, 216
-0.996969, 223, 337, 238, 400
-0.99697, 97, 125, 224, 156
-0.996976, 97, 361, 224, 392
-0.996978, 333, 177, 364, 304
-0.996979, 269, 313, 284, 376
-0.99698, 307, 153, 322, 216
-0.996983, 83, 145, 98, 208
-0.996988, 269, 385, 284, 448
-0.996989, 229, 345, 244, 408
-0.99699, 241, 417, 368, 448
-0.996994, 249, 345, 264, 408
-0.996996, 97, 137, 224, 168
-0.996997, 17, 289, 144, 320
-0.997001, 153, 145, 168, 208
-0.997003, 1, 33, 256, 96
-0.997004, 309, 313, 324, 376
-0.997006, 211, 345, 226, 408
-0.997018, 255, 345, 270, 408
-0.99702, 97, 269, 224, 300
-0.997021, 249, 377, 264, 440
-0.997027, 309, 377, 324, 440
-0.997028, 99, 265, 114, 328
-0.997035, 245, 209, 260, 272
-0.997044, 83, 241, 98, 304
-0.997051, 259, 177, 274, 240
-0.997062, 237, 193, 252, 256
-0.997078, 97, 397, 224, 428
-0.997082, 97, 101, 224, 132
-0.997092, 125, 265, 140, 328
-0.997117, 241, 341, 368, 372
-0.997125, 225, 377, 352, 408
-0.997126, 1, 425, 375, 488
-0.997128, 281, 313, 296, 376
-0.997129, 97, 281, 224, 312
-0.997136, 1, 241, 375, 304
-0.997139, 113, 217, 128, 280
-0.997144, 293, 313, 308, 376
-0.997158, 169, 193, 200, 320
-0.997171, 239, 345, 254, 408
-0.997176, 129, 113, 256, 144
-0.997187, 161, 429, 288, 460
-0.997195, 193, 49, 208, 112
-0.997207, 101, 145, 116, 208
-0.997211, 341, 345, 356, 408
-0.997212, 287, 177, 302, 240
-0.997229, 255, 385, 270, 448
-0.997237, 269, 289, 284, 352
-0.997237, 319, 289, 334, 352
-0.997242, 145, 209, 272, 240
-0.99725, 287, 313, 302, 376
-0.997251, 121, 217, 136, 280
-0.997251, 341, 281, 356, 344
-0.997264, 177, 97, 304, 128
-0.997271, 141, 73, 156, 136
-0.997274, 65, 217, 192, 248
-0.997279, 315, 385, 330, 448
-0.99728, 151, 121, 166, 184
-0.997284, 257, 321, 272, 384
-0.997293, 243, 417, 258, 480
-0.997298, 65, 157, 192, 188
-0.997299, 121, 153, 136, 216
-0.997301, 97, 385, 224, 416
-0.997313, 177, 369, 304, 400
-0.997313, 97, 333, 224, 364
-0.997318, 199, 161, 214, 224
-0.997319, 271, 169, 286, 232
-0.997326, 97, 233, 352, 296
-0.997343, 243, 369, 258, 432
-0.997344, 287, 289, 302, 352
-0.997362, 209, 205, 336, 236
-0.997363, 93, 17, 124, 144
-0.997369, 313, 161, 328, 224
-0.997378, 119, 245, 134, 276
-0.997389, 183, 57, 198, 120
-0.997393, 177, 77, 304, 108
-0.997393, 69, 201, 84, 264
-0.997395, 17, 309, 144, 340
-0.997396, 105, 225, 120, 288
-0.997404, 161, 309, 288, 340
-0.997408, 319, 313, 334, 376
-0.997411, 81, 297, 208, 328
-0.997411, 69, 81, 100, 208
-0.997411, 169, 241, 184, 304
-0.997423, 353, 89, 368, 152
-0.997424, 97, 309, 224, 340
-0.997425, 221, 281, 236, 344
-0.997429, 213, 369, 228, 432
-0.997433, 97, 25, 352, 88
-0.997436, 131, 153, 146, 216
-0.99744, 193, 257, 224, 384
-0.997447, 97, 373, 224, 404
-0.997453, 235, 313, 250, 376
-0.997457, 327, 297, 342, 360
-0.997466, 199, 73, 214, 136
-0.997494, 93, 337, 124, 464
-0.997497, 67, 177, 82, 240
-0.997502, 161, 33, 192, 160
-0.997505, 225, 125, 352, 156
-0.997505, 113, 457, 240, 488
-0.997508, 145, 161, 208, 416
-0.997512, 65, 229, 192, 260
-0.997515, 109, 145, 124, 208
-0.997519, 233, 129, 248, 192
-0.997527, 211, 113, 226, 176
-0.997532, 249, 313, 264, 376
-0.997541, 249, 425, 264, 488
-0.997542, 121, 257, 136, 288
-0.997547, 225, 469, 352, 500
-0.997552, 77, 129, 108, 384
-0.997559, 263, 425, 278, 488
-0.997562, 141, 33, 156, 96
-0.997563, 177, 57, 192, 120
-0.997565, 149, 89, 164, 152
-0.997568, 157, 113, 172, 176
-0.997568, 193, 297, 320, 328
-0.997573, 113, 469, 240, 500
-0.997575, 113, 69, 240, 100
-0.997588, 141, 193, 172, 320
-0.997591, 49, 181, 176, 212
-0.997621, 181, 369, 212, 496
-0.997633, 17, 233, 144, 264
-0.997633, 221, 97, 252, 352
-0.997635, 293, 225, 324, 352
-0.997639, 97, 129, 128, 384
-0.997648, 49, 205, 176, 236
-0.997655, 129, 177, 256, 208
-0.997663, 49, 137, 176, 168
-0.997664, 69, 17, 100, 144
-0.997665, 113, 245, 128, 276
-0.99768, 125, 129, 156, 384
-0.997708, 145, 325, 272, 356
-0.997762, 145, 337, 272, 368
-0.99777, 217, 345, 232, 376
-0.99777, 181, 1, 212, 256
-0.997793, 125, 245, 140, 276
-0.997802, 145, 357, 272, 388
-0.997816, 191, 145, 206, 176
-0.997819, 263, 161, 278, 192
-0.997819, 217, 153, 232, 184
-0.997828, 225, 165, 240, 196
-0.99784, 177, 445, 304, 476
-0.997844, 157, 321, 188, 448
-0.997852, 225, 445, 352, 476
-0.997862, 129, 57, 256, 88
-0.997872, 1, 181, 128, 212
-0.997877, 205, 129, 236, 384
-0.997888, 207, 157, 222, 188
-0.997889, 113, 261, 128, 292
-0.997908, 141, 129, 172, 384
-0.997933, 169, 33, 200, 288
-0.997938, 37, 17, 68, 144
-0.997953, 223, 149, 238, 180
-0.997961, 253, 177, 268, 208
-0.997967, 49, 193, 176, 224
-0.997973, 107, 261, 122, 292
-0.997983, 197, 161, 212, 192
-0.997987, 177, 113, 304, 144
-0.997992, 109, 129, 140, 384
-0.997993, 17, 333, 144, 364
-0.997999, 241, 353, 368, 384
-0.998, 243, 189, 258, 220
-0.998007, 223, 337, 238, 368
-0.998007, 177, 57, 304, 88
-0.998007, 177, 285, 304, 316
-0.998015, 49, 1, 176, 64
-0.998028, 83, 173, 98, 204
-0.998045, 177, 321, 208, 448
-0.998048, 231, 133, 246, 164
-0.998051, 89, 225, 120, 480
-0.998076, 119, 281, 134, 312
-0.998091, 95, 249, 110, 280
-0.998096, 205, 397, 220, 428
-0.998113, 137, 153, 152, 184
-0.998118, 217, 1, 248, 256
-0.998123, 65, 69, 192, 100
-0.998127, 241, 209, 256, 240
-0.998129, 199, 141, 214, 172
-0.998139, 109, 225, 140, 480
-0.998151, 129, 297, 256, 328
-0.99816, 69, 181, 84, 212
-0.998173, 105, 249, 120, 280
-0.998181, 219, 165, 234, 196
-0.998206, 119, 297, 134, 328
-0.998207, 205, 1, 236, 256
-0.998213, 121, 269, 136, 300
-0.998213, 65, 89, 192, 120
-0.99823, 237, 241, 268, 368
-0.99824, 275, 393, 290, 424
-0.998252, 191, 161, 206, 192
-0.998254, 1, 209, 128, 240
-0.998274, 37, 145, 68, 272
-0.998276, 193, 65, 224, 320
-0.998281, 97, 157, 112, 188
-0.998285, 93, 169, 108, 200
-0.998289, 145, 221, 272, 252
-0.998291, 223, 349, 238, 380
-0.998295, 17, 321, 144, 352
-0.998301, 229, 225, 260, 240
-0.998301, 325, 389, 356, 404
-0.998302, 241, 149, 272, 164
-0.998302, 105, 291, 136, 306
-0.998303, 133, 275, 164, 290
-0.998303, 297, 185, 328, 200
-0.998303, 265, 389, 296, 404
-0.998303, 221, 321, 236, 352
-0.998303, 305, 347, 336, 362
-0.998304, 205, 105, 236, 120
-0.998305, 201, 335, 232, 350
-0.998305, 73, 211, 104, 226
-0.998306, 317, 401, 348, 416
-0.998306, 57, 193, 88, 208
-0.998307, 245, 189, 276, 204
-0.998309, 237, 455, 268, 470
-0.99831, 261, 343, 292, 358
-0.99831, 293, 345, 324, 360
-0.99831, 173, 163, 204, 178
-0.998311, 317, 179, 348, 194
-0.998311, 209, 387, 240, 402
-0.998312, 201, 409, 216, 440
-0.998312, 85, 243, 116, 258
-0.998313, 221, 393, 252, 408
-0.998313, 241, 339, 272, 354
-0.998313, 249, 161, 280, 176
-0.998314, 113, 311, 144, 326
-0.998314, 81, 445, 208, 476
-0.998314, 221, 189, 252, 204
-0.998314, 229, 313, 260, 328
-0.998314, 249, 391, 280, 406
-0.998314, 337, 343, 368, 358
-0.998314, 321, 291, 352, 306
-0.998315, 289, 139, 320, 154
-0.998316, 169, 145, 200, 160
-0.998316, 153, 277, 184, 292
-0.998316, 309, 155, 340, 170
-0.998317, 109, 335, 140, 350
-0.998317, 257, 427, 288, 442
-0.998318, 193, 117, 224, 132
-0.998318, 209, 393, 240, 408
-0.998318, 221, 195, 252, 210
-0.998318, 249, 215, 280, 230
-0.998318, 205, 355, 236, 370
-0.998319, 229, 163, 260, 178
-0.998319, 205, 399, 236, 414
-0.998319, 241, 201, 272, 216
-0.99832, 305, 297, 336, 312
-0.99832, 171, 241, 186, 272
-0.998325, 49, 181, 80, 196
-0.998325, 97, 303, 128, 318
-0.998325, 329, 177, 360, 192
-0.998326, 105, 155, 136, 170
-0.998327, 237, 139, 268, 154
-0.998328, 121, 273, 152, 288
-0.998328, 281, 409, 312, 424
-0.998329, 129, 1, 160, 256
-0.99833, 273, 431, 304, 446
-0.99833, 201, 341, 232, 356
-0.998331, 101, 285, 132, 300
-0.998332, 109, 305, 140, 320
-0.998332, 113, 233, 240, 264
-0.998332, 113, 327, 144, 342
-0.998333, 85, 267, 116, 282
-0.998334, 309, 143, 340, 158
-0.998334, 233, 399, 264, 414
-0.998335, 269, 297, 300, 312
-0.998338, 241, 345, 272, 360
-0.998339, 77, 249, 108, 264
-0.99834, 325, 113, 356, 128
-0.99834, 113, 321, 144, 336
-0.99834, 117, 151, 148, 166
-0.998341, 269, 475, 300, 490
-0.998343, 329, 401, 360, 416
-0.998343, 253, 167, 284, 182
-0.998344, 229, 345, 260, 360
-0.998344, 113, 285, 144, 300
-0.998344, 81, 177, 112, 192
-0.998345, 117, 297, 148, 312
-0.998346, 65, 113, 192, 144
-0.998348, 101, 167, 132, 182
-0.998348, 205, 139, 236, 154
-0.998349, 249, 471, 280, 486
-0.998349, 141, 153, 172, 168
-0.99835, 221, 339, 252, 354
-0.998351, 237, 213, 268, 228
-0.998352, 117, 247, 148, 262
-0.998353, 229, 171, 260, 186
-0.998354, 309, 149, 340, 164
-0.998354, 131, 253, 146, 284
-0.998356, 221, 205, 252, 220
-0.998356, 265, 179, 296, 194
-0.998356, 337, 317, 368, 332
-0.998356, 245, 155, 276, 170
-0.998358, 201, 409, 232, 424
-0.99836, 249, 405, 280, 420
-0.998361, 281, 393, 296, 424
-0.998361, 193, 143, 224, 158
-0.998362, 49, 101, 176, 132
-0.998364, 149, 1, 180, 256
-0.998365, 233, 385, 264, 400
-0.998367, 213, 325, 244, 340
-0.99837, 233, 129, 264, 384
-0.998371, 121, 253, 152, 268
-0.998372, 1, 197, 128, 228
-0.998374, 101, 269, 132, 284
-0.998376, 185, 167, 216, 182
-0.998379, 97, 161, 128, 176
-0.998379, 225, 139, 256, 154
-0.99838, 205, 347, 236, 362
-0.998382, 117, 161, 148, 176
-0.998383, 149, 97, 164, 128
-0.998383, 215, 333, 230, 364
-0.998384, 113, 281, 128, 312
-0.998384, 217, 157, 248, 172
-0.998384, 213, 147, 244, 162
-0.998385, 109, 257, 140, 272
-0.998386, 217, 163, 248, 178
-0.998388, 269, 407, 300, 422
-0.998388, 89, 251, 120, 266
-0.998394, 229, 183, 260, 198
-0.998395, 241, 179, 272, 194
-0.998396, 217, 357, 232, 388
-0.998397, 217, 177, 248, 192
-0.998398, 247, 209, 262, 240
-0.998404, 269, 393, 284, 424
-0.998405, 113, 279, 144, 294
-0.998405, 285, 185, 316, 200
-0.998407, 69, 177, 100, 192
-0.998411, 189, 159, 220, 174
-0.998412, 119, 309, 134, 340
-0.998412, 217, 355, 248, 370
-0.998413, 253, 137, 268, 168
-0.998421, 211, 345, 226, 376
-0.998422, 241, 53, 368, 84
-0.998423, 169, 369, 200, 496
-0.998424, 205, 171, 236, 186
-0.998425, 287, 393, 302, 424
-0.998426, 205, 153, 236, 168
-0.998426, 189, 149, 220, 164
-0.99843, 161, 17, 288, 48
-0.99843, 193, 249, 320, 280
-0.998431, 321, 257, 352, 500
-0.998432, 89, 171, 120, 186
-0.998433, 101, 277, 132, 292
-0.998437, 75, 181, 90, 212
-0.998438, 211, 377, 226, 408
-0.998441, 253, 173, 284, 188
-0.998441, 237, 1, 268, 256
-0.998441, 61, 183, 92, 198
-0.998441, 1, 221, 128, 252
-0.998445, 81, 25, 208, 56
-0.998445, 129, 157, 160, 172
-0.998446, 109, 293, 124, 324
-0.998447, 225, 97, 352, 128
-0.998448, 193, 237, 320, 268
-0.998452, 225, 145, 256, 160
-0.998454, 287, 181, 302, 212
-0.998457, 197, 165, 228, 180
-0.998458, 279, 405, 294, 436
-0.998461, 253, 181, 284, 196
-0.998462, 103, 157, 118, 188
-0.998464, 217, 345, 248, 360
-0.998467, 121, 259, 152, 274
-0.99847, 99, 169, 114, 200
-0.998474, 109, 157, 124, 188
-0.998476, 301, 257, 332, 500
-0.998476, 1, 9, 256, 72
-0.99848, 213, 165, 228, 196
-0.998485, 229, 337, 244, 368
-0.998486, 209, 151, 272, 166
-0.998492, 145, 253, 272, 284
-0.998494, 241, 181, 304, 196
-0.998494, 289, 257, 320, 500
-0.998495, 241, 113, 368, 144
-0.998497, 255, 389, 270, 420
-0.998497, 75, 213, 90, 244
-0.998499, 193, 221, 320, 252
-0.998505, 81, 249, 144, 264
-0.998505, 89, 249, 104, 280
-0.998507, 121, 161, 136, 192
-0.998509, 131, 241, 146, 272
-0.99851, 177, 161, 240, 176
-0.998511, 241, 385, 256, 416
-0.998512, 217, 169, 248, 184
-0.998515, 177, 153, 240, 168
-0.99852, 231, 161, 246, 192
-0.998523, 229, 177, 260, 192
-0.998524, 319, 393, 334, 424
-0.998526, 105, 249, 136, 264
-0.998528, 49, 17, 80, 144
-0.998528, 261, 345, 276, 376
-0.998529, 97, 265, 160, 280
-0.998541, 105, 263, 136, 278
-0.998543, 131, 157, 146, 188
-0.998543, 271, 297, 286, 328
-0.998545, 277, 461, 292, 492
-0.998555, 247, 385, 262, 416
-0.998555, 205, 159, 236, 174
-0.998557, 251, 333, 266, 364
-0.998558, 349, 337, 364, 368
-0.998559, 317, 293, 332, 324
-0.99856, 1, 65, 375, 128
-0.99856, 273, 409, 288, 440
-0.99856, 89, 153, 104, 184
-0.998561, 241, 189, 304, 204
-0.998561, 185, 149, 200, 180
-0.998564, 265, 457, 280, 488
-0.998567, 225, 137, 240, 168
-0.99857, 217, 345, 280, 360
-0.99857, 209, 177, 272, 192
-0.998572, 225, 163, 288, 178
-0.998572, 225, 169, 288, 184
-0.998573, 177, 167, 240, 182
-0.998574, 121, 255, 184, 270
-0.998575, 81, 169, 144, 184
-0.998575, 209, 145, 272, 160
-0.998576, 149, 149, 164, 180
-0.998577, 185, 147, 248, 162
-0.998579, 245, 129, 276, 384
-0.998581, 293, 393, 308, 424
-0.998584, 211, 145, 226, 176
-0.998584, 217, 157, 280, 172
-0.998585, 211, 393, 226, 424
-0.998586, 243, 341, 258, 372
-0.998587, 73, 169, 88, 200
-0.998589, 233, 201, 296, 216
-0.99859, 241, 277, 368, 308
-0.998591, 303, 393, 318, 424
-0.998593, 153, 153, 216, 168
-0.998594, 209, 357, 224, 388
-0.998594, 205, 141, 220, 172
-0.998599, 257, 129, 288, 384
-0.9986, 121, 275, 184, 290
-0.998604, 17, 345, 144, 376
-0.998606, 227, 177, 242, 208
-0.998607, 117, 1, 148, 256
-0.998607, 241, 175, 304, 190
-0.998607, 33, 97, 64, 224
-0.998608, 281, 185, 344, 200
-0.998612, 197, 125, 212, 156
-0.998613, 105, 161, 168, 176
-0.998613, 225, 387, 288, 402
-0.998615, 49, 465, 176, 496
-0.998615, 193, 393, 256, 408
-0.998616, 249, 407, 312, 422
-0.998616, 97, 259, 160, 274
-0.998617, 229, 393, 244, 424
-0.998618, 161, 147, 224, 162
-0.998619, 257, 153, 272, 184
-0.99862, 17, 89, 144, 120
-0.998621, 265, 175, 328, 190
-0.998622, 97, 279, 160, 294
-0.998622, 183, 161, 198, 192
-0.998622, 265, 163, 328, 178
-0.998624, 193, 137, 256, 152
-0.998625, 313, 165, 328, 196
-0.998626, 209, 355, 272, 370
-0.998626, 193, 347, 256, 362
-0.998627, 235, 205, 250, 236
-0.998628, 201, 185, 264, 200
-0.998629, 177, 173, 240, 188
-0.99863, 235, 381, 250, 412
-0.99863, 201, 381, 264, 396
-0.998632, 201, 171, 264, 186
-0.998633, 305, 157, 368, 172
-0.998634, 201, 399, 264, 414
-0.998634, 97, 273, 160, 288
-0.998634, 305, 143, 368, 158
-0.998634, 155, 273, 170, 304
-0.998636, 113, 247, 176, 262
-0.998637, 239, 225, 254, 256
-0.998637, 73, 157, 136, 172
-0.998637, 145, 159, 208, 174
-0.998638, 305, 151, 368, 166
-0.998639, 201, 387, 264, 402
-0.998641, 273, 295, 336, 310
-0.998641, 233, 401, 296, 416
-0.998641, 115, 165, 130, 196
-0.998642, 297, 403, 360, 418
-0.998642, 241, 429, 304, 444
-0.998644, 273, 409, 336, 424
-0.998645, 229, 349, 244, 380
-0.998646, 119, 149, 134, 180
-0.998647, 65, 225, 80, 256
-0.998648, 225, 77, 352, 108
-0.998648, 65, 177, 128, 192
-0.998649, 249, 393, 312, 408
-0.998649, 233, 471, 296, 486
-0.998651, 201, 207, 264, 222
-0.998652, 143, 153, 158, 184
-0.998652, 237, 177, 252, 208
-0.998653, 125, 281, 140, 312
-0.998654, 313, 293, 375, 308
-0.998654, 177, 337, 240, 352
-0.998655, 233, 139, 296, 154
-0.998656, 129, 99, 192, 114
-0.998656, 233, 355, 296, 370
-0.998657, 193, 415, 256, 430
-0.998657, 265, 157, 328, 172
-0.998657, 237, 349, 252, 380
-0.998657, 193, 273, 320, 304
-0.998658, 81, 243, 144, 258
-0.998658, 105, 167, 168, 182
-0.998658, 193, 131, 256, 146
-0.998659, 105, 331, 168, 346
-0.998659, 121, 261, 184, 276
-0.998659, 129, 93, 192, 108
-0.998659, 145, 141, 208, 156
-0.99866, 137, 469, 200, 484
-0.99866, 201, 195, 264, 210
-0.998661, 129, 321, 160, 448
-0.998661, 161, 83, 224, 98
-0.998663, 265, 169, 328, 184
-0.998663, 241, 461, 304, 476
-0.998663, 209, 339, 272, 354
-0.998664, 33, 185, 96, 200
-0.998666, 65, 161, 96, 416
-0.998666, 225, 213, 288, 228
-0.998666, 105, 325, 168, 340
-0.998666, 97, 285, 160, 300
-0.998666, 225, 455, 288, 470
-0.998667, 305, 137, 368, 152
-0.998667, 327, 389, 342, 420
-0.998668, 305, 181, 368, 196
-0.998668, 215, 177, 230, 208
-0.998669, 297, 347, 360, 362
-0.99867, 241, 195, 304, 210
-0.99867, 313, 393, 328, 424
-0.99867, 225, 407, 288, 422
-0.998671, 161, 89, 224, 104
-0.998671, 161, 109, 224, 124
-0.998671, 161, 125, 224, 140
-0.998671, 217, 313, 280, 328
-0.998671, 297, 389, 360, 404
-0.998672, 253, 213, 268, 244
-0.998672, 165, 129, 180, 160
-0.998673, 281, 427, 344, 442
-0.998674, 129, 153, 192, 168
-0.998674, 135, 141, 150, 172
-0.998674, 125, 145, 140, 176
-0.998674, 17, 361, 144, 392
-0.998675, 269, 165, 284, 196
-0.998675, 105, 309, 168, 324
-0.998676, 121, 281, 184, 296
-0.998676, 73, 263, 136, 278
-0.998676, 185, 443, 248, 458
-0.998676, 257, 345, 320, 360
-0.998677, 69, 193, 84, 224
-0.998677, 305, 335, 368, 350
-0.998677, 281, 471, 344, 486
-0.998677, 291, 461, 306, 492
-0.998677, 185, 119, 248, 134
-0.998678, 105, 317, 168, 332
-0.998679, 313, 317, 375, 332
-0.998679, 243, 169, 258, 200
-0.998679, 161, 119, 224, 134
-0.99868, 185, 325, 248, 340
-0.99868, 89, 151, 152, 166
-0.99868, 121, 241, 184, 256
-0.99868, 73, 277, 136, 292
-0.998681, 263, 389, 278, 420
-0.998681, 225, 393, 288, 408
-0.998682, 41, 179, 104, 194
-0.998682, 265, 385, 328, 400
-0.998682, 305, 163, 368, 178
-0.998682, 233, 207, 296, 222
-0.998682, 201, 463, 264, 478
-0.998682, 201, 405, 264, 420
-0.998682, 311, 145, 326, 176
-0.998683, 257, 151, 320, 166
-0.998683, 265, 399, 328, 414
-0.998683, 185, 457, 248, 472
-0.998683, 201, 375, 264, 390
-0.998684, 209, 325, 272, 340
-0.998684, 313, 115, 375, 130
-0.998685, 209, 333, 272, 348
-0.998686, 313, 121, 375, 136
-0.998687, 73, 257, 136, 272
-0.998687, 163, 225, 178, 256
-0.998687, 209, 423, 272, 438
-0.998688, 161, 95, 224, 110
-0.998689, 161, 133, 224, 148
-0.998689, 177, 451, 240, 466
-0.998689, 233, 423, 296, 438
-0.998689, 233, 413, 296, 428
-0.998692, 301, 137, 316, 168
-0.998696, 83, 249, 98, 280
-0.998698, 323, 165, 338, 196
-0.998698, 273, 349, 288, 380
-0.998698, 235, 337, 250, 368
-0.998703, 259, 457, 274, 488
-0.998713, 339, 381, 354, 412
-0.998715, 271, 461, 286, 492
-0.998717, 277, 257, 308, 500
-0.998725, 129, 45, 256, 76
-0.998737, 153, 129, 184, 384
-0.998805, 145, 265, 272, 296
-0.99881, 49, 125, 176, 156
-0.998835, 281, 97, 312, 352
-0.998845, 193, 45, 320, 76
-0.998849, 17, 373, 144, 404
-0.998855, 341, 257, 372, 500
-0.998863, 225, 65, 352, 96
-0.998875, 213, 225, 244, 480
-0.998878, 93, 1, 124, 256
-0.99889, 1, 25, 375, 88
-0.998904, 241, 365, 368, 396
-0.998918, 317, 129, 348, 384
-0.998944, 105, 1, 136, 256
-0.998981, 251, 321, 266, 448
-0.998995, 269, 161, 300, 416
-0.998996, 193, 113, 208, 240
-0.999007, 249, 33, 280, 288
-0.99901, 77, 161, 92, 288
-0.999031, 121, 225, 136, 352
-0.999083, 121, 225, 152, 480
-0.99912, 247, 161, 262, 288
-0.999129, 193, 225, 224, 480
-0.999132, 305, 97, 336, 352
-0.999132, 97, 241, 112, 368
-0.999134, 147, 81, 162, 208
-0.999134, 225, 113, 240, 240
-0.999137, 115, 273, 130, 400
-0.999142, 141, 81, 156, 208
-0.999145, 341, 97, 372, 352
-0.999148, 255, 129, 270, 256
-0.999149, 257, 225, 288, 480
-0.99915, 199, 81, 214, 208
-0.999169, 53, 97, 84, 352
-0.99917, 71, 193, 86, 320
-0.999179, 81, 1, 112, 256
-0.999182, 245, 337, 260, 464
-0.999197, 187, 145, 202, 272
-0.999222, 17, 161, 80, 416
-0.999227, 215, 145, 230, 272
-0.999239, 293, 1, 324, 256
-0.999252, 317, 1, 348, 256
-0.999254, 225, 225, 256, 480
-0.999256, 235, 129, 250, 256
-0.99926, 103, 241, 118, 368
-0.999264, 209, 145, 224, 272
-0.999266, 95, 161, 110, 288
-0.999275, 329, 129, 360, 384
-0.999285, 123, 145, 138, 272
-0.999288, 183, 81, 198, 208
-0.999293, 141, 145, 156, 272
-0.999293, 113, 225, 128, 352
-0.999294, 193, 65, 208, 192
-0.999307, 129, 225, 144, 352
-0.999313, 257, 337, 272, 464
-0.99932, 251, 273, 266, 400
-0.99932, 71, 129, 86, 256
-0.999322, 269, 353, 284, 480
-0.999325, 261, 129, 276, 256
-0.99934, 217, 305, 232, 432
-0.999343, 293, 97, 324, 352
-0.999344, 83, 161, 98, 288
-0.999351, 65, 161, 80, 288
-0.99936, 129, 145, 144, 272
-0.999362, 89, 161, 104, 288
-0.999362, 341, 113, 356, 240
-0.999368, 103, 161, 118, 288
-0.99937, 111, 161, 126, 288
-0.999373, 91, 241, 106, 368
-0.999374, 103, 289, 118, 416
-0.999375, 135, 65, 150, 192
-0.99938, 219, 97, 234, 224
-0.999383, 207, 97, 222, 224
-0.999383, 301, 129, 316, 256
-0.999386, 173, 129, 204, 384
-0.999401, 155, 113, 170, 240
-0.999402, 239, 337, 254, 464
-0.999405, 167, 81, 182, 208
-0.99941, 147, 145, 162, 272
-0.99941, 261, 289, 276, 416
-0.99941, 201, 129, 216, 256
-0.99941, 241, 129, 256, 256
-0.99941, 317, 273, 332, 400
-0.999415, 193, 161, 208, 288
-0.999417, 189, 1, 204, 128
-0.999418, 253, 177, 268, 304
-0.999421, 61, 1, 92, 256
-0.999428, 263, 369, 278, 496
-0.999428, 85, 225, 100, 352
-0.999429, 275, 353, 290, 480
-0.999429, 173, 65, 188, 192
-0.999432, 209, 353, 224, 480
-0.999433, 335, 97, 350, 224
-0.999436, 309, 145, 324, 272
-0.999437, 251, 369, 266, 496
-0.999442, 271, 129, 286, 256
-0.999447, 183, 1, 198, 128
-0.999447, 213, 81, 228, 208
-0.999451, 129, 65, 144, 192
-0.999453, 287, 129, 302, 256
-0.999455, 99, 97, 114, 224
-0.999463, 121, 273, 136, 400
-0.999467, 275, 289, 290, 416
-0.999468, 117, 145, 132, 272
-0.999469, 295, 129, 310, 256
-0.99947, 269, 33, 300, 288
-0.99947, 161, 97, 176, 224
-0.999476, 349, 65, 364, 192
-0.999476, 77, 225, 108, 480
-0.999477, 237, 225, 268, 480
-0.999479, 355, 113, 370, 240
-0.99948, 81, 113, 96, 240
-0.999484, 261, 177, 276, 304
-0.999485, 135, 145, 150, 272
-0.999489, 305, 1, 320, 128
-0.999492, 105, 97, 120, 224
-0.999493, 245, 289, 260, 416
-0.999496, 335, 353, 350, 480
-0.999497, 221, 177, 236, 304
-0.999501, 347, 113, 362, 240
-0.999504, 197, 369, 212, 496
-0.999504, 237, 81, 252, 208
-0.999505, 121, 97, 136, 224
-0.999507, 315, 353, 330, 480
-0.999509, 199, 1, 214, 128
-0.999511, 111, 97, 126, 224
-0.999511, 153, 65, 168, 192
-0.999512, 267, 289, 282, 416
-0.999514, 141, 17, 156, 144
-0.999516, 223, 321, 238, 336
-0.999516, 203, 391, 218, 406
-0.999516, 343, 305, 358, 432
-0.999516, 247, 113, 262, 240
-0.999517, 149, 273, 164, 288
-0.999517, 289, 409, 304, 424
-0.999517, 185, 161, 200, 176
-0.999517, 353, 115, 368, 130
-0.999517, 209, 403, 224, 418
-0.999518, 271, 355, 286, 370
-0.999518, 287, 353, 302, 480
-0.999518, 265, 405, 280, 420
-0.999518, 81, 183, 96, 198
-0.999518, 95, 271, 110, 286
-0.999518, 207, 305, 222, 432
-0.999519, 111, 293, 126, 308
-0.999519, 309, 81, 324, 208
-0.99952, 233, 207, 248, 222
-0.99952, 299, 185, 314, 200
-0.99952, 261, 181, 276, 196
-0.999521, 349, 349, 364, 364
-0.999521, 229, 355, 244, 370
-0.999521, 223, 183, 238, 198
-0.999521, 123, 251, 138, 266
-0.999522, 169, 247, 184, 262
-0.999522, 229, 315, 244, 330
-0.999522, 245, 345, 260, 360
-0.999523, 215, 241, 230, 368
-0.999524, 259, 405, 274, 420
-0.999524, 305, 273, 320, 400
-0.999525, 243, 197, 258, 212
-0.999525, 341, 1, 356, 128
-0.999525, 161, 145, 176, 160
-0.999525, 169, 161, 184, 288
-0.999526, 227, 345, 242, 360
-0.999526, 207, 1, 222, 128
-0.999526, 227, 149, 242, 164
-0.999526, 337, 113, 352, 128
-0.999526, 239, 399, 254, 414
-0.999527, 263, 345, 278, 360
-0.999527, 297, 81, 312, 208
-0.999527, 147, 153, 162, 168
-0.999527, 93, 97, 108, 224
-0.999528, 269, 473, 284, 488
-0.999528, 293, 185, 308, 200
-0.999528, 71, 187, 86, 202
-0.999528, 191, 157, 206, 172
-0.999529, 215, 165, 230, 180
-0.999529, 237, 173, 252, 188
-0.99953, 323, 1, 338, 128
-0.99953, 79, 225, 94, 352
-0.99953, 253, 173, 268, 188
-0.99953, 319, 179, 334, 194
-0.999531, 215, 343, 230, 358
-0.999531, 227, 161, 242, 288
-0.999531, 225, 339, 240, 354
-0.999532, 249, 213, 264, 228
-0.999532, 149, 285, 164, 300
-0.999532, 229, 395, 244, 410
-0.999533, 329, 113, 344, 240
-0.999533, 355, 339, 370, 354
-0.999534, 309, 165, 324, 180
-0.999534, 217, 181, 232, 196
-0.999534, 317, 295, 332, 310
-0.999535, 109, 289, 124, 416
-0.999536, 119, 303, 134, 318
-0.999537, 209, 357, 224, 372
-0.999537, 239, 211, 254, 226
-0.999537, 173, 241, 188, 256
-0.999538, 209, 387, 224, 402
-0.999539, 123, 269, 138, 284
-0.999539, 215, 337, 230, 352
-0.99954, 233, 347, 248, 362
-0.999541, 113, 167, 128, 182
-0.999542, 99, 161, 114, 176
-0.999542, 267, 171, 282, 186
-0.999542, 279, 49, 294, 176
-0.999543, 159, 273, 174, 288
-0.999543, 199, 141, 214, 156
-0.999543, 199, 401, 214, 416
-0.999543, 109, 303, 124, 318
-0.999543, 231, 81, 246, 208
-0.999544, 239, 345, 254, 360
-0.999544, 129, 263, 144, 278
-0.999545, 167, 147, 182, 162
-0.999545, 103, 169, 118, 184
-0.999546, 147, 1, 162, 128
-0.999547, 259, 157, 274, 172
-0.999548, 129, 249, 144, 264
-0.999548, 207, 397, 222, 412
-0.999549, 193, 145, 208, 160
-0.99955, 113, 277, 128, 292
-0.99955, 311, 305, 326, 432
-0.99955, 281, 129, 296, 256
-0.99955, 111, 161, 126, 176
-0.999552, 313, 1, 328, 128
-0.999552, 275, 407, 290, 422
-0.999552, 333, 289, 348, 416
-0.999554, 125, 279, 140, 294
-0.999556, 83, 249, 98, 264
-0.999556, 247, 191, 262, 206
-0.999558, 213, 175, 228, 190
-0.999558, 233, 337, 248, 464
-0.999559, 281, 369, 296, 496
-0.99956, 241, 203, 256, 218
-0.999561, 255, 81, 270, 208
-0.999561, 127, 161, 142, 176
-0.999561, 87, 97, 102, 224
-0.999562, 341, 65, 356, 192
-0.999563, 119, 309, 134, 324
-0.999564, 303, 81, 318, 208
-0.999564, 231, 143, 246, 158
-0.999565, 217, 325, 232, 340
-0.999565, 121, 163, 136, 178
-0.999565, 283, 409, 298, 424
-0.999565, 187, 169, 202, 184
-0.999566, 119, 297, 134, 312
-0.999568, 97, 1, 352, 64
-0.999569, 311, 257, 326, 384
-0.99957, 243, 179, 258, 194
-0.99957, 117, 285, 132, 300
-0.999571, 135, 17, 150, 144
-0.999571, 129, 273, 144, 400
-0.999572, 95, 169, 110, 184
-0.999572, 239, 193, 254, 320
-0.999573, 207, 167, 222, 182
-0.999574, 309, 353, 324, 480
-0.999576, 225, 155, 240, 170
-0.999577, 199, 407, 214, 422
-0.999578, 287, 185, 302, 200
-0.99958, 89, 249, 104, 264
-0.999581, 129, 255, 144, 270
-0.999582, 201, 415, 216, 430
-0.999582, 65, 183, 80, 198
-0.999586, 73, 175, 88, 190
-0.999587, 203, 161, 218, 176
-0.99959, 117, 249, 132, 264
-0.999591, 155, 279, 170, 294
-0.999591, 107, 263, 122, 278
-0.999592, 209, 155, 224, 170
-0.999594, 221, 165, 236, 180
-0.999602, 213, 349, 228, 364
-0.999602, 205, 409, 220, 424
-0.999602, 115, 263, 130, 278
-0.999604, 221, 149, 236, 164
-0.999604, 121, 263, 136, 278
-0.99961, 119, 279, 134, 294
-0.99961, 191, 163, 206, 178
-0.99961, 209, 161, 224, 176
-0.999612, 89, 171, 104, 186
-0.999616, 219, 355, 234, 370
-0.999618, 83, 175, 98, 190
-0.999621, 231, 137, 246, 152
-0.999629, 71, 181, 86, 196
-0.999638, 219, 159, 234, 174
-0.999639, 137, 155, 152, 170
-0.999639, 215, 151, 230, 166
-0.999639, 231, 177, 246, 192
-0.999642, 255, 179, 270, 194
-0.999648, 225, 177, 240, 192
-0.99965, 197, 163, 212, 178
-0.999651, 123, 245, 138, 260
-0.999657, 281, 1, 312, 256
-0.999683, 123, 257, 138, 272
-0.999684, 227, 167, 242, 182
-0.999685, 221, 345, 236, 360
-0.999686, 219, 171, 234, 186
-0.99971, 173, 257, 204, 500
-0.999816, 305, 1, 336, 256
-0.99985, 53, 193, 84, 448
-0.999882, 329, 1, 360, 256
-0.999948, 341, 1, 372, 256
-0.999954, 133, 257, 164, 500
-1.00021, 41, 161, 72, 416
-1.00022, 161, 225, 192, 480
-1.00023, 41, 1, 72, 256
-1.00028, 21, 1, 52, 256
-1.00031, 9, 1, 72, 256
-1.00033, 25, 161, 56, 416
-1.00041, 1, 425, 128, 488
-1.00047, 149, 225, 180, 480
-1.00055, 65, 257, 96, 500
-1.00075, 25, 257, 56, 500
-1.00081, 9, 193, 40, 448
-1.00083, 9, 1, 40, 256
-1.00084, 5, 97, 36, 352
-1.0009, 41, 257, 72, 500
-1.00165, 57, 337, 120, 464
-1.00178, 1, 1, 375, 64
-1.00224, 1, 193, 64, 320
-1.00318, 41, 257, 104, 500
-1.0044, 17, 257, 80, 500
-1.01091, 1, 321, 64, 448
-1.01205, 33, 337, 96, 464
-1.01296, 1, 369, 64, 496
