1887
-0.496621, 161, 1, 416, 333
-0.52288, 1, 65, 500, 320
-0.535721, 1, 1, 500, 333
-0.618477, 257, 1, 500, 333
-0.677682, 65, 1, 320, 333
-0.688195, 129, 65, 384, 320
-0.771767, 225, 1, 480, 256
-0.863858, 1, 1, 256, 256
-0.871603, 225, 1, 352, 333
-0.887778, 273, 1, 400, 333
-0.893994, 177, 1, 304, 333
-0.899507, 225, 65, 352, 320
-0.90518, 177, 65, 304, 320
-0.908039, 321, 1, 448, 333
-0.917246, 129, 145, 384, 272
-0.918397, 1, 177, 500, 304
-0.920883, 129, 65, 256, 320
-0.925427, 305, 65, 432, 320
-0.929798, 1, 97, 500, 224
-0.933182, 49, 65, 176, 320
-0.933188, 161, 97, 416, 224
-0.933858, 81, 1, 208, 333
-0.93737, 1, 1, 500, 128
-0.937452, 129, 1, 256, 333
-0.939679, 129, 193, 384, 320
-0.940287, 369, 1, 496, 333
-0.940757, 281, 113, 344, 240
-0.945412, 241, 113, 368, 240
-0.946716, 177, 97, 304, 224
-0.948287, 257, 113, 320, 240
-0.948466, 353, 1, 480, 256
-0.949613, 33, 1, 160, 333
-0.951654, 225, 161, 352, 288
-0.951938, 129, 49, 384, 176
-0.952993, 145, 145, 272, 272
-0.953953, 273, 65, 336, 192
-0.954434, 313, 81, 376, 208
-0.955138, 233, 113, 296, 240
-0.955229, 185, 113, 248, 240
-0.955468, 225, 145, 480, 272
-0.955588, 1, 145, 256, 272
-0.955595, 161, 193, 288, 320
-0.955686, 33, 193, 288, 320
-0.956071, 1, 65, 128, 320
-0.956465, 241, 65, 304, 192
-0.956472, 241, 65, 368, 192
-0.957289, 273, 161, 336, 288
-0.95746, 225, 209, 352, 333
-0.958207, 1, 49, 500, 176
-0.958424, 281, 193, 344, 256
-0.958934, 209, 113, 272, 240
-0.959017, 161, 129, 224, 256
-0.959042, 225, 17, 480, 144
-0.95914, 65, 97, 320, 224
-0.959364, 257, 193, 320, 256
-0.960059, 257, 81, 500, 208
-0.960083, 297, 161, 360, 288
-0.961469, 113, 193, 240, 320
-0.962521, 137, 177, 200, 304
-0.962635, 273, 97, 336, 160
-0.962885, 289, 81, 416, 208
-0.963789, 225, 209, 480, 333
-0.964607, 217, 193, 280, 320
-0.965418, 273, 121, 336, 184
-0.965489, 321, 129, 384, 256
-0.966265, 305, 97, 368, 160
-0.966969, 281, 161, 344, 224
-0.96726, 281, 217, 344, 280
-0.968332, 241, 169, 304, 232
-0.968411, 297, 209, 360, 333
-0.968598, 321, 193, 384, 320
-0.968735, 249, 81, 312, 144
-0.96878, 249, 161, 312, 288
-0.969092, 289, 129, 416, 256
-0.969585, 153, 153, 216, 216
-0.970012, 297, 33, 360, 160
-0.970108, 273, 177, 400, 304
-0.970619, 289, 33, 416, 160
-0.970942, 217, 65, 280, 192
-0.971015, 1, 49, 256, 176
-0.971184, 313, 129, 376, 192
-0.971184, 137, 185, 200, 248
-0.971827, 225, 81, 288, 144
-0.972619, 289, 1, 352, 64
-0.972902, 185, 113, 248, 176
-0.972989, 97, 129, 224, 256
-0.973147, 193, 193, 256, 320
-0.973731, 305, 185, 368, 248
-0.973858, 233, 105, 296, 168
-0.973906, 241, 17, 368, 144
-0.974037, 225, 193, 288, 256
-0.974698, 217, 161, 280, 224
-0.974776, 193, 49, 320, 176
-0.974779, 193, 185, 256, 248
-0.975293, 161, 193, 224, 320
-0.975564, 225, 89, 352, 152
-0.975661, 241, 113, 368, 176
-0.975787, 177, 105, 304, 168
-0.975976, 313, 153, 376, 216
-0.976168, 257, 209, 320, 333
-0.976366, 273, 1, 336, 128
-0.976529, 129, 1, 384, 128
-0.976652, 281, 113, 312, 240
-0.976832, 169, 185, 232, 248
-0.977079, 313, 113, 344, 240
-0.977702, 273, 73, 336, 136
-0.977781, 145, 153, 272, 216
-0.977847, 65, 177, 192, 304
-0.978119, 277, 185, 308, 248
-0.978257, 305, 217, 368, 280
-0.978275, 241, 137, 304, 200
-0.97834, 193, 153, 256, 216
-0.97837, 269, 97, 300, 224
-0.978402, 277, 97, 308, 160
-0.978446, 241, 153, 368, 216
-0.97846, 293, 89, 324, 152
-0.978696, 257, 233, 320, 296
-0.978848, 137, 129, 200, 256
-0.978984, 225, 177, 352, 240
-0.979434, 305, 97, 336, 160
-0.979443, 305, 65, 336, 192
-0.979461, 293, 193, 324, 256
-0.979862, 313, 65, 376, 320
-0.979904, 49, 129, 176, 256
-0.979954, 257, 97, 288, 160
-0.980031, 321, 177, 448, 304
-0.980227, 265, 161, 296, 224
-0.980259, 177, 193, 304, 256
-0.980421, 337, 129, 400, 192
-0.980464, 293, 113, 324, 240
-0.980697, 225, 113, 256, 240
-0.980933, 325, 193, 356, 320
-0.981342, 193, 65, 256, 192
-0.981456, 313, 73, 376, 136
-0.981496, 189, 113, 220, 240
-0.981611, 277, 161, 308, 224
-0.981626, 321, 89, 352, 152
-0.981627, 173, 129, 204, 256
-0.981664, 209, 105, 272, 168
-0.981673, 337, 49, 464, 176
-0.981804, 113, 177, 176, 304
-0.982047, 129, 185, 256, 248
-0.982086, 289, 65, 320, 192
-0.982131, 257, 113, 288, 240
-0.982391, 273, 89, 400, 152
-0.982502, 253, 169, 284, 232
-0.982604, 269, 145, 300, 272
-0.982641, 161, 129, 224, 192
-0.982656, 321, 153, 352, 216
-0.982763, 241, 201, 368, 264
-0.982926, 297, 241, 360, 304
-0.98312, 201, 81, 264, 144
-0.983364, 249, 57, 312, 120
-0.983398, 313, 193, 344, 320
-0.983507, 333, 145, 364, 272
-0.983544, 265, 1, 328, 64
-0.983711, 273, 65, 336, 320
-0.983723, 333, 105, 364, 168
-0.983754, 129, 217, 192, 280
-0.983759, 237, 113, 268, 240
-0.983841, 129, 161, 192, 224
-0.983873, 325, 97, 356, 224
-0.983948, 237, 193, 268, 320
-0.984106, 337, 81, 400, 208
-0.984196, 157, 145, 188, 272
-0.984292, 281, 161, 312, 288
-0.984343, 289, 121, 416, 184
-0.984368, 281, 1, 344, 333
-0.98443, 201, 113, 232, 240
-0.984502, 329, 97, 392, 160
-0.98458, 337, 153, 400, 216
-0.984618, 213, 113, 244, 240
-0.984651, 253, 145, 284, 208
-0.984672, 313, 121, 344, 184
-0.984691, 189, 121, 220, 184
-0.984724, 33, 1, 288, 128
-0.984796, 337, 97, 368, 224
-0.984838, 265, 193, 296, 256
-0.984895, 173, 145, 204, 208
-0.9849, 237, 161, 268, 224
-0.98499, 289, 153, 416, 216
-0.985022, 289, 33, 352, 96
-0.985115, 161, 129, 288, 192
-0.985219, 241, 17, 304, 144
-0.985304, 113, 185, 176, 248
-0.985644, 301, 161, 332, 288
-0.985675, 313, 209, 344, 272
-0.985795, 289, 161, 320, 224
-0.985804, 193, 153, 320, 216
-0.98591, 225, 193, 256, 320
-0.985946, 301, 161, 332, 224
-0.985978, 169, 65, 232, 320
-0.986082, 225, 65, 352, 128
-0.986204, 281, 209, 312, 272
-0.986278, 329, 185, 360, 248
-0.986294, 321, 33, 384, 160
-0.986312, 273, 73, 304, 136
-0.986325, 193, 65, 256, 320
-0.986357, 233, 225, 296, 288
-0.986431, 253, 193, 284, 256
-0.986468, 261, 73, 292, 136
-0.986491, 81, 81, 208, 208
-0.986493, 289, 209, 416, 272
-0.986499, 253, 65, 284, 192
-0.986546, 225, 225, 352, 288
-0.986548, 129, 209, 256, 272
-0.986735, 201, 257, 264, 320
-0.98674, 333, 161, 364, 224
-0.986972, 237, 185, 268, 248
-0.987039, 241, 81, 272, 144
-0.987182, 329, 177, 392, 240
-0.987202, 301, 121, 332, 184
-0.987224, 177, 81, 304, 144
-0.987307, 141, 177, 172, 304
-0.987326, 325, 129, 356, 192
-0.987362, 149, 169, 180, 232
-0.987492, 225, 161, 256, 224
-0.98759, 233, 33, 296, 288
-0.987835, 17, 177, 144, 304
-0.987857, 241, 105, 272, 168
-0.987861, 269, 121, 300, 184
-0.987882, 321, 241, 384, 304
-0.987952, 305, 185, 336, 248
-0.988173, 353, 1, 480, 128
-0.988225, 321, 1, 384, 64
-0.988289, 345, 33, 408, 160
-0.988304, 257, 1, 320, 333
-0.988313, 305, 1, 368, 333
-0.988362, 241, 249, 368, 312
-0.988475, 177, 225, 304, 288
-0.988522, 317, 1, 348, 64
-0.988563, 317, 185, 348, 248
-0.988595, 349, 97, 380, 224
-0.988628, 345, 145, 376, 208
-0.988628, 1, 113, 128, 240
-0.988689, 369, 209, 496, 333
-0.98875, 301, 225, 332, 288
-0.988786, 345, 129, 408, 256
-0.988845, 353, 121, 384, 184
-0.98887, 305, 17, 336, 144
-0.988891, 209, 185, 240, 248
-0.988952, 329, 49, 360, 176
-0.988955, 169, 193, 200, 320
-0.98902, 233, 65, 264, 192
-0.989044, 161, 153, 192, 216
-0.989108, 217, 129, 280, 192
-0.989111, 213, 193, 244, 320
-0.989177, 273, 257, 336, 320
-0.989192, 105, 153, 168, 216
-0.989282, 97, 145, 224, 208
-0.989301, 241, 101, 304, 132
-0.989347, 233, 1, 296, 333
-0.989348, 81, 185, 208, 248
-0.989438, 273, 177, 400, 240
-0.989443, 337, 65, 400, 320
-0.989501, 249, 161, 280, 288
-0.989572, 297, 209, 328, 333
-0.989606, 201, 209, 264, 272
-0.98966, 89, 161, 152, 288
-0.98974, 201, 105, 232, 168
-0.989742, 137, 113, 200, 176
-0.989746, 253, 121, 284, 184
-0.989762, 273, 93, 336, 124
-0.989793, 281, 197, 344, 228
-0.989832, 221, 185, 252, 248
-0.989896, 325, 217, 356, 280
-0.9899, 161, 185, 192, 248
-0.989901, 281, 209, 344, 240
-0.989947, 113, 129, 176, 256
-0.989992, 305, 1, 432, 64
-0.989996, 129, 81, 256, 208
-0.990096, 305, 73, 336, 136
-0.990202, 265, 105, 328, 136
-0.990231, 265, 25, 328, 88
-0.990277, 217, 101, 280, 132
-0.990349, 345, 177, 408, 304
-0.990487, 289, 241, 416, 304
-0.990491, 249, 89, 312, 120
-0.990502, 185, 189, 248, 220
-0.990553, 161, 209, 224, 272
-0.990571, 257, 197, 320, 228
-0.990629, 321, 1, 352, 128
-0.990633, 313, 145, 376, 176
-0.990638, 197, 193, 228, 320
-0.990666, 313, 101, 376, 132
-0.990667, 289, 1, 352, 32
-0.990732, 177, 1, 304, 128
-0.990737, 289, 105, 352, 136
-0.990752, 265, 117, 328, 148
-0.990785, 401, 1, 464, 128
-0.990844, 161, 113, 416, 176
-0.990874, 153, 177, 216, 208
-0.990891, 225, 117, 288, 148
-0.990892, 329, 209, 392, 272
-0.990893, 137, 193, 200, 224
-0.990948, 201, 173, 264, 204
-0.990949, 249, 257, 312, 320
-0.990964, 273, 57, 400, 120
-0.990971, 193, 113, 256, 144
-0.990983, 305, 193, 368, 224
-0.990993, 329, 1, 392, 333
-0.991038, 161, 197, 224, 228
-0.991048, 205, 65, 236, 192
-0.991054, 313, 129, 376, 160
-0.991071, 129, 153, 384, 216
-0.991085, 225, 89, 288, 120
-0.991102, 241, 161, 304, 192
-0.991108, 281, 121, 312, 184
-0.991116, 197, 177, 228, 240
-0.991142, 233, 181, 296, 212
-0.991206, 1, 1, 128, 128
-0.991234, 321, 81, 448, 144
-0.99124, 145, 65, 208, 320
-0.991245, 89, 185, 152, 248
-0.991262, 337, 97, 464, 224
-0.991275, 169, 153, 232, 184
-0.991275, 289, 153, 352, 184
-0.991298, 225, 257, 288, 320
-0.991312, 257, 217, 320, 248
-0.991319, 209, 205, 272, 236
-0.991341, 141, 193, 172, 256
-0.991356, 185, 201, 248, 232
-0.991367, 229, 97, 260, 160
-0.991402, 281, 221, 344, 252
-0.991403, 269, 193, 300, 320
-0.99142, 129, 213, 192, 244
-0.991431, 233, 205, 296, 236
-0.991461, 265, 161, 328, 192
-0.991484, 217, 161, 280, 192
-0.991548, 225, 149, 288, 180
-0.991649, 113, 241, 240, 304
-0.991652, 225, 193, 288, 224
-0.991684, 305, 89, 368, 120
-0.99172, 257, 181, 320, 212
-0.991752, 169, 141, 232, 172
-0.991759, 281, 181, 344, 212
-0.991763, 225, 1, 352, 64
-0.99178, 193, 1, 256, 333
-0.991825, 345, 97, 376, 160
-0.991831, 161, 209, 224, 240
-0.991916, 305, 213, 368, 244
-0.991919, 337, 145, 400, 176
-0.991935, 313, 113, 376, 144
-0.991955, 129, 185, 384, 248
-0.991965, 193, 157, 256, 188
-0.991968, 173, 185, 204, 248
-0.991982, 193, 101, 256, 132
-0.991997, 269, 33, 300, 160
-0.992009, 213, 153, 244, 216
-0.992039, 289, 141, 352, 172
-0.99204, 273, 129, 336, 160
-0.992069, 257, 145, 320, 176
-0.992079, 253, 209, 284, 333
-0.992137, 297, 165, 360, 196
-0.992176, 177, 257, 240, 320
-0.992187, 113, 121, 240, 184
-0.992197, 273, 81, 336, 112
-0.992214, 305, 77, 368, 108
-0.992215, 305, 25, 432, 88
-0.992228, 33, 225, 160, 288
-0.992234, 329, 157, 392, 188
-0.992242, 145, 157, 208, 188
-0.992252, 329, 89, 392, 120
-0.992273, 89, 209, 152, 333
-0.99229, 129, 181, 192, 212
-0.992297, 161, 257, 288, 320
-0.992374, 289, 233, 352, 264
-0.992374, 249, 77, 312, 108
-0.992395, 197, 153, 228, 216
-0.992397, 337, 121, 464, 184
-0.992397, 329, 177, 392, 208
-0.992398, 297, 249, 360, 280
-0.992404, 289, 41, 352, 72
-0.992429, 257, 101, 288, 132
-0.992434, 361, 81, 424, 208
-0.992479, 233, 217, 296, 248
-0.992517, 185, 129, 248, 160
-0.992527, 265, 5, 328, 36
-0.992529, 333, 81, 364, 144
-0.992534, 201, 233, 264, 296
-0.992539, 313, 237, 376, 268
-0.99256, 145, 141, 208, 172
-0.99257, 289, 25, 352, 56
-0.992576, 277, 233, 308, 296
-0.992588, 301, 93, 332, 124
-0.992591, 289, 13, 352, 44
-0.992619, 241, 105, 272, 136
-0.992651, 237, 193, 268, 224
-0.992662, 337, 133, 400, 164
-0.992674, 49, 145, 176, 208
-0.992685, 201, 217, 264, 248
-0.992697, 289, 117, 352, 148
-0.992698, 257, 229, 320, 260
-0.992705, 269, 161, 300, 192
-0.992713, 293, 105, 324, 136
-0.992716, 273, 97, 304, 128
-0.992728, 305, 181, 368, 212
-0.99273, 173, 145, 204, 176
-0.992736, 209, 197, 240, 228
-0.992743, 81, 217, 208, 280
-0.992744, 257, 117, 288, 148
-0.992747, 221, 65, 252, 192
-0.992752, 257, 89, 288, 120
-0.992758, 313, 225, 376, 256
-0.992769, 153, 89, 216, 152
-0.992772, 305, 113, 336, 144
-0.992789, 289, 233, 320, 296
-0.992789, 201, 89, 264, 120
-0.992798, 205, 105, 236, 136
-0.992807, 309, 205, 340, 236
-0.99281, 157, 193, 188, 320
-0.992814, 273, 109, 304, 140
-0.992831, 253, 177, 284, 208
-0.992834, 353, 105, 416, 168
-0.992845, 285, 197, 316, 228
-0.992845, 197, 189, 228, 220
-0.992862, 281, 161, 312, 192
-0.992867, 321, 101, 352, 132
-0.992874, 321, 177, 448, 240
-0.992876, 245, 157, 276, 188
-0.992877, 273, 245, 336, 276
-0.992885, 321, 149, 352, 180
-0.992886, 225, 25, 352, 88
-0.992887, 297, 197, 328, 228
-0.992906, 209, 273, 336, 333
-0.992909, 97, 197, 160, 228
-0.992919, 181, 193, 212, 320
-0.992922, 177, 221, 240, 252
-0.992938, 221, 197, 252, 228
-0.992944, 337, 121, 400, 152
-0.992955, 341, 149, 372, 180
-0.992959, 217, 1, 280, 128
-0.992963, 297, 209, 328, 240
-0.992988, 329, 189, 360, 220
-0.992999, 313, 217, 344, 248
-0.993015, 185, 137, 216, 168
-0.993017, 209, 185, 240, 216
-0.993031, 265, 257, 328, 288
-0.993033, 217, 109, 248, 140
-0.993037, 277, 217, 308, 248
-0.993048, 265, 25, 328, 56
-0.993051, 313, 25, 376, 56
-0.993054, 105, 177, 168, 208
-0.993056, 325, 161, 356, 192
-0.993058, 433, 285, 496, 316
-0.993059, 313, 9, 376, 40
-0.993062, 265, 173, 296, 204
-0.993068, 197, 117, 228, 148
-0.993075, 313, 37, 376, 68
-0.993091, 97, 209, 160, 240
-0.993091, 129, 225, 192, 256
-0.993096, 253, 189, 284, 220
-0.993097, 177, 177, 240, 208
-0.993102, 289, 225, 320, 256
-0.993103, 217, 97, 248, 128
-0.993103, 161, 129, 224, 160
-0.993106, 233, 177, 264, 208
-0.993109, 217, 209, 248, 240
-0.993112, 157, 193, 188, 224
-0.99312, 229, 105, 260, 136
-0.993121, 357, 141, 388, 172
-0.993127, 1, 65, 128, 192
-0.993129, 313, 89, 344, 120
-0.993129, 257, 157, 288, 188
-0.993135, 209, 265, 272, 296
-0.993136, 261, 205, 292, 236
-0.993137, 285, 89, 316, 120
-0.993141, 97, 209, 160, 272
-0.993143, 153, 221, 216, 252
-0.993144, 317, 189, 348, 220
-0.993145, 153, 117, 216, 148
-0.99315, 317, 1, 348, 32
-0.993153, 217, 157, 248, 188
-0.993155, 193, 201, 224, 232
-0.993159, 313, 25, 376, 88
-0.993166, 349, 49, 380, 176
-0.993171, 177, 185, 208, 216
-0.993185, 273, 205, 304, 236
-0.993187, 341, 161, 372, 192
-0.993189, 337, 109, 400, 140
-0.993191, 233, 165, 264, 196
-0.993198, 221, 185, 252, 216
-0.993198, 341, 93, 372, 124
-0.993202, 201, 141, 264, 172
-0.993217, 305, 157, 336, 188
-0.993219, 309, 229, 340, 260
-0.993222, 273, 85, 304, 116
-0.993228, 225, 57, 288, 120
-0.99323, 169, 101, 232, 132
-0.993232, 293, 117, 324, 148
-0.993233, 325, 89, 356, 120
-0.993242, 225, 77, 288, 108
-0.99325, 193, 177, 224, 208
-0.993252, 333, 133, 364, 164
-0.993254, 241, 93, 272, 124
-0.993258, 293, 157, 324, 188
-0.993258, 229, 209, 260, 240
-0.993262, 177, 201, 208, 232
-0.993265, 145, 177, 176, 208
-0.993267, 169, 157, 200, 188
-0.993271, 309, 249, 340, 280
-0.993272, 297, 185, 328, 216
-0.993284, 217, 173, 248, 204
-0.993284, 313, 17, 344, 48
-0.993289, 353, 121, 384, 152
-0.99329, 293, 57, 324, 120
-0.993291, 333, 121, 364, 152
-0.993297, 141, 201, 172, 232
-0.993299, 329, 205, 392, 236
-0.993309, 265, 217, 296, 248
-0.993311, 105, 165, 168, 196
-0.993312, 337, 177, 368, 208
-0.993314, 257, 145, 288, 176
-0.993314, 121, 141, 184, 172
-0.993315, 277, 177, 308, 208
-0.993323, 329, 201, 360, 232
-0.993326, 233, 117, 264, 148
-0.993327, 265, 37, 328, 68
-0.993332, 305, 125, 336, 156
-0.993343, 329, 189, 392, 220
-0.993346, 145, 189, 176, 220
-0.993353, 345, 109, 376, 140
-0.993355, 129, 169, 192, 200
-0.993372, 121, 241, 184, 304
-0.993376, 157, 213, 188, 244
-0.993383, 201, 157, 232, 188
-0.993385, 313, 137, 344, 168
-0.993392, 269, 121, 300, 152
-0.993397, 321, 237, 352, 268
-0.993403, 337, 81, 368, 112
-0.993407, 245, 209, 276, 240
-0.993415, 293, 245, 324, 276
-0.993415, 345, 137, 376, 168
-0.993419, 333, 109, 364, 140
-0.993421, 317, 113, 348, 144
-0.993425, 297, 261, 360, 292
-0.993425, 233, 273, 296, 304
-0.993426, 309, 177, 340, 208
-0.993428, 205, 213, 236, 244
-0.99343, 257, 269, 320, 300
-0.993431, 293, 1, 324, 32
-0.993431, 305, 29, 336, 60
-0.993433, 265, 185, 296, 216
-0.993434, 157, 157, 188, 188
-0.993441, 289, 17, 320, 144
-0.993449, 193, 89, 448, 152
-0.99345, 185, 125, 216, 156
-0.993451, 233, 229, 296, 260
-0.993458, 321, 125, 352, 156
-0.993459, 129, 209, 384, 272
-0.993459, 185, 157, 216, 188
-0.993461, 325, 217, 356, 248
-0.993462, 269, 149, 300, 180
-0.99347, 353, 93, 416, 124
-0.993471, 173, 133, 204, 164
-0.993472, 353, 153, 384, 184
-0.993482, 233, 149, 264, 180
-0.993485, 245, 117, 276, 148
-0.993495, 353, 93, 384, 124
-0.993497, 245, 81, 276, 112
-0.993501, 317, 77, 348, 108
-0.993503, 317, 37, 348, 68
-0.993503, 177, 213, 208, 244
-0.993507, 289, 77, 320, 108
-0.993512, 153, 145, 184, 176
-0.993515, 229, 93, 260, 124
-0.993519, 253, 221, 284, 252
-0.99352, 281, 149, 312, 180
-0.993522, 257, 77, 288, 108
-0.993528, 249, 57, 312, 88
-0.993531, 361, 1, 424, 256
-0.993534, 157, 169, 188, 200
-0.993536, 273, 53, 336, 84
-0.993543, 353, 81, 416, 112
-0.993559, 177, 121, 208, 184
-0.993563, 1, 17, 128, 80
-0.993564, 305, 45, 336, 76
-0.993565, 301, 17, 332, 48
-0.993572, 233, 1, 296, 32
-0.993575, 241, 265, 272, 296
-0.993586, 281, 121, 312, 152
-0.99359, 185, 265, 248, 296
-0.993592, 293, 29, 324, 60
-0.993593, 193, 213, 224, 244
-0.993597, 301, 249, 332, 312
-0.993598, 33, 169, 160, 232
-0.993638, 233, 261, 296, 292
-0.993645, 321, 249, 384, 280
-0.993646, 137, 129, 200, 160
-0.993684, 249, 133, 312, 164
-0.993689, 113, 153, 176, 184
-0.993718, 121, 249, 184, 280
-0.993719, 409, 1, 472, 64
-0.993725, 329, 77, 392, 108
-0.993726, 273, 69, 336, 100
-0.993733, 361, 97, 392, 224
-0.993739, 105, 225, 168, 256
-0.993748, 225, 137, 288, 168
-0.993768, 209, 277, 272, 308
-0.99378, 361, 133, 424, 164
-0.993804, 9, 65, 72, 96
-0.993818, 353, 157, 416, 188
-0.99382, 1, 137, 64, 168
-0.993839, 433, 297, 496, 328
-0.99385, 65, 121, 192, 184
-0.993856, 193, 201, 224, 264
-0.993861, 129, 193, 160, 320
-0.993864, 33, 193, 160, 256
-0.99387, 313, 233, 344, 296
-0.993935, 329, 1, 360, 64
-0.993939, 137, 1, 200, 333
-0.993974, 65, 249, 192, 312
-0.994001, 225, 89, 352, 120
-0.994063, 369, 1, 432, 333
-0.99408, 241, 257, 272, 320
-0.994121, 113, 265, 240, 328
-0.994189, 217, 97, 248, 160
-0.994194, 241, 1, 304, 64
-0.994265, 129, 33, 256, 160
-0.994284, 301, 193, 316, 256
-0.994358, 353, 73, 416, 136
-0.994369, 321, 65, 352, 128
-0.994376, 301, 1, 332, 64
-0.994389, 225, 101, 352, 132
-0.994411, 325, 241, 356, 304
-0.994434, 285, 209, 316, 333
-0.994487, 1, 105, 128, 168
-0.994554, 357, 145, 388, 208
-0.994573, 129, 181, 256, 212
-0.99459, 33, 153, 288, 216
-0.994608, 185, 153, 216, 216
-0.994615, 177, 105, 304, 136
-0.994616, 177, 117, 304, 148
-0.994668, 297, 265, 360, 328
-0.994722, 209, 201, 336, 232
-0.994772, 365, 121, 396, 184
-0.994789, 161, 1, 224, 333
-0.994802, 377, 1, 440, 128
-0.994833, 309, 49, 340, 112
-0.994878, 337, 193, 368, 320
-0.994921, 185, 177, 216, 240
-0.994974, 129, 81, 256, 144
-0.995, 145, 201, 272, 232
-0.995024, 277, 161, 292, 224
-0.995039, 325, 89, 340, 152
-0.99506, 257, 225, 288, 288
-0.995072, 257, 273, 384, 333
-0.995079, 337, 145, 464, 208
-0.995097, 313, 89, 328, 152
-0.99519, 241, 129, 272, 192
-0.995209, 305, 89, 320, 152
-0.995248, 225, 153, 480, 216
-0.995283, 267, 161, 282, 224
-0.995286, 225, 193, 480, 256
-0.995296, 213, 209, 244, 272
-0.995336, 353, 17, 480, 80
-0.995341, 241, 113, 368, 144
-0.995346, 1, 49, 128, 112
-0.995352, 313, 25, 344, 88
-0.995364, 225, 177, 352, 208
-0.995377, 313, 49, 376, 112
-0.995397, 169, 65, 232, 192
-0.995416, 279, 97, 294, 160
-0.995463, 241, 157, 368, 188
-0.995475, 145, 157, 272, 188
-0.995547, 17, 257, 144, 320
-0.995553, 321, 57, 448, 120
-0.995557, 345, 145, 376, 272
-0.995579, 33, 185, 288, 248
-0.995615, 297, 89, 312, 152
-0.995693, 33, 129, 288, 192
-0.9957, 433, 273, 496, 333
-0.99575, 295, 193, 310, 256
-0.995776, 287, 193, 302, 256
-0.995793, 9, 57, 72, 120
-0.995797, 339, 153, 354, 216
-0.995811, 317, 113, 332, 176
-0.995823, 209, 189, 336, 220
-0.995841, 291, 169, 306, 232
-0.995842, 177, 49, 304, 112
-0.995884, 1, 153, 500, 216
-0.995915, 369, 265, 496, 328
-0.995915, 225, 65, 480, 128
-0.99593, 285, 161, 300, 224
-0.995946, 271, 97, 286, 160
-0.995957, 153, 257, 216, 320
-0.995973, 225, 41, 480, 104
-0.995989, 97, 81, 352, 144
-0.996009, 247, 161, 262, 224
-0.996017, 97, 233, 352, 296
-0.996023, 369, 41, 496, 104
-0.99605, 137, 81, 200, 208
-0.99606, 225, 213, 352, 244
-0.996062, 333, 185, 348, 248
-0.996063, 97, 65, 160, 320
-0.996064, 9, 17, 72, 144
-0.996072, 1, 145, 128, 208
-0.996072, 287, 81, 302, 144
-0.996078, 191, 129, 206, 192
-0.996144, 225, 193, 240, 256
-0.996149, 169, 81, 200, 208
-0.996177, 241, 161, 256, 224
-0.99618, 267, 185, 282, 248
-0.996193, 259, 81, 274, 144
-0.996204, 319, 89, 334, 152
-0.996204, 177, 233, 240, 296
-0.996209, 49, 1, 176, 128
-0.996237, 269, 137, 284, 200
-0.996249, 257, 169, 272, 232
-0.996264, 317, 49, 348, 176
-0.996265, 327, 137, 342, 200
-0.996268, 197, 121, 212, 184
-0.996278, 245, 225, 276, 288
-0.996295, 297, 161, 312, 224
-0.996306, 97, 1, 160, 333
-0.996347, 263, 105, 278, 168
-0.996348, 265, 81, 280, 144
-0.996362, 177, 73, 240, 136
-0.996363, 225, 1, 480, 64
-0.996377, 257, 129, 500, 192
-0.996379, 247, 193, 262, 256
-0.996379, 145, 1, 272, 64
-0.996396, 217, 1, 280, 64
-0.996398, 193, 165, 320, 196
-0.996409, 113, 213, 240, 244
-0.996413, 273, 97, 400, 128
-0.996418, 321, 265, 448, 328
-0.996424, 219, 193, 234, 256
-0.996442, 1, 73, 128, 136
-0.996446, 329, 1, 344, 64
-0.996452, 257, 145, 384, 176
-0.996462, 177, 213, 304, 244
-0.99651, 233, 161, 248, 224
-0.996525, 121, 33, 184, 288
-0.996525, 331, 97, 346, 160
-0.996529, 345, 233, 408, 296
-0.996542, 281, 193, 296, 256
-0.996545, 257, 125, 384, 156
-0.996589, 289, 109, 416, 140
-0.996617, 401, 209, 464, 333
-0.996618, 253, 81, 268, 144
-0.996627, 273, 217, 400, 248
-0.996645, 307, 193, 322, 256
-0.996648, 169, 153, 184, 216
-0.996667, 239, 193, 254, 256
-0.996686, 9, 89, 72, 152
-0.996696, 161, 141, 288, 172
-0.996715, 225, 217, 480, 280
-0.99672, 229, 257, 260, 320
-0.996726, 257, 201, 384, 232
-0.996729, 349, 193, 380, 320
-0.996733, 365, 113, 380, 176
-0.996735, 1, 209, 256, 272
-0.996759, 281, 73, 296, 136
-0.996761, 349, 145, 364, 208
-0.996802, 213, 185, 228, 248
-0.996809, 231, 193, 246, 256
-0.99681, 253, 193, 268, 256
-0.996816, 333, 1, 364, 128
-0.99683, 327, 209, 342, 272
-0.996839, 353, 241, 480, 304
-0.99686, 1, 89, 256, 152
-0.996869, 275, 193, 290, 256
-0.996886, 303, 161, 318, 224
-0.996888, 333, 161, 348, 224
-0.996892, 313, 257, 344, 320
-0.9969, 225, 209, 256, 272
-0.9969, 97, 233, 160, 296
-0.9969, 203, 113, 218, 176
-0.996903, 359, 113, 374, 176
-0.996929, 275, 121, 290, 184
-0.996932, 323, 113, 338, 176
-0.99694, 81, 97, 208, 160
-0.996986, 225, 225, 352, 256
-0.996989, 1, 129, 64, 192
-0.99699, 257, 105, 272, 168
-0.997, 129, 169, 256, 200
-0.997004, 161, 169, 176, 232
-0.997013, 289, 157, 416, 188
-0.997018, 153, 177, 168, 240
-0.997021, 261, 145, 276, 208
-0.997033, 175, 145, 190, 208
-0.997039, 377, 25, 440, 88
-0.997043, 393, 1, 456, 333
-0.997044, 247, 81, 262, 144
-0.997048, 221, 153, 236, 216
-0.997055, 185, 137, 200, 200
-0.997055, 307, 121, 322, 184
-0.997074, 1, 1, 64, 333
-0.997076, 97, 193, 224, 224
-0.997089, 129, 193, 160, 256
-0.997092, 57, 265, 120, 328
-0.997102, 145, 129, 176, 256
-0.997104, 181, 65, 212, 192
-0.99711, 1, 217, 500, 280
-0.997121, 65, 273, 192, 333
-0.997128, 177, 177, 304, 208
-0.997145, 209, 145, 336, 176
-0.997166, 271, 73, 286, 136
-0.99717, 177, 25, 304, 88
-0.997175, 9, 33, 72, 96
-0.997176, 347, 121, 362, 184
-0.997189, 291, 217, 306, 280
-0.997194, 321, 177, 336, 240
-0.997243, 289, 121, 304, 184
-0.997252, 137, 169, 168, 232
-0.997259, 207, 185, 222, 248
-0.997261, 193, 257, 448, 320
-0.997264, 327, 185, 342, 248
-0.997276, 255, 145, 270, 208
-0.997289, 1, 129, 500, 192
-0.997307, 313, 161, 328, 224
-0.997343, 297, 217, 312, 280
-0.997364, 221, 73, 252, 136
-0.997372, 147, 177, 162, 240
-0.997385, 89, 257, 152, 320
-0.997398, 225, 137, 256, 200
-0.997412, 217, 257, 248, 320
-0.997416, 297, 105, 312, 136
-0.997424, 273, 85, 400, 116
-0.997445, 171, 193, 186, 256
-0.997456, 259, 101, 274, 132
-0.997459, 129, 57, 384, 120
-0.997467, 265, 101, 280, 132
-0.997475, 369, 65, 496, 128
-0.997484, 201, 193, 216, 256
-0.997498, 177, 89, 304, 120
-0.997499, 313, 209, 328, 272
-0.997503, 237, 97, 252, 160
-0.99752, 161, 129, 288, 160
-0.99753, 325, 65, 340, 128
-0.997534, 289, 17, 320, 80
-0.997559, 271, 105, 286, 136
-0.997578, 231, 193, 246, 224
-0.997579, 281, 161, 296, 192
-0.997582, 33, 257, 288, 320
-0.997587, 205, 153, 220, 216
-0.997588, 337, 209, 464, 272
-0.997607, 333, 129, 348, 192
-0.997607, 297, 121, 312, 184
-0.997609, 309, 1, 324, 64
-0.997612, 345, 169, 360, 232
-0.997612, 269, 209, 284, 272
-0.997616, 321, 209, 336, 272
-0.99762, 301, 57, 316, 120
-0.997628, 205, 189, 220, 220
-0.997628, 281, 49, 312, 112
-0.997638, 259, 193, 274, 256
-0.997642, 355, 137, 370, 200
-0.997646, 241, 249, 368, 280
-0.99768, 339, 177, 354, 240
-0.997689, 225, 193, 240, 224
-0.997689, 303, 217, 318, 280
-0.997701, 247, 193, 262, 224
-0.997702, 253, 101, 268, 132
-0.997707, 321, 153, 336, 216
-0.997707, 301, 197, 316, 228
-0.99771, 73, 1, 136, 333
-0.997725, 253, 257, 284, 320
-0.997732, 353, 105, 368, 168
-0.997754, 211, 153, 226, 216
-0.997758, 225, 205, 240, 236
-0.997764, 365, 97, 396, 160
-0.997773, 315, 65, 330, 128
-0.997776, 361, 137, 376, 200
-0.997779, 315, 113, 330, 144
-0.99778, 129, 137, 192, 200
-0.997792, 9, 81, 72, 208
-0.997796, 211, 105, 226, 168
-0.997802, 251, 257, 266, 320
-0.997814, 273, 161, 288, 192
-0.997814, 251, 105, 266, 168
-0.997819, 227, 153, 242, 216
-0.99782, 331, 65, 346, 128
-0.997832, 237, 197, 252, 228
-0.997839, 219, 193, 234, 224
-0.99784, 369, 33, 400, 160
-0.997848, 193, 153, 208, 216
-0.997848, 323, 1, 338, 64
-0.997852, 1, 105, 500, 168
-0.997852, 97, 149, 224, 180
-0.997865, 1, 233, 256, 296
-0.997871, 213, 185, 228, 216
-0.997876, 113, 225, 240, 256
-0.997883, 281, 129, 296, 192
-0.99789, 181, 209, 212, 272
-0.997894, 247, 181, 262, 212
-0.997897, 255, 177, 270, 208
-0.997901, 161, 265, 288, 296
-0.997902, 1, 193, 500, 256
-0.997903, 239, 173, 254, 204
-0.997915, 287, 161, 302, 192
-0.997919, 323, 249, 338, 312
-0.997922, 25, 1, 88, 333
-0.997925, 317, 1, 348, 256
-0.997926, 225, 77, 352, 108
-0.997929, 321, 145, 448, 176
-0.997929, 177, 145, 192, 176
-0.997938, 201, 257, 232, 320
-0.997939, 277, 89, 292, 120
-0.99794, 335, 1, 350, 64
-0.997943, 273, 237, 400, 268
-0.997945, 225, 25, 352, 56
-0.997952, 1, 17, 500, 80
-0.99796, 299, 209, 314, 240
-0.997961, 193, 65, 224, 192
-0.997963, 237, 105, 252, 136
-0.997964, 49, 33, 176, 96
-0.997967, 309, 233, 324, 296
-0.997967, 305, 33, 432, 64
-0.997968, 253, 193, 268, 224
-0.997972, 267, 89, 282, 120
-0.997974, 325, 105, 340, 136
-0.997976, 307, 193, 322, 224
-0.997977, 333, 189, 348, 220
-0.997977, 247, 105, 262, 136
-0.997984, 289, 249, 416, 280
-0.997986, 165, 193, 180, 256
-0.997996, 177, 225, 304, 256
-0.997997, 195, 177, 210, 240
-0.998009, 313, 185, 328, 248
-0.998013, 301, 17, 316, 80
-0.998017, 305, 21, 432, 52
-0.998023, 315, 249, 330, 312
-0.998038, 321, 201, 336, 232
-0.99804, 277, 101, 292, 132
-0.99804, 181, 185, 196, 248
-0.998056, 331, 93, 346, 124
-0.998061, 361, 89, 376, 152
-0.998063, 227, 105, 242, 136
-0.998063, 295, 57, 310, 120
-0.998071, 267, 161, 282, 192
-0.998084, 57, 209, 120, 333
-0.998086, 341, 157, 356, 188
-0.998086, 333, 217, 348, 280
-0.998091, 261, 89, 276, 120
-0.998095, 337, 81, 352, 144
-0.998095, 309, 49, 324, 112
-0.998099, 287, 57, 302, 120
-0.998106, 217, 105, 232, 136
-0.99811, 267, 173, 282, 204
-0.998111, 315, 93, 330, 124
-0.998113, 229, 97, 244, 160
-0.998118, 293, 193, 308, 224
-0.998126, 257, 189, 384, 220
-0.998133, 327, 145, 342, 176
-0.998139, 245, 257, 260, 320
-0.99814, 217, 105, 232, 168
-0.998153, 341, 169, 356, 200
-0.998158, 203, 177, 218, 208
-0.998159, 331, 25, 346, 88
-0.998164, 297, 89, 312, 120
-0.99817, 367, 137, 382, 200
-0.99817, 321, 97, 448, 128
-0.998171, 265, 113, 280, 144
-0.998177, 121, 145, 152, 272
-0.998189, 307, 93, 322, 124
-0.998189, 305, 201, 432, 232
-0.99819, 313, 205, 328, 236
-0.998193, 237, 161, 252, 192
-0.9982, 189, 137, 204, 168
-0.99821, 33, 193, 96, 320
-0.99821, 259, 113, 274, 144
-0.998211, 273, 177, 288, 208
-0.998218, 197, 189, 212, 220
-0.998221, 329, 1, 344, 32
-0.998225, 81, 137, 208, 168
-0.998228, 325, 25, 356, 88
-0.998232, 337, 93, 352, 124
-0.998233, 327, 161, 342, 224
-0.998235, 287, 89, 302, 120
-0.998236, 1, 1, 256, 64
-0.998239, 393, 265, 456, 328
-0.998242, 259, 217, 274, 280
-0.998244, 177, 121, 192, 184
-0.998245, 231, 205, 246, 236
-0.998253, 81, 181, 208, 212
-0.998253, 289, 105, 304, 136
-0.998254, 363, 141, 378, 172
-0.998259, 335, 165, 350, 196
-0.998261, 197, 125, 212, 156
-0.998263, 225, 237, 352, 268
-0.998264, 113, 1, 176, 64
-0.998282, 249, 1, 280, 128
-0.998287, 1, 41, 500, 104
-0.998289, 325, 93, 340, 124
-0.998289, 261, 177, 276, 208
-0.998295, 305, 65, 336, 320
-0.998296, 239, 257, 254, 320
-0.998299, 245, 169, 260, 200
-0.998308, 249, 57, 280, 120
-0.998312, 257, 257, 272, 320
-0.998318, 203, 113, 218, 144
-0.99832, 305, 9, 432, 40
-0.998321, 209, 109, 224, 140
-0.998321, 325, 129, 340, 160
-0.998324, 157, 149, 188, 164
-0.998325, 309, 191, 340, 206
-0.998325, 289, 193, 320, 208
-0.998326, 305, 229, 336, 244
-0.998326, 171, 153, 186, 184
-0.998327, 253, 179, 284, 194
-0.998328, 333, 187, 364, 202
-0.998328, 257, 209, 288, 224
-0.99833, 49, 197, 176, 228
-0.998331, 301, 99, 332, 114
-0.998333, 313, 243, 344, 258
-0.998333, 297, 213, 328, 228
-0.998333, 205, 105, 236, 120
-0.998335, 269, 221, 300, 236
-0.998335, 301, 87, 332, 102
-0.998336, 345, 95, 376, 110
-0.998337, 209, 211, 240, 226
-0.998337, 65, 213, 192, 244
-0.998338, 193, 179, 224, 194
-0.998338, 209, 181, 240, 196
-0.998338, 157, 215, 188, 230
-0.998338, 357, 129, 372, 160
-0.998339, 225, 9, 352, 40
-0.998339, 229, 105, 260, 120
-0.99834, 287, 217, 302, 248
-0.99834, 333, 123, 364, 138
-0.998341, 317, 3, 348, 18
-0.998341, 289, 103, 320, 118
-0.998343, 305, 125, 336, 140
-0.998343, 277, 205, 308, 220
-0.998344, 321, 85, 448, 116
-0.998345, 237, 163, 268, 178
-0.998347, 265, 153, 296, 168
-0.998347, 157, 197, 188, 212
-0.998347, 141, 207, 172, 222
-0.998348, 281, 157, 312, 172
-0.998348, 241, 169, 272, 184
-0.998349, 261, 173, 292, 188
-0.99835, 189, 217, 220, 232
-0.998351, 269, 93, 300, 108
-0.998351, 355, 113, 370, 144
-0.998352, 169, 217, 200, 232
-0.998352, 233, 117, 264, 132
-0.998352, 189, 133, 220, 148
-0.998353, 193, 127, 224, 142
-0.998354, 297, 161, 328, 176
-0.998354, 177, 143, 208, 158
-0.998354, 245, 117, 276, 132
-0.998355, 329, 85, 360, 100
-0.998356, 129, 109, 256, 140
-0.998356, 221, 221, 252, 236
-0.998357, 245, 193, 276, 208
-0.998357, 289, 121, 320, 136
-0.998358, 219, 205, 234, 236
-0.998361, 217, 171, 248, 186
-0.998361, 289, 87, 320, 102
-0.998362, 321, 111, 352, 126
-0.998362, 271, 117, 286, 148
-0.998362, 221, 215, 252, 230
-0.998363, 349, 113, 380, 128
-0.998364, 181, 191, 212, 206
-0.998364, 189, 203, 220, 218
-0.998366, 241, 261, 368, 292
-0.998366, 303, 105, 318, 136
-0.998369, 281, 221, 312, 236
-0.99837, 149, 191, 180, 206
-0.99837, 237, 157, 268, 172
-0.998371, 333, 91, 364, 106
-0.998371, 325, 165, 356, 180
-0.998371, 329, 193, 360, 208
-0.998375, 269, 163, 300, 178
-0.998375, 217, 103, 248, 118
-0.998376, 269, 87, 300, 102
-0.998377, 313, 87, 344, 102
-0.998378, 317, 223, 348, 238
-0.998378, 353, 149, 384, 164
-0.998378, 321, 203, 352, 218
-0.99838, 333, 159, 364, 174
-0.99838, 301, 245, 332, 260
-0.998381, 277, 117, 292, 148
-0.998381, 221, 161, 252, 176
-0.998381, 205, 203, 236, 218
-0.998383, 275, 205, 290, 236
-0.998383, 285, 93, 316, 108
-0.998383, 247, 157, 262, 188
-0.998384, 269, 119, 300, 134
-0.998384, 325, 151, 356, 166
-0.998387, 357, 141, 388, 156
-0.998387, 169, 157, 200, 172
-0.998387, 209, 219, 240, 234
-0.998388, 297, 223, 328, 238
-0.998389, 277, 193, 308, 208
-0.998392, 329, 99, 360, 114
-0.998395, 309, 213, 340, 228
-0.998395, 341, 165, 372, 180
-0.998395, 241, 105, 304, 120
-0.998397, 257, 87, 288, 102
-0.998397, 253, 99, 284, 114
-0.998398, 337, 105, 368, 120
-0.9984, 241, 205, 272, 220
-0.998402, 309, 113, 324, 144
-0.998404, 169, 193, 184, 224
-0.998406, 213, 201, 228, 232
-0.998407, 347, 97, 362, 128
-0.998408, 193, 65, 224, 320
-0.99841, 309, 197, 340, 212
-0.99841, 261, 203, 292, 218
-0.998411, 257, 93, 288, 108
-0.998412, 209, 187, 240, 202
-0.998413, 281, 115, 312, 130
-0.998414, 201, 117, 232, 132
-0.998414, 281, 163, 312, 178
-0.998415, 249, 157, 280, 172
-0.998415, 217, 117, 248, 132
-0.998415, 345, 155, 376, 170
-0.998415, 227, 157, 242, 188
-0.998416, 301, 105, 332, 120
-0.998418, 305, 119, 336, 134
-0.998419, 273, 99, 304, 114
-0.998421, 297, 205, 328, 220
-0.998422, 129, 97, 256, 128
-0.998423, 321, 157, 352, 172
-0.998424, 313, 93, 344, 108
-0.998425, 233, 191, 264, 206
-0.998426, 257, 157, 272, 188
-0.998426, 245, 111, 276, 126
-0.998426, 129, 1, 384, 64
-0.998427, 197, 197, 228, 212
-0.998432, 255, 89, 270, 120
-0.998432, 325, 105, 356, 120
-0.998437, 229, 171, 260, 186
-0.998437, 345, 73, 376, 136
-0.998437, 257, 117, 288, 132
-0.998438, 229, 203, 260, 218
-0.998446, 295, 161, 310, 192
-0.998446, 265, 107, 328, 122
-0.998447, 265, 105, 296, 120
-0.998449, 349, 145, 364, 176
-0.99845, 327, 213, 342, 244
-0.99845, 197, 177, 212, 208
-0.998453, 257, 111, 288, 126
-0.998455, 277, 175, 308, 190
-0.998461, 341, 65, 372, 320
-0.998461, 241, 37, 368, 68
-0.998461, 241, 105, 272, 120
-0.998462, 257, 197, 288, 212
-0.998463, 305, 113, 336, 128
-0.998466, 241, 199, 272, 214
-0.998468, 293, 115, 324, 130
-0.99847, 279, 217, 294, 248
-0.998476, 205, 111, 236, 126
-0.998479, 81, 169, 208, 200
-0.99848, 217, 205, 248, 220
-0.998481, 221, 191, 252, 206
-0.998482, 269, 113, 300, 128
-0.998484, 365, 109, 380, 140
-0.998489, 183, 141, 198, 172
-0.998489, 377, 1, 440, 64
-0.998489, 281, 199, 312, 214
-0.998491, 209, 129, 240, 192
-0.998493, 241, 111, 304, 126
-0.998494, 247, 93, 262, 124
-0.998495, 221, 65, 252, 320
-0.998495, 209, 111, 272, 126
-0.998496, 197, 189, 228, 204
-0.998496, 241, 185, 256, 216
-0.998498, 229, 197, 260, 212
-0.998499, 297, 199, 328, 214
-0.9985, 327, 197, 342, 228
-0.998503, 231, 181, 246, 212
-0.998508, 293, 209, 308, 240
-0.998511, 173, 149, 204, 164
-0.998513, 309, 207, 340, 222
-0.998514, 209, 195, 240, 210
-0.998514, 257, 199, 320, 214
-0.998516, 209, 133, 336, 164
-0.998517, 1, 241, 500, 304
-0.998518, 217, 105, 280, 120
-0.998519, 207, 201, 222, 232
-0.99852, 279, 177, 294, 208
-0.998524, 169, 195, 232, 210
-0.99853, 217, 111, 248, 126
-0.99853, 273, 169, 400, 200
-0.998532, 277, 105, 308, 120
-0.998533, 193, 189, 256, 204
-0.998533, 335, 145, 350, 176
-0.998534, 265, 113, 328, 128
-0.998535, 297, 107, 360, 122
-0.998535, 241, 273, 368, 304
-0.998536, 233, 111, 264, 126
-0.99854, 281, 93, 344, 108
-0.998541, 273, 217, 288, 248
-0.998544, 287, 117, 302, 148
-0.998544, 241, 49, 368, 80
-0.998545, 237, 117, 252, 148
-0.998548, 201, 201, 216, 232
-0.998551, 321, 117, 336, 148
-0.998557, 209, 205, 272, 220
-0.998559, 289, 181, 304, 212
-0.99856, 57, 153, 120, 216
-0.998561, 363, 121, 378, 152
-0.998561, 161, 189, 224, 204
-0.998561, 225, 199, 288, 214
-0.998562, 281, 197, 296, 228
-0.998565, 249, 117, 264, 148
-0.998567, 313, 141, 376, 156
-0.998567, 287, 197, 302, 228
-0.998568, 281, 197, 344, 212
-0.998569, 307, 209, 322, 240
-0.998569, 161, 189, 176, 220
-0.998572, 313, 147, 376, 162
-0.998575, 355, 149, 370, 180
-0.998579, 117, 209, 148, 333
-0.998584, 341, 109, 356, 140
-0.998585, 289, 223, 352, 238
-0.998585, 185, 111, 248, 126
-0.998585, 225, 117, 288, 132
-0.998585, 369, 241, 432, 304
-0.998585, 193, 117, 256, 132
-0.998587, 297, 191, 360, 206
-0.998587, 313, 87, 376, 102
-0.998587, 33, 237, 160, 268
-0.998588, 129, 217, 192, 232
-0.998589, 281, 211, 344, 226
-0.998594, 213, 173, 228, 204
-0.998597, 265, 101, 328, 116
-0.998597, 267, 145, 282, 176
-0.998598, 289, 217, 352, 232
-0.998598, 289, 45, 416, 76
-0.998598, 297, 101, 360, 116
-0.998599, 289, 161, 352, 176
-0.998599, 289, 109, 320, 124
-0.998599, 281, 113, 296, 240
-0.998602, 313, 135, 376, 150
-0.998602, 185, 203, 248, 218
-0.998607, 349, 157, 364, 188
-0.998607, 297, 113, 360, 128
-0.998607, 161, 219, 224, 234
-0.998609, 273, 205, 336, 220
-0.99861, 249, 87, 312, 102
-0.99861, 305, 197, 368, 212
-0.998612, 225, 157, 288, 172
-0.998614, 249, 93, 312, 108
-0.998614, 289, 1, 352, 16
-0.998616, 241, 99, 304, 114
-0.998616, 193, 221, 256, 236
-0.998617, 321, 99, 384, 114
-0.998617, 313, 153, 376, 168
-0.998617, 305, 203, 368, 218
-0.998618, 249, 221, 312, 236
-0.998619, 209, 173, 272, 188
-0.998619, 321, 133, 448, 164
-0.998619, 249, 175, 312, 190
-0.99862, 193, 195, 256, 210
-0.99862, 201, 215, 264, 230
-0.99862, 137, 191, 200, 206
-0.998621, 241, 163, 304, 178
-0.998621, 221, 181, 236, 212
-0.998622, 313, 93, 376, 108
-0.998623, 241, 169, 304, 184
-0.998623, 209, 213, 224, 244
-0.998625, 253, 105, 284, 120
-0.998625, 273, 121, 336, 136
-0.998627, 217, 99, 280, 114
-0.998627, 303, 81, 318, 112
-0.998628, 295, 177, 310, 208
-0.998629, 169, 151, 232, 166
-0.998629, 225, 93, 288, 108
-0.99863, 169, 145, 232, 160
-0.99863, 313, 129, 376, 144
-0.998631, 233, 193, 296, 208
-0.998631, 205, 65, 236, 320
-0.998632, 169, 159, 232, 174
-0.998632, 171, 213, 186, 244
-0.998632, 289, 87, 352, 102
-0.998635, 225, 217, 288, 232
-0.998638, 289, 9, 352, 24
-0.998638, 241, 65, 368, 96
-0.998638, 151, 177, 166, 208
-0.998638, 321, 105, 384, 120
-0.99864, 311, 233, 326, 264
-0.998641, 233, 205, 296, 220
-0.998643, 191, 125, 206, 156
-0.998646, 137, 199, 200, 214
-0.998647, 257, 193, 320, 208
-0.99865, 337, 41, 400, 104
-0.99865, 231, 169, 246, 200
-0.99865, 357, 97, 372, 128
-0.998652, 281, 247, 344, 262
-0.998653, 269, 205, 284, 236
-0.998653, 177, 211, 240, 226
-0.998655, 233, 187, 296, 202
-0.998655, 265, 161, 328, 176
-0.998656, 249, 153, 312, 168
-0.998656, 273, 133, 336, 148
-0.998659, 249, 121, 312, 136
-0.998661, 193, 181, 256, 196
-0.998663, 233, 211, 296, 226
-0.998663, 257, 227, 320, 242
-0.998666, 301, 25, 332, 88
-0.998667, 297, 221, 312, 252
-0.998668, 185, 129, 248, 144
-0.998668, 289, 231, 352, 246
-0.998668, 337, 151, 400, 166
-0.99867, 201, 161, 264, 176
-0.998671, 289, 155, 352, 170
-0.998673, 129, 211, 192, 226
-0.998673, 161, 183, 224, 198
-0.998676, 161, 201, 224, 216
-0.998676, 265, 181, 328, 196
-0.998677, 129, 223, 192, 238
-0.998678, 25, 129, 88, 192
-0.998679, 185, 123, 248, 138
-0.998682, 319, 157, 334, 188
-0.998682, 273, 175, 336, 190
-0.998682, 297, 241, 360, 256
-0.998682, 241, 181, 304, 196
-0.998684, 289, 185, 352, 200
-0.998686, 193, 105, 256, 120
-0.998689, 217, 179, 280, 194
-0.998689, 145, 151, 208, 166
-0.99869, 49, 57, 176, 120
-0.998691, 313, 159, 376, 174
-0.998691, 313, 209, 376, 224
-0.998691, 337, 89, 400, 104
-0.998693, 289, 15, 352, 30
-0.998694, 337, 157, 400, 172
-0.998694, 321, 217, 384, 232
-0.998694, 257, 1, 320, 16
-0.998695, 313, 223, 376, 238
-0.998696, 225, 223, 288, 238
-0.998696, 129, 205, 192, 220
-0.998697, 289, 27, 352, 42
-0.998697, 249, 81, 312, 96
-0.998697, 273, 127, 336, 142
-0.998698, 313, 123, 376, 138
-0.9987, 289, 167, 352, 182
-0.998702, 153, 211, 216, 226
-0.998702, 297, 177, 360, 192
-0.998703, 337, 121, 464, 152
-0.998703, 33, 257, 96, 320
-0.998703, 273, 141, 336, 156
-0.998704, 287, 113, 302, 240
-0.998704, 201, 155, 264, 170
-0.998704, 137, 185, 200, 200
-0.998706, 185, 135, 248, 150
-0.998706, 97, 211, 160, 226
-0.998707, 337, 163, 400, 178
-0.998707, 321, 185, 384, 200
-0.998708, 257, 11, 320, 26
-0.99871, 289, 147, 352, 162
-0.99871, 193, 167, 256, 182
-0.998713, 297, 81, 360, 96
-0.998713, 257, 215, 320, 230
-0.998714, 297, 45, 360, 60
-0.998715, 321, 191, 384, 206
-0.998715, 145, 173, 208, 188
-0.998715, 169, 225, 232, 240
-0.998715, 113, 189, 176, 204
-0.998728, 433, 209, 496, 333
-0.998745, 329, 65, 360, 320
-0.998747, 113, 241, 240, 272
-0.99875, 133, 129, 164, 256
-0.998753, 337, 109, 464, 140
-0.998763, 1, 65, 256, 128
-0.998766, 289, 65, 320, 320
-0.998772, 33, 225, 160, 256
-0.998793, 33, 113, 96, 240
-0.99881, 269, 65, 300, 320
-0.998819, 305, 189, 432, 220
-0.998833, 113, 125, 240, 156
-0.998838, 49, 1, 112, 333
-0.99884, 97, 253, 224, 284
-0.998851, 305, 73, 432, 104
-0.998868, 129, 57, 256, 120
-0.998893, 293, 113, 308, 240
-0.998913, 281, 65, 296, 192
-0.998913, 169, 65, 200, 320
-0.998926, 321, 169, 448, 200
-0.998934, 433, 1, 496, 333
-0.998947, 33, 173, 160, 204
-0.998948, 321, 229, 448, 260
-0.998955, 337, 217, 368, 280
-0.998966, 325, 113, 340, 240
-0.998994, 33, 261, 160, 292
-0.998994, 353, 65, 384, 320
-0.998998, 161, 77, 288, 108
-0.999007, 287, 65, 302, 192
-0.999023, 273, 113, 288, 240
-0.999032, 227, 113, 242, 240
-0.999045, 299, 113, 314, 240
-0.999046, 335, 145, 350, 272
-0.99905, 49, 249, 176, 280
-0.99905, 249, 113, 264, 240
-0.999063, 325, 193, 340, 320
-0.999064, 153, 233, 216, 296
-0.999078, 193, 253, 320, 284
-0.999087, 321, 213, 448, 244
-0.999089, 177, 277, 304, 308
-0.999094, 345, 169, 376, 232
-0.999096, 287, 161, 302, 288
-0.999105, 145, 1, 272, 32
-0.999109, 233, 65, 264, 320
-0.999111, 317, 65, 332, 192
-0.999121, 243, 113, 258, 240
-0.999122, 305, 113, 320, 240
-0.999129, 1, 1, 128, 32
-0.999143, 293, 65, 308, 192
-0.99916, 219, 113, 234, 240
-0.999161, 237, 193, 252, 320
-0.999162, 195, 113, 210, 240
-0.999162, 307, 65, 322, 192
-0.999164, 369, 281, 496, 312
-0.999166, 33, 185, 160, 216
-0.999166, 255, 113, 270, 240
-0.999172, 235, 113, 250, 240
-0.999173, 249, 193, 264, 320
-0.999173, 299, 65, 314, 192
-0.999183, 331, 193, 346, 320
-0.999184, 113, 265, 240, 296
-0.999185, 57, 241, 120, 304
-0.999194, 361, 145, 392, 272
-0.999198, 41, 65, 104, 320
-0.999204, 169, 145, 184, 272
-0.999208, 231, 193, 246, 320
-0.999208, 319, 145, 334, 272
-0.999217, 281, 161, 296, 288
-0.999218, 223, 193, 238, 320
-0.999221, 1, 89, 128, 120
-0.999222, 249, 33, 280, 288
-0.999222, 353, 37, 480, 68
-0.999225, 175, 129, 190, 256
-0.999236, 49, 149, 176, 180
-0.999237, 327, 65, 342, 192
-0.999243, 243, 193, 258, 320
-0.999245, 311, 113, 326, 240
-0.999247, 229, 233, 260, 296
-0.999254, 185, 129, 200, 256
-0.999255, 213, 113, 228, 240
-0.999255, 65, 25, 320, 88
-0.999269, 337, 97, 352, 224
-0.99927, 259, 65, 274, 192
-0.999286, 319, 209, 334, 333
-0.999287, 249, 65, 264, 192
-0.999288, 337, 157, 464, 188
-0.999288, 181, 65, 212, 320
-0.99929, 293, 161, 308, 288
-0.999292, 265, 65, 280, 192
-0.999293, 275, 65, 290, 192
-0.999295, 1, 29, 128, 60
-0.999298, 343, 97, 358, 224
-0.999301, 1, 45, 128, 76
-0.999306, 201, 113, 216, 240
-0.99931, 201, 225, 232, 288
-0.999311, 1, 121, 128, 152
-0.999314, 369, 145, 400, 208
-0.999327, 163, 161, 178, 288
-0.999328, 157, 65, 188, 320
-0.999331, 255, 161, 270, 288
-0.999353, 313, 193, 328, 320
-0.999357, 267, 113, 282, 240
-0.999358, 349, 97, 364, 224
-0.999365, 365, 65, 396, 320
-0.999369, 289, 261, 416, 292
-0.99938, 33, 161, 160, 192
-0.999384, 201, 81, 232, 144
-0.999394, 1, 101, 128, 132
-0.999395, 217, 193, 232, 320
-0.9994, 369, 161, 496, 288
-0.999404, 147, 177, 162, 304
-0.999405, 303, 193, 318, 320
-0.99941, 369, 25, 496, 56
-0.999412, 207, 97, 222, 224
-0.999414, 275, 161, 290, 288
-0.999419, 1, 77, 128, 108
-0.999429, 239, 65, 254, 192
-0.999434, 227, 65, 242, 192
-0.999436, 175, 193, 190, 320
-0.999437, 153, 161, 168, 288
-0.999438, 261, 113, 276, 240
-0.999441, 355, 97, 370, 224
-0.999441, 363, 97, 378, 224
-0.999445, 211, 193, 226, 320
-0.999454, 337, 49, 464, 80
-0.999463, 341, 161, 356, 288
-0.999468, 113, 277, 240, 308
-0.999482, 141, 217, 172, 280
-0.999484, 203, 193, 218, 320
-0.999486, 317, 17, 332, 144
-0.999492, 185, 193, 200, 320
-0.999493, 1, 65, 500, 128
-0.999495, 331, 1, 346, 128
-0.999498, 97, 1, 224, 64
-0.999505, 1, 57, 128, 88
-0.999508, 1, 13, 128, 44
-0.99951, 9, 241, 72, 304
-0.99951, 217, 65, 232, 192
-0.999511, 265, 161, 280, 288
-0.999519, 311, 1, 326, 128
-0.999524, 191, 161, 206, 288
-0.999532, 289, 257, 320, 320
-0.999533, 261, 209, 276, 333
-0.999535, 233, 65, 248, 192
-0.999539, 305, 17, 320, 144
-0.99954, 197, 193, 212, 320
-0.999552, 207, 205, 222, 220
-0.999552, 219, 117, 234, 132
-0.999552, 207, 145, 222, 272
-0.999553, 197, 127, 212, 142
-0.999554, 339, 171, 354, 186
-0.999554, 325, 87, 340, 102
-0.999554, 251, 171, 266, 186
-0.999554, 179, 155, 194, 170
-0.999554, 327, 151, 342, 166
-0.999555, 275, 163, 290, 178
-0.999555, 217, 219, 232, 234
-0.999556, 1, 149, 128, 180
-0.999556, 271, 175, 286, 190
-0.999557, 137, 193, 152, 320
-0.999557, 363, 115, 378, 130
-0.999558, 229, 161, 244, 176
-0.999558, 295, 175, 310, 190
-0.999559, 259, 157, 274, 172
-0.999559, 261, 99, 276, 114
-0.999559, 297, 209, 312, 333
-0.99956, 351, 49, 366, 176
-0.99956, 271, 99, 286, 114
-0.99956, 289, 197, 304, 212
-0.99956, 329, 5, 344, 20
-0.999561, 237, 205, 252, 220
-0.999562, 339, 185, 354, 200
-0.999562, 279, 201, 294, 216
-0.999563, 281, 119, 296, 134
-0.999563, 211, 221, 226, 236
-0.999564, 243, 117, 258, 132
-0.999565, 271, 121, 286, 136
-0.999565, 289, 157, 304, 172
-0.999566, 257, 87, 272, 102
-0.999566, 269, 201, 284, 216
-0.999567, 227, 117, 242, 132
-0.999567, 273, 93, 288, 108
-0.999568, 317, 87, 332, 102
-0.999569, 197, 187, 212, 202
-0.99957, 345, 171, 360, 186
-0.999571, 241, 161, 256, 176
-0.999571, 223, 219, 238, 234
-0.999572, 363, 147, 378, 162
-0.999572, 295, 201, 310, 216
-0.999573, 165, 191, 180, 206
-0.999574, 369, 143, 384, 158
-0.999574, 333, 185, 348, 200
-0.999574, 17, 209, 144, 240
-0.999575, 283, 93, 298, 108
-0.999576, 267, 93, 282, 108
-0.999576, 245, 171, 260, 186
-0.999576, 277, 99, 292, 114
-0.999577, 251, 157, 266, 172
-0.999577, 297, 161, 312, 176
-0.999578, 281, 163, 296, 178
-0.999578, 325, 199, 340, 214
-0.999579, 235, 161, 250, 176
-0.999579, 307, 119, 322, 134
-0.99958, 327, 101, 342, 116
-0.99958, 257, 117, 272, 132
-0.999581, 271, 87, 286, 102
-0.999581, 325, 215, 340, 230
-0.999582, 255, 205, 270, 220
-0.999583, 301, 193, 316, 208
-0.999584, 323, 107, 338, 122
-0.999584, 321, 93, 336, 108
-0.999585, 353, 293, 480, 324
-0.999585, 197, 195, 212, 210
-0.999586, 241, 105, 256, 120
-0.999586, 343, 49, 358, 176
-0.999587, 335, 105, 350, 120
-0.999587, 239, 187, 254, 202
-0.999588, 283, 107, 298, 122
-0.999588, 281, 175, 296, 190
-0.999588, 193, 41, 320, 72
-0.999588, 207, 111, 222, 126
-0.999589, 305, 205, 320, 220
-0.999589, 121, 217, 152, 280
-0.99959, 273, 105, 288, 120
-0.999591, 307, 199, 322, 214
-0.999591, 333, 95, 348, 110
-0.999592, 277, 87, 292, 102
-0.999593, 299, 17, 314, 144
-0.999594, 287, 175, 302, 190
-0.999595, 337, 155, 352, 170
-0.999597, 211, 197, 226, 212
-0.999597, 219, 203, 234, 218
-0.999599, 401, 25, 464, 88
-0.999599, 231, 111, 246, 126
-0.999602, 347, 105, 362, 120
-0.999602, 377, 209, 440, 333
-0.999603, 219, 103, 234, 118
-0.999603, 323, 205, 338, 220
-0.999604, 251, 117, 266, 132
-0.999605, 145, 65, 176, 320
-0.999605, 231, 187, 246, 202
-0.999606, 227, 211, 242, 226
-0.999614, 261, 105, 276, 120
-0.999615, 181, 149, 196, 164
-0.999616, 145, 253, 272, 284
-0.999616, 255, 209, 270, 333
-0.999617, 265, 111, 280, 126
-0.999619, 247, 105, 262, 120
-0.999619, 337, 49, 352, 176
-0.99962, 297, 103, 312, 118
-0.99962, 233, 169, 248, 184
-0.99962, 247, 189, 262, 204
-0.999622, 295, 195, 310, 210
-0.999622, 255, 111, 270, 126
-0.999622, 347, 145, 362, 272
-0.999625, 223, 187, 238, 202
-0.999625, 297, 115, 312, 130
-0.999625, 323, 17, 338, 144
-0.999626, 287, 119, 302, 134
-0.999628, 287, 163, 302, 178
-0.999628, 255, 197, 270, 212
-0.999628, 337, 1, 352, 128
-0.999628, 271, 209, 286, 333
-0.99963, 289, 105, 304, 120
-0.999631, 177, 241, 304, 272
-0.999633, 191, 209, 206, 333
-0.999633, 333, 191, 348, 206
-0.999635, 343, 165, 358, 180
-0.999636, 219, 111, 234, 126
-0.999637, 169, 193, 184, 320
-0.999639, 231, 203, 246, 218
-0.999642, 211, 185, 226, 200
-0.999644, 311, 205, 326, 220
-0.999644, 265, 117, 280, 132
-0.999644, 257, 17, 272, 144
-0.999645, 337, 209, 352, 333
-0.999646, 337, 165, 352, 180
-0.999652, 195, 65, 210, 192
-0.999657, 357, 49, 372, 176
-0.999658, 301, 109, 316, 124
-0.999658, 203, 195, 218, 210
-0.999659, 239, 167, 254, 182
-0.999661, 213, 109, 228, 124
-0.999663, 255, 105, 270, 120
-0.999663, 347, 193, 362, 320
-0.999663, 315, 113, 330, 128
-0.999664, 353, 73, 480, 104
-0.999664, 369, 97, 384, 224
-0.999667, 317, 205, 332, 220
-0.999668, 161, 113, 176, 240
-0.999668, 271, 115, 286, 130
-0.999669, 301, 199, 316, 214
-0.999671, 353, 177, 368, 304
-0.999673, 225, 205, 240, 220
-0.999675, 307, 113, 322, 128
-0.999677, 363, 49, 378, 176
-0.999677, 277, 113, 292, 128
-0.999683, 249, 195, 264, 210
-0.999685, 251, 17, 266, 144
-0.999687, 185, 257, 216, 320
-0.99969, 267, 1, 282, 128
-0.999693, 213, 191, 228, 206
-0.999696, 221, 193, 236, 208
-0.999697, 229, 193, 244, 208
-0.999702, 33, 133, 160, 164
-0.999704, 205, 189, 220, 204
-0.999706, 289, 273, 416, 304
-0.999711, 157, 97, 188, 224
-0.999713, 285, 113, 300, 128
-0.999713, 247, 111, 262, 126
-0.999715, 237, 111, 252, 126
-0.999716, 1, 249, 128, 280
-0.999716, 201, 65, 216, 192
-0.999719, 277, 209, 292, 333
-0.99972, 291, 17, 306, 144
-0.999722, 267, 105, 282, 120
-0.999722, 225, 111, 240, 126
-0.999723, 175, 149, 190, 164
-0.999723, 147, 129, 162, 256
-0.999725, 321, 61, 448, 92
-0.999725, 353, 13, 480, 44
-0.999727, 377, 1, 408, 256
-0.999731, 353, 269, 480, 300
-0.99975, 359, 161, 374, 288
-0.999754, 145, 17, 272, 48
-0.999755, 129, 209, 144, 333
-0.999755, 275, 17, 290, 144
-0.999756, 361, 129, 424, 192
-0.999758, 239, 193, 254, 208
-0.99977, 153, 113, 168, 240
-0.999772, 207, 49, 222, 176
-0.999774, 183, 81, 198, 208
-0.999779, 295, 109, 310, 124
-0.999794, 135, 145, 150, 272
-0.999794, 243, 17, 258, 144
-0.999795, 161, 53, 288, 84
-0.999799, 369, 33, 384, 160
-0.999816, 285, 17, 300, 144
-0.999825, 289, 209, 304, 333
-0.999833, 169, 97, 184, 224
-0.999834, 163, 209, 178, 333
-0.999847, 189, 81, 204, 208
-0.999848, 283, 209, 298, 333
-0.999848, 193, 65, 320, 96
-0.999848, 361, 209, 376, 333
-0.999849, 155, 209, 170, 333
-0.999852, 369, 1, 496, 32
-0.999854, 141, 129, 156, 256
-0.999856, 375, 81, 390, 208
-0.999859, 121, 65, 152, 320
-0.999863, 123, 209, 138, 333
-0.999863, 115, 177, 130, 304
-0.999868, 161, 29, 288, 60
-0.999869, 375, 33, 390, 160
-0.999869, 445, 273, 476, 333
-0.999874, 49, 121, 176, 152
-0.99988, 367, 209, 382, 333
-0.999881, 233, 17, 248, 144
-0.999884, 153, 209, 184, 272
-0.999887, 269, 49, 300, 112
-0.999932, 145, 289, 272, 320
-0.999933, 237, 17, 268, 144
-0.99997, 49, 1, 176, 64
-0.999989, 369, 237, 496, 268
-0.999991, 213, 233, 244, 296
-1.00002, 125, 161, 156, 224
-1.00004, 369, 145, 496, 176
-1.00004, 385, 1, 448, 256
-1.00008, 49, 1, 176, 32
-1.0001, 1, 197, 128, 228
-1.00011, 165, 121, 196, 184
-1.00012, 105, 177, 136, 304
-1.00016, 1, 129, 64, 256
-1.00017, 97, 33, 224, 96
-1.00017, 133, 65, 164, 320
-1.00025, 389, 1, 420, 256
-1.00029, 369, 185, 496, 248
-1.00031, 9, 169, 72, 232
-1.00036, 121, 265, 184, 328
-1.00037, 109, 65, 140, 320
-1.00038, 9, 9, 72, 72
-1.00039, 401, 33, 432, 288
-1.00042, 45, 65, 76, 320
-1.00044, 57, 65, 88, 320
-1.00044, 165, 209, 196, 272
-1.00044, 97, 65, 128, 320
-1.00046, 9, 209, 72, 333
-1.00047, 241, 1, 272, 64
-1.0005, 41, 217, 104, 280
-1.00051, 233, 33, 296, 96
-1.00052, 145, 145, 176, 208
-1.00055, 333, 57, 364, 120
-1.00057, 85, 65, 116, 320
-1.00059, 385, 49, 448, 112
-1.00059, 33, 153, 96, 216
-1.00061, 341, 193, 372, 256
-1.00064, 349, 225, 380, 288
-1.00065, 345, 1, 376, 128
-1.00069, 233, 57, 264, 120
-1.0007, 73, 65, 104, 320
-1.00071, 1, 33, 32, 288
-1.00073, 21, 65, 52, 320
-1.00074, 369, 97, 496, 160
-1.00075, 321, 265, 384, 328
-1.00077, 65, 161, 128, 288
-1.00079, 173, 257, 204, 320
-1.00079, 417, 1, 448, 256
-1.0008, 301, 273, 332, 333
-1.00083, 33, 65, 64, 320
-1.00086, 117, 185, 148, 248
-1.00091, 201, 57, 264, 120
-1.00091, 9, 65, 72, 320
-1.00092, 469, 1, 500, 256
-1.00093, 1, 273, 500, 333
-1.00093, 1, 57, 32, 120
-1.00094, 61, 209, 92, 333
-1.00103, 413, 1, 444, 128
-1.00105, 353, 209, 416, 272
-1.00106, 433, 65, 464, 320
-1.00112, 33, 1, 96, 64
-1.00114, 353, 185, 416, 248
-1.00119, 361, 153, 424, 216
-1.00119, 81, 209, 112, 333
-1.0012, 337, 249, 368, 312
-1.00121, 1, 49, 32, 176
-1.00123, 457, 65, 488, 320
-1.00123, 49, 129, 112, 192
-1.00125, 265, 257, 296, 320
-1.00127, 445, 65, 476, 320
-1.00128, 345, 257, 408, 320
-1.0013, 85, 265, 116, 328
-1.00132, 65, 65, 128, 320
-1.00134, 425, 1, 456, 128
-1.00135, 361, 209, 392, 333
-1.00142, 193, 1, 256, 64
-1.00162, 401, 1, 432, 128
-1.00162, 81, 153, 144, 216
-1.00166, 425, 1, 488, 128
-1.00166, 357, 1, 388, 128
-1.00167, 9, 217, 72, 280
-1.00172, 381, 33, 412, 160
-1.00173, 445, 209, 476, 333
-1.00175, 385, 49, 448, 176
-1.00177, 33, 177, 96, 240
-1.00179, 433, 1, 496, 64
-1.00188, 457, 209, 488, 333
-1.00191, 353, 17, 416, 80
-1.00191, 369, 265, 432, 328
-1.00194, 213, 17, 244, 144
-1.00202, 361, 49, 424, 112
-1.00206, 393, 241, 456, 304
-1.00208, 49, 65, 112, 192
-1.00208, 373, 81, 404, 208
-1.00209, 73, 129, 136, 192
-1.00219, 89, 113, 152, 240
-1.00219, 469, 209, 500, 333
-1.00221, 381, 209, 412, 333
-1.00226, 49, 209, 80, 333
-1.00232, 377, 105, 440, 168
-1.00232, 225, 17, 256, 144
-1.00234, 93, 209, 124, 333
-1.00242, 137, 41, 200, 104
-1.00242, 105, 129, 168, 192
-1.00244, 33, 25, 96, 88
-1.00244, 433, 209, 496, 272
-1.00248, 433, 249, 496, 312
-1.00248, 393, 217, 456, 280
-1.00272, 429, 209, 460, 333
-1.00274, 109, 129, 140, 256
-1.00288, 65, 113, 128, 240
-1.00293, 37, 209, 68, 333
-1.00305, 409, 209, 440, 333
-1.00316, 373, 161, 404, 288
-1.0032, 437, 1, 468, 128
-1.00325, 193, 17, 256, 144
-1.00329, 93, 161, 124, 288
-1.00334, 49, 113, 80, 240
-1.00337, 393, 209, 424, 333
-1.00344, 49, 1, 112, 128
-1.00355, 433, 65, 496, 320
-1.00357, 393, 49, 424, 176
-1.00368, 17, 1, 48, 128
-1.00368, 5, 97, 36, 224
-1.00376, 89, 113, 120, 240
-1.00385, 5, 1, 36, 128
-1.00389, 57, 65, 88, 192
-1.00392, 21, 129, 52, 256
-1.00394, 129, 1, 160, 128
-1.00398, 141, 1, 172, 128
-1.00402, 121, 97, 152, 224
-1.00449, 17, 49, 48, 176
-1.00455, 73, 161, 104, 288
-1.00457, 425, 161, 488, 288
-1.00465, 37, 81, 68, 208
-1.00468, 61, 113, 92, 240
-1.00486, 405, 49, 436, 176
-1.00492, 37, 129, 68, 256
-1.00505, 469, 145, 500, 272
-1.0051, 121, 1, 184, 128
-1.00511, 445, 161, 476, 288
-1.00515, 21, 209, 52, 333
-1.00525, 409, 1, 472, 256
-1.00542, 29, 1, 60, 128
-1.00549, 201, 17, 232, 144
-1.00555, 69, 1, 100, 128
-1.00558, 97, 1, 128, 128
-1.00558, 449, 1, 480, 128
-1.00558, 185, 17, 216, 144
-1.00564, 57, 1, 88, 128
-1.00573, 169, 17, 232, 144
-1.00575, 117, 1, 148, 128
-1.00583, 385, 97, 416, 224
-1.00584, 153, 49, 184, 176
-1.00594, 9, 145, 40, 272
-1.00597, 137, 81, 168, 208
-1.00603, 101, 81, 132, 208
-1.00605, 69, 65, 100, 192
-1.00606, 49, 161, 80, 288
-1.00607, 457, 145, 488, 272
-1.0061, 397, 161, 428, 288
-1.00655, 369, 161, 432, 288
-1.00754, 113, 81, 176, 208
-1.00814, 401, 161, 464, 288
-1.00822, 385, 97, 448, 224
-1.00828, 73, 17, 136, 144
-1.00828, 73, 65, 136, 192
-1.00877, 409, 49, 472, 176
-1.00933, 145, 33, 208, 160
-1.00951, 433, 49, 496, 176
-1.00974, 97, 1, 160, 128
-1.01184, 433, 113, 496, 240
-1.01214, 409, 97, 472, 224
