1218
-0.402874, 1, 1, 194, 264
-0.578297, 1, 1, 194, 256
-0.840242, 1, 1, 128, 264
-0.847579, 1, 1, 128, 256
-0.867611, 49, 1, 176, 264
-0.876031, 49, 1, 176, 256
-0.918518, 1, 49, 194, 176
-0.920254, 89, 81, 152, 208
-0.921649, 33, 113, 160, 240
-0.924347, 1, 113, 194, 240
-0.930542, 1, 17, 128, 144
-0.932695, 57, 33, 120, 160
-0.936249, 49, 65, 176, 192
-0.938996, 65, 129, 128, 256
-0.940734, 1, 1, 194, 128
-0.940743, 25, 17, 88, 144
-0.944227, 33, 17, 96, 80
-0.944412, 113, 81, 176, 208
-0.945651, 57, 81, 120, 208
-0.946607, 1, 33, 64, 160
-0.94776, 113, 129, 176, 256
-0.947886, 89, 129, 152, 256
-0.948193, 97, 121, 160, 184
-0.948613, 33, 97, 96, 224
-0.95191, 97, 97, 160, 160
-0.953144, 65, 137, 128, 200
-0.954739, 1, 65, 128, 192
-0.955646, 73, 201, 136, 264
-0.956411, 49, 201, 112, 264
-0.956787, 73, 105, 136, 168
-0.956801, 41, 113, 104, 176
-0.957318, 121, 97, 184, 160
-0.959046, 17, 65, 80, 128
-0.960113, 49, 17, 176, 144
-0.961031, 17, 41, 80, 104
-0.961914, 57, 161, 120, 224
-0.962563, 57, 49, 120, 112
-0.962798, 49, 1, 112, 256
-0.962881, 57, 73, 120, 136
-0.963523, 113, 161, 176, 224
-0.963748, 9, 97, 72, 224
-0.964651, 17, 89, 80, 152
-0.964913, 89, 145, 152, 208
-0.967702, 97, 33, 160, 160
-0.968114, 21, 33, 52, 96
-0.968449, 33, 25, 64, 88
-0.968681, 109, 105, 140, 168
-0.968937, 49, 121, 176, 184
-0.968995, 113, 81, 144, 208
-0.969121, 89, 177, 152, 240
-0.969279, 97, 201, 160, 264
-0.970365, 101, 81, 132, 208
-0.970743, 85, 137, 116, 200
-0.970867, 121, 121, 184, 184
-0.971266, 33, 81, 160, 144
-0.971568, 125, 97, 156, 224
-0.971949, 41, 137, 104, 200
-0.971969, 121, 33, 184, 160
-0.972133, 9, 1, 72, 256
-0.972169, 45, 1, 76, 128
-0.972261, 89, 73, 152, 136
-0.972394, 1, 41, 128, 104
-0.972499, 49, 153, 176, 216
-0.972756, 33, 17, 64, 144
-0.973431, 33, 169, 96, 232
-0.973452, 57, 25, 120, 88
-0.973508, 33, 201, 160, 264
-0.974324, 117, 81, 148, 144
-0.974496, 73, 113, 104, 176
-0.974519, 17, 201, 80, 264
-0.974603, 45, 9, 76, 72
-0.97476, 89, 97, 120, 224
-0.975644, 121, 129, 152, 192
-0.975687, 73, 153, 104, 216
-0.975831, 73, 113, 104, 240
-0.975944, 45, 81, 76, 208
-0.976201, 89, 49, 120, 176
-0.976259, 9, 17, 72, 80
-0.976437, 109, 129, 140, 192
-0.976812, 129, 89, 160, 152
-0.977113, 33, 65, 64, 128
-0.977133, 73, 1, 136, 256
-0.97721, 61, 201, 92, 264
-0.977511, 121, 185, 184, 248
-0.977521, 49, 1, 112, 264
-0.978002, 49, 81, 80, 144
-0.978476, 97, 105, 128, 168
-0.978902, 17, 17, 144, 80
-0.978905, 13, 33, 44, 160
-0.979409, 73, 33, 104, 160
-0.979798, 13, 57, 44, 120
-0.979968, 137, 153, 168, 216
-0.980401, 121, 161, 152, 224
-0.980429, 113, 73, 176, 136
-0.98045, 33, 177, 160, 240
-0.980887, 57, 17, 88, 144
-0.981076, 61, 169, 92, 232
-0.981089, 133, 121, 164, 184
-0.981164, 97, 1, 160, 256
-0.981367, 17, 145, 80, 208
-0.981514, 89, 81, 120, 144
-0.981766, 77, 201, 108, 264
-0.981978, 49, 105, 80, 168
-0.982315, 1, 105, 128, 168
-0.982419, 53, 129, 84, 192
-0.982452, 97, 129, 128, 192
-0.982512, 101, 185, 132, 248
-0.98252, 9, 1, 72, 264
-0.982563, 105, 81, 136, 144
-0.982658, 121, 193, 152, 256
-0.982999, 17, 113, 80, 176
-0.98312, 137, 81, 168, 208
-0.983293, 113, 129, 144, 256
-0.983311, 33, 97, 64, 160
-0.983566, 61, 129, 92, 256
-0.983644, 33, 65, 64, 192
-0.983804, 1, 137, 128, 200
-0.984284, 125, 49, 156, 176
-0.984326, 93, 161, 124, 224
-0.984459, 61, 25, 92, 88
-0.984462, 57, 81, 88, 208
-0.98476, 85, 113, 116, 176
-0.984904, 61, 81, 92, 144
-0.984929, 49, 169, 80, 232
-0.985197, 73, 1, 136, 264
-0.985312, 101, 129, 132, 256
-0.985349, 137, 129, 168, 256
-0.985541, 81, 49, 144, 112
-0.985592, 105, 153, 136, 216
-0.985693, 73, 177, 104, 240
-0.985763, 73, 33, 104, 96
-0.985772, 49, 57, 176, 120
-0.986023, 105, 33, 136, 160
-0.986225, 149, 65, 180, 192
-0.986658, 49, 129, 80, 256
-0.986783, 129, 1, 192, 256
-0.987356, 97, 1, 160, 264
-0.98737, 1, 57, 32, 120
-0.987808, 89, 201, 120, 264
-0.988101, 137, 177, 168, 240
-0.988113, 29, 1, 60, 64
-0.988181, 89, 125, 152, 156
-0.988422, 49, 229, 112, 260
-0.988703, 33, 17, 96, 48
-0.988956, 57, 161, 120, 192
-0.98901, 149, 113, 180, 240
-0.989113, 73, 145, 136, 176
-0.989192, 13, 81, 44, 144
-0.989284, 45, 201, 76, 264
-0.98929, 33, 29, 96, 60
-0.989315, 37, 129, 68, 256
-0.989319, 81, 109, 144, 140
-0.989392, 17, 81, 48, 208
-0.989398, 105, 93, 168, 124
-0.989474, 17, 69, 80, 100
-0.989551, 1, 49, 32, 176
-0.989552, 73, 213, 136, 244
-0.989575, 73, 225, 136, 256
-0.989627, 49, 217, 112, 248
-0.989651, 45, 57, 76, 120
-0.989786, 141, 97, 172, 160
-0.98981, 49, 121, 112, 152
-0.989936, 25, 57, 88, 88
-0.989981, 9, 45, 72, 76
-0.990032, 113, 113, 176, 144
-0.990117, 57, 109, 120, 140
-0.990161, 49, 149, 112, 180
-0.990279, 81, 157, 144, 188
-0.99035, 105, 161, 168, 192
-0.990365, 129, 1, 192, 264
-0.99037, 89, 57, 120, 120
-0.990391, 97, 137, 160, 168
-0.990481, 57, 85, 120, 116
-0.990487, 65, 173, 128, 204
-0.990492, 129, 101, 192, 132
-0.990529, 17, 221, 80, 252
-0.990537, 121, 217, 184, 248
-0.990585, 113, 125, 176, 156
-0.990606, 57, 61, 120, 92
-0.990617, 89, 25, 152, 88
-0.990621, 41, 145, 72, 208
-0.990673, 81, 97, 144, 128
-0.990715, 49, 133, 112, 164
-0.990775, 73, 201, 136, 232
-0.990777, 97, 213, 160, 244
-0.990862, 1, 89, 194, 152
-0.990914, 49, 205, 112, 236
-0.990939, 25, 105, 88, 136
-0.990964, 97, 225, 160, 256
-0.991026, 1, 57, 64, 88
-0.991069, 57, 49, 120, 80
-0.991088, 145, 201, 176, 264
-0.991236, 45, 33, 76, 96
-0.991293, 57, 73, 120, 104
-0.991407, 9, 33, 72, 64
-0.991453, 25, 117, 88, 148
-0.991454, 61, 105, 92, 168
-0.991473, 153, 129, 184, 192
-0.991519, 9, 177, 72, 240
-0.991579, 97, 81, 160, 112
-0.991609, 73, 185, 136, 216
-0.991722, 25, 233, 88, 264
-0.991743, 105, 149, 168, 180
-0.991757, 17, 89, 80, 120
-0.991809, 113, 173, 176, 204
-0.991815, 9, 13, 72, 44
-0.991824, 121, 137, 184, 168
-0.991826, 121, 201, 184, 232
-0.991864, 49, 185, 112, 216
-0.991903, 33, 165, 96, 196
-0.991926, 25, 153, 88, 184
-0.992015, 89, 173, 152, 204
-0.992023, 121, 229, 184, 260
-0.992033, 117, 113, 148, 144
-0.992037, 113, 101, 144, 132
-0.992127, 1, 113, 194, 176
-0.992148, 149, 169, 180, 232
-0.992155, 61, 225, 92, 256
-0.992209, 97, 201, 160, 232
-0.992232, 33, 29, 64, 60
-0.992235, 81, 149, 112, 180
-0.992237, 1, 105, 64, 136
-0.992252, 17, 209, 80, 240
-0.992274, 129, 89, 192, 120
-0.992277, 113, 89, 144, 120
-0.992285, 73, 113, 104, 144
-0.992293, 57, 37, 120, 68
-0.992299, 105, 121, 136, 152
-0.99232, 41, 13, 72, 44
-0.992333, 85, 137, 116, 168
-0.992361, 69, 161, 100, 192
-0.992364, 9, 33, 40, 96
-0.992369, 21, 45, 52, 76
-0.992378, 57, 1, 88, 64
-0.99238, 49, 97, 112, 128
-0.992398, 77, 229, 108, 260
-0.99246, 125, 93, 156, 124
-0.992467, 101, 57, 132, 120
-0.992495, 129, 105, 144, 168
-0.992524, 61, 213, 92, 244
-0.992537, 137, 161, 168, 192
-0.99254, 1, 81, 32, 144
-0.992546, 93, 125, 124, 156
-0.992565, 61, 113, 92, 144
-0.992574, 25, 177, 88, 208
-0.992575, 93, 105, 124, 136
-0.992608, 73, 125, 104, 156
-0.992612, 21, 33, 52, 64
-0.992624, 49, 113, 80, 144
-0.992625, 33, 45, 96, 76
-0.992627, 117, 125, 148, 156
-0.992636, 77, 217, 108, 248
-0.992653, 89, 53, 152, 84
-0.992664, 133, 201, 164, 264
-0.992676, 129, 161, 192, 192
-0.992683, 49, 169, 80, 200
-0.992683, 93, 229, 124, 260
-0.992699, 113, 189, 176, 220
-0.992703, 33, 49, 64, 80
-0.992704, 25, 141, 88, 172
-0.992719, 33, 117, 160, 148
-0.992723, 21, 57, 52, 88
-0.992726, 65, 149, 96, 180
-0.992732, 101, 85, 132, 116
-0.992743, 97, 69, 160, 100
-0.992753, 65, 9, 192, 72
-0.992763, 93, 165, 124, 196
-0.992778, 133, 105, 164, 136
-0.992793, 33, 25, 48, 88
-0.992799, 97, 137, 128, 168
-0.992803, 89, 93, 120, 124
-0.992815, 57, 21, 88, 52
-0.992826, 105, 149, 136, 180
-0.992836, 93, 149, 124, 180
-0.992838, 133, 121, 164, 152
-0.99286, 1, 57, 194, 120
-0.992866, 61, 177, 92, 208
-0.992878, 121, 137, 152, 168
-0.99288, 97, 217, 128, 248
-0.992881, 77, 205, 108, 236
-0.992903, 37, 69, 68, 100
-0.992907, 125, 165, 156, 196
-0.992908, 125, 217, 156, 248
-0.992949, 81, 165, 112, 196
-0.992953, 73, 137, 104, 168
-0.992963, 101, 181, 132, 212
-0.992972, 73, 89, 104, 152
-0.99298, 65, 101, 96, 132
-0.992995, 105, 205, 136, 236
-0.992998, 65, 13, 128, 44
-0.993014, 45, 217, 76, 248
-0.993015, 29, 17, 60, 48
-0.993034, 61, 201, 92, 232
-0.993041, 45, 101, 76, 132
-0.993042, 49, 233, 80, 264
-0.993045, 9, 45, 40, 76
-0.993045, 113, 165, 144, 196
-0.99305, 9, 57, 40, 88
-0.993052, 113, 225, 144, 256
-0.993055, 121, 193, 152, 224
-0.993077, 17, 193, 80, 224
-0.993077, 81, 25, 144, 56
-0.993081, 73, 181, 104, 212
-0.993085, 25, 129, 88, 160
-0.993086, 109, 137, 140, 168
-0.993104, 57, 25, 120, 56
-0.993111, 129, 149, 160, 180
-0.993126, 25, 69, 56, 100
-0.993131, 129, 149, 192, 180
-0.993152, 121, 205, 152, 236
-0.993159, 89, 177, 120, 208
-0.993162, 145, 213, 176, 244
-0.993163, 133, 133, 164, 164
-0.993167, 73, 37, 104, 68
-0.993167, 33, 109, 64, 140
-0.993187, 65, 33, 192, 96
-0.993193, 45, 81, 76, 112
-0.993196, 1, 49, 128, 80
-0.993202, 49, 181, 80, 212
-0.993232, 1, 233, 64, 264
-0.993237, 129, 77, 192, 108
-0.993244, 13, 69, 44, 100
-0.993251, 129, 177, 160, 208
-0.993269, 9, 97, 40, 128
-0.993273, 49, 1, 112, 32
-0.993285, 73, 193, 104, 224
-0.993285, 1, 129, 64, 160
-0.993287, 101, 73, 132, 104
-0.993291, 145, 173, 176, 204
-0.993291, 33, 89, 64, 120
-0.993296, 97, 193, 128, 224
-0.993298, 53, 9, 84, 40
-0.993301, 89, 41, 152, 72
-0.993309, 137, 93, 168, 124
-0.993315, 41, 157, 72, 188
-0.993317, 53, 129, 84, 160
-0.993333, 49, 65, 80, 96
-0.993336, 81, 49, 112, 80
-0.993339, 1, 25, 194, 88
-0.993342, 125, 81, 156, 112
-0.993343, 61, 89, 92, 120
-0.993344, 45, 201, 76, 232
-0.993349, 57, 77, 88, 108
-0.993352, 61, 189, 92, 220
-0.993352, 45, 29, 76, 60
-0.993358, 153, 97, 184, 160
-0.993367, 137, 201, 168, 232
-0.993382, 33, 221, 64, 252
-0.993383, 117, 177, 148, 208
-0.9934, 153, 101, 184, 132
-0.993405, 149, 113, 180, 144
-0.993419, 113, 77, 144, 108
-0.993421, 5, 225, 36, 256
-0.993422, 21, 105, 52, 136
-0.993424, 17, 85, 48, 116
-0.993429, 43, 9, 58, 72
-0.993438, 145, 149, 176, 180
-0.993454, 117, 153, 148, 184
-0.993455, 149, 197, 180, 228
-0.993459, 53, 149, 84, 180
-0.99346, 9, 165, 72, 196
-0.99346, 61, 65, 92, 96
-0.993462, 93, 205, 124, 236
-0.993479, 27, 33, 42, 96
-0.993483, 137, 189, 168, 220
-0.993486, 17, 221, 48, 252
-0.993487, 37, 233, 68, 264
-0.99349, 85, 73, 116, 104
-0.993498, 149, 89, 180, 120
-0.993499, 61, 57, 92, 120
-0.993517, 1, 85, 32, 116
-0.993525, 137, 225, 168, 256
-0.993529, 9, 1, 72, 32
-0.993547, 85, 61, 116, 92
-0.993551, 9, 33, 40, 64
-0.993559, 1, 153, 194, 216
-0.99356, 125, 229, 156, 260
-0.993561, 65, 153, 192, 184
-0.993563, 161, 81, 192, 208
-0.993581, 33, 217, 160, 248
-0.993582, 149, 125, 180, 156
-0.993592, 109, 193, 140, 224
-0.993599, 61, 33, 92, 64
-0.993622, 149, 225, 180, 256
-0.993628, 157, 209, 188, 240
-0.993628, 101, 61, 132, 92
-0.993632, 149, 161, 180, 192
-0.993635, 41, 1, 72, 32
-0.993643, 1, 69, 32, 100
-0.993646, 97, 41, 128, 72
-0.993654, 85, 25, 116, 56
-0.993655, 13, 17, 44, 48
-0.993656, 33, 137, 64, 168
-0.993749, 1, 141, 64, 172
-0.993815, 137, 33, 168, 160
-0.993828, 49, 101, 176, 132
-0.993837, 117, 105, 132, 168
-0.993911, 59, 81, 74, 144
-0.993913, 1, 117, 64, 148
-0.993942, 99, 129, 114, 192
-0.994021, 85, 105, 100, 168
-0.99403, 17, 105, 48, 168
-0.994125, 29, 201, 60, 264
-0.994129, 41, 33, 56, 96
-0.99415, 33, 49, 48, 112
-0.994165, 127, 129, 142, 192
-0.994168, 1, 153, 64, 184
-0.99417, 1, 181, 64, 212
-0.994221, 127, 81, 142, 144
-0.994271, 65, 129, 192, 160
-0.994338, 53, 65, 68, 128
-0.994394, 65, 141, 192, 172
-0.994413, 33, 229, 160, 260
-0.994471, 133, 137, 148, 200
-0.994491, 133, 65, 164, 128
-0.994532, 129, 65, 192, 96
-0.994576, 111, 113, 126, 176
-0.994619, 33, 89, 160, 120
-0.994701, 123, 105, 138, 168
-0.994711, 113, 53, 176, 84
-0.994739, 65, 161, 80, 224
-0.994755, 1, 37, 128, 68
-0.994765, 93, 113, 108, 176
-0.99483, 53, 9, 68, 72
-0.994853, 147, 153, 162, 216
-0.994942, 121, 81, 136, 144
-0.994972, 107, 89, 122, 152
-0.995004, 81, 145, 96, 208
-0.995006, 33, 205, 160, 236
-0.995036, 113, 41, 176, 72
-0.99508, 115, 81, 130, 144
-0.995138, 17, 129, 144, 160
-0.995167, 73, 1, 104, 256
-0.995195, 17, 25, 144, 56
-0.995214, 141, 97, 156, 160
-0.995221, 129, 1, 192, 32
-0.995221, 105, 9, 168, 40
-0.995221, 129, 13, 192, 44
-0.995221, 105, 21, 168, 52
-0.995221, 129, 25, 192, 56
-0.995337, 69, 129, 84, 192
-0.995373, 75, 113, 90, 176
-0.995375, 13, 9, 44, 72
-0.995376, 117, 57, 148, 120
-0.99544, 61, 1, 92, 256
-0.995441, 21, 41, 36, 104
-0.995461, 17, 141, 144, 172
-0.995462, 73, 1, 136, 32
-0.995462, 65, 1, 128, 64
-0.995485, 33, 165, 160, 196
-0.995548, 17, 61, 144, 92
-0.995564, 135, 89, 150, 152
-0.995616, 87, 137, 102, 200
-0.995659, 139, 129, 154, 192
-0.995676, 17, 153, 144, 184
-0.995706, 75, 153, 90, 216
-0.995706, 9, 193, 40, 256
-0.995726, 47, 65, 62, 128
-0.995769, 109, 137, 124, 200
-0.995804, 1, 193, 194, 256
-0.995866, 39, 65, 54, 128
-0.995938, 33, 77, 160, 108
-0.996013, 113, 177, 128, 240
-0.996015, 141, 153, 156, 216
-0.996053, 53, 89, 68, 152
-0.99607, 67, 185, 82, 248
-0.996092, 59, 105, 74, 168
-0.9961, 59, 169, 74, 232
-0.996152, 27, 57, 42, 120
-0.996155, 59, 57, 74, 120
-0.996161, 67, 17, 82, 80
-0.9962, 59, 9, 74, 72
-0.996217, 121, 129, 136, 192
-0.99622, 157, 193, 188, 256
-0.996235, 145, 73, 176, 136
-0.996286, 105, 113, 120, 176
-0.996348, 101, 89, 116, 152
-0.99635, 99, 201, 114, 264
-0.99635, 33, 33, 48, 64
-0.99638, 47, 97, 62, 160
-0.996408, 119, 201, 134, 264
-0.996459, 105, 49, 168, 112
-0.996479, 103, 153, 118, 216
-0.996506, 33, 181, 160, 212
-0.996538, 47, 33, 62, 96
-0.996548, 65, 105, 80, 168
-0.996567, 97, 49, 112, 112
-0.996581, 33, 193, 160, 224
-0.996653, 75, 25, 90, 88
-0.996657, 103, 177, 118, 240
-0.996659, 97, 153, 112, 216
-0.996668, 33, 1, 64, 256
-0.99668, 37, 121, 68, 184
-0.99669, 125, 161, 140, 224
-0.996711, 135, 161, 150, 224
-0.99672, 21, 65, 36, 128
-0.996759, 81, 33, 96, 96
-0.99679, 87, 113, 102, 144
-0.996793, 15, 57, 30, 120
-0.9968, 95, 125, 110, 156
-0.996806, 59, 201, 74, 264
-0.996808, 129, 109, 144, 140
-0.996814, 41, 89, 56, 152
-0.996848, 153, 161, 168, 224
-0.996859, 73, 201, 88, 264
-0.99688, 75, 89, 90, 152
-0.996915, 89, 193, 104, 256
-0.99692, 89, 41, 104, 104
-0.996922, 121, 97, 136, 128
-0.996935, 21, 1, 52, 256
-0.996937, 145, 193, 160, 256
-0.996952, 87, 161, 102, 224
-0.996952, 85, 1, 116, 256
-0.996954, 43, 17, 58, 48
-0.997002, 27, 49, 42, 80
-0.997019, 65, 73, 80, 136
-0.997025, 35, 97, 50, 160
-0.997052, 49, 1, 80, 256
-0.997063, 113, 201, 128, 264
-0.99708, 101, 1, 132, 256
-0.997083, 135, 65, 150, 128
-0.997088, 65, 165, 80, 196
-0.997125, 129, 193, 144, 256
-0.997155, 85, 1, 116, 128
-0.997168, 29, 81, 44, 144
-0.997181, 99, 137, 114, 168
-0.997199, 125, 133, 140, 164
-0.997199, 81, 149, 96, 180
-0.997204, 115, 101, 130, 132
-0.997227, 37, 21, 52, 52
-0.997255, 85, 81, 100, 144
-0.997285, 27, 37, 42, 68
-0.997294, 83, 193, 98, 256
-0.997294, 161, 129, 192, 256
-0.997311, 65, 117, 80, 148
-0.997313, 33, 53, 48, 84
-0.997326, 119, 121, 134, 152
-0.997357, 49, 121, 64, 184
-0.997365, 139, 97, 154, 128
-0.99737, 37, 1, 52, 64
-0.997391, 21, 49, 36, 80
-0.997412, 77, 113, 92, 144
-0.997414, 89, 133, 104, 164
-0.99742, 127, 97, 142, 128
-0.997465, 101, 33, 132, 96
-0.997491, 59, 105, 74, 136
-0.997493, 131, 121, 146, 152
-0.997552, 155, 201, 170, 264
-0.997553, 57, 145, 72, 208
-0.997562, 117, 85, 132, 116
-0.997566, 179, 97, 194, 160
-0.997579, 1, 105, 128, 136
-0.997596, 151, 129, 166, 192
-0.997604, 43, 33, 58, 64
-0.997609, 67, 177, 82, 208
-0.997611, 147, 157, 162, 188
-0.997645, 89, 153, 104, 184
-0.997673, 49, 13, 64, 44
-0.99768, 53, 33, 68, 96
-0.997703, 53, 201, 68, 264
-0.997707, 1, 1, 32, 128
-0.997707, 97, 177, 112, 240
-0.997708, 31, 1, 46, 64
-0.997708, 137, 1, 168, 256
-0.997716, 69, 1, 100, 64
-0.997721, 55, 13, 70, 44
-0.997733, 61, 229, 76, 260
-0.997734, 133, 89, 148, 120
-0.997735, 125, 1, 156, 256
-0.997757, 111, 89, 126, 120
-0.997778, 1, 97, 32, 224
-0.997809, 109, 57, 124, 120
-0.997816, 59, 165, 74, 196
-0.997835, 83, 101, 98, 132
-0.997837, 107, 165, 122, 196
-0.997841, 141, 73, 156, 136
-0.997843, 127, 85, 142, 116
-0.997848, 161, 177, 176, 240
-0.997853, 11, 97, 26, 160
-0.997854, 63, 129, 78, 192
-0.997861, 71, 113, 86, 144
-0.997862, 95, 149, 110, 180
-0.997871, 147, 97, 162, 160
-0.997885, 105, 201, 120, 264
-0.99789, 65, 49, 80, 112
-0.997908, 73, 177, 88, 240
-0.997923, 109, 101, 124, 132
-0.997934, 135, 201, 150, 264
-0.997939, 55, 77, 70, 108
-0.997961, 23, 89, 38, 152
-0.997965, 115, 137, 130, 200
-0.997976, 65, 37, 192, 68
-0.997977, 59, 61, 74, 92
-0.997997, 63, 21, 78, 52
-0.998003, 75, 125, 90, 156
-0.998014, 83, 233, 98, 264
-0.998014, 91, 233, 106, 264
-0.998016, 111, 117, 126, 148
-0.998026, 145, 121, 160, 184
-0.998033, 75, 161, 90, 192
-0.998043, 51, 145, 66, 208
-0.998057, 55, 93, 70, 124
-0.998058, 53, 65, 68, 96
-0.998058, 9, 73, 24, 136
-0.998059, 1, 73, 16, 136
-0.998069, 5, 97, 20, 160
-0.998086, 133, 141, 148, 172
-0.998107, 123, 109, 138, 140
-0.99811, 171, 97, 186, 160
-0.998113, 95, 89, 110, 152
-0.998113, 85, 165, 100, 196
-0.998127, 97, 229, 112, 260
-0.998127, 93, 113, 108, 144
-0.998138, 29, 105, 44, 168
-0.998148, 141, 161, 156, 192
-0.998153, 71, 25, 86, 56
-0.998153, 59, 33, 74, 96
-0.998167, 25, 69, 40, 100
-0.998177, 165, 97, 180, 160
-0.998184, 43, 201, 58, 264
-0.998184, 9, 1, 40, 256
-0.998191, 153, 89, 168, 152
-0.998192, 137, 129, 152, 160
-0.998196, 123, 225, 138, 256
-0.998204, 69, 213, 84, 244
-0.998204, 75, 229, 90, 260
-0.998206, 41, 49, 56, 80
-0.99821, 87, 221, 102, 252
-0.99821, 55, 233, 70, 264
-0.998216, 79, 33, 94, 64
-0.998218, 19, 65, 34, 96
-0.998241, 97, 169, 112, 200
-0.998244, 65, 25, 192, 56
-0.998246, 153, 1, 184, 256
-0.998251, 61, 77, 76, 108
-0.998252, 119, 209, 134, 240
-0.99826, 113, 181, 128, 212
-0.998263, 33, 65, 48, 96
-0.998297, 107, 181, 122, 212
-0.9983, 63, 217, 78, 248
-0.998317, 93, 49, 108, 80
-0.998319, 141, 109, 156, 140
-0.998328, 53, 221, 68, 252
-0.998333, 17, 13, 144, 44
-0.998334, 101, 81, 132, 96
-0.998335, 41, 11, 72, 26
-0.998337, 49, 183, 80, 198
-0.998342, 41, 75, 72, 90
-0.998342, 99, 213, 114, 244
-0.998343, 61, 187, 92, 202
-0.998343, 157, 137, 172, 200
-0.998344, 75, 149, 90, 180
-0.998344, 61, 77, 92, 92
-0.998344, 137, 111, 168, 126
-0.998345, 141, 213, 172, 228
-0.998348, 121, 201, 152, 216
-0.998349, 17, 73, 48, 88
-0.998351, 125, 57, 140, 120
-0.998351, 89, 185, 120, 200
-0.998352, 53, 21, 84, 36
-0.998353, 101, 175, 132, 190
-0.998354, 121, 217, 152, 232
-0.998356, 125, 175, 156, 190
-0.998359, 133, 157, 164, 172
-0.998359, 9, 55, 40, 70
-0.998362, 17, 97, 32, 160
-0.998363, 9, 47, 40, 62
-0.998367, 77, 209, 108, 224
-0.998368, 81, 109, 112, 124
-0.998368, 109, 229, 140, 244
-0.998369, 93, 95, 124, 110
-0.998371, 121, 143, 152, 158
-0.998371, 101, 169, 132, 184
-0.998371, 65, 105, 80, 136
-0.998372, 57, 155, 88, 170
-0.998372, 69, 129, 84, 160
-0.998374, 29, 71, 60, 86
-0.998376, 89, 103, 120, 118
-0.998377, 45, 31, 76, 46
-0.998378, 61, 33, 92, 48
-0.998378, 73, 183, 104, 198
-0.998379, 45, 101, 76, 116
-0.99838, 145, 159, 176, 174
-0.998381, 21, 17, 36, 80
-0.998381, 101, 157, 132, 172
-0.998381, 101, 207, 132, 222
-0.998382, 137, 175, 168, 190
-0.998383, 23, 201, 38, 264
-0.998384, 45, 69, 76, 84
-0.998385, 45, 239, 76, 254
-0.998386, 5, 105, 36, 168
-0.998387, 85, 37, 100, 68
-0.99839, 97, 131, 160, 146
-0.99839, 105, 151, 136, 166
-0.99839, 5, 67, 36, 82
-0.998392, 105, 215, 136, 230
-0.998393, 73, 177, 104, 192
-0.998393, 121, 207, 152, 222
-0.998393, 33, 57, 64, 72
-0.998394, 47, 109, 62, 140
-0.998396, 77, 137, 108, 152
-0.998398, 73, 147, 104, 162
-0.998401, 129, 135, 160, 150
-0.998401, 81, 239, 112, 254
-0.998403, 41, 81, 72, 96
-0.998404, 21, 31, 52, 46
-0.998405, 73, 131, 104, 146
-0.998406, 45, 113, 76, 128
-0.998408, 13, 99, 44, 114
-0.998409, 17, 39, 48, 54
-0.998409, 89, 173, 120, 188
-0.998412, 21, 37, 36, 68
-0.998412, 97, 223, 128, 238
-0.998414, 59, 117, 74, 148
-0.998416, 65, 107, 96, 122
-0.998416, 125, 223, 156, 238
-0.998418, 85, 165, 116, 180
-0.998418, 109, 141, 140, 156
-0.998419, 93, 239, 124, 254
-0.998419, 101, 163, 132, 178
-0.99842, 79, 1, 94, 64
-0.998421, 53, 125, 84, 140
-0.998421, 137, 169, 168, 184
-0.998423, 121, 231, 152, 246
-0.998424, 97, 143, 128, 158
-0.998424, 97, 97, 160, 112
-0.998425, 41, 37, 72, 52
-0.998427, 125, 169, 156, 184
-0.998428, 133, 117, 164, 132
-0.998428, 49, 177, 80, 192
-0.998429, 45, 221, 76, 236
-0.998432, 77, 215, 108, 230
-0.998434, 61, 175, 92, 190
-0.998434, 49, 233, 112, 248
-0.998435, 33, 107, 64, 122
-0.998435, 89, 179, 120, 194
-0.998437, 57, 227, 120, 242
-0.998438, 33, 25, 96, 40
-0.998439, 33, 25, 64, 40
-0.998442, 73, 1, 88, 64
-0.998442, 135, 169, 150, 200
-0.998443, 105, 123, 136, 138
-0.998443, 105, 89, 120, 120
-0.998444, 61, 177, 76, 208
-0.998445, 57, 113, 88, 128
-0.998447, 101, 183, 132, 198
-0.998447, 97, 125, 160, 140
-0.998449, 97, 109, 128, 124
-0.99845, 37, 63, 68, 78
-0.998451, 61, 181, 92, 196
-0.998451, 73, 123, 136, 138
-0.998452, 41, 35, 104, 50
-0.998454, 57, 239, 88, 254
-0.998455, 137, 127, 168, 142
-0.998455, 35, 201, 50, 264
-0.998458, 61, 215, 92, 230
-0.99846, 33, 43, 64, 58
-0.99846, 57, 27, 88, 42
-0.998461, 93, 149, 124, 164
-0.998462, 73, 117, 136, 132
-0.998463, 175, 129, 190, 192
-0.998464, 105, 117, 120, 148
-0.998467, 93, 229, 124, 244
-0.998468, 73, 245, 104, 260
-0.998469, 93, 125, 124, 140
-0.998469, 73, 151, 136, 166
-0.998471, 49, 167, 80, 182
-0.998471, 87, 9, 102, 72
-0.998473, 49, 239, 112, 254
-0.998475, 29, 101, 60, 116
-0.998479, 113, 1, 144, 256
-0.998479, 89, 231, 152, 246
-0.99848, 125, 111, 156, 126
-0.998482, 133, 105, 164, 120
-0.998485, 103, 57, 118, 120
-0.998487, 121, 125, 184, 140
-0.998487, 57, 165, 120, 180
-0.998491, 21, 51, 52, 66
-0.998492, 119, 177, 134, 240
-0.998492, 89, 107, 152, 122
-0.998493, 45, 107, 76, 122
-0.998493, 89, 225, 152, 240
-0.998495, 13, 61, 44, 76
-0.998495, 65, 171, 128, 186
-0.998497, 81, 137, 144, 152
-0.998499, 9, 201, 24, 264
-0.998499, 65, 161, 96, 176
-0.998499, 43, 69, 58, 100
-0.9985, 65, 61, 192, 92
-0.998501, 77, 233, 108, 248
-0.998503, 101, 131, 132, 146
-0.998504, 113, 129, 128, 160
-0.998504, 129, 81, 144, 208
-0.998505, 25, 59, 88, 74
-0.998506, 81, 157, 144, 172
-0.998509, 33, 19, 96, 34
-0.998512, 57, 221, 120, 236
-0.998513, 97, 91, 160, 106
-0.998514, 117, 133, 148, 148
-0.998516, 81, 221, 96, 252
-0.998518, 41, 41, 104, 56
-0.998519, 73, 101, 88, 132
-0.998521, 93, 119, 124, 134
-0.998523, 133, 163, 164, 178
-0.998524, 97, 163, 160, 178
-0.998525, 101, 89, 132, 104
-0.998525, 97, 119, 160, 134
-0.998526, 17, 73, 80, 88
-0.998527, 57, 129, 120, 144
-0.998527, 77, 221, 108, 236
-0.998528, 109, 145, 124, 176
-0.998528, 65, 177, 128, 192
-0.998532, 73, 125, 104, 140
-0.998532, 69, 167, 100, 182
-0.998533, 85, 143, 116, 158
-0.998533, 17, 67, 48, 82
-0.998535, 39, 97, 54, 128
-0.998535, 17, 37, 80, 52
-0.998539, 73, 237, 136, 252
-0.998541, 117, 125, 148, 140
-0.998542, 57, 159, 120, 174
-0.998543, 89, 133, 120, 148
-0.998546, 15, 53, 30, 84
-0.998547, 61, 233, 92, 248
-0.998548, 113, 231, 176, 246
-0.998548, 9, 67, 72, 82
-0.998552, 69, 153, 84, 184
-0.998552, 69, 113, 100, 128
-0.998553, 129, 165, 144, 196
-0.998555, 73, 145, 136, 160
-0.998556, 33, 107, 96, 122
-0.998558, 85, 159, 116, 174
-0.99856, 113, 89, 144, 104
-0.99856, 119, 57, 134, 120
-0.998562, 57, 111, 120, 126
-0.998564, 61, 221, 92, 236
-0.998564, 17, 223, 80, 238
-0.998568, 73, 95, 136, 110
-0.998568, 9, 53, 72, 68
-0.99857, 57, 79, 120, 94
-0.99857, 89, 219, 152, 234
-0.99857, 29, 201, 44, 264
-0.998571, 57, 85, 120, 100
-0.998572, 121, 215, 184, 230
-0.998572, 113, 103, 176, 118
-0.998573, 53, 105, 68, 136
-0.998573, 33, 123, 96, 138
-0.998574, 53, 119, 84, 134
-0.998574, 149, 65, 164, 128
-0.998577, 57, 215, 120, 230
-0.998577, 13, 65, 28, 96
-0.998578, 49, 153, 112, 168
-0.998578, 125, 95, 156, 110
-0.998579, 17, 101, 80, 116
-0.998579, 73, 119, 104, 134
-0.99858, 73, 209, 136, 224
-0.99858, 107, 77, 122, 108
-0.998584, 121, 221, 184, 236
-0.998584, 51, 29, 66, 60
-0.998584, 113, 103, 144, 118
-0.998584, 33, 159, 96, 174
-0.998585, 57, 71, 120, 86
-0.998586, 121, 131, 184, 146
-0.998586, 77, 227, 108, 242
-0.998586, 67, 189, 82, 220
-0.998587, 97, 113, 160, 128
-0.998588, 117, 119, 148, 134
-0.998588, 41, 17, 72, 32
-0.998591, 155, 213, 170, 244
-0.998591, 97, 169, 160, 184
-0.998592, 57, 55, 120, 70
-0.998592, 77, 153, 108, 168
-0.998592, 53, 165, 68, 196
-0.998593, 73, 199, 136, 214
-0.998593, 17, 79, 80, 94
-0.998594, 49, 245, 112, 260
-0.998595, 25, 241, 88, 256
-0.998596, 17, 43, 80, 58
-0.998599, 129, 119, 192, 134
-0.9986, 97, 143, 160, 158
-0.9986, 33, 31, 64, 46
-0.9986, 125, 213, 140, 244
-0.998601, 97, 211, 160, 226
-0.998601, 49, 143, 112, 158
-0.998605, 49, 137, 112, 152
-0.99861, 113, 113, 144, 128
-0.998611, 41, 171, 104, 186
-0.998612, 73, 245, 136, 260
-0.998613, 121, 209, 184, 224
-0.998619, 1, 31, 64, 46
-0.998619, 61, 227, 92, 242
-0.998622, 121, 97, 184, 112
-0.998624, 73, 101, 136, 116
-0.998626, 33, 217, 96, 232
-0.998628, 105, 157, 168, 172
-0.998628, 105, 137, 168, 152
-0.998629, 83, 137, 98, 168
-0.99863, 69, 201, 84, 232
-0.998631, 105, 97, 136, 112
-0.998631, 81, 125, 96, 156
-0.998632, 75, 217, 90, 248
-0.998633, 49, 201, 112, 216
-0.998635, 119, 81, 134, 208
-0.998635, 57, 153, 72, 184
-0.998636, 57, 63, 120, 78
-0.998636, 97, 175, 160, 190
-0.998637, 17, 231, 80, 246
-0.998638, 65, 183, 128, 198
-0.99864, 49, 117, 112, 132
-0.99864, 125, 193, 140, 224
-0.998641, 127, 145, 142, 176
-0.998642, 21, 45, 52, 60
-0.998643, 129, 109, 192, 124
-0.998644, 9, 15, 72, 30
-0.998644, 105, 151, 168, 166
-0.998649, 49, 49, 112, 64
-0.998651, 1, 61, 64, 76
-0.998658, 49, 101, 112, 116
-0.99866, 1, 25, 64, 40
-0.99866, 41, 177, 104, 192
-0.99866, 135, 157, 150, 188
-0.998662, 33, 129, 96, 144
-0.998662, 119, 133, 134, 164
-0.998663, 9, 95, 72, 110
-0.998664, 9, 107, 72, 122
-0.998664, 53, 121, 68, 152
-0.998667, 97, 85, 160, 100
-0.998668, 15, 77, 30, 108
-0.998668, 97, 113, 112, 240
-0.998669, 73, 193, 136, 208
-0.99867, 33, 13, 96, 28
-0.998672, 49, 1, 64, 32
-0.998673, 89, 181, 152, 196
-0.998673, 149, 169, 164, 200
-0.998674, 49, 207, 112, 222
-0.998674, 45, 1, 60, 128
-0.998676, 91, 209, 106, 240
-0.998676, 115, 197, 130, 228
-0.998679, 17, 117, 80, 132
-0.998679, 151, 101, 166, 132
-0.998681, 109, 97, 124, 224
-0.998681, 41, 183, 104, 198
-0.998683, 33, 67, 96, 82
-0.998684, 29, 37, 60, 52
-0.998686, 121, 203, 184, 218
-0.998686, 121, 163, 184, 178
-0.998688, 125, 121, 140, 152
-0.998689, 121, 91, 184, 106
-0.998692, 97, 205, 160, 220
-0.998692, 97, 237, 160, 252
-0.998693, 1, 241, 64, 256
-0.998694, 129, 225, 144, 256
-0.998694, 49, 195, 112, 210
-0.998695, 121, 143, 184, 158
-0.998701, 121, 171, 184, 186
-0.998701, 27, 89, 42, 120
-0.998701, 67, 113, 82, 240
-0.998702, 5, 93, 20, 124
-0.998704, 25, 149, 88, 164
-0.998708, 33, 165, 96, 180
-0.998708, 113, 181, 176, 196
-0.998709, 81, 41, 144, 56
-0.99871, 73, 31, 136, 46
-0.998711, 89, 55, 152, 70
-0.998712, 1, 1, 194, 64
-0.998712, 89, 61, 152, 76
-0.998714, 49, 189, 112, 204
-0.998715, 99, 181, 114, 212
-0.998716, 17, 85, 80, 100
-0.998717, 57, 13, 120, 28
-0.998718, 17, 247, 80, 262
-0.998719, 57, 209, 72, 240
-0.998721, 89, 77, 152, 92
-0.998721, 49, 93, 64, 124
-0.998722, 121, 85, 184, 100
-0.998725, 89, 47, 152, 62
-0.998726, 65, 23, 128, 38
-0.998729, 113, 197, 176, 212
-0.99873, 89, 67, 152, 82
-0.99873, 97, 243, 160, 258
-0.998733, 17, 199, 80, 214
-0.998734, 9, 163, 72, 178
-0.998746, 85, 33, 116, 96
-0.998748, 61, 1, 76, 128
-0.998755, 135, 113, 150, 240
-0.998767, 141, 81, 156, 208
-0.998784, 59, 65, 74, 192
-0.998792, 99, 49, 114, 176
-0.9988, 51, 1, 66, 128
-0.998861, 27, 17, 42, 144
-0.998915, 81, 9, 112, 72
-0.998944, 39, 17, 54, 144
-0.998962, 65, 49, 192, 80
-0.998973, 65, 13, 192, 44
-0.998994, 129, 129, 144, 256
-0.999013, 91, 33, 106, 160
-0.999024, 53, 65, 68, 192
-0.999028, 33, 17, 48, 144
-0.999046, 161, 153, 192, 216
-0.999051, 49, 113, 64, 240
-0.999105, 75, 113, 90, 240
-0.999116, 71, 17, 86, 144
-0.999127, 123, 129, 138, 256
-0.999145, 91, 113, 106, 240
-0.999145, 21, 33, 36, 160
-0.999153, 103, 97, 118, 224
-0.999154, 85, 33, 100, 160
-0.999168, 151, 129, 166, 256
-0.999181, 47, 65, 62, 192
-0.999194, 161, 33, 192, 160
-0.999209, 129, 33, 144, 160
-0.999218, 107, 49, 122, 176
-0.999234, 55, 113, 70, 240
-0.999234, 135, 65, 150, 192
-0.999257, 79, 17, 94, 144
-0.999272, 147, 81, 162, 208
-0.999274, 145, 129, 160, 256
-0.999274, 15, 49, 30, 176
-0.999295, 61, 113, 76, 240
-0.999295, 85, 113, 100, 240
-0.999319, 121, 33, 136, 160
-0.99933, 153, 81, 168, 208
-0.99933, 65, 49, 80, 176
-0.999358, 113, 49, 128, 176
-0.999382, 21, 177, 52, 240
-0.999424, 115, 129, 130, 256
-0.999424, 71, 65, 86, 192
-0.999452, 37, 65, 52, 192
-0.999454, 157, 129, 172, 256
-0.99946, 125, 1, 156, 128
-0.999477, 161, 73, 192, 136
-0.999488, 7, 65, 22, 192
-0.999491, 149, 17, 180, 144
-0.999501, 159, 65, 174, 192
-0.999509, 29, 97, 44, 224
-0.999548, 43, 113, 58, 240
-0.999553, 141, 127, 156, 142
-0.999553, 57, 221, 72, 236
-0.999554, 67, 187, 82, 202
-0.999555, 77, 129, 92, 144
-0.999557, 11, 97, 26, 112
-0.999558, 123, 111, 138, 126
-0.999558, 97, 175, 112, 190
-0.999558, 13, 69, 28, 84
-0.999558, 49, 11, 64, 26
-0.999559, 111, 115, 126, 130
-0.99956, 87, 235, 102, 250
-0.999561, 75, 229, 90, 244
-0.999561, 97, 229, 112, 244
-0.999561, 79, 167, 94, 182
-0.999561, 47, 99, 62, 114
-0.999561, 73, 109, 88, 124
-0.999562, 5, 97, 20, 112
-0.999562, 53, 67, 68, 82
-0.999562, 147, 165, 162, 180
-0.999563, 139, 163, 154, 178
-0.999565, 33, 69, 48, 84
-0.999565, 83, 39, 98, 54
-0.999566, 63, 83, 78, 98
-0.999566, 131, 121, 146, 136
-0.999566, 73, 223, 88, 238
-0.999567, 141, 117, 156, 132
-0.999567, 125, 145, 140, 160
-0.999567, 87, 243, 102, 258
-0.999567, 29, 31, 44, 46
-0.999569, 21, 81, 36, 208
-0.99957, 59, 19, 74, 34
-0.99957, 125, 229, 140, 244
-0.999572, 107, 173, 122, 188
-0.999572, 1, 65, 16, 192
-0.999576, 67, 219, 82, 234
-0.999576, 129, 49, 192, 112
-0.999577, 53, 241, 68, 256
-0.999577, 87, 159, 102, 174
-0.999577, 85, 225, 100, 240
-0.999578, 97, 155, 112, 170
-0.999578, 91, 117, 106, 132
-0.999579, 111, 121, 126, 136
-0.999579, 165, 65, 180, 192
-0.999579, 77, 33, 92, 48
-0.999579, 59, 239, 74, 254
-0.99958, 55, 99, 70, 114
-0.99958, 83, 105, 98, 120
-0.999581, 19, 49, 34, 64
-0.999582, 125, 131, 140, 146
-0.999583, 65, 23, 80, 38
-0.999584, 21, 43, 36, 58
-0.999585, 89, 149, 104, 164
-0.999585, 107, 85, 122, 100
-0.999585, 113, 183, 128, 198
-0.999585, 107, 183, 122, 198
-0.999585, 133, 103, 148, 118
-0.999587, 107, 165, 122, 180
-0.999592, 141, 97, 156, 112
-0.999594, 23, 55, 38, 70
-0.999594, 59, 119, 74, 134
-0.999595, 141, 103, 156, 118
-0.999595, 51, 31, 66, 46
-0.999595, 27, 103, 42, 118
-0.999598, 115, 109, 130, 124
-0.999599, 45, 39, 60, 54
-0.9996, 141, 33, 156, 160
-0.999601, 61, 61, 76, 76
-0.999601, 133, 135, 148, 150
-0.999602, 91, 227, 106, 242
-0.999608, 65, 229, 80, 244
-0.999609, 57, 173, 72, 188
-0.999609, 139, 111, 154, 126
-0.99961, 69, 169, 84, 184
-0.99961, 61, 113, 76, 128
-0.999612, 27, 63, 42, 78
-0.999614, 171, 65, 186, 192
-0.999615, 73, 159, 88, 174
-0.999615, 25, 129, 56, 256
-0.999619, 119, 133, 134, 148
-0.99962, 129, 91, 144, 106
-0.999623, 49, 107, 64, 122
-0.999623, 179, 97, 194, 224
-0.999623, 109, 105, 124, 120
-0.999626, 67, 181, 82, 196
-0.999626, 65, 125, 80, 140
-0.999628, 97, 149, 112, 164
-0.99963, 71, 27, 86, 42
-0.999631, 79, 161, 94, 176
-0.999634, 27, 37, 42, 52
-0.999637, 71, 129, 86, 144
-0.999637, 55, 105, 70, 120
-0.999638, 115, 89, 130, 104
-0.999639, 57, 167, 72, 182
-0.999645, 135, 141, 150, 156
-0.999646, 39, 23, 54, 38
-0.999646, 55, 79, 70, 94
-0.999647, 37, 101, 52, 116
-0.999648, 87, 123, 102, 138
-0.999649, 121, 89, 136, 104
-0.999652, 99, 139, 114, 154
-0.999653, 135, 95, 150, 110
-0.999657, 71, 117, 86, 132
-0.999657, 19, 69, 34, 84
-0.999658, 93, 127, 108, 142
-0.999659, 77, 65, 92, 192
-0.999667, 125, 99, 140, 114
-0.99967, 133, 129, 148, 144
-0.999672, 27, 69, 42, 84
-0.999672, 111, 99, 126, 114
-0.999672, 55, 13, 70, 28
-0.999673, 167, 113, 182, 240
-0.999676, 35, 43, 50, 58
-0.999682, 33, 63, 48, 78
-0.999684, 47, 17, 62, 32
-0.999684, 117, 115, 132, 130
-0.99969, 65, 119, 80, 134
-0.99969, 145, 159, 160, 174
-0.999692, 77, 115, 92, 130
-0.999701, 127, 105, 142, 120
-0.999702, 117, 127, 132, 142
-0.999703, 109, 93, 124, 108
-0.999707, 63, 167, 78, 182
-0.999709, 33, 53, 48, 68
-0.999712, 89, 143, 104, 158
-0.999713, 81, 151, 96, 166
-0.999717, 35, 113, 50, 240
-0.99972, 25, 49, 40, 64
-0.999723, 135, 17, 150, 144
-0.999723, 65, 175, 80, 190
-0.999724, 127, 137, 142, 152
-0.999726, 75, 123, 90, 138
-0.999726, 151, 33, 166, 160
-0.99973, 45, 33, 60, 48
-0.999731, 35, 29, 50, 44
-0.999731, 117, 121, 132, 136
-0.999732, 15, 113, 30, 240
-0.999733, 179, 49, 194, 176
-0.99974, 119, 101, 134, 116
-0.99975, 173, 113, 188, 240
-0.999753, 83, 111, 98, 126
-0.999753, 97, 1, 112, 128
-0.999756, 9, 17, 24, 144
-0.999757, 15, 1, 30, 128
-0.999768, 129, 111, 144, 126
-0.999769, 3, 17, 18, 144
-0.99978, 27, 43, 42, 58
-0.999792, 13, 129, 44, 256
-0.999793, 35, 37, 50, 52
-0.999796, 85, 117, 100, 132
-0.999797, 95, 133, 110, 148
-0.999808, 9, 113, 24, 240
-0.999819, 107, 1, 122, 128
-0.999821, 117, 95, 132, 110
-0.999839, 171, 17, 186, 144
-0.999865, 3, 129, 18, 256
-0.999872, 165, 17, 180, 144
-0.999877, 21, 129, 36, 256
-0.999888, 159, 17, 174, 144
-0.999939, 113, 1, 128, 128
-1.00004, 177, 1, 192, 128
-1.00016, 33, 1, 160, 32
-1.00073, 25, 129, 56, 192
-1.00086, 37, 169, 68, 232
-1.00135, 25, 153, 56, 216
-1.00195, 93, 9, 124, 72
-1.00209, 9, 137, 40, 200
-1.00238, 77, 57, 108, 120
-1.00274, 5, 169, 36, 232
-1.00408, 145, 49, 176, 112
-1.0045, 89, 1, 152, 64
-1.00494, 133, 41, 164, 104
-1.00505, 1, 9, 32, 72
-1.00665, 157, 49, 188, 112
-1.00668, 121, 33, 152, 96
-1.0082, 121, 17, 184, 80
-1.00845, 157, 25, 188, 88
-1.00871, 133, 17, 164, 80
-1.00885, 145, 25, 176, 88
-1.00938, 117, 9, 148, 72
-1.01, 145, 1, 176, 64
-1.01, 157, 1, 188, 64
-1.01129, 105, 9, 136, 72
