1866
-0.325402, 1, 1, 500, 333
-0.411619, 1, 1, 500, 256
-0.453393, 97, 1, 352, 333
-0.471537, 1, 1, 256, 333
-0.482392, 193, 1, 448, 333
-0.53599, 225, 1, 480, 256
-0.569489, 1, 33, 256, 288
-0.585679, 129, 33, 384, 288
-0.857329, 305, 1, 432, 333
-0.857953, 257, 1, 384, 333
-0.858254, 145, 1, 272, 333
-0.861077, 273, 1, 400, 256
-0.862043, 1, 33, 128, 288
-0.86334, 225, 1, 352, 256
-0.864015, 145, 1, 272, 256
-0.866575, 81, 1, 208, 333
-0.875494, 209, 1, 336, 333
-0.876037, 1, 1, 128, 333
-0.881417, 353, 1, 480, 256
-0.884636, 1, 49, 500, 176
-0.887178, 97, 33, 224, 288
-0.893067, 49, 65, 176, 320
-0.895403, 353, 1, 480, 333
-0.903067, 1, 129, 500, 256
-0.919229, 225, 49, 480, 176
-0.922701, 161, 177, 416, 304
-0.924632, 1, 81, 256, 208
-0.928424, 1, 1, 500, 128
-0.929128, 97, 129, 352, 256
-0.930223, 225, 177, 352, 304
-0.933326, 225, 97, 480, 224
-0.934474, 1, 81, 128, 208
-0.936063, 65, 33, 320, 160
-0.940289, 225, 1, 480, 128
-0.944561, 273, 113, 336, 240
-0.944969, 257, 161, 500, 288
-0.946288, 1, 209, 500, 333
-0.946542, 273, 161, 336, 288
-0.946814, 97, 81, 352, 208
-0.947277, 33, 81, 96, 208
-0.947632, 257, 209, 500, 333
-0.948407, 33, 209, 288, 333
-0.948459, 209, 65, 336, 192
-0.950485, 1, 129, 256, 256
-0.95084, 129, 33, 256, 160
-0.952152, 9, 81, 72, 208
-0.952413, 241, 193, 304, 320
-0.952432, 313, 145, 376, 272
-0.952735, 273, 209, 400, 333
-0.953129, 49, 49, 176, 176
-0.953186, 225, 129, 352, 256
-0.953737, 273, 113, 400, 240
-0.954249, 249, 113, 312, 240
-0.954342, 305, 33, 432, 160
-0.954581, 177, 177, 304, 304
-0.955156, 145, 81, 272, 208
-0.955422, 257, 121, 320, 184
-0.956109, 313, 33, 376, 160
-0.956762, 57, 65, 120, 192
-0.957028, 241, 1, 368, 128
-0.957354, 289, 129, 352, 192
-0.957494, 273, 209, 336, 333
-0.957816, 313, 97, 376, 224
-0.958129, 361, 17, 424, 144
-0.958308, 209, 65, 272, 192
-0.95835, 433, 33, 496, 160
-0.959665, 129, 209, 256, 333
-0.960873, 273, 161, 336, 224
-0.961398, 81, 193, 208, 320
-0.961628, 433, 113, 496, 240
-0.962379, 1, 177, 128, 304
-0.962543, 369, 33, 496, 160
-0.963498, 273, 161, 400, 288
-0.963555, 289, 49, 352, 176
-0.963753, 273, 1, 336, 128
-0.964434, 177, 129, 304, 256
-0.964532, 81, 81, 144, 208
-0.964571, 313, 129, 376, 192
-0.964629, 41, 89, 104, 152
-0.964779, 257, 65, 320, 192
-0.964886, 1, 129, 128, 256
-0.96506, 321, 145, 448, 272
-0.965503, 393, 17, 456, 144
-0.965651, 65, 97, 192, 224
-0.965834, 177, 209, 240, 333
-0.965847, 249, 185, 312, 248
-0.965939, 57, 161, 120, 288
-0.965981, 305, 193, 368, 320
-0.965986, 1, 89, 64, 152
-0.96599, 273, 97, 336, 160
-0.966129, 241, 209, 304, 272
-0.966548, 169, 33, 232, 160
-0.96669, 209, 177, 272, 304
-0.967239, 273, 233, 336, 296
-0.967338, 313, 153, 376, 216
-0.967529, 273, 185, 336, 248
-0.968082, 73, 89, 136, 152
-0.968271, 241, 153, 304, 216
-0.968463, 105, 49, 168, 176
-0.96876, 361, 33, 424, 96
-0.96883, 337, 193, 464, 320
-0.968947, 297, 89, 360, 152
-0.968955, 337, 33, 400, 160
-0.969171, 49, 169, 112, 232
-0.969298, 145, 33, 208, 160
-0.969458, 257, 65, 384, 192
-0.969496, 209, 217, 272, 280
-0.969573, 241, 265, 304, 328
-0.969594, 57, 113, 120, 240
-0.96978, 369, 145, 496, 272
-0.969946, 353, 81, 480, 208
-0.970031, 433, 33, 496, 96
-0.970091, 345, 193, 408, 320
-0.970544, 113, 113, 176, 176
-0.970555, 345, 97, 408, 224
-0.970686, 233, 49, 296, 176
-0.970844, 169, 225, 232, 288
-0.970952, 401, 25, 464, 88
-0.971131, 241, 241, 304, 304
-0.971222, 217, 113, 280, 240
-0.971431, 313, 49, 376, 112
-0.971524, 305, 257, 368, 320
-0.971568, 89, 193, 152, 320
-0.971583, 361, 1, 424, 256
-0.971821, 273, 65, 336, 320
-0.971936, 1, 97, 128, 160
-0.972089, 209, 33, 272, 288
-0.972278, 193, 17, 320, 144
-0.972291, 313, 177, 376, 240
-0.972539, 313, 1, 376, 256
-0.972673, 97, 81, 160, 144
-0.972855, 113, 193, 176, 320
-0.972909, 433, 1, 496, 64
-0.97293, 273, 209, 336, 272
-0.973045, 193, 73, 256, 136
-0.973312, 81, 145, 208, 272
-0.973735, 17, 129, 80, 256
-0.973742, 81, 33, 144, 160
-0.97384, 169, 81, 232, 208
-0.974012, 329, 97, 392, 160
-0.974059, 33, 33, 96, 160
-0.974063, 1, 33, 128, 160
-0.974368, 433, 105, 496, 168
-0.974425, 129, 209, 192, 272
-0.97444, 25, 177, 88, 240
-0.974582, 433, 161, 496, 288
-0.974884, 273, 257, 336, 320
-0.97492, 161, 33, 224, 288
-0.975214, 193, 17, 256, 144
-0.97537, 89, 129, 152, 256
-0.975379, 401, 97, 464, 224
-0.975408, 137, 33, 200, 288
-0.975465, 433, 153, 496, 216
-0.975795, 249, 97, 312, 160
-0.975828, 233, 1, 296, 256
-0.975889, 217, 97, 280, 160
-0.975995, 89, 201, 152, 264
-0.976104, 409, 1, 472, 256
-0.976266, 97, 33, 160, 288
-0.976291, 53, 81, 84, 208
-0.976319, 301, 113, 332, 240
-0.976321, 193, 225, 320, 288
-0.976332, 81, 97, 112, 160
-0.976346, 301, 113, 332, 176
-0.976483, 233, 129, 296, 192
-0.976484, 49, 33, 112, 288
-0.976535, 337, 33, 400, 96
-0.97662, 185, 1, 248, 256
-0.976695, 145, 209, 208, 333
-0.976816, 433, 73, 496, 136
-0.976832, 209, 249, 336, 312
-0.977515, 153, 81, 216, 144
-0.977543, 313, 225, 376, 288
-0.977658, 17, 33, 80, 288
-0.977703, 9, 33, 72, 160
-0.97779, 65, 81, 96, 208
-0.977803, 209, 121, 272, 184
-0.977903, 113, 129, 176, 256
-0.978103, 1, 177, 64, 240
-0.978139, 129, 81, 192, 144
-0.978196, 433, 1, 496, 256
-0.978431, 225, 193, 352, 256
-0.97844, 177, 193, 304, 256
-0.978616, 289, 145, 320, 272
-0.978653, 169, 41, 232, 104
-0.978658, 145, 113, 272, 176
-0.978743, 129, 161, 256, 288
-0.978789, 241, 225, 368, 288
-0.978817, 57, 65, 120, 128
-0.978835, 209, 241, 272, 304
-0.979107, 65, 113, 128, 176
-0.979129, 81, 81, 112, 208
-0.979336, 369, 97, 432, 224
-0.979553, 313, 201, 376, 264
-0.979571, 457, 25, 488, 88
-0.979576, 129, 81, 192, 208
-0.979582, 13, 97, 44, 160
-0.979641, 401, 209, 464, 333
-0.979668, 257, 129, 288, 192
-0.979884, 69, 161, 100, 224
-0.979904, 1, 73, 128, 136
-0.979905, 337, 33, 464, 96
-0.979963, 1, 177, 64, 304
-0.980078, 89, 113, 152, 176
-0.980128, 289, 161, 320, 224
-0.980131, 329, 249, 392, 312
-0.980147, 145, 81, 272, 144
-0.980202, 225, 121, 352, 184
-0.980295, 345, 121, 408, 184
-0.980329, 81, 201, 208, 264
-0.980363, 345, 153, 408, 216
-0.980456, 425, 273, 488, 333
-0.980571, 289, 121, 320, 184
-0.980789, 69, 89, 100, 152
-0.980802, 97, 105, 128, 168
-0.980812, 369, 145, 432, 272
-0.980881, 17, 185, 144, 248
-0.980959, 25, 177, 88, 304
-0.980962, 49, 89, 176, 152
-0.981042, 457, 105, 488, 168
-0.981105, 461, 33, 492, 160
-0.981117, 217, 65, 248, 192
-0.981141, 301, 65, 332, 192
-0.981192, 225, 89, 352, 152
-0.981261, 337, 1, 400, 256
-0.981287, 433, 129, 496, 192
-0.981297, 129, 217, 256, 280
-0.981301, 273, 257, 400, 320
-0.981302, 17, 65, 80, 128
-0.981385, 321, 1, 384, 64
-0.981407, 249, 1, 312, 128
-0.981429, 269, 137, 300, 200
-0.981534, 257, 65, 320, 128
-0.981574, 81, 57, 144, 120
-0.981587, 161, 161, 224, 288
-0.98165, 209, 273, 336, 333
-0.981803, 1, 113, 64, 176
-0.981835, 301, 89, 332, 152
-0.981855, 273, 121, 400, 184
-0.981901, 65, 113, 192, 176
-0.981994, 65, 1, 192, 128
-0.982014, 353, 1, 416, 333
-0.982027, 209, 65, 336, 128
-0.982066, 453, 273, 484, 333
-0.982187, 65, 193, 128, 256
-0.98221, 209, 1, 272, 333
-0.982316, 409, 121, 472, 184
-0.982507, 469, 81, 500, 144
-0.982518, 53, 89, 84, 152
-0.982705, 97, 81, 224, 144
-0.982712, 465, 49, 496, 112
-0.982724, 353, 89, 416, 152
-0.98277, 209, 193, 272, 256
-0.982785, 313, 1, 376, 333
-0.982792, 225, 169, 352, 232
-0.982947, 13, 97, 44, 224
-0.982972, 401, 169, 464, 232
-0.98305, 217, 73, 248, 136
-0.983052, 73, 137, 136, 200
-0.983103, 273, 1, 336, 333
-0.983117, 385, 1, 448, 256
-0.983129, 201, 225, 232, 288
-0.983222, 321, 129, 352, 192
-0.983231, 345, 145, 408, 272
-0.983302, 277, 113, 308, 240
-0.983349, 357, 33, 388, 160
-0.983403, 33, 97, 64, 160
-0.983471, 13, 177, 44, 240
-0.983524, 325, 129, 356, 256
-0.983526, 333, 113, 364, 176
-0.983584, 145, 113, 208, 176
-0.983589, 313, 177, 344, 304
-0.98365, 73, 33, 136, 288
-0.98368, 281, 49, 344, 112
-0.983685, 321, 49, 352, 176
-0.98369, 201, 265, 264, 328
-0.983791, 129, 41, 192, 104
-0.983796, 1, 161, 128, 224
-0.983863, 1, 129, 128, 192
-0.983958, 157, 33, 188, 160
-0.983968, 65, 57, 192, 120
-0.983999, 445, 33, 476, 160
-0.984021, 457, 81, 488, 144
-0.984034, 465, 1, 496, 64
-0.984112, 329, 73, 392, 136
-0.984119, 237, 65, 268, 192
-0.984129, 25, 201, 88, 264
-0.984139, 273, 113, 304, 176
-0.984179, 113, 1, 176, 333
-0.984208, 313, 257, 344, 320
-0.984295, 353, 89, 384, 152
-0.984318, 325, 209, 356, 333
-0.984391, 41, 121, 104, 184
-0.984396, 289, 209, 320, 333
-0.984462, 265, 113, 296, 240
-0.984472, 401, 161, 464, 288
-0.9846, 157, 81, 188, 144
-0.984635, 1, 105, 32, 168
-0.984728, 301, 137, 332, 200
-0.98477, 393, 17, 424, 144
-0.984828, 337, 105, 464, 168
-0.985058, 433, 177, 496, 240
-0.985075, 69, 33, 100, 160
-0.985121, 193, 113, 256, 240
-0.985126, 153, 201, 216, 264
-0.985151, 33, 81, 64, 208
-0.985296, 205, 209, 236, 333
-0.98534, 113, 113, 144, 176
-0.985364, 117, 81, 148, 144
-0.985405, 225, 145, 352, 208
-0.985405, 273, 169, 400, 232
-0.985423, 249, 1, 312, 333
-0.985438, 321, 105, 352, 168
-0.985474, 301, 1, 332, 128
-0.985489, 345, 193, 408, 256
-0.985504, 281, 17, 344, 80
-0.985507, 1, 177, 32, 240
-0.985563, 469, 113, 500, 240
-0.985571, 289, 41, 416, 104
-0.985596, 445, 89, 476, 152
-0.985622, 129, 41, 256, 104
-0.985636, 69, 161, 100, 288
-0.985642, 325, 41, 356, 104
-0.985658, 233, 57, 296, 120
-0.985666, 337, 97, 368, 224
-0.985692, 237, 113, 268, 176
-0.985733, 369, 137, 432, 200
-0.985746, 153, 1, 216, 333
-0.985768, 269, 161, 300, 224
-0.985774, 425, 209, 488, 333
-0.985795, 289, 97, 320, 224
-0.985872, 445, 33, 476, 96
-0.985898, 445, 65, 476, 128
-0.98591, 337, 145, 464, 208
-0.986042, 425, 17, 456, 144
-0.986107, 1, 201, 64, 264
-0.986129, 393, 73, 456, 136
-0.986155, 377, 33, 408, 160
-0.986157, 153, 17, 216, 80
-0.986201, 137, 161, 200, 288
-0.986205, 17, 153, 80, 216
-0.986264, 273, 201, 400, 264
-0.986324, 105, 81, 136, 144
-0.986355, 289, 265, 320, 328
-0.986378, 445, 129, 476, 192
-0.986507, 273, 1, 400, 64
-0.986543, 401, 249, 464, 312
-0.986566, 73, 161, 136, 224
-0.986577, 57, 17, 120, 144
-0.986616, 313, 129, 344, 256
-0.986627, 321, 153, 352, 216
-0.986681, 137, 49, 168, 176
-0.986687, 57, 1, 120, 333
-0.986694, 357, 41, 388, 104
-0.986728, 121, 185, 184, 248
-0.986757, 469, 113, 500, 176
-0.986761, 129, 113, 160, 176
-0.986796, 337, 185, 464, 248
-0.986821, 89, 1, 152, 333
-0.986888, 209, 25, 336, 88
-0.986926, 401, 1, 464, 333
-0.986947, 229, 209, 260, 333
-0.987039, 333, 17, 364, 144
-0.98704, 105, 57, 168, 120
-0.987046, 245, 113, 276, 240
-0.98705, 217, 153, 280, 216
-0.987265, 257, 177, 288, 304
-0.987318, 193, 33, 256, 96
-0.987325, 357, 113, 388, 240
-0.987328, 273, 145, 400, 208
-0.987334, 273, 97, 400, 160
-0.987397, 161, 257, 288, 320
-0.987403, 185, 97, 248, 160
-0.987445, 257, 185, 288, 248
-0.987452, 449, 81, 480, 208
-0.98748, 81, 121, 112, 184
-0.987532, 345, 225, 408, 288
-0.98754, 177, 1, 240, 333
-0.987569, 17, 1, 80, 333
-0.987631, 21, 73, 52, 136
-0.987655, 101, 49, 132, 176
-0.987718, 369, 81, 496, 144
-0.987718, 305, 233, 432, 296
-0.987734, 197, 33, 228, 160
-0.987749, 129, 17, 192, 80
-0.987769, 313, 25, 376, 88
-0.987779, 225, 25, 288, 88
-0.987784, 245, 89, 276, 152
-0.987814, 85, 33, 116, 160
-0.987864, 393, 33, 424, 96
-0.987921, 269, 185, 300, 248
-0.98794, 157, 209, 188, 272
-0.988018, 393, 97, 456, 160
-0.988027, 357, 193, 388, 320
-0.988029, 313, 185, 344, 248
-0.98804, 45, 33, 76, 160
-0.988063, 1, 97, 32, 224
-0.988073, 373, 33, 404, 96
-0.988075, 197, 81, 228, 144
-0.988084, 217, 1, 280, 128
-0.988145, 141, 105, 172, 168
-0.988164, 21, 49, 52, 176
-0.98817, 325, 233, 356, 296
-0.988226, 337, 33, 368, 96
-0.988266, 249, 49, 280, 176
-0.988274, 53, 65, 84, 128
-0.988373, 413, 25, 444, 88
-0.988398, 129, 81, 160, 144
-0.988508, 257, 161, 288, 224
-0.988522, 301, 57, 332, 120
-0.988547, 369, 1, 496, 64
-0.988551, 425, 25, 456, 88
-0.988553, 177, 249, 240, 312
-0.988603, 29, 185, 60, 248
-0.98861, 81, 137, 208, 200
-0.988657, 217, 17, 248, 144
-0.98867, 189, 225, 220, 288
-0.988673, 453, 1, 484, 64
-0.988743, 285, 97, 316, 160
-0.988767, 229, 65, 260, 128
-0.988781, 333, 137, 364, 200
-0.988802, 125, 201, 156, 264
-0.988843, 41, 73, 72, 136
-0.988867, 93, 193, 124, 256
-0.988869, 313, 1, 344, 128
-0.988886, 369, 265, 496, 328
-0.989012, 113, 49, 144, 176
-0.989106, 313, 49, 344, 112
-0.989131, 97, 113, 128, 240
-0.989149, 401, 225, 464, 288
-0.989164, 177, 201, 240, 264
-0.989199, 177, 153, 304, 216
-0.989303, 229, 249, 260, 312
-0.989324, 157, 25, 188, 88
-0.98937, 69, 65, 100, 128
-0.989486, 113, 201, 144, 264
-0.989519, 377, 1, 440, 333
-0.989532, 97, 169, 160, 232
-0.989538, 229, 17, 260, 144
-0.98954, 281, 1, 312, 128
-0.98955, 313, 225, 344, 288
-0.989587, 289, 201, 320, 264
-0.989604, 345, 57, 376, 120
-0.989611, 289, 121, 352, 152
-0.989735, 141, 193, 172, 320
-0.989745, 345, 113, 376, 176
-0.989766, 321, 209, 448, 272
-0.989773, 313, 133, 376, 164
-0.989805, 69, 113, 100, 176
-0.989811, 257, 121, 320, 152
-0.989859, 257, 133, 320, 164
-0.98996, 357, 137, 388, 200
-0.989981, 401, 201, 464, 264
-0.990006, 81, 65, 112, 128
-0.990083, 321, 1, 448, 64
-0.990102, 105, 193, 136, 320
-0.990118, 13, 121, 44, 184
-0.990136, 273, 65, 304, 192
-0.990148, 321, 81, 448, 144
-0.99016, 413, 17, 444, 144
-0.990169, 177, 81, 208, 208
-0.99017, 169, 121, 232, 184
-0.990192, 245, 153, 276, 216
-0.990211, 257, 145, 320, 176
-0.990215, 257, 105, 288, 168
-0.990271, 401, 29, 464, 60
-0.99028, 93, 193, 124, 320
-0.990299, 57, 93, 120, 124
-0.990319, 433, 29, 496, 60
-0.990345, 377, 9, 440, 72
-0.990348, 429, 105, 460, 168
-0.990348, 325, 185, 356, 248
-0.990352, 153, 193, 184, 320
-0.990359, 273, 233, 336, 264
-0.990367, 401, 49, 464, 112
-0.990389, 409, 145, 472, 208
-0.990406, 357, 113, 388, 176
-0.990409, 193, 73, 256, 104
-0.990435, 121, 1, 184, 128
-0.99044, 249, 185, 312, 216
-0.990456, 241, 213, 304, 244
-0.990464, 121, 209, 184, 240
-0.990465, 273, 161, 336, 192
-0.990467, 81, 201, 144, 232
-0.990506, 49, 161, 176, 224
-0.99051, 373, 129, 404, 256
-0.990543, 161, 217, 224, 248
-0.990565, 241, 225, 304, 256
-0.990582, 273, 181, 336, 212
-0.990584, 57, 177, 88, 240
-0.990604, 169, 33, 200, 160
-0.990612, 289, 141, 352, 172
-0.990621, 249, 157, 312, 188
-0.990642, 261, 49, 292, 176
-0.990654, 357, 161, 388, 224
-0.990674, 9, 101, 72, 132
-0.990686, 313, 41, 376, 72
-0.990704, 301, 161, 332, 288
-0.990713, 17, 189, 80, 220
-0.990756, 313, 185, 376, 216
-0.990772, 345, 33, 376, 160
-0.990773, 457, 129, 488, 192
-0.990778, 241, 237, 304, 268
-0.990779, 33, 33, 64, 160
-0.990786, 273, 209, 336, 240
-0.990799, 57, 185, 120, 216
-0.990802, 209, 217, 272, 248
-0.990802, 433, 1, 496, 333
-0.990822, 269, 161, 300, 288
-0.990827, 401, 105, 432, 168
-0.990832, 141, 81, 172, 144
-0.990848, 273, 221, 336, 252
-0.990861, 313, 221, 376, 252
-0.990875, 273, 257, 336, 288
-0.990887, 273, 245, 336, 276
-0.990919, 305, 265, 368, 296
-0.99092, 361, 37, 424, 68
-0.990965, 325, 257, 356, 320
-0.990994, 81, 169, 112, 232
-0.990997, 241, 249, 304, 280
-0.991004, 169, 229, 232, 260
-0.991019, 313, 237, 376, 268
-0.991031, 313, 161, 376, 192
-0.991037, 313, 145, 376, 176
-0.991059, 273, 193, 336, 224
-0.991072, 241, 273, 304, 304
-0.991076, 337, 145, 368, 272
-0.991135, 73, 121, 136, 152
-0.991146, 33, 97, 96, 128
-0.99115, 273, 273, 336, 304
-0.991157, 313, 53, 376, 84
-0.991164, 373, 177, 404, 304
-0.991169, 197, 81, 228, 208
-0.991187, 41, 173, 104, 204
-0.991214, 433, 45, 496, 76
-0.991214, 313, 173, 376, 204
-0.99122, 313, 117, 376, 148
-0.991224, 209, 237, 272, 268
-0.991241, 177, 217, 208, 280
-0.991263, 313, 209, 376, 240
-0.991284, 1, 145, 32, 208
-0.991309, 241, 261, 304, 292
-0.991311, 241, 201, 304, 232
-0.991322, 193, 209, 224, 333
-0.991353, 361, 57, 424, 120
-0.991362, 377, 81, 408, 208
-0.991367, 125, 49, 156, 176
-0.991367, 433, 17, 496, 48
-0.99137, 433, 113, 496, 144
-0.991371, 5, 145, 36, 272
-0.991378, 433, 201, 496, 264
-0.991401, 53, 121, 84, 184
-0.991414, 225, 121, 288, 152
-0.991436, 113, 125, 176, 156
-0.991448, 313, 249, 376, 280
-0.991453, 89, 89, 152, 120
-0.991454, 469, 25, 500, 88
-0.991501, 337, 41, 400, 72
-0.991504, 365, 81, 396, 144
-0.991514, 273, 109, 336, 140
-0.991516, 241, 285, 304, 316
-0.991517, 9, 85, 72, 116
-0.991539, 313, 101, 376, 132
-0.991583, 337, 97, 400, 128
-0.991587, 49, 125, 112, 156
-0.991589, 1, 113, 64, 144
-0.991608, 329, 197, 392, 228
-0.991608, 185, 33, 216, 160
-0.991628, 437, 97, 468, 224
-0.99165, 361, 93, 424, 124
-0.991694, 57, 197, 120, 228
-0.991711, 113, 109, 176, 140
-0.991727, 369, 249, 432, 312
-0.99173, 73, 105, 136, 136
-0.991749, 369, 113, 432, 176
-0.991777, 305, 161, 336, 224
-0.991803, 393, 129, 424, 192
-0.991818, 17, 125, 80, 156
-0.991826, 273, 97, 336, 128
-0.991828, 249, 169, 312, 200
-0.991833, 321, 265, 448, 328
-0.991838, 313, 81, 376, 112
-0.991839, 249, 109, 312, 140
-0.991854, 257, 65, 384, 128
-0.991877, 145, 81, 208, 112
-0.991888, 433, 125, 496, 156
-0.991892, 301, 265, 332, 328
-0.991895, 161, 201, 416, 264
-0.991909, 273, 285, 336, 316
-0.99193, 313, 81, 344, 144
-0.991942, 65, 165, 128, 196
-0.991966, 433, 145, 496, 176
-0.991996, 433, 197, 496, 228
-0.991997, 469, 193, 500, 320
-0.991997, 209, 249, 272, 280
-0.992013, 25, 113, 88, 144
-0.992014, 345, 137, 408, 168
-0.992019, 257, 113, 500, 176
-0.992023, 237, 161, 268, 288
-0.992044, 49, 113, 112, 144
-0.992052, 433, 57, 496, 88
-0.992057, 289, 233, 320, 296
-0.99208, 337, 85, 400, 116
-0.99209, 153, 25, 216, 56
-0.992092, 409, 41, 472, 72
-0.992105, 353, 241, 480, 304
-0.992108, 57, 33, 88, 160
-0.992136, 393, 113, 424, 240
-0.99214, 289, 49, 320, 176
-0.992151, 33, 205, 96, 236
-0.992168, 117, 193, 148, 320
-0.992172, 425, 281, 488, 312
-0.992177, 233, 65, 296, 96
-0.992183, 345, 153, 408, 184
-0.992185, 401, 177, 464, 208
-0.9922, 137, 201, 168, 264
-0.992203, 45, 129, 76, 256
-0.992225, 185, 73, 216, 136
-0.99223, 1, 177, 64, 208
-0.992232, 201, 261, 264, 292
-0.992234, 209, 109, 272, 140
-0.992238, 433, 93, 496, 124
-0.992282, 129, 193, 160, 320
-0.992284, 165, 209, 196, 333
-0.992289, 297, 281, 360, 312
-0.992295, 337, 113, 400, 144
-0.992301, 113, 85, 176, 116
-0.992301, 433, 165, 496, 196
-0.992308, 121, 197, 184, 228
-0.992309, 369, 177, 432, 240
-0.992326, 337, 209, 368, 333
-0.992329, 345, 173, 408, 204
-0.992342, 41, 81, 104, 112
-0.992348, 369, 81, 432, 112
-0.992349, 369, 193, 432, 224
-0.992354, 1, 89, 256, 152
-0.99237, 433, 77, 496, 108
-0.992375, 169, 77, 232, 108
-0.992383, 217, 153, 280, 184
-0.992393, 301, 121, 332, 152
-0.992404, 169, 89, 232, 120
-0.992413, 369, 109, 432, 140
-0.992415, 201, 285, 264, 316
-0.992421, 97, 57, 128, 120
-0.992422, 201, 85, 264, 116
-0.992449, 273, 297, 336, 328
-0.992456, 169, 205, 232, 236
-0.992456, 217, 273, 280, 304
-0.992472, 305, 197, 368, 228
-0.992481, 233, 141, 296, 172
-0.99252, 393, 97, 456, 128
-0.992538, 53, 97, 84, 128
-0.99254, 9, 49, 40, 176
-0.992541, 369, 149, 432, 180
-0.992542, 357, 201, 388, 264
-0.99255, 281, 57, 312, 120
-0.992564, 329, 1, 360, 64
-0.992568, 413, 97, 444, 224
-0.992578, 257, 65, 320, 96
-0.99259, 441, 273, 472, 333
-0.992599, 137, 109, 200, 140
-0.992599, 89, 133, 152, 164
-0.992601, 377, 25, 440, 56
-0.992625, 345, 213, 408, 244
-0.992636, 81, 93, 112, 124
-0.992639, 321, 133, 352, 164
-0.99264, 73, 165, 104, 196
-0.992642, 345, 125, 408, 156
-0.992648, 297, 65, 360, 96
-0.992664, 25, 177, 56, 304
-0.992677, 181, 209, 212, 333
-0.992684, 333, 89, 364, 152
-0.992692, 357, 89, 388, 120
-0.992698, 305, 145, 336, 176
-0.992706, 221, 217, 252, 280
-0.992709, 49, 177, 80, 304
-0.992718, 13, 105, 44, 136
-0.992729, 177, 217, 208, 248
-0.992758, 285, 145, 316, 176
-0.992763, 153, 209, 184, 240
-0.992763, 461, 29, 492, 60
-0.992779, 445, 153, 476, 216
-0.992789, 201, 225, 232, 256
-0.992793, 69, 93, 100, 124
-0.992803, 345, 1, 408, 64
-0.992805, 229, 89, 260, 152
-0.992813, 325, 41, 356, 72
-0.992829, 97, 105, 128, 136
-0.992834, 257, 17, 320, 80
-0.992843, 165, 25, 196, 56
-0.992843, 333, 133, 364, 164
-0.992847, 257, 145, 288, 176
-0.992848, 33, 101, 64, 132
-0.992848, 269, 133, 300, 164
-0.992853, 141, 129, 172, 192
-0.992867, 81, 105, 112, 136
-0.992868, 165, 213, 196, 244
-0.992874, 213, 265, 244, 328
-0.992875, 289, 165, 320, 196
-0.992875, 465, 77, 496, 108
-0.992885, 89, 121, 120, 152
-0.99289, 217, 73, 248, 104
-0.99289, 113, 137, 176, 200
-0.992894, 273, 161, 304, 192
-0.992897, 257, 121, 288, 152
-0.99291, 109, 125, 140, 156
-0.992912, 1, 117, 32, 148
-0.992913, 281, 121, 312, 152
-0.992914, 453, 281, 484, 312
-0.992918, 429, 29, 460, 60
-0.992919, 81, 129, 112, 256
-0.992923, 301, 133, 332, 164
-0.99293, 457, 105, 488, 136
-0.992939, 257, 133, 288, 164
-0.992953, 53, 109, 84, 140
-0.99296, 13, 125, 44, 156
-0.992988, 153, 113, 184, 176
-0.992997, 457, 9, 488, 40
-0.993001, 337, 273, 400, 333
-0.993003, 189, 217, 220, 248
-0.99301, 69, 105, 100, 136
-0.993013, 33, 113, 64, 144
-0.993015, 29, 185, 60, 216
-0.993023, 45, 185, 76, 216
-0.993024, 105, 201, 136, 232
-0.993024, 337, 41, 368, 72
-0.993027, 413, 25, 444, 56
-0.99303, 229, 273, 260, 304
-0.99304, 257, 181, 288, 212
-0.993044, 301, 109, 332, 140
-0.99305, 469, 93, 500, 124
-0.993054, 281, 133, 312, 164
-0.993056, 357, 41, 388, 72
-0.993066, 313, 265, 344, 296
-0.993066, 393, 273, 456, 333
-0.993067, 449, 93, 480, 124
-0.993068, 445, 33, 476, 64
-0.993069, 69, 121, 100, 152
-0.993072, 245, 209, 276, 333
-0.993083, 197, 77, 228, 108
-0.993084, 1, 105, 32, 136
-0.993086, 121, 205, 152, 236
-0.993087, 273, 145, 304, 176
-0.993092, 93, 81, 124, 144
-0.993093, 289, 281, 320, 312
-0.993093, 369, 197, 400, 228
-0.993094, 97, 89, 128, 120
-0.993095, 337, 57, 464, 120
-0.993095, 321, 145, 352, 176
-0.993099, 313, 161, 344, 192
-0.993104, 445, 269, 476, 300
-0.993108, 337, 225, 368, 288
-0.99311, 237, 177, 268, 240
-0.993111, 469, 197, 500, 228
-0.993112, 301, 161, 332, 192
-0.993113, 321, 121, 352, 152
-0.993115, 357, 181, 388, 212
-0.993117, 157, 81, 188, 112
-0.993121, 445, 113, 476, 144
-0.993121, 445, 65, 476, 96
-0.993124, 369, 85, 400, 116
-0.993124, 357, 141, 388, 172
-0.993133, 141, 209, 172, 240
-0.993134, 313, 193, 344, 224
-0.993137, 445, 77, 476, 108
-0.99314, 445, 125, 476, 156
-0.993141, 333, 53, 364, 84
-0.993142, 321, 173, 352, 204
-0.993144, 121, 125, 152, 156
-0.993146, 137, 125, 168, 156
-0.993147, 465, 65, 496, 96
-0.993156, 161, 225, 416, 288
-0.993166, 325, 221, 356, 252
-0.993172, 393, 33, 424, 64
-0.993173, 325, 253, 356, 284
-0.99318, 445, 45, 476, 76
-0.99318, 93, 197, 124, 228
-0.993182, 445, 141, 476, 172
-0.993184, 9, 181, 40, 212
-0.993186, 297, 293, 328, 324
-0.993189, 53, 125, 84, 156
-0.993191, 321, 53, 352, 84
-0.993191, 241, 113, 272, 144
-0.993192, 381, 37, 412, 68
-0.993198, 289, 221, 320, 252
-0.993199, 289, 189, 320, 220
-0.9932, 269, 185, 300, 216
-0.99321, 345, 81, 376, 112
-0.993213, 245, 125, 276, 156
-0.993215, 229, 253, 260, 284
-0.993216, 289, 177, 320, 208
-0.993217, 305, 181, 336, 212
-0.993219, 313, 41, 344, 72
-0.993219, 229, 73, 260, 104
-0.993219, 301, 61, 332, 92
-0.993221, 337, 117, 368, 148
-0.993222, 437, 97, 468, 128
-0.993223, 465, 45, 496, 76
-0.993227, 269, 173, 300, 204
-0.993235, 325, 209, 356, 240
-0.993239, 357, 197, 388, 228
-0.993243, 185, 77, 216, 108
-0.993256, 313, 221, 344, 252
-0.993257, 357, 105, 388, 136
-0.993258, 281, 109, 312, 140
-0.993258, 197, 89, 228, 120
-0.99326, 253, 157, 284, 188
-0.993261, 65, 177, 96, 208
-0.993263, 129, 185, 256, 248
-0.993264, 369, 97, 400, 128
-0.993264, 149, 125, 180, 156
-0.993264, 261, 1, 292, 128
-0.993266, 445, 17, 476, 48
-0.993268, 333, 145, 364, 176
-0.99327, 369, 141, 400, 172
-0.993275, 33, 89, 64, 120
-0.993275, 249, 101, 280, 132
-0.993282, 401, 125, 432, 156
-0.993286, 225, 41, 480, 104
-0.993293, 217, 97, 248, 160
-0.993299, 325, 209, 356, 272
-0.993338, 97, 81, 352, 144
-0.993381, 425, 249, 488, 312
-0.993392, 1, 201, 256, 264
-0.993423, 125, 129, 156, 256
-0.993457, 33, 113, 288, 176
-0.993558, 81, 177, 112, 304
-0.99362, 1, 209, 128, 272
-0.993686, 97, 25, 352, 88
-0.993719, 129, 17, 256, 80
-0.993771, 425, 81, 456, 208
-0.993838, 169, 177, 232, 240
-0.993854, 295, 121, 310, 184
-0.993974, 257, 185, 500, 248
-0.993988, 369, 209, 432, 333
-0.994015, 225, 137, 480, 200
-0.994064, 1, 97, 128, 128
-0.994115, 193, 257, 448, 320
-0.994148, 433, 225, 496, 288
-0.994174, 81, 17, 208, 80
-0.994187, 301, 209, 332, 333
-0.994228, 409, 1, 472, 64
-0.994276, 157, 81, 188, 208
-0.994286, 393, 65, 424, 192
-0.994333, 137, 129, 168, 256
-0.994371, 97, 177, 352, 240
-0.994398, 1, 89, 500, 152
-0.994454, 233, 113, 264, 240
-0.994527, 81, 209, 208, 240
-0.994564, 193, 213, 320, 244
-0.994574, 193, 237, 320, 268
-0.994616, 83, 89, 98, 152
-0.99467, 41, 145, 104, 208
-0.994703, 209, 249, 336, 280
-0.994716, 257, 225, 500, 288
-0.994725, 113, 241, 240, 304
-0.994768, 241, 1, 272, 128
-0.994779, 1, 177, 256, 240
-0.994784, 445, 145, 476, 272
-0.994803, 129, 121, 384, 184
-0.994861, 193, 1, 448, 64
-0.994863, 1, 65, 256, 128
-0.994865, 217, 113, 248, 240
-0.994876, 193, 225, 320, 256
-0.994905, 99, 97, 114, 160
-0.99497, 225, 161, 480, 224
-0.994972, 145, 121, 272, 152
-0.994993, 241, 225, 368, 256
-0.995023, 225, 125, 352, 156
-0.995052, 209, 261, 336, 292
-0.995075, 209, 277, 336, 308
-0.995087, 97, 161, 224, 224
-0.995128, 225, 189, 352, 220
-0.99516, 467, 1, 482, 64
-0.995186, 67, 89, 82, 152
-0.995304, 361, 273, 424, 333
-0.99534, 225, 81, 480, 144
-0.995352, 437, 193, 468, 320
-0.995365, 33, 197, 160, 228
-0.99538, 109, 129, 140, 256
-0.995408, 25, 129, 56, 256
-0.995441, 93, 97, 108, 160
-0.995455, 261, 121, 276, 184
-0.995465, 317, 265, 332, 328
-0.995471, 17, 97, 32, 160
-0.99548, 65, 121, 192, 152
-0.995513, 155, 113, 170, 176
-0.995534, 169, 161, 200, 288
-0.995543, 485, 89, 500, 152
-0.995591, 241, 209, 368, 240
-0.995601, 145, 221, 272, 252
-0.995631, 325, 129, 340, 192
-0.995672, 289, 145, 304, 208
-0.995674, 349, 113, 364, 176
-0.995677, 17, 49, 144, 112
-0.995679, 137, 137, 200, 200
-0.995679, 33, 153, 288, 216
-0.995705, 209, 101, 336, 132
-0.995724, 193, 161, 224, 288
-0.995728, 77, 89, 92, 152
-0.99573, 479, 73, 494, 136
-0.99575, 1, 129, 500, 192
-0.995766, 325, 153, 340, 216
-0.995792, 369, 29, 496, 60
-0.9958, 1, 57, 500, 120
-0.995804, 301, 97, 316, 160
-0.995808, 107, 97, 122, 160
-0.995874, 127, 113, 142, 176
-0.995904, 37, 193, 68, 320
-0.995919, 65, 85, 192, 116
-0.995927, 39, 97, 54, 160
-0.995934, 305, 41, 432, 72
-0.995955, 269, 209, 300, 333
-0.995962, 209, 65, 336, 96
-0.995969, 149, 129, 180, 256
-0.996012, 225, 1, 352, 64
-0.996018, 53, 97, 68, 160
-0.996019, 241, 65, 256, 128
-0.996035, 65, 105, 192, 136
-0.996056, 261, 145, 276, 208
-0.99608, 257, 177, 384, 208
-0.996099, 3, 113, 18, 176
-0.996101, 225, 161, 352, 192
-0.996103, 485, 65, 500, 128
-0.996124, 45, 97, 60, 160
-0.996144, 9, 113, 24, 176
-0.996145, 257, 249, 384, 280
-0.996156, 115, 113, 130, 176
-0.996165, 327, 233, 342, 296
-0.996166, 1, 125, 128, 156
-0.996174, 145, 109, 272, 140
-0.996185, 483, 193, 498, 256
-0.996189, 1, 181, 128, 212
-0.996198, 269, 137, 284, 200
-0.996203, 289, 281, 416, 312
-0.996207, 361, 41, 376, 104
-0.996214, 219, 73, 234, 136
-0.996233, 217, 177, 248, 304
-0.996235, 451, 41, 466, 104
-0.996235, 273, 269, 400, 300
-0.996239, 247, 81, 262, 144
-0.996241, 463, 25, 478, 88
-0.996248, 283, 161, 298, 224
-0.996251, 31, 97, 46, 160
-0.996252, 473, 25, 488, 88
-0.99626, 251, 113, 266, 176
-0.996261, 213, 81, 228, 144
-0.996265, 145, 73, 272, 104
-0.996268, 325, 105, 340, 168
-0.996271, 359, 89, 374, 152
-0.996276, 145, 89, 272, 120
-0.99633, 149, 113, 164, 176
-0.99635, 293, 169, 308, 232
-0.996354, 29, 177, 44, 240
-0.99638, 267, 113, 282, 176
-0.996384, 257, 237, 384, 268
-0.996396, 1, 85, 128, 116
-0.996399, 449, 113, 464, 176
-0.996413, 335, 129, 350, 192
-0.996438, 225, 113, 352, 144
-0.996459, 177, 201, 304, 232
-0.996467, 87, 169, 102, 232
-0.996472, 461, 89, 476, 152
-0.996499, 73, 161, 88, 224
-0.9965, 321, 193, 336, 256
-0.996518, 11, 177, 26, 240
-0.996524, 261, 177, 276, 240
-0.996538, 337, 153, 464, 184
-0.996544, 273, 145, 400, 176
-0.996545, 221, 1, 252, 256
-0.996557, 351, 33, 366, 96
-0.996562, 137, 105, 152, 168
-0.996573, 23, 177, 38, 240
-0.996578, 475, 105, 490, 168
-0.996592, 117, 81, 132, 144
-0.996607, 237, 1, 268, 256
-0.996612, 97, 57, 352, 120
-0.996616, 325, 41, 340, 104
-0.996624, 439, 25, 454, 88
-0.996627, 155, 81, 170, 144
-0.99663, 305, 121, 320, 184
-0.996631, 485, 17, 500, 80
-0.996632, 127, 81, 142, 144
-0.996635, 357, 1, 388, 256
-0.996636, 253, 153, 268, 216
-0.996655, 351, 57, 366, 120
-0.996661, 455, 273, 470, 333
-0.996675, 145, 233, 272, 264
-0.996685, 33, 225, 288, 288
-0.9967, 301, 65, 332, 320
-0.996704, 369, 141, 496, 172
-0.996709, 165, 17, 180, 80
-0.996712, 425, 1, 456, 256
-0.996713, 23, 97, 38, 160
-0.996715, 3, 177, 18, 240
-0.996718, 325, 1, 356, 256
-0.996718, 369, 81, 384, 144
-0.996721, 145, 81, 160, 144
-0.996722, 283, 121, 298, 184
-0.996754, 11, 89, 26, 152
-0.996774, 97, 193, 112, 256
-0.996791, 477, 49, 492, 112
-0.996795, 1, 109, 128, 140
-0.996807, 131, 201, 146, 264
-0.996811, 273, 1, 304, 256
-0.996817, 21, 73, 36, 136
-0.996818, 337, 165, 464, 196
-0.996821, 461, 1, 492, 256
-0.996824, 225, 145, 352, 176
-0.99683, 485, 153, 500, 216
-0.99684, 273, 117, 400, 148
-0.996842, 393, 1, 424, 256
-0.996875, 473, 81, 488, 144
-0.996881, 137, 81, 152, 144
-0.996889, 5, 193, 36, 320
-0.99689, 291, 97, 306, 160
-0.996895, 35, 185, 50, 248
-0.996903, 485, 113, 500, 176
-0.996905, 215, 233, 230, 296
-0.996906, 461, 65, 476, 128
-0.99692, 209, 77, 336, 108
-0.996923, 223, 257, 238, 320
-0.996925, 369, 113, 496, 144
-0.996927, 469, 113, 484, 176
-0.996933, 197, 225, 212, 288
-0.996943, 461, 1, 476, 64
-0.996971, 205, 225, 220, 288
-0.996977, 67, 169, 82, 232
-0.996981, 425, 161, 456, 288
-0.996983, 457, 129, 488, 256
-0.996993, 59, 97, 74, 160
-0.996997, 177, 1, 304, 64
-0.996998, 295, 145, 310, 208
-0.997005, 209, 177, 336, 208
-0.997013, 57, 209, 120, 333
-0.997015, 1, 41, 256, 104
-0.997018, 121, 105, 136, 168
-0.997021, 89, 121, 104, 184
-0.997022, 203, 81, 218, 144
-0.997042, 43, 73, 58, 136
-0.997044, 157, 33, 188, 288
-0.997053, 161, 113, 176, 176
-0.997059, 273, 197, 400, 228
-0.997064, 369, 285, 496, 316
-0.997065, 407, 33, 422, 96
-0.997075, 369, 125, 496, 156
-0.997077, 79, 161, 94, 224
-0.99708, 225, 289, 352, 320
-0.997083, 17, 177, 32, 240
-0.997084, 289, 121, 304, 184
-0.997085, 161, 81, 176, 144
-0.997089, 315, 113, 330, 176
-0.997096, 291, 273, 306, 333
-0.997097, 273, 113, 288, 176
-0.9971, 77, 121, 92, 184
-0.997105, 337, 181, 464, 212
-0.997109, 169, 33, 200, 288
-0.997128, 53, 73, 68, 136
-0.997142, 171, 209, 186, 272
-0.997147, 241, 89, 256, 152
-0.997153, 211, 105, 226, 168
-0.997154, 97, 221, 224, 252
-0.997159, 301, 145, 316, 208
-0.997164, 289, 65, 320, 320
-0.997165, 1, 153, 500, 216
-0.997167, 377, 1, 408, 256
-0.997174, 407, 105, 422, 168
-0.997175, 129, 137, 256, 200
-0.997176, 273, 165, 400, 196
-0.997177, 209, 89, 336, 120
-0.997184, 77, 65, 92, 128
-0.997188, 449, 89, 464, 152
-0.997188, 53, 65, 84, 320
-0.997191, 369, 217, 496, 280
-0.997196, 67, 65, 82, 128
-0.997198, 373, 33, 388, 96
-0.997199, 209, 1, 240, 256
-0.997199, 359, 65, 374, 128
-0.997202, 129, 153, 384, 216
-0.997204, 459, 113, 474, 176
-0.997209, 181, 81, 196, 144
-0.997216, 27, 73, 42, 136
-0.997217, 97, 33, 128, 288
-0.997222, 173, 73, 188, 136
-0.997224, 461, 273, 476, 333
-0.997233, 117, 201, 132, 264
-0.997248, 273, 133, 400, 164
-0.997252, 181, 161, 212, 288
-0.997253, 145, 1, 176, 128
-0.997256, 377, 129, 392, 192
-0.997263, 283, 185, 298, 248
-0.99729, 1, 33, 500, 96
-0.997313, 121, 33, 152, 288
-0.997398, 141, 33, 172, 288
-0.997411, 97, 257, 352, 320
-0.997419, 369, 273, 496, 304
-0.997422, 313, 1, 344, 256
-0.997428, 1, 165, 128, 196
-0.997474, 483, 193, 498, 224
-0.997493, 1, 185, 500, 248
-0.997514, 67, 97, 82, 128
-0.997514, 321, 117, 448, 148
-0.997537, 53, 97, 68, 128
-0.99754, 109, 33, 140, 288
-0.99754, 321, 213, 448, 244
-0.997546, 129, 37, 256, 68
-0.997575, 337, 193, 464, 224
-0.997577, 369, 101, 496, 132
-0.997583, 65, 133, 192, 164
-0.997585, 161, 257, 288, 288
-0.997599, 175, 213, 190, 244
-0.997604, 305, 241, 432, 272
-0.997608, 81, 33, 112, 288
-0.997649, 261, 1, 292, 256
-0.997662, 367, 89, 382, 120
-0.997668, 353, 41, 480, 72
-0.997677, 445, 1, 476, 256
-0.997682, 293, 121, 308, 152
-0.99769, 13, 65, 44, 320
-0.997702, 325, 129, 340, 160
-0.997706, 69, 65, 100, 320
-0.997717, 273, 105, 400, 136
-0.99772, 249, 1, 280, 256
-0.997731, 83, 93, 98, 124
-0.997733, 361, 85, 376, 116
-0.99774, 185, 33, 216, 288
-0.997752, 289, 53, 416, 84
-0.997754, 485, 93, 500, 124
-0.997774, 99, 101, 114, 132
-0.99778, 413, 145, 444, 272
-0.997783, 261, 141, 276, 172
-0.997789, 197, 1, 228, 256
-0.997793, 295, 141, 310, 172
-0.997797, 57, 129, 88, 256
-0.997804, 145, 137, 272, 168
-0.997817, 33, 69, 160, 100
-0.997821, 337, 65, 368, 320
-0.997829, 181, 217, 196, 248
-0.997833, 49, 233, 176, 296
-0.997835, 177, 189, 304, 220
-0.997835, 409, 1, 440, 256
-0.997838, 129, 209, 256, 240
-0.99785, 49, 185, 176, 216
-0.997874, 385, 161, 416, 288
-0.997891, 17, 105, 32, 136
-0.997897, 321, 129, 448, 160
-0.997898, 325, 41, 340, 72
-0.997911, 379, 141, 394, 172
-0.997912, 451, 41, 466, 72
-0.997916, 1, 137, 128, 168
-0.997926, 327, 249, 342, 280
-0.997929, 325, 173, 340, 204
-0.997941, 177, 149, 304, 180
-0.997947, 159, 209, 174, 240
-0.99795, 317, 269, 332, 300
-0.997971, 289, 161, 304, 192
-0.997987, 265, 121, 280, 152
-0.997988, 25, 65, 56, 320
-0.99801, 455, 269, 470, 300
-0.998016, 9, 117, 24, 148
-0.998017, 305, 93, 432, 124
-0.998024, 335, 133, 350, 164
-0.998025, 325, 161, 340, 192
-0.998029, 75, 161, 90, 192
-0.998034, 213, 225, 228, 256
-0.998045, 81, 165, 96, 196
-0.998047, 155, 109, 170, 140
-0.998052, 107, 113, 122, 144
-0.998063, 325, 145, 340, 176
-0.998065, 251, 89, 266, 120
-0.998067, 77, 93, 92, 124
-0.998068, 359, 41, 374, 72
-0.99807, 483, 105, 498, 136
-0.998075, 177, 9, 240, 72
-0.998075, 485, 25, 500, 56
-0.998079, 127, 201, 142, 232
-0.998085, 145, 245, 272, 276
-0.998088, 247, 101, 262, 132
-0.99809, 81, 197, 208, 228
-0.998098, 1, 209, 128, 240
-0.998102, 93, 105, 108, 136
-0.99812, 43, 185, 58, 216
-0.998123, 41, 33, 72, 288
-0.998131, 465, 5, 480, 36
-0.998137, 49, 169, 176, 200
-0.998138, 161, 177, 288, 208
-0.998139, 337, 81, 464, 112
-0.998143, 321, 105, 448, 136
-0.998144, 145, 177, 208, 240
-0.99815, 67, 109, 82, 140
-0.998157, 177, 165, 304, 196
-0.998167, 169, 209, 184, 240
-0.998169, 155, 121, 170, 152
-0.998172, 115, 125, 130, 156
-0.998174, 207, 221, 222, 252
-0.998185, 349, 133, 364, 164
-0.998186, 479, 85, 494, 116
-0.998186, 303, 121, 318, 152
-0.998187, 73, 117, 88, 148
-0.998191, 93, 89, 108, 120
-0.998194, 219, 73, 234, 104
-0.998195, 295, 165, 310, 196
-0.998195, 459, 33, 474, 64
-0.998197, 273, 293, 400, 324
-0.998202, 333, 41, 348, 72
-0.998203, 177, 25, 304, 56
-0.998205, 337, 225, 464, 256
-0.998208, 441, 29, 456, 60
-0.998208, 93, 121, 108, 152
-0.998215, 465, 17, 480, 48
-0.998222, 267, 141, 282, 172
-0.998226, 127, 121, 142, 152
-0.99823, 449, 121, 464, 152
-0.998232, 341, 41, 356, 72
-0.998234, 485, 81, 500, 112
-0.99824, 187, 217, 202, 248
-0.998248, 477, 25, 492, 56
-0.998249, 359, 73, 374, 104
-0.998252, 415, 25, 430, 56
-0.998261, 325, 209, 340, 240
-0.99827, 349, 117, 364, 148
-0.998274, 475, 97, 490, 128
-0.998274, 285, 137, 300, 168
-0.998274, 263, 181, 278, 212
-0.998277, 141, 125, 156, 156
-0.998277, 71, 173, 86, 204
-0.998278, 289, 149, 304, 180
-0.99828, 83, 125, 98, 156
-0.998294, 1, 9, 500, 72
-0.998294, 289, 225, 416, 256
-0.998296, 49, 185, 64, 216
-0.998298, 57, 109, 72, 140
-0.998299, 1, 65, 32, 320
-0.998303, 369, 209, 432, 272
-0.998307, 177, 273, 240, 333
-0.99831, 305, 253, 432, 284
-0.998312, 117, 201, 132, 232
-0.998313, 321, 29, 448, 60
-0.998316, 241, 69, 256, 100
-0.998318, 27, 109, 42, 140
-0.99832, 117, 109, 132, 140
-0.998324, 161, 269, 288, 300
-0.998326, 289, 77, 416, 108
-0.99833, 409, 109, 424, 140
-0.998336, 61, 185, 76, 216
-0.998337, 315, 121, 330, 152
-0.998341, 325, 221, 340, 252
-0.998346, 449, 25, 464, 56
-0.99835, 337, 53, 464, 84
-0.998351, 77, 105, 92, 136
-0.998352, 197, 217, 212, 248
-0.998354, 273, 181, 304, 196
-0.998354, 257, 101, 272, 132
-0.998355, 273, 167, 304, 182
-0.998355, 67, 125, 82, 156
-0.998355, 453, 9, 484, 24
-0.998355, 33, 125, 64, 140
-0.998355, 265, 121, 296, 136
-0.998356, 45, 195, 76, 210
-0.998357, 369, 41, 400, 56
-0.998357, 313, 167, 344, 182
-0.998358, 425, 29, 456, 44
-0.998359, 465, 73, 496, 88
-0.998359, 373, 109, 404, 124
-0.998359, 321, 161, 352, 176
-0.998359, 245, 117, 276, 132
-0.998359, 93, 201, 124, 216
-0.99836, 357, 191, 388, 206
-0.99836, 37, 185, 52, 216
-0.998361, 257, 163, 288, 178
-0.998361, 229, 283, 260, 298
-0.998361, 293, 97, 324, 112
-0.998362, 369, 147, 400, 162
-0.998362, 325, 189, 356, 204
-0.998364, 229, 271, 260, 286
-0.998365, 437, 43, 468, 58
-0.998365, 313, 193, 344, 208
-0.998366, 177, 79, 208, 94
-0.998366, 133, 205, 148, 236
-0.998366, 281, 125, 312, 140
-0.998366, 33, 113, 48, 144
-0.998367, 69, 119, 100, 134
-0.998368, 449, 93, 480, 108
-0.998369, 289, 289, 320, 304
-0.998369, 141, 209, 172, 224
-0.998369, 445, 125, 476, 140
-0.998369, 167, 25, 182, 56
-0.998369, 131, 109, 146, 140
-0.99837, 321, 151, 352, 166
-0.99837, 209, 301, 336, 332
-0.998371, 201, 235, 232, 250
-0.998372, 301, 61, 332, 76
-0.998372, 281, 181, 296, 212
-0.998373, 393, 37, 424, 52
-0.998374, 213, 227, 244, 242
-0.998375, 33, 273, 96, 333
-0.998375, 319, 189, 334, 220
-0.998375, 337, 65, 464, 96
-0.998375, 313, 145, 344, 160
-0.998375, 1, 117, 32, 132
-0.998375, 117, 205, 148, 220
-0.998376, 81, 117, 112, 132
-0.998376, 445, 73, 476, 88
-0.998376, 269, 187, 300, 202
-0.998376, 445, 79, 476, 94
-0.998377, 445, 85, 476, 100
-0.998378, 25, 187, 56, 202
-0.998378, 259, 129, 274, 160
-0.99838, 99, 197, 114, 228
-0.998381, 471, 13, 486, 44
-0.998383, 301, 165, 332, 180
-0.998383, 413, 27, 444, 42
-0.998384, 357, 153, 388, 168
-0.998384, 161, 281, 288, 312
-0.998384, 445, 147, 476, 162
-0.998385, 373, 149, 388, 180
-0.998385, 229, 277, 260, 292
-0.998385, 333, 55, 364, 70
-0.998387, 45, 189, 76, 204
-0.998387, 357, 197, 388, 212
-0.998387, 285, 167, 316, 182
-0.998388, 357, 143, 388, 158
-0.998389, 69, 127, 100, 142
-0.998389, 321, 183, 352, 198
-0.998389, 109, 125, 124, 156
-0.99839, 321, 263, 352, 278
-0.99839, 97, 103, 128, 118
-0.998391, 169, 217, 200, 232
-0.998391, 257, 151, 288, 166
-0.998391, 257, 185, 288, 200
-0.998394, 445, 275, 476, 290
-0.998395, 351, 53, 366, 84
-0.998395, 457, 31, 488, 46
-0.998396, 69, 109, 100, 124
-0.998396, 225, 73, 256, 88
-0.998396, 465, 9, 496, 24
-0.998397, 97, 109, 128, 124
-0.998397, 369, 85, 400, 100
-0.998399, 53, 117, 84, 132
-0.998399, 29, 181, 44, 212
-0.998399, 313, 173, 344, 188
-0.9984, 257, 139, 288, 154
-0.998401, 441, 99, 472, 114
-0.998402, 13, 113, 44, 128
-0.998402, 59, 97, 74, 128
-0.998402, 257, 157, 288, 172
-0.998404, 89, 123, 120, 138
-0.998405, 261, 131, 292, 146
-0.998405, 53, 109, 84, 124
-0.998406, 377, 193, 392, 224
-0.998406, 321, 55, 352, 70
-0.998406, 305, 151, 336, 166
-0.998408, 13, 129, 44, 144
-0.998408, 301, 125, 332, 140
-0.998408, 357, 95, 388, 110
-0.998409, 197, 77, 228, 92
-0.99841, 461, 109, 492, 124
-0.99841, 453, 281, 484, 296
-0.998411, 325, 223, 356, 238
-0.998411, 285, 139, 316, 154
-0.998411, 305, 157, 336, 172
-0.998412, 189, 225, 220, 240
-0.998412, 465, 87, 496, 102
-0.998413, 457, 37, 488, 52
-0.998413, 409, 33, 424, 64
-0.998413, 81, 95, 112, 110
-0.998413, 169, 223, 200, 238
-0.998416, 241, 101, 256, 132
-0.998416, 33, 119, 64, 134
-0.998419, 291, 177, 306, 208
-0.998419, 105, 203, 136, 218
-0.99842, 373, 93, 388, 124
-0.998421, 445, 119, 476, 134
-0.998421, 273, 133, 304, 148
-0.998422, 33, 111, 64, 126
-0.998422, 157, 83, 188, 98
-0.998422, 449, 107, 480, 122
-0.998422, 301, 133, 332, 148
-0.998423, 289, 301, 320, 316
-0.998425, 21, 119, 52, 134
-0.998426, 253, 117, 268, 148
-0.998426, 333, 135, 364, 150
-0.998427, 3, 117, 18, 148
-0.998429, 203, 73, 218, 104
-0.99843, 485, 157, 500, 188
-0.998431, 285, 147, 316, 162
-0.998434, 81, 107, 112, 122
-0.998435, 449, 287, 480, 302
-0.998436, 401, 161, 432, 288
-0.998437, 325, 117, 340, 148
-0.998437, 461, 93, 476, 124
-0.998439, 157, 213, 188, 228
-0.99844, 87, 173, 102, 204
-0.998441, 465, 79, 496, 94
-0.998441, 69, 173, 100, 188
-0.998445, 325, 185, 340, 216
-0.998446, 457, 117, 488, 132
-0.998449, 285, 153, 316, 168
-0.998449, 211, 105, 226, 136
-0.99845, 13, 103, 44, 118
-0.998452, 257, 65, 384, 96
-0.998452, 209, 73, 224, 104
-0.998453, 325, 45, 356, 60
-0.998454, 479, 73, 494, 104
-0.998458, 17, 117, 32, 148
-0.998459, 295, 153, 310, 184
-0.998459, 69, 95, 100, 110
-0.99846, 349, 89, 380, 104
-0.998462, 281, 159, 312, 174
-0.998465, 301, 119, 332, 134
-0.998465, 225, 29, 352, 60
-0.998465, 469, 29, 500, 44
-0.998467, 39, 101, 54, 132
-0.998467, 165, 25, 196, 40
-0.998468, 349, 41, 364, 72
-0.998469, 301, 139, 332, 154
-0.998471, 143, 205, 158, 236
-0.998474, 317, 139, 348, 154
-0.998477, 81, 101, 112, 116
-0.998479, 17, 265, 144, 328
-0.99849, 313, 137, 376, 152
-0.99849, 301, 145, 332, 160
-0.998495, 129, 207, 160, 222
-0.998501, 33, 101, 64, 116
-0.998506, 53, 99, 84, 114
-0.998509, 181, 219, 212, 234
-0.99851, 121, 207, 184, 222
-0.99852, 169, 219, 232, 234
-0.998522, 289, 131, 352, 146
-0.998522, 257, 135, 320, 150
-0.998524, 69, 167, 100, 182
-0.998525, 201, 227, 232, 242
-0.998526, 433, 33, 496, 48
-0.998534, 361, 39, 424, 54
-0.998537, 241, 223, 304, 238
-0.998537, 49, 95, 112, 110
-0.99854, 257, 159, 320, 174
-0.998543, 241, 229, 304, 244
-0.998548, 257, 121, 320, 136
-0.998551, 249, 187, 312, 202
-0.998555, 241, 217, 304, 232
-0.998557, 273, 141, 336, 156
-0.998559, 313, 143, 376, 158
-0.998559, 81, 201, 144, 216
-0.99856, 129, 213, 192, 228
-0.99856, 321, 45, 384, 60
-0.998561, 281, 125, 344, 140
-0.998561, 201, 227, 264, 242
-0.998562, 281, 193, 344, 208
-0.998564, 161, 79, 224, 94
-0.998565, 241, 237, 304, 252
-0.998568, 273, 235, 336, 250
-0.99857, 313, 55, 376, 70
-0.998571, 313, 171, 376, 186
-0.998574, 169, 231, 232, 246
-0.998575, 289, 157, 352, 172
-0.998577, 273, 165, 336, 180
-0.998578, 241, 247, 304, 262
-0.99858, 273, 183, 336, 198
-0.99858, 409, 29, 472, 44
-0.99858, 17, 101, 80, 116
-0.998583, 241, 153, 304, 168
-0.998583, 209, 233, 272, 248
-0.998583, 273, 245, 336, 260
-0.998583, 313, 181, 376, 196
-0.998586, 273, 221, 336, 236
-0.998586, 257, 129, 320, 144
-0.998586, 241, 253, 304, 268
-0.998586, 273, 229, 336, 244
-0.998587, 209, 239, 272, 254
-0.998587, 433, 45, 496, 60
-0.998588, 313, 149, 376, 164
-0.998592, 9, 91, 72, 106
-0.998592, 1, 17, 256, 80
-0.998593, 433, 109, 496, 124
-0.998595, 209, 245, 272, 260
-0.998595, 201, 75, 264, 90
-0.998596, 313, 189, 376, 204
-0.998596, 313, 247, 376, 262
-0.998598, 49, 185, 112, 200
-0.998598, 273, 201, 336, 216
-0.998599, 289, 177, 352, 192
-0.998599, 329, 197, 392, 212
-0.9986, 273, 265, 336, 280
-0.998601, 313, 223, 376, 238
-0.998603, 273, 215, 336, 230
-0.998603, 241, 211, 304, 226
-0.998603, 273, 147, 336, 162
-0.998607, 241, 285, 304, 300
-0.998608, 57, 199, 120, 214
-0.998608, 273, 209, 336, 224
-0.998608, 433, 119, 496, 134
-0.998608, 313, 241, 376, 256
-0.998609, 353, 109, 416, 124
-0.998609, 273, 273, 336, 288
-0.99861, 313, 157, 376, 172
-0.99861, 169, 225, 232, 240
-0.998611, 241, 273, 304, 288
-0.998612, 313, 165, 376, 180
-0.998612, 1, 233, 128, 296
-0.998613, 273, 281, 336, 296
-0.998614, 313, 119, 376, 134
-0.998616, 17, 195, 80, 210
-0.998617, 241, 259, 304, 274
-0.998618, 273, 251, 336, 266
-0.99862, 73, 91, 136, 106
-0.99862, 313, 233, 376, 248
-0.99862, 241, 267, 304, 282
-0.998621, 273, 171, 336, 186
-0.998621, 313, 217, 376, 232
-0.998621, 401, 35, 464, 50
-0.998622, 209, 253, 272, 268
-0.998623, 25, 189, 88, 204
-0.998625, 273, 259, 336, 274
-0.998625, 273, 115, 336, 130
-0.998626, 249, 193, 312, 208
-0.998627, 249, 141, 312, 156
-0.998627, 9, 129, 72, 144
-0.998628, 49, 191, 112, 206
-0.998629, 313, 253, 376, 268
-0.998629, 49, 127, 112, 142
-0.99863, 241, 279, 304, 294
-0.99863, 57, 171, 120, 186
-0.998631, 9, 109, 72, 124
-0.998631, 273, 287, 336, 302
-0.998633, 209, 219, 272, 234
-0.998633, 433, 39, 496, 54
-0.998634, 145, 223, 208, 238
-0.998634, 241, 67, 304, 82
-0.998634, 297, 97, 360, 112
-0.998634, 433, 155, 496, 170
-0.998635, 273, 97, 336, 112
-0.998636, 313, 265, 376, 280
-0.998637, 25, 207, 88, 222
-0.998637, 81, 125, 144, 140
-0.998638, 241, 49, 368, 80
-0.998639, 129, 21, 256, 52
-0.99864, 313, 113, 376, 128
-0.99864, 353, 95, 416, 110
-0.998641, 249, 181, 312, 196
-0.998642, 313, 87, 376, 102
-0.998642, 249, 205, 312, 220
-0.998642, 241, 291, 304, 306
-0.998645, 297, 271, 360, 286
-0.998645, 313, 107, 376, 122
-0.998646, 281, 297, 344, 312
-0.998646, 249, 147, 312, 162
-0.998647, 137, 81, 200, 96
-0.998648, 313, 259, 376, 274
-0.998649, 313, 211, 376, 226
-0.998649, 209, 125, 272, 140
-0.998649, 153, 25, 216, 40
-0.99865, 337, 103, 400, 118
-0.998651, 433, 27, 496, 42
-0.998651, 1, 185, 64, 200
-0.998651, 249, 199, 312, 214
-0.998652, 401, 41, 464, 56
-0.998653, 241, 297, 304, 312
-0.998657, 209, 119, 272, 134
-0.998657, 313, 205, 376, 220
-0.998658, 353, 253, 480, 284
-0.998659, 249, 165, 312, 180
-0.998665, 65, 57, 192, 88
-0.998685, 129, 193, 256, 224
-0.998688, 185, 161, 248, 288
-0.998706, 257, 9, 384, 40
-0.998737, 321, 141, 448, 172
-0.998762, 67, 81, 82, 208
-0.99878, 257, 93, 384, 124
-0.99878, 83, 81, 98, 208
-0.998807, 293, 113, 308, 240
-0.998811, 305, 1, 432, 32
-0.998834, 77, 81, 92, 208
-0.99884, 369, 17, 496, 48
-0.998844, 389, 209, 420, 333
-0.998883, 353, 241, 480, 272
-0.998894, 485, 97, 500, 224
-0.998896, 369, 205, 496, 236
-0.998978, 129, 61, 256, 92
-0.999007, 1, 149, 128, 180
-0.999026, 479, 65, 494, 192
-0.999039, 261, 129, 276, 256
-0.999053, 57, 65, 72, 192
-0.999055, 293, 161, 308, 288
-0.999058, 485, 17, 500, 144
-0.99906, 1, 249, 256, 312
-0.999065, 49, 65, 64, 192
-0.999065, 241, 65, 256, 192
-0.99907, 325, 193, 340, 320
-0.999085, 65, 145, 192, 176
-0.999088, 81, 29, 208, 60
-0.999096, 299, 97, 314, 224
-0.999107, 93, 81, 108, 208
-0.999122, 375, 129, 390, 256
-0.999122, 251, 49, 266, 176
-0.999128, 221, 65, 236, 192
-0.999128, 325, 97, 340, 224
-0.999134, 439, 17, 454, 144
-0.999143, 369, 5, 496, 36
-0.999146, 461, 49, 476, 176
-0.999148, 33, 17, 160, 80
-0.99916, 39, 81, 54, 208
-0.999172, 1, 97, 16, 224
-0.999191, 319, 177, 334, 304
-0.999193, 359, 33, 374, 160
-0.999202, 11, 113, 26, 240
-0.999204, 251, 97, 266, 224
-0.99921, 369, 297, 496, 328
-0.99921, 273, 29, 400, 60
-0.999212, 161, 9, 288, 40
-0.999217, 75, 33, 90, 160
-0.999219, 325, 49, 340, 176
-0.99922, 449, 209, 480, 333
-0.999221, 287, 113, 302, 240
-0.999221, 105, 49, 120, 176
-0.999236, 351, 65, 366, 192
-0.999241, 61, 113, 76, 240
-0.999243, 83, 33, 98, 160
-0.999246, 257, 49, 272, 176
-0.999248, 315, 1, 330, 128
-0.999251, 473, 17, 488, 144
-0.999252, 99, 49, 114, 176
-0.999256, 349, 17, 364, 144
-0.999256, 325, 1, 340, 128
-0.99926, 93, 33, 108, 160
-0.999261, 17, 97, 32, 224
-0.999279, 227, 65, 242, 192
-0.99928, 397, 17, 412, 144
-0.999285, 213, 209, 228, 333
-0.999287, 233, 65, 248, 192
-0.999291, 113, 49, 240, 80
-0.999296, 253, 209, 268, 333
-0.999296, 479, 17, 494, 144
-0.999308, 165, 17, 180, 144
-0.999309, 145, 49, 160, 176
-0.999312, 375, 33, 390, 160
-0.999316, 139, 49, 154, 176
-0.999318, 317, 113, 332, 240
-0.999323, 301, 145, 316, 272
-0.999325, 73, 145, 88, 272
-0.999329, 159, 33, 174, 160
-0.999335, 291, 209, 306, 333
-0.999337, 63, 33, 78, 160
-0.99935, 259, 177, 274, 304
-0.999355, 269, 113, 284, 240
-0.999357, 215, 65, 230, 192
-0.999357, 33, 81, 48, 208
-0.999359, 467, 1, 482, 128
-0.999361, 181, 33, 196, 160
-0.999362, 113, 149, 240, 180
-0.999362, 385, 33, 400, 160
-0.999366, 369, 33, 384, 160
-0.999375, 409, 17, 424, 144
-0.999377, 451, 1, 466, 128
-0.999379, 325, 145, 340, 272
-0.999381, 241, 17, 256, 144
-0.999382, 303, 49, 318, 176
-0.99939, 65, 157, 192, 188
-0.999391, 127, 49, 142, 176
-0.999392, 53, 113, 68, 240
-0.999393, 159, 193, 174, 320
-0.999395, 369, 145, 384, 272
-0.999397, 209, 33, 224, 160
-0.999397, 403, 17, 418, 144
-0.999397, 263, 65, 278, 192
-0.999398, 115, 193, 130, 320
-0.999398, 391, 17, 406, 144
-0.999401, 451, 49, 466, 176
-0.999401, 335, 113, 350, 240
-0.999403, 111, 49, 126, 176
-0.999404, 67, 161, 82, 288
-0.999406, 423, 17, 438, 144
-0.999406, 315, 49, 330, 176
-0.999407, 483, 193, 498, 320
-0.999407, 351, 113, 366, 240
-0.999411, 97, 73, 224, 104
-0.999413, 221, 17, 236, 144
-0.999416, 295, 1, 310, 128
-0.999419, 1, 297, 128, 328
-0.999423, 171, 65, 186, 192
-0.999425, 107, 97, 122, 224
-0.99943, 43, 33, 58, 160
-0.99943, 97, 129, 112, 256
-0.999435, 83, 129, 98, 256
-0.999436, 293, 65, 308, 192
-0.999436, 187, 33, 202, 160
-0.999439, 181, 81, 196, 208
-0.99944, 305, 97, 320, 224
-0.999441, 341, 17, 356, 144
-0.999444, 117, 49, 132, 176
-0.999445, 207, 209, 222, 333
-0.99945, 281, 145, 296, 272
-0.999452, 153, 49, 168, 176
-0.999455, 97, 193, 112, 320
-0.99946, 331, 177, 346, 304
-0.999461, 307, 1, 322, 128
-0.999462, 187, 81, 202, 208
-0.999467, 331, 1, 346, 128
-0.999469, 27, 81, 42, 208
-0.99947, 97, 181, 224, 212
-0.999472, 485, 145, 500, 272
-0.999474, 235, 17, 250, 144
-0.999477, 229, 17, 244, 144
-0.999478, 415, 17, 430, 144
-0.99948, 309, 49, 324, 176
-0.999484, 109, 193, 124, 320
-0.999484, 47, 113, 62, 240
-0.999486, 381, 113, 396, 240
-0.999487, 155, 113, 170, 240
-0.999497, 89, 161, 104, 288
-0.999499, 69, 33, 84, 160
-0.999499, 439, 161, 454, 288
-0.9995, 21, 49, 36, 176
-0.999501, 121, 193, 136, 320
-0.999502, 133, 49, 148, 176
-0.999506, 199, 209, 214, 333
-0.999506, 263, 17, 278, 144
-0.999508, 467, 65, 482, 192
-0.999513, 137, 129, 152, 256
-0.999515, 461, 1, 476, 128
-0.999516, 305, 17, 432, 48
-0.999554, 111, 117, 126, 132
-0.999554, 67, 129, 82, 144
-0.999554, 67, 113, 82, 128
-0.999555, 359, 99, 374, 114
-0.999555, 325, 57, 340, 72
-0.999555, 165, 29, 180, 44
-0.999555, 465, 31, 480, 46
-0.999555, 165, 213, 180, 228
-0.999556, 93, 121, 108, 136
-0.999557, 299, 167, 314, 182
-0.999557, 209, 79, 224, 94
-0.999557, 285, 183, 300, 198
-0.999558, 247, 107, 262, 122
-0.999559, 351, 57, 366, 72
-0.999559, 441, 103, 456, 118
-0.999559, 325, 45, 340, 60
-0.999559, 101, 93, 116, 108
-0.99956, 83, 127, 98, 142
-0.99956, 305, 297, 320, 312
-0.99956, 483, 205, 498, 220
-0.99956, 293, 179, 308, 194
-0.999561, 215, 97, 230, 112
-0.999561, 279, 131, 294, 146
-0.999561, 293, 133, 308, 148
-0.999561, 83, 109, 98, 124
-0.999562, 159, 27, 174, 42
-0.999562, 457, 115, 472, 130
-0.999563, 439, 179, 454, 194
-0.999564, 71, 179, 86, 194
-0.999564, 1, 257, 500, 320
-0.999564, 417, 27, 432, 42
-0.999564, 479, 93, 494, 108
-0.999565, 289, 161, 304, 176
-0.999565, 369, 197, 384, 212
-0.999565, 369, 95, 384, 110
-0.999566, 275, 167, 290, 182
-0.999567, 263, 131, 278, 146
-0.999567, 33, 101, 48, 116
-0.999572, 49, 41, 176, 72
-0.999573, 61, 189, 76, 204
-0.999573, 215, 227, 230, 242
-0.999574, 485, 155, 500, 170
-0.999574, 485, 25, 500, 40
-0.999574, 73, 173, 88, 188
-0.999575, 285, 145, 300, 160
-0.999575, 485, 87, 500, 102
-0.999575, 39, 101, 54, 116
-0.999576, 349, 135, 364, 150
-0.999576, 471, 119, 486, 134
-0.999576, 143, 207, 158, 222
-0.999579, 381, 107, 396, 122
-0.99958, 449, 275, 464, 290
-0.99958, 11, 117, 26, 132
-0.999581, 327, 261, 342, 276
-0.999581, 263, 183, 278, 198
-0.999581, 251, 101, 266, 116
-0.999581, 155, 115, 170, 130
-0.999581, 477, 109, 492, 124
-0.999581, 77, 95, 92, 110
-0.999582, 17, 113, 32, 128
-0.999582, 325, 189, 340, 204
-0.999583, 485, 115, 500, 130
-0.999583, 479, 87, 494, 102
-0.999584, 327, 251, 342, 266
-0.999584, 377, 141, 392, 156
-0.999584, 319, 139, 334, 154
-0.999585, 261, 143, 276, 158
-0.999585, 477, 29, 492, 44
-0.999585, 315, 271, 330, 286
-0.999586, 321, 265, 448, 296
-0.999587, 325, 51, 340, 66
-0.999587, 77, 109, 92, 124
-0.999587, 247, 115, 262, 130
-0.999588, 171, 215, 186, 230
-0.999588, 477, 119, 492, 134
-0.999589, 171, 223, 186, 238
-0.999589, 171, 23, 186, 38
-0.999591, 155, 109, 170, 124
-0.999591, 117, 203, 132, 218
-0.999591, 259, 155, 274, 170
-0.999591, 375, 197, 390, 212
-0.999591, 283, 163, 298, 178
-0.999593, 335, 135, 350, 150
-0.999594, 219, 75, 234, 90
-0.999594, 241, 71, 256, 86
-0.999594, 289, 167, 304, 182
-0.999597, 83, 167, 98, 182
-0.9996, 325, 167, 340, 182
-0.9996, 449, 121, 464, 136
-0.999602, 325, 145, 340, 160
-0.999606, 325, 131, 340, 146
-0.999607, 325, 177, 340, 192
-0.999607, 325, 151, 340, 166
-0.999609, 295, 147, 310, 162
-0.99961, 251, 95, 266, 110
-0.999612, 455, 281, 470, 296
-0.999612, 295, 141, 310, 156
-0.999612, 325, 183, 340, 198
-0.999612, 183, 219, 198, 234
-0.999614, 27, 103, 42, 118
-0.999614, 325, 161, 340, 176
-0.999615, 451, 43, 466, 58
-0.999615, 201, 225, 216, 240
-0.999616, 93, 93, 108, 108
-0.999617, 137, 207, 152, 222
-0.999618, 485, 33, 500, 48
-0.999621, 9, 145, 24, 160
-0.999622, 359, 93, 374, 108
-0.999623, 177, 223, 192, 238
-0.999623, 165, 23, 180, 38
-0.999624, 83, 95, 98, 110
-0.999625, 21, 105, 36, 120
-0.999627, 325, 139, 340, 154
-0.99963, 485, 93, 500, 108
-0.99963, 177, 217, 192, 232
-0.999633, 97, 101, 112, 116
-0.999634, 485, 39, 500, 54
-0.999635, 485, 109, 500, 124
-0.999636, 131, 205, 146, 220
-0.999638, 377, 147, 392, 162
-0.999638, 259, 149, 274, 164
-0.999643, 209, 229, 224, 244
-0.999651, 485, 103, 500, 118
-0.999651, 1, 233, 500, 296
-0.999655, 457, 273, 472, 288
-0.999656, 207, 223, 222, 238
-0.999667, 53, 99, 68, 114
-0.999668, 129, 1, 160, 128
-0.99967, 77, 165, 92, 180
-0.999674, 367, 89, 382, 104
-0.999674, 67, 97, 82, 112
-0.999678, 465, 7, 480, 22
-0.999678, 483, 199, 498, 214
-0.999679, 125, 205, 140, 220
-0.999684, 361, 87, 376, 102
-0.999693, 161, 293, 288, 324
-0.999789, 409, 209, 440, 333
-0.99994, 421, 209, 452, 333
-1.00006, 1, 273, 256, 333
-1.00022, 97, 1, 128, 128
-1.00027, 97, 1, 352, 64
-1.00057, 1, 209, 500, 272
-1.00063, 205, 161, 236, 288
-1.00069, 65, 265, 192, 328
-1.00113, 113, 265, 240, 328
