1893
-0.177018, 1, 1, 333, 500
-0.328109, 1, 1, 333, 256
-0.333949, 33, 1, 288, 500
-0.349522, 1, 193, 333, 448
-0.421679, 1, 97, 333, 352
-0.481931, 65, 225, 320, 480
-0.556776, 65, 65, 320, 320
-0.823465, 209, 1, 333, 500
-0.831337, 81, 193, 208, 448
-0.831651, 129, 161, 256, 416
-0.836754, 209, 225, 333, 480
-0.837026, 17, 1, 144, 500
-0.842742, 97, 1, 224, 500
-0.854046, 81, 65, 208, 320
-0.854635, 161, 1, 288, 500
-0.855491, 1, 209, 333, 336
-0.855916, 145, 257, 272, 500
-0.856455, 129, 1, 256, 256
-0.859092, 209, 65, 333, 320
-0.860976, 1, 129, 128, 384
-0.861902, 33, 257, 160, 500
-0.867655, 1, 289, 333, 416
-0.874121, 33, 33, 160, 288
-0.8896, 65, 225, 320, 352
-0.891027, 1, 33, 333, 160
-0.893301, 1, 337, 333, 464
-0.898222, 1, 81, 333, 208
-0.902695, 1, 177, 256, 304
-0.909428, 65, 337, 320, 464
-0.91161, 65, 289, 320, 416
-0.912516, 1, 161, 333, 288
-0.914625, 193, 273, 256, 400
-0.919296, 1, 1, 256, 128
-0.919736, 105, 289, 168, 416
-0.922374, 113, 225, 240, 352
-0.923613, 209, 257, 333, 384
-0.92377, 161, 241, 288, 368
-0.924267, 129, 193, 192, 320
-0.925232, 33, 81, 288, 208
-0.926144, 65, 305, 192, 432
-0.926493, 145, 289, 272, 416
-0.927612, 233, 273, 296, 400
-0.928312, 169, 209, 232, 336
-0.928708, 65, 193, 192, 320
-0.931171, 113, 177, 240, 304
-0.931253, 137, 241, 200, 368
-0.933516, 193, 193, 256, 320
-0.933561, 177, 193, 304, 320
-0.93394, 153, 305, 216, 432
-0.936496, 1, 241, 128, 368
-0.936798, 161, 257, 224, 384
-0.937701, 65, 305, 128, 432
-0.937862, 65, 225, 128, 352
-0.937936, 209, 305, 333, 432
-0.938366, 105, 241, 168, 368
-0.938623, 33, 17, 160, 144
-0.938739, 129, 145, 192, 272
-0.938837, 105, 177, 168, 304
-0.939646, 145, 49, 208, 176
-0.939994, 169, 161, 232, 288
-0.941232, 65, 241, 192, 368
-0.941506, 257, 289, 320, 416
-0.941818, 217, 225, 280, 352
-0.941984, 129, 305, 192, 432
-0.942409, 145, 337, 272, 464
-0.943169, 25, 65, 88, 192
-0.943533, 81, 177, 144, 304
-0.944041, 105, 297, 168, 360
-0.944129, 17, 289, 144, 416
-0.944478, 249, 209, 312, 336
-0.944962, 129, 209, 192, 272
-0.945961, 209, 145, 333, 272
-0.946391, 185, 313, 248, 376
-0.946421, 137, 353, 200, 480
-0.946632, 17, 193, 144, 320
-0.946868, 129, 297, 192, 360
-0.946929, 209, 321, 272, 448
-0.94704, 177, 1, 304, 128
-0.94761, 17, 65, 144, 192
-0.947673, 113, 129, 240, 256
-0.948012, 65, 129, 320, 256
-0.948086, 25, 241, 88, 368
-0.948691, 121, 49, 184, 176
-0.949572, 105, 353, 168, 480
-0.949597, 97, 49, 224, 176
-0.949897, 161, 273, 224, 336
-0.950028, 161, 129, 288, 256
-0.950645, 217, 273, 280, 336
-0.951028, 97, 193, 160, 256
-0.951309, 97, 353, 224, 480
-0.951328, 193, 289, 256, 352
-0.951396, 41, 289, 104, 352
-0.952003, 105, 97, 168, 224
-0.952465, 41, 17, 104, 144
-0.952473, 97, 1, 224, 128
-0.952492, 49, 145, 176, 272
-0.952544, 273, 209, 333, 336
-0.9527, 1, 49, 64, 176
-0.953028, 121, 265, 184, 328
-0.953048, 41, 305, 104, 432
-0.953094, 105, 217, 168, 280
-0.953165, 169, 113, 232, 240
-0.953763, 177, 81, 304, 208
-0.953946, 233, 321, 296, 448
-0.953977, 145, 321, 208, 384
-0.954214, 17, 161, 80, 288
-0.954742, 233, 161, 296, 288
-0.954788, 153, 193, 216, 256
-0.954902, 73, 297, 136, 360
-0.955416, 41, 321, 104, 384
-0.955576, 153, 297, 216, 360
-0.955747, 57, 161, 120, 288
-0.956339, 81, 17, 144, 144
-0.956479, 81, 353, 144, 480
-0.956582, 1, 1, 64, 128
-0.956897, 177, 321, 240, 448
-0.95693, 145, 97, 208, 224
-0.956937, 265, 49, 328, 176
-0.956999, 41, 241, 104, 304
-0.957215, 185, 185, 248, 248
-0.95725, 33, 57, 96, 120
-0.957318, 81, 361, 144, 424
-0.957354, 73, 209, 136, 272
-0.957372, 145, 353, 208, 416
-0.95753, 233, 297, 296, 360
-0.957561, 65, 321, 128, 384
-0.957627, 129, 1, 192, 128
-0.958058, 129, 241, 192, 304
-0.958154, 169, 65, 232, 192
-0.958288, 257, 265, 320, 328
-0.958622, 121, 321, 184, 384
-0.958686, 9, 305, 72, 432
-0.958955, 217, 249, 280, 312
-0.959249, 161, 81, 224, 144
-0.959475, 185, 209, 248, 272
-0.95973, 193, 353, 320, 480
-0.959734, 49, 81, 112, 208
-0.959811, 193, 265, 256, 328
-0.959921, 209, 361, 272, 424
-0.96009, 1, 57, 64, 120
-0.960295, 209, 329, 272, 392
-0.96055, 265, 337, 328, 464
-0.960899, 97, 225, 160, 480
-0.960909, 209, 113, 272, 240
-0.96115, 177, 233, 240, 296
-0.961533, 121, 185, 184, 248
-0.961602, 9, 313, 72, 376
-0.961621, 33, 353, 96, 480
-0.961917, 185, 65, 248, 128
-0.961924, 145, 49, 208, 112
-0.961955, 49, 369, 112, 432
-0.961972, 249, 377, 312, 440
-0.961988, 105, 89, 168, 152
-0.961995, 169, 361, 232, 424
-0.962154, 65, 265, 128, 328
-0.96221, 65, 97, 192, 224
-0.962409, 225, 65, 288, 128
-0.962416, 193, 33, 256, 160
-0.962671, 65, 233, 128, 296
-0.962829, 81, 65, 144, 192
-0.962923, 225, 193, 288, 256
-0.962953, 121, 65, 184, 128
-0.963089, 49, 345, 112, 408
-0.963287, 169, 337, 232, 400
-0.963306, 249, 337, 312, 400
-0.963433, 177, 393, 240, 456
-0.963452, 1, 97, 64, 224
-0.963748, 17, 241, 80, 304
-0.963874, 209, 169, 272, 232
-0.963942, 65, 225, 192, 288
-0.963963, 33, 265, 96, 328
-0.963998, 233, 369, 296, 496
-0.964021, 17, 369, 144, 496
-0.964113, 121, 193, 184, 448
-0.964223, 153, 233, 216, 296
-0.964371, 153, 1, 216, 128
-0.964565, 105, 377, 168, 440
-0.964883, 97, 281, 224, 344
-0.965086, 109, 281, 140, 344
-0.965259, 97, 321, 160, 384
-0.965331, 209, 281, 333, 344
-0.965331, 121, 97, 184, 352
-0.96539, 73, 385, 136, 448
-0.965402, 233, 1, 296, 128
-0.965482, 169, 161, 232, 416
-0.965816, 125, 241, 156, 368
-0.965855, 1, 145, 128, 272
-0.966026, 145, 193, 208, 448
-0.96606, 265, 97, 328, 224
-0.966082, 73, 193, 136, 448
-0.966182, 185, 89, 248, 152
-0.966218, 9, 353, 72, 416
-0.966233, 137, 97, 200, 160
-0.966261, 257, 305, 320, 368
-0.966781, 105, 1, 168, 128
-0.966812, 145, 265, 272, 328
-0.966904, 137, 377, 200, 440
-0.967052, 241, 161, 304, 224
-0.96732, 145, 177, 272, 240
-0.967321, 249, 161, 312, 416
-0.967467, 273, 209, 333, 272
-0.967497, 185, 41, 248, 104
-0.967522, 257, 241, 320, 304
-0.967579, 25, 81, 88, 144
-0.96768, 105, 353, 168, 416
-0.967723, 209, 257, 272, 500
-0.967786, 193, 289, 224, 352
-0.967809, 89, 273, 152, 336
-0.967869, 217, 257, 248, 384
-0.967922, 233, 257, 296, 500
-0.967955, 145, 169, 208, 232
-0.968145, 193, 369, 256, 496
-0.968294, 161, 241, 288, 304
-0.968429, 173, 329, 204, 392
-0.968466, 297, 217, 328, 280
-0.968619, 225, 65, 288, 192
-0.968876, 273, 337, 333, 400
-0.968959, 157, 201, 188, 264
-0.969043, 161, 313, 288, 376
-0.969085, 93, 289, 124, 416
-0.969131, 209, 209, 333, 272
-0.969201, 153, 305, 184, 368
-0.969217, 145, 209, 272, 272
-0.9693, 169, 161, 232, 224
-0.969343, 9, 281, 72, 344
-0.96936, 189, 257, 220, 384
-0.969383, 209, 257, 333, 320
-0.969466, 97, 193, 224, 256
-0.969811, 257, 161, 320, 288
-0.969827, 297, 209, 328, 336
-0.969885, 273, 49, 333, 112
-0.969929, 229, 241, 260, 368
-0.969936, 65, 305, 192, 368
-0.969947, 217, 273, 248, 336
-0.969967, 1, 241, 64, 368
-0.970036, 145, 33, 208, 288
-0.970079, 97, 65, 160, 128
-0.970095, 113, 121, 176, 184
-0.97011, 121, 265, 152, 328
-0.970224, 169, 241, 200, 368
-0.970271, 117, 177, 148, 304
-0.970478, 133, 289, 164, 352
-0.970559, 145, 305, 176, 432
-0.970723, 153, 401, 216, 464
-0.970811, 33, 217, 96, 280
-0.970858, 137, 177, 168, 304
-0.970902, 149, 177, 180, 240
-0.971059, 81, 129, 144, 256
-0.971125, 181, 305, 212, 432
-0.971134, 273, 193, 333, 448
-0.971211, 109, 273, 140, 400
-0.971287, 97, 73, 224, 136
-0.971316, 265, 169, 328, 232
-0.971363, 241, 265, 272, 328
-0.971432, 113, 233, 240, 296
-0.971434, 113, 49, 240, 112
-0.971448, 153, 193, 184, 320
-0.971456, 177, 193, 208, 320
-0.97156, 257, 25, 320, 88
-0.971587, 109, 225, 140, 352
-0.971612, 89, 65, 152, 320
-0.971613, 157, 273, 188, 400
-0.97176, 161, 81, 288, 144
-0.971841, 161, 369, 224, 496
-0.971949, 1, 81, 64, 144
-0.97196, 49, 225, 112, 480
-0.972049, 121, 305, 152, 432
-0.972261, 225, 161, 288, 416
-0.972364, 137, 225, 168, 352
-0.972368, 249, 273, 280, 400
-0.972537, 169, 185, 200, 248
-0.97256, 49, 81, 176, 144
-0.972567, 145, 289, 272, 352
-0.972569, 209, 169, 333, 232
-0.972589, 249, 209, 312, 272
-0.972603, 133, 201, 164, 264
-0.972634, 161, 105, 224, 168
-0.972647, 273, 209, 304, 336
-0.972672, 149, 281, 180, 344
-0.972713, 225, 137, 288, 200
-0.972713, 9, 217, 72, 280
-0.972766, 73, 305, 104, 368
-0.972802, 225, 305, 256, 432
-0.972804, 89, 313, 120, 376
-0.972806, 57, 353, 120, 480
-0.97293, 65, 257, 192, 320
-0.972959, 197, 209, 228, 336
-0.972962, 189, 313, 220, 376
-0.973076, 193, 161, 256, 416
-0.973104, 209, 305, 333, 368
-0.973106, 49, 33, 112, 96
-0.973122, 185, 257, 248, 500
-0.973217, 217, 25, 280, 88
-0.973316, 169, 273, 200, 336
-0.973402, 97, 25, 160, 88
-0.973424, 25, 25, 88, 88
-0.973437, 249, 65, 312, 128
-0.973472, 97, 193, 128, 256
-0.973514, 209, 193, 240, 320
-0.973561, 217, 89, 280, 152
-0.973644, 117, 305, 148, 368
-0.973715, 113, 329, 240, 392
-0.973756, 209, 297, 240, 360
-0.973839, 49, 201, 176, 264
-0.973924, 33, 281, 160, 344
-0.974015, 233, 1, 296, 64
-0.974088, 73, 185, 136, 248
-0.974183, 169, 33, 232, 288
-0.974194, 153, 17, 216, 80
-0.974253, 9, 353, 72, 480
-0.974264, 201, 257, 232, 384
-0.974305, 105, 241, 168, 304
-0.974319, 161, 345, 288, 408
-0.974352, 73, 49, 136, 112
-0.974443, 229, 249, 260, 312
-0.974597, 177, 49, 304, 112
-0.97463, 49, 81, 112, 144
-0.974824, 161, 25, 288, 88
-0.974869, 49, 241, 80, 304
-0.974914, 161, 329, 192, 392
-0.974918, 81, 97, 144, 160
-0.97493, 73, 321, 104, 448
-0.97499, 133, 265, 164, 328
-0.975049, 121, 41, 184, 104
-0.975073, 145, 129, 208, 192
-0.975151, 49, 25, 176, 88
-0.975152, 201, 145, 264, 208
-0.975173, 237, 289, 268, 352
-0.975202, 149, 337, 180, 400
-0.975209, 133, 289, 164, 416
-0.975265, 25, 113, 88, 240
-0.975271, 69, 233, 100, 296
-0.975381, 41, 65, 72, 192
-0.975527, 73, 73, 136, 136
-0.975625, 177, 73, 208, 136
-0.975658, 249, 65, 312, 320
-0.975668, 225, 1, 288, 256
-0.975783, 197, 321, 228, 448
-0.975795, 225, 225, 288, 288
-0.975816, 113, 209, 144, 272
-0.975899, 189, 89, 220, 152
-0.975908, 53, 281, 84, 344
-0.97596, 101, 305, 132, 368
-0.976029, 25, 129, 88, 384
-0.976053, 61, 225, 92, 352
-0.976115, 149, 145, 180, 272
-0.976123, 177, 233, 208, 296
-0.976234, 41, 1, 104, 256
-0.97624, 137, 241, 168, 304
-0.976251, 273, 89, 333, 152
-0.976251, 17, 57, 144, 120
-0.976267, 169, 145, 200, 272
-0.976384, 77, 369, 108, 432
-0.976388, 229, 329, 260, 392
-0.976423, 189, 161, 220, 288
-0.976472, 81, 361, 208, 424
-0.976657, 209, 73, 333, 136
-0.97688, 273, 361, 333, 424
-0.976889, 193, 65, 256, 320
-0.976938, 1, 241, 128, 304
-0.976943, 53, 57, 84, 120
-0.976997, 65, 97, 128, 352
-0.976999, 145, 1, 208, 500
-0.977005, 209, 201, 240, 264
-0.977008, 273, 137, 333, 200
-0.977057, 169, 289, 200, 416
-0.977138, 189, 65, 220, 128
-0.97717, 109, 321, 140, 448
-0.977193, 241, 97, 304, 160
-0.977206, 265, 1, 328, 128
-0.977365, 177, 353, 208, 416
-0.977379, 129, 9, 192, 72
-0.977391, 97, 369, 128, 432
-0.977461, 1, 361, 128, 424
-0.977478, 209, 233, 333, 296
-0.977516, 149, 257, 180, 320
-0.977655, 1, 201, 128, 264
-0.977678, 237, 321, 268, 448
-0.977681, 141, 313, 172, 376
-0.977687, 97, 17, 224, 80
-0.977705, 221, 169, 252, 232
-0.977717, 49, 393, 112, 456
-0.9778, 97, 169, 224, 232
-0.977817, 201, 177, 232, 240
-0.977828, 113, 401, 176, 464
-0.977903, 61, 257, 92, 320
-0.977913, 193, 369, 224, 432
-0.977962, 65, 329, 192, 392
-0.97797, 125, 65, 156, 128
-0.97799, 185, 17, 248, 80
-0.978004, 65, 281, 96, 344
-0.978037, 249, 297, 280, 360
-0.978146, 233, 113, 296, 240
-0.978199, 209, 393, 272, 456
-0.978213, 121, 1, 184, 256
-0.978258, 205, 273, 236, 336
-0.978329, 97, 345, 128, 408
-0.978369, 145, 153, 272, 216
-0.978421, 293, 161, 324, 288
-0.97843, 89, 337, 120, 464
-0.978437, 149, 97, 180, 160
-0.978493, 17, 305, 144, 368
-0.978509, 181, 185, 212, 248
-0.978621, 213, 65, 244, 128
-0.978644, 177, 1, 240, 500
-0.978832, 217, 1, 280, 500
-0.978841, 233, 65, 264, 128
-0.978853, 181, 161, 212, 224
-0.978865, 105, 1, 168, 500
-0.978869, 113, 97, 240, 160
-0.97887, 1, 33, 64, 96
-0.978883, 157, 321, 188, 448
-0.978905, 241, 353, 272, 416
-0.978923, 1, 65, 64, 320
-0.978955, 69, 273, 100, 400
-0.979042, 137, 97, 168, 160
-0.979156, 65, 385, 192, 448
-0.979162, 73, 25, 136, 88
-0.979214, 149, 49, 180, 176
-0.979255, 37, 57, 68, 120
-0.979265, 125, 65, 156, 192
-0.979267, 225, 305, 256, 368
-0.979271, 25, 377, 88, 440
-0.979272, 241, 329, 272, 392
-0.979343, 193, 369, 320, 432
-0.979352, 273, 401, 333, 464
-0.979465, 273, 289, 304, 416
-0.979532, 201, 89, 232, 152
-0.979582, 85, 345, 116, 408
-0.979596, 173, 305, 204, 368
-0.979725, 49, 241, 80, 368
-0.979733, 241, 225, 272, 352
-0.979757, 81, 225, 112, 352
-0.979792, 165, 161, 196, 224
-0.979799, 165, 97, 196, 224
-0.979928, 181, 353, 212, 480
-0.979939, 29, 97, 60, 224
-0.979948, 229, 193, 260, 320
-0.979949, 249, 65, 280, 192
-0.979971, 165, 1, 196, 128
-0.980009, 49, 177, 80, 304
-0.980016, 293, 241, 324, 304
-0.980033, 301, 289, 332, 416
-0.980033, 133, 353, 164, 480
-0.980049, 129, 313, 160, 376
-0.980064, 253, 273, 284, 336
-0.980266, 125, 241, 156, 304
-0.980332, 213, 305, 244, 432
-0.980353, 65, 1, 128, 64
-0.980379, 213, 89, 244, 152
-0.980447, 53, 33, 84, 160
-0.980462, 113, 161, 176, 224
-0.980471, 149, 233, 180, 296
-0.980673, 81, 393, 112, 456
-0.9807, 33, 329, 64, 392
-0.980701, 69, 161, 100, 288
-0.980714, 61, 321, 92, 448
-0.980718, 61, 345, 92, 408
-0.980792, 201, 113, 264, 176
-0.980802, 169, 337, 200, 464
-0.980845, 209, 17, 333, 80
-0.980854, 273, 1, 333, 500
-0.980874, 273, 305, 304, 368
-0.981028, 165, 241, 196, 304
-0.981077, 65, 49, 192, 112
-0.981155, 81, 281, 112, 344
-0.981251, 285, 305, 316, 368
-0.981275, 209, 145, 333, 208
-0.981307, 49, 1, 112, 500
-0.981337, 73, 345, 104, 408
-0.981397, 217, 249, 248, 312
-0.981418, 249, 129, 312, 192
-0.98147, 173, 49, 204, 112
-0.981488, 9, 1, 72, 500
-0.981501, 193, 265, 224, 328
-0.981504, 57, 369, 88, 432
-0.981507, 273, 265, 304, 328
-0.981546, 81, 1, 144, 500
-0.981592, 181, 113, 212, 240
-0.981601, 49, 193, 112, 256
-0.981638, 209, 329, 333, 392
-0.981677, 49, 113, 112, 176
-0.981701, 137, 361, 168, 424
-0.981724, 133, 129, 164, 256
-0.981733, 261, 273, 292, 400
-0.981763, 229, 193, 260, 256
-0.981806, 61, 321, 92, 384
-0.981823, 81, 209, 112, 272
-0.981933, 285, 241, 316, 368
-0.981959, 17, 329, 144, 392
-0.982043, 165, 193, 196, 320
-0.982045, 301, 321, 332, 384
-0.982081, 293, 281, 324, 344
-0.982118, 145, 353, 176, 480
-0.982123, 285, 169, 316, 232
-0.98213, 241, 1, 304, 500
-0.98215, 101, 177, 132, 304
-0.982167, 37, 161, 68, 288
-0.982254, 81, 273, 112, 400
-0.982386, 145, 209, 176, 272
-0.982408, 1, 193, 64, 256
-0.982415, 293, 193, 324, 256
-0.982424, 1, 169, 64, 232
-0.982438, 161, 97, 192, 160
-0.98246, 81, 121, 208, 184
-0.982533, 41, 17, 72, 144
-0.982537, 25, 225, 88, 480
-0.982577, 177, 65, 208, 192
-0.982649, 113, 233, 144, 296
-0.982666, 57, 217, 88, 280
-0.982719, 117, 97, 148, 160
-0.982782, 161, 353, 192, 416
-0.98279, 209, 97, 333, 160
-0.982793, 17, 241, 48, 304
-0.982912, 45, 313, 76, 376
-0.982941, 273, 65, 333, 320
-0.983007, 105, 97, 136, 224
-0.983014, 253, 345, 284, 408
-0.983045, 273, 113, 333, 176
-0.983144, 161, 1, 288, 64
-0.983197, 13, 241, 44, 368
-0.983232, 1, 17, 128, 80
-0.983337, 129, 393, 256, 456
-0.983377, 117, 1, 148, 128
-0.983379, 97, 281, 128, 344
-0.98338, 189, 209, 220, 272
-0.983411, 93, 393, 124, 456
-0.983536, 165, 73, 196, 136
-0.983543, 49, 81, 80, 144
-0.983549, 181, 393, 212, 456
-0.983575, 73, 409, 136, 472
-0.983628, 17, 385, 144, 448
-0.98364, 233, 65, 264, 192
-0.983658, 209, 225, 240, 288
-0.983694, 117, 345, 148, 408
-0.983741, 145, 369, 272, 432
-0.983748, 105, 97, 136, 160
-0.983794, 109, 49, 140, 176
-0.983826, 41, 281, 72, 344
-0.983859, 153, 129, 184, 192
-0.983874, 1, 89, 128, 152
-0.983887, 85, 161, 116, 288
-0.983899, 213, 361, 244, 424
-0.983937, 89, 121, 152, 184
-0.983962, 37, 89, 68, 152
-0.983968, 145, 425, 208, 488
-0.98399, 125, 369, 156, 432
-0.984016, 253, 1, 284, 128
-0.98406, 37, 33, 68, 96
-0.984091, 221, 41, 252, 104
-0.984129, 149, 1, 180, 128
-0.984141, 261, 65, 292, 128
-0.984219, 281, 385, 312, 448
-0.984241, 277, 65, 308, 128
-0.98428, 5, 225, 36, 288
-0.984309, 25, 193, 56, 320
-0.984378, 161, 105, 288, 168
-0.984426, 165, 49, 196, 176
-0.984436, 273, 209, 304, 272
-0.984458, 29, 49, 60, 176
-0.984465, 37, 353, 68, 416
-0.984742, 129, 1, 160, 128
-0.984751, 201, 1, 232, 64
-0.984801, 245, 89, 276, 152
-0.984851, 49, 1, 176, 64
-0.984862, 281, 329, 312, 392
-0.984945, 173, 209, 204, 272
-0.984979, 173, 105, 204, 168
-0.984993, 9, 305, 40, 432
-0.985018, 37, 241, 68, 368
-0.98506, 33, 153, 160, 216
-0.985092, 137, 49, 168, 176
-0.985123, 285, 49, 316, 176
-0.985182, 17, 113, 144, 176
-0.985188, 49, 289, 80, 416
-0.985237, 1, 225, 64, 480
-0.985384, 213, 353, 244, 480
-0.9854, 185, 17, 216, 144
-0.985421, 49, 177, 176, 240
-0.985581, 97, 225, 128, 352
-0.985587, 297, 49, 328, 176
-0.985638, 289, 337, 320, 464
-0.985652, 193, 97, 224, 224
-0.985719, 29, 1, 60, 128
-0.985719, 249, 145, 280, 272
-0.985749, 177, 393, 304, 456
-0.985753, 265, 65, 296, 192
-0.985886, 217, 33, 248, 160
-0.98594, 161, 129, 288, 192
-0.985973, 257, 209, 288, 336
-0.986027, 273, 17, 304, 144
-0.986029, 277, 161, 308, 288
-0.986095, 193, 369, 224, 496
-0.98618, 33, 233, 288, 296
-0.986253, 261, 337, 292, 464
-0.9864, 53, 81, 84, 208
-0.986473, 13, 193, 44, 320
-0.986634, 5, 33, 36, 160
-0.986653, 65, 65, 96, 192
-0.986862, 65, 1, 128, 256
-0.986991, 101, 369, 132, 496
-0.987029, 17, 1, 48, 128
-0.987033, 201, 33, 232, 160
-0.987048, 81, 145, 208, 208
-0.987067, 5, 113, 36, 240
-0.987069, 117, 113, 148, 240
-0.987114, 201, 145, 232, 272
-0.987133, 1, 225, 32, 352
-0.98755, 1, 257, 333, 320
-0.987662, 301, 337, 332, 464
-0.987676, 25, 145, 56, 272
-0.987725, 101, 1, 132, 128
-0.987731, 217, 277, 280, 308
-0.987753, 33, 257, 288, 320
-0.987826, 249, 337, 280, 464
-0.987932, 213, 113, 244, 240
-0.98796, 1, 177, 128, 240
-0.987994, 33, 289, 288, 352
-0.988033, 25, 241, 56, 368
-0.98811, 89, 97, 120, 224
-0.988181, 137, 233, 200, 264
-0.988185, 169, 277, 232, 308
-0.988196, 277, 337, 308, 464
-0.988216, 185, 317, 248, 348
-0.988218, 97, 309, 160, 340
-0.988255, 137, 221, 200, 252
-0.988266, 233, 17, 264, 144
-0.988275, 265, 145, 296, 272
-0.988361, 41, 337, 72, 464
-0.988501, 201, 289, 264, 320
-0.988501, 157, 369, 188, 496
-0.98856, 201, 305, 264, 336
-0.988578, 41, 113, 72, 240
-0.988663, 105, 297, 168, 328
-0.988736, 229, 113, 260, 240
-0.988736, 285, 289, 316, 416
-0.988789, 113, 217, 176, 248
-0.988908, 193, 273, 256, 304
-0.988908, 153, 97, 184, 224
-0.988919, 105, 229, 168, 260
-0.988927, 177, 189, 240, 220
-0.988978, 129, 265, 192, 296
-0.98899, 113, 205, 176, 236
-0.988999, 57, 313, 120, 344
-0.989005, 85, 33, 116, 160
-0.989044, 73, 293, 136, 324
-0.989056, 25, 69, 88, 100
-0.98908, 241, 293, 304, 324
-0.989163, 193, 77, 256, 108
-0.989268, 121, 281, 184, 312
-0.989272, 153, 329, 216, 360
-0.989323, 153, 317, 216, 348
-0.989333, 217, 265, 280, 296
-0.989338, 257, 281, 320, 312
-0.989349, 145, 305, 208, 336
-0.989354, 33, 209, 288, 272
-0.989362, 137, 209, 200, 240
-0.989386, 257, 269, 320, 300
-0.989521, 49, 389, 112, 420
-0.98956, 65, 233, 128, 264
-0.989564, 233, 77, 296, 108
-0.98959, 201, 177, 264, 208
-0.989611, 73, 385, 136, 416
-0.989614, 161, 201, 224, 232
-0.989632, 25, 81, 88, 112
-0.989677, 113, 93, 176, 124
-0.989698, 137, 193, 200, 224
-0.989699, 89, 197, 152, 228
-0.989719, 209, 317, 272, 348
-0.989738, 209, 417, 333, 480
-0.989747, 25, 237, 88, 268
-0.98975, 33, 409, 160, 472
-0.989754, 169, 297, 232, 328
-0.989754, 65, 329, 128, 360
-0.989775, 41, 325, 104, 356
-0.989833, 185, 209, 248, 240
-0.989838, 153, 173, 216, 204
-0.989841, 137, 353, 200, 384
-0.989859, 33, 81, 288, 144
-0.989866, 41, 301, 104, 332
-0.989882, 169, 69, 232, 100
-0.989893, 57, 341, 120, 372
-0.989907, 153, 369, 216, 400
-0.989943, 145, 277, 208, 308
-0.989982, 241, 369, 304, 400
-0.989987, 249, 381, 312, 412
-0.989994, 193, 361, 256, 392
-0.990004, 233, 325, 296, 356
-0.990026, 169, 81, 232, 112
-0.990037, 89, 217, 152, 248
-0.99004, 161, 265, 224, 296
-0.990041, 153, 93, 216, 124
-0.99005, 113, 81, 176, 112
-0.990078, 49, 85, 112, 116
-0.990081, 129, 293, 192, 324
-0.990098, 225, 305, 288, 336
-0.990157, 209, 121, 333, 184
-0.99016, 129, 245, 192, 276
-0.990187, 193, 329, 256, 360
-0.990223, 121, 313, 184, 344
-0.990231, 129, 337, 192, 368
-0.990232, 1, 85, 64, 116
-0.990243, 217, 193, 280, 224
-0.990269, 1, 229, 64, 260
-0.990271, 41, 281, 104, 312
-0.990279, 169, 349, 232, 380
-0.990291, 25, 249, 88, 280
-0.990309, 217, 361, 280, 392
-0.990332, 81, 369, 144, 400
-0.990336, 185, 221, 248, 252
-0.99034, 257, 61, 320, 92
-0.990343, 121, 69, 184, 100
-0.99037, 73, 281, 136, 312
-0.990387, 17, 321, 80, 352
-0.990406, 33, 41, 288, 104
-0.990422, 33, 341, 96, 372
-0.990454, 145, 77, 208, 108
-0.99046, 169, 389, 232, 420
-0.9905, 81, 97, 144, 128
-0.990538, 169, 161, 232, 192
-0.990549, 1, 345, 256, 408
-0.990556, 193, 345, 256, 376
-0.99057, 121, 385, 184, 416
-0.990577, 105, 373, 168, 404
-0.990596, 193, 261, 256, 292
-0.990598, 49, 101, 112, 132
-0.99061, 257, 257, 320, 288
-0.990617, 233, 93, 296, 124
-0.990623, 65, 185, 320, 248
-0.99063, 9, 333, 72, 364
-0.990654, 65, 313, 320, 376
-0.990661, 113, 193, 176, 224
-0.990669, 225, 213, 288, 244
-0.990677, 25, 97, 88, 128
-0.9907, 225, 65, 288, 96
-0.990703, 169, 57, 232, 88
-0.990712, 1, 25, 333, 88
-0.990728, 73, 397, 136, 428
-0.990732, 129, 137, 192, 168
-0.990754, 225, 337, 288, 368
-0.990762, 1, 69, 64, 100
-0.990781, 241, 169, 304, 200
-0.99079, 89, 69, 152, 100
-0.990794, 265, 49, 328, 80
-0.990819, 41, 269, 104, 300
-0.99082, 273, 217, 333, 248
-0.990843, 249, 309, 312, 340
-0.990849, 1, 233, 333, 296
-0.990849, 65, 213, 128, 244
-0.990866, 105, 361, 168, 392
-0.990873, 89, 321, 152, 352
-0.990884, 273, 369, 333, 400
-0.990884, 73, 353, 136, 384
-0.990894, 185, 237, 248, 268
-0.9909, 265, 293, 328, 324
-0.990903, 129, 373, 192, 404
-0.990907, 129, 181, 192, 212
-0.99091, 225, 29, 288, 60
-0.990922, 209, 381, 272, 412
-0.990925, 161, 213, 224, 244
-0.990934, 217, 253, 280, 284
-0.990936, 89, 341, 152, 372
-0.990941, 113, 325, 176, 356
-0.990951, 49, 65, 112, 96
-0.990957, 201, 89, 264, 120
-0.990964, 177, 177, 240, 208
-0.990997, 113, 121, 176, 152
-0.991019, 129, 57, 192, 88
-0.991034, 41, 225, 104, 256
-0.991037, 65, 377, 320, 440
-0.991038, 225, 49, 288, 80
-0.991767, 193, 301, 224, 332
-0.991822, 81, 409, 208, 472
-0.991914, 109, 297, 140, 328
-0.991985, 249, 289, 280, 320
-0.992032, 1, 1, 333, 64
-0.992075, 209, 285, 333, 316
-0.992107, 1, 345, 333, 408
-0.992107, 113, 309, 144, 340
-0.992127, 149, 209, 180, 240
-0.992128, 145, 277, 272, 308
-0.992138, 237, 277, 268, 308
-0.992154, 197, 277, 228, 308
-0.992177, 165, 197, 196, 228
-0.992182, 237, 289, 268, 320
-0.992216, 121, 297, 152, 328
-0.992228, 101, 309, 132, 340
-0.992232, 85, 313, 116, 344
-0.992233, 113, 285, 144, 316
-0.992233, 165, 273, 196, 304
-0.992246, 225, 277, 256, 308
-0.992247, 65, 9, 320, 72
-0.99228, 133, 229, 164, 260
-0.992285, 133, 201, 164, 232
-0.992287, 121, 213, 152, 244
-0.992294, 249, 277, 280, 308
-0.992319, 129, 285, 160, 316
-0.992332, 77, 393, 108, 424
-0.992336, 161, 417, 288, 480
-0.992355, 153, 329, 184, 360
-0.992361, 237, 361, 268, 392
-0.992363, 69, 233, 100, 264
-0.992367, 241, 81, 272, 112
-0.992387, 181, 357, 212, 388
-0.992388, 297, 221, 328, 252
-0.992405, 213, 297, 244, 328
-0.992406, 169, 345, 200, 376
-0.992411, 61, 273, 92, 304
-0.992411, 213, 309, 244, 340
-0.992411, 229, 81, 260, 112
-0.992437, 233, 265, 264, 296
-0.992441, 85, 345, 116, 376
-0.99245, 213, 269, 244, 300
-0.992453, 73, 325, 104, 356
-0.99246, 293, 233, 324, 264
-0.992471, 229, 301, 260, 332
-0.992478, 213, 281, 244, 312
-0.992482, 149, 341, 180, 372
-0.992488, 153, 269, 184, 300
-0.992492, 145, 281, 176, 312
-0.992519, 181, 277, 212, 308
-0.99252, 133, 265, 164, 296
-0.992522, 157, 221, 188, 252
-0.992524, 57, 233, 88, 264
-0.992527, 165, 329, 196, 360
-0.992536, 133, 309, 164, 340
-0.992546, 229, 329, 260, 360
-0.992546, 153, 309, 184, 340
-0.992553, 97, 389, 128, 420
-0.992561, 197, 289, 228, 320
-0.992562, 73, 337, 104, 368
-0.992575, 177, 333, 208, 364
-0.99258, 33, 237, 64, 268
-0.992582, 181, 193, 212, 224
-0.992585, 121, 273, 152, 304
-0.992596, 1, 305, 333, 368
-0.992597, 121, 69, 152, 100
-0.992597, 113, 197, 144, 228
-0.992607, 153, 197, 184, 228
-0.992613, 229, 341, 260, 372
-0.992617, 97, 329, 128, 360
-0.992618, 301, 333, 332, 364
-0.99262, 69, 245, 100, 276
-0.992623, 61, 293, 92, 324
-0.992624, 49, 281, 80, 312
-0.992625, 113, 233, 144, 264
-0.992627, 241, 301, 272, 332
-0.992628, 217, 81, 248, 112
-0.992633, 137, 97, 168, 128
-0.992636, 293, 245, 324, 276
-0.992637, 61, 381, 92, 412
-0.992649, 49, 249, 80, 280
-0.99265, 65, 309, 96, 340
-0.992654, 149, 133, 180, 164
-0.992659, 97, 305, 224, 336
-0.992663, 241, 349, 272, 380
-0.992664, 93, 193, 124, 224
-0.992667, 149, 353, 180, 384
-0.99267, 149, 297, 180, 328
-0.99267, 249, 361, 280, 392
-0.99267, 133, 297, 164, 328
-0.992679, 33, 81, 64, 112
-0.992687, 185, 313, 216, 344
-0.992692, 197, 185, 228, 216
-0.992693, 213, 169, 244, 200
-0.99271, 49, 233, 176, 264
-0.992714, 149, 97, 180, 128
-0.992715, 225, 317, 256, 348
-0.992717, 189, 81, 220, 112
-0.992721, 105, 101, 136, 132
-0.992724, 225, 289, 256, 320
-0.99273, 81, 381, 112, 412
-0.992731, 53, 329, 84, 360
-0.992732, 169, 209, 200, 240
-0.992733, 145, 221, 176, 252
-0.992733, 97, 293, 128, 324
-0.992736, 141, 241, 172, 272
-0.992737, 261, 289, 292, 320
-0.992737, 203, 289, 218, 352
-0.992737, 53, 317, 84, 348
-0.992737, 85, 333, 116, 364
-0.992738, 1, 281, 333, 344
-0.992749, 97, 377, 128, 408
-0.992754, 229, 253, 260, 284
-0.992758, 93, 209, 124, 240
-0.992759, 105, 345, 136, 376
-0.99276, 53, 69, 84, 100
-0.992762, 193, 385, 224, 416
-0.992765, 129, 321, 160, 352
-0.992765, 121, 273, 136, 336
-0.992772, 225, 69, 256, 100
-0.992776, 169, 357, 200, 388
-0.99278, 209, 209, 240, 240
-0.99278, 197, 317, 228, 348
-0.992782, 49, 101, 80, 132
-0.992782, 41, 321, 72, 352
-0.992783, 125, 85, 156, 116
-0.992786, 81, 233, 112, 264
-0.992786, 69, 357, 100, 388
-0.992786, 161, 177, 192, 208
-0.992789, 69, 257, 100, 288
-0.99279, 225, 201, 256, 232
-0.992795, 273, 289, 304, 320
-0.992797, 153, 385, 184, 416
-0.992805, 177, 85, 208, 116
-0.992805, 177, 65, 208, 96
-0.992805, 245, 69, 276, 100
-0.992806, 261, 369, 292, 400
-0.992811, 197, 61, 228, 92
-0.992812, 193, 353, 224, 384
-0.992822, 89, 357, 120, 388
-0.992822, 137, 333, 168, 364
-0.992826, 177, 237, 208, 268
-0.99283, 241, 373, 272, 404
-0.992882, 65, 289, 192, 320
-0.992913, 65, 105, 320, 168
-0.992953, 185, 321, 200, 384
-0.993079, 209, 265, 333, 296
-0.993093, 145, 305, 272, 336
-0.993096, 129, 237, 256, 268
-0.99312, 195, 281, 210, 344
-0.99313, 1, 201, 333, 264
-0.993156, 193, 297, 320, 328
-0.993204, 97, 217, 224, 248
-0.99325, 67, 225, 82, 288
-0.99329, 209, 309, 333, 340
-0.993351, 191, 65, 206, 128
-0.993378, 127, 289, 142, 352
-0.993416, 241, 313, 256, 376
-0.993439, 145, 209, 272, 240
-0.993501, 115, 281, 130, 344
-0.993522, 145, 289, 272, 320
-0.993561, 161, 265, 288, 296
-0.993606, 113, 345, 240, 376
-0.993642, 97, 205, 224, 236
-0.993654, 169, 329, 184, 392
-0.993671, 49, 309, 176, 340
-0.99368, 145, 189, 272, 220
-0.993684, 17, 81, 144, 112
-0.993703, 1, 57, 333, 120
-0.993735, 133, 265, 148, 328
-0.99377, 161, 333, 288, 364
-0.993783, 1, 81, 333, 144
-0.993787, 151, 289, 166, 352
-0.993813, 209, 289, 224, 352
-0.993826, 145, 249, 272, 280
-0.993834, 209, 217, 333, 248
-0.993863, 209, 245, 333, 276
-0.993864, 243, 265, 258, 328
-0.993866, 159, 257, 174, 320
-0.993867, 161, 361, 288, 392
-0.99388, 121, 305, 136, 368
-0.993976, 235, 281, 250, 344
-0.993983, 1, 153, 256, 216
-0.994004, 97, 433, 224, 496
-0.994054, 99, 313, 114, 376
-0.994062, 123, 209, 138, 272
-0.994095, 193, 321, 208, 384
-0.994115, 49, 69, 176, 100
-0.994121, 97, 317, 224, 348
-0.994139, 129, 77, 256, 108
-0.994144, 159, 177, 174, 240
-0.994151, 223, 273, 238, 336
-0.994165, 33, 277, 160, 308
-0.994167, 81, 265, 208, 296
-0.994169, 177, 97, 304, 128
-0.994172, 97, 89, 224, 120
-0.994174, 161, 289, 176, 352
-0.994202, 143, 241, 158, 304
-0.99421, 133, 289, 148, 352
-0.994211, 317, 217, 332, 280
-0.994212, 89, 345, 104, 408
-0.994212, 161, 321, 288, 352
-0.994262, 177, 61, 304, 92
-0.99429, 175, 329, 190, 392
-0.994311, 65, 245, 192, 276
-0.994313, 155, 321, 170, 384
-0.994314, 303, 209, 318, 272
-0.994326, 171, 201, 186, 264
-0.994338, 143, 217, 158, 280
-0.994339, 171, 257, 186, 320
-0.99434, 75, 305, 90, 368
-0.99439, 33, 217, 160, 248
-0.994406, 251, 345, 266, 408
-0.994409, 145, 221, 272, 252
-0.994432, 107, 297, 122, 360
-0.994442, 157, 105, 172, 168
-0.994447, 111, 337, 126, 400
-0.994452, 133, 241, 148, 304
-0.994455, 117, 201, 132, 264
-0.99446, 129, 61, 256, 92
-0.994481, 209, 201, 333, 232
-0.994488, 209, 233, 333, 264
-0.994499, 165, 177, 180, 240
-0.994504, 249, 257, 264, 320
-0.994564, 97, 277, 224, 308
-0.99459, 177, 193, 192, 256
-0.994596, 69, 281, 84, 344
-0.994597, 135, 193, 150, 256
-0.994609, 163, 313, 178, 376
-0.994609, 215, 297, 230, 360
-0.994614, 113, 305, 128, 368
-0.994619, 93, 305, 108, 368
-0.994625, 177, 81, 304, 112
-0.99465, 203, 265, 218, 328
-0.994656, 129, 177, 256, 208
-0.994672, 151, 97, 166, 160
-0.994678, 49, 93, 176, 124
-0.994687, 45, 321, 60, 384
-0.994695, 91, 369, 106, 432
-0.994722, 147, 265, 162, 328
-0.994744, 141, 281, 156, 344
-0.994769, 55, 57, 70, 120
-0.994774, 153, 241, 168, 304
-0.994775, 195, 89, 210, 152
-0.994792, 85, 305, 100, 368
-0.994797, 245, 337, 260, 400
-0.994801, 225, 81, 240, 144
-0.994803, 219, 81, 234, 144
-0.994817, 61, 249, 76, 312
-0.99483, 121, 193, 152, 448
-0.994856, 213, 265, 228, 328
-0.994859, 149, 209, 164, 272
-0.994876, 161, 201, 176, 264
-0.994883, 171, 169, 186, 232
-0.994909, 73, 249, 88, 312
-0.994911, 1, 369, 333, 432
-0.994915, 55, 241, 70, 304
-0.994923, 73, 225, 88, 288
-0.994923, 209, 89, 224, 152
-0.994927, 197, 185, 212, 248
-0.994932, 3, 209, 18, 272
-0.994941, 181, 65, 196, 128
-0.99496, 287, 305, 302, 368
-0.994973, 17, 293, 144, 324
-0.995, 127, 65, 142, 128
-0.995003, 189, 89, 204, 152
-0.995004, 65, 401, 320, 464
-0.995007, 261, 265, 276, 328
-0.995026, 153, 177, 168, 240
-0.995055, 179, 225, 194, 288
-0.995069, 49, 57, 176, 88
-0.995076, 127, 265, 142, 328
-0.995076, 53, 273, 68, 336
-0.995082, 269, 281, 284, 344
-0.995099, 141, 361, 156, 424
-0.995107, 97, 193, 224, 224
-0.995112, 79, 233, 94, 296
-0.995129, 143, 185, 158, 248
-0.995143, 17, 389, 144, 420
-0.995146, 65, 105, 192, 136
-0.995153, 17, 325, 144, 356
-0.995155, 83, 353, 98, 416
-0.995157, 201, 89, 216, 152
-0.995169, 209, 349, 333, 380
-0.995187, 199, 313, 214, 376
-0.995201, 191, 345, 206, 408
-0.995214, 65, 393, 192, 424
-0.995216, 137, 217, 152, 280
-0.995219, 309, 209, 324, 272
-0.995221, 161, 349, 288, 380
-0.995224, 187, 185, 202, 248
-0.995235, 145, 165, 272, 196
-0.995241, 101, 225, 132, 480
-0.995248, 77, 345, 92, 408
-0.995253, 135, 321, 150, 384
-0.995259, 249, 281, 264, 344
-0.995262, 1, 229, 128, 260
-0.995264, 145, 97, 160, 160
-0.995265, 33, 29, 160, 60
-0.995304, 165, 353, 180, 416
-0.995311, 81, 377, 96, 440
-0.995315, 209, 189, 333, 220
-0.995338, 155, 353, 170, 416
-0.995344, 49, 205, 176, 236
-0.995354, 297, 241, 312, 304
-0.995355, 193, 161, 208, 224
-0.995375, 161, 37, 288, 68
-0.995378, 37, 305, 52, 368
-0.995383, 127, 233, 142, 296
-0.995385, 209, 49, 333, 80
-0.995395, 101, 353, 116, 416
-0.995428, 105, 185, 120, 248
-0.995428, 233, 241, 248, 304
-0.995432, 227, 241, 242, 304
-0.995455, 143, 313, 158, 376
-0.995463, 229, 265, 244, 328
-0.995481, 61, 297, 76, 360
-0.995491, 149, 193, 180, 448
-0.995498, 111, 193, 126, 256
-0.995501, 155, 201, 170, 264
-0.995502, 163, 105, 178, 168
-0.995503, 245, 361, 260, 424
-0.995507, 81, 281, 96, 344
-0.995524, 235, 337, 250, 400
-0.995525, 201, 369, 216, 432
-0.995531, 297, 217, 312, 280
-0.995533, 49, 365, 176, 396
-0.995538, 233, 65, 248, 128
-0.995541, 171, 353, 186, 416
-0.995571, 209, 329, 333, 360
-0.995578, 149, 321, 164, 384
-0.995594, 69, 201, 84, 264
-0.995598, 15, 241, 30, 304
-0.995606, 129, 201, 144, 264
-0.995617, 205, 313, 220, 376
-0.995632, 165, 257, 180, 320
-0.995634, 43, 49, 58, 112
-0.995635, 189, 297, 204, 360
-0.995643, 33, 265, 160, 296
-0.995646, 177, 161, 192, 224
-0.995659, 201, 161, 232, 416
-0.995668, 241, 257, 272, 500
-0.99567, 97, 21, 224, 52
-0.995675, 1, 241, 128, 272
-0.995677, 81, 181, 208, 212
-0.995692, 81, 225, 112, 480
-0.995702, 1, 129, 256, 192
-0.995707, 169, 193, 200, 448
-0.995735, 81, 329, 208, 360
-0.995773, 17, 337, 144, 368
-0.99578, 1, 305, 128, 336
-0.995829, 297, 193, 328, 448
-0.995842, 145, 21, 272, 52
-0.995845, 193, 177, 320, 208
-0.995854, 193, 373, 320, 404
-0.995855, 145, 97, 176, 352
-0.995896, 65, 341, 192, 372
-0.995899, 117, 65, 148, 320
-0.995912, 161, 49, 288, 80
-0.995924, 97, 49, 224, 80
-0.995931, 49, 433, 176, 496
-0.996005, 113, 357, 240, 388
-0.996007, 189, 129, 220, 384
-0.996023, 221, 225, 252, 480
-0.996057, 33, 193, 160, 224
-0.996096, 137, 225, 168, 480
-0.996111, 1, 253, 128, 284
-0.996119, 161, 5, 288, 36
-0.996126, 209, 153, 333, 184
-0.996129, 69, 225, 100, 480
-0.996141, 93, 129, 124, 384
-0.996146, 209, 109, 333, 140
-0.996153, 161, 65, 192, 320
-0.996164, 249, 161, 280, 416
-0.996176, 33, 353, 160, 384
-0.996179, 209, 29, 333, 60
-0.99619, 65, 381, 192, 412
-0.996196, 129, 101, 256, 132
-0.996221, 269, 193, 300, 448
-0.996223, 181, 225, 212, 480
-0.99624, 73, 129, 104, 384
-0.996258, 209, 165, 333, 196
-0.996295, 113, 389, 240, 420
-0.996343, 113, 369, 240, 400
-0.996357, 133, 97, 164, 352
-0.996403, 1, 377, 128, 408
-0.996404, 221, 97, 252, 352
-0.996416, 81, 121, 208, 152
-0.996417, 253, 257, 284, 500
-0.996441, 1, 69, 128, 100
-0.996451, 173, 33, 204, 288
-0.996477, 1, 177, 333, 240
-0.996488, 121, 297, 136, 328
-0.996492, 1, 113, 333, 176
-0.996494, 57, 193, 88, 448
-0.996513, 1, 137, 333, 200
-0.996515, 49, 17, 176, 48
-0.99659, 285, 225, 316, 480
-0.996621, 81, 405, 208, 436
-0.996658, 17, 105, 144, 136
-0.996681, 1, 401, 333, 464
-0.996698, 209, 17, 333, 48
-0.996704, 201, 257, 232, 500
-0.996728, 115, 297, 130, 328
-0.996759, 251, 285, 266, 316
-0.996774, 177, 417, 304, 448
-0.996792, 109, 305, 124, 336
-0.996799, 1, 205, 128, 236
-0.9968, 203, 305, 218, 336
-0.996812, 253, 1, 284, 256
-0.996834, 17, 401, 144, 432
-0.996854, 49, 45, 176, 76
-0.996856, 37, 65, 68, 320
-0.996863, 163, 201, 178, 232
-0.996892, 105, 129, 136, 384
-0.996904, 193, 385, 320, 416
-0.996933, 115, 285, 130, 316
-0.996959, 203, 281, 218, 312
-0.996968, 241, 289, 256, 320
-0.996977, 129, 125, 256, 156
-0.996991, 169, 333, 184, 364
-0.997012, 133, 293, 148, 324
-0.997017, 137, 229, 152, 260
-0.997029, 251, 361, 266, 392
-0.997034, 99, 309, 114, 340
-0.997048, 1, 161, 128, 192
-0.997054, 183, 329, 198, 360
-0.997057, 133, 1, 164, 256
-0.997061, 143, 229, 158, 260
-0.997066, 165, 265, 180, 296
-0.99707, 71, 233, 86, 264
-0.997079, 125, 309, 140, 340
-0.99708, 91, 385, 106, 416
-0.997082, 155, 329, 170, 360
-0.997089, 177, 337, 192, 368
-0.997094, 237, 317, 252, 348
-0.997098, 75, 325, 90, 356
-0.9971, 81, 33, 208, 64
-0.997103, 145, 113, 272, 144
-0.997104, 65, 161, 192, 192
-0.997105, 213, 297, 228, 328
-0.997105, 159, 269, 174, 300
-0.99712, 157, 201, 172, 232
-0.997123, 1, 365, 128, 396
-0.997151, 241, 81, 256, 112
-0.997163, 193, 405, 320, 436
-0.997169, 201, 33, 232, 288
-0.997177, 125, 285, 140, 316
-0.997193, 271, 289, 286, 320
-0.997196, 157, 101, 172, 132
-0.997199, 191, 317, 206, 348
-0.997203, 243, 341, 258, 372
-0.997205, 241, 277, 256, 308
-0.997207, 97, 9, 224, 40
-0.997233, 169, 197, 184, 228
-0.99725, 195, 301, 210, 332
-0.997254, 233, 301, 248, 332
-0.99726, 171, 281, 186, 312
-0.997263, 229, 269, 244, 300
-0.997264, 179, 193, 194, 224
-0.997265, 255, 81, 270, 112
-0.997291, 113, 141, 240, 172
-0.997295, 149, 221, 164, 252
-0.997307, 273, 97, 304, 352
-0.99731, 133, 305, 148, 336
-0.997311, 225, 81, 240, 112
-0.997321, 235, 81, 250, 112
-0.997321, 187, 353, 202, 384
-0.997328, 1, 93, 128, 124
-0.99734, 127, 297, 142, 328
-0.997347, 191, 81, 206, 112
-0.997355, 241, 301, 256, 332
-0.997361, 49, 65, 80, 320
-0.997364, 107, 321, 122, 352
-0.997376, 131, 281, 146, 312
-0.997386, 123, 201, 138, 232
-0.997386, 115, 309, 130, 340
-0.997391, 251, 269, 266, 300
-0.997396, 221, 281, 236, 312
-0.997397, 141, 373, 156, 404
-0.997404, 93, 313, 108, 344
-0.997408, 189, 337, 204, 368
-0.997425, 105, 33, 136, 288
-0.997426, 117, 213, 132, 244
-0.997427, 171, 353, 186, 384
-0.997433, 189, 197, 204, 228
-0.997434, 81, 385, 96, 416
-0.997437, 217, 1, 248, 256
-0.997439, 153, 341, 168, 372
-0.997444, 65, 333, 80, 364
-0.99745, 259, 289, 274, 320
-0.997454, 185, 33, 216, 288
-0.997457, 145, 401, 272, 432
-0.997458, 195, 277, 210, 308
-0.997471, 149, 1, 180, 256
-0.997473, 17, 129, 48, 384
-0.997476, 135, 249, 150, 280
-0.997477, 129, 413, 256, 444
-0.997478, 237, 161, 268, 416
-0.997496, 137, 281, 152, 312
-0.997512, 1, 9, 128, 40
-0.997519, 235, 289, 250, 320
-0.997522, 129, 261, 144, 292
-0.997529, 197, 313, 212, 344
-0.997532, 161, 333, 176, 364
-0.997545, 81, 397, 96, 428
-0.997558, 43, 237, 58, 268
-0.997561, 195, 397, 210, 428
-0.997566, 293, 97, 324, 352
-0.997576, 151, 133, 166, 164
-0.997581, 137, 269, 152, 300
-0.997584, 91, 397, 106, 428
-0.997586, 171, 269, 186, 300
-0.997587, 35, 345, 50, 376
-0.9976, 261, 277, 276, 308
-0.997604, 241, 329, 256, 360
-0.997605, 151, 313, 166, 344
-0.997612, 45, 337, 60, 368
-0.997616, 65, 249, 80, 280
-0.99762, 115, 201, 130, 232
-0.997623, 65, 141, 192, 172
-0.997629, 309, 117, 324, 148
-0.997633, 89, 373, 104, 404
-0.997635, 259, 365, 274, 396
-0.997635, 245, 353, 260, 384
-0.997639, 123, 213, 138, 244
-0.99764, 109, 293, 124, 324
-0.997641, 209, 277, 224, 308
-0.997645, 1, 129, 32, 384
-0.997649, 239, 69, 254, 100
-0.997652, 99, 329, 114, 360
-0.997655, 151, 97, 166, 128
-0.997656, 195, 289, 210, 320
-0.997657, 161, 153, 288, 184
-0.997659, 179, 273, 194, 304
-0.99766, 151, 201, 166, 232
-0.997662, 143, 217, 158, 248
-0.997666, 235, 269, 250, 300
-0.997669, 37, 233, 52, 264
-0.997671, 67, 281, 82, 312
-0.997683, 157, 121, 172, 152
-0.997683, 209, 5, 333, 36
-0.997685, 151, 233, 166, 264
-0.997695, 211, 313, 226, 344
-0.997697, 219, 81, 234, 112
-0.997698, 143, 245, 158, 276
-0.997699, 143, 289, 158, 320
-0.997699, 241, 1, 272, 256
-0.997702, 73, 33, 104, 288
-0.997704, 69, 293, 84, 324
-0.997706, 139, 201, 154, 232
-0.99771, 1, 125, 128, 156
-0.997712, 223, 309, 238, 340
-0.997719, 61, 65, 92, 320
-0.997719, 171, 217, 186, 248
-0.997719, 163, 353, 178, 384
-0.997733, 309, 217, 324, 248
-0.997735, 151, 117, 166, 148
-0.997737, 61, 281, 76, 312
-0.997742, 217, 309, 232, 340
-0.997743, 225, 69, 240, 100
-0.997743, 195, 189, 210, 220
-0.997751, 7, 229, 22, 260
-0.997756, 75, 353, 90, 384
-0.997757, 65, 425, 320, 488
-0.997759, 101, 393, 116, 424
-0.997764, 249, 81, 264, 112
-0.997769, 297, 233, 312, 264
-0.997771, 243, 265, 258, 296
-0.997779, 297, 253, 312, 284
-0.997779, 117, 329, 132, 360
-0.997781, 265, 289, 280, 320
-0.997781, 189, 273, 204, 304
-0.997795, 1, 173, 128, 204
-0.997807, 113, 153, 240, 184
-0.997811, 45, 161, 76, 416
-0.997822, 49, 5, 176, 36
-0.997899, 161, 141, 288, 172
-0.997902, 209, 361, 333, 392
-0.997908, 93, 33, 124, 288
-0.997984, 145, 429, 272, 460
-0.998024, 25, 1, 56, 256
-0.998066, 261, 97, 292, 352
-0.998114, 1, 41, 128, 72
-0.99814, 265, 1, 296, 256
-0.998149, 65, 429, 192, 460
-0.998159, 9, 33, 40, 288
-0.998282, 97, 311, 160, 326
-0.998308, 17, 413, 144, 444
-0.998352, 1, 57, 128, 88
-0.998364, 229, 1, 260, 256
-0.998368, 9, 225, 40, 480
-0.998383, 281, 1, 312, 256
-0.99839, 185, 323, 248, 338
-0.998398, 65, 313, 128, 328
-0.998402, 225, 289, 288, 304
-0.998403, 193, 121, 320, 152
-0.998404, 137, 237, 200, 252
-0.998406, 65, 417, 192, 448
-0.998421, 217, 275, 280, 290
-0.998426, 121, 281, 184, 296
-0.998428, 161, 277, 224, 292
-0.998429, 193, 275, 256, 290
-0.998434, 105, 233, 168, 248
-0.998434, 209, 295, 272, 310
-0.998435, 185, 317, 248, 332
-0.998447, 169, 283, 232, 298
-0.998447, 193, 281, 256, 296
-0.998448, 257, 285, 320, 300
-0.998449, 257, 297, 320, 312
-0.998449, 145, 327, 208, 342
-0.998451, 25, 83, 88, 98
-0.998452, 201, 311, 264, 326
-0.998452, 145, 311, 208, 326
-0.998455, 137, 223, 200, 238
-0.998456, 209, 29, 272, 44
-0.998457, 185, 91, 248, 106
-0.99846, 73, 307, 136, 322
-0.99846, 113, 213, 176, 228
-0.99846, 81, 235, 144, 250
-0.99846, 121, 291, 184, 306
-0.998465, 73, 319, 136, 334
-0.998466, 105, 305, 168, 320
-0.99847, 209, 301, 272, 316
-0.998474, 97, 317, 160, 332
-0.998474, 145, 333, 208, 348
-0.998474, 137, 243, 200, 258
-0.998474, 257, 291, 320, 306
-0.998475, 257, 271, 320, 286
-0.998476, 225, 307, 288, 322
-0.998477, 121, 311, 184, 326
-0.99848, 233, 295, 296, 310
-0.99848, 145, 399, 176, 414
-0.998481, 229, 327, 260, 342
-0.998481, 113, 99, 176, 114
-0.998481, 61, 319, 92, 334
-0.998481, 117, 225, 148, 240
-0.998482, 157, 239, 188, 254
-0.998482, 173, 203, 204, 218
-0.998482, 29, 351, 60, 366
-0.998483, 201, 295, 232, 310
-0.998483, 129, 229, 160, 244
-0.998483, 93, 393, 124, 408
-0.998483, 73, 295, 136, 310
-0.998484, 69, 273, 100, 288
-0.998484, 57, 247, 88, 262
-0.998484, 245, 369, 276, 384
-0.998485, 73, 335, 104, 350
-0.998485, 297, 235, 328, 250
-0.998485, 141, 311, 172, 326
-0.998486, 225, 269, 288, 284
-0.998486, 145, 91, 208, 106
-0.998487, 89, 347, 120, 362
-0.998487, 229, 257, 260, 272
-0.998488, 97, 227, 128, 242
-0.998488, 77, 311, 108, 326
-0.998488, 209, 137, 333, 168
-0.998488, 177, 193, 240, 208
-0.998488, 161, 213, 224, 228
-0.998491, 61, 289, 92, 304
-0.998492, 181, 369, 212, 384
-0.998492, 185, 81, 248, 96
-0.998493, 141, 331, 172, 346
-0.998493, 69, 243, 100, 258
-0.998493, 73, 343, 104, 358
-0.998494, 73, 301, 136, 316
-0.998494, 129, 303, 192, 318
-0.998496, 185, 305, 248, 320
-0.998496, 121, 281, 152, 296
-0.998496, 229, 321, 260, 336
-0.998497, 165, 209, 196, 224
-0.998497, 153, 369, 216, 384
-0.998497, 229, 83, 260, 98
-0.998498, 249, 381, 312, 396
-0.998498, 193, 289, 256, 304
-0.998498, 49, 391, 112, 406
-0.998499, 217, 281, 280, 296
-0.9985, 77, 329, 108, 344
-0.9985, 49, 385, 112, 400
-0.9985, 113, 205, 144, 220
-0.998501, 121, 71, 152, 86
-0.998502, 85, 359, 116, 374
-0.998502, 229, 31, 260, 46
-0.998502, 113, 375, 176, 390
-0.998502, 225, 267, 256, 282
-0.998503, 193, 365, 256, 380
-0.998503, 53, 345, 84, 360
-0.998503, 161, 197, 192, 212
-0.998503, 209, 283, 240, 298
-0.998504, 213, 27, 244, 42
-0.998504, 153, 327, 184, 342
-0.998504, 161, 341, 192, 356
-0.998504, 137, 377, 168, 392
-0.998504, 57, 335, 120, 350
-0.998505, 257, 377, 288, 392
-0.998505, 145, 349, 208, 364
-0.998505, 229, 359, 260, 374
-0.998506, 81, 199, 144, 214
-0.998506, 25, 77, 88, 92
-0.998506, 137, 249, 200, 264
-0.998506, 41, 327, 104, 342
-0.998506, 201, 329, 264, 344
-0.998507, 81, 233, 112, 248
-0.998507, 157, 391, 188, 406
-0.998508, 293, 253, 324, 268
-0.998508, 129, 273, 192, 288
-0.998509, 129, 293, 160, 308
-0.998509, 185, 297, 248, 312
-0.99851, 153, 311, 184, 326
-0.99851, 133, 225, 148, 352
-0.998511, 209, 319, 272, 334
-0.998511, 217, 85, 280, 100
-0.998512, 121, 93, 184, 108
-0.998514, 217, 91, 280, 106
-0.998514, 121, 265, 184, 280
-0.998515, 121, 199, 152, 214
-0.998515, 169, 289, 232, 304
-0.998515, 121, 207, 184, 222
-0.998515, 193, 241, 208, 368
-0.998515, 109, 233, 140, 248
-0.998516, 153, 267, 184, 282
-0.998516, 73, 289, 136, 304
-0.998516, 113, 219, 176, 234
-0.998516, 181, 363, 212, 378
-0.998517, 177, 337, 208, 352
-0.998517, 241, 329, 304, 344
-0.998517, 145, 101, 176, 116
-0.998518, 225, 217, 288, 232
-0.998518, 81, 391, 112, 406
-0.998518, 169, 73, 232, 88
-0.998519, 233, 347, 264, 362
-0.998519, 145, 207, 208, 222
-0.998519, 169, 331, 232, 346
-0.998519, 73, 387, 136, 402
-0.998519, 137, 203, 168, 218
-0.99852, 161, 321, 224, 336
-0.99852, 229, 91, 260, 106
-0.99852, 185, 327, 216, 342
-0.99852, 41, 285, 104, 300
-0.998522, 233, 301, 296, 316
-0.998522, 145, 135, 208, 150
-0.998522, 149, 201, 180, 216
-0.998522, 49, 85, 112, 100
-0.998522, 201, 215, 264, 230
-0.998522, 105, 201, 168, 216
-0.998523, 141, 265, 172, 280
-0.998525, 33, 101, 96, 116
-0.998525, 257, 63, 320, 78
-0.998525, 89, 311, 120, 326
-0.998526, 17, 149, 144, 180
-0.998526, 129, 231, 192, 246
-0.998526, 169, 311, 232, 326
-0.998526, 33, 341, 96, 356
-0.998527, 169, 91, 200, 106
-0.998527, 101, 315, 132, 330
-0.998527, 1, 89, 64, 104
-0.998527, 65, 25, 128, 40
-0.998527, 185, 63, 248, 78
-0.998527, 217, 277, 248, 292
-0.998528, 105, 227, 168, 242
-0.998529, 241, 307, 272, 322
-0.998529, 29, 161, 60, 416
-0.998529, 257, 277, 320, 292
-0.998529, 129, 299, 160, 314
-0.998529, 229, 297, 260, 312
-0.99853, 41, 313, 104, 328
-0.99853, 133, 209, 164, 224
-0.99853, 169, 391, 232, 406
-0.998531, 161, 297, 224, 312
-0.998531, 245, 85, 276, 100
-0.998532, 149, 287, 180, 302
-0.998532, 101, 399, 132, 414
-0.998532, 293, 247, 324, 262
-0.998533, 149, 303, 180, 318
-0.998533, 113, 315, 144, 330
-0.998533, 57, 343, 120, 358
-0.998534, 233, 333, 264, 348
-0.998534, 65, 229, 128, 244
-0.998534, 145, 283, 208, 298
-0.998535, 257, 283, 288, 298
-0.998535, 293, 1, 324, 256
-0.998536, 233, 339, 264, 354
-0.998536, 233, 363, 296, 378
-0.998536, 181, 321, 212, 336
-0.998537, 113, 297, 176, 312
-0.998537, 81, 375, 144, 390
-0.998537, 169, 167, 232, 182
-0.998537, 41, 233, 104, 248
-0.998537, 237, 285, 268, 300
-0.998538, 193, 187, 256, 202
-0.998539, 137, 255, 200, 270
-0.998541, 133, 281, 164, 296
-0.998541, 145, 341, 208, 356
-0.998542, 153, 231, 216, 246
-0.998542, 273, 377, 333, 392
-0.998543, 239, 257, 254, 384
-0.998543, 165, 283, 196, 298
-0.998544, 129, 65, 192, 80
-0.998544, 239, 305, 254, 432
-0.998545, 137, 201, 200, 216
-0.998545, 153, 375, 216, 390
-0.998545, 121, 395, 184, 410
-0.998546, 97, 85, 160, 100
-0.998546, 161, 363, 224, 378
-0.998546, 97, 73, 160, 88
-0.998547, 25, 89, 88, 104
-0.998548, 81, 207, 144, 222
-0.998548, 25, 67, 88, 82
-0.998549, 41, 319, 104, 334
-0.998549, 153, 397, 216, 412
-0.998549, 25, 249, 88, 264
-0.998549, 233, 335, 296, 350
-0.998549, 9, 349, 72, 364
-0.998549, 73, 393, 136, 408
-0.99855, 153, 211, 184, 226
-0.99855, 257, 297, 288, 312
-0.99855, 189, 315, 220, 330
-0.998551, 137, 215, 200, 230
-0.998552, 237, 267, 268, 282
-0.998552, 149, 219, 180, 234
-0.998554, 197, 281, 228, 296
-0.998556, 297, 61, 328, 76
-0.998557, 241, 363, 272, 378
-0.998557, 69, 233, 100, 248
-0.998559, 65, 329, 96, 344
-0.998561, 241, 91, 272, 106
-0.998568, 169, 331, 200, 346
-0.998574, 149, 351, 180, 366
-0.998576, 125, 287, 156, 302
-0.998577, 113, 273, 128, 400
-0.998579, 241, 299, 272, 314
-0.998579, 157, 275, 188, 290
-0.998579, 169, 353, 200, 368
-0.99858, 117, 303, 148, 318
-0.998581, 81, 397, 112, 412
-0.998583, 129, 313, 160, 328
-0.998584, 161, 203, 192, 218
-0.998586, 193, 301, 224, 316
-0.998587, 185, 279, 216, 294
-0.998588, 293, 219, 324, 234
-0.998589, 149, 133, 180, 148
-0.998591, 117, 293, 148, 308
-0.998598, 217, 295, 248, 310
-0.9986, 197, 289, 228, 304
-0.9986, 229, 273, 260, 288
-0.998601, 169, 277, 200, 292
-0.998601, 149, 281, 180, 296
-0.998601, 121, 289, 136, 416
-0.998604, 221, 283, 252, 298
-0.998604, 217, 313, 248, 328
-0.998606, 187, 305, 202, 432
-0.998609, 173, 197, 204, 212
-0.998609, 45, 323, 76, 338
-0.99861, 297, 229, 328, 244
-0.998612, 237, 291, 268, 306
-0.998617, 85, 317, 116, 332
-0.99862, 193, 307, 224, 322
-0.998623, 153, 333, 184, 348
-0.998626, 153, 289, 168, 416
-0.998631, 237, 279, 268, 294
-0.998638, 103, 289, 118, 416
-0.99865, 131, 177, 146, 304
-0.998658, 249, 289, 280, 304
-0.998659, 129, 307, 160, 322
-0.998663, 25, 257, 56, 500
-0.998664, 133, 235, 164, 250
-0.99867, 113, 287, 144, 302
-0.998673, 117, 309, 148, 324
-0.998675, 141, 305, 156, 432
-0.998678, 149, 177, 164, 304
-0.998693, 203, 225, 218, 352
-0.998694, 101, 309, 132, 324
-0.998697, 141, 225, 156, 352
-0.998699, 127, 225, 142, 352
-0.998709, 171, 209, 186, 336
-0.99871, 181, 193, 196, 320
-0.998724, 245, 257, 260, 384
-0.998739, 231, 257, 246, 384
-0.998742, 189, 193, 204, 320
-0.99875, 187, 241, 202, 368
-0.998765, 125, 177, 140, 304
-0.998766, 177, 241, 192, 368
-0.998767, 193, 289, 208, 416
-0.998767, 211, 177, 226, 304
-0.998767, 169, 273, 184, 400
-0.998768, 65, 209, 80, 336
-0.998781, 233, 305, 248, 432
-0.998797, 133, 273, 148, 400
-0.998798, 193, 353, 208, 480
-0.998803, 37, 257, 68, 500
-0.998804, 137, 177, 152, 304
-0.99881, 201, 305, 216, 432
-0.99883, 163, 177, 178, 304
-0.998845, 173, 145, 188, 272
-0.998853, 115, 225, 130, 352
-0.998854, 243, 209, 258, 336
-0.998854, 75, 225, 90, 352
-0.998857, 161, 129, 176, 256
-0.998857, 111, 321, 126, 448
-0.998858, 75, 305, 90, 432
-0.998866, 147, 289, 162, 416
-0.998869, 195, 177, 210, 304
-0.998876, 143, 177, 158, 304
-0.998878, 315, 193, 330, 320
-0.998878, 163, 273, 178, 400
-0.99888, 267, 273, 282, 400
-0.998886, 295, 241, 310, 368
-0.99889, 285, 209, 300, 336
-0.998896, 213, 289, 228, 416
-0.998899, 121, 225, 136, 352
-0.998908, 47, 65, 62, 192
-0.998915, 97, 289, 112, 416
-0.998918, 179, 337, 194, 464
-0.998924, 119, 177, 134, 304
-0.998926, 153, 129, 168, 256
-0.998932, 251, 273, 266, 400
-0.998933, 221, 273, 236, 400
-0.99894, 127, 273, 142, 400
-0.998946, 67, 321, 82, 448
-0.998956, 179, 145, 194, 272
-0.99896, 225, 225, 240, 352
-0.998967, 167, 129, 182, 256
-0.99897, 205, 161, 220, 288
-0.998978, 171, 321, 186, 448
-0.99898, 127, 49, 142, 176
-0.998984, 181, 289, 196, 416
-0.998989, 245, 337, 260, 464
-0.998995, 105, 337, 120, 464
-0.998999, 53, 33, 68, 160
-0.999003, 81, 321, 96, 448
-0.999004, 219, 193, 234, 320
-0.999005, 147, 225, 162, 352
-0.999005, 281, 289, 296, 416
-0.999006, 41, 49, 56, 176
-0.999013, 63, 273, 78, 400
-0.999015, 73, 161, 88, 288
-0.999019, 151, 337, 166, 464
-0.999032, 3, 145, 18, 272
-0.999034, 309, 209, 324, 336
-0.999039, 155, 177, 170, 304
-0.999042, 275, 289, 290, 416
-0.999043, 143, 129, 158, 256
-0.999044, 231, 209, 246, 336
-0.999051, 159, 225, 174, 352
-0.999053, 313, 273, 328, 400
-0.999061, 303, 209, 318, 336
-0.99907, 47, 1, 62, 128
-0.999071, 53, 81, 68, 208
-0.999073, 143, 353, 158, 480
-0.999077, 49, 161, 64, 288
-0.999079, 111, 369, 126, 496
-0.999082, 179, 97, 194, 224
-0.999084, 129, 1, 144, 128
-0.99909, 157, 49, 172, 176
-0.999095, 91, 305, 106, 432
-0.999097, 287, 289, 302, 416
-0.999097, 125, 97, 140, 224
-0.999098, 157, 337, 172, 464
-0.999102, 105, 241, 120, 368
-0.999102, 69, 257, 84, 384
-0.999106, 299, 161, 314, 288
-0.999108, 23, 241, 38, 368
-0.99911, 267, 337, 282, 464
-0.999116, 237, 193, 252, 320
-0.999117, 131, 97, 146, 224
-0.999123, 245, 65, 260, 192
-0.999128, 37, 193, 52, 320
-0.999134, 113, 161, 128, 288
-0.999137, 153, 225, 168, 352
-0.999138, 21, 161, 36, 288
-0.99914, 185, 113, 200, 240
-0.999141, 181, 49, 196, 176
-0.999145, 163, 81, 178, 208
-0.999145, 227, 305, 242, 432
-0.999148, 59, 193, 74, 320
-0.99915, 275, 209, 290, 336
-0.999154, 179, 1, 194, 128
-0.999157, 151, 49, 166, 176
-0.999157, 209, 241, 224, 368
-0.999167, 95, 161, 110, 288
-0.999169, 31, 193, 46, 320
-0.99917, 89, 353, 104, 480
-0.999171, 163, 353, 178, 480
-0.999172, 309, 321, 324, 448
-0.999176, 165, 1, 180, 128
-0.999176, 249, 209, 264, 336
-0.99918, 305, 161, 320, 288
-0.99918, 133, 321, 148, 448
-0.999181, 71, 65, 86, 192
-0.999183, 171, 49, 186, 176
-0.999665, 237, 325, 252, 340
-0.999665, 209, 307, 224, 322
-0.999665, 143, 235, 158, 250
-0.999665, 285, 383, 300, 398
-0.999665, 97, 319, 112, 334
-0.999666, 143, 263, 158, 278
-0.999666, 65, 333, 80, 348
-0.999667, 73, 237, 88, 252
-0.999667, 163, 175, 178, 190
-0.999667, 155, 397, 170, 412
-0.999667, 237, 287, 252, 302
-0.999668, 221, 83, 236, 98
-0.999669, 203, 309, 218, 324
-0.99967, 251, 363, 266, 378
-0.99967, 181, 237, 196, 252
-0.99967, 175, 351, 190, 366
-0.999671, 155, 271, 170, 286
-0.999672, 193, 193, 208, 208
-0.999672, 151, 213, 166, 228
-0.999672, 117, 317, 132, 332
-0.999674, 131, 289, 146, 304
-0.999674, 153, 347, 168, 362
-0.999674, 267, 297, 282, 312
-0.999674, 221, 91, 236, 106
-0.999674, 265, 291, 280, 306
-0.999674, 261, 375, 276, 390
-0.999675, 91, 385, 106, 400
-0.999675, 301, 61, 316, 76
-0.999676, 261, 297, 276, 312
-0.999676, 115, 329, 130, 344
-0.999676, 121, 199, 136, 214
-0.999676, 199, 317, 214, 332
-0.999677, 229, 267, 244, 282
-0.999677, 161, 133, 176, 148
-0.999677, 135, 231, 150, 246
-0.999681, 229, 281, 244, 296
-0.999682, 175, 275, 190, 290
-0.999682, 237, 275, 252, 290
-0.999683, 141, 371, 156, 386
-0.999684, 171, 339, 186, 354
-0.999684, 247, 299, 262, 314
-0.999685, 241, 307, 256, 322
-0.999685, 255, 85, 270, 100
-0.999686, 183, 331, 198, 346
-0.999686, 151, 281, 166, 296
-0.999687, 223, 311, 238, 326
-0.999687, 245, 357, 260, 372
-0.999687, 235, 293, 250, 308
-0.999687, 279, 381, 294, 396
-0.999688, 157, 101, 172, 116
-0.99969, 73, 229, 88, 244
-0.99969, 249, 91, 264, 106
-0.99969, 247, 273, 262, 288
-0.999691, 175, 199, 190, 214
-0.999691, 187, 277, 202, 292
-0.999691, 193, 319, 208, 334
-0.999691, 23, 167, 38, 182
-0.999691, 93, 403, 108, 418
-0.999691, 123, 213, 138, 228
-0.999691, 131, 203, 146, 218
-0.999692, 161, 399, 176, 414
-0.999692, 171, 281, 186, 296
-0.999693, 229, 93, 244, 108
-0.999695, 267, 377, 282, 392
-0.999695, 187, 197, 202, 212
-0.999696, 275, 289, 290, 304
-0.999696, 169, 207, 184, 222
-0.999697, 239, 91, 254, 106
-0.999697, 69, 327, 84, 342
-0.999698, 163, 273, 178, 288
-0.9997, 43, 341, 58, 356
-0.999702, 129, 263, 144, 278
-0.999703, 109, 319, 124, 334
-0.999704, 157, 109, 172, 124
-0.999705, 259, 291, 274, 306
-0.999705, 187, 417, 202, 432
-0.999705, 257, 273, 272, 288
-0.999706, 205, 281, 220, 296
-0.999708, 149, 311, 164, 326
-0.999708, 121, 205, 136, 220
-0.999708, 169, 345, 184, 360
-0.999708, 241, 299, 256, 314
-0.999709, 237, 319, 252, 334
-0.999709, 153, 329, 168, 344
-0.999709, 255, 297, 270, 312
-0.999709, 109, 309, 124, 324
-0.999709, 181, 423, 196, 438
-0.999711, 93, 313, 108, 328
-0.999711, 169, 355, 184, 370
-0.999711, 151, 135, 166, 150
-0.999711, 139, 309, 154, 324
-0.999712, 35, 347, 50, 362
-0.999712, 117, 285, 132, 300
-0.999712, 181, 277, 196, 292
-0.999712, 159, 281, 174, 296
-0.999712, 85, 395, 100, 410
-0.999713, 167, 333, 182, 348
-0.999713, 185, 357, 200, 372
-0.999714, 159, 349, 174, 364
-0.999714, 131, 301, 146, 316
-0.999715, 179, 345, 194, 360
-0.999715, 251, 279, 266, 294
-0.999718, 113, 291, 128, 306
-0.999723, 215, 283, 230, 298
-0.999724, 177, 331, 192, 346
-0.999727, 243, 281, 258, 296
-0.99973, 125, 295, 140, 310
-0.999731, 165, 267, 180, 282
-0.999731, 137, 283, 152, 298
-0.999732, 131, 307, 146, 322
-0.999734, 245, 291, 260, 306
-0.999741, 115, 299, 130, 314
-0.999741, 123, 307, 138, 322
-0.999743, 157, 209, 172, 224
-0.999743, 251, 289, 266, 304
-0.999745, 195, 279, 210, 294
-0.999745, 75, 327, 90, 342
-0.999747, 127, 313, 142, 328
-0.999747, 229, 273, 244, 288
-0.99975, 133, 313, 148, 328
-0.99975, 149, 235, 164, 250
-0.999752, 189, 325, 204, 340
-0.99976, 91, 391, 106, 406
-0.999764, 181, 197, 196, 212
-0.999767, 103, 311, 118, 326
-0.999771, 121, 301, 136, 316
-0.999774, 195, 303, 210, 318
-0.999774, 115, 307, 130, 322
-0.999789, 167, 201, 182, 216
-0.99979, 157, 203, 172, 218
-1.00099, 1, 433, 128, 496
-1.00107, 1, 433, 333, 496
