1959
-0.346431, 257, 1, 500, 375
-0.37133, 1, 1, 500, 375
-0.386174, 1, 129, 500, 375
-0.401756, 97, 1, 352, 375
-0.426938, 1, 33, 500, 288
-0.543389, 257, 129, 500, 375
-0.574967, 257, 33, 500, 288
-0.589795, 129, 33, 384, 288
-0.609073, 1, 1, 256, 375
-0.630212, 161, 129, 416, 375
-0.676618, 65, 129, 320, 375
-0.797916, 33, 1, 288, 256
-0.842394, 369, 1, 496, 375
-0.849874, 193, 1, 320, 375
-0.852427, 289, 97, 416, 352
-0.855907, 193, 1, 320, 256
-0.861653, 1, 241, 500, 368
-0.863168, 369, 129, 496, 375
-0.871686, 369, 33, 496, 288
-0.87689, 289, 1, 416, 375
-0.878894, 193, 97, 320, 352
-0.883274, 129, 129, 256, 375
-0.893863, 129, 1, 256, 375
-0.897623, 257, 129, 500, 256
-0.89817, 1, 177, 500, 304
-0.901227, 257, 177, 500, 304
-0.901236, 145, 1, 272, 256
-0.90467, 1, 97, 500, 224
-0.904727, 33, 241, 288, 368
-0.908144, 257, 49, 500, 176
-0.908197, 289, 1, 416, 256
-0.908459, 193, 225, 448, 352
-0.911471, 1, 33, 500, 160
-0.912459, 129, 177, 384, 304
-0.916843, 241, 1, 368, 256
-0.917686, 49, 129, 176, 375
-0.918101, 129, 129, 384, 256
-0.918447, 1, 1, 128, 375
-0.91945, 1, 65, 128, 320
-0.919706, 241, 129, 368, 375
-0.920276, 49, 1, 176, 375
-0.926234, 129, 81, 384, 208
-0.928991, 97, 1, 224, 256
-0.929219, 129, 1, 384, 128
-0.929246, 241, 1, 368, 375
-0.930014, 369, 161, 496, 288
-0.935006, 33, 193, 288, 320
-0.937335, 233, 241, 296, 368
-0.938124, 289, 113, 416, 240
-0.938868, 49, 1, 176, 256
-0.940523, 177, 1, 304, 128
-0.94167, 369, 65, 496, 192
-0.941781, 209, 81, 336, 208
-0.943747, 369, 161, 432, 288
-0.943836, 369, 113, 496, 240
-0.945266, 33, 49, 288, 176
-0.945644, 289, 161, 416, 288
-0.946064, 369, 209, 496, 336
-0.946519, 129, 241, 256, 368
-0.946824, 201, 241, 264, 368
-0.949158, 289, 65, 416, 192
-0.949609, 193, 161, 320, 288
-0.950108, 209, 241, 336, 368
-0.950855, 137, 161, 200, 288
-0.95123, 33, 1, 288, 128
-0.9518, 177, 1, 240, 128
-0.95183, 57, 305, 120, 368
-0.952148, 225, 1, 288, 128
-0.952218, 145, 241, 208, 368
-0.952353, 369, 209, 432, 336
-0.952693, 249, 81, 312, 208
-0.952713, 257, 1, 500, 128
-0.953074, 177, 225, 240, 352
-0.955091, 369, 65, 432, 192
-0.955836, 409, 193, 472, 320
-0.956223, 161, 81, 288, 208
-0.957171, 273, 225, 400, 352
-0.95822, 393, 129, 456, 256
-0.958371, 33, 145, 288, 272
-0.958521, 225, 49, 288, 176
-0.959022, 185, 49, 248, 176
-0.959384, 137, 161, 200, 224
-0.960032, 217, 313, 280, 375
-0.960509, 129, 1, 256, 128
-0.960838, 41, 281, 104, 344
-0.960844, 249, 161, 312, 288
-0.96101, 161, 161, 224, 288
-0.961016, 225, 17, 352, 144
-0.961194, 249, 17, 312, 144
-0.96141, 145, 193, 272, 320
-0.96193, 361, 265, 424, 328
-0.961945, 393, 33, 456, 160
-0.962149, 377, 185, 440, 248
-0.962285, 49, 209, 176, 336
-0.962829, 369, 113, 432, 240
-0.96303, 161, 81, 224, 208
-0.963051, 433, 193, 496, 320
-0.96316, 137, 81, 200, 208
-0.963235, 201, 1, 264, 128
-0.964, 121, 313, 184, 375
-0.964499, 369, 17, 496, 144
-0.964788, 33, 97, 288, 224
-0.964876, 33, 305, 96, 368
-0.965145, 369, 161, 432, 224
-0.965155, 9, 297, 72, 360
-0.965581, 129, 145, 256, 272
-0.965971, 249, 161, 312, 224
-0.966062, 257, 225, 320, 352
-0.966121, 425, 129, 488, 256
-0.966167, 337, 241, 400, 368
-0.966533, 233, 289, 296, 352
-0.966561, 153, 225, 216, 288
-0.966825, 345, 129, 408, 256
-0.966833, 401, 185, 464, 248
-0.967582, 289, 1, 416, 128
-0.967931, 273, 33, 336, 160
-0.967945, 425, 65, 488, 192
-0.968309, 41, 241, 104, 368
-0.968379, 361, 297, 424, 360
-0.968865, 113, 49, 240, 176
-0.968916, 1, 145, 128, 272
-0.969027, 321, 209, 448, 336
-0.969186, 193, 305, 256, 368
-0.969187, 161, 313, 224, 375
-0.969224, 257, 33, 320, 96
-0.969449, 369, 57, 432, 120
-0.969498, 201, 97, 264, 224
-0.96951, 161, 129, 224, 192
-0.969592, 249, 105, 312, 168
-0.969715, 9, 177, 72, 304
-0.970157, 369, 209, 432, 272
-0.970299, 369, 97, 432, 160
-0.97042, 225, 193, 288, 320
-0.971292, 409, 209, 472, 272
-0.971325, 369, 185, 496, 248
-0.971345, 169, 33, 232, 96
-0.971359, 377, 65, 408, 192
-0.971369, 185, 177, 248, 304
-0.971724, 385, 265, 448, 328
-0.972, 377, 161, 408, 288
-0.972027, 409, 241, 472, 368
-0.972162, 113, 161, 176, 288
-0.972198, 161, 161, 224, 224
-0.97222, 385, 113, 416, 240
-0.972278, 1, 193, 128, 320
-0.972323, 1, 65, 64, 192
-0.97238, 369, 209, 496, 272
-0.97246, 329, 281, 392, 344
-0.973084, 137, 33, 200, 160
-0.973282, 81, 305, 144, 368
-0.973293, 205, 313, 236, 375
-0.973505, 241, 177, 368, 304
-0.973512, 193, 145, 256, 208
-0.973611, 121, 225, 184, 352
-0.973674, 361, 241, 424, 304
-0.973783, 425, 185, 488, 248
-0.973787, 337, 305, 400, 368
-0.97387, 137, 137, 200, 200
-0.973941, 369, 121, 432, 184
-0.973951, 345, 177, 408, 240
-0.974011, 1, 81, 128, 208
-0.974063, 377, 73, 408, 136
-0.974136, 185, 233, 248, 296
-0.974387, 145, 313, 272, 375
-0.974416, 1, 129, 64, 256
-0.974617, 369, 129, 496, 192
-0.974941, 393, 81, 456, 208
-0.97498, 345, 145, 408, 208
-0.975048, 225, 97, 288, 224
-0.975205, 153, 105, 216, 168
-0.975469, 193, 65, 256, 128
-0.9755, 205, 241, 236, 368
-0.975574, 209, 161, 336, 224
-0.975679, 153, 249, 216, 312
-0.975711, 33, 297, 160, 360
-0.975733, 49, 289, 80, 352
-0.975755, 225, 225, 256, 352
-0.975762, 185, 121, 248, 184
-0.975771, 249, 241, 280, 368
-0.975846, 369, 105, 496, 168
-0.975848, 1, 225, 64, 352
-0.975891, 233, 265, 296, 328
-0.975902, 153, 129, 216, 375
-0.975954, 417, 265, 480, 328
-0.976009, 145, 201, 208, 264
-0.976019, 201, 89, 264, 152
-0.976026, 241, 129, 368, 256
-0.976121, 129, 233, 192, 296
-0.976221, 289, 177, 416, 240
-0.976421, 289, 121, 416, 184
-0.976464, 289, 49, 352, 112
-0.976676, 1, 241, 128, 368
-0.976693, 249, 233, 312, 296
-0.976939, 377, 193, 408, 256
-0.977234, 345, 65, 408, 192
-0.977329, 1, 193, 64, 256
-0.977385, 281, 81, 344, 208
-0.977437, 249, 137, 312, 200
-0.977495, 353, 257, 480, 320
-0.977548, 353, 281, 480, 344
-0.977552, 141, 313, 172, 375
-0.977614, 401, 289, 464, 352
-0.977675, 289, 65, 416, 128
-0.977777, 289, 153, 416, 216
-0.977871, 281, 145, 344, 208
-0.977904, 369, 161, 496, 224
-0.977911, 401, 129, 464, 192
-0.978186, 233, 9, 296, 72
-0.978257, 393, 57, 456, 120
-0.978433, 257, 305, 320, 368
-0.978448, 241, 65, 304, 128
-0.978504, 345, 57, 408, 120
-0.978539, 225, 161, 288, 224
-0.978565, 441, 209, 472, 336
-0.978584, 257, 1, 288, 128
-0.978618, 209, 257, 272, 320
-0.978638, 377, 153, 408, 216
-0.978642, 49, 161, 176, 288
-0.978691, 261, 241, 292, 368
-0.978711, 9, 257, 72, 320
-0.978779, 397, 177, 428, 240
-0.97879, 81, 313, 208, 375
-0.978803, 249, 1, 312, 256
-0.978823, 453, 209, 484, 336
-0.978895, 177, 9, 304, 72
-0.97892, 289, 225, 416, 288
-0.978926, 273, 81, 304, 208
-0.979044, 345, 193, 408, 320
-0.979086, 425, 17, 488, 144
-0.979143, 129, 313, 160, 375
-0.979181, 97, 193, 224, 320
-0.979319, 209, 105, 336, 168
-0.979379, 221, 313, 252, 375
-0.979419, 289, 201, 416, 264
-0.979423, 345, 89, 408, 152
-0.979432, 369, 81, 496, 144
-0.979485, 249, 185, 312, 248
-0.979485, 257, 265, 320, 328
-0.979549, 209, 41, 336, 104
-0.979563, 369, 57, 496, 120
-0.979657, 337, 257, 400, 320
-0.979839, 425, 161, 488, 224
-0.979856, 241, 313, 368, 375
-0.979871, 433, 225, 496, 288
-0.9799, 377, 209, 408, 336
-0.979901, 237, 225, 268, 352
-0.979938, 389, 49, 420, 176
-0.979945, 369, 233, 496, 296
-0.980064, 157, 217, 188, 280
-0.980116, 401, 33, 464, 288
-0.980307, 337, 305, 464, 368
-0.980345, 377, 33, 440, 288
-0.980358, 401, 153, 464, 216
-0.980385, 377, 121, 408, 184
-0.980393, 373, 113, 404, 240
-0.980409, 377, 257, 408, 320
-0.980477, 225, 105, 288, 168
-0.98053, 193, 249, 320, 312
-0.980598, 281, 209, 344, 336
-0.980657, 113, 97, 240, 224
-0.980699, 329, 113, 392, 176
-0.980724, 369, 1, 432, 375
-0.980759, 113, 161, 176, 224
-0.980776, 289, 97, 416, 160
-0.980921, 241, 313, 272, 375
-0.980934, 145, 105, 272, 168
-0.980993, 217, 57, 280, 120
-0.980998, 209, 129, 336, 192
-0.981111, 209, 1, 240, 128
-0.981122, 189, 225, 220, 352
-0.981138, 1, 217, 64, 280
-0.98118, 389, 161, 420, 288
-0.981197, 273, 241, 304, 368
-0.981353, 369, 129, 432, 375
-0.981364, 209, 65, 336, 128
-0.981368, 369, 17, 432, 144
-0.981373, 365, 305, 396, 368
-0.981398, 157, 145, 188, 208
-0.981407, 141, 161, 172, 288
-0.981506, 1, 169, 64, 232
-0.981509, 145, 225, 272, 288
-0.981523, 141, 233, 172, 296
-0.981534, 389, 153, 420, 216
-0.981534, 169, 65, 232, 128
-0.981546, 401, 233, 464, 296
-0.981582, 65, 281, 128, 344
-0.981668, 49, 17, 176, 144
-0.9818, 289, 249, 416, 312
-0.981845, 153, 305, 184, 368
-0.982016, 169, 9, 232, 72
-0.982018, 189, 233, 220, 296
-0.982021, 249, 129, 312, 375
-0.982025, 89, 281, 152, 344
-0.982094, 425, 113, 488, 176
-0.982106, 193, 41, 256, 104
-0.982108, 161, 161, 288, 224
-0.98213, 289, 161, 352, 288
-0.982137, 145, 33, 208, 96
-0.98221, 57, 257, 120, 320
-0.982225, 441, 217, 472, 280
-0.982235, 177, 89, 240, 152
-0.982268, 405, 65, 436, 192
-0.982298, 345, 201, 408, 264
-0.982377, 177, 313, 208, 375
-0.982382, 433, 241, 496, 368
-0.982385, 377, 225, 408, 288
-0.982395, 49, 313, 80, 375
-0.982405, 377, 49, 408, 112
-0.982525, 65, 241, 128, 368
-0.982554, 409, 177, 440, 240
-0.982591, 121, 209, 184, 272
-0.982616, 129, 129, 192, 375
-0.982659, 177, 241, 208, 368
-0.982708, 373, 97, 404, 160
-0.982737, 381, 297, 412, 360
-0.982741, 37, 305, 68, 368
-0.982749, 389, 121, 420, 184
-0.982843, 209, 217, 336, 280
-0.982845, 1, 145, 64, 208
-0.982851, 121, 185, 184, 248
-0.982938, 169, 185, 232, 248
-0.983036, 209, 185, 336, 248
-0.98304, 425, 65, 488, 320
-0.983042, 185, 209, 248, 272
-0.983061, 329, 97, 392, 352
-0.983114, 393, 265, 424, 328
-0.98313, 177, 289, 304, 352
-0.98313, 289, 185, 352, 248
-0.983133, 149, 225, 180, 352
-0.983158, 141, 161, 172, 224
-0.983188, 113, 129, 176, 192
-0.983191, 281, 225, 344, 288
-0.983216, 453, 161, 484, 288
-0.983225, 273, 41, 400, 104
-0.983271, 193, 281, 256, 344
-0.983275, 189, 305, 220, 368
-0.983459, 233, 1, 296, 375
-0.983511, 225, 1, 288, 256
-0.983619, 177, 129, 208, 192
-0.983621, 217, 49, 248, 176
-0.983644, 113, 81, 176, 208
-0.983677, 389, 89, 420, 152
-0.983699, 393, 1, 456, 375
-0.98372, 53, 241, 84, 368
-0.983723, 453, 209, 484, 272
-0.983726, 145, 249, 272, 312
-0.983742, 369, 281, 400, 344
-0.983787, 113, 145, 240, 208
-0.983791, 225, 129, 288, 192
-0.983898, 269, 1, 300, 128
-0.983915, 177, 257, 240, 320
-0.983923, 293, 41, 324, 104
-0.983933, 1, 97, 64, 160
-0.983958, 281, 89, 344, 152
-0.983983, 285, 145, 316, 208
-0.98399, 433, 185, 464, 248
-0.984048, 209, 233, 272, 296
-0.984199, 249, 209, 312, 272
-0.984344, 417, 49, 480, 112
-0.984376, 157, 145, 188, 272
-0.984399, 225, 289, 352, 352
-0.984407, 449, 249, 480, 312
-0.984445, 465, 209, 496, 336
-0.984503, 169, 1, 232, 256
-0.984509, 161, 241, 192, 368
-0.984522, 433, 161, 464, 288
-0.984576, 137, 81, 200, 144
-0.984579, 61, 313, 92, 375
-0.98463, 261, 81, 292, 208
-0.984692, 129, 289, 192, 352
-0.984721, 177, 81, 208, 208
-0.984832, 145, 33, 208, 288
-0.984941, 61, 289, 92, 352
-0.984962, 389, 57, 420, 120
-0.984985, 273, 169, 304, 232
-0.984999, 397, 113, 428, 240
-0.985004, 97, 249, 224, 312
-0.985019, 273, 273, 400, 336
-0.98502, 229, 1, 260, 128
-0.985034, 289, 121, 352, 184
-0.985074, 245, 1, 276, 128
-0.985198, 417, 89, 480, 152
-0.985201, 365, 241, 396, 368
-0.985219, 329, 233, 392, 296
-0.985227, 193, 1, 224, 128
-0.985263, 97, 225, 160, 352
-0.985271, 77, 313, 108, 375
-0.985277, 277, 33, 308, 96
-0.985314, 193, 313, 320, 375
-0.985393, 265, 297, 296, 360
-0.985403, 313, 313, 376, 375
-0.985497, 145, 49, 272, 112
-0.985514, 429, 49, 460, 176
-0.985526, 1, 121, 64, 184
-0.985611, 389, 201, 420, 264
-0.985614, 161, 129, 288, 192
-0.985656, 145, 137, 176, 200
-0.985686, 425, 1, 488, 375
-0.985701, 201, 9, 264, 72
-0.985722, 177, 129, 240, 375
-0.985729, 425, 137, 488, 200
-0.985739, 1, 193, 128, 256
-0.985812, 97, 33, 224, 96
-0.985882, 165, 305, 196, 368
-0.98594, 121, 33, 184, 96
-0.986015, 289, 305, 416, 368
-0.986019, 193, 145, 224, 208
-0.986023, 217, 289, 248, 352
-0.986043, 49, 233, 176, 296
-0.986087, 33, 257, 96, 320
-0.986127, 261, 161, 292, 224
-0.986137, 393, 89, 456, 152
-0.986143, 449, 185, 480, 248
-0.986176, 117, 313, 148, 375
-0.986257, 129, 289, 256, 352
-0.986326, 465, 225, 496, 288
-0.986397, 65, 1, 128, 128
-0.986429, 157, 81, 188, 208
-0.986493, 421, 177, 452, 240
-0.986526, 1, 145, 128, 208
-0.98653, 193, 169, 256, 232
-0.986535, 205, 289, 236, 352
-0.986582, 77, 289, 108, 352
-0.986597, 169, 217, 200, 280
-0.986597, 57, 265, 88, 328
-0.986613, 405, 257, 436, 320
-0.98665, 193, 1, 256, 256
-0.98669, 193, 1, 256, 375
-0.986721, 393, 129, 456, 375
-0.986723, 417, 33, 448, 160
-0.98674, 141, 113, 172, 240
-0.98674, 29, 241, 60, 368
-0.986778, 437, 273, 468, 336
-0.986795, 169, 289, 232, 352
-0.986833, 89, 305, 120, 368
-0.986898, 97, 193, 224, 256
-0.986974, 197, 121, 228, 184
-0.987005, 365, 121, 396, 184
-0.987022, 273, 145, 304, 208
-0.987095, 229, 49, 260, 176
-0.98715, 233, 289, 264, 352
-0.987156, 225, 17, 352, 80
-0.987157, 297, 33, 360, 160
-0.987204, 365, 65, 396, 192
-0.98731, 129, 257, 192, 320
-0.987322, 281, 249, 344, 312
-0.98741, 273, 105, 304, 168
-0.987458, 161, 1, 224, 375
-0.987522, 189, 161, 220, 288
-0.987529, 233, 33, 296, 96
-0.987542, 169, 153, 200, 216
-0.98755, 137, 225, 168, 352
-0.987597, 249, 289, 280, 352
-0.987604, 205, 65, 236, 192
-0.987608, 209, 57, 240, 120
-0.987619, 285, 65, 316, 192
-0.987645, 101, 305, 132, 368
-0.987687, 225, 145, 288, 272
-0.987727, 389, 209, 420, 336
-0.987757, 209, 193, 240, 320
-0.987769, 353, 33, 416, 288
-0.987788, 221, 249, 252, 312
-0.987798, 253, 313, 284, 375
-0.987905, 177, 161, 208, 288
-0.988011, 273, 161, 304, 288
-0.988038, 257, 185, 500, 248
-0.988112, 445, 33, 476, 160
-0.988178, 425, 297, 488, 360
-0.988189, 257, 145, 500, 208
-0.988218, 369, 33, 496, 96
-0.988221, 173, 105, 204, 168
-0.988278, 201, 129, 264, 375
-0.988308, 433, 25, 496, 88
-0.988323, 449, 113, 480, 240
-0.988343, 241, 81, 272, 208
-0.988347, 49, 273, 176, 336
-0.988352, 241, 241, 368, 304
-0.988358, 113, 73, 240, 136
-0.988381, 193, 49, 224, 176
-0.988407, 49, 113, 176, 240
-0.988571, 265, 65, 328, 128
-0.988584, 361, 89, 392, 152
-0.98863, 201, 33, 232, 96
-0.988667, 225, 129, 288, 375
-0.988667, 1, 121, 128, 184
-0.988694, 153, 249, 184, 312
-0.9887, 285, 225, 316, 352
-0.988703, 9, 129, 72, 375
-0.988726, 49, 169, 176, 232
-0.988776, 1, 257, 128, 320
-0.988824, 205, 217, 236, 280
-0.988855, 113, 169, 240, 232
-0.988895, 89, 1, 152, 128
-0.988917, 249, 169, 312, 200
-0.988944, 409, 113, 440, 240
-0.988955, 185, 105, 216, 168
-0.988967, 429, 113, 460, 240
-0.988978, 161, 193, 192, 320
-0.989021, 253, 265, 284, 328
-0.989085, 121, 329, 184, 360
-0.989106, 221, 89, 252, 152
-0.989113, 181, 161, 212, 224
-0.989116, 217, 321, 280, 352
-0.989116, 157, 121, 188, 184
-0.989116, 253, 193, 284, 320
-0.989123, 41, 297, 104, 328
-0.98915, 417, 257, 448, 320
-0.989167, 137, 157, 200, 188
-0.989186, 25, 225, 88, 288
-0.989194, 289, 97, 352, 352
-0.989206, 121, 341, 184, 372
-0.989214, 401, 201, 432, 264
-0.989247, 293, 17, 324, 144
-0.989299, 137, 209, 168, 272
-0.989354, 121, 1, 184, 256
-0.989408, 49, 209, 176, 272
-0.989417, 257, 217, 500, 280
-0.989424, 129, 9, 256, 72
-0.989444, 365, 257, 396, 320
-0.989471, 45, 265, 76, 328
-0.989501, 417, 281, 448, 344
-0.989501, 217, 341, 280, 372
-0.989509, 25, 65, 88, 192
-0.989513, 137, 169, 200, 200
-0.989515, 241, 161, 272, 224
-0.989575, 161, 329, 224, 360
-0.989676, 1, 193, 32, 320
-0.989687, 193, 265, 448, 328
-0.989695, 33, 177, 96, 304
-0.989696, 33, 309, 96, 340
-0.989696, 369, 141, 432, 172
-0.989699, 193, 241, 448, 304
-0.989707, 1, 169, 128, 232
-0.989716, 345, 17, 408, 144
-0.989721, 57, 321, 120, 352
-0.989747, 1, 33, 128, 160
-0.989753, 221, 49, 252, 112
-0.989753, 241, 257, 272, 320
-0.989769, 161, 73, 288, 136
-0.989776, 405, 281, 436, 344
-0.989825, 81, 333, 144, 364
-0.989827, 49, 65, 176, 192
-0.989835, 361, 113, 392, 240
-0.989847, 409, 241, 440, 368
-0.989854, 9, 65, 40, 192
-0.989863, 365, 57, 396, 120
-0.989872, 1, 217, 128, 280
-0.989882, 257, 1, 320, 375
-0.9899, 281, 273, 344, 336
-0.989931, 345, 1, 408, 375
-0.989942, 173, 241, 204, 304
-0.989949, 385, 33, 448, 96
-0.989966, 449, 161, 480, 224
-0.989978, 257, 105, 500, 168
-0.990012, 129, 209, 384, 272
-0.990046, 161, 185, 288, 248
-0.990049, 97, 185, 160, 248
-0.990051, 257, 9, 288, 72
-0.990058, 369, 257, 432, 288
-0.990071, 369, 213, 432, 244
-0.990077, 129, 185, 384, 248
-0.99008, 377, 17, 408, 144
-0.990086, 193, 329, 256, 360
-0.990088, 273, 1, 336, 256
-0.990097, 97, 217, 224, 280
-0.990125, 405, 161, 436, 288
-0.990149, 229, 161, 260, 224
-0.990167, 149, 193, 180, 256
-0.990198, 429, 209, 460, 336
-0.990205, 365, 185, 396, 248
-0.990221, 377, 189, 440, 220
-0.990229, 161, 341, 224, 372
-0.990231, 265, 257, 296, 320
-0.990254, 217, 97, 248, 224
-0.990259, 217, 185, 280, 248
-0.990264, 273, 9, 336, 72
-0.990271, 277, 265, 308, 328
-0.99028, 369, 285, 432, 316
-0.990289, 401, 213, 464, 244
-0.990292, 229, 177, 260, 304
-0.990369, 361, 153, 424, 184
-0.990403, 121, 9, 184, 72
-0.990413, 369, 269, 432, 300
-0.99042, 365, 193, 396, 320
-0.990441, 173, 33, 204, 96
-0.990466, 173, 193, 204, 256
-0.990468, 365, 153, 396, 216
-0.990472, 449, 297, 480, 360
-0.990485, 417, 201, 480, 232
-0.99051, 161, 313, 416, 375
-0.990515, 225, 169, 288, 200
-0.990528, 321, 41, 384, 104
-0.990549, 9, 317, 72, 348
-0.990557, 369, 97, 432, 128
-0.990583, 369, 225, 432, 256
-0.990584, 153, 241, 216, 272
-0.990592, 389, 225, 420, 288
-0.990592, 129, 317, 192, 348
-0.990614, 257, 157, 320, 188
-0.990624, 285, 113, 316, 240
-0.990641, 41, 333, 104, 364
-0.99065, 241, 301, 304, 332
-0.990698, 129, 161, 160, 288
-0.990729, 405, 17, 436, 144
-0.990732, 241, 289, 304, 320
-0.990745, 157, 41, 188, 104
-0.990748, 433, 161, 464, 224
-0.990768, 241, 333, 304, 364
-0.990773, 377, 297, 440, 328
-0.990796, 401, 181, 464, 212
-0.990801, 257, 65, 500, 128
-0.990822, 185, 169, 248, 200
-0.990834, 57, 309, 120, 340
-0.990834, 321, 345, 384, 375
-0.990836, 249, 113, 312, 144
-0.990845, 1, 305, 500, 368
-0.990862, 201, 309, 264, 340
-0.990882, 201, 53, 264, 84
-0.990891, 297, 65, 328, 128
-0.990906, 33, 129, 96, 256
-0.990921, 69, 241, 100, 368
-0.99093, 425, 217, 488, 248
-0.990937, 189, 41, 220, 104
-0.990937, 205, 257, 236, 320
-0.990941, 137, 1, 200, 375
-0.990973, 209, 121, 240, 184
-0.990975, 433, 137, 464, 200
-0.990985, 369, 201, 432, 232
-0.99102, 217, 261, 280, 292
-0.99103, 17, 297, 80, 328
-0.991044, 129, 105, 384, 168
-0.991044, 129, 161, 384, 224
-0.991049, 129, 129, 384, 192
-0.991057, 161, 317, 224, 348
-0.991069, 197, 89, 228, 152
-0.991075, 241, 313, 304, 344
-0.991106, 293, 241, 324, 304
-0.991134, 369, 177, 432, 208
-0.991136, 345, 213, 408, 244
-0.991138, 161, 149, 224, 180
-0.99115, 249, 261, 312, 292
-0.991164, 233, 49, 264, 112
-0.991169, 33, 249, 288, 312
-0.991176, 345, 341, 408, 372
-0.991182, 393, 141, 456, 172
-0.991202, 169, 45, 232, 76
-0.991205, 1, 97, 128, 160
-0.991216, 401, 269, 464, 300
-0.991216, 337, 317, 400, 348
-0.991218, 249, 249, 312, 280
-0.99122, 81, 345, 144, 375
-0.991229, 261, 105, 292, 168
-0.991229, 129, 41, 384, 104
-0.991231, 129, 241, 160, 304
-0.991255, 449, 105, 480, 168
-0.99126, 205, 145, 236, 208
-0.991261, 81, 313, 144, 344
-0.991264, 193, 105, 256, 136
-0.991265, 145, 225, 208, 256
-0.991279, 321, 97, 384, 224
-0.991283, 217, 289, 280, 320
-0.991315, 161, 109, 224, 140
-0.991337, 137, 181, 200, 212
-0.991346, 401, 285, 464, 316
-0.991352, 273, 53, 336, 84
-0.991352, 97, 121, 224, 184
-0.991362, 193, 261, 256, 292
-0.991367, 9, 145, 40, 272
-0.99137, 369, 129, 432, 160
-0.991371, 285, 177, 316, 304
-0.991378, 369, 61, 432, 92
-0.991383, 401, 153, 464, 184
-0.991386, 305, 41, 336, 104
-0.991398, 449, 41, 480, 104
-0.991423, 225, 61, 288, 92
-0.991439, 41, 225, 72, 352
-0.991449, 161, 161, 224, 192
-0.991451, 177, 61, 240, 92
-0.991451, 57, 285, 120, 316
-0.991456, 345, 281, 408, 312
-0.991464, 249, 125, 312, 156
-0.991493, 121, 245, 184, 276
-0.991529, 1, 249, 500, 312
-0.991549, 193, 341, 256, 372
-0.991562, 153, 253, 216, 284
-0.991565, 265, 321, 328, 352
-0.991587, 369, 85, 432, 116
-0.991592, 145, 121, 208, 152
-0.991595, 185, 157, 248, 188
-0.991607, 345, 89, 408, 120
-0.991609, 145, 33, 208, 64
-0.991612, 449, 273, 480, 336
-0.991613, 425, 133, 488, 164
-0.991623, 361, 329, 424, 360
-0.991645, 337, 329, 400, 360
-0.991669, 273, 169, 336, 200
-0.991684, 185, 249, 248, 280
-0.991695, 233, 105, 264, 168
-0.991697, 249, 181, 312, 212
-0.9917, 137, 105, 200, 136
-0.99171, 153, 137, 216, 168
-0.991712, 249, 73, 312, 104
-0.991715, 17, 329, 80, 360
-0.991724, 345, 141, 408, 172
-0.991726, 185, 125, 248, 156
-0.991731, 193, 93, 256, 124
-0.991737, 201, 65, 264, 96
-0.991738, 225, 105, 288, 136
-0.991738, 393, 201, 456, 232
-0.991759, 249, 141, 312, 172
-0.991784, 433, 113, 464, 176
-0.991786, 369, 109, 432, 140
-0.991794, 345, 201, 408, 232
-0.991811, 113, 153, 176, 184
-0.991829, 161, 173, 224, 204
-0.991835, 361, 165, 424, 196
-0.991843, 425, 185, 488, 216
-0.991854, 353, 301, 416, 332
-0.991868, 281, 65, 344, 96
-0.991868, 257, 137, 288, 200
-0.991878, 113, 173, 176, 204
-0.991886, 265, 41, 328, 72
-0.9919, 401, 169, 464, 200
-0.991915, 281, 17, 312, 144
-0.99192, 225, 157, 288, 188
-0.991936, 185, 233, 248, 264
-0.99194, 233, 13, 296, 44
-0.991971, 281, 157, 344, 188
-0.991973, 401, 257, 464, 288
-0.991973, 1, 1, 64, 375
-0.991973, 369, 317, 432, 348
-0.991988, 249, 101, 312, 132
-0.991999, 221, 121, 252, 184
-0.992005, 249, 61, 312, 92
-0.99201, 1, 153, 64, 184
-0.99201, 345, 261, 408, 292
-0.992035, 65, 313, 320, 375
-0.992038, 193, 97, 224, 224
-0.992046, 273, 257, 336, 288
-0.992052, 425, 121, 488, 152
-0.992059, 1, 193, 64, 224
-0.992064, 1, 217, 64, 248
-0.992083, 105, 317, 168, 348
-0.992101, 1, 137, 64, 168
-0.992128, 113, 17, 176, 144
-0.992133, 205, 345, 236, 375
-0.992147, 189, 345, 220, 375
-0.992155, 125, 337, 156, 368
-0.992175, 257, 297, 500, 360
-0.992219, 105, 129, 168, 375
-0.992238, 65, 145, 192, 208
-0.992248, 245, 329, 276, 360
-0.992269, 161, 345, 192, 375
-0.992285, 57, 193, 120, 320
-0.992302, 385, 141, 416, 172
-0.992307, 177, 345, 208, 375
-0.992328, 161, 329, 192, 360
-0.992348, 217, 345, 248, 375
-0.992381, 149, 329, 180, 360
-0.992385, 377, 213, 408, 244
-0.992388, 141, 341, 172, 372
-0.992406, 321, 177, 384, 304
-0.992407, 377, 153, 408, 184
-0.99242, 129, 325, 160, 356
-0.992426, 129, 65, 384, 128
-0.992426, 205, 329, 236, 360
-0.992428, 49, 57, 176, 120
-0.992457, 49, 297, 80, 328
-0.992462, 113, 329, 144, 360
-0.992467, 229, 97, 260, 224
-0.992474, 145, 329, 272, 360
-0.992497, 229, 337, 260, 368
-0.992505, 261, 169, 292, 200
-0.992509, 189, 329, 220, 360
-0.992541, 141, 245, 172, 276
-0.992545, 1, 185, 500, 248
-0.992571, 177, 329, 208, 360
-0.992572, 377, 85, 408, 116
-0.992585, 277, 169, 308, 200
-0.992595, 389, 213, 420, 244
-0.992609, 377, 193, 408, 224
-0.992617, 217, 329, 248, 360
-0.992622, 233, 321, 264, 352
-0.992625, 161, 157, 192, 188
-0.992675, 181, 1, 212, 128
-0.992683, 377, 61, 408, 92
-0.992712, 141, 173, 172, 204
-0.992731, 49, 309, 80, 340
-0.992733, 245, 317, 276, 348
-0.992739, 389, 153, 420, 184
-0.992752, 377, 225, 408, 256
-0.99276, 241, 173, 272, 204
-0.992797, 377, 261, 408, 292
-0.992813, 61, 193, 92, 320
-0.992822, 377, 281, 408, 312
-0.992823, 449, 205, 480, 236
-0.992829, 449, 221, 480, 252
-0.992831, 373, 141, 404, 172
-0.992844, 113, 345, 144, 375
-0.992857, 273, 117, 304, 148
-0.992859, 145, 153, 176, 184
-0.992869, 217, 317, 248, 348
-0.992875, 37, 317, 68, 348
-0.992878, 389, 189, 420, 220
-0.992882, 61, 289, 92, 320
-0.992882, 269, 321, 300, 352
-0.992884, 193, 169, 224, 200
-0.992889, 377, 177, 408, 208
-0.992889, 189, 317, 220, 348
-0.99289, 181, 117, 212, 148
-0.992895, 381, 301, 412, 332
-0.992898, 401, 213, 432, 244
-0.992901, 365, 305, 396, 336
-0.992903, 433, 221, 464, 252
-0.992904, 469, 49, 500, 176
-0.992911, 81, 1, 208, 64
-0.992922, 233, 61, 264, 92
-0.992923, 297, 49, 328, 80
-0.992925, 265, 289, 296, 320
-0.992928, 265, 265, 296, 296
-0.992937, 245, 345, 276, 375
-0.992937, 229, 173, 260, 204
-0.99294, 393, 265, 424, 296
-0.992951, 373, 121, 404, 152
-0.992951, 53, 333, 84, 364
-0.992954, 53, 321, 84, 352
-0.992954, 161, 241, 192, 272
-0.992963, 397, 141, 428, 172
-0.992966, 381, 97, 412, 128
-0.992969, 217, 53, 248, 84
-0.992973, 277, 265, 308, 296
-0.992973, 33, 301, 64, 332
-0.99298, 141, 317, 172, 348
-0.992981, 373, 73, 404, 104
-0.992984, 433, 197, 464, 228
-0.992992, 173, 153, 204, 184
-0.992995, 173, 173, 204, 204
-0.992996, 405, 281, 436, 312
-0.993008, 249, 261, 280, 292
-0.993009, 205, 317, 236, 348
-0.993018, 1, 273, 500, 336
-0.993024, 373, 249, 404, 280
-0.993031, 225, 253, 256, 284
-0.993036, 365, 317, 396, 348
-0.993038, 257, 333, 288, 364
-0.993042, 449, 193, 480, 224
-0.993043, 421, 285, 452, 316
-0.993058, 217, 173, 248, 204
-0.993067, 433, 209, 464, 240
-0.993069, 365, 293, 396, 324
-0.993071, 69, 305, 100, 336
-0.993073, 237, 261, 268, 292
-0.993075, 457, 233, 488, 264
-0.993078, 257, 309, 288, 340
-0.993079, 249, 289, 280, 320
-0.993083, 273, 253, 304, 284
-0.993086, 97, 337, 128, 368
-0.993089, 285, 45, 316, 76
-0.993089, 161, 317, 192, 348
-0.993093, 389, 121, 420, 152
-0.993095, 433, 281, 464, 312
-0.993099, 193, 153, 224, 184
-0.993103, 413, 213, 444, 244
-0.993104, 165, 1, 196, 128
-0.993106, 149, 141, 180, 172
-0.993107, 141, 233, 172, 264
-0.993111, 377, 165, 408, 196
-0.993112, 389, 285, 420, 316
-0.993113, 9, 33, 72, 288
-0.993113, 77, 289, 108, 320
-0.993113, 201, 45, 232, 76
-0.993114, 205, 169, 236, 200
-0.993121, 373, 109, 404, 140
-0.993128, 285, 153, 316, 184
-0.993128, 173, 317, 204, 348
-0.993134, 229, 289, 260, 320
-0.993134, 157, 225, 188, 256
-0.993134, 365, 153, 396, 184
-0.993135, 433, 185, 464, 216
-0.993135, 365, 85, 396, 116
-0.993138, 157, 173, 188, 204
-0.993141, 205, 261, 236, 292
-0.993142, 241, 177, 272, 304
-0.993143, 273, 157, 304, 188
-0.993148, 257, 321, 288, 352
-0.993151, 365, 281, 396, 312
-0.993152, 389, 201, 420, 232
-0.993153, 449, 181, 480, 212
-0.993165, 285, 253, 316, 284
-0.993166, 89, 321, 120, 352
-0.993166, 229, 309, 260, 340
-0.993177, 173, 257, 204, 288
-0.993181, 81, 301, 112, 332
-0.99321, 33, 217, 288, 280
-0.993253, 129, 17, 384, 80
-0.993334, 49, 121, 176, 184
-0.993341, 273, 17, 400, 80
-0.993459, 305, 33, 336, 160
-0.993467, 1, 217, 500, 280
-0.993472, 81, 329, 208, 360
-0.993486, 289, 1, 352, 375
-0.993531, 465, 161, 496, 288
-0.993569, 65, 313, 80, 375
-0.993593, 41, 177, 72, 304
-0.9937, 201, 145, 232, 272
-0.993792, 57, 289, 72, 352
-0.993812, 465, 1, 496, 128
-0.993825, 65, 89, 192, 152
-0.993829, 369, 225, 496, 256
-0.993892, 145, 341, 272, 372
-0.993913, 399, 161, 414, 224
-0.993918, 65, 341, 192, 372
-0.993969, 33, 289, 288, 352
-0.993997, 145, 49, 176, 176
-0.994055, 369, 193, 496, 224
-0.994101, 257, 41, 500, 104
-0.99411, 321, 41, 448, 104
-0.994141, 393, 177, 408, 240
-0.99417, 429, 1, 460, 128
-0.994204, 1, 161, 500, 224
-0.994261, 209, 173, 336, 204
-0.994347, 145, 313, 160, 375
-0.994349, 257, 145, 288, 272
-0.994375, 211, 313, 226, 375
-0.994376, 33, 313, 160, 344
-0.994377, 385, 185, 400, 248
-0.994385, 369, 213, 496, 244
-0.994407, 393, 1, 424, 128
-0.994471, 33, 185, 288, 248
-0.994501, 379, 113, 394, 176
-0.994512, 289, 209, 416, 240
-0.994515, 63, 289, 78, 352
-0.994525, 125, 81, 156, 208
-0.994538, 219, 305, 234, 368
-0.994599, 353, 297, 480, 328
-0.994608, 227, 305, 242, 368
-0.994617, 237, 305, 252, 368
-0.994649, 13, 241, 44, 368
-0.994672, 225, 341, 352, 372
-0.994703, 257, 305, 272, 368
-0.994742, 57, 313, 72, 375
-0.994754, 289, 153, 416, 184
-0.994778, 273, 241, 400, 272
-0.99478, 73, 305, 88, 368
-0.994812, 289, 141, 416, 172
-0.994815, 51, 297, 66, 360
-0.994828, 455, 225, 470, 288
-0.994847, 247, 305, 262, 368
-0.994849, 161, 289, 416, 352
-0.994872, 33, 25, 160, 88
-0.994897, 93, 305, 108, 368
-0.994911, 369, 153, 496, 184
-0.994913, 33, 137, 288, 200
-0.994916, 389, 153, 404, 216
-0.994939, 381, 257, 396, 320
-0.994999, 289, 121, 416, 152
-0.995052, 85, 313, 100, 375
-0.995054, 125, 241, 156, 368
-0.995056, 369, 109, 496, 140
-0.995091, 79, 305, 94, 368
-0.995091, 289, 197, 416, 228
-0.995094, 379, 57, 394, 120
-0.995107, 375, 281, 390, 344
-0.995108, 209, 153, 336, 184
-0.995121, 289, 221, 416, 252
-0.995129, 383, 153, 398, 216
-0.995132, 369, 141, 496, 172
-0.995142, 49, 129, 112, 375
-0.995144, 353, 97, 480, 128
-0.995155, 177, 105, 304, 136
-0.995156, 455, 249, 470, 312
-0.995164, 379, 177, 394, 240
-0.995166, 113, 317, 240, 348
-0.995168, 369, 181, 496, 212
-0.995193, 399, 185, 414, 248
-0.9952, 131, 313, 146, 375
-0.995217, 73, 1, 136, 375
-0.995224, 97, 1, 160, 256
-0.995228, 193, 253, 320, 284
-0.995238, 391, 201, 406, 264
-0.995243, 157, 313, 172, 375
-0.995248, 369, 165, 496, 196
-0.995328, 385, 121, 400, 184
-0.995329, 113, 1, 176, 375
-0.995398, 377, 81, 392, 144
-0.995417, 151, 233, 166, 296
-0.995417, 371, 305, 386, 368
-0.995421, 209, 45, 336, 76
-0.995427, 17, 329, 144, 360
-0.995433, 177, 317, 304, 348
-0.995439, 289, 181, 416, 212
-0.995463, 389, 57, 404, 120
-0.995474, 177, 13, 304, 44
-0.995475, 445, 193, 460, 256
-0.99551, 33, 161, 288, 224
-0.995547, 205, 305, 220, 368
-0.99556, 33, 297, 160, 328
-0.995571, 267, 305, 282, 368
-0.995574, 353, 61, 480, 92
-0.995602, 369, 121, 496, 152
-0.995606, 405, 177, 420, 240
-0.995608, 385, 281, 400, 344
-0.995639, 379, 201, 394, 264
-0.99564, 145, 253, 272, 284
-0.995641, 169, 313, 184, 375
-0.99565, 399, 57, 414, 120
-0.995652, 353, 241, 384, 368
-0.995655, 225, 321, 352, 352
-0.995665, 93, 1, 124, 128
-0.995666, 353, 285, 480, 316
-0.995673, 85, 289, 100, 352
-0.99568, 289, 105, 416, 136
-0.995682, 257, 9, 500, 72
-0.995683, 161, 173, 288, 204
-0.995696, 161, 217, 176, 280
-0.995701, 25, 1, 88, 375
-0.995705, 209, 117, 336, 148
-0.995707, 353, 261, 480, 292
-0.995722, 305, 345, 432, 375
-0.995741, 449, 217, 464, 280
-0.995764, 1, 113, 16, 176
-0.99577, 353, 237, 480, 268
-0.995782, 209, 73, 336, 104
-0.995798, 395, 113, 410, 176
-0.995798, 265, 281, 280, 344
-0.9958, 193, 265, 320, 296
-0.995808, 143, 201, 158, 264
-0.99581, 33, 89, 288, 152
-0.995817, 197, 145, 212, 208
-0.995818, 289, 253, 416, 284
-0.995833, 145, 241, 272, 272
-0.995837, 395, 137, 410, 200
-0.995843, 275, 289, 290, 352
-0.995849, 321, 33, 384, 160
-0.995861, 1, 129, 500, 192
-0.995878, 297, 113, 328, 240
-0.995892, 209, 185, 336, 216
-0.995907, 69, 281, 84, 344
-0.995909, 379, 225, 394, 288
-0.995926, 151, 305, 166, 368
-0.995949, 383, 305, 398, 368
-0.995956, 193, 241, 320, 272
-0.995962, 143, 241, 158, 304
-0.995971, 413, 177, 428, 240
-0.995982, 209, 129, 336, 160
-0.996003, 139, 313, 154, 375
-0.996009, 451, 193, 466, 256
-0.996043, 209, 93, 336, 124
-0.996049, 389, 89, 404, 152
-0.99605, 405, 153, 420, 216
-0.996056, 161, 61, 288, 92
-0.996056, 383, 81, 398, 144
-0.996057, 129, 161, 256, 192
-0.996107, 145, 161, 160, 224
-0.996111, 289, 61, 416, 92
-0.996115, 183, 313, 198, 375
-0.996141, 393, 265, 408, 328
-0.996142, 289, 89, 416, 120
-0.996145, 271, 161, 286, 224
-0.99616, 149, 209, 164, 272
-0.996186, 1, 241, 32, 368
-0.996187, 337, 321, 464, 352
-0.996188, 209, 221, 336, 252
-0.996203, 301, 41, 316, 104
-0.996213, 189, 153, 204, 216
-0.99624, 289, 169, 416, 200
-0.996248, 353, 77, 480, 108
-0.996253, 395, 89, 410, 152
-0.996258, 353, 273, 480, 304
-0.996296, 255, 281, 270, 344
-0.996306, 1, 41, 500, 104
-0.996311, 1, 17, 64, 144
-0.996323, 167, 217, 182, 280
-0.996326, 33, 49, 288, 112
-0.996335, 433, 177, 448, 240
-0.996364, 1, 193, 16, 256
-0.996383, 321, 1, 384, 375
-0.996407, 163, 305, 178, 368
-0.996412, 295, 41, 310, 104
-0.99642, 353, 249, 480, 280
-0.996423, 197, 313, 212, 375
-0.996431, 329, 1, 392, 256
-0.996459, 177, 289, 304, 320
-0.996461, 385, 209, 400, 272
-0.996472, 403, 89, 418, 152
-0.99649, 129, 49, 256, 80
-0.996491, 45, 297, 60, 360
-0.996503, 209, 141, 336, 172
-0.996505, 187, 129, 202, 192
-0.99652, 377, 137, 392, 200
-0.99653, 387, 257, 402, 320
-0.996532, 177, 301, 304, 332
-0.996549, 91, 281, 106, 344
-0.996555, 297, 161, 312, 224
-0.996566, 63, 265, 78, 328
-0.996577, 177, 305, 192, 368
-0.996585, 137, 217, 152, 280
-0.99659, 465, 225, 480, 288
-0.996594, 153, 1, 184, 128
-0.996596, 167, 129, 182, 192
-0.996601, 173, 233, 188, 296
-0.996607, 89, 129, 152, 256
-0.996618, 113, 173, 240, 204
-0.996623, 145, 117, 272, 148
-0.996625, 187, 233, 202, 296
-0.996627, 337, 333, 464, 364
-0.996651, 419, 257, 434, 320
-0.996655, 417, 193, 448, 320
-0.996657, 421, 177, 436, 240
-0.996658, 259, 145, 274, 208
-0.996667, 243, 281, 258, 344
-0.996667, 211, 41, 226, 104
-0.996667, 265, 161, 280, 224
-0.99667, 297, 233, 312, 296
-0.996673, 191, 313, 206, 375
-0.996677, 457, 201, 472, 264
-0.99668, 193, 29, 320, 60
-0.996686, 353, 345, 480, 375
-0.99669, 357, 17, 388, 144
-0.996697, 213, 289, 228, 352
-0.996704, 217, 33, 232, 96
-0.996706, 129, 105, 256, 136
-0.996722, 273, 1, 304, 256
-0.996737, 193, 209, 320, 240
-0.996738, 289, 73, 416, 104
-0.996741, 457, 49, 488, 176
-0.996742, 445, 273, 460, 336
-0.99675, 321, 17, 448, 80
-0.996758, 233, 281, 248, 344
-0.996758, 377, 305, 392, 368
-0.996773, 195, 233, 210, 296
-0.996776, 205, 145, 220, 208
-0.996783, 439, 193, 454, 256
-0.996785, 403, 265, 418, 328
-0.996789, 177, 161, 192, 224
-0.996794, 257, 309, 384, 340
-0.996797, 287, 145, 302, 208
-0.996824, 1, 105, 500, 168
-0.99683, 151, 129, 166, 192
-0.996846, 285, 33, 300, 96
-0.996848, 271, 265, 286, 328
-0.996852, 391, 225, 406, 288
-0.996853, 33, 1, 160, 64
-0.996855, 273, 325, 400, 356
-0.996858, 427, 177, 442, 240
-0.99686, 225, 105, 352, 136
-0.996868, 57, 265, 72, 328
-0.996869, 307, 41, 322, 104
-0.996891, 113, 221, 240, 252
-0.996894, 221, 345, 236, 375
-0.996905, 377, 129, 408, 375
-0.996916, 137, 337, 152, 368
-0.996917, 421, 281, 436, 344
-0.996922, 371, 89, 386, 152
-0.996924, 177, 121, 192, 184
-0.996925, 5, 217, 20, 280
-0.996941, 279, 161, 294, 224
-0.996944, 131, 325, 146, 356
-0.996959, 237, 249, 252, 312
-0.996961, 453, 273, 468, 336
-0.996967, 113, 149, 240, 180
-0.996981, 391, 213, 406, 244
-0.997001, 97, 253, 224, 284
-0.997006, 381, 141, 396, 172
-0.997017, 241, 61, 368, 92
-0.997034, 235, 337, 250, 368
-0.997068, 353, 309, 480, 340
-0.997082, 247, 329, 262, 360
-0.99709, 49, 241, 176, 272
-0.997094, 169, 329, 184, 360
-0.997099, 57, 49, 120, 176
-0.997128, 129, 189, 256, 220
-0.997143, 65, 317, 80, 348
-0.997164, 33, 285, 160, 316
-0.997172, 147, 341, 162, 372
-0.99718, 145, 93, 272, 124
-0.997184, 113, 37, 240, 68
-0.997194, 1, 65, 500, 128
-0.997202, 49, 253, 176, 284
-0.997212, 389, 141, 404, 172
-0.997223, 241, 261, 368, 292
-0.997225, 255, 329, 270, 360
-0.997226, 261, 313, 276, 344
-0.997227, 289, 49, 416, 80
-0.997239, 51, 297, 66, 328
-0.997243, 157, 329, 172, 360
-0.997247, 183, 329, 198, 360
-0.997274, 261, 325, 276, 356
-0.997305, 145, 129, 272, 160
-0.997331, 33, 1, 288, 64
-0.997332, 1, 113, 256, 176
-0.997339, 389, 33, 420, 288
-0.997339, 1, 205, 128, 236
-0.997351, 257, 297, 384, 328
-0.997363, 81, 57, 208, 88
-0.997365, 55, 321, 70, 352
-0.997367, 251, 313, 266, 344
-0.997369, 159, 341, 174, 372
-0.99737, 229, 333, 244, 364
-0.997375, 313, 241, 376, 368
-0.997378, 381, 193, 396, 224
-0.997387, 1, 153, 128, 184
-0.997391, 141, 1, 172, 128
-0.997392, 131, 337, 146, 368
-0.997399, 197, 329, 212, 360
-0.9974, 305, 285, 432, 316
-0.997405, 377, 33, 408, 288
-0.997409, 153, 341, 168, 372
-0.997409, 379, 77, 394, 108
-0.997437, 91, 297, 106, 328
-0.997453, 205, 345, 220, 375
-0.99747, 279, 169, 294, 200
-0.997472, 395, 141, 410, 172
-0.997485, 383, 153, 398, 184
-0.997496, 209, 197, 336, 228
-0.997498, 1, 133, 128, 164
-0.997505, 1, 341, 128, 372
-0.997505, 173, 341, 188, 372
-0.997506, 113, 17, 240, 48
-0.99751, 121, 329, 136, 360
-0.997516, 191, 345, 206, 375
-0.997521, 33, 25, 288, 88
-0.997521, 145, 329, 160, 360
-0.997524, 241, 337, 256, 368
-0.997526, 395, 157, 410, 188
-0.99754, 67, 329, 82, 360
-0.997545, 165, 341, 180, 372
-0.997559, 53, 309, 68, 340
-0.997559, 271, 169, 286, 200
-0.997569, 385, 213, 400, 244
-0.997574, 151, 241, 166, 272
-0.997575, 1, 217, 128, 248
-0.997589, 97, 241, 224, 272
-0.997592, 379, 89, 394, 120
-0.997594, 1, 117, 128, 148
-0.997594, 161, 65, 192, 320
-0.997595, 257, 21, 384, 52
-0.997598, 261, 169, 276, 200
-0.9976, 145, 265, 272, 296
-0.997604, 59, 309, 74, 340
-0.99761, 1, 9, 500, 72
-0.997625, 71, 313, 86, 344
-0.997626, 177, 1, 304, 32
-0.997636, 185, 345, 200, 375
-0.997642, 59, 297, 74, 328
-0.997642, 395, 173, 410, 204
-0.997645, 213, 345, 228, 375
-0.997646, 211, 329, 226, 360
-0.997646, 179, 341, 194, 372
-0.997649, 85, 309, 100, 340
-0.997651, 397, 213, 412, 244
-0.997652, 199, 345, 214, 375
-0.997655, 145, 177, 160, 208
-0.997659, 177, 329, 192, 360
-0.997664, 305, 269, 432, 300
-0.997675, 145, 129, 176, 375
-0.997676, 271, 317, 286, 348
-0.997683, 391, 193, 406, 224
-0.997698, 275, 301, 290, 332
-0.997699, 243, 301, 258, 332
-0.997701, 389, 157, 404, 188
-0.997704, 1, 113, 16, 144
-0.997711, 229, 345, 244, 375
-0.997717, 65, 29, 192, 60
-0.997718, 77, 305, 92, 336
-0.997723, 233, 301, 248, 332
-0.997735, 73, 325, 88, 356
-0.997736, 57, 333, 72, 364
-0.99774, 65, 293, 80, 324
-0.997749, 243, 313, 258, 344
-0.997751, 379, 113, 394, 144
-0.997754, 353, 193, 384, 320
-0.997755, 93, 317, 108, 348
-0.997762, 163, 329, 178, 360
-0.997769, 237, 321, 252, 352
-0.99777, 305, 309, 432, 340
-0.997782, 1, 257, 128, 288
-0.997791, 49, 1, 112, 375
-0.9978, 373, 301, 388, 332
-0.997803, 449, 97, 480, 352
-0.997809, 265, 301, 280, 332
-0.997831, 275, 289, 290, 320
-0.997834, 137, 325, 152, 356
-0.99784, 193, 117, 208, 148
-0.997843, 177, 65, 208, 320
-0.997845, 433, 33, 464, 288
-0.997847, 379, 101, 394, 132
-0.997847, 79, 317, 94, 348
-0.997847, 223, 313, 238, 344
-0.997851, 65, 305, 80, 336
-0.997854, 49, 229, 176, 260
-0.997858, 257, 285, 384, 316
-0.99786, 401, 141, 416, 172
-0.99786, 97, 117, 224, 148
-0.997862, 191, 329, 206, 360
-0.997867, 455, 233, 470, 264
-0.997882, 267, 289, 282, 320
-0.997889, 385, 181, 400, 212
-0.997892, 379, 221, 394, 252
-0.997892, 403, 157, 418, 188
-0.997908, 261, 289, 276, 320
-0.997912, 455, 249, 470, 280
-0.997916, 287, 169, 302, 200
-0.997916, 65, 173, 192, 204
-0.997918, 57, 129, 120, 256
-0.997919, 377, 65, 392, 96
-0.997919, 385, 121, 400, 152
-0.99793, 205, 329, 220, 360
-0.997943, 449, 217, 464, 248
-0.997944, 49, 213, 176, 244
-0.997948, 365, 97, 396, 352
-0.997948, 177, 277, 304, 308
-0.997952, 251, 173, 266, 204
-0.997964, 257, 301, 272, 332
-0.99797, 225, 53, 240, 84
-0.997973, 49, 265, 176, 296
-0.997976, 389, 77, 404, 108
-0.997977, 385, 297, 400, 328
-0.997984, 251, 289, 266, 320
-0.997993, 251, 301, 266, 332
-0.997999, 87, 321, 102, 352
-0.998008, 193, 129, 224, 375
-0.998011, 379, 181, 394, 212
-0.99802, 213, 309, 228, 340
-0.998023, 205, 317, 220, 348
-0.998025, 405, 33, 436, 288
-0.998032, 247, 345, 262, 375
-0.998034, 377, 289, 392, 320
-0.998035, 219, 329, 234, 360
-0.998036, 387, 61, 402, 92
-0.998039, 223, 301, 238, 332
-0.998046, 433, 129, 464, 375
-0.998047, 389, 129, 420, 375
-0.998049, 41, 65, 72, 192
-0.998056, 243, 173, 258, 204
-0.998058, 1, 185, 128, 216
-0.998062, 389, 89, 404, 120
-0.998068, 1, 273, 128, 304
-0.998077, 273, 129, 304, 375
-0.998078, 77, 337, 92, 368
-0.998079, 285, 1, 316, 256
-0.998084, 305, 49, 320, 80
-0.998084, 261, 129, 292, 375
-0.998086, 189, 173, 204, 204
-0.99809, 85, 297, 100, 328
-0.998092, 145, 317, 160, 348
-0.998094, 49, 201, 176, 232
-0.9981, 379, 129, 394, 160
-0.998114, 113, 277, 240, 308
-0.998115, 425, 281, 440, 312
-0.998121, 261, 341, 276, 372
-0.998127, 291, 261, 306, 292
-0.998132, 441, 193, 456, 224
-0.998133, 407, 141, 422, 172
-0.998136, 297, 245, 312, 276
-0.998138, 267, 265, 282, 296
-0.998144, 403, 213, 418, 244
-0.998152, 129, 77, 256, 108
-0.998162, 161, 149, 288, 180
-0.998191, 369, 49, 496, 80
-0.998192, 1, 173, 128, 204
-0.998219, 49, 185, 176, 216
-0.99822, 1, 73, 128, 136
-0.998224, 201, 1, 232, 256
-0.998227, 1, 105, 128, 136
-0.998243, 161, 225, 288, 256
-0.998307, 97, 201, 224, 232
-0.99831, 449, 1, 480, 256
-0.998339, 145, 1, 176, 256
-0.998378, 369, 1, 496, 64
-0.998378, 177, 167, 208, 182
-0.998379, 201, 321, 232, 336
-0.998379, 293, 263, 324, 278
-0.99838, 393, 293, 424, 308
-0.99838, 249, 341, 280, 356
-0.998381, 405, 263, 436, 278
-0.998382, 365, 147, 396, 162
-0.998382, 157, 243, 188, 258
-0.998383, 161, 357, 192, 372
-0.998383, 377, 75, 408, 90
-0.998384, 389, 197, 420, 212
-0.998384, 221, 321, 252, 336
-0.998385, 125, 1, 156, 128
-0.998385, 149, 339, 180, 354
-0.998386, 249, 323, 280, 338
-0.998386, 389, 121, 420, 136
-0.998387, 145, 161, 176, 176
-0.998387, 249, 267, 280, 282
-0.998388, 173, 153, 204, 168
-0.998388, 81, 301, 112, 316
-0.998388, 197, 341, 228, 356
-0.998388, 449, 191, 480, 206
-0.998389, 385, 191, 416, 206
-0.998389, 281, 43, 312, 58
-0.99839, 225, 329, 256, 344
-0.99839, 33, 303, 64, 318
-0.998391, 373, 125, 404, 140
-0.998392, 393, 263, 424, 278
-0.998392, 129, 321, 160, 336
-0.998394, 373, 135, 404, 150
-0.998395, 365, 301, 396, 316
-0.998395, 449, 217, 480, 232
-0.998396, 197, 329, 228, 344
-0.998396, 229, 177, 260, 192
-0.998397, 449, 203, 480, 218
-0.9984, 189, 359, 220, 374
-0.998401, 393, 227, 424, 242
-0.998403, 161, 169, 192, 184
-0.998404, 365, 295, 396, 310
-0.998404, 377, 109, 408, 124
-0.998405, 277, 267, 308, 282
-0.998405, 405, 147, 436, 162
-0.998406, 377, 231, 408, 246
-0.998407, 373, 119, 404, 134
-0.998407, 57, 295, 88, 310
-0.998408, 381, 287, 412, 302
-0.99841, 285, 175, 316, 190
-0.998411, 397, 191, 428, 206
-0.998411, 49, 333, 80, 348
-0.998412, 213, 61, 244, 76
-0.998412, 269, 183, 300, 198
-0.998414, 373, 273, 404, 288
-0.998415, 193, 169, 224, 184
-0.998416, 245, 177, 276, 192
-0.998417, 393, 215, 424, 230
-0.99842, 377, 257, 408, 272
-0.998421, 377, 265, 408, 280
-0.998421, 225, 1, 256, 256
-0.998421, 377, 103, 408, 118
-0.998423, 409, 191, 440, 206
-0.998424, 433, 217, 464, 232
-0.998424, 137, 251, 168, 266
-0.998424, 433, 197, 464, 212
-0.998424, 1, 129, 32, 375
-0.998424, 373, 141, 404, 156
-0.998425, 69, 291, 100, 306
-0.998426, 449, 223, 480, 238
-0.998426, 113, 339, 144, 354
-0.998427, 177, 357, 208, 372
-0.998427, 449, 209, 480, 224
-0.998428, 265, 291, 296, 306
-0.998428, 389, 99, 420, 114
-0.99843, 365, 307, 396, 322
-0.99843, 377, 205, 408, 220
-0.998431, 389, 143, 420, 158
-0.998432, 217, 359, 248, 374
-0.998435, 365, 317, 396, 332
-0.998438, 273, 169, 304, 184
-0.998438, 433, 191, 464, 206
-0.998439, 413, 221, 444, 236
-0.998439, 45, 317, 76, 332
-0.998441, 145, 153, 176, 168
-0.998442, 377, 197, 408, 212
-0.998443, 381, 297, 412, 312
-0.998444, 433, 227, 464, 242
-0.998447, 145, 321, 176, 336
-0.998449, 373, 95, 404, 110
-0.99845, 373, 83, 404, 98
-0.998454, 237, 65, 268, 80
-0.998455, 237, 331, 268, 346
-0.998455, 137, 169, 200, 184
-0.998458, 377, 63, 408, 78
-0.998462, 261, 167, 292, 182
-0.998464, 401, 221, 432, 236
-0.998466, 121, 327, 184, 342
-0.998469, 117, 347, 148, 362
-0.998471, 217, 335, 280, 350
-0.998474, 233, 347, 264, 362
-0.998474, 145, 167, 176, 182
-0.998475, 209, 329, 240, 344
-0.998476, 205, 359, 236, 374
-0.99848, 273, 175, 304, 190
-0.99848, 157, 155, 188, 170
-0.998483, 45, 299, 76, 314
-0.998483, 373, 89, 404, 104
-0.998483, 257, 177, 288, 192
-0.998485, 217, 353, 248, 368
-0.998486, 121, 347, 184, 362
-0.998486, 241, 1, 272, 256
-0.998488, 293, 129, 324, 375
-0.99849, 389, 151, 420, 166
-0.998493, 137, 245, 168, 260
-0.998494, 33, 309, 96, 324
-0.998496, 237, 339, 268, 354
-0.998499, 369, 147, 432, 162
-0.9985, 41, 317, 104, 332
-0.9985, 133, 129, 164, 375
-0.998501, 389, 157, 420, 172
-0.998505, 369, 225, 432, 240
-0.998507, 45, 311, 76, 326
-0.998507, 249, 167, 312, 182
-0.998508, 377, 195, 440, 210
-0.998511, 109, 333, 140, 348
-0.998512, 369, 153, 432, 168
-0.998516, 377, 225, 408, 240
-0.998517, 369, 275, 432, 290
-0.998517, 369, 217, 432, 232
-0.998519, 221, 129, 252, 375
-0.998523, 97, 337, 160, 352
-0.998524, 217, 347, 248, 362
-0.998525, 377, 159, 408, 174
-0.998525, 57, 331, 120, 346
-0.998526, 161, 345, 224, 360
-0.998526, 41, 129, 72, 256
-0.998526, 361, 263, 424, 278
-0.998527, 401, 191, 464, 206
-0.998531, 129, 349, 160, 364
-0.998534, 393, 221, 456, 236
-0.998536, 225, 65, 288, 80
-0.998538, 361, 269, 424, 284
-0.998539, 57, 293, 120, 308
-0.99854, 137, 161, 200, 176
-0.998542, 217, 329, 280, 344
-0.998544, 129, 327, 160, 342
-0.998548, 389, 221, 420, 236
-0.998548, 401, 185, 464, 200
-0.99855, 185, 67, 248, 82
-0.998551, 157, 351, 188, 366
-0.998551, 141, 351, 172, 366
-0.998554, 217, 345, 280, 360
-0.998554, 225, 339, 256, 354
-0.998555, 137, 155, 200, 170
-0.998558, 125, 341, 156, 356
-0.998558, 193, 329, 256, 344
-0.998562, 249, 175, 312, 190
-0.998563, 41, 323, 104, 338
-0.998564, 381, 215, 412, 230
-0.998565, 377, 153, 408, 168
-0.998566, 41, 299, 104, 314
-0.998569, 9, 309, 72, 324
-0.998571, 321, 357, 384, 372
-0.998571, 257, 1, 288, 256
-0.998571, 57, 307, 120, 322
-0.998572, 369, 103, 432, 118
-0.998572, 121, 341, 184, 356
-0.998572, 377, 299, 440, 314
-0.998573, 377, 147, 408, 162
-0.998574, 145, 129, 208, 144
-0.998574, 425, 221, 488, 236
-0.998575, 121, 353, 184, 368
-0.998576, 169, 351, 200, 366
-0.998578, 177, 167, 240, 182
-0.998579, 369, 189, 432, 204
-0.998579, 81, 331, 144, 346
-0.998579, 401, 215, 464, 230
-0.99858, 401, 197, 464, 212
-0.99858, 249, 267, 312, 282
-0.998583, 417, 207, 480, 222
-0.998584, 241, 301, 304, 316
-0.998585, 161, 241, 224, 256
-0.998585, 205, 353, 236, 368
-0.998586, 401, 227, 464, 242
-0.998586, 361, 159, 424, 174
-0.998586, 369, 287, 432, 302
-0.998587, 137, 321, 200, 336
-0.998587, 393, 147, 456, 162
-0.998588, 241, 333, 304, 348
-0.998588, 289, 361, 352, 375
-0.998588, 383, 113, 398, 240
-0.998588, 97, 325, 160, 340
-0.998589, 361, 95, 424, 110
-0.99859, 121, 55, 184, 70
-0.998591, 153, 175, 216, 190
-0.998592, 189, 353, 220, 368
-0.998593, 401, 179, 464, 194
-0.998593, 257, 161, 320, 176
-0.998595, 225, 167, 288, 182
-0.998598, 249, 185, 312, 200
-0.9986, 153, 253, 216, 268
-0.9986, 137, 343, 168, 358
-0.998601, 425, 197, 488, 212
-0.998601, 369, 231, 432, 246
-0.998602, 425, 191, 488, 206
-0.998602, 369, 109, 432, 124
-0.998603, 9, 327, 72, 342
-0.998604, 9, 301, 72, 316
-0.998604, 369, 141, 432, 156
-0.998604, 209, 177, 272, 192
-0.998605, 185, 235, 248, 250
-0.998605, 201, 321, 264, 336
-0.998607, 369, 293, 432, 308
-0.998607, 337, 319, 400, 334
-0.998608, 17, 315, 80, 330
-0.998608, 249, 127, 312, 142
-0.998609, 137, 261, 200, 276
-0.998609, 41, 337, 104, 352
-0.99861, 153, 233, 216, 248
-0.99861, 401, 267, 464, 282
-0.99861, 241, 73, 304, 88
-0.998611, 9, 333, 72, 348
-0.998611, 361, 177, 424, 192
-0.998612, 209, 289, 272, 304
-0.998612, 241, 315, 304, 330
-0.998612, 345, 147, 408, 162
-0.998612, 345, 345, 408, 360
-0.998613, 249, 259, 312, 274
-0.998614, 345, 351, 408, 366
-0.998614, 145, 331, 208, 346
-0.998614, 161, 151, 224, 166
-0.998615, 217, 265, 280, 280
-0.998616, 65, 337, 128, 352
-0.998618, 369, 211, 432, 226
-0.998618, 185, 61, 248, 76
-0.998619, 249, 117, 312, 132
-0.998619, 297, 177, 328, 304
-0.99862, 337, 331, 400, 346
-0.99862, 137, 187, 200, 202
-0.998622, 193, 93, 256, 108
-0.998622, 361, 257, 424, 272
-0.998623, 113, 167, 176, 182
-0.998624, 241, 291, 304, 306
-0.998624, 193, 339, 256, 354
-0.998625, 161, 321, 224, 336
-0.998626, 401, 259, 464, 274
-0.998627, 185, 175, 248, 190
-0.998627, 321, 351, 384, 366
-0.998627, 145, 247, 208, 262
-0.998629, 213, 1, 244, 256
-0.998629, 129, 175, 192, 190
-0.99863, 161, 351, 224, 366
-0.99863, 233, 109, 296, 124
-0.998631, 369, 281, 432, 296
-0.998631, 137, 111, 200, 126
-0.998632, 41, 343, 104, 358
-0.998632, 249, 331, 280, 346
-0.998632, 81, 343, 144, 358
-0.998633, 345, 281, 408, 296
-0.998634, 369, 121, 432, 136
-0.998635, 401, 281, 464, 296
-0.998635, 145, 35, 208, 50
-0.998636, 169, 47, 232, 62
-0.998636, 281, 65, 344, 80
-0.998637, 369, 135, 432, 150
-0.998637, 401, 173, 464, 188
-0.998638, 225, 323, 288, 338
-0.998638, 249, 67, 312, 82
-0.998639, 377, 205, 440, 220
-0.998644, 245, 241, 260, 368
-0.998659, 209, 97, 240, 352
-0.998662, 265, 241, 280, 368
-0.998663, 235, 241, 250, 368
-0.998667, 205, 347, 236, 362
-0.998679, 177, 345, 208, 360
-0.998688, 161, 345, 192, 360
-0.998695, 273, 241, 288, 368
-0.998696, 25, 193, 56, 320
-0.998708, 149, 345, 180, 360
-0.998714, 379, 65, 394, 192
-0.998717, 255, 241, 270, 368
-0.998719, 189, 347, 220, 362
-0.998728, 353, 65, 384, 192
-0.998737, 417, 33, 448, 288
-0.998748, 225, 225, 240, 352
-0.998761, 381, 161, 396, 288
-0.998809, 461, 129, 492, 375
-0.998817, 393, 113, 408, 240
-0.998818, 455, 209, 470, 336
-0.998888, 389, 161, 404, 288
-0.998903, 215, 241, 230, 368
-0.998918, 399, 65, 414, 192
-0.998929, 449, 193, 464, 320
-0.99895, 399, 161, 414, 288
-0.998953, 145, 161, 160, 288
-0.998957, 389, 65, 404, 192
-0.998967, 271, 1, 286, 128
-0.998976, 373, 241, 388, 368
-0.999006, 241, 129, 272, 375
-0.999019, 1, 97, 16, 224
-0.99902, 205, 241, 220, 368
-0.999053, 61, 145, 92, 272
-0.999057, 465, 33, 496, 288
-0.999059, 177, 241, 192, 368
-0.99906, 379, 209, 394, 336
-0.999085, 265, 1, 280, 128
-0.999093, 399, 113, 414, 240
-0.999098, 405, 113, 420, 240
-0.999115, 377, 113, 392, 240
-0.999127, 287, 81, 302, 208
-0.99913, 405, 33, 420, 160
-0.999131, 227, 49, 242, 176
-0.999134, 207, 1, 222, 128
-0.999142, 153, 161, 168, 288
-0.999144, 271, 81, 286, 208
-0.99917, 161, 241, 176, 368
-0.99917, 255, 1, 270, 128
-0.999182, 53, 241, 68, 368
-0.999185, 283, 241, 298, 368
-0.999185, 185, 81, 200, 208
-0.999186, 183, 225, 198, 352
-0.999194, 221, 65, 236, 192
-0.999198, 143, 225, 158, 352
-0.999208, 59, 241, 74, 368
-0.999212, 443, 177, 458, 304
-0.999222, 373, 65, 388, 192
-0.999228, 155, 209, 170, 336
-0.999233, 9, 33, 40, 288
-0.999234, 277, 17, 292, 144
-0.999243, 221, 1, 236, 128
-0.999248, 277, 81, 292, 208
-0.999251, 385, 241, 400, 368
-0.999252, 13, 193, 44, 320
-0.999254, 411, 33, 426, 160
-0.999267, 297, 161, 312, 288
-0.999267, 169, 209, 184, 336
-0.99927, 461, 161, 476, 288
-0.999271, 215, 1, 230, 128
-0.999272, 249, 1, 264, 128
-0.999274, 137, 161, 152, 288
-0.999274, 161, 161, 176, 288
-0.999283, 463, 209, 478, 336
-0.999285, 431, 33, 446, 160
-0.999286, 237, 193, 252, 320
-0.999286, 283, 33, 298, 160
-0.999286, 215, 65, 230, 192
-0.999289, 255, 193, 270, 320
-0.99929, 197, 81, 212, 208
-0.999291, 1, 161, 16, 288
-0.999292, 177, 161, 192, 288
-0.999293, 231, 1, 246, 128
-0.999294, 451, 145, 466, 272
-0.999301, 441, 49, 456, 176
-0.999302, 449, 241, 464, 368
-0.999306, 191, 241, 206, 368
-0.999307, 245, 193, 260, 320
-0.99931, 447, 33, 462, 160
-0.999318, 405, 161, 420, 288
-0.999321, 421, 33, 436, 160
-0.999327, 193, 161, 208, 288
-0.99933, 401, 129, 432, 375
-0.99933, 149, 113, 164, 240
-0.999334, 295, 49, 310, 176
-0.999338, 443, 129, 458, 256
-0.999338, 3, 209, 18, 336
-0.999341, 233, 49, 248, 176
-0.999344, 213, 193, 228, 320
-0.999345, 197, 225, 212, 352
-0.999347, 261, 81, 276, 208
-0.999351, 241, 1, 256, 128
-0.999355, 71, 241, 86, 368
-0.999367, 179, 81, 194, 208
-0.999372, 419, 241, 434, 368
-0.999374, 451, 81, 466, 208
-0.999383, 189, 1, 220, 256
-0.999385, 137, 225, 152, 352
-0.99939, 65, 241, 80, 368
-0.999392, 187, 161, 202, 288
-0.999392, 473, 209, 488, 336
-0.999399, 253, 49, 268, 176
-0.999402, 207, 161, 222, 288
-0.999407, 203, 49, 218, 176
-0.999409, 297, 113, 312, 240
-0.999414, 171, 161, 186, 288
-0.999418, 239, 49, 254, 176
-0.999434, 231, 193, 246, 320
-0.999434, 11, 177, 26, 304
-0.999434, 209, 49, 224, 176
-0.999436, 297, 209, 312, 336
-0.999436, 287, 161, 302, 288
-0.999441, 289, 33, 304, 160
-0.999442, 371, 129, 386, 256
-0.999443, 265, 193, 280, 320
-0.999447, 289, 225, 304, 352
-0.999448, 11, 65, 26, 192
-0.999451, 149, 209, 164, 336
-0.999455, 393, 225, 408, 352
-0.999459, 459, 33, 474, 160
-0.999462, 427, 209, 442, 336
-0.999465, 173, 81, 188, 208
-0.999466, 245, 81, 260, 208
-0.999474, 435, 177, 450, 304
-0.999479, 409, 225, 424, 352
-0.999479, 421, 129, 452, 375
-0.999481, 61, 129, 92, 375
-0.999483, 219, 193, 234, 320
-0.999484, 275, 193, 290, 320
-0.99949, 177, 33, 192, 160
-0.999491, 191, 49, 206, 176
-0.999494, 471, 49, 486, 176
-0.999497, 433, 113, 448, 240
-0.999498, 305, 97, 336, 352
-0.999499, 483, 209, 498, 336
-0.999503, 125, 33, 156, 288
-0.999503, 77, 241, 92, 368
-0.999507, 33, 33, 96, 288
-0.999515, 25, 49, 56, 176
-0.999519, 227, 97, 242, 224
-0.99952, 387, 17, 402, 144
-0.999526, 191, 97, 206, 224
-0.999527, 143, 81, 158, 208
-0.999565, 93, 241, 124, 368
-0.999599, 105, 1, 136, 128
-0.999604, 89, 313, 104, 328
-0.999604, 255, 323, 270, 338
-0.999605, 213, 315, 228, 330
-0.999605, 215, 321, 230, 336
-0.999606, 91, 323, 106, 338
-0.999606, 221, 357, 236, 372
-0.999607, 147, 321, 162, 336
-0.999607, 379, 265, 394, 280
-0.999607, 449, 225, 464, 240
-0.999608, 75, 319, 90, 334
-0.999608, 395, 175, 410, 190
-0.999609, 399, 99, 414, 114
-0.999609, 89, 307, 104, 322
-0.999609, 379, 137, 394, 152
-0.99961, 381, 275, 396, 290
-0.99961, 75, 305, 90, 320
-0.99961, 381, 145, 396, 160
-0.99961, 379, 115, 394, 130
-0.999611, 73, 325, 88, 340
-0.999611, 55, 327, 70, 342
-0.999611, 403, 167, 418, 182
-0.999611, 191, 353, 206, 368
-0.999612, 55, 335, 70, 350
-0.999612, 413, 191, 428, 206
-0.999612, 395, 225, 410, 240
-0.999613, 145, 169, 160, 184
-0.999613, 137, 353, 152, 368
-0.999613, 213, 329, 228, 344
-0.999614, 151, 251, 166, 266
-0.999614, 251, 313, 266, 328
-0.999614, 275, 167, 290, 182
-0.999614, 399, 257, 414, 272
-0.999614, 85, 319, 100, 334
-0.999615, 377, 75, 392, 90
-0.999616, 121, 341, 136, 356
-0.999616, 163, 355, 178, 370
-0.999617, 131, 325, 146, 340
-0.999617, 385, 197, 400, 212
-0.999618, 393, 209, 408, 224
-0.999618, 257, 301, 272, 316
-0.999621, 229, 347, 244, 362
-0.999621, 379, 157, 394, 172
-0.999622, 51, 317, 66, 332
-0.999622, 409, 225, 424, 240
-0.999622, 427, 221, 442, 236
-0.999622, 277, 301, 292, 316
-0.999623, 205, 353, 220, 368
-0.999623, 395, 169, 410, 184
-0.999623, 447, 197, 462, 212
-0.999624, 247, 339, 262, 354
-0.999624, 65, 317, 80, 332
-0.999624, 65, 335, 80, 350
-0.999626, 267, 301, 282, 316
-0.999627, 377, 307, 392, 322
-0.999627, 237, 347, 252, 362
-0.999628, 177, 351, 192, 366
-0.999629, 379, 63, 394, 78
-0.99963, 259, 175, 274, 190
-0.99963, 223, 311, 238, 326
-0.999631, 199, 345, 214, 360
-0.999631, 149, 349, 164, 364
-0.999632, 229, 339, 244, 354
-0.999633, 233, 311, 248, 326
-0.999634, 243, 315, 258, 330
-0.999635, 455, 253, 470, 268
-0.999635, 261, 313, 276, 328
-0.999635, 263, 169, 278, 184
-0.999635, 383, 121, 398, 136
-0.999635, 377, 81, 392, 96
-0.999636, 143, 197, 158, 212
-0.999636, 255, 331, 270, 346
-0.999636, 365, 1, 396, 256
-0.999637, 403, 155, 418, 170
-0.999638, 387, 225, 402, 240
-0.999638, 185, 345, 200, 360
-0.999639, 89, 301, 104, 316
-0.999639, 63, 327, 78, 342
-0.99964, 279, 175, 294, 190
-0.999641, 387, 153, 402, 168
-0.999643, 377, 295, 392, 310
-0.999644, 405, 147, 420, 162
-0.999645, 171, 353, 186, 368
-0.999646, 379, 109, 394, 124
-0.999647, 385, 301, 400, 316
-0.999653, 379, 99, 394, 114
-0.999653, 379, 199, 394, 214
-0.999654, 151, 245, 166, 260
-0.999654, 265, 175, 280, 190
-0.999655, 399, 161, 414, 176
-0.999656, 271, 315, 286, 330
-0.999657, 1, 115, 16, 130
-0.999659, 131, 339, 146, 354
-0.999659, 401, 187, 416, 202
-0.999659, 381, 225, 396, 240
-0.99966, 49, 311, 64, 326
-0.999661, 59, 315, 74, 330
-0.999661, 183, 351, 198, 366
-0.999662, 271, 175, 286, 190
-0.999663, 211, 351, 226, 366
-0.999666, 229, 353, 244, 368
-0.999666, 221, 351, 236, 366
-0.999668, 137, 347, 152, 362
-0.999668, 387, 147, 402, 162
-0.999668, 65, 307, 80, 322
-0.999669, 167, 153, 182, 168
-0.99967, 353, 65, 384, 320
-0.999671, 403, 221, 418, 236
-0.999672, 379, 89, 394, 104
-0.999672, 197, 351, 212, 366
-0.999674, 49, 301, 64, 316
-0.999678, 393, 157, 408, 172
-0.99968, 393, 215, 408, 230
-0.99968, 249, 331, 264, 346
-0.999687, 59, 309, 74, 324
-0.999688, 143, 351, 158, 366
-0.999688, 131, 347, 146, 362
-0.999689, 155, 349, 170, 364
-0.99969, 241, 337, 256, 352
-0.999691, 171, 347, 186, 362
-0.999708, 235, 339, 250, 354
-0.999711, 261, 331, 276, 346
-0.99972, 395, 151, 410, 166
-0.99973, 153, 343, 168, 358
-0.999731, 163, 345, 178, 360
-0.99974, 269, 167, 284, 182
-0.999747, 191, 347, 206, 362
-0.999749, 381, 151, 396, 166
-0.999753, 205, 347, 220, 362
-0.99976, 177, 345, 192, 360
-0.99977, 137, 341, 152, 356
-0.99978, 147, 343, 162, 358
-0.999785, 81, 129, 144, 375
-0.999786, 219, 345, 234, 360
-0.999829, 65, 1, 128, 256
-0.999832, 41, 129, 72, 375
-0.999859, 241, 129, 272, 256
-0.999899, 297, 1, 328, 256
-0.999938, 81, 241, 112, 368
-1.0001, 113, 1, 144, 256
-1.00015, 1, 49, 128, 112
-1.00016, 41, 33, 72, 288
-1.00019, 121, 129, 152, 375
-1.00025, 73, 129, 104, 375
-1.00034, 13, 129, 44, 375
-1.00043, 101, 1, 132, 256
-1.00048, 89, 177, 152, 304
-1.0005, 113, 241, 144, 368
-1.00051, 61, 33, 92, 288
-1.00059, 29, 33, 60, 288
-1.00063, 89, 1, 120, 256
-1.00064, 297, 1, 360, 256
-1.00065, 53, 49, 84, 176
-1.00067, 317, 49, 348, 176
-1.00068, 81, 49, 144, 176
-1.00068, 333, 97, 364, 352
-1.00069, 25, 129, 56, 375
-1.0007, 77, 1, 108, 256
-1.00078, 341, 1, 372, 256
-1.00079, 317, 97, 348, 352
-1.00086, 73, 193, 104, 320
-1.0009, 89, 129, 120, 375
-1.00097, 313, 1, 344, 256
-1.00097, 465, 113, 496, 240
-1.00097, 105, 129, 136, 375
-1.00101, 325, 1, 356, 256
-1.00109, 1, 17, 32, 144
-1.00133, 53, 97, 84, 224
-1.00145, 25, 17, 88, 144
