1884
-0.345152, 1, 1, 500, 332
-0.489573, 1, 33, 500, 288
-0.541108, 257, 1, 500, 332
-0.55761, 1, 1, 256, 332
-0.639383, 161, 1, 416, 332
-0.674151, 1, 1, 256, 256
-0.706577, 257, 1, 500, 256
-0.800718, 129, 65, 384, 320
-0.867275, 369, 1, 496, 332
-0.867755, 65, 1, 192, 332
-0.8733, 17, 1, 144, 256
-0.88252, 65, 1, 192, 256
-0.883051, 1, 1, 128, 332
-0.886948, 353, 1, 480, 256
-0.894981, 241, 65, 368, 320
-0.897372, 161, 1, 288, 332
-0.898241, 161, 65, 288, 320
-0.898523, 1, 17, 500, 144
-0.898728, 1, 129, 500, 256
-0.90093, 1, 65, 500, 192
-0.90453, 113, 1, 240, 332
-0.905421, 321, 1, 448, 332
-0.906957, 113, 1, 240, 256
-0.908827, 193, 113, 448, 240
-0.908981, 225, 1, 352, 332
-0.909749, 273, 1, 400, 332
-0.915206, 289, 1, 416, 256
-0.924901, 1, 33, 256, 160
-0.925265, 217, 97, 280, 224
-0.926491, 209, 113, 336, 240
-0.931199, 97, 129, 352, 256
-0.931386, 97, 81, 352, 208
-0.931854, 1, 177, 500, 304
-0.93556, 161, 113, 288, 240
-0.937664, 257, 113, 384, 240
-0.93929, 97, 1, 352, 128
-0.940752, 249, 113, 312, 240
-0.94096, 193, 161, 448, 288
-0.941089, 65, 1, 192, 128
-0.943485, 1, 81, 256, 208
-0.944984, 321, 113, 384, 240
-0.945756, 193, 65, 448, 192
-0.947427, 1, 129, 256, 256
-0.948482, 217, 113, 280, 176
-0.948853, 65, 49, 192, 176
-0.949103, 193, 1, 448, 128
-0.950738, 225, 161, 288, 288
-0.951032, 17, 49, 144, 176
-0.951473, 297, 113, 360, 240
-0.952283, 1, 1, 64, 128
-0.953293, 185, 129, 248, 256
-0.953974, 113, 129, 240, 256
-0.955201, 1, 161, 64, 288
-0.955283, 113, 1, 176, 128
-0.955318, 113, 1, 240, 128
-0.955593, 17, 1, 144, 128
-0.95564, 33, 177, 288, 304
-0.955926, 193, 97, 256, 160
-0.956005, 305, 129, 432, 256
-0.957507, 209, 177, 336, 304
-0.957751, 137, 113, 200, 240
-0.958236, 209, 65, 336, 192
-0.958847, 89, 1, 152, 128
-0.959284, 321, 129, 384, 192
-0.959318, 353, 97, 480, 224
-0.960202, 17, 97, 144, 224
-0.960266, 345, 129, 408, 256
-0.960421, 185, 129, 248, 192
-0.96048, 113, 113, 176, 240
-0.960758, 425, 17, 488, 144
-0.960853, 137, 1, 200, 128
-0.96091, 129, 49, 256, 176
-0.960994, 33, 1, 96, 64
-0.961528, 225, 49, 288, 176
-0.961868, 97, 49, 160, 176
-0.961873, 193, 209, 448, 332
-0.962206, 193, 81, 256, 208
-0.962295, 257, 129, 320, 192
-0.962367, 273, 113, 336, 240
-0.962622, 41, 145, 104, 272
-0.962644, 161, 137, 224, 200
-0.96281, 65, 113, 192, 240
-0.963151, 41, 161, 104, 224
-0.963375, 81, 129, 144, 256
-0.963396, 433, 81, 496, 208
-0.963533, 273, 65, 400, 192
-0.963674, 17, 161, 144, 288
-0.963837, 129, 1, 192, 64
-0.963991, 257, 65, 320, 192
-0.964432, 65, 49, 128, 176
-0.964436, 161, 129, 224, 256
-0.964483, 257, 161, 384, 288
-0.964492, 25, 1, 88, 128
-0.964649, 1, 113, 64, 240
-0.964772, 353, 33, 480, 160
-0.965433, 57, 1, 120, 128
-0.965476, 297, 121, 360, 184
-0.965557, 25, 81, 88, 144
-0.966181, 161, 161, 288, 288
-0.966283, 73, 137, 136, 200
-0.966747, 81, 161, 144, 224
-0.966843, 1, 1, 64, 64
-0.966848, 225, 97, 256, 160
-0.966917, 433, 81, 496, 144
-0.966947, 97, 17, 160, 80
-0.966982, 225, 169, 288, 232
-0.967, 257, 177, 320, 304
-0.967269, 217, 89, 280, 152
-0.967434, 65, 161, 192, 288
-0.968314, 169, 81, 232, 208
-0.968549, 41, 97, 104, 224
-0.968639, 425, 57, 488, 120
-0.969148, 41, 1, 104, 256
-0.969547, 17, 161, 80, 224
-0.969646, 1, 73, 64, 136
-0.96968, 129, 49, 192, 176
-0.969935, 113, 161, 176, 224
-0.969977, 353, 145, 480, 272
-0.970156, 225, 209, 288, 332
-0.970481, 273, 105, 336, 168
-0.970559, 113, 137, 176, 200
-0.970566, 137, 145, 200, 208
-0.970952, 297, 65, 360, 192
-0.971061, 377, 97, 440, 224
-0.971066, 217, 225, 280, 288
-0.971381, 25, 49, 88, 112
-0.971403, 73, 41, 136, 104
-0.971411, 193, 121, 320, 184
-0.971427, 249, 153, 312, 216
-0.971863, 233, 97, 264, 224
-0.972036, 393, 33, 456, 160
-0.972266, 225, 193, 288, 256
-0.972475, 353, 81, 416, 208
-0.972536, 233, 1, 296, 128
-0.97261, 281, 161, 344, 288
-0.972705, 1, 1, 64, 256
-0.973494, 177, 177, 240, 304
-0.973576, 345, 145, 408, 208
-0.97383, 121, 33, 184, 96
-0.974186, 81, 185, 144, 248
-0.974325, 257, 129, 384, 192
-0.974603, 253, 129, 284, 256
-0.974673, 209, 137, 272, 200
-0.974809, 153, 113, 216, 176
-0.974864, 201, 129, 232, 192
-0.97503, 145, 145, 272, 208
-0.975035, 369, 1, 432, 256
-0.975041, 113, 177, 240, 304
-0.975159, 241, 105, 304, 168
-0.975445, 201, 177, 264, 304
-0.975477, 193, 33, 256, 160
-0.975519, 361, 129, 392, 256
-0.975539, 269, 129, 300, 256
-0.975598, 177, 169, 240, 232
-0.975608, 245, 113, 276, 176
-0.975613, 369, 121, 432, 184
-0.975641, 49, 41, 112, 104
-0.975715, 1, 97, 64, 160
-0.975836, 1, 33, 64, 96
-0.97599, 425, 33, 488, 96
-0.976292, 49, 49, 176, 112
-0.976402, 97, 137, 128, 200
-0.976467, 349, 129, 380, 192
-0.976525, 113, 161, 176, 288
-0.976661, 113, 1, 144, 128
-0.976664, 1, 209, 128, 332
-0.976708, 97, 41, 160, 104
-0.976958, 41, 129, 104, 192
-0.977071, 97, 113, 160, 176
-0.977219, 257, 121, 288, 184
-0.977324, 137, 169, 200, 232
-0.977331, 49, 25, 176, 88
-0.977381, 329, 65, 392, 192
-0.977568, 385, 41, 448, 104
-0.977668, 1, 49, 64, 176
-0.977702, 173, 129, 204, 256
-0.977714, 213, 105, 244, 168
-0.977817, 377, 145, 440, 272
-0.977851, 305, 177, 432, 304
-0.977859, 345, 113, 376, 240
-0.977944, 361, 129, 392, 192
-0.978565, 177, 1, 304, 128
-0.9786, 57, 89, 120, 152
-0.978717, 161, 209, 288, 332
-0.978746, 249, 193, 312, 256
-0.978786, 201, 193, 264, 256
-0.978892, 17, 1, 48, 128
-0.978909, 117, 1, 148, 64
-0.978951, 81, 1, 208, 64
-0.979172, 321, 105, 384, 168
-0.979264, 305, 17, 432, 144
-0.979309, 29, 161, 60, 288
-0.979334, 181, 137, 212, 200
-0.979455, 213, 129, 244, 256
-0.979488, 57, 185, 120, 248
-0.979652, 25, 193, 88, 256
-0.979663, 233, 161, 264, 288
-0.979682, 25, 25, 88, 88
-0.979697, 73, 1, 136, 64
-0.979793, 209, 153, 336, 216
-0.979828, 137, 161, 200, 288
-0.979893, 305, 177, 368, 304
-0.979928, 345, 177, 408, 304
-0.979954, 269, 129, 300, 192
-0.979955, 209, 65, 272, 320
-0.980047, 17, 169, 144, 232
-0.980068, 169, 145, 200, 208
-0.980178, 17, 137, 144, 200
-0.980181, 1, 41, 128, 104
-0.980225, 233, 65, 296, 128
-0.980236, 25, 49, 88, 176
-0.98027, 97, 137, 224, 200
-0.980272, 293, 113, 324, 240
-0.980288, 89, 169, 120, 232
-0.980375, 57, 65, 120, 128
-0.980502, 221, 81, 252, 208
-0.980545, 21, 9, 52, 72
-0.980555, 1, 81, 128, 144
-0.980601, 85, 17, 116, 144
-0.980613, 297, 185, 360, 248
-0.980649, 425, 1, 488, 256
-0.980691, 337, 209, 400, 272
-0.980712, 33, 1, 160, 64
-0.980729, 345, 121, 408, 184
-0.980805, 93, 129, 124, 256
-0.980932, 33, 169, 64, 232
-0.980984, 353, 169, 416, 232
-0.980996, 97, 161, 224, 224
-0.981029, 161, 129, 192, 256
-0.981133, 321, 121, 352, 184
-0.981268, 209, 97, 336, 160
-0.981277, 409, 81, 472, 208
-0.981302, 73, 113, 136, 176
-0.981316, 121, 1, 184, 256
-0.981327, 97, 25, 224, 88
-0.981349, 377, 153, 440, 216
-0.981447, 169, 1, 232, 128
-0.981448, 401, 73, 464, 136
-0.981528, 17, 137, 80, 200
-0.981569, 145, 105, 272, 168
-0.98164, 57, 1, 120, 332
-0.981784, 109, 161, 140, 224
-0.981799, 201, 161, 264, 224
-0.981808, 17, 65, 48, 128
-0.981813, 337, 1, 400, 64
-0.98184, 81, 33, 144, 288
-0.98187, 9, 9, 40, 72
-0.98195, 185, 73, 248, 136
-0.981974, 1, 73, 32, 136
-0.982, 369, 1, 432, 128
-0.982012, 177, 1, 240, 256
-0.982012, 337, 113, 464, 176
-0.982038, 9, 33, 40, 96
-0.98215, 309, 121, 340, 184
-0.982155, 157, 145, 188, 208
-0.982155, 5, 1, 36, 128
-0.982205, 153, 1, 216, 64
-0.982261, 69, 17, 100, 144
-0.982289, 445, 49, 476, 112
-0.982301, 313, 233, 376, 296
-0.982316, 297, 97, 360, 160
-0.982364, 305, 113, 336, 240
-0.98245, 305, 145, 432, 208
-0.982501, 109, 137, 140, 200
-0.982554, 285, 129, 316, 192
-0.982588, 321, 153, 384, 216
-0.982598, 1, 185, 64, 248
-0.982646, 333, 113, 364, 240
-0.982654, 109, 49, 140, 176
-0.982747, 369, 49, 496, 112
-0.982763, 121, 25, 152, 88
-0.982804, 105, 113, 136, 240
-0.982841, 125, 17, 156, 144
-0.98288, 33, 73, 64, 136
-0.982959, 273, 161, 336, 224
-0.982968, 257, 105, 384, 168
-0.982994, 37, 97, 68, 224
-0.983078, 29, 1, 60, 128
-0.983098, 97, 65, 160, 128
-0.983256, 361, 97, 424, 160
-0.9833, 189, 113, 220, 240
-0.983356, 105, 25, 136, 88
-0.983387, 21, 169, 52, 232
-0.983488, 297, 161, 360, 224
-0.983521, 49, 73, 176, 136
-0.983619, 213, 153, 244, 216
-0.983637, 313, 209, 376, 272
-0.983736, 149, 1, 180, 128
-0.983768, 57, 161, 88, 224
-0.983779, 469, 33, 500, 160
-0.983781, 97, 49, 128, 176
-0.983808, 129, 1, 256, 64
-0.983816, 141, 1, 172, 64
-0.983841, 177, 209, 240, 272
-0.983845, 249, 161, 280, 224
-0.983896, 1, 65, 32, 192
-0.983907, 85, 137, 116, 200
-0.983922, 249, 177, 280, 304
-0.984018, 137, 33, 168, 160
-0.98405, 89, 177, 152, 304
-0.984061, 345, 1, 408, 256
-0.984067, 217, 129, 248, 192
-0.984115, 401, 145, 464, 272
-0.984183, 257, 65, 320, 320
-0.984211, 257, 1, 384, 128
-0.98438, 257, 185, 384, 248
-0.984397, 273, 41, 336, 104
-0.984411, 465, 65, 496, 128
-0.984419, 169, 121, 200, 184
-0.984603, 161, 169, 288, 232
-0.984622, 33, 49, 64, 112
-0.984638, 265, 177, 296, 304
-0.984642, 317, 113, 348, 240
-0.984643, 433, 161, 496, 288
-0.984667, 97, 113, 224, 176
-0.984719, 281, 9, 344, 72
-0.984733, 257, 161, 384, 224
-0.984781, 17, 193, 144, 256
-0.984783, 241, 217, 304, 280
-0.984796, 25, 49, 56, 176
-0.984806, 249, 65, 280, 192
-0.984821, 257, 201, 288, 264
-0.984833, 433, 105, 496, 168
-0.984862, 21, 97, 52, 224
-0.984864, 149, 97, 180, 224
-0.9849, 153, 1, 184, 64
-0.984956, 273, 81, 336, 144
-0.985021, 25, 193, 88, 320
-0.985068, 229, 121, 260, 184
-0.985153, 121, 105, 184, 168
-0.985159, 237, 161, 268, 224
-0.985189, 73, 169, 104, 232
-0.98537, 385, 1, 448, 332
-0.985452, 345, 1, 408, 128
-0.985455, 273, 105, 304, 168
-0.985466, 413, 97, 444, 224
-0.985469, 129, 81, 256, 144
-0.985494, 257, 209, 384, 332
-0.98553, 209, 193, 336, 256
-0.985575, 417, 153, 480, 216
-0.985597, 369, 17, 432, 80
-0.985604, 49, 193, 112, 320
-0.985608, 337, 121, 368, 184
-0.985737, 369, 81, 496, 144
-0.985738, 57, 17, 88, 144
-0.985766, 49, 97, 80, 224
-0.985787, 137, 33, 168, 96
-0.985795, 237, 89, 268, 152
-0.98596, 281, 129, 312, 256
-0.986005, 321, 1, 384, 256
-0.986029, 129, 57, 192, 120
-0.986042, 445, 17, 476, 144
-0.986079, 241, 9, 304, 72
-0.986083, 105, 1, 136, 64
-0.986106, 45, 65, 76, 128
-0.986108, 365, 153, 396, 216
-0.98611, 145, 193, 208, 256
-0.986308, 273, 185, 336, 248
-0.986315, 469, 81, 500, 208
-0.986345, 45, 169, 76, 232
-0.986386, 185, 233, 248, 296
-0.986396, 229, 201, 260, 264
-0.986437, 401, 17, 464, 80
-0.986449, 209, 81, 240, 208
-0.98652, 101, 1, 132, 128
-0.98655, 357, 81, 388, 208
-0.98656, 289, 1, 416, 64
-0.986574, 105, 49, 136, 112
-0.986595, 173, 81, 204, 208
-0.986597, 217, 1, 280, 332
-0.986638, 5, 161, 36, 224
-0.986664, 425, 1, 488, 332
-0.986685, 41, 161, 72, 288
-0.986712, 201, 105, 232, 168
-0.986737, 105, 1, 168, 332
-0.986807, 85, 41, 116, 104
-0.986828, 401, 33, 432, 160
-0.986916, 33, 1, 96, 332
-0.986951, 329, 185, 392, 248
-0.986997, 33, 105, 96, 168
-0.987068, 401, 1, 464, 256
-0.987081, 369, 25, 496, 88
-0.98714, 157, 49, 188, 176
-0.987166, 425, 41, 456, 104
-0.987167, 297, 1, 360, 256
-0.987176, 221, 193, 252, 320
-0.987328, 241, 241, 304, 304
-0.987341, 69, 145, 100, 208
-0.987353, 33, 17, 64, 80
-0.987509, 341, 233, 372, 296
-0.987521, 321, 89, 448, 152
-0.987535, 233, 49, 264, 176
-0.987582, 353, 193, 480, 320
-0.987597, 181, 113, 212, 176
-0.98766, 305, 169, 432, 232
-0.987661, 273, 81, 304, 208
-0.987667, 353, 145, 480, 208
-0.98769, 373, 145, 404, 272
-0.98771, 265, 1, 328, 332
-0.987728, 5, 97, 36, 160
-0.98773, 457, 17, 488, 144
-0.987735, 241, 225, 272, 288
-0.987785, 169, 169, 200, 232
-0.987797, 21, 89, 52, 152
-0.987822, 129, 1, 160, 64
-0.987827, 97, 57, 224, 120
-0.987912, 81, 1, 144, 332
-0.987994, 425, 73, 456, 136
-0.987995, 121, 129, 152, 256
-0.988064, 305, 1, 368, 64
-0.988109, 1, 161, 32, 288
-0.988193, 425, 33, 456, 160
-0.9882, 145, 25, 208, 88
-0.98826, 161, 1, 192, 128
-0.988319, 381, 81, 412, 208
-0.988338, 253, 225, 284, 288
-0.988356, 49, 41, 80, 104
-0.98836, 93, 113, 124, 176
-0.988396, 297, 129, 328, 192
-0.988419, 225, 121, 288, 152
-0.988425, 409, 129, 472, 192
-0.98846, 457, 65, 488, 192
-0.988485, 257, 97, 288, 160
-0.988493, 53, 89, 84, 152
-0.988543, 233, 33, 296, 288
-0.988544, 209, 217, 336, 280
-0.988556, 241, 1, 304, 332
-0.98859, 1, 105, 128, 168
-0.988606, 345, 65, 376, 192
-0.988606, 161, 193, 288, 256
-0.988616, 361, 1, 424, 332
-0.988623, 225, 153, 256, 216
-0.988638, 13, 145, 44, 272
-0.98864, 369, 81, 400, 208
-0.988692, 353, 201, 384, 264
-0.988722, 225, 73, 256, 136
-0.988738, 325, 97, 356, 160
-0.988755, 305, 25, 432, 88
-0.988757, 125, 57, 156, 120
-0.988766, 45, 33, 76, 160
-0.988783, 233, 209, 264, 332
-0.98879, 233, 41, 296, 104
-0.988833, 445, 89, 476, 152
-0.988845, 217, 217, 248, 280
-0.988865, 77, 129, 108, 256
-0.988869, 185, 161, 216, 288
-0.988886, 373, 1, 404, 128
-0.988908, 165, 1, 196, 64
-0.988988, 409, 97, 472, 160
-0.989043, 261, 81, 292, 208
-0.989061, 261, 153, 292, 216
-0.98908, 105, 113, 136, 176
-0.989126, 129, 1, 192, 332
-0.989131, 153, 141, 216, 172
-0.989138, 257, 1, 320, 128
-0.989185, 333, 65, 364, 192
-0.989194, 329, 81, 392, 144
-0.989214, 193, 129, 448, 192
-0.989265, 177, 137, 240, 168
-0.989281, 145, 25, 272, 88
-0.989296, 49, 209, 176, 332
-0.989328, 209, 1, 272, 64
-0.989364, 337, 1, 400, 332
-0.989372, 181, 161, 212, 224
-0.98938, 345, 209, 376, 332
-0.989448, 65, 1, 96, 64
-0.989481, 353, 169, 480, 232
-0.989486, 209, 177, 240, 304
-0.989525, 161, 81, 224, 144
-0.989535, 1, 137, 32, 200
-0.98954, 121, 137, 152, 200
-0.989589, 265, 133, 328, 164
-0.989627, 309, 65, 340, 192
-0.989645, 217, 177, 248, 240
-0.989659, 57, 145, 88, 272
-0.989691, 469, 33, 500, 96
-0.989692, 1, 273, 128, 332
-0.989703, 345, 241, 408, 304
-0.989703, 209, 249, 272, 312
-0.989715, 217, 101, 280, 132
-0.98976, 185, 1, 248, 332
-0.989764, 369, 1, 496, 64
-0.989771, 129, 81, 192, 144
-0.989831, 425, 69, 488, 100
-0.989851, 313, 125, 376, 156
-0.989856, 349, 105, 380, 168
-0.989876, 109, 161, 140, 288
-0.989878, 177, 241, 304, 304
-0.989886, 277, 177, 308, 304
-0.989911, 113, 145, 176, 176
-0.989916, 65, 193, 192, 256
-0.989927, 49, 137, 80, 200
-0.989948, 289, 125, 352, 156
-0.990031, 401, 97, 432, 224
-0.990061, 137, 153, 200, 184
-0.990074, 105, 185, 168, 248
-0.99011, 361, 201, 424, 264
-0.990115, 65, 189, 128, 220
-0.990122, 377, 193, 440, 320
-0.990196, 433, 85, 496, 116
-0.9902, 97, 89, 160, 152
-0.990219, 137, 97, 168, 224
-0.990234, 337, 97, 368, 160
-0.990275, 413, 41, 444, 104
-0.990289, 37, 145, 68, 208
-0.990352, 161, 1, 224, 332
-0.990364, 49, 97, 176, 160
-0.99037, 201, 113, 264, 144
-0.990389, 305, 153, 336, 216
-0.990413, 121, 273, 184, 332
-0.990415, 101, 185, 132, 248
-0.990418, 193, 101, 256, 132
-0.990435, 377, 153, 408, 216
-0.990438, 345, 33, 408, 96
-0.990444, 57, 169, 120, 200
-0.990456, 285, 65, 316, 192
-0.990479, 329, 137, 392, 168
-0.990489, 41, 189, 104, 220
-0.990498, 25, 53, 88, 84
-0.990531, 113, 129, 176, 160
-0.990544, 17, 145, 48, 208
-0.990546, 433, 129, 496, 192
-0.990557, 1, 201, 64, 232
-0.990571, 177, 1, 240, 64
-0.990597, 121, 65, 152, 192
-0.990607, 81, 17, 112, 80
-0.990621, 121, 1, 184, 32
-0.990635, 81, 1, 144, 32
-0.990713, 25, 73, 88, 104
-0.990729, 225, 133, 288, 164
-0.990734, 1, 57, 64, 88
-0.99074, 17, 1, 80, 32
-0.990745, 49, 1, 80, 64
-0.990754, 425, 57, 488, 88
-0.99076, 265, 225, 328, 288
-0.990766, 409, 273, 472, 332
-0.990782, 265, 113, 328, 144
-0.990793, 37, 97, 68, 160
-0.990798, 177, 149, 240, 180
-0.990803, 57, 273, 120, 332
-0.990806, 17, 181, 80, 212
-0.990826, 89, 177, 120, 304
-0.990827, 177, 49, 304, 112
-0.99083, 73, 145, 136, 176
-0.990892, 201, 133, 264, 164
-0.990897, 153, 125, 216, 156
-0.990898, 81, 133, 144, 164
-0.990908, 349, 161, 380, 288
-0.990944, 225, 177, 288, 208
-0.990954, 49, 45, 112, 76
-0.990965, 145, 137, 176, 200
-0.991003, 9, 153, 72, 184
-0.991004, 209, 225, 272, 256
-0.991012, 9, 1, 72, 332
-0.991015, 257, 33, 384, 96
-0.991015, 89, 17, 152, 48
-0.991029, 89, 185, 152, 216
-0.991048, 21, 41, 52, 104
-0.991071, 229, 225, 260, 288
-0.991101, 9, 169, 72, 200
-0.991104, 293, 105, 324, 168
-0.991109, 201, 25, 264, 88
-0.991111, 17, 93, 80, 124
-0.99114, 113, 157, 176, 188
-0.991142, 57, 57, 120, 88
-0.991155, 241, 185, 272, 248
-0.99116, 121, 161, 152, 224
-0.99117, 1, 113, 32, 240
-0.991177, 385, 1, 416, 128
-0.991187, 337, 149, 400, 180
-0.991192, 81, 157, 144, 188
-0.991207, 201, 129, 232, 256
-0.991209, 1, 81, 64, 112
-0.991223, 145, 217, 272, 280
-0.991238, 201, 165, 264, 196
-0.991244, 313, 1, 376, 332
-0.991256, 145, 165, 208, 196
-0.991263, 169, 273, 232, 332
-0.991267, 225, 73, 352, 136
-0.991271, 217, 189, 280, 220
-0.991289, 169, 181, 232, 212
-0.99133, 261, 177, 292, 240
-0.991353, 157, 169, 188, 232
-0.991371, 177, 165, 240, 196
-0.99139, 57, 129, 120, 160
-0.991396, 273, 177, 304, 240
-0.991399, 225, 149, 288, 180
-0.991414, 89, 45, 152, 76
-0.991429, 41, 1, 104, 32
-0.991437, 177, 125, 240, 156
-0.991477, 253, 249, 284, 312
-0.991477, 1, 45, 64, 76
-0.991526, 321, 49, 448, 112
-0.99156, 9, 265, 72, 328
-0.991562, 25, 33, 88, 64
-0.991567, 129, 29, 192, 60
-0.991575, 41, 157, 104, 188
-0.991582, 33, 169, 96, 200
-0.991589, 161, 1, 224, 32
-0.991598, 41, 85, 104, 116
-0.991601, 1, 69, 64, 100
-0.991611, 257, 145, 320, 176
-0.991613, 365, 105, 396, 168
-0.991622, 385, 121, 416, 184
-0.991641, 313, 97, 344, 160
-0.991657, 61, 49, 92, 112
-0.991684, 113, 169, 176, 200
-0.991721, 393, 81, 456, 112
-0.991722, 169, 93, 232, 124
-0.991725, 425, 45, 488, 76
-0.991726, 369, 129, 432, 160
-0.991731, 1, 33, 64, 64
-0.991733, 73, 117, 136, 148
-0.991734, 241, 101, 304, 132
-0.991737, 425, 177, 488, 240
-0.991738, 293, 161, 324, 224
-0.991744, 17, 17, 80, 48
-0.991763, 117, 113, 148, 176
-0.991772, 369, 145, 432, 176
-0.991778, 89, 57, 152, 88
-0.991779, 73, 41, 104, 104
-0.991786, 73, 33, 136, 64
-0.991792, 25, 201, 88, 232
-0.991794, 225, 165, 288, 196
-0.991802, 169, 33, 232, 96
-0.991815, 1, 137, 500, 200
-0.991815, 129, 297, 192, 328
-0.991817, 41, 141, 104, 172
-0.991818, 97, 293, 160, 324
-0.99182, 249, 157, 312, 188
-0.991849, 289, 185, 352, 216
-0.99185, 97, 33, 160, 64
-0.991853, 97, 117, 160, 148
-0.991867, 241, 221, 304, 252
-0.991878, 177, 113, 240, 144
-0.991889, 233, 201, 296, 232
-0.99191, 257, 173, 320, 204
-0.99191, 113, 13, 176, 44
-0.991922, 13, 49, 44, 176
-0.991924, 257, 193, 320, 224
-0.991929, 361, 157, 424, 188
-0.991984, 353, 57, 416, 120
-0.991989, 129, 41, 192, 72
-0.991997, 241, 1, 272, 128
-0.992003, 233, 89, 296, 120
-0.992012, 9, 105, 72, 136
-0.99202, 337, 197, 400, 228
-0.992039, 201, 153, 264, 184
-0.992051, 385, 129, 416, 256
-0.992061, 193, 181, 256, 212
-0.992076, 225, 97, 256, 128
-0.992083, 293, 161, 324, 288
-0.992091, 217, 237, 280, 268
-0.992108, 221, 33, 252, 160
-0.992118, 393, 69, 456, 100
-0.992129, 129, 57, 192, 88
-0.992137, 297, 113, 360, 144
-0.992142, 85, 65, 116, 192
-0.992145, 217, 241, 248, 304
-0.992148, 153, 33, 184, 96
-0.992156, 345, 9, 408, 40
-0.992163, 137, 13, 200, 44
-0.992169, 41, 13, 104, 44
-0.99217, 313, 41, 376, 104
-0.992236, 385, 49, 448, 80
-0.992265, 329, 233, 392, 264
-0.992282, 33, 145, 288, 208
-0.992288, 49, 73, 112, 104
-0.992297, 165, 141, 196, 172
-0.99231, 89, 197, 152, 228
-0.99233, 49, 293, 112, 324
-0.992336, 225, 1, 352, 64
-0.992338, 393, 93, 456, 124
-0.99234, 209, 213, 272, 244
-0.992343, 337, 161, 400, 192
-0.992344, 257, 217, 384, 280
-0.992353, 413, 97, 444, 160
-0.992355, 49, 33, 112, 64
-0.992365, 1, 57, 256, 120
-0.99237, 329, 113, 392, 144
-0.992371, 65, 21, 128, 52
-0.992378, 245, 117, 276, 148
-0.992386, 193, 89, 256, 120
-0.992398, 81, 169, 144, 200
-0.992431, 169, 301, 232, 332
-0.992446, 213, 81, 244, 144
-0.992449, 57, 101, 120, 132
-0.99245, 129, 185, 192, 216
-0.99245, 337, 221, 400, 252
-0.992458, 33, 109, 96, 140
-0.992467, 177, 133, 208, 164
-0.992486, 257, 125, 288, 156
-0.992498, 225, 1, 288, 32
-0.992501, 9, 141, 72, 172
-0.992514, 113, 185, 240, 248
-0.992515, 373, 129, 404, 192
-0.992516, 361, 117, 424, 148
-0.992522, 313, 209, 376, 240
-0.992523, 217, 249, 280, 280
-0.992541, 385, 177, 448, 240
-0.992562, 197, 133, 228, 164
-0.99259, 273, 81, 400, 144
-0.9926, 465, 89, 496, 152
-0.992642, 97, 137, 128, 168
-0.992643, 97, 97, 352, 160
-0.992648, 377, 17, 408, 80
-0.992654, 165, 153, 196, 184
-0.99266, 273, 133, 304, 164
-0.992677, 5, 53, 36, 84
-0.992677, 321, 257, 384, 320
-0.992682, 425, 9, 488, 72
-0.992688, 209, 133, 240, 164
-0.992689, 29, 65, 60, 96
-0.992699, 173, 177, 204, 304
-0.992712, 353, 233, 384, 296
-0.992721, 221, 109, 252, 140
-0.992737, 101, 1, 132, 32
-0.99275, 173, 165, 204, 196
-0.992752, 357, 133, 388, 164
-0.99279, 321, 125, 352, 156
-0.992791, 317, 169, 348, 232
-0.992791, 365, 145, 396, 176
-0.992803, 17, 69, 48, 100
-0.992807, 121, 17, 152, 48
-0.992811, 177, 73, 304, 136
-0.992819, 209, 113, 240, 144
-0.992821, 41, 61, 72, 92
-0.992825, 177, 125, 304, 156
-0.992834, 345, 129, 376, 160
-0.992835, 153, 141, 184, 172
-0.992837, 153, 157, 184, 188
-0.992848, 61, 97, 92, 224
-0.99285, 53, 69, 84, 100
-0.992862, 233, 109, 264, 140
-0.992863, 117, 133, 148, 164
-0.992863, 401, 49, 432, 112
-0.992865, 77, 193, 108, 320
-0.992867, 89, 169, 120, 200
-0.992867, 93, 181, 124, 212
-0.992875, 93, 9, 124, 72
-0.992882, 225, 121, 256, 152
-0.992882, 97, 153, 128, 184
-0.992884, 109, 145, 140, 176
-0.992894, 85, 133, 116, 164
-0.992897, 5, 73, 36, 104
-0.992905, 41, 185, 72, 216
-0.992909, 41, 77, 72, 108
-0.992913, 37, 169, 68, 200
-0.992918, 73, 25, 104, 56
-0.992924, 97, 125, 128, 156
-0.992927, 145, 1, 208, 256
-0.992928, 13, 169, 44, 200
-0.992939, 237, 177, 268, 208
-0.992945, 1, 157, 32, 188
-0.992947, 285, 133, 316, 164
-0.992948, 21, 1, 52, 32
-0.992958, 277, 121, 308, 152
-0.992971, 25, 173, 56, 204
-0.992976, 165, 129, 196, 160
-0.992979, 365, 157, 396, 188
-0.992982, 261, 145, 292, 176
-0.992982, 41, 1, 72, 32
-0.992985, 109, 169, 140, 200
-0.992993, 441, 81, 472, 208
-0.992995, 49, 45, 80, 76
-0.992995, 465, 85, 496, 116
-0.992996, 25, 201, 56, 232
-0.993002, 109, 157, 140, 188
-0.993005, 1, 1, 32, 32
-0.993006, 309, 125, 340, 156
-0.993016, 449, 85, 480, 116
-0.993021, 189, 121, 220, 152
-0.993028, 129, 1, 160, 32
-0.993031, 181, 177, 212, 208
-0.993034, 25, 157, 56, 188
-0.993043, 217, 157, 248, 188
-0.993048, 61, 29, 92, 60
-0.993048, 237, 165, 268, 196
-0.993049, 181, 149, 212, 180
-0.993056, 105, 181, 136, 212
-0.993056, 249, 165, 280, 196
-0.993058, 209, 101, 240, 132
-0.993067, 53, 189, 84, 220
-0.993069, 165, 1, 196, 32
-0.993069, 345, 229, 376, 260
-0.99307, 21, 17, 52, 48
-0.993072, 337, 209, 464, 272
-0.993073, 153, 129, 184, 160
-0.993074, 113, 5, 144, 36
-0.993076, 57, 169, 88, 200
-0.993077, 333, 129, 364, 160
-0.993078, 65, 189, 96, 220
-0.993105, 77, 289, 108, 320
-0.99311, 1, 41, 32, 72
-0.993117, 229, 229, 260, 260
-0.993118, 25, 97, 56, 128
-0.993122, 149, 1, 180, 32
-0.993127, 145, 273, 272, 332
-0.99313, 245, 105, 276, 136
-0.993131, 161, 169, 192, 200
-0.993134, 121, 149, 152, 180
-0.993136, 17, 57, 48, 88
-0.993138, 225, 133, 256, 164
-0.993143, 231, 89, 246, 152
-0.993146, 9, 93, 40, 124
-0.993155, 53, 57, 84, 88
-0.993156, 93, 193, 124, 224
-0.993156, 85, 149, 116, 180
-0.993156, 13, 41, 44, 72
-0.99316, 425, 81, 456, 112
-0.993167, 225, 193, 256, 224
-0.993169, 77, 193, 108, 224
-0.993183, 9, 105, 40, 136
-0.993187, 141, 133, 172, 164
-0.993188, 445, 61, 476, 92
-0.993189, 17, 81, 48, 112
-0.993197, 1, 201, 32, 232
-0.9932, 245, 221, 276, 252
-0.9932, 321, 65, 352, 192
-0.993202, 13, 157, 44, 188
-0.993206, 341, 117, 372, 148
-0.993207, 81, 9, 112, 40
-0.993208, 469, 57, 500, 88
-0.99321, 97, 113, 128, 144
-0.993211, 133, 25, 164, 56
-0.993212, 265, 113, 296, 144
-0.993213, 37, 197, 68, 228
-0.993215, 217, 169, 248, 200
-0.993224, 37, 49, 68, 80
-0.993238, 41, 157, 72, 188
-0.99324, 185, 161, 216, 192
-0.993241, 137, 145, 168, 176
-0.993241, 193, 181, 224, 212
-0.993244, 249, 153, 280, 184
-0.993246, 297, 129, 328, 160
-0.993246, 257, 197, 288, 228
-0.993248, 457, 73, 488, 104
-0.993252, 73, 169, 104, 200
-0.993253, 177, 121, 208, 152
-0.993254, 29, 81, 60, 112
-0.993254, 73, 149, 104, 180
-0.993255, 65, 289, 96, 320
-0.993256, 229, 153, 260, 184
-0.993259, 49, 17, 80, 48
-0.99326, 101, 53, 132, 84
-0.993264, 413, 97, 444, 128
-0.993334, 97, 273, 224, 332
-0.993363, 289, 209, 352, 272
-0.993412, 405, 145, 436, 272
-0.993452, 97, 121, 352, 184
-0.993457, 321, 257, 448, 320
-0.993566, 73, 65, 104, 192
-0.993569, 221, 105, 236, 168
-0.993605, 461, 161, 492, 288
-0.993621, 257, 129, 384, 160
-0.993638, 385, 97, 448, 160
-0.993683, 1, 25, 256, 88
-0.993697, 193, 153, 448, 216
-0.993708, 225, 265, 352, 328
-0.993709, 253, 1, 284, 128
-0.993737, 161, 249, 224, 312
-0.993771, 297, 65, 328, 192
-0.993786, 273, 241, 400, 304
-0.993837, 333, 161, 364, 288
-0.993848, 1, 209, 64, 332
-0.993889, 289, 1, 352, 332
-0.994102, 265, 121, 280, 184
-0.994108, 271, 129, 286, 192
-0.994111, 413, 33, 444, 160
-0.99414, 193, 25, 320, 88
-0.994156, 273, 57, 400, 120
-0.994205, 281, 1, 344, 128
-0.994221, 193, 185, 448, 248
-0.994347, 33, 169, 288, 232
-0.99435, 305, 161, 336, 288
-0.994355, 193, 97, 448, 160
-0.99438, 237, 89, 252, 152
-0.994397, 149, 145, 180, 272
-0.994404, 33, 5, 160, 36
-0.994513, 421, 145, 452, 272
-0.99458, 257, 41, 500, 104
-0.99462, 369, 273, 496, 332
-0.994639, 1, 161, 500, 224
-0.99464, 145, 145, 272, 176
-0.994641, 197, 177, 228, 304
-0.994688, 161, 113, 288, 144
-0.994691, 209, 113, 336, 144
-0.994696, 113, 161, 128, 224
-0.994702, 129, 1, 384, 64
-0.994725, 31, 169, 46, 232
-0.994738, 373, 137, 388, 200
-0.994763, 109, 137, 124, 200
-0.994854, 225, 241, 352, 304
-0.994896, 209, 33, 240, 160
-0.994897, 255, 113, 270, 176
-0.994907, 177, 137, 192, 200
-0.99493, 1, 41, 128, 72
-0.994962, 337, 233, 464, 296
-0.994969, 1, 1, 256, 64
-0.994997, 1, 105, 256, 168
-0.995026, 171, 137, 186, 200
-0.995029, 33, 201, 288, 264
-0.995065, 97, 33, 352, 96
-0.995085, 293, 1, 324, 128
-0.995092, 367, 129, 382, 192
-0.995094, 49, 29, 176, 60
-0.995118, 203, 129, 218, 192
-0.995134, 193, 65, 224, 192
-0.995143, 11, 25, 26, 88
-0.995145, 137, 145, 168, 272
-0.995166, 1, 81, 256, 144
-0.995173, 49, 273, 176, 332
-0.995187, 425, 81, 456, 208
-0.995199, 1, 1, 500, 64
-0.995261, 129, 133, 256, 164
-0.995307, 129, 249, 256, 312
-0.995337, 265, 1, 296, 128
-0.995341, 145, 157, 272, 188
-0.995361, 49, 41, 176, 72
-0.995375, 157, 1, 172, 64
-0.995381, 209, 121, 224, 184
-0.995385, 97, 217, 224, 280
-0.995443, 105, 169, 120, 232
-0.995446, 227, 113, 242, 176
-0.995478, 215, 121, 230, 184
-0.995531, 131, 17, 146, 80
-0.995564, 161, 177, 192, 304
-0.995566, 1, 77, 128, 108
-0.995566, 281, 1, 312, 128
-0.995578, 119, 1, 134, 64
-0.995582, 1, 25, 500, 88
-0.995604, 61, 193, 92, 320
-0.995604, 33, 17, 160, 48
-0.995604, 97, 145, 224, 176
-0.995643, 457, 113, 488, 240
-0.995645, 141, 1, 156, 64
-0.995648, 101, 137, 116, 200
-0.995658, 361, 177, 392, 304
-0.99566, 17, 193, 144, 224
-0.995678, 125, 1, 140, 64
-0.995683, 119, 169, 134, 232
-0.995707, 49, 169, 64, 232
-0.995723, 227, 201, 242, 264
-0.995733, 359, 129, 374, 192
-0.995755, 17, 157, 144, 188
-0.995766, 277, 129, 292, 192
-0.995818, 247, 113, 262, 176
-0.995846, 119, 41, 134, 104
-0.995857, 337, 117, 464, 148
-0.995876, 17, 65, 32, 128
-0.995888, 107, 113, 122, 176
-0.995903, 21, 9, 36, 72
-0.995904, 73, 169, 88, 232
-0.995907, 225, 209, 480, 272
-0.99591, 335, 121, 350, 184
-0.995918, 253, 161, 268, 224
-0.995944, 1, 61, 128, 92
-0.995945, 97, 165, 224, 196
-0.995951, 221, 129, 236, 192
-0.995958, 37, 9, 52, 72
-0.99597, 321, 121, 336, 184
-0.996003, 61, 161, 76, 224
-0.99601, 165, 137, 180, 200
-0.996013, 441, 161, 472, 288
-0.996047, 43, 169, 58, 232
-0.996053, 349, 217, 364, 280
-0.99606, 25, 161, 40, 224
-0.996067, 25, 73, 40, 136
-0.996068, 171, 1, 186, 64
-0.996069, 87, 169, 102, 232
-0.996073, 1, 105, 128, 136
-0.996075, 129, 209, 192, 332
-0.996082, 257, 17, 500, 80
-0.996124, 227, 145, 242, 208
-0.996148, 65, 133, 192, 164
-0.996154, 321, 177, 352, 304
-0.996167, 79, 161, 94, 224
-0.996167, 279, 105, 294, 168
-0.996168, 257, 189, 384, 220
-0.996177, 1, 217, 128, 280
-0.996178, 1, 89, 128, 120
-0.996191, 113, 1, 240, 32
-0.996208, 379, 145, 394, 208
-0.996219, 261, 201, 276, 264
-0.99622, 45, 65, 60, 128
-0.996221, 257, 73, 500, 136
-0.996222, 93, 161, 108, 224
-0.996223, 37, 169, 52, 232
-0.996238, 353, 129, 368, 192
-0.996261, 183, 145, 198, 208
-0.996265, 209, 149, 336, 180
-0.996268, 55, 57, 70, 120
-0.996275, 193, 137, 320, 168
-0.996279, 233, 185, 248, 248
-0.996289, 225, 81, 240, 144
-0.99629, 49, 209, 80, 332
-0.996294, 197, 137, 212, 200
-0.996306, 271, 105, 286, 168
-0.996319, 1, 57, 16, 120
-0.996326, 255, 225, 270, 288
-0.996329, 31, 9, 46, 72
-0.996334, 17, 249, 144, 312
-0.996343, 1, 29, 128, 60
-0.99635, 173, 113, 188, 176
-0.996357, 181, 169, 196, 232
-0.996363, 289, 141, 416, 172
-0.9964, 17, 145, 144, 176
-0.996405, 273, 265, 400, 328
-0.996417, 49, 53, 176, 84
-0.99642, 329, 121, 344, 184
-0.996425, 257, 117, 384, 148
-0.996426, 369, 49, 496, 80
-0.996436, 161, 177, 288, 208
-0.99644, 97, 57, 352, 120
-0.996449, 95, 137, 110, 200
-0.996449, 113, 13, 240, 44
-0.996453, 209, 193, 336, 224
-0.996457, 229, 225, 244, 288
-0.996458, 17, 169, 144, 200
-0.99646, 55, 169, 70, 232
-0.996473, 161, 233, 416, 296
-0.996483, 33, 1, 64, 256
-0.996484, 289, 129, 304, 192
-0.996496, 1, 97, 16, 160
-0.996503, 11, 73, 26, 136
-0.996506, 97, 25, 224, 56
-0.996511, 145, 101, 272, 132
-0.996511, 125, 25, 140, 88
-0.996517, 113, 33, 144, 288
-0.996521, 95, 41, 110, 104
-0.996544, 437, 65, 452, 128
-0.996545, 177, 1, 304, 64
-0.996549, 11, 49, 26, 112
-0.996555, 97, 121, 224, 152
-0.996562, 265, 145, 280, 208
-0.996563, 353, 141, 480, 172
-0.996566, 311, 129, 326, 192
-0.996574, 445, 49, 460, 112
-0.996599, 119, 137, 134, 200
-0.996603, 301, 129, 316, 192
-0.996611, 33, 73, 48, 136
-0.996621, 213, 145, 228, 208
-0.996629, 359, 201, 374, 264
-0.996637, 347, 129, 362, 192
-0.996657, 55, 81, 70, 144
-0.996665, 163, 1, 178, 64
-0.996665, 17, 133, 144, 164
-0.996667, 175, 169, 190, 232
-0.99667, 5, 25, 20, 88
-0.996677, 39, 73, 54, 136
-0.996679, 221, 153, 236, 216
-0.996683, 283, 129, 298, 192
-0.996697, 271, 193, 286, 256
-0.996703, 139, 33, 154, 96
-0.996704, 209, 177, 336, 208
-0.996711, 183, 121, 198, 184
-0.996719, 49, 41, 64, 104
-0.996724, 63, 89, 78, 152
-0.996733, 245, 89, 260, 152
-0.996744, 373, 193, 404, 320
-0.996745, 85, 137, 100, 200
-0.996745, 125, 161, 140, 224
-0.996749, 17, 89, 32, 152
-0.99675, 109, 17, 124, 80
-0.996754, 233, 129, 248, 192
-0.996759, 459, 49, 474, 112
-0.996761, 35, 97, 50, 160
-0.996762, 25, 49, 40, 112
-0.996768, 101, 113, 116, 176
-0.996775, 177, 33, 208, 160
-0.996775, 191, 137, 206, 200
-0.996778, 259, 137, 274, 200
-0.996778, 151, 1, 166, 64
-0.996784, 239, 113, 254, 176
-0.996784, 341, 121, 356, 184
-0.996804, 113, 185, 128, 248
-0.996805, 67, 161, 82, 224
-0.996807, 85, 25, 100, 88
-0.996811, 369, 61, 496, 92
-0.996834, 327, 97, 342, 160
-0.996842, 471, 65, 486, 128
-0.996854, 369, 81, 496, 112
-0.996861, 265, 169, 280, 232
-0.996866, 63, 41, 78, 104
-0.996887, 5, 1, 20, 64
-0.996891, 65, 185, 192, 216
-0.996897, 361, 105, 376, 168
-0.996905, 63, 65, 78, 128
-0.996926, 385, 161, 400, 224
-0.996936, 9, 1, 40, 256
-0.996937, 49, 65, 176, 96
-0.996942, 75, 1, 90, 64
-0.996943, 249, 209, 264, 272
-0.996954, 237, 161, 252, 224
-0.99696, 257, 177, 384, 208
-0.996965, 289, 153, 416, 184
-0.996995, 1, 181, 128, 212
-0.99703, 21, 1, 52, 256
-0.997051, 49, 1, 80, 256
-0.997057, 97, 41, 224, 72
-0.997062, 353, 129, 480, 160
-0.997077, 333, 209, 364, 332
-0.997096, 377, 1, 408, 256
-0.997098, 179, 141, 194, 172
-0.997123, 193, 165, 320, 196
-0.997156, 65, 241, 192, 304
-0.997171, 37, 209, 68, 332
-0.997174, 229, 65, 260, 320
-0.997192, 193, 233, 320, 264
-0.997215, 369, 93, 496, 124
-0.997228, 247, 113, 262, 144
-0.997263, 193, 137, 208, 168
-0.997266, 413, 1, 444, 256
-0.997292, 33, 293, 160, 324
-0.997312, 49, 85, 176, 116
-0.997355, 161, 189, 288, 220
-0.997359, 61, 1, 92, 256
-0.997366, 209, 101, 336, 132
-0.997366, 289, 9, 416, 40
-0.9974, 9, 209, 40, 332
-0.997416, 367, 133, 382, 164
-0.997422, 231, 93, 246, 124
-0.997429, 275, 133, 290, 164
-0.997452, 185, 133, 200, 164
-0.997475, 1, 205, 128, 236
-0.997477, 73, 1, 104, 256
-0.997478, 361, 33, 392, 160
-0.99749, 129, 209, 384, 272
-0.997491, 401, 193, 464, 320
-0.997493, 265, 125, 280, 156
-0.997503, 1, 113, 500, 176
-0.997509, 165, 1, 180, 32
-0.997515, 1, 185, 500, 248
-0.997527, 449, 1, 480, 256
-0.997541, 337, 153, 464, 184
-0.997551, 253, 117, 268, 148
-0.997559, 167, 141, 182, 172
-0.997581, 113, 209, 144, 332
-0.997581, 149, 1, 180, 256
-0.997587, 173, 141, 188, 172
-0.997596, 237, 101, 252, 132
-0.997603, 241, 65, 272, 320
-0.997609, 1, 49, 500, 112
-0.997641, 113, 181, 128, 212
-0.997661, 109, 137, 124, 168
-0.997676, 241, 165, 368, 196
-0.997677, 175, 129, 190, 160
-0.997679, 369, 1, 496, 32
-0.997689, 225, 97, 240, 128
-0.997694, 305, 181, 432, 212
-0.99771, 223, 113, 238, 144
-0.997716, 223, 133, 238, 164
-0.997723, 17, 49, 32, 80
-0.997724, 201, 133, 216, 164
-0.997736, 209, 89, 336, 120
-0.997739, 259, 121, 274, 152
-0.997743, 313, 1, 376, 128
-0.997747, 113, 177, 240, 208
-0.99775, 69, 29, 84, 60
-0.997754, 101, 133, 116, 164
-0.997756, 375, 141, 390, 172
-0.997758, 353, 129, 368, 160
-0.997763, 17, 117, 144, 148
-0.997776, 97, 53, 224, 84
-0.997779, 1, 273, 256, 332
-0.997783, 23, 65, 38, 96
-0.997794, 85, 33, 116, 288
-0.997799, 23, 53, 38, 84
-0.997803, 109, 157, 124, 188
-0.997808, 97, 1, 112, 32
-0.997815, 161, 1, 288, 32
-0.997823, 281, 137, 296, 168
-0.997827, 75, 33, 90, 64
-0.997836, 193, 209, 320, 240
-0.997839, 105, 181, 120, 212
-0.997846, 13, 61, 28, 92
-0.997847, 213, 133, 228, 164
-0.997847, 129, 1, 160, 256
-0.997855, 49, 101, 176, 132
-0.997861, 305, 129, 432, 160
-0.997863, 125, 13, 140, 44
-0.997885, 217, 65, 248, 320
-0.997886, 101, 149, 116, 180
-0.997895, 145, 53, 272, 84
-0.997896, 109, 113, 124, 144
-0.9979, 353, 169, 480, 200
-0.997904, 129, 89, 256, 120
-0.997923, 193, 249, 320, 280
-0.997925, 429, 1, 460, 256
-0.997932, 305, 169, 432, 200
-0.997941, 247, 165, 262, 196
-0.997943, 175, 153, 190, 184
-0.997953, 65, 65, 80, 96
-0.99796, 271, 121, 286, 152
-0.997974, 107, 125, 122, 156
-0.997976, 1, 81, 500, 144
-0.997981, 81, 293, 208, 324
-0.997982, 119, 149, 134, 180
-0.997989, 353, 65, 384, 320
-0.997995, 305, 105, 432, 136
-0.997996, 65, 197, 192, 228
-0.997998, 323, 125, 338, 156
-0.998005, 207, 133, 222, 164
-0.998022, 117, 1, 132, 32
-0.998027, 389, 1, 420, 256
-0.998027, 165, 157, 180, 188
-0.998038, 19, 161, 34, 192
-0.998039, 205, 65, 236, 320
-0.998044, 217, 113, 232, 144
-0.998048, 241, 113, 256, 144
-0.998052, 377, 153, 392, 184
-0.998058, 161, 137, 176, 168
-0.998059, 59, 45, 74, 76
-0.998072, 131, 25, 146, 56
-0.99808, 103, 169, 118, 200
-0.998082, 227, 145, 242, 176
-0.998085, 333, 125, 348, 156
-0.998092, 359, 129, 374, 160
-0.998103, 117, 125, 132, 156
-0.998103, 169, 129, 184, 160
-0.998117, 15, 101, 30, 132
-0.998129, 15, 81, 30, 112
-0.998131, 109, 169, 124, 200
-0.998138, 51, 1, 66, 32
-0.998139, 65, 241, 320, 304
-0.99814, 115, 169, 130, 200
-0.998141, 145, 41, 272, 72
-0.998141, 219, 101, 234, 132
-0.998142, 283, 125, 298, 156
-0.998144, 21, 77, 36, 108
-0.998149, 255, 165, 270, 196
-0.998152, 181, 1, 212, 256
-0.998154, 31, 57, 46, 88
-0.998155, 97, 33, 128, 288
-0.998158, 69, 41, 84, 72
-0.998163, 45, 1, 60, 32
-0.998166, 61, 169, 76, 200
-0.998179, 53, 169, 68, 200
-0.998187, 305, 29, 432, 60
-0.998188, 23, 101, 38, 132
-0.998189, 257, 105, 384, 136
-0.998195, 89, 293, 104, 324
-0.998196, 13, 157, 28, 188
-0.998198, 45, 73, 60, 104
-0.998202, 23, 89, 38, 120
-0.998205, 13, 33, 28, 64
-0.998209, 181, 169, 196, 200
-0.998215, 349, 225, 364, 256
-0.998222, 231, 125, 246, 156
-0.998223, 269, 137, 284, 168
-0.998223, 157, 5, 172, 36
-0.998225, 35, 197, 50, 228
-0.998225, 401, 1, 432, 256
-0.998226, 201, 121, 216, 152
-0.998228, 49, 57, 64, 88
-0.998231, 209, 77, 336, 108
-0.998231, 39, 73, 54, 104
-0.99824, 239, 177, 254, 208
-0.99824, 41, 197, 56, 228
-0.998241, 437, 73, 452, 104
-0.998254, 145, 225, 272, 256
-0.998257, 7, 49, 22, 80
-0.99826, 183, 121, 198, 152
-0.998268, 193, 125, 208, 156
-0.998269, 229, 113, 244, 144
-0.998272, 41, 169, 56, 200
-0.998279, 277, 121, 292, 152
-0.998285, 41, 57, 56, 88
-0.998286, 63, 185, 78, 216
-0.998287, 97, 289, 112, 320
-0.998295, 29, 169, 44, 200
-0.998297, 207, 173, 222, 204
-0.998299, 251, 225, 266, 256
-0.998301, 281, 209, 344, 332
-0.998305, 257, 233, 500, 296
-0.998305, 47, 169, 62, 200
-0.998307, 41, 93, 56, 124
-0.998308, 259, 205, 274, 236
-0.998311, 3, 157, 18, 188
-0.998317, 269, 65, 300, 320
-0.998317, 113, 65, 240, 96
-0.998318, 55, 57, 70, 88
-0.99832, 117, 137, 132, 168
-0.998321, 65, 77, 80, 108
-0.998322, 485, 97, 500, 128
-0.998327, 355, 201, 370, 232
-0.998328, 57, 73, 72, 104
-0.998328, 175, 165, 190, 196
-0.998329, 275, 145, 290, 176
-0.998335, 317, 121, 332, 152
-0.998336, 199, 169, 214, 200
-0.998338, 229, 157, 244, 188
-0.998344, 187, 145, 202, 176
-0.998346, 231, 193, 246, 224
-0.99835, 453, 85, 468, 116
-0.998354, 35, 173, 50, 204
-0.998358, 175, 1, 190, 32
-0.998361, 41, 157, 56, 188
-0.998364, 33, 69, 48, 100
-0.998369, 29, 157, 44, 188
-0.998371, 25, 21, 56, 36
-0.998372, 13, 43, 44, 58
-0.998372, 69, 27, 100, 42
-0.998372, 49, 59, 80, 74
-0.998372, 53, 89, 84, 104
-0.998373, 269, 123, 300, 138
-0.998373, 45, 101, 76, 116
-0.998373, 257, 127, 288, 142
-0.998374, 253, 163, 284, 178
-0.998374, 341, 123, 372, 138
-0.998374, 153, 147, 184, 162
-0.998375, 109, 63, 140, 78
-0.998375, 381, 1, 412, 16
-0.998375, 115, 193, 130, 224
-0.998377, 97, 127, 128, 142
-0.998377, 369, 25, 496, 56
-0.998378, 237, 165, 268, 180
-0.998378, 113, 11, 144, 26
-0.998379, 471, 69, 486, 100
-0.99838, 1, 7, 32, 22
-0.99838, 109, 183, 140, 198
-0.998381, 61, 187, 92, 202
-0.998381, 397, 1, 428, 16
-0.998383, 113, 137, 144, 152
-0.998383, 309, 187, 340, 202
-0.998384, 25, 167, 56, 182
-0.998385, 209, 105, 240, 120
-0.998386, 85, 137, 116, 152
-0.998387, 161, 135, 192, 150
-0.998387, 169, 1, 200, 16
-0.998388, 245, 113, 276, 128
-0.998388, 5, 49, 36, 64
-0.99839, 65, 33, 96, 48
-0.998391, 25, 89, 56, 104
-0.998391, 105, 5, 136, 20
-0.998391, 237, 189, 268, 204
-0.998391, 469, 93, 500, 108
-0.998392, 149, 153, 180, 168
-0.998392, 89, 155, 120, 170
-0.998393, 117, 19, 148, 34
-0.998393, 261, 139, 292, 154
-0.998394, 45, 71, 76, 86
-0.998394, 129, 205, 256, 236
-0.998394, 1, 93, 32, 108
-0.998395, 225, 131, 256, 146
-0.998395, 301, 131, 332, 146
-0.998397, 17, 67, 48, 82
-0.998397, 13, 93, 44, 108
-0.998398, 117, 45, 148, 60
-0.998398, 65, 201, 96, 216
-0.998398, 181, 169, 212, 184
-0.998399, 5, 79, 36, 94
-0.998401, 257, 201, 384, 232
-0.998401, 73, 189, 104, 204
-0.998401, 101, 55, 132, 70
-0.998402, 233, 111, 264, 126
-0.998405, 365, 157, 396, 172
-0.998406, 105, 193, 136, 208
-0.998406, 161, 169, 192, 184
-0.998406, 53, 77, 84, 92
-0.998406, 177, 65, 304, 96
-0.998407, 241, 5, 368, 36
-0.998407, 21, 83, 52, 98
-0.998409, 41, 81, 72, 96
-0.998409, 337, 131, 368, 146
-0.99841, 125, 3, 156, 18
-0.998411, 29, 179, 60, 194
-0.998413, 225, 125, 256, 140
-0.998413, 21, 203, 52, 218
-0.998413, 341, 65, 372, 320
-0.998414, 249, 169, 280, 184
-0.998415, 209, 113, 240, 128
-0.998415, 325, 127, 356, 142
-0.998416, 121, 35, 152, 50
-0.998418, 177, 145, 208, 160
-0.998418, 181, 179, 212, 194
-0.998418, 33, 173, 64, 188
-0.99842, 1, 1, 32, 16
-0.99842, 365, 65, 396, 320
-0.998421, 161, 163, 192, 178
-0.998422, 1, 205, 32, 220
-0.998423, 49, 187, 80, 202
-0.998423, 53, 203, 84, 218
-0.998424, 93, 197, 124, 212
-0.998426, 13, 103, 44, 118
-0.998427, 221, 115, 252, 130
-0.998428, 221, 229, 252, 244
-0.998429, 289, 133, 320, 148
-0.998429, 153, 141, 184, 156
-0.99843, 109, 145, 140, 160
-0.998432, 41, 3, 72, 18
-0.998434, 5, 57, 36, 72
-0.998434, 29, 99, 60, 114
-0.998434, 33, 205, 64, 220
-0.998435, 193, 221, 320, 252
-0.998439, 21, 11, 52, 26
-0.998439, 33, 63, 64, 78
-0.99844, 365, 151, 396, 166
-0.998442, 5, 167, 36, 182
-0.998444, 261, 147, 292, 162
-0.998444, 33, 71, 64, 86
-0.998447, 49, 195, 112, 210
-0.998448, 1, 85, 32, 100
-0.99845, 53, 65, 84, 80
-0.998451, 165, 157, 196, 172
-0.998452, 193, 135, 224, 150
-0.998452, 233, 117, 264, 132
-0.998453, 361, 145, 392, 160
-0.998453, 173, 133, 204, 148
-0.998454, 277, 129, 308, 144
-0.998454, 245, 125, 276, 140
-0.998456, 369, 37, 496, 68
-0.998458, 97, 147, 128, 162
-0.998459, 157, 1, 188, 16
-0.99846, 9, 173, 40, 188
-0.998461, 237, 171, 268, 186
-0.998465, 49, 217, 176, 280
-0.998468, 277, 137, 308, 152
-0.998468, 97, 183, 128, 198
-0.998474, 313, 127, 344, 142
-0.998477, 21, 73, 52, 88
-0.998477, 5, 65, 36, 80
-0.998479, 361, 139, 392, 154
-0.998482, 209, 135, 240, 150
-0.998482, 261, 133, 292, 148
-0.998483, 33, 201, 96, 216
-0.998483, 469, 65, 500, 320
-0.998483, 349, 133, 380, 148
-0.998484, 5, 71, 36, 86
-0.998486, 177, 135, 240, 150
-0.998487, 449, 87, 480, 102
-0.998487, 97, 137, 128, 152
-0.998488, 117, 25, 148, 40
-0.99849, 21, 3, 52, 18
-0.998493, 89, 191, 120, 206
-0.9985, 425, 75, 488, 90
-0.998501, 73, 195, 104, 210
-0.998502, 217, 125, 280, 140
-0.998502, 297, 129, 360, 144
-0.998502, 21, 173, 52, 188
-0.998503, 1, 205, 64, 220
-0.998504, 217, 117, 280, 132
-0.998514, 37, 197, 68, 212
-0.998514, 253, 65, 284, 320
-0.998515, 25, 195, 88, 210
-0.998515, 161, 273, 416, 332
-0.998516, 49, 195, 80, 210
-0.998517, 65, 187, 128, 202
-0.998518, 169, 151, 200, 166
-0.998519, 181, 139, 212, 154
-0.998521, 233, 133, 296, 148
-0.998529, 113, 77, 240, 108
-0.99853, 425, 69, 488, 84
-0.99853, 321, 45, 448, 76
-0.998534, 209, 107, 272, 122
-0.998534, 285, 1, 316, 256
-0.998537, 321, 133, 384, 148
-0.998537, 61, 193, 92, 208
-0.998537, 273, 131, 336, 146
-0.998537, 145, 249, 272, 280
-0.998538, 321, 209, 448, 240
-0.998539, 113, 5, 176, 20
-0.998541, 73, 199, 136, 214
-0.998543, 113, 155, 176, 170
-0.998543, 217, 101, 280, 116
-0.998545, 153, 141, 216, 156
-0.998545, 369, 105, 496, 136
-0.998546, 113, 145, 176, 160
-0.998547, 73, 9, 136, 24
-0.99855, 17, 93, 80, 108
-0.998551, 321, 193, 448, 224
-0.998551, 165, 143, 196, 158
-0.998551, 17, 5, 80, 20
-0.998552, 25, 83, 88, 98
-0.998553, 153, 155, 216, 170
-0.998556, 221, 109, 252, 124
-0.998556, 137, 305, 200, 320
-0.998557, 89, 33, 152, 48
-0.998558, 25, 67, 88, 82
-0.998559, 81, 193, 144, 208
-0.998559, 89, 21, 152, 36
-0.998563, 41, 1, 104, 16
-0.998564, 17, 99, 80, 114
-0.998567, 257, 125, 320, 140
-0.998569, 425, 63, 488, 78
-0.998569, 137, 163, 200, 178
-0.998573, 137, 1, 200, 16
-0.998575, 425, 81, 488, 96
-0.998575, 161, 165, 224, 180
-0.998576, 169, 65, 200, 320
-0.998576, 113, 135, 176, 150
-0.998577, 329, 139, 392, 154
-0.998578, 193, 99, 256, 114
-0.998579, 241, 253, 368, 284
-0.998579, 17, 11, 80, 26
-0.998581, 193, 115, 256, 130
-0.998582, 161, 147, 224, 162
-0.998583, 1, 67, 64, 82
-0.998583, 201, 133, 264, 148
-0.998584, 1, 177, 64, 192
-0.998586, 369, 1, 432, 16
-0.998588, 73, 147, 136, 162
-0.998589, 1, 79, 64, 94
-0.99859, 121, 11, 184, 26
-0.99859, 177, 141, 240, 156
-0.998592, 225, 99, 256, 114
-0.998594, 305, 85, 432, 116
-0.998594, 25, 207, 88, 222
-0.998595, 201, 171, 264, 186
-0.998595, 129, 27, 192, 42
-0.998595, 225, 193, 288, 208
-0.998596, 25, 73, 88, 88
-0.998597, 169, 1, 232, 16
-0.998598, 1, 61, 64, 76
-0.998599, 433, 93, 496, 108
-0.9986, 57, 61, 120, 76
-0.9986, 57, 45, 120, 60
-0.998601, 217, 151, 280, 166
-0.998603, 73, 3, 136, 18
-0.998606, 153, 135, 216, 150
-0.998607, 17, 277, 144, 308
-0.998608, 273, 137, 336, 152
-0.998608, 177, 159, 240, 174
-0.998608, 217, 239, 280, 254
-0.998609, 17, 171, 80, 186
-0.99861, 89, 49, 152, 64
-0.99861, 113, 167, 176, 182
-0.99861, 217, 163, 280, 178
-0.998611, 49, 305, 112, 320
-0.998611, 41, 91, 104, 106
-0.998611, 177, 173, 240, 188
-0.998612, 193, 165, 256, 180
-0.998612, 245, 119, 276, 134
-0.998613, 137, 147, 200, 162
-0.998613, 89, 39, 152, 54
-0.998614, 81, 163, 144, 178
-0.998614, 241, 119, 304, 134
-0.998614, 41, 171, 104, 186
-0.998614, 185, 187, 248, 202
-0.998615, 1, 49, 64, 64
-0.998616, 193, 121, 256, 136
-0.998616, 41, 189, 104, 204
-0.998618, 1, 73, 64, 88
-0.998619, 89, 57, 152, 72
-0.998619, 97, 27, 160, 42
-0.998621, 25, 47, 88, 62
-0.998621, 241, 113, 304, 128
-0.998622, 89, 15, 152, 30
-0.998625, 201, 177, 264, 192
-0.998625, 1, 199, 64, 214
-0.998628, 57, 53, 120, 68
-0.998628, 337, 151, 400, 166
-0.998628, 209, 227, 272, 242
-0.998628, 89, 187, 152, 202
-0.998628, 337, 159, 400, 174
-0.99863, 25, 61, 88, 76
-0.998631, 177, 153, 240, 168
-0.998632, 1, 211, 64, 226
-0.998632, 369, 135, 432, 150
-0.998634, 73, 137, 136, 152
-0.998635, 369, 151, 432, 166
-0.998635, 249, 197, 312, 212
-0.998635, 65, 29, 128, 44
-0.998636, 73, 127, 136, 142
-0.998636, 225, 221, 288, 236
-0.998637, 257, 147, 320, 162
-0.998637, 433, 87, 496, 102
-0.998637, 137, 169, 200, 184
-0.998638, 185, 105, 248, 120
-0.998639, 113, 161, 176, 176
-0.99864, 17, 183, 80, 198
-0.99864, 225, 181, 288, 196
-0.99864, 289, 189, 352, 204
-0.99864, 337, 145, 400, 160
-0.998641, 425, 57, 488, 72
-0.998643, 41, 99, 104, 114
-0.998643, 41, 13, 104, 28
-0.998643, 393, 1, 456, 16
-0.998643, 225, 169, 288, 184
-0.998644, 97, 127, 160, 142
-0.998644, 49, 35, 112, 50
-0.998645, 41, 157, 104, 172
-0.998646, 25, 111, 88, 126
-0.998647, 385, 71, 448, 86
-0.998647, 241, 187, 304, 202
-0.998648, 233, 107, 296, 122
-0.998671, 257, 73, 384, 104
-0.998687, 257, 241, 384, 272
-0.998755, 267, 113, 282, 240
-0.998779, 369, 13, 496, 44
-0.998784, 23, 1, 38, 128
-0.998785, 113, 281, 240, 312
-0.998786, 127, 1, 142, 128
-0.998796, 193, 269, 320, 300
-0.998811, 209, 49, 336, 80
-0.998832, 33, 1, 48, 128
-0.998857, 229, 113, 244, 240
-0.998859, 145, 237, 272, 268
-0.998863, 243, 97, 258, 224
-0.998892, 145, 29, 272, 60
-0.9989, 257, 57, 384, 88
-0.998907, 261, 113, 276, 240
-0.998915, 253, 113, 268, 240
-0.998916, 177, 129, 192, 256
-0.998929, 257, 33, 384, 64
-0.99896, 275, 129, 290, 256
-0.99896, 193, 1, 224, 256
-0.998971, 25, 81, 40, 208
-0.998971, 305, 65, 432, 96
-0.998972, 241, 221, 368, 252
-0.998982, 307, 113, 322, 240
-0.998984, 255, 161, 270, 288
-0.998985, 73, 1, 88, 128
-0.998993, 113, 129, 128, 256
-0.999001, 325, 1, 356, 256
-0.999003, 39, 1, 54, 128
-0.999017, 359, 113, 374, 240
-0.999019, 97, 105, 224, 136
-0.999033, 177, 17, 304, 48
-0.999033, 209, 37, 336, 68
-0.999036, 113, 189, 240, 220
-0.999036, 45, 161, 60, 288
-0.999041, 257, 273, 500, 332
-0.999051, 283, 129, 298, 256
-0.999052, 19, 97, 34, 224
-0.999052, 223, 129, 238, 256
-0.999055, 13, 65, 28, 192
-0.99906, 133, 1, 148, 128
-0.999062, 349, 113, 364, 240
-0.999071, 301, 113, 316, 240
-0.999072, 107, 113, 122, 240
-0.999075, 231, 65, 246, 192
-0.999081, 261, 161, 276, 288
-0.999083, 1, 33, 16, 160
-0.999088, 157, 1, 172, 128
-0.999093, 113, 49, 128, 176
-0.999094, 119, 1, 134, 128
-0.999096, 485, 81, 500, 208
-0.999104, 237, 97, 252, 224
-0.999107, 219, 81, 234, 208
-0.999109, 41, 97, 56, 224
-0.999117, 379, 145, 394, 272
-0.999138, 161, 77, 288, 108
-0.999144, 63, 17, 78, 144
-0.999144, 343, 113, 358, 240
-0.999149, 313, 113, 328, 240
-0.999151, 31, 81, 46, 208
-0.999155, 231, 193, 246, 320
-0.999161, 269, 161, 284, 288
-0.999171, 163, 1, 178, 128
-0.999177, 365, 113, 380, 240
-0.999177, 217, 129, 232, 256
-0.999178, 331, 113, 346, 240
-0.999182, 101, 49, 116, 176
-0.999186, 257, 45, 384, 76
-0.99919, 249, 161, 264, 288
-0.999192, 37, 145, 52, 272
-0.999194, 183, 129, 198, 256
-0.999195, 95, 1, 110, 128
-0.999207, 309, 1, 340, 256
-0.999208, 289, 113, 304, 240
-0.99921, 1, 273, 500, 332
-0.999214, 171, 113, 186, 240
-0.999218, 369, 237, 496, 268
-0.999222, 289, 257, 416, 288
-0.999223, 209, 113, 224, 240
-0.999224, 151, 1, 166, 128
-0.999225, 295, 113, 310, 240
-0.999227, 241, 21, 368, 52
-0.999228, 477, 49, 492, 176
-0.999228, 353, 181, 480, 212
-0.999228, 279, 81, 294, 208
-0.999229, 51, 161, 66, 288
-0.999231, 353, 249, 480, 280
-0.999236, 47, 97, 62, 224
-0.999249, 13, 145, 28, 272
-0.99925, 323, 113, 338, 240
-0.99925, 101, 129, 116, 256
-0.99925, 19, 145, 34, 272
-0.999251, 47, 33, 62, 160
-0.999258, 125, 49, 140, 176
-0.999258, 471, 65, 486, 192
-0.999265, 139, 33, 154, 160
-0.999265, 485, 33, 500, 160
-0.999275, 337, 97, 352, 224
-0.999276, 17, 1, 32, 128
-0.999278, 245, 33, 260, 160
-0.999279, 107, 33, 122, 160
-0.999281, 373, 129, 388, 256
-0.999284, 225, 177, 240, 304
-0.999285, 191, 129, 206, 256
-0.999289, 197, 113, 212, 240
-0.999297, 7, 49, 22, 176
-0.999299, 65, 81, 80, 208
-0.9993, 125, 129, 140, 256
-0.999301, 251, 65, 266, 192
-0.999303, 479, 97, 494, 224
-0.999308, 305, 293, 432, 324
-0.999308, 31, 161, 46, 288
-0.999308, 133, 49, 148, 176
-0.99931, 369, 201, 496, 232
-0.99931, 471, 17, 486, 144
-0.999311, 257, 85, 384, 116
-0.999311, 53, 97, 68, 224
-0.999314, 357, 65, 372, 192
-0.999321, 259, 209, 274, 332
-0.999321, 119, 97, 134, 224
-0.999322, 271, 209, 286, 332
-0.999326, 119, 49, 134, 176
-0.999327, 261, 65, 276, 192
-0.999328, 87, 145, 102, 272
-0.999335, 165, 81, 180, 208
-0.999336, 225, 65, 240, 192
-0.999338, 421, 81, 436, 208
-0.999342, 79, 17, 94, 144
-0.999343, 89, 17, 104, 144
-0.999346, 95, 129, 110, 256
-0.99935, 145, 81, 160, 208
-0.999353, 19, 49, 34, 176
-0.999355, 371, 81, 386, 208
-0.999356, 237, 177, 252, 304
-0.999358, 237, 49, 252, 176
-0.999363, 3, 145, 18, 272
-0.999365, 73, 49, 88, 176
-0.999366, 345, 65, 360, 192
-0.999367, 267, 65, 282, 192
-0.999368, 139, 97, 154, 224
-0.999371, 369, 213, 496, 244
-0.999372, 379, 1, 394, 128
-0.999374, 455, 33, 470, 160
-0.999377, 59, 161, 74, 288
-0.999381, 39, 49, 54, 176
-0.999382, 385, 161, 400, 288
-0.999385, 1, 81, 16, 208
-0.999385, 159, 49, 174, 176
-0.99939, 445, 17, 460, 144
-0.999391, 289, 273, 416, 304
-0.999395, 181, 81, 196, 208
-0.999398, 25, 145, 40, 272
-0.999399, 265, 209, 280, 332
-0.999402, 151, 49, 166, 176
-0.999404, 471, 129, 486, 256
-0.999409, 155, 97, 170, 224
-0.999411, 461, 17, 476, 144
-0.999415, 415, 33, 430, 160
-0.999422, 117, 177, 132, 304
-0.999423, 101, 1, 116, 128
-0.999423, 173, 65, 188, 192
-0.999426, 287, 177, 302, 304
-0.99948, 297, 65, 328, 320
-0.99958, 103, 199, 118, 214
-0.99958, 127, 1, 142, 16
-0.999581, 43, 89, 58, 104
-0.999581, 257, 173, 272, 188
-0.999581, 101, 137, 116, 152
-0.999581, 207, 181, 222, 196
-0.999581, 11, 49, 26, 64
-0.999581, 3, 99, 18, 114
-0.999581, 193, 141, 208, 156
-0.999582, 201, 175, 216, 190
-0.999582, 49, 81, 64, 96
-0.999582, 225, 99, 240, 114
-0.999583, 111, 1, 126, 16
-0.999584, 237, 99, 252, 114
-0.999584, 55, 75, 70, 90
-0.999584, 175, 163, 190, 178
-0.999584, 61, 65, 76, 80
-0.999585, 269, 149, 284, 164
-0.999585, 377, 159, 392, 174
-0.999585, 97, 1, 112, 16
-0.999585, 91, 23, 106, 38
-0.999586, 131, 35, 146, 50
-0.999586, 131, 29, 146, 44
-0.999586, 233, 129, 248, 144
-0.999586, 241, 185, 256, 200
-0.999587, 65, 87, 80, 102
-0.999587, 45, 99, 60, 114
-0.999589, 107, 137, 122, 152
-0.999589, 231, 201, 246, 216
-0.99959, 161, 145, 176, 160
-0.999591, 185, 133, 200, 148
-0.999592, 41, 79, 56, 94
-0.999593, 371, 141, 386, 156
-0.999594, 175, 137, 190, 152
-0.999594, 119, 33, 134, 48
-0.999595, 35, 203, 50, 218
-0.999595, 123, 27, 138, 42
-0.999595, 25, 73, 40, 88
-0.999596, 71, 31, 86, 46
-0.999596, 449, 87, 464, 102
-0.999596, 43, 173, 58, 188
-0.999597, 23, 67, 38, 82
-0.999597, 13, 169, 28, 184
-0.999598, 337, 129, 352, 144
-0.999598, 1, 93, 16, 108
-0.999599, 25, 79, 40, 94
-0.9996, 53, 183, 68, 198
-0.9996, 83, 33, 98, 48
-0.9996, 11, 73, 26, 88
-0.9996, 37, 97, 52, 112
-0.9996, 119, 1, 134, 16
-0.999601, 75, 197, 90, 212
-0.999601, 375, 153, 390, 168
-0.999602, 25, 87, 40, 102
-0.999602, 239, 179, 254, 194
-0.999602, 225, 149, 240, 164
-0.999603, 41, 179, 56, 194
-0.999603, 175, 169, 190, 184
-0.999604, 237, 109, 252, 124
-0.999604, 323, 127, 338, 142
-0.999605, 157, 9, 172, 24
-0.999605, 17, 75, 32, 90
-0.999605, 63, 187, 78, 202
-0.999605, 191, 133, 206, 148
-0.999607, 281, 131, 296, 146
-0.999608, 7, 167, 22, 182
-0.999608, 47, 197, 62, 212
-0.999609, 151, 1, 166, 16
-0.999611, 265, 137, 280, 152
-0.999611, 263, 125, 278, 140
-0.999611, 65, 77, 80, 92
-0.999612, 237, 123, 252, 138
-0.999612, 55, 69, 70, 84
-0.999612, 21, 101, 36, 116
-0.999614, 65, 201, 80, 216
-0.999614, 13, 91, 28, 106
-0.999616, 71, 191, 86, 206
-0.999616, 37, 91, 52, 106
-0.999617, 13, 105, 28, 120
-0.999617, 101, 153, 116, 168
-0.999617, 271, 143, 286, 158
-0.999618, 173, 1, 188, 16
-0.999618, 57, 195, 72, 210
-0.999619, 11, 59, 26, 74
-0.99962, 223, 115, 238, 130
-0.999621, 89, 195, 104, 210
-0.999622, 37, 173, 52, 188
-0.999623, 15, 85, 30, 100
-0.999623, 211, 135, 226, 150
-0.999624, 437, 75, 452, 90
-0.999625, 75, 7, 90, 22
-0.999628, 237, 191, 252, 206
-0.99963, 221, 135, 236, 150
-0.99963, 205, 133, 220, 148
-0.999631, 353, 131, 368, 146
-0.999632, 121, 9, 136, 24
-0.999632, 103, 185, 118, 200
-0.999632, 253, 167, 268, 182
-0.999634, 19, 169, 34, 184
-0.999639, 111, 195, 126, 210
-0.99964, 31, 69, 46, 84
-0.99964, 129, 21, 144, 36
-0.99964, 257, 121, 272, 136
-0.999641, 97, 193, 112, 208
-0.999641, 109, 145, 124, 160
-0.999643, 167, 141, 182, 156
-0.999643, 117, 191, 132, 206
-0.999645, 285, 137, 300, 152
-0.999646, 31, 173, 46, 188
-0.99965, 63, 193, 78, 208
-0.999652, 245, 171, 260, 186
-0.999653, 103, 191, 118, 206
-0.999654, 165, 3, 180, 18
-0.999655, 197, 135, 212, 150
-0.999659, 109, 165, 124, 180
-0.99966, 111, 181, 126, 196
-0.999663, 169, 155, 184, 170
-0.999668, 41, 199, 56, 214
-0.999673, 269, 129, 284, 144
-0.999673, 223, 105, 238, 120
-0.999676, 111, 187, 126, 202
-0.999681, 361, 133, 376, 148
-0.999683, 173, 145, 188, 160
-0.999694, 25, 173, 40, 188
-0.999694, 187, 139, 202, 154
-0.999697, 181, 143, 196, 158
-0.999703, 231, 97, 246, 112
-0.999705, 367, 135, 382, 150
-0.999725, 275, 137, 290, 152
-0.999765, 247, 117, 262, 132
-1.00039, 433, 209, 496, 332
-1.00052, 1, 249, 500, 312
-1.00064, 1, 209, 500, 272
-1.00125, 153, 209, 216, 332
