1945
-0.12765, 1, 1, 500, 375
-0.308988, 1, 97, 500, 352
-0.330847, 1, 1, 500, 256
-0.397455, 225, 1, 480, 375
-0.407314, 33, 1, 288, 375
-0.525406, 1, 65, 256, 320
-0.56892, 129, 1, 384, 375
-0.58307, 161, 65, 416, 320
-0.675288, 257, 129, 500, 375
-0.79585, 257, 33, 500, 288
-0.832783, 113, 1, 240, 375
-0.854406, 65, 1, 192, 375
-0.85589, 81, 65, 208, 320
-0.857381, 33, 65, 160, 320
-0.858134, 1, 97, 500, 224
-0.860354, 321, 129, 448, 375
-0.860839, 305, 1, 432, 375
-0.864672, 273, 97, 400, 352
-0.869613, 321, 1, 448, 256
-0.87616, 1, 33, 500, 160
-0.876237, 241, 1, 368, 375
-0.879181, 1, 1, 128, 375
-0.883105, 1, 177, 500, 304
-0.884095, 353, 1, 480, 375
-0.886374, 161, 1, 288, 375
-0.888576, 273, 1, 400, 256
-0.891549, 129, 97, 256, 352
-0.898978, 209, 65, 336, 320
-0.899817, 1, 241, 500, 368
-0.900561, 369, 129, 496, 375
-0.904864, 65, 209, 320, 336
-0.907756, 161, 1, 288, 256
-0.908426, 1, 97, 256, 224
-0.9181, 369, 33, 496, 288
-0.919676, 97, 49, 352, 176
-0.921481, 161, 193, 416, 320
-0.927972, 161, 113, 416, 240
-0.929601, 33, 81, 160, 208
-0.930894, 145, 193, 272, 320
-0.93119, 361, 129, 424, 256
-0.932952, 257, 177, 500, 304
-0.933845, 217, 209, 280, 336
-0.934255, 1, 161, 256, 288
-0.934657, 81, 33, 208, 160
-0.93579, 361, 177, 424, 304
-0.93671, 1, 49, 256, 176
-0.938389, 177, 193, 240, 320
-0.938818, 33, 33, 160, 160
-0.939048, 353, 161, 480, 288
-0.939408, 113, 49, 176, 176
-0.940078, 321, 209, 448, 336
-0.940612, 97, 225, 224, 352
-0.941034, 193, 1, 448, 128
-0.941165, 257, 241, 500, 368
-0.941314, 65, 33, 128, 160
-0.941481, 257, 129, 500, 256
-0.942733, 33, 1, 96, 128
-0.943066, 305, 113, 432, 240
-0.943817, 1, 1, 256, 128
-0.944713, 41, 49, 104, 176
-0.944791, 193, 65, 448, 192
-0.945508, 129, 33, 256, 160
-0.945714, 209, 209, 336, 336
-0.945973, 33, 193, 160, 320
-0.946201, 401, 177, 464, 304
-0.946381, 385, 129, 448, 256
-0.946764, 1, 1, 64, 128
-0.947578, 361, 225, 424, 352
-0.947761, 361, 185, 424, 248
-0.948182, 313, 33, 376, 160
-0.948522, 41, 97, 104, 224
-0.949533, 257, 209, 320, 336
-0.949808, 273, 65, 336, 192
-0.950372, 313, 113, 376, 240
-0.950573, 329, 209, 392, 336
-0.950764, 9, 129, 72, 256
-0.952353, 41, 177, 104, 304
-0.95247, 177, 201, 240, 264
-0.95369, 209, 49, 336, 176
-0.953986, 89, 49, 152, 176
-0.95399, 385, 225, 448, 352
-0.954375, 353, 113, 480, 240
-0.954429, 273, 209, 400, 336
-0.954998, 1, 49, 64, 176
-0.955047, 337, 113, 400, 240
-0.955055, 257, 113, 384, 240
-0.955724, 81, 113, 208, 240
-0.955909, 289, 1, 416, 128
-0.956097, 153, 193, 216, 320
-0.956519, 81, 209, 144, 336
-0.956627, 161, 241, 416, 368
-0.956925, 369, 273, 432, 336
-0.957135, 153, 33, 216, 160
-0.957586, 97, 1, 352, 128
-0.957952, 369, 209, 496, 336
-0.958418, 33, 97, 96, 160
-0.958583, 297, 289, 360, 352
-0.958686, 105, 225, 168, 352
-0.959069, 65, 97, 128, 224
-0.959221, 57, 49, 120, 112
-0.959493, 289, 65, 416, 192
-0.960202, 241, 1, 368, 128
-0.960793, 249, 49, 312, 176
-0.960827, 305, 97, 368, 160
-0.960853, 177, 33, 240, 160
-0.960981, 145, 241, 272, 368
-0.960993, 297, 209, 360, 336
-0.961206, 337, 161, 400, 288
-0.961309, 241, 209, 304, 272
-0.961349, 385, 233, 448, 296
-0.961702, 321, 273, 384, 336
-0.961715, 97, 177, 224, 304
-0.961836, 177, 41, 240, 104
-0.961977, 9, 153, 72, 216
-0.962011, 1, 129, 128, 256
-0.962663, 409, 201, 472, 264
-0.962787, 217, 265, 280, 328
-0.962871, 129, 105, 192, 168
-0.963018, 129, 225, 192, 352
-0.963065, 209, 33, 272, 160
-0.963347, 377, 81, 440, 208
-0.963866, 353, 97, 416, 352
-0.963958, 1, 129, 64, 192
-0.964028, 337, 65, 464, 192
-0.964488, 177, 1, 304, 128
-0.964505, 81, 33, 144, 96
-0.964823, 281, 81, 344, 144
-0.964831, 105, 1, 168, 128
-0.964908, 353, 1, 416, 64
-0.965032, 401, 265, 464, 328
-0.965201, 161, 113, 288, 240
-0.965414, 305, 161, 432, 288
-0.965529, 209, 113, 336, 240
-0.965554, 201, 161, 264, 288
-0.965821, 17, 73, 80, 136
-0.96585, 361, 209, 424, 272
-0.966067, 337, 33, 400, 160
-0.966094, 209, 241, 272, 304
-0.96616, 329, 97, 392, 160
-0.966256, 233, 1, 296, 128
-0.966528, 49, 177, 112, 240
-0.96684, 105, 97, 168, 160
-0.967474, 373, 177, 404, 304
-0.967492, 409, 225, 472, 352
-0.967526, 217, 217, 280, 280
-0.967532, 105, 49, 168, 112
-0.967919, 321, 1, 384, 256
-0.968071, 417, 97, 480, 224
-0.968134, 345, 265, 408, 328
-0.968174, 313, 97, 376, 352
-0.968558, 73, 1, 136, 64
-0.968559, 321, 1, 384, 64
-0.968614, 257, 257, 320, 320
-0.968627, 337, 297, 400, 360
-0.968654, 137, 97, 200, 224
-0.968757, 217, 17, 280, 80
-0.968816, 73, 209, 136, 272
-0.969114, 393, 169, 456, 232
-0.969162, 389, 129, 420, 256
-0.969237, 257, 113, 320, 240
-0.969418, 49, 17, 112, 80
-0.96961, 193, 17, 256, 80
-0.969928, 73, 73, 136, 136
-0.970026, 17, 177, 80, 304
-0.970067, 161, 209, 288, 272
-0.970196, 65, 97, 128, 352
-0.970216, 129, 41, 192, 104
-0.970256, 273, 281, 336, 344
-0.970364, 89, 97, 152, 224
-0.970495, 209, 193, 240, 320
-0.970526, 97, 225, 160, 288
-0.97054, 33, 65, 96, 320
-0.970594, 389, 177, 420, 304
-0.970645, 273, 209, 336, 272
-0.970803, 361, 233, 424, 296
-0.970831, 385, 209, 448, 272
-0.970956, 257, 1, 320, 128
-0.971046, 33, 41, 96, 104
-0.971103, 321, 201, 384, 264
-0.971158, 81, 41, 208, 104
-0.971271, 17, 105, 144, 168
-0.971392, 353, 193, 480, 256
-0.971793, 361, 113, 392, 240
-0.971858, 281, 105, 344, 168
-0.971953, 169, 113, 232, 240
-0.972084, 57, 105, 120, 168
-0.972095, 33, 137, 64, 200
-0.972111, 377, 129, 408, 256
-0.972201, 201, 41, 264, 104
-0.972247, 337, 1, 464, 128
-0.972343, 289, 281, 416, 344
-0.972384, 137, 145, 200, 272
-0.972549, 297, 265, 360, 328
-0.972643, 89, 313, 152, 375
-0.972683, 217, 113, 280, 240
-0.972763, 377, 145, 440, 208
-0.972808, 225, 161, 352, 288
-0.972877, 377, 89, 440, 152
-0.972965, 289, 17, 352, 144
-0.973119, 137, 217, 200, 280
-0.973133, 37, 97, 68, 224
-0.973167, 85, 49, 116, 176
-0.973192, 25, 9, 88, 72
-0.973194, 409, 1, 472, 128
-0.973326, 153, 113, 216, 176
-0.973351, 169, 225, 232, 288
-0.973382, 65, 1, 128, 256
-0.973459, 153, 41, 216, 104
-0.973588, 337, 217, 464, 280
-0.973597, 377, 129, 440, 375
-0.973706, 185, 257, 248, 320
-0.973733, 365, 177, 396, 240
-0.974087, 257, 65, 320, 128
-0.974254, 53, 49, 84, 176
-0.97429, 241, 161, 304, 288
-0.97432, 9, 49, 72, 112
-0.974343, 297, 1, 360, 64
-0.974368, 65, 289, 128, 352
-0.97438, 97, 33, 128, 160
-0.974479, 353, 105, 416, 168
-0.974533, 185, 97, 248, 352
-0.974566, 249, 233, 312, 296
-0.974585, 41, 89, 72, 152
-0.974627, 33, 145, 96, 208
-0.97463, 169, 1, 232, 64
-0.974672, 393, 201, 424, 264
-0.974839, 329, 121, 392, 184
-0.974958, 297, 233, 360, 296
-0.975026, 41, 73, 104, 136
-0.975028, 29, 1, 60, 128
-0.975092, 281, 113, 344, 240
-0.975134, 129, 41, 256, 104
-0.975151, 309, 281, 340, 344
-0.975182, 149, 41, 180, 104
-0.975185, 97, 121, 160, 184
-0.975382, 49, 201, 112, 264
-0.975546, 225, 289, 288, 352
-0.975554, 337, 273, 464, 336
-0.97559, 221, 209, 252, 336
-0.975601, 69, 17, 100, 144
-0.975614, 209, 241, 336, 304
-0.975665, 141, 49, 172, 176
-0.97575, 305, 193, 432, 256
-0.975836, 353, 129, 416, 192
-0.975861, 33, 57, 160, 120
-0.975969, 353, 1, 416, 256
-0.976014, 177, 193, 208, 320
-0.976047, 129, 65, 192, 128
-0.976154, 401, 129, 464, 375
-0.976216, 225, 217, 256, 280
-0.97626, 233, 49, 296, 112
-0.9763, 433, 89, 496, 152
-0.976445, 305, 49, 336, 176
-0.97649, 161, 233, 288, 296
-0.976523, 209, 281, 336, 344
-0.976562, 1, 17, 64, 80
-0.97658, 105, 73, 168, 136
-0.976908, 89, 65, 152, 320
-0.976931, 161, 105, 192, 168
-0.976993, 297, 1, 360, 256
-0.977019, 161, 241, 224, 368
-0.977073, 361, 209, 392, 336
-0.977114, 393, 113, 456, 176
-0.977224, 289, 1, 416, 64
-0.977272, 137, 65, 200, 320
-0.977321, 313, 97, 344, 160
-0.977324, 413, 193, 444, 256
-0.977367, 193, 113, 256, 240
-0.977534, 57, 177, 88, 240
-0.977549, 393, 289, 456, 352
-0.977585, 381, 185, 412, 248
-0.977637, 393, 273, 424, 336
-0.977697, 273, 105, 400, 168
-0.977714, 401, 129, 432, 256
-0.977903, 57, 65, 88, 128
-0.978028, 25, 177, 88, 240
-0.978033, 249, 209, 280, 272
-0.978043, 233, 209, 264, 336
-0.97808, 313, 73, 376, 136
-0.978148, 113, 201, 240, 264
-0.978188, 1, 97, 64, 160
-0.978199, 185, 281, 248, 344
-0.978205, 337, 89, 464, 152
-0.978208, 17, 209, 144, 272
-0.97825, 113, 65, 176, 320
-0.978317, 129, 241, 192, 304
-0.97835, 41, 161, 72, 224
-0.978378, 181, 41, 212, 104
-0.978421, 433, 33, 496, 160
-0.978467, 409, 89, 472, 152
-0.978494, 165, 33, 196, 160
-0.978499, 217, 249, 248, 312
-0.978565, 153, 65, 216, 128
-0.978567, 41, 273, 104, 336
-0.978638, 65, 161, 128, 288
-0.978773, 89, 33, 120, 96
-0.978825, 381, 281, 412, 344
-0.97892, 9, 1, 40, 128
-0.978945, 257, 305, 320, 368
-0.979011, 389, 225, 420, 352
-0.979057, 241, 1, 368, 64
-0.979107, 109, 49, 140, 176
-0.979114, 337, 297, 464, 360
-0.979127, 405, 209, 436, 336
-0.979128, 65, 1, 128, 375
-0.979176, 261, 209, 292, 336
-0.979185, 345, 273, 376, 336
-0.979204, 81, 97, 208, 160
-0.97925, 117, 41, 148, 104
-0.979251, 81, 233, 208, 296
-0.979285, 281, 49, 312, 176
-0.979289, 297, 49, 360, 112
-0.979289, 161, 249, 224, 312
-0.979315, 337, 33, 368, 160
-0.979377, 209, 217, 336, 280
-0.979447, 349, 113, 380, 240
-0.979447, 57, 177, 88, 304
-0.979467, 177, 1, 240, 256
-0.979505, 361, 161, 392, 288
-0.97954, 81, 17, 208, 80
-0.979558, 217, 177, 280, 240
-0.979564, 301, 81, 332, 144
-0.979645, 145, 89, 176, 152
-0.979646, 81, 65, 208, 128
-0.979703, 209, 121, 272, 184
-0.979747, 113, 313, 176, 375
-0.979767, 393, 233, 424, 296
-0.979823, 281, 161, 344, 288
-0.979856, 353, 25, 416, 88
-0.979862, 361, 297, 424, 360
-0.979905, 9, 97, 72, 352
-0.979914, 153, 81, 184, 208
-0.979939, 413, 265, 444, 328
-0.980002, 237, 241, 268, 304
-0.980075, 9, 1, 72, 256
-0.980075, 25, 121, 88, 184
-0.980101, 337, 89, 368, 152
-0.980114, 409, 225, 472, 288
-0.980144, 105, 25, 168, 88
-0.980165, 161, 257, 288, 320
-0.980188, 33, 241, 160, 368
-0.980224, 249, 121, 312, 184
-0.980278, 329, 289, 360, 352
-0.980351, 209, 201, 240, 264
-0.98037, 65, 97, 96, 224
-0.98039, 209, 41, 240, 104
-0.98042, 353, 169, 480, 232
-0.980458, 161, 97, 224, 352
-0.980459, 177, 129, 240, 192
-0.980462, 409, 49, 472, 176
-0.980479, 377, 33, 440, 160
-0.98048, 1, 241, 64, 304
-0.980495, 273, 233, 336, 296
-0.980533, 289, 97, 352, 352
-0.980569, 405, 217, 436, 280
-0.98057, 257, 1, 320, 64
-0.980575, 321, 225, 384, 288
-0.980616, 321, 1, 352, 128
-0.980684, 197, 193, 228, 320
-0.980698, 113, 113, 176, 240
-0.980756, 289, 257, 416, 320
-0.980806, 181, 201, 212, 264
-0.980837, 57, 17, 88, 80
-0.980855, 77, 17, 108, 80
-0.980887, 165, 41, 196, 104
-0.980975, 37, 145, 68, 272
-0.981017, 145, 1, 208, 64
-0.981162, 129, 193, 192, 256
-0.981169, 77, 41, 108, 104
-0.981183, 357, 273, 388, 336
-0.981195, 317, 81, 348, 208
-0.98122, 153, 33, 184, 160
-0.981224, 337, 177, 400, 240
-0.981327, 425, 257, 488, 320
-0.981384, 361, 97, 392, 160
-0.981411, 269, 49, 300, 176
-0.981445, 377, 225, 408, 352
-0.981454, 33, 113, 64, 176
-0.981608, 185, 241, 248, 368
-0.981629, 209, 1, 272, 256
-0.981677, 33, 1, 160, 64
-0.981693, 425, 265, 456, 328
-0.981708, 129, 129, 192, 192
-0.981737, 33, 33, 160, 96
-0.981752, 313, 1, 376, 375
-0.981766, 313, 25, 376, 88
-0.981794, 101, 33, 132, 96
-0.981825, 129, 33, 160, 160
-0.98183, 417, 193, 448, 320
-0.981852, 81, 97, 144, 160
-0.981885, 209, 97, 272, 352
-0.981899, 385, 1, 448, 64
-0.981902, 349, 89, 380, 152
-0.981918, 225, 89, 352, 152
-0.982052, 401, 33, 464, 288
-0.982065, 353, 81, 416, 144
-0.982071, 161, 89, 224, 152
-0.982143, 1, 185, 128, 248
-0.982153, 157, 65, 188, 128
-0.98223, 417, 129, 480, 192
-0.982235, 369, 113, 496, 176
-0.982252, 105, 177, 168, 304
-0.982409, 257, 89, 320, 152
-0.98245, 33, 49, 64, 176
-0.982511, 197, 201, 228, 264
-0.982521, 373, 81, 404, 208
-0.982565, 353, 241, 480, 304
-0.982568, 101, 113, 132, 176
-0.982576, 257, 25, 320, 88
-0.982581, 145, 17, 272, 80
-0.98263, 81, 177, 208, 240
-0.982739, 53, 1, 84, 128
-0.982779, 313, 177, 376, 240
-0.98279, 305, 121, 368, 184
-0.982794, 81, 193, 112, 320
-0.982811, 81, 121, 208, 184
-0.982827, 197, 41, 228, 104
-0.98292, 81, 105, 112, 168
-0.982928, 41, 1, 72, 128
-0.983018, 269, 1, 300, 128
-0.98308, 113, 281, 240, 344
-0.983093, 181, 33, 212, 160
-0.983104, 245, 241, 276, 368
-0.983171, 425, 177, 488, 304
-0.983175, 377, 33, 440, 288
-0.983305, 105, 209, 136, 336
-0.983321, 161, 121, 288, 184
-0.983357, 405, 161, 436, 224
-0.983466, 185, 1, 248, 375
-0.9835, 369, 273, 400, 336
-0.983535, 25, 1, 88, 375
-0.983552, 177, 177, 240, 240
-0.983581, 97, 201, 160, 264
-0.983617, 21, 129, 52, 192
-0.983658, 261, 217, 292, 280
-0.983679, 177, 49, 304, 112
-0.983774, 21, 65, 52, 192
-0.983789, 325, 89, 356, 152
-0.983801, 33, 81, 160, 144
-0.983816, 17, 209, 80, 272
-0.983825, 65, 201, 192, 264
-0.983845, 249, 1, 280, 128
-0.983846, 249, 193, 280, 320
-0.983958, 25, 113, 56, 240
-0.98401, 1, 185, 64, 248
-0.984026, 209, 121, 336, 184
-0.98405, 321, 1, 352, 64
-0.984063, 49, 129, 80, 256
-0.984077, 65, 41, 96, 104
-0.984083, 385, 81, 416, 208
-0.984101, 405, 241, 436, 304
-0.984196, 133, 65, 164, 128
-0.984223, 313, 161, 376, 288
-0.984341, 137, 225, 168, 352
-0.984358, 161, 281, 288, 344
-0.984372, 433, 225, 496, 352
-0.984436, 197, 17, 228, 80
-0.984447, 129, 41, 160, 104
-0.984487, 273, 217, 400, 280
-0.984572, 205, 241, 236, 368
-0.984578, 289, 1, 320, 128
-0.984583, 101, 89, 132, 152
-0.984656, 381, 105, 412, 168
-0.984686, 289, 81, 416, 144
-0.984704, 349, 209, 380, 336
-0.984708, 329, 113, 360, 176
-0.984713, 129, 97, 256, 160
-0.98472, 129, 1, 192, 375
-0.984762, 257, 193, 384, 256
-0.984773, 321, 137, 448, 200
-0.9848, 69, 65, 100, 128
-0.9848, 209, 33, 240, 160
-0.984828, 181, 17, 212, 80
-0.98486, 193, 177, 320, 240
-0.984886, 293, 81, 324, 208
-0.9849, 297, 33, 328, 96
-0.984923, 357, 1, 388, 64
-0.984957, 57, 97, 88, 160
-0.984995, 337, 1, 400, 375
-0.985, 433, 17, 496, 80
-0.985044, 69, 193, 100, 320
-0.985064, 257, 65, 320, 320
-0.985123, 205, 249, 236, 312
-0.985143, 33, 233, 160, 296
-0.985185, 433, 177, 464, 304
-0.985239, 337, 113, 368, 240
-0.985249, 365, 297, 396, 360
-0.985284, 33, 249, 96, 312
-0.98531, 225, 305, 352, 368
-0.985326, 45, 65, 76, 128
-0.985327, 257, 1, 320, 375
-0.985385, 201, 273, 232, 336
-0.985406, 113, 97, 144, 160
-0.985429, 225, 25, 352, 88
-0.985441, 217, 17, 248, 80
-0.985487, 393, 177, 424, 240
-0.985526, 233, 33, 296, 288
-0.985543, 57, 225, 120, 352
-0.985567, 345, 113, 376, 176
-0.985569, 353, 33, 384, 160
-0.985588, 89, 1, 152, 375
-0.985616, 289, 57, 416, 120
-0.985617, 217, 281, 248, 344
-0.985692, 305, 1, 336, 64
-0.985705, 257, 185, 320, 248
-0.985731, 33, 49, 64, 112
-0.985748, 289, 305, 416, 368
-0.98576, 309, 209, 340, 336
-0.985806, 289, 1, 320, 64
-0.985863, 49, 313, 176, 375
-0.985872, 161, 273, 224, 336
-0.985909, 425, 177, 456, 240
-0.985913, 229, 33, 260, 160
-0.985942, 329, 265, 360, 328
-0.985959, 117, 313, 148, 375
-0.985965, 17, 129, 144, 192
-0.985979, 289, 73, 320, 136
-0.985995, 301, 105, 332, 168
-0.986005, 441, 201, 472, 264
-0.986069, 97, 97, 128, 224
-0.986108, 117, 209, 148, 336
-0.986115, 113, 257, 240, 320
-0.986135, 321, 233, 352, 296
-0.986158, 69, 193, 100, 256
-0.986232, 237, 17, 268, 80
-0.986238, 361, 1, 424, 375
-0.986286, 401, 1, 464, 375
-0.986294, 5, 49, 36, 176
-0.986359, 393, 113, 424, 176
-0.986367, 421, 217, 452, 280
-0.986378, 297, 289, 328, 352
-0.986415, 413, 145, 444, 272
-0.986502, 129, 305, 256, 368
-0.986557, 425, 33, 488, 288
-0.986582, 393, 145, 424, 208
-0.986638, 129, 65, 256, 128
-0.986719, 33, 241, 96, 368
-0.986764, 301, 57, 332, 120
-0.986803, 225, 65, 352, 128
-0.986808, 381, 137, 412, 200
-0.986862, 101, 57, 132, 120
-0.986871, 93, 193, 124, 320
-0.986881, 305, 97, 336, 224
-0.986895, 421, 241, 452, 368
-0.986932, 53, 153, 84, 216
-0.986968, 89, 73, 120, 136
-0.987111, 9, 225, 72, 352
-0.987152, 233, 129, 296, 375
-0.987159, 281, 209, 312, 272
-0.987198, 333, 241, 364, 368
-0.987252, 337, 1, 464, 64
-0.987272, 285, 33, 316, 96
-0.987278, 273, 209, 304, 336
-0.987405, 237, 201, 268, 264
-0.987445, 305, 1, 336, 128
-0.987464, 237, 49, 268, 112
-0.987483, 425, 97, 456, 224
-0.98749, 405, 81, 436, 208
-0.987584, 229, 265, 260, 328
-0.987608, 353, 193, 384, 256
-0.987611, 357, 121, 388, 184
-0.987616, 225, 161, 256, 288
-0.98764, 321, 209, 352, 336
-0.987644, 97, 297, 128, 360
-0.987652, 153, 1, 216, 375
-0.987739, 193, 1, 320, 64
-0.987801, 21, 97, 52, 160
-0.987805, 81, 1, 112, 128
-0.987806, 77, 113, 108, 240
-0.987832, 305, 241, 336, 304
-0.987876, 269, 33, 300, 96
-0.987952, 197, 33, 228, 160
-0.987965, 109, 217, 140, 280
-0.98797, 321, 113, 448, 176
-0.98797, 145, 65, 176, 128
-0.98799, 97, 217, 128, 280
-0.988031, 221, 41, 252, 104
-0.988035, 381, 233, 412, 296
-0.988046, 201, 145, 232, 272
-0.988058, 1, 153, 128, 216
-0.9881, 269, 305, 300, 368
-0.988208, 169, 113, 200, 240
-0.988209, 249, 17, 280, 80
-0.988214, 241, 265, 272, 328
-0.988216, 185, 113, 216, 240
-0.988274, 1, 105, 256, 168
-0.988282, 125, 233, 156, 296
-0.988316, 433, 241, 464, 368
-0.988343, 257, 169, 384, 232
-0.988419, 405, 289, 436, 352
-0.988442, 445, 193, 476, 320
-0.988491, 29, 161, 60, 224
-0.988534, 121, 81, 152, 208
-0.988551, 81, 201, 112, 264
-0.988561, 117, 17, 148, 80
-0.988589, 77, 281, 108, 344
-0.988613, 37, 1, 68, 64
-0.98863, 421, 89, 452, 152
-0.988647, 433, 241, 464, 304
-0.988651, 1, 1, 64, 375
-0.988676, 277, 9, 308, 72
-0.988691, 1, 281, 128, 344
-0.988704, 153, 241, 184, 368
-0.988742, 149, 113, 180, 176
-0.98875, 177, 225, 208, 288
-0.988798, 281, 1, 344, 375
-0.988825, 137, 241, 168, 304
-0.988891, 177, 205, 240, 236
-0.98892, 369, 129, 400, 192
-0.989091, 257, 49, 288, 176
-0.989111, 73, 45, 136, 76
-0.989128, 425, 1, 488, 375
-0.989132, 321, 297, 384, 328
-0.989252, 65, 209, 320, 272
-0.989354, 297, 289, 360, 320
-0.989457, 129, 109, 192, 140
-0.989476, 129, 1, 192, 128
-0.98948, 349, 161, 380, 288
-0.989553, 297, 117, 360, 148
-0.989576, 109, 97, 140, 224
-0.989703, 57, 57, 120, 88
-0.989755, 289, 25, 416, 88
-0.989775, 245, 49, 276, 176
-0.989777, 233, 1, 296, 375
-0.989802, 377, 293, 440, 324
-0.989865, 353, 293, 416, 324
-0.989889, 33, 97, 96, 128
-0.989903, 281, 301, 344, 332
-0.98993, 105, 61, 168, 92
-0.989992, 361, 281, 424, 312
-0.99002, 41, 197, 104, 228
-0.990073, 117, 1, 148, 128
-0.99009, 217, 53, 280, 84
-0.990095, 193, 45, 256, 76
-0.990099, 233, 213, 296, 244
-0.990133, 153, 121, 216, 152
-0.990138, 157, 161, 188, 288
-0.990139, 225, 293, 288, 324
-0.990193, 177, 97, 304, 160
-0.990193, 425, 129, 488, 375
-0.990234, 153, 241, 216, 272
-0.990243, 201, 121, 264, 152
-0.99029, 285, 241, 316, 368
-0.990292, 217, 281, 280, 312
-0.990314, 41, 45, 104, 76
-0.990329, 337, 281, 400, 312
-0.990346, 409, 217, 472, 248
-0.99035, 17, 85, 80, 116
-0.990393, 177, 305, 304, 368
-0.9904, 321, 117, 384, 148
-0.990414, 401, 269, 464, 300
-0.990426, 233, 225, 296, 256
-0.99044, 9, 145, 72, 176
-0.990443, 385, 281, 448, 312
-0.99045, 229, 113, 260, 240
-0.990477, 209, 1, 272, 375
-0.990508, 105, 105, 168, 136
-0.990567, 257, 209, 320, 240
-0.990576, 273, 121, 336, 152
-0.990583, 257, 293, 320, 324
-0.990605, 289, 105, 352, 136
-0.990624, 185, 281, 248, 312
-0.990628, 337, 25, 464, 88
-0.990637, 1, 257, 128, 320
-0.990695, 65, 109, 128, 140
-0.990742, 361, 209, 424, 240
-0.99075, 321, 1, 384, 32
-0.990778, 409, 205, 472, 236
-0.990789, 193, 249, 256, 280
-0.990799, 9, 97, 40, 224
-0.990818, 17, 1, 80, 32
-0.990823, 217, 269, 280, 300
-0.990825, 361, 189, 424, 220
-0.990847, 201, 237, 264, 268
-0.990873, 41, 181, 104, 212
-0.990877, 305, 169, 432, 232
-0.990878, 129, 125, 192, 156
-0.99089, 1, 129, 500, 192
-0.990904, 393, 229, 456, 260
-0.990921, 137, 229, 200, 260
-0.990926, 369, 221, 432, 252
-0.990932, 313, 85, 376, 116
-0.990932, 65, 9, 128, 40
-0.990944, 385, 205, 448, 236
-0.990945, 241, 125, 304, 156
-0.990948, 217, 201, 280, 232
-0.990989, 165, 209, 196, 336
-0.991036, 209, 213, 272, 244
-0.991036, 17, 49, 80, 80
-0.991076, 313, 105, 376, 136
-0.99108, 177, 121, 240, 152
-0.991114, 217, 249, 280, 280
-0.991117, 141, 1, 172, 128
-0.991127, 385, 185, 448, 216
-0.991127, 57, 209, 120, 240
-0.991132, 25, 169, 88, 200
-0.991144, 97, 125, 160, 156
-0.991158, 49, 69, 112, 100
-0.991184, 81, 93, 144, 124
-0.991197, 169, 45, 232, 76
-0.991206, 33, 121, 96, 152
-0.991206, 345, 129, 408, 160
-0.991218, 193, 269, 256, 300
-0.991263, 241, 61, 304, 92
-0.991286, 1, 201, 500, 264
-0.991287, 353, 1, 416, 32
-0.991289, 177, 13, 240, 44
-0.991303, 441, 1, 472, 128
-0.991309, 369, 117, 432, 148
-0.991335, 209, 5, 272, 36
-0.991352, 81, 57, 144, 88
-0.991354, 257, 277, 320, 308
-0.99136, 65, 41, 320, 104
-0.991375, 17, 69, 80, 100
-0.991381, 105, 233, 168, 264
-0.991403, 129, 345, 192, 375
-0.99141, 353, 305, 416, 336
-0.991416, 65, 257, 192, 320
-0.991416, 297, 209, 328, 336
-0.991424, 257, 113, 288, 240
-0.991426, 1, 133, 64, 164
-0.991433, 25, 13, 88, 44
-0.991435, 193, 257, 448, 320
-0.991454, 113, 329, 176, 360
-0.991483, 217, 41, 280, 72
-0.991489, 177, 133, 240, 164
-0.991499, 73, 69, 136, 100
-0.991499, 193, 33, 256, 64
-0.991499, 241, 237, 304, 268
-0.9915, 49, 33, 112, 64
-0.991531, 65, 185, 128, 216
-0.991544, 313, 25, 376, 56
-0.991577, 169, 229, 232, 260
-0.991584, 321, 13, 384, 44
-0.991586, 161, 153, 288, 216
-0.991587, 161, 65, 224, 96
-0.991593, 353, 13, 416, 44
-0.991602, 321, 309, 384, 340
-0.991608, 97, 317, 160, 348
-0.991608, 193, 113, 448, 176
-0.991612, 249, 249, 312, 280
-0.991612, 73, 309, 136, 340
-0.991632, 185, 1, 248, 32
-0.991638, 437, 113, 468, 240
-0.991646, 369, 237, 432, 268
-0.991664, 129, 241, 192, 272
-0.991666, 129, 97, 192, 128
-0.991669, 41, 1, 104, 32
-0.991678, 25, 33, 88, 64
-0.991683, 153, 109, 216, 140
-0.991684, 233, 113, 296, 144
-0.991686, 257, 1, 320, 32
-0.991709, 289, 65, 352, 96
-0.991718, 385, 129, 448, 160
-0.991734, 377, 265, 440, 296
-0.991736, 33, 109, 96, 140
-0.991741, 97, 41, 160, 72
-0.991746, 1, 249, 64, 280
-0.991749, 201, 225, 264, 256
-0.991749, 233, 1, 296, 32
-0.991757, 17, 185, 80, 216
-0.991764, 9, 261, 72, 292
-0.991765, 273, 85, 336, 116
-0.991774, 153, 261, 216, 292
-0.991778, 105, 77, 168, 108
-0.991802, 225, 193, 480, 256
-0.991816, 49, 81, 112, 112
-0.991818, 25, 273, 88, 304
-0.991826, 269, 113, 300, 240
-0.99183, 289, 1, 352, 32
-0.991845, 193, 293, 256, 324
-0.991855, 393, 253, 456, 284
-0.991857, 49, 293, 112, 324
-0.991858, 265, 221, 328, 252
-0.991953, 33, 233, 288, 296
-0.991996, 453, 65, 484, 192
-0.991999, 369, 65, 496, 128
-0.992002, 193, 233, 448, 296
-0.992029, 241, 145, 272, 272
-0.992031, 1, 105, 500, 168
-0.992097, 1, 129, 256, 192
-0.992103, 213, 113, 244, 240
-0.992127, 97, 65, 352, 128
-0.99216, 65, 57, 96, 88
-0.992169, 129, 89, 384, 152
-0.992195, 369, 145, 496, 208
-0.992211, 469, 33, 500, 160
-0.992275, 49, 289, 176, 352
-0.992341, 49, 153, 176, 216
-0.992367, 33, 141, 64, 172
-0.992371, 33, 185, 288, 248
-0.992391, 257, 289, 500, 352
-0.992395, 1, 41, 500, 104
-0.992429, 329, 297, 360, 328
-0.992447, 77, 45, 108, 76
-0.992454, 317, 105, 348, 136
-0.992469, 393, 285, 424, 316
-0.992473, 249, 229, 280, 260
-0.992488, 357, 297, 388, 328
-0.992496, 161, 117, 192, 148
-0.992498, 377, 293, 408, 324
-0.992502, 405, 281, 436, 312
-0.992519, 441, 65, 472, 192
-0.992525, 257, 89, 500, 152
-0.992548, 49, 185, 80, 216
-0.992567, 341, 301, 372, 332
-0.992615, 209, 49, 240, 80
-0.992616, 265, 217, 296, 248
-0.99262, 97, 273, 352, 336
-0.992636, 245, 217, 276, 248
-0.992638, 45, 169, 76, 200
-0.99266, 189, 241, 220, 368
-0.992664, 309, 285, 340, 316
-0.992672, 229, 53, 260, 84
-0.992676, 141, 113, 172, 144
-0.992704, 273, 129, 400, 192
-0.992713, 205, 245, 236, 276
-0.992721, 313, 301, 344, 332
-0.992733, 229, 237, 260, 268
-0.992734, 49, 97, 80, 128
-0.99275, 61, 193, 92, 224
-0.992757, 413, 269, 444, 300
-0.992766, 97, 117, 128, 148
-0.992773, 37, 153, 68, 184
-0.992779, 305, 117, 336, 148
-0.992782, 205, 281, 236, 312
-0.992782, 189, 45, 220, 76
-0.992787, 189, 201, 220, 232
-0.992788, 149, 101, 180, 132
-0.99279, 329, 117, 360, 148
-0.992805, 309, 1, 340, 32
-0.992807, 97, 45, 128, 76
-0.992824, 301, 301, 332, 332
-0.992825, 393, 189, 424, 220
-0.992825, 229, 121, 260, 152
-0.992831, 377, 281, 408, 312
-0.99284, 65, 45, 96, 76
-0.992845, 341, 285, 372, 316
-0.992847, 209, 121, 240, 152
-0.992853, 253, 205, 284, 236
-0.992862, 289, 121, 320, 152
-0.992865, 209, 209, 240, 240
-0.992868, 393, 273, 424, 304
-0.992881, 425, 265, 456, 296
-0.992886, 217, 293, 248, 324
-0.992887, 65, 105, 96, 136
-0.992898, 165, 65, 196, 96
-0.992904, 241, 121, 272, 152
-0.992905, 357, 285, 388, 316
-0.992907, 121, 113, 152, 144
-0.99291, 109, 121, 140, 152
-0.992914, 45, 85, 76, 116
-0.99292, 341, 121, 372, 152
-0.992929, 85, 113, 116, 144
-0.992931, 117, 61, 148, 92
-0.992939, 405, 293, 436, 324
-0.992945, 53, 65, 84, 96
-0.992948, 101, 145, 132, 272
-0.992963, 425, 277, 456, 308
-0.992971, 297, 61, 328, 92
-0.992977, 217, 249, 248, 280
-0.992981, 217, 221, 248, 252
-0.992984, 277, 1, 308, 32
-0.992991, 305, 105, 336, 136
-0.992996, 5, 237, 36, 268
-0.993, 21, 133, 52, 164
-0.993003, 157, 237, 188, 268
-0.993003, 237, 257, 268, 288
-0.993005, 233, 209, 264, 240
-0.993005, 285, 73, 316, 104
-0.993009, 401, 217, 432, 248
-0.993011, 289, 1, 320, 32
-0.993011, 197, 121, 228, 152
-0.993012, 161, 345, 192, 375
-0.993014, 25, 1, 56, 32
-0.993015, 217, 277, 248, 308
-0.993018, 33, 169, 64, 200
-0.993019, 249, 49, 280, 80
-0.993023, 41, 121, 72, 152
-0.993025, 321, 1, 352, 32
-0.993027, 1, 65, 256, 128
-0.993032, 161, 105, 192, 136
-0.993035, 93, 69, 124, 100
-0.993037, 265, 61, 296, 92
-0.993037, 177, 129, 208, 160
-0.993037, 49, 49, 80, 80
-0.99304, 401, 201, 432, 232
-0.99304, 421, 1, 452, 128
-0.993045, 317, 117, 348, 148
-0.993046, 329, 101, 360, 132
-0.993049, 389, 221, 420, 252
-0.993054, 21, 149, 52, 180
-0.993055, 81, 57, 112, 88
-0.99306, 217, 261, 248, 292
-0.993061, 353, 125, 384, 156
-0.993067, 369, 133, 400, 164
-0.99307, 173, 45, 204, 76
-0.993071, 229, 41, 260, 72
-0.993075, 109, 109, 140, 140
-0.993079, 329, 285, 360, 316
-0.99308, 153, 69, 184, 100
-0.993085, 45, 1, 76, 32
-0.993086, 57, 77, 88, 108
-0.993087, 149, 89, 180, 120
-0.99309, 5, 1, 36, 32
-0.993093, 141, 333, 172, 364
-0.9931, 289, 301, 320, 332
-0.993113, 101, 57, 132, 88
-0.993114, 241, 269, 272, 300
-0.993116, 385, 141, 416, 172
-0.993116, 121, 129, 152, 160
-0.993116, 57, 1, 88, 32
-0.99312, 205, 233, 236, 264
-0.993121, 365, 117, 396, 148
-0.99313, 297, 81, 328, 112
-0.993131, 393, 301, 424, 332
-0.993133, 405, 189, 436, 220
-0.993135, 81, 209, 112, 240
-0.993138, 109, 45, 140, 76
-0.993141, 177, 245, 208, 276
-0.993141, 249, 9, 280, 40
-0.993145, 413, 213, 444, 244
-0.993151, 77, 33, 108, 64
-0.993153, 125, 321, 156, 352
-0.993155, 205, 261, 236, 292
-0.993157, 45, 269, 76, 300
-0.993158, 273, 205, 304, 236
-0.993159, 141, 245, 172, 276
-0.99316, 253, 121, 284, 152
-0.993254, 1, 1, 500, 64
-0.993282, 209, 293, 336, 324
-0.993367, 133, 177, 164, 304
-0.993446, 257, 121, 384, 152
-0.993489, 293, 129, 324, 256
-0.993496, 41, 193, 72, 320
-0.993501, 43, 137, 58, 200
-0.993552, 365, 33, 396, 160
-0.993574, 193, 1, 448, 64
-0.993581, 1, 265, 500, 328
-0.993584, 405, 201, 420, 264
-0.993617, 141, 97, 172, 224
-0.993628, 17, 109, 144, 140
-0.993636, 321, 297, 448, 328
-0.993759, 273, 297, 400, 328
-0.993801, 1, 73, 500, 136
-0.993869, 397, 185, 412, 248
-0.993884, 289, 281, 416, 312
-0.993918, 281, 113, 312, 240
-0.993984, 381, 33, 412, 160
-0.993987, 161, 213, 288, 244
-0.994094, 145, 177, 272, 240
-0.994118, 97, 45, 224, 76
-0.994167, 241, 1, 368, 32
-0.994183, 457, 17, 488, 144
-0.994185, 425, 49, 456, 176
-0.994218, 167, 41, 182, 104
-0.994297, 93, 33, 108, 96
-0.99432, 51, 145, 66, 208
-0.994362, 367, 177, 382, 240
-0.994391, 61, 65, 76, 128
-0.994409, 189, 25, 204, 88
-0.99444, 161, 25, 416, 88
-0.994449, 79, 33, 94, 96
-0.994479, 113, 113, 240, 144
-0.99449, 1, 225, 500, 288
-0.994542, 157, 41, 172, 104
-0.994542, 1, 17, 256, 80
-0.994546, 177, 281, 304, 312
-0.994588, 197, 25, 212, 88
-0.994597, 1, 305, 500, 368
-0.994612, 161, 233, 288, 264
-0.994639, 1, 1, 16, 64
-0.994673, 449, 113, 480, 240
-0.994693, 39, 113, 54, 176
-0.994698, 107, 33, 122, 96
-0.994701, 121, 161, 152, 288
-0.994736, 189, 1, 204, 64
-0.994737, 407, 233, 422, 296
-0.994738, 49, 57, 176, 88
-0.994784, 161, 169, 416, 232
-0.994791, 69, 17, 84, 80
-0.994814, 175, 41, 190, 104
-0.994861, 161, 245, 288, 276
-0.994879, 385, 185, 400, 248
-0.99488, 89, 145, 120, 272
-0.994913, 161, 49, 288, 80
-0.994932, 1, 177, 500, 240
-0.99497, 419, 193, 434, 256
-0.994972, 1, 153, 500, 216
-0.99499, 67, 57, 82, 120
-0.995019, 391, 193, 406, 256
-0.99502, 97, 121, 352, 184
-0.995025, 211, 41, 226, 104
-0.995036, 317, 129, 348, 256
-0.995072, 319, 97, 334, 160
-0.995073, 231, 217, 246, 280
-0.995083, 465, 81, 496, 208
-0.995085, 143, 41, 158, 104
-0.995086, 61, 169, 76, 232
-0.995096, 17, 121, 144, 152
-0.995111, 397, 265, 412, 328
-0.99512, 37, 137, 52, 200
-0.995121, 161, 261, 288, 292
-0.995122, 231, 257, 246, 320
-0.995131, 217, 41, 232, 104
-0.995133, 81, 101, 208, 132
-0.995135, 161, 121, 288, 152
-0.995158, 183, 41, 198, 104
-0.995204, 163, 89, 178, 152
-0.995208, 209, 245, 336, 276
-0.99521, 257, 313, 500, 375
-0.995214, 351, 89, 366, 152
-0.995222, 241, 109, 368, 140
-0.995225, 289, 5, 416, 36
-0.99523, 309, 281, 324, 344
-0.995234, 51, 73, 66, 136
-0.995249, 49, 41, 176, 72
-0.99525, 305, 97, 432, 128
-0.995256, 161, 65, 176, 128
-0.995262, 203, 1, 218, 64
-0.995265, 303, 81, 318, 144
-0.995271, 365, 97, 396, 352
-0.995274, 345, 273, 360, 336
-0.995293, 85, 33, 100, 96
-0.995303, 337, 285, 464, 316
-0.995307, 221, 209, 236, 272
-0.99533, 413, 225, 428, 288
-0.995344, 203, 25, 218, 88
-0.995346, 341, 33, 372, 288
-0.99535, 209, 229, 336, 260
-0.995361, 197, 1, 212, 64
-0.995378, 313, 89, 328, 152
-0.995383, 379, 185, 394, 248
-0.995412, 403, 265, 418, 328
-0.995416, 219, 249, 234, 312
-0.995438, 1, 161, 256, 224
-0.995441, 181, 1, 196, 64
-0.995448, 215, 201, 230, 264
-0.995452, 363, 273, 378, 336
-0.995457, 399, 209, 414, 272
-0.995485, 315, 281, 330, 344
-0.995494, 101, 33, 116, 96
-0.995494, 353, 117, 480, 148
-0.995495, 325, 105, 340, 168
-0.995502, 289, 109, 416, 140
-0.995505, 239, 225, 254, 288
-0.99551, 409, 273, 424, 336
-0.995511, 389, 281, 404, 344
-0.995543, 369, 97, 384, 160
-0.995574, 403, 177, 418, 240
-0.995578, 267, 209, 282, 272
-0.99559, 205, 249, 220, 312
-0.995606, 351, 273, 366, 336
-0.995609, 151, 41, 166, 104
-0.995619, 369, 273, 384, 336
-0.995622, 83, 9, 98, 72
-0.995632, 161, 201, 288, 232
-0.995632, 81, 205, 208, 236
-0.995636, 339, 289, 354, 352
-0.99564, 361, 185, 376, 248
-0.995646, 373, 177, 388, 240
-0.995652, 211, 1, 226, 64
-0.995674, 333, 273, 348, 336
-0.995677, 327, 289, 342, 352
-0.995686, 353, 217, 480, 248
-0.995689, 341, 97, 356, 160
-0.995695, 49, 169, 64, 232
-0.995696, 97, 1, 112, 64
-0.995699, 241, 217, 368, 248
-0.995703, 113, 33, 128, 96
-0.995721, 209, 201, 224, 264
-0.995732, 73, 49, 88, 112
-0.995742, 419, 257, 434, 320
-0.995752, 357, 273, 372, 336
-0.995752, 209, 305, 336, 336
-0.995775, 357, 97, 372, 160
-0.995781, 177, 61, 304, 92
-0.995781, 217, 1, 232, 64
-0.995805, 383, 281, 398, 344
-0.99582, 227, 25, 242, 88
-0.995826, 181, 209, 196, 272
-0.995827, 121, 33, 136, 96
-0.995829, 375, 273, 390, 336
-0.995842, 131, 33, 146, 96
-0.995849, 211, 273, 226, 336
-0.995855, 289, 309, 416, 340
-0.99587, 153, 97, 168, 160
-0.995884, 93, 105, 108, 168
-0.995891, 337, 189, 464, 220
-0.995891, 377, 97, 392, 160
-0.995906, 97, 65, 224, 96
-0.99591, 257, 49, 500, 112
-0.995931, 427, 265, 442, 328
-0.995931, 321, 281, 336, 344
-0.995936, 17, 217, 144, 248
-0.995938, 253, 201, 268, 264
-0.995943, 17, 97, 144, 128
-0.995945, 199, 241, 214, 304
-0.995949, 425, 201, 440, 264
-0.995949, 97, 125, 224, 156
-0.995954, 129, 305, 384, 368
-0.995964, 113, 237, 240, 268
-0.995972, 353, 201, 480, 232
-0.996, 401, 233, 416, 296
-0.996026, 209, 125, 336, 156
-0.996027, 137, 41, 152, 104
-0.996033, 59, 17, 74, 80
-0.996035, 157, 1, 172, 64
-0.996045, 167, 17, 182, 80
-0.996066, 363, 97, 378, 160
-0.996069, 1, 5, 128, 36
-0.996076, 77, 1, 92, 64
-0.996083, 65, 89, 192, 120
-0.996092, 209, 201, 336, 232
-0.996093, 333, 97, 348, 160
-0.996113, 93, 1, 124, 256
-0.996123, 49, 65, 80, 320
-0.996128, 13, 1, 28, 64
-0.99613, 109, 113, 124, 176
-0.996131, 289, 85, 416, 116
-0.996148, 67, 185, 82, 248
-0.996148, 27, 33, 42, 96
-0.996157, 303, 289, 318, 352
-0.996167, 77, 97, 108, 352
-0.996173, 7, 57, 22, 120
-0.996176, 425, 169, 440, 232
-0.996176, 203, 201, 218, 264
-0.996183, 329, 1, 360, 256
-0.996193, 175, 1, 190, 64
-0.996197, 89, 1, 104, 64
-0.996199, 149, 1, 164, 64
-0.996218, 37, 25, 52, 88
-0.996227, 111, 9, 126, 72
-0.996229, 87, 65, 102, 128
-0.996235, 347, 113, 362, 176
-0.996242, 353, 97, 384, 352
-0.996248, 45, 105, 60, 168
-0.996249, 337, 229, 464, 260
-0.996253, 113, 217, 240, 248
-0.996254, 47, 17, 62, 80
-0.996262, 19, 73, 34, 136
-0.996265, 353, 1, 384, 256
-0.996268, 17, 49, 32, 112
-0.996278, 337, 1, 464, 32
-0.996282, 431, 169, 446, 232
-0.996285, 247, 25, 262, 88
-0.996289, 31, 121, 46, 184
-0.996291, 385, 113, 400, 176
-0.996311, 305, 121, 432, 152
-0.996331, 241, 281, 368, 312
-0.996347, 33, 69, 160, 100
-0.996354, 305, 213, 432, 244
-0.996368, 1, 205, 128, 236
-0.99642, 381, 97, 412, 352
-0.996422, 65, 113, 192, 144
-0.996425, 1, 53, 128, 84
-0.996532, 329, 97, 360, 352
-0.996535, 113, 145, 240, 208
-0.996571, 209, 269, 336, 300
-0.996589, 81, 193, 208, 224
-0.996592, 105, 33, 136, 288
-0.996593, 289, 17, 416, 48
-0.99662, 33, 229, 160, 260
-0.99666, 413, 129, 444, 375
-0.996676, 129, 281, 256, 312
-0.996696, 29, 1, 60, 256
-0.996722, 1, 189, 128, 220
-0.996724, 65, 65, 96, 320
-0.996745, 225, 137, 480, 200
-0.996768, 337, 309, 464, 340
-0.996784, 97, 1, 352, 64
-0.996786, 93, 97, 124, 352
-0.99685, 401, 129, 432, 375
-0.996859, 97, 249, 224, 280
-0.996885, 81, 1, 112, 256
-0.996887, 49, 29, 176, 60
-0.996889, 97, 9, 224, 40
-0.996922, 225, 45, 352, 76
-0.996965, 49, 1, 176, 32
-0.996979, 289, 201, 416, 232
-0.996989, 75, 45, 90, 76
-0.996991, 177, 9, 304, 40
-0.997021, 341, 129, 372, 375
-0.997023, 317, 97, 348, 352
-0.997035, 241, 89, 368, 120
-0.997044, 213, 97, 244, 352
-0.997049, 1, 265, 256, 328
-0.997072, 193, 97, 224, 352
-0.997146, 173, 1, 204, 256
-0.997162, 267, 213, 282, 244
-0.997178, 209, 257, 336, 288
-0.997179, 1, 33, 128, 64
-0.997187, 145, 21, 272, 52
-0.997205, 145, 37, 272, 68
-0.997207, 225, 13, 352, 44
-0.997223, 71, 57, 86, 88
-0.997244, 225, 57, 352, 88
-0.997277, 81, 45, 96, 76
-0.99728, 1, 133, 128, 164
-0.997285, 43, 141, 58, 172
-0.997288, 97, 33, 224, 64
-0.99731, 353, 13, 480, 44
-0.997324, 225, 29, 352, 60
-0.997324, 17, 85, 144, 116
-0.997337, 165, 97, 196, 352
-0.997338, 323, 105, 338, 136
-0.997346, 289, 189, 416, 220
-0.997357, 193, 109, 320, 140
-0.997359, 369, 273, 496, 304
-0.997366, 369, 297, 496, 328
-0.997382, 305, 133, 432, 164
-0.997385, 161, 293, 288, 324
-0.997391, 289, 73, 416, 104
-0.997391, 369, 129, 496, 160
-0.997394, 305, 1, 336, 256
-0.997398, 81, 345, 208, 375
-0.9974, 145, 133, 272, 164
-0.99741, 225, 49, 240, 80
-0.997421, 401, 289, 416, 320
-0.997425, 321, 269, 448, 300
-0.997426, 411, 281, 426, 312
-0.997428, 381, 293, 396, 324
-0.997445, 65, 57, 80, 88
-0.997467, 153, 65, 184, 320
-0.997474, 209, 153, 336, 216
-0.997475, 359, 297, 374, 328
-0.997477, 225, 73, 352, 104
-0.997495, 65, 217, 192, 248
-0.997502, 335, 293, 350, 324
-0.997504, 345, 301, 360, 332
-0.997526, 1, 145, 128, 176
-0.997527, 317, 1, 348, 256
-0.997532, 395, 289, 410, 320
-0.997537, 387, 293, 402, 324
-0.997541, 365, 297, 380, 328
-0.997544, 59, 73, 74, 104
-0.997546, 425, 97, 456, 352
-0.997553, 223, 245, 238, 276
-0.997554, 181, 97, 212, 352
-0.997575, 51, 85, 66, 116
-0.99758, 329, 113, 344, 144
-0.997581, 231, 281, 246, 312
-0.997585, 63, 189, 78, 220
-0.997598, 373, 297, 388, 328
-0.997602, 51, 149, 66, 180
-0.997607, 89, 45, 104, 76
-0.997607, 233, 97, 264, 352
-0.997609, 429, 273, 444, 304
-0.997614, 269, 225, 284, 256
-0.997617, 217, 49, 232, 80
-0.99763, 223, 293, 238, 324
-0.997636, 117, 65, 148, 320
-0.997642, 257, 169, 500, 232
-0.997643, 231, 49, 246, 80
-0.997652, 289, 225, 416, 256
-0.997663, 393, 33, 424, 288
-0.997664, 275, 217, 290, 248
-0.997668, 353, 177, 480, 208
-0.997672, 439, 265, 454, 296
-0.997672, 203, 249, 218, 280
-0.997683, 53, 161, 68, 192
-0.997684, 49, 241, 176, 272
-0.997689, 243, 53, 258, 84
-0.9977, 353, 297, 368, 328
-0.997722, 257, 241, 384, 272
-0.997723, 289, 33, 416, 64
-0.997725, 325, 301, 340, 332
-0.997738, 261, 217, 276, 248
-0.997743, 161, 93, 176, 124
-0.997748, 39, 125, 54, 156
-0.997753, 369, 93, 496, 124
-0.997756, 129, 329, 256, 360
-0.997761, 37, 141, 52, 172
-0.997762, 79, 57, 94, 88
-0.997764, 49, 13, 176, 44
-0.997766, 197, 45, 212, 76
-0.997789, 339, 117, 354, 148
-0.997791, 209, 281, 224, 312
-0.997798, 419, 277, 434, 308
-0.997798, 211, 45, 226, 76
-0.997804, 337, 257, 464, 288
-0.997811, 37, 97, 68, 352
-0.997822, 203, 45, 218, 76
-0.997824, 129, 305, 256, 336
-0.997831, 61, 177, 76, 208
-0.997832, 17, 1, 48, 256
-0.99784, 141, 65, 172, 320
-0.997862, 235, 121, 250, 152
-0.997865, 403, 277, 418, 308
-0.997866, 309, 285, 324, 316
-0.997868, 305, 117, 320, 148
-0.997872, 277, 1, 308, 256
-0.997878, 309, 305, 324, 336
-0.997887, 51, 65, 66, 96
-0.99789, 167, 65, 182, 96
-0.997891, 237, 53, 252, 84
-0.997894, 89, 33, 104, 64
-0.997894, 129, 93, 256, 124
-0.997896, 223, 281, 238, 312
-0.997905, 315, 305, 330, 336
-0.997905, 409, 33, 440, 288
-0.997913, 159, 21, 174, 52
-0.997914, 229, 257, 244, 288
-0.997925, 57, 53, 72, 84
-0.997929, 273, 53, 400, 84
-0.997934, 255, 205, 270, 236
-0.997936, 65, 333, 192, 364
-0.997937, 201, 269, 216, 300
-0.997946, 365, 1, 396, 256
-0.997951, 369, 245, 496, 276
-0.997954, 229, 121, 244, 152
-0.997957, 347, 121, 362, 152
-0.997962, 241, 121, 256, 152
-0.997965, 227, 13, 242, 44
-0.997967, 257, 25, 500, 88
-0.997969, 113, 293, 240, 324
-0.99797, 189, 45, 204, 76
-0.997973, 311, 117, 326, 148
-0.997977, 103, 37, 118, 68
-0.997986, 113, 269, 240, 300
-0.997988, 193, 189, 320, 220
-0.997989, 389, 281, 404, 312
-0.99799, 163, 105, 178, 136
-0.997999, 289, 33, 320, 288
-0.998001, 75, 33, 90, 64
-0.998007, 251, 53, 266, 84
-0.998013, 221, 13, 236, 44
-0.998014, 189, 5, 204, 36
-0.998021, 221, 121, 236, 152
-0.998024, 227, 217, 242, 248
-0.998028, 215, 121, 230, 152
-0.998031, 399, 1, 414, 32
-0.998032, 371, 285, 386, 316
-0.998034, 69, 41, 84, 72
-0.998035, 189, 25, 204, 56
-0.998038, 333, 101, 348, 132
-0.998039, 163, 345, 178, 375
-0.998039, 317, 105, 332, 136
-0.998042, 31, 133, 46, 164
-0.998043, 111, 5, 126, 36
-0.998047, 181, 1, 196, 32
-0.998052, 67, 1, 82, 32
-0.998055, 87, 5, 102, 36
-0.998061, 61, 101, 76, 132
-0.998066, 345, 285, 360, 316
-0.998067, 419, 189, 434, 220
-0.998068, 157, 341, 172, 372
-0.998069, 103, 117, 118, 148
-0.998074, 197, 25, 212, 56
-0.998077, 145, 341, 272, 372
-0.998082, 323, 1, 338, 32
-0.998084, 151, 21, 166, 52
-0.998085, 57, 1, 72, 32
-0.998086, 299, 117, 314, 148
-0.998089, 167, 21, 182, 52
-0.998092, 237, 41, 252, 72
-0.998096, 97, 5, 112, 36
-0.998097, 381, 1, 412, 256
-0.998098, 337, 29, 464, 60
-0.998103, 209, 121, 224, 152
-0.998105, 1, 1, 16, 32
-0.998107, 187, 205, 202, 236
-0.998109, 303, 301, 318, 332
-0.998109, 53, 189, 68, 220
-0.998111, 221, 213, 236, 244
-0.998112, 125, 113, 140, 144
-0.998118, 317, 117, 332, 148
-0.998124, 211, 241, 226, 272
-0.998125, 221, 37, 236, 68
-0.998125, 25, 1, 40, 32
-0.99813, 229, 293, 244, 324
-0.998137, 47, 1, 62, 32
-0.998138, 247, 121, 262, 152
-0.998139, 73, 1, 88, 32
-0.998141, 33, 169, 160, 200
-0.998147, 197, 253, 212, 284
-0.998156, 247, 41, 262, 72
-0.998156, 159, 77, 174, 108
-0.998157, 365, 285, 380, 316
-0.998159, 183, 45, 198, 76
-0.998159, 147, 333, 162, 364
-0.998162, 97, 77, 224, 108
-0.998165, 239, 229, 254, 260
-0.998166, 65, 13, 80, 44
-0.998193, 129, 65, 160, 320
-0.998246, 113, 317, 240, 348
-0.998247, 49, 265, 176, 296
-0.99825, 105, 129, 136, 375
-0.998282, 217, 1, 248, 256
-0.998288, 245, 97, 276, 352
-0.998289, 185, 1, 216, 256
-0.998289, 305, 241, 432, 272
-0.998299, 49, 313, 176, 344
-0.998302, 17, 297, 144, 328
-0.998312, 257, 265, 384, 296
-0.998372, 401, 177, 416, 304
-0.998382, 361, 203, 424, 218
-0.998391, 369, 227, 432, 242
-0.998393, 353, 193, 416, 208
-0.998395, 361, 211, 424, 226
-0.998404, 241, 273, 272, 288
-0.998405, 273, 125, 304, 140
-0.998405, 117, 61, 148, 76
-0.998406, 329, 303, 360, 318
-0.998407, 369, 189, 400, 204
-0.998408, 1, 21, 128, 52
-0.998409, 381, 305, 412, 320
-0.998409, 161, 109, 192, 124
-0.998409, 49, 61, 80, 76
-0.998409, 61, 105, 92, 120
-0.99841, 225, 53, 256, 68
-0.99841, 387, 177, 402, 304
-0.99841, 5, 3, 36, 18
-0.99841, 297, 127, 328, 142
-0.998411, 49, 7, 80, 22
-0.998412, 225, 235, 256, 250
-0.998413, 357, 213, 388, 228
-0.998414, 249, 125, 280, 140
-0.998414, 125, 131, 156, 146
-0.998415, 425, 267, 456, 282
-0.998415, 33, 171, 64, 186
-0.998415, 33, 253, 160, 284
-0.998416, 133, 331, 164, 346
-0.998416, 349, 301, 380, 316
-0.998416, 41, 121, 72, 136
-0.998416, 165, 355, 196, 370
-0.998417, 33, 141, 64, 156
-0.998418, 141, 337, 172, 352
-0.998419, 217, 251, 248, 266
-0.998419, 149, 343, 180, 358
-0.99842, 425, 207, 456, 222
-0.998421, 41, 95, 72, 110
-0.998423, 381, 235, 412, 250
-0.998425, 409, 297, 440, 312
-0.998425, 221, 123, 252, 138
-0.998426, 173, 361, 204, 375
-0.998426, 157, 349, 188, 364
-0.998426, 25, 3, 56, 18
-0.998427, 149, 105, 180, 120
-0.998428, 53, 55, 84, 70
-0.998429, 157, 245, 188, 260
-0.998429, 45, 177, 76, 192
-0.99843, 297, 71, 328, 86
-0.998432, 413, 283, 444, 298
-0.998432, 345, 195, 376, 210
-0.998433, 221, 295, 252, 310
-0.998434, 397, 301, 428, 316
-0.998436, 265, 1, 296, 256
-0.998436, 421, 217, 452, 232
-0.998437, 385, 187, 416, 202
-0.998438, 205, 289, 236, 304
-0.998439, 349, 203, 380, 218
-0.99844, 241, 267, 272, 282
-0.99844, 153, 119, 184, 134
-0.998441, 349, 127, 380, 142
-0.998442, 61, 69, 92, 84
-0.998443, 301, 241, 332, 256
-0.998444, 429, 273, 460, 288
-0.998444, 205, 1, 236, 256
-0.998444, 177, 207, 240, 222
-0.998446, 237, 55, 268, 70
-0.998447, 305, 289, 336, 304
-0.998448, 265, 63, 296, 78
-0.998449, 321, 301, 384, 316
-0.998449, 277, 209, 308, 224
-0.99845, 385, 205, 448, 220
-0.998451, 209, 281, 240, 296
-0.998451, 369, 221, 432, 236
-0.998453, 193, 125, 224, 140
-0.998456, 209, 295, 240, 310
-0.998456, 97, 117, 128, 132
-0.998457, 305, 97, 336, 352
-0.998457, 141, 127, 172, 142
-0.998457, 297, 121, 360, 136
-0.998458, 233, 249, 264, 264
-0.998459, 361, 299, 392, 314
-0.99846, 77, 111, 108, 126
-0.99846, 237, 219, 268, 234
-0.99846, 153, 127, 216, 142
-0.998461, 97, 21, 224, 52
-0.998461, 49, 187, 80, 202
-0.998464, 453, 1, 484, 256
-0.998465, 253, 59, 284, 74
-0.998465, 237, 125, 268, 140
-0.998466, 393, 279, 424, 294
-0.998467, 77, 47, 108, 62
-0.998467, 373, 297, 404, 312
-0.998468, 405, 187, 436, 202
-0.998469, 365, 229, 396, 244
-0.998469, 377, 193, 440, 208
-0.998473, 205, 253, 236, 268
-0.998478, 45, 171, 76, 186
-0.99848, 265, 227, 296, 242
-0.99848, 73, 55, 104, 70
-0.99848, 257, 217, 288, 232
-0.998481, 329, 297, 360, 312
-0.998481, 205, 243, 236, 258
-0.998482, 57, 201, 88, 216
-0.998482, 37, 155, 68, 170
-0.998483, 41, 163, 72, 178
-0.998484, 409, 195, 440, 210
-0.998485, 369, 221, 400, 236
-0.998486, 1, 157, 128, 188
-0.998487, 337, 121, 368, 136
-0.998488, 213, 301, 244, 316
-0.998488, 309, 307, 340, 322
-0.99849, 353, 295, 416, 310
-0.998491, 417, 277, 448, 292
-0.998491, 385, 293, 416, 308
-0.998492, 237, 1, 268, 256
-0.998492, 437, 97, 468, 352
-0.998493, 285, 123, 316, 138
-0.998493, 253, 207, 284, 222
-0.998494, 385, 215, 416, 230
-0.998496, 385, 213, 448, 228
-0.998497, 241, 237, 304, 252
-0.998497, 229, 243, 260, 258
-0.998499, 413, 229, 444, 244
-0.998499, 309, 121, 340, 136
-0.998499, 249, 231, 280, 246
-0.9985, 401, 199, 464, 214
-0.998502, 189, 205, 220, 220
-0.998503, 397, 129, 412, 256
-0.998504, 297, 291, 360, 306
-0.998506, 397, 289, 428, 304
-0.99851, 409, 209, 472, 224
-0.998511, 273, 121, 336, 136
-0.998512, 413, 201, 444, 216
-0.998514, 161, 125, 192, 140
-0.998516, 233, 227, 296, 242
-0.998516, 49, 101, 80, 116
-0.998517, 309, 1, 340, 16
-0.99852, 345, 229, 408, 244
-0.99852, 369, 233, 432, 248
-0.998522, 113, 119, 176, 134
-0.998522, 33, 103, 96, 118
-0.998525, 257, 297, 320, 312
-0.998525, 217, 211, 280, 226
-0.998525, 321, 1, 384, 16
-0.998526, 289, 307, 352, 322
-0.998526, 413, 223, 444, 238
-0.998526, 413, 211, 444, 226
-0.998526, 321, 117, 352, 132
-0.998527, 113, 113, 176, 128
-0.998528, 73, 57, 136, 72
-0.998529, 225, 221, 288, 236
-0.998529, 305, 177, 432, 208
-0.998531, 401, 229, 464, 244
-0.998532, 393, 221, 456, 236
-0.998534, 369, 211, 400, 226
-0.998534, 265, 303, 328, 318
-0.998534, 337, 287, 400, 302
-0.998535, 361, 281, 424, 296
-0.998535, 129, 125, 192, 140
-0.998535, 57, 65, 120, 80
-0.998538, 105, 67, 168, 82
-0.998538, 217, 287, 280, 302
-0.998539, 33, 7, 96, 22
-0.998541, 153, 247, 216, 262
-0.998541, 209, 125, 272, 140
-0.998543, 201, 243, 264, 258
-0.998545, 185, 125, 248, 140
-0.998546, 177, 213, 240, 228
-0.998547, 217, 279, 280, 294
-0.998547, 41, 53, 104, 68
-0.998548, 321, 7, 384, 22
-0.998549, 249, 207, 312, 222
-0.99855, 65, 61, 96, 76
-0.998551, 361, 201, 392, 216
-0.998553, 17, 85, 80, 100
-0.998553, 73, 45, 136, 60
-0.998554, 225, 303, 288, 318
-0.998554, 225, 293, 288, 308
-0.998556, 361, 1, 424, 16
-0.998557, 353, 81, 480, 112
-0.998558, 393, 231, 424, 246
-0.998559, 377, 301, 440, 316
-0.998559, 353, 187, 416, 202
-0.99856, 245, 225, 276, 240
-0.99856, 381, 221, 412, 236
-0.998561, 297, 297, 360, 312
-0.998562, 409, 217, 440, 232
-0.998563, 297, 121, 328, 136
-0.998563, 391, 129, 406, 256
-0.998563, 25, 47, 88, 62
-0.998564, 209, 257, 272, 272
-0.998564, 377, 291, 440, 306
-0.998565, 329, 221, 392, 236
-0.998567, 265, 127, 328, 142
-0.998567, 393, 187, 456, 202
-0.998567, 289, 115, 352, 130
-0.998569, 217, 57, 280, 72
-0.99857, 65, 11, 128, 26
-0.99857, 209, 251, 272, 266
-0.99857, 17, 97, 80, 112
-0.998572, 83, 17, 98, 144
-0.998573, 9, 5, 72, 20
-0.998573, 41, 201, 104, 216
-0.998573, 281, 239, 344, 254
-0.998574, 9, 153, 72, 168
-0.998574, 429, 1, 460, 256
-0.998574, 337, 199, 400, 214
-0.998575, 377, 229, 408, 244
-0.998576, 397, 193, 428, 208
-0.998577, 257, 285, 320, 300
-0.998577, 49, 193, 80, 208
-0.998577, 321, 121, 384, 136
-0.998578, 159, 17, 174, 144
-0.998578, 393, 235, 456, 250
-0.998579, 9, 11, 72, 26
-0.998579, 137, 237, 200, 252
-0.99858, 169, 65, 232, 80
-0.99858, 105, 73, 168, 88
-0.99858, 9, 145, 72, 160
-0.998581, 345, 309, 408, 324
-0.998581, 121, 133, 184, 148
-0.998582, 357, 193, 388, 208
-0.998582, 25, 187, 88, 202
-0.998583, 25, 129, 56, 375
-0.998583, 49, 211, 112, 226
-0.998584, 217, 205, 280, 220
-0.998584, 233, 63, 296, 78
-0.998584, 249, 215, 312, 230
-0.998585, 409, 215, 472, 230
-0.998585, 193, 19, 256, 34
-0.998585, 265, 233, 328, 248
-0.998586, 217, 233, 280, 248
-0.998587, 249, 243, 312, 258
-0.998588, 129, 107, 192, 122
-0.998589, 33, 147, 64, 162
-0.998589, 33, 109, 96, 124
-0.998591, 185, 287, 248, 302
-0.998592, 257, 291, 320, 306
-0.998594, 321, 193, 384, 208
-0.998595, 177, 47, 240, 62
-0.998595, 289, 127, 352, 142
-0.998596, 17, 67, 80, 82
-0.998597, 389, 209, 420, 224
-0.998597, 313, 99, 376, 114
-0.998599, 185, 261, 248, 276
-0.998599, 385, 275, 448, 290
-0.998599, 385, 129, 400, 256
-0.998599, 241, 125, 304, 140
-0.998601, 153, 133, 216, 148
-0.998603, 393, 177, 408, 304
-0.998603, 129, 231, 192, 246
-0.998603, 401, 193, 464, 208
-0.998603, 169, 253, 232, 268
-0.998604, 201, 297, 264, 312
-0.998605, 217, 271, 280, 286
-0.998605, 401, 203, 432, 218
-0.998605, 65, 117, 128, 132
-0.998605, 17, 79, 80, 94
-0.998606, 257, 227, 320, 242
-0.998607, 217, 1, 280, 16
-0.998608, 353, 33, 416, 48
-0.998608, 185, 281, 248, 296
-0.998609, 193, 269, 256, 284
-0.998609, 209, 263, 272, 278
-0.99861, 321, 127, 384, 142
-0.99861, 329, 235, 392, 250
-0.99861, 397, 217, 428, 232
-0.998611, 81, 103, 144, 118
-0.998611, 33, 195, 96, 210
-0.998611, 169, 233, 232, 248
-0.998611, 41, 41, 104, 56
-0.998614, 49, 81, 112, 96
-0.998615, 249, 255, 312, 270
-0.998615, 17, 171, 80, 186
-0.998616, 65, 197, 128, 212
-0.998616, 373, 203, 404, 218
-0.998616, 97, 129, 160, 144
-0.998617, 385, 193, 416, 208
-0.998618, 223, 193, 238, 320
-0.998632, 75, 17, 90, 144
-0.998636, 401, 225, 432, 240
-0.998637, 389, 201, 420, 216
-0.998639, 93, 17, 108, 144
-0.998655, 381, 177, 396, 304
-0.998659, 375, 113, 390, 240
-0.99866, 405, 129, 420, 256
-0.998663, 401, 209, 432, 224
-0.998666, 369, 195, 400, 210
-0.998678, 375, 177, 390, 304
-0.998693, 59, 1, 74, 128
-0.998701, 257, 129, 288, 375
-0.998701, 101, 17, 116, 144
-0.998716, 47, 1, 62, 128
-0.998716, 253, 1, 284, 256
-0.998722, 369, 113, 384, 240
-0.998725, 407, 209, 422, 336
-0.998775, 469, 1, 500, 256
-0.998779, 49, 65, 64, 192
-0.998785, 69, 17, 84, 144
-0.998798, 49, 129, 64, 256
-0.998798, 151, 33, 166, 160
-0.99881, 5, 33, 36, 288
-0.998823, 111, 17, 126, 144
-0.998828, 37, 1, 52, 128
-0.998836, 171, 17, 186, 144
-0.998842, 27, 1, 42, 128
-0.998852, 15, 1, 30, 128
-0.998852, 411, 129, 426, 256
-0.998854, 281, 129, 312, 375
-0.998857, 363, 113, 378, 240
-0.99886, 441, 1, 472, 256
-0.998862, 1, 305, 128, 368
-0.998871, 229, 193, 244, 320
-0.998886, 215, 193, 230, 320
-0.998895, 369, 209, 384, 336
-0.998911, 369, 161, 384, 288
-0.998948, 87, 65, 102, 192
-0.998949, 303, 65, 318, 192
-0.998953, 207, 193, 222, 320
-0.998953, 39, 113, 54, 240
-0.998959, 355, 113, 370, 240
-0.998962, 165, 65, 180, 192
-0.998963, 37, 65, 52, 192
-0.998965, 57, 145, 72, 272
-0.998967, 199, 177, 214, 304
-0.998994, 1, 289, 256, 352
-0.999004, 101, 65, 116, 192
-0.999004, 127, 33, 142, 160
-0.999006, 391, 225, 406, 352
-0.999015, 113, 65, 128, 192
-0.999021, 145, 17, 160, 144
-0.999033, 63, 161, 78, 288
-0.99904, 95, 65, 110, 192
-0.999043, 347, 33, 362, 160
-0.999043, 181, 193, 196, 320
-0.999048, 235, 209, 250, 336
-0.999051, 71, 177, 86, 304
-0.999054, 55, 81, 70, 208
-0.999056, 119, 33, 134, 160
-0.999057, 363, 209, 378, 336
-0.999058, 165, 17, 180, 144
-0.999074, 65, 97, 80, 224
-0.999075, 241, 209, 256, 336
-0.999075, 297, 49, 312, 176
-0.999076, 53, 1, 68, 128
-0.999079, 21, 1, 36, 128
-0.999091, 107, 65, 122, 192
-0.999092, 185, 17, 200, 144
-0.999093, 133, 17, 148, 144
-0.999095, 413, 209, 428, 336
-0.999097, 177, 17, 192, 144
-0.999103, 269, 129, 300, 375
-0.999108, 401, 225, 416, 352
-0.999109, 267, 209, 282, 336
-0.99911, 417, 161, 432, 288
-0.999123, 283, 49, 298, 176
-0.999123, 315, 81, 330, 208
-0.999123, 321, 81, 336, 208
-0.999126, 193, 17, 208, 144
-0.999134, 337, 33, 352, 160
-0.999135, 391, 81, 406, 208
-0.999137, 257, 193, 272, 320
-0.999138, 251, 33, 266, 160
-0.999145, 139, 17, 154, 144
-0.999145, 207, 17, 222, 144
-0.999147, 221, 241, 236, 368
-0.999149, 271, 33, 286, 160
-0.999151, 429, 193, 444, 320
-0.999155, 363, 161, 378, 288
-0.999157, 123, 209, 138, 336
-0.999159, 29, 49, 44, 176
-0.999159, 309, 81, 324, 208
-0.99916, 63, 49, 78, 176
-0.999162, 97, 193, 112, 320
-0.999167, 381, 81, 396, 208
-0.999169, 359, 1, 374, 128
-0.999169, 191, 177, 206, 304
-0.999173, 423, 193, 438, 320
-0.999174, 43, 49, 58, 176
-0.999175, 289, 49, 304, 176
-0.999176, 149, 225, 164, 352
-0.99918, 217, 33, 232, 160
-0.999184, 7, 33, 22, 160
-0.999188, 377, 225, 392, 352
-0.999189, 353, 33, 368, 160
-0.99919, 251, 193, 266, 320
-0.999202, 449, 97, 480, 352
-0.999208, 349, 113, 364, 240
-0.99921, 425, 113, 440, 240
-0.999211, 331, 33, 346, 160
-0.999216, 277, 33, 292, 160
-0.999219, 335, 209, 350, 336
-0.999221, 259, 1, 274, 128
-0.999223, 19, 49, 34, 176
-0.999224, 385, 225, 400, 352
-0.999225, 199, 17, 214, 144
-0.999226, 303, 113, 318, 240
-0.999231, 77, 97, 92, 224
-0.999232, 201, 225, 216, 352
-0.999233, 311, 33, 326, 160
-0.999239, 265, 33, 280, 160
-0.999241, 113, 209, 128, 336
-0.999242, 275, 209, 290, 336
-0.999242, 443, 177, 458, 304
-0.999245, 331, 97, 346, 224
-0.999251, 403, 81, 418, 208
-0.999253, 227, 33, 242, 160
-0.999258, 177, 73, 304, 136
-0.99926, 153, 81, 168, 208
-0.999264, 159, 81, 174, 208
-0.999266, 293, 129, 324, 375
-0.999268, 129, 225, 144, 352
-0.999274, 77, 193, 92, 320
-0.999279, 253, 241, 268, 368
-0.999281, 71, 97, 86, 224
-0.999281, 107, 209, 122, 336
-0.999398, 33, 313, 288, 375
-0.999601, 5, 129, 36, 375
-0.999612, 111, 121, 126, 136
-0.999613, 409, 289, 424, 304
-0.999613, 267, 223, 282, 238
-0.999614, 227, 281, 242, 296
-0.999614, 321, 1, 336, 16
-0.999614, 375, 189, 390, 204
-0.999614, 77, 1, 92, 16
-0.999614, 189, 7, 204, 22
-0.999614, 231, 265, 246, 280
-0.999614, 209, 291, 224, 306
-0.999615, 247, 125, 262, 140
-0.999615, 67, 53, 82, 68
-0.999615, 383, 189, 398, 204
-0.999616, 257, 59, 272, 74
-0.999617, 355, 195, 370, 210
-0.999617, 57, 83, 72, 98
-0.999617, 197, 253, 212, 268
-0.999617, 391, 235, 406, 250
-0.999618, 53, 97, 68, 112
-0.999618, 193, 127, 208, 142
-0.99962, 251, 57, 266, 72
-0.999621, 261, 227, 276, 242
-0.999621, 443, 263, 458, 278
-0.999622, 189, 15, 204, 30
-0.999622, 159, 89, 174, 104
-0.999622, 403, 291, 418, 306
-0.999622, 427, 279, 442, 294
-0.999623, 323, 121, 338, 136
-0.999624, 289, 123, 304, 138
-0.999624, 67, 7, 82, 22
-0.999625, 317, 307, 332, 322
-0.999626, 335, 295, 350, 310
-0.999626, 253, 125, 268, 140
-0.999626, 397, 235, 412, 250
-0.999626, 265, 61, 280, 76
-0.999627, 57, 59, 72, 74
-0.999627, 205, 251, 220, 266
-0.999629, 59, 77, 74, 92
-0.999629, 209, 239, 224, 254
-0.999632, 165, 115, 180, 130
-0.999632, 207, 285, 222, 300
-0.999632, 275, 231, 290, 246
-0.999633, 229, 297, 244, 312
-0.999633, 427, 201, 442, 216
-0.999633, 51, 77, 66, 92
-0.999634, 309, 307, 324, 322
-0.999634, 375, 211, 390, 226
-0.999636, 77, 7, 92, 22
-0.999637, 221, 243, 236, 258
-0.999637, 421, 191, 436, 206
-0.999637, 57, 7, 72, 22
-0.999641, 37, 143, 52, 158
-0.999641, 51, 165, 66, 180
-0.999642, 405, 235, 420, 250
-0.999643, 63, 71, 78, 86
-0.999643, 85, 47, 100, 62
-0.999643, 223, 301, 238, 316
-0.999645, 329, 231, 344, 246
-0.999646, 163, 105, 178, 120
-0.999647, 49, 91, 64, 106
-0.999647, 375, 217, 390, 232
-0.999648, 225, 249, 240, 264
-0.999649, 323, 307, 338, 322
-0.99965, 161, 97, 176, 112
-0.99965, 427, 207, 442, 222
-0.999651, 53, 193, 68, 208
-0.999653, 419, 231, 434, 246
-0.999654, 367, 221, 382, 236
-0.999654, 57, 67, 72, 82
-0.999655, 295, 123, 310, 138
-0.999655, 345, 121, 360, 136
-0.999657, 79, 57, 94, 72
-0.999658, 405, 223, 420, 238
-0.999658, 333, 117, 348, 132
-0.999661, 83, 9, 98, 24
-0.999661, 359, 203, 374, 218
-0.999663, 223, 293, 238, 308
-0.999663, 67, 59, 82, 74
-0.999665, 317, 121, 332, 136
-0.999665, 437, 269, 452, 284
-0.999666, 413, 233, 428, 248
-0.999666, 267, 217, 282, 232
-0.999672, 369, 209, 384, 224
-0.999672, 63, 191, 78, 206
-0.999673, 61, 185, 76, 200
-0.999679, 231, 287, 246, 302
-0.999679, 307, 119, 322, 134
-0.999682, 259, 221, 274, 236
-0.999684, 379, 229, 394, 244
-0.999688, 381, 213, 396, 228
-0.99969, 393, 219, 408, 234
-0.999696, 301, 121, 316, 136
-0.999699, 267, 229, 282, 244
-0.999703, 361, 193, 376, 208
-0.999708, 73, 59, 88, 74
-0.999713, 75, 49, 90, 64
-0.999714, 425, 221, 440, 236
-0.999715, 43, 145, 58, 160
-0.999716, 67, 65, 82, 80
-0.999718, 461, 97, 492, 352
-0.999722, 377, 223, 392, 238
-0.999724, 383, 221, 398, 236
-0.999725, 365, 201, 380, 216
-0.999726, 395, 229, 410, 244
-0.999726, 415, 189, 430, 204
-0.999727, 391, 211, 406, 226
-0.999733, 399, 219, 414, 234
-0.999738, 403, 201, 418, 216
-0.999738, 423, 213, 438, 228
-0.999739, 379, 203, 394, 218
-0.999739, 389, 229, 404, 244
-0.99974, 419, 197, 434, 212
-0.999747, 421, 205, 436, 220
-0.999748, 129, 145, 384, 208
-0.99975, 407, 191, 422, 206
-0.999752, 409, 199, 424, 214
-0.999755, 401, 193, 416, 208
-0.999758, 397, 211, 412, 226
-0.999758, 387, 203, 402, 218
-0.999765, 371, 203, 386, 218
-0.999766, 411, 225, 426, 240
-0.999767, 393, 203, 408, 218
-0.999767, 407, 209, 422, 224
-0.999768, 405, 229, 420, 244
-0.999771, 417, 223, 432, 238
-0.999774, 391, 195, 406, 210
-0.999774, 413, 207, 428, 222
-0.999774, 409, 217, 424, 232
-0.999777, 415, 215, 430, 230
-0.999777, 367, 195, 382, 210
-0.99978, 385, 195, 400, 210
-0.999782, 375, 195, 390, 210
