1939
-0.454122, 1, 65, 500, 320
-0.517831, 1, 1, 500, 397
-0.613863, 257, 1, 500, 397
-0.657476, 1, 1, 256, 397
-0.66328, 97, 1, 352, 397
-0.680012, 33, 65, 288, 320
-0.709172, 161, 65, 416, 320
-0.732422, 257, 65, 500, 320
-0.883344, 65, 65, 192, 320
-0.884544, 273, 65, 400, 320
-0.890505, 1, 81, 500, 208
-0.892043, 225, 65, 352, 320
-0.894553, 369, 65, 496, 320
-0.895056, 177, 65, 304, 320
-0.895322, 289, 1, 416, 397
-0.89638, 129, 65, 256, 320
-0.897435, 97, 1, 224, 397
-0.898404, 1, 97, 128, 352
-0.898488, 321, 65, 448, 320
-0.901322, 193, 1, 320, 397
-0.903316, 17, 1, 144, 397
-0.911077, 145, 1, 272, 397
-0.911527, 337, 1, 464, 397
-0.916169, 241, 1, 368, 397
-0.919412, 1, 97, 256, 224
-0.920502, 1, 273, 500, 397
-0.934046, 257, 81, 500, 208
-0.935285, 1, 193, 500, 320
-0.936697, 129, 273, 384, 397
-0.937653, 161, 81, 416, 208
-0.939525, 137, 273, 200, 397
-0.940588, 1, 1, 128, 256
-0.941, 97, 273, 224, 397
-0.944082, 65, 81, 192, 208
-0.945217, 113, 273, 176, 397
-0.946027, 1, 129, 500, 256
-0.947551, 49, 273, 176, 397
-0.948346, 1, 273, 256, 397
-0.948626, 321, 81, 448, 208
-0.949664, 193, 161, 448, 288
-0.949742, 417, 329, 480, 392
-0.950209, 1, 33, 500, 160
-0.950256, 65, 97, 128, 224
-0.952649, 329, 81, 392, 208
-0.953068, 113, 97, 240, 224
-0.953737, 209, 81, 336, 208
-0.953806, 161, 273, 224, 397
-0.954016, 33, 145, 288, 272
-0.954721, 185, 273, 248, 397
-0.955247, 161, 289, 224, 352
-0.955662, 17, 313, 80, 376
-0.955933, 1, 257, 128, 384
-0.955996, 273, 81, 400, 208
-0.957987, 129, 281, 192, 344
-0.958234, 105, 81, 168, 208
-0.958513, 129, 97, 192, 224
-0.958742, 33, 161, 96, 288
-0.958821, 305, 81, 368, 208
-0.95886, 129, 313, 192, 376
-0.959697, 1, 337, 64, 397
-0.960263, 369, 81, 496, 208
-0.960789, 105, 313, 168, 376
-0.960893, 41, 113, 104, 240
-0.961279, 161, 81, 288, 208
-0.961989, 193, 81, 256, 208
-0.962018, 105, 281, 168, 344
-0.962024, 401, 81, 464, 208
-0.962885, 81, 225, 208, 352
-0.963009, 241, 81, 304, 208
-0.963032, 1, 257, 64, 384
-0.963193, 17, 113, 144, 240
-0.963479, 65, 193, 320, 320
-0.963713, 1, 113, 64, 240
-0.963971, 289, 129, 416, 256
-0.964035, 81, 273, 144, 397
-0.964432, 225, 257, 480, 384
-0.964452, 209, 273, 336, 397
-0.964492, 281, 81, 344, 208
-0.964598, 369, 145, 496, 272
-0.964601, 33, 337, 96, 397
-0.964744, 169, 81, 232, 208
-0.964835, 217, 273, 280, 397
-0.965218, 377, 65, 440, 192
-0.965231, 209, 145, 336, 272
-0.965349, 145, 273, 272, 397
-0.965388, 25, 257, 88, 384
-0.965556, 393, 337, 456, 397
-0.965729, 433, 97, 496, 224
-0.965897, 153, 313, 216, 376
-0.966453, 217, 169, 280, 232
-0.966954, 65, 321, 128, 384
-0.966995, 161, 193, 288, 320
-0.967173, 1, 281, 64, 344
-0.967338, 161, 209, 416, 336
-0.96746, 145, 145, 272, 272
-0.967921, 233, 329, 296, 392
-0.967956, 385, 81, 448, 144
-0.968003, 249, 273, 312, 397
-0.96815, 185, 297, 248, 360
-0.968336, 257, 321, 320, 384
-0.96878, 353, 81, 416, 208
-0.969164, 193, 161, 256, 224
-0.969181, 281, 89, 344, 152
-0.969186, 361, 161, 424, 288
-0.970203, 81, 297, 144, 360
-0.970317, 337, 161, 400, 288
-0.970321, 209, 329, 272, 392
-0.970621, 145, 225, 208, 352
-0.970753, 57, 297, 120, 360
-0.971063, 353, 169, 416, 232
-0.971066, 425, 177, 488, 240
-0.971301, 113, 337, 176, 397
-0.97153, 121, 97, 184, 160
-0.971613, 289, 329, 352, 392
-0.97195, 321, 273, 448, 397
-0.971997, 281, 129, 344, 256
-0.972237, 201, 145, 264, 272
-0.972547, 65, 97, 128, 160
-0.97259, 289, 177, 416, 304
-0.972697, 369, 337, 432, 397
-0.972795, 113, 225, 176, 352
-0.972827, 345, 329, 408, 392
-0.972881, 169, 145, 232, 272
-0.973229, 425, 177, 488, 304
-0.973301, 241, 81, 304, 144
-0.973555, 89, 337, 152, 397
-0.973625, 385, 129, 448, 256
-0.973637, 273, 273, 336, 397
-0.973706, 337, 193, 464, 320
-0.973816, 305, 129, 368, 256
-0.973891, 401, 185, 464, 248
-0.973967, 225, 33, 480, 160
-0.974128, 25, 289, 88, 352
-0.974246, 433, 273, 496, 397
-0.974264, 9, 329, 40, 392
-0.974271, 65, 305, 192, 368
-0.974408, 305, 89, 368, 152
-0.974549, 17, 209, 144, 336
-0.974758, 113, 289, 240, 352
-0.974778, 345, 273, 408, 397
-0.974922, 449, 329, 480, 392
-0.974943, 217, 81, 280, 208
-0.975013, 9, 161, 72, 288
-0.975099, 393, 313, 456, 376
-0.975281, 57, 257, 120, 384
-0.975326, 185, 225, 248, 352
-0.975429, 185, 97, 248, 160
-0.97544, 401, 177, 464, 304
-0.97545, 89, 97, 152, 160
-0.975633, 217, 89, 280, 152
-0.975712, 121, 257, 152, 384
-0.975787, 241, 153, 304, 216
-0.975876, 313, 169, 376, 232
-0.975951, 393, 65, 456, 320
-0.975985, 353, 81, 416, 144
-0.976047, 417, 97, 480, 160
-0.976133, 165, 281, 196, 344
-0.976166, 313, 337, 376, 397
-0.976257, 157, 273, 188, 397
-0.976348, 137, 289, 168, 352
-0.976432, 33, 337, 160, 397
-0.976516, 385, 161, 448, 224
-0.976545, 57, 329, 88, 392
-0.976605, 469, 337, 500, 397
-0.97661, 133, 257, 164, 384
-0.976932, 337, 169, 464, 232
-0.97694, 345, 65, 408, 320
-0.976962, 305, 65, 368, 320
-0.976995, 369, 273, 496, 397
-0.977124, 57, 161, 120, 288
-0.977185, 153, 105, 216, 168
-0.977213, 1, 273, 32, 397
-0.977236, 129, 321, 256, 384
-0.977321, 101, 273, 132, 397
-0.977366, 177, 265, 240, 328
-0.977412, 249, 297, 312, 360
-0.977583, 277, 321, 308, 384
-0.977593, 209, 193, 272, 256
-0.977632, 273, 337, 400, 397
-0.977652, 189, 289, 220, 352
-0.977724, 97, 33, 352, 160
-0.977741, 17, 161, 144, 288
-0.977873, 1, 305, 32, 368
-0.977879, 313, 313, 376, 376
-0.977924, 273, 273, 400, 397
-0.977942, 169, 169, 232, 232
-0.97804, 33, 97, 96, 352
-0.978093, 117, 289, 148, 352
-0.978116, 409, 273, 472, 397
-0.978138, 89, 65, 152, 320
-0.978279, 249, 177, 312, 240
-0.978355, 337, 81, 464, 144
-0.978391, 177, 273, 208, 336
-0.978416, 1, 49, 256, 176
-0.978417, 321, 273, 384, 397
-0.978438, 297, 273, 360, 397
-0.978504, 209, 193, 336, 320
-0.978513, 65, 89, 192, 152
-0.978573, 225, 329, 352, 392
-0.978651, 289, 305, 352, 368
-0.978666, 13, 273, 44, 397
-0.978764, 329, 81, 392, 144
-0.978766, 417, 305, 480, 368
-0.978858, 225, 89, 352, 152
-0.978878, 149, 281, 180, 344
-0.978916, 353, 329, 480, 392
-0.978999, 33, 249, 96, 312
-0.979158, 109, 313, 140, 376
-0.97926, 29, 329, 60, 392
-0.979272, 161, 305, 192, 368
-0.979351, 249, 65, 312, 320
-0.979462, 225, 161, 288, 288
-0.979496, 97, 161, 224, 288
-0.979551, 81, 273, 144, 336
-0.979585, 77, 89, 108, 152
-0.979604, 193, 137, 256, 200
-0.979624, 169, 193, 232, 256
-0.979628, 129, 329, 160, 392
-0.979649, 353, 201, 416, 264
-0.97966, 377, 273, 440, 397
-0.979785, 321, 193, 384, 256
-0.979806, 49, 121, 112, 184
-0.979854, 369, 313, 432, 376
-0.979905, 209, 65, 272, 320
-0.979945, 425, 201, 488, 264
-0.980115, 409, 129, 472, 256
-0.980228, 129, 33, 256, 160
-0.980239, 25, 121, 88, 184
-0.98031, 377, 137, 440, 200
-0.980319, 417, 65, 480, 320
-0.98042, 17, 313, 144, 376
-0.9805, 1, 257, 64, 320
-0.980526, 73, 97, 104, 224
-0.98056, 429, 329, 460, 392
-0.980722, 141, 313, 172, 376
-0.980778, 45, 329, 76, 392
-0.980779, 289, 33, 416, 160
-0.980933, 273, 65, 336, 320
-0.981041, 9, 209, 72, 336
-0.981071, 173, 273, 204, 397
-0.981079, 113, 65, 176, 320
-0.981082, 333, 81, 364, 208
-0.981171, 237, 177, 268, 240
-0.981335, 369, 33, 496, 160
-0.981377, 101, 289, 132, 352
-0.981408, 201, 289, 232, 352
-0.981418, 185, 329, 248, 392
-0.981445, 209, 33, 336, 160
-0.98146, 81, 329, 208, 392
-0.981503, 409, 153, 472, 216
-0.981581, 281, 121, 344, 184
-0.981586, 217, 289, 280, 352
-0.981586, 77, 329, 108, 392
-0.981612, 153, 265, 216, 328
-0.981617, 377, 185, 440, 248
-0.981701, 93, 313, 124, 376
-0.981751, 65, 281, 192, 344
-0.98176, 201, 265, 264, 328
-0.981766, 145, 153, 208, 216
-0.981794, 57, 65, 120, 320
-0.981883, 153, 65, 216, 320
-0.98193, 377, 161, 408, 288
-0.981939, 145, 337, 208, 397
-0.982059, 185, 65, 248, 320
-0.982136, 345, 305, 408, 368
-0.982185, 9, 97, 72, 352
-0.982191, 417, 81, 448, 208
-0.982201, 89, 289, 120, 352
-0.982212, 249, 321, 280, 384
-0.982238, 217, 209, 280, 336
-0.982253, 369, 33, 432, 288
-0.982256, 353, 329, 384, 392
-0.982256, 409, 329, 440, 392
-0.98232, 273, 161, 336, 224
-0.982469, 177, 305, 208, 368
-0.982489, 241, 129, 304, 192
-0.982533, 433, 73, 496, 136
-0.982569, 73, 49, 136, 176
-0.982643, 341, 337, 372, 397
-0.982747, 297, 329, 328, 392
-0.982795, 113, 97, 240, 160
-0.9828, 145, 273, 176, 397
-0.982836, 345, 81, 376, 208
-0.982868, 289, 81, 320, 208
-0.982883, 357, 81, 388, 208
-0.98291, 161, 297, 288, 360
-0.982914, 89, 129, 152, 256
-0.98299, 433, 185, 464, 248
-0.983023, 153, 97, 184, 224
-0.983058, 389, 329, 420, 392
-0.983089, 145, 49, 208, 176
-0.983151, 329, 329, 360, 392
-0.983154, 1, 289, 128, 352
-0.983175, 13, 305, 44, 368
-0.983208, 437, 97, 468, 224
-0.983216, 17, 65, 144, 192
-0.983285, 357, 161, 388, 288
-0.983397, 145, 265, 272, 328
-0.98341, 213, 329, 244, 392
-0.98344, 177, 89, 304, 152
-0.98346, 353, 145, 416, 208
-0.983488, 65, 33, 192, 160
-0.983495, 241, 177, 368, 240
-0.983571, 309, 81, 340, 208
-0.983599, 93, 97, 124, 160
-0.983693, 433, 49, 496, 176
-0.9837, 201, 81, 232, 208
-0.983703, 105, 257, 168, 320
-0.98373, 305, 113, 368, 176
-0.983763, 305, 177, 368, 304
-0.983764, 109, 81, 140, 208
-0.983766, 145, 177, 208, 304
-0.983794, 373, 81, 404, 208
-0.983877, 121, 81, 152, 208
-0.983881, 177, 177, 304, 240
-0.983994, 37, 305, 68, 368
-0.984015, 233, 337, 264, 397
-0.98402, 53, 113, 84, 240
-0.984081, 9, 233, 72, 296
-0.984084, 297, 145, 360, 208
-0.984262, 41, 129, 72, 256
-0.984299, 345, 177, 376, 240
-0.984307, 221, 161, 252, 224
-0.984354, 213, 273, 244, 397
-0.984372, 97, 73, 160, 136
-0.984381, 141, 81, 172, 208
-0.984406, 217, 145, 280, 208
-0.984411, 389, 65, 420, 192
-0.984437, 249, 161, 312, 288
-0.984452, 57, 249, 120, 312
-0.984494, 25, 113, 56, 240
-0.984708, 289, 225, 416, 352
-0.984742, 317, 337, 348, 397
-0.984753, 177, 329, 304, 392
-0.984819, 265, 329, 296, 392
-0.984909, 109, 81, 140, 144
-0.985034, 289, 273, 352, 336
-0.98508, 453, 81, 484, 208
-0.985147, 337, 33, 400, 160
-0.9852, 269, 81, 300, 208
-0.985201, 193, 169, 224, 232
-0.985235, 33, 257, 64, 384
-0.985247, 273, 177, 336, 304
-0.985312, 289, 33, 352, 160
-0.985362, 373, 329, 404, 392
-0.985377, 193, 137, 320, 200
-0.985444, 465, 97, 496, 224
-0.985458, 41, 177, 104, 240
-0.985487, 289, 81, 416, 144
-0.985496, 273, 313, 400, 376
-0.985544, 125, 265, 156, 328
-0.985658, 225, 305, 256, 368
-0.985704, 405, 65, 436, 192
-0.98581, 369, 193, 496, 256
-0.985878, 177, 97, 208, 160
-0.985892, 273, 153, 400, 216
-0.985939, 305, 193, 432, 256
-0.985958, 73, 73, 136, 136
-0.985963, 321, 81, 352, 208
-0.986005, 257, 209, 500, 336
-0.986011, 289, 185, 352, 248
-0.986044, 365, 169, 396, 232
-0.986068, 33, 113, 160, 176
-0.986115, 309, 89, 340, 152
-0.986193, 41, 97, 104, 160
-0.986208, 281, 89, 312, 152
-0.98624, 57, 305, 88, 368
-0.986247, 193, 273, 224, 397
-0.986252, 41, 209, 104, 336
-0.986265, 25, 145, 88, 208
-0.986313, 129, 257, 192, 320
-0.986345, 389, 161, 420, 288
-0.986407, 181, 97, 212, 224
-0.986488, 221, 97, 252, 224
-0.986499, 245, 81, 276, 208
-0.986558, 249, 81, 280, 144
-0.986598, 1, 281, 32, 344
-0.986608, 129, 145, 256, 208
-0.986638, 93, 97, 124, 224
-0.986668, 445, 193, 476, 256
-0.986682, 249, 225, 312, 352
-0.986682, 197, 97, 228, 160
-0.986703, 325, 89, 356, 152
-0.986728, 169, 97, 200, 224
-0.986771, 445, 169, 476, 232
-0.98678, 269, 89, 300, 152
-0.986787, 153, 129, 216, 192
-0.986861, 329, 281, 392, 344
-0.986895, 69, 305, 100, 368
-0.986961, 25, 49, 88, 176
-0.986966, 81, 177, 144, 304
-0.986993, 421, 89, 452, 152
-0.987004, 341, 161, 372, 288
-0.987025, 1, 137, 64, 200
-0.987034, 73, 113, 104, 176
-0.987072, 305, 65, 368, 128
-0.987088, 197, 313, 228, 376
-0.987101, 49, 273, 112, 336
-0.987113, 129, 177, 256, 240
-0.987142, 313, 313, 344, 376
-0.987219, 153, 329, 184, 392
-0.987254, 433, 97, 464, 160
-0.987269, 105, 177, 168, 304
-0.987319, 49, 273, 80, 397
-0.98733, 189, 265, 220, 328
-0.987367, 85, 257, 116, 384
-0.987462, 457, 273, 488, 397
-0.987501, 233, 89, 264, 152
-0.987511, 225, 305, 352, 368
-0.987516, 25, 305, 56, 368
-0.98753, 249, 169, 280, 232
-0.98754, 209, 265, 240, 328
-0.987567, 153, 97, 184, 160
-0.987577, 353, 81, 384, 144
-0.987597, 109, 337, 140, 397
-0.987615, 341, 89, 372, 152
-0.987636, 345, 225, 408, 352
-0.987661, 369, 281, 432, 344
-0.98767, 1, 265, 128, 328
-0.987687, 89, 225, 152, 352
-0.987709, 421, 161, 452, 224
-0.987711, 337, 113, 400, 176
-0.987711, 329, 241, 392, 304
-0.987718, 65, 161, 128, 224
-0.987795, 217, 193, 248, 256
-0.987804, 329, 217, 392, 280
-0.987879, 289, 305, 320, 368
-0.9879, 385, 217, 448, 280
-0.988054, 409, 73, 472, 136
-0.988078, 1, 113, 32, 240
-0.988085, 233, 177, 264, 304
-0.98809, 121, 1, 184, 397
-0.988115, 105, 309, 168, 340
-0.988137, 141, 97, 172, 160
-0.988139, 165, 105, 196, 168
-0.988147, 249, 105, 312, 168
-0.98815, 145, 225, 176, 352
-0.988202, 409, 33, 472, 160
-0.988216, 205, 193, 236, 256
-0.98828, 293, 89, 324, 152
-0.988296, 205, 153, 236, 216
-0.988357, 365, 81, 396, 144
-0.988381, 65, 177, 192, 240
-0.988413, 233, 81, 264, 208
-0.988449, 277, 297, 308, 360
-0.988534, 337, 305, 464, 368
-0.988581, 273, 333, 336, 364
-0.98859, 313, 1, 376, 397
-0.988614, 49, 225, 112, 288
-0.988632, 465, 97, 496, 160
-0.988661, 453, 97, 484, 160
-0.988678, 269, 273, 300, 397
-0.988683, 241, 145, 272, 208
-0.988686, 93, 337, 124, 397
-0.988697, 113, 209, 144, 336
-0.988714, 109, 265, 140, 328
-0.988725, 249, 1, 312, 397
-0.988756, 65, 257, 192, 320
-0.988825, 193, 273, 320, 336
-0.988867, 289, 225, 352, 352
-0.988918, 445, 161, 476, 288
-0.988939, 369, 57, 432, 120
-0.988939, 97, 321, 160, 352
-0.98901, 125, 97, 156, 160
-0.98902, 13, 113, 44, 240
-0.989067, 81, 1, 144, 397
-0.989147, 105, 33, 168, 160
-0.989158, 249, 273, 312, 336
-0.989175, 405, 81, 436, 144
-0.989229, 33, 233, 64, 296
-0.989242, 97, 289, 160, 320
-0.989252, 209, 97, 240, 160
-0.989257, 377, 169, 408, 232
-0.989261, 129, 313, 192, 344
-0.989293, 241, 121, 368, 184
-0.989296, 321, 129, 352, 256
-0.9893, 129, 301, 192, 332
-0.989305, 1, 137, 128, 200
-0.989329, 201, 1, 264, 397
-0.989334, 97, 225, 128, 352
-0.989357, 369, 273, 400, 397
-0.989416, 425, 333, 488, 364
-0.989421, 1, 113, 64, 176
-0.989421, 161, 1, 224, 397
-0.989461, 469, 177, 500, 240
-0.989471, 137, 73, 200, 136
-0.989486, 377, 81, 408, 144
-0.98951, 1, 345, 64, 376
-0.98951, 409, 361, 472, 392
-0.98951, 353, 225, 416, 288
-0.989536, 345, 357, 408, 388
-0.98954, 333, 177, 364, 240
-0.989546, 153, 309, 216, 340
-0.989574, 153, 257, 184, 320
-0.989576, 417, 1, 480, 397
-0.98958, 193, 161, 224, 288
-0.989662, 217, 145, 248, 272
-0.989671, 161, 81, 224, 144
-0.989686, 17, 325, 80, 356
-0.989693, 97, 277, 160, 308
-0.989729, 225, 137, 256, 200
-0.989751, 393, 289, 456, 352
-0.989759, 17, 249, 48, 312
-0.989763, 393, 345, 456, 376
-0.98986, 225, 273, 256, 397
-0.989875, 265, 305, 296, 368
-0.989895, 353, 177, 416, 208
-0.989912, 201, 365, 264, 396
-0.989926, 241, 33, 304, 160
-0.989928, 401, 129, 432, 256
-0.98993, 137, 265, 168, 328
-0.989938, 417, 225, 480, 352
-0.989955, 121, 325, 184, 356
-0.989957, 241, 65, 368, 128
-0.98998, 325, 273, 356, 397
-0.989989, 417, 121, 480, 184
-0.989995, 121, 281, 184, 312
-0.990012, 441, 305, 472, 368
-0.990015, 305, 337, 368, 368
-0.990026, 345, 1, 408, 397
-0.99003, 233, 325, 296, 356
-0.990033, 297, 273, 328, 397
-0.990041, 57, 333, 120, 364
-0.990046, 281, 65, 344, 128
-0.990056, 17, 89, 144, 152
-0.990085, 329, 137, 392, 200
-0.990087, 161, 297, 224, 328
-0.990097, 177, 241, 240, 304
-0.990103, 301, 305, 332, 368
-0.990117, 73, 297, 136, 328
-0.990147, 1, 313, 64, 344
-0.99016, 329, 341, 392, 372
-0.990164, 401, 325, 464, 356
-0.990177, 169, 361, 232, 392
-0.990178, 65, 153, 192, 216
-0.990185, 425, 225, 488, 288
-0.990197, 1, 241, 128, 304
-0.990202, 1, 161, 32, 288
-0.990212, 25, 361, 88, 392
-0.990219, 433, 345, 496, 376
-0.990219, 293, 153, 324, 216
-0.990251, 369, 357, 432, 388
-0.990253, 17, 177, 80, 240
-0.990262, 17, 225, 48, 352
-0.990272, 129, 73, 256, 136
-0.990275, 213, 305, 244, 368
-0.990293, 289, 129, 416, 192
-0.990312, 305, 353, 368, 384
-0.990354, 233, 173, 296, 204
-0.990378, 393, 1, 456, 397
-0.990384, 33, 177, 64, 304
-0.990389, 257, 57, 320, 120
-0.990392, 225, 361, 288, 392
-0.990393, 181, 177, 212, 240
-0.990404, 225, 349, 288, 380
-0.990416, 425, 193, 488, 224
-0.990417, 281, 321, 344, 352
-0.99043, 289, 1, 352, 397
-0.990451, 129, 121, 256, 184
-0.990458, 377, 81, 440, 112
-0.990464, 433, 365, 496, 396
-0.990469, 1, 257, 32, 320
-0.990472, 237, 273, 268, 397
-0.99048, 469, 201, 500, 264
-0.990492, 457, 305, 488, 368
-0.990495, 389, 145, 420, 208
-0.990506, 57, 161, 88, 288
-0.990548, 249, 337, 312, 368
-0.990551, 33, 349, 96, 380
-0.990578, 401, 177, 432, 240
-0.990609, 425, 321, 488, 352
-0.990618, 1, 365, 64, 396
-0.990624, 185, 297, 248, 328
-0.99063, 385, 189, 448, 220
-0.99065, 73, 321, 136, 352
-0.990652, 177, 153, 208, 216
-0.990666, 177, 309, 240, 340
-0.990705, 105, 337, 168, 368
-0.99073, 385, 209, 416, 336
-0.990735, 393, 81, 424, 144
-0.990737, 369, 145, 496, 208
-0.990746, 209, 173, 272, 204
-0.990746, 321, 365, 384, 396
-0.990755, 369, 129, 432, 384
-0.990759, 305, 317, 368, 348
-0.990775, 81, 233, 144, 296
-0.990798, 257, 317, 320, 348
-0.990801, 433, 153, 496, 216
-0.990813, 321, 189, 384, 220
-0.990814, 297, 145, 328, 272
-0.990815, 1, 225, 32, 352
-0.990817, 345, 273, 376, 397
-0.99082, 209, 185, 272, 216
-0.990832, 257, 349, 320, 380
-0.990848, 33, 329, 288, 392
-0.990849, 193, 113, 320, 176
-0.990866, 201, 33, 264, 160
-0.990874, 193, 341, 256, 372
-0.990876, 73, 89, 136, 120
-0.990908, 297, 89, 360, 120
-0.990956, 81, 309, 144, 340
-0.990966, 169, 285, 232, 316
-0.99098, 193, 161, 256, 192
-0.990999, 249, 361, 312, 392
-0.991014, 281, 345, 344, 376
-0.991027, 201, 337, 232, 397
-0.991029, 185, 97, 248, 128
-0.991042, 77, 177, 108, 240
-0.991053, 241, 89, 304, 120
-0.991098, 169, 337, 200, 397
-0.991098, 313, 177, 376, 208
-0.99112, 193, 353, 256, 384
-0.991139, 37, 281, 68, 344
-0.991149, 369, 17, 432, 144
-0.99115, 81, 333, 144, 364
-0.991151, 333, 305, 364, 368
-0.991151, 25, 337, 88, 368
-0.991156, 9, 245, 72, 276
-0.991162, 233, 309, 296, 340
-0.9912, 65, 305, 320, 368
-0.991228, 265, 33, 328, 160
-0.991239, 217, 113, 280, 176
-0.991272, 417, 185, 448, 248
-0.991289, 353, 165, 416, 196
-0.99129, 273, 305, 336, 336
-0.991291, 173, 225, 204, 352
-0.991339, 81, 101, 144, 132
-0.991346, 105, 97, 168, 128
-0.991359, 33, 177, 96, 208
-0.991364, 329, 89, 392, 120
-0.991384, 153, 321, 216, 352
-0.99139, 1, 169, 128, 232
-0.991396, 17, 209, 80, 272
-0.991409, 41, 321, 104, 352
-0.991422, 65, 273, 96, 397
-0.991425, 417, 97, 480, 128
-0.991427, 145, 345, 208, 376
-0.991434, 185, 173, 248, 204
-0.991442, 129, 361, 192, 392
-0.991449, 1, 285, 64, 316
-0.991461, 205, 177, 236, 304
-0.991468, 409, 181, 472, 212
-0.99147, 369, 345, 432, 376
-0.991474, 121, 177, 184, 240
-0.99148, 201, 65, 264, 128
-0.991483, 93, 73, 124, 136
-0.991485, 65, 217, 192, 280
-0.991491, 129, 201, 256, 264
-0.9915, 145, 285, 208, 316
-0.991513, 393, 201, 456, 232
-0.991516, 265, 93, 328, 124
-0.991533, 221, 89, 252, 152
-0.991537, 357, 193, 388, 256
-0.991553, 65, 113, 128, 144
-0.991554, 225, 337, 288, 368
-0.991564, 1, 297, 64, 328
-0.991564, 161, 101, 224, 132
-0.991569, 113, 349, 176, 380
-0.991606, 57, 345, 120, 376
-0.991628, 457, 185, 488, 248
-0.991631, 37, 129, 68, 192
-0.991631, 185, 325, 248, 356
-0.991641, 141, 337, 172, 397
-0.991641, 137, 269, 200, 300
-0.991642, 17, 281, 48, 344
-0.991649, 257, 201, 384, 264
-0.991656, 73, 277, 136, 308
-0.991663, 157, 225, 188, 352
-0.991675, 241, 161, 304, 192
-0.991685, 129, 101, 192, 132
-0.991687, 241, 129, 272, 256
-0.991698, 217, 89, 280, 120
-0.99171, 1, 269, 64, 300
-0.991726, 97, 85, 160, 116
-0.991726, 345, 189, 408, 220
-0.991743, 209, 301, 272, 332
-0.991776, 377, 325, 440, 356
-0.991778, 193, 201, 320, 264
-0.991778, 17, 217, 144, 280
-0.991825, 161, 181, 224, 212
-0.991831, 273, 361, 336, 392
-0.991833, 369, 209, 400, 336
-0.991865, 385, 169, 448, 200
-0.991867, 73, 169, 136, 200
-0.991874, 377, 149, 440, 180
-0.991876, 433, 181, 496, 212
-0.991881, 393, 93, 456, 124
-0.991891, 33, 97, 288, 160
-0.991892, 49, 361, 112, 392
-0.991907, 77, 177, 108, 304
-0.991917, 9, 1, 72, 397
-0.99193, 185, 197, 248, 228
-0.991941, 209, 313, 272, 344
-0.99195, 209, 197, 272, 228
-0.991964, 225, 337, 480, 397
-0.991965, 281, 273, 312, 397
-0.99199, 97, 265, 160, 296
-0.991991, 249, 185, 312, 216
-0.991994, 329, 165, 392, 196
-0.991998, 353, 329, 416, 360
-0.992002, 353, 85, 416, 116
-0.992011, 409, 165, 472, 196
-0.992036, 1, 193, 128, 256
-0.992042, 89, 357, 152, 388
-0.992046, 353, 201, 416, 232
-0.992049, 49, 125, 112, 156
-0.992085, 105, 321, 136, 352
-0.992088, 49, 309, 112, 340
-0.992089, 25, 133, 88, 164
-0.992106, 113, 309, 144, 340
-0.992106, 385, 137, 448, 168
-0.992113, 177, 149, 240, 180
-0.992114, 289, 117, 352, 148
-0.992115, 469, 193, 500, 320
-0.992118, 253, 273, 284, 397
-0.99214, 129, 317, 160, 348
-0.992143, 445, 273, 476, 397
-0.992147, 257, 81, 288, 208
-0.992253, 141, 309, 172, 340
-0.992278, 105, 289, 136, 320
-0.992303, 377, 209, 440, 336
-0.992312, 449, 209, 480, 336
-0.992331, 257, 81, 500, 144
-0.992346, 57, 1, 120, 397
-0.992357, 369, 1, 432, 397
-0.992361, 429, 193, 460, 320
-0.99237, 153, 305, 184, 336
-0.992371, 305, 105, 432, 168
-0.992371, 377, 353, 408, 384
-0.992376, 129, 241, 256, 304
-0.99238, 85, 321, 116, 352
-0.992409, 133, 297, 164, 328
-0.992412, 353, 345, 384, 376
-0.992416, 133, 277, 164, 308
-0.992419, 125, 329, 156, 360
-0.992422, 121, 273, 152, 304
-0.992426, 193, 225, 224, 352
-0.992431, 141, 321, 172, 352
-0.992452, 365, 357, 396, 388
-0.992477, 177, 65, 304, 128
-0.992497, 441, 357, 472, 388
-0.992503, 333, 333, 364, 364
-0.992507, 281, 329, 312, 360
-0.992508, 193, 297, 224, 328
-0.992516, 17, 349, 48, 380
-0.992521, 233, 365, 264, 396
-0.992522, 461, 365, 492, 396
-0.992531, 25, 329, 56, 360
-0.992538, 301, 329, 332, 360
-0.99255, 269, 341, 300, 372
-0.992555, 73, 325, 104, 356
-0.992555, 169, 289, 200, 320
-0.992559, 401, 345, 432, 376
-0.992559, 217, 193, 248, 320
-0.992569, 421, 341, 452, 372
-0.992575, 341, 349, 372, 380
-0.992578, 353, 361, 384, 392
-0.992585, 9, 333, 40, 364
-0.992599, 157, 293, 188, 324
-0.992603, 205, 297, 236, 328
-0.992604, 429, 329, 460, 360
-0.992607, 145, 281, 176, 312
-0.992612, 241, 173, 272, 204
-0.992619, 77, 93, 108, 124
-0.992623, 441, 345, 472, 376
-0.992628, 49, 329, 80, 360
-0.992629, 153, 325, 184, 356
-0.992635, 265, 325, 296, 356
-0.992646, 173, 305, 204, 336
-0.992655, 45, 349, 76, 380
-0.992656, 341, 181, 372, 212
-0.992662, 461, 353, 492, 384
-0.992668, 105, 85, 136, 116
-0.99268, 53, 365, 84, 396
-0.992685, 353, 177, 384, 208
-0.992685, 393, 361, 424, 392
-0.992685, 321, 333, 352, 364
-0.992688, 413, 365, 444, 396
-0.992692, 13, 365, 44, 396
-0.992696, 97, 301, 128, 332
-0.992705, 113, 333, 144, 364
-0.992711, 25, 1, 88, 256
-0.992719, 281, 349, 312, 380
-0.992721, 109, 277, 140, 308
-0.992723, 441, 329, 472, 360
-0.992724, 469, 337, 500, 368
-0.992734, 225, 1, 288, 397
-0.992736, 29, 309, 60, 340
-0.992744, 85, 333, 116, 364
-0.992745, 29, 365, 60, 396
-0.992748, 37, 333, 68, 364
-0.99275, 429, 357, 460, 388
-0.992751, 9, 309, 40, 340
-0.992755, 453, 329, 484, 360
-0.992774, 5, 321, 36, 352
-0.992776, 249, 361, 280, 392
-0.99278, 185, 309, 216, 340
-0.992799, 33, 345, 64, 376
-0.9928, 381, 365, 412, 396
-0.992802, 389, 345, 420, 376
-0.992806, 265, 313, 296, 344
-0.992814, 245, 325, 276, 356
-0.992814, 217, 365, 248, 396
-0.992819, 365, 341, 396, 372
-0.992821, 89, 93, 120, 124
-0.992826, 33, 237, 64, 268
-0.992827, 221, 161, 252, 192
-0.992828, 409, 333, 440, 364
-0.992834, 137, 357, 168, 388
-0.992838, 341, 361, 372, 392
-0.99285, 329, 349, 360, 380
-0.992851, 457, 341, 488, 372
-0.992857, 381, 81, 412, 112
-0.992865, 309, 129, 340, 256
-0.992867, 237, 185, 268, 216
-0.992868, 141, 337, 172, 368
-0.992879, 345, 333, 376, 364
-0.992887, 157, 281, 188, 312
-0.992891, 249, 349, 280, 380
-0.992907, 165, 325, 196, 356
-0.992908, 181, 365, 212, 396
-0.99291, 1, 365, 32, 396
-0.992912, 57, 341, 88, 372
-0.992914, 93, 285, 124, 316
-0.992915, 205, 285, 236, 316
-0.992919, 221, 297, 252, 328
-0.992936, 221, 173, 252, 204
-0.99294, 417, 321, 448, 352
-0.99295, 201, 361, 232, 392
-0.99295, 177, 277, 208, 308
-0.992952, 205, 309, 236, 340
-0.992957, 249, 85, 280, 116
-0.992957, 269, 357, 300, 388
-0.992959, 125, 341, 156, 372
-0.992959, 73, 105, 104, 136
-0.99296, 101, 333, 132, 364
-0.99297, 233, 337, 264, 368
-0.992972, 145, 293, 176, 324
-0.992975, 441, 197, 472, 228
-0.992981, 281, 317, 312, 348
-0.992988, 1, 297, 32, 328
-0.992991, 321, 57, 448, 120
-0.992992, 401, 185, 432, 216
-0.992995, 293, 341, 324, 372
-0.992999, 121, 297, 152, 328
-0.993001, 353, 165, 384, 196
-0.993014, 381, 169, 412, 200
-0.993015, 145, 101, 176, 132
-0.993017, 161, 341, 192, 372
-0.993018, 197, 97, 228, 128
-0.993026, 313, 89, 344, 120
-0.993026, 369, 161, 400, 192
-0.993029, 225, 185, 256, 216
-0.993029, 5, 345, 36, 376
-0.993034, 365, 177, 396, 208
-0.993036, 41, 361, 72, 392
-0.99304, 117, 97, 148, 128
-0.993042, 225, 317, 256, 348
-0.993042, 33, 1, 96, 397
-0.993044, 45, 249, 76, 280
-0.993057, 69, 337, 100, 368
-0.993081, 193, 249, 320, 312
-0.993157, 33, 321, 160, 352
-0.993293, 129, 329, 384, 392
-0.993333, 353, 33, 384, 160
-0.993403, 369, 105, 496, 168
-0.993447, 65, 65, 192, 128
-0.99351, 97, 297, 224, 328
-0.993521, 433, 49, 464, 176
-0.993523, 273, 129, 304, 256
-0.993607, 321, 225, 384, 352
-0.993743, 425, 145, 456, 272
-0.993768, 241, 281, 368, 344
-0.99377, 49, 337, 64, 397
-0.99377, 353, 361, 480, 392
-0.993815, 125, 209, 156, 336
-0.993817, 289, 289, 416, 352
-0.993818, 389, 113, 420, 240
-0.993872, 97, 285, 224, 316
-0.993885, 257, 169, 500, 232
-0.993991, 97, 309, 224, 340
-0.994013, 321, 217, 448, 280
-0.994043, 165, 297, 180, 360
-0.99406, 225, 305, 480, 368
-0.994114, 59, 337, 74, 397
-0.994117, 425, 273, 456, 397
-0.994158, 205, 129, 236, 256
-0.994168, 157, 321, 172, 384
-0.994175, 413, 145, 444, 272
-0.994185, 17, 177, 48, 304
-0.994199, 1, 89, 500, 152
-0.994221, 1, 329, 500, 392
-0.994245, 381, 257, 412, 384
-0.994314, 49, 361, 176, 392
-0.994344, 3, 321, 18, 384
-0.994354, 1, 281, 256, 344
-0.994358, 49, 65, 80, 192
-0.994431, 129, 89, 384, 152
-0.994474, 397, 273, 428, 397
-0.994475, 351, 337, 366, 397
-0.99448, 153, 281, 168, 344
-0.994489, 45, 177, 76, 304
-0.994501, 173, 281, 188, 344
-0.994504, 111, 281, 126, 344
-0.994532, 119, 297, 134, 360
-0.994553, 369, 257, 496, 320
-0.994597, 1, 309, 128, 340
-0.994604, 193, 225, 320, 288
-0.994606, 205, 297, 220, 360
-0.994609, 417, 193, 448, 320
-0.994613, 27, 329, 42, 392
-0.994626, 471, 337, 486, 397
-0.994652, 11, 313, 26, 376
-0.994667, 185, 297, 200, 360
-0.99467, 127, 313, 142, 376
-0.994681, 137, 321, 152, 384
-0.994746, 469, 273, 500, 397
-0.994751, 33, 329, 48, 392
-0.994782, 321, 345, 448, 376
-0.994791, 429, 329, 444, 392
-0.994807, 1, 281, 16, 344
-0.994819, 65, 101, 192, 132
-0.994826, 181, 145, 212, 272
-0.994829, 457, 161, 488, 288
-0.994861, 309, 177, 340, 304
-0.994866, 161, 153, 416, 216
-0.99489, 141, 297, 156, 360
-0.994892, 17, 313, 32, 376
-0.994894, 179, 281, 194, 344
-0.9949, 295, 329, 310, 392
-0.99494, 277, 177, 308, 304
-0.994942, 33, 293, 160, 324
-0.994943, 215, 297, 230, 360
-0.994966, 463, 329, 478, 392
-0.994968, 39, 329, 54, 392
-0.994983, 337, 281, 464, 344
-0.994987, 97, 49, 128, 176
-0.994988, 241, 233, 368, 296
-0.994998, 337, 89, 464, 120
-0.995027, 369, 217, 496, 280
-0.995034, 85, 49, 116, 176
-0.995042, 161, 177, 192, 304
-0.995051, 377, 33, 408, 160
-0.995071, 161, 185, 416, 248
-0.995077, 105, 297, 120, 360
-0.995111, 249, 329, 264, 392
-0.995113, 21, 337, 36, 397
-0.99513, 329, 33, 360, 160
-0.995138, 265, 329, 280, 392
-0.995153, 441, 337, 456, 397
-0.995162, 423, 329, 438, 392
-0.995186, 345, 337, 360, 397
-0.995201, 81, 325, 208, 356
-0.995219, 313, 33, 376, 160
-0.995224, 401, 177, 432, 304
-0.995237, 163, 273, 178, 336
-0.995238, 241, 257, 368, 320
-0.995256, 113, 357, 240, 388
-0.99527, 131, 337, 146, 397
-0.995314, 81, 129, 208, 192
-0.995318, 135, 281, 150, 344
-0.995328, 257, 349, 384, 380
-0.995339, 257, 337, 384, 368
-0.995347, 161, 281, 416, 344
-0.995354, 479, 337, 494, 397
-0.995364, 193, 89, 320, 120
-0.995375, 1, 345, 128, 376
-0.995402, 327, 337, 342, 397
-0.995404, 285, 329, 300, 392
-0.995433, 191, 297, 206, 360
-0.995448, 199, 289, 214, 352
-0.995448, 259, 337, 274, 397
-0.99545, 369, 345, 496, 376
-0.995498, 1, 305, 500, 368
-0.995505, 147, 321, 162, 384
-0.995514, 113, 313, 128, 376
-0.995522, 177, 173, 304, 204
-0.995528, 173, 313, 188, 376
-0.995551, 369, 57, 496, 120
-0.995565, 147, 297, 162, 360
-0.995595, 1, 1, 64, 256
-0.995607, 79, 89, 94, 152
-0.995609, 357, 209, 388, 336
-0.995621, 49, 313, 64, 376
-0.995638, 121, 321, 136, 384
-0.995641, 245, 177, 276, 304
-0.995652, 343, 313, 358, 376
-0.995652, 13, 337, 28, 397
-0.995654, 337, 337, 352, 397
-0.995664, 85, 321, 100, 384
-0.995671, 123, 273, 138, 336
-0.995707, 125, 33, 156, 160
-0.995709, 469, 49, 500, 176
-0.995737, 417, 33, 448, 160
-0.995757, 337, 181, 464, 212
-0.995764, 247, 169, 262, 232
-0.995768, 1, 121, 256, 184
-0.995772, 129, 321, 256, 352
-0.995777, 141, 177, 172, 304
-0.995789, 291, 305, 306, 368
-0.995801, 285, 129, 316, 256
-0.995816, 109, 33, 140, 160
-0.995829, 313, 273, 344, 397
-0.995854, 1, 333, 128, 364
-0.99586, 97, 273, 224, 304
-0.995877, 439, 185, 454, 248
-0.995882, 153, 49, 184, 176
-0.995888, 73, 225, 104, 352
-0.995888, 163, 321, 178, 384
-0.995889, 193, 129, 448, 192
-0.995903, 377, 329, 392, 392
-0.995908, 177, 301, 304, 332
-0.995917, 97, 337, 224, 368
-0.995927, 329, 177, 360, 304
-0.995932, 253, 129, 284, 256
-0.995952, 289, 265, 416, 328
-0.995956, 445, 185, 460, 248
-0.995978, 159, 297, 174, 360
-0.995978, 95, 297, 110, 360
-0.995987, 257, 313, 272, 376
-0.995991, 261, 177, 292, 304
-0.996006, 209, 333, 336, 364
-0.996012, 141, 273, 156, 336
-0.996023, 455, 337, 470, 397
-0.996024, 337, 193, 464, 224
-0.996037, 185, 273, 200, 336
-0.996051, 57, 313, 72, 376
-0.996062, 113, 257, 128, 320
-0.996064, 39, 305, 54, 368
-0.996067, 273, 337, 288, 397
-0.996069, 23, 305, 38, 368
-0.996093, 33, 177, 288, 240
-0.996094, 169, 33, 232, 160
-0.996099, 209, 161, 336, 192
-0.996103, 49, 349, 176, 380
-0.99611, 417, 337, 432, 397
-0.99612, 33, 305, 48, 368
-0.996125, 433, 177, 448, 240
-0.996131, 435, 321, 450, 384
-0.99616, 99, 321, 114, 384
-0.996178, 129, 173, 256, 204
-0.996179, 309, 33, 340, 160
-0.996182, 379, 81, 394, 144
-0.996189, 241, 337, 256, 397
-0.996201, 145, 97, 272, 128
-0.996202, 39, 281, 54, 344
-0.996216, 389, 329, 404, 392
-0.996219, 353, 177, 368, 240
-0.996255, 409, 329, 424, 392
-0.996269, 65, 89, 192, 120
-0.99627, 223, 321, 238, 384
-0.996272, 235, 337, 250, 397
-0.996286, 7, 273, 22, 336
-0.996302, 353, 65, 384, 320
-0.996316, 211, 273, 226, 336
-0.996317, 177, 365, 304, 396
-0.996329, 361, 177, 376, 240
-0.996342, 383, 177, 398, 240
-0.996352, 273, 93, 400, 124
-0.996358, 317, 81, 332, 144
-0.996361, 99, 97, 114, 160
-0.99637, 335, 313, 350, 376
-0.996396, 411, 161, 426, 224
-0.996399, 111, 81, 126, 144
-0.99642, 187, 97, 202, 160
-0.996424, 65, 329, 80, 392
-0.996429, 1, 365, 128, 396
-0.996431, 321, 329, 448, 360
-0.996436, 329, 89, 344, 152
-0.996437, 359, 337, 374, 397
-0.996441, 257, 325, 384, 356
-0.996448, 447, 329, 462, 392
-0.996461, 65, 145, 320, 208
-0.996462, 209, 321, 224, 384
-0.996483, 319, 329, 334, 392
-0.996485, 145, 289, 272, 320
-0.996489, 445, 161, 460, 224
-0.996494, 49, 337, 176, 368
-0.9965, 91, 89, 106, 152
-0.996508, 347, 177, 362, 240
-0.996509, 219, 177, 234, 240
-0.996516, 135, 317, 150, 348
-0.996519, 325, 313, 340, 376
-0.996531, 289, 161, 416, 192
-0.996542, 117, 81, 132, 144
-0.996561, 239, 177, 254, 240
-0.996561, 1, 65, 128, 128
-0.996565, 245, 145, 260, 208
-0.996573, 485, 337, 500, 397
-0.996575, 233, 89, 248, 152
-0.99658, 301, 313, 316, 376
-0.996593, 309, 337, 324, 397
-0.996596, 179, 305, 194, 368
-0.996599, 147, 273, 162, 336
-0.996613, 245, 305, 260, 368
-0.99663, 123, 89, 138, 152
-0.996632, 47, 289, 62, 352
-0.996638, 107, 321, 122, 384
-0.996654, 105, 273, 120, 336
-0.996665, 209, 133, 336, 164
-0.99667, 221, 297, 236, 360
-0.996674, 403, 337, 418, 397
-0.996684, 289, 361, 416, 392
-0.996692, 223, 97, 238, 160
-0.996699, 209, 353, 336, 384
-0.996699, 29, 241, 44, 304
-0.996701, 209, 149, 336, 180
-0.996717, 367, 337, 382, 397
-0.996718, 145, 333, 272, 364
-0.996729, 161, 153, 288, 184
-0.996736, 455, 97, 470, 160
-0.996752, 111, 285, 126, 316
-0.996755, 261, 81, 276, 144
-0.996758, 211, 97, 226, 160
-0.996786, 279, 321, 294, 384
-0.996792, 145, 185, 272, 216
-0.996807, 433, 89, 448, 152
-0.996808, 257, 201, 500, 264
-0.996812, 289, 201, 416, 232
-0.996852, 369, 333, 496, 364
-0.996869, 49, 273, 176, 304
-0.996879, 161, 257, 416, 320
-0.996892, 289, 241, 416, 304
-0.996896, 241, 181, 368, 212
-0.996899, 1, 113, 500, 176
-0.996917, 49, 305, 176, 336
-0.996938, 125, 305, 140, 336
-0.996951, 143, 305, 158, 336
-0.996979, 353, 169, 480, 200
-0.99701, 161, 277, 288, 308
-0.997077, 177, 313, 304, 344
-0.997079, 49, 113, 176, 144
-0.997103, 341, 65, 372, 320
-0.997105, 129, 317, 144, 348
-0.997152, 163, 305, 178, 336
-0.997156, 115, 297, 130, 328
-0.997159, 373, 65, 404, 320
-0.997164, 101, 325, 116, 356
-0.997182, 387, 349, 402, 380
-0.997182, 33, 209, 288, 272
-0.997199, 93, 65, 124, 320
-0.997202, 135, 305, 150, 336
-0.997203, 193, 185, 320, 216
-0.997214, 1, 317, 16, 348
-0.997219, 73, 65, 104, 320
-0.997221, 1, 65, 64, 192
-0.997234, 257, 105, 500, 168
-0.997237, 289, 337, 304, 368
-0.997241, 123, 285, 138, 316
-0.997255, 109, 321, 124, 352
-0.997256, 355, 361, 370, 392
-0.997261, 17, 125, 144, 156
-0.997273, 173, 313, 188, 344
-0.997288, 145, 321, 160, 352
-0.99729, 283, 329, 298, 360
-0.997294, 347, 353, 362, 384
-0.997302, 65, 173, 192, 204
-0.997305, 169, 297, 184, 328
-0.997322, 423, 365, 438, 396
-0.997322, 121, 273, 136, 304
-0.997338, 107, 305, 122, 336
-0.997352, 135, 289, 150, 320
-0.997353, 289, 189, 416, 220
-0.997368, 145, 141, 272, 172
-0.997384, 225, 65, 256, 320
-0.997386, 143, 277, 158, 308
-0.997389, 177, 285, 192, 316
-0.99742, 51, 329, 66, 360
-0.99742, 133, 273, 148, 304
-0.997421, 257, 273, 500, 336
-0.997422, 289, 173, 416, 204
-0.997425, 145, 65, 176, 320
-0.997429, 97, 185, 224, 216
-0.997434, 357, 349, 372, 380
-0.997437, 241, 313, 368, 344
-0.997438, 449, 65, 480, 320
-0.997442, 33, 225, 160, 256
-0.99745, 209, 121, 336, 152
-0.997456, 247, 173, 262, 204
-0.997456, 129, 85, 256, 116
-0.99746, 3, 329, 18, 360
-0.997468, 431, 365, 446, 396
-0.997469, 223, 297, 238, 328
-0.99747, 139, 329, 154, 360
-0.997482, 1, 257, 256, 320
-0.997489, 105, 293, 120, 324
-0.997491, 377, 353, 392, 384
-0.997492, 129, 293, 144, 324
-0.997495, 241, 177, 256, 208
-0.997496, 125, 65, 156, 320
-0.997496, 257, 357, 272, 388
-0.997499, 245, 65, 276, 320
-0.9975, 333, 333, 348, 364
-0.9975, 149, 305, 164, 336
-0.9975, 1, 269, 128, 300
-0.997507, 347, 333, 362, 364
-0.997511, 1, 237, 128, 268
-0.997513, 211, 293, 226, 324
-0.997514, 241, 81, 368, 112
-0.997518, 97, 153, 224, 184
-0.997524, 369, 341, 384, 372
-0.997528, 37, 97, 68, 352
-0.997531, 369, 205, 496, 236
-0.997533, 241, 197, 368, 228
-0.997548, 425, 65, 456, 320
-0.997551, 105, 281, 120, 312
-0.997553, 233, 365, 248, 396
-0.997555, 161, 209, 416, 272
-0.997559, 127, 329, 142, 360
-0.997561, 157, 313, 172, 344
-0.997563, 1, 153, 500, 216
-0.997565, 15, 337, 30, 368
-0.997568, 169, 65, 200, 320
-0.997568, 9, 333, 24, 364
-0.997568, 225, 365, 352, 396
-0.997573, 477, 341, 492, 372
-0.997578, 289, 81, 416, 112
-0.997578, 363, 349, 378, 380
-0.997579, 183, 297, 198, 328
-0.997579, 115, 317, 130, 348
-0.99758, 461, 361, 476, 392
-0.99758, 27, 325, 42, 356
-0.997588, 113, 273, 128, 304
-0.99759, 465, 65, 496, 320
-0.997591, 289, 145, 416, 176
-0.997604, 47, 349, 62, 380
-0.997608, 155, 293, 170, 324
-0.997613, 119, 85, 134, 116
-0.997617, 353, 177, 368, 208
-0.997618, 395, 361, 410, 392
-0.997624, 17, 97, 48, 352
-0.997636, 59, 361, 74, 392
-0.997639, 145, 345, 272, 376
-0.997643, 147, 293, 162, 324
-0.997649, 267, 361, 282, 392
-0.997655, 293, 325, 308, 356
-0.997656, 35, 237, 50, 268
-0.997657, 181, 317, 196, 348
-0.997657, 327, 333, 342, 364
-0.997658, 3, 341, 18, 372
-0.99766, 133, 329, 148, 360
-0.997663, 117, 285, 132, 316
-0.997663, 203, 297, 218, 328
-0.997664, 435, 341, 450, 372
-0.997666, 295, 337, 310, 368
-0.997668, 193, 57, 448, 120
-0.997669, 23, 349, 38, 380
-0.997672, 439, 325, 454, 356
-0.997676, 153, 325, 168, 356
-0.99768, 37, 333, 52, 364
-0.997684, 193, 65, 224, 320
-0.997686, 177, 297, 192, 328
-0.997688, 149, 281, 164, 312
-0.99769, 241, 293, 368, 324
-0.99769, 473, 357, 488, 388
-0.997692, 217, 297, 232, 328
-0.997699, 53, 361, 68, 392
-0.997702, 1, 281, 128, 312
-0.997703, 123, 317, 138, 348
-0.997703, 5, 97, 36, 352
-0.997711, 45, 361, 60, 392
-0.997716, 401, 65, 432, 320
-0.997717, 15, 365, 30, 396
-0.99772, 157, 65, 188, 320
-0.997724, 133, 361, 148, 392
-0.997724, 321, 333, 336, 364
-0.997724, 213, 65, 244, 320
-0.997726, 265, 65, 296, 320
-0.997727, 321, 313, 448, 344
-0.997729, 21, 313, 36, 344
-0.99773, 145, 265, 272, 296
-0.997731, 11, 309, 26, 340
-0.997733, 193, 289, 320, 320
-0.997734, 1, 305, 16, 336
-0.997738, 87, 321, 102, 352
-0.997739, 193, 309, 208, 340
-0.997745, 341, 333, 356, 364
-0.997754, 309, 65, 340, 320
-0.997754, 263, 345, 278, 376
-0.997757, 171, 285, 186, 316
-0.997759, 349, 365, 364, 396
-0.99776, 467, 333, 482, 364
-0.997763, 81, 93, 96, 124
-0.997767, 113, 65, 144, 320
-0.997775, 37, 349, 52, 380
-0.997775, 383, 361, 398, 392
-0.997776, 45, 329, 60, 360
-0.997779, 369, 357, 384, 388
-0.997783, 369, 101, 496, 132
-0.997789, 69, 333, 84, 364
-0.99779, 481, 357, 496, 388
-0.997791, 293, 65, 324, 320
-0.997791, 195, 345, 210, 376
-0.997792, 429, 321, 444, 352
-0.997792, 219, 361, 234, 392
-0.997796, 465, 345, 480, 376
-0.997798, 263, 325, 278, 356
-0.997799, 123, 349, 138, 380
-0.997799, 341, 349, 356, 380
-0.997802, 95, 329, 110, 360
-0.997807, 13, 321, 28, 352
-0.997809, 17, 169, 144, 200
-0.997809, 459, 329, 474, 360
-0.997809, 413, 341, 428, 372
-0.997811, 33, 309, 48, 340
-0.997817, 127, 273, 142, 304
-0.997819, 191, 357, 206, 388
-0.997819, 321, 65, 352, 320
-0.997822, 227, 365, 242, 396
-0.997829, 53, 97, 84, 352
-0.99783, 141, 293, 156, 324
-0.997831, 211, 365, 226, 396
-0.997833, 163, 325, 178, 356
-0.997837, 437, 65, 468, 320
-0.997841, 169, 325, 184, 356
-0.997846, 237, 337, 252, 368
-0.997864, 81, 329, 96, 360
-0.997866, 455, 365, 470, 396
-0.99787, 21, 333, 36, 364
-0.997872, 39, 365, 54, 396
-0.997913, 257, 133, 384, 164
-0.99792, 385, 33, 416, 288
-0.997936, 17, 137, 144, 168
-0.997938, 281, 65, 312, 320
-0.997955, 17, 93, 144, 124
-0.997965, 49, 49, 112, 176
-0.997981, 97, 261, 224, 292
-0.99803, 225, 105, 352, 136
-0.998039, 369, 153, 496, 184
-0.998045, 337, 77, 464, 108
-0.998063, 193, 201, 320, 232
-0.998079, 257, 233, 500, 296
-0.9981, 1, 105, 128, 136
-0.9981, 369, 249, 496, 280
-0.998102, 369, 321, 496, 352
-0.998112, 1, 193, 500, 256
-0.998117, 273, 113, 400, 144
-0.998183, 49, 249, 176, 280
-0.998209, 129, 197, 256, 228
-0.998225, 33, 73, 288, 136
-0.998237, 369, 237, 496, 268
-0.998239, 413, 33, 444, 288
-0.998258, 181, 65, 212, 320
-0.998294, 49, 213, 176, 244
-0.998313, 49, 237, 176, 268
-0.998362, 49, 185, 176, 216
-0.998375, 257, 221, 384, 252
-0.998385, 1, 257, 128, 288
-0.9984, 161, 125, 288, 156
-0.998412, 97, 225, 224, 256
-0.998414, 65, 233, 320, 296
-0.998421, 49, 261, 176, 292
-0.998425, 305, 339, 368, 354
-0.998438, 305, 221, 432, 252
-0.998441, 353, 217, 480, 248
-0.998448, 409, 375, 472, 390
-0.998452, 25, 335, 88, 350
-0.998454, 425, 361, 488, 376
-0.998456, 97, 325, 160, 340
-0.998462, 97, 339, 160, 354
-0.998464, 97, 121, 352, 184
-0.998467, 97, 133, 224, 164
-0.998468, 9, 345, 72, 360
-0.998468, 113, 317, 176, 332
-0.998469, 225, 377, 288, 392
-0.99847, 393, 351, 456, 366
-0.998473, 89, 289, 120, 304
-0.998473, 237, 335, 268, 350
-0.998474, 53, 361, 84, 376
-0.998474, 17, 363, 48, 378
-0.998474, 353, 359, 384, 374
-0.998474, 341, 359, 372, 374
-0.998475, 381, 175, 412, 190
-0.998475, 21, 355, 52, 370
-0.998476, 109, 283, 140, 298
-0.998476, 109, 89, 140, 104
-0.998477, 217, 343, 248, 358
-0.998477, 445, 331, 476, 346
-0.998478, 369, 373, 400, 388
-0.998478, 181, 289, 212, 304
-0.998479, 193, 377, 256, 392
-0.998479, 97, 301, 160, 316
-0.99848, 149, 337, 180, 352
-0.998481, 281, 355, 312, 370
-0.998483, 149, 283, 180, 298
-0.998484, 29, 361, 60, 376
-0.998484, 185, 299, 248, 314
-0.998485, 13, 331, 44, 346
-0.998485, 333, 351, 364, 366
-0.998486, 9, 357, 72, 372
-0.998486, 469, 345, 500, 360
-0.998487, 73, 113, 104, 128
-0.998488, 289, 339, 320, 354
-0.998489, 93, 339, 124, 354
-0.99849, 353, 353, 384, 368
-0.99849, 121, 309, 184, 324
-0.99849, 269, 363, 300, 378
-0.99849, 269, 329, 300, 344
-0.998491, 9, 375, 40, 390
-0.998491, 273, 333, 336, 348
-0.998491, 113, 283, 176, 298
-0.998491, 133, 371, 164, 386
-0.998491, 29, 325, 60, 340
-0.998492, 225, 375, 256, 390
-0.998492, 125, 337, 156, 352
-0.998492, 73, 333, 136, 348
-0.998492, 233, 367, 296, 382
-0.998492, 129, 331, 192, 346
-0.998493, 401, 357, 432, 372
-0.998493, 45, 329, 76, 344
-0.998493, 425, 327, 456, 342
-0.998493, 25, 351, 88, 366
-0.998494, 265, 339, 328, 354
-0.998494, 241, 177, 272, 192
-0.998494, 173, 305, 204, 320
-0.998494, 337, 349, 400, 364
-0.998496, 49, 335, 112, 350
-0.998497, 189, 301, 220, 316
-0.998497, 461, 361, 492, 376
-0.998498, 153, 289, 216, 304
-0.998498, 97, 293, 160, 308
-0.998499, 77, 95, 108, 110
-0.9985, 253, 379, 284, 394
-0.998501, 417, 369, 448, 384
-0.998501, 213, 369, 244, 384
-0.998501, 153, 301, 216, 316
-0.998501, 317, 337, 348, 352
-0.998501, 189, 311, 220, 326
-0.998502, 209, 369, 272, 384
-0.998502, 65, 331, 96, 346
-0.998503, 401, 369, 464, 384
-0.998503, 1, 335, 64, 350
-0.998503, 409, 337, 472, 352
-0.998504, 189, 295, 220, 310
-0.998505, 97, 323, 128, 338
-0.998506, 121, 275, 152, 290
-0.998506, 133, 301, 164, 316
-0.998507, 157, 289, 188, 304
-0.998507, 173, 317, 204, 332
-0.998507, 273, 343, 304, 358
-0.998507, 345, 179, 376, 194
-0.998508, 141, 365, 172, 380
-0.998508, 305, 125, 432, 156
-0.998508, 417, 339, 448, 354
-0.998508, 401, 191, 464, 206
-0.998509, 37, 335, 68, 350
-0.998509, 133, 285, 164, 300
-0.998509, 169, 293, 200, 308
-0.99851, 137, 331, 168, 346
-0.99851, 233, 341, 264, 356
-0.998511, 353, 185, 416, 200
-0.998512, 85, 323, 116, 338
-0.998512, 437, 185, 468, 200
-0.998512, 385, 363, 448, 378
-0.998513, 421, 377, 452, 392
-0.998513, 145, 319, 208, 334
-0.998513, 25, 329, 88, 344
-0.998514, 449, 347, 480, 362
-0.998514, 445, 361, 476, 376
-0.998515, 37, 345, 68, 360
-0.998515, 145, 213, 272, 244
-0.998515, 433, 373, 496, 388
-0.998515, 417, 381, 480, 396
-0.998515, 1, 357, 32, 372
-0.998515, 149, 323, 180, 338
-0.998517, 57, 355, 88, 370
-0.998517, 9, 337, 40, 352
-0.998517, 169, 287, 200, 302
-0.998517, 345, 355, 408, 370
-0.998519, 149, 329, 180, 344
-0.998519, 457, 367, 488, 382
-0.998521, 133, 295, 164, 310
-0.998522, 161, 295, 224, 310
-0.998522, 121, 303, 184, 318
-0.998522, 133, 315, 164, 330
-0.998522, 249, 353, 312, 368
-0.998523, 465, 351, 496, 366
-0.998523, 241, 371, 272, 386
-0.998523, 201, 295, 232, 310
-0.998523, 369, 355, 432, 370
-0.998524, 385, 379, 448, 394
-0.998524, 433, 337, 496, 352
-0.998524, 121, 289, 184, 304
-0.998525, 373, 349, 404, 364
-0.998526, 157, 299, 188, 314
-0.998527, 133, 307, 164, 322
-0.998527, 153, 311, 184, 326
-0.998527, 345, 341, 376, 356
-0.998527, 17, 363, 80, 378
-0.998527, 145, 289, 176, 304
-0.998528, 121, 339, 184, 354
-0.998528, 25, 369, 88, 384
-0.998528, 393, 343, 424, 358
-0.998528, 257, 371, 320, 386
-0.998528, 137, 283, 200, 298
-0.998529, 297, 349, 360, 364
-0.998529, 233, 343, 296, 358
-0.99853, 161, 309, 224, 324
-0.99853, 145, 317, 176, 332
-0.998531, 209, 301, 240, 316
-0.998532, 437, 369, 468, 384
-0.998532, 5, 323, 36, 338
-0.998533, 185, 307, 248, 322
-0.998533, 425, 329, 488, 344
-0.998534, 89, 307, 152, 322
-0.998534, 265, 345, 328, 360
-0.998534, 121, 309, 152, 324
-0.998534, 57, 375, 88, 390
-0.998535, 105, 307, 136, 322
-0.998535, 21, 343, 52, 358
-0.998535, 73, 299, 136, 314
-0.998535, 77, 335, 108, 350
-0.998537, 73, 339, 136, 354
-0.998538, 185, 313, 248, 328
-0.998539, 357, 347, 388, 362
-0.998539, 233, 335, 296, 350
-0.998539, 337, 367, 400, 382
-0.99854, 241, 89, 304, 104
-0.99854, 33, 341, 96, 356
-0.99854, 9, 351, 40, 366
-0.998541, 73, 95, 136, 110
-0.998541, 369, 349, 432, 364
-0.998542, 437, 381, 468, 396
-0.998542, 89, 319, 152, 334
-0.998543, 113, 273, 128, 397
-0.998544, 49, 367, 80, 382
-0.998544, 365, 367, 396, 382
-0.998545, 209, 175, 272, 190
-0.998546, 1, 351, 64, 366
-0.998546, 65, 345, 128, 360
-0.998546, 9, 375, 72, 390
-0.998546, 9, 345, 40, 360
-0.998547, 121, 371, 184, 386
-0.998547, 105, 333, 168, 348
-0.998547, 37, 369, 68, 384
-0.998547, 113, 101, 176, 116
-0.998547, 57, 337, 88, 352
-0.998548, 1, 311, 64, 326
-0.998548, 49, 353, 112, 368
-0.99855, 333, 337, 364, 352
-0.998551, 121, 285, 152, 300
-0.998551, 117, 315, 148, 330
-0.998552, 41, 351, 72, 366
-0.998552, 417, 347, 480, 362
-0.998552, 389, 359, 420, 374
-0.998553, 345, 361, 408, 376
-0.998553, 249, 381, 312, 396
-0.998554, 269, 369, 300, 384
-0.998554, 393, 351, 424, 366
-0.998554, 249, 329, 312, 344
-0.998555, 425, 201, 488, 216
-0.998556, 377, 361, 408, 376
-0.998556, 401, 185, 464, 200
-0.998556, 169, 379, 232, 394
-0.998556, 425, 183, 488, 198
-0.998556, 41, 359, 104, 374
-0.998556, 49, 329, 112, 344
-0.998557, 433, 101, 496, 116
-0.998558, 121, 295, 184, 310
-0.998559, 357, 179, 388, 194
-0.998559, 345, 373, 408, 388
-0.998559, 329, 341, 392, 356
-0.99856, 137, 279, 168, 294
-0.99856, 105, 351, 168, 366
-0.998561, 1, 381, 32, 396
-0.998562, 113, 301, 144, 316
-0.998562, 241, 361, 304, 376
-0.998563, 137, 325, 200, 340
-0.998564, 73, 101, 136, 116
-0.998564, 297, 333, 360, 348
-0.998565, 241, 209, 368, 240
-0.998566, 113, 363, 176, 378
-0.998566, 353, 367, 384, 382
-0.998567, 105, 277, 168, 292
-0.998567, 1, 323, 64, 338
-0.998569, 97, 329, 128, 344
-0.99857, 145, 357, 208, 372
-0.99857, 1, 329, 64, 344
-0.998571, 1, 309, 32, 324
-0.998572, 193, 99, 256, 114
-0.998573, 213, 375, 244, 390
-0.998573, 417, 355, 480, 370
-0.998574, 81, 89, 144, 104
-0.998574, 297, 91, 360, 106
-0.998575, 49, 149, 176, 180
-0.998575, 1, 185, 128, 216
-0.998575, 113, 339, 144, 354
-0.998578, 409, 377, 440, 392
-0.998579, 101, 291, 132, 306
-0.99858, 169, 365, 232, 380
-0.99858, 129, 277, 192, 292
-0.998582, 385, 197, 448, 212
-0.998582, 185, 371, 248, 386
-0.998583, 273, 315, 336, 330
-0.998585, 465, 339, 496, 354
-0.998586, 113, 345, 176, 360
-0.998587, 369, 83, 432, 98
-0.998589, 385, 341, 448, 356
-0.998589, 73, 109, 136, 124
-0.998589, 361, 367, 424, 382
-0.998589, 321, 191, 384, 206
-0.998589, 329, 179, 392, 194
-0.998589, 193, 363, 256, 378
-0.99859, 393, 357, 456, 372
-0.998592, 121, 291, 152, 306
-0.998592, 377, 181, 440, 196
-0.998593, 25, 331, 56, 346
-0.998593, 125, 331, 156, 346
-0.998598, 177, 289, 240, 304
-0.998598, 161, 325, 224, 340
-0.998599, 273, 361, 336, 376
-0.998599, 177, 339, 240, 354
-0.9986, 161, 283, 224, 298
-0.9986, 273, 351, 336, 366
-0.998601, 81, 287, 144, 302
-0.998601, 177, 357, 240, 372
-0.998602, 401, 331, 464, 346
-0.998602, 337, 89, 400, 104
-0.998603, 225, 369, 256, 384
-0.998605, 77, 329, 108, 344
-0.998614, 137, 323, 168, 338
-0.998618, 377, 355, 408, 370
-0.998647, 321, 237, 448, 268
-0.998671, 305, 293, 432, 324
-0.998673, 1, 281, 500, 344
-0.998683, 321, 249, 448, 280
-0.998747, 389, 129, 420, 384
-0.998763, 113, 245, 240, 276
-0.998808, 321, 261, 448, 292
-0.99883, 209, 225, 336, 256
-0.998839, 369, 265, 496, 296
-0.998854, 119, 273, 134, 397
-0.998882, 161, 257, 176, 384
-0.998891, 125, 257, 140, 384
-0.998949, 1, 205, 128, 236
-0.998959, 1, 157, 128, 188
-0.998961, 369, 309, 496, 340
-0.998968, 9, 273, 24, 397
-0.99897, 173, 273, 188, 397
-0.998979, 161, 113, 288, 144
-0.998985, 153, 257, 168, 384
-0.998991, 369, 297, 496, 328
-0.999014, 241, 281, 368, 312
-0.999024, 349, 81, 364, 208
-0.999039, 337, 141, 464, 172
-0.99904, 137, 273, 152, 397
-0.999043, 321, 105, 448, 136
-0.999045, 35, 273, 50, 397
-0.999049, 1, 273, 16, 397
-0.99905, 17, 273, 32, 397
-0.999068, 189, 273, 204, 397
-0.999077, 143, 273, 158, 397
-0.999101, 75, 97, 90, 224
-0.999112, 183, 97, 198, 224
-0.999116, 303, 81, 318, 208
-0.99912, 447, 97, 462, 224
-0.999123, 273, 41, 400, 104
-0.999133, 167, 273, 182, 397
-0.999134, 179, 273, 194, 397
-0.999156, 101, 97, 116, 224
-0.999159, 95, 81, 110, 208
-0.999164, 147, 81, 162, 208
-0.999169, 371, 81, 386, 208
-0.999173, 155, 97, 170, 224
-0.999174, 67, 113, 82, 240
-0.999175, 379, 81, 394, 208
-0.999178, 169, 97, 184, 224
-0.99918, 379, 161, 394, 288
-0.99919, 459, 81, 474, 208
-0.999191, 189, 97, 204, 224
-0.999197, 121, 65, 136, 192
-0.999199, 41, 113, 56, 240
-0.9992, 359, 81, 374, 208
-0.999201, 429, 81, 444, 208
-0.999209, 311, 81, 326, 208
-0.999212, 49, 113, 64, 240
-0.999213, 131, 97, 146, 224
-0.999215, 199, 81, 214, 208
-0.999219, 385, 161, 400, 288
-0.999221, 131, 241, 146, 368
-0.999224, 161, 97, 176, 224
-0.999224, 23, 273, 38, 397
-0.999225, 177, 97, 192, 224
-0.999227, 325, 81, 340, 208
-0.99923, 339, 81, 354, 208
-0.999233, 453, 97, 468, 224
-0.999234, 139, 81, 154, 208
-0.999241, 195, 273, 210, 397
-0.999249, 217, 273, 232, 397
-0.999249, 229, 273, 244, 397
-0.99925, 29, 273, 44, 397
-0.999254, 295, 81, 310, 208
-0.999263, 107, 273, 122, 397
-0.999264, 35, 113, 50, 240
-0.999273, 49, 1, 80, 256
-0.999278, 285, 81, 300, 208
-0.999278, 373, 161, 388, 288
-0.99928, 391, 145, 406, 272
-0.999287, 331, 81, 346, 208
-0.999288, 223, 273, 238, 397
-0.999289, 143, 225, 158, 352
-0.999289, 465, 273, 480, 397
-0.999291, 439, 81, 454, 208
-0.999291, 469, 97, 484, 224
-0.9993, 421, 81, 436, 208
-0.999303, 43, 161, 58, 288
-0.999303, 317, 81, 332, 208
-0.999305, 387, 65, 402, 192
-0.999308, 115, 81, 130, 208
-0.999312, 479, 97, 494, 224
-0.999321, 405, 65, 420, 192
-0.999324, 353, 161, 368, 288
-0.99933, 33, 225, 48, 352
-0.999331, 41, 273, 56, 397
-0.999331, 81, 81, 96, 208
-0.999332, 399, 81, 414, 208
-0.999335, 241, 81, 256, 208
-0.999337, 185, 225, 200, 352
-0.999337, 247, 81, 262, 208
-0.999344, 203, 273, 218, 397
-0.999346, 35, 177, 50, 304
-0.999347, 393, 65, 408, 192
-0.999347, 411, 65, 426, 192
-0.999351, 289, 273, 304, 397
-0.999353, 161, 233, 416, 296
-0.999354, 253, 81, 268, 208
-0.999355, 99, 257, 114, 384
-0.999362, 47, 273, 62, 397
-0.999363, 29, 113, 44, 240
-0.999365, 209, 81, 224, 208
-0.999366, 485, 97, 500, 224
-0.999366, 271, 81, 286, 208
-0.999375, 367, 161, 382, 288
-0.999379, 259, 81, 274, 208
-0.999382, 69, 273, 84, 397
-0.999383, 209, 145, 224, 272
-0.999385, 365, 81, 380, 208
-0.999385, 109, 97, 124, 224
-0.999387, 235, 97, 250, 224
-0.999387, 87, 97, 102, 224
-0.99939, 215, 81, 230, 208
-0.999393, 55, 129, 70, 256
-0.999394, 259, 273, 274, 397
-0.999398, 113, 225, 128, 352
-0.9994, 7, 113, 22, 240
-0.999401, 1, 113, 16, 240
-0.999402, 221, 97, 236, 224
-0.999404, 15, 113, 30, 240
-0.999404, 359, 129, 374, 256
-0.999405, 223, 145, 238, 272
-0.999406, 119, 225, 134, 352
-0.999406, 301, 273, 316, 397
-0.999409, 59, 273, 74, 397
-0.99941, 359, 177, 374, 304
-0.99941, 3, 225, 18, 352
-0.999416, 23, 129, 38, 256
-0.999418, 277, 81, 292, 208
-0.99942, 315, 273, 330, 397
-0.999421, 395, 193, 410, 320
-0.999422, 169, 225, 184, 352
-0.999423, 401, 161, 416, 288
-0.999425, 215, 193, 230, 320
-0.999428, 437, 177, 452, 304
-0.999428, 253, 273, 268, 397
-0.999436, 27, 225, 42, 352
-0.999438, 211, 273, 226, 397
-0.99944, 449, 161, 464, 288
-0.999444, 215, 145, 230, 272
-0.999454, 469, 177, 484, 304
-0.99946, 239, 161, 254, 288
-0.99946, 479, 273, 494, 397
-0.999532, 37, 1, 68, 256
-0.999542, 21, 1, 52, 256
-0.999557, 1, 1, 32, 256
-0.999574, 1, 65, 500, 128
-0.999633, 61, 1, 92, 256
-0.999674, 61, 365, 76, 380
-0.999674, 53, 329, 68, 344
-0.999675, 385, 369, 400, 384
-0.999675, 3, 349, 18, 364
-0.999675, 47, 329, 62, 344
-0.999675, 273, 341, 288, 356
-0.999676, 215, 375, 230, 390
-0.999676, 285, 333, 300, 348
-0.999676, 137, 301, 152, 316
-0.999676, 111, 281, 126, 296
-0.999676, 413, 341, 428, 356
-0.999676, 153, 329, 168, 344
-0.999676, 439, 373, 454, 388
-0.999677, 261, 357, 276, 372
-0.999677, 305, 337, 320, 352
-0.999677, 365, 369, 380, 384
-0.999678, 247, 179, 262, 194
-0.999678, 219, 367, 234, 382
-0.999678, 59, 329, 74, 344
-0.999679, 43, 335, 58, 350
-0.999679, 113, 333, 128, 348
-0.99968, 137, 307, 152, 322
-0.99968, 59, 341, 74, 356
-0.99968, 461, 349, 476, 364
-0.99968, 45, 345, 60, 360
-0.99968, 263, 345, 278, 360
-0.99968, 155, 319, 170, 334
-0.999681, 3, 381, 18, 396
-0.999682, 23, 363, 38, 378
-0.999682, 469, 355, 484, 370
-0.999682, 35, 345, 50, 360
-0.999682, 219, 299, 234, 314
-0.999682, 257, 347, 272, 362
-0.999682, 423, 367, 438, 382
-0.999683, 123, 341, 138, 356
-0.999683, 121, 297, 136, 312
-0.999683, 135, 285, 150, 300
-0.999684, 399, 357, 414, 372
-0.999684, 469, 337, 484, 352
-0.999684, 381, 355, 396, 370
-0.999685, 147, 315, 162, 330
-0.999685, 149, 297, 164, 312
-0.999686, 25, 345, 40, 360
-0.999686, 1, 315, 16, 330
-0.999686, 37, 353, 52, 368
-0.999687, 369, 345, 384, 360
-0.999687, 113, 305, 128, 320
-0.999687, 433, 369, 448, 384
-0.999688, 123, 331, 138, 346
-0.999689, 123, 351, 138, 366
-0.999689, 349, 337, 364, 352
-0.999689, 51, 345, 66, 360
-0.999689, 271, 363, 286, 378
-0.99969, 193, 359, 208, 374
-0.99969, 125, 289, 140, 304
-0.999691, 431, 379, 446, 394
-0.999691, 3, 323, 18, 338
-0.999692, 49, 357, 64, 372
-0.999692, 69, 337, 84, 352
-0.999692, 245, 375, 260, 390
-0.999693, 331, 343, 346, 358
-0.999693, 49, 335, 64, 350
-0.999693, 267, 379, 282, 394
-0.999693, 1, 305, 16, 320
-0.999693, 463, 333, 478, 348
-0.999693, 11, 381, 26, 396
-0.999693, 13, 375, 28, 390
-0.999694, 145, 323, 160, 338
-0.999694, 139, 361, 154, 376
-0.999694, 225, 301, 240, 316
-0.999695, 17, 339, 32, 354
-0.999695, 453, 373, 468, 388
-0.999695, 291, 337, 306, 352
-0.999697, 237, 341, 252, 356
-0.999698, 351, 177, 366, 192
-0.999699, 283, 369, 298, 384
-0.999699, 393, 357, 408, 372
-0.999699, 133, 357, 148, 372
-0.9997, 135, 295, 150, 310
-0.9997, 405, 381, 420, 396
-0.9997, 5, 339, 20, 354
-0.999701, 175, 283, 190, 298
-0.999701, 55, 361, 70, 376
-0.999703, 175, 291, 190, 306
-0.999704, 183, 301, 198, 316
-0.999704, 229, 367, 244, 382
-0.999704, 81, 381, 96, 396
-0.999705, 419, 359, 434, 374
-0.999708, 63, 335, 78, 350
-0.99971, 23, 337, 38, 352
-0.99971, 105, 301, 120, 316
-0.999711, 117, 313, 132, 328
-0.999712, 129, 327, 144, 342
-0.999712, 29, 307, 44, 322
-0.999712, 81, 329, 96, 344
-0.999713, 443, 381, 458, 396
-0.999714, 139, 279, 154, 294
-0.999714, 133, 275, 148, 290
-0.999714, 45, 363, 60, 378
-0.999716, 17, 309, 32, 324
-0.999716, 481, 339, 496, 354
-0.999717, 377, 361, 392, 376
-0.999718, 245, 171, 260, 186
-0.99972, 129, 333, 144, 348
-0.99972, 179, 317, 194, 332
-0.99972, 101, 327, 116, 342
-0.999723, 113, 287, 128, 302
-0.999724, 431, 363, 446, 378
-0.999725, 107, 337, 122, 352
-0.999725, 147, 339, 162, 354
-0.999726, 439, 187, 454, 202
-0.999726, 127, 309, 142, 324
-0.999726, 113, 339, 128, 354
-0.999726, 141, 335, 156, 350
-0.999727, 53, 371, 68, 386
-0.999728, 109, 321, 124, 336
-0.99973, 89, 325, 104, 340
-0.999733, 63, 371, 78, 386
-0.999733, 247, 369, 262, 384
-0.999734, 411, 377, 426, 392
-0.999737, 409, 353, 424, 368
-0.999737, 357, 367, 372, 382
-0.999737, 135, 319, 150, 334
-0.99974, 137, 329, 152, 344
-0.999742, 237, 373, 252, 388
-0.999742, 113, 299, 128, 314
-0.999745, 173, 315, 188, 330
-0.999765, 113, 293, 128, 308
-0.999766, 263, 351, 278, 366
-0.999776, 387, 353, 402, 368
-0.999802, 413, 129, 444, 384
-1.00002, 1, 257, 500, 320
-1.00059, 1, 17, 128, 144
-1.00068, 1, 217, 500, 280
-1.00081, 33, 49, 288, 112
-1.00084, 113, 49, 240, 112
-1.00169, 161, 41, 288, 104
-1.00205, 225, 25, 480, 88
-1.00206, 65, 25, 320, 88
-1.0021, 257, 1, 500, 64
-1.00211, 1, 41, 128, 104
-1.00212, 65, 1, 320, 64
-1.00212, 161, 1, 416, 64
-1.00232, 65, 33, 192, 96
-1.00243, 369, 33, 496, 96
-1.00261, 321, 25, 448, 88
-1.00268, 209, 25, 336, 88
-1.00271, 369, 9, 496, 72
-1.00291, 225, 1, 352, 64
-1.00291, 321, 1, 448, 64
-1.00291, 65, 9, 192, 72
-1.00291, 273, 9, 400, 72
-1.00291, 17, 17, 144, 80
-1.00291, 113, 17, 240, 80
-1.00291, 161, 17, 288, 80
-1.00379, 1, 25, 500, 88
-1.00392, 1, 1, 500, 64
-1.00477, 73, 1, 136, 128
-1.00574, 145, 1, 208, 128
-1.00668, 1, 1, 256, 128
-1.01016, 433, 1, 496, 128
-1.01209, 41, 1, 104, 128
-1.01698, 1, 1, 64, 128
