1899
-0.380604, 1, 225, 332, 480
-0.480404, 1, 129, 332, 384
-0.486592, 1, 1, 332, 500
-0.539439, 1, 1, 332, 256
-0.584058, 1, 1, 256, 500
-0.606784, 65, 225, 320, 480
-0.724464, 1, 97, 256, 352
-0.790534, 1, 1, 256, 256
-0.830243, 193, 161, 320, 416
-0.870561, 113, 225, 240, 480
-0.875815, 177, 257, 304, 500
-0.877832, 209, 1, 332, 500
-0.881261, 1, 305, 332, 432
-0.887959, 145, 129, 272, 384
-0.894799, 1, 241, 332, 368
-0.904823, 193, 65, 320, 320
-0.90834, 33, 1, 160, 500
-0.912168, 161, 1, 288, 500
-0.912555, 33, 225, 160, 480
-0.914815, 97, 1, 224, 500
-0.915005, 1, 321, 256, 448
-0.916404, 1, 353, 332, 480
-0.919538, 193, 161, 320, 288
-0.920685, 97, 97, 224, 352
-0.921064, 1, 129, 332, 256
-0.922085, 65, 129, 320, 256
-0.923112, 65, 273, 320, 400
-0.924077, 1, 193, 332, 320
-0.924726, 33, 129, 160, 384
-0.925748, 209, 145, 272, 272
-0.929362, 113, 1, 240, 256
-0.930772, 161, 225, 288, 352
-0.932088, 113, 289, 240, 416
-0.932523, 1, 225, 256, 352
-0.934001, 169, 241, 232, 368
-0.935652, 33, 1, 160, 256
-0.937918, 233, 161, 296, 288
-0.939302, 65, 177, 320, 304
-0.939464, 185, 305, 248, 432
-0.93956, 185, 177, 248, 304
-0.941865, 209, 209, 332, 336
-0.942247, 145, 145, 272, 272
-0.942754, 113, 241, 240, 368
-0.944552, 25, 289, 88, 416
-0.94469, 1, 369, 256, 496
-0.944862, 49, 305, 112, 432
-0.945345, 265, 177, 328, 304
-0.946327, 209, 305, 332, 432
-0.947177, 225, 209, 288, 336
-0.947246, 33, 321, 160, 448
-0.947774, 121, 289, 184, 416
-0.94818, 1, 1, 332, 128
-0.948317, 225, 289, 288, 416
-0.949232, 65, 353, 128, 480
-0.950263, 193, 225, 256, 352
-0.950772, 209, 113, 332, 240
-0.950895, 1, 289, 64, 416
-0.951656, 201, 185, 264, 248
-0.952009, 209, 217, 272, 280
-0.95255, 161, 289, 288, 416
-0.952559, 209, 257, 332, 384
-0.9527, 145, 337, 272, 464
-0.952936, 265, 257, 328, 384
-0.953013, 1, 81, 332, 208
-0.953548, 185, 305, 248, 368
-0.954083, 225, 161, 288, 224
-0.954175, 209, 97, 272, 224
-0.954418, 65, 353, 128, 416
-0.954569, 209, 129, 272, 192
-0.954768, 185, 225, 248, 288
-0.954973, 145, 273, 208, 400
-0.955017, 89, 353, 152, 480
-0.955439, 89, 305, 152, 432
-0.956421, 185, 329, 248, 392
-0.956717, 185, 129, 248, 256
-0.956845, 33, 257, 160, 384
-0.958434, 273, 129, 332, 256
-0.958768, 121, 241, 184, 368
-0.960242, 225, 241, 288, 304
-0.960842, 265, 337, 328, 464
-0.961302, 65, 385, 128, 448
-0.961463, 205, 177, 236, 304
-0.961963, 249, 193, 312, 256
-0.962286, 89, 361, 152, 424
-0.962345, 33, 305, 96, 368
-0.962458, 225, 161, 288, 416
-0.962969, 25, 337, 88, 464
-0.962984, 225, 337, 288, 400
-0.963, 49, 369, 176, 496
-0.963261, 225, 337, 288, 464
-0.96454, 1, 305, 64, 368
-0.965604, 185, 249, 248, 312
-0.966089, 205, 185, 236, 248
-0.966116, 225, 313, 288, 376
-0.966227, 185, 225, 248, 480
-0.966732, 49, 329, 112, 392
-0.966737, 233, 113, 296, 240
-0.966747, 193, 225, 224, 352
-0.966969, 193, 185, 320, 248
-0.966979, 193, 369, 256, 496
-0.967204, 113, 193, 240, 320
-0.967332, 201, 225, 232, 288
-0.967535, 121, 305, 184, 368
-0.967788, 209, 353, 332, 480
-0.967818, 201, 129, 264, 384
-0.968182, 265, 337, 328, 400
-0.968281, 273, 193, 332, 256
-0.9685, 161, 177, 224, 304
-0.968521, 233, 217, 296, 280
-0.96867, 185, 137, 248, 200
-0.969245, 97, 337, 224, 464
-0.969396, 145, 305, 208, 368
-0.969456, 265, 265, 328, 328
-0.969506, 145, 225, 208, 352
-0.969688, 205, 241, 236, 368
-0.96989, 1, 369, 128, 496
-0.970155, 209, 129, 240, 256
-0.970313, 153, 321, 216, 448
-0.970544, 185, 361, 248, 424
-0.971141, 217, 121, 248, 184
-0.971686, 1, 1, 256, 128
-0.971734, 265, 305, 328, 368
-0.971908, 193, 209, 320, 272
-0.972045, 65, 409, 128, 472
-0.972137, 113, 369, 176, 496
-0.972163, 25, 361, 88, 424
-0.97233, 265, 241, 328, 304
-0.972365, 161, 129, 224, 256
-0.972786, 217, 177, 248, 304
-0.973188, 161, 97, 288, 224
-0.973428, 265, 161, 328, 416
-0.9735, 197, 305, 228, 432
-0.973624, 229, 145, 260, 272
-0.973745, 81, 305, 144, 368
-0.973805, 73, 257, 136, 384
-0.97393, 97, 313, 224, 376
-0.973933, 265, 377, 328, 440
-0.974126, 249, 169, 312, 232
-0.97414, 89, 417, 152, 480
-0.974197, 253, 161, 284, 288
-0.974513, 225, 289, 288, 352
-0.97468, 209, 361, 272, 424
-0.974812, 161, 201, 224, 264
-0.97483, 97, 145, 224, 272
-0.97485, 113, 417, 176, 480
-0.974855, 33, 289, 64, 416
-0.974922, 273, 177, 304, 304
-0.974962, 61, 289, 92, 416
-0.975111, 209, 337, 332, 400
-0.975174, 193, 161, 320, 224
-0.975305, 1, 337, 64, 464
-0.975432, 105, 329, 168, 392
-0.975669, 241, 145, 272, 272
-0.976007, 25, 393, 88, 456
-0.97603, 193, 177, 224, 304
-0.976049, 25, 241, 88, 368
-0.976431, 201, 313, 232, 376
-0.976568, 1, 81, 256, 208
-0.976744, 81, 329, 144, 392
-0.976874, 213, 225, 244, 288
-0.976883, 189, 225, 220, 288
-0.976931, 33, 417, 96, 480
-0.976987, 233, 153, 264, 216
-0.977015, 205, 249, 236, 312
-0.97715, 121, 353, 184, 416
-0.977158, 181, 241, 212, 368
-0.977259, 125, 273, 156, 400
-0.977287, 93, 353, 124, 416
-0.977379, 9, 329, 72, 392
-0.977425, 105, 385, 168, 448
-0.977555, 201, 161, 264, 224
-0.977633, 225, 217, 256, 280
-0.97809, 33, 321, 160, 384
-0.97829, 177, 233, 304, 296
-0.978396, 93, 353, 124, 480
-0.978413, 217, 241, 248, 368
-0.978532, 209, 265, 272, 328
-0.97863, 33, 305, 64, 368
-0.978857, 177, 297, 304, 360
-0.979035, 73, 369, 104, 496
-0.979129, 109, 305, 140, 432
-0.979181, 209, 321, 240, 448
-0.97927, 21, 289, 52, 416
-0.979401, 161, 193, 224, 448
-0.979419, 49, 289, 80, 416
-0.979478, 265, 81, 328, 208
-0.979558, 273, 193, 304, 256
-0.979573, 129, 193, 256, 256
-0.979645, 161, 329, 224, 392
-0.979711, 285, 177, 316, 304
-0.979759, 73, 377, 104, 440
-0.979782, 205, 121, 236, 184
-0.979818, 205, 145, 236, 208
-0.979902, 193, 121, 320, 184
-0.979963, 265, 257, 328, 500
-0.980244, 177, 281, 240, 344
-0.980393, 129, 337, 256, 400
-0.980396, 265, 217, 328, 280
-0.980411, 273, 145, 332, 208
-0.980558, 145, 137, 272, 200
-0.9806, 217, 185, 248, 248
-0.980611, 253, 233, 284, 296
-0.980705, 177, 369, 304, 432
-0.980723, 225, 257, 288, 500
-0.980938, 105, 1, 168, 128
-0.98108, 293, 129, 324, 256
-0.981148, 145, 433, 208, 496
-0.981323, 65, 1, 192, 128
-0.981485, 217, 249, 248, 312
-0.981531, 161, 225, 224, 288
-0.981539, 113, 97, 240, 224
-0.981638, 253, 169, 284, 232
-0.981645, 17, 305, 48, 368
-0.98169, 209, 257, 332, 320
-0.981739, 81, 225, 144, 480
-0.981751, 241, 385, 304, 448
-0.981761, 33, 345, 160, 408
-0.98177, 265, 273, 296, 400
-0.981927, 265, 65, 328, 320
-0.981933, 9, 289, 40, 416
-0.981978, 233, 137, 296, 200
-0.982192, 217, 105, 280, 168
-0.982197, 129, 217, 256, 280
-0.982199, 197, 129, 228, 256
-0.98228, 217, 417, 280, 480
-0.982334, 233, 65, 296, 320
-0.98249, 165, 225, 196, 352
-0.982521, 41, 257, 104, 500
-0.98254, 5, 305, 36, 368
-0.982761, 205, 289, 236, 352
-0.982834, 109, 353, 140, 416
-0.982839, 33, 209, 160, 336
-0.982899, 301, 177, 332, 304
-0.982952, 209, 345, 240, 408
-0.982973, 225, 193, 288, 256
-0.983091, 1, 241, 64, 368
-0.983163, 221, 97, 252, 224
-0.983213, 33, 385, 160, 448
-0.983217, 125, 313, 156, 376
-0.983236, 169, 369, 232, 496
-0.983287, 153, 225, 184, 352
-0.983296, 53, 305, 84, 368
-0.983444, 285, 193, 316, 256
-0.983479, 1, 401, 64, 464
-0.983546, 241, 113, 304, 176
-0.98357, 193, 249, 224, 312
-0.983597, 105, 17, 168, 80
-0.983667, 101, 417, 132, 480
-0.983701, 9, 281, 72, 344
-0.983733, 201, 385, 264, 448
-0.983794, 169, 289, 200, 416
-0.983802, 105, 321, 136, 384
-0.984129, 1, 129, 128, 256
-0.984314, 65, 33, 128, 96
-0.98448, 1, 361, 64, 424
-0.984627, 73, 305, 104, 432
-0.984727, 33, 281, 96, 344
-0.984778, 121, 225, 184, 480
-0.984852, 69, 353, 100, 416
-0.984861, 209, 65, 332, 192
-0.984901, 61, 369, 92, 496
-0.984964, 173, 313, 204, 376
-0.984994, 273, 1, 332, 500
-0.985015, 161, 353, 224, 416
-0.985045, 241, 209, 272, 272
-0.985056, 73, 113, 136, 240
-0.985122, 273, 225, 304, 288
-0.985123, 185, 305, 216, 432
-0.985142, 253, 193, 284, 256
-0.985179, 49, 257, 112, 384
-0.985234, 225, 1, 288, 500
-0.985238, 33, 297, 160, 360
-0.985271, 265, 265, 296, 328
-0.985291, 65, 409, 192, 472
-0.98536, 49, 337, 80, 464
-0.985386, 217, 145, 248, 208
-0.985432, 157, 273, 188, 400
-0.985496, 217, 289, 248, 352
-0.985534, 265, 297, 296, 360
-0.985575, 201, 33, 264, 288
-0.98562, 97, 257, 160, 384
-0.98564, 265, 225, 296, 352
-0.985653, 297, 193, 328, 256
-0.985674, 273, 129, 304, 256
-0.985679, 141, 225, 172, 352
-0.985694, 53, 393, 84, 456
-0.985915, 273, 169, 332, 232
-0.985951, 57, 305, 120, 368
-0.985997, 161, 273, 288, 336
-0.986017, 269, 345, 300, 408
-0.986031, 229, 209, 260, 336
-0.986057, 129, 241, 256, 304
-0.986183, 153, 281, 216, 344
-0.986267, 229, 177, 260, 240
-0.9864, 241, 265, 304, 328
-0.986462, 17, 417, 144, 480
-0.986508, 229, 121, 260, 184
-0.986513, 237, 97, 268, 224
-0.986532, 33, 1, 96, 128
-0.98654, 137, 289, 168, 416
-0.986602, 145, 169, 272, 232
-0.986681, 53, 241, 84, 368
-0.986723, 1, 129, 64, 256
-0.986754, 193, 201, 224, 264
-0.986858, 129, 385, 192, 448
-0.986913, 113, 377, 240, 440
-0.987101, 65, 33, 128, 160
-0.987106, 25, 129, 88, 256
-0.987239, 137, 177, 200, 304
-0.9874, 241, 409, 304, 472
-0.987474, 113, 289, 240, 352
-0.987475, 185, 81, 248, 208
-0.987509, 9, 337, 40, 400
-0.987535, 153, 385, 216, 448
-0.987588, 17, 1, 80, 64
-0.987712, 189, 313, 220, 376
-0.987713, 125, 225, 156, 352
-0.987769, 217, 369, 248, 496
-0.987793, 221, 337, 252, 400
-0.987848, 241, 193, 272, 320
-0.987907, 257, 337, 288, 464
-0.987925, 49, 129, 112, 256
-0.988085, 181, 289, 212, 352
-0.988119, 109, 369, 140, 496
-0.988123, 17, 257, 80, 500
-0.988164, 285, 337, 316, 400
-0.988258, 185, 249, 248, 280
-0.988274, 61, 329, 92, 392
-0.988326, 73, 281, 136, 344
-0.988408, 105, 49, 168, 176
-0.988413, 225, 305, 256, 432
-0.988422, 269, 321, 300, 448
-0.988429, 81, 417, 112, 480
-0.988441, 253, 113, 284, 240
-0.988593, 1, 1, 128, 128
-0.988596, 169, 97, 232, 352
-0.988626, 161, 305, 192, 368
-0.988685, 253, 209, 284, 336
-0.988709, 81, 353, 112, 416
-0.988718, 233, 361, 296, 424
-0.98875, 169, 113, 232, 176
-0.988798, 209, 369, 240, 432
-0.988819, 41, 281, 72, 344
-0.988918, 185, 237, 248, 268
-0.98895, 177, 161, 240, 224
-0.988953, 53, 281, 84, 344
-0.988975, 265, 121, 328, 184
-0.989146, 65, 433, 128, 496
-0.989152, 85, 385, 116, 448
-0.989161, 185, 333, 248, 364
-0.989175, 41, 329, 72, 392
-0.989246, 225, 241, 288, 272
-0.98932, 49, 129, 176, 256
-0.989342, 245, 145, 276, 208
-0.989373, 201, 225, 264, 256
-0.989382, 193, 145, 224, 208
-0.989401, 81, 353, 208, 416
-0.989465, 185, 317, 248, 348
-0.989494, 129, 113, 256, 176
-0.989498, 185, 345, 248, 376
-0.98953, 225, 169, 288, 200
-0.989559, 201, 141, 264, 172
-0.989583, 109, 377, 140, 440
-0.989625, 153, 409, 216, 472
-0.989693, 89, 373, 152, 404
-0.989736, 201, 197, 264, 228
-0.989738, 49, 369, 80, 432
-0.989769, 97, 393, 128, 456
-0.989786, 225, 333, 288, 364
-0.989816, 209, 129, 272, 160
-0.989831, 49, 1, 112, 256
-0.989858, 77, 329, 108, 392
-0.989863, 21, 329, 52, 392
-0.98994, 121, 369, 152, 496
-0.98995, 113, 409, 240, 472
-0.990066, 253, 273, 284, 400
-0.99007, 65, 365, 128, 396
-0.990076, 125, 321, 156, 448
-0.990096, 105, 1, 168, 256
-0.990109, 193, 337, 224, 400
-0.990143, 65, 401, 96, 464
-0.990145, 145, 305, 176, 368
-0.990148, 113, 309, 176, 340
-0.99016, 201, 213, 264, 244
-0.990238, 41, 17, 104, 80
-0.990244, 177, 305, 240, 336
-0.990255, 1, 321, 256, 384
-0.990299, 225, 349, 288, 380
-0.990352, 209, 409, 332, 472
-0.990354, 1, 177, 128, 240
-0.990357, 185, 1, 248, 500
-0.990366, 89, 357, 152, 388
-0.990377, 33, 241, 64, 368
-0.990423, 137, 217, 200, 280
-0.990449, 265, 197, 328, 228
-0.99045, 225, 181, 288, 212
-0.990475, 153, 177, 216, 240
-0.990493, 33, 337, 64, 464
-0.990519, 225, 213, 288, 244
-0.99054, 177, 225, 240, 256
-0.990589, 265, 277, 328, 308
-0.990591, 81, 317, 144, 348
-0.990649, 65, 381, 128, 412
-0.990705, 185, 361, 248, 392
-0.990709, 217, 317, 280, 348
-0.990735, 45, 417, 76, 480
-0.990756, 233, 229, 296, 260
-0.990768, 265, 253, 328, 284
-0.990788, 73, 1, 136, 64
-0.990796, 209, 153, 272, 184
-0.990803, 225, 253, 288, 284
-0.990813, 177, 385, 240, 448
-0.99082, 185, 373, 248, 404
-0.990827, 253, 377, 284, 440
-0.990831, 81, 97, 144, 160
-0.990846, 137, 329, 200, 392
-0.990856, 265, 241, 328, 272
-0.990857, 265, 265, 328, 296
-0.990867, 161, 249, 224, 312
-0.990882, 57, 349, 120, 380
-0.990893, 161, 209, 224, 240
-0.990896, 265, 329, 328, 360
-0.990923, 265, 381, 328, 412
-0.99096, 225, 373, 288, 404
-0.990968, 65, 393, 128, 424
-0.990975, 181, 177, 212, 304
-0.990988, 153, 309, 216, 340
-0.991002, 105, 129, 168, 256
-0.991006, 265, 321, 296, 384
-0.991037, 265, 345, 328, 376
-0.991056, 225, 361, 288, 392
-0.991066, 81, 329, 144, 360
-0.991078, 265, 97, 328, 160
-0.991093, 9, 309, 72, 340
-0.9911, 237, 337, 268, 464
-0.991105, 89, 385, 152, 416
-0.99111, 169, 261, 232, 292
-0.991113, 285, 289, 316, 416
-0.991124, 33, 309, 96, 340
-0.991156, 265, 17, 328, 80
-0.991171, 185, 417, 248, 480
-0.991214, 209, 81, 240, 208
-0.991239, 41, 337, 104, 368
-0.991274, 229, 417, 260, 480
-0.991295, 97, 193, 160, 256
-0.991335, 1, 337, 32, 464
-0.991342, 161, 245, 224, 276
-0.991342, 161, 409, 288, 472
-0.991348, 225, 297, 288, 328
-0.99137, 265, 33, 328, 160
-0.99138, 161, 81, 224, 208
-0.99139, 265, 305, 328, 336
-0.991393, 265, 289, 328, 320
-0.991434, 57, 177, 120, 240
-0.991439, 97, 305, 128, 432
-0.991454, 177, 337, 208, 400
-0.991465, 225, 385, 288, 416
-0.991489, 9, 129, 72, 384
-0.991518, 265, 317, 328, 348
-0.991518, 113, 417, 144, 480
-0.991535, 225, 269, 288, 300
-0.99156, 65, 421, 128, 452
-0.991609, 153, 321, 216, 352
-0.991629, 41, 361, 104, 392
-0.991639, 209, 49, 272, 176
-0.991662, 105, 193, 168, 320
-0.991674, 177, 129, 240, 160
-0.991681, 81, 345, 144, 376
-0.991703, 153, 341, 216, 372
-0.991706, 73, 305, 136, 336
-0.991712, 257, 229, 320, 260
-0.991722, 285, 225, 316, 352
-0.99173, 241, 193, 304, 224
-0.991734, 253, 329, 284, 392
-0.991764, 201, 385, 264, 416
-0.991765, 41, 321, 104, 352
-0.991771, 121, 337, 184, 368
-0.991772, 225, 285, 288, 316
-0.99178, 257, 433, 320, 496
-0.9918, 201, 185, 264, 216
-0.991818, 193, 369, 224, 496
-0.991826, 113, 321, 176, 352
-0.99183, 177, 197, 240, 228
-0.991867, 33, 49, 160, 176
-0.991881, 201, 305, 264, 336
-0.991882, 105, 421, 168, 452
-0.991888, 233, 157, 296, 188
-0.9919, 153, 221, 216, 252
-0.991912, 65, 361, 320, 424
-0.991913, 33, 373, 96, 404
-0.991919, 129, 1, 192, 64
-0.991925, 121, 281, 184, 344
-0.991926, 113, 377, 176, 408
-0.991952, 205, 245, 236, 276
-0.991968, 265, 369, 296, 432
-0.991986, 249, 1, 312, 500
-0.991991, 29, 401, 60, 464
-0.991996, 193, 105, 256, 168
-0.992002, 137, 369, 200, 496
-0.992005, 177, 145, 240, 176
-0.992019, 97, 433, 160, 464
-0.992028, 185, 157, 248, 188
-0.992028, 41, 397, 104, 428
-0.992037, 41, 177, 104, 304
-0.992044, 225, 397, 288, 428
-0.992055, 193, 261, 256, 292
-0.992055, 1, 305, 332, 368
-0.992069, 265, 369, 328, 400
-0.992101, 177, 293, 240, 324
-0.992104, 105, 397, 168, 428
-0.992116, 209, 1, 332, 128
-0.992117, 17, 337, 48, 464
-0.992125, 201, 229, 232, 260
-0.992128, 201, 433, 232, 496
-0.992159, 301, 169, 332, 232
-0.99216, 249, 213, 312, 244
-0.992184, 65, 405, 128, 436
-0.992186, 73, 437, 136, 468
-0.992192, 249, 145, 312, 176
-0.992194, 273, 169, 304, 232
-0.992194, 21, 241, 52, 368
-0.992196, 181, 353, 212, 480
-0.992197, 121, 361, 184, 392
-0.992198, 81, 33, 144, 288
-0.992202, 265, 181, 328, 212
-0.992212, 41, 413, 104, 444
-0.992256, 65, 305, 96, 368
-0.99227, 145, 433, 272, 496
-0.992271, 153, 233, 216, 264
-0.992273, 189, 237, 220, 268
-0.992277, 285, 313, 316, 376
-0.992285, 185, 129, 216, 256
-0.992322, 233, 125, 296, 156
-0.992333, 185, 273, 248, 304
-0.992344, 285, 337, 316, 464
-0.992344, 205, 369, 236, 496
-0.992359, 81, 209, 208, 272
-0.992364, 205, 193, 236, 224
-0.992406, 41, 293, 104, 324
-0.992411, 201, 397, 264, 428
-0.992426, 257, 393, 320, 424
-0.992437, 41, 385, 104, 416
-0.992468, 33, 349, 96, 380
-0.992468, 265, 357, 328, 388
-0.992492, 17, 361, 48, 424
-0.992498, 97, 169, 224, 232
-0.992507, 125, 353, 156, 416
-0.992515, 113, 293, 176, 324
-0.992521, 193, 169, 256, 200
-0.992533, 201, 321, 232, 352
-0.992542, 73, 453, 136, 484
-0.992546, 189, 249, 220, 280
-0.992547, 213, 125, 244, 156
-0.992551, 121, 209, 184, 240
-0.992561, 113, 1, 240, 64
-0.992561, 17, 337, 80, 368
-0.992569, 177, 389, 240, 420
-0.992581, 257, 57, 320, 120
-0.992584, 121, 441, 184, 472
-0.992588, 17, 325, 80, 356
-0.99259, 285, 369, 316, 432
-0.992595, 237, 157, 268, 188
-0.992596, 113, 349, 176, 380
-0.992601, 17, 297, 80, 328
-0.992616, 17, 409, 80, 440
-0.992627, 217, 145, 248, 176
-0.992632, 265, 189, 296, 220
-0.992633, 205, 145, 236, 176
-0.992651, 113, 225, 144, 352
-0.992665, 41, 429, 104, 460
-0.992682, 93, 365, 124, 396
-0.99269, 97, 445, 160, 476
-0.992698, 209, 361, 240, 392
-0.992707, 241, 317, 304, 348
-0.992714, 153, 197, 216, 228
-0.992714, 225, 233, 256, 264
-0.992714, 177, 241, 208, 304
-0.992718, 205, 257, 236, 288
-0.992737, 193, 121, 224, 184
-0.992751, 169, 177, 200, 304
-0.992755, 121, 309, 152, 340
-0.992757, 217, 245, 248, 276
-0.992757, 137, 293, 200, 324
-0.992762, 73, 1, 136, 500
-0.992768, 109, 357, 140, 388
-0.992772, 33, 273, 160, 336
-0.992773, 253, 245, 284, 276
-0.992789, 41, 393, 72, 456
-0.99281, 121, 17, 184, 48
-0.99281, 9, 369, 72, 400
-0.992811, 209, 453, 272, 484
-0.992817, 137, 1, 200, 32
-0.992835, 145, 261, 208, 292
-0.992837, 285, 225, 316, 288
-0.992839, 209, 409, 272, 440
-0.992843, 33, 309, 64, 340
-0.992844, 201, 209, 232, 240
-0.992857, 9, 421, 72, 452
-0.992875, 65, 41, 128, 72
-0.992891, 109, 369, 140, 400
-0.992893, 49, 181, 112, 212
-0.992893, 201, 293, 264, 324
-0.992911, 213, 229, 244, 260
-0.992923, 221, 369, 252, 432
-0.992928, 89, 377, 120, 408
-0.992929, 81, 433, 208, 496
-0.992933, 73, 381, 104, 412
-0.992933, 225, 213, 256, 244
-0.992938, 185, 225, 216, 256
-0.992938, 93, 353, 124, 384
-0.992953, 205, 301, 236, 332
-0.992958, 205, 269, 236, 300
-0.992967, 193, 261, 224, 292
-0.992974, 253, 233, 284, 264
-0.99298, 161, 309, 192, 340
-0.992989, 217, 265, 248, 296
-0.99299, 177, 329, 208, 360
-0.992998, 193, 189, 320, 220
-0.992998, 277, 197, 308, 228
-0.993003, 181, 305, 212, 336
-0.993008, 225, 353, 256, 384
-0.993016, 273, 229, 304, 260
-0.993017, 61, 325, 92, 356
-0.993024, 269, 269, 300, 300
-0.993028, 61, 309, 92, 340
-0.993042, 209, 373, 240, 404
-0.993046, 1, 385, 256, 448
-0.99305, 65, 153, 320, 216
-0.993051, 69, 393, 100, 424
-0.993052, 185, 213, 216, 244
-0.993053, 245, 205, 276, 236
-0.993054, 253, 273, 284, 336
-0.993062, 77, 369, 108, 400
-0.993065, 201, 133, 232, 164
-0.993069, 209, 345, 240, 376
-0.993077, 177, 245, 208, 276
-0.993089, 61, 337, 92, 368
-0.993093, 253, 177, 284, 208
-0.993101, 109, 381, 140, 412
-0.993106, 33, 33, 160, 96
-0.993112, 265, 281, 296, 312
-0.993116, 189, 141, 220, 172
-0.993123, 185, 201, 216, 232
-0.993131, 229, 245, 260, 276
-0.993134, 53, 293, 84, 324
-0.993138, 105, 337, 136, 368
-0.99314, 265, 309, 296, 340
-0.99314, 209, 385, 240, 416
-0.993142, 209, 333, 240, 364
-0.993148, 53, 1, 84, 128
-0.993148, 237, 229, 268, 260
-0.993155, 301, 197, 332, 228
-0.993156, 229, 141, 260, 172
-0.99317, 269, 333, 300, 364
-0.993171, 225, 125, 256, 156
-0.993175, 257, 209, 288, 240
-0.993186, 273, 257, 304, 288
-0.993187, 253, 189, 284, 220
-0.99319, 61, 349, 92, 380
-0.993192, 269, 349, 300, 380
-0.993196, 81, 337, 112, 368
-0.993196, 241, 185, 272, 248
-0.993197, 193, 341, 224, 372
-0.993199, 265, 293, 296, 324
-0.993206, 21, 309, 52, 340
-0.993206, 217, 313, 248, 376
-0.993207, 285, 381, 316, 412
-0.99321, 217, 289, 248, 320
-0.993214, 73, 357, 104, 388
-0.993215, 49, 421, 80, 452
-0.993217, 221, 317, 252, 348
-0.993223, 253, 257, 284, 288
-0.993226, 289, 197, 320, 228
-0.993227, 253, 221, 284, 252
-0.993227, 229, 181, 260, 212
-0.993229, 125, 441, 156, 472
-0.993232, 213, 217, 244, 248
-0.993238, 269, 377, 300, 408
-0.993239, 205, 289, 236, 320
-0.993244, 197, 353, 228, 384
-0.993247, 5, 309, 36, 340
-0.993249, 121, 329, 152, 360
-0.993249, 217, 189, 248, 220
-0.993252, 101, 441, 132, 472
-0.99326, 273, 241, 304, 272
-0.993263, 177, 341, 208, 372
-0.993264, 137, 433, 168, 464
-0.993266, 173, 317, 204, 348
-0.993267, 193, 309, 224, 340
-0.993267, 213, 177, 244, 208
-0.99327, 201, 157, 232, 188
-0.993271, 257, 385, 288, 416
-0.993275, 45, 309, 76, 340
-0.993277, 109, 425, 140, 456
-0.993283, 105, 105, 168, 168
-0.993289, 89, 429, 120, 460
-0.993291, 285, 345, 316, 376
-0.993292, 137, 309, 168, 340
-0.993295, 153, 1, 216, 500
-0.993299, 69, 413, 100, 444
-0.993299, 49, 405, 80, 436
-0.993311, 241, 409, 272, 472
-0.993311, 237, 217, 268, 248
-0.993318, 81, 441, 112, 472
-0.993318, 213, 157, 244, 188
-0.993325, 249, 329, 280, 360
-0.993329, 105, 317, 136, 348
-0.993329, 97, 417, 128, 448
-0.993329, 221, 405, 252, 436
-0.993334, 149, 309, 180, 340
-0.99334, 189, 325, 220, 356
-0.993341, 65, 217, 320, 280
-0.993341, 109, 393, 140, 424
-0.993342, 37, 361, 68, 424
-0.993348, 125, 345, 156, 376
-0.99335, 249, 141, 280, 172
-0.993354, 249, 165, 280, 196
-0.993354, 301, 129, 332, 192
-0.993356, 49, 337, 80, 368
-0.993356, 177, 261, 208, 292
-0.99336, 257, 145, 288, 208
-0.993363, 149, 433, 180, 496
-0.993363, 157, 369, 188, 496
-0.993363, 77, 425, 108, 456
-0.993365, 121, 21, 152, 52
-0.993368, 85, 389, 116, 420
-0.993374, 285, 181, 316, 212
-0.993376, 269, 321, 300, 352
-0.99338, 1, 329, 332, 392
-0.993384, 133, 13, 164, 44
-0.993408, 219, 241, 234, 304
-0.993469, 137, 129, 200, 384
-0.993495, 209, 97, 332, 160
-0.993506, 137, 369, 168, 496
-0.993522, 17, 1, 144, 64
-0.993572, 249, 305, 280, 368
-0.993572, 241, 65, 304, 192
-0.993611, 207, 225, 222, 288
-0.993612, 177, 201, 304, 232
-0.993634, 145, 49, 272, 176
-0.993698, 301, 321, 332, 448
-0.993719, 1, 193, 256, 256
-0.993746, 217, 417, 248, 480
-0.993778, 1, 297, 256, 360
-0.993827, 185, 361, 216, 424
-0.993874, 209, 97, 240, 160
-0.993906, 49, 185, 176, 248
-0.993916, 193, 217, 320, 248
-0.993933, 33, 97, 96, 352
-0.994037, 81, 49, 208, 176
-0.99405, 213, 121, 228, 184
-0.994081, 73, 209, 136, 336
-0.994087, 33, 177, 96, 240
-0.99412, 125, 1, 156, 128
-0.994132, 217, 217, 232, 280
-0.994136, 89, 41, 152, 104
-0.994141, 29, 281, 60, 344
-0.994161, 161, 229, 288, 260
-0.994173, 177, 249, 304, 280
-0.994179, 121, 393, 152, 456
-0.99421, 49, 1, 112, 500
-0.994261, 217, 265, 232, 328
-0.994275, 207, 185, 222, 248
-0.99433, 5, 361, 36, 424
-0.994364, 97, 313, 224, 344
-0.99441, 113, 1, 240, 128
-0.994416, 197, 377, 228, 440
-0.994428, 237, 233, 268, 296
-0.994435, 113, 265, 240, 328
-0.99446, 215, 145, 230, 208
-0.994489, 241, 121, 272, 184
-0.994554, 285, 169, 316, 232
-0.994562, 121, 289, 152, 352
-0.994569, 221, 393, 252, 456
-0.994581, 297, 361, 328, 424
-0.994639, 137, 417, 168, 480
-0.994642, 219, 121, 234, 184
-0.994688, 97, 25, 224, 88
-0.994717, 221, 329, 236, 392
-0.994736, 129, 1, 192, 128
-0.994739, 49, 1, 80, 64
-0.994809, 103, 345, 118, 408
-0.994818, 219, 185, 234, 248
-0.994824, 9, 1, 72, 500
-0.994853, 1, 281, 332, 344
-0.994861, 277, 185, 292, 248
-0.994883, 105, 1, 168, 500
-0.994935, 177, 337, 304, 368
-0.994943, 81, 305, 112, 368
-0.994991, 113, 17, 144, 144
-0.994992, 65, 137, 192, 200
-0.995004, 113, 25, 144, 88
-0.995021, 17, 105, 144, 168
-0.995044, 129, 209, 256, 240
-0.995079, 189, 81, 220, 208
-0.995086, 209, 385, 332, 416
-0.995087, 65, 241, 320, 304
-0.995121, 213, 185, 228, 248
-0.99514, 257, 121, 288, 184
-0.995143, 213, 289, 228, 352
-0.995156, 215, 313, 230, 376
-0.99517, 161, 157, 288, 188
-0.995218, 47, 305, 62, 368
-0.995246, 53, 129, 84, 256
-0.995246, 17, 281, 48, 344
-0.995256, 65, 1, 192, 64
-0.995286, 1, 129, 256, 192
-0.995301, 209, 237, 332, 268
-0.995305, 267, 177, 282, 240
-0.995308, 197, 225, 212, 288
-0.995313, 207, 249, 222, 312
-0.995324, 97, 325, 224, 356
-0.995383, 33, 357, 160, 388
-0.995401, 33, 329, 160, 360
-0.995406, 1, 401, 32, 464
-0.995425, 209, 365, 332, 396
-0.995429, 1, 353, 332, 416
-0.995443, 225, 121, 240, 184
-0.995472, 129, 341, 256, 372
-0.995494, 57, 289, 72, 352
-0.995494, 21, 305, 36, 368
-0.995499, 17, 401, 48, 464
-0.995538, 193, 137, 320, 168
-0.995547, 81, 113, 208, 176
-0.995553, 209, 177, 332, 208
-0.995555, 209, 145, 224, 208
-0.995555, 241, 385, 272, 448
-0.995574, 193, 193, 224, 448
-0.995576, 35, 305, 50, 368
-0.995583, 121, 193, 184, 256
-0.995605, 209, 349, 332, 380
-0.995652, 177, 325, 304, 356
-0.995659, 223, 217, 238, 280
-0.99567, 129, 253, 256, 284
-0.995679, 153, 385, 184, 448
-0.99568, 129, 197, 256, 228
-0.995684, 33, 273, 288, 336
-0.995693, 225, 185, 240, 248
-0.995695, 221, 353, 236, 416
-0.995703, 29, 305, 44, 368
-0.995708, 231, 121, 246, 184
-0.995716, 161, 305, 288, 336
-0.995722, 49, 309, 176, 340
-0.995723, 213, 241, 228, 304
-0.995725, 57, 105, 120, 168
-0.995728, 257, 161, 272, 224
-0.99573, 57, 161, 120, 416
-0.995745, 1, 129, 128, 192
-0.995756, 5, 305, 20, 368
-0.995756, 209, 97, 240, 352
-0.995767, 267, 225, 282, 288
-0.995771, 95, 353, 110, 416
-0.995772, 105, 65, 168, 128
-0.995781, 221, 161, 236, 224
-0.995791, 237, 129, 252, 192
-0.995792, 77, 33, 108, 96
-0.995792, 41, 305, 56, 368
-0.995844, 289, 193, 304, 256
-0.99585, 243, 209, 258, 272
-0.995858, 33, 409, 288, 472
-0.995863, 223, 289, 238, 352
-0.995869, 161, 377, 288, 408
-0.995871, 11, 305, 26, 368
-0.99589, 269, 145, 300, 208
-0.995916, 249, 153, 264, 216
-0.995943, 205, 305, 220, 368
-0.995945, 229, 225, 244, 288
-0.995993, 209, 1, 332, 64
-0.996011, 1, 193, 332, 256
-0.99604, 127, 305, 142, 368
-0.996049, 9, 241, 40, 368
-0.996074, 77, 257, 108, 384
-0.996107, 73, 409, 88, 472
-0.996123, 91, 417, 106, 480
-0.996129, 129, 361, 256, 392
-0.996139, 205, 225, 236, 480
-0.996142, 227, 145, 242, 208
-0.996143, 77, 129, 108, 256
-0.996162, 145, 141, 272, 172
-0.996166, 197, 97, 228, 160
-0.996167, 73, 385, 88, 448
-0.996218, 89, 377, 104, 440
-0.99622, 195, 321, 210, 384
-0.996237, 137, 385, 168, 448
-0.996251, 65, 57, 128, 120
-0.996261, 161, 293, 288, 324
-0.99628, 5, 281, 36, 344
-0.996294, 295, 193, 310, 256
-0.996297, 301, 193, 316, 256
-0.99631, 113, 233, 240, 264
-0.996348, 269, 265, 284, 328
-0.996378, 61, 17, 92, 80
-0.996379, 33, 341, 160, 372
-0.996385, 109, 417, 124, 480
-0.996397, 65, 1, 320, 64
-0.996423, 65, 393, 80, 456
-0.996427, 191, 241, 206, 304
-0.996445, 97, 417, 112, 480
-0.996447, 225, 249, 240, 312
-0.996486, 209, 285, 332, 316
-0.996494, 129, 1, 192, 500
-0.996495, 113, 221, 240, 252
-0.996496, 241, 361, 272, 424
-0.996497, 217, 245, 232, 276
-0.996508, 209, 33, 332, 96
-0.996515, 209, 149, 332, 180
-0.996539, 73, 313, 88, 376
-0.996564, 47, 417, 62, 480
-0.996577, 193, 433, 320, 496
-0.996578, 253, 201, 268, 264
-0.996586, 77, 33, 108, 160
-0.99659, 283, 193, 298, 256
-0.996603, 51, 281, 66, 344
-0.996611, 209, 161, 332, 192
-0.996625, 105, 129, 168, 384
-0.99664, 177, 261, 304, 292
-0.99667, 239, 153, 254, 216
-0.996671, 1, 97, 64, 160
-0.996677, 1, 177, 64, 304
-0.99669, 9, 185, 72, 248
-0.996694, 113, 377, 240, 408
-0.996695, 193, 397, 320, 428
-0.996706, 83, 385, 98, 448
-0.996708, 307, 193, 322, 256
-0.996714, 77, 361, 92, 424
-0.996731, 207, 281, 222, 344
-0.996736, 129, 89, 256, 152
-0.996736, 227, 345, 242, 408
-0.996743, 209, 273, 332, 304
-0.9968, 207, 121, 222, 184
-0.996808, 285, 161, 316, 416
-0.996836, 173, 305, 188, 368
-0.996839, 161, 169, 288, 200
-0.996854, 81, 137, 144, 200
-0.996859, 65, 417, 80, 480
-0.996862, 263, 201, 278, 264
-0.996871, 231, 169, 246, 232
-0.996903, 81, 441, 208, 472
-0.996914, 119, 401, 134, 464
-0.99696, 13, 337, 28, 400
-0.996966, 315, 193, 330, 256
-0.996968, 145, 129, 272, 160
-0.996975, 33, 421, 160, 452
-0.996975, 5, 337, 20, 400
-0.996975, 273, 161, 304, 416
-0.996983, 1, 257, 332, 320
-0.996986, 201, 249, 216, 312
-0.996993, 23, 329, 38, 392
-0.996995, 235, 217, 250, 280
-0.996999, 289, 81, 320, 208
-0.997003, 201, 201, 216, 264
-0.997005, 193, 125, 320, 156
-0.997008, 161, 137, 224, 200
-0.997008, 253, 129, 284, 384
-0.997046, 229, 161, 260, 416
-0.997046, 55, 393, 70, 456
-0.99706, 205, 253, 220, 284
-0.997064, 113, 377, 128, 440
-0.997076, 255, 225, 270, 288
-0.997082, 311, 169, 326, 232
-0.997094, 261, 233, 276, 296
-0.997101, 153, 425, 168, 488
-0.997103, 277, 225, 292, 288
-0.997109, 117, 345, 132, 408
-0.997129, 209, 313, 332, 344
-0.99713, 49, 81, 112, 208
-0.997152, 199, 297, 214, 360
-0.997158, 167, 305, 182, 368
-0.997164, 157, 177, 188, 304
-0.997175, 123, 425, 138, 488
-0.997187, 17, 1, 80, 256
-0.997191, 255, 129, 270, 192
-0.997194, 113, 285, 240, 316
-0.9972, 73, 201, 136, 264
-0.9972, 317, 169, 332, 232
-0.997201, 107, 385, 122, 448
-0.997203, 203, 145, 218, 208
-0.997214, 211, 233, 226, 264
-0.997225, 33, 369, 160, 400
-0.99723, 9, 81, 72, 208
-0.997231, 103, 417, 118, 480
-0.997242, 29, 129, 60, 256
-0.997243, 121, 369, 136, 432
-0.997243, 67, 305, 82, 368
-0.997246, 225, 9, 288, 72
-0.997256, 85, 305, 116, 432
-0.997257, 213, 353, 228, 416
-0.997259, 265, 369, 280, 432
-0.997268, 39, 329, 54, 392
-0.997286, 53, 313, 68, 376
-0.997296, 219, 417, 234, 480
-0.997304, 129, 393, 144, 456
-0.997314, 187, 313, 202, 376
-0.997339, 203, 237, 218, 268
-0.99734, 29, 329, 44, 392
-0.997341, 1, 309, 128, 340
-0.997342, 65, 369, 80, 432
-0.997342, 161, 1, 288, 64
-0.997349, 209, 297, 332, 328
-0.997352, 129, 389, 256, 420
-0.997352, 217, 289, 232, 320
-0.997353, 155, 305, 170, 368
-0.997356, 47, 393, 62, 456
-0.997392, 83, 345, 98, 408
-0.997394, 1, 385, 332, 448
-0.997394, 115, 321, 130, 384
-0.997398, 149, 305, 164, 368
-0.997399, 223, 377, 238, 440
-0.997402, 37, 393, 52, 456
-0.997408, 245, 129, 260, 192
-0.997413, 143, 305, 158, 368
-0.997423, 1, 409, 128, 440
-0.997429, 99, 393, 114, 456
-0.997432, 81, 337, 208, 368
-0.997444, 161, 273, 288, 304
-0.99746, 211, 133, 226, 164
-0.99747, 221, 97, 236, 160
-0.997477, 1, 217, 332, 280
-0.997483, 241, 129, 272, 384
-0.997486, 33, 297, 160, 328
-0.997486, 305, 169, 320, 232
-0.99749, 161, 305, 176, 368
-0.99749, 207, 193, 222, 224
-0.997495, 231, 321, 246, 384
-0.997497, 47, 329, 62, 392
-0.9975, 145, 425, 160, 488
-0.997516, 103, 349, 118, 380
-0.997517, 133, 305, 148, 368
-0.99752, 85, 417, 100, 480
-0.997524, 169, 1, 232, 256
-0.997529, 221, 341, 236, 372
-0.997532, 277, 189, 292, 220
-0.997532, 45, 281, 60, 344
-0.997533, 219, 229, 234, 260
-0.997566, 247, 409, 262, 472
-0.99757, 211, 145, 226, 176
-0.997604, 1, 169, 332, 232
-0.997607, 197, 233, 212, 264
-0.997615, 209, 305, 224, 336
-0.997641, 49, 385, 176, 416
-0.997643, 49, 397, 176, 428
-0.997647, 81, 49, 208, 112
-0.997669, 223, 125, 238, 156
-0.997672, 221, 257, 252, 500
-0.997689, 97, 217, 160, 280
-0.997701, 219, 257, 234, 288
-0.997707, 53, 257, 84, 500
-0.997735, 9, 129, 40, 256
-0.997741, 215, 309, 230, 340
-0.997747, 301, 81, 332, 208
-0.997753, 177, 17, 240, 80
-0.997766, 113, 457, 240, 488
-0.997785, 221, 361, 236, 392
-0.997786, 215, 321, 230, 352
-0.997796, 49, 1, 176, 32
-0.997801, 217, 273, 232, 304
-0.997804, 301, 129, 332, 384
-0.997819, 1, 1, 332, 64
-0.99782, 229, 125, 244, 156
-0.99782, 173, 225, 204, 480
-0.997833, 65, 73, 192, 136
-0.997844, 265, 257, 296, 500
-0.997852, 81, 349, 208, 380
-0.997857, 227, 241, 242, 272
-0.997858, 33, 209, 160, 272
-0.997861, 113, 129, 144, 256
-0.99787, 1, 185, 128, 216
-0.997871, 193, 245, 208, 276
-0.997886, 257, 225, 272, 256
-0.997902, 265, 221, 280, 252
-0.997909, 81, 129, 144, 384
-0.997916, 219, 189, 234, 220
-0.997921, 217, 125, 232, 156
-0.997943, 269, 369, 300, 496
-0.99797, 1, 129, 332, 192
-0.997975, 81, 421, 208, 452
-0.997978, 229, 353, 244, 384
-0.997986, 217, 145, 232, 176
-0.997989, 267, 205, 282, 236
-0.997991, 267, 177, 282, 208
-0.997994, 267, 245, 282, 276
-0.998005, 195, 325, 210, 356
-0.99801, 9, 425, 72, 488
-0.998013, 47, 309, 62, 340
-0.998027, 51, 289, 66, 320
-0.998044, 113, 301, 240, 332
-0.998047, 211, 245, 226, 276
-0.998047, 97, 141, 224, 172
-0.998052, 223, 269, 238, 300
-0.998078, 33, 217, 96, 280
-0.99808, 243, 157, 258, 188
-0.998081, 123, 309, 138, 340
-0.998081, 271, 189, 286, 220
-0.998094, 203, 313, 218, 344
-0.998104, 113, 409, 240, 440
-0.998104, 205, 221, 220, 252
-0.998109, 97, 185, 224, 216
-0.998114, 195, 257, 210, 288
-0.998127, 263, 233, 278, 264
-0.998152, 49, 21, 176, 52
-0.998153, 65, 241, 96, 368
-0.998155, 211, 261, 226, 292
-0.998165, 125, 225, 156, 480
-0.998168, 161, 453, 288, 484
-0.998173, 213, 189, 228, 220
-0.998179, 221, 305, 236, 336
-0.998185, 187, 249, 202, 280
-0.998186, 215, 353, 230, 384
-0.998196, 255, 165, 270, 196
-0.998197, 113, 13, 240, 44
-0.998202, 261, 209, 276, 240
-0.998202, 197, 221, 212, 252
-0.998207, 65, 257, 96, 500
-0.998209, 97, 33, 128, 160
-0.998211, 113, 265, 240, 296
-0.998214, 33, 129, 96, 192
-0.998228, 57, 305, 72, 336
-0.998233, 285, 197, 300, 228
-0.998235, 81, 361, 208, 392
-0.99825, 257, 237, 272, 268
-0.998263, 93, 421, 108, 452
-0.998271, 221, 373, 236, 404
-0.998275, 269, 273, 284, 304
-0.998279, 205, 137, 220, 168
-0.99828, 79, 377, 94, 408
-0.998303, 261, 169, 276, 200
-0.998303, 73, 417, 88, 448
-0.998317, 223, 141, 238, 172
-0.998318, 145, 185, 272, 216
-0.998332, 243, 213, 258, 244
-0.99834, 97, 361, 112, 392
-0.998341, 299, 197, 314, 228
-0.998342, 189, 97, 220, 352
-0.998344, 197, 209, 212, 240
-0.998345, 235, 165, 250, 196
-0.998347, 225, 225, 240, 256
-0.998348, 175, 309, 190, 340
-0.998352, 249, 157, 264, 188
-0.998355, 41, 129, 72, 256
-0.998356, 207, 177, 222, 304
-0.998357, 49, 161, 176, 224
-0.998358, 117, 317, 132, 348
-0.998359, 217, 161, 248, 176
-0.99836, 105, 225, 136, 480
-0.99836, 181, 325, 212, 340
-0.998361, 209, 391, 240, 406
-0.998361, 269, 349, 300, 364
-0.998362, 61, 427, 92, 442
-0.998362, 201, 159, 232, 174
-0.998362, 265, 285, 296, 300
-0.998362, 301, 197, 332, 212
-0.998363, 77, 371, 108, 386
-0.998363, 81, 433, 112, 448
-0.998364, 221, 327, 252, 342
-0.998364, 61, 323, 92, 338
-0.998365, 201, 207, 232, 222
-0.998365, 81, 355, 112, 370
-0.998366, 157, 261, 188, 276
-0.998367, 221, 333, 252, 348
-0.998367, 109, 385, 140, 400
-0.998367, 253, 203, 284, 218
-0.998368, 109, 391, 140, 406
-0.998368, 141, 261, 172, 276
-0.998369, 65, 453, 192, 484
-0.998369, 209, 65, 332, 128
-0.998369, 209, 379, 240, 394
-0.99837, 57, 289, 72, 320
-0.99837, 273, 269, 304, 284
-0.99837, 253, 1, 284, 128
-0.99837, 201, 315, 232, 330
-0.99837, 285, 197, 316, 212
-0.99837, 273, 231, 304, 246
-0.998372, 65, 399, 96, 414
-0.998372, 49, 421, 80, 436
-0.998372, 217, 293, 248, 308
-0.998372, 221, 155, 252, 170
-0.998372, 177, 343, 208, 358
-0.998373, 201, 359, 232, 374
-0.998373, 227, 253, 242, 284
-0.998374, 225, 355, 256, 370
-0.998374, 121, 331, 152, 346
-0.998375, 217, 271, 248, 286
-0.998376, 81, 209, 208, 240
-0.998378, 305, 197, 320, 228
-0.998379, 261, 389, 292, 404
-0.99838, 221, 139, 252, 154
-0.998381, 129, 261, 160, 276
-0.998381, 45, 429, 76, 444
-0.998382, 205, 153, 220, 184
-0.998383, 165, 213, 196, 228
-0.998383, 149, 213, 180, 228
-0.998383, 185, 207, 216, 222
-0.998384, 125, 337, 156, 352
-0.998384, 269, 341, 300, 356
-0.998385, 193, 147, 224, 162
-0.998385, 221, 223, 252, 238
-0.998385, 253, 253, 284, 268
-0.998386, 229, 173, 244, 204
-0.998386, 253, 233, 284, 248
-0.998387, 125, 287, 156, 302
-0.998388, 253, 227, 284, 242
-0.998388, 73, 383, 104, 398
-0.998389, 269, 275, 300, 290
-0.998389, 177, 331, 208, 346
-0.99839, 89, 383, 120, 398
-0.99839, 73, 325, 88, 356
-0.99839, 205, 305, 236, 320
-0.998391, 181, 317, 212, 332
-0.998391, 133, 311, 164, 326
-0.998392, 185, 255, 248, 270
-0.998392, 121, 317, 152, 332
-0.998392, 137, 287, 168, 302
-0.998392, 109, 379, 140, 394
-0.998392, 69, 391, 100, 406
-0.998393, 33, 33, 160, 64
-0.998393, 53, 307, 84, 322
-0.998393, 229, 237, 260, 252
-0.998394, 129, 1, 256, 32
-0.998394, 61, 333, 92, 348
-0.998395, 93, 359, 124, 374
-0.998395, 145, 311, 176, 326
-0.998395, 169, 261, 200, 276
-0.998397, 153, 287, 184, 302
-0.998397, 213, 353, 244, 368
-0.998399, 45, 313, 76, 328
-0.998399, 265, 237, 296, 252
-0.998399, 185, 219, 216, 234
-0.998401, 225, 259, 256, 274
-0.998402, 255, 201, 270, 232
-0.998402, 101, 353, 132, 368
-0.998402, 1, 105, 256, 168
-0.998403, 209, 369, 240, 384
-0.998403, 209, 385, 240, 400
-0.998404, 233, 157, 264, 172
-0.998405, 277, 261, 292, 292
-0.998406, 181, 259, 212, 274
-0.998407, 235, 141, 250, 172
-0.998408, 185, 231, 216, 246
-0.998408, 201, 213, 232, 228
-0.998409, 173, 237, 204, 252
-0.99841, 213, 229, 244, 244
-0.998411, 109, 359, 140, 374
-0.998414, 251, 237, 266, 268
-0.998415, 97, 125, 224, 156
-0.998417, 89, 377, 120, 392
-0.998419, 181, 245, 196, 276
-0.998421, 217, 265, 248, 280
-0.998423, 173, 337, 204, 352
-0.998425, 73, 377, 104, 392
-0.998425, 49, 287, 80, 302
-0.998426, 165, 287, 196, 302
-0.998428, 91, 381, 106, 412
-0.99843, 211, 293, 226, 324
-0.99843, 227, 213, 242, 244
-0.998431, 235, 213, 250, 244
-0.998432, 221, 243, 252, 258
-0.998432, 213, 359, 244, 374
-0.998435, 241, 209, 272, 224
-0.998435, 225, 247, 288, 262
-0.998439, 109, 367, 140, 382
-0.998441, 217, 145, 248, 160
-0.998441, 111, 421, 126, 452
-0.998441, 193, 265, 224, 280
-0.998442, 161, 311, 192, 326
-0.998443, 25, 97, 88, 160
-0.998444, 225, 251, 256, 266
-0.998445, 205, 273, 236, 288
-0.998445, 209, 137, 240, 152
-0.998446, 201, 221, 232, 236
-0.998447, 265, 385, 280, 416
-0.998448, 185, 249, 248, 264
-0.99845, 315, 197, 330, 228
-0.99845, 113, 287, 144, 302
-0.998451, 237, 153, 252, 184
-0.998454, 103, 429, 118, 460
-0.998455, 61, 405, 76, 436
-0.998455, 189, 237, 220, 252
-0.998459, 33, 313, 64, 328
-0.99846, 225, 361, 256, 376
-0.998461, 201, 327, 232, 342
-0.998463, 235, 129, 250, 160
-0.998464, 33, 433, 288, 496
-0.998465, 291, 197, 306, 228
-0.998467, 193, 227, 256, 242
-0.998468, 223, 385, 238, 416
-0.998469, 293, 33, 324, 288
-0.998471, 201, 227, 232, 242
-0.998471, 249, 245, 280, 260
-0.998473, 185, 261, 248, 276
-0.998473, 185, 329, 248, 344
-0.998475, 229, 185, 244, 216
-0.998475, 245, 145, 260, 176
-0.998476, 205, 225, 220, 352
-0.998476, 225, 217, 256, 232
-0.998477, 225, 317, 240, 348
-0.998477, 93, 371, 124, 386
-0.998477, 201, 153, 264, 168
-0.998478, 267, 257, 282, 288
-0.998478, 109, 441, 124, 472
-0.998478, 205, 143, 236, 158
-0.99848, 109, 373, 140, 388
-0.99848, 185, 337, 248, 352
-0.99848, 93, 365, 124, 380
-0.998482, 61, 313, 92, 328
-0.998482, 185, 241, 248, 256
-0.998483, 65, 129, 96, 256
-0.998484, 205, 267, 236, 282
-0.998485, 89, 373, 152, 388
-0.998487, 253, 239, 284, 254
-0.998487, 217, 241, 232, 368
-0.998488, 185, 213, 216, 228
-0.998489, 205, 243, 236, 258
-0.998491, 117, 311, 148, 326
-0.998493, 187, 329, 202, 360
-0.998493, 193, 213, 256, 228
-0.998494, 189, 253, 220, 268
-0.998496, 215, 145, 230, 272
-0.998497, 205, 153, 236, 168
-0.998498, 25, 309, 40, 340
-0.998499, 177, 233, 240, 248
-0.998499, 185, 343, 248, 358
-0.998502, 225, 241, 288, 256
-0.998502, 265, 193, 296, 208
-0.998502, 121, 377, 136, 408
-0.998505, 201, 143, 264, 158
-0.998505, 209, 129, 224, 256
-0.998506, 161, 49, 288, 112
-0.998508, 193, 221, 256, 236
-0.998512, 209, 235, 272, 250
-0.998512, 225, 171, 288, 186
-0.998513, 49, 197, 176, 228
-0.998514, 177, 311, 240, 326
-0.998516, 85, 429, 100, 460
-0.998517, 113, 311, 176, 326
-0.998517, 225, 333, 288, 348
-0.998519, 225, 165, 288, 180
-0.998519, 161, 213, 224, 228
-0.998521, 201, 233, 232, 248
-0.998521, 35, 309, 50, 340
-0.998522, 275, 237, 290, 268
-0.998523, 177, 321, 240, 336
-0.998525, 237, 163, 268, 178
-0.998528, 227, 153, 242, 184
-0.998528, 73, 379, 136, 394
-0.99853, 201, 197, 264, 212
-0.998533, 225, 347, 288, 362
-0.998533, 209, 255, 272, 270
-0.998533, 193, 207, 256, 222
-0.998535, 265, 189, 280, 220
-0.998535, 225, 341, 288, 356
-0.998535, 217, 193, 232, 320
-0.998537, 205, 261, 236, 276
-0.998539, 139, 433, 154, 464
-0.99854, 201, 321, 232, 336
-0.998541, 225, 177, 288, 192
-0.998544, 265, 197, 328, 212
-0.998547, 65, 371, 128, 386
-0.998549, 17, 313, 80, 328
-0.998549, 209, 129, 272, 144
-0.99855, 65, 393, 128, 408
-0.99855, 65, 25, 320, 88
-0.998551, 17, 309, 32, 340
-0.998551, 207, 209, 222, 240
-0.998552, 189, 245, 220, 260
-0.998554, 265, 281, 328, 296
-0.998554, 225, 327, 288, 342
-0.998554, 185, 349, 248, 364
-0.998555, 1, 389, 128, 420
-0.998556, 225, 385, 288, 400
-0.99856, 89, 367, 152, 382
-0.998561, 265, 243, 328, 258
-0.998561, 221, 49, 252, 176
-0.998561, 153, 311, 216, 326
-0.998561, 81, 357, 144, 372
-0.998561, 79, 441, 94, 472
-0.998562, 189, 233, 204, 264
-0.998562, 201, 135, 264, 150
-0.998564, 193, 357, 256, 372
-0.998564, 45, 421, 60, 452
-0.998565, 75, 337, 90, 368
-0.998565, 113, 287, 176, 302
-0.998566, 217, 227, 280, 242
-0.998567, 145, 429, 160, 460
-0.998568, 265, 251, 328, 266
-0.998568, 105, 361, 120, 392
-0.998569, 41, 309, 56, 340
-0.998571, 209, 159, 272, 174
-0.998572, 81, 331, 144, 346
-0.998574, 153, 337, 216, 352
-0.998575, 225, 363, 288, 378
-0.998576, 205, 195, 236, 210
-0.998578, 265, 409, 328, 472
-0.998579, 209, 261, 272, 276
-0.99858, 73, 315, 136, 330
-0.99858, 265, 267, 328, 282
-0.99858, 265, 273, 328, 288
-0.99858, 225, 211, 288, 226
-0.99858, 231, 229, 246, 260
-0.998581, 81, 385, 144, 400
-0.998581, 225, 355, 288, 370
-0.998582, 65, 365, 128, 380
-0.998583, 137, 287, 200, 302
-0.998583, 143, 309, 158, 340
-0.998584, 185, 365, 248, 380
-0.998585, 217, 319, 280, 334
-0.998586, 193, 387, 256, 402
-0.998586, 217, 127, 248, 142
-0.998589, 121, 337, 184, 352
-0.998589, 245, 33, 276, 288
-0.998594, 225, 309, 288, 324
-0.998595, 241, 225, 256, 256
-0.998595, 99, 417, 114, 448
-0.998596, 137, 261, 200, 276
-0.998596, 265, 259, 328, 274
-0.998596, 137, 213, 200, 228
-0.998597, 225, 391, 288, 406
-0.998597, 177, 305, 240, 320
-0.998598, 185, 371, 248, 386
-0.998598, 249, 237, 312, 252
-0.998599, 265, 385, 328, 400
-0.998599, 137, 237, 200, 252
-0.998599, 225, 221, 288, 236
-0.9986, 225, 183, 288, 198
-0.9986, 161, 207, 224, 222
-0.998601, 217, 189, 280, 204
-0.998601, 265, 341, 328, 356
-0.998602, 265, 347, 328, 362
-0.998602, 81, 337, 144, 352
-0.998603, 193, 259, 224, 274
-0.998604, 205, 255, 236, 270
-0.998604, 73, 321, 136, 336
-0.998606, 233, 255, 296, 270
-0.998606, 17, 341, 80, 356
-0.998607, 225, 379, 288, 394
-0.998607, 253, 257, 284, 500
-0.998608, 225, 275, 288, 290
-0.998609, 161, 251, 224, 266
-0.998609, 265, 327, 328, 342
-0.998609, 169, 227, 232, 242
-0.998611, 71, 309, 86, 340
-0.998611, 81, 347, 144, 362
-0.998614, 113, 317, 176, 332
-0.998615, 185, 377, 248, 392
-0.998615, 265, 309, 328, 324
-0.998616, 223, 293, 238, 324
-0.998616, 153, 343, 216, 358
-0.998616, 265, 287, 328, 302
-0.998616, 129, 365, 144, 396
-0.998617, 227, 281, 242, 312
-0.998617, 161, 239, 224, 254
-0.998619, 153, 331, 216, 346
-0.998619, 223, 169, 238, 200
-0.998619, 265, 295, 328, 310
-0.998619, 225, 369, 288, 384
-0.99862, 161, 259, 224, 274
-0.99862, 265, 303, 328, 318
-0.998621, 157, 309, 172, 340
-0.998623, 89, 391, 152, 406
-0.998624, 73, 455, 136, 470
-0.998624, 113, 453, 176, 468
-0.998625, 11, 309, 26, 340
-0.998625, 161, 219, 224, 234
-0.998627, 185, 267, 248, 282
-0.998628, 201, 313, 264, 328
-0.99863, 225, 287, 288, 302
-0.99863, 73, 425, 136, 440
-0.99863, 153, 321, 216, 336
-0.998631, 265, 317, 328, 332
-0.998631, 209, 249, 240, 264
-0.998631, 161, 245, 224, 260
-0.998632, 113, 331, 176, 346
-0.998632, 57, 353, 120, 368
-0.998632, 41, 341, 104, 356
-0.998633, 225, 301, 288, 316
-0.998633, 121, 343, 184, 358
-0.998634, 169, 455, 232, 470
-0.998636, 265, 333, 328, 348
-0.998636, 241, 193, 304, 208
-0.998637, 211, 241, 226, 368
-0.998639, 241, 227, 304, 242
-0.998641, 41, 313, 104, 328
-0.998642, 233, 261, 296, 276
-0.998642, 33, 347, 96, 362
-0.998643, 93, 129, 124, 256
-0.998644, 177, 143, 240, 158
-0.998645, 225, 269, 288, 284
-0.998645, 57, 359, 120, 374
-0.998648, 233, 205, 296, 220
-0.998649, 17, 57, 144, 120
-0.998653, 73, 161, 136, 288
-0.998655, 161, 409, 288, 440
-0.998662, 265, 65, 296, 320
-0.998667, 221, 65, 252, 320
-0.998684, 41, 257, 72, 500
-0.998688, 81, 241, 208, 304
-0.998689, 97, 169, 160, 232
-0.998699, 73, 1, 104, 256
-0.998699, 227, 145, 242, 272
-0.998706, 277, 177, 292, 304
-0.998721, 225, 41, 288, 104
-0.998725, 281, 65, 312, 320
-0.998727, 105, 137, 168, 200
-0.99875, 169, 337, 200, 464
-0.998759, 33, 437, 160, 468
-0.998768, 209, 413, 332, 444
-0.998773, 219, 289, 234, 416
-0.998775, 65, 409, 192, 440
-0.998779, 137, 113, 200, 240
-0.998788, 157, 225, 188, 480
-0.998792, 223, 241, 238, 368
-0.998795, 145, 113, 208, 176
-0.998798, 113, 153, 240, 184
-0.998818, 97, 33, 224, 64
-0.99882, 81, 245, 208, 276
-0.998833, 47, 289, 62, 416
-0.998836, 215, 97, 230, 224
-0.998846, 53, 289, 68, 416
-0.998848, 221, 145, 236, 272
-0.998859, 187, 241, 202, 368
-0.998865, 39, 289, 54, 416
-0.998868, 129, 441, 256, 472
-0.998878, 29, 257, 60, 500
-0.998882, 105, 1, 136, 256
-0.998886, 205, 289, 220, 416
-0.998889, 127, 273, 142, 400
-0.9989, 49, 281, 176, 312
-0.998906, 223, 193, 238, 320
-0.998908, 197, 305, 212, 432
-0.998911, 225, 81, 288, 144
-0.998913, 197, 257, 212, 384
-0.998925, 29, 289, 44, 416
-0.99893, 243, 145, 258, 272
-0.998945, 251, 145, 266, 272
-0.99895, 69, 289, 84, 416
-0.998963, 237, 145, 252, 272
-0.99897, 287, 177, 302, 304
-0.998993, 213, 305, 228, 432
-0.999004, 223, 97, 238, 224
-0.999014, 23, 289, 38, 416
-0.999016, 1, 105, 332, 168
-0.999019, 161, 25, 288, 88
-0.999021, 267, 177, 282, 304
-0.999025, 41, 129, 72, 384
-0.999027, 313, 129, 328, 256
-0.999033, 117, 321, 132, 448
-0.999038, 257, 145, 272, 272
-0.999044, 201, 177, 216, 304
-0.999052, 73, 369, 88, 496
-0.999053, 307, 129, 322, 256
-0.999055, 181, 225, 196, 352
-0.999055, 1, 409, 332, 472
-0.999058, 9, 97, 40, 352
-0.999058, 1, 153, 128, 216
-0.999063, 61, 1, 92, 256
-0.999063, 53, 161, 84, 416
-0.999065, 63, 289, 78, 416
-0.999066, 165, 113, 196, 240
-0.999075, 145, 225, 176, 480
-0.999078, 229, 193, 244, 320
-0.999092, 193, 49, 256, 112
-0.999092, 9, 129, 72, 192
-0.999096, 105, 337, 120, 464
-0.999118, 177, 129, 208, 384
-0.99913, 85, 225, 116, 480
-0.99914, 301, 129, 316, 256
-0.99914, 17, 289, 32, 416
-0.999146, 221, 337, 236, 464
-0.999148, 117, 1, 148, 256
-0.999153, 97, 353, 112, 480
-0.999154, 233, 33, 264, 288
-0.999163, 297, 177, 312, 304
-0.999164, 307, 177, 322, 304
-0.999166, 145, 117, 272, 148
-0.999167, 283, 129, 298, 256
-0.999168, 163, 225, 178, 352
-0.99918, 75, 305, 90, 432
-0.999182, 169, 225, 184, 352
-0.999183, 229, 257, 260, 384
-0.999185, 175, 225, 190, 352
-0.999186, 17, 257, 48, 500
-0.999186, 267, 129, 282, 256
-0.99919, 91, 369, 106, 496
-0.999207, 203, 129, 218, 256
-0.999215, 9, 289, 24, 416
-0.999217, 157, 225, 172, 352
-0.999219, 229, 97, 244, 224
-0.999233, 269, 257, 284, 384
-0.999236, 175, 289, 190, 416
-0.999237, 49, 265, 176, 296
-0.999244, 149, 225, 164, 352
-0.999247, 269, 81, 300, 208
-0.999248, 65, 17, 96, 144
-0.99925, 79, 369, 94, 496
-0.99925, 293, 129, 308, 256
-0.999258, 131, 225, 146, 352
-0.99926, 191, 305, 206, 432
-0.999265, 3, 289, 18, 416
-0.999275, 277, 129, 292, 256
-0.999277, 141, 129, 172, 384
-0.999279, 149, 273, 164, 400
-0.999279, 17, 129, 144, 160
-0.99928, 143, 225, 158, 352
-0.999282, 243, 193, 258, 320
-0.999283, 63, 337, 78, 464
-0.999287, 261, 209, 276, 336
-0.999288, 117, 273, 132, 400
-0.999292, 139, 273, 154, 400
-0.999294, 157, 289, 172, 416
-0.999296, 195, 177, 210, 304
-0.999312, 133, 289, 148, 416
-0.999314, 169, 289, 184, 416
-0.999315, 317, 177, 332, 304
-0.999319, 123, 369, 138, 496
-0.999321, 9, 209, 72, 272
-0.999323, 227, 369, 242, 496
-0.999324, 17, 453, 144, 484
-0.999324, 229, 241, 244, 368
-0.999325, 33, 45, 160, 76
-0.999328, 225, 289, 240, 416
-0.999332, 55, 337, 70, 464
-0.999337, 29, 129, 60, 384
-0.999338, 165, 129, 196, 384
-0.999347, 235, 209, 250, 336
-0.999362, 137, 225, 152, 352
-0.999363, 163, 289, 178, 416
-0.999365, 1, 233, 128, 296
-0.999376, 237, 97, 252, 224
-0.999378, 63, 241, 78, 368
-0.999381, 45, 241, 60, 368
-0.999387, 285, 257, 316, 500
-0.999389, 193, 113, 320, 144
-0.999399, 85, 369, 100, 496
-0.999404, 1, 257, 32, 500
-0.999406, 185, 289, 200, 416
-0.999422, 1, 17, 128, 48
-0.999434, 265, 321, 280, 448
-0.999435, 257, 369, 272, 496
-0.999443, 261, 97, 276, 224
-0.99945, 39, 241, 54, 368
-0.999458, 111, 353, 126, 480
-0.999462, 249, 97, 264, 224
-0.999462, 189, 177, 204, 304
-0.999463, 7, 337, 22, 464
-0.999467, 47, 337, 62, 464
-0.999473, 125, 225, 140, 352
-0.999478, 57, 241, 72, 368
-0.999479, 15, 337, 30, 464
-0.999482, 1, 337, 16, 464
-0.999482, 209, 5, 332, 36
-0.999483, 145, 421, 272, 452
-0.999492, 203, 369, 218, 496
-0.999492, 85, 33, 116, 288
-0.999497, 33, 241, 48, 368
-0.999498, 145, 145, 176, 272
-0.9995, 69, 241, 84, 368
-0.999502, 111, 305, 126, 432
-0.999502, 123, 321, 138, 448
-0.999503, 249, 193, 264, 320
-0.999513, 129, 369, 144, 496
-0.999513, 81, 321, 96, 448
-0.999514, 65, 233, 192, 264
-0.999515, 57, 1, 72, 128
-0.999517, 1, 81, 128, 144
-0.99952, 51, 241, 66, 368
-0.99952, 119, 225, 134, 352
-0.999525, 231, 305, 246, 432
-0.999525, 33, 249, 160, 280
-0.99953, 213, 369, 228, 496
-0.999531, 25, 337, 40, 464
-0.999537, 209, 37, 332, 68
-0.999542, 181, 177, 196, 304
-0.999543, 241, 225, 272, 480
-0.999551, 197, 129, 212, 256
-0.999553, 27, 241, 42, 368
-0.999559, 33, 337, 48, 464
-0.99956, 201, 1, 232, 256
-0.99956, 281, 321, 296, 448
-0.999561, 259, 225, 274, 240
-0.999561, 315, 197, 330, 212
-0.999562, 151, 211, 166, 226
-0.999562, 221, 195, 236, 210
-0.999562, 227, 289, 242, 304
-0.999562, 61, 425, 76, 440
-0.999563, 139, 433, 154, 448
-0.999563, 285, 197, 300, 212
-0.999563, 127, 341, 142, 356
-0.999563, 223, 327, 238, 342
-0.999563, 261, 205, 276, 220
-0.999565, 79, 455, 94, 470
-0.999565, 177, 441, 304, 472
-0.999566, 173, 213, 188, 228
-0.999567, 153, 453, 168, 468
-0.999567, 263, 369, 278, 496
-0.999567, 163, 213, 178, 228
-0.999567, 201, 245, 216, 260
-0.999568, 183, 213, 198, 228
-0.999568, 141, 11, 156, 26
-0.999569, 221, 347, 236, 362
-0.999569, 255, 193, 270, 320
-0.999569, 85, 455, 100, 470
-0.999571, 41, 337, 56, 464
-0.999571, 51, 307, 66, 322
-0.999572, 255, 453, 270, 468
-0.999572, 267, 187, 282, 202
-0.999572, 215, 333, 230, 348
-0.999573, 65, 289, 80, 304
-0.999573, 139, 311, 154, 326
-0.999574, 215, 267, 230, 282
-0.999575, 225, 333, 240, 348
-0.999575, 195, 327, 210, 342
-0.999575, 215, 363, 230, 378
-0.999575, 221, 311, 236, 326
-0.999576, 267, 199, 282, 214
-0.999576, 123, 317, 138, 332
-0.999576, 243, 97, 258, 224
-0.999577, 277, 265, 292, 280
-0.999577, 139, 287, 154, 302
-0.999578, 153, 311, 168, 326
-0.999579, 227, 267, 242, 282
-0.999579, 127, 287, 142, 302
-0.99958, 223, 273, 238, 288
-0.99958, 149, 287, 164, 302
-0.99958, 63, 313, 78, 328
-0.99958, 179, 237, 194, 252
-0.999581, 193, 253, 208, 268
-0.999582, 187, 337, 202, 352
-0.999582, 159, 311, 174, 326
-0.999582, 121, 287, 136, 302
-0.999583, 129, 261, 144, 276
-0.999583, 169, 311, 184, 326
-0.999583, 133, 287, 148, 302
-0.999583, 131, 311, 146, 326
-0.999583, 217, 285, 232, 300
-0.999584, 265, 389, 280, 404
-0.999585, 145, 311, 160, 326
-0.999586, 91, 455, 106, 470
-0.999588, 173, 287, 188, 302
-0.999588, 259, 305, 274, 432
-0.999588, 219, 255, 234, 270
-0.999588, 167, 287, 182, 302
-0.999589, 207, 241, 222, 256
-0.99959, 241, 257, 272, 384
-0.99959, 181, 259, 196, 274
-0.99959, 157, 287, 172, 302
-0.999591, 1, 117, 128, 148
-0.999592, 121, 129, 152, 384
-0.999593, 97, 455, 112, 470
-0.999594, 251, 163, 266, 178
-0.999595, 261, 231, 276, 246
-0.999596, 267, 211, 282, 226
-0.999597, 185, 237, 200, 252
-0.999597, 215, 153, 230, 168
-0.999598, 223, 387, 238, 402
-0.999599, 221, 353, 236, 368
-0.999601, 197, 219, 212, 234
-0.999602, 243, 213, 258, 228
-0.999603, 209, 145, 224, 160
-0.999604, 215, 323, 230, 338
-0.999605, 179, 287, 194, 302
-0.999606, 261, 219, 276, 234
-0.999607, 215, 317, 230, 332
-0.99961, 217, 297, 232, 312
-0.999611, 191, 243, 206, 258
-0.999611, 103, 357, 118, 372
-0.999612, 267, 227, 282, 242
-0.999613, 215, 357, 230, 372
-0.999613, 1, 177, 32, 304
-0.999614, 217, 305, 232, 320
-0.999614, 267, 205, 282, 220
-0.999614, 175, 311, 190, 326
-0.999616, 47, 313, 62, 328
-0.999616, 219, 127, 234, 142
-0.999616, 71, 313, 86, 328
-0.999617, 57, 311, 72, 326
-0.999617, 263, 237, 278, 252
-0.999617, 221, 369, 236, 384
-0.999619, 205, 227, 220, 242
-0.99962, 115, 287, 130, 302
-0.99962, 51, 289, 66, 304
-0.999622, 243, 157, 258, 172
-0.999623, 211, 305, 226, 320
-0.999623, 197, 237, 212, 252
-0.999624, 153, 321, 184, 448
-0.999625, 219, 143, 234, 158
-0.999625, 207, 157, 222, 172
-0.999626, 187, 257, 202, 272
-0.999626, 229, 251, 244, 266
-0.999628, 221, 267, 236, 282
-0.99963, 45, 431, 60, 446
-0.999631, 251, 239, 266, 254
-0.999631, 205, 319, 220, 334
-0.999632, 207, 233, 222, 248
-0.999632, 229, 127, 244, 142
-0.999637, 213, 131, 228, 146
-0.999638, 227, 357, 242, 372
-0.999639, 119, 311, 134, 326
-0.99964, 237, 215, 252, 230
-0.999644, 225, 243, 240, 258
-0.999648, 153, 129, 184, 384
-0.999648, 103, 351, 118, 366
-0.999649, 219, 261, 234, 276
-0.999651, 209, 17, 332, 48
-0.999652, 215, 191, 230, 206
-0.999655, 197, 213, 212, 228
-0.999655, 207, 313, 222, 328
-0.999655, 217, 275, 232, 290
-0.999656, 265, 243, 280, 258
-0.999659, 215, 311, 230, 326
-0.99966, 197, 261, 212, 276
-0.999668, 207, 261, 222, 276
-0.999674, 211, 139, 226, 154
-0.999676, 221, 361, 236, 376
-0.999676, 219, 245, 234, 260
-0.999677, 207, 197, 222, 212
-0.9997, 217, 291, 232, 306
-0.99971, 213, 249, 228, 264
-0.999715, 209, 151, 224, 166
-0.999719, 257, 237, 272, 252
-0.999727, 203, 253, 218, 268
-0.999729, 277, 193, 292, 208
-0.99979, 49, 141, 176, 172
-0.999794, 49, 185, 176, 216
-0.999818, 97, 45, 224, 76
-0.999827, 33, 105, 160, 136
-0.999856, 65, 77, 192, 108
-0.999858, 65, 57, 320, 120
-0.999868, 1, 277, 128, 308
-0.999884, 209, 69, 332, 100
-0.99989, 209, 453, 332, 484
-0.999898, 49, 1, 80, 256
-0.999903, 209, 81, 332, 112
-0.999909, 65, 173, 192, 204
-0.999913, 33, 93, 160, 124
-0.999922, 33, 221, 160, 252
-0.999948, 161, 21, 288, 52
-1.00001, 21, 33, 52, 288
-1.00002, 65, 57, 192, 88
-1.00002, 297, 257, 328, 500
-1.00003, 1, 205, 128, 236
-1.00005, 49, 117, 176, 148
-1.00007, 209, 49, 332, 80
-1.00007, 69, 97, 100, 352
-1.00011, 137, 137, 200, 200
-1.00012, 209, 97, 332, 128
-1.00012, 145, 105, 272, 136
-1.00014, 129, 1, 160, 256
-1.00015, 105, 129, 136, 384
-1.00017, 1, 173, 128, 204
-1.00018, 17, 81, 144, 112
-1.00019, 145, 81, 272, 112
-1.0002, 145, 33, 272, 64
-1.0002, 297, 273, 328, 400
-1.0002, 145, 93, 272, 124
-1.00021, 141, 1, 172, 128
-1.00021, 161, 33, 192, 288
-1.00024, 1, 1, 128, 32
-1.00025, 165, 65, 196, 192
-1.00028, 1, 1, 32, 256
-1.00028, 57, 129, 120, 192
-1.00029, 1, 61, 128, 92
-1.0003, 1, 233, 128, 264
-1.0003, 161, 465, 288, 496
-1.00032, 37, 33, 68, 288
-1.00033, 1, 433, 332, 496
-1.00036, 105, 177, 136, 304
-1.00037, 49, 465, 176, 496
-1.00038, 29, 81, 60, 208
-1.00039, 145, 33, 176, 288
-1.00039, 1, 25, 332, 88
-1.00041, 101, 257, 132, 384
-1.00052, 177, 33, 208, 288
-1.00054, 65, 81, 320, 144
-1.00056, 297, 369, 328, 496
-1.00062, 189, 1, 220, 256
-1.00062, 97, 81, 128, 208
-1.00071, 137, 65, 200, 192
-1.00074, 161, 1, 288, 128
-1.00084, 93, 129, 124, 384
-1.00087, 241, 1, 304, 128
-1.00088, 81, 129, 112, 384
-1.00089, 249, 65, 280, 192
-1.0009, 57, 81, 88, 208
-1.00092, 125, 129, 156, 256
-1.00103, 285, 1, 316, 128
-1.00121, 145, 33, 208, 288
-1.00132, 65, 177, 96, 304
-1.00134, 133, 65, 164, 192
-1.00135, 17, 81, 48, 208
-1.00135, 77, 81, 108, 208
-1.00141, 1, 57, 332, 120
-1.00152, 41, 81, 72, 208
-1.00154, 41, 1, 72, 128
-1.00155, 41, 177, 72, 304
-1.00165, 185, 1, 248, 128
-1.00169, 301, 33, 332, 160
-1.00272, 1, 81, 332, 144
-1.00314, 209, 1, 272, 128
-1.00538, 1, 33, 64, 160
-1.0074, 161, 1, 224, 128
