1976
-0.23095, 1, 1, 375, 500
-0.398336, 1, 161, 375, 416
-0.413502, 65, 1, 320, 500
-0.431644, 1, 1, 375, 256
-0.525725, 1, 257, 375, 500
-0.607489, 1, 129, 256, 384
-0.622461, 65, 1, 320, 256
-0.66757, 97, 97, 352, 352
-0.693126, 97, 193, 352, 448
-0.771767, 1, 225, 256, 480
-0.845466, 49, 1, 176, 500
-0.845841, 49, 97, 176, 352
-0.863138, 161, 1, 288, 500
-0.869974, 1, 129, 128, 384
-0.870294, 1, 209, 375, 336
-0.873992, 97, 1, 224, 500
-0.885854, 97, 129, 224, 384
-0.89026, 1, 1, 128, 500
-0.890808, 65, 1, 192, 256
-0.891875, 1, 129, 375, 256
-0.894642, 241, 257, 368, 500
-0.896503, 145, 33, 272, 288
-0.898348, 209, 1, 336, 500
-0.899608, 1, 257, 128, 500
-0.899666, 81, 225, 208, 480
-0.907024, 225, 161, 352, 416
-0.910257, 17, 1, 144, 256
-0.91123, 1, 257, 375, 384
-0.91256, 193, 257, 320, 500
-0.918046, 97, 209, 352, 336
-0.918536, 33, 129, 288, 256
-0.919586, 1, 1, 375, 128
-0.920229, 1, 81, 375, 208
-0.925045, 65, 81, 320, 208
-0.925298, 1, 369, 375, 496
-0.926834, 241, 33, 368, 288
-0.927288, 145, 129, 272, 384
-0.931036, 297, 241, 360, 368
-0.936142, 145, 257, 272, 500
-0.937779, 49, 113, 176, 240
-0.939146, 129, 129, 375, 256
-0.94035, 193, 65, 320, 320
-0.943412, 1, 177, 256, 304
-0.943789, 33, 193, 160, 320
-0.945894, 281, 297, 344, 360
-0.946521, 1, 321, 375, 448
-0.946734, 129, 369, 375, 496
-0.947347, 1, 225, 256, 352
-0.949689, 41, 161, 104, 288
-0.950868, 129, 1, 375, 128
-0.951987, 241, 257, 368, 384
-0.952374, 113, 113, 176, 240
-0.952548, 1, 241, 128, 368
-0.952634, 161, 65, 288, 192
-0.953354, 273, 273, 336, 400
-0.955182, 97, 129, 224, 256
-0.955229, 225, 209, 352, 336
-0.955586, 265, 321, 328, 448
-0.955991, 1, 145, 128, 272
-0.956498, 17, 241, 80, 368
-0.956505, 137, 97, 200, 224
-0.956731, 33, 369, 288, 496
-0.956762, 89, 113, 152, 240
-0.957658, 17, 161, 80, 288
-0.95825, 97, 209, 224, 336
-0.958502, 33, 33, 288, 160
-0.95853, 57, 113, 120, 240
-0.958766, 225, 369, 352, 496
-0.958991, 129, 129, 192, 192
-0.959428, 105, 241, 168, 368
-0.959506, 41, 161, 104, 224
-0.959948, 305, 289, 368, 416
-0.960269, 297, 257, 360, 320
-0.960431, 281, 369, 344, 496
-0.960539, 89, 33, 152, 160
-0.960627, 1, 97, 128, 224
-0.960685, 129, 209, 192, 336
-0.961539, 129, 305, 375, 432
-0.961572, 305, 305, 368, 368
-0.962405, 241, 97, 368, 224
-0.962659, 281, 409, 344, 472
-0.962904, 177, 1, 304, 128
-0.963272, 249, 417, 312, 480
-0.964245, 153, 145, 216, 272
-0.96435, 57, 225, 120, 352
-0.964366, 225, 1, 352, 128
-0.964649, 161, 369, 288, 496
-0.964966, 1, 273, 256, 400
-0.964972, 1, 169, 64, 232
-0.965353, 9, 257, 72, 320
-0.965813, 97, 17, 224, 144
-0.965932, 305, 193, 368, 320
-0.966095, 33, 113, 96, 240
-0.966122, 305, 281, 368, 344
-0.966127, 225, 417, 352, 480
-0.966228, 49, 49, 176, 176
-0.966932, 49, 241, 176, 368
-0.967117, 97, 65, 224, 192
-0.967429, 257, 305, 320, 368
-0.968048, 249, 209, 312, 336
-0.9683, 161, 129, 288, 256
-0.96833, 225, 161, 352, 288
-0.968377, 193, 321, 320, 448
-0.968967, 249, 369, 312, 496
-0.969083, 193, 273, 320, 400
-0.969146, 305, 433, 368, 496
-0.969268, 65, 65, 128, 192
-0.969316, 217, 65, 280, 192
-0.969363, 97, 257, 352, 384
-0.969433, 273, 273, 336, 336
-0.97003, 281, 257, 344, 500
-0.970184, 113, 97, 176, 352
-0.970191, 281, 329, 344, 392
-0.970211, 241, 321, 368, 448
-0.970355, 273, 225, 336, 352
-0.97053, 81, 97, 144, 352
-0.970581, 97, 137, 160, 200
-0.970777, 305, 417, 336, 480
-0.971161, 49, 129, 112, 384
-0.971551, 113, 49, 176, 176
-0.971729, 49, 161, 80, 224
-0.971916, 89, 33, 152, 96
-0.972813, 309, 289, 340, 352
-0.97294, 301, 241, 332, 368
-0.973007, 1, 113, 64, 240
-0.973163, 105, 161, 168, 288
-0.973261, 17, 289, 144, 416
-0.973329, 257, 161, 320, 288
-0.973453, 293, 297, 324, 360
-0.974309, 49, 1, 176, 128
-0.974323, 97, 257, 224, 384
-0.974414, 185, 1, 248, 128
-0.97444, 105, 257, 168, 320
-0.974441, 17, 145, 80, 208
-0.974442, 25, 129, 88, 384
-0.974571, 89, 1, 152, 256
-0.97484, 41, 273, 104, 400
-0.974847, 137, 105, 200, 168
-0.975123, 225, 1, 288, 128
-0.975752, 289, 233, 352, 296
-0.975812, 65, 129, 192, 192
-0.975853, 145, 225, 208, 288
-0.975876, 185, 65, 248, 192
-0.975989, 33, 161, 160, 224
-0.976062, 273, 385, 336, 448
-0.976073, 81, 369, 208, 496
-0.976075, 65, 257, 128, 320
-0.976261, 305, 257, 368, 500
-0.9763, 257, 329, 320, 392
-0.976327, 105, 113, 168, 176
-0.976371, 81, 161, 144, 288
-0.976432, 177, 225, 304, 352
-0.976567, 201, 369, 264, 496
-0.976633, 201, 433, 264, 496
-0.976686, 321, 241, 352, 368
-0.976733, 49, 161, 80, 288
-0.976924, 81, 209, 144, 336
-0.977002, 289, 257, 320, 384
-0.977008, 81, 257, 144, 384
-0.977033, 161, 65, 224, 192
-0.977121, 333, 265, 364, 328
-0.977441, 33, 225, 160, 288
-0.977441, 249, 257, 312, 384
-0.977667, 145, 377, 208, 440
-0.977693, 137, 369, 200, 496
-0.977799, 1, 265, 128, 328
-0.977885, 137, 49, 200, 176
-0.977934, 241, 49, 368, 176
-0.977987, 57, 129, 120, 192
-0.978168, 73, 161, 136, 224
-0.978341, 257, 177, 320, 240
-0.978482, 233, 297, 296, 360
-0.978565, 145, 177, 272, 304
-0.978613, 305, 369, 368, 496
-0.978703, 25, 185, 88, 248
-0.978845, 333, 241, 364, 368
-0.978891, 61, 169, 92, 232
-0.978892, 289, 273, 320, 336
-0.978964, 137, 97, 200, 352
-0.979054, 141, 113, 172, 240
-0.979249, 121, 185, 184, 248
-0.979442, 121, 193, 184, 448
-0.979521, 281, 313, 312, 376
-0.979649, 145, 409, 208, 472
-0.979667, 301, 257, 332, 320
-0.979719, 301, 289, 332, 416
-0.979761, 37, 177, 68, 304
-0.979846, 97, 217, 160, 280
-0.97994, 225, 369, 288, 496
-0.979981, 253, 417, 284, 480
-0.98, 249, 265, 312, 328
-0.980007, 49, 225, 112, 288
-0.980017, 49, 281, 112, 344
-0.980273, 289, 161, 352, 416
-0.980456, 225, 433, 288, 496
-0.980516, 249, 1, 312, 128
-0.980672, 201, 289, 264, 416
-0.980677, 241, 281, 368, 344
-0.980699, 313, 393, 375, 456
-0.980918, 137, 121, 168, 184
-0.980946, 313, 225, 375, 288
-0.980983, 277, 305, 308, 432
-0.981006, 121, 233, 184, 296
-0.981106, 281, 177, 344, 304
-0.981257, 1, 321, 256, 448
-0.981266, 313, 161, 375, 224
-0.981417, 281, 433, 344, 496
-0.981455, 273, 353, 336, 416
-0.98153, 257, 257, 320, 500
-0.981543, 97, 25, 224, 88
-0.981579, 17, 233, 80, 296
-0.981605, 113, 1, 176, 500
-0.981672, 1, 161, 64, 416
-0.981725, 313, 289, 344, 416
-0.981765, 121, 113, 152, 240
-0.981784, 33, 233, 64, 296
-0.981842, 241, 137, 368, 200
-0.981899, 121, 369, 184, 432
-0.98202, 153, 129, 184, 256
-0.98203, 225, 73, 288, 136
-0.982033, 1, 137, 128, 200
-0.982038, 65, 1, 128, 256
-0.98206, 81, 113, 144, 176
-0.982235, 297, 1, 360, 128
-0.982397, 153, 145, 216, 208
-0.982403, 241, 257, 368, 320
-0.982445, 325, 289, 356, 352
-0.982505, 153, 129, 184, 192
-0.98251, 129, 177, 160, 304
-0.982513, 161, 369, 224, 496
-0.982537, 101, 113, 132, 240
-0.982554, 233, 433, 264, 496
-0.982769, 161, 393, 288, 456
-0.982851, 97, 57, 160, 120
-0.982853, 337, 297, 368, 360
-0.982884, 257, 113, 320, 240
-0.983022, 241, 353, 304, 416
-0.983027, 289, 321, 320, 448
-0.983031, 65, 17, 128, 144
-0.983108, 37, 177, 68, 240
-0.983133, 65, 185, 192, 248
-0.98315, 113, 89, 176, 152
-0.983238, 49, 185, 112, 248
-0.98324, 317, 249, 348, 312
-0.983353, 225, 305, 288, 432
-0.983404, 301, 369, 332, 496
-0.983445, 97, 161, 160, 224
-0.983476, 81, 1, 144, 500
-0.983592, 257, 129, 320, 384
-0.983595, 41, 65, 104, 192
-0.9837, 37, 113, 68, 240
-0.983744, 113, 1, 176, 256
-0.983806, 201, 409, 264, 472
-0.983865, 65, 33, 128, 96
-0.9839, 61, 145, 92, 272
-0.983914, 165, 145, 196, 272
-0.983949, 225, 393, 352, 456
-0.984074, 49, 249, 176, 312
-0.984127, 97, 49, 128, 176
-0.984159, 249, 233, 312, 296
-0.98417, 129, 225, 256, 288
-0.984283, 17, 113, 144, 176
-0.984283, 209, 297, 272, 360
-0.984297, 129, 161, 192, 288
-0.984352, 97, 1, 224, 64
-0.984376, 81, 281, 144, 344
-0.984401, 5, 177, 36, 240
-0.984483, 97, 9, 160, 72
-0.984489, 113, 369, 176, 496
-0.984505, 153, 377, 184, 440
-0.984505, 161, 105, 224, 168
-0.984517, 25, 153, 56, 216
-0.984563, 217, 225, 280, 352
-0.98461, 113, 113, 144, 176
-0.984621, 145, 305, 272, 432
-0.984685, 161, 65, 288, 128
-0.984765, 185, 17, 248, 80
-0.984808, 117, 257, 148, 320
-0.984813, 157, 105, 188, 168
-0.984861, 321, 433, 352, 496
-0.984937, 313, 145, 375, 272
-0.98494, 117, 241, 148, 368
-0.985061, 53, 209, 84, 336
-0.985074, 25, 177, 56, 304
-0.985113, 145, 425, 272, 488
-0.985155, 37, 225, 68, 352
-0.985161, 81, 161, 208, 224
-0.985185, 149, 193, 180, 320
-0.985215, 161, 33, 224, 288
-0.985254, 281, 185, 344, 248
-0.985301, 161, 113, 288, 176
-0.985373, 153, 433, 216, 496
-0.985417, 97, 225, 160, 480
-0.985443, 177, 321, 240, 448
-0.985476, 97, 33, 128, 96
-0.985487, 233, 161, 296, 288
-0.985528, 113, 129, 240, 192
-0.985585, 1, 185, 128, 248
-0.985637, 9, 257, 72, 500
-0.985644, 81, 113, 112, 240
-0.985651, 57, 1, 120, 500
-0.985701, 169, 393, 232, 456
-0.985721, 285, 417, 316, 480
-0.985754, 137, 1, 200, 64
-0.985921, 1, 289, 64, 416
-0.985925, 297, 1, 360, 64
-0.985926, 33, 57, 160, 120
-0.98594, 169, 1, 232, 500
-0.98602, 301, 193, 332, 320
-0.986119, 169, 369, 232, 432
-0.986144, 145, 201, 208, 264
-0.986204, 165, 385, 196, 448
-0.986287, 161, 1, 224, 128
-0.986348, 41, 33, 104, 288
-0.986357, 121, 393, 184, 456
-0.986418, 269, 353, 300, 480
-0.986433, 125, 129, 156, 192
-0.986446, 345, 273, 375, 336
-0.986544, 193, 313, 320, 376
-0.986548, 241, 81, 368, 144
-0.98681, 193, 273, 320, 336
-0.986815, 257, 201, 320, 264
-0.986866, 1, 49, 128, 176
-0.986869, 101, 129, 132, 192
-0.986869, 49, 201, 80, 264
-0.986875, 313, 129, 375, 384
-0.986908, 33, 225, 96, 480
-0.986914, 161, 137, 288, 200
-0.986926, 129, 1, 192, 128
-0.986996, 65, 369, 192, 432
-0.987006, 17, 289, 144, 352
-0.987006, 305, 97, 368, 224
-0.987024, 149, 217, 180, 280
-0.987036, 129, 65, 160, 192
-0.987046, 69, 97, 100, 224
-0.987074, 241, 201, 368, 264
-0.987104, 137, 1, 200, 500
-0.987173, 137, 361, 168, 424
-0.987192, 153, 209, 216, 336
-0.987257, 73, 57, 136, 120
-0.987307, 269, 305, 300, 368
-0.987371, 281, 369, 312, 496
-0.987393, 41, 257, 104, 320
-0.987503, 125, 225, 156, 288
-0.98754, 217, 1, 280, 500
-0.987544, 53, 225, 84, 288
-0.987554, 137, 41, 200, 104
-0.987565, 225, 345, 352, 408
-0.987646, 97, 265, 224, 328
-0.987715, 97, 105, 224, 168
-0.987789, 33, 97, 96, 160
-0.98779, 241, 305, 368, 368
-0.987802, 241, 1, 368, 64
-0.987822, 137, 97, 168, 160
-0.987834, 249, 377, 312, 440
-0.98786, 129, 201, 256, 264
-0.987917, 241, 113, 368, 176
-0.987936, 169, 105, 200, 168
-0.988067, 137, 233, 168, 296
-0.988074, 133, 225, 164, 352
-0.988082, 177, 17, 304, 80
-0.988157, 1, 289, 64, 352
-0.988326, 193, 241, 320, 304
-0.988418, 81, 65, 112, 192
-0.988419, 277, 225, 308, 352
-0.988514, 325, 289, 356, 416
-0.988522, 161, 369, 192, 496
-0.988553, 321, 393, 352, 456
-0.988556, 177, 65, 240, 128
-0.988557, 305, 297, 368, 328
-0.988599, 209, 177, 336, 240
-0.988629, 193, 225, 256, 352
-0.988662, 345, 273, 375, 400
-0.988672, 265, 417, 296, 480
-0.988749, 145, 193, 208, 448
-0.988751, 113, 369, 240, 432
-0.988767, 281, 313, 344, 344
-0.9888, 281, 345, 312, 408
-0.988815, 9, 209, 72, 272
-0.988872, 241, 57, 368, 120
-0.988879, 281, 209, 344, 272
-0.988934, 313, 193, 344, 320
-0.988945, 217, 1, 280, 256
-0.988965, 185, 1, 248, 256
-0.988973, 105, 281, 168, 344
-0.988992, 97, 49, 224, 112
-0.988995, 25, 281, 88, 344
-0.98901, 113, 33, 176, 96
-0.989025, 121, 161, 184, 224
-0.989071, 257, 137, 320, 200
-0.989084, 81, 217, 208, 280
-0.989102, 133, 353, 164, 480
-0.989106, 153, 81, 184, 208
-0.989129, 109, 49, 140, 176
-0.989182, 33, 121, 96, 184
-0.989202, 1, 273, 32, 400
-0.989216, 13, 153, 44, 216
-0.989256, 233, 1, 264, 128
-0.989257, 305, 137, 368, 200
-0.989279, 165, 129, 196, 192
-0.989291, 137, 193, 168, 256
-0.989345, 41, 169, 104, 200
-0.989353, 313, 185, 375, 248
-0.989361, 233, 321, 296, 384
-0.989406, 65, 81, 192, 144
-0.989506, 33, 33, 160, 96
-0.989568, 129, 133, 192, 164
-0.989569, 161, 161, 288, 224
-0.989578, 193, 1, 256, 500
-0.989579, 53, 273, 84, 400
-0.989594, 241, 225, 368, 288
-0.989599, 281, 301, 344, 332
-0.989612, 125, 105, 156, 168
-0.989655, 1, 177, 64, 208
-0.989663, 201, 65, 264, 128
-0.989735, 49, 273, 80, 336
-0.989759, 289, 385, 320, 448
-0.989843, 101, 281, 132, 344
-0.98986, 49, 57, 112, 120
-0.989875, 281, 421, 344, 452
-0.989875, 177, 425, 240, 488
-0.989876, 185, 1, 216, 128
-0.989885, 53, 137, 84, 200
-0.989965, 305, 313, 368, 344
-0.989997, 117, 1, 148, 128
-0.990002, 193, 321, 256, 384
-0.990008, 13, 257, 44, 320
-0.990022, 277, 265, 308, 328
-0.990028, 33, 129, 64, 192
-0.990031, 69, 289, 100, 352
-0.990095, 9, 1, 72, 500
-0.990105, 225, 369, 352, 432
-0.990123, 301, 233, 332, 296
-0.990145, 257, 353, 288, 480
-0.990147, 77, 145, 108, 208
-0.990149, 317, 313, 348, 376
-0.990226, 161, 369, 288, 432
-0.990256, 145, 169, 208, 232
-0.990279, 325, 225, 356, 288
-0.990292, 297, 257, 360, 288
-0.990298, 97, 209, 128, 336
-0.990309, 13, 161, 44, 288
-0.99031, 1, 65, 64, 320
-0.990346, 249, 421, 312, 452
-0.99035, 57, 105, 120, 168
-0.990362, 9, 269, 72, 300
-0.990408, 113, 137, 144, 200
-0.990419, 249, 65, 280, 192
-0.990451, 177, 393, 208, 456
-0.990465, 153, 321, 216, 448
-0.990511, 325, 177, 356, 304
-0.990605, 313, 369, 344, 496
-0.990627, 37, 153, 68, 216
-0.990645, 273, 1, 336, 128
-0.990691, 141, 49, 172, 176
-0.990692, 137, 393, 200, 424
-0.990695, 49, 181, 112, 212
-0.990715, 289, 281, 352, 312
-0.990742, 33, 1, 96, 500
-0.990761, 9, 189, 72, 220
-0.990777, 301, 385, 332, 448
-0.990794, 233, 177, 296, 240
-0.990835, 129, 345, 256, 408
-0.99087, 297, 445, 360, 476
-0.990872, 85, 41, 116, 104
-0.990905, 193, 217, 320, 280
-0.99091, 89, 89, 152, 152
-0.990925, 17, 165, 80, 196
-0.990928, 117, 17, 148, 80
-0.990944, 305, 457, 368, 488
-0.990963, 305, 1, 368, 500
-0.990965, 281, 349, 344, 380
-0.990973, 257, 309, 320, 340
-0.990992, 169, 225, 232, 480
-0.991005, 145, 369, 176, 496
-0.991017, 129, 145, 192, 176
-0.991059, 257, 337, 320, 368
-0.99106, 101, 273, 132, 400
-0.991103, 201, 449, 264, 480
-0.991123, 97, 37, 160, 68
-0.99117, 65, 277, 128, 308
-0.991181, 81, 161, 112, 288
-0.991182, 233, 445, 296, 476
-0.991186, 17, 241, 48, 368
-0.991187, 145, 229, 208, 260
-0.991222, 337, 241, 368, 304
-0.991223, 177, 89, 304, 152
-0.991227, 201, 461, 264, 492
-0.99123, 257, 297, 320, 328
-0.991234, 65, 145, 320, 208
-0.991237, 85, 241, 116, 368
-0.991245, 205, 297, 236, 360
-0.991246, 313, 285, 375, 316
-0.991249, 281, 333, 344, 364
-0.991261, 9, 257, 72, 288
-0.991315, 337, 161, 368, 288
-0.991317, 73, 257, 136, 500
-0.991318, 49, 113, 80, 240
-0.991325, 9, 121, 72, 184
-0.991354, 97, 1, 128, 128
-0.991413, 57, 153, 120, 184
-0.991427, 293, 321, 324, 384
-0.991459, 105, 125, 168, 156
-0.991479, 233, 257, 296, 500
-0.991503, 89, 297, 120, 360
-0.991513, 153, 405, 216, 436
-0.991523, 25, 129, 56, 256
-0.991528, 233, 305, 296, 336
-0.991541, 65, 165, 128, 196
-0.991575, 121, 209, 184, 272
-0.99158, 273, 469, 336, 500
-0.991591, 161, 345, 224, 408
-0.9916, 177, 337, 304, 400
-0.991604, 97, 53, 160, 84
-0.99162, 241, 433, 304, 464
-0.991641, 249, 1, 280, 128
-0.991666, 249, 325, 312, 356
-0.991692, 257, 349, 320, 380
-0.991707, 165, 81, 196, 208
-0.991714, 129, 369, 192, 400
-0.991716, 313, 273, 375, 304
-0.991724, 121, 65, 184, 128
-0.991748, 129, 381, 192, 412
-0.991753, 81, 169, 112, 232
-0.991777, 129, 425, 375, 488
-0.991782, 153, 121, 216, 152
-0.991799, 117, 193, 148, 320
-0.9918, 265, 285, 328, 316
-0.991806, 149, 185, 180, 248
-0.991818, 73, 37, 136, 68
-0.99182, 273, 449, 336, 480
-0.99187, 121, 197, 184, 228
-0.991889, 17, 89, 144, 152
-0.991889, 281, 433, 344, 464
-0.991892, 209, 437, 272, 468
-0.991925, 17, 177, 48, 240
-0.991933, 17, 153, 80, 184
-0.991945, 113, 261, 176, 292
-0.991948, 185, 41, 248, 104
-0.991953, 97, 393, 224, 456
-0.991969, 289, 269, 352, 300
-0.992019, 233, 461, 296, 492
-0.992037, 33, 281, 96, 312
-0.992037, 265, 49, 328, 176
-0.992042, 65, 297, 128, 328
-0.992044, 97, 145, 160, 176
-0.992044, 237, 369, 268, 496
-0.992048, 289, 161, 320, 288
-0.99205, 25, 201, 88, 232
-0.992063, 105, 285, 168, 316
-0.992072, 209, 257, 272, 500
-0.99208, 105, 233, 168, 264
-0.99208, 265, 409, 328, 440
-0.992087, 293, 309, 324, 340
-0.992099, 233, 161, 296, 416
-0.992113, 277, 377, 308, 440
-0.992158, 89, 165, 152, 196
-0.992174, 9, 245, 72, 276
-0.992176, 157, 409, 188, 472
-0.992183, 261, 113, 292, 240
-0.992192, 261, 177, 292, 240
-0.992203, 153, 417, 216, 448
-0.992212, 49, 169, 80, 200
-0.992213, 177, 405, 240, 436
-0.992217, 93, 153, 124, 216
-0.992218, 41, 237, 104, 268
-0.992219, 129, 405, 192, 436
-0.992219, 301, 297, 332, 328
-0.99222, 313, 297, 344, 328
-0.992236, 121, 181, 184, 212
-0.99224, 289, 209, 320, 336
-0.99225, 265, 361, 328, 392
-0.992252, 89, 265, 120, 328
-0.992262, 217, 137, 280, 200
-0.992263, 153, 133, 216, 164
-0.99227, 49, 193, 112, 224
-0.992277, 53, 249, 84, 312
-0.992307, 1, 161, 375, 224
-0.992315, 113, 245, 176, 276
-0.99233, 9, 281, 72, 312
-0.992342, 313, 433, 375, 464
-0.992352, 41, 293, 104, 324
-0.992371, 305, 469, 368, 500
-0.992387, 257, 1, 320, 500
-0.992401, 137, 241, 200, 272
-0.992407, 289, 245, 352, 276
-0.992413, 97, 25, 160, 56
-0.99242, 105, 257, 136, 320
-0.992425, 221, 1, 252, 128
-0.992431, 81, 133, 144, 164
-0.99244, 269, 1, 300, 128
-0.992459, 153, 145, 216, 176
-0.99247, 257, 113, 320, 176
-0.992477, 137, 109, 200, 140
-0.992478, 313, 413, 375, 444
-0.992483, 301, 421, 332, 452
-0.992486, 281, 305, 312, 336
-0.992489, 305, 325, 368, 356
-0.992496, 325, 301, 356, 332
-0.992505, 129, 121, 192, 152
-0.992528, 285, 333, 316, 364
-0.992534, 177, 129, 240, 192
-0.992538, 41, 257, 104, 288
-0.992541, 153, 65, 216, 128
-0.992541, 221, 433, 252, 496
-0.992548, 129, 469, 192, 500
-0.992566, 177, 297, 240, 360
-0.992567, 97, 193, 160, 256
-0.99257, 97, 65, 160, 96
-0.992572, 73, 53, 136, 84
-0.992574, 305, 441, 336, 472
-0.992582, 313, 309, 344, 340
-0.992594, 129, 217, 192, 248
-0.992595, 177, 393, 240, 424
-0.992596, 241, 365, 304, 396
-0.992611, 313, 233, 375, 264
-0.992619, 273, 325, 304, 356
-0.992622, 337, 301, 368, 332
-0.992627, 265, 281, 296, 344
-0.992634, 241, 445, 272, 476
-0.992643, 257, 245, 320, 276
-0.992648, 225, 393, 288, 456
-0.992652, 153, 469, 216, 500
-0.992653, 49, 57, 112, 88
-0.99266, 209, 305, 272, 336
-0.992662, 329, 313, 360, 344
-0.992667, 161, 209, 192, 336
-0.992667, 73, 233, 136, 296
-0.99267, 309, 461, 340, 492
-0.992673, 137, 129, 168, 160
-0.99268, 185, 17, 248, 48
-0.99268, 81, 249, 144, 280
-0.99268, 97, 377, 160, 440
-0.992682, 29, 173, 60, 204
-0.992683, 217, 217, 280, 280
-0.992687, 257, 185, 320, 216
-0.992696, 137, 1, 200, 256
-0.992698, 73, 185, 136, 248
-0.992712, 33, 169, 288, 232
-0.992712, 249, 273, 312, 304
-0.992718, 97, 233, 352, 296
-0.992719, 337, 161, 368, 224
-0.992722, 345, 225, 375, 352
-0.992724, 293, 321, 324, 352
-0.992724, 257, 261, 320, 292
-0.992725, 301, 285, 332, 316
-0.992727, 265, 337, 296, 400
-0.992727, 129, 113, 375, 176
-0.992734, 313, 245, 375, 276
-0.992745, 289, 161, 352, 224
-0.992751, 161, 1, 224, 64
-0.992755, 313, 401, 375, 432
-0.992764, 65, 209, 96, 336
-0.99277, 57, 117, 120, 148
-0.992781, 173, 369, 204, 496
-0.992784, 305, 313, 336, 376
-0.992786, 97, 37, 128, 68
-0.992786, 217, 73, 280, 104
-0.992807, 293, 345, 324, 376
-0.992811, 17, 173, 48, 204
-0.992822, 249, 73, 280, 136
-0.992831, 225, 449, 256, 480
-0.992836, 25, 121, 88, 152
-0.992836, 57, 141, 120, 172
-0.992836, 49, 209, 112, 240
-0.992837, 33, 245, 64, 276
-0.992837, 305, 329, 368, 392
-0.992851, 305, 341, 368, 372
-0.992861, 1, 177, 32, 208
-0.992862, 313, 161, 375, 192
-0.992869, 137, 49, 200, 80
-0.992871, 105, 221, 168, 252
-0.99288, 217, 409, 280, 440
-0.992892, 313, 285, 344, 316
-0.992896, 157, 137, 188, 168
-0.992901, 257, 421, 288, 452
-0.992905, 105, 273, 168, 304
-0.992915, 297, 465, 328, 496
-0.992917, 289, 293, 320, 324
-0.992918, 265, 393, 296, 456
-0.992919, 89, 261, 152, 292
-0.99292, 269, 313, 300, 344
-0.992921, 337, 281, 368, 312
-0.992926, 1, 301, 64, 332
-0.992932, 121, 261, 152, 292
-0.992938, 305, 149, 368, 180
-0.992955, 73, 65, 136, 96
-0.992958, 37, 193, 68, 224
-0.992958, 73, 177, 136, 208
-0.992961, 1, 177, 32, 304
-0.992966, 153, 381, 184, 412
-0.992973, 129, 65, 192, 96
-0.992973, 65, 9, 128, 72
-0.992975, 81, 121, 144, 152
-0.992976, 225, 469, 256, 500
-0.99298, 149, 225, 180, 256
-0.99299, 321, 437, 352, 468
-0.992992, 117, 121, 148, 152
-0.992992, 109, 41, 140, 104
-0.992993, 137, 365, 168, 396
-0.992995, 201, 421, 264, 452
-0.992997, 105, 365, 168, 396
-0.993002, 105, 393, 168, 424
-0.993008, 209, 161, 272, 288
-0.993012, 229, 225, 260, 352
-0.993015, 161, 377, 224, 408
-0.993018, 177, 409, 208, 440
-0.99302, 281, 185, 344, 216
-0.993026, 177, 309, 240, 340
-0.993037, 329, 261, 360, 292
-0.993055, 301, 273, 332, 304
-0.993072, 49, 205, 80, 236
-0.993073, 225, 97, 288, 160
-0.993083, 177, 425, 208, 488
-0.993083, 157, 125, 188, 156
-0.993086, 65, 173, 96, 204
-0.993094, 237, 461, 268, 492
-0.993099, 289, 453, 320, 484
-0.993101, 301, 253, 332, 284
-0.993104, 165, 409, 196, 440
-0.993108, 253, 433, 284, 464
-0.993112, 269, 421, 300, 452
-0.993115, 169, 397, 200, 428
-0.993129, 225, 429, 352, 460
-0.993134, 317, 257, 348, 288
-0.993135, 157, 393, 188, 424
-0.993135, 109, 137, 140, 168
-0.993135, 49, 181, 80, 212
-0.993149, 277, 345, 308, 376
-0.993159, 129, 345, 192, 408
-0.993159, 289, 425, 320, 456
-0.993164, 241, 433, 272, 464
-0.993168, 177, 41, 304, 104
-0.993201, 289, 281, 320, 312
-0.993203, 265, 301, 296, 332
-0.993204, 29, 257, 60, 288
-0.993209, 61, 289, 92, 320
-0.99321, 85, 41, 116, 72
-0.993216, 133, 469, 164, 500
-0.993217, 141, 377, 172, 408
-0.99322, 341, 313, 372, 344
-0.993222, 185, 65, 216, 192
-0.993224, 189, 401, 220, 464
-0.993225, 317, 449, 348, 480
-0.99323, 305, 345, 336, 376
-0.993231, 37, 161, 68, 192
-0.993232, 233, 401, 264, 464
-0.993232, 121, 145, 152, 176
-0.993234, 89, 53, 120, 84
-0.993236, 177, 129, 208, 192
-0.99324, 125, 133, 156, 164
-0.993245, 169, 125, 200, 156
-0.993249, 97, 433, 224, 496
-0.993252, 93, 165, 124, 196
-0.993253, 301, 345, 332, 408
-0.993258, 125, 241, 156, 272
-0.99326, 77, 165, 108, 196
-0.99326, 109, 285, 140, 316
-0.993261, 49, 157, 80, 188
-0.993262, 165, 421, 196, 452
-0.993264, 49, 233, 80, 264
-0.993265, 169, 137, 200, 168
-0.993268, 73, 297, 104, 328
-0.993269, 289, 409, 320, 440
-0.993269, 309, 329, 340, 360
-0.993275, 109, 257, 140, 288
-0.993278, 117, 45, 148, 76
-0.993282, 257, 161, 288, 288
-0.993282, 61, 201, 92, 264
-0.993286, 61, 157, 92, 188
-0.993291, 281, 177, 312, 240
-0.993293, 105, 57, 136, 88
-0.993296, 13, 185, 44, 216
-0.9933, 277, 357, 308, 388
-0.993302, 149, 189, 180, 220
-0.993314, 205, 305, 236, 336
-0.993314, 49, 281, 80, 312
-0.993321, 257, 365, 288, 396
-0.993333, 289, 249, 320, 312
-0.993333, 157, 213, 188, 244
-0.993337, 89, 301, 120, 332
-0.99334, 137, 169, 168, 232
-0.99334, 213, 469, 244, 500
-0.993341, 97, 289, 128, 320
-0.993344, 189, 409, 220, 440
-0.993349, 17, 161, 48, 192
-0.99335, 137, 245, 168, 276
-0.993351, 177, 421, 208, 452
-0.993351, 261, 409, 292, 440
-0.993352, 325, 281, 356, 312
-0.993355, 65, 305, 192, 432
-0.99337, 109, 149, 140, 180
-0.993374, 233, 113, 296, 240
-0.993375, 281, 269, 312, 300
-0.993378, 137, 217, 168, 248
-0.993378, 37, 233, 68, 264
-0.993382, 55, 161, 70, 224
-0.993382, 145, 177, 176, 208
-0.993385, 65, 137, 96, 200
-0.993389, 85, 285, 116, 316
-0.993391, 209, 273, 272, 336
-0.993395, 37, 269, 68, 300
-0.993404, 185, 433, 216, 464
-0.993405, 277, 293, 308, 324
-0.993405, 297, 333, 328, 364
-0.993406, 97, 133, 128, 164
-0.993415, 345, 157, 375, 188
-0.993421, 265, 349, 296, 380
-0.993422, 57, 193, 88, 224
-0.993423, 141, 117, 172, 148
-0.993424, 49, 253, 80, 284
-0.993427, 105, 121, 136, 152
-0.993433, 117, 25, 148, 56
-0.993436, 225, 309, 256, 340
-0.993436, 17, 269, 48, 300
-0.993437, 313, 225, 344, 288
-0.993441, 61, 209, 92, 240
-0.993445, 1, 189, 32, 220
-0.993447, 77, 181, 108, 212
-0.993447, 153, 405, 184, 436
-0.993492, 305, 369, 368, 432
-0.993515, 73, 289, 104, 416
-0.99353, 217, 353, 280, 416
-0.993536, 265, 257, 296, 384
-0.993585, 97, 257, 352, 320
-0.993605, 1, 289, 32, 352
-0.993631, 241, 65, 304, 192
-0.993736, 161, 201, 192, 264
-0.993739, 89, 121, 120, 184
-0.993756, 185, 353, 216, 480
-0.993756, 1, 273, 375, 336
-0.993812, 273, 1, 336, 64
-0.993903, 49, 1, 176, 64
-0.993908, 225, 441, 352, 472
-0.993918, 297, 185, 328, 248
-0.993969, 265, 89, 328, 152
-0.994, 177, 233, 240, 296
-0.994115, 261, 137, 292, 200
-0.994122, 129, 73, 375, 136
-0.994136, 65, 401, 320, 464
-0.994187, 129, 169, 375, 232
-0.994194, 185, 17, 216, 80
-0.994195, 41, 17, 104, 144
-0.99422, 1, 249, 375, 312
-0.994244, 325, 1, 356, 128
-0.994251, 209, 9, 272, 72
-0.994266, 265, 65, 328, 128
-0.994297, 97, 233, 128, 296
-0.994331, 113, 81, 240, 144
-0.994359, 1, 153, 32, 216
-0.994366, 1, 1, 128, 128
-0.994375, 287, 313, 302, 376
-0.994387, 65, 289, 192, 352
-0.994405, 293, 305, 308, 368
-0.994411, 341, 129, 372, 192
-0.99446, 1, 433, 375, 496
-0.994467, 97, 9, 128, 72
-0.994469, 1, 137, 375, 200
-0.994476, 177, 145, 208, 272
-0.994496, 277, 241, 308, 304
-0.994508, 241, 33, 368, 96
-0.994512, 303, 289, 318, 352
-0.994536, 33, 121, 288, 184
-0.99455, 129, 209, 375, 272
-0.994555, 197, 369, 228, 496
-0.994569, 89, 289, 120, 416
-0.994609, 197, 1, 228, 128
-0.994618, 305, 65, 368, 128
-0.99463, 125, 81, 156, 144
-0.994646, 37, 257, 68, 320
-0.994681, 277, 161, 308, 288
-0.994693, 221, 65, 252, 192
-0.994712, 133, 385, 164, 448
-0.994729, 309, 297, 324, 360
-0.994751, 233, 1, 296, 64
-0.994791, 33, 181, 160, 212
-0.994813, 41, 89, 72, 152
-0.994826, 69, 49, 100, 176
-0.994856, 313, 409, 328, 472
-0.994904, 189, 425, 220, 488
-0.994951, 145, 305, 272, 368
-0.994968, 245, 433, 260, 496
-0.994977, 33, 169, 160, 200
-0.995022, 153, 161, 184, 224
-0.995044, 323, 425, 338, 488
-0.99506, 209, 453, 336, 484
-0.995083, 49, 161, 64, 224
-0.995128, 281, 1, 344, 500
-0.995175, 81, 137, 208, 168
-0.995192, 281, 313, 296, 376
-0.995198, 317, 281, 332, 344
-0.995199, 317, 177, 348, 240
-0.995223, 101, 105, 132, 168
-0.995243, 61, 161, 76, 224
-0.995249, 81, 149, 208, 180
-0.995283, 1, 233, 256, 296
-0.995372, 341, 97, 372, 224
-0.995376, 33, 209, 64, 272
-0.99542, 55, 193, 70, 256
-0.995433, 261, 201, 292, 264
-0.995435, 217, 305, 248, 368
-0.995436, 237, 65, 268, 192
-0.995458, 293, 281, 308, 344
-0.995476, 1, 273, 128, 304
-0.995479, 49, 393, 176, 456
-0.995502, 1, 81, 256, 144
-0.995504, 33, 345, 160, 408
-0.995512, 225, 297, 352, 328
-0.995517, 209, 1, 240, 128
-0.995518, 333, 281, 348, 344
-0.99553, 313, 433, 328, 496
-0.995532, 281, 129, 344, 256
-0.995563, 209, 465, 336, 496
-0.995564, 217, 289, 248, 416
-0.995572, 33, 261, 160, 292
-0.995611, 253, 393, 284, 456
-0.995647, 33, 209, 288, 272
-0.99565, 343, 265, 358, 328
-0.995665, 293, 257, 324, 500
-0.995686, 33, 249, 160, 280
-0.995695, 179, 393, 194, 456
-0.995731, 225, 417, 352, 448
-0.995764, 303, 417, 318, 480
-0.995801, 303, 265, 318, 328
-0.995803, 1, 409, 375, 472
-0.995804, 129, 361, 375, 424
-0.995812, 121, 257, 136, 320
-0.995832, 169, 129, 232, 384
-0.995833, 1, 337, 64, 464
-0.995855, 1, 157, 128, 188
-0.995864, 129, 305, 375, 368
-0.995872, 1, 9, 128, 72
-0.995881, 265, 305, 296, 432
-0.995886, 113, 217, 144, 280
-0.995897, 65, 257, 96, 320
-0.995902, 241, 241, 272, 368
-0.995911, 331, 257, 346, 320
-0.995928, 327, 297, 342, 360
-0.995934, 155, 369, 170, 432
-0.995941, 315, 305, 330, 368
-0.995943, 297, 417, 312, 480
-0.995953, 1, 313, 32, 376
-0.995968, 109, 33, 124, 96
-0.995995, 251, 425, 266, 488
-0.996001, 45, 233, 60, 296
-0.996011, 241, 161, 272, 288
-0.996014, 239, 433, 254, 496
-0.996021, 145, 401, 176, 464
-0.996035, 123, 113, 138, 176
-0.996037, 33, 281, 288, 344
-0.996043, 53, 129, 84, 384
-0.996052, 33, 237, 160, 268
-0.996054, 177, 145, 240, 272
-0.996058, 337, 217, 368, 280
-0.996063, 257, 361, 288, 424
-0.99607, 15, 169, 30, 232
-0.996075, 1, 257, 256, 320
-0.996082, 137, 97, 168, 352
-0.996093, 161, 321, 192, 448
-0.996103, 161, 409, 288, 440
-0.996114, 349, 273, 364, 336
-0.99613, 1, 293, 128, 324
-0.996136, 33, 57, 288, 120
-0.996137, 1, 185, 375, 248
-0.996145, 257, 417, 272, 480
-0.996148, 49, 185, 64, 248
-0.996166, 1, 401, 128, 464
-0.996173, 197, 65, 228, 192
-0.99619, 209, 65, 240, 192
-0.996196, 1, 145, 128, 176
-0.996201, 167, 129, 182, 192
-0.996237, 77, 265, 108, 328
-0.996239, 325, 369, 356, 496
-0.996249, 49, 433, 176, 496
-0.996264, 121, 41, 152, 104
-0.996269, 55, 241, 70, 304
-0.996272, 281, 1, 312, 128
-0.996306, 81, 165, 208, 196
-0.99631, 217, 225, 248, 352
-0.99632, 67, 169, 82, 232
-0.996329, 325, 113, 356, 240
-0.996334, 145, 133, 272, 164
-0.996342, 339, 289, 354, 352
-0.996344, 145, 361, 160, 424
-0.996347, 237, 297, 268, 360
-0.99635, 1, 225, 375, 288
-0.996363, 283, 337, 298, 400
-0.996364, 1, 65, 375, 128
-0.996369, 355, 281, 370, 344
-0.996374, 97, 29, 224, 60
-0.996383, 117, 97, 148, 352
-0.996385, 189, 401, 204, 464
-0.996395, 323, 393, 338, 456
-0.996409, 161, 105, 176, 168
-0.996421, 133, 129, 148, 192
-0.996449, 321, 249, 336, 312
-0.996464, 313, 249, 328, 312
-0.996466, 73, 169, 88, 232
-0.996482, 173, 137, 188, 200
-0.996537, 113, 273, 128, 336
-0.996541, 129, 229, 256, 260
-0.996544, 145, 445, 272, 476
-0.996582, 165, 377, 180, 440
-0.996598, 311, 273, 326, 336
-0.996604, 145, 145, 272, 176
-0.996645, 201, 305, 232, 432
-0.996647, 265, 33, 328, 288
-0.996661, 241, 265, 368, 296
-0.996666, 141, 121, 156, 184
-0.996673, 107, 129, 122, 192
-0.996682, 303, 385, 318, 448
-0.996695, 337, 257, 352, 320
-0.99671, 37, 65, 68, 192
-0.996719, 333, 305, 348, 368
-0.996731, 287, 313, 302, 344
-0.996732, 291, 417, 306, 480
-0.996734, 245, 409, 260, 472
-0.996768, 303, 313, 318, 376
-0.996772, 151, 121, 166, 184
-0.996773, 65, 17, 320, 80
-0.996786, 323, 433, 338, 464
-0.996793, 55, 137, 70, 200
-0.996798, 61, 201, 76, 264
-0.996806, 21, 169, 36, 232
-0.996814, 49, 221, 176, 252
-0.996818, 253, 225, 284, 352
-0.996838, 303, 297, 318, 328
-0.996842, 97, 33, 112, 96
-0.996851, 147, 233, 162, 296
-0.996852, 65, 305, 128, 432
-0.996854, 97, 129, 128, 384
-0.996854, 33, 161, 64, 416
-0.996857, 49, 281, 176, 312
-0.996859, 129, 465, 256, 496
-0.99688, 349, 297, 364, 360
-0.996887, 1, 369, 256, 432
-0.996909, 17, 129, 144, 160
-0.996919, 173, 1, 204, 128
-0.996919, 321, 305, 336, 368
-0.996931, 161, 429, 288, 460
-0.996937, 101, 129, 116, 192
-0.996941, 9, 177, 24, 240
-0.996942, 309, 257, 340, 500
-0.996943, 97, 49, 224, 80
-0.996967, 117, 113, 132, 176
-0.996978, 153, 225, 168, 288
-0.99698, 49, 193, 176, 224
-0.996982, 65, 125, 192, 156
-0.996983, 69, 145, 84, 208
-0.996988, 297, 1, 328, 128
-0.996996, 149, 97, 180, 352
-0.996998, 97, 1, 128, 256
-0.996998, 119, 137, 134, 200
-0.997011, 85, 129, 116, 384
-0.997026, 129, 241, 256, 272
-0.997037, 241, 285, 368, 316
-0.997053, 177, 341, 304, 372
-0.997054, 281, 257, 312, 500
-0.997063, 149, 89, 164, 152
-0.997073, 43, 177, 58, 240
-0.997077, 287, 289, 302, 352
-0.997082, 295, 305, 310, 336
-0.997087, 13, 113, 44, 240
-0.997109, 241, 85, 368, 116
-0.997112, 247, 437, 262, 468
-0.99712, 55, 217, 70, 280
-0.997122, 183, 417, 198, 480
-0.997126, 225, 309, 352, 340
-0.997137, 143, 97, 158, 160
-0.997139, 313, 465, 328, 496
-0.997143, 301, 241, 316, 304
-0.997146, 241, 125, 368, 156
-0.997153, 313, 385, 328, 448
-0.997153, 33, 425, 288, 488
-0.997155, 173, 105, 188, 168
-0.997164, 263, 417, 278, 480
-0.997166, 241, 449, 256, 480
-0.997176, 55, 273, 70, 336
-0.997178, 323, 273, 338, 336
-0.997179, 103, 33, 118, 96
-0.997181, 91, 41, 106, 104
-0.997184, 281, 289, 296, 352
-0.997186, 49, 49, 80, 176
-0.99719, 241, 113, 368, 144
-0.997198, 241, 97, 368, 128
-0.997203, 13, 273, 28, 336
-0.997211, 113, 69, 240, 100
-0.997214, 1, 313, 16, 376
-0.997215, 167, 97, 182, 160
-0.997225, 171, 401, 186, 464
-0.997234, 115, 249, 130, 312
-0.997248, 113, 369, 240, 400
-0.997259, 129, 337, 375, 400
-0.997273, 163, 201, 178, 264
-0.997275, 1, 9, 375, 72
-0.997277, 239, 461, 254, 492
-0.997283, 225, 141, 352, 172
-0.997289, 269, 417, 284, 480
-0.99729, 141, 225, 156, 288
-0.997297, 161, 129, 192, 384
-0.997305, 315, 293, 330, 324
-0.997308, 233, 433, 248, 496
-0.997309, 33, 81, 160, 112
-0.997315, 241, 345, 368, 376
-0.997319, 161, 121, 288, 152
-0.997329, 123, 233, 138, 296
-0.99733, 73, 129, 104, 384
-0.997332, 353, 241, 368, 304
-0.99734, 155, 97, 170, 160
-0.997342, 333, 305, 348, 336
-0.997344, 27, 153, 42, 216
-0.997367, 277, 377, 292, 440
-0.997384, 85, 17, 116, 144
-0.997386, 289, 337, 304, 400
-0.997395, 279, 417, 294, 480
-0.99741, 337, 225, 352, 288
-0.99741, 285, 325, 300, 356
-0.997411, 51, 169, 66, 200
-0.997414, 309, 321, 324, 384
-0.997418, 137, 353, 152, 416
-0.997418, 61, 129, 76, 192
-0.997423, 297, 385, 312, 448
-0.997425, 285, 417, 300, 480
-0.997441, 97, 17, 224, 48
-0.997443, 63, 281, 78, 344
-0.997447, 225, 249, 352, 280
-0.997453, 261, 137, 276, 200
-0.997466, 147, 385, 162, 448
-0.997471, 1, 41, 375, 104
-0.997483, 305, 33, 368, 288
-0.997488, 1, 385, 375, 448
-0.997492, 179, 113, 194, 176
-0.997499, 307, 241, 322, 304
-0.997499, 253, 305, 284, 432
-0.997501, 161, 129, 176, 192
-0.997512, 293, 317, 308, 348
-0.997518, 113, 1, 240, 32
-0.997525, 153, 185, 168, 248
-0.997528, 113, 385, 240, 416
-0.997544, 191, 425, 206, 488
-0.997549, 129, 105, 144, 168
-0.99755, 33, 65, 160, 96
-0.997552, 329, 425, 344, 488
-0.997554, 161, 165, 288, 196
-0.997557, 81, 177, 208, 208
-0.997569, 313, 417, 328, 448
-0.997571, 129, 281, 375, 344
-0.997576, 277, 353, 292, 416
-0.997585, 19, 265, 34, 328
-0.99759, 309, 297, 324, 328
-0.997592, 295, 293, 310, 324
-0.997596, 173, 377, 188, 440
-0.997601, 247, 453, 262, 484
-0.997604, 81, 289, 96, 352
-0.997616, 301, 457, 316, 488
-0.997631, 225, 369, 256, 496
-0.997636, 33, 153, 48, 216
-0.997637, 145, 213, 272, 244
-0.997644, 177, 13, 304, 44
-0.997646, 195, 401, 210, 464
-0.997654, 99, 153, 114, 216
-0.997655, 115, 33, 130, 96
-0.997661, 325, 301, 340, 332
-0.997662, 1, 193, 128, 224
-0.997666, 241, 157, 368, 188
-0.997668, 241, 1, 304, 256
-0.997668, 321, 257, 352, 500
-0.997679, 33, 113, 160, 144
-0.997694, 97, 273, 224, 304
-0.997696, 205, 225, 236, 352
-0.997701, 49, 37, 176, 68
-0.997713, 241, 69, 368, 100
-0.997723, 161, 73, 288, 104
-0.997736, 331, 293, 346, 324
-0.997744, 123, 261, 138, 292
-0.997751, 85, 33, 116, 288
-0.997764, 129, 49, 375, 112
-0.997766, 339, 301, 354, 332
-0.997769, 307, 461, 322, 492
-0.997773, 241, 321, 368, 352
-0.997774, 291, 333, 306, 364
-0.997783, 297, 49, 360, 176
-0.997788, 97, 161, 128, 288
-0.997795, 269, 49, 300, 176
-0.997813, 49, 197, 64, 228
-0.997827, 33, 49, 160, 80
-0.997834, 225, 185, 352, 216
-0.99785, 225, 209, 352, 240
-0.997856, 113, 397, 240, 428
-0.997871, 65, 377, 192, 408
-0.997872, 81, 233, 208, 264
-0.997884, 193, 281, 320, 312
-0.99789, 317, 449, 332, 480
-0.997897, 161, 377, 288, 408
-0.997903, 113, 117, 240, 148
-0.99791, 61, 205, 76, 236
-0.99791, 257, 425, 272, 456
-0.997914, 309, 161, 340, 416
-0.997918, 97, 409, 224, 440
-0.997919, 279, 317, 294, 348
-0.997921, 1, 105, 375, 168
-0.997935, 305, 341, 320, 372
-0.997951, 109, 1, 140, 256
-0.997951, 241, 5, 368, 36
-0.997958, 301, 285, 316, 316
-0.997959, 55, 197, 70, 228
-0.99797, 301, 309, 316, 340
-0.997972, 45, 237, 60, 268
-0.997979, 177, 309, 304, 340
-0.997986, 37, 65, 68, 320
-0.998003, 109, 225, 140, 480
-0.998012, 225, 357, 352, 388
-0.99803, 161, 105, 288, 136
-0.998033, 45, 185, 60, 216
-0.998034, 233, 289, 264, 416
-0.998042, 17, 65, 80, 192
-0.998043, 315, 305, 330, 336
-0.998049, 49, 293, 176, 324
-0.998049, 97, 261, 224, 292
-0.998069, 289, 161, 320, 416
-0.998078, 81, 205, 208, 236
-0.99808, 15, 177, 30, 208
-0.998086, 1, 205, 128, 236
-0.998101, 323, 445, 338, 476
-0.998125, 193, 329, 320, 360
-0.998126, 333, 225, 364, 480
-0.998128, 329, 441, 344, 472
-0.998131, 307, 309, 322, 340
-0.998136, 285, 337, 300, 368
-0.998137, 183, 405, 198, 436
-0.998138, 225, 169, 352, 200
-0.998138, 209, 369, 240, 496
-0.99814, 327, 313, 342, 344
-0.998152, 161, 389, 288, 420
-0.998154, 337, 129, 368, 384
-0.998157, 293, 345, 308, 376
-0.99816, 319, 465, 334, 496
-0.998163, 299, 337, 314, 368
-0.99818, 269, 257, 300, 500
-0.998183, 129, 177, 256, 208
-0.998195, 113, 285, 128, 316
-0.998197, 301, 425, 316, 456
-0.998203, 157, 221, 172, 252
-0.998207, 263, 421, 278, 452
-0.998208, 321, 285, 336, 316
-0.998214, 253, 437, 268, 468
-0.998221, 241, 437, 256, 468
-0.998223, 201, 129, 264, 384
-0.998223, 169, 137, 184, 168
-0.998227, 1, 337, 128, 464
-0.998227, 61, 169, 76, 200
-0.998238, 43, 173, 58, 204
-0.998238, 97, 285, 224, 316
-0.998243, 285, 421, 300, 452
-0.998244, 111, 37, 126, 68
-0.99825, 193, 269, 320, 300
-0.998251, 9, 181, 24, 212
-0.998251, 173, 389, 188, 420
-0.998256, 1, 337, 32, 464
-0.998263, 245, 469, 260, 500
-0.998263, 241, 229, 368, 260
-0.998263, 161, 381, 176, 412
-0.998275, 21, 173, 36, 204
-0.998277, 359, 293, 374, 324
-0.998281, 337, 261, 352, 292
-0.998282, 297, 445, 312, 476
-0.998284, 235, 449, 250, 480
-0.998286, 137, 1, 168, 128
-0.998287, 177, 409, 192, 440
-0.998291, 133, 193, 164, 448
-0.998292, 287, 301, 302, 332
-0.998293, 161, 1, 288, 32
-0.998296, 129, 1, 160, 256
-0.998301, 321, 313, 336, 344
-0.998301, 1, 181, 16, 212
-0.998302, 1, 297, 375, 360
-0.998315, 189, 417, 204, 448
-0.998326, 97, 321, 224, 384
-0.998327, 349, 281, 364, 312
-0.998328, 173, 97, 204, 352
-0.998331, 51, 185, 66, 216
-0.998332, 161, 365, 288, 396
-0.998337, 333, 317, 348, 348
-0.998338, 81, 245, 208, 276
-0.99834, 133, 237, 164, 252
-0.99834, 277, 303, 308, 318
-0.998341, 45, 283, 76, 298
-0.998342, 145, 397, 176, 412
-0.998342, 301, 485, 332, 500
-0.998343, 285, 455, 316, 470
-0.998344, 289, 427, 320, 442
-0.998344, 145, 281, 272, 344
-0.998345, 73, 299, 104, 314
-0.998345, 289, 417, 320, 432
-0.998346, 53, 195, 84, 210
-0.998346, 301, 441, 332, 456
-0.998346, 273, 339, 304, 354
-0.998347, 321, 447, 352, 462
-0.998347, 171, 409, 186, 440
-0.998347, 253, 431, 284, 446
-0.998349, 149, 133, 180, 148
-0.99835, 133, 379, 164, 394
-0.99835, 281, 357, 312, 372
-0.998352, 143, 125, 158, 156
-0.998352, 109, 485, 140, 500
-0.998352, 169, 403, 200, 418
-0.998353, 145, 193, 176, 208
-0.998353, 89, 295, 120, 310
-0.998354, 281, 285, 312, 300
-0.998355, 213, 471, 244, 486
-0.998357, 301, 257, 332, 272
-0.998358, 345, 301, 375, 316
-0.998358, 73, 171, 104, 186
-0.998358, 301, 475, 332, 490
-0.99836, 113, 193, 240, 224
-0.99836, 241, 457, 272, 472
-0.99836, 233, 439, 264, 454
-0.99836, 121, 251, 152, 266
-0.998362, 249, 367, 280, 382
-0.998364, 237, 485, 268, 500
-0.998364, 109, 259, 140, 274
-0.998364, 29, 259, 60, 274
-0.998364, 177, 409, 208, 424
-0.998365, 33, 245, 64, 260
-0.998365, 345, 313, 360, 344
-0.998366, 337, 289, 368, 304
-0.998367, 61, 173, 92, 188
-0.998367, 97, 55, 128, 70
-0.998368, 325, 129, 356, 384
-0.998368, 313, 485, 344, 500
-0.998369, 331, 281, 346, 312
-0.998369, 325, 295, 356, 310
-0.998369, 185, 437, 216, 452
-0.998369, 205, 309, 236, 324
-0.998374, 301, 281, 332, 296
-0.998374, 161, 387, 192, 402
-0.998374, 345, 297, 360, 328
-0.998376, 297, 339, 328, 354
-0.998377, 289, 291, 320, 306
-0.998378, 1, 345, 256, 408
-0.998378, 265, 307, 296, 322
-0.998379, 49, 189, 80, 204
-0.998379, 237, 475, 268, 490
-0.998379, 351, 305, 366, 336
-0.998381, 45, 205, 76, 220
-0.998381, 249, 437, 280, 452
-0.998382, 225, 475, 256, 490
-0.998383, 157, 401, 188, 416
-0.998383, 177, 415, 208, 430
-0.998383, 281, 333, 312, 348
-0.998383, 301, 427, 332, 442
-0.998383, 277, 425, 308, 440
-0.998383, 229, 461, 260, 476
-0.998384, 289, 309, 352, 324
-0.998385, 17, 173, 48, 188
-0.998386, 133, 371, 164, 386
-0.998387, 57, 209, 88, 224
-0.998387, 49, 177, 80, 192
-0.998388, 341, 315, 372, 330
-0.998388, 33, 189, 64, 204
-0.998388, 13, 187, 44, 202
-0.998391, 319, 421, 334, 452
-0.998391, 157, 139, 188, 154
-0.998391, 241, 393, 368, 424
-0.998392, 281, 345, 312, 360
-0.998394, 177, 353, 304, 384
-0.998394, 283, 353, 298, 384
-0.998395, 337, 295, 368, 310
-0.998395, 163, 221, 178, 252
-0.998396, 1, 177, 32, 192
-0.998397, 245, 445, 276, 460
-0.998399, 97, 37, 128, 52
-0.998399, 145, 383, 176, 398
-0.9984, 49, 183, 80, 198
-0.998401, 337, 307, 368, 322
-0.998403, 289, 299, 320, 314
-0.998403, 289, 461, 320, 476
-0.998404, 41, 199, 72, 214
-0.998405, 297, 353, 328, 368
-0.998405, 313, 289, 344, 304
-0.998405, 153, 231, 184, 246
-0.998406, 309, 435, 340, 450
-0.998406, 269, 321, 300, 336
-0.998407, 113, 421, 240, 452
-0.998408, 225, 455, 256, 470
-0.99841, 167, 385, 182, 416
-0.998411, 137, 131, 168, 146
-0.998413, 133, 481, 164, 496
-0.998415, 121, 483, 152, 498
-0.998415, 325, 257, 340, 288
-0.998418, 33, 251, 64, 266
-0.998419, 169, 397, 200, 412
-0.998426, 305, 459, 336, 474
-0.998427, 289, 327, 320, 342
-0.998427, 293, 347, 324, 362
-0.998428, 121, 263, 152, 278
-0.998429, 157, 407, 188, 422
-0.998429, 225, 469, 256, 484
-0.998435, 299, 349, 314, 380
-0.998435, 9, 179, 72, 194
-0.998438, 309, 1, 340, 128
-0.998445, 37, 171, 68, 186
-0.998447, 25, 171, 88, 186
-0.998447, 301, 287, 332, 302
-0.998448, 307, 445, 322, 476
-0.998449, 281, 309, 312, 324
-0.998449, 67, 169, 82, 200
-0.998449, 309, 319, 340, 334
-0.99845, 27, 169, 42, 200
-0.99845, 225, 481, 256, 496
-0.998453, 81, 105, 208, 136
-0.998455, 305, 301, 368, 316
-0.998455, 21, 161, 52, 416
-0.998464, 315, 281, 330, 312
-0.998468, 165, 413, 196, 428
-0.998469, 285, 339, 316, 354
-0.99847, 289, 315, 352, 330
-0.998472, 149, 391, 180, 406
-0.998472, 313, 295, 344, 310
-0.998474, 1, 225, 32, 480
-0.998477, 233, 445, 264, 460
-0.998477, 29, 183, 60, 198
-0.998478, 321, 441, 352, 456
-0.99848, 333, 301, 364, 316
-0.998481, 273, 327, 304, 342
-0.998482, 151, 233, 166, 264
-0.998482, 161, 85, 288, 116
-0.998483, 309, 465, 340, 480
-0.998486, 277, 305, 292, 336
-0.998492, 121, 225, 152, 480
-0.998497, 293, 425, 308, 456
-0.998497, 269, 421, 284, 452
-0.998498, 301, 447, 332, 462
-0.9985, 261, 423, 292, 438
-0.998504, 65, 397, 192, 428
-0.998505, 95, 41, 110, 72
-0.998506, 285, 321, 316, 336
-0.998506, 153, 129, 168, 160
-0.998509, 55, 277, 70, 308
-0.998512, 49, 173, 112, 188
-0.998513, 149, 193, 180, 448
-0.998513, 119, 141, 134, 172
-0.998513, 301, 421, 332, 436
-0.998514, 305, 453, 336, 468
-0.998514, 307, 285, 322, 316
-0.998516, 189, 405, 204, 436
-0.998517, 33, 173, 48, 204
-0.998518, 301, 293, 332, 308
-0.998518, 325, 311, 356, 326
-0.998518, 237, 451, 268, 466
-0.998519, 257, 425, 320, 440
-0.99852, 265, 309, 328, 324
-0.99852, 313, 301, 344, 316
-0.998521, 159, 125, 174, 156
-0.998527, 293, 315, 324, 330
-0.998528, 281, 303, 344, 318
-0.998529, 329, 319, 360, 334
-0.998529, 309, 329, 324, 360
-0.99853, 105, 485, 168, 500
-0.998535, 313, 313, 344, 328
-0.998537, 331, 261, 346, 292
-0.99854, 179, 393, 194, 424
-0.998544, 73, 173, 88, 204
-0.998544, 129, 143, 192, 158
-0.998546, 289, 295, 352, 310
-0.998552, 49, 179, 112, 194
-0.998553, 49, 25, 176, 56
-0.998554, 121, 121, 136, 152
-0.998555, 9, 277, 72, 292
-0.998555, 13, 179, 44, 194
-0.998556, 129, 481, 192, 496
-0.998556, 289, 453, 352, 468
-0.998557, 281, 421, 344, 436
-0.998558, 313, 307, 375, 322
-0.99856, 353, 161, 368, 192
-0.99856, 281, 315, 312, 330
-0.998561, 29, 177, 60, 192
-0.998562, 1, 183, 32, 198
-0.998562, 117, 257, 132, 288
-0.998562, 51, 233, 66, 264
-0.998563, 313, 313, 375, 328
-0.998566, 129, 137, 192, 152
-0.998566, 231, 469, 246, 500
-0.998568, 141, 237, 156, 268
-0.998568, 9, 185, 72, 200
-0.998568, 339, 289, 354, 320
-0.998569, 313, 295, 375, 310
-0.99857, 265, 315, 328, 330
-0.998571, 57, 185, 72, 216
-0.998572, 177, 49, 304, 80
-0.998574, 293, 281, 308, 312
-0.998575, 49, 167, 112, 182
-0.998577, 307, 417, 322, 448
-0.998581, 137, 129, 152, 160
-0.998581, 325, 273, 340, 304
-0.998581, 19, 269, 34, 300
-0.998582, 9, 271, 72, 286
-0.998583, 201, 469, 264, 484
-0.998583, 275, 421, 290, 452
-0.998585, 289, 281, 352, 296
-0.998586, 273, 345, 336, 360
-0.998587, 297, 261, 360, 276
-0.998587, 137, 395, 200, 410
-0.998587, 233, 447, 296, 462
-0.998588, 27, 257, 42, 288
-0.998591, 153, 411, 216, 426
-0.998592, 281, 427, 344, 442
-0.998593, 113, 131, 176, 146
-0.998594, 9, 265, 72, 280
-0.998595, 147, 365, 162, 396
-0.998595, 65, 287, 128, 302
-0.998597, 17, 469, 144, 500
-0.9986, 303, 241, 318, 368
-0.9986, 89, 41, 152, 56
-0.998603, 61, 33, 92, 288
-0.998604, 313, 307, 344, 322
-0.998604, 127, 129, 142, 160
-0.998604, 311, 345, 326, 376
-0.998606, 57, 157, 72, 188
-0.998606, 145, 231, 208, 246
-0.998606, 133, 141, 148, 172
-0.998606, 201, 453, 264, 468
-0.998607, 281, 321, 344, 336
-0.998608, 49, 171, 80, 186
-0.998608, 289, 289, 352, 304
-0.998608, 103, 53, 118, 84
-0.998609, 71, 293, 86, 324
-0.998609, 65, 157, 80, 188
-0.99861, 273, 479, 336, 494
-0.998611, 153, 135, 216, 150
-0.998611, 281, 351, 344, 366
-0.998612, 129, 385, 192, 400
-0.998612, 9, 191, 72, 206
-0.998613, 301, 299, 332, 314
-0.998615, 233, 453, 296, 468
-0.998617, 289, 447, 352, 462
-0.998617, 281, 331, 344, 346
-0.998618, 201, 461, 264, 476
-0.998619, 1, 173, 64, 188
-0.99862, 257, 301, 320, 316
-0.998621, 313, 287, 375, 302
-0.998624, 97, 53, 160, 68
-0.998624, 209, 441, 272, 456
-0.998626, 9, 259, 72, 274
-0.998628, 233, 309, 296, 324
-0.998629, 281, 433, 344, 448
-0.99863, 305, 321, 368, 336
-0.998631, 313, 485, 375, 500
-0.998632, 289, 255, 352, 270
-0.998632, 145, 401, 208, 416
-0.998633, 297, 463, 360, 478
-0.998634, 65, 295, 128, 310
-0.998635, 49, 187, 112, 202
-0.998636, 313, 443, 375, 458
-0.998636, 129, 149, 192, 164
-0.998637, 153, 129, 216, 144
-0.99864, 257, 339, 320, 354
-0.998641, 289, 275, 352, 290
-0.998641, 305, 469, 368, 484
-0.998642, 313, 279, 375, 294
-0.998642, 105, 249, 168, 264
-0.998645, 281, 337, 344, 352
-0.998646, 153, 485, 216, 500
-0.998646, 241, 437, 304, 452
-0.998646, 9, 165, 72, 180
-0.998648, 113, 263, 176, 278
-0.99865, 265, 295, 328, 310
-0.99865, 257, 359, 320, 374
-0.998654, 293, 309, 324, 324
-0.998654, 201, 475, 264, 490
-0.998655, 145, 237, 208, 252
-0.998656, 25, 251, 88, 266
-0.998657, 273, 473, 336, 488
-0.998657, 225, 469, 288, 484
-0.998659, 289, 441, 352, 456
-0.998659, 121, 199, 184, 214
-0.998659, 129, 379, 192, 394
-0.998661, 317, 241, 332, 368
-0.998661, 113, 125, 176, 140
-0.998662, 209, 447, 272, 462
-0.998664, 121, 191, 184, 206
-0.998664, 73, 167, 136, 182
-0.998664, 65, 93, 192, 124
-0.998664, 249, 431, 312, 446
-0.998664, 9, 283, 72, 298
-0.998665, 97, 35, 160, 50
-0.998665, 249, 321, 312, 336
-0.998666, 89, 47, 152, 62
-0.998666, 169, 417, 232, 432
-0.998667, 41, 295, 104, 310
-0.998669, 17, 201, 80, 216
-0.998669, 25, 289, 88, 304
-0.99867, 289, 267, 352, 282
-0.99867, 65, 301, 128, 316
-0.998671, 249, 327, 312, 342
-0.998671, 257, 353, 320, 368
-0.998672, 241, 367, 304, 382
-0.998673, 169, 391, 232, 406
-0.998673, 193, 309, 256, 324
-0.998673, 49, 161, 112, 176
-0.998675, 89, 137, 152, 152
-0.998675, 113, 255, 176, 270
-0.998676, 97, 61, 160, 76
-0.998676, 305, 419, 368, 434
-0.998677, 169, 147, 232, 162
-0.998678, 65, 281, 128, 296
-0.998678, 89, 125, 152, 140
-0.998678, 49, 193, 112, 208
-0.998679, 257, 417, 320, 432
-0.998679, 97, 243, 160, 258
-0.99868, 105, 237, 168, 252
-0.99868, 209, 377, 336, 408
-0.998681, 209, 435, 272, 450
-0.998682, 249, 333, 312, 348
-0.998682, 105, 289, 168, 304
-0.998683, 97, 147, 160, 162
-0.998683, 137, 421, 200, 436
-0.998683, 81, 259, 144, 274
-0.998684, 129, 413, 192, 428
-0.998684, 265, 463, 328, 478
-0.998685, 137, 123, 200, 138
-0.998687, 313, 437, 375, 452
-0.998691, 73, 33, 104, 288
-0.998693, 177, 225, 304, 256
-0.998707, 277, 161, 308, 416
-0.998716, 261, 129, 292, 384
-0.998731, 193, 237, 320, 268
-0.998739, 113, 357, 240, 388
-0.998756, 241, 57, 368, 88
-0.998757, 49, 13, 176, 44
-0.998781, 161, 201, 288, 232
-0.998782, 61, 257, 92, 500
-0.998794, 225, 405, 352, 436
-0.998814, 1, 305, 128, 336
-0.998832, 181, 1, 212, 256
-0.998832, 97, 217, 224, 248
-0.998845, 161, 33, 192, 288
-0.998849, 129, 321, 192, 448
-0.998883, 41, 273, 72, 400
-0.998886, 53, 145, 68, 272
-0.9989, 49, 225, 80, 480
-0.998909, 309, 241, 324, 368
-0.998932, 45, 177, 60, 304
-0.998948, 25, 65, 56, 320
-0.998972, 81, 469, 208, 500
-0.998977, 49, 1, 176, 32
-0.99898, 177, 25, 304, 56
-0.99898, 329, 241, 344, 368
-0.999004, 163, 129, 178, 256
-0.999022, 241, 333, 368, 364
-0.999023, 297, 273, 312, 400
-0.999037, 13, 257, 44, 500
-0.999037, 177, 37, 304, 68
-0.999045, 177, 297, 304, 328
-0.999048, 31, 161, 46, 288
-0.99905, 337, 241, 352, 368
-0.999052, 313, 289, 328, 416
-0.999055, 1, 305, 256, 368
-0.999056, 161, 61, 288, 92
-0.999056, 177, 177, 304, 208
-0.999058, 323, 241, 338, 368
-0.999058, 241, 1, 272, 256
-0.999063, 61, 145, 76, 272
-0.999068, 49, 365, 176, 396
-0.999078, 303, 289, 318, 416
-0.99909, 135, 113, 150, 240
-0.999102, 169, 129, 184, 256
-0.999102, 277, 337, 292, 464
-0.999103, 345, 257, 360, 384
-0.999116, 55, 193, 70, 320
-0.999119, 77, 257, 108, 500
-0.999126, 141, 113, 156, 240
-0.999127, 49, 409, 176, 440
-0.999149, 49, 33, 80, 288
-0.999158, 149, 113, 164, 240
-0.999158, 309, 369, 324, 496
-0.999159, 117, 113, 132, 240
-0.999162, 1, 361, 375, 424
-0.999163, 97, 257, 128, 500
-0.999167, 157, 129, 172, 256
-0.999171, 145, 1, 176, 256
-0.999177, 1, 129, 32, 256
-0.999177, 145, 321, 176, 448
-0.999182, 285, 305, 300, 432
-0.999191, 127, 113, 142, 240
-0.999192, 123, 241, 138, 368
-0.999204, 1, 329, 375, 392
-0.999206, 37, 177, 52, 304
-0.99921, 111, 49, 126, 176
-0.999212, 97, 453, 224, 484
-0.999218, 241, 197, 368, 228
-0.999227, 321, 193, 336, 320
-0.999231, 193, 225, 224, 352
-0.999249, 17, 97, 144, 128
-0.99925, 105, 113, 120, 240
-0.999251, 145, 177, 160, 304
-0.999252, 111, 113, 126, 240
-0.999261, 173, 209, 204, 336
-0.999268, 319, 289, 334, 416
-0.999268, 291, 225, 306, 352
-0.999269, 93, 65, 108, 192
-0.999272, 321, 369, 336, 496
-0.999273, 129, 313, 256, 344
-0.99928, 85, 113, 100, 240
-0.999286, 295, 369, 310, 496
-0.999292, 113, 89, 240, 120
-0.999294, 133, 65, 148, 192
-0.999296, 297, 225, 312, 352
-0.9993, 257, 257, 288, 500
-0.999301, 303, 353, 318, 480
-0.999302, 61, 209, 76, 336
-0.999308, 1, 305, 16, 432
-0.999311, 163, 81, 178, 208
-0.999312, 139, 177, 154, 304
-0.999312, 175, 129, 190, 256
-0.999315, 1, 225, 128, 256
-0.999317, 173, 369, 188, 496
-0.999318, 105, 49, 120, 176
-0.999318, 39, 113, 54, 240
-0.999319, 1, 37, 128, 68
-0.999319, 69, 113, 84, 240
-0.999328, 271, 337, 286, 464
-0.999331, 99, 113, 114, 240
-0.999335, 75, 161, 90, 288
-0.999335, 291, 289, 306, 416
-0.999336, 157, 81, 172, 208
-0.999338, 345, 257, 375, 500
-0.999345, 315, 193, 330, 320
-0.999349, 139, 65, 154, 192
-0.999352, 49, 225, 64, 352
-0.999352, 327, 193, 342, 320
-0.999352, 249, 129, 280, 384
-0.99936, 153, 209, 168, 336
-0.999366, 327, 289, 342, 416
-0.999369, 23, 177, 38, 304
-0.999375, 265, 209, 296, 336
-0.999376, 289, 369, 304, 496
-0.99938, 247, 1, 262, 128
-0.999389, 91, 113, 106, 240
-0.999393, 241, 1, 256, 128
-0.999394, 67, 161, 82, 288
-0.999396, 79, 97, 94, 224
-0.9994, 351, 241, 366, 368
-0.999404, 169, 81, 184, 208
-0.999411, 307, 193, 322, 320
-0.999421, 113, 273, 128, 400
-0.999422, 201, 225, 232, 480
-0.999424, 297, 321, 312, 448
-0.999429, 145, 65, 160, 192
-0.999431, 103, 1, 118, 128
-0.999432, 265, 369, 280, 496
-0.999435, 245, 257, 276, 500
-0.999437, 315, 337, 330, 464
-0.999439, 113, 209, 128, 336
-0.999439, 131, 241, 146, 368
-0.99944, 189, 1, 204, 128
-0.999446, 117, 65, 132, 192
-0.999446, 253, 369, 268, 496
-0.999452, 151, 49, 166, 176
-0.999452, 263, 129, 278, 256
-0.999452, 283, 353, 298, 480
-0.999456, 133, 193, 148, 320
-0.999457, 123, 193, 138, 320
-0.999458, 125, 65, 140, 192
-0.999458, 159, 193, 174, 320
-0.999462, 99, 49, 114, 176
-0.999462, 9, 129, 40, 384
-0.999464, 9, 273, 24, 400
-0.999468, 261, 65, 276, 192
-0.999469, 255, 1, 270, 128
-0.999469, 155, 369, 170, 496
-0.999473, 33, 113, 48, 240
-0.999475, 205, 1, 236, 256
-0.999476, 147, 353, 162, 480
-0.999485, 55, 241, 70, 368
-0.999491, 241, 369, 256, 496
-0.999493, 45, 113, 60, 240
-0.999497, 175, 81, 190, 208
-0.999497, 37, 257, 68, 500
-0.999504, 81, 161, 96, 288
-0.999505, 53, 97, 68, 224
-0.999506, 151, 161, 166, 288
-0.999507, 61, 97, 76, 224
-0.999507, 235, 1, 250, 128
-0.999508, 163, 369, 178, 496
-0.999509, 71, 273, 86, 400
-0.99951, 5, 225, 36, 352
-0.999511, 107, 273, 122, 400
-0.999517, 225, 225, 256, 480
-0.99952, 103, 225, 118, 352
-0.999522, 111, 1, 126, 128
-0.999523, 19, 257, 34, 384
-0.999524, 147, 225, 162, 352
-0.999525, 335, 177, 350, 304
-0.999526, 265, 1, 280, 128
-0.999526, 139, 225, 154, 352
-0.999527, 299, 161, 314, 288
-0.99953, 27, 113, 42, 240
-0.999534, 43, 225, 58, 352
-0.999539, 17, 161, 32, 288
-0.999539, 343, 209, 358, 336
-0.999544, 185, 369, 200, 496
-0.999545, 245, 469, 260, 484
-0.999545, 111, 57, 126, 72
-0.999546, 305, 469, 320, 484
-0.999546, 155, 381, 170, 396
-0.999546, 7, 187, 22, 202
-0.999546, 301, 145, 332, 272
-0.999547, 301, 427, 316, 442
-0.999547, 27, 241, 42, 368
-0.999547, 87, 65, 102, 192
-0.999548, 145, 237, 160, 252
-0.999548, 195, 1, 210, 128
-0.999548, 169, 139, 184, 154
-0.99955, 53, 183, 68, 198
-0.99955, 283, 353, 298, 368
-0.999551, 73, 295, 88, 310
-0.999551, 275, 423, 290, 438
-0.999552, 25, 185, 40, 200
-0.999553, 227, 471, 242, 486
-0.999553, 167, 387, 182, 402
-0.999553, 337, 307, 352, 322
-0.999554, 161, 135, 176, 150
-0.999555, 359, 293, 374, 308
-0.999555, 295, 449, 310, 464
-0.999556, 145, 389, 160, 404
-0.999556, 161, 223, 176, 238
-0.999557, 153, 479, 168, 494
-0.999557, 165, 193, 180, 320
-0.99956, 329, 437, 344, 452
-0.99956, 67, 291, 82, 306
-0.999561, 1, 189, 16, 204
-0.999562, 63, 171, 78, 186
-0.999562, 325, 295, 340, 310
-0.999562, 271, 1, 286, 128
-0.999562, 79, 289, 94, 416
-0.999563, 165, 395, 180, 410
-0.999563, 155, 231, 170, 246
-0.999565, 305, 455, 320, 470
-0.999566, 41, 167, 56, 182
-0.999567, 253, 449, 268, 464
-0.999567, 351, 289, 366, 416
-0.999568, 303, 351, 318, 366
-0.999568, 285, 423, 300, 438
-0.999569, 171, 415, 186, 430
-0.999569, 19, 185, 34, 200
-0.999572, 307, 423, 322, 438
-0.999572, 169, 401, 184, 416
-0.999572, 47, 241, 62, 256
-0.999573, 357, 241, 372, 368
-0.999573, 261, 367, 276, 382
-0.999574, 245, 459, 260, 474
-0.999574, 281, 323, 296, 338
-0.999574, 253, 437, 268, 452
-0.999574, 127, 483, 142, 498
-0.999576, 297, 347, 312, 362
-0.999576, 307, 475, 322, 490
-0.999576, 333, 319, 348, 334
-0.999577, 301, 317, 316, 332
-0.999577, 289, 357, 304, 372
-0.999578, 303, 285, 318, 300
-0.999579, 193, 1, 224, 256
-0.999581, 341, 319, 356, 334
-0.999581, 321, 455, 336, 470
-0.999582, 293, 321, 308, 336
-0.999583, 129, 477, 144, 492
-0.999584, 341, 33, 372, 288
-0.999587, 61, 209, 76, 224
-0.999589, 161, 383, 176, 398
-0.99959, 117, 257, 132, 272
-0.99959, 307, 315, 322, 330
-0.999591, 291, 327, 306, 342
-0.999592, 293, 291, 308, 306
-0.999595, 177, 411, 192, 426
-0.999595, 243, 475, 258, 490
-0.999596, 13, 185, 28, 200
-0.999597, 173, 389, 188, 404
-0.999597, 51, 175, 66, 190
-0.999598, 295, 297, 310, 312
-0.999598, 43, 183, 58, 198
-0.999601, 175, 397, 190, 412
-0.999601, 47, 193, 62, 208
-0.999603, 297, 337, 312, 352
-0.999603, 35, 183, 50, 198
-0.999604, 51, 199, 66, 214
-0.999605, 173, 225, 204, 480
-0.999607, 327, 315, 342, 330
-0.999608, 255, 431, 270, 446
-0.99961, 315, 309, 330, 324
-0.999611, 331, 307, 346, 322
-0.999611, 57, 169, 72, 184
-0.999611, 319, 293, 334, 308
-0.999612, 309, 483, 324, 498
-0.999614, 167, 409, 182, 424
-0.999614, 303, 291, 318, 306
-0.999618, 235, 455, 250, 470
-0.999619, 299, 455, 314, 470
-0.999623, 263, 423, 278, 438
-0.999625, 269, 423, 284, 438
-0.999627, 287, 341, 302, 356
-0.999628, 321, 313, 336, 328
-0.999631, 331, 297, 346, 312
-0.999631, 303, 461, 318, 476
-0.999639, 57, 203, 72, 218
-0.999639, 293, 305, 308, 320
-0.999641, 307, 307, 322, 322
-0.999642, 313, 475, 328, 490
-0.999643, 1, 183, 16, 198
-0.999645, 239, 461, 254, 476
-0.999647, 237, 479, 252, 494
-0.999648, 287, 321, 302, 336
-0.999648, 247, 439, 262, 454
-0.99965, 7, 181, 22, 196
-0.999652, 307, 345, 322, 360
-0.999653, 123, 263, 138, 278
-0.999657, 313, 467, 328, 482
-0.999657, 313, 295, 328, 310
-0.999658, 285, 335, 300, 350
-0.999659, 33, 175, 48, 190
-0.999661, 321, 301, 336, 316
-0.999663, 217, 1, 248, 256
-0.999667, 239, 485, 254, 500
-0.99967, 333, 313, 348, 328
-0.99967, 291, 333, 306, 348
-0.999672, 25, 177, 40, 192
-0.999675, 307, 301, 322, 316
-0.999678, 17, 179, 32, 194
-0.99968, 51, 169, 66, 184
-0.999686, 309, 461, 324, 476
-0.999694, 41, 177, 56, 192
-0.999694, 237, 471, 252, 486
-0.999695, 293, 311, 308, 326
-0.999697, 283, 329, 298, 344
-0.999702, 287, 315, 302, 330
-0.999712, 185, 129, 216, 384
-0.999712, 325, 307, 340, 322
-0.999717, 301, 307, 316, 322
-0.999717, 81, 345, 208, 408
-0.999718, 313, 419, 328, 434
-0.999721, 301, 301, 316, 316
-0.999721, 323, 435, 338, 450
-0.999723, 315, 303, 330, 318
-0.999733, 315, 481, 330, 496
-0.999743, 247, 453, 262, 468
-0.999745, 245, 445, 260, 460
-0.999763, 105, 321, 168, 448
-0.999774, 241, 451, 256, 466
-0.999783, 323, 441, 338, 456
-0.999788, 253, 1, 284, 256
-0.999792, 213, 193, 244, 448
-0.999797, 1, 369, 128, 432
-0.999813, 229, 1, 260, 256
-0.999845, 161, 225, 192, 480
-0.999887, 185, 225, 216, 480
-0.999969, 25, 257, 56, 500
-1, 13, 33, 44, 288
-1.00001, 209, 113, 272, 240
-1.00006, 329, 33, 360, 288
-1.00008, 237, 129, 268, 384
-1.00009, 33, 369, 96, 496
-1.00015, 269, 1, 300, 256
-1.00024, 197, 129, 228, 384
-1.0003, 309, 65, 340, 320
-1.00044, 217, 97, 248, 352
-1.00046, 1, 425, 128, 488
-1.00048, 1, 17, 64, 144
-1.00051, 145, 257, 272, 320
-1.00056, 289, 65, 320, 320
-1.00072, 1, 1, 32, 256
-1.00077, 33, 321, 160, 384
-1.00197, 177, 273, 240, 400
-1.00244, 89, 369, 152, 496
-1.00316, 153, 273, 216, 400
-1.00587, 25, 321, 88, 448
-1.00834, 65, 353, 128, 480
-1.00853, 129, 257, 192, 384
