1867
-0.207154, 1, 1, 500, 333
-0.240999, 1, 65, 500, 320
-0.425179, 65, 1, 320, 333
-0.440544, 225, 1, 480, 333
-0.533092, 129, 65, 384, 320
-0.534069, 225, 65, 480, 320
-0.57692, 33, 65, 288, 320
-0.830094, 113, 65, 240, 320
-0.830169, 369, 65, 496, 320
-0.831496, 209, 65, 336, 320
-0.832418, 161, 65, 288, 320
-0.845323, 1, 81, 500, 208
-0.849736, 49, 65, 176, 320
-0.849968, 129, 1, 256, 333
-0.853413, 177, 1, 304, 333
-0.854775, 369, 1, 496, 333
-0.856852, 321, 65, 448, 320
-0.863359, 289, 1, 416, 333
-0.870286, 1, 161, 500, 288
-0.871616, 81, 1, 208, 333
-0.879309, 241, 1, 368, 333
-0.880403, 257, 65, 384, 320
-0.886351, 1, 209, 500, 333
-0.89301, 17, 1, 144, 333
-0.896017, 225, 81, 480, 208
-0.898613, 33, 97, 288, 224
-0.907968, 1, 33, 500, 160
-0.908095, 225, 145, 480, 272
-0.913642, 33, 145, 288, 272
-0.918936, 377, 97, 440, 224
-0.92019, 369, 209, 496, 333
-0.92051, 193, 193, 448, 320
-0.921562, 49, 97, 176, 224
-0.922578, 129, 81, 384, 208
-0.922706, 289, 177, 352, 304
-0.923409, 289, 129, 416, 256
-0.924232, 369, 97, 496, 224
-0.924929, 129, 145, 384, 272
-0.927315, 289, 81, 352, 208
-0.927619, 369, 161, 496, 288
-0.929261, 209, 193, 336, 320
-0.930465, 137, 97, 200, 224
-0.930791, 113, 97, 240, 224
-0.931391, 177, 81, 304, 208
-0.932373, 417, 145, 480, 272
-0.932604, 1, 65, 128, 320
-0.932839, 65, 193, 320, 320
-0.933124, 257, 33, 500, 160
-0.934802, 129, 177, 256, 304
-0.935123, 385, 33, 448, 160
-0.935126, 369, 49, 496, 176
-0.935738, 49, 145, 176, 272
-0.93576, 377, 193, 440, 320
-0.936255, 433, 65, 496, 192
-0.937738, 257, 129, 320, 256
-0.938132, 169, 193, 232, 320
-0.938545, 313, 129, 376, 256
-0.938937, 289, 129, 352, 256
-0.93914, 265, 177, 328, 304
-0.939477, 289, 193, 416, 320
-0.939497, 209, 81, 272, 208
-0.94012, 289, 65, 416, 192
-0.94053, 233, 193, 296, 320
-0.940708, 257, 81, 320, 208
-0.942378, 201, 97, 264, 160
-0.942764, 137, 97, 200, 160
-0.943164, 33, 49, 288, 176
-0.943631, 49, 193, 176, 320
-0.943969, 137, 161, 200, 288
-0.945446, 313, 81, 376, 208
-0.945544, 177, 145, 240, 272
-0.946285, 177, 97, 240, 224
-0.947077, 425, 57, 488, 120
-0.948356, 377, 49, 440, 112
-0.948722, 225, 81, 352, 208
-0.948956, 401, 81, 464, 208
-0.949036, 345, 161, 408, 288
-0.949192, 345, 65, 408, 192
-0.94984, 113, 81, 176, 208
-0.949906, 257, 97, 320, 160
-0.950001, 201, 177, 264, 304
-0.950026, 289, 121, 352, 184
-0.950433, 289, 97, 352, 160
-0.950682, 137, 209, 200, 333
-0.950717, 289, 201, 352, 264
-0.950813, 377, 209, 440, 272
-0.951249, 377, 177, 440, 240
-0.951308, 313, 177, 376, 304
-0.951731, 209, 145, 336, 272
-0.952134, 377, 145, 440, 272
-0.952466, 417, 161, 480, 224
-0.952526, 225, 97, 288, 160
-0.953098, 129, 249, 192, 312
-0.953659, 249, 185, 312, 248
-0.954355, 161, 217, 224, 280
-0.954612, 289, 177, 352, 240
-0.9548, 113, 49, 240, 176
-0.954801, 289, 233, 352, 296
-0.954978, 209, 201, 272, 264
-0.955358, 433, 209, 496, 333
-0.955836, 113, 209, 176, 333
-0.956133, 137, 225, 200, 288
-0.956139, 345, 113, 408, 240
-0.9567, 161, 33, 416, 160
-0.95686, 377, 97, 440, 160
-0.957018, 289, 257, 352, 320
-0.957032, 81, 81, 144, 208
-0.957233, 185, 193, 248, 256
-0.957329, 177, 97, 240, 160
-0.957501, 225, 145, 288, 272
-0.957584, 401, 73, 464, 136
-0.957661, 401, 49, 464, 112
-0.957702, 377, 73, 440, 136
-0.957868, 137, 65, 200, 320
-0.958068, 137, 185, 200, 248
-0.958385, 97, 161, 160, 288
-0.958398, 161, 129, 288, 256
-0.958546, 401, 193, 464, 320
-0.959034, 57, 97, 120, 224
-0.959076, 409, 33, 472, 160
-0.959077, 385, 65, 448, 320
-0.959921, 433, 137, 496, 200
-0.96007, 225, 121, 288, 184
-0.960278, 249, 209, 312, 272
-0.960417, 193, 65, 256, 320
-0.960676, 33, 177, 96, 304
-0.960946, 113, 209, 176, 272
-0.961206, 233, 81, 296, 208
-0.961213, 225, 225, 288, 288
-0.961398, 97, 97, 160, 160
-0.961665, 313, 97, 376, 160
-0.962215, 217, 65, 280, 320
-0.96262, 377, 145, 440, 208
-0.962716, 425, 105, 488, 168
-0.9631, 177, 33, 240, 160
-0.963256, 97, 33, 160, 160
-0.963402, 313, 169, 376, 232
-0.963464, 313, 121, 376, 184
-0.96368, 57, 97, 120, 160
-0.963683, 193, 121, 256, 184
-0.963905, 417, 201, 480, 264
-0.964169, 401, 97, 464, 160
-0.964201, 153, 33, 216, 160
-0.96443, 277, 105, 308, 168
-0.964533, 313, 225, 376, 288
-0.964545, 345, 201, 408, 264
-0.964604, 249, 121, 312, 184
-0.964626, 249, 65, 312, 320
-0.964939, 289, 145, 352, 208
-0.965282, 249, 193, 280, 256
-0.965343, 313, 201, 376, 264
-0.965394, 369, 169, 496, 232
-0.965416, 169, 65, 232, 320
-0.965441, 257, 161, 320, 224
-0.965466, 209, 177, 272, 240
-0.965703, 249, 105, 280, 168
-0.965937, 201, 225, 264, 288
-0.965953, 425, 65, 488, 320
-0.965961, 169, 97, 200, 224
-0.966009, 433, 17, 496, 144
-0.966048, 369, 193, 496, 256
-0.966097, 257, 257, 320, 320
-0.966155, 433, 33, 496, 96
-0.966301, 201, 265, 264, 328
-0.966602, 425, 145, 456, 272
-0.966651, 313, 257, 376, 320
-0.966654, 345, 145, 408, 208
-0.966934, 217, 97, 248, 160
-0.967113, 229, 97, 260, 160
-0.967217, 201, 33, 264, 160
-0.967218, 225, 33, 352, 160
-0.967499, 201, 97, 232, 224
-0.967867, 289, 129, 320, 256
-0.96789, 385, 241, 448, 304
-0.968004, 345, 177, 408, 240
-0.968036, 249, 233, 312, 296
-0.968107, 433, 233, 496, 296
-0.968114, 89, 249, 152, 312
-0.968119, 297, 65, 360, 320
-0.968129, 433, 81, 496, 144
-0.968153, 169, 129, 232, 192
-0.96822, 297, 193, 328, 320
-0.968237, 401, 33, 432, 160
-0.968304, 161, 257, 224, 320
-0.968394, 169, 73, 232, 136
-0.968434, 193, 73, 256, 136
-0.968468, 353, 57, 416, 120
-0.968484, 249, 33, 312, 160
-0.96867, 65, 161, 128, 288
-0.968677, 113, 65, 176, 320
-0.968722, 345, 121, 408, 184
-0.96878, 189, 161, 220, 288
-0.968806, 409, 49, 440, 112
-0.96882, 33, 113, 96, 240
-0.968863, 141, 97, 172, 224
-0.968938, 429, 97, 460, 224
-0.968951, 113, 97, 240, 160
-0.968999, 161, 193, 288, 256
-0.969177, 137, 153, 200, 216
-0.969278, 269, 81, 300, 208
-0.969286, 201, 97, 232, 160
-0.96936, 413, 81, 444, 208
-0.969438, 161, 193, 224, 256
-0.969462, 189, 97, 220, 160
-0.969502, 369, 97, 496, 160
-0.969614, 289, 121, 416, 184
-0.969705, 177, 33, 304, 160
-0.969832, 49, 97, 176, 160
-0.969956, 73, 209, 136, 333
-0.969989, 277, 145, 308, 272
-0.970057, 289, 97, 320, 160
-0.970122, 289, 97, 416, 160
-0.970217, 121, 81, 152, 208
-0.970304, 225, 73, 288, 136
-0.970357, 169, 169, 232, 232
-0.970426, 421, 57, 452, 120
-0.970508, 369, 145, 496, 208
-0.970518, 409, 273, 472, 333
-0.97057, 369, 217, 496, 280
-0.970753, 277, 201, 308, 264
-0.970806, 317, 81, 348, 208
-0.970918, 309, 89, 340, 152
-0.970962, 97, 129, 160, 192
-0.970962, 249, 73, 312, 136
-0.97103, 49, 49, 176, 176
-0.971076, 121, 273, 184, 333
-0.971081, 97, 73, 160, 136
-0.971084, 137, 73, 200, 136
-0.971134, 33, 129, 96, 192
-0.971334, 345, 209, 408, 333
-0.971341, 49, 137, 176, 200
-0.971416, 389, 49, 420, 112
-0.97145, 141, 217, 172, 280
-0.971498, 225, 209, 352, 272
-0.971525, 225, 97, 352, 160
-0.971578, 57, 121, 120, 184
-0.971583, 169, 97, 200, 160
-0.971611, 161, 217, 288, 280
-0.971613, 49, 169, 176, 232
-0.971627, 261, 201, 292, 264
-0.971736, 229, 193, 260, 256
-0.971737, 289, 81, 320, 208
-0.971739, 413, 33, 444, 160
-0.971788, 229, 81, 260, 208
-0.971957, 121, 33, 184, 160
-0.972125, 425, 161, 456, 224
-0.972175, 469, 57, 500, 120
-0.972288, 369, 241, 496, 304
-0.972356, 229, 121, 260, 184
-0.972506, 389, 49, 420, 176
-0.972538, 225, 273, 288, 333
-0.972547, 257, 129, 288, 192
-0.972612, 297, 121, 328, 184
-0.972844, 169, 209, 200, 333
-0.972853, 129, 169, 256, 232
-0.972855, 141, 97, 172, 160
-0.972858, 289, 33, 352, 160
-0.972921, 369, 1, 496, 128
-0.972928, 257, 81, 288, 208
-0.97299, 257, 193, 288, 320
-0.972998, 289, 177, 416, 240
-0.973126, 141, 241, 172, 304
-0.973132, 1, 177, 128, 304
-0.973143, 201, 129, 232, 192
-0.973234, 469, 97, 500, 224
-0.973258, 1, 97, 128, 224
-0.973262, 137, 129, 200, 192
-0.973265, 177, 97, 304, 160
-0.973357, 369, 121, 496, 184
-0.973544, 401, 73, 432, 136
-0.973676, 389, 97, 420, 224
-0.973704, 289, 73, 352, 136
-0.973768, 161, 217, 192, 280
-0.973778, 433, 57, 464, 120
-0.973812, 269, 209, 300, 333
-0.973827, 157, 209, 188, 333
-0.97387, 345, 97, 408, 160
-0.973994, 33, 153, 96, 216
-0.974024, 313, 193, 344, 320
-0.974039, 265, 97, 296, 160
-0.974185, 297, 249, 328, 312
-0.974252, 225, 185, 352, 248
-0.974371, 277, 177, 308, 240
-0.974478, 125, 161, 156, 288
-0.97448, 81, 209, 208, 272
-0.974481, 401, 25, 464, 88
-0.974498, 337, 81, 368, 208
-0.974521, 289, 209, 416, 272
-0.974525, 429, 49, 460, 176
-0.974544, 273, 65, 336, 320
-0.974581, 469, 33, 500, 160
-0.974604, 209, 161, 240, 288
-0.974686, 281, 209, 312, 333
-0.974735, 245, 177, 276, 304
-0.974741, 289, 17, 416, 144
-0.974746, 289, 153, 416, 216
-0.974769, 89, 217, 152, 280
-0.974771, 121, 97, 152, 160
-0.974783, 317, 113, 348, 176
-0.97485, 97, 89, 128, 152
-0.975027, 229, 177, 260, 304
-0.975049, 113, 249, 240, 312
-0.975109, 125, 201, 156, 264
-0.975154, 313, 145, 376, 208
-0.97517, 185, 113, 216, 240
-0.975184, 389, 97, 420, 160
-0.975266, 377, 25, 440, 88
-0.975316, 289, 209, 320, 272
-0.975327, 369, 73, 496, 136
-0.975434, 157, 161, 188, 288
-0.975549, 385, 73, 416, 136
-0.975581, 101, 81, 132, 208
-0.975629, 201, 129, 264, 256
-0.975669, 289, 73, 416, 136
-0.975695, 257, 169, 288, 232
-0.975868, 409, 217, 440, 280
-0.975987, 113, 185, 176, 248
-0.976158, 317, 265, 348, 328
-0.976161, 157, 193, 188, 256
-0.976169, 225, 153, 288, 216
-0.976189, 113, 121, 240, 184
-0.976234, 181, 209, 212, 272
-0.976274, 369, 49, 496, 112
-0.976334, 337, 129, 368, 192
-0.976373, 433, 273, 496, 333
-0.976378, 257, 129, 288, 256
-0.976393, 97, 153, 160, 216
-0.97659, 241, 81, 272, 144
-0.976707, 277, 225, 308, 288
-0.97673, 389, 217, 420, 280
-0.976738, 429, 97, 460, 160
-0.976744, 449, 129, 480, 256
-0.976765, 469, 97, 500, 160
-0.976802, 289, 185, 320, 248
-0.976809, 277, 137, 308, 200
-0.976812, 449, 145, 480, 208
-0.976859, 377, 121, 440, 184
-0.977019, 305, 113, 336, 240
-0.97702, 121, 129, 152, 192
-0.977029, 225, 33, 288, 160
-0.977086, 177, 129, 304, 192
-0.977165, 341, 129, 372, 256
-0.977328, 141, 193, 172, 320
-0.977458, 409, 137, 472, 200
-0.977511, 289, 273, 416, 333
-0.977532, 213, 193, 244, 256
-0.977613, 337, 225, 400, 288
-0.977627, 329, 97, 360, 160
-0.977643, 129, 1, 256, 128
-0.977661, 129, 209, 160, 333
-0.977675, 317, 129, 348, 256
-0.977694, 353, 273, 416, 333
-0.977772, 169, 161, 200, 288
-0.977776, 413, 193, 444, 320
-0.977786, 337, 249, 400, 312
-0.977879, 405, 193, 436, 256
-0.977954, 81, 65, 144, 320
-0.977973, 57, 49, 120, 176
-0.978054, 353, 65, 416, 320
-0.978203, 189, 65, 220, 192
-0.978412, 201, 225, 232, 288
-0.978436, 81, 1, 208, 128
-0.97844, 369, 265, 496, 328
-0.978553, 249, 217, 280, 280
-0.978575, 49, 233, 176, 296
-0.978638, 157, 241, 188, 304
-0.978671, 289, 145, 320, 208
-0.978982, 125, 241, 156, 304
-0.978998, 89, 193, 152, 256
-0.979133, 289, 249, 416, 312
-0.979174, 449, 113, 480, 176
-0.979382, 121, 153, 152, 216
-0.979389, 385, 209, 416, 333
-0.979463, 189, 129, 220, 192
-0.979526, 189, 73, 220, 136
-0.979619, 113, 145, 240, 208
-0.979674, 213, 33, 244, 160
-0.979693, 229, 225, 260, 288
-0.979753, 25, 105, 88, 168
-0.979864, 193, 153, 256, 216
-0.97993, 213, 97, 244, 224
-0.980041, 33, 185, 96, 248
-0.980056, 57, 169, 120, 232
-0.980173, 209, 1, 272, 333
-0.980219, 385, 265, 448, 328
-0.98022, 429, 33, 460, 96
-0.98022, 277, 81, 308, 144
-0.980275, 449, 33, 480, 96
-0.980282, 109, 89, 140, 152
-0.980304, 229, 169, 260, 232
-0.980316, 301, 177, 332, 240
-0.980344, 129, 265, 160, 328
-0.980413, 33, 193, 160, 256
-0.9805, 157, 81, 188, 208
-0.98054, 317, 233, 348, 296
-0.980556, 225, 161, 352, 224
-0.980583, 389, 193, 420, 256
-0.98059, 265, 225, 296, 288
-0.980605, 65, 1, 320, 128
-0.980664, 201, 201, 232, 264
-0.980751, 133, 177, 164, 240
-0.980761, 425, 193, 456, 256
-0.980874, 85, 89, 116, 152
-0.980931, 345, 17, 408, 144
-0.980955, 377, 1, 440, 333
-0.981035, 121, 177, 152, 240
-0.98105, 189, 177, 220, 240
-0.981107, 73, 145, 136, 208
-0.981145, 169, 185, 200, 248
-0.981192, 301, 209, 332, 272
-0.981261, 49, 73, 112, 136
-0.981267, 329, 161, 360, 288
-0.981315, 433, 129, 464, 192
-0.981336, 81, 73, 208, 136
-0.981377, 61, 193, 92, 320
-0.981451, 65, 241, 128, 304
-0.981475, 1, 121, 64, 184
-0.981498, 97, 273, 160, 333
-0.981563, 1, 81, 64, 208
-0.981691, 401, 1, 464, 333
-0.981703, 189, 233, 220, 296
-0.981707, 449, 65, 480, 192
-0.981744, 145, 265, 176, 328
-0.981793, 141, 145, 172, 272
-0.981818, 145, 193, 176, 256
-0.981966, 169, 129, 200, 192
-0.981987, 61, 129, 92, 192
-0.982023, 161, 249, 288, 312
-0.982035, 225, 249, 288, 312
-0.982131, 321, 49, 448, 112
-0.982215, 337, 225, 368, 288
-0.982222, 401, 25, 432, 88
-0.982232, 241, 121, 368, 184
-0.982306, 453, 193, 484, 320
-0.982415, 65, 265, 192, 328
-0.982416, 181, 153, 212, 216
-0.982473, 141, 153, 172, 216
-0.982617, 213, 225, 244, 288
-0.982627, 325, 209, 356, 333
-0.982651, 321, 65, 384, 320
-0.98267, 1, 33, 128, 160
-0.982695, 317, 209, 348, 272
-0.982725, 133, 49, 164, 176
-0.982833, 397, 273, 428, 333
-0.982837, 329, 249, 360, 312
-0.982896, 469, 161, 500, 288
-0.982906, 401, 81, 432, 208
-0.982919, 201, 177, 232, 240
-0.982927, 229, 73, 260, 136
-0.982962, 409, 249, 472, 312
-0.982963, 249, 1, 312, 333
-0.982993, 337, 153, 368, 216
-0.983015, 57, 65, 120, 320
-0.983031, 425, 1, 488, 333
-0.983045, 201, 249, 232, 312
-0.983055, 33, 209, 96, 272
-0.983098, 101, 33, 132, 160
-0.983137, 57, 129, 88, 256
-0.983163, 341, 89, 372, 152
-0.98317, 41, 233, 104, 296
-0.98318, 241, 169, 272, 232
-0.983198, 33, 257, 96, 320
-0.983217, 429, 217, 460, 280
-0.983233, 213, 73, 244, 136
-0.983236, 33, 49, 96, 176
-0.983283, 201, 73, 232, 136
-0.983326, 177, 73, 304, 136
-0.983371, 157, 73, 188, 136
-0.983403, 449, 57, 480, 120
-0.983433, 157, 265, 188, 328
-0.983507, 225, 233, 352, 296
-0.983507, 313, 185, 344, 248
-0.983571, 377, 33, 408, 160
-0.983604, 169, 1, 232, 333
-0.983618, 289, 1, 352, 333
-0.983655, 101, 113, 132, 176
-0.983687, 113, 129, 144, 256
-0.9837, 313, 33, 376, 160
-0.983915, 185, 209, 216, 333
-0.98392, 413, 81, 444, 144
-0.983947, 377, 49, 408, 112
-0.98404, 329, 73, 392, 136
-0.984046, 193, 49, 256, 112
-0.984048, 241, 81, 272, 208
-0.984098, 169, 161, 200, 224
-0.984134, 113, 193, 144, 320
-0.984189, 237, 129, 268, 256
-0.984244, 301, 65, 332, 192
-0.984325, 145, 1, 208, 333
-0.984387, 429, 193, 460, 320
-0.984452, 113, 257, 144, 320
-0.984473, 153, 97, 184, 160
-0.984487, 113, 273, 240, 333
-0.984492, 345, 1, 408, 333
-0.984497, 389, 161, 420, 288
-0.984563, 437, 145, 468, 272
-0.984619, 177, 169, 304, 232
-0.984649, 449, 169, 480, 232
-0.984669, 65, 201, 128, 264
-0.984676, 281, 249, 312, 312
-0.984677, 401, 97, 432, 160
-0.984704, 101, 129, 132, 256
-0.984709, 337, 33, 400, 96
-0.984723, 85, 81, 116, 208
-0.984839, 209, 257, 336, 320
-0.985002, 73, 73, 136, 136
-0.985032, 213, 257, 244, 320
-0.985219, 129, 73, 160, 136
-0.985229, 121, 33, 152, 160
-0.985247, 441, 273, 472, 333
-0.985259, 141, 129, 172, 192
-0.985263, 173, 233, 204, 296
-0.985303, 9, 161, 72, 288
-0.985324, 129, 73, 256, 136
-0.985352, 61, 153, 92, 216
-0.985441, 189, 265, 220, 328
-0.98546, 337, 209, 368, 333
-0.985463, 301, 273, 332, 333
-0.985533, 45, 177, 76, 304
-0.985537, 401, 209, 432, 333
-0.985552, 413, 25, 444, 88
-0.985561, 449, 201, 480, 264
-0.985695, 201, 49, 232, 176
-0.985775, 57, 1, 120, 333
-0.985938, 97, 1, 160, 333
-0.985977, 177, 49, 208, 176
-0.986076, 1, 89, 128, 152
-0.986116, 69, 129, 100, 256
-0.986127, 313, 1, 376, 333
-0.986162, 409, 225, 472, 288
-0.986233, 449, 17, 480, 144
-0.986234, 225, 73, 352, 136
-0.986286, 169, 17, 232, 80
-0.98631, 377, 53, 440, 84
-0.986447, 1, 201, 64, 264
-0.986557, 17, 257, 144, 320
-0.986783, 1, 145, 64, 208
-0.98681, 217, 209, 248, 333
-0.986871, 237, 33, 268, 160
-0.986915, 401, 161, 432, 288
-0.986933, 73, 177, 104, 304
-0.986935, 257, 33, 288, 160
-0.986954, 361, 233, 424, 296
-0.98712, 285, 33, 316, 160
-0.987259, 137, 49, 200, 112
-0.987316, 189, 17, 220, 144
-0.987427, 429, 1, 460, 128
-0.987491, 33, 65, 96, 320
-0.987657, 373, 161, 404, 288
-0.987738, 413, 145, 444, 272
-0.988021, 57, 265, 120, 328
-0.988047, 197, 209, 228, 333
-0.988069, 377, 209, 440, 240
-0.988084, 469, 209, 500, 333
-0.988112, 53, 81, 84, 208
-0.988305, 417, 57, 480, 88
-0.988487, 209, 205, 272, 236
-0.988532, 305, 213, 368, 244
-0.988556, 225, 113, 480, 176
-0.988557, 121, 1, 184, 333
-0.98859, 289, 237, 352, 268
-0.988604, 273, 33, 400, 96
-0.988663, 73, 65, 104, 192
-0.988679, 425, 153, 488, 184
-0.988686, 257, 197, 320, 228
-0.98872, 137, 101, 200, 132
-0.98873, 265, 213, 328, 244
-0.988763, 289, 101, 352, 132
-0.988798, 1, 161, 128, 224
-0.988815, 193, 117, 256, 148
-0.988842, 369, 25, 496, 88
-0.98885, 417, 165, 480, 196
-0.988854, 377, 193, 440, 224
-0.988859, 225, 201, 480, 264
-0.988929, 201, 97, 264, 128
-0.988936, 425, 301, 488, 332
-0.988963, 201, 225, 264, 256
-0.989012, 377, 181, 440, 212
-0.989036, 1, 217, 128, 280
-0.989077, 289, 201, 352, 232
-0.989077, 185, 205, 248, 236
-0.989096, 129, 245, 192, 276
-0.989108, 289, 121, 352, 152
-0.989115, 389, 1, 420, 128
-0.989188, 249, 113, 312, 144
-0.9892, 289, 225, 352, 256
-0.98922, 1, 97, 500, 160
-0.989224, 233, 225, 296, 256
-0.989299, 169, 221, 232, 252
-0.9893, 233, 209, 296, 240
-0.989309, 353, 113, 384, 240
-0.98936, 345, 205, 408, 236
-0.98945, 157, 33, 188, 160
-0.989457, 101, 177, 132, 304
-0.989479, 289, 249, 352, 280
-0.989488, 257, 225, 320, 256
-0.989498, 113, 257, 176, 288
-0.989526, 225, 117, 288, 148
-0.989548, 289, 165, 352, 196
-0.989549, 417, 221, 480, 252
-0.989585, 377, 101, 440, 132
-0.989595, 65, 105, 320, 168
-0.989596, 385, 233, 448, 264
-0.989606, 425, 141, 488, 172
-0.989612, 81, 93, 144, 124
-0.989619, 257, 97, 320, 128
-0.989658, 385, 221, 448, 252
-0.989658, 289, 177, 352, 208
-0.98973, 9, 209, 72, 333
-0.989747, 113, 221, 176, 252
-0.989798, 417, 177, 480, 208
-0.98982, 225, 101, 288, 132
-0.989846, 257, 73, 500, 136
-0.989866, 377, 161, 440, 192
-0.989867, 193, 237, 256, 268
-0.989871, 417, 193, 480, 224
-0.989878, 289, 149, 352, 180
-0.9899, 289, 89, 352, 120
-0.989916, 145, 221, 208, 252
-0.989922, 177, 101, 240, 132
-0.989927, 425, 105, 488, 136
-0.989976, 353, 217, 416, 248
-0.989976, 169, 237, 232, 268
-0.98999, 137, 201, 200, 232
-0.989992, 185, 189, 248, 220
-0.990056, 249, 237, 312, 268
-0.990075, 161, 89, 224, 120
-0.990145, 233, 197, 296, 228
-0.99016, 313, 201, 376, 232
-0.990185, 425, 125, 488, 156
-0.990187, 249, 185, 312, 216
-0.990187, 137, 89, 200, 120
-0.990214, 401, 301, 464, 332
-0.990223, 225, 129, 288, 160
-0.990252, 193, 129, 256, 160
-0.990268, 289, 189, 352, 220
-0.990274, 401, 105, 464, 136
-0.990279, 33, 161, 96, 192
-0.990282, 393, 289, 456, 320
-0.990289, 249, 153, 312, 184
-0.990298, 269, 33, 300, 160
-0.990319, 377, 149, 440, 180
-0.990323, 417, 209, 480, 240
-0.990341, 417, 69, 480, 100
-0.990343, 201, 293, 264, 324
-0.990373, 225, 89, 288, 120
-0.990374, 137, 113, 200, 144
-0.990424, 1, 65, 128, 128
-0.990439, 377, 301, 440, 332
-0.990443, 1, 97, 64, 160
-0.990472, 97, 105, 160, 136
-0.990492, 225, 145, 480, 208
-0.990499, 313, 189, 376, 220
-0.990512, 33, 193, 288, 256
-0.990514, 249, 85, 312, 116
-0.990517, 137, 153, 200, 184
-0.990561, 305, 261, 368, 292
-0.990562, 145, 293, 208, 324
-0.990578, 257, 257, 320, 288
-0.990586, 161, 273, 288, 333
-0.990586, 313, 177, 376, 208
-0.990597, 257, 173, 320, 204
-0.990604, 57, 109, 120, 140
-0.990613, 137, 165, 200, 196
-0.990629, 425, 233, 488, 264
-0.990637, 345, 125, 408, 156
-0.990638, 313, 101, 376, 132
-0.990643, 177, 293, 240, 324
-0.990652, 137, 181, 200, 212
-0.990657, 345, 193, 408, 224
-0.990658, 169, 177, 232, 208
-0.99066, 209, 189, 272, 220
-0.990668, 345, 157, 408, 188
-0.990679, 313, 165, 376, 196
-0.990681, 273, 301, 336, 332
-0.990683, 313, 125, 376, 156
-0.9907, 129, 273, 192, 304
-0.990704, 225, 237, 288, 268
-0.990736, 329, 33, 360, 160
-0.990736, 161, 225, 416, 288
-0.990755, 89, 253, 152, 284
-0.990763, 321, 225, 384, 256
-0.990764, 193, 177, 448, 240
-0.990779, 433, 45, 496, 76
-0.990798, 137, 137, 200, 168
-0.990808, 193, 85, 256, 116
-0.990815, 241, 297, 304, 328
-0.990819, 33, 129, 288, 192
-0.990839, 113, 93, 176, 124
-0.99084, 345, 137, 408, 168
-0.990885, 161, 205, 224, 236
-0.990889, 313, 153, 376, 184
-0.990901, 169, 117, 232, 148
-0.990916, 369, 113, 400, 240
-0.990923, 89, 233, 152, 264
-0.990929, 345, 169, 408, 200
-0.990944, 249, 129, 312, 160
-0.990957, 169, 257, 232, 288
-0.990959, 57, 97, 120, 128
-0.990965, 177, 165, 240, 196
-0.990969, 97, 133, 160, 164
-0.990989, 321, 237, 384, 268
-0.991022, 161, 193, 224, 224
-0.991022, 369, 285, 432, 316
-0.991065, 345, 113, 408, 144
-0.991067, 137, 257, 200, 288
-0.991083, 113, 209, 176, 240
-0.991086, 365, 65, 396, 192
-0.991107, 97, 117, 160, 148
-0.991116, 321, 89, 384, 120
-0.991121, 249, 141, 312, 172
-0.991187, 225, 33, 256, 160
-0.991229, 145, 49, 176, 176
-0.99124, 169, 49, 232, 112
-0.991343, 1, 113, 128, 176
-0.991366, 441, 209, 472, 333
-0.99137, 1, 137, 128, 200
-0.991493, 349, 65, 380, 192
-0.991536, 1, 129, 500, 192
-0.991597, 317, 33, 348, 160
-0.991614, 321, 25, 448, 88
-0.99169, 353, 161, 384, 288
-0.991706, 409, 53, 440, 84
-0.991712, 65, 81, 320, 144
-0.991717, 49, 49, 112, 112
-0.991742, 1, 177, 64, 240
-0.991745, 369, 209, 400, 333
-0.991752, 9, 249, 72, 312
-0.991808, 249, 205, 280, 236
-0.99186, 193, 257, 448, 320
-0.991897, 33, 153, 288, 216
-0.991904, 1, 169, 500, 232
-0.99191, 429, 57, 460, 88
-0.99191, 369, 197, 496, 228
-0.991921, 257, 225, 500, 288
-0.991976, 129, 201, 384, 264
-0.992002, 385, 53, 416, 84
-0.992041, 277, 205, 308, 236
-0.992054, 289, 197, 320, 228
-0.992058, 369, 169, 496, 200
-0.992059, 317, 225, 348, 256
-0.992067, 229, 209, 260, 240
-0.992085, 281, 233, 312, 264
-0.992096, 201, 101, 232, 132
-0.992099, 297, 233, 328, 264
-0.99211, 429, 161, 460, 192
-0.99211, 289, 105, 320, 136
-0.992121, 297, 217, 328, 248
-0.992152, 309, 89, 340, 120
-0.992154, 405, 209, 436, 240
-0.992165, 229, 97, 260, 128
-0.992165, 257, 217, 288, 248
-0.992177, 45, 129, 76, 256
-0.992178, 219, 97, 234, 160
-0.992179, 317, 237, 348, 268
-0.992234, 245, 217, 276, 248
-0.992256, 249, 117, 280, 148
-0.99226, 113, 101, 144, 132
-0.992261, 269, 97, 300, 128
-0.992277, 277, 221, 308, 252
-0.992285, 313, 213, 344, 244
-0.992297, 465, 301, 496, 332
-0.992305, 257, 97, 288, 128
-0.992305, 145, 25, 272, 88
-0.992324, 389, 205, 420, 236
-0.992341, 277, 113, 308, 144
-0.992346, 257, 129, 288, 160
-0.992349, 169, 101, 200, 132
-0.992356, 229, 117, 260, 148
-0.992371, 189, 109, 220, 140
-0.992392, 93, 93, 124, 124
-0.992403, 277, 137, 308, 168
-0.992405, 121, 129, 152, 160
-0.992413, 129, 49, 256, 112
-0.992413, 209, 205, 240, 236
-0.992421, 297, 121, 328, 152
-0.992422, 129, 129, 384, 192
-0.992428, 265, 205, 296, 236
-0.992431, 137, 257, 168, 288
-0.992437, 369, 185, 496, 216
-0.992442, 169, 221, 200, 252
-0.992442, 229, 221, 260, 252
-0.992447, 277, 193, 308, 224
-0.992448, 329, 237, 360, 268
-0.992448, 253, 193, 268, 256
-0.992458, 189, 205, 220, 236
-0.992463, 389, 217, 420, 248
-0.992468, 341, 125, 372, 156
-0.992468, 333, 217, 364, 248
-0.992483, 321, 101, 352, 132
-0.992488, 429, 101, 460, 132
-0.992489, 269, 233, 300, 264
-0.992491, 297, 245, 328, 276
-0.992493, 141, 101, 172, 132
-0.992494, 425, 217, 456, 248
-0.992497, 249, 193, 280, 224
-0.992498, 237, 89, 252, 152
-0.992499, 229, 197, 260, 228
-0.992502, 409, 225, 440, 256
-0.99251, 33, 1, 96, 333
-0.992511, 201, 129, 232, 160
-0.992511, 205, 97, 220, 160
-0.992518, 141, 241, 172, 272
-0.99252, 289, 93, 320, 124
-0.992534, 97, 249, 352, 312
-0.992538, 405, 297, 436, 328
-0.992542, 125, 253, 156, 284
-0.992543, 145, 221, 176, 252
-0.992547, 277, 149, 308, 180
-0.992547, 213, 97, 244, 128
-0.992552, 125, 201, 156, 232
-0.992562, 213, 117, 244, 148
-0.992562, 277, 125, 308, 156
-0.992564, 121, 189, 152, 220
-0.992567, 309, 101, 340, 132
-0.992573, 337, 89, 368, 120
-0.992584, 313, 201, 344, 232
-0.992589, 217, 217, 248, 248
-0.992593, 469, 101, 500, 132
-0.992595, 201, 237, 232, 268
-0.9926, 189, 217, 220, 248
-0.992602, 385, 105, 416, 136
-0.992605, 229, 129, 260, 160
-0.992605, 141, 197, 172, 228
-0.992619, 201, 117, 232, 148
-0.992619, 281, 245, 312, 276
-0.992623, 321, 89, 352, 120
-0.992626, 449, 157, 480, 188
-0.992626, 397, 53, 428, 84
-0.992629, 469, 61, 500, 92
-0.992634, 217, 85, 248, 116
-0.992636, 453, 141, 484, 172
-0.992642, 441, 293, 472, 324
-0.992642, 125, 213, 156, 244
-0.992643, 189, 97, 220, 128
-0.992645, 169, 193, 200, 224
-0.992651, 189, 189, 220, 220
-0.992656, 161, 209, 192, 240
-0.992663, 201, 89, 232, 120
-0.992672, 313, 249, 344, 280
-0.992673, 157, 225, 188, 256
-0.992677, 321, 121, 352, 152
-0.992677, 161, 249, 192, 280
-0.992678, 161, 237, 192, 268
-0.992683, 433, 141, 464, 172
-0.992687, 1, 225, 500, 288
-0.992687, 421, 301, 452, 332
-0.992687, 169, 89, 200, 120
-0.992688, 241, 97, 272, 128
-0.99269, 405, 197, 436, 228
-0.992693, 201, 225, 232, 256
-0.992696, 65, 41, 192, 104
-0.992697, 369, 105, 496, 136
-0.992698, 289, 149, 320, 180
-0.992701, 285, 161, 316, 192
-0.992704, 289, 177, 320, 208
-0.99271, 161, 89, 416, 152
-0.99271, 333, 205, 364, 236
-0.99271, 301, 205, 332, 236
-0.992712, 149, 257, 180, 288
-0.992715, 289, 133, 320, 164
-0.992719, 157, 101, 188, 132
-0.992724, 257, 153, 288, 184
-0.992726, 257, 229, 288, 260
-0.992727, 121, 169, 152, 200
-0.992728, 189, 85, 220, 116
-0.992729, 121, 157, 152, 188
-0.992733, 121, 145, 152, 176
-0.992735, 229, 185, 260, 216
-0.992739, 453, 57, 484, 88
-0.992746, 161, 205, 288, 236
-0.992749, 141, 185, 172, 216
-0.99275, 277, 85, 308, 116
-0.992755, 453, 301, 484, 332
-0.992756, 185, 229, 216, 260
-0.992761, 257, 181, 288, 212
-0.992763, 425, 205, 456, 236
-0.992779, 413, 65, 444, 96
-0.992779, 401, 65, 432, 96
-0.99278, 189, 129, 220, 160
-0.992802, 369, 137, 496, 168
-0.992846, 49, 149, 176, 180
-0.99287, 483, 57, 498, 120
-0.992897, 151, 217, 166, 280
-0.992898, 213, 97, 228, 160
-0.9929, 477, 57, 492, 120
-0.992909, 243, 97, 258, 160
-0.992934, 65, 225, 320, 288
-0.992955, 249, 97, 264, 160
-0.992968, 1, 193, 500, 256
-0.992979, 297, 113, 312, 176
-0.992987, 413, 49, 428, 112
-0.993054, 263, 97, 278, 160
-0.993086, 1, 1, 64, 333
-0.993095, 231, 97, 246, 160
-0.993135, 369, 157, 496, 188
-0.993138, 113, 1, 240, 64
-0.993139, 99, 89, 114, 152
-0.993165, 259, 201, 274, 264
-0.993174, 435, 57, 450, 120
-0.993239, 321, 89, 336, 152
-0.993243, 183, 97, 198, 160
-0.993316, 369, 221, 496, 252
-0.993364, 179, 217, 194, 280
-0.993364, 389, 49, 404, 112
-0.993375, 177, 97, 304, 128
-0.993416, 113, 105, 240, 136
-0.993454, 49, 161, 176, 192
-0.993457, 405, 57, 420, 120
-0.993461, 177, 49, 304, 112
-0.993468, 289, 205, 416, 236
-0.993487, 279, 97, 294, 160
-0.993492, 289, 125, 416, 156
-0.993504, 85, 33, 116, 160
-0.993504, 349, 209, 380, 333
-0.993512, 289, 101, 416, 132
-0.993529, 429, 65, 444, 128
-0.99353, 129, 153, 384, 216
-0.993536, 49, 181, 176, 212
-0.993557, 369, 301, 496, 332
-0.993563, 299, 177, 314, 240
-0.993574, 369, 209, 496, 240
-0.993632, 89, 193, 120, 320
-0.993658, 445, 49, 460, 112
-0.993679, 153, 241, 168, 304
-0.993691, 209, 197, 336, 228
-0.993695, 209, 209, 336, 240
-0.993708, 421, 49, 436, 112
-0.993762, 281, 217, 296, 280
-0.99377, 163, 241, 178, 304
-0.99378, 331, 121, 346, 184
-0.993788, 395, 49, 410, 112
-0.993807, 49, 101, 176, 132
-0.993821, 245, 201, 260, 264
-0.993837, 293, 169, 308, 232
-0.993852, 1, 73, 500, 136
-0.993882, 157, 217, 172, 280
-0.993895, 113, 117, 240, 148
-0.993902, 49, 137, 176, 168
-0.993912, 121, 89, 136, 152
-0.993913, 269, 105, 284, 168
-0.993921, 165, 217, 180, 280
-0.993944, 289, 193, 304, 256
-0.993944, 289, 141, 416, 172
-0.993973, 291, 89, 306, 152
-0.993976, 169, 65, 200, 320
-0.993982, 1, 81, 32, 208
-0.993994, 161, 225, 288, 256
-0.994028, 225, 105, 240, 168
-0.994033, 315, 89, 330, 152
-0.994053, 395, 73, 410, 136
-0.994064, 289, 173, 416, 204
-0.994066, 231, 201, 246, 264
-0.994072, 327, 89, 342, 152
-0.994073, 389, 73, 404, 136
-0.994076, 41, 81, 72, 208
-0.994098, 429, 65, 460, 320
-0.994108, 413, 73, 428, 136
-0.994121, 113, 253, 240, 284
-0.994126, 141, 65, 172, 320
-0.994129, 305, 97, 320, 160
-0.99415, 369, 125, 496, 156
-0.994151, 321, 185, 448, 216
-0.994153, 369, 57, 496, 88
-0.994166, 209, 221, 336, 252
-0.99417, 139, 233, 154, 296
-0.994179, 369, 237, 496, 268
-0.994183, 193, 17, 320, 80
-0.994184, 1, 65, 64, 320
-0.994226, 113, 193, 240, 224
-0.994238, 421, 73, 436, 136
-0.994239, 147, 241, 162, 304
-0.994241, 353, 121, 368, 184
-0.994247, 225, 193, 240, 256
-0.994265, 109, 89, 124, 152
-0.994274, 391, 193, 406, 256
-0.994307, 219, 185, 234, 248
-0.994336, 193, 117, 320, 148
-0.994367, 389, 97, 404, 160
-0.994383, 1, 249, 256, 312
-0.994384, 1, 249, 500, 312
-0.994417, 127, 97, 142, 160
-0.994424, 113, 205, 240, 236
-0.99445, 155, 97, 170, 160
-0.994458, 391, 217, 406, 280
-0.994459, 49, 113, 176, 144
-0.994478, 443, 73, 458, 136
-0.994519, 291, 145, 306, 208
-0.994534, 271, 193, 286, 256
-0.994544, 113, 129, 240, 160
-0.994548, 325, 265, 340, 328
-0.99455, 305, 121, 320, 184
-0.994557, 299, 217, 314, 280
-0.994568, 201, 65, 232, 320
-0.99457, 113, 225, 240, 256
-0.994579, 1, 273, 500, 333
-0.994583, 145, 217, 160, 280
-0.994603, 185, 209, 200, 272
-0.994604, 257, 97, 272, 160
-0.994627, 49, 193, 176, 224
-0.994656, 419, 201, 434, 264
-0.994659, 259, 121, 274, 184
-0.994672, 297, 89, 312, 152
-0.994694, 215, 129, 230, 192
-0.994701, 473, 97, 488, 160
-0.994702, 223, 161, 238, 224
-0.994709, 133, 249, 148, 312
-0.994734, 317, 201, 332, 264
-0.994746, 429, 161, 444, 224
-0.994752, 229, 65, 260, 320
-0.994755, 49, 125, 176, 156
-0.994771, 203, 129, 218, 192
-0.994776, 193, 241, 320, 272
-0.994799, 291, 121, 306, 184
-0.994799, 143, 97, 158, 160
-0.994821, 199, 97, 214, 160
-0.994829, 317, 121, 332, 184
-0.994831, 331, 265, 346, 328
-0.994832, 113, 113, 128, 176
-0.994851, 321, 217, 448, 248
-0.994871, 137, 201, 152, 264
-0.994878, 297, 137, 312, 200
-0.994902, 229, 129, 244, 192
-0.99492, 289, 161, 416, 192
-0.994942, 97, 273, 352, 333
-0.994945, 257, 49, 500, 112
-0.994959, 289, 237, 416, 268
-0.994964, 307, 201, 322, 264
-0.99497, 33, 177, 64, 304
-0.99497, 195, 201, 210, 264
-0.994971, 113, 237, 240, 268
-0.994981, 121, 65, 152, 320
-0.994981, 129, 169, 256, 200
-0.994988, 171, 97, 186, 160
-0.994992, 443, 97, 458, 160
-0.995002, 129, 209, 144, 272
-0.99501, 299, 257, 314, 320
-0.995019, 49, 209, 176, 240
-0.99502, 243, 73, 258, 136
-0.995027, 253, 169, 268, 232
-0.995037, 265, 193, 280, 256
-0.995037, 189, 65, 220, 320
-0.99504, 65, 257, 192, 288
-0.995044, 249, 65, 280, 320
-0.995045, 193, 105, 208, 168
-0.995055, 313, 249, 328, 312
-0.995073, 195, 177, 210, 240
-0.995102, 289, 89, 416, 120
-0.995115, 399, 217, 414, 280
-0.995117, 251, 217, 266, 280
-0.995121, 173, 225, 188, 288
-0.995127, 225, 97, 352, 128
-0.995134, 81, 89, 208, 120
-0.995139, 277, 65, 308, 320
-0.995147, 241, 109, 368, 140
-0.995163, 129, 57, 384, 120
-0.995184, 257, 193, 384, 224
-0.995184, 265, 129, 280, 192
-0.995202, 477, 33, 492, 96
-0.995203, 289, 217, 304, 280
-0.995216, 253, 121, 268, 184
-0.995217, 177, 129, 304, 160
-0.995227, 327, 177, 342, 240
-0.995237, 191, 225, 206, 288
-0.995237, 389, 65, 420, 320
-0.995238, 241, 225, 256, 288
-0.99525, 1, 49, 500, 112
-0.99525, 407, 33, 422, 96
-0.995257, 469, 33, 500, 288
-0.99528, 223, 129, 238, 192
-0.995311, 99, 113, 114, 176
-0.995313, 245, 121, 260, 184
-0.995317, 237, 201, 252, 264
-0.995349, 193, 81, 208, 144
-0.995359, 161, 193, 288, 224
-0.99537, 213, 193, 228, 256
-0.995378, 331, 233, 346, 296
-0.995403, 289, 113, 416, 144
-0.995405, 369, 289, 496, 320
-0.995407, 471, 73, 486, 136
-0.995407, 241, 121, 368, 152
-0.995409, 207, 193, 222, 256
-0.995414, 161, 193, 176, 256
-0.995419, 305, 153, 320, 216
-0.995429, 137, 177, 152, 240
-0.995437, 127, 257, 142, 320
-0.995443, 443, 169, 458, 232
-0.995473, 321, 225, 336, 288
-0.995474, 115, 89, 130, 152
-0.995478, 333, 97, 348, 160
-0.995495, 193, 153, 208, 216
-0.995499, 185, 177, 200, 240
-0.995501, 257, 217, 384, 248
-0.995509, 225, 129, 256, 256
-0.995517, 217, 65, 248, 320
-0.995521, 129, 181, 256, 212
-0.995537, 241, 85, 368, 116
-0.995547, 261, 65, 292, 320
-0.995565, 369, 253, 496, 284
-0.995586, 113, 153, 240, 184
-0.995595, 225, 49, 352, 112
-0.995738, 209, 185, 336, 216
-0.995746, 113, 141, 240, 172
-0.995825, 305, 297, 432, 328
-0.995826, 241, 233, 368, 264
-0.99592, 129, 89, 256, 120
-0.99593, 369, 69, 496, 100
-0.995951, 49, 237, 176, 268
-0.995959, 321, 57, 448, 88
-0.995975, 201, 1, 232, 128
-0.995985, 369, 273, 496, 304
-0.995989, 65, 221, 192, 252
-0.996002, 129, 269, 256, 300
-0.996057, 153, 65, 184, 320
-0.996102, 405, 65, 436, 320
-0.996105, 309, 65, 340, 320
-0.996138, 81, 269, 208, 300
-0.99615, 1, 33, 128, 96
-0.996191, 289, 269, 416, 300
-0.996216, 49, 17, 176, 80
-0.996263, 305, 285, 432, 316
-0.996267, 289, 249, 416, 280
-0.996282, 321, 65, 352, 320
-0.99629, 273, 9, 400, 72
-0.996305, 1, 273, 256, 333
-0.996328, 225, 257, 352, 288
-0.996339, 193, 85, 320, 116
-0.996339, 109, 65, 140, 320
-0.996364, 297, 65, 328, 320
-0.996368, 281, 225, 296, 256
-0.99641, 413, 53, 428, 84
-0.996412, 337, 1, 464, 64
-0.996434, 369, 93, 496, 124
-0.996454, 169, 1, 200, 128
-0.996554, 313, 209, 328, 240
-0.996557, 225, 173, 352, 204
-0.996558, 449, 33, 480, 288
-0.996564, 299, 233, 314, 264
-0.996569, 99, 93, 114, 124
-0.996585, 417, 65, 448, 320
-0.996627, 443, 53, 458, 84
-0.99664, 331, 237, 346, 268
-0.996685, 161, 33, 416, 96
-0.9967, 309, 225, 324, 256
-0.996713, 17, 253, 144, 284
-0.996724, 321, 225, 336, 256
-0.996748, 259, 217, 274, 248
-0.996762, 263, 97, 278, 128
-0.996774, 279, 97, 294, 128
-0.996808, 259, 205, 274, 236
-0.996815, 245, 205, 260, 236
-0.996872, 425, 173, 440, 204
-0.996881, 241, 245, 368, 276
-0.996885, 425, 61, 440, 92
-0.996895, 251, 205, 266, 236
-0.996918, 177, 173, 304, 204
-0.996923, 177, 297, 304, 328
-0.996936, 253, 109, 268, 140
-0.996945, 245, 217, 260, 248
-0.996965, 161, 253, 288, 284
-0.996983, 225, 205, 240, 236
-0.996987, 321, 89, 336, 120
-0.997007, 177, 161, 304, 192
-0.997012, 141, 1, 172, 128
-0.997018, 369, 45, 496, 76
-0.997025, 307, 213, 322, 244
-0.997026, 395, 53, 410, 84
-0.997035, 281, 237, 296, 268
-0.997044, 289, 233, 304, 264
-0.997051, 225, 157, 352, 188
-0.99706, 435, 161, 450, 192
-0.997068, 243, 97, 258, 128
-0.997073, 193, 269, 320, 300
-0.99708, 219, 113, 234, 144
-0.99708, 291, 197, 306, 228
-0.997088, 391, 201, 406, 232
-0.997091, 389, 57, 404, 88
-0.997093, 33, 89, 160, 120
-0.997099, 435, 61, 450, 92
-0.997101, 219, 97, 234, 128
-0.997102, 73, 1, 136, 128
-0.997108, 291, 221, 306, 252
-0.997114, 183, 101, 198, 132
-0.997116, 49, 1, 112, 128
-0.997131, 231, 205, 246, 236
-0.997133, 157, 241, 172, 272
-0.997134, 109, 97, 124, 128
-0.997134, 25, 1, 88, 128
-0.997139, 331, 97, 346, 128
-0.997142, 257, 293, 384, 324
-0.997151, 231, 217, 246, 248
-0.997152, 1, 105, 128, 136
-0.997155, 321, 209, 336, 240
-0.997162, 299, 193, 314, 224
-0.997164, 1, 217, 128, 248
-0.997187, 251, 217, 266, 248
-0.997194, 209, 225, 224, 256
-0.997216, 237, 217, 252, 248
-0.997216, 463, 301, 478, 332
-0.99722, 297, 125, 312, 156
-0.997225, 299, 205, 314, 236
-0.997226, 405, 61, 420, 92
-0.997232, 337, 65, 368, 320
-0.997236, 209, 97, 224, 128
-0.997236, 299, 221, 314, 252
-0.997236, 245, 229, 260, 260
-0.997243, 153, 257, 168, 288
-0.997245, 315, 225, 330, 256
-0.997247, 1, 33, 64, 160
-0.997249, 291, 97, 306, 128
-0.997254, 271, 221, 286, 252
-0.997259, 477, 49, 492, 80
-0.997259, 1, 229, 128, 260
-0.99726, 299, 97, 314, 128
-0.99726, 147, 221, 162, 252
-0.997262, 401, 217, 416, 248
-0.997263, 155, 101, 170, 132
-0.997277, 481, 301, 496, 332
-0.997282, 299, 245, 314, 276
-0.997284, 323, 237, 338, 268
-0.997285, 353, 121, 368, 152
-0.997287, 419, 53, 434, 84
-0.99729, 225, 145, 352, 176
-0.997292, 229, 97, 244, 128
-0.997294, 409, 225, 424, 256
-0.9973, 327, 85, 342, 116
-0.9973, 225, 217, 240, 248
-0.997301, 157, 221, 172, 252
-0.997302, 313, 241, 328, 272
-0.997312, 291, 177, 306, 208
-0.997317, 299, 173, 314, 204
-0.997318, 289, 69, 416, 100
-0.997319, 305, 197, 320, 228
-0.997325, 173, 101, 188, 132
-0.99733, 327, 225, 342, 256
-0.997333, 321, 101, 336, 132
-0.997337, 243, 117, 258, 148
-0.997347, 419, 209, 434, 240
-0.997348, 477, 61, 492, 92
-0.997361, 137, 253, 152, 284
-0.997366, 269, 109, 284, 140
-0.997369, 269, 97, 284, 128
-0.997377, 117, 97, 132, 128
-0.997378, 291, 165, 306, 196
-0.99738, 213, 117, 228, 148
-0.99738, 331, 121, 346, 152
-0.997382, 305, 1, 336, 128
-0.997394, 389, 105, 404, 136
-0.997399, 203, 117, 218, 148
-0.997403, 271, 205, 286, 236
-0.997404, 1, 9, 128, 72
-0.997412, 307, 237, 322, 268
-0.997414, 1, 161, 128, 192
-0.997417, 237, 205, 252, 236
-0.997422, 167, 245, 182, 276
-0.997424, 65, 65, 96, 320
-0.997426, 253, 193, 268, 224
-0.997426, 177, 217, 192, 248
-0.99743, 227, 117, 242, 148
-0.997433, 147, 257, 162, 288
-0.997437, 313, 89, 328, 120
-0.997439, 475, 301, 490, 332
-0.997442, 203, 97, 218, 128
-0.997443, 219, 205, 234, 236
-0.997443, 333, 217, 348, 248
-0.997445, 275, 233, 290, 264
-0.997457, 127, 101, 142, 132
-0.99746, 297, 157, 312, 188
-0.997479, 209, 205, 224, 236
-0.997481, 423, 225, 438, 256
-0.997486, 327, 213, 342, 244
-0.997488, 219, 217, 234, 248
-0.997512, 129, 213, 144, 244
-0.997515, 147, 237, 162, 268
-0.997527, 305, 101, 320, 132
-0.997527, 291, 153, 306, 184
-0.997529, 263, 117, 278, 148
-0.997535, 257, 97, 272, 128
-0.997536, 235, 117, 250, 148
-0.99754, 165, 229, 180, 260
-0.997541, 223, 189, 238, 220
-0.997549, 167, 205, 182, 236
-0.997557, 421, 301, 436, 332
-0.997563, 473, 101, 488, 132
-0.997565, 261, 229, 276, 260
-0.99757, 193, 97, 208, 128
-0.997576, 337, 237, 352, 268
-0.997579, 291, 209, 306, 240
-0.997579, 185, 209, 200, 240
-0.997588, 257, 129, 272, 160
-0.997588, 237, 97, 252, 128
-0.997595, 137, 201, 152, 232
-0.997606, 177, 149, 304, 180
-0.997653, 53, 65, 84, 320
-0.997661, 129, 285, 256, 316
-0.997734, 81, 77, 208, 108
-0.997806, 1, 193, 128, 224
-0.99784, 1, 25, 500, 88
-0.997865, 129, 45, 256, 76
-0.997927, 225, 133, 352, 164
-0.997957, 129, 297, 256, 328
-0.997966, 257, 25, 500, 88
-0.998079, 145, 77, 272, 108
-0.998135, 273, 57, 400, 88
-0.998147, 33, 49, 288, 112
-0.998161, 225, 73, 352, 104
-0.998162, 81, 297, 208, 328
-0.998247, 273, 45, 400, 76
-0.998259, 193, 285, 320, 316
-0.998272, 1, 137, 128, 168
-0.998302, 177, 45, 304, 76
-0.998314, 377, 65, 408, 320
-0.998331, 321, 45, 448, 76
-0.998335, 337, 81, 464, 112
-0.998338, 377, 211, 440, 226
-0.998338, 377, 55, 440, 70
-0.998346, 89, 145, 120, 272
-0.998349, 1, 149, 128, 180
-0.99835, 297, 215, 360, 230
-0.998355, 301, 177, 316, 304
-0.998363, 417, 59, 480, 74
-0.998364, 201, 231, 264, 246
-0.998371, 257, 211, 320, 226
-0.998379, 409, 309, 472, 324
-0.998379, 1, 241, 128, 272
-0.998385, 209, 207, 272, 222
-0.998386, 377, 205, 440, 220
-0.998393, 241, 269, 368, 300
-0.998395, 425, 161, 488, 176
-0.998406, 433, 305, 496, 320
-0.998411, 241, 281, 368, 312
-0.99842, 289, 209, 352, 224
-0.99842, 289, 99, 352, 114
-0.998422, 377, 191, 440, 206
-0.998428, 137, 103, 200, 118
-0.99843, 233, 209, 296, 224
-0.998431, 289, 237, 352, 252
-0.998431, 257, 217, 320, 232
-0.998433, 129, 253, 192, 268
-0.998434, 377, 197, 440, 212
-0.998437, 289, 245, 352, 260
-0.998441, 417, 175, 480, 190
-0.998442, 385, 305, 448, 320
-0.998444, 377, 105, 440, 120
-0.998445, 377, 181, 440, 196
-0.998446, 279, 81, 294, 208
-0.998447, 289, 125, 352, 140
-0.998448, 169, 229, 232, 244
-0.998448, 425, 167, 488, 182
-0.998448, 201, 215, 264, 230
-0.998449, 169, 223, 232, 238
-0.998451, 377, 217, 440, 232
-0.998452, 193, 101, 256, 116
-0.998455, 425, 149, 488, 164
-0.998461, 425, 155, 488, 170
-0.998461, 225, 219, 288, 234
-0.998462, 289, 251, 352, 266
-0.998462, 313, 193, 328, 320
-0.998464, 225, 229, 288, 244
-0.998467, 257, 101, 320, 116
-0.998468, 201, 201, 264, 216
-0.998469, 81, 97, 144, 112
-0.998472, 377, 175, 440, 190
-0.998472, 353, 217, 416, 232
-0.998472, 169, 217, 232, 232
-0.998474, 377, 61, 440, 76
-0.998474, 313, 221, 376, 236
-0.998477, 289, 257, 352, 272
-0.998479, 225, 119, 288, 134
-0.998484, 209, 237, 272, 252
-0.998484, 417, 219, 480, 234
-0.998485, 313, 209, 376, 224
-0.998486, 129, 223, 192, 238
-0.998486, 409, 303, 472, 318
-0.998486, 201, 221, 264, 236
-0.998489, 377, 165, 440, 180
-0.998489, 129, 261, 192, 276
-0.99849, 425, 315, 488, 330
-0.998495, 193, 225, 224, 240
-0.998495, 185, 97, 216, 112
-0.998495, 417, 73, 480, 88
-0.998495, 449, 133, 480, 148
-0.998495, 173, 243, 204, 258
-0.998495, 277, 163, 308, 178
-0.998496, 309, 93, 340, 108
-0.998496, 141, 211, 172, 226
-0.998497, 121, 195, 152, 210
-0.998497, 457, 315, 488, 330
-0.998498, 433, 157, 464, 172
-0.998498, 401, 71, 432, 86
-0.998499, 129, 33, 256, 64
-0.998499, 469, 105, 500, 120
-0.998499, 257, 161, 288, 176
-0.9985, 377, 227, 440, 242
-0.9985, 433, 151, 464, 166
-0.9985, 289, 227, 352, 242
-0.998503, 257, 117, 288, 132
-0.998504, 329, 99, 360, 114
-0.998504, 181, 109, 212, 124
-0.998504, 269, 111, 300, 126
-0.998505, 289, 221, 352, 236
-0.998505, 229, 195, 260, 210
-0.998506, 417, 67, 480, 82
-0.998506, 129, 247, 192, 262
-0.998506, 249, 109, 280, 124
-0.998507, 433, 53, 496, 68
-0.998509, 169, 235, 232, 250
-0.998509, 425, 131, 488, 146
-0.998509, 249, 203, 312, 218
-0.99851, 137, 215, 200, 230
-0.99851, 201, 295, 264, 310
-0.998511, 249, 193, 280, 208
-0.998511, 417, 181, 480, 196
-0.998512, 213, 97, 244, 112
-0.998512, 161, 245, 192, 260
-0.998513, 425, 107, 488, 122
-0.998513, 93, 103, 124, 118
-0.998513, 325, 213, 356, 228
-0.998513, 265, 237, 328, 252
-0.998514, 317, 235, 348, 250
-0.998514, 257, 225, 320, 240
-0.998515, 377, 239, 440, 254
-0.998515, 225, 101, 288, 116
-0.998516, 205, 103, 236, 118
-0.998516, 169, 211, 232, 226
-0.998516, 401, 105, 464, 120
-0.998517, 133, 95, 164, 110
-0.998518, 185, 119, 248, 134
-0.998518, 317, 251, 348, 266
-0.998518, 425, 221, 456, 236
-0.998519, 265, 231, 296, 246
-0.99852, 273, 307, 336, 322
-0.99852, 233, 237, 296, 252
-0.998521, 289, 163, 352, 178
-0.998521, 337, 209, 400, 224
-0.998521, 209, 95, 272, 110
-0.998521, 417, 211, 480, 226
-0.998522, 141, 243, 172, 258
-0.998522, 277, 117, 308, 132
-0.998522, 425, 143, 488, 158
-0.998522, 121, 203, 152, 218
-0.998523, 145, 269, 176, 284
-0.998523, 385, 67, 416, 82
-0.998523, 313, 245, 344, 260
-0.998524, 409, 315, 440, 330
-0.998525, 297, 245, 328, 260
-0.998525, 443, 97, 458, 224
-0.998525, 361, 307, 424, 322
-0.998525, 289, 175, 352, 190
-0.998526, 209, 209, 240, 224
-0.998526, 277, 193, 308, 208
-0.998526, 89, 103, 152, 118
-0.998526, 393, 297, 456, 312
-0.998527, 393, 315, 456, 330
-0.998528, 85, 65, 116, 320
-0.998528, 453, 151, 484, 166
-0.998529, 201, 131, 232, 146
-0.998529, 289, 203, 352, 218
-0.99853, 169, 227, 200, 242
-0.99853, 417, 187, 480, 202
-0.99853, 421, 33, 436, 160
-0.99853, 409, 219, 440, 234
-0.998531, 477, 33, 492, 160
-0.998531, 177, 95, 240, 110
-0.998531, 409, 205, 472, 220
-0.998532, 185, 231, 216, 246
-0.998532, 249, 231, 312, 246
-0.998532, 113, 267, 176, 282
-0.998532, 177, 295, 240, 310
-0.998533, 385, 159, 448, 174
-0.998533, 289, 149, 352, 164
-0.998534, 141, 203, 172, 218
-0.998534, 277, 157, 308, 172
-0.998534, 141, 197, 172, 212
-0.998535, 289, 195, 352, 210
-0.998535, 321, 125, 352, 140
-0.998537, 289, 199, 320, 214
-0.998537, 169, 253, 232, 268
-0.998538, 261, 205, 292, 220
-0.998538, 193, 109, 224, 124
-0.998539, 409, 225, 440, 240
-0.998539, 289, 169, 352, 184
-0.998539, 169, 203, 200, 218
-0.99854, 137, 195, 200, 210
-0.99854, 413, 65, 444, 80
-0.99854, 289, 205, 320, 220
-0.99854, 301, 99, 332, 114
-0.99854, 425, 243, 488, 258
-0.998541, 257, 157, 320, 172
-0.998542, 177, 131, 240, 146
-0.998542, 429, 105, 460, 120
-0.998543, 289, 105, 352, 120
-0.998543, 417, 195, 480, 210
-0.998543, 289, 93, 352, 108
-0.998544, 377, 67, 440, 82
-0.998545, 277, 129, 308, 144
-0.998545, 137, 119, 200, 134
-0.998545, 225, 201, 288, 216
-0.998545, 137, 163, 200, 178
-0.998545, 289, 141, 320, 156
-0.998546, 265, 125, 328, 140
-0.998546, 97, 65, 128, 320
-0.998547, 125, 211, 156, 226
-0.998547, 137, 155, 200, 170
-0.998547, 145, 221, 176, 236
-0.998547, 149, 103, 180, 118
-0.998548, 277, 123, 308, 138
-0.998548, 389, 105, 420, 120
-0.998549, 393, 305, 424, 320
-0.998549, 277, 243, 308, 258
-0.99855, 277, 145, 308, 160
-0.99855, 257, 257, 320, 272
-0.99855, 137, 259, 168, 274
-0.99855, 33, 171, 96, 186
-0.99855, 225, 129, 288, 144
-0.99855, 425, 315, 456, 330
-0.998551, 313, 125, 376, 140
-0.998551, 377, 289, 440, 304
-0.998552, 121, 133, 152, 148
-0.998553, 329, 219, 360, 234
-0.998553, 65, 17, 96, 144
-0.998553, 297, 125, 328, 140
-0.998554, 137, 97, 200, 112
-0.998554, 405, 33, 420, 160
-0.998555, 433, 63, 464, 78
-0.998556, 249, 245, 312, 260
-0.998556, 257, 193, 320, 208
-0.998557, 225, 195, 288, 210
-0.998557, 257, 107, 320, 122
-0.998557, 157, 215, 188, 230
-0.998558, 137, 145, 200, 160
-0.99856, 289, 155, 352, 170
-0.99856, 417, 233, 480, 248
-0.998561, 385, 205, 416, 220
-0.998561, 241, 113, 304, 128
-0.998561, 469, 55, 500, 70
-0.998561, 137, 169, 200, 184
-0.998561, 209, 109, 272, 124
-0.998568, 289, 107, 320, 122
-0.998568, 277, 151, 308, 166
-0.99857, 177, 103, 208, 118
-0.99857, 229, 221, 260, 236
-0.99857, 93, 97, 124, 112
-0.998571, 277, 135, 308, 150
-0.998571, 291, 161, 306, 288
-0.998572, 341, 125, 372, 140
-0.998574, 213, 235, 244, 250
-0.998574, 421, 305, 452, 320
-0.998575, 229, 201, 260, 216
-0.998576, 257, 129, 288, 144
-0.998579, 257, 101, 288, 116
-0.998582, 249, 227, 280, 242
-0.998585, 413, 33, 428, 160
-0.998587, 193, 103, 224, 118
-0.998588, 429, 81, 444, 208
-0.998591, 265, 217, 296, 232
-0.998594, 17, 265, 144, 296
-0.998596, 125, 259, 156, 274
-0.998597, 461, 305, 492, 320
-0.998598, 169, 221, 200, 236
-0.998599, 389, 57, 420, 72
-0.998599, 389, 221, 420, 236
-0.998601, 245, 237, 276, 252
-0.998602, 201, 231, 232, 246
-0.998602, 113, 101, 144, 116
-0.998603, 269, 199, 300, 214
-0.998604, 81, 53, 208, 84
-0.998604, 391, 33, 406, 160
-0.998605, 309, 211, 340, 226
-0.998607, 429, 169, 460, 184
-0.998607, 409, 307, 440, 322
-0.998608, 265, 237, 296, 252
-0.998609, 297, 237, 328, 252
-0.998612, 229, 101, 260, 116
-0.998612, 473, 97, 488, 224
-0.998613, 227, 97, 242, 224
-0.998621, 405, 213, 436, 228
-0.998621, 1, 77, 128, 108
-0.998621, 265, 211, 296, 226
-0.998624, 409, 55, 440, 70
-0.998627, 277, 101, 308, 116
-0.998628, 213, 229, 244, 244
-0.99863, 437, 97, 452, 224
-0.99863, 221, 145, 236, 272
-0.998633, 249, 199, 280, 214
-0.998635, 285, 217, 316, 232
-0.998639, 313, 217, 344, 232
-0.998641, 277, 237, 308, 252
-0.998641, 441, 307, 472, 322
-0.998643, 297, 129, 312, 256
-0.998647, 327, 177, 342, 304
-0.998648, 277, 209, 308, 224
-0.998649, 229, 215, 260, 230
-0.998652, 249, 217, 280, 232
-0.998656, 397, 33, 412, 160
-0.998659, 297, 217, 328, 232
-0.998659, 289, 99, 320, 114
-0.99866, 389, 81, 404, 208
-0.998663, 483, 33, 498, 160
-0.998664, 341, 1, 372, 128
-0.998665, 229, 209, 260, 224
-0.99867, 161, 57, 288, 88
-0.998673, 429, 57, 460, 72
-0.998677, 317, 99, 348, 114
-0.998678, 425, 161, 440, 288
-0.99868, 33, 289, 160, 320
-0.99868, 249, 209, 280, 224
-0.998682, 433, 163, 464, 178
-0.998689, 229, 231, 260, 246
-0.99869, 273, 161, 288, 288
-0.99869, 297, 211, 328, 226
-0.998692, 1, 173, 128, 204
-0.998694, 1, 117, 128, 148
-0.998703, 125, 81, 140, 208
-0.998707, 307, 129, 322, 256
-0.998715, 331, 81, 346, 208
-0.998717, 427, 33, 442, 160
-0.998728, 291, 113, 306, 240
-0.998734, 435, 33, 450, 160
-0.998736, 445, 49, 460, 176
-0.998746, 213, 97, 228, 224
-0.998748, 231, 177, 246, 304
-0.998759, 257, 81, 272, 208
-0.998761, 435, 145, 450, 272
-0.998763, 129, 21, 256, 52
-0.998767, 255, 177, 270, 304
-0.998774, 307, 193, 322, 320
-0.998776, 317, 113, 332, 240
-0.998777, 423, 97, 438, 224
-0.998778, 185, 97, 200, 224
-0.998782, 297, 81, 312, 208
-0.99879, 1, 33, 32, 160
-0.998797, 161, 193, 176, 320
-0.998805, 171, 97, 186, 224
-0.998807, 65, 65, 192, 96
-0.998813, 113, 81, 128, 208
-0.998825, 195, 145, 210, 272
-0.998838, 265, 81, 280, 208
-0.998842, 155, 97, 170, 224
-0.998847, 137, 161, 152, 288
-0.99885, 205, 81, 220, 208
-0.998859, 165, 97, 180, 224
-0.998876, 151, 209, 166, 333
-0.998877, 185, 161, 200, 288
-0.998882, 249, 177, 264, 304
-0.998882, 415, 81, 430, 208
-0.998885, 195, 97, 210, 224
-0.998886, 243, 65, 258, 192
-0.998889, 291, 209, 306, 333
-0.998891, 177, 209, 192, 333
-0.998892, 305, 81, 320, 208
-0.998896, 201, 193, 216, 320
-0.998908, 265, 177, 280, 304
-0.998918, 215, 161, 230, 288
-0.99892, 391, 209, 406, 333
-0.998922, 143, 97, 158, 224
-0.998924, 167, 161, 182, 288
-0.998925, 319, 193, 334, 320
-0.998927, 219, 97, 234, 224
-0.998928, 209, 177, 224, 304
-0.998935, 441, 145, 456, 272
-0.99894, 273, 81, 288, 208
-0.998941, 67, 113, 82, 240
-0.998944, 333, 161, 348, 288
-0.998945, 277, 209, 292, 333
-0.998961, 137, 97, 152, 224
-0.998963, 471, 33, 486, 160
-0.998968, 355, 129, 370, 256
-0.998981, 397, 81, 412, 208
-0.998988, 225, 193, 240, 320
-0.998992, 129, 177, 144, 304
-0.999002, 99, 81, 114, 208
-0.999005, 115, 129, 130, 256
-0.99902, 353, 65, 384, 320
-0.999021, 135, 49, 150, 176
-0.999024, 283, 193, 298, 320
-0.999027, 191, 209, 206, 333
-0.999028, 69, 193, 84, 320
-0.999031, 365, 33, 396, 288
-0.999031, 243, 177, 258, 304
-0.999034, 323, 81, 338, 208
-0.999035, 249, 113, 264, 240
-0.999043, 135, 209, 150, 333
-0.999049, 485, 81, 500, 208
-0.999052, 119, 81, 134, 208
-0.999055, 291, 65, 306, 192
-0.999055, 237, 193, 252, 320
-0.999056, 145, 209, 160, 333
-0.999062, 317, 65, 332, 192
-0.999064, 353, 81, 368, 208
-0.999073, 479, 81, 494, 208
-0.999074, 131, 97, 146, 224
-0.99908, 391, 161, 406, 288
-0.999087, 421, 209, 436, 333
-0.999092, 323, 129, 338, 256
-0.999092, 237, 65, 252, 192
-0.999094, 281, 145, 296, 272
-0.9991, 185, 209, 200, 333
-0.999101, 171, 209, 186, 333
-0.999109, 333, 209, 348, 333
-0.999111, 123, 177, 138, 304
-0.999113, 217, 33, 232, 160
-0.999122, 177, 97, 192, 224
-0.999123, 203, 145, 218, 272
-0.999126, 219, 209, 234, 333
-0.999132, 193, 49, 208, 176
-0.999135, 397, 209, 412, 333
-0.999135, 265, 129, 280, 256
-0.999136, 445, 209, 460, 333
-0.999137, 343, 81, 358, 208
-0.999144, 155, 161, 170, 288
-0.99915, 59, 177, 74, 304
-0.999158, 143, 161, 158, 288
-0.999159, 385, 33, 400, 160
-0.999164, 473, 161, 488, 288
-0.999166, 407, 209, 422, 333
-0.999171, 223, 33, 238, 160
-0.999172, 115, 177, 130, 304
-0.999179, 179, 161, 194, 288
-0.999179, 161, 145, 176, 272
-0.999182, 449, 97, 464, 224
-0.999184, 447, 161, 462, 288
-0.999197, 349, 129, 364, 256
-0.999199, 255, 129, 270, 256
-0.999206, 109, 33, 124, 160
-0.999211, 75, 145, 90, 272
-0.999213, 33, 25, 288, 88
-0.999273, 41, 65, 72, 320
-0.999288, 365, 1, 396, 128
-0.999675, 33, 129, 64, 256
-0.999678, 281, 245, 296, 260
-0.999679, 53, 33, 84, 160
-0.999679, 269, 109, 284, 124
-0.99968, 193, 109, 208, 124
-0.99968, 213, 95, 228, 110
-0.99968, 269, 101, 284, 116
-0.99968, 209, 237, 224, 252
-0.999681, 219, 113, 234, 128
-0.999681, 227, 101, 242, 116
-0.999681, 409, 227, 424, 242
-0.999682, 237, 219, 252, 234
-0.999682, 443, 65, 458, 80
-0.999683, 215, 201, 230, 216
-0.999683, 331, 227, 346, 242
-0.999683, 219, 99, 234, 114
-0.999683, 299, 243, 314, 258
-0.999683, 139, 263, 154, 278
-0.999685, 331, 219, 346, 234
-0.999685, 297, 153, 312, 168
-0.999685, 397, 55, 412, 70
-0.999686, 425, 179, 440, 194
-0.999686, 251, 215, 266, 230
-0.999686, 129, 265, 144, 280
-0.999687, 203, 231, 218, 246
-0.999687, 109, 109, 124, 124
-0.999688, 291, 235, 306, 250
-0.999689, 225, 195, 240, 210
-0.99969, 225, 235, 240, 250
-0.99969, 219, 225, 234, 240
-0.999691, 297, 161, 312, 176
-0.999692, 185, 213, 200, 228
-0.999692, 271, 215, 286, 230
-0.999692, 253, 97, 268, 112
-0.999694, 331, 125, 346, 140
-0.999695, 315, 97, 330, 112
-0.999695, 151, 259, 166, 274
-0.999695, 321, 245, 336, 260
-0.999696, 299, 197, 314, 212
-0.999696, 227, 107, 242, 122
-0.999696, 421, 229, 436, 244
-0.999699, 157, 253, 172, 268
-0.9997, 435, 69, 450, 84
-0.999701, 243, 221, 258, 236
-0.999701, 225, 203, 240, 218
-0.999702, 243, 101, 258, 116
-0.999704, 167, 249, 182, 264
-0.999704, 293, 169, 308, 184
-0.999704, 237, 225, 252, 240
-0.999704, 237, 205, 252, 220
-0.999704, 231, 213, 246, 228
-0.999705, 389, 219, 404, 234
-0.999705, 427, 315, 442, 330
-0.999709, 413, 55, 428, 70
-0.999709, 231, 205, 246, 220
-0.99971, 167, 221, 182, 236
-0.999711, 429, 65, 444, 80
-0.999712, 291, 241, 306, 256
-0.999713, 291, 215, 306, 230
-0.999714, 485, 307, 500, 322
-0.999714, 389, 105, 404, 120
-0.999716, 157, 265, 172, 280
-0.999716, 291, 189, 306, 204
-0.999717, 389, 205, 404, 220
-0.999717, 245, 237, 260, 252
-0.999718, 261, 235, 276, 250
-0.99972, 99, 95, 114, 110
-0.99972, 291, 179, 306, 194
-0.99972, 327, 243, 342, 258
-0.999721, 299, 215, 314, 230
-0.999722, 179, 95, 194, 110
-0.999722, 129, 259, 144, 274
-0.999723, 309, 99, 324, 114
-0.999724, 331, 251, 346, 266
-0.999724, 209, 101, 224, 116
-0.999724, 427, 173, 442, 188
-0.999725, 253, 109, 268, 124
-0.999725, 405, 71, 420, 86
-0.999726, 215, 211, 230, 226
-0.999726, 173, 103, 188, 118
-0.999727, 225, 209, 240, 224
-0.999728, 353, 125, 368, 140
-0.999728, 261, 207, 276, 222
-0.999732, 155, 103, 170, 118
-0.999733, 137, 257, 152, 272
-0.999734, 255, 235, 270, 250
-0.999736, 427, 57, 442, 72
-0.999739, 281, 215, 296, 230
-0.999739, 325, 213, 340, 228
-0.999742, 317, 237, 332, 252
-0.999744, 291, 101, 306, 116
-0.999744, 331, 237, 346, 252
-0.999745, 401, 221, 416, 236
-0.999747, 297, 125, 312, 140
-0.999747, 253, 229, 268, 244
-0.99975, 249, 203, 264, 218
-0.999751, 461, 305, 476, 320
-0.999754, 255, 203, 270, 218
-0.999755, 183, 103, 198, 118
-0.999755, 237, 211, 252, 226
-0.999757, 157, 241, 172, 256
-0.999758, 231, 231, 246, 246
-0.99976, 405, 307, 420, 322
-0.999763, 193, 1, 448, 64
-0.999764, 307, 215, 322, 230
-0.999765, 299, 235, 314, 250
-0.999767, 263, 101, 278, 116
-0.999767, 391, 307, 406, 322
-0.999768, 323, 99, 338, 114
-0.999769, 255, 209, 270, 224
-0.999772, 305, 209, 320, 224
-0.999775, 291, 205, 306, 220
-0.999775, 397, 307, 412, 322
-0.999778, 179, 221, 194, 236
-0.999778, 445, 57, 460, 72
-0.99978, 225, 229, 240, 244
-0.999781, 411, 307, 426, 322
-0.999783, 421, 307, 436, 322
-0.999784, 245, 209, 260, 224
-0.999785, 245, 215, 260, 230
-0.999786, 331, 99, 346, 114
-0.999786, 279, 101, 294, 116
-0.999787, 215, 231, 230, 246
-0.999794, 209, 231, 224, 246
-0.999794, 299, 209, 314, 224
-0.999796, 259, 217, 274, 232
-0.999802, 477, 55, 492, 70
-0.999806, 281, 235, 296, 250
-0.999807, 241, 231, 256, 246
-0.99981, 435, 163, 450, 178
-0.999815, 317, 217, 332, 232
-0.999816, 299, 99, 314, 114
-0.999844, 313, 211, 328, 226
-1, 33, 1, 288, 64
-1.00025, 29, 65, 60, 320
-1.00055, 1, 65, 32, 320
-1.00125, 13, 1, 44, 256
-1.00199, 1, 1, 500, 64
