1836
-0.397043, 1, 225, 299, 480
-0.479929, 1, 1, 299, 480
-0.48302, 1, 65, 299, 320
-0.559434, 33, 225, 288, 480
-0.565757, 33, 1, 288, 480
-0.692247, 1, 97, 256, 352
-0.822288, 33, 1, 288, 256
-0.829626, 113, 193, 240, 448
-0.843564, 1, 289, 299, 416
-0.845083, 49, 161, 176, 416
-0.860066, 81, 1, 208, 480
-0.867263, 17, 1, 144, 480
-0.878629, 97, 97, 224, 352
-0.880433, 1, 289, 256, 416
-0.88428, 161, 97, 288, 352
-0.890638, 1, 177, 299, 304
-0.891893, 33, 65, 160, 320
-0.891935, 1, 241, 299, 368
-0.895528, 177, 225, 299, 480
-0.896447, 129, 1, 256, 480
-0.900359, 1, 353, 299, 480
-0.902316, 1, 129, 299, 256
-0.90683, 113, 1, 240, 256
-0.907735, 1, 81, 299, 208
-0.91027, 1, 225, 128, 480
-0.910743, 33, 241, 288, 368
-0.913657, 1, 353, 256, 480
-0.915108, 177, 1, 299, 480
-0.915471, 1, 177, 256, 304
-0.919104, 97, 209, 224, 336
-0.921938, 33, 289, 160, 416
-0.923798, 65, 273, 128, 400
-0.925016, 121, 113, 184, 240
-0.925145, 81, 289, 208, 416
-0.926923, 81, 129, 208, 256
-0.927714, 121, 161, 184, 288
-0.929473, 153, 209, 216, 336
-0.932053, 145, 289, 272, 416
-0.932494, 97, 353, 224, 480
-0.932557, 1, 113, 256, 240
-0.932665, 97, 225, 160, 352
-0.934183, 41, 289, 104, 416
-0.934213, 161, 257, 224, 384
-0.93538, 121, 241, 184, 368
-0.935828, 89, 273, 152, 400
-0.935975, 161, 177, 288, 304
-0.936158, 161, 353, 288, 480
-0.936437, 73, 225, 136, 352
-0.937558, 161, 1, 288, 256
-0.937862, 193, 289, 256, 416
-0.938692, 1, 33, 299, 160
-0.939099, 65, 81, 192, 208
-0.940019, 161, 129, 288, 256
-0.940276, 145, 161, 208, 288
-0.940421, 81, 113, 144, 240
-0.940781, 17, 161, 144, 288
-0.940925, 97, 177, 160, 304
-0.941411, 1, 65, 256, 192
-0.941577, 49, 241, 176, 368
-0.942829, 161, 225, 288, 352
-0.94315, 97, 353, 160, 480
-0.943649, 65, 281, 128, 344
-0.945047, 145, 97, 208, 224
-0.945201, 137, 305, 200, 432
-0.946676, 33, 353, 160, 480
-0.946785, 97, 65, 160, 192
-0.947291, 161, 337, 224, 464
-0.948531, 89, 289, 152, 352
-0.949047, 169, 129, 232, 256
-0.95065, 193, 337, 256, 464
-0.951242, 17, 289, 80, 416
-0.951505, 153, 249, 216, 312
-0.952027, 161, 177, 224, 240
-0.95208, 49, 209, 112, 336
-0.952239, 73, 65, 136, 192
-0.952427, 185, 289, 248, 352
-0.952791, 129, 113, 192, 176
-0.952826, 177, 177, 240, 304
-0.953003, 113, 177, 176, 240
-0.953161, 153, 217, 216, 280
-0.953247, 145, 65, 272, 192
-0.954149, 1, 337, 64, 464
-0.954223, 1, 241, 128, 368
-0.955101, 113, 297, 176, 360
-0.955432, 121, 65, 184, 192
-0.955693, 49, 337, 112, 464
-0.955867, 17, 113, 144, 240
-0.955901, 81, 185, 144, 248
-0.956658, 41, 281, 104, 344
-0.957429, 193, 345, 256, 408
-0.957452, 113, 289, 176, 416
-0.957707, 105, 145, 168, 208
-0.957843, 65, 321, 128, 384
-0.957858, 137, 273, 200, 336
-0.957898, 49, 145, 112, 272
-0.958315, 113, 249, 176, 312
-0.959067, 41, 345, 104, 408
-0.959157, 105, 113, 168, 176
-0.959417, 137, 409, 200, 472
-0.959593, 193, 217, 256, 280
-0.959743, 169, 313, 232, 376
-0.959808, 89, 329, 152, 392
-0.959849, 81, 145, 144, 208
-0.959853, 97, 409, 160, 472
-0.961385, 89, 209, 152, 272
-0.961502, 73, 337, 136, 464
-0.961506, 137, 345, 200, 408
-0.961838, 137, 177, 200, 240
-0.961994, 89, 257, 120, 384
-0.962141, 129, 353, 192, 480
-0.962202, 81, 121, 144, 184
-0.962323, 185, 241, 248, 368
-0.962578, 41, 321, 104, 384
-0.96285, 193, 321, 256, 384
-0.963009, 161, 369, 224, 432
-0.963042, 129, 145, 192, 208
-0.96306, 9, 241, 72, 368
-0.963298, 73, 161, 136, 288
-0.963423, 1, 65, 128, 192
-0.963572, 89, 161, 152, 416
-0.963637, 1, 361, 64, 424
-0.963677, 225, 289, 288, 352
-0.963914, 233, 177, 296, 304
-0.963917, 89, 265, 152, 328
-0.96417, 201, 177, 264, 304
-0.964288, 161, 281, 224, 344
-0.964313, 121, 225, 184, 288
-0.964439, 129, 193, 192, 448
-0.964591, 145, 89, 208, 152
-0.965363, 81, 241, 144, 304
-0.965575, 193, 417, 256, 480
-0.965643, 97, 353, 160, 416
-0.965648, 161, 137, 224, 200
-0.965691, 193, 265, 256, 328
-0.965918, 105, 81, 168, 144
-0.965955, 233, 305, 296, 432
-0.966254, 101, 273, 132, 400
-0.966438, 209, 225, 272, 352
-0.966444, 49, 161, 112, 224
-0.966533, 165, 177, 196, 304
-0.966594, 25, 353, 88, 480
-0.966626, 129, 201, 192, 264
-0.966874, 233, 361, 296, 424
-0.966893, 17, 289, 80, 352
-0.967155, 105, 209, 136, 336
-0.967393, 169, 337, 232, 400
-0.967446, 101, 161, 132, 224
-0.967808, 121, 97, 184, 352
-0.967901, 209, 129, 272, 256
-0.967908, 201, 185, 264, 248
-0.96796, 165, 177, 196, 240
-0.96797, 17, 161, 80, 288
-0.968205, 153, 193, 216, 448
-0.96822, 33, 281, 160, 344
-0.968346, 217, 209, 280, 272
-0.968434, 129, 321, 192, 384
-0.968495, 161, 129, 192, 256
-0.968557, 89, 185, 120, 248
-0.968682, 57, 193, 120, 448
-0.968884, 161, 241, 192, 304
-0.969032, 169, 105, 232, 168
-0.96911, 33, 313, 160, 376
-0.969126, 81, 201, 208, 264
-0.969435, 97, 281, 128, 344
-0.969553, 73, 289, 104, 416
-0.969702, 93, 209, 124, 336
-0.969789, 49, 409, 112, 472
-0.96984, 113, 273, 176, 336
-0.969882, 57, 193, 120, 256
-0.970023, 93, 249, 124, 312
-0.970107, 57, 249, 120, 312
-0.970165, 217, 321, 280, 384
-0.970173, 233, 129, 296, 256
-0.970602, 65, 361, 128, 424
-0.970671, 145, 177, 176, 304
-0.970685, 41, 137, 104, 200
-0.97071, 1, 337, 64, 400
-0.970783, 145, 217, 272, 280
-0.970967, 177, 353, 299, 416
-0.970973, 57, 281, 88, 344
-0.971112, 113, 337, 240, 400
-0.971137, 73, 417, 136, 480
-0.971234, 217, 353, 280, 480
-0.971282, 121, 161, 152, 288
-0.971335, 169, 81, 232, 144
-0.971374, 193, 337, 224, 464
-0.97141, 197, 265, 228, 328
-0.971431, 169, 201, 200, 264
-0.97157, 133, 121, 164, 184
-0.971587, 149, 97, 180, 224
-0.971603, 117, 297, 148, 360
-0.971643, 193, 241, 256, 304
-0.971787, 85, 281, 116, 344
-0.971859, 113, 281, 240, 344
-0.972253, 93, 161, 124, 288
-0.972297, 193, 289, 224, 416
-0.972307, 137, 113, 168, 240
-0.972366, 113, 305, 240, 368
-0.972382, 65, 361, 192, 424
-0.97241, 81, 169, 208, 232
-0.972431, 69, 281, 100, 344
-0.972694, 101, 113, 132, 240
-0.972724, 97, 33, 224, 160
-0.972768, 73, 97, 136, 160
-0.972925, 145, 105, 176, 168
-0.973044, 97, 409, 224, 472
-0.973047, 81, 241, 208, 304
-0.973119, 49, 97, 112, 224
-0.973285, 121, 369, 184, 432
-0.973374, 17, 313, 80, 376
-0.973418, 81, 209, 112, 336
-0.973563, 113, 145, 144, 208
-0.973605, 181, 289, 212, 416
-0.973617, 161, 241, 192, 368
-0.973619, 65, 217, 128, 280
-0.973752, 81, 145, 208, 208
-0.973788, 153, 49, 216, 176
-0.973914, 177, 289, 299, 352
-0.974037, 209, 369, 272, 432
-0.974175, 181, 209, 212, 336
-0.97436, 233, 257, 296, 384
-0.9744, 9, 113, 72, 240
-0.974405, 129, 65, 160, 192
-0.974417, 49, 33, 176, 160
-0.974634, 129, 177, 256, 240
-0.974637, 1, 417, 64, 480
-0.974703, 121, 241, 152, 368
-0.975054, 169, 417, 232, 480
-0.975141, 113, 361, 240, 424
-0.975146, 105, 321, 136, 384
-0.975166, 113, 113, 240, 176
-0.97526, 181, 241, 212, 304
-0.975281, 121, 169, 152, 232
-0.975331, 105, 209, 136, 272
-0.975332, 161, 329, 288, 392
-0.975384, 109, 105, 140, 168
-0.975524, 57, 321, 88, 384
-0.975623, 145, 417, 272, 480
-0.975671, 113, 113, 144, 240
-0.975758, 193, 65, 256, 128
-0.97578, 197, 289, 228, 352
-0.975791, 89, 305, 120, 432
-0.975959, 49, 289, 80, 416
-0.975974, 117, 289, 148, 416
-0.976005, 33, 337, 160, 400
-0.976015, 1, 81, 64, 144
-0.976029, 145, 145, 176, 208
-0.97611, 133, 169, 164, 232
-0.976116, 161, 321, 192, 448
-0.976201, 193, 361, 224, 424
-0.976255, 33, 161, 160, 224
-0.976333, 33, 417, 160, 480
-0.976412, 177, 185, 299, 248
-0.97662, 161, 97, 224, 352
-0.976667, 85, 161, 116, 224
-0.9767, 93, 321, 124, 384
-0.976729, 181, 217, 212, 280
-0.976743, 217, 313, 248, 376
-0.976776, 93, 353, 124, 480
-0.976927, 81, 73, 144, 136
-0.977096, 65, 105, 192, 168
-0.977122, 233, 185, 296, 248
-0.977197, 57, 97, 120, 352
-0.977271, 193, 113, 256, 176
-0.977301, 129, 353, 160, 480
-0.977314, 181, 305, 212, 368
-0.977353, 205, 289, 236, 416
-0.977411, 81, 321, 112, 384
-0.977425, 25, 113, 88, 176
-0.977467, 133, 161, 164, 288
-0.977526, 149, 241, 180, 368
-0.977615, 109, 65, 140, 192
-0.977722, 225, 233, 288, 296
-0.977844, 85, 113, 116, 176
-0.977896, 177, 361, 208, 424
-0.977997, 233, 409, 296, 472
-0.978066, 133, 225, 164, 352
-0.978095, 185, 129, 248, 384
-0.978205, 193, 337, 224, 400
-0.978257, 153, 169, 184, 232
-0.978335, 61, 273, 92, 400
-0.978378, 145, 249, 272, 312
-0.978415, 253, 353, 284, 416
-0.978547, 209, 81, 272, 208
-0.978602, 121, 105, 152, 168
-0.978616, 49, 81, 176, 144
-0.978616, 17, 361, 144, 424
-0.978686, 105, 321, 136, 448
-0.978687, 97, 65, 160, 320
-0.97872, 173, 337, 204, 464
-0.978761, 129, 137, 256, 200
-0.978807, 101, 417, 132, 480
-0.979038, 69, 305, 100, 368
-0.979046, 161, 113, 192, 176
-0.979119, 109, 161, 140, 288
-0.979233, 237, 209, 268, 272
-0.979271, 25, 417, 88, 480
-0.979272, 117, 193, 148, 256
-0.979286, 209, 89, 272, 152
-0.979305, 209, 289, 240, 352
-0.979326, 125, 417, 156, 480
-0.979336, 41, 81, 104, 144
-0.979523, 181, 185, 212, 248
-0.979616, 217, 265, 280, 328
-0.979644, 33, 129, 96, 384
-0.979674, 125, 337, 156, 400
-0.979674, 137, 337, 168, 400
-0.979687, 137, 297, 200, 360
-0.979716, 177, 161, 208, 288
-0.979766, 113, 273, 144, 336
-0.979788, 185, 49, 248, 176
-0.979906, 33, 17, 288, 144
-0.979939, 217, 353, 248, 416
-0.980012, 93, 209, 124, 272
-0.980258, 73, 161, 104, 224
-0.980277, 169, 313, 200, 376
-0.980351, 225, 281, 256, 344
-0.980354, 201, 225, 264, 480
-0.980365, 177, 393, 240, 456
-0.980378, 157, 137, 188, 200
-0.980449, 9, 161, 72, 224
-0.980463, 181, 113, 212, 240
-0.980522, 97, 65, 128, 192
-0.98056, 25, 377, 88, 440
-0.980588, 65, 137, 96, 200
-0.980623, 121, 1, 184, 480
-0.980667, 73, 145, 104, 272
-0.980673, 17, 185, 144, 248
-0.98072, 149, 209, 180, 272
-0.980721, 205, 337, 236, 464
-0.980766, 201, 217, 232, 280
-0.980794, 145, 65, 208, 128
-0.98084, 17, 225, 144, 288
-0.980863, 125, 361, 156, 424
-0.980894, 129, 297, 160, 360
-0.980935, 45, 281, 76, 344
-0.980942, 93, 361, 124, 424
-0.980983, 225, 193, 288, 448
-0.981013, 265, 289, 296, 352
-0.981054, 129, 65, 256, 128
-0.981064, 49, 105, 112, 168
-0.981069, 233, 353, 264, 416
-0.981189, 81, 209, 112, 272
-0.981244, 129, 145, 160, 208
-0.981253, 1, 121, 64, 184
-0.981311, 157, 313, 188, 376
-0.981343, 113, 417, 144, 480
-0.98141, 129, 89, 256, 152
-0.981456, 133, 233, 164, 296
-0.981641, 29, 361, 60, 424
-0.981661, 81, 1, 144, 480
-0.981675, 169, 145, 200, 208
-0.981874, 101, 185, 132, 248
-0.981911, 117, 337, 148, 464
-0.981925, 225, 209, 256, 272
-0.981955, 101, 137, 132, 200
-0.982056, 229, 305, 260, 432
-0.9821, 237, 185, 268, 248
-0.982102, 89, 113, 120, 240
-0.982173, 173, 337, 204, 400
-0.98226, 17, 105, 144, 168
-0.982315, 177, 377, 299, 440
-0.982343, 89, 385, 152, 448
-0.982424, 233, 177, 264, 304
-0.982448, 1, 65, 64, 192
-0.982481, 161, 265, 192, 328
-0.982505, 193, 185, 224, 248
-0.982708, 37, 289, 68, 416
-0.982782, 185, 369, 248, 432
-0.982851, 233, 113, 296, 176
-0.982854, 149, 241, 180, 304
-0.982861, 81, 369, 112, 432
-0.982915, 81, 353, 112, 480
-0.982928, 217, 305, 248, 432
-0.982931, 33, 257, 160, 320
-0.983069, 85, 65, 116, 192
-0.983108, 205, 353, 236, 416
-0.983132, 233, 329, 264, 392
-0.983185, 113, 249, 144, 312
-0.983214, 29, 353, 60, 480
-0.983244, 237, 353, 268, 480
-0.983268, 161, 113, 288, 176
-0.983274, 265, 361, 296, 424
-0.983277, 161, 81, 192, 208
-0.983369, 105, 81, 136, 144
-0.98345, 1, 353, 32, 416
-0.983478, 41, 337, 72, 400
-0.983488, 185, 137, 248, 200
-0.98361, 17, 129, 144, 192
-0.983627, 137, 369, 168, 432
-0.983661, 193, 177, 224, 304
-0.983663, 169, 57, 232, 120
-0.98377, 169, 289, 200, 352
-0.983794, 1, 193, 64, 256
-0.983803, 181, 265, 212, 328
-0.983864, 81, 249, 112, 312
-0.983886, 45, 305, 76, 368
-0.983887, 41, 217, 104, 280
-0.983977, 197, 313, 228, 376
-0.983981, 41, 353, 72, 480
-0.983988, 177, 401, 208, 464
-0.984017, 69, 225, 100, 352
-0.984059, 177, 161, 299, 224
-0.984119, 257, 177, 288, 304
-0.984141, 249, 201, 280, 264
-0.984144, 209, 177, 240, 304
-0.984148, 57, 1, 120, 480
-0.984189, 201, 393, 264, 456
-0.984228, 61, 321, 92, 448
-0.984259, 129, 81, 160, 144
-0.984285, 201, 401, 232, 464
-0.984328, 141, 273, 172, 336
-0.984376, 125, 113, 156, 240
-0.984379, 49, 49, 112, 176
-0.984388, 269, 177, 299, 304
-0.984393, 233, 49, 296, 176
-0.984429, 9, 193, 72, 448
-0.984442, 89, 417, 120, 480
-0.984452, 173, 105, 204, 168
-0.98447, 197, 241, 228, 368
-0.984488, 113, 345, 144, 408
-0.984577, 205, 57, 236, 120
-0.984641, 145, 409, 176, 472
-0.984672, 213, 193, 244, 256
-0.985007, 177, 225, 240, 480
-0.985026, 269, 185, 299, 248
-0.985072, 1, 305, 32, 432
-0.985193, 221, 145, 252, 272
-0.985439, 37, 145, 68, 272
-0.985443, 185, 113, 216, 176
-0.985511, 185, 33, 248, 288
-0.985519, 89, 137, 120, 200
-0.985527, 253, 329, 284, 392
-0.985541, 53, 345, 84, 408
-0.985554, 269, 313, 299, 376
-0.985569, 73, 345, 104, 408
-0.985569, 225, 417, 256, 480
-0.98558, 21, 289, 52, 416
-0.985619, 97, 385, 224, 448
-0.985642, 25, 161, 56, 288
-0.985708, 41, 361, 72, 424
-0.985722, 73, 1, 136, 256
-0.985759, 57, 225, 88, 352
-0.985852, 1, 417, 32, 480
-0.985876, 17, 361, 48, 424
-0.985904, 269, 113, 299, 240
-0.985963, 197, 129, 228, 256
-0.985984, 73, 409, 104, 472
-0.986, 73, 185, 104, 248
-0.986094, 97, 17, 160, 144
-0.98619, 121, 225, 152, 288
-0.986465, 25, 417, 56, 480
-0.986471, 129, 305, 160, 432
-0.986475, 225, 185, 256, 248
-0.98651, 237, 417, 268, 480
-0.986512, 145, 17, 272, 144
-0.986546, 165, 409, 196, 472
-0.986578, 149, 321, 180, 448
-0.98658, 213, 225, 244, 352
-0.986616, 245, 177, 276, 304
-0.986632, 213, 249, 244, 312
-0.986632, 237, 289, 268, 352
-0.986651, 253, 281, 284, 344
-0.98667, 213, 417, 244, 480
-0.986715, 33, 185, 96, 248
-0.986725, 17, 337, 48, 464
-0.986798, 153, 345, 184, 408
-0.986872, 185, 73, 216, 136
-0.986877, 89, 89, 120, 152
-0.986882, 73, 17, 136, 144
-0.987037, 25, 33, 88, 288
-0.987043, 57, 57, 120, 120
-0.987094, 65, 113, 96, 176
-0.987102, 201, 241, 232, 304
-0.987453, 1, 17, 128, 144
-0.987477, 89, 425, 152, 456
-0.987566, 17, 393, 144, 456
-0.987608, 1, 73, 128, 136
-0.987702, 13, 177, 44, 304
-0.987791, 61, 129, 92, 256
-0.987815, 177, 73, 299, 136
-0.98789, 209, 161, 272, 224
-0.987926, 145, 1, 208, 480
-0.987946, 33, 289, 288, 352
-0.987948, 177, 137, 299, 200
-0.987982, 73, 97, 104, 224
-0.988022, 161, 313, 224, 344
-0.988022, 193, 361, 256, 392
-0.988025, 89, 173, 152, 204
-0.98819, 65, 385, 128, 448
-0.988359, 89, 317, 152, 348
-0.98838, 113, 305, 176, 336
-0.98839, 185, 161, 248, 224
-0.988435, 241, 289, 272, 416
-0.988476, 113, 181, 176, 212
-0.98848, 65, 313, 128, 344
-0.988515, 225, 353, 256, 480
-0.988535, 237, 129, 268, 256
-0.988543, 97, 369, 160, 400
-0.988564, 25, 257, 88, 320
-0.98858, 1, 289, 299, 352
-0.988597, 137, 421, 200, 452
-0.988615, 25, 65, 88, 192
-0.988644, 1, 385, 64, 448
-0.988693, 17, 1, 80, 480
-0.988715, 249, 353, 280, 480
-0.988788, 73, 289, 136, 320
-0.988795, 33, 265, 288, 328
-0.98881, 41, 361, 104, 392
-0.988811, 113, 41, 240, 104
-0.988825, 9, 313, 72, 344
-0.988848, 1, 365, 64, 396
-0.988873, 137, 181, 200, 212
-0.988885, 193, 425, 256, 456
-0.988949, 137, 117, 200, 148
-0.988949, 129, 317, 192, 348
-0.988997, 185, 313, 248, 344
-0.989043, 49, 421, 112, 452
-0.989044, 137, 361, 200, 392
-0.989052, 21, 113, 52, 240
-0.989143, 217, 49, 280, 112
-0.989192, 185, 281, 248, 312
-0.989204, 233, 161, 296, 224
-0.989253, 153, 265, 216, 296
-0.989285, 1, 361, 256, 424
-0.989294, 153, 209, 216, 240
-0.9893, 233, 81, 296, 144
-0.989356, 37, 225, 68, 352
-0.989363, 49, 325, 112, 356
-0.989373, 113, 169, 176, 200
-0.989403, 233, 365, 296, 396
-0.989418, 81, 49, 144, 112
-0.98946, 1, 425, 64, 456
-0.989499, 113, 113, 176, 144
-0.989524, 145, 49, 176, 176
-0.989529, 121, 193, 184, 224
-0.989549, 73, 189, 136, 220
-0.989554, 1, 353, 32, 480
-0.989597, 257, 129, 288, 256
-0.989609, 177, 197, 240, 228
-0.989618, 193, 1, 256, 480
-0.989629, 225, 205, 288, 236
-0.989749, 57, 173, 120, 204
-0.989777, 153, 193, 216, 224
-0.989846, 201, 205, 264, 236
-0.989849, 209, 281, 272, 312
-0.989856, 49, 301, 112, 332
-0.989866, 33, 313, 288, 376
-0.989885, 81, 149, 144, 180
-0.989895, 185, 301, 248, 332
-0.989904, 1, 337, 256, 400
-0.989908, 89, 329, 152, 360
-0.98993, 105, 141, 168, 172
-0.989959, 225, 313, 288, 344
-0.989995, 41, 313, 104, 344
-0.989998, 73, 201, 136, 232
-0.99, 193, 325, 256, 356
-0.990006, 81, 301, 144, 332
-0.990014, 253, 289, 284, 416
-0.990026, 105, 277, 168, 308
-0.99003, 169, 1, 232, 480
-0.99003, 233, 425, 296, 456
-0.990041, 161, 225, 224, 256
-0.990089, 129, 129, 192, 160
-0.990102, 233, 193, 296, 224
-0.990109, 177, 373, 240, 404
-0.990134, 65, 57, 192, 120
-0.990165, 105, 125, 168, 156
-0.990165, 121, 57, 184, 120
-0.990168, 97, 229, 160, 260
-0.990172, 49, 1, 112, 256
-0.990176, 121, 233, 184, 264
-0.990258, 89, 161, 152, 192
-0.990263, 89, 357, 152, 388
-0.990278, 49, 285, 112, 316
-0.990294, 153, 245, 216, 276
-0.990298, 1, 129, 32, 256
-0.990311, 1, 177, 32, 304
-0.99032, 177, 125, 240, 156
-0.990348, 193, 221, 256, 252
-0.990375, 161, 429, 224, 460
-0.9904, 73, 133, 136, 164
-0.990401, 33, 313, 160, 344
-0.990408, 129, 157, 192, 188
-0.99041, 81, 273, 144, 304
-0.990424, 209, 129, 240, 256
-0.990442, 121, 245, 184, 276
-0.990445, 25, 429, 88, 460
-0.990453, 209, 373, 272, 404
-0.990487, 209, 437, 272, 468
-0.99049, 113, 205, 176, 236
-0.990545, 113, 429, 176, 460
-0.990549, 153, 325, 216, 356
-0.990583, 145, 105, 208, 136
-0.990585, 89, 413, 152, 444
-0.990621, 161, 181, 224, 212
-0.990651, 169, 137, 232, 168
-0.990663, 1, 417, 256, 480
-0.990685, 233, 217, 296, 248
-0.990702, 161, 277, 224, 308
-0.990725, 49, 185, 112, 216
-0.990737, 177, 209, 240, 240
-0.990744, 129, 329, 192, 360
-0.990753, 121, 373, 184, 404
-0.990759, 81, 109, 144, 140
-0.990762, 137, 221, 200, 252
-0.990778, 137, 169, 200, 200
-0.990842, 129, 265, 192, 296
-0.99088, 33, 193, 288, 256
-0.990887, 129, 145, 192, 176
-0.990901, 73, 369, 136, 400
-0.990905, 121, 101, 184, 132
-0.990915, 105, 265, 168, 296
-0.990916, 153, 301, 216, 332
-0.990932, 97, 193, 160, 224
-0.990936, 49, 161, 112, 192
-0.990943, 185, 269, 248, 300
-0.990963, 185, 437, 248, 468
-0.990974, 25, 325, 88, 356
-0.990989, 65, 433, 128, 464
-0.990992, 153, 373, 216, 404
-0.991008, 209, 65, 272, 320
-0.991026, 209, 193, 272, 224
-0.991035, 9, 301, 72, 332
-0.991042, 49, 273, 112, 304
-0.991044, 33, 217, 288, 280
-0.991079, 25, 373, 88, 404
-0.99108, 233, 281, 296, 312
-0.991091, 37, 97, 68, 224
-0.991093, 81, 253, 144, 284
-0.991117, 1, 437, 64, 468
-0.991124, 33, 173, 96, 204
-0.991134, 233, 437, 296, 468
-0.991135, 233, 65, 296, 320
-0.991155, 137, 433, 200, 464
-0.991186, 225, 269, 288, 300
-0.991195, 89, 437, 152, 468
-0.991215, 105, 293, 168, 324
-0.991216, 73, 213, 136, 244
-0.991229, 49, 373, 112, 404
-0.99125, 129, 281, 192, 312
-0.991255, 1, 337, 299, 400
-0.991281, 145, 93, 208, 124
-0.991309, 225, 349, 288, 380
-0.991333, 1, 377, 64, 408
-0.991342, 81, 121, 144, 152
-0.991367, 169, 113, 232, 144
-0.991371, 121, 1, 184, 256
-0.991391, 177, 81, 240, 112
-0.991393, 177, 61, 240, 92
-0.991407, 89, 241, 152, 272
-0.991455, 193, 413, 256, 444
-0.991467, 113, 417, 176, 448
-0.991469, 169, 361, 232, 392
-0.991492, 41, 149, 104, 180
-0.991515, 217, 325, 280, 356
-0.991523, 1, 257, 32, 384
-0.991549, 1, 249, 299, 312
-0.991559, 161, 349, 224, 380
-0.991578, 233, 377, 296, 408
-0.991589, 1, 169, 256, 232
-0.991639, 1, 217, 299, 280
-0.991701, 233, 1, 296, 480
-0.991764, 169, 313, 200, 344
-0.991764, 161, 313, 288, 344
-0.991833, 97, 425, 224, 456
-0.99186, 225, 225, 256, 352
-0.991931, 1, 105, 256, 168
-0.992021, 49, 113, 80, 240
-0.99204, 249, 225, 280, 352
-0.992051, 177, 365, 299, 396
-0.992052, 105, 317, 136, 348
-0.992053, 49, 161, 80, 288
-0.992067, 101, 173, 132, 204
-0.9921, 97, 425, 128, 456
-0.992122, 57, 317, 88, 348
-0.992152, 89, 201, 120, 232
-0.992172, 125, 425, 156, 456
-0.992196, 269, 305, 299, 432
-0.992216, 257, 365, 288, 396
-0.992239, 113, 161, 144, 192
-0.992244, 161, 425, 288, 456
-0.992246, 165, 197, 196, 228
-0.992246, 189, 369, 220, 400
-0.992268, 165, 177, 196, 208
-0.992269, 181, 313, 212, 344
-0.992271, 233, 369, 264, 400
-0.992292, 217, 313, 248, 344
-0.992309, 125, 313, 156, 344
-0.992317, 113, 313, 240, 344
-0.992317, 213, 49, 244, 176
-0.992332, 197, 281, 228, 312
-0.992346, 105, 185, 136, 216
-0.992347, 233, 205, 264, 236
-0.992347, 93, 317, 124, 348
-0.992358, 69, 313, 100, 344
-0.992359, 117, 177, 148, 208
-0.99236, 149, 113, 180, 144
-0.992374, 85, 185, 116, 216
-0.992377, 193, 425, 224, 456
-0.992381, 129, 173, 160, 204
-0.99239, 105, 113, 136, 144
-0.992405, 237, 425, 268, 456
-0.992412, 217, 281, 248, 312
-0.992426, 249, 209, 280, 240
-0.992427, 117, 325, 148, 356
-0.992437, 93, 369, 124, 400
-0.992438, 89, 173, 120, 204
-0.992448, 125, 369, 156, 400
-0.992462, 121, 121, 152, 152
-0.992476, 161, 253, 192, 284
-0.992488, 173, 65, 204, 192
-0.992492, 177, 369, 208, 400
-0.992496, 1, 313, 299, 376
-0.9925, 117, 301, 148, 332
-0.9925, 161, 1, 224, 256
-0.992501, 109, 425, 140, 456
-0.992501, 57, 301, 88, 332
-0.992505, 57, 285, 88, 316
-0.992515, 229, 313, 260, 344
-0.992517, 73, 169, 104, 200
-0.992522, 29, 429, 60, 460
-0.992536, 81, 313, 112, 344
-0.992538, 29, 369, 60, 400
-0.992539, 109, 137, 140, 168
-0.992551, 201, 361, 232, 392
-0.992553, 185, 257, 216, 288
-0.99257, 169, 213, 200, 244
-0.992581, 253, 65, 284, 192
-0.992597, 13, 313, 44, 344
-0.992597, 1, 369, 32, 400
-0.992599, 269, 193, 299, 224
-0.992602, 1, 313, 32, 344
-0.992603, 181, 429, 212, 460
-0.992605, 157, 317, 188, 348
-0.992608, 81, 325, 112, 356
-0.992615, 69, 301, 100, 332
-0.992621, 85, 113, 116, 144
-0.99263, 41, 429, 72, 460
-0.992632, 185, 133, 216, 164
-0.992633, 93, 329, 124, 360
-0.992642, 1, 429, 32, 460
-0.992645, 1, 249, 64, 312
-0.992646, 65, 369, 192, 400
-0.992648, 197, 293, 228, 324
-0.992649, 237, 217, 268, 248
-0.992658, 185, 201, 216, 232
-0.992666, 97, 253, 128, 284
-0.992667, 137, 433, 168, 464
-0.992677, 113, 149, 144, 180
-0.99268, 249, 425, 280, 456
-0.992685, 97, 285, 128, 316
-0.992691, 177, 301, 208, 332
-0.992691, 269, 281, 299, 312
-0.992691, 69, 325, 100, 356
-0.992695, 129, 133, 160, 164
-0.992701, 225, 425, 256, 456
-0.992702, 193, 313, 224, 344
-0.99271, 129, 145, 160, 176
-0.992713, 249, 197, 280, 228
-0.992714, 113, 273, 144, 304
-0.992715, 141, 181, 172, 212
-0.992723, 205, 313, 236, 344
-0.992723, 209, 325, 240, 356
-0.992725, 161, 241, 192, 272
-0.992726, 169, 325, 200, 356
-0.992728, 137, 369, 168, 400
-0.992737, 137, 1, 200, 128
-0.992744, 197, 269, 228, 300
-0.99275, 193, 437, 224, 468
-0.992751, 261, 209, 292, 240
-0.992752, 269, 357, 299, 388
-0.992755, 73, 421, 104, 452
-0.992756, 221, 209, 252, 240
-0.99276, 181, 245, 212, 276
-0.992762, 85, 429, 116, 460
-0.992766, 125, 109, 156, 140
-0.99277, 165, 121, 196, 152
-0.992771, 213, 357, 244, 388
-0.992772, 129, 301, 160, 332
-0.992774, 245, 373, 276, 404
-0.992779, 177, 189, 208, 220
-0.99278, 269, 313, 299, 344
-0.992781, 113, 369, 144, 400
-0.992781, 81, 373, 112, 404
-0.992785, 221, 325, 252, 356
-0.992787, 241, 437, 272, 468
-0.9928, 77, 285, 108, 316
-0.992801, 33, 425, 160, 456
-0.992804, 17, 425, 48, 456
-0.99281, 105, 125, 136, 156
-0.992812, 105, 301, 136, 332
-0.992813, 9, 217, 72, 280
-0.992814, 197, 325, 228, 356
-0.992814, 41, 365, 72, 396
-0.992816, 161, 265, 192, 296
-0.992818, 1, 193, 299, 256
-0.992827, 165, 365, 196, 396
-0.992829, 73, 193, 104, 224
-0.992829, 129, 185, 160, 216
-0.992833, 85, 161, 116, 192
-0.992836, 37, 313, 68, 344
-0.992837, 205, 425, 236, 456
-0.99284, 149, 193, 180, 224
-0.992843, 137, 109, 168, 140
-0.992844, 153, 177, 184, 208
-0.992855, 97, 217, 128, 248
-0.992856, 245, 357, 276, 388
-0.992858, 145, 125, 176, 156
-0.992863, 145, 417, 176, 448
-0.992867, 121, 285, 152, 316
-0.992867, 57, 329, 88, 360
-0.992875, 33, 137, 288, 200
-0.992876, 269, 369, 299, 400
-0.992878, 17, 365, 48, 396
-0.992882, 105, 329, 136, 360
-0.992936, 177, 49, 299, 112
-0.992945, 113, 369, 240, 400
-0.992975, 105, 17, 136, 144
-0.993023, 1, 417, 299, 480
-0.993085, 9, 65, 40, 192
-0.993131, 59, 281, 74, 344
-0.993133, 33, 241, 288, 304
-0.99328, 81, 281, 96, 344
-0.993282, 117, 297, 132, 360
-0.993295, 111, 217, 126, 280
-0.993313, 33, 57, 96, 120
-0.993328, 107, 281, 122, 344
-0.993361, 73, 281, 88, 344
-0.993387, 169, 169, 184, 232
-0.993397, 33, 293, 160, 324
-0.99342, 33, 225, 96, 480
-0.993427, 217, 137, 280, 200
-0.993458, 97, 201, 224, 232
-0.993497, 179, 177, 194, 240
-0.993582, 33, 325, 160, 356
-0.993595, 237, 225, 268, 352
-0.993663, 93, 281, 108, 344
-0.993707, 113, 281, 240, 312
-0.993713, 225, 65, 256, 192
-0.99372, 1, 97, 64, 352
-0.993762, 161, 217, 288, 248
-0.993777, 101, 281, 116, 344
-0.993787, 113, 357, 240, 388
-0.993788, 1, 361, 299, 424
-0.993814, 17, 369, 144, 400
-0.993819, 17, 49, 144, 112
-0.99382, 81, 177, 208, 208
-0.993851, 87, 281, 102, 344
-0.993869, 209, 33, 272, 160
-0.993876, 105, 249, 120, 312
-0.993883, 1, 121, 299, 184
-0.99392, 99, 249, 114, 312
-0.993931, 89, 177, 104, 240
-0.993968, 97, 217, 224, 248
-0.99406, 171, 201, 186, 264
-0.994065, 1, 81, 299, 144
-0.994078, 81, 325, 208, 356
-0.99409, 131, 297, 146, 360
-0.994092, 177, 377, 299, 408
-0.99414, 65, 161, 192, 192
-0.99415, 123, 305, 138, 368
-0.994183, 75, 305, 90, 368
-0.994189, 1, 393, 256, 456
-0.994196, 67, 281, 82, 344
-0.994208, 73, 49, 104, 176
-0.994219, 161, 33, 224, 96
-0.994221, 233, 385, 296, 448
-0.994222, 1, 81, 256, 144
-0.994318, 123, 129, 138, 192
-0.99435, 33, 357, 160, 388
-0.99435, 111, 129, 126, 192
-0.994353, 163, 233, 178, 296
-0.994408, 109, 321, 124, 384
-0.994418, 161, 197, 288, 228
-0.994418, 81, 233, 208, 264
-0.994444, 97, 121, 224, 152
-0.994466, 155, 105, 170, 168
-0.994473, 97, 297, 224, 328
-0.99449, 65, 189, 192, 220
-0.994536, 193, 49, 224, 176
-0.994536, 61, 65, 92, 192
-0.994538, 269, 65, 299, 192
-0.994539, 145, 269, 272, 300
-0.99454, 185, 1, 248, 128
-0.994562, 117, 225, 132, 288
-0.994569, 149, 105, 164, 168
-0.994648, 97, 133, 224, 164
-0.994658, 177, 437, 299, 468
-0.994666, 21, 65, 52, 192
-0.994672, 81, 305, 96, 368
-0.994676, 95, 185, 110, 248
-0.994681, 103, 161, 118, 224
-0.994698, 91, 321, 106, 384
-0.994716, 177, 353, 299, 384
-0.994721, 115, 321, 130, 384
-0.994741, 65, 305, 80, 368
-0.994744, 81, 437, 208, 468
-0.994771, 99, 321, 114, 384
-0.994798, 205, 361, 220, 424
-0.994826, 17, 181, 144, 212
-0.994833, 169, 313, 184, 376
-0.994834, 93, 241, 108, 304
-0.994868, 175, 305, 190, 368
-0.99487, 175, 241, 190, 304
-0.994905, 185, 217, 200, 280
-0.994912, 133, 161, 148, 224
-0.994941, 127, 273, 142, 336
-0.994946, 89, 17, 120, 144
-0.994951, 81, 413, 208, 444
-0.994974, 265, 257, 296, 384
-0.994981, 129, 325, 256, 356
-0.994997, 177, 281, 299, 312
-0.994999, 129, 181, 256, 212
-0.995004, 111, 257, 126, 320
-0.995028, 103, 185, 118, 248
-0.995054, 147, 337, 162, 400
-0.995056, 95, 161, 110, 224
-0.995061, 195, 289, 210, 352
-0.995081, 17, 437, 144, 468
-0.995099, 255, 209, 270, 272
-0.995101, 209, 337, 224, 400
-0.995109, 169, 137, 184, 200
-0.99511, 191, 361, 206, 424
-0.995112, 133, 337, 148, 400
-0.995119, 103, 417, 118, 480
-0.995139, 163, 169, 178, 232
-0.995147, 95, 361, 110, 424
-0.995149, 201, 273, 216, 336
-0.995179, 59, 313, 74, 376
-0.99518, 127, 161, 142, 224
-0.995184, 145, 145, 160, 208
-0.995184, 169, 241, 184, 304
-0.995186, 139, 361, 154, 424
-0.995192, 41, 361, 56, 424
-0.995207, 217, 289, 232, 352
-0.995207, 111, 161, 126, 224
-0.995237, 145, 301, 272, 332
-0.995248, 49, 113, 176, 144
-0.995251, 119, 265, 134, 328
-0.995271, 177, 113, 192, 176
-0.995271, 133, 113, 148, 176
-0.995272, 117, 105, 132, 168
-0.995293, 105, 209, 120, 272
-0.995303, 87, 209, 102, 272
-0.995325, 195, 249, 210, 312
-0.99533, 65, 269, 192, 300
-0.995331, 157, 241, 172, 304
-0.995336, 95, 417, 110, 480
-0.995338, 249, 361, 264, 424
-0.995345, 163, 209, 178, 272
-0.995358, 113, 193, 128, 256
-0.995366, 81, 249, 208, 280
-0.99539, 203, 321, 218, 384
-0.995416, 137, 417, 152, 480
-0.995416, 119, 193, 134, 256
-0.995418, 211, 361, 226, 424
-0.995425, 181, 369, 196, 432
-0.995447, 129, 437, 256, 468
-0.995453, 201, 249, 216, 312
-0.995461, 83, 153, 98, 216
-0.99548, 117, 417, 132, 480
-0.99549, 139, 169, 154, 232
-0.995493, 145, 413, 272, 444
-0.995494, 179, 345, 194, 408
-0.995498, 175, 145, 190, 208
-0.995502, 161, 105, 176, 168
-0.995503, 101, 161, 132, 416
-0.995503, 199, 361, 214, 424
-0.995507, 85, 193, 116, 448
-0.995513, 123, 417, 138, 480
-0.995517, 139, 337, 154, 400
-0.99553, 145, 229, 272, 260
-0.995544, 129, 417, 144, 480
-0.995544, 269, 361, 284, 424
-0.995552, 235, 209, 250, 272
-0.995558, 49, 337, 176, 368
-0.995562, 49, 141, 176, 172
-0.995573, 179, 209, 194, 272
-0.995587, 133, 233, 148, 296
-0.995629, 127, 81, 142, 144
-0.995648, 145, 241, 272, 272
-0.99565, 167, 113, 182, 176
-0.995656, 109, 417, 124, 480
-0.995667, 125, 105, 140, 168
-0.995672, 117, 129, 132, 192
-0.995675, 217, 353, 232, 416
-0.99568, 1, 169, 299, 232
-0.995695, 3, 361, 18, 424
-0.995698, 107, 105, 122, 168
-0.995711, 145, 125, 272, 156
-0.995716, 243, 361, 258, 424
-0.995729, 159, 129, 174, 192
-0.995734, 113, 129, 144, 384
-0.995742, 231, 289, 246, 352
-0.995755, 193, 41, 256, 104
-0.995761, 117, 225, 148, 480
-0.995762, 285, 321, 299, 384
-0.995762, 177, 181, 299, 212
-0.995766, 137, 137, 152, 200
-0.995787, 53, 305, 68, 368
-0.995788, 185, 193, 200, 256
-0.995792, 137, 193, 168, 448
-0.995794, 17, 193, 144, 224
-0.995823, 133, 361, 148, 424
-0.99583, 227, 321, 242, 384
-0.995831, 243, 209, 258, 272
-0.995832, 143, 121, 158, 184
-0.995848, 137, 313, 152, 376
-0.995855, 95, 209, 110, 272
-0.995866, 211, 289, 226, 352
-0.995868, 221, 313, 236, 376
-0.995882, 35, 361, 50, 424
-0.995896, 127, 337, 142, 400
-0.995899, 193, 337, 208, 400
-0.99592, 65, 85, 192, 116
-0.995935, 1, 169, 128, 200
-0.995965, 143, 417, 158, 480
-0.995984, 157, 169, 172, 232
-0.995985, 45, 337, 60, 400
-0.995989, 275, 345, 290, 408
-0.996001, 195, 185, 210, 248
-0.99602, 173, 385, 188, 448
-0.996024, 1, 57, 256, 120
-0.996031, 215, 313, 230, 376
-0.996032, 225, 209, 240, 272
-0.996034, 237, 81, 268, 208
-0.99604, 89, 353, 104, 416
-0.996059, 177, 325, 299, 356
-0.996077, 161, 161, 192, 416
-0.996078, 49, 125, 176, 156
-0.996102, 49, 281, 176, 312
-0.996126, 129, 109, 256, 140
-0.996153, 129, 145, 256, 176
-0.996178, 157, 33, 188, 160
-0.996213, 81, 101, 208, 132
-0.996217, 1, 145, 299, 208
-0.996221, 13, 225, 44, 352
-0.996293, 145, 253, 272, 284
-0.996315, 169, 313, 184, 344
-0.996316, 17, 237, 144, 268
-0.996333, 113, 381, 240, 412
-0.996426, 113, 65, 240, 96
-0.996435, 17, 97, 144, 128
-0.996462, 73, 193, 104, 448
-0.996469, 65, 381, 192, 412
-0.996527, 61, 161, 92, 416
-0.996563, 17, 205, 144, 236
-0.996582, 233, 1, 296, 64
-0.996584, 61, 177, 92, 304
-0.996612, 41, 1, 104, 128
-0.996614, 177, 313, 192, 344
-0.996618, 93, 185, 108, 216
-0.996675, 129, 169, 256, 200
-0.996684, 149, 193, 180, 448
-0.9967, 231, 313, 246, 344
-0.996716, 113, 77, 240, 108
-0.996766, 65, 33, 192, 96
-0.996771, 1, 149, 128, 180
-0.996794, 173, 129, 204, 384
-0.996805, 249, 369, 264, 400
-0.996812, 137, 369, 152, 400
-0.996825, 33, 413, 160, 444
-0.996861, 251, 425, 266, 456
-0.996867, 129, 177, 144, 208
-0.996875, 65, 69, 192, 100
-0.996888, 95, 425, 110, 456
-0.996918, 137, 97, 168, 352
-0.996928, 17, 69, 144, 100
-0.996928, 143, 425, 158, 456
-0.996956, 191, 369, 206, 400
-0.996966, 115, 321, 130, 352
-0.996971, 177, 65, 299, 96
-0.996982, 167, 197, 182, 228
-0.996986, 111, 217, 126, 248
-0.996996, 1, 249, 128, 280
-0.997004, 135, 425, 150, 456
-0.997006, 101, 425, 116, 456
-0.997022, 185, 313, 200, 344
-0.997058, 125, 97, 156, 352
-0.99707, 1, 121, 128, 152
-0.997071, 15, 313, 30, 344
-0.997083, 161, 25, 288, 88
-0.997084, 63, 317, 78, 348
-0.997087, 17, 81, 144, 112
-0.997095, 93, 369, 108, 400
-0.997103, 285, 313, 299, 344
-0.997119, 127, 305, 142, 336
-0.997128, 91, 173, 106, 204
-0.997136, 113, 345, 240, 376
-0.99714, 177, 169, 299, 200
-0.997149, 139, 177, 154, 208
-0.997155, 73, 97, 104, 352
-0.997163, 243, 369, 258, 400
-0.997167, 123, 185, 138, 216
-0.997174, 195, 425, 210, 456
-0.997177, 1, 281, 128, 312
-0.997179, 199, 369, 214, 400
-0.997198, 191, 313, 206, 344
-0.997209, 1, 57, 299, 120
-0.997211, 25, 225, 56, 352
-0.997243, 245, 205, 260, 236
-0.997254, 101, 177, 116, 208
-0.997271, 193, 225, 224, 480
-0.997284, 107, 317, 122, 348
-0.997285, 59, 289, 74, 320
-0.997286, 107, 425, 122, 456
-0.99729, 251, 209, 266, 240
-0.99729, 41, 429, 56, 460
-0.997296, 129, 97, 256, 128
-0.997305, 185, 97, 216, 352
-0.997309, 131, 329, 146, 360
-0.997321, 115, 141, 130, 172
-0.997327, 87, 197, 102, 228
-0.997329, 43, 369, 58, 400
-0.997335, 133, 309, 148, 340
-0.997345, 73, 317, 88, 348
-0.997346, 17, 225, 144, 256
-0.997349, 177, 105, 299, 136
-0.997355, 131, 293, 146, 324
-0.997362, 53, 313, 68, 344
-0.997372, 117, 425, 132, 456
-0.997383, 95, 201, 110, 232
-0.997383, 125, 329, 140, 360
-0.997407, 93, 313, 108, 344
-0.997413, 229, 205, 244, 236
-0.997417, 149, 97, 180, 352
-0.997419, 199, 257, 214, 288
-0.997424, 127, 425, 142, 456
-0.997426, 125, 17, 156, 144
-0.997442, 161, 157, 288, 188
-0.997448, 161, 77, 288, 108
-0.997452, 83, 317, 98, 348
-0.997453, 257, 209, 272, 240
-0.997456, 131, 165, 146, 196
-0.99746, 175, 325, 190, 356
-0.997464, 201, 425, 216, 456
-0.997464, 131, 369, 146, 400
-0.997465, 113, 157, 240, 188
-0.997472, 101, 317, 116, 348
-0.997474, 101, 365, 116, 396
-0.997485, 1, 381, 128, 412
-0.997502, 125, 317, 140, 348
-0.997508, 1, 57, 64, 120
-0.997513, 177, 249, 192, 280
-0.997517, 233, 217, 248, 248
-0.997522, 93, 325, 108, 356
-0.997531, 37, 369, 52, 400
-0.997548, 205, 369, 220, 400
-0.997549, 197, 129, 228, 384
-0.997554, 111, 165, 126, 196
-0.997554, 107, 113, 122, 144
-0.997573, 63, 305, 78, 336
-0.997577, 71, 301, 86, 332
-0.997578, 73, 285, 88, 316
-0.997603, 235, 201, 250, 232
-0.997603, 179, 369, 194, 400
-0.997611, 181, 225, 212, 480
-0.997613, 101, 189, 116, 220
-0.997615, 161, 185, 176, 216
-0.997619, 1, 425, 16, 456
-0.997625, 241, 425, 256, 456
-0.997628, 133, 189, 148, 220
-0.997631, 221, 313, 236, 344
-0.997631, 271, 281, 286, 312
-0.997637, 93, 33, 124, 288
-0.997643, 279, 205, 294, 236
-0.997644, 197, 309, 212, 340
-0.997644, 161, 249, 176, 280
-0.997649, 195, 437, 210, 468
-0.99765, 123, 137, 138, 168
-0.99765, 277, 193, 292, 224
-0.997653, 143, 437, 158, 468
-0.997661, 185, 369, 200, 400
-0.997669, 143, 369, 158, 400
-0.997675, 261, 197, 276, 228
-0.99768, 107, 329, 122, 360
-0.997683, 153, 113, 168, 144
-0.997684, 117, 301, 132, 332
-0.997686, 113, 1, 240, 64
-0.997692, 181, 193, 196, 224
-0.997696, 85, 285, 100, 316
-0.997696, 283, 189, 298, 220
-0.997701, 237, 369, 252, 400
-0.997707, 251, 197, 266, 228
-0.997717, 5, 369, 20, 400
-0.99772, 173, 173, 188, 204
-0.99772, 261, 365, 276, 396
-0.997731, 35, 429, 50, 460
-0.997738, 5, 313, 20, 344
-0.997739, 99, 237, 114, 268
-0.997743, 235, 281, 250, 312
-0.997749, 147, 121, 162, 152
-0.997751, 273, 213, 288, 244
-0.997762, 269, 365, 284, 396
-0.997764, 165, 261, 180, 292
-0.997765, 117, 273, 132, 304
-0.997769, 117, 125, 132, 156
-0.99777, 221, 281, 236, 312
-0.997771, 137, 333, 152, 364
-0.997773, 101, 329, 116, 360
-0.997774, 267, 197, 282, 228
-0.997783, 85, 173, 100, 204
-0.997794, 179, 209, 194, 240
-0.997797, 93, 437, 108, 468
-0.997798, 203, 325, 218, 356
-0.997799, 87, 185, 102, 216
-0.9978, 91, 269, 106, 300
-0.997809, 117, 177, 132, 208
-0.997816, 275, 357, 290, 388
-0.997816, 177, 137, 299, 168
-0.997818, 255, 369, 270, 400
-0.997819, 77, 301, 92, 332
-0.997825, 149, 365, 164, 396
-0.99783, 79, 117, 94, 148
-0.997831, 101, 249, 116, 280
-0.997837, 115, 113, 130, 144
-0.997848, 107, 197, 122, 228
-0.997857, 119, 205, 134, 236
-0.997871, 49, 161, 80, 416
-0.997881, 113, 33, 144, 288
-0.997913, 1, 133, 128, 164
-0.997938, 205, 1, 236, 128
-0.997947, 105, 33, 168, 96
-0.997958, 37, 193, 68, 448
-0.998078, 161, 65, 192, 320
-0.998115, 129, 53, 256, 84
-0.998226, 177, 341, 299, 372
-0.998242, 205, 225, 236, 480
-0.998255, 103, 257, 118, 384
-0.998276, 1, 393, 299, 456
-0.998277, 261, 353, 292, 480
-0.998282, 1, 337, 128, 368
-0.998287, 97, 257, 112, 384
-0.998295, 89, 429, 152, 444
-0.99833, 49, 33, 80, 288
-0.998334, 109, 241, 124, 368
-0.998372, 89, 327, 152, 342
-0.99838, 1, 371, 64, 386
-0.998381, 217, 193, 248, 448
-0.998381, 65, 317, 128, 332
-0.998387, 49, 327, 112, 342
-0.998393, 249, 225, 280, 480
-0.998397, 89, 371, 152, 386
-0.998403, 145, 431, 208, 446
-0.998416, 193, 283, 256, 298
-0.998416, 9, 317, 72, 332
-0.998417, 121, 319, 184, 334
-0.998422, 113, 313, 176, 328
-0.998422, 229, 193, 260, 448
-0.998424, 57, 333, 120, 348
-0.998425, 193, 367, 256, 382
-0.998425, 49, 431, 112, 446
-0.998428, 113, 185, 176, 200
-0.998429, 17, 269, 144, 300
-0.998432, 137, 183, 200, 198
-0.998432, 1, 109, 128, 140
-0.998433, 113, 193, 176, 208
-0.998434, 49, 375, 112, 390
-0.998436, 145, 193, 208, 208
-0.99844, 137, 373, 200, 388
-0.99844, 233, 317, 296, 332
-0.998447, 81, 333, 144, 348
-0.998448, 161, 315, 224, 330
-0.998452, 233, 363, 296, 378
-0.998455, 89, 177, 152, 192
-0.998457, 137, 177, 200, 192
-0.998459, 233, 209, 296, 224
-0.99846, 41, 367, 104, 382
-0.99846, 121, 115, 184, 130
-0.99846, 121, 119, 152, 134
-0.998461, 233, 365, 264, 380
-0.998461, 173, 377, 204, 392
-0.998461, 193, 429, 256, 444
-0.998462, 129, 333, 160, 348
-0.998462, 177, 203, 208, 218
-0.998463, 81, 189, 144, 204
-0.998463, 197, 259, 228, 274
-0.998464, 233, 431, 296, 446
-0.998465, 253, 283, 284, 298
-0.998465, 69, 317, 100, 332
-0.998465, 237, 377, 268, 392
-0.998465, 65, 289, 128, 304
-0.998465, 129, 327, 192, 342
-0.998466, 153, 201, 216, 216
-0.998466, 149, 187, 180, 202
-0.998467, 117, 337, 148, 352
-0.998467, 73, 203, 136, 218
-0.998467, 113, 177, 176, 192
-0.998469, 157, 327, 188, 342
-0.998469, 1, 429, 64, 444
-0.998469, 93, 317, 124, 332
-0.99847, 237, 283, 268, 298
-0.998472, 165, 183, 196, 198
-0.998472, 209, 327, 240, 342
-0.998473, 69, 301, 100, 316
-0.998473, 57, 317, 88, 332
-0.998474, 13, 323, 44, 338
-0.998474, 17, 323, 80, 338
-0.998475, 133, 121, 164, 136
-0.998475, 89, 377, 120, 392
-0.998476, 69, 337, 100, 352
-0.998477, 129, 149, 160, 164
-0.998478, 225, 285, 288, 300
-0.998479, 173, 161, 188, 288
-0.998479, 153, 265, 216, 280
-0.99848, 105, 149, 168, 164
-0.99848, 193, 373, 256, 388
-0.99848, 269, 317, 299, 332
-0.99848, 169, 327, 200, 342
-0.99848, 77, 375, 108, 390
-0.998481, 41, 375, 72, 390
-0.998482, 173, 257, 204, 272
-0.998482, 93, 215, 124, 230
-0.998483, 97, 435, 160, 450
-0.998483, 1, 369, 32, 384
-0.998483, 177, 197, 208, 212
-0.998483, 181, 265, 212, 280
-0.998484, 105, 111, 136, 126
-0.998484, 125, 131, 156, 146
-0.998484, 77, 205, 108, 220
-0.998485, 249, 429, 280, 444
-0.998485, 105, 199, 136, 214
-0.998486, 73, 297, 136, 312
-0.998488, 221, 217, 252, 232
-0.998488, 93, 285, 124, 300
-0.998488, 153, 271, 216, 286
-0.998488, 257, 223, 288, 238
-0.998489, 105, 321, 136, 336
-0.99849, 217, 289, 248, 304
-0.998491, 137, 425, 200, 440
-0.998491, 141, 431, 172, 446
-0.998491, 137, 367, 200, 382
-0.998492, 89, 183, 120, 198
-0.998493, 153, 193, 184, 208
-0.998493, 97, 171, 160, 186
-0.998493, 161, 217, 224, 232
-0.998494, 241, 437, 272, 452
-0.998494, 165, 189, 196, 204
-0.998494, 177, 429, 208, 444
-0.998495, 265, 207, 296, 222
-0.998495, 249, 373, 280, 388
-0.998495, 165, 251, 196, 266
-0.998496, 185, 315, 248, 330
-0.998498, 165, 321, 196, 336
-0.998498, 1, 325, 32, 340
-0.998501, 41, 431, 72, 446
-0.998501, 97, 299, 160, 314
-0.998502, 185, 259, 216, 274
-0.998502, 113, 199, 176, 214
-0.998503, 117, 325, 148, 340
-0.998503, 113, 313, 144, 328
-0.998503, 233, 323, 296, 338
-0.998504, 185, 377, 216, 392
-0.998504, 193, 361, 256, 376
-0.998504, 113, 305, 144, 320
-0.998505, 29, 429, 60, 444
-0.998505, 249, 361, 280, 376
-0.998505, 121, 125, 152, 140
-0.998505, 161, 227, 224, 242
-0.998506, 57, 177, 120, 192
-0.998506, 1, 377, 64, 392
-0.998507, 161, 211, 224, 226
-0.998507, 1, 317, 32, 332
-0.998507, 89, 435, 120, 450
-0.998507, 85, 195, 116, 210
-0.998508, 97, 305, 160, 320
-0.99851, 125, 371, 156, 386
-0.998511, 181, 437, 212, 452
-0.998511, 81, 183, 144, 198
-0.998513, 161, 259, 224, 274
-0.998513, 177, 371, 208, 386
-0.998514, 121, 173, 152, 188
-0.998515, 185, 289, 248, 304
-0.998515, 193, 323, 256, 338
-0.998516, 13, 317, 44, 332
-0.998517, 77, 177, 108, 192
-0.998518, 109, 145, 140, 160
-0.998518, 181, 251, 212, 266
-0.998519, 121, 233, 184, 248
-0.998519, 137, 373, 168, 388
-0.998521, 73, 139, 136, 154
-0.998521, 93, 209, 124, 224
-0.998521, 137, 137, 200, 152
-0.998521, 97, 117, 160, 132
-0.998522, 185, 135, 216, 150
-0.998522, 133, 437, 164, 452
-0.998523, 125, 313, 156, 328
-0.998524, 105, 333, 168, 348
-0.998525, 113, 181, 144, 196
-0.998525, 73, 209, 136, 224
-0.998525, 53, 307, 84, 322
-0.998526, 29, 369, 60, 384
-0.998527, 193, 435, 256, 450
-0.998527, 165, 209, 196, 224
-0.998528, 73, 169, 136, 184
-0.998528, 169, 281, 232, 296
-0.998528, 185, 309, 248, 324
-0.998529, 113, 155, 144, 170
-0.99853, 41, 425, 104, 440
-0.998531, 113, 205, 176, 220
-0.998531, 245, 219, 276, 234
-0.998531, 129, 169, 192, 184
-0.998531, 85, 115, 116, 130
-0.998531, 233, 371, 296, 386
-0.998532, 49, 437, 112, 452
-0.998532, 109, 171, 140, 186
-0.998534, 225, 317, 256, 332
-0.998534, 169, 141, 232, 156
-0.998535, 97, 377, 160, 392
-0.998535, 201, 217, 264, 232
-0.998536, 249, 209, 280, 224
-0.998537, 145, 437, 208, 452
-0.998537, 217, 361, 248, 376
-0.998538, 237, 429, 268, 444
-0.998538, 153, 321, 216, 336
-0.99854, 189, 431, 220, 446
-0.99854, 233, 437, 296, 452
-0.998541, 89, 371, 120, 386
-0.998542, 225, 323, 256, 338
-0.998543, 165, 215, 196, 230
-0.998544, 89, 189, 120, 204
-0.998544, 161, 199, 192, 214
-0.998546, 113, 161, 144, 176
-0.998546, 81, 155, 144, 170
-0.998546, 137, 131, 200, 146
-0.998547, 97, 125, 160, 140
-0.998547, 153, 379, 216, 394
-0.998547, 105, 117, 136, 132
-0.998548, 129, 305, 160, 320
-0.998548, 105, 109, 168, 124
-0.998549, 9, 437, 72, 452
-0.99855, 145, 117, 208, 132
-0.998551, 209, 211, 272, 226
-0.998551, 179, 177, 194, 304
-0.998552, 93, 209, 108, 336
-0.998553, 49, 171, 112, 186
-0.998554, 121, 247, 184, 262
-0.998554, 145, 277, 208, 292
-0.998556, 169, 135, 232, 150
-0.998556, 105, 189, 136, 204
-0.998556, 169, 193, 232, 208
-0.998556, 233, 377, 296, 392
-0.998559, 117, 187, 148, 202
-0.998559, 153, 251, 216, 266
-0.998559, 49, 305, 112, 320
-0.99856, 93, 201, 124, 216
-0.99856, 33, 333, 96, 348
-0.99856, 81, 197, 144, 212
-0.998561, 199, 289, 214, 416
-0.998561, 121, 299, 152, 314
-0.998563, 133, 189, 164, 204
-0.998563, 137, 145, 200, 160
-0.998566, 1, 365, 64, 380
-0.998566, 197, 283, 228, 298
-0.998567, 91, 257, 106, 384
-0.998568, 97, 131, 160, 146
-0.998568, 161, 361, 224, 376
-0.998569, 237, 371, 268, 386
-0.99857, 233, 219, 296, 234
-0.998571, 209, 379, 272, 394
-0.998571, 177, 379, 240, 394
-0.998572, 41, 299, 104, 314
-0.998572, 41, 159, 104, 174
-0.998573, 129, 333, 192, 348
-0.998573, 97, 143, 160, 158
-0.998573, 25, 377, 88, 392
-0.998574, 129, 269, 192, 284
-0.998574, 17, 311, 80, 326
-0.998576, 161, 239, 224, 254
-0.998576, 129, 159, 192, 174
-0.998576, 217, 201, 280, 216
-0.998576, 225, 279, 288, 294
-0.998576, 137, 307, 200, 322
-0.998576, 153, 327, 216, 342
-0.998577, 137, 183, 168, 198
-0.998578, 233, 227, 296, 242
-0.998579, 101, 183, 132, 198
-0.99858, 137, 215, 200, 230
-0.998582, 89, 163, 152, 178
-0.998582, 233, 211, 264, 226
-0.998583, 193, 329, 256, 344
-0.998584, 177, 205, 240, 220
-0.998584, 81, 271, 144, 286
-0.998584, 129, 151, 192, 166
-0.998587, 69, 171, 100, 186
-0.998593, 57, 333, 88, 348
-0.998594, 97, 333, 128, 348
-0.998596, 269, 361, 299, 376
-0.998598, 175, 241, 190, 368
-0.998599, 89, 177, 120, 192
-0.998601, 149, 115, 180, 130
-0.998603, 257, 367, 288, 382
-0.998605, 161, 177, 192, 192
-0.99861, 169, 315, 200, 330
-0.998611, 101, 193, 116, 320
-0.998612, 269, 283, 299, 298
-0.998617, 69, 331, 100, 346
-0.998617, 85, 331, 116, 346
-0.998618, 101, 177, 132, 192
-0.998619, 129, 429, 160, 444
-0.998619, 117, 331, 148, 346
-0.99862, 125, 179, 156, 194
-0.998624, 189, 371, 220, 386
-0.99863, 185, 1, 216, 256
-0.998631, 93, 429, 124, 444
-0.998632, 117, 273, 132, 400
-0.998657, 205, 33, 236, 288
-0.998665, 167, 113, 182, 240
-0.998668, 217, 283, 248, 298
-0.998674, 87, 209, 102, 336
-0.998689, 161, 209, 176, 336
-0.99869, 107, 305, 122, 432
-0.998691, 115, 113, 130, 240
-0.998691, 117, 225, 132, 352
-0.998698, 133, 161, 148, 288
-0.998705, 57, 327, 88, 342
-0.998706, 161, 97, 176, 224
-0.99871, 73, 289, 88, 416
-0.998715, 83, 289, 98, 416
-0.998718, 99, 305, 114, 432
-0.99872, 105, 327, 136, 342
-0.998732, 167, 193, 182, 320
-0.998752, 93, 305, 108, 432
-0.99876, 123, 129, 138, 256
-0.998762, 107, 193, 122, 320
-0.998765, 109, 129, 124, 256
-0.998766, 147, 113, 162, 240
-0.998766, 185, 209, 200, 336
-0.998767, 61, 273, 76, 400
-0.998768, 161, 1, 288, 64
-0.998771, 169, 257, 184, 384
-0.998773, 179, 289, 194, 416
-0.998782, 155, 97, 170, 224
-0.99879, 49, 65, 80, 192
-0.998791, 159, 145, 174, 272
-0.998799, 269, 225, 299, 480
-0.998807, 179, 129, 194, 256
-0.99881, 151, 177, 166, 304
-0.998812, 193, 289, 208, 416
-0.998816, 65, 57, 192, 88
-0.99882, 127, 241, 142, 368
-0.998823, 207, 257, 222, 384
-0.998831, 33, 33, 288, 96
-0.998839, 145, 401, 272, 432
-0.998864, 81, 1, 112, 256
-0.998874, 81, 401, 208, 432
-0.998874, 217, 97, 248, 352
-0.998883, 205, 337, 220, 464
-0.998893, 113, 177, 128, 304
-0.998894, 95, 353, 110, 480
-0.9989, 139, 161, 154, 288
-0.998901, 53, 289, 68, 416
-0.998909, 171, 337, 186, 464
-0.998913, 121, 177, 136, 304
-0.99893, 137, 353, 152, 480
-0.99894, 67, 289, 82, 416
-0.998944, 95, 161, 110, 288
-0.998946, 137, 225, 152, 352
-0.998966, 129, 1, 160, 256
-0.998972, 89, 161, 104, 288
-0.998975, 199, 337, 214, 464
-0.998978, 109, 65, 124, 192
-0.99898, 173, 113, 188, 240
-0.998987, 133, 289, 148, 416
-0.998988, 185, 257, 200, 384
-0.998992, 125, 81, 140, 208
-0.998993, 177, 93, 299, 124
-0.998997, 201, 241, 216, 368
-0.998999, 215, 337, 230, 464
-0.999006, 145, 161, 160, 288
-0.999012, 61, 33, 92, 288
-0.999016, 117, 321, 132, 448
-0.999019, 195, 177, 210, 304
-0.999024, 213, 289, 228, 416
-0.999033, 103, 97, 118, 224
-0.999037, 183, 337, 198, 464
-0.999039, 41, 353, 56, 480
-0.999048, 17, 1, 144, 64
-0.999058, 257, 129, 288, 384
-0.999065, 81, 241, 96, 368
-0.999082, 101, 353, 116, 480
-0.999084, 279, 177, 294, 304
-0.999087, 177, 337, 192, 464
-0.999088, 71, 241, 86, 368
-0.999094, 131, 97, 146, 224
-0.999095, 143, 353, 158, 480
-0.999101, 141, 97, 156, 224
-0.999103, 191, 337, 206, 464
-0.999104, 191, 225, 206, 352
-0.999105, 177, 53, 299, 84
-0.999106, 249, 353, 264, 480
-0.999106, 61, 321, 76, 448
-0.999108, 185, 161, 200, 288
-0.999112, 153, 241, 168, 368
-0.99912, 81, 449, 208, 480
-0.999121, 123, 305, 138, 432
-0.999134, 173, 33, 204, 288
-0.999136, 273, 129, 288, 256
-0.999137, 261, 177, 276, 304
-0.999139, 245, 177, 260, 304
-0.999141, 117, 65, 132, 192
-0.999142, 139, 289, 154, 416
-0.999143, 131, 353, 146, 480
-0.999147, 229, 177, 244, 304
-0.999148, 143, 241, 158, 368
-0.99915, 21, 129, 52, 384
-0.999162, 89, 353, 104, 480
-0.999163, 221, 337, 236, 464
-0.999165, 81, 145, 96, 272
-0.999168, 97, 65, 112, 192
-0.999176, 235, 193, 250, 320
-0.999179, 163, 289, 178, 416
-0.99918, 267, 177, 282, 304
-0.999185, 255, 177, 270, 304
-0.99919, 243, 337, 258, 464
-0.999202, 201, 177, 216, 304
-0.999213, 237, 65, 268, 320
-0.999219, 219, 289, 234, 416
-0.999219, 103, 145, 118, 272
-0.999228, 19, 177, 34, 304
-0.999228, 3, 337, 18, 464
-0.999229, 127, 177, 142, 304
-0.999234, 237, 305, 252, 432
-0.999236, 111, 353, 126, 480
-0.999246, 161, 389, 288, 420
-0.999251, 243, 289, 258, 416
-0.999256, 125, 353, 140, 480
-0.999259, 217, 177, 232, 304
-0.999259, 45, 289, 60, 416
-0.999261, 89, 113, 104, 240
-0.999264, 51, 145, 66, 272
-0.999264, 227, 337, 242, 464
-0.999268, 63, 225, 78, 352
-0.99927, 35, 337, 50, 464
-0.999273, 17, 305, 32, 432
-0.999277, 81, 193, 96, 320
-0.999291, 249, 289, 264, 416
-0.999295, 273, 177, 288, 304
-0.999298, 233, 129, 248, 256
-0.999303, 285, 161, 299, 288
-0.999311, 185, 113, 200, 240
-0.999313, 223, 209, 238, 336
-0.999314, 35, 289, 50, 416
-0.999315, 11, 337, 26, 464
-0.999316, 211, 177, 226, 304
-0.99932, 51, 337, 66, 464
-0.999321, 147, 305, 162, 432
-0.999324, 223, 145, 238, 272
-0.999327, 207, 129, 222, 256
-0.999337, 37, 65, 68, 320
-0.999396, 9, 193, 40, 448
-0.999399, 269, 65, 299, 320
-0.999418, 65, 1, 192, 64
-0.999473, 1, 449, 128, 480
-0.999518, 225, 1, 256, 256
-0.999618, 1, 1, 64, 256
-0.99964, 87, 213, 102, 228
-0.99964, 233, 361, 248, 376
-0.999641, 169, 329, 184, 344
-0.999641, 125, 317, 140, 332
-0.999641, 65, 337, 80, 352
-0.999641, 179, 213, 194, 228
-0.999641, 235, 289, 250, 304
-0.999641, 91, 337, 106, 352
-0.999642, 123, 139, 138, 154
-0.999642, 117, 193, 132, 208
-0.999642, 43, 437, 58, 452
-0.999643, 107, 121, 122, 136
-0.999643, 267, 289, 282, 304
-0.999644, 9, 97, 40, 352
-0.999645, 85, 337, 100, 352
-0.999646, 241, 207, 256, 222
-0.999646, 179, 195, 194, 210
-0.999647, 189, 377, 204, 392
-0.999648, 125, 305, 140, 320
-0.999649, 113, 167, 128, 182
-0.999649, 123, 201, 138, 216
-0.999649, 243, 365, 258, 380
-0.999649, 73, 337, 88, 352
-0.99965, 219, 283, 234, 298
-0.99965, 5, 369, 20, 384
-0.999651, 125, 149, 140, 164
-0.999651, 107, 285, 122, 300
-0.999652, 79, 337, 94, 352
-0.999654, 1, 17, 32, 144
-0.999654, 231, 323, 246, 338
-0.999655, 115, 133, 130, 148
-0.999656, 251, 435, 266, 450
-0.999656, 171, 175, 186, 190
-0.999657, 115, 141, 130, 156
-0.999659, 269, 369, 284, 384
-0.99966, 77, 301, 92, 316
-0.999661, 239, 283, 254, 298
-0.999662, 101, 191, 116, 206
-0.999662, 137, 333, 152, 348
-0.999663, 73, 173, 88, 188
-0.999664, 121, 181, 136, 196
-0.999665, 277, 283, 292, 298
-0.999665, 265, 283, 280, 298
-0.999666, 1, 431, 16, 446
-0.999666, 247, 217, 262, 232
-0.999667, 227, 283, 242, 298
-0.999668, 253, 219, 268, 234
-0.999669, 255, 209, 270, 224
-0.999671, 133, 299, 148, 314
-0.999672, 91, 377, 106, 392
-0.999672, 285, 321, 299, 336
-0.999673, 273, 213, 288, 228
-0.999673, 153, 113, 168, 128
-0.999674, 243, 371, 258, 386
-0.999674, 113, 227, 128, 242
-0.999674, 43, 377, 58, 392
-0.999676, 195, 435, 210, 450
-0.999677, 279, 209, 294, 224
-0.999678, 119, 305, 134, 320
-0.999678, 115, 321, 130, 336
-0.999679, 87, 177, 102, 192
-0.99968, 135, 429, 150, 444
-0.999681, 133, 191, 148, 206
-0.999684, 273, 207, 288, 222
-0.999685, 157, 187, 172, 202
-0.999686, 227, 209, 242, 224
-0.999686, 175, 251, 190, 266
-0.999687, 85, 201, 100, 216
-0.999689, 9, 17, 72, 144
-0.999689, 139, 377, 154, 392
-0.999689, 145, 435, 160, 450
-0.99969, 25, 33, 56, 288
-0.999692, 251, 377, 266, 392
-0.999692, 277, 361, 292, 376
-0.999693, 101, 197, 116, 212
-0.999695, 123, 187, 138, 202
-0.999695, 165, 197, 180, 212
-0.999696, 199, 371, 214, 386
-0.9997, 169, 323, 184, 338
-0.999701, 93, 435, 108, 450
-0.999701, 199, 257, 214, 272
-0.999702, 177, 315, 192, 330
-0.999702, 15, 323, 30, 338
-0.999703, 107, 115, 122, 130
-0.999704, 233, 209, 248, 224
-0.999705, 101, 429, 116, 444
-0.999707, 59, 333, 74, 348
-0.999709, 63, 321, 78, 336
-0.999711, 119, 333, 134, 348
-0.999718, 95, 201, 110, 216
-0.999721, 241, 213, 256, 228
-0.999722, 71, 303, 86, 318
-0.999722, 127, 181, 142, 196
-0.999726, 233, 283, 248, 298
-0.999728, 129, 449, 256, 480
-0.999728, 247, 209, 262, 224
-0.99973, 103, 183, 118, 198
-0.99973, 111, 333, 126, 348
-0.999734, 43, 371, 58, 386
-0.999736, 125, 331, 140, 346
-0.999745, 115, 147, 130, 162
-0.999748, 271, 361, 286, 376
-0.99975, 87, 207, 102, 222
-0.999751, 105, 333, 120, 348
-0.999755, 111, 219, 126, 234
-0.999756, 193, 429, 208, 444
-0.999756, 131, 305, 146, 320
-0.999757, 251, 429, 266, 444
-0.999761, 99, 331, 114, 346
-0.999762, 131, 331, 146, 346
-0.999762, 271, 283, 286, 298
-0.999762, 43, 431, 58, 446
-0.999762, 103, 177, 118, 192
-0.999762, 85, 331, 100, 346
-0.999763, 231, 315, 246, 330
-0.999767, 93, 331, 108, 346
-0.999769, 145, 429, 160, 444
-0.999771, 109, 327, 124, 342
-0.999775, 93, 371, 108, 386
-0.999775, 141, 183, 156, 198
-0.999778, 15, 317, 30, 332
-0.999778, 69, 331, 84, 346
-0.99978, 79, 331, 94, 346
-0.999782, 285, 315, 299, 330
-0.999788, 129, 311, 144, 326
-0.999788, 93, 177, 108, 192
-0.999796, 137, 33, 200, 96
-0.999797, 229, 17, 260, 144
-0.999797, 95, 187, 110, 202
-0.999803, 167, 317, 182, 332
-0.999805, 139, 371, 154, 386
-0.999807, 115, 327, 130, 342
-0.999808, 95, 429, 110, 444
-0.999813, 251, 371, 266, 386
-0.999839, 63, 327, 78, 342
-0.999842, 189, 371, 204, 386
-0.99985, 133, 177, 148, 192
-0.99987, 17, 53, 144, 84
-0.999905, 177, 449, 299, 480
-0.99998, 113, 1, 240, 32
-1.00001, 177, 41, 299, 72
-1.00001, 249, 33, 280, 288
-1.00003, 1, 1, 256, 64
-1.00006, 81, 45, 208, 76
-1.00008, 1, 401, 128, 432
-1.0001, 33, 1, 160, 32
-1.00013, 33, 49, 64, 176
-1.00014, 161, 1, 288, 32
-1.00017, 149, 1, 180, 256
-1.00017, 25, 225, 56, 480
-1.00017, 97, 21, 224, 52
-1.00018, 129, 33, 256, 64
-1.0003, 161, 1, 224, 128
-1.00031, 161, 13, 288, 44
-1.00032, 129, 1, 192, 64
-1.00033, 33, 17, 160, 48
-1.00033, 49, 33, 176, 64
-1.00036, 13, 1, 44, 256
-1.00039, 209, 1, 272, 64
-1.00047, 241, 33, 272, 160
-1.00053, 177, 25, 299, 56
-1.00058, 181, 1, 212, 128
-1.00061, 145, 1, 176, 128
-1.00061, 17, 25, 144, 88
-1.00066, 73, 1, 104, 128
-1.0007, 1, 33, 128, 64
-1.00096, 1, 1, 32, 256
-1.00099, 193, 1, 224, 128
-1.00121, 265, 17, 296, 144
-1.00198, 57, 33, 120, 96
-1.00212, 233, 1, 296, 128
-1.00225, 1, 1, 299, 64
-1.00228, 105, 1, 168, 64
-1.00263, 17, 1, 80, 64
-1.00268, 1, 33, 299, 96
-1.00316, 217, 25, 280, 88
-1.00363, 185, 1, 248, 64
-1.0038, 81, 25, 144, 88
-1.00416, 161, 1, 224, 64
