1971
-0.305953, 1, 1, 500, 375
-0.340154, 97, 1, 352, 375
-0.399937, 193, 1, 448, 375
-0.442715, 1, 97, 500, 352
-0.468578, 1, 1, 500, 256
-0.477303, 161, 1, 416, 256
-0.542962, 1, 1, 256, 375
-0.583053, 97, 97, 352, 352
-0.628978, 257, 65, 500, 320
-0.649764, 1, 1, 256, 256
-0.676505, 1, 97, 256, 352
-0.834862, 97, 1, 224, 256
-0.835325, 209, 1, 336, 375
-0.842381, 273, 1, 400, 375
-0.843124, 241, 1, 368, 256
-0.847019, 113, 97, 240, 352
-0.853235, 337, 1, 464, 375
-0.855043, 193, 33, 320, 288
-0.858, 161, 1, 288, 375
-0.858831, 97, 1, 224, 375
-0.866009, 337, 33, 464, 288
-0.873045, 289, 33, 416, 288
-0.874884, 65, 129, 192, 375
-0.876891, 1, 1, 500, 128
-0.880874, 49, 1, 176, 256
-0.885062, 1, 65, 500, 192
-0.890888, 145, 1, 272, 256
-0.892035, 209, 129, 336, 375
-0.892085, 17, 1, 144, 375
-0.898784, 161, 129, 288, 375
-0.900019, 17, 97, 144, 352
-0.901536, 129, 113, 384, 240
-0.901558, 257, 129, 384, 375
-0.903721, 225, 65, 480, 192
-0.904739, 161, 17, 416, 144
-0.911601, 257, 1, 500, 128
-0.913035, 129, 65, 384, 192
-0.915802, 1, 113, 500, 240
-0.916428, 1, 1, 128, 256
-0.917445, 33, 113, 288, 240
-0.919606, 65, 1, 320, 128
-0.920337, 1, 193, 500, 320
-0.920742, 321, 129, 448, 375
-0.922677, 177, 49, 304, 176
-0.924481, 33, 161, 288, 288
-0.925748, 257, 17, 320, 144
-0.925832, 241, 33, 368, 160
-0.927763, 233, 49, 296, 176
-0.928539, 145, 113, 272, 240
-0.929454, 97, 113, 224, 240
-0.930121, 1, 49, 256, 176
-0.932401, 145, 113, 208, 240
-0.935004, 257, 65, 320, 192
-0.938819, 369, 129, 496, 375
-0.938821, 313, 17, 376, 144
-0.939076, 321, 65, 448, 192
-0.939916, 97, 161, 224, 288
-0.940371, 305, 17, 432, 144
-0.940552, 121, 129, 184, 256
-0.941701, 97, 1, 224, 128
-0.941717, 225, 81, 352, 208
-0.942124, 97, 113, 160, 240
-0.942262, 225, 81, 288, 144
-0.942343, 281, 65, 344, 192
-0.942627, 193, 1, 320, 128
-0.94343, 129, 161, 384, 288
-0.944687, 289, 17, 352, 144
-0.944923, 225, 113, 480, 240
-0.944967, 377, 65, 440, 192
-0.945075, 201, 65, 264, 192
-0.946838, 169, 113, 232, 240
-0.946855, 225, 97, 288, 224
-0.947309, 249, 65, 312, 128
-0.947556, 97, 49, 224, 176
-0.948608, 257, 41, 320, 104
-0.949101, 329, 65, 392, 192
-0.94963, 49, 129, 176, 256
-0.950708, 281, 49, 344, 112
-0.951041, 1, 241, 500, 368
-0.951478, 73, 161, 136, 288
-0.951832, 97, 1, 160, 128
-0.952128, 257, 193, 500, 320
-0.952236, 305, 65, 368, 192
-0.953358, 353, 65, 416, 192
-0.954136, 369, 65, 496, 192
-0.954207, 201, 113, 264, 240
-0.954233, 225, 105, 288, 168
-0.954241, 201, 97, 264, 160
-0.954284, 97, 129, 160, 192
-0.95508, 177, 33, 240, 160
-0.955535, 337, 17, 400, 144
-0.956188, 145, 1, 272, 128
-0.956347, 129, 137, 192, 200
-0.956348, 225, 57, 288, 120
-0.9566, 129, 17, 192, 80
-0.956846, 169, 161, 232, 288
-0.957903, 17, 81, 144, 208
-0.958168, 49, 177, 176, 304
-0.958299, 153, 1, 216, 128
-0.958553, 209, 129, 336, 256
-0.958776, 1, 193, 128, 320
-0.958935, 89, 161, 152, 224
-0.959003, 73, 201, 136, 264
-0.959032, 233, 1, 296, 128
-0.960163, 105, 177, 168, 304
-0.960404, 273, 81, 400, 208
-0.960552, 97, 209, 352, 336
-0.960661, 257, 17, 320, 80
-0.960706, 305, 57, 368, 120
-0.96082, 153, 121, 216, 184
-0.961129, 401, 65, 464, 192
-0.961435, 105, 9, 168, 72
-0.96176, 1, 145, 128, 272
-0.961811, 201, 73, 264, 136
-0.96293, 145, 161, 272, 288
-0.963064, 153, 9, 216, 72
-0.963148, 193, 193, 320, 320
-0.963228, 105, 1, 168, 256
-0.963639, 273, 73, 336, 136
-0.963893, 145, 161, 208, 288
-0.964131, 185, 49, 248, 112
-0.964747, 377, 73, 440, 136
-0.964932, 1, 209, 256, 336
-0.965022, 113, 161, 176, 224
-0.965217, 129, 1, 192, 256
-0.965224, 97, 209, 224, 336
-0.965311, 353, 17, 480, 144
-0.965402, 377, 1, 440, 128
-0.965853, 121, 81, 184, 208
-0.965869, 249, 89, 312, 152
-0.966037, 153, 65, 216, 192
-0.966149, 305, 33, 368, 96
-0.966671, 161, 65, 224, 320
-0.967048, 261, 33, 292, 160
-0.96707, 129, 1, 192, 128
-0.967113, 297, 49, 328, 112
-0.967359, 17, 33, 144, 160
-0.967547, 65, 169, 128, 232
-0.967609, 249, 113, 312, 240
-0.967618, 177, 97, 304, 160
-0.967797, 241, 49, 368, 112
-0.96818, 313, 1, 376, 256
-0.968321, 305, 193, 368, 256
-0.968492, 241, 73, 368, 136
-0.96855, 157, 113, 188, 240
-0.968646, 177, 57, 304, 120
-0.9687, 245, 89, 276, 152
-0.968807, 241, 49, 272, 176
-0.96882, 241, 177, 368, 304
-0.968944, 281, 25, 344, 88
-0.968954, 177, 113, 240, 176
-0.968955, 121, 41, 184, 104
-0.969106, 145, 41, 208, 104
-0.969131, 261, 65, 292, 128
-0.969574, 233, 65, 264, 128
-0.970047, 305, 161, 432, 288
-0.970159, 97, 129, 224, 192
-0.970261, 337, 209, 464, 336
-0.970358, 233, 33, 296, 288
-0.970383, 41, 209, 104, 336
-0.97048, 273, 17, 304, 144
-0.970546, 169, 113, 200, 240
-0.970664, 145, 121, 272, 184
-0.970716, 97, 49, 160, 176
-0.970809, 97, 33, 160, 96
-0.970858, 97, 97, 160, 352
-0.970934, 313, 81, 376, 144
-0.971152, 329, 145, 392, 272
-0.971224, 353, 73, 416, 136
-0.971576, 225, 241, 480, 368
-0.971852, 305, 161, 368, 288
-0.971862, 401, 17, 464, 144
-0.97194, 121, 97, 184, 352
-0.971969, 249, 49, 280, 112
-0.972016, 201, 17, 264, 144
-0.972218, 313, 209, 376, 336
-0.972244, 105, 185, 168, 248
-0.972281, 137, 161, 200, 224
-0.972306, 133, 17, 164, 80
-0.972463, 281, 65, 312, 192
-0.972552, 285, 49, 316, 112
-0.972655, 185, 1, 248, 256
-0.972888, 73, 113, 136, 240
-0.972944, 321, 113, 448, 240
-0.972965, 113, 25, 240, 88
-0.973224, 385, 225, 448, 352
-0.973229, 417, 241, 480, 368
-0.973379, 125, 129, 156, 192
-0.973411, 181, 113, 212, 240
-0.97347, 289, 225, 416, 352
-0.973514, 309, 49, 340, 112
-0.973587, 241, 25, 368, 88
-0.97378, 313, 1, 376, 64
-0.973809, 261, 41, 292, 104
-0.973853, 341, 17, 372, 144
-0.973968, 369, 113, 432, 240
-0.974052, 73, 1, 136, 128
-0.974103, 281, 241, 344, 368
-0.974161, 329, 57, 392, 120
-0.974185, 145, 129, 176, 192
-0.974248, 425, 81, 488, 208
-0.974297, 425, 89, 488, 152
-0.974357, 273, 65, 304, 128
-0.974435, 281, 177, 344, 304
-0.974679, 225, 105, 352, 168
-0.974703, 257, 129, 384, 256
-0.974864, 265, 1, 328, 256
-0.974937, 201, 121, 264, 184
-0.975033, 321, 257, 384, 320
-0.975043, 241, 177, 304, 304
-0.975058, 285, 17, 316, 144
-0.975075, 97, 161, 224, 224
-0.975175, 289, 217, 352, 280
-0.975186, 225, 65, 256, 192
-0.975244, 273, 113, 336, 240
-0.97544, 193, 161, 256, 288
-0.97545, 193, 33, 320, 96
-0.975455, 289, 1, 352, 256
-0.975469, 249, 113, 312, 176
-0.975704, 145, 113, 176, 240
-0.975722, 329, 177, 392, 240
-0.975777, 289, 73, 416, 136
-0.975786, 329, 1, 360, 128
-0.97581, 177, 73, 240, 136
-0.975926, 153, 17, 184, 80
-0.975952, 233, 33, 296, 96
-0.97602, 201, 97, 264, 352
-0.976115, 401, 81, 464, 144
-0.976228, 173, 121, 204, 184
-0.97632, 49, 225, 176, 352
-0.976588, 129, 145, 160, 272
-0.976607, 353, 33, 416, 288
-0.976611, 225, 97, 256, 160
-0.976719, 113, 129, 144, 192
-0.976834, 389, 65, 420, 192
-0.976862, 209, 241, 336, 368
-0.976868, 353, 161, 416, 288
-0.977014, 49, 209, 112, 272
-0.977033, 49, 161, 112, 288
-0.9771, 289, 49, 416, 112
-0.977101, 369, 65, 400, 192
-0.97717, 129, 113, 192, 176
-0.977293, 105, 217, 168, 280
-0.977382, 385, 49, 448, 112
-0.977519, 49, 137, 176, 200
-0.977537, 409, 65, 440, 192
-0.977611, 169, 145, 232, 208
-0.977671, 249, 97, 280, 224
-0.9777, 273, 241, 336, 304
-0.977817, 197, 97, 228, 224
-0.97788, 297, 65, 328, 192
-0.978012, 81, 1, 144, 64
-0.978027, 193, 9, 320, 72
-0.978028, 81, 1, 144, 256
-0.978034, 353, 209, 416, 336
-0.978044, 145, 209, 272, 336
-0.978095, 305, 113, 368, 240
-0.978101, 117, 113, 148, 240
-0.978141, 97, 49, 224, 112
-0.978285, 345, 1, 408, 64
-0.9783, 289, 73, 320, 136
-0.978332, 377, 33, 440, 288
-0.978342, 209, 33, 272, 96
-0.978392, 17, 201, 144, 264
-0.978408, 289, 1, 352, 64
-0.978433, 337, 73, 464, 136
-0.978514, 393, 201, 456, 264
-0.978647, 289, 25, 416, 88
-0.978684, 177, 33, 208, 160
-0.978721, 153, 97, 216, 160
-0.978723, 233, 1, 296, 375
-0.978746, 345, 217, 408, 280
-0.978748, 17, 209, 80, 336
-0.978771, 265, 89, 296, 152
-0.978839, 353, 49, 416, 112
-0.97895, 289, 273, 352, 336
-0.979023, 113, 1, 240, 64
-0.979059, 305, 1, 368, 375
-0.979064, 361, 281, 424, 344
-0.979109, 401, 177, 464, 304
-0.979154, 317, 33, 348, 160
-0.979157, 249, 193, 312, 256
-0.979191, 257, 1, 384, 64
-0.979241, 49, 9, 176, 72
-0.979317, 65, 185, 192, 248
-0.979492, 377, 177, 440, 304
-0.979494, 93, 169, 124, 232
-0.979725, 273, 41, 304, 104
-0.979805, 321, 49, 352, 112
-0.97983, 49, 161, 176, 224
-0.979904, 157, 121, 188, 184
-0.979958, 217, 193, 280, 320
-0.979986, 349, 65, 380, 192
-0.980032, 73, 129, 136, 375
-0.980035, 169, 177, 232, 240
-0.980064, 197, 41, 228, 104
-0.980066, 401, 33, 464, 288
-0.980084, 273, 97, 336, 160
-0.980149, 393, 225, 456, 288
-0.98022, 265, 217, 328, 280
-0.980239, 73, 137, 136, 200
-0.980255, 261, 97, 292, 224
-0.980264, 329, 65, 360, 192
-0.980285, 273, 185, 336, 248
-0.980411, 81, 209, 144, 336
-0.980428, 353, 1, 384, 128
-0.980469, 297, 25, 328, 88
-0.980574, 337, 49, 464, 112
-0.980642, 25, 1, 88, 128
-0.980753, 109, 153, 140, 216
-0.980902, 189, 33, 220, 160
-0.980931, 321, 233, 384, 296
-0.980973, 337, 1, 464, 64
-0.981034, 249, 225, 312, 352
-0.981067, 353, 177, 416, 240
-0.98109, 65, 209, 192, 272
-0.981306, 249, 265, 312, 328
-0.981317, 409, 49, 472, 112
-0.981317, 369, 225, 432, 288
-0.98132, 313, 73, 344, 136
-0.981458, 393, 73, 424, 136
-0.981575, 105, 113, 136, 240
-0.981581, 325, 73, 356, 136
-0.981595, 297, 17, 328, 144
-0.981626, 265, 1, 328, 375
-0.981707, 337, 153, 400, 216
-0.981738, 177, 17, 240, 80
-0.981755, 369, 145, 496, 272
-0.98176, 425, 209, 488, 272
-0.981768, 265, 17, 296, 80
-0.981809, 273, 297, 336, 360
-0.981837, 217, 73, 248, 136
-0.981871, 305, 169, 368, 232
-0.98188, 121, 1, 152, 64
-0.981934, 213, 81, 244, 208
-0.98202, 225, 129, 288, 192
-0.982084, 313, 313, 376, 375
-0.98212, 93, 161, 124, 288
-0.982126, 225, 241, 288, 368
-0.982204, 101, 129, 132, 192
-0.982211, 137, 41, 168, 104
-0.98224, 201, 33, 232, 160
-0.982291, 129, 97, 256, 160
-0.982344, 193, 153, 256, 216
-0.982448, 65, 49, 128, 176
-0.982449, 129, 185, 192, 248
-0.982477, 249, 241, 312, 304
-0.982488, 121, 177, 152, 240
-0.982585, 105, 105, 168, 168
-0.982604, 229, 113, 260, 240
-0.982683, 277, 89, 308, 152
-0.982749, 109, 161, 140, 288
-0.982818, 137, 153, 168, 216
-0.98293, 425, 161, 488, 288
-0.982973, 305, 97, 368, 352
-0.982985, 197, 81, 228, 144
-0.983009, 25, 193, 88, 256
-0.983049, 313, 289, 376, 352
-0.983079, 213, 97, 244, 160
-0.983323, 161, 145, 288, 208
-0.983364, 209, 129, 336, 192
-0.983377, 1, 177, 128, 240
-0.983403, 329, 33, 392, 96
-0.983418, 17, 129, 80, 256
-0.983491, 369, 305, 432, 368
-0.983534, 157, 161, 188, 288
-0.983583, 369, 217, 496, 280
-0.983612, 425, 185, 488, 248
-0.983667, 273, 225, 400, 288
-0.983691, 125, 41, 156, 104
-0.983692, 409, 305, 472, 368
-0.983706, 341, 73, 372, 136
-0.983737, 17, 113, 144, 176
-0.983742, 209, 1, 272, 256
-0.98377, 301, 73, 332, 136
-0.983789, 73, 193, 104, 256
-0.983791, 345, 257, 408, 320
-0.983805, 105, 1, 136, 128
-0.983809, 433, 249, 496, 312
-0.983822, 377, 9, 440, 72
-0.983872, 97, 57, 160, 120
-0.98391, 337, 1, 400, 375
-0.983916, 1, 225, 128, 288
-0.983939, 257, 201, 384, 264
-0.983972, 329, 97, 392, 352
-0.984012, 173, 161, 204, 288
-0.984044, 393, 249, 456, 312
-0.984054, 313, 25, 344, 88
-0.984066, 361, 137, 424, 200
-0.984176, 401, 113, 464, 240
-0.984201, 1, 137, 128, 200
-0.984205, 73, 25, 136, 88
-0.984217, 257, 113, 288, 176
-0.984235, 369, 73, 400, 136
-0.984244, 113, 193, 240, 256
-0.984345, 405, 73, 436, 136
-0.984354, 33, 233, 96, 296
-0.984361, 169, 1, 232, 375
-0.984366, 401, 273, 464, 336
-0.984403, 193, 201, 320, 264
-0.984496, 181, 17, 212, 80
-0.984527, 165, 9, 196, 72
-0.984691, 353, 81, 384, 144
-0.98473, 185, 161, 216, 288
-0.984757, 337, 25, 464, 88
-0.98478, 297, 249, 360, 312
-0.984784, 85, 193, 116, 256
-0.984859, 337, 49, 368, 112
-0.984871, 185, 121, 216, 184
-0.984878, 237, 113, 268, 176
-0.984898, 1, 241, 128, 368
-0.984914, 197, 113, 228, 176
-0.984998, 381, 73, 412, 136
-0.985018, 105, 177, 136, 240
-0.98504, 193, 257, 256, 320
-0.985043, 25, 17, 88, 80
-0.985129, 109, 209, 140, 272
-0.985247, 177, 209, 240, 336
-0.985315, 321, 185, 448, 248
-0.985346, 213, 33, 244, 160
-0.985371, 93, 113, 124, 240
-0.985476, 165, 153, 196, 216
-0.985477, 285, 25, 316, 88
-0.985535, 421, 65, 452, 192
-0.985565, 109, 49, 140, 176
-0.985586, 417, 81, 448, 144
-0.985622, 9, 225, 72, 288
-0.985632, 105, 17, 136, 80
-0.985721, 49, 41, 176, 104
-0.985739, 337, 1, 368, 64
-0.985754, 193, 217, 256, 280
-0.985844, 225, 257, 288, 320
-0.985896, 393, 1, 456, 375
-0.985903, 125, 153, 156, 216
-0.985929, 125, 1, 156, 128
-0.985941, 405, 1, 436, 128
-0.98599, 169, 225, 232, 288
-0.985998, 369, 201, 432, 264
-0.986004, 425, 121, 488, 184
-0.986014, 281, 97, 344, 352
-0.986039, 81, 241, 144, 304
-0.986048, 369, 249, 432, 312
-0.986137, 385, 177, 448, 240
-0.986264, 209, 1, 272, 375
-0.986336, 209, 241, 336, 304
-0.986336, 329, 193, 360, 256
-0.986369, 337, 297, 400, 360
-0.986441, 129, 73, 256, 136
-0.9865, 185, 97, 216, 160
-0.98657, 205, 145, 236, 272
-0.986594, 329, 129, 392, 192
-0.986604, 401, 113, 464, 176
-0.986644, 233, 9, 296, 72
-0.986687, 141, 161, 172, 288
-0.986763, 97, 233, 224, 296
-0.986782, 145, 169, 272, 232
-0.986783, 433, 281, 496, 344
-0.986936, 165, 33, 196, 160
-0.98695, 273, 97, 400, 160
-0.986979, 233, 217, 296, 280
-0.987035, 305, 313, 432, 375
-0.98704, 109, 209, 140, 336
-0.987066, 361, 1, 424, 375
-0.987086, 321, 161, 448, 224
-0.987126, 65, 113, 128, 176
-0.987233, 321, 241, 448, 304
-0.987299, 145, 1, 208, 375
-0.987333, 129, 97, 160, 224
-0.987343, 81, 169, 112, 232
-0.987385, 17, 89, 144, 152
-0.987411, 409, 153, 472, 216
-0.987497, 353, 121, 480, 184
-0.987607, 1, 249, 64, 312
-0.987623, 97, 201, 128, 264
-0.987628, 137, 217, 200, 280
-0.987631, 217, 105, 280, 136
-0.987662, 257, 97, 320, 352
-0.987673, 225, 129, 288, 375
-0.987762, 365, 233, 396, 296
-0.987882, 57, 233, 120, 296
-0.987884, 145, 225, 272, 288
-0.987897, 377, 113, 440, 176
-0.987938, 57, 193, 88, 256
-0.98806, 369, 241, 496, 304
-0.988067, 249, 297, 312, 360
-0.988121, 97, 1, 160, 375
-0.988149, 401, 225, 432, 352
-0.988159, 345, 217, 376, 280
-0.988195, 293, 241, 324, 304
-0.98823, 465, 257, 496, 320
-0.988297, 349, 1, 380, 64
-0.9883, 321, 193, 352, 320
-0.988383, 149, 161, 180, 224
-0.988419, 257, 73, 500, 136
-0.988468, 25, 81, 88, 208
-0.988468, 145, 209, 208, 336
-0.988524, 305, 121, 432, 184
-0.988545, 305, 209, 336, 272
-0.988568, 353, 57, 384, 120
-0.988582, 225, 121, 256, 184
-0.98859, 257, 177, 384, 240
-0.988596, 17, 121, 80, 184
-0.988613, 397, 313, 428, 375
-0.988621, 425, 209, 456, 336
-0.988632, 369, 265, 496, 328
-0.988636, 385, 145, 448, 208
-0.98866, 81, 161, 112, 288
-0.988661, 177, 169, 208, 232
-0.98867, 161, 57, 416, 120
-0.988689, 209, 281, 272, 344
-0.988698, 241, 89, 304, 120
-0.988715, 81, 97, 208, 160
-0.988718, 433, 313, 496, 375
-0.988817, 189, 153, 220, 216
-0.988826, 121, 49, 152, 176
-0.988907, 361, 129, 424, 375
-0.988941, 293, 217, 324, 280
-0.988974, 65, 217, 96, 280
-0.988994, 281, 241, 312, 304
-0.98901, 25, 41, 88, 104
-0.989066, 369, 161, 496, 224
-0.989073, 257, 69, 320, 100
-0.98909, 193, 109, 256, 140
-0.989092, 317, 201, 348, 264
-0.989102, 393, 113, 424, 240
-0.989122, 105, 29, 168, 60
-0.989159, 365, 169, 396, 232
-0.989232, 217, 49, 248, 112
-0.989238, 425, 33, 488, 160
-0.989264, 249, 49, 312, 80
-0.989282, 17, 65, 144, 128
-0.989378, 289, 73, 352, 104
-0.989388, 437, 209, 468, 272
-0.989398, 177, 145, 208, 208
-0.989422, 393, 17, 424, 144
-0.989423, 341, 25, 372, 88
-0.989438, 105, 137, 168, 168
-0.989444, 289, 225, 320, 352
-0.989481, 49, 233, 176, 296
-0.989493, 305, 265, 432, 328
-0.989513, 105, 225, 168, 352
-0.989548, 233, 69, 296, 100
-0.989553, 417, 17, 448, 144
-0.989573, 225, 117, 288, 148
-0.989587, 217, 93, 280, 124
-0.989644, 305, 29, 368, 60
-0.989664, 273, 113, 304, 240
-0.989681, 317, 313, 348, 375
-0.989697, 333, 233, 364, 296
-0.989708, 325, 25, 356, 88
-0.989718, 249, 1, 280, 128
-0.989745, 273, 225, 304, 352
-0.989755, 289, 289, 416, 352
-0.989758, 369, 113, 400, 240
-0.989765, 73, 205, 136, 236
-0.989778, 89, 161, 152, 192
-0.989835, 153, 129, 216, 160
-0.989841, 417, 1, 480, 375
-0.989847, 217, 81, 280, 112
-0.989848, 177, 41, 208, 104
-0.989911, 257, 33, 320, 64
-0.989938, 97, 129, 352, 192
-0.989942, 153, 1, 184, 128
-0.989954, 353, 297, 480, 360
-0.989971, 369, 193, 496, 256
-0.989985, 377, 77, 440, 108
-0.989987, 201, 241, 264, 368
-0.989987, 425, 201, 456, 264
-0.990011, 97, 17, 352, 80
-0.990019, 249, 25, 280, 88
-0.990022, 457, 225, 488, 352
-0.990037, 445, 281, 476, 344
-0.990049, 469, 81, 500, 208
-0.990098, 313, 69, 376, 100
-0.990113, 129, 133, 192, 164
-0.990121, 193, 85, 256, 116
-0.990123, 317, 81, 348, 208
-0.99013, 425, 281, 456, 344
-0.99013, 305, 53, 368, 84
-0.990212, 129, 33, 192, 64
-0.990219, 381, 17, 412, 144
-0.990231, 281, 53, 344, 84
-0.990238, 81, 173, 144, 204
-0.990249, 261, 177, 292, 304
-0.990279, 121, 17, 184, 48
-0.990284, 321, 225, 352, 288
-0.990287, 313, 81, 376, 112
-0.990295, 121, 1, 184, 375
-0.990304, 153, 33, 216, 64
-0.990309, 149, 41, 180, 104
-0.990313, 65, 57, 320, 120
-0.990329, 57, 1, 120, 256
-0.990343, 357, 193, 388, 320
-0.990345, 281, 33, 344, 64
-0.990356, 97, 13, 160, 44
-0.990372, 305, 249, 336, 312
-0.990389, 257, 129, 384, 192
-0.990392, 241, 105, 304, 136
-0.990393, 349, 257, 380, 320
-0.990434, 305, 41, 368, 72
-0.990445, 137, 49, 168, 176
-0.990459, 409, 41, 440, 104
-0.990468, 417, 305, 448, 368
-0.990492, 345, 177, 376, 240
-0.990533, 437, 193, 468, 320
-0.990575, 193, 97, 256, 128
-0.990613, 225, 57, 288, 88
-0.990626, 185, 121, 248, 152
-0.990638, 425, 129, 488, 375
-0.990646, 225, 25, 480, 88
-0.990681, 121, 161, 184, 192
-0.990689, 145, 21, 208, 52
-0.990693, 193, 57, 256, 88
-0.990708, 129, 149, 192, 180
-0.990728, 305, 241, 336, 368
-0.990732, 97, 45, 160, 76
-0.990766, 209, 69, 272, 100
-0.990767, 233, 225, 264, 352
-0.99077, 1, 249, 128, 312
-0.990779, 453, 257, 484, 320
-0.990786, 153, 45, 216, 76
-0.990787, 57, 1, 120, 375
-0.990787, 369, 161, 400, 288
-0.99079, 381, 161, 412, 288
-0.990791, 273, 193, 304, 256
-0.990846, 321, 217, 448, 280
-0.990862, 129, 173, 192, 204
-0.990878, 121, 45, 184, 76
-0.990913, 273, 209, 336, 240
-0.990916, 353, 77, 416, 108
-0.99092, 425, 57, 456, 120
-0.990932, 161, 81, 416, 144
-0.990964, 241, 153, 368, 216
-0.99097, 209, 265, 336, 328
-0.990973, 65, 189, 128, 220
-0.990975, 105, 1, 168, 32
-0.990988, 345, 65, 408, 96
-0.990996, 313, 193, 376, 224
-0.991, 161, 105, 416, 168
-0.991008, 89, 189, 152, 220
-0.991035, 25, 97, 88, 352
-0.991042, 265, 21, 328, 52
-0.991046, 341, 209, 372, 336
-0.991061, 313, 13, 376, 44
-0.991106, 449, 89, 480, 152
-0.991129, 385, 161, 416, 224
-0.991179, 185, 69, 248, 100
-0.991192, 369, 17, 400, 144
-0.991219, 233, 129, 296, 160
-0.991241, 109, 41, 140, 104
-0.991271, 337, 161, 368, 288
-0.991328, 401, 177, 432, 304
-0.991355, 121, 217, 152, 280
-0.991389, 313, 1, 376, 32
-0.991396, 321, 249, 352, 312
-0.991398, 345, 169, 408, 200
-0.991405, 265, 89, 328, 120
-0.991405, 313, 205, 376, 236
-0.991413, 273, 297, 336, 328
-0.991471, 429, 81, 460, 144
-0.991475, 377, 289, 408, 352
-0.991484, 237, 41, 268, 104
-0.991489, 209, 41, 272, 72
-0.9915, 369, 129, 400, 192
-0.991507, 281, 249, 344, 280
-0.991535, 1, 17, 256, 80
-0.991539, 177, 45, 240, 76
-0.991544, 337, 241, 400, 272
-0.991544, 453, 81, 484, 208
-0.991547, 153, 9, 216, 40
-0.991556, 385, 49, 416, 112
-0.991558, 385, 129, 448, 375
-0.991565, 369, 189, 432, 220
-0.991569, 409, 89, 472, 120
-0.991573, 289, 17, 352, 48
-0.99159, 33, 169, 288, 232
-0.991591, 217, 145, 248, 272
-0.991597, 401, 181, 464, 212
-0.991617, 297, 261, 360, 292
-0.991624, 429, 305, 460, 368
-0.991627, 81, 217, 144, 248
-0.991635, 273, 197, 336, 228
-0.99164, 337, 273, 400, 304
-0.991655, 105, 105, 136, 168
-0.991669, 369, 313, 432, 344
-0.991677, 73, 209, 104, 336
-0.991679, 145, 161, 208, 192
-0.991694, 81, 137, 144, 168
-0.991702, 81, 29, 144, 60
-0.991703, 357, 193, 388, 256
-0.991703, 269, 257, 300, 320
-0.991703, 105, 177, 168, 208
-0.991705, 401, 177, 432, 240
-0.99171, 153, 145, 216, 176
-0.991713, 81, 1, 144, 32
-0.991722, 321, 257, 384, 288
-0.991744, 65, 105, 320, 168
-0.991763, 133, 177, 164, 240
-0.991763, 321, 97, 448, 160
-0.991772, 265, 105, 328, 136
-0.991781, 153, 173, 216, 204
-0.991784, 97, 149, 160, 180
-0.991791, 297, 309, 360, 340
-0.991807, 305, 177, 336, 304
-0.991819, 377, 65, 440, 96
-0.991822, 329, 25, 392, 56
-0.991824, 177, 109, 304, 140
-0.991843, 169, 57, 232, 88
-0.991847, 105, 125, 168, 156
-0.991866, 249, 285, 312, 316
-0.991895, 201, 133, 264, 164
-0.991903, 361, 273, 424, 304
-0.991903, 409, 213, 472, 244
-0.991906, 153, 117, 216, 148
-0.991908, 249, 305, 312, 336
-0.991909, 113, 193, 176, 224
-0.991911, 241, 289, 368, 352
-0.991924, 73, 41, 136, 72
-0.991928, 129, 5, 192, 36
-0.991933, 1, 25, 128, 88
-0.991938, 297, 285, 360, 316
-0.991949, 265, 1, 328, 32
-0.991953, 401, 301, 464, 332
-0.991956, 53, 217, 84, 280
-0.991963, 313, 225, 376, 256
-0.991964, 385, 265, 416, 328
-0.991977, 49, 209, 112, 240
-0.992008, 289, 113, 320, 240
-0.992012, 241, 21, 304, 52
-0.992014, 413, 281, 444, 344
-0.992016, 257, 117, 320, 148
-0.992016, 353, 261, 416, 292
-0.992047, 297, 297, 360, 328
-0.99205, 41, 221, 104, 252
-0.992055, 337, 313, 368, 375
-0.992069, 313, 1, 344, 64
-0.992074, 41, 197, 104, 228
-0.992075, 89, 145, 120, 208
-0.992075, 313, 273, 376, 304
-0.992079, 433, 285, 496, 316
-0.992088, 65, 229, 128, 260
-0.992092, 245, 89, 276, 120
-0.9921, 381, 241, 412, 368
-0.992101, 425, 317, 488, 348
-0.992104, 73, 13, 136, 44
-0.992109, 261, 193, 292, 256
-0.992113, 245, 105, 276, 136
-0.992116, 337, 189, 400, 220
-0.992119, 113, 225, 176, 256
-0.992127, 225, 285, 288, 316
-0.992131, 433, 93, 496, 124
-0.992137, 401, 73, 464, 104
-0.992157, 393, 193, 456, 224
-0.992157, 273, 281, 336, 312
-0.992163, 177, 157, 240, 188
-0.992164, 1, 145, 256, 208
-0.992164, 241, 205, 304, 236
-0.992167, 257, 1, 500, 64
-0.992173, 141, 1, 172, 128
-0.992181, 297, 237, 360, 268
-0.992184, 377, 285, 440, 316
-0.992196, 361, 217, 424, 248
-0.992202, 417, 273, 480, 304
-0.992206, 345, 329, 408, 360
-0.992211, 369, 97, 496, 160
-0.992211, 257, 249, 384, 312
-0.992215, 385, 273, 448, 304
-0.992215, 409, 289, 472, 320
-0.992283, 145, 265, 272, 328
-0.992333, 25, 1, 88, 375
-0.992375, 261, 45, 292, 76
-0.992392, 141, 137, 172, 168
-0.992407, 261, 41, 276, 104
-0.992433, 433, 81, 464, 208
-0.992443, 221, 101, 252, 132
-0.992443, 413, 241, 444, 368
-0.992453, 161, 129, 192, 160
-0.992474, 257, 89, 288, 120
-0.992496, 233, 93, 264, 124
-0.99256, 49, 129, 112, 375
-0.992565, 261, 69, 292, 100
-0.992572, 469, 225, 500, 352
-0.992575, 305, 69, 336, 100
-0.992586, 121, 137, 152, 168
-0.99259, 209, 177, 336, 240
-0.992591, 33, 201, 288, 264
-0.992597, 245, 61, 276, 92
-0.992623, 293, 73, 324, 104
-0.992644, 177, 125, 208, 156
-0.992656, 277, 69, 308, 100
-0.992662, 233, 73, 264, 104
-0.992668, 457, 177, 488, 304
-0.992681, 297, 53, 328, 84
-0.992707, 241, 145, 272, 272
-0.992732, 117, 161, 148, 192
-0.992741, 257, 49, 500, 112
-0.992742, 225, 69, 352, 100
-0.99275, 77, 185, 108, 216
-0.992755, 117, 29, 148, 60
-0.992762, 1, 1, 128, 64
-0.992764, 341, 81, 372, 112
-0.992769, 317, 69, 348, 100
-0.992785, 149, 17, 180, 48
-0.992787, 233, 105, 264, 136
-0.992788, 321, 197, 352, 228
-0.992792, 93, 197, 124, 228
-0.992792, 137, 169, 168, 200
-0.992794, 281, 53, 312, 84
-0.992813, 389, 77, 420, 108
-0.992839, 137, 33, 168, 64
-0.992842, 129, 153, 160, 184
-0.992844, 105, 133, 136, 164
-0.992863, 413, 177, 444, 304
-0.992863, 321, 37, 352, 68
-0.992884, 105, 13, 136, 44
-0.992884, 313, 57, 344, 88
-0.992884, 189, 45, 220, 76
-0.992889, 249, 49, 280, 80
-0.992894, 65, 197, 96, 228
-0.992896, 105, 29, 136, 60
-0.992901, 341, 29, 372, 60
-0.992903, 249, 77, 280, 108
-0.992907, 269, 29, 300, 60
-0.992909, 221, 81, 252, 112
-0.992913, 153, 33, 184, 64
-0.992926, 289, 33, 320, 64
-0.992927, 105, 1, 136, 32
-0.992927, 125, 45, 156, 76
-0.992931, 121, 193, 152, 320
-0.992934, 257, 105, 288, 136
-0.992939, 337, 189, 368, 220
-0.992952, 105, 41, 136, 72
-0.992958, 317, 25, 348, 56
-0.992965, 309, 205, 340, 236
-0.992972, 125, 177, 156, 208
-0.992977, 197, 69, 228, 100
-0.992982, 401, 77, 432, 108
-0.992985, 337, 65, 368, 96
-0.992987, 197, 57, 228, 88
-0.992987, 197, 105, 228, 136
-0.993001, 121, 13, 152, 44
-0.993006, 221, 61, 252, 92
-0.993008, 165, 33, 196, 64
-0.993033, 361, 81, 392, 112
-0.993034, 269, 89, 300, 120
-0.993038, 381, 113, 412, 240
-0.99304, 157, 149, 188, 180
-0.99304, 353, 69, 384, 100
-0.993043, 301, 41, 332, 72
-0.99305, 329, 77, 360, 108
-0.99305, 197, 117, 228, 148
-0.993051, 229, 117, 260, 148
-0.993054, 1, 17, 500, 80
-0.993054, 281, 241, 312, 272
-0.993054, 305, 25, 336, 56
-0.993059, 333, 49, 364, 80
-0.993059, 273, 177, 304, 304
-0.99306, 201, 89, 232, 120
-0.993062, 257, 33, 288, 64
-0.993069, 309, 305, 340, 336
-0.993073, 345, 273, 376, 304
-0.99308, 109, 217, 140, 248
-0.993081, 337, 13, 368, 44
-0.993083, 437, 277, 468, 308
-0.993086, 113, 189, 144, 220
-0.993086, 133, 17, 164, 48
-0.993087, 69, 213, 100, 244
-0.993087, 373, 81, 404, 112
-0.993092, 453, 245, 484, 276
-0.993094, 369, 237, 400, 268
-0.993096, 329, 301, 360, 332
-0.993096, 425, 313, 456, 344
-0.993096, 303, 49, 318, 112
-0.993098, 177, 49, 208, 80
-0.993104, 285, 257, 316, 288
-0.993104, 277, 41, 308, 72
-0.993105, 449, 281, 480, 312
-0.993106, 357, 113, 388, 240
-0.993107, 97, 185, 128, 216
-0.993114, 245, 117, 276, 148
-0.993115, 269, 17, 300, 48
-0.993116, 209, 109, 240, 140
-0.993122, 321, 209, 352, 240
-0.993124, 365, 225, 396, 256
-0.993128, 257, 289, 288, 320
-0.99313, 405, 229, 436, 260
-0.993136, 345, 257, 376, 288
-0.993137, 25, 1, 88, 256
-0.99314, 53, 209, 84, 240
-0.993143, 181, 25, 212, 56
-0.993143, 281, 21, 312, 52
-0.993147, 129, 153, 384, 216
-0.993148, 269, 273, 300, 304
-0.993152, 259, 81, 274, 144
-0.993155, 105, 205, 136, 236
-0.993156, 413, 85, 444, 116
-0.993159, 353, 229, 384, 260
-0.993159, 185, 113, 216, 144
-0.99316, 325, 257, 356, 288
-0.99316, 329, 25, 360, 56
-0.993163, 109, 177, 140, 208
-0.993164, 297, 249, 328, 280
-0.993165, 257, 117, 288, 148
-0.993167, 421, 329, 452, 360
-0.993173, 145, 125, 272, 156
-0.99318, 321, 221, 352, 252
-0.993183, 413, 69, 444, 100
-0.993183, 433, 201, 464, 232
-0.993185, 137, 45, 168, 76
-0.993187, 301, 237, 332, 268
-0.993189, 465, 261, 496, 292
-0.993195, 445, 197, 476, 228
-0.993195, 357, 329, 388, 360
-0.993196, 161, 21, 192, 52
-0.993202, 321, 289, 352, 320
-0.993209, 81, 197, 112, 228
-0.993211, 381, 197, 412, 228
-0.993215, 145, 149, 176, 180
-0.993221, 385, 337, 416, 368
-0.993221, 333, 269, 364, 300
-0.993222, 389, 217, 420, 248
-0.993226, 177, 53, 304, 84
-0.993256, 257, 313, 384, 375
-0.993294, 1, 49, 500, 112
-0.993304, 241, 45, 368, 76
-0.993351, 49, 113, 112, 240
-0.993376, 329, 113, 360, 240
-0.993379, 297, 49, 312, 112
-0.993419, 97, 45, 224, 76
-0.993476, 257, 209, 500, 272
-0.993521, 425, 129, 456, 256
-0.993535, 247, 65, 262, 128
-0.993572, 177, 65, 304, 96
-0.993615, 257, 225, 288, 352
-0.993627, 309, 49, 324, 112
-0.993701, 97, 225, 128, 352
-0.993743, 221, 225, 252, 352
-0.993771, 229, 161, 260, 288
-0.993781, 441, 241, 472, 368
-0.9938, 317, 241, 348, 368
-0.993802, 253, 81, 268, 144
-0.993813, 425, 33, 488, 288
-0.993828, 141, 17, 156, 80
-0.993838, 265, 81, 280, 144
-0.99387, 33, 225, 288, 288
-0.993918, 93, 33, 124, 160
-0.993947, 193, 129, 448, 192
-0.993953, 277, 65, 292, 128
-0.993978, 369, 209, 400, 336
-0.994064, 177, 93, 304, 124
-0.994078, 193, 305, 320, 368
-0.994092, 315, 49, 330, 112
-0.994123, 147, 17, 162, 80
-0.99413, 131, 129, 146, 192
-0.994155, 97, 29, 224, 60
-0.994205, 65, 137, 192, 168
-0.994236, 177, 77, 304, 108
-0.994238, 149, 65, 180, 192
-0.99424, 49, 1, 112, 128
-0.994244, 255, 57, 270, 120
-0.994299, 225, 89, 352, 120
-0.9943, 225, 17, 256, 144
-0.994304, 1, 73, 500, 136
-0.994313, 413, 113, 444, 240
-0.994315, 273, 73, 400, 104
-0.99432, 61, 209, 92, 336
-0.994346, 247, 89, 262, 152
-0.994404, 1, 129, 64, 375
-0.994448, 33, 313, 160, 375
-0.994462, 97, 17, 224, 48
-0.994475, 291, 49, 306, 112
-0.994503, 1, 81, 256, 144
-0.994514, 237, 73, 252, 136
-0.99453, 135, 17, 150, 80
-0.994553, 157, 129, 172, 192
-0.994554, 337, 77, 464, 108
-0.994557, 245, 241, 276, 368
-0.994599, 271, 65, 286, 128
-0.994656, 117, 1, 148, 256
-0.99471, 237, 1, 268, 128
-0.994721, 1, 121, 500, 184
-0.994724, 241, 97, 256, 160
-0.994762, 321, 49, 336, 112
-0.994771, 1, 65, 64, 192
-0.994809, 257, 25, 384, 56
-0.994826, 69, 161, 100, 288
-0.994827, 153, 9, 168, 72
-0.99488, 225, 57, 352, 88
-0.994896, 129, 201, 384, 264
-0.994908, 143, 129, 158, 192
-0.99492, 137, 129, 152, 192
-0.994926, 267, 41, 282, 104
-0.994955, 297, 73, 312, 136
-0.995005, 285, 49, 300, 112
-0.995019, 225, 113, 352, 144
-0.995044, 49, 257, 176, 320
-0.995048, 117, 129, 132, 192
-0.995056, 57, 161, 88, 288
-0.995085, 167, 121, 182, 184
-0.995107, 257, 9, 384, 40
-0.995144, 177, 37, 304, 68
-0.995162, 179, 121, 194, 184
-0.995166, 151, 129, 166, 192
-0.995185, 271, 89, 286, 152
-0.995228, 129, 1, 160, 256
-0.995247, 231, 89, 246, 152
-0.995258, 109, 129, 124, 192
-0.995261, 253, 105, 268, 168
-0.995293, 1, 289, 128, 352
-0.995294, 81, 169, 208, 200
-0.995303, 49, 209, 80, 336
-0.995303, 33, 217, 160, 248
-0.99532, 203, 41, 218, 104
-0.995326, 49, 29, 176, 60
-0.995355, 125, 129, 140, 192
-0.995365, 177, 33, 208, 288
-0.995394, 309, 25, 324, 88
-0.995407, 303, 73, 318, 136
-0.995446, 65, 181, 192, 212
-0.995481, 173, 121, 188, 184
-0.995491, 87, 177, 102, 240
-0.9955, 327, 49, 342, 112
-0.995537, 277, 89, 292, 152
-0.99554, 437, 145, 468, 272
-0.995543, 81, 153, 208, 184
-0.995577, 257, 177, 500, 240
-0.995593, 187, 121, 202, 184
-0.995603, 321, 65, 448, 96
-0.995612, 303, 25, 318, 88
-0.995632, 263, 105, 278, 168
-0.995632, 121, 161, 136, 224
-0.995646, 225, 125, 352, 156
-0.995648, 337, 57, 352, 120
-0.995655, 131, 177, 146, 240
-0.995664, 159, 9, 174, 72
-0.995664, 81, 73, 208, 136
-0.995685, 257, 313, 500, 375
-0.99569, 129, 149, 256, 180
-0.99569, 129, 17, 144, 80
-0.995715, 177, 17, 304, 48
-0.995726, 291, 73, 306, 136
-0.995726, 113, 97, 144, 352
-0.995731, 127, 153, 142, 216
-0.995734, 123, 185, 138, 248
-0.99574, 165, 1, 196, 256
-0.995745, 245, 193, 276, 320
-0.995745, 1, 145, 500, 208
-0.99575, 429, 17, 460, 144
-0.995761, 329, 73, 344, 136
-0.995768, 165, 17, 180, 80
-0.995793, 1, 233, 500, 296
-0.995796, 97, 125, 224, 156
-0.995798, 137, 161, 152, 224
-0.995803, 153, 33, 168, 96
-0.995807, 129, 137, 256, 168
-0.995813, 129, 177, 384, 240
-0.995841, 337, 17, 464, 48
-0.995863, 337, 5, 464, 36
-0.995863, 355, 73, 370, 136
-0.995888, 409, 73, 424, 136
-0.995901, 161, 265, 416, 328
-0.995903, 343, 73, 358, 136
-0.995922, 113, 57, 240, 88
-0.995934, 321, 73, 336, 136
-0.995939, 423, 73, 438, 136
-0.995944, 273, 41, 288, 104
-0.995948, 17, 201, 144, 232
-0.995957, 305, 29, 432, 60
-0.995968, 225, 101, 352, 132
-0.995969, 139, 41, 154, 104
-0.995974, 209, 209, 240, 336
-0.995974, 17, 241, 48, 368
-0.995983, 403, 73, 418, 136
-0.996005, 305, 189, 432, 220
-0.996017, 131, 41, 146, 104
-0.996019, 231, 65, 246, 128
-0.996025, 105, 1, 136, 256
-0.996037, 97, 161, 112, 224
-0.996047, 177, 1, 304, 32
-0.996087, 301, 113, 332, 240
-0.996088, 173, 1, 188, 64
-0.9961, 357, 241, 388, 368
-0.9961, 115, 177, 130, 240
-0.996105, 85, 209, 116, 336
-0.99611, 79, 185, 94, 248
-0.996121, 33, 249, 288, 312
-0.996146, 1, 157, 128, 188
-0.996152, 145, 305, 272, 368
-0.996153, 107, 161, 122, 224
-0.996176, 221, 65, 236, 128
-0.996188, 305, 201, 432, 232
-0.996189, 257, 217, 384, 248
-0.996189, 315, 73, 330, 136
-0.99619, 97, 213, 224, 244
-0.996193, 389, 73, 404, 136
-0.99621, 309, 73, 324, 136
-0.996229, 257, 193, 384, 224
-0.996245, 119, 209, 134, 272
-0.996252, 189, 65, 220, 320
-0.996259, 297, 25, 312, 88
-0.996279, 349, 81, 364, 144
-0.996286, 273, 61, 400, 92
-0.996292, 347, 49, 362, 112
-0.996318, 147, 161, 162, 224
-0.996327, 283, 89, 298, 152
-0.996332, 367, 81, 382, 144
-0.996336, 97, 257, 224, 320
-0.996337, 373, 73, 388, 136
-0.996345, 395, 73, 410, 136
-0.996349, 201, 81, 216, 144
-0.996352, 147, 41, 162, 104
-0.996359, 193, 121, 208, 184
-0.996362, 333, 1, 364, 256
-0.996365, 1, 129, 128, 160
-0.996381, 447, 217, 462, 280
-0.996408, 315, 25, 330, 88
-0.996411, 349, 1, 364, 64
-0.996415, 5, 209, 36, 336
-0.996415, 49, 45, 176, 76
-0.996418, 327, 193, 342, 256
-0.99643, 267, 17, 282, 80
-0.99643, 129, 169, 256, 200
-0.99643, 345, 1, 376, 256
-0.996433, 1, 201, 500, 264
-0.996445, 361, 81, 376, 144
-0.996457, 101, 97, 132, 352
-0.996464, 141, 1, 172, 256
-0.996474, 97, 201, 224, 232
-0.996504, 417, 73, 432, 136
-0.996507, 97, 5, 224, 36
-0.996518, 257, 97, 500, 160
-0.996518, 69, 193, 84, 256
-0.996519, 1, 1, 64, 375
-0.996527, 169, 145, 184, 208
-0.996532, 225, 257, 352, 288
-0.996555, 199, 113, 214, 176
-0.996564, 213, 81, 228, 144
-0.99657, 441, 177, 456, 240
-0.996583, 419, 305, 434, 368
-0.996587, 17, 169, 144, 200
-0.996594, 321, 41, 448, 72
-0.996599, 163, 153, 178, 216
-0.996601, 113, 69, 240, 100
-0.996602, 257, 289, 500, 352
-0.996604, 97, 225, 224, 256
-0.996606, 329, 241, 360, 368
-0.996616, 49, 13, 176, 44
-0.996627, 103, 137, 118, 200
-0.996631, 1, 97, 500, 160
-0.996632, 381, 73, 396, 136
-0.996638, 225, 89, 240, 152
-0.996638, 321, 1, 352, 256
-0.996639, 279, 41, 294, 104
-0.99665, 125, 97, 156, 352
-0.996651, 159, 33, 174, 96
-0.99666, 289, 85, 416, 116
-0.996661, 333, 201, 348, 264
-0.996666, 129, 105, 256, 136
-0.996667, 1, 233, 128, 264
-0.99667, 257, 249, 500, 312
-0.996677, 1, 17, 64, 144
-0.996684, 49, 229, 176, 260
-0.996697, 197, 25, 212, 88
-0.996709, 129, 225, 384, 288
-0.996711, 381, 33, 412, 288
-0.996721, 457, 241, 472, 304
-0.996722, 17, 193, 48, 320
-0.996722, 405, 65, 436, 320
-0.996728, 1, 181, 128, 212
-0.99673, 287, 25, 302, 88
-0.996736, 351, 257, 366, 320
-0.996737, 335, 33, 350, 96
-0.996739, 469, 129, 500, 256
-0.99674, 105, 9, 120, 72
-0.996748, 321, 53, 448, 84
-0.99675, 305, 289, 432, 320
-0.996751, 321, 25, 336, 88
-0.996757, 369, 233, 384, 296
-0.996767, 293, 161, 324, 288
-0.996768, 49, 1, 176, 32
-0.996777, 209, 137, 336, 168
-0.99678, 113, 209, 128, 272
-0.996798, 357, 33, 388, 288
-0.996801, 17, 145, 144, 176
-0.996802, 411, 313, 426, 375
-0.996808, 123, 17, 138, 80
-0.99682, 435, 201, 450, 264
-0.99683, 209, 201, 336, 232
-0.996836, 341, 193, 356, 256
-0.996837, 189, 153, 204, 216
-0.996838, 305, 269, 432, 300
-0.996855, 177, 169, 192, 232
-0.99686, 417, 273, 432, 336
-0.996871, 379, 169, 394, 232
-0.996875, 321, 305, 448, 336
-0.996878, 257, 205, 384, 236
-0.996882, 345, 113, 376, 240
-0.996891, 137, 97, 168, 352
-0.996895, 115, 153, 130, 216
-0.996897, 359, 217, 374, 280
-0.996907, 305, 241, 432, 272
-0.996907, 153, 161, 168, 224
-0.996911, 337, 229, 464, 260
-0.996925, 265, 1, 296, 256
-0.996927, 245, 33, 276, 288
-0.996935, 249, 89, 264, 120
-0.996937, 153, 1, 184, 256
-0.996951, 353, 177, 480, 208
-0.996956, 129, 89, 256, 120
-0.996965, 209, 213, 336, 244
-0.996981, 257, 85, 272, 116
-0.996993, 165, 97, 196, 352
-0.997005, 337, 341, 464, 372
-0.997052, 243, 93, 258, 124
-0.997068, 201, 1, 232, 256
-0.99707, 257, 237, 384, 268
-0.99707, 73, 113, 104, 240
-0.997086, 49, 241, 176, 272
-0.997093, 369, 89, 496, 120
-0.997144, 65, 281, 192, 344
-0.997262, 17, 117, 144, 148
-0.997272, 261, 45, 276, 76
-0.99728, 309, 1, 340, 256
-0.997286, 225, 285, 352, 316
-0.997289, 97, 237, 224, 268
-0.997315, 209, 97, 240, 352
-0.997326, 1, 249, 128, 280
-0.997341, 393, 65, 424, 320
-0.997341, 153, 97, 184, 352
-0.997346, 353, 277, 480, 308
-0.997348, 165, 129, 180, 160
-0.997359, 305, 257, 432, 288
-0.997359, 273, 305, 400, 336
-0.997403, 235, 101, 250, 132
-0.997406, 257, 269, 384, 300
-0.997407, 353, 137, 480, 168
-0.99747, 139, 137, 154, 168
-0.997471, 345, 97, 376, 352
-0.997474, 161, 213, 288, 244
-0.997476, 277, 33, 308, 288
-0.997479, 131, 137, 146, 168
-0.997486, 225, 97, 256, 352
-0.997497, 81, 113, 208, 144
-0.997542, 247, 105, 262, 136
-0.997543, 417, 33, 448, 288
-0.997544, 263, 89, 278, 120
-0.997563, 17, 57, 144, 88
-0.997578, 369, 289, 496, 320
-0.99758, 161, 305, 416, 368
-0.997586, 321, 125, 448, 156
-0.997587, 309, 73, 324, 104
-0.997588, 305, 145, 432, 176
-0.997603, 337, 217, 464, 248
-0.997603, 369, 241, 496, 272
-0.997608, 17, 81, 144, 112
-0.997616, 321, 325, 448, 356
-0.99762, 369, 65, 400, 320
-0.997627, 1, 169, 500, 232
-0.997627, 337, 73, 352, 104
-0.997649, 353, 197, 480, 228
-0.997656, 321, 161, 448, 192
-0.997668, 147, 137, 162, 168
-0.997671, 319, 69, 334, 100
-0.997683, 137, 173, 152, 204
-0.997689, 225, 153, 480, 216
-0.99769, 1, 97, 128, 128
-0.997692, 301, 53, 316, 84
-0.997693, 293, 33, 324, 288
-0.997693, 321, 205, 336, 236
-0.997697, 301, 73, 316, 104
-0.997706, 241, 109, 256, 140
-0.997708, 229, 105, 244, 136
-0.997719, 353, 149, 480, 180
-0.997727, 253, 101, 268, 132
-0.997728, 209, 297, 336, 328
-0.997731, 129, 161, 144, 192
-0.997737, 313, 57, 328, 88
-0.997737, 331, 73, 346, 104
-0.997764, 263, 105, 278, 136
-0.997782, 269, 89, 284, 120
-0.997793, 287, 53, 302, 84
-0.997794, 305, 177, 432, 208
-0.997795, 221, 1, 252, 256
-0.997796, 295, 53, 310, 84
-0.997802, 157, 133, 172, 164
-0.997802, 257, 329, 384, 360
-0.997802, 295, 73, 310, 104
-0.997805, 369, 65, 496, 96
-0.997812, 113, 181, 240, 212
-0.997815, 273, 129, 400, 160
-0.99782, 161, 189, 288, 220
-0.997821, 355, 81, 370, 112
-0.997824, 259, 61, 274, 92
-0.99785, 177, 129, 208, 375
-0.997851, 49, 253, 176, 284
-0.997851, 171, 129, 186, 160
-0.997854, 241, 181, 368, 212
-0.997856, 271, 29, 286, 60
-0.997861, 369, 317, 496, 348
-0.997862, 275, 69, 290, 100
-0.997864, 319, 57, 334, 88
-0.997868, 109, 133, 124, 164
-0.997871, 131, 45, 146, 76
-0.997871, 193, 269, 320, 300
-0.997871, 125, 137, 140, 168
-0.997883, 353, 265, 480, 296
-0.997901, 177, 157, 304, 188
-0.997907, 203, 45, 218, 76
-0.99791, 343, 81, 358, 112
-0.997916, 231, 89, 246, 120
-0.997925, 119, 29, 134, 60
-0.99793, 325, 65, 340, 96
-0.997947, 267, 49, 282, 80
-0.997951, 361, 241, 376, 272
-0.997953, 265, 69, 280, 100
-0.997959, 307, 53, 322, 84
-0.997961, 191, 125, 206, 156
-0.997966, 405, 77, 420, 108
-0.997967, 289, 69, 304, 100
-0.997984, 147, 165, 162, 196
-0.997998, 369, 329, 496, 360
-0.998003, 129, 29, 144, 60
-0.998014, 225, 313, 352, 344
-0.998015, 193, 225, 320, 256
-0.998017, 183, 125, 198, 156
-0.998019, 281, 69, 296, 100
-0.998024, 89, 97, 120, 352
-0.998031, 361, 225, 376, 256
-0.998032, 327, 201, 342, 232
-0.998034, 95, 189, 110, 220
-0.998037, 289, 345, 416, 375
-0.998043, 177, 285, 304, 316
-0.998049, 353, 253, 480, 284
-0.998052, 255, 49, 270, 80
-0.998056, 163, 29, 178, 60
-0.998078, 369, 305, 496, 336
-0.998079, 17, 69, 144, 100
-0.998083, 177, 125, 192, 156
-0.998084, 209, 245, 336, 276
-0.998085, 131, 177, 146, 208
-0.998099, 349, 81, 364, 112
-0.9981, 369, 165, 496, 196
-0.998105, 225, 93, 240, 124
-0.998113, 119, 213, 134, 244
-0.998114, 101, 189, 116, 220
-0.998124, 253, 73, 268, 104
-0.998135, 303, 41, 318, 72
-0.998137, 113, 29, 128, 60
-0.998137, 117, 133, 132, 164
-0.998153, 163, 17, 178, 48
-0.998155, 157, 33, 172, 64
-0.998156, 367, 225, 382, 256
-0.998158, 315, 205, 330, 236
-0.99816, 337, 61, 352, 92
-0.998162, 123, 13, 138, 44
-0.998167, 237, 85, 252, 116
-0.99817, 329, 25, 344, 56
-0.998181, 353, 257, 368, 288
-0.998188, 361, 85, 376, 116
-0.998188, 353, 245, 368, 276
-0.998189, 113, 13, 128, 44
-0.998191, 149, 33, 164, 64
-0.998193, 339, 29, 354, 60
-0.998193, 419, 81, 434, 112
-0.998194, 113, 209, 128, 240
-0.998195, 201, 109, 216, 140
-0.998195, 247, 73, 262, 104
-0.998197, 347, 193, 362, 224
-0.998199, 361, 253, 376, 284
-0.998206, 1, 289, 256, 352
-0.998207, 331, 57, 346, 88
-0.998208, 259, 73, 274, 104
-0.998213, 281, 49, 296, 80
-0.998214, 169, 29, 184, 60
-0.998216, 239, 73, 254, 104
-0.998216, 143, 29, 158, 60
-0.998221, 165, 149, 180, 180
-0.998221, 427, 281, 442, 312
-0.998221, 385, 217, 400, 248
-0.998221, 325, 305, 340, 336
-0.998225, 135, 157, 150, 188
-0.998228, 347, 261, 362, 292
-0.998232, 353, 69, 368, 100
-0.998234, 337, 197, 352, 228
-0.998235, 325, 53, 340, 84
-0.998236, 273, 113, 400, 144
-0.998236, 413, 81, 428, 112
-0.998238, 461, 277, 476, 308
-0.998238, 337, 265, 352, 296
-0.998247, 393, 197, 408, 228
-0.99825, 371, 237, 386, 268
-0.998254, 399, 77, 414, 108
-0.998255, 349, 29, 364, 60
-0.998257, 91, 201, 106, 232
-0.99826, 1, 261, 128, 292
-0.998261, 275, 89, 290, 120
-0.998264, 347, 69, 362, 100
-0.998265, 1, 37, 128, 68
-0.998267, 221, 105, 236, 136
-0.99827, 275, 49, 290, 80
-0.998275, 399, 209, 414, 240
-0.998276, 87, 181, 102, 212
-0.998276, 141, 153, 156, 184
-0.998279, 193, 45, 208, 76
-0.99828, 145, 225, 272, 256
-0.998296, 93, 1, 124, 256
-0.998297, 329, 97, 360, 352
-0.998304, 433, 313, 448, 344
-0.998306, 309, 41, 324, 72
-0.998306, 149, 17, 164, 48
-0.99831, 157, 17, 172, 48
-0.99831, 291, 41, 306, 72
-0.998312, 377, 81, 392, 112
-0.998312, 425, 293, 440, 324
-0.998313, 73, 217, 88, 248
-0.998314, 481, 249, 496, 280
-0.998331, 273, 101, 400, 132
-0.998379, 245, 119, 276, 134
-0.998379, 241, 81, 272, 96
-0.998379, 197, 121, 228, 136
-0.99838, 197, 115, 228, 130
-0.99838, 257, 43, 288, 58
-0.99838, 277, 285, 308, 300
-0.998381, 449, 281, 480, 296
-0.998381, 225, 119, 256, 134
-0.998383, 469, 331, 500, 346
-0.998383, 325, 225, 356, 240
-0.998383, 341, 273, 372, 288
-0.998384, 377, 335, 408, 350
-0.998385, 317, 55, 348, 70
-0.998385, 121, 163, 152, 178
-0.998385, 289, 291, 320, 306
-0.998385, 185, 127, 216, 142
-0.998385, 453, 293, 484, 308
-0.998386, 349, 253, 380, 268
-0.998386, 429, 327, 460, 342
-0.998386, 105, 41, 136, 56
-0.998387, 377, 81, 408, 96
-0.998387, 337, 195, 368, 210
-0.998388, 309, 307, 340, 322
-0.998388, 257, 55, 288, 70
-0.998388, 121, 7, 152, 22
-0.998389, 333, 259, 364, 274
-0.998389, 361, 329, 392, 344
-0.99839, 265, 97, 296, 352
-0.99839, 313, 75, 344, 90
-0.99839, 337, 215, 368, 230
-0.998391, 341, 189, 372, 204
-0.998392, 105, 15, 136, 30
-0.998394, 401, 79, 432, 94
-0.998394, 105, 5, 136, 20
-0.998395, 137, 45, 168, 60
-0.998395, 337, 29, 368, 44
-0.998396, 257, 289, 288, 304
-0.998396, 197, 85, 228, 100
-0.998396, 129, 139, 160, 154
-0.998397, 465, 251, 496, 266
-0.998397, 269, 297, 300, 312
-0.998398, 217, 109, 280, 124
-0.998399, 269, 25, 300, 40
-0.9984, 129, 157, 160, 172
-0.9984, 277, 67, 308, 82
-0.998401, 197, 63, 228, 78
-0.998401, 61, 209, 92, 224
-0.998402, 233, 1, 264, 256
-0.998402, 365, 247, 396, 262
-0.998404, 417, 315, 448, 330
-0.998405, 349, 79, 380, 94
-0.998405, 281, 249, 312, 264
-0.998405, 353, 265, 384, 280
-0.998406, 409, 355, 440, 370
-0.998407, 213, 81, 244, 96
-0.998408, 293, 53, 324, 68
-0.998409, 313, 317, 344, 332
-0.99841, 437, 281, 468, 296
-0.998411, 337, 83, 368, 98
-0.998411, 437, 289, 468, 304
-0.998412, 321, 303, 352, 318
-0.998412, 309, 29, 340, 44
-0.998413, 257, 67, 288, 82
-0.998415, 261, 91, 292, 106
-0.998415, 117, 43, 148, 58
-0.998415, 197, 107, 228, 122
-0.998415, 273, 291, 304, 306
-0.998416, 425, 279, 456, 294
-0.998416, 197, 75, 228, 90
-0.998416, 165, 35, 196, 50
-0.998417, 397, 355, 428, 370
-0.998417, 309, 293, 340, 308
-0.998419, 229, 83, 260, 98
-0.998419, 225, 99, 256, 114
-0.998421, 293, 241, 324, 256
-0.998421, 233, 107, 264, 122
-0.998422, 177, 37, 208, 52
-0.998425, 257, 107, 288, 122
-0.998425, 73, 199, 104, 214
-0.998425, 429, 311, 460, 326
-0.998426, 293, 67, 324, 82
-0.998426, 429, 317, 460, 332
-0.998427, 337, 267, 368, 282
-0.998429, 321, 205, 352, 220
-0.99843, 301, 247, 332, 262
-0.99843, 309, 301, 340, 316
-0.998436, 121, 31, 152, 46
-0.998437, 325, 31, 356, 46
-0.998437, 337, 75, 368, 90
-0.998438, 369, 321, 400, 336
-0.99844, 189, 49, 220, 64
-0.99844, 317, 219, 348, 234
-0.998442, 221, 111, 252, 126
-0.998444, 257, 275, 288, 290
-0.998445, 301, 35, 332, 50
-0.998446, 225, 115, 288, 130
-0.998448, 349, 259, 380, 274
-0.998448, 265, 281, 296, 296
-0.998448, 137, 171, 168, 186
-0.998448, 329, 311, 360, 326
-0.998452, 241, 95, 272, 110
-0.998452, 173, 129, 204, 144
-0.998453, 157, 137, 188, 152
-0.998454, 317, 39, 348, 54
-0.998458, 193, 119, 256, 134
-0.998459, 281, 35, 312, 50
-0.99846, 337, 39, 368, 54
-0.99846, 245, 63, 276, 78
-0.99846, 257, 83, 288, 98
-0.99846, 217, 103, 280, 118
-0.998467, 153, 35, 184, 50
-0.998468, 117, 137, 148, 152
-0.998468, 229, 89, 260, 104
-0.998471, 301, 73, 332, 88
-0.998472, 317, 69, 348, 84
-0.998473, 105, 137, 136, 152
-0.998474, 289, 45, 352, 60
-0.998477, 269, 33, 300, 48
-0.998477, 225, 85, 288, 100
-0.998477, 241, 91, 304, 106
-0.998477, 141, 139, 172, 154
-0.99848, 333, 47, 364, 62
-0.998484, 133, 33, 164, 48
-0.998484, 105, 33, 168, 48
-0.998487, 289, 41, 320, 56
-0.998487, 109, 31, 140, 46
-0.998491, 241, 113, 272, 128
-0.998491, 325, 77, 356, 92
-0.998493, 265, 35, 328, 50
-0.998493, 265, 41, 328, 56
-0.998493, 105, 137, 168, 152
-0.998494, 161, 131, 192, 146
-0.998494, 129, 35, 192, 50
-0.998495, 93, 203, 124, 218
-0.998497, 77, 193, 108, 208
-0.998497, 297, 39, 360, 54
-0.998498, 193, 113, 256, 128
-0.998498, 249, 49, 312, 64
-0.998499, 263, 33, 278, 160
-0.9985, 305, 43, 336, 58
-0.998501, 369, 81, 432, 96
-0.998503, 237, 101, 268, 116
-0.998504, 153, 129, 216, 144
-0.998514, 257, 49, 288, 64
-0.998516, 321, 45, 352, 60
-0.998516, 249, 89, 280, 104
-0.998517, 73, 209, 136, 224
-0.998518, 389, 79, 420, 94
-0.998518, 269, 39, 300, 54
-0.998518, 289, 31, 352, 46
-0.998519, 289, 73, 352, 88
-0.998522, 177, 113, 192, 240
-0.998527, 265, 71, 328, 86
-0.998527, 313, 45, 376, 60
-0.998528, 233, 121, 296, 136
-0.998529, 129, 139, 192, 154
-0.998533, 1, 313, 500, 375
-0.998536, 193, 103, 256, 118
-0.998537, 89, 167, 152, 182
-0.998537, 313, 31, 376, 46
-0.998543, 185, 95, 248, 110
-0.998545, 265, 27, 328, 42
-0.998548, 249, 85, 312, 100
-0.99855, 249, 55, 312, 70
-0.998554, 153, 37, 216, 52
-0.998556, 201, 87, 264, 102
-0.998556, 185, 81, 248, 96
-0.998557, 241, 65, 304, 80
-0.998559, 297, 79, 360, 94
-0.998561, 241, 71, 304, 86
-0.998563, 73, 215, 136, 230
-0.998567, 265, 65, 328, 80
-0.998569, 241, 109, 304, 124
-0.99857, 97, 17, 160, 32
-0.998571, 209, 79, 272, 94
-0.998571, 185, 125, 248, 140
-0.998572, 321, 79, 384, 94
-0.998572, 129, 133, 192, 148
-0.998572, 217, 97, 280, 112
-0.998578, 241, 35, 304, 50
-0.998578, 233, 79, 296, 94
-0.998581, 105, 43, 168, 58
-0.998581, 277, 129, 308, 375
-0.998581, 329, 199, 392, 214
-0.998581, 217, 63, 280, 78
-0.998583, 305, 55, 368, 70
-0.998585, 221, 105, 252, 120
-0.998587, 65, 203, 128, 218
-0.998587, 313, 73, 376, 88
-0.998589, 81, 31, 144, 46
-0.998589, 129, 45, 192, 60
-0.998589, 171, 113, 186, 240
-0.99859, 273, 293, 336, 308
-0.998591, 245, 107, 276, 122
-0.998591, 233, 127, 296, 142
-0.998591, 161, 49, 224, 64
-0.998591, 183, 113, 198, 240
-0.998592, 153, 135, 216, 150
-0.998593, 185, 75, 248, 90
-0.998595, 129, 173, 192, 188
-0.998595, 105, 27, 168, 42
-0.998596, 209, 55, 272, 70
-0.998596, 257, 77, 320, 92
-0.998596, 73, 189, 136, 204
-0.998598, 273, 249, 336, 264
-0.998599, 313, 67, 376, 82
-0.998599, 297, 303, 360, 318
-0.9986, 337, 225, 400, 240
-0.9986, 121, 19, 184, 34
-0.998601, 137, 13, 200, 28
-0.998601, 321, 85, 384, 100
-0.998601, 269, 17, 284, 144
-0.998602, 329, 193, 392, 208
-0.998602, 113, 11, 176, 26
-0.998604, 337, 235, 400, 250
-0.998605, 313, 233, 376, 248
-0.998606, 97, 161, 160, 176
-0.998608, 305, 205, 368, 220
-0.998608, 273, 51, 336, 66
-0.998608, 65, 197, 128, 212
-0.998609, 305, 265, 368, 280
-0.998612, 289, 67, 352, 82
-0.998612, 153, 43, 216, 58
-0.998613, 297, 243, 360, 258
-0.998614, 425, 287, 488, 302
-0.998614, 345, 75, 408, 90
-0.998614, 145, 21, 208, 36
-0.998615, 129, 29, 192, 44
-0.998616, 163, 113, 178, 240
-0.998617, 313, 23, 376, 38
-0.998617, 97, 147, 160, 162
-0.998617, 97, 51, 160, 66
-0.998617, 209, 49, 272, 64
-0.998618, 297, 309, 360, 324
-0.998618, 289, 25, 352, 40
-0.998619, 345, 81, 408, 96
-0.99862, 161, 29, 224, 44
-0.998622, 81, 175, 144, 190
-0.998623, 305, 225, 368, 240
-0.998623, 257, 267, 320, 282
-0.998623, 265, 203, 328, 218
-0.998623, 305, 249, 368, 264
-0.998623, 385, 313, 448, 328
-0.998626, 249, 283, 312, 298
-0.998626, 193, 63, 256, 78
-0.998626, 273, 239, 336, 254
-0.998626, 277, 17, 292, 144
-0.998627, 97, 5, 160, 20
-0.998628, 417, 215, 480, 230
-0.998628, 321, 257, 384, 272
-0.998629, 137, 149, 200, 164
-0.998629, 377, 243, 440, 258
-0.998629, 281, 281, 344, 296
-0.99863, 401, 285, 464, 300
-0.99863, 249, 297, 312, 312
-0.998631, 313, 283, 376, 298
-0.998631, 161, 15, 224, 30
-0.998632, 377, 205, 440, 220
-0.998632, 281, 215, 344, 230
-0.998633, 305, 219, 368, 234
-0.998633, 281, 209, 344, 224
-0.998634, 193, 69, 256, 84
-0.998634, 121, 161, 184, 176
-0.998634, 273, 87, 336, 102
-0.998634, 129, 155, 192, 170
-0.998634, 305, 297, 368, 312
-0.998635, 417, 319, 480, 334
-0.998635, 81, 183, 144, 198
-0.998636, 273, 305, 336, 320
-0.998637, 257, 277, 320, 292
-0.998637, 425, 247, 488, 262
-0.998641, 421, 129, 452, 375
-0.998654, 191, 113, 206, 240
-0.998659, 257, 49, 272, 176
-0.998665, 357, 129, 388, 375
-0.998718, 291, 33, 306, 160
-0.998729, 405, 65, 420, 192
-0.998738, 157, 113, 172, 240
-0.998744, 283, 65, 298, 192
-0.998752, 245, 49, 260, 176
-0.998755, 343, 1, 358, 128
-0.998804, 251, 49, 266, 176
-0.998816, 237, 65, 252, 192
-0.998819, 437, 97, 468, 352
-0.998819, 297, 129, 328, 375
-0.998839, 351, 17, 366, 144
-0.998845, 299, 65, 314, 192
-0.998853, 283, 17, 298, 144
-0.998856, 277, 65, 292, 192
-0.998859, 191, 33, 206, 160
-0.998877, 377, 65, 392, 192
-0.998884, 301, 17, 316, 144
-0.998899, 411, 65, 426, 192
-0.998909, 337, 17, 352, 144
-0.998916, 399, 65, 414, 192
-0.998919, 305, 65, 320, 192
-0.998925, 131, 129, 146, 256
-0.998925, 271, 65, 286, 192
-0.998925, 357, 1, 372, 128
-0.998944, 329, 65, 344, 192
-0.998944, 339, 65, 354, 192
-0.998948, 203, 33, 218, 160
-0.998949, 151, 129, 166, 256
-0.998953, 329, 17, 344, 144
-0.998961, 417, 65, 432, 192
-0.998968, 311, 65, 326, 192
-0.99898, 81, 305, 208, 368
-0.998982, 197, 97, 212, 224
-0.998984, 323, 17, 338, 144
-0.998984, 371, 65, 386, 192
-0.998988, 141, 129, 156, 256
-0.99899, 1, 257, 500, 320
-0.999002, 121, 161, 136, 288
-0.999016, 213, 97, 228, 224
-0.999016, 237, 129, 268, 375
-0.999022, 383, 65, 398, 192
-0.99903, 391, 65, 406, 192
-0.999042, 115, 161, 130, 288
-0.999042, 259, 97, 274, 224
-0.999047, 323, 65, 338, 192
-0.999051, 345, 65, 360, 192
-0.999057, 207, 97, 222, 224
-0.999058, 253, 97, 268, 224
-0.999058, 125, 113, 140, 240
-0.999079, 365, 65, 380, 192
-0.999105, 317, 65, 332, 192
-0.99912, 65, 313, 320, 375
-0.999133, 353, 65, 368, 192
-0.999135, 229, 81, 244, 208
-0.999136, 119, 113, 134, 240
-0.999139, 243, 113, 258, 240
-0.999145, 453, 65, 484, 320
-0.999151, 307, 17, 322, 144
-0.999156, 113, 113, 128, 240
-0.999162, 221, 97, 236, 224
-0.999166, 171, 161, 186, 288
-0.99917, 321, 209, 336, 336
-0.999175, 469, 129, 500, 375
-0.999177, 185, 161, 200, 288
-0.9992, 315, 17, 330, 144
-0.999202, 131, 1, 146, 128
-0.999202, 423, 65, 438, 192
-0.999205, 135, 81, 150, 208
-0.999206, 185, 33, 200, 160
-0.999206, 265, 81, 280, 208
-0.999222, 179, 161, 194, 288
-0.999222, 359, 65, 374, 192
-0.999222, 107, 113, 122, 240
-0.999228, 309, 97, 340, 352
-0.999229, 363, 1, 378, 128
-0.999233, 359, 209, 374, 336
-0.999241, 127, 177, 142, 304
-0.999248, 453, 225, 468, 352
-0.999257, 165, 161, 180, 288
-0.99926, 197, 49, 212, 176
-0.999261, 179, 33, 194, 160
-0.999268, 425, 209, 440, 336
-0.999274, 347, 209, 362, 336
-0.999276, 141, 81, 156, 208
-0.999276, 383, 225, 398, 352
-0.999279, 253, 129, 284, 375
-0.999287, 159, 161, 174, 288
-0.999299, 109, 161, 124, 288
-0.999303, 121, 49, 136, 176
-0.999304, 73, 129, 104, 375
-0.999318, 139, 1, 154, 128
-0.999319, 403, 17, 418, 144
-0.999319, 431, 177, 446, 304
-0.999334, 107, 1, 122, 128
-0.999335, 191, 161, 206, 288
-0.999337, 197, 145, 212, 272
-0.99934, 373, 113, 388, 240
-0.999344, 309, 193, 324, 320
-0.999347, 337, 225, 352, 352
-0.99935, 275, 113, 290, 240
-0.999352, 329, 209, 344, 336
-0.999357, 109, 49, 124, 176
-0.999357, 421, 17, 436, 144
-0.999365, 119, 1, 134, 128
-0.999365, 127, 49, 142, 176
-0.99937, 173, 33, 188, 160
-0.99937, 439, 209, 454, 336
-0.999372, 125, 1, 140, 128
-0.999373, 211, 49, 226, 176
-0.999376, 149, 81, 164, 208
-0.999384, 207, 145, 222, 272
-0.999385, 445, 177, 460, 304
-0.999386, 197, 1, 212, 128
-0.999387, 409, 113, 424, 240
-0.999388, 315, 209, 330, 336
-0.999397, 353, 241, 368, 368
-0.999399, 409, 17, 424, 144
-0.999401, 465, 33, 496, 288
-0.999405, 429, 65, 444, 192
-0.999405, 163, 1, 178, 128
-0.999409, 351, 161, 366, 288
-0.99941, 463, 209, 478, 336
-0.999413, 381, 129, 412, 375
-0.999414, 253, 1, 268, 128
-0.999415, 213, 145, 228, 272
-0.999415, 433, 225, 448, 352
-0.999416, 415, 241, 430, 368
-0.999418, 377, 225, 392, 352
-0.999419, 217, 33, 232, 160
-0.999421, 281, 113, 296, 240
-0.999422, 393, 193, 408, 320
-0.999424, 403, 193, 418, 320
-0.999425, 223, 49, 238, 176
-0.999426, 237, 113, 252, 240
-0.999508, 17, 129, 48, 375
-0.999577, 29, 97, 60, 352
-0.999581, 367, 321, 382, 336
-0.999582, 255, 57, 270, 72
-0.999582, 349, 231, 364, 246
-0.999583, 409, 81, 424, 96
-0.999583, 385, 329, 400, 344
-0.999583, 303, 305, 318, 320
-0.999584, 365, 229, 380, 244
-0.999584, 365, 327, 380, 342
-0.999584, 433, 309, 448, 324
-0.999584, 431, 329, 446, 344
-0.999584, 333, 201, 348, 216
-0.999585, 349, 265, 364, 280
-0.999585, 371, 233, 386, 248
-0.999586, 311, 311, 326, 326
-0.999587, 297, 35, 312, 50
-0.999587, 137, 139, 152, 154
-0.999587, 361, 285, 376, 300
-0.999588, 311, 295, 326, 310
-0.999588, 343, 47, 358, 62
-0.999588, 359, 247, 374, 262
-0.999588, 425, 325, 440, 340
-0.999589, 465, 255, 480, 270
-0.999589, 191, 127, 206, 142
-0.99959, 133, 31, 148, 46
-0.99959, 345, 191, 360, 206
-0.99959, 303, 257, 318, 272
-0.99959, 141, 171, 156, 186
-0.99959, 93, 191, 108, 206
-0.99959, 277, 273, 292, 288
-0.99959, 261, 53, 276, 68
-0.99959, 349, 77, 364, 92
-0.999591, 117, 137, 132, 152
-0.999591, 303, 311, 318, 326
-0.999591, 237, 117, 252, 132
-0.999591, 419, 351, 434, 366
-0.999591, 91, 203, 106, 218
-0.999591, 277, 283, 292, 298
-0.999591, 377, 237, 392, 252
-0.999594, 321, 69, 336, 84
-0.999594, 199, 119, 214, 134
-0.999594, 309, 263, 324, 278
-0.999595, 317, 315, 332, 330
-0.999595, 167, 35, 182, 50
-0.999595, 335, 39, 350, 54
-0.999595, 145, 139, 160, 154
-0.999596, 437, 279, 452, 294
-0.999596, 351, 247, 366, 262
-0.999597, 439, 213, 454, 228
-0.999597, 155, 33, 170, 48
-0.999597, 435, 315, 450, 330
-0.999598, 325, 217, 340, 232
-0.999598, 315, 67, 330, 82
-0.999599, 293, 255, 308, 270
-0.999599, 263, 65, 278, 80
-0.999599, 333, 311, 348, 326
-0.999599, 339, 195, 354, 210
-0.999599, 309, 245, 324, 260
-0.999599, 275, 69, 290, 84
-0.999599, 297, 41, 312, 56
-0.9996, 329, 45, 344, 60
-0.999601, 447, 215, 462, 230
-0.999601, 279, 39, 294, 54
-0.999601, 259, 287, 274, 302
-0.999603, 169, 131, 184, 146
-0.999603, 303, 267, 318, 282
-0.999603, 353, 83, 368, 98
-0.999604, 311, 319, 326, 334
-0.999604, 285, 249, 300, 264
-0.999604, 315, 251, 330, 266
-0.999605, 129, 137, 144, 152
-0.999605, 327, 223, 342, 238
-0.999607, 121, 31, 136, 46
-0.999608, 297, 67, 312, 82
-0.999608, 131, 47, 146, 62
-0.999609, 339, 81, 354, 96
-0.99961, 273, 39, 288, 54
-0.99961, 327, 203, 342, 218
-0.99961, 161, 35, 176, 50
-0.999611, 425, 311, 440, 326
-0.999611, 277, 33, 292, 48
-0.999612, 243, 103, 258, 118
-0.999612, 123, 137, 138, 152
-0.999612, 305, 69, 320, 84
-0.999612, 311, 303, 326, 318
-0.999613, 285, 35, 300, 50
-0.999614, 107, 29, 122, 44
-0.999614, 311, 37, 326, 52
-0.999614, 337, 267, 352, 282
-0.999614, 315, 43, 330, 58
-0.999615, 127, 31, 142, 46
-0.999616, 101, 199, 116, 214
-0.999616, 403, 79, 418, 94
-0.999617, 259, 87, 274, 102
-0.999617, 351, 253, 366, 268
-0.999617, 289, 283, 304, 298
-0.999619, 327, 39, 342, 54
-0.99962, 249, 95, 264, 110
-0.999622, 349, 41, 364, 56
-0.999622, 149, 33, 164, 48
-0.999625, 239, 111, 254, 126
-0.999626, 339, 227, 354, 242
-0.999627, 321, 39, 336, 54
-0.999628, 291, 35, 306, 50
-0.999628, 143, 33, 158, 48
-0.999628, 249, 103, 264, 118
-0.999629, 251, 109, 266, 124
-0.999629, 253, 87, 268, 102
-0.99963, 349, 47, 364, 62
-0.999631, 283, 279, 298, 294
-0.999632, 151, 137, 166, 152
-0.999633, 203, 49, 218, 64
-0.999633, 109, 137, 124, 152
-0.999635, 305, 37, 320, 52
-0.999636, 283, 287, 298, 302
-0.999638, 261, 105, 276, 120
-0.999638, 335, 45, 350, 60
-0.99964, 315, 73, 330, 88
-0.999641, 257, 63, 272, 78
-0.999642, 341, 41, 356, 56
-0.999644, 271, 33, 286, 48
-0.999647, 243, 97, 258, 112
-0.999649, 157, 135, 172, 150
-0.999658, 329, 77, 344, 92
-0.99967, 73, 33, 104, 288
-0.999674, 261, 47, 276, 62
-0.999674, 231, 105, 246, 120
-0.999678, 163, 133, 178, 148
-0.999695, 337, 75, 352, 90
-0.9997, 255, 103, 270, 118
-0.999711, 237, 103, 252, 118
-0.999719, 245, 109, 260, 124
-0.999798, 33, 1, 64, 256
-0.999882, 61, 97, 92, 352
-1.00003, 429, 1, 460, 256
-1.00006, 17, 1, 48, 256
-1.00007, 49, 97, 80, 352
-1.00009, 1, 129, 32, 375
-1.00012, 441, 1, 472, 256
-1.00013, 1, 33, 64, 288
-1.00052, 5, 33, 36, 288
-1.00064, 1, 289, 500, 352
-1.00075, 45, 1, 76, 256
-1.00077, 61, 1, 92, 256
