1973
-0.427033, 33, 1, 288, 375
-0.429081, 1, 129, 500, 375
-0.505565, 1, 1, 500, 375
-0.523285, 1, 1, 500, 256
-0.553117, 129, 1, 384, 375
-0.620801, 257, 1, 500, 375
-0.664287, 65, 97, 320, 352
-0.675224, 33, 1, 288, 256
-0.73412, 193, 129, 448, 375
-0.738059, 193, 1, 448, 256
-0.83773, 1, 1, 128, 375
-0.867645, 1, 1, 128, 256
-0.884659, 161, 1, 288, 375
-0.885647, 353, 129, 480, 375
-0.887597, 161, 97, 288, 352
-0.890513, 81, 1, 208, 256
-0.890848, 49, 129, 176, 375
-0.891355, 81, 1, 208, 375
-0.891987, 1, 129, 500, 256
-0.893261, 241, 129, 368, 375
-0.893393, 289, 129, 416, 375
-0.89413, 1, 129, 128, 375
-0.9033, 1, 177, 500, 304
-0.904746, 337, 1, 464, 375
-0.908744, 161, 1, 288, 256
-0.911073, 289, 33, 416, 288
-0.911245, 113, 97, 240, 352
-0.912744, 241, 1, 368, 375
-0.9175, 241, 33, 368, 288
-0.923305, 289, 1, 416, 375
-0.928116, 129, 129, 384, 256
-0.930341, 369, 33, 496, 288
-0.930644, 33, 1, 288, 128
-0.931496, 225, 145, 480, 272
-0.935622, 1, 225, 500, 352
-0.937683, 1, 81, 500, 208
-0.937853, 1, 145, 256, 272
-0.93848, 353, 145, 480, 272
-0.940415, 1, 1, 500, 128
-0.940521, 81, 1, 208, 128
-0.941363, 377, 129, 440, 256
-0.944653, 193, 81, 448, 208
-0.944988, 161, 1, 224, 128
-0.945036, 1, 225, 256, 352
-0.945122, 33, 97, 288, 224
-0.946296, 129, 177, 384, 304
-0.947848, 161, 97, 224, 224
-0.948231, 81, 225, 208, 352
-0.948236, 161, 129, 288, 256
-0.948492, 161, 49, 224, 176
-0.950225, 369, 145, 432, 208
-0.950819, 273, 145, 400, 272
-0.952292, 297, 145, 360, 272
-0.952658, 25, 241, 88, 368
-0.952899, 121, 1, 184, 128
-0.953242, 1, 241, 64, 368
-0.953662, 1, 177, 128, 304
-0.953664, 345, 145, 408, 272
-0.954122, 1, 225, 128, 352
-0.954338, 121, 161, 184, 288
-0.954558, 97, 241, 352, 368
-0.954786, 57, 193, 120, 320
-0.955838, 1, 161, 64, 288
-0.956787, 33, 161, 96, 288
-0.956925, 1, 17, 128, 144
-0.958471, 129, 1, 384, 128
-0.95866, 161, 1, 224, 64
-0.958696, 65, 177, 192, 304
-0.959188, 273, 145, 336, 272
-0.959672, 129, 241, 256, 368
-0.960569, 97, 1, 160, 128
-0.961014, 9, 1, 72, 128
-0.961084, 57, 185, 120, 248
-0.961579, 33, 49, 288, 176
-0.961851, 161, 57, 224, 120
-0.962085, 121, 225, 184, 352
-0.962234, 401, 145, 464, 272
-0.962269, 425, 161, 488, 288
-0.963088, 201, 129, 264, 256
-0.963254, 161, 81, 224, 144
-0.963345, 233, 145, 296, 272
-0.963732, 81, 241, 144, 368
-0.963736, 161, 33, 224, 96
-0.96425, 393, 161, 456, 224
-0.96434, 209, 145, 336, 272
-0.964548, 25, 217, 88, 280
-0.964585, 33, 169, 96, 232
-0.964586, 321, 177, 384, 304
-0.964733, 225, 193, 480, 320
-0.965008, 113, 113, 240, 240
-0.965155, 49, 241, 112, 368
-0.96518, 113, 177, 240, 304
-0.965183, 137, 1, 200, 64
-0.965468, 297, 161, 360, 224
-0.965597, 161, 113, 224, 176
-0.965832, 161, 81, 288, 208
-0.966011, 273, 161, 336, 224
-0.966212, 321, 97, 448, 224
-0.966235, 297, 185, 360, 248
-0.966678, 145, 193, 208, 320
-0.966749, 17, 129, 144, 256
-0.966775, 361, 169, 424, 232
-0.966825, 121, 177, 184, 240
-0.967168, 145, 161, 208, 224
-0.967403, 1, 233, 64, 296
-0.968024, 321, 177, 384, 240
-0.968385, 57, 209, 120, 272
-0.968556, 425, 177, 488, 240
-0.968764, 241, 97, 368, 224
-0.968854, 33, 193, 96, 256
-0.968912, 65, 129, 192, 256
-0.969139, 1, 169, 64, 232
-0.969139, 9, 113, 72, 240
-0.969339, 161, 33, 288, 160
-0.969396, 17, 145, 80, 208
-0.969399, 1, 257, 64, 320
-0.969746, 161, 137, 224, 200
-0.96986, 145, 145, 208, 272
-0.969916, 321, 113, 384, 240
-0.970334, 17, 1, 80, 64
-0.970437, 161, 33, 224, 288
-0.970985, 57, 161, 120, 224
-0.971298, 201, 137, 264, 200
-0.971335, 97, 153, 160, 216
-0.971367, 73, 1, 136, 128
-0.97147, 417, 97, 480, 224
-0.971542, 65, 241, 128, 304
-0.971854, 321, 153, 448, 216
-0.972531, 329, 153, 392, 216
-0.972559, 33, 257, 96, 320
-0.972813, 369, 97, 496, 224
-0.972922, 9, 33, 72, 96
-0.973076, 81, 281, 144, 344
-0.97358, 257, 193, 384, 320
-0.973598, 121, 217, 184, 280
-0.97377, 257, 193, 320, 320
-0.973802, 265, 97, 328, 224
-0.973802, 81, 193, 144, 320
-0.973805, 233, 161, 296, 224
-0.973928, 97, 129, 160, 256
-0.973972, 129, 241, 192, 304
-0.974107, 1, 201, 64, 264
-0.974241, 1, 161, 32, 288
-0.974307, 13, 161, 44, 224
-0.974499, 17, 1, 80, 256
-0.974504, 121, 305, 184, 368
-0.974565, 185, 65, 248, 192
-0.974607, 113, 65, 240, 192
-0.974738, 73, 129, 136, 256
-0.974751, 225, 313, 288, 375
-0.975104, 121, 153, 184, 216
-0.975396, 265, 201, 328, 264
-0.975443, 113, 1, 240, 64
-0.975515, 425, 153, 488, 216
-0.975657, 81, 185, 144, 248
-0.976317, 1, 177, 32, 240
-0.97638, 121, 97, 184, 224
-0.976471, 113, 9, 176, 72
-0.976747, 413, 153, 444, 216
-0.976828, 145, 241, 208, 368
-0.976893, 369, 153, 496, 216
-0.977153, 257, 161, 384, 224
-0.977308, 33, 129, 96, 375
-0.977497, 145, 185, 208, 248
-0.977536, 113, 273, 176, 336
-0.977692, 165, 1, 196, 64
-0.977746, 161, 177, 288, 304
-0.977785, 145, 217, 208, 280
-0.977993, 289, 185, 416, 248
-0.978042, 17, 313, 80, 375
-0.978104, 185, 1, 248, 128
-0.978157, 161, 145, 288, 208
-0.978282, 89, 257, 152, 320
-0.978388, 153, 1, 184, 64
-0.978389, 377, 145, 408, 208
-0.978445, 41, 1, 104, 256
-0.978487, 73, 17, 136, 80
-0.978561, 393, 129, 424, 256
-0.978607, 9, 217, 40, 280
-0.978709, 153, 1, 184, 128
-0.978729, 1, 1, 64, 375
-0.978752, 401, 185, 464, 248
-0.978757, 289, 129, 352, 375
-0.978787, 361, 129, 424, 375
-0.978833, 1, 209, 128, 272
-0.978878, 33, 1, 96, 128
-0.978951, 65, 129, 128, 375
-0.979051, 13, 145, 44, 272
-0.979229, 385, 129, 448, 375
-0.979301, 65, 1, 128, 256
-0.979321, 353, 177, 480, 240
-0.979501, 81, 177, 208, 240
-0.979626, 389, 137, 420, 200
-0.979639, 249, 297, 312, 360
-0.979679, 97, 273, 224, 336
-0.979798, 177, 241, 304, 368
-0.979819, 25, 1, 88, 375
-0.979864, 381, 129, 412, 256
-0.979935, 81, 209, 144, 272
-0.980045, 49, 17, 112, 80
-0.980163, 1, 129, 64, 375
-0.980241, 1, 49, 64, 176
-0.980459, 57, 1, 120, 375
-0.980604, 401, 145, 432, 208
-0.980623, 89, 1, 152, 256
-0.980631, 161, 305, 224, 368
-0.980677, 25, 225, 56, 288
-0.980678, 241, 185, 304, 248
-0.980691, 45, 241, 76, 368
-0.980696, 81, 177, 112, 240
-0.980785, 81, 209, 208, 272
-0.980799, 113, 305, 240, 368
-0.980999, 425, 161, 456, 224
-0.98101, 81, 153, 208, 216
-0.981049, 33, 281, 96, 344
-0.981068, 1, 153, 128, 216
-0.981096, 365, 161, 396, 224
-0.981148, 9, 225, 40, 352
-0.981173, 161, 241, 224, 304
-0.981187, 305, 145, 336, 272
-0.981203, 49, 257, 176, 320
-0.981253, 97, 249, 224, 312
-0.981292, 149, 177, 180, 240
-0.981454, 361, 161, 392, 288
-0.981538, 161, 169, 288, 232
-0.981623, 1, 25, 128, 88
-0.98172, 17, 185, 144, 248
-0.981765, 17, 233, 144, 296
-0.981839, 1, 257, 128, 320
-0.981876, 29, 209, 60, 336
-0.98193, 73, 201, 104, 264
-0.981959, 17, 297, 144, 360
-0.982205, 445, 177, 476, 240
-0.982253, 57, 241, 88, 368
-0.982255, 145, 265, 208, 328
-0.982273, 9, 289, 72, 352
-0.982377, 329, 161, 360, 224
-0.982395, 25, 193, 56, 256
-0.982453, 193, 241, 448, 368
-0.98248, 273, 305, 336, 368
-0.982494, 209, 169, 336, 232
-0.982507, 121, 129, 184, 375
-0.982544, 405, 129, 436, 256
-0.982628, 345, 177, 376, 304
-0.982686, 393, 137, 456, 200
-0.982786, 417, 145, 448, 272
-0.982892, 161, 1, 224, 375
-0.98292, 201, 129, 264, 375
-0.982992, 65, 9, 192, 72
-0.982998, 209, 145, 336, 208
-0.983043, 209, 193, 336, 320
-0.983115, 57, 281, 120, 344
-0.983183, 445, 161, 476, 288
-0.983238, 33, 113, 96, 240
-0.983355, 201, 113, 264, 176
-0.983367, 257, 137, 320, 200
-0.983396, 1, 1, 32, 128
-0.983505, 13, 185, 44, 248
-0.983631, 149, 225, 180, 352
-0.983683, 185, 65, 248, 128
-0.983774, 65, 161, 96, 288
-0.983781, 105, 241, 136, 368
-0.983823, 61, 185, 92, 248
-0.983831, 193, 1, 256, 64
-0.983857, 97, 129, 160, 375
-0.983885, 149, 233, 180, 296
-0.983904, 161, 113, 288, 176
-0.983923, 309, 185, 340, 248
-0.983962, 301, 161, 332, 224
-0.984002, 65, 297, 192, 360
-0.984016, 153, 161, 184, 288
-0.984038, 349, 177, 380, 240
-0.984113, 101, 1, 132, 128
-0.984168, 165, 1, 196, 128
-0.984189, 153, 153, 184, 216
-0.984228, 13, 33, 44, 160
-0.984233, 209, 305, 336, 368
-0.984316, 121, 129, 184, 192
-0.984446, 313, 153, 344, 216
-0.98454, 361, 185, 392, 248
-0.984608, 117, 273, 148, 336
-0.98473, 185, 305, 248, 368
-0.984941, 137, 209, 168, 336
-0.984959, 225, 137, 288, 200
-0.984972, 185, 25, 248, 88
-0.985016, 225, 97, 288, 224
-0.985055, 233, 129, 296, 375
-0.985151, 281, 193, 344, 320
-0.985157, 173, 97, 204, 224
-0.985194, 161, 129, 224, 375
-0.985215, 377, 169, 408, 232
-0.98524, 1, 241, 32, 304
-0.985251, 17, 33, 48, 96
-0.985273, 133, 153, 164, 216
-0.98528, 469, 177, 500, 240
-0.98529, 89, 209, 120, 272
-0.985333, 153, 209, 184, 272
-0.985387, 269, 185, 300, 248
-0.9854, 45, 241, 76, 304
-0.985464, 165, 153, 196, 216
-0.985495, 121, 1, 184, 256
-0.985555, 173, 49, 204, 176
-0.985559, 29, 1, 60, 64
-0.985649, 89, 209, 120, 336
-0.985661, 73, 209, 104, 336
-0.985759, 185, 41, 216, 104
-0.985804, 225, 137, 256, 200
-0.985844, 429, 185, 460, 248
-0.985878, 289, 169, 320, 232
-0.985907, 17, 1, 48, 64
-0.985928, 337, 185, 368, 248
-0.985988, 125, 241, 156, 368
-0.985993, 73, 289, 104, 352
-0.986002, 1, 1, 128, 64
-0.986027, 49, 193, 80, 320
-0.986036, 457, 161, 488, 288
-0.986085, 329, 177, 360, 304
-0.986125, 41, 161, 72, 224
-0.986126, 337, 33, 400, 288
-0.98617, 73, 241, 104, 304
-0.986174, 113, 129, 240, 192
-0.986181, 289, 129, 416, 192
-0.986182, 241, 193, 368, 256
-0.986261, 201, 161, 264, 224
-0.986261, 137, 233, 168, 296
-0.986315, 165, 177, 196, 304
-0.986326, 125, 305, 156, 368
-0.986331, 21, 137, 52, 200
-0.986336, 185, 1, 216, 128
-0.986365, 69, 161, 100, 224
-0.986374, 185, 241, 248, 368
-0.9864, 137, 177, 168, 240
-0.986473, 173, 57, 204, 120
-0.986544, 249, 145, 280, 272
-0.986666, 433, 161, 464, 288
-0.986687, 469, 161, 500, 288
-0.986707, 353, 97, 416, 224
-0.986716, 33, 161, 64, 288
-0.986738, 161, 1, 288, 64
-0.98681, 185, 1, 216, 64
-0.986815, 289, 201, 320, 264
-0.986852, 313, 65, 376, 320
-0.986866, 57, 137, 120, 200
-0.986888, 81, 1, 144, 375
-0.986893, 57, 305, 120, 368
-0.98691, 25, 169, 56, 232
-0.987012, 325, 185, 356, 248
-0.987078, 185, 33, 248, 288
-0.987111, 129, 1, 160, 128
-0.987121, 81, 153, 112, 216
-0.98713, 25, 1, 56, 128
-0.987135, 161, 73, 288, 136
-0.987153, 173, 81, 204, 144
-0.987161, 13, 257, 44, 320
-0.987207, 141, 1, 172, 128
-0.98723, 173, 33, 204, 96
-0.987282, 345, 193, 408, 256
-0.987302, 457, 177, 488, 240
-0.987343, 209, 145, 240, 208
-0.987369, 277, 177, 308, 304
-0.987392, 185, 65, 216, 192
-0.98742, 317, 145, 348, 272
-0.987445, 173, 121, 204, 184
-0.987452, 265, 161, 296, 288
-0.987474, 437, 153, 468, 216
-0.987556, 305, 193, 432, 320
-0.987578, 293, 145, 324, 272
-0.987709, 25, 249, 56, 312
-0.987733, 117, 1, 148, 128
-0.987822, 161, 25, 288, 88
-0.987869, 13, 297, 44, 360
-0.987872, 337, 129, 400, 375
-0.987923, 385, 81, 448, 208
-0.987951, 113, 57, 240, 120
-0.987992, 57, 257, 88, 320
-0.988054, 185, 89, 248, 152
-0.98807, 105, 273, 136, 336
-0.988075, 1, 9, 32, 72
-0.988082, 409, 129, 472, 375
-0.988112, 133, 161, 164, 288
-0.988115, 121, 9, 152, 72
-0.988174, 205, 65, 236, 192
-0.988242, 137, 257, 168, 320
-0.98827, 45, 1, 76, 64
-0.988298, 161, 49, 288, 112
-0.988299, 89, 1, 120, 128
-0.988305, 265, 33, 328, 288
-0.988329, 137, 297, 168, 360
-0.988336, 165, 217, 196, 280
-0.988372, 1, 81, 128, 208
-0.988386, 165, 313, 196, 375
-0.988509, 185, 65, 216, 128
-0.988542, 1, 97, 32, 224
-0.988636, 113, 33, 240, 96
-0.988667, 61, 209, 92, 272
-0.988708, 369, 145, 432, 176
-0.98871, 97, 305, 160, 368
-0.988711, 121, 49, 184, 176
-0.988812, 1, 33, 32, 96
-0.988819, 93, 281, 124, 344
-0.988851, 225, 289, 288, 352
-0.988872, 85, 241, 116, 304
-0.988907, 129, 225, 256, 288
-0.988948, 209, 129, 240, 256
-0.98898, 257, 169, 288, 232
-0.989026, 85, 17, 116, 80
-0.989038, 49, 217, 80, 280
-0.989073, 205, 121, 236, 184
-0.989104, 117, 249, 148, 312
-0.989169, 237, 305, 268, 368
-0.989201, 113, 105, 240, 168
-0.989231, 377, 1, 440, 375
-0.989279, 101, 177, 132, 240
-0.989341, 1, 305, 32, 368
-0.989353, 165, 185, 196, 248
-0.989386, 89, 233, 152, 296
-0.989442, 209, 313, 240, 375
-0.989442, 113, 81, 240, 144
-0.989491, 233, 129, 264, 256
-0.989516, 185, 97, 216, 160
-0.989531, 85, 129, 116, 256
-0.989596, 177, 281, 304, 344
-0.98966, 385, 165, 448, 196
-0.989711, 277, 129, 308, 256
-0.989743, 1, 49, 32, 176
-0.989745, 289, 193, 320, 320
-0.989753, 313, 1, 376, 375
-0.989875, 285, 305, 316, 368
-0.989915, 161, 77, 224, 108
-0.98993, 305, 185, 368, 216
-0.989945, 161, 5, 224, 36
-0.989954, 53, 145, 84, 272
-0.989961, 177, 145, 240, 272
-0.989974, 137, 5, 200, 36
-0.98998, 145, 193, 272, 256
-0.989993, 161, 89, 224, 120
-0.989996, 161, 65, 224, 96
-0.989997, 57, 153, 88, 216
-0.990004, 433, 129, 496, 375
-0.990014, 25, 201, 88, 232
-0.990038, 17, 169, 80, 200
-0.990087, 241, 153, 272, 216
-0.990108, 57, 209, 120, 240
-0.990108, 49, 25, 80, 88
-0.990144, 161, 101, 224, 132
-0.990175, 341, 129, 372, 256
-0.990177, 369, 121, 432, 184
-0.990188, 141, 209, 172, 272
-0.99023, 161, 49, 224, 80
-0.990241, 265, 201, 328, 232
-0.990244, 145, 257, 272, 320
-0.990251, 161, 117, 224, 148
-0.990251, 37, 1, 68, 128
-0.990254, 329, 129, 360, 256
-0.990257, 57, 177, 120, 208
-0.99027, 401, 33, 464, 288
-0.990277, 25, 229, 88, 260
-0.990287, 257, 1, 320, 375
-0.990291, 265, 185, 328, 216
-0.990346, 41, 189, 104, 220
-0.990359, 377, 33, 440, 288
-0.990367, 113, 153, 144, 216
-0.990379, 361, 169, 424, 200
-0.990419, 161, 141, 224, 172
-0.990451, 273, 173, 336, 204
-0.990466, 185, 265, 248, 328
-0.990467, 161, 37, 224, 68
-0.990477, 121, 181, 184, 212
-0.990509, 289, 241, 416, 368
-0.99052, 17, 241, 80, 272
-0.990527, 1, 225, 64, 256
-0.990536, 281, 1, 344, 375
-0.990537, 369, 129, 496, 192
-0.990541, 161, 129, 224, 160
-0.990542, 329, 165, 392, 196
-0.990606, 201, 145, 264, 176
-0.990619, 1, 205, 64, 236
-0.990621, 153, 257, 184, 320
-0.990625, 225, 153, 480, 216
-0.990627, 297, 169, 360, 200
-0.990628, 345, 185, 408, 216
-0.990629, 417, 185, 480, 216
-0.990637, 41, 245, 104, 276
-0.990647, 361, 157, 424, 188
-0.990654, 1, 189, 64, 220
-0.990654, 61, 233, 92, 296
-0.990704, 49, 129, 176, 192
-0.990716, 1, 253, 64, 284
-0.99072, 221, 129, 252, 256
-0.990733, 385, 177, 448, 208
-0.990763, 89, 293, 152, 324
-0.990815, 161, 25, 224, 56
-0.990819, 241, 121, 368, 184
-0.990831, 353, 1, 416, 375
-0.990843, 1, 113, 64, 176
-0.990852, 201, 341, 264, 372
-0.990878, 153, 313, 184, 375
-0.990887, 65, 193, 128, 224
-0.990929, 137, 1, 200, 375
-0.990967, 345, 193, 408, 320
-0.990968, 109, 9, 140, 72
-0.990979, 145, 181, 208, 212
-0.990998, 25, 217, 88, 248
-0.991001, 165, 225, 196, 352
-0.991002, 37, 217, 68, 280
-0.991005, 153, 113, 184, 240
-0.991038, 177, 169, 240, 232
-0.991039, 137, 9, 168, 72
-0.991043, 185, 1, 248, 375
-0.991044, 161, 313, 288, 375
-0.991085, 9, 297, 72, 328
-0.991121, 101, 177, 132, 304
-0.991126, 9, 37, 72, 68
-0.991137, 65, 237, 128, 268
-0.991142, 57, 285, 120, 316
-0.991148, 113, 261, 176, 292
-0.991155, 409, 165, 472, 196
-0.991207, 57, 225, 120, 256
-0.991215, 33, 137, 64, 200
-0.991222, 121, 193, 184, 224
-0.991223, 121, 233, 184, 264
-0.991264, 73, 249, 136, 280
-0.99128, 241, 193, 304, 224
-0.991293, 105, 281, 168, 312
-0.991323, 1, 153, 32, 216
-0.991325, 169, 209, 232, 272
-0.991329, 121, 209, 184, 240
-0.991348, 225, 173, 288, 204
-0.991365, 193, 129, 224, 192
-0.991376, 437, 113, 468, 240
-0.99138, 145, 205, 208, 236
-0.991387, 49, 297, 112, 328
-0.991388, 201, 185, 264, 248
-0.991403, 121, 301, 184, 332
-0.991405, 49, 161, 112, 192
-0.991413, 161, 169, 224, 200
-0.991421, 393, 153, 456, 184
-0.991431, 81, 225, 144, 256
-0.991432, 73, 17, 104, 80
-0.991446, 41, 265, 72, 328
-0.991453, 57, 1, 88, 64
-0.991458, 165, 241, 196, 304
-0.991474, 33, 273, 96, 304
-0.991489, 25, 257, 88, 288
-0.991489, 185, 329, 248, 360
-0.991497, 253, 145, 284, 208
-0.991502, 289, 197, 352, 228
-0.991523, 121, 81, 184, 144
-0.991535, 105, 13, 168, 44
-0.991543, 145, 225, 208, 256
-0.991544, 257, 305, 384, 368
-0.991545, 161, 153, 224, 184
-0.991552, 113, 329, 176, 360
-0.991571, 417, 185, 448, 248
-0.9916, 81, 17, 144, 48
-0.991645, 273, 161, 336, 192
-0.991651, 377, 189, 440, 220
-0.991668, 121, 245, 184, 276
-0.991669, 161, 329, 224, 360
-0.991672, 101, 153, 132, 216
-0.991678, 33, 29, 96, 60
-0.991689, 121, 221, 184, 252
-0.991715, 57, 25, 120, 56
-0.991746, 389, 161, 420, 224
-0.991748, 97, 177, 160, 208
-0.991754, 225, 161, 288, 192
-0.991768, 257, 305, 320, 336
-0.991793, 113, 317, 176, 348
-0.991805, 161, 193, 224, 224
-0.991809, 201, 133, 264, 164
-0.991823, 425, 1, 488, 375
-0.99183, 137, 333, 200, 364
-0.991869, 49, 261, 112, 292
-0.991874, 225, 325, 288, 356
-0.991901, 369, 113, 400, 240
-0.99191, 89, 269, 152, 300
-0.991918, 57, 309, 120, 340
-0.99197, 249, 161, 312, 192
-0.991978, 121, 161, 184, 192
-0.991978, 97, 305, 160, 336
-0.991987, 145, 285, 208, 316
-0.991989, 1, 177, 500, 240
-0.99199, 205, 97, 236, 160
-0.991992, 65, 81, 192, 208
-0.992002, 1, 145, 500, 208
-0.992013, 281, 309, 344, 340
-0.992031, 433, 173, 496, 204
-0.992044, 97, 245, 160, 276
-0.992048, 13, 97, 44, 224
-0.992054, 113, 305, 144, 368
-0.992059, 401, 169, 432, 232
-0.992072, 145, 313, 208, 344
-0.9921, 217, 1, 280, 375
-0.992102, 113, 345, 176, 375
-0.992107, 369, 177, 432, 304
-0.992139, 9, 309, 72, 340
-0.992142, 129, 153, 384, 216
-0.992155, 161, 345, 224, 375
-0.992178, 329, 153, 392, 184
-0.992179, 185, 113, 216, 240
-0.992191, 25, 153, 88, 184
-0.992194, 49, 185, 80, 248
-0.992194, 81, 205, 144, 236
-0.992197, 193, 1, 256, 32
-0.992208, 37, 185, 68, 248
-0.992222, 225, 149, 288, 180
-0.992228, 1, 265, 64, 296
-0.992231, 185, 17, 248, 48
-0.992242, 257, 213, 320, 244
-0.992249, 1, 129, 32, 192
-0.992256, 113, 177, 144, 304
-0.992268, 129, 273, 192, 304
-0.992284, 373, 177, 404, 304
-0.992292, 97, 189, 160, 220
-0.992305, 97, 17, 128, 80
-0.992306, 341, 153, 372, 216
-0.992309, 225, 313, 288, 344
-0.992312, 37, 25, 68, 88
-0.992346, 225, 337, 288, 368
-0.992346, 401, 1, 464, 375
-0.992347, 161, 237, 224, 268
-0.992351, 145, 249, 208, 280
-0.992392, 137, 105, 200, 168
-0.992395, 33, 309, 96, 340
-0.992406, 185, 69, 248, 100
-0.992421, 389, 141, 420, 172
-0.992424, 153, 181, 184, 212
-0.992426, 193, 193, 320, 256
-0.992437, 33, 9, 288, 72
-0.992439, 9, 229, 40, 260
-0.992459, 417, 177, 448, 208
-0.992483, 193, 57, 256, 88
-0.992485, 97, 157, 160, 188
-0.992489, 145, 297, 208, 328
-0.992492, 193, 129, 448, 192
-0.99251, 233, 33, 296, 288
-0.992513, 77, 17, 108, 144
-0.99253, 289, 281, 416, 344
-0.992531, 209, 1, 336, 128
-0.992535, 1, 241, 256, 304
-0.992539, 345, 129, 408, 192
-0.992544, 1, 209, 32, 240
-0.992553, 1, 185, 256, 248
-0.992565, 233, 205, 296, 236
-0.992567, 121, 145, 184, 176
-0.992573, 33, 1, 96, 32
-0.992577, 185, 29, 248, 60
-0.992578, 225, 177, 480, 240
-0.992601, 33, 161, 288, 224
-0.992602, 249, 173, 312, 204
-0.992602, 1, 129, 128, 192
-0.992606, 73, 161, 136, 192
-0.992606, 185, 93, 248, 124
-0.992607, 57, 17, 88, 144
-0.992624, 1, 241, 32, 272
-0.992624, 185, 81, 248, 112
-0.992631, 205, 57, 236, 120
-0.992652, 365, 189, 396, 220
-0.99266, 149, 281, 180, 344
-0.992685, 13, 217, 44, 248
-0.992685, 429, 169, 460, 200
-0.992698, 417, 165, 448, 196
-0.99271, 1, 185, 32, 216
-0.992728, 1, 297, 32, 328
-0.992734, 29, 221, 60, 252
-0.992746, 257, 129, 320, 375
-0.992759, 165, 5, 196, 36
-0.992766, 449, 181, 480, 212
-0.992776, 465, 181, 496, 212
-0.992784, 317, 177, 348, 208
-0.992794, 341, 185, 372, 216
-0.992796, 153, 209, 184, 240
-0.992798, 65, 201, 96, 232
-0.992814, 361, 173, 392, 204
-0.992816, 353, 185, 384, 216
-0.992819, 185, 233, 248, 296
-0.992835, 41, 173, 72, 204
-0.992838, 273, 161, 304, 224
-0.992852, 85, 197, 116, 228
-0.992865, 405, 149, 436, 180
-0.992865, 217, 333, 248, 364
-0.992867, 281, 201, 312, 232
-0.992867, 301, 169, 332, 200
-0.992876, 29, 241, 60, 272
-0.992878, 81, 213, 112, 244
-0.992878, 13, 205, 44, 236
-0.992884, 273, 313, 304, 375
-0.992888, 153, 9, 184, 40
-0.992893, 29, 201, 60, 232
-0.9929, 25, 169, 56, 200
-0.992906, 281, 189, 312, 220
-0.99291, 81, 289, 112, 320
-0.992914, 209, 141, 240, 172
-0.992922, 1, 209, 256, 272
-0.992926, 317, 165, 348, 196
-0.992938, 373, 173, 404, 204
-0.992945, 61, 173, 92, 204
-0.992946, 205, 1, 236, 128
-0.992947, 329, 173, 360, 204
-0.992952, 377, 153, 408, 184
-0.992958, 165, 229, 196, 260
-0.992966, 165, 169, 196, 200
-0.99297, 225, 141, 256, 172
-0.992972, 9, 309, 40, 340
-0.99298, 361, 225, 424, 288
-0.99298, 1, 197, 32, 228
-0.99298, 77, 237, 108, 268
-0.992986, 325, 189, 356, 220
-0.99299, 21, 189, 52, 220
-0.992992, 449, 153, 480, 216
-0.992994, 89, 237, 120, 268
-0.992997, 13, 177, 44, 208
-0.992999, 257, 181, 288, 212
-0.993001, 85, 225, 116, 256
-0.993002, 61, 233, 92, 264
-0.993004, 293, 309, 324, 340
-0.993006, 81, 181, 112, 212
-0.993011, 129, 305, 160, 336
-0.993015, 153, 193, 184, 224
-0.993017, 417, 153, 448, 184
-0.993021, 41, 201, 72, 232
-0.993021, 73, 225, 104, 256
-0.993029, 185, 1, 216, 32
-0.993029, 53, 205, 84, 236
-0.99303, 301, 193, 332, 224
-0.993038, 153, 165, 184, 196
-0.993041, 65, 161, 96, 192
-0.993047, 141, 325, 172, 356
-0.993054, 25, 297, 56, 328
-0.993056, 253, 161, 284, 192
-0.993059, 45, 245, 76, 276
-0.993062, 173, 193, 204, 224
-0.993068, 433, 185, 464, 216
-0.993071, 237, 149, 268, 180
-0.993072, 21, 37, 52, 68
-0.993075, 1, 41, 32, 72
-0.993082, 61, 189, 92, 220
-0.993083, 173, 61, 204, 92
-0.993083, 25, 261, 56, 292
-0.993084, 209, 129, 240, 160
-0.993087, 281, 177, 312, 208
-0.993089, 173, 45, 204, 76
-0.993097, 173, 101, 204, 132
-0.993101, 173, 89, 204, 120
-0.993103, 305, 181, 336, 212
-0.993104, 173, 125, 204, 156
-0.993106, 185, 13, 216, 44
-0.993108, 173, 73, 204, 104
-0.993113, 121, 317, 152, 348
-0.993117, 13, 165, 44, 196
-0.993117, 13, 241, 44, 272
-0.993119, 149, 345, 180, 375
-0.993119, 205, 153, 236, 184
-0.993121, 129, 13, 160, 44
-0.993128, 173, 113, 204, 144
-0.993134, 113, 273, 144, 304
-0.993138, 49, 189, 80, 220
-0.993143, 185, 29, 216, 60
-0.993147, 377, 141, 408, 172
-0.993149, 85, 169, 116, 200
-0.99315, 165, 337, 196, 368
-0.993151, 269, 197, 300, 228
-0.993153, 133, 261, 164, 292
-0.993154, 401, 169, 432, 200
-0.993154, 185, 61, 216, 92
-0.993156, 173, 33, 204, 64
-0.993156, 205, 325, 236, 356
-0.993157, 421, 189, 452, 220
-0.993163, 281, 313, 312, 344
-0.993164, 5, 253, 36, 284
-0.993166, 265, 113, 296, 240
-0.993167, 153, 229, 184, 260
-0.993169, 173, 145, 204, 176
-0.99317, 401, 137, 432, 168
-0.993172, 37, 317, 68, 348
-0.993174, 93, 297, 124, 328
-0.99318, 185, 85, 216, 116
-0.993182, 185, 45, 216, 76
-0.993184, 109, 17, 140, 48
-0.993184, 137, 177, 168, 208
-0.993187, 185, 137, 216, 168
-0.993188, 185, 73, 216, 104
-0.993191, 173, 205, 204, 236
-0.993197, 37, 297, 68, 328
-0.993198, 101, 245, 132, 276
-0.993198, 57, 257, 88, 288
-0.993206, 205, 337, 236, 368
-0.993211, 1, 173, 32, 204
-0.993213, 113, 245, 144, 276
-0.993214, 45, 257, 76, 288
-0.993217, 41, 229, 72, 260
-0.993252, 121, 57, 184, 120
-0.993281, 249, 273, 312, 336
-0.993323, 129, 193, 384, 256
-0.993337, 33, 113, 64, 240
-0.993346, 393, 81, 424, 208
-0.993365, 353, 169, 480, 200
-0.993379, 337, 201, 464, 264
-0.993407, 297, 97, 360, 224
-0.993414, 185, 177, 216, 304
-0.993424, 425, 33, 488, 288
-0.993576, 297, 313, 360, 375
-0.993591, 353, 193, 480, 320
-0.993604, 179, 1, 194, 64
-0.993718, 453, 113, 484, 240
-0.993734, 377, 193, 440, 256
-0.993758, 253, 97, 284, 224
-0.993892, 225, 49, 352, 176
-0.993912, 113, 129, 144, 256
-0.993941, 425, 97, 456, 224
-0.99395, 1, 97, 128, 160
-0.993967, 417, 129, 480, 192
-0.994051, 197, 113, 228, 240
-0.9941, 465, 113, 496, 240
-0.994183, 105, 1, 168, 375
-0.994184, 289, 33, 352, 288
-0.994241, 209, 33, 272, 288
-0.994305, 379, 153, 394, 216
-0.994319, 393, 193, 456, 320
-0.994341, 81, 13, 208, 44
-0.994374, 169, 1, 184, 64
-0.994469, 357, 113, 388, 240
-0.994475, 129, 333, 256, 364
-0.994501, 321, 181, 448, 212
-0.994516, 369, 185, 496, 216
-0.994524, 225, 1, 480, 128
-0.994541, 1, 81, 64, 144
-0.994544, 257, 185, 384, 216
-0.994597, 241, 217, 304, 280
-0.994612, 321, 149, 448, 180
-0.99463, 401, 137, 416, 200
-0.994796, 15, 169, 30, 232
-0.994831, 33, 129, 288, 192
-0.994846, 391, 137, 406, 200
-0.994862, 289, 169, 416, 200
-0.994912, 121, 33, 184, 96
-0.994923, 427, 161, 442, 224
-0.994942, 129, 1, 384, 64
-0.994945, 1, 233, 128, 264
-0.994946, 161, 49, 192, 176
-0.994979, 161, 145, 288, 176
-0.994995, 205, 241, 236, 368
-0.995005, 179, 25, 194, 88
-0.995026, 405, 177, 436, 304
-0.995053, 369, 177, 384, 240
-0.995111, 317, 97, 348, 224
-0.995115, 331, 161, 346, 224
-0.99514, 57, 81, 120, 208
-0.995146, 305, 313, 432, 375
-0.99516, 185, 241, 216, 368
-0.995179, 5, 177, 20, 240
-0.995189, 5, 217, 20, 280
-0.995246, 1, 213, 128, 244
-0.99528, 27, 209, 42, 272
-0.995286, 415, 145, 430, 208
-0.995298, 241, 113, 304, 176
-0.995302, 73, 185, 88, 248
-0.995324, 385, 145, 400, 208
-0.995333, 381, 81, 412, 208
-0.995338, 179, 65, 194, 128
-0.995359, 97, 305, 352, 368
-0.995374, 209, 97, 336, 160
-0.995388, 241, 165, 368, 196
-0.995399, 421, 153, 436, 216
-0.995401, 179, 89, 194, 152
-0.995401, 257, 217, 384, 280
-0.995445, 321, 129, 384, 192
-0.995447, 1, 177, 128, 208
-0.995466, 1, 201, 128, 232
-0.995472, 321, 201, 384, 264
-0.995542, 65, 273, 320, 336
-0.995545, 33, 193, 48, 256
-0.995556, 1, 33, 256, 96
-0.99556, 81, 225, 208, 256
-0.995583, 209, 241, 272, 368
-0.995591, 363, 177, 378, 240
-0.995593, 233, 241, 296, 368
-0.995615, 289, 105, 416, 168
-0.995619, 27, 1, 42, 64
-0.995626, 373, 153, 388, 216
-0.995629, 209, 209, 272, 272
-0.99563, 177, 121, 192, 184
-0.995633, 177, 225, 304, 288
-0.995679, 303, 177, 318, 240
-0.995687, 81, 209, 208, 240
-0.995702, 297, 137, 360, 200
-0.995718, 229, 81, 260, 208
-0.99574, 369, 241, 496, 368
-0.995753, 449, 177, 464, 240
-0.995768, 33, 253, 160, 284
-0.995801, 153, 169, 168, 232
-0.995802, 97, 301, 224, 332
-0.995808, 297, 289, 360, 352
-0.995817, 29, 169, 44, 232
-0.995857, 15, 217, 30, 280
-0.995863, 27, 145, 42, 208
-0.995866, 475, 177, 490, 240
-0.995892, 161, 157, 288, 188
-0.995892, 81, 185, 208, 216
-0.995907, 97, 321, 224, 352
-0.995936, 361, 249, 424, 312
-0.995938, 185, 193, 248, 320
-0.99597, 289, 49, 416, 176
-0.995997, 81, 237, 208, 268
-0.996, 113, 1, 240, 32
-0.996013, 177, 145, 192, 208
-0.996036, 347, 185, 362, 248
-0.996052, 325, 177, 340, 240
-0.996054, 33, 217, 48, 280
-0.996063, 1, 209, 500, 272
-0.996073, 401, 105, 464, 168
-0.996075, 309, 161, 324, 224
-0.996075, 63, 177, 78, 240
-0.996083, 129, 305, 144, 368
-0.996088, 161, 1, 176, 64
-0.996098, 433, 161, 448, 224
-0.996127, 21, 169, 36, 232
-0.99613, 369, 105, 496, 168
-0.996133, 27, 233, 42, 296
-0.996136, 49, 161, 176, 192
-0.996138, 463, 177, 478, 240
-0.996146, 319, 153, 334, 216
-0.996155, 145, 321, 272, 352
-0.99617, 129, 345, 256, 375
-0.996174, 357, 177, 372, 240
-0.996191, 63, 233, 78, 296
-0.996203, 49, 197, 176, 228
-0.99622, 337, 161, 352, 224
-0.996226, 353, 313, 416, 375
-0.996227, 325, 153, 340, 216
-0.996228, 147, 169, 162, 232
-0.996228, 193, 105, 448, 168
-0.996229, 129, 25, 384, 88
-0.996231, 1, 1, 500, 64
-0.996238, 209, 153, 224, 216
-0.99624, 457, 177, 472, 240
-0.996255, 97, 177, 112, 240
-0.996275, 21, 233, 36, 296
-0.996279, 337, 185, 352, 248
-0.996284, 1, 241, 16, 304
-0.996294, 93, 217, 108, 280
-0.996299, 369, 289, 496, 352
-0.996301, 33, 105, 288, 168
-0.996301, 377, 177, 392, 240
-0.996313, 161, 177, 288, 208
-0.996316, 409, 137, 424, 200
-0.996326, 337, 233, 464, 296
-0.996332, 97, 281, 224, 312
-0.996338, 83, 185, 98, 248
-0.996338, 167, 233, 182, 296
-0.996341, 17, 309, 144, 340
-0.996347, 21, 305, 36, 368
-0.996377, 161, 1, 288, 32
-0.996383, 21, 33, 36, 96
-0.996398, 131, 273, 146, 336
-0.996419, 165, 209, 180, 272
-0.996429, 129, 65, 384, 128
-0.996429, 305, 97, 336, 224
-0.996429, 65, 113, 96, 240
-0.996432, 395, 161, 410, 224
-0.996434, 439, 185, 454, 248
-0.996437, 353, 49, 416, 176
-0.996443, 209, 177, 336, 208
-0.996445, 73, 153, 88, 216
-0.996451, 161, 133, 288, 164
-0.996467, 481, 177, 496, 240
-0.996469, 167, 161, 182, 224
-0.996471, 289, 97, 320, 224
-0.996478, 97, 217, 352, 280
-0.996484, 153, 217, 168, 280
-0.996492, 171, 297, 186, 360
-0.996498, 89, 281, 104, 344
-0.996519, 289, 201, 304, 264
-0.99653, 17, 193, 32, 256
-0.996535, 97, 269, 224, 300
-0.996541, 29, 257, 44, 320
-0.996545, 295, 177, 310, 240
-0.996556, 161, 189, 288, 220
-0.996569, 89, 177, 104, 240
-0.996585, 21, 145, 36, 208
-0.996585, 79, 161, 94, 224
-0.996587, 17, 1, 48, 256
-0.996587, 141, 289, 156, 352
-0.996592, 273, 197, 400, 228
-0.996601, 431, 185, 446, 248
-0.996609, 469, 177, 484, 240
-0.996611, 289, 257, 416, 320
-0.996616, 313, 185, 328, 248
-0.996642, 39, 233, 54, 296
-0.996644, 153, 193, 168, 256
-0.99665, 425, 201, 488, 264
-0.99665, 171, 193, 186, 256
-0.996651, 257, 153, 272, 216
-0.996669, 17, 1, 144, 32
-0.996673, 51, 217, 66, 280
-0.996674, 273, 177, 288, 240
-0.996682, 369, 157, 496, 188
-0.996685, 221, 137, 236, 200
-0.996705, 73, 209, 88, 272
-0.996708, 67, 209, 82, 272
-0.996709, 383, 177, 398, 240
-0.996719, 165, 185, 180, 248
-0.99672, 123, 9, 138, 72
-0.996724, 59, 1, 74, 64
-0.99673, 43, 257, 58, 320
-0.996731, 225, 281, 352, 344
-0.996738, 49, 285, 176, 316
-0.996745, 79, 209, 94, 272
-0.996747, 409, 81, 440, 208
-0.996751, 33, 65, 288, 128
-0.996753, 321, 193, 448, 224
-0.996754, 1, 73, 128, 136
-0.996755, 225, 197, 352, 228
-0.996758, 119, 281, 134, 344
-0.996764, 7, 153, 22, 216
-0.99679, 159, 177, 174, 240
-0.996793, 103, 177, 118, 240
-0.996799, 17, 297, 144, 328
-0.996808, 81, 249, 208, 280
-0.996813, 15, 137, 30, 200
-0.996814, 209, 333, 336, 364
-0.996819, 225, 313, 352, 344
-0.99683, 51, 1, 66, 64
-0.996834, 17, 265, 144, 296
-0.996835, 297, 201, 312, 264
-0.996846, 225, 305, 480, 368
-0.996847, 33, 313, 48, 375
-0.996851, 225, 153, 352, 184
-0.99686, 45, 1, 60, 64
-0.996867, 235, 137, 250, 200
-0.99687, 89, 153, 104, 216
-0.996875, 11, 193, 26, 256
-0.996878, 209, 177, 272, 304
-0.996882, 1, 241, 500, 304
-0.996893, 1, 57, 64, 120
-0.99691, 177, 301, 304, 332
-0.99691, 215, 153, 230, 216
-0.996912, 99, 209, 114, 272
-0.99692, 17, 325, 144, 356
-0.996922, 83, 281, 98, 344
-0.996933, 37, 169, 52, 232
-0.996936, 89, 17, 104, 80
-0.996937, 33, 21, 160, 52
-0.99694, 141, 153, 156, 216
-0.996963, 161, 109, 288, 140
-0.996968, 15, 33, 30, 96
-0.996971, 129, 241, 384, 304
-0.996973, 317, 193, 348, 320
-0.996973, 439, 153, 454, 216
-0.996976, 161, 233, 176, 296
-0.996981, 57, 145, 72, 208
-0.996984, 97, 153, 112, 216
-0.996989, 331, 185, 346, 248
-0.996994, 1, 33, 128, 64
-0.996997, 135, 297, 150, 360
-0.997008, 33, 137, 48, 200
-0.997014, 225, 241, 352, 368
-0.997026, 159, 209, 174, 272
-0.997036, 101, 129, 132, 256
-0.997036, 81, 129, 112, 375
-0.997049, 103, 153, 118, 216
-0.997056, 279, 193, 294, 256
-0.997057, 21, 1, 36, 64
-0.997064, 209, 129, 224, 192
-0.997068, 241, 137, 256, 200
-0.997072, 33, 121, 96, 184
-0.997073, 377, 129, 408, 375
-0.997144, 1, 297, 256, 360
-0.997182, 161, 97, 288, 128
-0.997194, 225, 201, 480, 264
-0.997211, 161, 85, 288, 116
-0.997222, 1, 129, 32, 375
-0.997262, 13, 129, 44, 375
-0.997276, 81, 129, 144, 192
-0.997283, 225, 265, 288, 328
-0.997293, 1, 189, 128, 220
-0.997308, 65, 173, 192, 204
-0.997324, 179, 5, 194, 36
-0.997341, 5, 1, 36, 256
-0.997342, 29, 1, 60, 256
-0.997347, 161, 121, 288, 152
-0.99735, 161, 213, 288, 244
-0.997352, 161, 21, 288, 52
-0.997357, 209, 345, 336, 375
-0.997364, 329, 241, 392, 304
-0.997369, 273, 153, 400, 184
-0.997372, 65, 105, 192, 168
-0.99738, 169, 5, 184, 36
-0.99739, 423, 157, 438, 188
-0.997399, 369, 141, 496, 172
-0.997415, 205, 177, 236, 304
-0.997429, 173, 33, 204, 288
-0.997432, 25, 217, 40, 248
-0.99744, 113, 81, 240, 112
-0.997447, 161, 37, 288, 68
-0.997472, 427, 177, 442, 208
-0.997487, 113, 97, 240, 128
-0.997487, 353, 313, 480, 375
-0.997509, 1, 121, 500, 184
-0.997511, 345, 105, 408, 168
-0.997532, 113, 69, 240, 100
-0.997553, 305, 129, 336, 375
-0.997555, 161, 53, 288, 84
-0.997562, 161, 65, 288, 96
-0.997573, 89, 1, 120, 256
-0.99758, 273, 309, 400, 340
-0.99758, 113, 49, 240, 80
-0.997581, 1, 165, 128, 196
-0.997595, 31, 221, 46, 252
-0.997604, 273, 281, 336, 344
-0.997606, 101, 1, 132, 256
-0.997608, 435, 169, 450, 200
-0.997609, 61, 1, 92, 256
-0.99761, 97, 197, 224, 228
-0.997614, 129, 237, 256, 268
-0.997617, 361, 241, 424, 368
-0.997625, 193, 257, 320, 320
-0.997626, 97, 161, 224, 192
-0.997652, 9, 177, 24, 208
-0.997657, 45, 1, 76, 256
-0.997684, 375, 181, 390, 212
-0.997703, 3, 209, 18, 240
-0.997703, 381, 149, 396, 180
-0.997704, 77, 1, 108, 256
-0.997705, 225, 137, 352, 168
-0.997724, 25, 129, 56, 375
-0.99773, 179, 25, 194, 56
-0.997733, 393, 129, 424, 375
-0.997762, 113, 173, 240, 204
-0.997762, 457, 181, 472, 212
-0.997767, 113, 121, 240, 152
-0.997767, 61, 129, 92, 375
-0.997777, 305, 137, 432, 168
-0.997783, 165, 341, 180, 372
-0.997787, 179, 101, 194, 132
-0.997792, 161, 201, 288, 232
-0.997798, 179, 37, 194, 68
-0.997799, 385, 181, 400, 212
-0.9978, 15, 169, 30, 200
-0.997805, 129, 225, 256, 256
-0.997807, 257, 1, 384, 128
-0.997815, 179, 49, 194, 80
-0.99782, 321, 173, 336, 204
-0.997825, 217, 81, 248, 208
-0.997831, 3, 193, 18, 224
-0.997833, 179, 73, 194, 104
-0.997836, 63, 173, 78, 204
-0.997838, 3, 237, 18, 268
-0.997841, 113, 37, 240, 68
-0.997851, 369, 189, 384, 220
-0.997859, 113, 109, 240, 140
-0.997862, 179, 85, 194, 116
-0.997866, 25, 181, 40, 212
-0.997875, 375, 169, 390, 200
-0.99788, 233, 333, 248, 364
-0.997886, 177, 117, 192, 148
-0.997886, 113, 1, 144, 256
-0.99789, 429, 165, 444, 196
-0.997892, 331, 165, 346, 196
-0.997895, 471, 181, 486, 212
-0.997924, 179, 61, 194, 92
-0.997937, 113, 145, 240, 176
-0.997939, 95, 209, 110, 240
-0.997944, 49, 337, 176, 368
-0.997947, 401, 137, 416, 168
-0.997953, 185, 1, 216, 256
-0.997956, 177, 133, 192, 164
-0.997961, 129, 113, 160, 240
-0.997973, 167, 201, 182, 232
-0.997976, 407, 141, 422, 172
-0.997978, 23, 229, 38, 260
-0.997991, 1, 149, 128, 180
-0.997992, 93, 129, 124, 375
-0.997996, 113, 25, 240, 56
-0.997998, 363, 185, 378, 216
-0.998002, 365, 129, 396, 375
-0.998004, 1, 277, 128, 308
-0.998011, 15, 225, 30, 256
-0.998014, 165, 181, 180, 212
-0.998014, 129, 309, 144, 340
-0.998017, 325, 129, 356, 375
-0.998022, 391, 145, 406, 176
-0.998025, 341, 185, 356, 216
-0.998026, 339, 169, 354, 200
-0.998034, 355, 185, 370, 216
-0.998035, 415, 149, 430, 180
-0.998039, 1, 265, 500, 328
-0.998047, 319, 185, 334, 216
-0.998058, 421, 129, 452, 375
-0.998059, 43, 297, 58, 328
-0.998062, 301, 197, 316, 228
-0.998064, 171, 229, 186, 260
-0.998069, 369, 177, 384, 208
-0.998079, 33, 205, 48, 236
-0.998101, 415, 177, 430, 208
-0.998102, 445, 185, 460, 216
-0.998103, 113, 129, 144, 375
-0.998114, 257, 209, 384, 240
-0.998115, 25, 169, 40, 200
-0.998123, 205, 129, 236, 375
-0.998123, 159, 329, 174, 360
-0.998126, 9, 209, 24, 240
-0.998132, 63, 185, 78, 216
-0.998147, 307, 197, 322, 228
-0.998149, 57, 173, 72, 204
-0.998153, 155, 345, 170, 375
-0.998154, 33, 169, 48, 200
-0.998156, 177, 145, 192, 176
-0.998158, 293, 201, 308, 232
-0.998158, 19, 181, 34, 212
-0.998162, 433, 181, 448, 212
-0.998168, 153, 229, 168, 260
-0.998175, 347, 185, 362, 216
-0.99818, 145, 269, 272, 300
-0.998182, 5, 225, 20, 256
-0.998186, 405, 129, 436, 375
-0.998186, 381, 169, 396, 200
-0.998188, 165, 129, 196, 375
-0.998198, 227, 329, 242, 360
-0.998201, 23, 241, 38, 272
-0.998203, 283, 197, 298, 228
-0.998204, 425, 189, 440, 220
-0.998209, 307, 181, 322, 212
-0.998212, 21, 37, 36, 68
-0.998212, 261, 129, 292, 375
-0.998214, 385, 233, 448, 296
-0.998218, 85, 177, 100, 208
-0.99822, 485, 177, 500, 208
-0.998221, 23, 205, 38, 236
-0.998222, 209, 153, 224, 184
-0.998223, 479, 181, 494, 212
-0.998225, 225, 141, 240, 172
-0.998226, 157, 181, 172, 212
-0.998227, 253, 157, 268, 188
-0.998234, 273, 181, 288, 212
-0.998236, 421, 169, 436, 200
-0.998241, 249, 129, 280, 375
-0.998242, 151, 181, 166, 212
-0.998257, 125, 261, 140, 292
-0.99826, 353, 273, 416, 336
-0.998261, 7, 249, 22, 280
-0.998262, 237, 141, 252, 172
-0.998266, 305, 169, 320, 200
-0.998267, 241, 81, 272, 208
-0.998267, 91, 281, 106, 312
-0.99827, 91, 237, 106, 268
-0.998271, 439, 185, 454, 216
-0.998274, 89, 209, 104, 240
-0.998275, 297, 185, 312, 216
-0.998278, 329, 177, 344, 208
-0.998279, 91, 225, 106, 256
-0.998281, 133, 13, 148, 44
-0.998287, 315, 165, 330, 196
-0.998288, 451, 181, 466, 212
-0.99829, 97, 197, 112, 228
-0.99829, 41, 129, 72, 375
-0.998295, 125, 1, 156, 256
-0.9983, 167, 213, 182, 244
-0.9983, 137, 321, 152, 352
-0.998301, 465, 181, 480, 212
-0.998304, 295, 305, 310, 336
-0.998309, 69, 189, 84, 220
-0.99831, 1, 305, 500, 368
-0.998311, 141, 301, 156, 332
-0.998311, 161, 257, 288, 288
-0.998312, 151, 321, 166, 352
-0.998314, 39, 261, 54, 292
-0.998315, 31, 261, 46, 292
-0.998316, 149, 9, 164, 40
-0.998316, 57, 185, 72, 216
-0.99832, 257, 73, 384, 136
-0.99832, 99, 293, 114, 324
-0.998322, 149, 337, 164, 368
-0.998323, 177, 333, 192, 364
-0.998324, 353, 129, 384, 375
-0.998326, 155, 9, 170, 40
-0.998334, 177, 157, 192, 188
-0.998335, 11, 41, 26, 72
-0.998338, 15, 205, 30, 236
-0.998339, 21, 309, 36, 340
-0.998341, 345, 173, 360, 204
-0.998341, 17, 297, 32, 328
-0.998347, 101, 225, 116, 256
-0.998349, 17, 193, 32, 224
-0.998355, 207, 329, 222, 360
-0.998359, 29, 321, 44, 352
-0.998377, 173, 129, 204, 144
-0.998377, 185, 31, 216, 46
-0.998377, 61, 309, 92, 324
-0.998377, 153, 361, 184, 375
-0.998377, 173, 81, 204, 96
-0.998377, 185, 45, 216, 60
-0.998378, 77, 307, 108, 322
-0.998378, 149, 241, 180, 256
-0.998379, 85, 179, 116, 194
-0.998379, 125, 15, 156, 30
-0.998379, 133, 263, 164, 278
-0.998379, 165, 201, 196, 216
-0.998379, 153, 129, 184, 375
-0.99838, 149, 337, 180, 352
-0.99838, 73, 251, 104, 266
-0.99838, 173, 101, 204, 116
-0.99838, 145, 329, 176, 344
-0.99838, 173, 117, 204, 132
-0.998381, 109, 19, 140, 34
-0.998381, 1, 229, 32, 244
-0.998382, 173, 111, 204, 126
-0.998383, 173, 67, 204, 82
-0.998383, 281, 191, 312, 206
-0.998384, 153, 195, 184, 210
-0.998384, 173, 123, 204, 138
-0.998384, 189, 3, 220, 18
-0.998385, 301, 185, 332, 200
-0.998387, 173, 61, 204, 76
-0.998387, 57, 171, 88, 186
-0.998387, 389, 139, 420, 154
-0.998389, 89, 309, 120, 324
-0.998389, 1, 223, 32, 238
-0.998389, 5, 301, 36, 316
-0.998389, 185, 21, 216, 36
-0.99839, 165, 183, 196, 198
-0.99839, 153, 221, 184, 236
-0.99839, 209, 327, 240, 342
-0.998391, 377, 175, 408, 190
-0.998392, 209, 177, 240, 192
-0.998392, 25, 263, 56, 278
-0.998392, 289, 309, 320, 324
-0.998393, 17, 331, 48, 346
-0.998393, 113, 265, 144, 280
-0.998393, 417, 171, 448, 186
-0.998394, 209, 143, 240, 158
-0.998394, 73, 173, 104, 188
-0.998394, 185, 15, 216, 30
-0.998395, 269, 213, 300, 228
-0.998395, 57, 249, 88, 264
-0.998396, 21, 187, 52, 202
-0.998396, 153, 213, 184, 228
-0.998397, 13, 203, 44, 218
-0.998398, 209, 153, 240, 168
-0.9984, 253, 169, 284, 184
-0.998401, 1, 247, 32, 262
-0.998401, 301, 199, 332, 214
-0.998403, 165, 231, 196, 246
-0.998403, 9, 215, 40, 230
-0.998403, 325, 181, 356, 196
-0.998404, 9, 173, 40, 188
-0.998404, 21, 181, 52, 196
-0.998405, 1, 253, 32, 268
-0.998405, 141, 13, 172, 28
-0.998405, 145, 177, 176, 192
-0.998406, 117, 281, 148, 296
-0.998407, 225, 143, 256, 158
-0.998407, 373, 159, 404, 174
-0.998408, 1, 195, 32, 210
-0.998409, 29, 1, 60, 16
-0.998409, 29, 241, 60, 256
-0.998409, 49, 205, 80, 220
-0.998409, 113, 133, 240, 164
-0.99841, 21, 39, 52, 54
-0.99841, 21, 173, 52, 188
-0.998411, 89, 239, 120, 254
-0.998411, 337, 187, 368, 202
-0.998411, 441, 185, 472, 200
-0.998411, 377, 183, 408, 198
-0.998412, 29, 223, 60, 238
-0.998414, 133, 329, 164, 344
-0.998415, 221, 337, 252, 352
-0.998416, 1, 43, 32, 58
-0.998417, 317, 175, 348, 190
-0.998417, 325, 189, 356, 204
-0.998418, 381, 145, 412, 160
-0.998418, 113, 275, 144, 290
-0.998418, 153, 189, 184, 204
-0.998419, 145, 355, 176, 370
-0.998419, 121, 323, 152, 338
-0.998421, 289, 209, 352, 272
-0.998422, 85, 287, 116, 302
-0.998423, 25, 201, 56, 216
-0.998423, 29, 195, 60, 210
-0.998425, 281, 205, 312, 220
-0.998425, 421, 191, 452, 206
-0.998428, 261, 187, 292, 202
-0.998429, 305, 167, 336, 182
-0.998431, 465, 183, 496, 198
-0.998433, 81, 197, 112, 212
-0.998434, 417, 179, 448, 194
-0.998436, 81, 211, 112, 226
-0.998438, 61, 177, 92, 192
-0.998442, 17, 167, 48, 182
-0.998442, 409, 159, 440, 174
-0.998444, 361, 191, 392, 206
-0.998445, 61, 199, 92, 214
-0.998451, 41, 173, 72, 188
-0.998455, 61, 205, 92, 220
-0.998455, 9, 241, 40, 256
-0.998457, 313, 187, 344, 202
-0.998459, 429, 185, 460, 200
-0.998459, 1, 307, 32, 322
-0.998461, 297, 185, 360, 200
-0.998463, 149, 183, 180, 198
-0.998464, 369, 153, 432, 168
-0.998466, 453, 185, 484, 200
-0.998468, 141, 129, 172, 375
-0.99847, 9, 187, 40, 202
-0.998471, 9, 179, 40, 194
-0.998473, 317, 167, 348, 182
-0.998475, 13, 229, 44, 244
-0.998476, 433, 179, 464, 194
-0.998476, 9, 235, 40, 250
-0.998479, 153, 9, 184, 24
-0.998481, 401, 151, 432, 166
-0.998483, 41, 199, 72, 214
-0.998484, 165, 7, 196, 22
-0.998485, 29, 229, 60, 244
-0.998487, 353, 185, 384, 200
-0.998487, 417, 165, 448, 180
-0.998492, 265, 193, 328, 208
-0.998499, 273, 185, 336, 200
-0.998499, 385, 183, 448, 198
-0.998502, 161, 7, 224, 22
-0.998504, 337, 183, 400, 198
-0.998504, 385, 151, 416, 166
-0.998504, 337, 189, 400, 204
-0.998505, 5, 209, 36, 224
-0.998508, 161, 79, 224, 94
-0.998508, 41, 201, 104, 216
-0.998509, 161, 99, 224, 114
-0.99851, 161, 71, 224, 86
-0.99851, 385, 165, 448, 180
-0.998513, 221, 129, 252, 375
-0.998514, 161, 105, 224, 120
-0.998514, 161, 85, 224, 100
-0.998516, 13, 221, 44, 236
-0.998516, 365, 179, 396, 194
-0.998517, 161, 63, 224, 78
-0.998517, 161, 113, 224, 128
-0.998518, 137, 9, 200, 24
-0.998519, 25, 173, 88, 188
-0.99852, 289, 297, 416, 328
-0.998521, 17, 203, 80, 218
-0.998522, 369, 159, 432, 174
-0.998523, 161, 93, 224, 108
-0.998524, 1, 177, 64, 192
-0.998525, 1, 49, 128, 112
-0.99853, 361, 179, 424, 194
-0.99853, 161, 119, 224, 134
-0.998534, 161, 57, 224, 72
-0.998535, 369, 147, 432, 162
-0.998536, 409, 187, 472, 202
-0.998536, 161, 125, 224, 140
-0.998537, 161, 51, 224, 66
-0.998541, 49, 307, 112, 322
-0.998542, 409, 179, 472, 194
-0.998543, 265, 169, 328, 184
-0.998544, 341, 65, 372, 320
-0.998545, 329, 169, 392, 184
-0.998546, 369, 171, 432, 186
-0.998547, 417, 185, 448, 200
-0.998547, 161, 45, 224, 60
-0.998549, 297, 173, 360, 188
-0.998553, 377, 189, 440, 204
-0.998553, 145, 281, 272, 312
-0.998554, 161, 133, 224, 148
-0.998554, 121, 185, 184, 200
-0.998554, 385, 177, 448, 192
-0.998558, 17, 251, 80, 266
-0.998561, 1, 301, 64, 316
-0.998561, 393, 145, 424, 160
-0.998563, 121, 335, 184, 350
-0.998564, 161, 37, 224, 52
-0.998564, 201, 149, 264, 164
-0.998564, 161, 265, 416, 328
-0.998565, 57, 241, 120, 256
-0.998566, 297, 195, 360, 210
-0.998567, 265, 179, 328, 194
-0.998568, 1, 171, 64, 186
-0.99857, 125, 129, 156, 375
-0.99857, 65, 195, 128, 210
-0.99857, 193, 341, 256, 356
-0.998572, 25, 239, 88, 254
-0.998572, 9, 229, 72, 244
-0.998572, 257, 201, 320, 216
-0.998574, 161, 141, 224, 156
-0.998574, 433, 183, 496, 198
-0.998575, 1, 263, 64, 278
-0.998575, 105, 283, 168, 298
-0.998575, 161, 29, 224, 44
-0.998576, 57, 211, 120, 226
-0.998576, 361, 165, 424, 180
-0.998576, 297, 179, 360, 194
-0.998577, 41, 193, 104, 208
-0.998581, 33, 259, 96, 274
-0.998581, 289, 167, 352, 182
-0.998581, 161, 149, 224, 164
-0.998582, 161, 183, 224, 198
-0.998587, 49, 175, 112, 190
-0.998591, 121, 195, 184, 210
-0.998592, 121, 179, 184, 194
-0.998594, 393, 159, 456, 174
-0.998594, 193, 143, 256, 158
-0.998595, 9, 221, 72, 236
-0.998596, 161, 23, 224, 38
-0.998596, 121, 221, 184, 236
-0.998597, 209, 155, 272, 170
-0.998598, 41, 219, 104, 234
-0.9986, 25, 183, 88, 198
-0.998601, 121, 241, 184, 256
-0.998601, 1, 191, 64, 206
-0.998602, 233, 183, 296, 198
-0.998603, 265, 207, 328, 222
-0.998605, 41, 247, 104, 262
-0.998606, 121, 207, 184, 222
-0.998606, 177, 1, 240, 16
-0.998607, 73, 307, 136, 322
-0.998609, 105, 263, 168, 278
-0.99861, 121, 233, 184, 248
-0.99861, 233, 177, 296, 192
-0.99861, 1, 197, 64, 212
-0.99861, 17, 209, 80, 224
-0.99861, 145, 189, 208, 204
-0.99861, 161, 177, 224, 192
-0.998611, 9, 37, 72, 52
-0.998612, 161, 17, 224, 32
-0.998614, 353, 195, 416, 210
-0.998615, 257, 307, 320, 322
-0.998615, 337, 177, 400, 192
-0.998616, 161, 203, 224, 218
-0.998617, 65, 287, 128, 302
-0.998617, 17, 307, 80, 322
-0.998618, 33, 269, 96, 284
-0.998619, 137, 1, 168, 256
-0.998619, 161, 231, 224, 246
-0.998619, 161, 155, 224, 170
-0.998619, 209, 33, 240, 288
-0.99862, 65, 185, 128, 200
-0.99862, 97, 17, 160, 32
-0.99862, 17, 245, 80, 260
-0.998622, 121, 247, 184, 262
-0.998622, 329, 163, 392, 178
-0.998623, 121, 15, 184, 30
-0.998623, 121, 329, 184, 344
-0.998625, 161, 225, 224, 240
-0.998626, 193, 335, 256, 350
-0.998627, 1, 183, 64, 198
-0.998627, 49, 29, 112, 44
-0.998629, 121, 271, 184, 286
-0.99863, 9, 257, 72, 272
-0.99863, 193, 347, 256, 362
-0.99863, 57, 225, 120, 240
-0.998631, 1, 295, 64, 310
-0.998631, 161, 337, 224, 352
-0.998634, 297, 201, 360, 216
-0.998634, 249, 313, 312, 328
-0.998634, 145, 195, 208, 210
-0.998635, 33, 301, 96, 316
-0.998635, 97, 187, 160, 202
-0.998636, 161, 241, 224, 256
-0.998636, 265, 163, 328, 178
-0.998637, 257, 281, 500, 344
-0.998637, 209, 175, 272, 190
-0.998656, 389, 33, 420, 288
-0.998658, 233, 193, 296, 320
-0.998671, 233, 129, 264, 375
-0.998686, 277, 65, 308, 320
-0.998688, 337, 265, 464, 328
-0.998702, 161, 33, 192, 288
-0.998706, 305, 33, 336, 288
-0.998716, 301, 193, 332, 320
-0.998723, 369, 33, 400, 288
-0.998724, 469, 129, 500, 375
-0.998727, 293, 129, 324, 375
-0.998755, 273, 49, 400, 112
-0.998805, 445, 129, 476, 375
-0.99881, 369, 33, 496, 96
-0.998813, 401, 33, 432, 288
-0.998837, 353, 33, 384, 288
-0.998843, 457, 129, 488, 375
-0.998846, 169, 1, 184, 128
-0.998872, 49, 149, 176, 180
-0.998891, 179, 17, 194, 144
-0.99892, 317, 33, 348, 288
-0.998925, 241, 249, 368, 312
-0.998926, 289, 33, 320, 288
-0.998935, 81, 81, 144, 208
-0.998936, 189, 97, 220, 352
-0.99894, 13, 161, 28, 288
-0.998948, 217, 241, 248, 368
-0.99895, 377, 305, 440, 368
-0.998951, 209, 209, 336, 240
-0.998973, 177, 225, 304, 256
-0.998979, 177, 81, 192, 208
-0.998979, 21, 161, 36, 288
-0.998979, 403, 113, 418, 240
-0.99899, 257, 221, 384, 252
-0.999002, 387, 129, 402, 256
-0.999007, 365, 161, 380, 288
-0.999012, 347, 177, 362, 304
-0.999034, 9, 1, 24, 128
-0.999043, 409, 129, 424, 256
-0.999061, 421, 145, 436, 272
-0.999063, 1, 193, 16, 320
-0.999067, 321, 205, 448, 236
-0.999068, 177, 129, 192, 256
-0.999072, 433, 129, 464, 375
-0.999076, 131, 241, 146, 368
-0.999077, 209, 57, 336, 120
-0.999078, 209, 49, 272, 176
-0.999079, 379, 129, 394, 256
-0.999086, 265, 209, 296, 336
-0.999087, 7, 177, 22, 304
-0.99909, 415, 129, 430, 256
-0.999092, 421, 193, 452, 320
-0.999097, 27, 209, 42, 336
-0.999101, 449, 161, 464, 288
-0.999104, 289, 345, 416, 375
-0.99912, 369, 197, 496, 228
-0.999124, 427, 145, 442, 272
-0.999127, 353, 177, 368, 304
-0.999127, 103, 1, 118, 128
-0.99913, 253, 33, 284, 288
-0.99913, 397, 113, 412, 240
-0.999138, 313, 145, 328, 272
-0.999143, 57, 241, 72, 368
-0.999144, 73, 161, 88, 288
-0.999147, 35, 209, 50, 336
-0.999168, 27, 129, 42, 256
-0.999171, 143, 225, 158, 352
-0.999179, 369, 129, 496, 160
-0.999184, 339, 177, 354, 304
-0.999188, 433, 33, 464, 288
-0.999189, 167, 161, 182, 288
-0.99919, 329, 33, 360, 288
-0.999191, 43, 241, 58, 368
-0.999193, 413, 1, 444, 256
-0.999199, 149, 177, 164, 304
-0.999203, 125, 241, 140, 368
-0.999204, 63, 209, 78, 336
-0.999205, 461, 161, 476, 288
-0.999205, 3, 33, 18, 160
-0.999216, 245, 129, 260, 256
-0.99922, 273, 161, 288, 288
-0.999224, 171, 97, 186, 224
-0.999225, 409, 1, 472, 128
-0.999226, 475, 161, 490, 288
-0.99923, 1, 337, 128, 368
-0.999233, 321, 145, 336, 272
-0.999245, 67, 161, 82, 288
-0.999245, 439, 177, 454, 304
-0.999246, 331, 145, 346, 272
-0.999247, 481, 161, 496, 288
-0.999247, 273, 321, 400, 352
-0.999247, 15, 1, 30, 128
-0.999251, 33, 129, 48, 256
-0.999252, 359, 161, 374, 288
-0.999253, 15, 209, 30, 336
-0.999259, 1, 105, 128, 136
-0.99926, 115, 241, 130, 368
-0.999263, 455, 161, 470, 288
-0.999264, 353, 33, 480, 160
-0.999264, 265, 33, 296, 288
-0.999265, 241, 33, 272, 288
-0.999267, 149, 1, 164, 128
-0.999268, 21, 225, 36, 352
-0.99927, 301, 145, 316, 272
-0.999272, 169, 209, 184, 336
-0.999275, 467, 161, 482, 288
-0.999279, 103, 209, 118, 336
-0.999285, 49, 209, 64, 336
-0.99929, 141, 1, 156, 128
-0.999294, 263, 145, 278, 272
-0.999298, 209, 161, 224, 288
-0.999299, 155, 1, 170, 128
-0.999305, 111, 1, 126, 128
-0.999307, 225, 293, 352, 324
-0.999307, 225, 129, 240, 256
-0.999309, 61, 161, 76, 288
-0.99931, 433, 145, 448, 272
-0.999317, 161, 225, 176, 352
-0.999319, 289, 125, 416, 156
-0.99932, 161, 1, 176, 128
-0.999322, 29, 1, 44, 128
-0.999322, 209, 125, 336, 156
-0.999325, 135, 1, 150, 128
-0.999327, 119, 1, 134, 128
-0.999328, 371, 177, 386, 304
-0.999331, 129, 1, 144, 128
-0.999332, 281, 177, 296, 304
-0.999335, 7, 113, 22, 240
-0.999347, 91, 225, 106, 352
-0.999349, 13, 97, 28, 224
-0.99935, 77, 209, 92, 336
-0.999351, 69, 209, 84, 336
-0.999355, 209, 97, 224, 224
-0.999359, 239, 129, 254, 256
-0.99936, 137, 241, 152, 368
-0.999361, 159, 161, 174, 288
-0.999362, 1, 241, 16, 368
-0.999363, 293, 193, 308, 320
-0.999369, 21, 33, 36, 160
-0.999371, 97, 1, 112, 128
-0.999373, 143, 177, 158, 304
-0.999375, 155, 209, 170, 336
-0.999377, 307, 145, 322, 272
-0.999382, 7, 225, 22, 352
-0.999383, 79, 161, 94, 288
-0.999387, 177, 237, 304, 268
-0.999392, 33, 137, 160, 168
-0.999394, 231, 129, 246, 256
-0.999399, 149, 241, 164, 368
-0.999401, 353, 129, 368, 256
-0.999402, 35, 1, 50, 128
-0.999405, 21, 113, 36, 240
-0.999406, 55, 177, 70, 304
-0.999411, 257, 145, 272, 272
-0.999413, 269, 113, 284, 240
-0.999418, 183, 65, 198, 192
-0.999427, 295, 145, 310, 272
-0.999429, 337, 217, 464, 248
-0.99943, 257, 17, 384, 80
-0.999437, 83, 209, 98, 336
-0.999438, 147, 129, 162, 256
-0.999444, 337, 129, 352, 256
-0.999446, 439, 129, 454, 256
-0.999448, 219, 129, 234, 256
-0.999454, 109, 209, 124, 336
-0.999456, 97, 225, 112, 352
-0.999457, 369, 269, 496, 300
-0.999458, 41, 161, 56, 288
-0.99946, 251, 145, 266, 272
-0.99946, 287, 193, 302, 320
-0.999461, 41, 1, 56, 128
-0.999467, 177, 193, 192, 320
-0.999469, 137, 161, 152, 288
-0.999469, 347, 129, 362, 256
-0.999471, 15, 49, 30, 176
-0.999475, 209, 49, 224, 176
-0.999476, 377, 177, 392, 304
-0.999479, 391, 81, 406, 208
-0.999487, 85, 129, 100, 256
-0.999488, 367, 113, 382, 240
-0.999495, 373, 129, 388, 256
-0.999496, 77, 17, 92, 144
-0.999504, 225, 33, 256, 288
-0.999506, 153, 129, 168, 256
-0.999509, 113, 145, 128, 272
-0.999509, 47, 1, 62, 128
-0.99951, 83, 17, 98, 144
-0.999529, 1, 45, 128, 76
-0.999534, 289, 269, 416, 300
-0.999543, 469, 33, 500, 288
-0.999553, 369, 337, 496, 368
-0.999554, 197, 1, 228, 256
-0.999577, 305, 241, 368, 368
-0.999581, 253, 209, 284, 336
-0.999583, 1, 121, 128, 152
-0.999586, 403, 137, 418, 152
-0.999586, 279, 201, 294, 216
-0.999587, 151, 327, 166, 342
-0.999588, 401, 165, 416, 180
-0.999589, 21, 337, 36, 352
-0.999589, 11, 231, 26, 246
-0.999589, 469, 185, 484, 200
-0.99959, 65, 175, 80, 190
-0.999591, 15, 237, 30, 252
-0.999591, 405, 155, 420, 170
-0.999592, 21, 41, 36, 56
-0.999592, 303, 199, 318, 214
-0.999592, 163, 9, 178, 24
-0.999592, 237, 143, 252, 158
-0.999592, 449, 185, 464, 200
-0.999593, 379, 153, 394, 168
-0.999593, 89, 309, 104, 324
-0.999593, 337, 187, 352, 202
-0.999593, 59, 205, 74, 220
-0.999594, 309, 167, 324, 182
-0.999594, 177, 149, 192, 164
-0.999594, 23, 163, 38, 178
-0.999595, 223, 151, 238, 166
-0.999595, 129, 335, 144, 350
-0.999595, 155, 355, 170, 370
-0.999596, 171, 183, 186, 198
-0.999597, 171, 231, 186, 246
-0.999598, 27, 215, 42, 230
-0.999598, 1, 305, 16, 320
-0.999599, 327, 189, 342, 204
-0.999599, 5, 221, 20, 236
-0.9996, 165, 341, 180, 356
-0.9996, 21, 219, 36, 234
-0.9996, 155, 179, 170, 194
-0.999601, 285, 203, 300, 218
-0.999602, 353, 189, 368, 204
-0.999603, 91, 285, 106, 300
-0.999603, 27, 201, 42, 216
-0.999604, 51, 199, 66, 214
-0.999604, 357, 181, 372, 196
-0.999604, 17, 303, 32, 318
-0.999605, 125, 267, 140, 282
-0.999606, 397, 139, 412, 154
-0.999607, 307, 189, 322, 204
-0.999607, 453, 33, 484, 288
-0.999608, 373, 191, 388, 206
-0.999608, 19, 225, 34, 240
-0.999608, 319, 187, 334, 202
-0.999608, 43, 313, 58, 328
-0.999608, 129, 313, 144, 328
-0.999609, 5, 205, 20, 220
-0.999609, 349, 183, 364, 198
-0.999609, 159, 337, 174, 352
-0.99961, 223, 143, 238, 158
-0.999612, 1, 179, 16, 194
-0.999613, 33, 223, 48, 238
-0.999613, 391, 143, 406, 158
-0.999615, 9, 211, 24, 226
-0.999615, 53, 311, 68, 326
-0.999615, 7, 189, 22, 204
-0.999616, 3, 245, 18, 260
-0.999617, 31, 195, 46, 210
-0.999617, 293, 205, 308, 220
-0.999618, 57, 199, 72, 214
-0.999619, 177, 143, 192, 158
-0.999621, 177, 135, 192, 150
-0.999621, 7, 173, 22, 188
-0.999622, 421, 157, 436, 172
-0.999623, 379, 177, 394, 192
-0.999624, 417, 193, 432, 208
-0.999625, 403, 143, 418, 158
-0.999625, 15, 185, 30, 200
-0.999625, 63, 199, 78, 214
-0.999625, 485, 181, 500, 196
-0.999625, 179, 55, 194, 70
-0.999626, 177, 123, 192, 138
-0.999626, 315, 165, 330, 180
-0.999626, 35, 203, 50, 218
-0.999626, 233, 335, 248, 350
-0.999627, 329, 169, 344, 184
-0.999628, 177, 129, 192, 144
-0.999628, 179, 49, 194, 64
-0.999629, 455, 185, 470, 200
-0.999629, 385, 153, 400, 168
-0.999631, 387, 185, 402, 200
-0.999632, 33, 183, 48, 198
-0.999634, 179, 99, 194, 114
-0.999635, 179, 93, 194, 108
-0.999635, 289, 333, 416, 364
-0.999636, 179, 61, 194, 76
-0.999637, 179, 105, 194, 120
-0.999637, 5, 239, 20, 254
-0.999637, 179, 71, 194, 86
-0.999637, 177, 117, 192, 132
-0.999637, 431, 177, 446, 192
-0.999637, 7, 183, 22, 198
-0.999638, 179, 79, 194, 94
-0.999638, 309, 195, 324, 210
-0.999639, 225, 233, 480, 296
-0.999639, 179, 43, 194, 58
-0.999639, 461, 183, 476, 198
-0.99964, 179, 85, 194, 100
-0.99964, 179, 111, 194, 126
-0.99964, 23, 231, 38, 246
-0.999641, 23, 181, 38, 196
-0.999641, 379, 159, 394, 174
-0.999642, 3, 211, 18, 226
-0.999642, 415, 151, 430, 166
-0.999643, 21, 187, 36, 202
-0.999643, 379, 183, 394, 198
-0.999644, 179, 35, 194, 50
-0.999647, 17, 173, 32, 188
-0.99965, 179, 29, 194, 44
-0.99965, 303, 181, 318, 196
-0.999652, 435, 185, 450, 200
-0.999653, 179, 19, 194, 34
-0.999654, 425, 187, 440, 202
-0.999656, 179, 13, 194, 28
-0.99966, 425, 175, 440, 190
-0.999662, 427, 165, 442, 180
-0.999664, 165, 361, 180, 375
-0.999668, 423, 181, 438, 196
-0.99967, 27, 221, 42, 236
-0.999671, 363, 181, 378, 196
-0.999676, 169, 7, 184, 22
-0.999679, 343, 183, 358, 198
-0.999682, 321, 49, 448, 112
-0.999684, 225, 109, 352, 140
-0.999686, 379, 189, 394, 204
-0.999688, 321, 167, 336, 182
-0.999693, 29, 229, 44, 244
-0.999699, 373, 181, 388, 196
-0.9997, 15, 179, 30, 194
-0.999709, 179, 7, 194, 22
-0.99971, 367, 187, 382, 202
-0.99973, 45, 97, 76, 224
-0.999741, 337, 249, 464, 280
-0.99975, 65, 81, 192, 144
-0.999753, 273, 257, 400, 288
-0.999787, 1, 93, 128, 124
-0.999795, 369, 281, 496, 312
-0.999797, 1, 69, 128, 100
-0.999817, 209, 277, 336, 308
-0.999824, 257, 77, 384, 108
-0.999872, 337, 237, 464, 268
-0.999881, 257, 233, 384, 264
-0.999882, 209, 85, 336, 116
-0.999889, 225, 57, 480, 120
-0.999895, 149, 1, 180, 256
-0.999901, 209, 73, 336, 104
-0.999902, 257, 81, 500, 144
-0.999917, 209, 97, 336, 128
-0.999941, 209, 249, 336, 280
-0.999952, 225, 17, 480, 80
-1.00005, 337, 1, 464, 64
-1.00008, 217, 233, 280, 296
-1.00012, 321, 81, 448, 144
-1.00014, 209, 9, 336, 72
-1.00021, 49, 33, 176, 96
-1.00024, 177, 129, 208, 375
-1.00038, 393, 177, 424, 304
-1.00043, 265, 225, 328, 288
-1.00043, 305, 25, 432, 88
-1.00045, 209, 33, 336, 96
-1.00047, 377, 281, 440, 344
-1.0005, 401, 209, 464, 272
-1.00051, 1, 25, 500, 88
-1.00067, 289, 241, 320, 368
-1.00069, 65, 57, 192, 120
-1.0007, 257, 257, 500, 320
-1.00078, 273, 49, 336, 112
-1.00085, 141, 97, 172, 224
-1.00086, 229, 225, 260, 352
-1.00099, 377, 225, 408, 352
-1.00108, 57, 113, 120, 176
-1.00111, 369, 65, 496, 128
-1.00121, 221, 177, 252, 304
-1.00133, 305, 1, 432, 128
-1.00144, 1, 81, 500, 144
-1.00159, 345, 225, 376, 352
-1.00167, 265, 89, 328, 152
-1.00175, 265, 113, 328, 176
-1.00176, 1, 57, 500, 120
-1.00177, 393, 49, 456, 112
-1.00197, 301, 1, 332, 128
-1.002, 233, 177, 264, 304
-1.00202, 357, 209, 388, 336
-1.00205, 233, 1, 264, 128
-1.00209, 333, 225, 364, 352
-1.00216, 393, 225, 424, 352
-1.00229, 277, 81, 308, 208
-1.00233, 241, 241, 272, 368
-1.00237, 345, 81, 376, 208
-1.00237, 401, 241, 464, 368
-1.00264, 277, 225, 308, 352
-1.00265, 301, 241, 332, 368
-1.00274, 369, 65, 400, 192
-1.00279, 105, 81, 136, 208
-1.00285, 337, 241, 400, 368
-1.00294, 257, 241, 320, 368
-1.00297, 117, 81, 148, 208
-1.00309, 233, 49, 296, 176
-1.00313, 77, 81, 108, 208
-1.00318, 313, 1, 376, 128
-1.00331, 409, 49, 472, 176
-1.00349, 289, 49, 352, 176
-1.00416, 353, 1, 416, 128
-1.0048, 289, 1, 352, 128
-1.00543, 33, 65, 96, 192
-1.00555, 329, 65, 392, 192
-1.00568, 433, 1, 496, 128
-1.00649, 433, 209, 496, 336
-1.00698, 249, 1, 312, 128
-1.00726, 281, 241, 344, 368
-1.00776, 377, 1, 440, 128
-1.00862, 209, 1, 272, 128
-1.00962, 257, 49, 320, 176
-1.01297, 433, 49, 496, 176
