1957
-0.271685, 1, 1, 500, 371
-0.352085, 1, 65, 500, 320
-0.397787, 65, 1, 320, 371
-0.454826, 161, 1, 416, 371
-0.503072, 257, 1, 500, 371
-0.538825, 257, 129, 500, 371
-0.556423, 225, 1, 480, 256
-0.57596, 129, 1, 384, 256
-0.58965, 161, 129, 416, 371
-0.596136, 1, 97, 256, 352
-0.739309, 33, 1, 288, 256
-0.824424, 145, 1, 272, 371
-0.832886, 305, 1, 432, 256
-0.836076, 257, 1, 384, 371
-0.838104, 305, 97, 432, 352
-0.851936, 97, 1, 224, 371
-0.852467, 257, 65, 384, 320
-0.855759, 337, 1, 464, 371
-0.856672, 1, 97, 500, 224
-0.861229, 193, 1, 320, 371
-0.86791, 161, 1, 288, 256
-0.868665, 113, 1, 240, 256
-0.869935, 17, 97, 144, 352
-0.870649, 65, 65, 192, 320
-0.873062, 353, 1, 480, 256
-0.873974, 1, 145, 500, 272
-0.874461, 193, 97, 320, 352
-0.880421, 49, 1, 176, 371
-0.881912, 1, 33, 500, 160
-0.890191, 145, 129, 272, 371
-0.894615, 209, 1, 336, 256
-0.898272, 353, 129, 480, 371
-0.902548, 1, 1, 128, 371
-0.903264, 1, 225, 500, 352
-0.90937, 97, 49, 352, 176
-0.914408, 225, 129, 480, 256
-0.91853, 1, 113, 256, 240
-0.92282, 193, 81, 448, 208
-0.92437, 289, 81, 416, 208
-0.925588, 225, 1, 480, 128
-0.927371, 257, 177, 500, 304
-0.930409, 97, 97, 352, 224
-0.931011, 361, 113, 424, 240
-0.9313, 129, 1, 384, 128
-0.932698, 129, 225, 384, 352
-0.933266, 289, 129, 416, 256
-0.934766, 129, 145, 384, 272
-0.935919, 241, 97, 368, 224
-0.937175, 1, 225, 256, 352
-0.93827, 337, 81, 400, 208
-0.93974, 209, 209, 336, 336
-0.939763, 297, 113, 360, 240
-0.940044, 1, 161, 256, 288
-0.940134, 273, 65, 336, 192
-0.94069, 353, 1, 480, 128
-0.941034, 257, 225, 500, 352
-0.941805, 17, 1, 144, 256
-0.942742, 17, 113, 80, 240
-0.944095, 297, 17, 360, 144
-0.944305, 49, 97, 176, 224
-0.944656, 289, 97, 352, 160
-0.945597, 273, 129, 336, 256
-0.94602, 113, 33, 240, 160
-0.948024, 297, 121, 360, 184
-0.948035, 273, 209, 336, 336
-0.948611, 1, 97, 128, 224
-0.949444, 321, 129, 384, 256
-0.949859, 1, 193, 128, 320
-0.95004, 289, 225, 416, 352
-0.950158, 313, 65, 376, 192
-0.950342, 329, 105, 392, 168
-0.95131, 265, 113, 328, 176
-0.951423, 1, 49, 256, 176
-0.951513, 289, 177, 416, 304
-0.951525, 249, 65, 312, 192
-0.951604, 17, 161, 80, 288
-0.951765, 57, 97, 120, 224
-0.951797, 177, 113, 304, 240
-0.952014, 353, 113, 416, 176
-0.952165, 273, 17, 400, 144
-0.952353, 353, 161, 416, 288
-0.952787, 129, 129, 256, 256
-0.952917, 353, 137, 416, 200
-0.95347, 225, 1, 352, 128
-0.95361, 377, 1, 440, 128
-0.953706, 385, 97, 448, 224
-0.953772, 337, 145, 464, 272
-0.953855, 153, 209, 216, 336
-0.953993, 145, 225, 272, 352
-0.954368, 353, 97, 480, 224
-0.954408, 233, 209, 296, 336
-0.954977, 305, 225, 368, 352
-0.955411, 249, 113, 312, 240
-0.955423, 425, 1, 488, 128
-0.955917, 193, 33, 256, 160
-0.956113, 193, 193, 256, 320
-0.956273, 81, 225, 208, 352
-0.956757, 137, 33, 200, 160
-0.957009, 329, 17, 392, 144
-0.9572, 353, 1, 416, 128
-0.957802, 97, 81, 160, 208
-0.957837, 193, 49, 320, 176
-0.957875, 113, 177, 240, 304
-0.957973, 241, 145, 368, 272
-0.958416, 153, 161, 216, 288
-0.958597, 241, 105, 304, 168
-0.958635, 401, 1, 464, 128
-0.958958, 289, 1, 352, 256
-0.959006, 361, 161, 424, 224
-0.959073, 401, 177, 464, 304
-0.959177, 49, 145, 176, 272
-0.959692, 369, 225, 432, 352
-0.959771, 41, 225, 104, 352
-0.959808, 65, 49, 192, 176
-0.960001, 345, 1, 408, 256
-0.960024, 369, 241, 496, 368
-0.960192, 329, 129, 392, 192
-0.960319, 193, 161, 320, 288
-0.960466, 41, 161, 104, 288
-0.960718, 273, 1, 336, 128
-0.961065, 1, 241, 128, 368
-0.961167, 385, 145, 448, 208
-0.961231, 225, 113, 288, 240
-0.961865, 177, 1, 304, 128
-0.961985, 329, 225, 392, 352
-0.962055, 129, 161, 192, 288
-0.962381, 241, 161, 304, 288
-0.962805, 305, 273, 368, 336
-0.962992, 313, 81, 376, 144
-0.962994, 273, 225, 336, 288
-0.963064, 257, 73, 320, 136
-0.963181, 161, 113, 224, 240
-0.963219, 89, 225, 152, 352
-0.963279, 65, 225, 128, 352
-0.963687, 433, 1, 496, 64
-0.963687, 321, 153, 384, 216
-0.963733, 353, 1, 416, 64
-0.963753, 169, 17, 232, 144
-0.964021, 9, 209, 72, 336
-0.964404, 305, 105, 432, 168
-0.964618, 129, 81, 192, 208
-0.964644, 409, 233, 472, 296
-0.964833, 313, 1, 376, 256
-0.964849, 105, 177, 168, 304
-0.965004, 273, 137, 336, 200
-0.965123, 177, 25, 240, 88
-0.965332, 129, 209, 192, 336
-0.965448, 353, 89, 416, 152
-0.965485, 337, 193, 464, 320
-0.965726, 417, 273, 480, 336
-0.965743, 137, 41, 200, 104
-0.965841, 193, 145, 256, 272
-0.966005, 281, 273, 344, 336
-0.966182, 377, 9, 440, 72
-0.966429, 129, 193, 192, 256
-0.966545, 249, 1, 312, 128
-0.966565, 209, 113, 272, 176
-0.966571, 113, 81, 240, 208
-0.966787, 153, 161, 216, 224
-0.966858, 297, 105, 328, 168
-0.966869, 113, 33, 176, 160
-0.967022, 329, 281, 392, 344
-0.96735, 329, 241, 392, 304
-0.967511, 369, 281, 432, 344
-0.967536, 249, 65, 312, 320
-0.967617, 145, 225, 208, 288
-0.967645, 341, 105, 372, 168
-0.967661, 185, 121, 248, 184
-0.967714, 361, 153, 392, 216
-0.967714, 33, 233, 96, 296
-0.967739, 17, 169, 80, 232
-0.967829, 17, 193, 80, 256
-0.96798, 373, 145, 404, 208
-0.968127, 217, 65, 280, 192
-0.968144, 377, 121, 440, 184
-0.968182, 409, 1, 472, 64
-0.968437, 353, 97, 416, 352
-0.968519, 273, 97, 336, 352
-0.968617, 225, 105, 352, 168
-0.968993, 129, 33, 192, 288
-0.969002, 225, 1, 288, 128
-0.969007, 345, 97, 376, 224
-0.969098, 257, 129, 384, 192
-0.969155, 369, 113, 400, 240
-0.969186, 177, 241, 240, 368
-0.969439, 145, 137, 208, 200
-0.969494, 1, 145, 128, 272
-0.969578, 297, 97, 360, 352
-0.969751, 169, 1, 232, 256
-0.969792, 401, 169, 464, 232
-0.969799, 329, 177, 392, 240
-0.970175, 57, 225, 120, 288
-0.97024, 305, 201, 368, 264
-0.970266, 321, 25, 384, 88
-0.970289, 309, 105, 340, 168
-0.970404, 409, 241, 472, 368
-0.970929, 389, 97, 420, 224
-0.971119, 89, 233, 152, 296
-0.971218, 377, 161, 440, 288
-0.971255, 329, 177, 392, 304
-0.97161, 9, 121, 72, 184
-0.971668, 361, 129, 392, 192
-0.971694, 305, 297, 368, 360
-0.971759, 225, 17, 288, 80
-0.97191, 201, 241, 264, 368
-0.971976, 361, 65, 424, 192
-0.972145, 249, 137, 312, 200
-0.972361, 285, 105, 316, 168
-0.972368, 177, 121, 304, 184
-0.972395, 369, 1, 432, 256
-0.972466, 113, 57, 176, 120
-0.972516, 265, 17, 328, 80
-0.972552, 353, 241, 416, 304
-0.972637, 241, 41, 304, 104
-0.972722, 329, 97, 392, 352
-0.973001, 105, 209, 168, 272
-0.973306, 81, 145, 144, 272
-0.973377, 257, 273, 384, 336
-0.973391, 225, 217, 288, 280
-0.973409, 305, 249, 368, 312
-0.973615, 149, 177, 180, 240
-0.973637, 301, 97, 332, 224
-0.973754, 325, 105, 356, 168
-0.973784, 209, 33, 272, 288
-0.973913, 1, 145, 64, 208
-0.974322, 65, 97, 128, 352
-0.974473, 185, 217, 248, 280
-0.974571, 401, 1, 464, 256
-0.974751, 417, 297, 480, 360
-0.974801, 297, 17, 360, 80
-0.974902, 385, 241, 448, 304
-0.975013, 257, 185, 320, 248
-0.975127, 321, 65, 352, 192
-0.97518, 401, 209, 464, 272
-0.975243, 201, 57, 264, 120
-0.975309, 217, 161, 280, 288
-0.975462, 9, 241, 72, 304
-0.97547, 153, 185, 216, 248
-0.975578, 17, 49, 144, 176
-0.975646, 393, 129, 456, 371
-0.97565, 385, 105, 416, 168
-0.975778, 353, 105, 384, 168
-0.975817, 9, 97, 72, 352
-0.975851, 281, 41, 344, 104
-0.975869, 321, 257, 352, 320
-0.975886, 33, 113, 96, 176
-0.975966, 297, 145, 360, 208
-0.97598, 273, 81, 400, 144
-0.976044, 281, 1, 344, 371
-0.976155, 373, 113, 404, 176
-0.976161, 297, 177, 360, 304
-0.976259, 393, 145, 424, 208
-0.976267, 357, 113, 388, 240
-0.976267, 337, 177, 464, 240
-0.97631, 305, 129, 432, 192
-0.97644, 289, 129, 320, 256
-0.976618, 209, 225, 336, 288
-0.976653, 105, 129, 168, 256
-0.976781, 113, 41, 240, 104
-0.976797, 121, 161, 184, 224
-0.976831, 257, 113, 288, 176
-0.976872, 225, 137, 288, 200
-0.976896, 321, 153, 448, 216
-0.976919, 433, 225, 496, 352
-0.976926, 329, 17, 360, 144
-0.977006, 289, 65, 352, 128
-0.977039, 1, 217, 64, 280
-0.977047, 385, 145, 416, 272
-0.977118, 301, 209, 332, 336
-0.977133, 25, 113, 56, 240
-0.977165, 17, 113, 144, 176
-0.977211, 89, 33, 152, 160
-0.977211, 305, 257, 432, 320
-0.977225, 369, 1, 400, 128
-0.977316, 409, 129, 472, 256
-0.977357, 41, 113, 72, 240
-0.977359, 281, 249, 344, 312
-0.977379, 337, 305, 400, 368
-0.977415, 321, 9, 448, 72
-0.97748, 121, 137, 184, 200
-0.977543, 249, 225, 312, 288
-0.977568, 81, 105, 144, 168
-0.977588, 305, 1, 368, 371
-0.9777, 369, 273, 496, 336
-0.977756, 361, 297, 392, 360
-0.977789, 285, 81, 316, 208
-0.977811, 393, 273, 456, 336
-0.977858, 105, 33, 168, 288
-0.977909, 137, 129, 200, 371
-0.977931, 345, 129, 376, 192
-0.977962, 357, 161, 388, 288
-0.977964, 353, 185, 416, 248
-0.977985, 377, 185, 440, 248
-0.978137, 361, 177, 392, 240
-0.978157, 273, 113, 304, 176
-0.978179, 201, 1, 264, 64
-0.978192, 369, 49, 496, 176
-0.978204, 297, 225, 360, 288
-0.978221, 89, 73, 152, 136
-0.978545, 41, 97, 104, 352
-0.978582, 349, 153, 380, 216
-0.978734, 273, 153, 400, 216
-0.978831, 277, 129, 308, 256
-0.978988, 353, 297, 480, 360
-0.97907, 393, 49, 456, 176
-0.979085, 113, 225, 240, 288
-0.979115, 1, 145, 32, 272
-0.979193, 201, 185, 264, 248
-0.979225, 329, 209, 392, 272
-0.979236, 233, 81, 296, 144
-0.979249, 425, 169, 488, 232
-0.979256, 241, 161, 304, 224
-0.979324, 97, 153, 160, 216
-0.979352, 309, 49, 340, 176
-0.979407, 385, 1, 416, 64
-0.979446, 153, 201, 184, 264
-0.979496, 165, 41, 196, 104
-0.979522, 185, 81, 248, 208
-0.979566, 373, 169, 404, 232
-0.979574, 289, 297, 416, 360
-0.979581, 345, 25, 408, 88
-0.979603, 321, 129, 352, 256
-0.979616, 161, 137, 192, 200
-0.979669, 153, 1, 216, 371
-0.979751, 373, 161, 404, 288
-0.979829, 177, 129, 240, 371
-0.979917, 341, 17, 372, 144
-0.979987, 133, 209, 164, 272
-0.979988, 273, 81, 304, 208
-0.980046, 201, 25, 264, 88
-0.980139, 129, 137, 256, 200
-0.980202, 437, 1, 468, 128
-0.980262, 333, 129, 364, 192
-0.980353, 409, 1, 440, 128
-0.98037, 317, 225, 348, 352
-0.980372, 297, 129, 328, 192
-0.980476, 161, 161, 192, 224
-0.980489, 65, 153, 192, 216
-0.980499, 61, 113, 92, 240
-0.980501, 329, 1, 392, 371
-0.980529, 145, 177, 176, 304
-0.98056, 241, 257, 304, 320
-0.980588, 241, 281, 304, 344
-0.980601, 13, 113, 44, 240
-0.980666, 461, 1, 492, 128
-0.980724, 393, 297, 456, 360
-0.98076, 285, 137, 316, 200
-0.980771, 65, 201, 192, 264
-0.980791, 317, 129, 348, 192
-0.980906, 177, 193, 240, 256
-0.98096, 129, 1, 192, 371
-0.98097, 149, 49, 180, 112
-0.980973, 161, 33, 288, 96
-0.980997, 225, 81, 352, 144
-0.981021, 433, 233, 496, 296
-0.981259, 333, 81, 364, 208
-0.98129, 369, 9, 496, 72
-0.981324, 41, 161, 104, 224
-0.981382, 353, 217, 416, 280
-0.981442, 425, 177, 488, 304
-0.981445, 273, 161, 336, 224
-0.981475, 281, 193, 312, 320
-0.981509, 361, 305, 424, 368
-0.981513, 193, 145, 256, 208
-0.981513, 325, 81, 356, 144
-0.981536, 145, 201, 272, 264
-0.981645, 57, 105, 120, 168
-0.981649, 401, 9, 432, 72
-0.981665, 1, 233, 128, 296
-0.981694, 353, 129, 480, 192
-0.981701, 389, 1, 420, 128
-0.981752, 309, 81, 340, 144
-0.981804, 193, 9, 320, 72
-0.981886, 113, 33, 176, 96
-0.981988, 289, 201, 416, 264
-0.98202, 285, 1, 316, 128
-0.982021, 161, 65, 224, 192
-0.982054, 165, 145, 196, 272
-0.982058, 365, 89, 396, 152
-0.982104, 353, 233, 480, 296
-0.982105, 437, 193, 468, 256
-0.982156, 177, 49, 240, 112
-0.982177, 241, 105, 272, 168
-0.982234, 21, 193, 52, 320
-0.982275, 305, 177, 368, 240
-0.982283, 289, 233, 416, 296
-0.982311, 317, 233, 348, 296
-0.98236, 209, 273, 336, 336
-0.982363, 97, 1, 160, 371
-0.982495, 385, 89, 448, 152
-0.982561, 57, 273, 120, 336
-0.982588, 225, 193, 288, 256
-0.98259, 413, 9, 444, 72
-0.982643, 445, 273, 476, 336
-0.982646, 181, 129, 212, 192
-0.982673, 425, 209, 488, 272
-0.982717, 193, 1, 256, 371
-0.982719, 105, 257, 168, 320
-0.982768, 449, 1, 480, 64
-0.982849, 45, 169, 76, 232
-0.982853, 373, 297, 404, 360
-0.982853, 45, 161, 76, 288
-0.982861, 357, 17, 388, 144
-0.982884, 365, 65, 396, 192
-0.9829, 125, 33, 156, 160
-0.982939, 65, 105, 192, 168
-0.983043, 345, 145, 376, 272
-0.983052, 209, 249, 336, 312
-0.983083, 145, 65, 208, 128
-0.983145, 113, 233, 176, 296
-0.983161, 133, 193, 164, 320
-0.983185, 293, 81, 324, 144
-0.983204, 301, 145, 332, 272
-0.983231, 153, 129, 184, 256
-0.983263, 337, 241, 368, 304
-0.983272, 365, 17, 396, 80
-0.983355, 217, 129, 280, 371
-0.983378, 1, 1, 256, 128
-0.98342, 177, 225, 208, 352
-0.983445, 257, 1, 320, 371
-0.983464, 361, 1, 424, 371
-0.983587, 25, 265, 88, 328
-0.983608, 269, 209, 300, 336
-0.983702, 105, 129, 168, 371
-0.983716, 273, 9, 400, 72
-0.98382, 25, 169, 56, 232
-0.983826, 441, 241, 472, 368
-0.983849, 389, 169, 420, 232
-0.98385, 425, 1, 456, 128
-0.98387, 429, 9, 460, 72
-0.983911, 337, 81, 368, 144
-0.983976, 5, 225, 36, 352
-0.983976, 181, 33, 212, 96
-0.983981, 261, 81, 292, 208
-0.984003, 145, 137, 176, 200
-0.984051, 57, 249, 120, 312
-0.984088, 1, 193, 128, 256
-0.984127, 149, 49, 180, 176
-0.984131, 429, 169, 460, 232
-0.984136, 401, 113, 432, 240
-0.984141, 381, 273, 412, 336
-0.984148, 129, 177, 256, 240
-0.984158, 33, 65, 96, 192
-0.984184, 177, 73, 240, 136
-0.984191, 33, 193, 64, 320
-0.984225, 385, 225, 416, 352
-0.98423, 433, 145, 496, 208
-0.98423, 281, 297, 344, 360
-0.984249, 301, 225, 332, 288
-0.98427, 49, 201, 112, 264
-0.984282, 469, 1, 500, 64
-0.984356, 209, 89, 272, 152
-0.984371, 333, 129, 364, 256
-0.984378, 5, 145, 36, 208
-0.984417, 193, 145, 320, 208
-0.98444, 177, 249, 240, 312
-0.984508, 177, 281, 240, 344
-0.984527, 357, 241, 388, 368
-0.984533, 337, 281, 368, 344
-0.984595, 173, 17, 204, 144
-0.984602, 449, 1, 480, 128
-0.984641, 377, 209, 440, 272
-0.984657, 289, 177, 416, 240
-0.984677, 105, 185, 168, 248
-0.984685, 189, 209, 220, 336
-0.984722, 1, 169, 128, 232
-0.984736, 353, 201, 480, 264
-0.984743, 353, 105, 480, 168
-0.984877, 429, 177, 460, 304
-0.984928, 161, 113, 224, 176
-0.984929, 1, 273, 64, 336
-0.98499, 65, 241, 192, 304
-0.984995, 241, 209, 272, 336
-0.985021, 433, 113, 496, 240
-0.985025, 257, 209, 288, 336
-0.985094, 137, 161, 168, 224
-0.985096, 289, 225, 320, 288
-0.985112, 217, 1, 280, 371
-0.985114, 233, 33, 264, 160
-0.985116, 237, 81, 268, 208
-0.985127, 133, 129, 164, 256
-0.985161, 21, 193, 52, 256
-0.985238, 317, 177, 348, 304
-0.98525, 137, 185, 168, 248
-0.985262, 57, 161, 88, 288
-0.985345, 277, 81, 308, 144
-0.985373, 73, 97, 104, 224
-0.985449, 177, 97, 304, 160
-0.985454, 345, 25, 376, 88
-0.985491, 281, 201, 344, 264
-0.985503, 349, 177, 380, 240
-0.985572, 321, 81, 448, 144
-0.985614, 257, 161, 288, 288
-0.985735, 209, 201, 336, 264
-0.985754, 137, 281, 200, 344
-0.985787, 109, 81, 140, 208
-0.985813, 65, 177, 192, 240
-0.985821, 57, 33, 120, 160
-0.985933, 81, 129, 208, 192
-0.985943, 237, 217, 268, 280
-0.985946, 217, 289, 280, 352
-0.985965, 401, 177, 432, 304
-0.986084, 257, 1, 288, 128
-0.986096, 1, 265, 128, 328
-0.986108, 13, 169, 44, 232
-0.986118, 301, 265, 332, 328
-0.986131, 245, 129, 276, 192
-0.986187, 201, 33, 232, 96
-0.986197, 73, 153, 136, 216
-0.986228, 349, 281, 380, 344
-0.986229, 97, 81, 128, 208
-0.986266, 229, 209, 260, 336
-0.986296, 337, 241, 368, 368
-0.986303, 113, 65, 240, 128
-0.986341, 385, 1, 448, 371
-0.986369, 437, 217, 468, 280
-0.986393, 297, 49, 328, 176
-0.98642, 353, 81, 384, 144
-0.986476, 245, 161, 276, 288
-0.986505, 225, 33, 352, 96
-0.986535, 157, 193, 188, 320
-0.986563, 137, 49, 168, 176
-0.986589, 93, 225, 124, 352
-0.986622, 193, 121, 224, 184
-0.986629, 193, 113, 224, 240
-0.986643, 81, 225, 112, 352
-0.986673, 257, 89, 288, 152
-0.986721, 325, 281, 356, 344
-0.986728, 161, 225, 288, 288
-0.986788, 321, 201, 352, 264
-0.986817, 281, 9, 312, 72
-0.986817, 225, 25, 256, 88
-0.986821, 349, 201, 380, 264
-0.986821, 181, 161, 212, 288
-0.986893, 417, 185, 448, 248
-0.986896, 241, 177, 368, 240
-0.986927, 469, 289, 500, 352
-0.986942, 109, 225, 140, 352
-0.986962, 413, 145, 444, 272
-0.986977, 273, 233, 304, 296
-0.986986, 85, 97, 116, 224
-0.987016, 217, 49, 248, 176
-0.987049, 457, 273, 488, 336
-0.987084, 265, 153, 296, 216
-0.987109, 333, 17, 364, 80
-0.987157, 401, 225, 432, 352
-0.987182, 277, 273, 308, 336
-0.987209, 241, 297, 368, 360
-0.987219, 249, 17, 280, 80
-0.987223, 49, 225, 80, 352
-0.987225, 173, 225, 204, 288
-0.98723, 249, 225, 280, 288
-0.987254, 153, 225, 184, 288
-0.987283, 237, 25, 268, 88
-0.9873, 313, 289, 344, 352
-0.987316, 113, 89, 240, 152
-0.987355, 361, 273, 392, 336
-0.987385, 1, 137, 128, 200
-0.987399, 217, 209, 248, 336
-0.987415, 417, 161, 448, 224
-0.987432, 17, 129, 48, 192
-0.987463, 201, 209, 232, 336
-0.987477, 377, 65, 408, 192
-0.987534, 261, 225, 292, 288
-0.987542, 413, 225, 444, 352
-0.987581, 49, 273, 176, 336
-0.987589, 205, 33, 236, 160
-0.98762, 313, 105, 376, 136
-0.987654, 57, 233, 88, 296
-0.987684, 129, 113, 256, 176
-0.987733, 369, 153, 496, 216
-0.987735, 225, 217, 256, 280
-0.987753, 397, 113, 428, 176
-0.987865, 33, 81, 160, 144
-0.987879, 273, 105, 336, 136
-0.987892, 69, 193, 100, 320
-0.987896, 73, 225, 104, 288
-0.987898, 1, 233, 32, 296
-0.987932, 221, 49, 252, 112
-0.987948, 457, 305, 488, 368
-0.987954, 161, 249, 288, 312
-0.98801, 225, 113, 256, 176
-0.988034, 305, 1, 336, 128
-0.988058, 121, 233, 152, 296
-0.988099, 133, 41, 164, 104
-0.988103, 1, 97, 32, 224
-0.988136, 145, 225, 176, 352
-0.988146, 161, 33, 192, 160
-0.988164, 425, 1, 488, 256
-0.988176, 173, 161, 204, 224
-0.988191, 281, 241, 312, 368
-0.9882, 453, 241, 484, 368
-0.988225, 353, 157, 416, 188
-0.988264, 17, 241, 48, 368
-0.988276, 205, 121, 236, 184
-0.988315, 385, 241, 416, 304
-0.988346, 57, 161, 88, 224
-0.988386, 437, 249, 468, 312
-0.988398, 165, 201, 196, 264
-0.988398, 305, 201, 336, 264
-0.988431, 441, 177, 472, 304
-0.988443, 289, 273, 320, 336
-0.98845, 205, 129, 236, 256
-0.988492, 249, 113, 280, 240
-0.988496, 317, 1, 348, 128
-0.988536, 353, 109, 416, 140
-0.988551, 41, 233, 72, 296
-0.988563, 29, 241, 60, 368
-0.988576, 121, 113, 152, 240
-0.988588, 125, 185, 156, 248
-0.988607, 1, 169, 32, 232
-0.988754, 233, 113, 296, 144
-0.988779, 193, 137, 448, 200
-0.988815, 193, 161, 224, 288
-0.988845, 305, 33, 432, 96
-0.988847, 65, 49, 192, 112
-0.988857, 73, 1, 136, 371
-0.988873, 337, 193, 368, 320
-0.988899, 193, 113, 448, 176
-0.98892, 397, 273, 428, 336
-0.988941, 281, 117, 344, 148
-0.988948, 121, 225, 152, 352
-0.98896, 41, 1, 104, 256
-0.989021, 145, 9, 272, 72
-0.989029, 49, 1, 176, 128
-0.989075, 1, 97, 500, 160
-0.989075, 29, 121, 60, 184
-0.989119, 189, 17, 220, 144
-0.989161, 337, 97, 400, 128
-0.989171, 345, 169, 408, 200
-0.989226, 221, 1, 252, 64
-0.989242, 129, 281, 256, 344
-0.989252, 185, 225, 216, 288
-0.989269, 21, 241, 52, 304
-0.9893, 313, 129, 376, 160
-0.989301, 237, 65, 268, 128
-0.989305, 45, 113, 76, 176
-0.989334, 133, 137, 164, 200
-0.989342, 369, 145, 432, 176
-0.989372, 273, 57, 400, 120
-0.989435, 337, 297, 400, 328
-0.98944, 313, 117, 376, 148
-0.989477, 405, 249, 436, 312
-0.989527, 305, 277, 368, 308
-0.989563, 345, 141, 408, 172
-0.989567, 369, 81, 496, 144
-0.98957, 289, 93, 352, 124
-0.98957, 345, 121, 408, 152
-0.989603, 273, 33, 304, 160
-0.989672, 289, 141, 352, 172
-0.98974, 437, 305, 468, 368
-0.989768, 185, 125, 248, 156
-0.989772, 177, 73, 304, 136
-0.98978, 41, 1, 104, 371
-0.989817, 177, 113, 208, 240
-0.989836, 225, 57, 352, 120
-0.98989, 373, 209, 404, 336
-0.989899, 229, 161, 260, 288
-0.989949, 257, 125, 320, 156
-0.989962, 313, 141, 376, 172
-0.990005, 153, 229, 216, 260
-0.990068, 273, 229, 336, 260
-0.99008, 369, 177, 432, 208
-0.990081, 433, 9, 496, 40
-0.990085, 289, 129, 352, 160
-0.990117, 273, 281, 336, 312
-0.990128, 209, 117, 272, 148
-0.990132, 157, 241, 188, 368
-0.990142, 385, 157, 448, 188
-0.990167, 361, 17, 424, 48
-0.990185, 393, 169, 456, 200
-0.990195, 113, 249, 240, 312
-0.99022, 345, 181, 408, 212
-0.990229, 385, 13, 448, 44
-0.990263, 9, 173, 72, 204
-0.99027, 257, 137, 320, 168
-0.990287, 265, 149, 328, 180
-0.990309, 425, 225, 456, 352
-0.990325, 169, 33, 232, 64
-0.990342, 321, 157, 384, 188
-0.990385, 129, 173, 192, 204
-0.990489, 153, 161, 216, 192
-0.990494, 313, 93, 376, 124
-0.990512, 361, 305, 424, 336
-0.990555, 249, 101, 312, 132
-0.990583, 321, 177, 384, 208
-0.990588, 129, 141, 192, 172
-0.9906, 169, 137, 232, 168
-0.990646, 129, 225, 192, 256
-0.990652, 145, 185, 208, 216
-0.990659, 245, 1, 276, 128
-0.990663, 297, 25, 360, 56
-0.990672, 321, 25, 384, 56
-0.990698, 217, 1, 248, 128
-0.990717, 33, 237, 96, 268
-0.99073, 153, 173, 216, 204
-0.990743, 113, 33, 144, 160
-0.990768, 233, 125, 296, 156
-0.990781, 377, 289, 440, 320
-0.99079, 257, 217, 320, 248
-0.990794, 289, 265, 352, 296
-0.990797, 369, 133, 432, 164
-0.990807, 225, 225, 288, 256
-0.990833, 57, 237, 120, 268
-0.990839, 249, 65, 280, 192
-0.990843, 1, 65, 64, 192
-0.990882, 105, 225, 168, 256
-0.990899, 369, 189, 432, 220
-0.990925, 73, 1, 136, 256
-0.990943, 9, 1, 72, 371
-0.990972, 89, 237, 152, 268
-0.99099, 209, 129, 272, 160
-0.991025, 97, 153, 160, 184
-0.991038, 121, 49, 184, 80
-0.991089, 41, 169, 104, 200
-0.991096, 409, 241, 472, 272
-0.991099, 337, 309, 400, 340
-0.991114, 121, 185, 184, 216
-0.991132, 409, 205, 472, 236
-0.991149, 329, 285, 392, 316
-0.991155, 369, 121, 432, 152
-0.991163, 185, 225, 248, 256
-0.991189, 321, 265, 384, 296
-0.991223, 401, 181, 464, 212
-0.991228, 313, 233, 376, 264
-0.991284, 17, 197, 80, 228
-0.991293, 337, 241, 400, 272
-0.991294, 249, 161, 312, 192
-0.99131, 41, 117, 104, 148
-0.991319, 385, 241, 448, 272
-0.991338, 129, 197, 192, 228
-0.991352, 145, 213, 208, 244
-0.991364, 345, 193, 408, 224
-0.991374, 401, 193, 464, 224
-0.991397, 81, 109, 144, 140
-0.991413, 321, 189, 384, 220
-0.991418, 361, 233, 424, 264
-0.991427, 89, 85, 152, 116
-0.991427, 345, 253, 408, 284
-0.99143, 9, 273, 72, 304
-0.991445, 329, 213, 392, 244
-0.991449, 377, 105, 440, 136
-0.99145, 305, 301, 368, 332
-0.991476, 233, 49, 296, 80
-0.991477, 409, 17, 472, 48
-0.991483, 121, 213, 184, 244
-0.991484, 249, 229, 312, 260
-0.991485, 361, 5, 424, 36
-0.991525, 249, 13, 312, 44
-0.991526, 297, 221, 360, 252
-0.99153, 305, 289, 368, 320
-0.991539, 393, 145, 456, 176
-0.991541, 225, 141, 288, 172
-0.991547, 145, 57, 208, 88
-0.991554, 81, 97, 144, 128
-0.991555, 89, 177, 120, 304
-0.991564, 273, 29, 336, 60
-0.991568, 113, 237, 176, 268
-0.991587, 425, 321, 488, 352
-0.9916, 121, 69, 184, 100
-0.991614, 57, 157, 120, 188
-0.991618, 193, 245, 256, 276
-0.991618, 49, 225, 112, 256
-0.99162, 249, 73, 312, 104
-0.991638, 201, 61, 264, 92
-0.991638, 113, 177, 144, 304
-0.991649, 225, 113, 256, 240
-0.991663, 25, 185, 88, 216
-0.991671, 425, 129, 488, 371
-0.991676, 401, 269, 464, 300
-0.991678, 193, 169, 320, 232
-0.991678, 313, 201, 376, 232
-0.991684, 209, 25, 272, 56
-0.991687, 193, 141, 256, 172
-0.9917, 9, 221, 72, 252
-0.99171, 225, 101, 288, 132
-0.991733, 273, 17, 336, 48
-0.991734, 425, 169, 488, 200
-0.991739, 289, 153, 352, 184
-0.99174, 401, 317, 464, 348
-0.991752, 377, 253, 440, 284
-0.991782, 409, 253, 472, 284
-0.991787, 385, 1, 448, 32
-0.991791, 401, 229, 464, 260
-0.991794, 73, 225, 136, 256
-0.991836, 413, 97, 444, 224
-0.991871, 65, 81, 320, 144
-0.991952, 365, 149, 396, 180
-0.991981, 373, 165, 404, 196
-0.991984, 273, 109, 400, 140
-0.992065, 217, 161, 248, 288
-0.99217, 317, 105, 348, 136
-0.992216, 333, 105, 364, 136
-0.992228, 177, 297, 304, 360
-0.992244, 1, 105, 256, 168
-0.992246, 305, 113, 336, 144
-0.99225, 353, 105, 384, 136
-0.992265, 149, 177, 180, 208
-0.992293, 345, 117, 376, 148
-0.992294, 365, 177, 396, 208
-0.992302, 321, 125, 352, 156
-0.992334, 97, 121, 352, 184
-0.992346, 377, 153, 408, 184
-0.992357, 389, 49, 420, 176
-0.992393, 257, 117, 288, 148
-0.992409, 97, 145, 352, 208
-0.992423, 309, 125, 340, 156
-0.992425, 357, 165, 388, 196
-0.992426, 297, 101, 328, 132
-0.992446, 393, 145, 424, 176
-0.99245, 393, 157, 424, 188
-0.992493, 161, 89, 416, 152
-0.992494, 365, 109, 396, 140
-0.992525, 49, 169, 80, 200
-0.992527, 369, 137, 400, 168
-0.992531, 353, 177, 384, 208
-0.992535, 321, 277, 352, 308
-0.992551, 273, 117, 304, 148
-0.992553, 381, 141, 412, 172
-0.992553, 285, 121, 316, 152
-0.992556, 333, 93, 364, 124
-0.992559, 193, 1, 448, 64
-0.992568, 361, 297, 392, 328
-0.992569, 1, 137, 500, 200
-0.992576, 373, 301, 404, 332
-0.99259, 353, 153, 384, 184
-0.992592, 345, 129, 376, 160
-0.992595, 245, 109, 276, 140
-0.9926, 225, 109, 352, 140
-0.992603, 333, 129, 364, 160
-0.992604, 393, 169, 424, 200
-0.99261, 377, 105, 408, 136
-0.992624, 361, 189, 392, 220
-0.992629, 285, 145, 316, 176
-0.992649, 81, 9, 208, 72
-0.992653, 353, 141, 384, 172
-0.99267, 357, 129, 388, 160
-0.992682, 257, 105, 288, 136
-0.99269, 377, 177, 408, 208
-0.992697, 289, 229, 320, 260
-0.992706, 389, 117, 420, 148
-0.99271, 73, 145, 104, 272
-0.992711, 437, 197, 468, 228
-0.992714, 277, 105, 308, 136
-0.992715, 313, 93, 344, 124
-0.99272, 413, 13, 444, 44
-0.992731, 365, 97, 396, 128
-0.992736, 149, 165, 180, 196
-0.992738, 333, 117, 364, 148
-0.992738, 305, 137, 336, 168
-0.992741, 141, 189, 172, 220
-0.992748, 1, 233, 500, 296
-0.992749, 273, 97, 400, 128
-0.992763, 257, 89, 500, 152
-0.992768, 297, 125, 328, 156
-0.99277, 277, 133, 308, 164
-0.992776, 245, 225, 276, 256
-0.992776, 193, 129, 224, 160
-0.992788, 145, 201, 176, 232
-0.992795, 345, 293, 376, 324
-0.992818, 97, 225, 352, 288
-0.992826, 61, 165, 92, 196
-0.992829, 369, 17, 400, 48
-0.992831, 181, 229, 212, 260
-0.992833, 345, 165, 376, 196
-0.992833, 161, 177, 192, 208
-0.992836, 261, 229, 292, 260
-0.992841, 321, 265, 352, 296
-0.992842, 213, 125, 244, 156
-0.992844, 225, 273, 480, 336
-0.992844, 153, 237, 184, 268
-0.992845, 301, 229, 332, 260
-0.992851, 425, 209, 456, 240
-0.992855, 369, 125, 400, 156
-0.992855, 421, 193, 452, 224
-0.992862, 345, 93, 376, 124
-0.992866, 337, 25, 368, 56
-0.992877, 401, 17, 432, 48
-0.992882, 157, 193, 188, 224
-0.992884, 137, 173, 168, 204
-0.992885, 257, 193, 500, 256
-0.992888, 285, 217, 316, 248
-0.992893, 373, 189, 404, 220
-0.992896, 297, 105, 312, 168
-0.9929, 181, 133, 212, 164
-0.992901, 133, 221, 164, 252
-0.99291, 149, 53, 180, 84
-0.992912, 233, 113, 264, 144
-0.992919, 389, 5, 420, 36
-0.992922, 265, 153, 296, 184
-0.99293, 233, 225, 264, 256
-0.992931, 1, 169, 256, 232
-0.992931, 157, 221, 188, 252
-0.992933, 341, 141, 372, 172
-0.992939, 469, 5, 500, 36
-0.992939, 349, 209, 380, 240
-0.99295, 169, 229, 200, 260
-0.992952, 305, 133, 432, 164
-0.992955, 433, 9, 464, 40
-0.992957, 161, 165, 192, 196
-0.992959, 365, 313, 396, 344
-0.992965, 325, 141, 356, 172
-0.992967, 29, 173, 60, 204
-0.992971, 333, 285, 364, 316
-0.992971, 389, 105, 420, 136
-0.992972, 429, 177, 460, 208
-0.992976, 337, 153, 368, 184
-0.992978, 41, 237, 72, 268
-0.99298, 13, 177, 44, 208
-0.99298, 145, 213, 176, 244
-0.99299, 301, 217, 332, 248
-0.992997, 297, 149, 328, 180
-0.992998, 389, 181, 420, 212
-0.992999, 385, 289, 416, 320
-0.993, 301, 89, 332, 120
-0.993008, 373, 289, 404, 320
-0.993013, 257, 129, 288, 160
-0.993013, 21, 197, 52, 228
-0.993014, 53, 233, 84, 264
-0.993014, 405, 149, 436, 180
-0.993025, 25, 129, 56, 160
-0.993026, 381, 129, 412, 160
-0.993028, 93, 237, 124, 268
-0.993032, 321, 237, 352, 268
-0.993046, 1, 269, 32, 300
-0.993047, 173, 33, 204, 64
-0.99305, 237, 125, 268, 156
-0.99305, 445, 9, 476, 40
-0.993054, 73, 237, 104, 268
-0.993054, 133, 201, 164, 232
-0.993057, 333, 265, 364, 296
-0.993059, 385, 17, 416, 48
-0.99306, 409, 189, 440, 220
-0.993063, 161, 41, 192, 72
-0.993074, 45, 181, 76, 212
-0.993085, 129, 189, 160, 220
-0.993093, 361, 285, 392, 316
-0.993094, 281, 157, 312, 188
-0.993108, 41, 121, 72, 152
-0.993109, 97, 41, 352, 104
-0.99318, 17, 297, 144, 360
-0.993195, 363, 153, 378, 216
-0.993263, 347, 105, 362, 168
-0.993266, 1, 161, 500, 224
-0.993308, 1, 73, 500, 136
-0.993373, 137, 1, 168, 128
-0.993396, 257, 121, 384, 152
-0.9934, 1, 225, 256, 288
-0.993498, 371, 137, 386, 200
-0.993514, 425, 129, 456, 256
-0.993528, 357, 105, 372, 168
-0.993546, 417, 1, 480, 371
-0.993596, 273, 149, 400, 180
-0.993603, 311, 105, 326, 168
-0.993613, 379, 137, 394, 200
-0.993619, 337, 57, 464, 120
-0.99364, 365, 129, 380, 192
-0.993715, 385, 145, 400, 208
-0.993801, 375, 161, 390, 224
-0.993825, 129, 257, 384, 320
-0.99396, 321, 97, 336, 160
-0.994, 337, 189, 464, 220
-0.994001, 305, 121, 432, 152
-0.994011, 321, 101, 448, 132
-0.994035, 337, 149, 464, 180
-0.994048, 381, 113, 396, 176
-0.994088, 209, 229, 336, 260
-0.994109, 341, 105, 356, 168
-0.994146, 193, 161, 448, 224
-0.994183, 369, 33, 496, 96
-0.994244, 193, 121, 320, 152
-0.994263, 1, 137, 256, 200
-0.994377, 225, 97, 352, 128
-0.994405, 329, 105, 344, 168
-0.994409, 113, 141, 240, 172
-0.994481, 155, 185, 170, 248
-0.994489, 161, 65, 416, 128
-0.994557, 335, 97, 350, 160
-0.994613, 303, 121, 318, 184
-0.994616, 371, 297, 386, 360
-0.99462, 1, 257, 500, 320
-0.994621, 273, 169, 400, 200
-0.994666, 17, 57, 144, 120
-0.994667, 129, 281, 384, 344
-0.994672, 365, 185, 380, 248
-0.994698, 257, 25, 500, 88
-0.994698, 167, 161, 182, 224
-0.994707, 391, 153, 406, 216
-0.994762, 257, 217, 500, 280
-0.994769, 391, 1, 406, 64
-0.994777, 341, 1, 372, 256
-0.994788, 33, 25, 160, 88
-0.994794, 371, 113, 386, 176
-0.994802, 257, 285, 384, 316
-0.994807, 337, 273, 352, 336
-0.994829, 193, 141, 320, 172
-0.994861, 323, 121, 338, 184
-0.994908, 33, 273, 288, 336
-0.994937, 337, 161, 464, 192
-0.994939, 97, 169, 352, 232
-0.994968, 303, 97, 318, 160
-0.994974, 257, 241, 500, 304
-0.99498, 147, 169, 162, 232
-0.994985, 297, 129, 312, 192
-0.995003, 357, 1, 388, 256
-0.99501, 1, 41, 500, 104
-0.995022, 97, 201, 352, 264
-0.995078, 391, 97, 406, 160
-0.995079, 389, 121, 404, 184
-0.995114, 321, 1, 352, 256
-0.995116, 443, 169, 458, 232
-0.995159, 403, 113, 418, 176
-0.995172, 1, 193, 256, 256
-0.995186, 291, 113, 306, 176
-0.995189, 289, 297, 416, 328
-0.995208, 347, 129, 362, 192
-0.995209, 161, 201, 176, 264
-0.99523, 475, 1, 490, 64
-0.995255, 97, 17, 352, 80
-0.99527, 397, 113, 412, 176
-0.995291, 397, 1, 412, 64
-0.995295, 149, 193, 164, 256
-0.995298, 49, 169, 176, 200
-0.995299, 317, 121, 332, 184
-0.995338, 309, 81, 324, 144
-0.995366, 241, 133, 368, 164
-0.995383, 165, 137, 180, 200
-0.995393, 353, 13, 480, 44
-0.995394, 285, 105, 300, 168
-0.995396, 17, 1, 80, 256
-0.995399, 145, 233, 272, 264
-0.995404, 145, 129, 272, 160
-0.995407, 297, 97, 328, 352
-0.995411, 417, 49, 480, 176
-0.995414, 397, 137, 412, 200
-0.995434, 157, 161, 172, 224
-0.995443, 261, 113, 276, 176
-0.995457, 321, 173, 448, 204
-0.995462, 373, 1, 404, 256
-0.995463, 97, 65, 224, 96
-0.995475, 33, 233, 160, 264
-0.995477, 225, 297, 480, 360
-0.995495, 355, 137, 370, 200
-0.995501, 331, 257, 346, 320
-0.995512, 337, 129, 352, 192
-0.995522, 365, 297, 380, 360
-0.99553, 175, 33, 190, 96
-0.9956, 289, 269, 416, 300
-0.995604, 377, 297, 392, 360
-0.995613, 49, 157, 176, 188
-0.995617, 353, 121, 480, 152
-0.995617, 273, 185, 400, 216
-0.995631, 389, 177, 404, 240
-0.995709, 455, 1, 470, 64
-0.995713, 309, 1, 340, 256
-0.995768, 129, 305, 256, 368
-0.995781, 393, 129, 424, 371
-0.995798, 291, 145, 306, 208
-0.995807, 173, 137, 188, 200
-0.995811, 329, 129, 344, 192
-0.995828, 415, 9, 430, 72
-0.995834, 167, 185, 182, 248
-0.995836, 357, 161, 372, 224
-0.995836, 141, 201, 156, 264
-0.995848, 381, 169, 396, 232
-0.995858, 345, 81, 360, 144
-0.995868, 369, 161, 384, 224
-0.995923, 403, 9, 418, 72
-0.995934, 251, 105, 266, 168
-0.995938, 285, 97, 316, 352
-0.995939, 355, 81, 370, 144
-0.995944, 271, 113, 286, 176
-0.995952, 145, 37, 272, 68
-0.995963, 443, 9, 458, 72
-0.995978, 315, 225, 330, 288
-0.995994, 97, 53, 224, 84
-0.995996, 337, 201, 464, 232
-0.996, 461, 1, 476, 64
-0.996006, 363, 105, 378, 168
-0.99602, 383, 9, 398, 72
-0.996026, 187, 25, 202, 88
-0.996037, 3, 145, 18, 208
-0.996049, 193, 21, 320, 52
-0.996057, 169, 41, 184, 104
-0.996064, 261, 145, 276, 208
-0.996066, 457, 273, 472, 336
-0.996078, 337, 273, 464, 304
-0.996081, 373, 129, 404, 371
-0.996081, 303, 201, 318, 264
-0.996088, 65, 221, 192, 252
-0.996098, 31, 169, 46, 232
-0.996103, 369, 17, 384, 80
-0.996108, 359, 201, 374, 264
-0.996108, 65, 181, 192, 212
-0.996112, 33, 113, 160, 144
-0.996136, 129, 161, 256, 192
-0.996136, 369, 293, 496, 324
-0.996137, 275, 225, 290, 288
-0.99616, 389, 1, 420, 256
-0.996168, 237, 33, 252, 96
-0.996172, 143, 49, 158, 112
-0.996174, 421, 9, 436, 72
-0.996192, 177, 109, 304, 140
-0.996199, 381, 273, 396, 336
-0.996204, 469, 1, 484, 64
-0.996207, 321, 25, 448, 56
-0.996211, 309, 217, 324, 280
-0.996217, 25, 169, 40, 232
-0.996223, 345, 97, 376, 352
-0.996227, 145, 49, 272, 80
-0.996228, 289, 225, 416, 256
-0.996229, 1, 281, 500, 344
-0.996241, 347, 17, 362, 80
-0.996252, 287, 233, 302, 296
-0.996255, 429, 169, 444, 232
-0.996256, 433, 9, 448, 72
-0.996256, 173, 161, 188, 224
-0.996261, 353, 25, 368, 88
-0.996261, 337, 249, 352, 312
-0.996271, 271, 145, 286, 208
-0.996279, 289, 81, 304, 144
-0.996287, 321, 285, 448, 316
-0.996304, 181, 33, 196, 96
-0.996308, 157, 225, 172, 288
-0.996321, 281, 265, 296, 328
-0.996324, 353, 317, 480, 348
-0.996342, 1, 193, 500, 256
-0.996359, 293, 225, 308, 288
-0.996362, 439, 193, 454, 256
-0.996363, 17, 169, 32, 232
-0.99637, 289, 309, 416, 340
-0.996375, 371, 273, 386, 336
-0.996377, 467, 305, 482, 368
-0.996382, 209, 217, 336, 248
-0.996387, 339, 17, 354, 80
-0.996387, 41, 169, 56, 232
-0.996388, 45, 233, 60, 296
-0.99639, 147, 217, 162, 280
-0.996397, 437, 169, 452, 232
-0.996399, 97, 237, 224, 268
-0.996404, 353, 213, 480, 244
-0.996404, 343, 281, 358, 344
-0.996411, 315, 201, 330, 264
-0.996411, 327, 81, 342, 144
-0.996413, 301, 17, 316, 80
-0.99643, 311, 129, 326, 192
-0.99643, 193, 1, 320, 32
-0.996436, 293, 273, 308, 336
-0.996442, 325, 17, 340, 80
-0.996449, 33, 249, 288, 312
-0.996465, 279, 97, 294, 160
-0.996472, 413, 1, 444, 256
-0.996475, 179, 217, 194, 280
-0.99648, 151, 137, 166, 200
-0.996491, 353, 137, 480, 168
-0.9965, 159, 137, 174, 200
-0.996506, 231, 217, 246, 280
-0.996509, 189, 225, 204, 288
-0.996515, 383, 297, 398, 360
-0.996517, 433, 201, 448, 264
-0.996525, 65, 217, 80, 280
-0.99653, 391, 241, 406, 304
-0.996535, 225, 153, 352, 184
-0.996539, 287, 273, 302, 336
-0.996553, 257, 65, 500, 128
-0.996564, 209, 65, 336, 96
-0.996578, 337, 305, 464, 336
-0.996603, 333, 97, 364, 352
-0.996614, 1, 277, 128, 308
-0.996635, 273, 213, 400, 244
-0.996649, 113, 173, 240, 204
-0.996651, 289, 253, 416, 284
-0.996653, 379, 149, 394, 180
-0.996704, 65, 201, 192, 232
-0.996707, 1, 193, 128, 224
-0.996718, 177, 153, 304, 184
-0.996719, 365, 173, 380, 204
-0.996734, 321, 97, 352, 352
-0.996742, 209, 281, 336, 312
-0.996744, 149, 33, 180, 288
-0.996747, 387, 157, 402, 188
-0.996753, 305, 237, 432, 268
-0.996758, 285, 1, 316, 256
-0.996769, 225, 265, 352, 296
-0.996785, 161, 33, 192, 288
-0.996802, 205, 1, 236, 256
-0.996805, 353, 237, 480, 268
-0.996809, 173, 1, 204, 256
-0.996815, 297, 1, 328, 256
-0.996818, 273, 25, 400, 56
-0.996826, 357, 97, 388, 352
-0.996827, 369, 173, 496, 204
-0.996827, 321, 105, 336, 136
-0.996831, 241, 241, 368, 272
-0.99684, 363, 157, 378, 188
-0.996849, 17, 125, 144, 156
-0.996857, 1, 137, 128, 168
-0.996895, 29, 97, 60, 352
-0.996901, 233, 33, 264, 288
-0.996907, 173, 97, 204, 352
-0.996915, 1, 41, 256, 104
-0.996917, 81, 297, 208, 360
-0.996925, 145, 213, 272, 244
-0.996937, 69, 97, 100, 352
-0.996969, 381, 161, 396, 192
-0.996974, 193, 245, 320, 276
-0.996977, 309, 97, 340, 352
-0.997013, 273, 97, 304, 352
-0.99702, 1, 173, 128, 204
-0.99703, 333, 105, 348, 136
-0.997067, 375, 165, 390, 196
-0.997085, 361, 109, 376, 140
-0.997087, 401, 1, 432, 256
-0.997088, 225, 165, 352, 196
-0.997091, 337, 225, 464, 256
-0.997093, 355, 117, 370, 148
-0.997095, 273, 85, 400, 116
-0.997101, 371, 149, 386, 180
-0.997105, 89, 97, 120, 352
-0.997123, 217, 33, 248, 288
-0.997126, 241, 13, 368, 44
-0.997129, 189, 33, 220, 288
-0.997131, 305, 9, 432, 40
-0.997136, 113, 89, 240, 120
-0.997137, 41, 97, 72, 352
-0.997139, 327, 109, 342, 140
-0.997157, 321, 125, 336, 156
-0.997165, 375, 137, 390, 168
-0.997169, 339, 109, 354, 140
-0.99719, 311, 117, 326, 148
-0.997206, 347, 109, 362, 140
-0.997214, 345, 97, 360, 128
-0.997219, 65, 101, 192, 132
-0.997233, 375, 297, 390, 328
-0.997247, 347, 125, 362, 156
-0.99726, 167, 173, 182, 204
-0.997271, 1, 305, 500, 368
-0.997278, 355, 97, 370, 128
-0.99728, 145, 245, 272, 276
-0.997303, 257, 49, 384, 80
-0.997307, 193, 53, 320, 84
-0.997324, 129, 185, 256, 216
-0.997328, 337, 129, 352, 160
-0.997333, 365, 189, 380, 220
-0.997335, 339, 97, 354, 128
-0.997356, 57, 97, 88, 352
-0.997358, 59, 169, 74, 200
-0.997369, 225, 85, 352, 116
-0.997372, 13, 97, 44, 352
-0.997381, 113, 77, 240, 108
-0.997386, 371, 177, 386, 208
-0.997393, 241, 297, 368, 328
-0.997407, 261, 109, 276, 140
-0.997408, 257, 37, 384, 68
-0.997409, 405, 129, 436, 371
-0.99741, 147, 173, 162, 204
-0.997421, 369, 105, 496, 136
-0.997422, 357, 169, 372, 200
-0.997428, 1, 221, 128, 252
-0.997432, 121, 33, 152, 288
-0.997433, 289, 197, 416, 228
-0.997455, 1, 97, 32, 352
-0.997457, 1, 265, 128, 296
-0.99746, 133, 33, 164, 288
-0.997461, 1, 17, 500, 80
-0.997467, 369, 137, 384, 168
-0.997468, 161, 173, 176, 204
-0.997472, 305, 325, 432, 356
-0.997476, 145, 61, 272, 92
-0.997478, 321, 89, 448, 120
-0.997482, 385, 145, 400, 176
-0.997493, 389, 181, 404, 212
-0.997496, 381, 177, 396, 208
-0.997515, 389, 169, 404, 200
-0.997518, 301, 145, 316, 176
-0.997524, 49, 273, 176, 304
-0.997531, 357, 141, 372, 172
-0.997536, 397, 149, 412, 180
-0.997543, 399, 113, 414, 144
-0.997558, 381, 301, 396, 332
-0.99756, 389, 105, 404, 136
-0.997565, 209, 33, 336, 64
-0.997573, 307, 97, 322, 128
-0.997579, 33, 89, 160, 120
-0.997589, 327, 125, 342, 156
-0.99759, 253, 33, 284, 288
-0.997603, 361, 97, 376, 128
-0.997604, 315, 105, 330, 136
-0.997605, 65, 145, 192, 176
-0.997609, 353, 257, 480, 288
-0.997614, 333, 93, 348, 124
-0.997627, 367, 105, 382, 136
-0.997638, 193, 129, 224, 371
-0.997644, 101, 97, 132, 352
-0.997652, 327, 97, 342, 128
-0.997652, 275, 109, 290, 140
-0.997653, 347, 137, 362, 168
-0.997655, 371, 125, 386, 156
-0.997668, 1, 205, 128, 236
-0.997683, 443, 189, 458, 220
-0.997687, 97, 41, 224, 72
-0.997688, 317, 93, 332, 124
-0.997694, 151, 185, 166, 216
-0.997705, 97, 129, 224, 160
-0.997713, 369, 93, 496, 124
-0.997722, 381, 129, 396, 160
-0.997722, 129, 305, 384, 368
-0.997735, 165, 197, 180, 228
-0.997736, 113, 109, 240, 140
-0.997739, 403, 125, 418, 156
-0.997745, 49, 73, 176, 104
-0.997755, 351, 153, 366, 184
-0.997763, 315, 229, 330, 260
-0.99777, 439, 177, 454, 208
-0.997777, 297, 105, 312, 136
-0.997777, 405, 145, 420, 176
-0.997778, 167, 161, 182, 192
-0.997778, 397, 5, 412, 36
-0.99778, 33, 245, 160, 276
-0.99778, 365, 125, 380, 156
-0.997783, 193, 177, 320, 208
-0.997783, 1, 149, 128, 180
-0.997787, 367, 293, 382, 324
-0.997804, 311, 129, 326, 160
-0.997811, 339, 141, 354, 172
-0.997813, 277, 229, 292, 260
-0.997824, 371, 189, 386, 220
-0.997824, 153, 129, 184, 371
-0.997826, 431, 201, 446, 232
-0.997828, 289, 137, 304, 168
-0.997828, 379, 109, 394, 140
-0.997832, 331, 265, 346, 296
-0.997833, 129, 201, 256, 232
-0.997834, 281, 105, 296, 136
-0.997835, 391, 141, 406, 172
-0.997835, 51, 169, 66, 200
-0.997837, 241, 313, 368, 344
-0.997843, 287, 217, 302, 248
-0.997847, 373, 313, 388, 344
-0.997847, 153, 169, 168, 200
-0.997849, 145, 189, 160, 220
-0.99785, 297, 121, 312, 152
-0.997851, 309, 225, 324, 256
-0.99786, 423, 13, 438, 44
-0.997866, 157, 201, 172, 232
-0.997873, 65, 225, 80, 256
-0.997878, 455, 9, 470, 40
-0.99788, 205, 129, 236, 371
-0.997883, 439, 201, 454, 232
-0.997887, 155, 233, 170, 264
-0.997891, 173, 173, 188, 204
-0.997894, 391, 5, 406, 36
-0.997895, 397, 169, 412, 200
-0.997902, 165, 213, 180, 244
-0.997904, 147, 221, 162, 252
-0.997905, 157, 189, 172, 220
-0.997905, 357, 157, 372, 188
-0.997912, 145, 25, 272, 56
-0.997918, 143, 201, 158, 232
-0.997923, 385, 117, 400, 148
-0.997931, 165, 185, 180, 216
-0.997936, 349, 25, 364, 56
-0.997936, 381, 289, 396, 320
-0.997937, 383, 13, 398, 44
-0.997937, 295, 145, 310, 176
-0.99794, 269, 113, 284, 144
-0.997941, 373, 109, 388, 140
-0.997966, 333, 277, 348, 308
-0.997983, 407, 13, 422, 44
-0.997984, 303, 125, 318, 156
-0.997988, 337, 265, 352, 296
-0.997989, 287, 117, 302, 148
-0.997996, 177, 293, 304, 324
-0.997996, 333, 117, 348, 148
-0.998001, 207, 129, 222, 160
-0.998006, 65, 165, 80, 196
-0.998007, 361, 209, 376, 240
-0.998009, 293, 229, 308, 260
-0.998018, 149, 209, 164, 240
-0.998021, 157, 221, 172, 252
-0.998025, 269, 157, 284, 188
-0.998027, 359, 129, 374, 160
-0.998034, 371, 17, 386, 48
-0.998034, 225, 189, 352, 220
-0.99804, 113, 257, 240, 288
-0.998041, 363, 141, 378, 172
-0.998054, 269, 1, 300, 256
-0.998058, 429, 13, 444, 44
-0.99806, 187, 229, 202, 260
-0.998064, 171, 41, 186, 72
-0.998079, 415, 13, 430, 44
-0.998085, 477, 5, 492, 36
-0.998086, 249, 109, 264, 140
-0.998091, 151, 197, 166, 228
-0.998096, 437, 9, 452, 40
-0.9981, 177, 269, 304, 300
-0.998103, 249, 129, 280, 371
-0.998136, 161, 85, 288, 116
-0.998157, 369, 1, 496, 32
-0.998202, 177, 165, 304, 196
-0.998218, 177, 97, 304, 128
-0.998222, 425, 1, 456, 256
-0.998229, 257, 61, 384, 92
-0.998235, 261, 129, 292, 371
-0.998241, 437, 129, 468, 371
-0.998242, 257, 325, 384, 356
-0.998243, 133, 129, 164, 371
-0.998285, 237, 129, 268, 371
-0.998307, 425, 129, 456, 371
-0.998318, 97, 285, 224, 316
-0.998323, 161, 281, 288, 312
-0.998327, 321, 37, 448, 68
-0.99833, 1, 1, 256, 64
-0.998375, 329, 109, 392, 124
-0.998376, 297, 107, 360, 122
-0.998394, 273, 109, 336, 124
-0.998401, 313, 117, 376, 132
-0.998411, 265, 117, 328, 132
-0.998416, 345, 159, 408, 174
-0.998418, 1, 161, 128, 192
-0.998421, 289, 143, 320, 158
-0.998422, 381, 151, 412, 166
-0.998423, 433, 197, 464, 212
-0.998427, 345, 29, 376, 44
-0.998428, 129, 195, 160, 210
-0.998428, 373, 299, 404, 314
-0.998429, 429, 167, 460, 182
-0.998431, 289, 125, 352, 140
-0.998431, 369, 143, 400, 158
-0.998431, 385, 17, 416, 32
-0.998432, 373, 193, 404, 208
-0.998432, 173, 137, 204, 152
-0.998433, 345, 153, 408, 168
-0.998433, 357, 305, 388, 320
-0.998433, 5, 179, 36, 194
-0.998433, 161, 169, 192, 184
-0.998433, 289, 119, 352, 134
-0.998434, 261, 231, 292, 246
-0.998434, 193, 129, 224, 144
-0.998434, 273, 129, 304, 144
-0.998434, 233, 115, 296, 130
-0.998435, 289, 103, 320, 118
-0.998435, 393, 151, 424, 166
-0.998435, 469, 9, 500, 24
-0.998436, 353, 133, 384, 148
-0.998436, 421, 203, 452, 218
-0.998436, 333, 139, 364, 154
-0.998436, 345, 297, 376, 312
-0.998437, 337, 129, 368, 144
-0.998437, 257, 135, 288, 150
-0.998438, 257, 105, 288, 120
-0.998438, 285, 129, 316, 144
-0.998439, 305, 97, 336, 112
-0.998441, 145, 181, 176, 196
-0.998443, 321, 135, 352, 150
-0.998443, 345, 123, 408, 138
-0.998445, 97, 273, 224, 304
-0.998446, 365, 127, 396, 142
-0.998446, 349, 211, 380, 226
-0.998446, 429, 185, 460, 200
-0.998448, 353, 113, 416, 128
-0.998448, 225, 129, 256, 371
-0.998448, 129, 203, 160, 218
-0.998448, 241, 1, 368, 32
-0.998449, 389, 11, 420, 26
-0.99845, 389, 125, 420, 140
-0.99845, 153, 235, 184, 250
-0.99845, 393, 175, 424, 190
-0.99845, 205, 125, 236, 140
-0.998454, 345, 159, 376, 174
-0.998454, 369, 137, 400, 152
-0.998454, 169, 233, 200, 248
-0.998455, 285, 137, 316, 152
-0.998456, 433, 13, 464, 28
-0.998457, 369, 101, 400, 116
-0.998458, 137, 187, 168, 202
-0.998458, 353, 107, 416, 122
-0.998458, 365, 121, 396, 136
-0.998459, 337, 299, 400, 314
-0.998459, 245, 225, 276, 240
-0.99846, 277, 105, 308, 120
-0.998461, 337, 101, 400, 116
-0.998462, 361, 207, 392, 222
-0.998462, 345, 181, 408, 196
-0.998463, 393, 183, 424, 198
-0.998465, 277, 147, 308, 162
-0.998468, 245, 117, 276, 132
-0.998468, 265, 103, 328, 118
-0.998468, 353, 145, 384, 160
-0.998469, 377, 123, 408, 138
-0.998469, 401, 17, 432, 32
-0.99847, 265, 161, 296, 176
-0.998471, 369, 305, 400, 320
-0.998471, 293, 149, 324, 164
-0.998473, 61, 167, 92, 182
-0.998473, 297, 99, 360, 114
-0.998473, 353, 113, 384, 128
-0.998474, 277, 281, 308, 296
-0.998474, 249, 109, 312, 124
-0.998474, 265, 111, 296, 126
-0.998475, 393, 157, 424, 172
-0.998478, 145, 233, 208, 248
-0.998479, 161, 187, 192, 202
-0.998481, 377, 107, 408, 122
-0.998483, 305, 135, 336, 150
-0.998485, 353, 101, 384, 116
-0.998485, 313, 125, 376, 140
-0.998486, 297, 125, 328, 140
-0.998488, 301, 103, 332, 118
-0.998488, 433, 203, 464, 218
-0.998489, 433, 209, 464, 224
-0.998489, 421, 15, 452, 30
-0.99849, 385, 145, 416, 160
-0.998493, 317, 281, 348, 296
-0.998493, 361, 163, 392, 178
-0.998494, 141, 207, 172, 222
-0.998495, 333, 99, 364, 114
-0.998495, 353, 165, 416, 180
-0.998497, 429, 177, 460, 192
-0.998498, 281, 153, 312, 168
-0.998499, 369, 149, 432, 164
-0.9985, 377, 187, 408, 202
-0.998502, 385, 117, 416, 132
-0.998503, 289, 143, 352, 158
-0.998504, 273, 229, 336, 244
-0.998505, 293, 111, 324, 126
-0.998505, 309, 125, 340, 140
-0.998506, 377, 301, 440, 316
-0.998507, 353, 175, 416, 190
-0.998508, 9, 173, 72, 188
-0.998509, 369, 187, 432, 202
-0.99851, 277, 115, 308, 130
-0.99851, 389, 169, 420, 184
-0.99851, 317, 143, 348, 158
-0.99851, 33, 173, 64, 188
-0.998512, 249, 111, 280, 126
-0.998512, 145, 173, 176, 188
-0.998515, 185, 229, 248, 244
-0.998516, 365, 111, 396, 126
-0.998517, 341, 153, 372, 168
-0.998518, 257, 125, 288, 140
-0.998519, 305, 141, 336, 156
-0.998519, 357, 179, 388, 194
-0.998522, 369, 123, 432, 138
-0.998523, 257, 123, 320, 138
-0.998523, 265, 283, 328, 298
-0.998524, 377, 169, 408, 184
-0.998524, 49, 171, 80, 186
-0.998524, 129, 145, 192, 160
-0.998527, 141, 213, 172, 228
-0.998527, 225, 121, 288, 136
-0.998529, 329, 141, 392, 156
-0.99853, 321, 27, 384, 42
-0.99853, 353, 125, 384, 140
-0.998531, 257, 117, 288, 132
-0.998531, 341, 111, 372, 126
-0.998531, 377, 13, 440, 28
-0.998532, 325, 107, 356, 122
-0.998534, 401, 167, 464, 182
-0.998534, 305, 281, 368, 296
-0.998534, 89, 237, 152, 252
-0.998536, 361, 129, 424, 144
-0.998536, 385, 173, 448, 188
-0.998537, 157, 181, 188, 196
-0.998537, 129, 185, 192, 200
-0.998538, 257, 139, 320, 154
-0.998538, 281, 137, 344, 152
-0.998539, 145, 199, 176, 214
-0.99854, 129, 191, 192, 206
-0.99854, 361, 143, 424, 158
-0.99854, 137, 197, 200, 212
-0.998541, 257, 157, 320, 172
-0.998543, 97, 153, 160, 168
-0.998544, 337, 305, 400, 320
-0.998547, 321, 159, 384, 174
-0.998549, 385, 179, 448, 194
-0.99855, 321, 125, 352, 140
-0.998551, 9, 181, 72, 196
-0.998552, 357, 169, 388, 184
-0.998553, 353, 119, 384, 134
-0.998553, 225, 227, 288, 242
-0.998556, 393, 163, 424, 178
-0.998559, 153, 181, 216, 196
-0.99856, 361, 23, 424, 38
-0.99856, 353, 185, 384, 200
-0.99856, 257, 133, 320, 148
-0.99856, 145, 171, 208, 186
-0.998561, 377, 155, 440, 170
-0.998561, 401, 15, 464, 30
-0.998561, 341, 123, 372, 138
-0.998562, 325, 119, 356, 134
-0.998566, 169, 141, 232, 156
-0.998566, 273, 289, 336, 304
-0.998567, 281, 275, 344, 290
-0.998567, 381, 157, 412, 172
-0.998567, 269, 121, 300, 136
-0.998568, 353, 137, 416, 152
-0.998571, 297, 149, 360, 164
-0.998574, 329, 169, 392, 184
-0.998575, 337, 187, 400, 202
-0.998575, 313, 109, 344, 124
-0.998576, 433, 13, 496, 28
-0.998577, 285, 123, 316, 138
-0.998577, 177, 35, 240, 50
-0.998578, 129, 151, 192, 166
-0.998581, 313, 289, 376, 304
-0.998582, 329, 131, 392, 146
-0.998583, 57, 233, 120, 248
-0.998583, 41, 171, 104, 186
-0.998584, 153, 193, 184, 208
-0.998584, 257, 147, 320, 162
-0.998584, 41, 245, 104, 260
-0.998586, 341, 105, 372, 120
-0.998586, 233, 135, 296, 150
-0.998587, 313, 267, 376, 282
-0.998587, 357, 157, 388, 172
-0.998587, 401, 209, 464, 224
-0.998591, 369, 293, 432, 308
-0.998591, 201, 121, 264, 136
-0.998591, 65, 239, 128, 254
-0.998591, 353, 107, 384, 122
-0.998591, 65, 247, 128, 262
-0.998593, 141, 193, 172, 208
-0.998593, 1, 279, 64, 294
-0.998594, 305, 137, 368, 152
-0.998595, 361, 297, 392, 312
-0.998595, 33, 237, 96, 252
-0.998596, 337, 147, 400, 162
-0.998599, 297, 93, 360, 108
-0.9986, 185, 135, 248, 150
-0.998601, 153, 191, 216, 206
-0.998601, 281, 131, 344, 146
-0.998601, 377, 163, 408, 178
-0.998601, 121, 173, 184, 188
-0.998602, 361, 307, 424, 322
-0.998602, 341, 117, 372, 132
-0.998603, 249, 73, 312, 88
-0.998604, 297, 27, 360, 42
-0.998604, 121, 229, 184, 244
-0.998604, 121, 71, 184, 86
-0.998605, 385, 161, 448, 176
-0.998606, 153, 165, 216, 180
-0.998608, 417, 267, 480, 282
-0.998608, 129, 213, 192, 228
-0.998608, 113, 237, 176, 252
-0.998608, 377, 115, 440, 130
-0.998609, 193, 247, 256, 262
-0.998609, 193, 129, 256, 144
-0.99861, 409, 9, 472, 24
-0.998611, 257, 221, 320, 236
-0.998611, 257, 17, 320, 32
-0.998612, 377, 167, 440, 182
-0.998613, 225, 109, 288, 124
-0.998613, 369, 193, 432, 208
-0.998613, 321, 273, 384, 288
-0.998614, 233, 141, 296, 156
-0.998614, 345, 29, 408, 44
-0.998614, 365, 129, 380, 256
-0.998616, 361, 207, 424, 222
-0.998616, 401, 189, 464, 204
-0.998617, 129, 179, 192, 194
-0.998617, 1, 273, 64, 288
-0.998617, 409, 183, 472, 198
-0.998618, 145, 223, 208, 238
-0.998619, 113, 201, 176, 216
-0.998619, 249, 67, 312, 82
-0.998619, 81, 111, 144, 126
-0.99862, 81, 99, 144, 114
-0.99862, 281, 155, 344, 170
-0.99862, 49, 119, 112, 134
-0.998621, 89, 245, 152, 260
-0.998622, 409, 177, 472, 192
-0.998625, 113, 129, 144, 371
-0.998625, 365, 187, 396, 202
-0.998636, 33, 305, 288, 368
-0.998646, 373, 175, 404, 190
-0.998651, 305, 119, 336, 134
-0.998676, 369, 181, 400, 196
-0.99869, 369, 151, 400, 166
-0.998703, 297, 129, 312, 256
-0.998706, 149, 187, 180, 202
-0.998744, 441, 1, 472, 256
-0.998747, 389, 97, 404, 224
-0.998747, 357, 97, 372, 224
-0.998748, 385, 145, 400, 272
-0.998753, 109, 1, 140, 256
-0.998763, 373, 113, 388, 240
-0.998786, 45, 1, 76, 256
-0.998789, 379, 113, 394, 240
-0.998806, 299, 81, 314, 208
-0.998807, 395, 97, 410, 224
-0.99881, 69, 1, 100, 256
-0.998876, 315, 209, 330, 336
-0.998887, 303, 129, 318, 256
-0.998893, 311, 65, 326, 192
-0.998899, 349, 81, 364, 208
-0.998903, 347, 17, 362, 144
-0.998904, 321, 65, 336, 192
-0.998924, 61, 161, 76, 288
-0.998924, 353, 17, 368, 144
-0.99893, 339, 113, 354, 240
-0.998934, 291, 129, 306, 256
-0.998934, 383, 1, 398, 128
-0.998935, 17, 145, 32, 272
-0.998941, 429, 1, 444, 128
-0.998945, 309, 209, 324, 336
-0.998947, 29, 113, 44, 240
-0.998956, 391, 161, 406, 288
-0.99896, 37, 113, 52, 240
-0.998976, 11, 161, 26, 288
-0.998982, 437, 1, 452, 128
-0.998985, 373, 1, 388, 128
-0.998992, 285, 81, 300, 208
-0.998999, 339, 1, 354, 128
-0.999003, 303, 193, 318, 320
-0.999005, 57, 1, 88, 256
-0.999009, 339, 65, 354, 192
-0.999011, 305, 81, 320, 208
-0.999013, 59, 97, 74, 224
-0.999016, 261, 129, 276, 256
-0.999023, 127, 33, 142, 160
-0.999026, 403, 97, 418, 224
-0.999027, 189, 209, 204, 336
-0.999029, 51, 113, 66, 240
-0.999033, 21, 193, 36, 320
-0.999033, 405, 1, 420, 128
-0.999035, 327, 65, 342, 192
-0.999036, 309, 129, 324, 256
-0.99904, 363, 81, 378, 208
-0.999042, 333, 17, 348, 144
-0.999049, 13, 225, 28, 352
-0.99905, 417, 1, 432, 128
-0.999052, 485, 1, 500, 128
-0.999056, 65, 97, 80, 224
-0.999061, 443, 1, 458, 128
-0.999065, 363, 17, 378, 144
-0.999071, 5, 129, 20, 256
-0.999075, 359, 161, 374, 288
-0.999079, 293, 1, 308, 128
-0.999083, 285, 129, 300, 256
-0.999087, 449, 1, 464, 128
-0.99909, 389, 1, 404, 128
-0.99909, 315, 17, 330, 144
-0.999092, 371, 161, 386, 288
-0.999097, 337, 209, 352, 336
-0.999101, 411, 1, 426, 128
-0.999101, 423, 1, 438, 128
-0.999102, 467, 1, 482, 128
-0.999102, 351, 129, 366, 256
-0.999103, 137, 49, 152, 176
-0.999104, 93, 1, 124, 256
-0.999108, 271, 1, 286, 128
-0.999111, 145, 193, 160, 320
-0.999117, 161, 209, 176, 336
-0.999124, 235, 209, 250, 336
-0.999125, 315, 129, 330, 256
-0.999125, 325, 17, 340, 144
-0.999126, 35, 225, 50, 352
-0.999126, 27, 193, 42, 320
-0.999127, 455, 241, 470, 368
-0.999131, 479, 1, 494, 128
-0.999131, 71, 97, 86, 224
-0.999132, 159, 161, 174, 288
-0.999139, 281, 209, 296, 336
-0.999141, 167, 161, 182, 288
-0.999141, 291, 81, 306, 208
-0.999152, 323, 209, 338, 336
-0.999156, 45, 113, 60, 240
-0.999157, 371, 65, 386, 192
-0.999159, 461, 1, 476, 128
-0.99916, 397, 145, 412, 272
-0.999161, 331, 225, 346, 352
-0.999169, 247, 209, 262, 336
-0.999169, 175, 209, 190, 336
-0.999171, 151, 177, 166, 304
-0.999174, 377, 161, 392, 288
-0.999175, 333, 65, 348, 192
-0.999175, 397, 1, 412, 128
-0.999177, 3, 225, 18, 352
-0.999179, 179, 145, 194, 272
-0.99918, 271, 209, 286, 336
-0.99918, 251, 81, 266, 208
-0.999192, 473, 1, 488, 128
-0.999192, 261, 65, 276, 192
-0.999195, 287, 193, 302, 320
-0.999199, 11, 113, 26, 240
-0.999203, 159, 49, 174, 176
-0.999207, 23, 113, 38, 240
-0.999207, 307, 17, 322, 144
-0.999209, 143, 65, 158, 192
-0.99921, 169, 225, 184, 352
-0.999214, 255, 129, 270, 256
-0.999215, 153, 49, 168, 176
-0.999232, 67, 161, 82, 288
-0.999234, 333, 129, 348, 256
-0.999236, 381, 65, 396, 192
-0.999237, 55, 161, 70, 288
-0.999246, 185, 17, 200, 144
-0.999247, 45, 225, 60, 352
-0.99925, 81, 97, 96, 224
-0.999251, 271, 113, 286, 240
-0.999255, 81, 1, 112, 256
-0.999255, 153, 129, 168, 256
-0.999256, 455, 1, 470, 128
-0.999258, 183, 209, 198, 336
-0.999259, 29, 241, 44, 368
-0.999262, 275, 49, 290, 176
-0.999267, 125, 225, 140, 352
-0.999268, 279, 1, 294, 128
-0.99927, 251, 1, 266, 128
-0.999271, 155, 225, 170, 352
-0.999272, 325, 129, 340, 256
-0.999275, 113, 225, 128, 352
-0.999277, 345, 129, 360, 256
-0.999279, 139, 193, 154, 320
-0.999279, 195, 161, 210, 288
-0.999332, 33, 1, 64, 256
-0.99963, 43, 173, 58, 188
-0.99963, 151, 201, 166, 216
-0.99963, 347, 129, 362, 144
-0.999631, 409, 17, 424, 32
-0.999631, 367, 141, 382, 156
-0.999633, 269, 123, 284, 138
-0.999633, 355, 99, 370, 114
-0.999633, 165, 213, 180, 228
-0.999634, 363, 297, 378, 312
-0.999634, 289, 117, 304, 132
-0.999634, 311, 133, 326, 148
-0.999634, 371, 191, 386, 206
-0.999635, 403, 127, 418, 142
-0.999635, 435, 203, 450, 218
-0.999636, 311, 127, 326, 142
-0.999636, 5, 183, 20, 198
-0.999636, 397, 21, 412, 36
-0.999637, 339, 301, 354, 316
-0.999639, 171, 197, 186, 212
-0.999639, 361, 99, 376, 114
-0.99964, 145, 219, 160, 234
-0.99964, 173, 187, 188, 202
-0.999641, 381, 17, 396, 32
-0.999641, 377, 191, 392, 206
-0.999641, 139, 213, 154, 228
-0.999642, 403, 119, 418, 134
-0.999642, 355, 175, 370, 190
-0.999644, 391, 147, 406, 162
-0.999644, 329, 125, 344, 140
-0.999645, 351, 159, 366, 174
-0.999645, 271, 117, 286, 132
-0.999646, 435, 13, 450, 28
-0.999646, 437, 209, 452, 224
-0.999646, 383, 191, 398, 206
-0.999647, 277, 231, 292, 246
-0.999647, 397, 161, 412, 176
-0.999648, 307, 103, 322, 118
-0.999651, 377, 109, 392, 124
-0.999652, 365, 191, 380, 206
-0.999652, 251, 111, 266, 126
-0.999652, 165, 173, 180, 188
-0.999652, 353, 153, 368, 168
-0.999653, 327, 119, 342, 134
-0.999653, 289, 147, 304, 162
-0.999653, 293, 125, 308, 140
-0.999654, 361, 209, 376, 224
-0.999654, 397, 7, 412, 22
-0.999655, 181, 139, 196, 154
-0.999655, 383, 179, 398, 194
-0.999656, 477, 9, 492, 24
-0.999657, 425, 15, 440, 30
-0.999657, 387, 105, 402, 120
-0.999657, 321, 125, 336, 140
-0.999657, 165, 205, 180, 220
-0.999658, 375, 163, 390, 178
-0.999658, 159, 169, 174, 184
-0.999658, 349, 103, 364, 118
-0.999662, 311, 139, 326, 154
-0.999663, 441, 13, 456, 28
-0.999666, 373, 125, 388, 140
-0.999667, 57, 173, 72, 188
-0.999667, 433, 173, 448, 188
-0.999669, 363, 159, 378, 174
-0.999671, 383, 305, 398, 320
-0.999671, 429, 207, 444, 222
-0.999673, 401, 13, 416, 28
-0.999673, 453, 1, 484, 256
-0.999673, 261, 115, 276, 130
-0.999674, 361, 117, 376, 132
-0.999674, 391, 13, 406, 28
-0.999674, 347, 117, 362, 132
-0.999677, 295, 149, 310, 164
-0.999677, 341, 119, 356, 134
-0.999678, 397, 125, 412, 140
-0.999678, 389, 183, 404, 198
-0.999682, 63, 169, 78, 184
-0.999683, 147, 207, 162, 222
-0.999683, 157, 207, 172, 222
-0.999684, 157, 235, 172, 250
-0.999685, 367, 153, 382, 168
-0.999687, 437, 179, 452, 194
-0.999691, 361, 169, 376, 184
-0.999695, 333, 109, 348, 124
-0.999697, 145, 213, 160, 228
-0.999697, 389, 175, 404, 190
-0.999699, 373, 141, 388, 156
-0.999699, 151, 195, 166, 210
-0.9997, 357, 125, 372, 140
-0.999702, 153, 183, 168, 198
-0.999703, 367, 185, 382, 200
-0.999705, 391, 157, 406, 172
-0.999706, 325, 107, 340, 122
-0.999708, 159, 179, 174, 194
-0.999708, 361, 109, 376, 124
-0.999708, 389, 169, 404, 184
-0.999709, 159, 191, 174, 206
-0.99971, 339, 107, 354, 122
-0.99971, 165, 197, 180, 212
-0.999713, 157, 197, 172, 212
-0.999713, 371, 169, 386, 184
-0.999715, 355, 111, 370, 126
-0.999717, 377, 179, 392, 194
-0.999722, 299, 123, 314, 138
-0.999723, 323, 113, 338, 128
-0.999723, 145, 201, 160, 216
-0.999724, 373, 151, 388, 166
-0.999728, 345, 109, 360, 124
-0.999728, 381, 171, 396, 186
-0.999733, 311, 121, 326, 136
-0.999735, 339, 127, 354, 142
-0.999735, 321, 119, 336, 134
-0.999738, 373, 185, 388, 200
-0.999739, 167, 187, 182, 202
-0.999739, 347, 123, 362, 138
-0.99974, 373, 297, 388, 312
-0.999742, 333, 119, 348, 134
-0.999743, 301, 149, 316, 164
-0.999743, 379, 151, 394, 166
-0.999749, 145, 191, 160, 206
-0.99975, 347, 153, 362, 168
-0.99975, 381, 185, 396, 200
-0.999762, 353, 117, 368, 132
-0.999764, 317, 109, 332, 124
-0.999766, 355, 105, 370, 120
-0.999767, 165, 179, 180, 194
-0.999772, 381, 161, 396, 176
-0.999777, 389, 163, 404, 178
-0.999778, 385, 155, 400, 170
-0.999779, 159, 185, 174, 200
-0.999786, 365, 179, 380, 194
-0.999805, 151, 189, 166, 204
-0.999865, 449, 97, 480, 352
-0.999904, 13, 1, 44, 256
-1.00016, 469, 1, 500, 256
-1.00023, 461, 129, 492, 371
-1.00064, 1, 1, 32, 256
-1.00105, 33, 1, 160, 64
-1.00128, 1, 1, 128, 128
-1.0071, 33, 17, 96, 144
-1.0103, 9, 17, 72, 144
