1978
-0.348538, 1, 1, 500, 256
-0.45994, 1, 1, 500, 375
-0.520534, 1, 129, 500, 375
-0.565406, 33, 1, 288, 375
-0.588883, 129, 1, 384, 375
-0.640797, 257, 129, 500, 375
-0.655431, 65, 1, 320, 256
-0.671878, 193, 1, 448, 256
-0.706719, 257, 1, 500, 375
-0.759693, 1, 129, 256, 375
-0.812152, 161, 97, 416, 352
-0.837835, 353, 129, 480, 375
-0.872456, 65, 1, 192, 375
-0.875303, 65, 1, 192, 256
-0.878113, 369, 1, 496, 256
-0.879088, 305, 1, 432, 256
-0.882377, 113, 1, 240, 375
-0.882428, 369, 1, 496, 375
-0.887596, 161, 1, 288, 375
-0.895422, 97, 129, 224, 375
-0.897218, 305, 129, 432, 375
-0.901641, 1, 241, 500, 368
-0.90192, 257, 1, 384, 256
-0.902242, 113, 1, 240, 256
-0.902992, 17, 1, 144, 256
-0.911274, 1, 49, 500, 176
-0.911483, 161, 1, 288, 256
-0.912588, 1, 1, 500, 128
-0.913219, 97, 241, 352, 368
-0.915168, 257, 225, 500, 352
-0.915464, 17, 1, 144, 375
-0.918475, 209, 1, 336, 256
-0.918875, 1, 161, 500, 288
-0.920645, 49, 97, 176, 352
-0.922126, 321, 1, 448, 375
-0.923065, 1, 97, 500, 224
-0.925974, 145, 129, 272, 375
-0.92785, 177, 241, 240, 368
-0.928959, 337, 113, 464, 240
-0.934119, 129, 241, 256, 368
-0.936769, 273, 1, 400, 375
-0.937843, 153, 241, 216, 368
-0.939656, 417, 225, 480, 352
-0.942207, 65, 1, 320, 128
-0.94408, 193, 241, 320, 368
-0.944129, 369, 161, 496, 288
-0.944366, 433, 177, 496, 304
-0.944387, 145, 297, 208, 360
-0.945289, 161, 193, 224, 320
-0.946403, 257, 161, 500, 288
-0.947426, 169, 265, 232, 328
-0.947434, 369, 225, 496, 352
-0.948321, 225, 1, 480, 128
-0.948392, 353, 113, 416, 240
-0.948723, 401, 177, 464, 304
-0.949272, 161, 177, 416, 304
-0.949658, 257, 113, 500, 240
-0.950019, 193, 129, 320, 375
-0.950036, 425, 129, 488, 256
-0.950062, 1, 209, 256, 336
-0.950393, 201, 241, 264, 368
-0.950621, 185, 289, 248, 352
-0.95093, 361, 209, 424, 336
-0.952929, 177, 241, 240, 304
-0.953319, 401, 97, 464, 224
-0.953521, 209, 1, 336, 375
-0.95368, 377, 97, 440, 224
-0.954743, 305, 225, 432, 352
-0.954966, 1, 113, 256, 240
-0.955347, 1, 97, 128, 352
-0.95707, 249, 241, 312, 368
-0.959432, 121, 305, 184, 368
-0.959944, 257, 129, 384, 375
-0.959969, 273, 241, 336, 368
-0.960019, 65, 49, 320, 176
-0.960062, 121, 129, 184, 256
-0.960224, 433, 241, 496, 304
-0.960288, 169, 313, 232, 375
-0.960632, 1, 161, 256, 288
-0.960749, 161, 129, 416, 256
-0.96116, 153, 225, 216, 288
-0.961584, 225, 313, 288, 375
-0.962245, 297, 305, 360, 368
-0.963491, 65, 129, 192, 256
-0.963788, 257, 297, 320, 360
-0.963897, 81, 17, 208, 144
-0.963909, 377, 161, 440, 288
-0.963934, 225, 1, 352, 128
-0.964184, 209, 289, 272, 352
-0.964234, 1, 49, 128, 176
-0.96445, 361, 225, 424, 288
-0.964626, 401, 225, 464, 288
-0.964821, 129, 241, 192, 368
-0.964908, 385, 113, 448, 176
-0.964973, 369, 1, 496, 128
-0.965915, 425, 169, 488, 232
-0.966561, 409, 129, 472, 375
-0.966704, 353, 129, 416, 192
-0.966728, 321, 177, 448, 304
-0.966765, 297, 241, 360, 368
-0.967021, 129, 289, 256, 352
-0.96711, 145, 273, 208, 336
-0.967129, 177, 1, 304, 128
-0.967437, 205, 241, 236, 304
-0.967506, 1, 81, 64, 208
-0.967669, 113, 193, 240, 320
-0.967671, 305, 1, 432, 128
-0.967966, 161, 81, 416, 208
-0.968047, 97, 313, 160, 375
-0.968127, 201, 225, 232, 352
-0.968205, 177, 241, 208, 368
-0.968325, 305, 1, 368, 128
-0.968348, 161, 273, 192, 336
-0.968731, 369, 65, 496, 192
-0.968854, 361, 1, 424, 256
-0.968929, 57, 49, 120, 176
-0.969093, 137, 193, 200, 320
-0.969282, 377, 97, 440, 352
-0.9693, 281, 1, 344, 128
-0.969853, 241, 241, 368, 368
-0.969993, 177, 281, 208, 344
-0.970408, 25, 33, 88, 160
-0.970419, 193, 313, 320, 375
-0.970546, 281, 273, 344, 336
-0.970798, 249, 1, 312, 128
-0.970954, 209, 1, 272, 128
-0.971071, 345, 1, 408, 128
-0.971257, 193, 313, 256, 375
-0.971401, 81, 241, 208, 368
-0.971498, 177, 1, 240, 128
-0.97161, 409, 137, 472, 200
-0.971756, 189, 273, 220, 336
-0.971881, 161, 201, 224, 264
-0.972011, 185, 193, 248, 320
-0.972162, 337, 209, 400, 336
-0.972183, 433, 65, 496, 192
-0.972228, 165, 209, 196, 336
-0.972349, 401, 249, 464, 312
-0.972403, 153, 1, 216, 128
-0.972428, 257, 65, 500, 192
-0.972604, 1, 97, 128, 224
-0.972767, 113, 313, 240, 375
-0.972813, 49, 81, 176, 208
-0.973121, 257, 273, 320, 336
-0.973147, 353, 121, 480, 184
-0.973256, 129, 1, 256, 128
-0.973332, 433, 129, 496, 375
-0.973396, 145, 249, 208, 312
-0.973415, 425, 1, 488, 256
-0.973522, 193, 265, 256, 328
-0.973538, 205, 297, 236, 360
-0.973676, 81, 33, 144, 160
-0.973676, 393, 225, 456, 352
-0.973805, 409, 273, 472, 336
-0.974034, 281, 313, 312, 375
-0.974133, 121, 137, 184, 200
-0.974262, 425, 193, 488, 256
-0.974491, 393, 201, 456, 264
-0.974584, 65, 97, 128, 224
-0.974719, 209, 273, 336, 336
-0.97473, 321, 313, 384, 375
-0.974784, 353, 97, 416, 352
-0.974812, 133, 313, 164, 375
-0.9749, 273, 177, 400, 304
-0.974941, 97, 113, 160, 240
-0.974949, 465, 177, 496, 304
-0.974997, 189, 225, 220, 352
-0.975191, 97, 1, 160, 256
-0.975297, 193, 193, 320, 320
-0.975575, 213, 241, 244, 368
-0.975613, 169, 305, 200, 368
-0.975627, 445, 225, 476, 352
-0.975646, 241, 313, 368, 375
-0.975674, 177, 249, 208, 312
-0.975908, 169, 225, 200, 288
-0.976018, 189, 233, 220, 296
-0.976187, 225, 225, 288, 352
-0.97623, 145, 265, 272, 328
-0.976611, 369, 1, 432, 128
-0.976758, 337, 225, 464, 288
-0.976825, 181, 305, 212, 368
-0.976881, 153, 305, 184, 368
-0.977021, 121, 281, 184, 344
-0.977144, 121, 1, 184, 256
-0.977294, 369, 49, 432, 176
-0.977335, 273, 65, 400, 192
-0.977376, 289, 249, 352, 312
-0.977415, 165, 249, 196, 312
-0.97749, 433, 1, 496, 128
-0.977573, 433, 97, 496, 160
-0.977591, 337, 169, 464, 232
-0.977614, 369, 249, 432, 312
-0.977642, 337, 145, 464, 208
-0.977815, 201, 241, 264, 304
-0.977898, 457, 225, 488, 352
-0.977949, 201, 273, 232, 336
-0.97815, 453, 161, 484, 288
-0.978496, 393, 49, 456, 176
-0.978683, 217, 281, 248, 344
-0.978728, 97, 121, 160, 184
-0.978819, 413, 97, 444, 224
-0.978882, 385, 161, 448, 224
-0.978882, 309, 305, 340, 368
-0.978984, 1, 97, 64, 160
-0.979179, 193, 305, 224, 368
-0.979188, 65, 97, 128, 160
-0.979242, 161, 145, 224, 272
-0.979296, 105, 17, 168, 144
-0.979497, 321, 161, 384, 288
-0.979786, 281, 289, 312, 352
-0.979829, 145, 113, 272, 240
-0.979844, 353, 161, 416, 288
-0.979906, 321, 313, 448, 375
-0.98, 185, 217, 248, 280
-0.980059, 393, 1, 456, 128
-0.980096, 161, 177, 224, 240
-0.980202, 129, 161, 192, 224
-0.98028, 129, 241, 256, 304
-0.980298, 449, 241, 480, 304
-0.98037, 361, 129, 392, 256
-0.980418, 293, 297, 324, 360
-0.980424, 337, 1, 400, 256
-0.980534, 441, 145, 472, 208
-0.980631, 321, 305, 352, 368
-0.980639, 293, 241, 324, 368
-0.980795, 409, 161, 440, 288
-0.980815, 401, 33, 464, 288
-0.980842, 377, 297, 440, 360
-0.981052, 469, 241, 500, 368
-0.98113, 337, 225, 400, 288
-0.981161, 65, 1, 128, 256
-0.981195, 217, 305, 248, 368
-0.981322, 149, 145, 180, 272
-0.981363, 281, 241, 312, 368
-0.981441, 409, 297, 472, 360
-0.981582, 105, 65, 168, 192
-0.981627, 329, 9, 392, 72
-0.981649, 353, 161, 416, 224
-0.981653, 369, 249, 496, 312
-0.98174, 217, 265, 280, 328
-0.982058, 129, 129, 192, 375
-0.982083, 289, 113, 416, 240
-0.982106, 153, 129, 216, 375
-0.982129, 261, 313, 292, 375
-0.982222, 441, 145, 472, 272
-0.982236, 461, 249, 492, 312
-0.982268, 429, 113, 460, 240
-0.982282, 161, 1, 224, 375
-0.982316, 433, 9, 496, 72
-0.982451, 129, 65, 256, 192
-0.982455, 129, 217, 192, 280
-0.98262, 337, 193, 464, 256
-0.982625, 361, 105, 424, 168
-0.982888, 65, 313, 192, 375
-0.982958, 81, 289, 208, 352
-0.983053, 17, 105, 144, 168
-0.983059, 353, 9, 416, 72
-0.983069, 193, 249, 320, 312
-0.983094, 321, 49, 448, 176
-0.983105, 329, 49, 392, 176
-0.983188, 433, 137, 496, 200
-0.983226, 433, 225, 464, 352
-0.983262, 17, 73, 80, 136
-0.98336, 421, 209, 452, 336
-0.983379, 313, 1, 376, 256
-0.98338, 57, 73, 120, 136
-0.983445, 393, 209, 424, 336
-0.983469, 305, 9, 368, 72
-0.983472, 169, 201, 200, 264
-0.983494, 153, 241, 184, 368
-0.983528, 389, 225, 420, 288
-0.983641, 373, 113, 404, 176
-0.98367, 233, 289, 296, 352
-0.983701, 281, 9, 344, 72
-0.983712, 97, 265, 224, 328
-0.983713, 229, 305, 260, 368
-0.983953, 333, 313, 364, 375
-0.984125, 121, 1, 184, 375
-0.984162, 369, 273, 432, 336
-0.984315, 313, 241, 344, 368
-0.984342, 285, 265, 316, 328
-0.984349, 153, 153, 184, 216
-0.984383, 321, 289, 448, 352
-0.984712, 65, 129, 192, 192
-0.984776, 249, 313, 280, 375
-0.984823, 321, 289, 384, 352
-0.984847, 385, 97, 416, 224
-0.984874, 281, 1, 344, 256
-0.984898, 169, 161, 200, 288
-0.984935, 21, 65, 52, 192
-0.984981, 409, 113, 472, 176
-0.984982, 1, 81, 128, 144
-0.985027, 377, 81, 440, 144
-0.985073, 361, 193, 424, 256
-0.985147, 129, 1, 192, 128
-0.985166, 369, 297, 496, 360
-0.985176, 257, 1, 320, 64
-0.985251, 145, 81, 208, 208
-0.985318, 149, 281, 180, 344
-0.985393, 321, 193, 384, 256
-0.985454, 97, 9, 160, 72
-0.985493, 365, 209, 396, 336
-0.985494, 401, 1, 464, 375
-0.985632, 17, 1, 144, 128
-0.985645, 257, 289, 384, 352
-0.985665, 13, 73, 44, 136
-0.985679, 385, 113, 416, 176
-0.985712, 97, 209, 224, 272
-0.985919, 113, 313, 144, 375
-0.985992, 469, 201, 500, 264
-0.986059, 469, 1, 500, 128
-0.986077, 433, 217, 496, 280
-0.986123, 65, 193, 192, 320
-0.986176, 269, 281, 300, 344
-0.986318, 401, 97, 432, 224
-0.986369, 89, 65, 152, 128
-0.986462, 249, 1, 312, 256
-0.986547, 161, 1, 224, 256
-0.986677, 333, 1, 364, 128
-0.986677, 345, 1, 376, 128
-0.986694, 73, 313, 136, 375
-0.986725, 129, 185, 192, 248
-0.986773, 305, 9, 432, 72
-0.986809, 357, 137, 388, 200
-0.986833, 429, 177, 460, 240
-0.986841, 93, 33, 124, 160
-0.986903, 217, 249, 248, 312
-0.986949, 433, 1, 496, 375
-0.98695, 225, 241, 256, 368
-0.987023, 365, 1, 396, 128
-0.987077, 313, 1, 344, 128
-0.987101, 89, 1, 152, 375
-0.987109, 321, 265, 448, 328
-0.987132, 429, 121, 460, 184
-0.987161, 269, 241, 300, 368
-0.987201, 161, 153, 224, 216
-0.987264, 81, 161, 208, 224
-0.987304, 409, 113, 440, 176
-0.987304, 453, 161, 484, 224
-0.987316, 457, 1, 488, 128
-0.987318, 245, 1, 276, 128
-0.987346, 145, 177, 272, 240
-0.987378, 233, 17, 296, 80
-0.987456, 429, 161, 460, 288
-0.987503, 369, 225, 400, 288
-0.987579, 201, 1, 264, 64
-0.987607, 297, 1, 328, 128
-0.987696, 185, 209, 216, 272
-0.987698, 25, 97, 88, 224
-0.987711, 433, 265, 496, 328
-0.987713, 201, 217, 232, 280
-0.987722, 9, 65, 40, 192
-0.987812, 413, 169, 444, 232
-0.987819, 185, 177, 216, 304
-0.987876, 285, 1, 316, 128
-0.987878, 89, 33, 152, 96
-0.987948, 105, 241, 168, 368
-0.988086, 49, 41, 112, 104
-0.988121, 161, 281, 224, 312
-0.988122, 469, 113, 500, 240
-0.988204, 397, 113, 428, 176
-0.988227, 65, 17, 192, 80
-0.988268, 321, 265, 384, 328
-0.988276, 121, 257, 184, 320
-0.988349, 73, 121, 136, 184
-0.988428, 433, 289, 496, 352
-0.988439, 225, 1, 288, 256
-0.988457, 145, 217, 272, 280
-0.988496, 141, 137, 172, 200
-0.988512, 257, 9, 384, 72
-0.988543, 137, 129, 168, 256
-0.988549, 437, 233, 468, 296
-0.988588, 97, 289, 160, 352
-0.988591, 121, 333, 184, 364
-0.988599, 397, 257, 428, 320
-0.988611, 417, 257, 448, 320
-0.988637, 169, 293, 232, 324
-0.988657, 369, 9, 496, 72
-0.988704, 409, 209, 440, 272
-0.988705, 369, 97, 496, 160
-0.988735, 261, 1, 292, 128
-0.9888, 337, 89, 400, 152
-0.988813, 289, 225, 416, 288
-0.988848, 273, 1, 304, 128
-0.988892, 333, 241, 364, 368
-0.988927, 305, 121, 432, 184
-0.988958, 1, 57, 128, 120
-0.988994, 465, 137, 496, 200
-0.989079, 177, 269, 240, 300
-0.989123, 145, 325, 208, 356
-0.989166, 81, 185, 208, 248
-0.989205, 97, 305, 352, 368
-0.989238, 25, 1, 88, 256
-0.989293, 273, 257, 400, 320
-0.989304, 185, 1, 248, 256
-0.989311, 145, 301, 208, 332
-0.989334, 177, 129, 240, 375
-0.989341, 145, 313, 208, 344
-0.989353, 185, 281, 248, 312
-0.989356, 377, 9, 440, 72
-0.98939, 369, 273, 496, 336
-0.989393, 209, 17, 336, 80
-0.989406, 161, 241, 224, 272
-0.989421, 121, 1, 184, 64
-0.989449, 185, 309, 248, 340
-0.989454, 229, 273, 260, 336
-0.989551, 381, 209, 412, 336
-0.98956, 185, 1, 216, 128
-0.989564, 377, 117, 440, 148
-0.989607, 77, 65, 108, 192
-0.989666, 353, 193, 384, 320
-0.989674, 273, 321, 336, 352
-0.989678, 253, 289, 284, 352
-0.989696, 89, 97, 152, 352
-0.9897, 433, 253, 496, 284
-0.98974, 1, 65, 64, 320
-0.98976, 289, 341, 352, 372
-0.989785, 377, 137, 440, 200
-0.989787, 273, 201, 400, 264
-0.989789, 329, 129, 392, 375
-0.9898, 209, 313, 272, 344
-0.989848, 445, 1, 476, 128
-0.98985, 169, 321, 232, 352
-0.989885, 89, 97, 152, 160
-0.989913, 313, 153, 376, 216
-0.989955, 373, 161, 404, 288
-0.989959, 125, 289, 156, 352
-0.989979, 185, 249, 248, 280
-0.99001, 105, 33, 136, 160
-0.990047, 377, 1, 440, 375
-0.990058, 213, 1, 244, 128
-0.99007, 25, 97, 88, 160
-0.990092, 193, 297, 256, 328
-0.990113, 153, 229, 216, 260
-0.99013, 377, 1, 408, 128
-0.990135, 153, 129, 216, 192
-0.990149, 121, 321, 184, 352
-0.99019, 353, 9, 384, 72
-0.990198, 153, 249, 184, 312
-0.990265, 57, 1, 120, 128
-0.990268, 313, 281, 344, 344
-0.990272, 113, 1, 240, 64
-0.990309, 177, 333, 240, 364
-0.990352, 97, 97, 128, 224
-0.99036, 421, 289, 452, 352
-0.990416, 249, 317, 312, 348
-0.990451, 297, 317, 360, 348
-0.990458, 425, 189, 488, 220
-0.990486, 373, 81, 404, 208
-0.990518, 97, 281, 352, 344
-0.990532, 361, 233, 424, 264
-0.990581, 201, 1, 232, 128
-0.990583, 65, 1, 128, 375
-0.990592, 153, 265, 216, 296
-0.990655, 65, 41, 192, 104
-0.990671, 401, 233, 464, 264
-0.990685, 89, 341, 152, 372
-0.990708, 145, 153, 272, 216
-0.990714, 137, 345, 200, 375
-0.990749, 137, 281, 200, 312
-0.990752, 209, 225, 336, 288
-0.990762, 425, 225, 456, 288
-0.990789, 281, 305, 344, 336
-0.990856, 393, 1, 424, 128
-0.990862, 373, 201, 404, 264
-0.990892, 97, 97, 224, 160
-0.990901, 341, 9, 372, 72
-0.990908, 401, 253, 464, 284
-0.990938, 469, 225, 500, 288
-0.99094, 397, 49, 428, 176
-0.990944, 97, 329, 160, 360
-0.990981, 297, 273, 328, 336
-0.991007, 65, 73, 192, 136
-0.991036, 353, 133, 416, 164
-0.991044, 397, 161, 428, 288
-0.991053, 425, 177, 488, 208
-0.991133, 469, 9, 500, 72
-0.991145, 185, 1, 248, 375
-0.991157, 249, 249, 312, 312
-0.991158, 145, 129, 272, 192
-0.991163, 257, 301, 320, 332
-0.991193, 161, 253, 224, 284
-0.991203, 361, 161, 392, 224
-0.991216, 401, 121, 464, 152
-0.99123, 321, 321, 384, 352
-0.991237, 233, 1, 264, 128
-0.991249, 185, 233, 248, 264
-0.991259, 345, 17, 408, 48
-0.991262, 329, 337, 392, 368
-0.991288, 177, 345, 240, 375
-0.991289, 433, 17, 496, 48
-0.991293, 425, 241, 488, 272
-0.991305, 425, 49, 456, 176
-0.991325, 305, 305, 368, 336
-0.991354, 409, 289, 472, 320
-0.991369, 1, 313, 500, 375
-0.991389, 121, 309, 184, 340
-0.99139, 297, 329, 360, 360
-0.991398, 281, 273, 344, 304
-0.991399, 405, 241, 436, 368
-0.991403, 97, 317, 160, 348
-0.991412, 17, 313, 144, 375
-0.991414, 257, 333, 320, 364
-0.991427, 409, 9, 472, 72
-0.991434, 109, 121, 140, 184
-0.991446, 77, 81, 108, 144
-0.991463, 401, 133, 464, 164
-0.991477, 153, 217, 216, 248
-0.991484, 353, 1, 416, 375
-0.991486, 161, 193, 224, 224
-0.991494, 17, 97, 48, 160
-0.991517, 401, 269, 464, 300
-0.99152, 281, 17, 344, 48
-0.991549, 369, 9, 400, 72
-0.99156, 209, 285, 272, 316
-0.991657, 209, 177, 272, 304
-0.991664, 297, 285, 360, 316
-0.991671, 273, 177, 400, 240
-0.991678, 217, 297, 280, 328
-0.991681, 369, 17, 432, 48
-0.99172, 305, 17, 368, 48
-0.991727, 145, 1, 208, 64
-0.991742, 433, 313, 496, 375
-0.991742, 369, 273, 432, 304
-0.991753, 433, 117, 496, 148
-0.991771, 369, 249, 432, 280
-0.991788, 385, 217, 448, 248
-0.991788, 201, 269, 264, 300
-0.991813, 449, 217, 480, 280
-0.991825, 81, 241, 208, 304
-0.991829, 409, 145, 472, 176
-0.991836, 121, 153, 184, 184
-0.991852, 33, 49, 64, 176
-0.991856, 1, 33, 128, 96
-0.99186, 121, 297, 184, 328
-0.99186, 437, 65, 468, 192
-0.991895, 353, 145, 416, 176
-0.991896, 241, 289, 272, 352
-0.991904, 465, 177, 496, 240
-0.991934, 169, 177, 200, 240
-0.991935, 129, 165, 192, 196
-0.991942, 105, 137, 168, 168
-0.991952, 289, 257, 352, 288
-0.991964, 129, 269, 192, 300
-0.991973, 353, 193, 384, 256
-0.991973, 417, 165, 480, 196
-0.991973, 369, 261, 432, 292
-0.991974, 161, 9, 288, 72
-0.991981, 409, 305, 472, 336
-0.992009, 433, 265, 496, 296
-0.992013, 121, 113, 152, 240
-0.992013, 369, 41, 496, 104
-0.992018, 257, 273, 320, 304
-0.992024, 173, 289, 204, 320
-0.992024, 137, 105, 200, 168
-0.992024, 257, 17, 320, 48
-0.992035, 125, 129, 156, 192
-0.992046, 193, 313, 448, 375
-0.992053, 361, 65, 392, 192
-0.992066, 273, 153, 400, 216
-0.992083, 161, 285, 192, 316
-0.992096, 369, 285, 432, 316
-0.992103, 433, 129, 496, 160
-0.992119, 193, 293, 224, 324
-0.992129, 385, 173, 448, 204
-0.992134, 353, 161, 416, 192
-0.992146, 89, 125, 152, 156
-0.992147, 353, 121, 416, 152
-0.99215, 361, 213, 424, 244
-0.992164, 273, 97, 400, 160
-0.992169, 401, 289, 432, 352
-0.992175, 65, 113, 128, 144
-0.992185, 345, 177, 408, 208
-0.992201, 177, 17, 240, 80
-0.992207, 257, 289, 500, 352
-0.992215, 157, 225, 188, 288
-0.992229, 1, 105, 64, 136
-0.992235, 281, 321, 312, 352
-0.992247, 161, 205, 224, 236
-0.992251, 409, 17, 472, 48
-0.992255, 377, 305, 440, 336
-0.992272, 165, 273, 196, 304
-0.992285, 161, 181, 224, 212
-0.992291, 285, 1, 316, 64
-0.992294, 137, 245, 200, 276
-0.992296, 345, 313, 408, 375
-0.992315, 305, 17, 336, 80
-0.992323, 161, 165, 224, 196
-0.992333, 129, 213, 192, 244
-0.99234, 137, 289, 168, 352
-0.992356, 393, 89, 424, 152
-0.992369, 225, 325, 288, 356
-0.99237, 101, 313, 132, 375
-0.992372, 177, 277, 208, 308
-0.992381, 149, 321, 180, 352
-0.992388, 165, 317, 196, 348
-0.992388, 177, 317, 208, 348
-0.992393, 409, 317, 472, 348
-0.992406, 433, 153, 496, 184
-0.992406, 133, 333, 164, 364
-0.992408, 93, 113, 124, 176
-0.992409, 301, 321, 332, 352
-0.992421, 333, 289, 364, 352
-0.992422, 321, 5, 384, 36
-0.992422, 129, 181, 192, 212
-0.992429, 257, 1, 320, 32
-0.992439, 201, 281, 232, 312
-0.992439, 17, 89, 80, 120
-0.992464, 257, 345, 320, 375
-0.992477, 313, 309, 344, 340
-0.992481, 361, 5, 424, 36
-0.992485, 197, 309, 228, 340
-0.992501, 173, 301, 204, 332
-0.992503, 185, 241, 216, 272
-0.992507, 205, 249, 236, 280
-0.99252, 189, 277, 220, 308
-0.992522, 257, 285, 320, 316
-0.992547, 129, 201, 192, 232
-0.992549, 57, 101, 120, 132
-0.992556, 217, 217, 280, 280
-0.992556, 113, 345, 176, 375
-0.992562, 377, 329, 440, 360
-0.992576, 377, 105, 440, 136
-0.992579, 301, 333, 332, 364
-0.992586, 153, 177, 184, 240
-0.992586, 1, 33, 64, 160
-0.992586, 97, 17, 160, 48
-0.992588, 169, 257, 200, 288
-0.992588, 129, 233, 192, 264
-0.992594, 213, 297, 244, 328
-0.992594, 205, 269, 236, 300
-0.992597, 217, 249, 280, 280
-0.9926, 169, 225, 200, 256
-0.992603, 153, 141, 216, 172
-0.992604, 329, 217, 392, 248
-0.992617, 177, 329, 208, 360
-0.992621, 161, 305, 192, 336
-0.992631, 261, 317, 292, 348
-0.992637, 377, 341, 440, 372
-0.992639, 109, 113, 140, 240
-0.992642, 217, 337, 280, 368
-0.992648, 385, 193, 448, 224
-0.99266, 313, 321, 344, 352
-0.992662, 193, 265, 448, 328
-0.992665, 433, 141, 496, 172
-0.992668, 425, 201, 488, 232
-0.992669, 337, 229, 400, 260
-0.992671, 165, 245, 196, 276
-0.992678, 129, 257, 192, 288
-0.992678, 189, 321, 220, 352
-0.99268, 185, 305, 216, 336
-0.992681, 209, 237, 272, 268
-0.992685, 233, 17, 296, 48
-0.992689, 353, 201, 416, 232
-0.992695, 1, 77, 64, 108
-0.992698, 97, 257, 352, 320
-0.992703, 209, 309, 240, 340
-0.992713, 233, 5, 296, 36
-0.992743, 173, 1, 204, 128
-0.992749, 325, 321, 356, 352
-0.992757, 145, 309, 176, 340
-0.992766, 165, 333, 196, 364
-0.992773, 457, 245, 488, 276
-0.9928, 185, 261, 216, 292
-0.992802, 225, 313, 256, 344
-0.992806, 205, 237, 236, 268
-0.992809, 325, 309, 356, 340
-0.99281, 129, 293, 256, 324
-0.992824, 321, 345, 352, 375
-0.992824, 125, 321, 156, 352
-0.992826, 385, 145, 416, 272
-0.992833, 385, 49, 416, 176
-0.992837, 385, 137, 416, 200
-0.992848, 281, 333, 312, 364
-0.992867, 137, 345, 168, 375
-0.992883, 369, 121, 400, 152
-0.992892, 81, 17, 112, 144
-0.992902, 181, 229, 212, 260
-0.992904, 469, 17, 500, 48
-0.992907, 469, 65, 500, 192
-0.992914, 445, 245, 476, 276
-0.99294, 381, 117, 412, 148
-0.992942, 385, 233, 416, 264
-0.992958, 469, 201, 500, 232
-0.992959, 441, 153, 472, 184
-0.992959, 313, 333, 344, 364
-0.992963, 285, 269, 316, 300
-0.99297, 413, 117, 444, 148
-0.99297, 237, 313, 268, 344
-0.992971, 357, 217, 388, 280
-0.992981, 169, 213, 200, 244
-0.992983, 293, 301, 324, 332
-0.992988, 213, 285, 244, 316
-0.99299, 465, 257, 496, 288
-0.992992, 161, 313, 288, 344
-0.993025, 317, 17, 348, 80
-0.993027, 249, 313, 280, 344
-0.993028, 17, 81, 48, 112
-0.993032, 145, 297, 176, 328
-0.993035, 113, 337, 144, 368
-0.993037, 369, 229, 400, 260
-0.993046, 445, 165, 476, 196
-0.993048, 429, 125, 460, 156
-0.993049, 281, 309, 312, 340
-0.993056, 25, 49, 88, 112
-0.993058, 193, 229, 224, 260
-0.993069, 425, 41, 488, 104
-0.993071, 137, 321, 168, 352
-0.993079, 361, 17, 392, 48
-0.993081, 185, 193, 248, 256
-0.99309, 417, 177, 448, 208
-0.993095, 405, 313, 436, 375
-0.993098, 165, 345, 196, 375
-0.993098, 281, 345, 312, 375
-0.9931, 145, 333, 176, 364
-0.993118, 345, 313, 376, 375
-0.993128, 201, 325, 232, 356
-0.993134, 405, 1, 436, 128
-0.993137, 373, 17, 404, 48
-0.993148, 329, 333, 360, 364
-0.993149, 345, 17, 376, 48
-0.993151, 137, 141, 168, 172
-0.993164, 461, 157, 492, 188
-0.993164, 173, 197, 204, 228
-0.993168, 17, 93, 48, 124
-0.993168, 153, 273, 184, 304
-0.99318, 305, 17, 336, 48
-0.993184, 401, 41, 464, 104
-0.993185, 225, 293, 256, 324
-0.993198, 145, 153, 176, 184
-0.993208, 317, 17, 348, 48
-0.993211, 385, 17, 416, 48
-0.993217, 433, 137, 464, 168
-0.993223, 217, 257, 248, 288
-0.993226, 257, 241, 500, 304
-0.993227, 133, 309, 164, 340
-0.993234, 173, 185, 204, 216
-0.993238, 369, 213, 400, 244
-0.993239, 125, 133, 156, 164
-0.99324, 393, 113, 424, 144
-0.993242, 393, 253, 424, 284
-0.993242, 397, 265, 428, 296
-0.993242, 265, 305, 296, 336
-0.993242, 113, 325, 144, 356
-0.993249, 289, 17, 320, 48
-0.993255, 457, 97, 488, 224
-0.993258, 257, 25, 320, 88
-0.993259, 333, 17, 364, 48
-0.993259, 357, 169, 388, 200
-0.993262, 413, 257, 444, 288
-0.993262, 453, 177, 484, 208
-0.993272, 157, 261, 188, 292
-0.993289, 153, 173, 184, 204
-0.993293, 85, 73, 116, 104
-0.993295, 441, 233, 472, 264
-0.993295, 417, 285, 448, 316
-0.993297, 117, 49, 148, 176
-0.993297, 17, 105, 48, 136
-0.993297, 293, 345, 324, 375
-0.9933, 225, 281, 256, 312
-0.993306, 397, 17, 428, 48
-0.993309, 113, 313, 144, 344
-0.993312, 357, 145, 388, 176
-0.993315, 97, 25, 128, 56
-0.99332, 149, 285, 180, 316
-0.993329, 453, 133, 484, 164
-0.993329, 153, 217, 184, 248
-0.993332, 441, 281, 472, 344
-0.993335, 329, 297, 360, 328
-0.993336, 457, 17, 488, 48
-0.993337, 175, 273, 190, 336
-0.993338, 357, 157, 388, 188
-0.993339, 105, 121, 136, 152
-0.993343, 421, 305, 452, 336
-0.993344, 313, 297, 344, 328
-0.993347, 305, 73, 432, 136
-0.993347, 429, 193, 460, 224
-0.99335, 469, 233, 500, 264
-0.993355, 417, 273, 448, 304
-0.993357, 365, 133, 396, 164
-0.993358, 245, 301, 276, 332
-0.993371, 409, 73, 472, 136
-0.993375, 25, 73, 56, 136
-0.993408, 417, 1, 448, 128
-0.993425, 409, 49, 440, 176
-0.993502, 97, 33, 128, 96
-0.993545, 157, 201, 188, 264
-0.99355, 201, 177, 232, 304
-0.993573, 113, 97, 176, 160
-0.993617, 301, 249, 332, 312
-0.993624, 1, 81, 32, 144
-0.993652, 349, 145, 380, 272
-0.993737, 361, 41, 424, 104
-0.993756, 129, 329, 256, 360
-0.99384, 129, 281, 256, 312
-0.993879, 253, 241, 284, 368
-0.993905, 169, 265, 184, 328
-0.993937, 181, 281, 196, 344
-0.993943, 329, 113, 392, 240
-0.993959, 221, 289, 236, 352
-0.993981, 153, 193, 184, 320
-0.994048, 225, 217, 480, 280
-0.994065, 453, 49, 484, 176
-0.994105, 209, 317, 336, 348
-0.994121, 245, 17, 276, 80
-0.994146, 241, 49, 368, 112
-0.994148, 187, 273, 202, 336
-0.994152, 221, 249, 236, 312
-0.994181, 169, 137, 200, 200
-0.994184, 329, 17, 360, 80
-0.994198, 269, 17, 300, 80
-0.994204, 369, 89, 400, 152
-0.994232, 361, 113, 392, 176
-0.994237, 73, 9, 136, 72
-0.994287, 1, 1, 128, 64
-0.994299, 417, 145, 448, 208
-0.994309, 257, 121, 500, 184
-0.994319, 353, 137, 480, 168
-0.99433, 289, 41, 416, 104
-0.994342, 413, 233, 444, 296
-0.994363, 421, 89, 452, 152
-0.994366, 401, 233, 432, 296
-0.994367, 353, 121, 480, 152
-0.994392, 381, 9, 412, 72
-0.994398, 125, 241, 156, 368
-0.994424, 169, 305, 184, 368
-0.994464, 81, 329, 208, 360
-0.994479, 453, 113, 484, 176
-0.99448, 369, 249, 496, 280
-0.994507, 169, 81, 232, 144
-0.994521, 161, 193, 416, 256
-0.994521, 113, 345, 240, 375
-0.994522, 193, 201, 320, 264
-0.994543, 191, 313, 206, 375
-0.994565, 209, 233, 224, 296
-0.994636, 137, 65, 168, 192
-0.994639, 177, 281, 304, 312
-0.994677, 65, 97, 128, 352
-0.99468, 163, 273, 178, 336
-0.994712, 159, 305, 174, 368
-0.994722, 337, 177, 464, 208
-0.994752, 195, 265, 210, 328
-0.994754, 113, 305, 240, 336
-0.994772, 81, 317, 208, 348
-0.994827, 185, 225, 200, 288
-0.99484, 1, 289, 500, 352
-0.994861, 89, 89, 120, 152
-0.994862, 329, 129, 392, 192
-0.994873, 385, 201, 416, 264
-0.994915, 329, 305, 344, 368
-0.994917, 437, 209, 468, 272
-0.994941, 307, 305, 322, 368
-0.994953, 273, 345, 400, 375
-0.994956, 321, 97, 448, 160
-0.994988, 137, 241, 168, 368
-0.995008, 329, 49, 392, 112
-0.995041, 129, 1, 160, 64
-0.995053, 289, 313, 304, 375
-0.995081, 257, 129, 384, 192
-0.995094, 161, 265, 288, 296
-0.995094, 213, 281, 228, 344
-0.995104, 201, 129, 264, 375
-0.995114, 183, 305, 198, 368
-0.995117, 137, 17, 168, 144
-0.995128, 161, 1, 192, 128
-0.99515, 185, 249, 200, 312
-0.995151, 457, 9, 488, 72
-0.995155, 397, 161, 428, 224
-0.99517, 299, 313, 314, 375
-0.995183, 323, 305, 338, 368
-0.99519, 203, 297, 218, 360
-0.995198, 193, 49, 320, 176
-0.995204, 149, 313, 164, 375
-0.995208, 49, 313, 112, 375
-0.995232, 265, 313, 280, 375
-0.995254, 289, 241, 320, 304
-0.995291, 97, 233, 352, 296
-0.995314, 227, 281, 242, 344
-0.995314, 197, 305, 212, 368
-0.995331, 161, 345, 288, 375
-0.99535, 65, 17, 320, 80
-0.995351, 299, 289, 314, 352
-0.995357, 1, 313, 256, 375
-0.99537, 337, 233, 464, 264
-0.995386, 445, 129, 476, 375
-0.995388, 275, 313, 290, 375
-0.995434, 453, 145, 468, 208
-0.995452, 175, 225, 190, 288
-0.995452, 199, 225, 214, 288
-0.995469, 215, 241, 230, 304
-0.995495, 409, 89, 440, 152
-0.995512, 213, 305, 228, 368
-0.995521, 175, 297, 190, 360
-0.995528, 1, 217, 256, 280
-0.995536, 257, 169, 500, 232
-0.995543, 241, 329, 368, 360
-0.995557, 179, 249, 194, 312
-0.995562, 137, 305, 152, 368
-0.995562, 1, 273, 256, 336
-0.995565, 241, 49, 304, 112
-0.995569, 469, 97, 500, 160
-0.995592, 381, 81, 412, 144
-0.99562, 209, 293, 336, 324
-0.995621, 241, 241, 272, 368
-0.995632, 113, 9, 144, 72
-0.995637, 165, 161, 180, 224
-0.995642, 33, 241, 160, 368
-0.995653, 289, 289, 304, 352
-0.995664, 1, 217, 500, 280
-0.995688, 273, 313, 400, 344
-0.995733, 201, 265, 216, 328
-0.995737, 313, 241, 376, 304
-0.995746, 369, 73, 496, 136
-0.995747, 227, 305, 242, 368
-0.995756, 483, 265, 498, 328
-0.995782, 1, 193, 500, 256
-0.995794, 129, 249, 256, 280
-0.995818, 433, 1, 464, 128
-0.995825, 27, 73, 42, 136
-0.995826, 345, 281, 408, 344
-0.995839, 337, 161, 464, 192
-0.995848, 337, 193, 464, 224
-0.995849, 353, 149, 480, 180
-0.995858, 257, 9, 500, 72
-0.995883, 49, 265, 176, 328
-0.995908, 193, 225, 208, 288
-0.99592, 295, 265, 310, 328
-0.995927, 33, 341, 160, 372
-0.99594, 143, 305, 158, 368
-0.995942, 33, 289, 160, 352
-0.995943, 29, 97, 60, 160
-0.99595, 313, 305, 328, 368
-0.995993, 335, 305, 350, 368
-0.996004, 169, 241, 184, 304
-0.996008, 61, 33, 92, 160
-0.996015, 409, 97, 440, 352
-0.996016, 465, 241, 480, 304
-0.996024, 283, 313, 298, 375
-0.996056, 233, 305, 248, 368
-0.996057, 225, 193, 256, 320
-0.996058, 483, 201, 498, 264
-0.996081, 129, 313, 144, 375
-0.996087, 1, 161, 256, 224
-0.996091, 273, 17, 400, 48
-0.996101, 209, 341, 336, 372
-0.996107, 207, 273, 222, 336
-0.99611, 113, 269, 240, 300
-0.996114, 209, 305, 336, 336
-0.996124, 1, 249, 256, 312
-0.996139, 257, 145, 500, 208
-0.996146, 257, 17, 288, 80
-0.996152, 33, 49, 288, 112
-0.996159, 477, 249, 492, 312
-0.99616, 341, 169, 372, 232
-0.996163, 321, 341, 448, 372
-0.996172, 425, 313, 456, 375
-0.996175, 461, 305, 492, 368
-0.996182, 175, 185, 190, 248
-0.99619, 385, 113, 400, 176
-0.9962, 161, 169, 416, 232
-0.99622, 401, 225, 416, 288
-0.996236, 429, 97, 460, 352
-0.996254, 209, 269, 336, 300
-0.996296, 365, 1, 396, 256
-0.996299, 283, 289, 298, 352
-0.99631, 149, 97, 180, 224
-0.996312, 169, 209, 184, 272
-0.996314, 453, 241, 468, 304
-0.996325, 305, 97, 368, 224
-0.99633, 443, 129, 458, 192
-0.996338, 97, 1, 128, 256
-0.996338, 193, 49, 320, 112
-0.996339, 321, 313, 448, 344
-0.996368, 161, 145, 416, 208
-0.996389, 389, 1, 420, 256
-0.996399, 157, 281, 172, 344
-0.996419, 337, 205, 464, 236
-0.996435, 1, 265, 500, 328
-0.996457, 369, 261, 496, 292
-0.996461, 471, 249, 486, 312
-0.996472, 1, 17, 500, 80
-0.996479, 361, 137, 376, 200
-0.996479, 459, 161, 474, 224
-0.99649, 209, 1, 272, 375
-0.996493, 433, 169, 448, 232
-0.996498, 81, 289, 208, 320
-0.996504, 313, 105, 376, 168
-0.996512, 457, 129, 488, 375
-0.996524, 33, 73, 288, 136
-0.996543, 289, 325, 416, 356
-0.996575, 459, 241, 474, 304
-0.9966, 193, 57, 256, 120
-0.996606, 9, 17, 40, 144
-0.996613, 345, 49, 376, 176
-0.996618, 41, 17, 104, 80
-0.99662, 469, 129, 500, 375
-0.99662, 161, 237, 288, 268
-0.996629, 129, 33, 256, 96
-0.996633, 275, 289, 290, 352
-0.996637, 1, 109, 128, 140
-0.996681, 193, 329, 320, 360
-0.996683, 391, 113, 406, 176
-0.996701, 33, 97, 64, 224
-0.996712, 113, 237, 240, 268
-0.996713, 377, 1, 408, 256
-0.996718, 321, 17, 448, 48
-0.996725, 425, 177, 440, 240
-0.996754, 447, 241, 462, 304
-0.996762, 485, 233, 500, 296
-0.996781, 381, 97, 412, 352
-0.996782, 321, 301, 448, 332
-0.996789, 353, 221, 480, 252
-0.996792, 289, 193, 352, 320
-0.996794, 379, 113, 394, 176
-0.996795, 467, 177, 482, 240
-0.996799, 117, 1, 148, 256
-0.996804, 225, 17, 352, 48
-0.996805, 257, 313, 272, 375
-0.996813, 1, 1, 64, 375
-0.996814, 185, 281, 200, 312
-0.996819, 365, 97, 396, 352
-0.99682, 41, 1, 104, 375
-0.996829, 397, 97, 428, 352
-0.996858, 453, 1, 484, 256
-0.996867, 1, 169, 500, 232
-0.996882, 239, 305, 254, 368
-0.99689, 161, 17, 416, 80
-0.996893, 321, 257, 448, 288
-0.9969, 1, 113, 500, 176
-0.996909, 221, 313, 236, 375
-0.996916, 173, 273, 188, 304
-0.996934, 179, 281, 194, 312
-0.996943, 305, 49, 368, 112
-0.996944, 385, 225, 400, 288
-0.99697, 225, 241, 288, 304
-0.996975, 401, 1, 432, 256
-0.996978, 151, 289, 166, 352
-0.996978, 289, 265, 304, 328
-0.996983, 435, 121, 450, 184
-0.996996, 1, 97, 128, 128
-0.996999, 425, 113, 440, 176
-0.997001, 1, 241, 500, 304
-0.997002, 1, 77, 128, 108
-0.997004, 187, 309, 202, 340
-0.997014, 265, 49, 328, 112
-0.997015, 313, 1, 376, 375
-0.997016, 433, 193, 448, 256
-0.997016, 409, 257, 424, 320
-0.997019, 305, 281, 320, 344
-0.997022, 145, 129, 176, 375
-0.997033, 181, 265, 196, 296
-0.997037, 251, 313, 266, 375
-0.997041, 433, 73, 496, 136
-0.997048, 121, 305, 136, 368
-0.997055, 469, 1, 500, 256
-0.997061, 1, 193, 256, 256
-0.997065, 341, 313, 356, 375
-0.997069, 321, 245, 448, 276
-0.997096, 209, 257, 336, 288
-0.997101, 455, 217, 470, 280
-0.997113, 355, 9, 370, 72
-0.997123, 409, 113, 424, 176
-0.997128, 353, 285, 480, 316
-0.997131, 173, 285, 188, 316
-0.997135, 397, 113, 412, 176
-0.99714, 307, 321, 322, 352
-0.997153, 267, 289, 282, 352
-0.997163, 475, 225, 490, 288
-0.997166, 369, 17, 496, 48
-0.997188, 129, 1, 160, 256
-0.997192, 193, 97, 448, 160
-0.997201, 149, 1, 180, 128
-0.997209, 145, 137, 160, 200
-0.997213, 305, 133, 432, 164
-0.997218, 259, 289, 274, 352
-0.99722, 175, 321, 190, 352
-0.997224, 129, 57, 256, 120
-0.997225, 217, 57, 280, 120
-0.997233, 81, 161, 208, 192
-0.997235, 379, 225, 394, 288
-0.997239, 65, 97, 320, 160
-0.997245, 169, 309, 184, 340
-0.997257, 373, 201, 388, 264
-0.997261, 165, 285, 180, 316
-0.997262, 361, 9, 376, 72
-0.997263, 391, 225, 406, 288
-0.99727, 321, 273, 448, 304
-0.997285, 337, 329, 464, 360
-0.997289, 257, 193, 500, 256
-0.99729, 227, 257, 242, 320
-0.997293, 463, 217, 478, 280
-0.997315, 33, 125, 160, 156
-0.99733, 215, 241, 230, 272
-0.99733, 215, 217, 230, 280
-0.997343, 157, 153, 172, 216
-0.997347, 273, 5, 400, 36
-0.997348, 21, 73, 36, 136
-0.99735, 197, 301, 212, 332
-0.99736, 81, 173, 208, 204
-0.997361, 477, 193, 492, 256
-0.997362, 371, 225, 386, 288
-0.99737, 145, 1, 176, 256
-0.997372, 113, 225, 240, 256
-0.997375, 353, 5, 480, 36
-0.997377, 377, 9, 392, 72
-0.997389, 213, 305, 228, 336
-0.99739, 369, 301, 496, 332
-0.997398, 419, 257, 434, 320
-0.9974, 415, 113, 430, 176
-0.997405, 65, 73, 192, 104
-0.997407, 145, 197, 272, 228
-0.997418, 159, 317, 174, 348
-0.997423, 169, 97, 200, 224
-0.997425, 369, 313, 496, 344
-0.997437, 333, 281, 348, 344
-0.997445, 363, 201, 378, 264
-0.997446, 441, 233, 456, 296
-0.997449, 191, 269, 206, 300
-0.997456, 193, 317, 208, 348
-0.997466, 179, 293, 194, 324
-0.997475, 481, 9, 496, 72
-0.997481, 205, 289, 220, 320
-0.997491, 207, 209, 222, 272
-0.997495, 217, 281, 232, 312
-0.997516, 417, 1, 448, 256
-0.997517, 159, 305, 174, 336
-0.997521, 275, 317, 290, 348
-0.997523, 485, 177, 500, 240
-0.997538, 305, 149, 432, 180
-0.997545, 373, 121, 388, 184
-0.997546, 1, 137, 500, 200
-0.997556, 219, 297, 234, 328
-0.997557, 193, 5, 320, 36
-0.997559, 367, 9, 382, 72
-0.997563, 403, 113, 418, 176
-0.99757, 65, 141, 192, 172
-0.997572, 15, 81, 30, 144
-0.997575, 151, 137, 166, 200
-0.997581, 407, 233, 422, 296
-0.997588, 145, 105, 272, 168
-0.997601, 81, 21, 208, 52
-0.997605, 319, 9, 334, 72
-0.997608, 285, 317, 300, 348
-0.997609, 1, 137, 256, 200
-0.997611, 213, 177, 244, 304
-0.997617, 289, 225, 416, 256
-0.997618, 417, 297, 432, 360
-0.997625, 441, 1, 472, 256
-0.997627, 455, 153, 470, 184
-0.997633, 473, 161, 488, 224
-0.997642, 157, 129, 188, 375
-0.997661, 225, 73, 352, 136
-0.997663, 383, 9, 398, 72
-0.997664, 353, 1, 384, 256
-0.997665, 247, 289, 262, 352
-0.997667, 311, 17, 326, 80
-0.997669, 257, 273, 384, 304
-0.997669, 389, 89, 404, 152
-0.99768, 317, 325, 332, 356
-0.997684, 65, 61, 192, 92
-0.997694, 131, 325, 146, 356
-0.997696, 125, 1, 156, 128
-0.997698, 33, 325, 160, 356
-0.997698, 197, 285, 212, 316
-0.997703, 301, 321, 316, 352
-0.997703, 327, 321, 342, 352
-0.997703, 145, 185, 272, 216
-0.997704, 167, 273, 182, 304
-0.997715, 201, 261, 216, 292
-0.997725, 345, 257, 408, 320
-0.99773, 197, 241, 212, 272
-0.997736, 165, 297, 180, 328
-0.997743, 177, 225, 192, 256
-0.997747, 329, 309, 344, 340
-0.997748, 187, 329, 202, 360
-0.997749, 211, 293, 226, 324
-0.997758, 191, 289, 206, 320
-0.997772, 143, 317, 158, 348
-0.997773, 97, 121, 352, 184
-0.997783, 295, 321, 310, 352
-0.99779, 137, 329, 152, 360
-0.997792, 171, 261, 186, 292
-0.997799, 151, 325, 166, 356
-0.997799, 81, 185, 208, 216
-0.997802, 267, 313, 282, 344
-0.997802, 145, 165, 272, 196
-0.997812, 81, 209, 208, 240
-0.997834, 1, 89, 500, 152
-0.997852, 173, 129, 204, 375
-0.99786, 341, 1, 372, 256
-0.997868, 483, 201, 498, 232
-0.997868, 429, 1, 460, 256
-0.997873, 305, 285, 432, 316
-0.997881, 181, 321, 196, 352
-0.997884, 207, 249, 222, 280
-0.997891, 145, 5, 272, 36
-0.997891, 257, 161, 384, 192
-0.997892, 257, 301, 384, 332
-0.997894, 161, 213, 288, 244
-0.997911, 221, 253, 236, 284
-0.997921, 185, 237, 200, 268
-0.997926, 171, 245, 186, 276
-0.997938, 473, 253, 488, 284
-0.997938, 289, 121, 416, 152
-0.997951, 203, 233, 218, 264
-0.997959, 173, 297, 188, 328
-0.997964, 17, 129, 144, 192
-0.997965, 159, 293, 174, 324
-0.997971, 1, 57, 500, 120
-0.997975, 1, 65, 128, 96
-0.997984, 207, 305, 222, 336
-0.998005, 385, 117, 400, 148
-0.99801, 327, 333, 342, 364
-0.998016, 81, 197, 208, 228
-0.998031, 85, 1, 116, 256
-0.998035, 225, 293, 240, 324
-0.998045, 219, 269, 234, 300
-0.998046, 205, 277, 220, 308
-0.998047, 369, 109, 496, 140
-0.998048, 301, 333, 316, 364
-0.998062, 335, 305, 350, 336
-0.998067, 461, 245, 476, 276
-0.998073, 455, 241, 470, 272
-0.998078, 239, 313, 254, 344
-0.998078, 433, 173, 448, 204
-0.998082, 211, 269, 226, 300
-0.998082, 81, 253, 208, 284
-0.998085, 311, 333, 326, 364
-0.99809, 153, 309, 168, 340
-0.998093, 179, 305, 194, 336
-0.9981, 183, 225, 198, 256
-0.998104, 129, 141, 256, 172
-0.998113, 445, 133, 460, 164
-0.998116, 209, 237, 224, 268
-0.998129, 127, 345, 142, 375
-0.99813, 481, 261, 496, 292
-0.998132, 483, 17, 498, 48
-0.998133, 273, 213, 400, 244
-0.998143, 379, 121, 394, 152
-0.998144, 179, 253, 194, 284
-0.998145, 171, 217, 186, 248
-0.998146, 319, 313, 334, 344
-0.998147, 209, 245, 336, 276
-0.998148, 225, 313, 240, 344
-0.99815, 57, 97, 88, 224
-0.998155, 81, 9, 208, 40
-0.998156, 203, 317, 218, 348
-0.99816, 385, 229, 400, 260
-0.998164, 219, 309, 234, 340
-0.99817, 333, 345, 348, 375
-0.998172, 167, 333, 182, 364
-0.998188, 467, 245, 482, 276
-0.99819, 177, 17, 304, 48
-0.998194, 145, 153, 272, 184
-0.998194, 173, 205, 188, 236
-0.998207, 185, 293, 200, 324
-0.99821, 65, 305, 192, 336
-0.998211, 373, 17, 388, 48
-0.998213, 185, 129, 216, 375
-0.99822, 435, 189, 450, 220
-0.998221, 191, 229, 206, 260
-0.998223, 145, 329, 160, 360
-0.998225, 301, 1, 332, 256
-0.998225, 65, 49, 192, 80
-0.998228, 273, 261, 400, 292
-0.998229, 161, 329, 176, 360
-0.998232, 169, 321, 184, 352
-0.998234, 161, 157, 176, 188
-0.998254, 379, 17, 394, 48
-0.998255, 151, 337, 166, 368
-0.998265, 281, 225, 344, 288
-0.998276, 171, 233, 186, 264
-0.998277, 357, 17, 372, 48
-0.99828, 233, 313, 248, 344
-0.99828, 65, 273, 192, 304
-0.998298, 191, 249, 206, 280
-0.9983, 317, 337, 332, 368
-0.998315, 247, 313, 262, 344
-0.998315, 273, 193, 400, 224
-0.99832, 367, 17, 382, 48
-0.99832, 335, 317, 350, 348
-0.998326, 463, 177, 478, 208
-0.998328, 145, 25, 208, 88
-0.998329, 279, 305, 294, 336
-0.998331, 437, 125, 452, 156
-0.998334, 285, 1, 316, 256
-0.998336, 81, 105, 208, 136
-0.998343, 175, 193, 190, 224
-0.998343, 197, 229, 212, 260
-0.998344, 369, 345, 496, 375
-0.99835, 165, 345, 196, 360
-0.99835, 211, 281, 226, 312
-0.998351, 321, 351, 352, 366
-0.998353, 197, 273, 212, 304
-0.998353, 177, 225, 304, 256
-0.998355, 17, 87, 48, 102
-0.998356, 165, 263, 196, 278
-0.998356, 205, 277, 236, 292
-0.998356, 173, 195, 204, 210
-0.998357, 391, 117, 406, 148
-0.998358, 87, 65, 102, 96
-0.998358, 317, 19, 348, 34
-0.998359, 133, 343, 164, 358
-0.998359, 341, 359, 372, 374
-0.99836, 305, 19, 336, 34
-0.998361, 469, 205, 500, 220
-0.998361, 445, 173, 476, 188
-0.998362, 329, 327, 360, 342
-0.998362, 137, 317, 152, 348
-0.998363, 281, 361, 312, 375
-0.998364, 213, 263, 244, 278
-0.998365, 265, 313, 296, 328
-0.998366, 461, 167, 492, 182
-0.998367, 133, 337, 164, 352
-0.998367, 253, 1, 284, 256
-0.998367, 109, 341, 140, 356
-0.998368, 173, 187, 204, 202
-0.998368, 17, 93, 48, 108
-0.99837, 421, 117, 436, 148
-0.998371, 319, 17, 334, 48
-0.998371, 177, 337, 208, 352
-0.998372, 465, 261, 496, 276
-0.998372, 369, 19, 400, 34
-0.998373, 169, 213, 200, 228
-0.998375, 129, 17, 256, 48
-0.998375, 303, 301, 318, 332
-0.998376, 461, 159, 492, 174
-0.998378, 281, 271, 312, 286
-0.99838, 17, 79, 48, 94
-0.99838, 401, 233, 416, 264
-0.998381, 153, 339, 184, 354
-0.998381, 469, 269, 500, 284
-0.998382, 225, 281, 240, 312
-0.998383, 293, 269, 308, 300
-0.998383, 281, 355, 312, 370
-0.998384, 421, 179, 452, 194
-0.998384, 293, 309, 308, 340
-0.998386, 17, 101, 48, 116
-0.998388, 217, 305, 248, 320
-0.998388, 153, 293, 216, 308
-0.998389, 137, 349, 168, 364
-0.998392, 341, 19, 372, 34
-0.998392, 397, 117, 428, 132
-0.998393, 167, 173, 182, 204
-0.998394, 441, 153, 472, 168
-0.998395, 369, 129, 400, 144
-0.998396, 281, 349, 312, 364
-0.998397, 205, 293, 236, 308
-0.998398, 155, 153, 170, 184
-0.998398, 145, 313, 176, 328
-0.998399, 261, 325, 292, 340
-0.998399, 429, 121, 444, 152
-0.998401, 153, 297, 168, 328
-0.998402, 373, 125, 388, 156
-0.998403, 149, 307, 180, 322
-0.998405, 449, 241, 464, 272
-0.998405, 313, 309, 344, 324
-0.998406, 281, 341, 312, 356
-0.998406, 325, 309, 356, 324
-0.998406, 353, 19, 384, 34
-0.998408, 121, 327, 152, 342
-0.998409, 177, 275, 208, 290
-0.998411, 477, 201, 492, 232
-0.998411, 165, 221, 196, 236
-0.998414, 469, 21, 500, 36
-0.998415, 165, 235, 196, 250
-0.998415, 165, 257, 196, 272
-0.998416, 217, 297, 248, 312
-0.998417, 457, 253, 488, 268
-0.998418, 145, 329, 208, 344
-0.998421, 233, 315, 264, 330
-0.998421, 145, 57, 208, 120
-0.998422, 377, 121, 408, 136
-0.998423, 201, 237, 232, 252
-0.998423, 241, 1, 272, 256
-0.998426, 157, 281, 188, 296
-0.998428, 193, 315, 224, 330
-0.998428, 285, 315, 316, 330
-0.99843, 313, 327, 344, 342
-0.998431, 177, 283, 240, 298
-0.998431, 413, 119, 444, 134
-0.998435, 153, 333, 184, 348
-0.998437, 301, 327, 332, 342
-0.998438, 169, 299, 232, 314
-0.998439, 205, 299, 236, 314
-0.99844, 189, 267, 220, 282
-0.998442, 185, 247, 216, 262
-0.998446, 193, 327, 224, 342
-0.998447, 169, 307, 232, 322
-0.998449, 177, 255, 208, 270
-0.99845, 281, 335, 312, 350
-0.99845, 353, 97, 384, 352
-0.99845, 189, 283, 220, 298
-0.998451, 253, 317, 284, 332
-0.998453, 205, 305, 236, 320
-0.998453, 385, 231, 416, 246
-0.998454, 325, 321, 356, 336
-0.998455, 273, 321, 336, 336
-0.998458, 165, 251, 196, 266
-0.998458, 189, 257, 220, 272
-0.998458, 165, 335, 196, 350
-0.998459, 153, 287, 216, 302
-0.998459, 169, 329, 232, 344
-0.998461, 313, 337, 344, 352
-0.998463, 193, 321, 224, 336
-0.998463, 121, 333, 184, 348
-0.998464, 65, 33, 192, 64
-0.998465, 145, 313, 208, 328
-0.998466, 325, 315, 356, 330
-0.998469, 169, 269, 200, 284
-0.998469, 369, 273, 496, 304
-0.99847, 209, 271, 240, 286
-0.998474, 205, 251, 236, 266
-0.998474, 201, 261, 232, 276
-0.998474, 449, 245, 480, 260
-0.998475, 317, 345, 348, 360
-0.998475, 161, 301, 192, 316
-0.998476, 189, 233, 220, 248
-0.998481, 317, 1, 348, 256
-0.998481, 177, 261, 208, 276
-0.998485, 181, 239, 212, 254
-0.998486, 273, 1, 304, 256
-0.998489, 201, 243, 232, 258
-0.998491, 377, 119, 440, 134
-0.998492, 133, 331, 164, 346
-0.998493, 185, 313, 248, 328
-0.998494, 153, 321, 184, 336
-0.998495, 373, 229, 404, 244
-0.998495, 129, 323, 192, 338
-0.998495, 169, 245, 200, 260
-0.998496, 161, 247, 224, 262
-0.998498, 165, 275, 196, 290
-0.998501, 189, 277, 220, 292
-0.998502, 185, 263, 248, 278
-0.998507, 181, 325, 212, 340
-0.998507, 177, 291, 240, 306
-0.998511, 205, 285, 236, 300
-0.998511, 369, 29, 496, 60
-0.998512, 169, 241, 232, 256
-0.998512, 181, 303, 212, 318
-0.998512, 169, 229, 200, 244
-0.998513, 249, 319, 312, 334
-0.998515, 213, 313, 244, 328
-0.998515, 433, 261, 496, 276
-0.998516, 185, 271, 248, 286
-0.998516, 161, 277, 224, 292
-0.998517, 305, 319, 368, 334
-0.998517, 301, 341, 332, 356
-0.998518, 121, 339, 184, 354
-0.998518, 281, 315, 344, 330
-0.99852, 145, 299, 208, 314
-0.99852, 41, 121, 104, 184
-0.998523, 293, 321, 324, 336
-0.998523, 189, 309, 220, 324
-0.998528, 157, 315, 188, 330
-0.998529, 137, 321, 168, 336
-0.99853, 145, 337, 208, 352
-0.99853, 257, 149, 384, 180
-0.99853, 313, 315, 344, 330
-0.998531, 257, 181, 384, 212
-0.998532, 281, 327, 312, 342
-0.998533, 161, 293, 192, 308
-0.998534, 257, 285, 384, 316
-0.998537, 265, 327, 328, 342
-0.998537, 153, 319, 216, 334
-0.99854, 157, 1, 188, 256
-0.99854, 165, 327, 196, 342
-0.99854, 289, 327, 352, 342
-0.998541, 161, 235, 224, 250
-0.998541, 185, 251, 248, 266
-0.998543, 425, 251, 488, 266
-0.998543, 193, 293, 224, 308
-0.998543, 185, 277, 248, 292
-0.998544, 313, 321, 344, 336
-0.998545, 161, 309, 192, 324
-0.998546, 301, 333, 332, 348
-0.998546, 265, 319, 296, 334
-0.998547, 361, 233, 424, 248
-0.998547, 209, 315, 272, 330
-0.998549, 177, 331, 208, 346
-0.998551, 425, 193, 488, 208
-0.998554, 121, 345, 184, 360
-0.998554, 289, 345, 352, 360
-0.998555, 185, 257, 248, 272
-0.998556, 145, 307, 208, 322
-0.998563, 177, 335, 240, 350
-0.998563, 177, 317, 208, 332
-0.998565, 173, 309, 204, 324
-0.998566, 137, 361, 200, 375
-0.998566, 129, 353, 192, 368
-0.998566, 153, 267, 216, 282
-0.998567, 153, 229, 216, 244
-0.998573, 297, 351, 360, 366
-0.998573, 105, 327, 168, 342
-0.998574, 169, 281, 200, 296
-0.998577, 173, 297, 204, 312
-0.998581, 289, 337, 352, 352
-0.998582, 161, 261, 224, 276
-0.998582, 153, 327, 184, 342
-0.998583, 329, 361, 392, 375
-0.998585, 401, 257, 464, 272
-0.998585, 281, 321, 312, 336
-0.998586, 165, 321, 196, 336
-0.998588, 153, 253, 216, 268
-0.998592, 81, 129, 208, 160
-0.998596, 89, 343, 152, 358
-0.998596, 425, 185, 488, 200
-0.998596, 193, 297, 256, 312
-0.998598, 177, 355, 240, 370
-0.9986, 401, 263, 464, 278
-0.998604, 193, 307, 256, 322
-0.998605, 337, 19, 400, 34
-0.998607, 193, 303, 224, 318
-0.998607, 401, 251, 464, 266
-0.998607, 401, 241, 464, 256
-0.998609, 433, 133, 496, 148
-0.998609, 129, 281, 192, 296
-0.99861, 105, 321, 168, 336
-0.998611, 145, 343, 208, 358
-0.998613, 305, 313, 368, 328
-0.998614, 161, 195, 224, 210
-0.998614, 185, 319, 248, 334
-0.998616, 177, 349, 240, 364
-0.998617, 97, 333, 160, 348
-0.998617, 189, 225, 204, 352
-0.998618, 433, 267, 496, 282
-0.998618, 425, 245, 488, 260
-0.998619, 425, 179, 488, 194
-0.99862, 257, 335, 320, 350
-0.998621, 161, 211, 224, 226
-0.998623, 65, 89, 192, 120
-0.998624, 361, 125, 424, 140
-0.998624, 313, 19, 376, 34
-0.998625, 177, 341, 240, 356
-0.998625, 177, 287, 208, 302
-0.998625, 393, 129, 456, 144
-0.998626, 329, 355, 392, 370
-0.998627, 401, 141, 464, 156
-0.99863, 161, 217, 224, 232
-0.99863, 401, 269, 464, 284
-0.99863, 193, 241, 256, 256
-0.998631, 433, 21, 496, 36
-0.998631, 321, 341, 384, 356
-0.998631, 353, 133, 416, 148
-0.998632, 177, 361, 240, 375
-0.998632, 425, 199, 488, 214
-0.998633, 401, 135, 464, 150
-0.998634, 209, 291, 272, 306
-0.998634, 353, 139, 416, 154
-0.998634, 89, 353, 152, 368
-0.998634, 281, 19, 344, 34
-0.998637, 193, 327, 256, 342
-0.998637, 121, 303, 184, 318
-0.998637, 385, 225, 448, 240
-0.998639, 409, 311, 472, 326
-0.998639, 105, 315, 168, 330
-0.99864, 185, 235, 248, 250
-0.998641, 129, 287, 192, 302
-0.998641, 361, 19, 424, 34
-0.998642, 433, 127, 496, 142
-0.998643, 105, 137, 168, 152
-0.998645, 161, 187, 224, 202
-0.998646, 409, 291, 472, 306
-0.998646, 329, 1, 360, 256
-0.998646, 337, 229, 400, 244
-0.998646, 369, 253, 432, 268
-0.998646, 369, 265, 432, 280
-0.998647, 297, 359, 360, 374
-0.998648, 97, 361, 160, 375
-0.998648, 361, 227, 424, 242
-0.998648, 161, 287, 192, 302
-0.998649, 345, 177, 408, 192
-0.998649, 161, 223, 224, 238
-0.99865, 201, 285, 264, 300
-0.99865, 409, 147, 472, 162
-0.99865, 409, 173, 472, 188
-0.998651, 257, 313, 320, 328
-0.998651, 313, 325, 376, 340
-0.998651, 137, 141, 200, 156
-0.998651, 401, 285, 464, 300
-0.998651, 409, 305, 472, 320
-0.998653, 129, 293, 192, 308
-0.998654, 401, 235, 464, 250
-0.998655, 401, 275, 464, 290
-0.998656, 329, 347, 392, 362
-0.998656, 233, 313, 296, 328
-0.998657, 409, 163, 472, 178
-0.998658, 113, 143, 176, 158
-0.998658, 369, 271, 432, 286
-0.998663, 97, 117, 224, 148
-0.99867, 217, 225, 232, 352
-0.998689, 257, 73, 500, 136
-0.998694, 169, 209, 184, 336
-0.998696, 209, 25, 272, 88
-0.998706, 1, 17, 128, 48
-0.998711, 25, 97, 88, 352
-0.998725, 193, 81, 320, 112
-0.998726, 179, 209, 194, 336
-0.998735, 211, 225, 226, 352
-0.998737, 201, 49, 264, 176
-0.998757, 337, 81, 464, 112
-0.998758, 483, 193, 498, 320
-0.998778, 223, 241, 238, 368
-0.998781, 205, 225, 220, 352
-0.998785, 21, 65, 52, 320
-0.998788, 129, 129, 256, 160
-0.998802, 1, 37, 128, 68
-0.998804, 451, 225, 466, 352
-0.998804, 49, 49, 80, 176
-0.998808, 477, 241, 492, 368
-0.998838, 1, 53, 128, 84
-0.99884, 289, 77, 416, 108
-0.998852, 465, 225, 480, 352
-0.998854, 295, 241, 310, 368
-0.99886, 1, 121, 64, 184
-0.998884, 229, 1, 260, 256
-0.998887, 463, 161, 478, 288
-0.998893, 459, 225, 474, 352
-0.998905, 477, 177, 492, 304
-0.998909, 193, 41, 448, 104
-0.998916, 201, 1, 232, 256
-0.998917, 177, 73, 304, 136
-0.998922, 445, 225, 460, 352
-0.998945, 471, 225, 486, 352
-0.998965, 21, 17, 52, 144
-0.998981, 121, 97, 152, 352
-0.998984, 421, 97, 436, 224
-0.998989, 469, 177, 484, 304
-0.999009, 195, 241, 210, 368
-0.99901, 457, 145, 472, 272
-0.999016, 217, 1, 248, 256
-0.999036, 73, 1, 104, 256
-0.999037, 301, 241, 316, 368
-0.999056, 415, 97, 430, 224
-0.999061, 189, 1, 220, 256
-0.999062, 433, 113, 448, 240
-0.999063, 165, 145, 180, 272
-0.999074, 169, 1, 200, 256
-0.999084, 27, 65, 42, 192
-0.999098, 287, 241, 302, 368
-0.999111, 483, 241, 498, 368
-0.999122, 273, 109, 400, 140
-0.999125, 409, 97, 424, 224
-0.999137, 163, 241, 178, 368
-0.999145, 33, 5, 160, 36
-0.999151, 427, 113, 442, 240
-0.999155, 369, 93, 496, 124
-0.999161, 9, 33, 40, 288
-0.999165, 441, 113, 456, 240
-0.999166, 485, 1, 500, 128
-0.999168, 197, 129, 228, 375
-0.999179, 363, 129, 378, 256
-0.999187, 161, 69, 288, 100
-0.999189, 257, 249, 384, 280
-0.999213, 241, 81, 368, 112
-0.999223, 133, 97, 164, 352
-0.999229, 171, 161, 186, 288
-0.999233, 439, 225, 454, 352
-0.999233, 257, 137, 384, 168
-0.99924, 369, 69, 496, 100
-0.999245, 411, 241, 426, 368
-0.999251, 433, 193, 448, 320
-0.999262, 317, 241, 332, 368
-0.999268, 355, 1, 370, 128
-0.999272, 335, 1, 350, 128
-0.999275, 471, 1, 486, 128
-0.999279, 249, 1, 264, 128
-0.999281, 347, 1, 362, 128
-0.999283, 259, 1, 274, 128
-0.999283, 365, 1, 380, 128
-0.999285, 229, 241, 244, 368
-0.999293, 325, 1, 340, 128
-0.999296, 451, 129, 466, 256
-0.999303, 313, 1, 328, 128
-0.999315, 303, 1, 318, 128
-0.999315, 341, 1, 356, 128
-0.999316, 281, 241, 296, 368
-0.999318, 367, 209, 382, 336
-0.999322, 319, 1, 334, 128
-0.999326, 159, 145, 174, 272
-0.999327, 413, 161, 428, 288
-0.99933, 461, 1, 476, 128
-0.999334, 307, 241, 322, 368
-0.99934, 335, 241, 350, 368
-0.999344, 293, 1, 308, 128
-0.999345, 99, 17, 114, 144
-0.999346, 399, 209, 414, 336
-0.999347, 21, 65, 36, 192
-0.999353, 403, 97, 418, 224
-0.999356, 381, 1, 396, 128
-0.999358, 265, 1, 280, 128
-0.99936, 375, 1, 390, 128
-0.99936, 283, 1, 298, 128
-0.999361, 477, 1, 492, 128
-0.999364, 443, 177, 458, 304
-0.999367, 485, 145, 500, 272
-0.999374, 271, 1, 286, 128
-0.999374, 33, 33, 64, 288
-0.999381, 371, 129, 386, 256
-0.999383, 219, 1, 234, 128
-0.999383, 405, 225, 420, 352
-0.999385, 455, 1, 470, 128
-0.999387, 369, 41, 496, 72
-0.999391, 33, 65, 48, 192
-0.999392, 375, 209, 390, 336
-0.999394, 391, 1, 406, 128
-0.999398, 385, 81, 400, 208
-0.9994, 325, 241, 340, 368
-0.999402, 97, 97, 128, 352
-0.999403, 177, 161, 192, 288
-0.999403, 277, 1, 292, 128
-0.999404, 195, 193, 210, 320
-0.999412, 151, 129, 166, 256
-0.999413, 281, 1, 344, 375
-0.99942, 345, 241, 376, 368
-0.999421, 241, 1, 256, 128
-0.999422, 107, 33, 122, 160
-0.999423, 213, 129, 244, 375
-0.999426, 1, 313, 128, 344
-0.999429, 195, 1, 210, 128
-0.999431, 391, 97, 406, 224
-0.999433, 449, 177, 464, 304
-0.999433, 129, 89, 256, 120
-0.999435, 217, 177, 232, 304
-0.999443, 361, 193, 376, 320
-0.999453, 399, 1, 414, 128
-0.999457, 321, 29, 448, 60
-0.999459, 425, 161, 440, 288
-0.999459, 423, 241, 438, 368
-0.99946, 383, 209, 398, 336
-0.99946, 201, 1, 216, 128
-0.99947, 213, 1, 228, 128
-0.99947, 91, 49, 106, 176
-0.999473, 439, 65, 454, 192
-0.999478, 397, 97, 412, 224
-0.999482, 409, 1, 424, 128
-0.999486, 411, 49, 426, 176
-0.999498, 379, 97, 394, 224
-0.999502, 189, 1, 204, 128
-0.999504, 107, 97, 122, 224
-0.999506, 419, 161, 434, 288
-0.999507, 393, 49, 408, 176
-0.999507, 377, 145, 392, 272
-0.999509, 141, 129, 156, 256
-0.999509, 419, 49, 434, 176
-0.999512, 399, 49, 414, 176
-0.999513, 357, 145, 372, 272
-0.999513, 463, 97, 478, 224
-0.999519, 113, 113, 128, 240
-0.99952, 133, 113, 148, 240
-0.99952, 157, 241, 172, 368
-0.999521, 235, 1, 250, 128
-0.999522, 393, 209, 408, 336
-0.999528, 417, 241, 432, 368
-0.999532, 469, 113, 484, 240
-0.999533, 15, 65, 30, 192
-0.999534, 385, 161, 400, 288
-0.999535, 405, 49, 420, 176
-0.999541, 433, 49, 448, 176
-0.999543, 407, 161, 422, 288
-0.999545, 399, 145, 414, 272
-0.999545, 113, 33, 128, 160
-0.999546, 187, 177, 202, 304
-0.999563, 61, 33, 92, 288
-0.999577, 319, 335, 334, 350
-0.999578, 217, 261, 232, 276
-0.999579, 429, 123, 444, 138
-0.999579, 213, 301, 228, 316
-0.999579, 249, 315, 264, 330
-0.99958, 217, 313, 232, 328
-0.99958, 435, 177, 450, 192
-0.99958, 455, 161, 470, 176
-0.99958, 187, 301, 202, 316
-0.99958, 171, 261, 186, 276
-0.999581, 379, 229, 394, 244
-0.999582, 165, 281, 180, 296
-0.999582, 195, 241, 210, 256
-0.999583, 171, 251, 186, 266
-0.999584, 155, 155, 170, 170
-0.999584, 361, 19, 376, 34
-0.999585, 419, 119, 434, 134
-0.999586, 195, 317, 210, 332
-0.999586, 149, 337, 164, 352
-0.999587, 303, 343, 318, 358
-0.999588, 181, 253, 196, 268
-0.999588, 479, 265, 494, 280
-0.999589, 375, 125, 390, 140
-0.999589, 231, 313, 246, 328
-0.99959, 181, 259, 196, 274
-0.99959, 485, 271, 500, 286
-0.999591, 295, 327, 310, 342
-0.999591, 329, 341, 344, 356
-0.999592, 313, 333, 328, 348
-0.999592, 223, 313, 238, 328
-0.999594, 301, 335, 316, 350
-0.999594, 145, 143, 160, 158
-0.999594, 203, 243, 218, 258
-0.999594, 153, 309, 168, 324
-0.999596, 355, 19, 370, 34
-0.999597, 319, 317, 334, 332
-0.999597, 437, 127, 452, 142
-0.999597, 203, 261, 218, 276
-0.999598, 149, 317, 164, 332
-0.9996, 293, 315, 308, 330
-0.999601, 465, 169, 480, 184
-0.999601, 187, 263, 202, 278
-0.999601, 483, 21, 498, 36
-0.999603, 319, 327, 334, 342
-0.999603, 201, 311, 216, 326
-0.999603, 179, 225, 194, 240
-0.999605, 219, 305, 234, 320
-0.999605, 479, 203, 494, 218
-0.999607, 175, 335, 190, 350
-0.999608, 171, 223, 186, 238
-0.999608, 371, 229, 386, 244
-0.999608, 179, 299, 194, 314
-0.999609, 313, 321, 328, 336
-0.99961, 209, 253, 224, 268
-0.99961, 163, 293, 178, 308
-0.999611, 475, 257, 490, 272
-0.999613, 167, 333, 182, 348
-0.999613, 185, 277, 200, 292
-0.999614, 193, 271, 208, 286
-0.999614, 467, 249, 482, 264
-0.999615, 301, 327, 316, 342
-0.999617, 199, 233, 214, 248
-0.999618, 201, 267, 216, 282
-0.999618, 195, 265, 210, 280
-0.999622, 183, 231, 198, 246
-0.999622, 187, 239, 202, 254
-0.999623, 215, 295, 230, 310
-0.999625, 129, 325, 144, 340
-0.999625, 191, 329, 206, 344
-0.999627, 219, 283, 234, 298
-0.999627, 179, 277, 194, 292
-0.999627, 329, 311, 344, 326
-0.999627, 165, 299, 180, 314
-0.999627, 333, 349, 348, 364
-0.999628, 195, 287, 210, 302
-0.99963, 137, 329, 152, 344
-0.999631, 179, 267, 194, 282
-0.999631, 183, 331, 198, 346
-0.999631, 453, 155, 468, 170
-0.99964, 325, 321, 340, 336
-0.99964, 307, 317, 322, 332
-0.999641, 159, 303, 174, 318
-0.999642, 147, 329, 162, 344
-0.999642, 193, 231, 208, 246
-0.999646, 175, 311, 190, 326
-0.999647, 167, 287, 182, 302
-0.999649, 333, 317, 348, 332
-0.99965, 187, 285, 202, 300
-0.99965, 153, 327, 168, 342
-0.99965, 197, 323, 212, 338
-0.999658, 269, 317, 284, 332
-0.99966, 295, 321, 310, 336
-0.99966, 313, 339, 328, 354
-0.999661, 177, 323, 192, 338
-0.999661, 207, 305, 222, 320
-0.999663, 183, 307, 198, 322
-0.999666, 169, 271, 184, 286
-0.999667, 173, 299, 188, 314
-0.999667, 195, 303, 210, 318
-0.999667, 385, 229, 400, 244
-0.999669, 307, 329, 322, 344
-0.999672, 169, 323, 184, 338
-0.999674, 167, 317, 182, 332
-0.999674, 197, 293, 212, 308
-0.999676, 187, 313, 202, 328
-0.999677, 207, 237, 222, 252
-0.999679, 205, 295, 220, 310
-0.999681, 277, 325, 292, 340
-0.999682, 213, 307, 228, 322
-0.999683, 191, 277, 206, 292
-0.999686, 157, 315, 172, 330
-0.99969, 185, 291, 200, 306
-0.999691, 173, 305, 188, 320
-0.999698, 173, 287, 188, 302
-0.999703, 215, 245, 230, 260
-0.999705, 187, 319, 202, 334
-0.999706, 171, 277, 186, 292
-0.999707, 159, 309, 174, 324
-0.999708, 183, 325, 198, 340
-0.999711, 157, 321, 172, 336
-0.999722, 167, 311, 182, 326
-0.999723, 177, 317, 192, 332
-0.999726, 165, 305, 180, 320
-0.999729, 287, 319, 302, 334
-0.99973, 177, 293, 192, 308
-0.999733, 225, 129, 256, 375
-0.999744, 279, 319, 294, 334
-0.999751, 49, 1, 80, 256
-0.999752, 177, 329, 192, 344
-0.999753, 85, 97, 116, 352
-0.999762, 109, 97, 140, 352
-0.99977, 301, 321, 316, 336
-0.999777, 281, 49, 344, 176
-0.999778, 307, 323, 322, 338
-0.999859, 181, 283, 196, 298
-0.999934, 45, 97, 76, 224
-0.999955, 305, 49, 368, 176
-1, 73, 241, 136, 368
-1.00002, 21, 113, 52, 240
-1.00005, 169, 97, 232, 224
-1.0002, 337, 97, 368, 224
-1.00025, 113, 241, 144, 368
-1.00037, 153, 49, 184, 176
-1.0004, 341, 97, 372, 352
-1.0004, 49, 97, 80, 352
-1.00042, 289, 129, 320, 375
-1.0005, 225, 129, 288, 375
-1.00051, 113, 193, 176, 320
-1.00052, 33, 169, 160, 232
-1.00053, 237, 129, 268, 375
-1.00054, 265, 129, 296, 375
-1.00061, 161, 73, 416, 136
-1.00061, 249, 129, 280, 375
-1.00063, 241, 113, 368, 240
-1.00064, 73, 97, 104, 352
-1.00072, 5, 113, 36, 240
-1.00073, 209, 169, 336, 232
-1.00086, 301, 129, 332, 375
-1.00091, 193, 49, 224, 176
-1.00097, 177, 49, 240, 176
-1.00098, 257, 49, 320, 176
-1.00102, 277, 129, 308, 375
-1.00114, 317, 129, 348, 375
-1.00123, 329, 129, 360, 375
-1.00127, 233, 49, 296, 176
-1.00132, 249, 193, 312, 320
-1.00132, 61, 129, 92, 375
-1.00137, 85, 113, 116, 240
-1.00139, 1, 129, 32, 375
-1.00143, 285, 193, 316, 320
-1.00148, 241, 1, 304, 375
-1.00153, 33, 129, 64, 375
-1.00163, 257, 129, 320, 375
-1.00182, 225, 97, 352, 160
-1.00191, 101, 241, 132, 368
-1.00193, 209, 145, 336, 208
-1.0021, 305, 193, 336, 320
-1.00214, 297, 129, 360, 375
-1.00227, 341, 193, 372, 320
-1.00239, 261, 49, 292, 176
-1.00239, 33, 201, 160, 264
-1.00261, 141, 193, 172, 320
-1.00263, 193, 121, 320, 184
-1.00266, 221, 49, 252, 176
-1.00273, 205, 49, 236, 176
-1.00273, 73, 113, 104, 240
-1.00276, 1, 225, 128, 288
-1.00279, 277, 49, 308, 176
-1.00282, 317, 49, 348, 176
-1.00286, 181, 129, 212, 256
-1.00287, 181, 49, 212, 176
-1.0029, 305, 49, 336, 176
-1.00293, 289, 49, 320, 176
-1.0037, 1, 249, 128, 312
-1.00487, 193, 145, 320, 272
-1.00591, 185, 145, 248, 272
-1.00676, 17, 145, 144, 272
-1.00734, 193, 97, 320, 224
-1.00741, 89, 161, 152, 288
-1.00929, 49, 241, 112, 368
-1.00945, 65, 145, 128, 272
-1.01033, 1, 129, 64, 256
-1.01065, 193, 97, 256, 224
-1.01145, 17, 193, 144, 320
-1.01163, 17, 241, 80, 368
-1.01179, 25, 145, 88, 272
-1.01244, 281, 97, 344, 224
-1.01315, 257, 97, 320, 224
-1.01371, 25, 193, 88, 320
-1.01374, 233, 113, 296, 240
-1.01393, 49, 193, 112, 320
-1.01408, 257, 145, 320, 272
-1.015, 1, 177, 64, 304
-1.01505, 281, 145, 344, 272
