1877
-0.424227, 1, 1, 500, 256
-0.438393, 1, 1, 500, 333
-0.455473, 1, 1, 256, 333
-0.58217, 97, 1, 352, 333
-0.59676, 33, 1, 288, 256
-0.662143, 193, 1, 448, 333
-0.787091, 129, 1, 384, 256
-0.845474, 33, 1, 160, 333
-0.849719, 97, 1, 224, 256
-0.856845, 81, 1, 208, 333
-0.864928, 1, 65, 128, 320
-0.869006, 129, 1, 256, 333
-0.872427, 49, 1, 176, 256
-0.884972, 145, 1, 272, 256
-0.907283, 1, 17, 256, 144
-0.908822, 225, 1, 480, 256
-0.912906, 177, 1, 304, 333
-0.91534, 1, 97, 256, 224
-0.920931, 1, 17, 500, 144
-0.92328, 289, 1, 416, 333
-0.924604, 337, 1, 464, 333
-0.924792, 193, 33, 320, 288
-0.925205, 225, 209, 480, 333
-0.92632, 225, 209, 352, 333
-0.927647, 129, 209, 384, 333
-0.928171, 1, 65, 500, 192
-0.930014, 1, 161, 500, 288
-0.934171, 81, 65, 208, 192
-0.934321, 129, 81, 256, 208
-0.934427, 113, 17, 240, 144
-0.935359, 161, 81, 224, 208
-0.935691, 225, 1, 352, 333
-0.936587, 33, 177, 288, 304
-0.937239, 233, 209, 296, 333
-0.93919, 1, 209, 500, 333
-0.939493, 169, 1, 232, 128
-0.940429, 241, 65, 368, 320
-0.940682, 273, 209, 336, 333
-0.941897, 65, 81, 128, 208
-0.941963, 25, 49, 88, 176
-0.942006, 65, 17, 192, 144
-0.942261, 17, 209, 80, 333
-0.943845, 17, 49, 144, 176
-0.944795, 137, 81, 200, 208
-0.946379, 49, 1, 112, 128
-0.946932, 41, 273, 104, 333
-0.947669, 121, 17, 184, 144
-0.947741, 145, 1, 208, 128
-0.947788, 17, 97, 144, 224
-0.948774, 25, 97, 88, 224
-0.948996, 201, 209, 264, 333
-0.949191, 81, 113, 208, 240
-0.949198, 17, 1, 144, 128
-0.950046, 9, 1, 72, 128
-0.950951, 105, 81, 168, 208
-0.951093, 1, 113, 500, 240
-0.951273, 185, 81, 248, 208
-0.951573, 97, 1, 352, 128
-0.954476, 25, 97, 88, 160
-0.955025, 289, 1, 416, 256
-0.955257, 17, 145, 144, 272
-0.955566, 273, 241, 336, 304
-0.955586, 249, 225, 312, 288
-0.95648, 97, 81, 352, 208
-0.957014, 161, 17, 224, 80
-0.957963, 81, 17, 144, 144
-0.958206, 177, 209, 304, 333
-0.95826, 145, 113, 208, 176
-0.95868, 129, 161, 384, 288
-0.958814, 225, 225, 288, 288
-0.958999, 201, 265, 264, 328
-0.959187, 105, 33, 168, 96
-0.960121, 249, 273, 312, 333
-0.96024, 185, 145, 248, 272
-0.960635, 249, 249, 312, 312
-0.960709, 17, 145, 80, 272
-0.960824, 33, 1, 96, 64
-0.961239, 105, 105, 168, 168
-0.96134, 161, 1, 288, 128
-0.961523, 41, 209, 104, 333
-0.961989, 49, 129, 112, 256
-0.96203, 225, 161, 480, 288
-0.962066, 169, 41, 232, 104
-0.962239, 233, 201, 296, 264
-0.962972, 145, 145, 272, 272
-0.963403, 201, 241, 264, 304
-0.963527, 137, 129, 200, 256
-0.963933, 57, 33, 120, 96
-0.963943, 1, 193, 128, 320
-0.964255, 25, 65, 88, 128
-0.964298, 225, 265, 288, 328
-0.964358, 25, 41, 88, 104
-0.96504, 49, 105, 112, 168
-0.965233, 353, 65, 480, 320
-0.965516, 281, 265, 344, 328
-0.965676, 17, 273, 80, 333
-0.965791, 145, 89, 208, 152
-0.965896, 49, 1, 112, 256
-0.965976, 145, 273, 208, 333
-0.966175, 105, 129, 168, 192
-0.966484, 273, 209, 400, 333
-0.967073, 65, 265, 128, 328
-0.967401, 137, 9, 200, 72
-0.967504, 145, 41, 208, 104
-0.967507, 177, 65, 240, 128
-0.967758, 81, 113, 144, 176
-0.967761, 17, 217, 80, 280
-0.967771, 177, 121, 240, 184
-0.968167, 129, 145, 192, 208
-0.968168, 9, 1, 72, 256
-0.9682, 225, 233, 352, 296
-0.968204, 1, 81, 64, 208
-0.968308, 1, 1, 64, 64
-0.968365, 225, 161, 288, 288
-0.968478, 177, 97, 240, 160
-0.968505, 273, 217, 336, 280
-0.968562, 1, 177, 32, 304
-0.968679, 73, 73, 136, 136
-0.969262, 17, 249, 80, 312
-0.969491, 225, 257, 352, 320
-0.969527, 185, 17, 248, 80
-0.969564, 89, 129, 152, 256
-0.970356, 173, 1, 204, 64
-0.970467, 177, 81, 304, 208
-0.970499, 129, 1, 192, 256
-0.970707, 105, 73, 168, 136
-0.970733, 25, 121, 88, 184
-0.970828, 113, 17, 240, 80
-0.970882, 201, 217, 264, 280
-0.970885, 65, 41, 192, 104
-0.97096, 97, 1, 160, 256
-0.970997, 37, 1, 68, 128
-0.971111, 229, 225, 260, 288
-0.971253, 193, 33, 256, 160
-0.971663, 161, 145, 224, 208
-0.971701, 277, 209, 308, 333
-0.971739, 161, 1, 224, 256
-0.971811, 97, 161, 224, 288
-0.971929, 65, 209, 128, 333
-0.971969, 17, 33, 144, 96
-0.972465, 41, 1, 72, 64
-0.972491, 169, 1, 200, 128
-0.972701, 77, 249, 108, 312
-0.97275, 161, 161, 224, 288
-0.97285, 273, 233, 304, 296
-0.972881, 129, 209, 256, 333
-0.972884, 185, 17, 216, 80
-0.972991, 193, 161, 320, 288
-0.973004, 181, 1, 212, 128
-0.973011, 129, 41, 256, 104
-0.973076, 185, 153, 248, 216
-0.973462, 117, 113, 148, 176
-0.973474, 1, 97, 64, 160
-0.973869, 293, 241, 324, 304
-0.974052, 177, 257, 240, 320
-0.974178, 49, 113, 176, 176
-0.974263, 69, 65, 100, 192
-0.974309, 85, 41, 116, 104
-0.974478, 57, 17, 88, 144
-0.974494, 37, 97, 68, 160
-0.974504, 65, 273, 96, 333
-0.974574, 57, 9, 120, 72
-0.975043, 45, 49, 76, 176
-0.975069, 145, 65, 208, 128
-0.975263, 57, 241, 120, 304
-0.975277, 129, 113, 160, 176
-0.97528, 225, 209, 256, 333
-0.975389, 201, 17, 232, 144
-0.975685, 293, 217, 324, 280
-0.975695, 177, 249, 304, 312
-0.975888, 193, 81, 448, 208
-0.975958, 37, 33, 68, 96
-0.976068, 113, 41, 144, 104
-0.976106, 233, 265, 264, 328
-0.976259, 321, 209, 384, 333
-0.976281, 145, 113, 176, 240
-0.976282, 181, 81, 212, 208
-0.97634, 297, 217, 360, 280
-0.976349, 201, 81, 232, 208
-0.976419, 153, 33, 184, 96
-0.976445, 113, 129, 176, 256
-0.976479, 81, 1, 144, 64
-0.976519, 273, 161, 400, 288
-0.976583, 161, 65, 192, 192
-0.97661, 49, 129, 112, 192
-0.976661, 33, 273, 160, 333
-0.976669, 193, 209, 320, 272
-0.976782, 1, 33, 64, 96
-0.976803, 49, 209, 176, 333
-0.976835, 9, 225, 40, 288
-0.977008, 17, 193, 80, 256
-0.977038, 65, 25, 96, 88
-0.977081, 241, 233, 272, 296
-0.977163, 85, 97, 116, 224
-0.977377, 77, 273, 108, 333
-0.977488, 201, 33, 232, 96
-0.977616, 257, 273, 288, 333
-0.977646, 73, 137, 136, 200
-0.977713, 185, 1, 248, 256
-0.977715, 297, 193, 360, 320
-0.977898, 105, 9, 168, 72
-0.977921, 121, 249, 184, 312
-0.977966, 77, 209, 108, 333
-0.977982, 57, 97, 88, 224
-0.978134, 281, 273, 312, 333
-0.978188, 57, 97, 88, 160
-0.978236, 9, 185, 40, 248
-0.978266, 129, 81, 160, 208
-0.978274, 221, 265, 252, 328
-0.978275, 49, 81, 112, 144
-0.978284, 121, 137, 152, 200
-0.978325, 169, 25, 200, 88
-0.978398, 117, 81, 148, 208
-0.97842, 141, 121, 172, 184
-0.978499, 253, 249, 284, 312
-0.978508, 177, 209, 240, 333
-0.978582, 97, 121, 224, 184
-0.978732, 1, 105, 128, 168
-0.978808, 177, 273, 304, 333
-0.978819, 17, 57, 144, 120
-0.978866, 289, 209, 320, 333
-0.978887, 113, 1, 144, 128
-0.979054, 1, 65, 64, 128
-0.979073, 81, 17, 112, 144
-0.979098, 241, 209, 272, 272
-0.979169, 1, 273, 32, 333
-0.979182, 93, 49, 124, 176
-0.979214, 153, 113, 184, 176
-0.979272, 25, 209, 56, 272
-0.979308, 193, 33, 448, 160
-0.979317, 249, 161, 312, 288
-0.979423, 1, 121, 64, 184
-0.979473, 237, 209, 268, 333
-0.979655, 269, 273, 300, 333
-0.97968, 213, 209, 244, 333
-0.979683, 113, 81, 240, 144
-0.979685, 217, 153, 248, 216
-0.979732, 201, 97, 264, 160
-0.979744, 217, 145, 248, 272
-0.979832, 161, 17, 288, 80
-0.979866, 53, 17, 84, 80
-0.980084, 273, 225, 400, 288
-0.980086, 73, 1, 136, 256
-0.980169, 269, 209, 300, 272
-0.980178, 45, 97, 76, 224
-0.980248, 309, 257, 340, 320
-0.980262, 97, 65, 128, 128
-0.980285, 49, 1, 176, 64
-0.980445, 25, 145, 56, 272
-0.980468, 13, 193, 44, 320
-0.980479, 105, 81, 136, 208
-0.980524, 209, 161, 272, 224
-0.980528, 49, 249, 176, 312
-0.980592, 105, 153, 168, 216
-0.980622, 97, 273, 224, 333
-0.980648, 97, 273, 160, 333
-0.980716, 201, 41, 264, 104
-0.980729, 161, 1, 192, 64
-0.980776, 201, 193, 264, 256
-0.980799, 81, 113, 112, 176
-0.980847, 253, 225, 284, 288
-0.980898, 133, 49, 164, 112
-0.980917, 157, 1, 188, 128
-0.980929, 49, 273, 80, 333
-0.980955, 17, 1, 80, 333
-0.981028, 121, 1, 184, 333
-0.981095, 185, 41, 216, 104
-0.981114, 69, 113, 100, 176
-0.981127, 41, 1, 104, 333
-0.981305, 1, 1, 128, 64
-0.981368, 97, 145, 224, 208
-0.981372, 57, 121, 88, 184
-0.981415, 21, 97, 52, 224
-0.981479, 1, 81, 128, 144
-0.981588, 69, 145, 100, 272
-0.981647, 17, 9, 48, 72
-0.981713, 281, 209, 312, 272
-0.981752, 65, 249, 96, 312
-0.981759, 209, 1, 336, 128
-0.981777, 41, 73, 72, 136
-0.981852, 101, 41, 132, 104
-0.981853, 65, 1, 128, 333
-0.981897, 61, 49, 92, 112
-0.98196, 265, 209, 296, 333
-0.982014, 97, 145, 128, 208
-0.982053, 133, 25, 164, 88
-0.982377, 137, 145, 168, 208
-0.982415, 49, 137, 176, 200
-0.982444, 81, 41, 144, 104
-0.982478, 161, 81, 192, 144
-0.982491, 137, 33, 168, 160
-0.982534, 121, 273, 184, 333
-0.982573, 301, 209, 332, 333
-0.982604, 129, 249, 256, 312
-0.982737, 1, 129, 128, 192
-0.982782, 245, 273, 276, 333
-0.98284, 217, 241, 248, 304
-0.982845, 321, 225, 384, 288
-0.982888, 17, 169, 80, 232
-0.982902, 69, 81, 100, 144
-0.983082, 169, 1, 232, 333
-0.983123, 209, 17, 272, 80
-0.983219, 201, 209, 232, 333
-0.983232, 197, 97, 228, 160
-0.98333, 17, 1, 48, 128
-0.983426, 17, 201, 144, 264
-0.98351, 89, 145, 120, 272
-0.983513, 9, 145, 72, 208
-0.983624, 89, 241, 152, 304
-0.983661, 69, 17, 100, 144
-0.983669, 89, 1, 152, 333
-0.983733, 141, 81, 172, 144
-0.983817, 33, 49, 64, 176
-0.983826, 109, 73, 140, 136
-0.983911, 165, 113, 196, 240
-0.984017, 65, 1, 96, 64
-0.984088, 305, 273, 368, 333
-0.984088, 181, 121, 212, 184
-0.98414, 201, 9, 232, 72
-0.984176, 65, 89, 192, 152
-0.984327, 273, 273, 400, 333
-0.984465, 273, 161, 336, 288
-0.984536, 417, 241, 480, 304
-0.984543, 17, 81, 48, 144
-0.984572, 169, 113, 200, 176
-0.984647, 97, 105, 128, 168
-0.984647, 77, 225, 108, 288
-0.984753, 109, 137, 140, 200
-0.984773, 145, 185, 272, 248
-0.984821, 77, 137, 108, 200
-0.98484, 253, 209, 284, 333
-0.984922, 217, 217, 248, 280
-0.984928, 257, 193, 320, 256
-0.984999, 297, 241, 360, 304
-0.985003, 185, 97, 216, 160
-0.985087, 137, 169, 200, 232
-0.985106, 205, 249, 236, 312
-0.985186, 145, 1, 208, 333
-0.985234, 41, 217, 104, 280
-0.985261, 25, 105, 56, 168
-0.985448, 201, 121, 264, 184
-0.985456, 121, 129, 152, 256
-0.985459, 209, 81, 272, 208
-0.985462, 25, 233, 56, 296
-0.985481, 65, 65, 192, 128
-0.985594, 85, 65, 116, 128
-0.985648, 177, 41, 304, 104
-0.985745, 29, 1, 60, 64
-0.985745, 145, 113, 272, 176
-0.985753, 297, 273, 328, 333
-0.985773, 153, 57, 184, 120
-0.985847, 161, 161, 288, 224
-0.985882, 17, 161, 144, 224
-0.985927, 93, 1, 124, 128
-0.986018, 49, 209, 80, 333
-0.986048, 201, 121, 232, 184
-0.986125, 273, 249, 400, 312
-0.98618, 81, 17, 112, 80
-0.986221, 81, 169, 208, 232
-0.98628, 77, 177, 108, 240
-0.98628, 205, 225, 236, 288
-0.986289, 145, 225, 272, 288
-0.986316, 97, 169, 128, 232
-0.986326, 149, 145, 180, 208
-0.98633, 101, 129, 132, 256
-0.986432, 9, 113, 40, 240
-0.986443, 225, 185, 352, 248
-0.98646, 205, 57, 236, 120
-0.986462, 289, 193, 352, 256
-0.986475, 173, 49, 204, 112
-0.986548, 125, 33, 156, 160
-0.986684, 153, 249, 216, 312
-0.986689, 9, 113, 40, 176
-0.986747, 225, 137, 288, 200
-0.986803, 45, 249, 76, 312
-0.986814, 105, 17, 136, 80
-0.98686, 121, 81, 152, 144
-0.986936, 169, 177, 232, 240
-0.987073, 213, 81, 244, 208
-0.987114, 1, 241, 128, 304
-0.987114, 305, 233, 336, 296
-0.987117, 321, 209, 448, 333
-0.987206, 161, 145, 192, 208
-0.987278, 25, 193, 56, 320
-0.987347, 5, 1, 36, 64
-0.987356, 229, 201, 260, 264
-0.987404, 25, 273, 56, 333
-0.987424, 1, 249, 32, 312
-0.987441, 17, 145, 48, 208
-0.987522, 33, 97, 64, 224
-0.987569, 17, 49, 48, 176
-0.98766, 173, 81, 204, 144
-0.987682, 153, 209, 216, 333
-0.987748, 81, 89, 112, 152
-0.987853, 161, 65, 288, 128
-0.987897, 321, 249, 384, 312
-0.987937, 141, 265, 172, 328
-0.987949, 257, 201, 288, 264
-0.987956, 385, 241, 448, 304
-0.988074, 193, 1, 256, 333
-0.988105, 69, 201, 100, 264
-0.98816, 1, 301, 64, 332
-0.988255, 89, 201, 120, 264
-0.988265, 45, 201, 76, 264
-0.988322, 149, 9, 180, 72
-0.988336, 173, 145, 204, 208
-0.988346, 65, 161, 128, 224
-0.988373, 145, 137, 272, 200
-0.988388, 161, 105, 224, 136
-0.988431, 193, 257, 224, 320
-0.988471, 89, 209, 152, 333
-0.988615, 97, 273, 128, 333
-0.988658, 233, 281, 296, 312
-0.988728, 177, 129, 208, 256
-0.988819, 209, 293, 272, 324
-0.98882, 225, 229, 288, 260
-0.988887, 49, 49, 80, 112
-0.988944, 169, 273, 200, 333
-0.988951, 321, 233, 448, 296
-0.988979, 33, 101, 96, 132
-0.988987, 233, 177, 296, 240
-0.988997, 273, 201, 400, 264
-0.98902, 17, 221, 80, 252
-0.989041, 209, 17, 336, 80
-0.989074, 325, 209, 356, 333
-0.989134, 57, 277, 120, 308
-0.989161, 149, 65, 180, 192
-0.989277, 205, 145, 236, 272
-0.989291, 25, 33, 56, 96
-0.989323, 177, 233, 240, 296
-0.989328, 233, 217, 296, 248
-0.989374, 1, 273, 256, 333
-0.989375, 249, 229, 312, 260
-0.989411, 237, 161, 268, 288
-0.98942, 209, 277, 272, 308
-0.989457, 57, 301, 120, 332
-0.989526, 129, 273, 160, 333
-0.989569, 337, 161, 464, 288
-0.989585, 221, 1, 252, 64
-0.989613, 273, 245, 336, 276
-0.989639, 145, 117, 208, 148
-0.989647, 121, 161, 152, 224
-0.989689, 209, 73, 272, 136
-0.989727, 57, 225, 88, 288
-0.989731, 65, 113, 128, 144
-0.989773, 89, 193, 120, 320
-0.989807, 105, 57, 168, 88
-0.98982, 25, 113, 88, 144
-0.989847, 281, 265, 344, 296
-0.989847, 57, 97, 120, 128
-0.989867, 257, 293, 320, 324
-0.989882, 49, 193, 112, 256
-0.989903, 49, 33, 112, 64
-0.989913, 137, 89, 200, 120
-0.989921, 185, 97, 248, 128
-0.989944, 121, 77, 184, 108
-0.990002, 133, 129, 164, 256
-0.990022, 129, 61, 192, 92
-0.990031, 233, 293, 296, 324
-0.990068, 9, 1, 72, 32
-0.990092, 209, 33, 272, 288
-0.990121, 113, 117, 176, 148
-0.990133, 145, 141, 208, 172
-0.990143, 33, 293, 96, 324
-0.990157, 161, 285, 224, 316
-0.990163, 249, 269, 312, 300
-0.990168, 225, 245, 288, 276
-0.990186, 161, 265, 416, 328
-0.990188, 209, 273, 240, 333
-0.990193, 185, 285, 248, 316
-0.990206, 57, 45, 120, 76
-0.990234, 289, 217, 352, 248
-0.990236, 249, 245, 312, 276
-0.990243, 17, 209, 80, 240
-0.990248, 145, 49, 208, 80
-0.990252, 53, 73, 84, 136
-0.990267, 169, 65, 232, 96
-0.990269, 81, 301, 144, 332
-0.990284, 209, 89, 240, 152
-0.990288, 17, 41, 80, 72
-0.990291, 65, 145, 96, 208
-0.990317, 153, 9, 216, 40
-0.990326, 369, 209, 496, 333
-0.990329, 145, 169, 176, 232
-0.990331, 25, 69, 88, 100
-0.990361, 369, 1, 496, 128
-0.990364, 57, 265, 120, 296
-0.990393, 197, 153, 228, 216
-0.990411, 193, 241, 256, 272
-0.99042, 281, 293, 344, 324
-0.990435, 217, 1, 280, 128
-0.990448, 57, 61, 120, 92
-0.99045, 9, 101, 72, 132
-0.990469, 273, 233, 336, 264
-0.990483, 193, 89, 320, 152
-0.990486, 313, 193, 344, 320
-0.990488, 257, 213, 320, 244
-0.990494, 105, 133, 168, 164
-0.990501, 121, 101, 184, 132
-0.990537, 33, 265, 96, 296
-0.990541, 97, 105, 160, 136
-0.990566, 273, 277, 336, 308
-0.990569, 65, 209, 96, 333
-0.990589, 33, 133, 96, 164
-0.990642, 417, 217, 480, 280
-0.990644, 209, 265, 272, 296
-0.990699, 57, 289, 120, 320
-0.990706, 201, 229, 264, 260
-0.990718, 185, 45, 248, 76
-0.990739, 217, 193, 248, 256
-0.990739, 153, 265, 184, 328
-0.990794, 25, 29, 88, 60
-0.99083, 185, 157, 248, 188
-0.990867, 89, 117, 152, 148
-0.990881, 25, 13, 88, 44
-0.990911, 97, 69, 160, 100
-0.990916, 17, 53, 80, 84
-0.990922, 233, 205, 296, 236
-0.990928, 145, 129, 208, 160
-0.990968, 185, 109, 248, 140
-0.991016, 145, 77, 208, 108
-0.991025, 97, 29, 160, 60
-0.991044, 33, 237, 96, 268
-0.991052, 193, 173, 256, 204
-0.991052, 137, 277, 200, 308
-0.991056, 73, 73, 136, 104
-0.99106, 161, 169, 224, 200
-0.991079, 189, 73, 220, 136
-0.991093, 1, 9, 256, 72
-0.991093, 213, 113, 244, 176
-0.991099, 89, 45, 152, 76
-0.991109, 33, 1, 96, 32
-0.991128, 121, 177, 184, 304
-0.991166, 105, 301, 168, 332
-0.991168, 25, 281, 88, 312
-0.991174, 193, 145, 224, 272
-0.991204, 121, 169, 184, 200
-0.991213, 129, 301, 192, 332
-0.991216, 185, 269, 248, 300
-0.991231, 169, 81, 232, 112
-0.991274, 97, 145, 160, 176
-0.991292, 161, 93, 224, 124
-0.991315, 73, 137, 136, 168
-0.991329, 97, 81, 160, 112
-0.991359, 161, 273, 224, 304
-0.991369, 153, 21, 216, 52
-0.99137, 113, 45, 176, 76
-0.991381, 73, 217, 136, 280
-0.991385, 129, 157, 192, 188
-0.991391, 121, 265, 184, 296
-0.991397, 57, 253, 120, 284
-0.991407, 289, 161, 320, 288
-0.991421, 17, 197, 80, 228
-0.991452, 177, 129, 240, 160
-0.991477, 353, 225, 416, 288
-0.99148, 121, 1, 184, 32
-0.991482, 157, 161, 188, 288
-0.991506, 9, 133, 72, 164
-0.99151, 313, 225, 376, 256
-0.99153, 369, 241, 496, 304
-0.991533, 425, 193, 488, 320
-0.99155, 209, 217, 272, 248
-0.991553, 213, 33, 244, 160
-0.991556, 65, 125, 128, 156
-0.991568, 49, 21, 112, 52
-0.99157, 329, 201, 392, 264
-0.991587, 297, 145, 360, 272
-0.991605, 161, 153, 224, 184
-0.99161, 249, 257, 312, 288
-0.991623, 105, 177, 168, 240
-0.99163, 1, 289, 64, 320
-0.991632, 1, 17, 64, 48
-0.991634, 169, 141, 232, 172
-0.991657, 225, 153, 352, 216
-0.991668, 193, 113, 320, 176
-0.991693, 105, 157, 168, 188
-0.991699, 145, 181, 208, 212
-0.991704, 265, 161, 296, 288
-0.991732, 65, 149, 128, 180
-0.991737, 185, 185, 248, 216
-0.991765, 17, 145, 80, 176
-0.991771, 121, 13, 184, 44
-0.991771, 161, 33, 224, 64
-0.991773, 41, 145, 104, 176
-0.991808, 65, 85, 128, 116
-0.991857, 121, 145, 184, 176
-0.99187, 17, 185, 80, 216
-0.991871, 49, 217, 112, 248
-0.991876, 81, 269, 144, 300
-0.991881, 433, 1, 496, 128
-0.991886, 97, 169, 160, 200
-0.991888, 209, 157, 272, 188
-0.991906, 25, 81, 88, 112
-0.991915, 201, 253, 264, 284
-0.991919, 57, 229, 120, 260
-0.99192, 305, 285, 368, 316
-0.991928, 81, 289, 144, 320
-0.99193, 17, 253, 80, 284
-0.991952, 201, 57, 264, 88
-0.99211, 33, 249, 288, 312
-0.99214, 1, 33, 256, 96
-0.992142, 253, 285, 284, 316
-0.992174, 121, 117, 152, 148
-0.992199, 65, 269, 96, 300
-0.992218, 117, 65, 148, 96
-0.992227, 233, 229, 264, 260
-0.992229, 225, 113, 352, 240
-0.9923, 1, 301, 32, 332
-0.992327, 9, 229, 40, 260
-0.992343, 361, 177, 424, 304
-0.992343, 233, 289, 264, 320
-0.992345, 161, 77, 192, 108
-0.992347, 97, 65, 128, 96
-0.992354, 77, 253, 108, 284
-0.99236, 253, 161, 284, 288
-0.992361, 193, 233, 448, 296
-0.992385, 289, 233, 320, 264
-0.99239, 241, 265, 272, 296
-0.99239, 177, 101, 208, 132
-0.9924, 237, 217, 268, 248
-0.99241, 277, 221, 308, 252
-0.992414, 65, 101, 96, 132
-0.992426, 89, 45, 120, 76
-0.992432, 1, 57, 256, 120
-0.992445, 197, 101, 228, 132
-0.992446, 221, 237, 252, 268
-0.992454, 225, 281, 352, 312
-0.992455, 73, 113, 104, 144
-0.992458, 169, 1, 200, 32
-0.992466, 49, 41, 176, 72
-0.992493, 153, 225, 216, 288
-0.992506, 133, 65, 164, 96
-0.992518, 137, 301, 168, 332
-0.99252, 249, 297, 280, 328
-0.99252, 37, 101, 68, 132
-0.992521, 57, 113, 88, 144
-0.992536, 141, 117, 172, 148
-0.992539, 301, 245, 332, 276
-0.992551, 197, 113, 228, 144
-0.992556, 37, 13, 68, 44
-0.99257, 25, 1, 56, 32
-0.992575, 133, 53, 164, 84
-0.992578, 265, 293, 296, 324
-0.992579, 261, 229, 292, 260
-0.992584, 245, 229, 276, 260
-0.992596, 21, 217, 52, 248
-0.992597, 273, 113, 400, 240
-0.992599, 77, 281, 108, 312
-0.992612, 221, 225, 252, 256
-0.992616, 161, 65, 192, 96
-0.99262, 253, 269, 284, 300
-0.992633, 193, 285, 224, 316
-0.992634, 41, 153, 104, 216
-0.992642, 173, 41, 204, 72
-0.992642, 205, 33, 236, 64
-0.992646, 205, 289, 236, 320
-0.992646, 41, 1, 72, 32
-0.992651, 105, 77, 136, 108
-0.992652, 61, 301, 92, 332
-0.992654, 13, 1, 44, 32
-0.992659, 265, 265, 296, 296
-0.992659, 265, 209, 296, 240
-0.99266, 233, 245, 264, 276
-0.992672, 185, 133, 216, 164
-0.992673, 1, 189, 32, 220
-0.992677, 61, 281, 92, 312
-0.992681, 117, 129, 148, 160
-0.992688, 265, 281, 296, 312
-0.992696, 85, 61, 116, 92
-0.992702, 217, 157, 248, 188
-0.992708, 61, 61, 92, 92
-0.992719, 361, 1, 424, 333
-0.992723, 313, 265, 344, 296
-0.992724, 53, 29, 84, 60
-0.992725, 81, 265, 112, 296
-0.992728, 153, 41, 184, 72
-0.992729, 217, 293, 248, 324
-0.992732, 301, 161, 332, 288
-0.992736, 1, 249, 32, 280
-0.992737, 29, 301, 60, 332
-0.992739, 169, 277, 200, 308
-0.99274, 281, 209, 312, 240
-0.992745, 297, 1, 360, 256
-0.992748, 237, 277, 268, 308
-0.992748, 181, 281, 212, 312
-0.992758, 185, 45, 216, 76
-0.992761, 85, 113, 116, 144
-0.992763, 133, 41, 164, 72
-0.992763, 117, 45, 148, 76
-0.992767, 285, 269, 316, 300
-0.992769, 249, 217, 280, 248
-0.992771, 41, 41, 72, 72
-0.992774, 69, 33, 100, 64
-0.992775, 161, 89, 192, 120
-0.99278, 137, 105, 168, 136
-0.99278, 117, 301, 148, 332
-0.992787, 129, 133, 160, 164
-0.992806, 145, 153, 176, 184
-0.992806, 277, 233, 308, 264
-0.992816, 277, 293, 308, 324
-0.992819, 49, 277, 80, 308
-0.992826, 133, 169, 164, 200
-0.99284, 253, 245, 284, 276
-0.992844, 57, 125, 88, 156
-0.99285, 53, 45, 84, 76
-0.99285, 133, 77, 164, 108
-0.992851, 33, 125, 64, 156
-0.992855, 301, 281, 332, 312
-0.992855, 153, 113, 184, 144
-0.992857, 101, 41, 132, 72
-0.992858, 1, 113, 256, 176
-0.992867, 177, 145, 208, 176
-0.992877, 273, 245, 304, 276
-0.992878, 21, 229, 52, 260
-0.992879, 97, 29, 128, 60
-0.992885, 185, 121, 216, 152
-0.992885, 33, 53, 64, 84
-0.992887, 117, 77, 148, 108
-0.992888, 209, 237, 240, 268
-0.992889, 93, 301, 124, 332
-0.992891, 53, 101, 84, 132
-0.992893, 141, 133, 172, 164
-0.992894, 129, 145, 160, 176
-0.992897, 37, 113, 68, 144
-0.992897, 169, 113, 200, 144
-0.992899, 49, 301, 80, 332
-0.992899, 1, 265, 32, 296
-0.992906, 225, 277, 256, 308
-0.992908, 69, 125, 100, 156
-0.992915, 157, 101, 188, 132
-0.992916, 101, 105, 132, 136
-0.992922, 149, 265, 180, 296
-0.992923, 209, 97, 240, 128
-0.992925, 237, 301, 268, 332
-0.992926, 297, 213, 328, 244
-0.992936, 313, 277, 344, 308
-0.992938, 69, 141, 100, 172
-0.992938, 49, 289, 80, 320
-0.992939, 181, 65, 212, 96
-0.99294, 41, 29, 72, 60
-0.99294, 109, 141, 140, 172
-0.99294, 85, 101, 116, 132
-0.992944, 77, 77, 108, 108
-0.992946, 1, 289, 32, 320
-0.992947, 101, 117, 132, 148
-0.99301, 97, 17, 352, 80
-0.993041, 209, 245, 336, 276
-0.99308, 117, 41, 132, 104
-0.993124, 97, 41, 224, 72
-0.993172, 235, 225, 250, 288
-0.993203, 37, 145, 68, 272
-0.993208, 393, 217, 456, 280
-0.993247, 61, 25, 76, 88
-0.993349, 175, 1, 190, 64
-0.993514, 193, 17, 208, 80
-0.99352, 109, 41, 124, 104
-0.993523, 71, 17, 86, 80
-0.993527, 241, 265, 368, 296
-0.993571, 97, 225, 224, 288
-0.993602, 369, 1, 496, 64
-0.993669, 321, 1, 384, 64
-0.993671, 173, 25, 188, 88
-0.993709, 165, 25, 180, 88
-0.993711, 49, 117, 176, 148
-0.99373, 71, 257, 86, 320
-0.993736, 209, 229, 336, 260
-0.993749, 131, 113, 146, 176
-0.993766, 401, 177, 464, 304
-0.993783, 1, 225, 500, 288
-0.99379, 53, 145, 84, 272
-0.993815, 161, 269, 288, 300
-0.993841, 257, 169, 320, 232
-0.993853, 337, 1, 400, 333
-0.993869, 293, 225, 308, 288
-0.993899, 103, 41, 118, 104
-0.993938, 225, 217, 352, 248
-0.993968, 17, 53, 144, 84
-0.994019, 345, 9, 408, 72
-0.994036, 127, 49, 142, 112
-0.994067, 77, 33, 92, 96
-0.994096, 305, 17, 432, 80
-0.994109, 53, 1, 68, 64
-0.994166, 155, 33, 170, 96
-0.994167, 181, 25, 196, 88
-0.994178, 81, 65, 208, 96
-0.9942, 301, 233, 316, 296
-0.994206, 233, 265, 248, 328
-0.994213, 257, 1, 384, 64
-0.994221, 97, 277, 224, 308
-0.994236, 37, 209, 68, 333
-0.994237, 5, 1, 36, 128
-0.994259, 65, 201, 192, 264
-0.994272, 233, 1, 296, 64
-0.994287, 53, 97, 68, 160
-0.994287, 277, 161, 308, 288
-0.994309, 287, 233, 302, 296
-0.994317, 129, 117, 256, 148
-0.994365, 1, 177, 256, 240
-0.994378, 65, 97, 80, 160
-0.994409, 385, 1, 448, 333
-0.994421, 113, 25, 240, 56
-0.994427, 117, 129, 132, 192
-0.994431, 1, 89, 256, 152
-0.994473, 245, 233, 260, 296
-0.994474, 155, 113, 170, 176
-0.994481, 39, 97, 54, 160
-0.994483, 145, 121, 160, 184
-0.994486, 49, 57, 112, 120
-0.994494, 273, 225, 400, 256
-0.994507, 183, 49, 198, 112
-0.994511, 79, 97, 94, 160
-0.99452, 1, 273, 16, 333
-0.994542, 165, 49, 180, 112
-0.994544, 55, 65, 70, 128
-0.994548, 49, 225, 176, 288
-0.994566, 185, 1, 200, 64
-0.994571, 225, 293, 352, 324
-0.99462, 137, 33, 152, 96
-0.994628, 201, 17, 216, 80
-0.994632, 45, 97, 60, 160
-0.994646, 273, 273, 288, 333
-0.99465, 145, 293, 272, 324
-0.99467, 209, 65, 336, 128
-0.994673, 275, 249, 290, 312
-0.994703, 145, 161, 176, 288
-0.994714, 173, 49, 188, 112
-0.994722, 253, 233, 268, 296
-0.994766, 177, 209, 240, 272
-0.994768, 1, 217, 256, 280
-0.994784, 97, 41, 112, 104
-0.994804, 17, 289, 144, 320
-0.994807, 129, 53, 256, 84
-0.994855, 177, 281, 304, 312
-0.994856, 299, 209, 314, 272
-0.994869, 193, 41, 208, 104
-0.994871, 49, 29, 176, 60
-0.994871, 17, 301, 144, 332
-0.994887, 71, 41, 86, 104
-0.994888, 65, 101, 192, 132
-0.994891, 97, 217, 352, 280
-0.994906, 199, 97, 214, 160
-0.994906, 87, 25, 102, 88
-0.994926, 281, 225, 296, 288
-0.994931, 369, 97, 496, 224
-0.994959, 41, 9, 56, 72
-0.99496, 321, 257, 448, 320
-0.994963, 193, 97, 208, 160
-0.994997, 113, 81, 240, 112
-0.994997, 193, 121, 208, 184
-0.995, 17, 185, 32, 248
-0.995005, 209, 205, 336, 236
-0.995012, 65, 265, 192, 296
-0.995013, 257, 273, 500, 333
-0.995026, 241, 273, 256, 333
-0.995033, 17, 129, 144, 160
-0.995071, 61, 1, 76, 64
-0.995081, 113, 105, 240, 136
-0.995105, 225, 1, 288, 333
-0.995116, 247, 209, 262, 272
-0.995117, 11, 233, 26, 296
-0.99513, 265, 241, 280, 304
-0.995158, 145, 41, 160, 104
-0.995163, 321, 1, 448, 128
-0.995178, 249, 265, 264, 328
-0.995191, 65, 137, 192, 168
-0.995216, 1, 73, 128, 104
-0.995222, 293, 249, 308, 312
-0.995245, 239, 249, 254, 312
-0.995265, 123, 113, 138, 176
-0.995272, 1, 225, 16, 288
-0.995283, 59, 97, 74, 160
-0.995286, 241, 209, 256, 272
-0.995289, 147, 145, 162, 208
-0.9953, 257, 65, 320, 320
-0.995306, 307, 241, 322, 304
-0.99531, 205, 97, 220, 160
-0.995329, 1, 37, 128, 68
-0.995332, 285, 265, 300, 328
-0.995336, 321, 161, 384, 288
-0.995336, 71, 97, 86, 160
-0.995338, 297, 1, 360, 333
-0.99534, 127, 25, 142, 88
-0.995341, 295, 273, 310, 333
-0.995343, 85, 97, 100, 160
-0.995361, 167, 1, 182, 64
-0.995372, 55, 25, 70, 88
-0.995374, 105, 65, 120, 128
-0.995383, 77, 257, 92, 320
-0.995387, 93, 273, 108, 333
-0.995394, 1, 113, 128, 144
-0.995448, 259, 233, 274, 296
-0.995479, 83, 241, 98, 304
-0.99548, 109, 105, 124, 168
-0.995499, 185, 97, 200, 160
-0.995519, 17, 269, 144, 300
-0.99555, 97, 113, 352, 176
-0.995563, 155, 57, 170, 120
-0.995564, 287, 209, 302, 272
-0.995576, 37, 225, 52, 288
-0.995576, 97, 165, 224, 196
-0.995596, 321, 257, 336, 320
-0.995618, 73, 1, 104, 256
-0.995621, 9, 185, 24, 248
-0.995629, 275, 225, 290, 288
-0.995654, 97, 149, 224, 180
-0.995662, 207, 33, 222, 96
-0.995664, 99, 129, 114, 192
-0.99568, 1, 41, 500, 104
-0.995689, 109, 145, 124, 208
-0.995695, 65, 81, 192, 112
-0.995719, 1, 97, 128, 128
-0.995721, 81, 53, 208, 84
-0.995732, 145, 257, 272, 288
-0.995742, 1, 1, 128, 32
-0.995748, 313, 241, 328, 304
-0.995752, 153, 145, 168, 208
-0.995754, 97, 89, 352, 152
-0.995772, 257, 1, 320, 64
-0.995781, 27, 209, 42, 272
-0.995793, 79, 1, 94, 64
-0.995793, 369, 9, 432, 72
-0.9958, 111, 73, 126, 136
-0.995839, 199, 49, 214, 112
-0.995839, 83, 73, 98, 136
-0.995853, 279, 273, 294, 333
-0.995854, 227, 265, 242, 328
-0.995854, 225, 209, 480, 272
-0.995857, 265, 273, 280, 333
-0.995869, 137, 145, 152, 208
-0.995872, 409, 1, 472, 128
-0.995874, 215, 33, 230, 96
-0.995888, 113, 225, 176, 288
-0.99589, 129, 129, 256, 160
-0.995896, 33, 97, 48, 160
-0.995909, 229, 241, 244, 304
-0.99592, 97, 193, 352, 256
-0.995926, 361, 201, 424, 264
-0.995942, 49, 73, 64, 136
-0.995946, 17, 257, 144, 288
-0.995961, 75, 129, 90, 192
-0.995974, 17, 85, 144, 116
-0.995974, 65, 273, 80, 333
-0.995983, 153, 1, 184, 256
-0.995989, 113, 13, 240, 44
-0.995998, 309, 217, 324, 280
-0.996016, 261, 209, 276, 272
-0.996018, 253, 209, 268, 272
-0.996025, 1, 137, 256, 200
-0.996033, 1, 249, 16, 312
-0.996035, 129, 65, 256, 96
-0.996035, 49, 1, 80, 256
-0.996059, 85, 49, 100, 112
-0.99609, 49, 161, 176, 192
-0.996098, 85, 121, 100, 184
-0.996113, 259, 273, 274, 333
-0.996116, 91, 89, 106, 152
-0.996121, 179, 97, 194, 160
-0.996125, 69, 121, 84, 184
-0.996128, 107, 17, 122, 80
-0.99614, 61, 49, 76, 112
-0.996144, 17, 209, 144, 240
-0.996145, 1, 249, 500, 312
-0.996164, 71, 233, 86, 296
-0.996164, 25, 1, 56, 256
-0.996166, 179, 145, 194, 208
-0.996192, 127, 89, 142, 152
-0.996209, 213, 121, 228, 184
-0.996211, 89, 33, 120, 288
-0.996213, 309, 273, 324, 333
-0.996214, 185, 137, 200, 200
-0.996226, 161, 77, 288, 108
-0.996237, 301, 257, 316, 320
-0.99624, 257, 1, 384, 128
-0.996249, 65, 241, 80, 304
-0.996258, 161, 9, 288, 40
-0.996262, 165, 33, 196, 288
-0.996266, 13, 1, 28, 64
-0.996279, 197, 1, 228, 256
-0.996298, 177, 217, 304, 248
-0.996317, 211, 97, 226, 160
-0.996326, 1, 105, 500, 168
-0.996356, 409, 1, 472, 333
-0.996363, 273, 213, 400, 244
-0.996363, 97, 41, 352, 104
-0.996384, 145, 169, 272, 200
-0.996419, 149, 45, 164, 76
-0.99644, 17, 197, 144, 228
-0.996454, 129, 33, 160, 288
-0.996477, 157, 45, 172, 76
-0.996495, 127, 45, 142, 76
-0.996514, 145, 149, 272, 180
-0.99652, 141, 209, 172, 333
-0.996537, 37, 1, 68, 256
-0.996557, 177, 109, 304, 140
-0.996567, 161, 25, 288, 56
-0.996579, 129, 181, 256, 212
-0.99658, 71, 41, 86, 72
-0.996589, 193, 17, 448, 80
-0.996618, 1, 65, 500, 128
-0.996641, 101, 177, 132, 304
-0.996643, 249, 145, 312, 208
-0.996657, 97, 153, 352, 216
-0.996668, 117, 45, 132, 76
-0.996675, 225, 65, 256, 192
-0.996688, 369, 217, 496, 280
-0.996706, 171, 45, 186, 76
-0.996714, 163, 45, 178, 76
-0.996726, 81, 193, 144, 256
-0.996731, 273, 297, 400, 328
-0.996759, 65, 253, 192, 284
-0.996781, 61, 1, 92, 256
-0.996781, 141, 45, 156, 76
-0.996782, 393, 1, 456, 64
-0.996809, 265, 1, 328, 333
-0.996816, 225, 17, 256, 144
-0.996831, 305, 237, 432, 268
-0.996839, 111, 45, 126, 76
-0.996841, 181, 45, 196, 76
-0.996852, 17, 145, 144, 176
-0.996886, 103, 65, 118, 96
-0.996897, 273, 277, 400, 308
-0.996915, 273, 113, 336, 240
-0.996926, 261, 285, 276, 316
-0.996948, 195, 97, 210, 128
-0.996962, 129, 93, 256, 124
-0.996965, 123, 117, 138, 148
-0.996971, 79, 45, 94, 76
-0.99698, 201, 97, 216, 128
-0.996999, 215, 97, 230, 128
-0.997001, 129, 241, 256, 272
-0.997012, 235, 229, 250, 260
-0.997013, 177, 1, 208, 256
-0.997014, 297, 1, 360, 64
-0.997018, 161, 197, 288, 228
-0.997033, 133, 45, 148, 76
-0.997043, 145, 41, 272, 72
-0.997046, 189, 97, 204, 128
-0.997057, 299, 229, 314, 260
-0.997059, 111, 65, 126, 96
-0.997059, 209, 97, 224, 128
-0.997065, 1, 17, 500, 80
-0.997072, 99, 45, 114, 76
-0.9971, 233, 65, 296, 320
-0.997108, 89, 41, 104, 72
-0.997122, 17, 245, 144, 276
-0.997131, 131, 117, 146, 148
-0.997136, 49, 1, 176, 32
-0.997137, 293, 225, 308, 256
-0.997145, 289, 213, 304, 244
-0.997155, 87, 113, 102, 144
-0.997156, 73, 257, 88, 288
-0.997167, 255, 265, 270, 296
-0.997181, 61, 45, 76, 76
-0.9972, 119, 61, 134, 92
-0.997209, 97, 1, 224, 32
-0.997211, 253, 285, 268, 316
-0.997214, 183, 97, 198, 128
-0.997224, 243, 229, 258, 260
-0.997227, 209, 1, 240, 256
-0.997238, 225, 177, 480, 240
-0.997241, 17, 185, 144, 216
-0.997267, 109, 1, 140, 256
-0.997271, 61, 33, 76, 64
-0.997272, 65, 301, 192, 332
-0.997304, 413, 177, 444, 304
-0.997307, 247, 289, 262, 320
-0.997307, 233, 113, 264, 240
-0.997339, 425, 17, 488, 80
-0.997348, 265, 269, 280, 300
-0.997357, 1, 21, 128, 52
-0.997361, 239, 217, 254, 248
-0.997379, 193, 173, 320, 204
-0.997384, 1, 225, 128, 256
-0.997389, 89, 29, 104, 60
-0.997398, 127, 65, 142, 96
-0.997407, 51, 41, 66, 72
-0.997409, 175, 57, 190, 88
-0.997409, 177, 97, 192, 128
-0.997415, 53, 101, 68, 132
-0.997427, 71, 29, 86, 60
-0.997429, 121, 77, 136, 108
-0.997432, 161, 229, 288, 260
-0.997432, 3, 289, 18, 320
-0.997437, 271, 293, 286, 324
-0.997454, 65, 17, 192, 48
-0.997461, 93, 77, 108, 108
-0.997467, 85, 97, 100, 128
-0.997473, 79, 245, 94, 276
-0.997473, 147, 57, 162, 88
-0.997482, 175, 1, 190, 32
-0.997494, 65, 97, 80, 128
-0.997495, 87, 77, 102, 108
-0.997498, 453, 193, 484, 320
-0.997498, 17, 1, 32, 32
-0.9975, 273, 137, 400, 200
-0.9975, 137, 33, 152, 64
-0.997503, 179, 85, 194, 116
-0.997506, 193, 45, 208, 76
-0.997513, 137, 301, 152, 332
-0.997517, 133, 65, 148, 96
-0.997517, 193, 125, 208, 156
-0.997518, 65, 177, 192, 208
-0.997522, 323, 261, 338, 292
-0.997525, 1, 157, 128, 188
-0.997528, 229, 229, 244, 260
-0.99753, 73, 269, 88, 300
-0.99754, 259, 297, 274, 328
-0.997541, 33, 133, 48, 164
-0.997541, 337, 153, 464, 216
-0.997545, 273, 253, 400, 284
-0.997548, 185, 133, 200, 164
-0.99755, 59, 97, 74, 128
-0.99755, 63, 113, 78, 144
-0.997552, 73, 129, 88, 160
-0.997555, 67, 285, 82, 316
-0.99756, 279, 229, 294, 260
-0.997571, 77, 101, 92, 132
-0.997578, 249, 229, 264, 260
-0.997581, 285, 229, 300, 260
-0.997583, 155, 113, 170, 144
-0.997584, 83, 281, 98, 312
-0.997586, 157, 61, 172, 92
-0.997587, 17, 189, 32, 220
-0.997588, 157, 33, 172, 64
-0.997595, 181, 1, 196, 32
-0.997595, 145, 301, 160, 332
-0.997601, 11, 229, 26, 260
-0.997604, 275, 209, 290, 240
-0.997607, 33, 301, 48, 332
-0.997613, 225, 189, 352, 220
-0.997616, 127, 77, 142, 108
-0.997622, 107, 149, 122, 180
-0.997623, 235, 289, 250, 320
-0.997631, 203, 45, 218, 76
-0.997632, 105, 45, 120, 76
-0.997639, 261, 229, 276, 260
-0.997649, 115, 137, 130, 168
-0.997653, 241, 289, 256, 320
-0.997656, 107, 33, 122, 64
-0.997657, 321, 193, 448, 256
-0.997667, 119, 33, 134, 64
-0.997669, 267, 229, 282, 260
-0.997675, 165, 65, 180, 96
-0.99768, 273, 161, 400, 224
-0.997683, 315, 241, 330, 272
-0.997687, 99, 33, 114, 64
-0.99769, 73, 285, 88, 316
-0.99769, 199, 109, 214, 140
-0.997691, 205, 109, 220, 140
-0.997698, 127, 33, 142, 64
-0.997698, 245, 269, 260, 300
-0.997709, 153, 301, 168, 332
-0.997709, 5, 229, 20, 260
-0.99771, 29, 209, 44, 240
-0.997714, 187, 109, 202, 140
-0.997714, 81, 113, 96, 144
-0.997714, 253, 297, 268, 328
-0.997719, 63, 301, 78, 332
-0.997721, 111, 77, 126, 108
-0.997722, 5, 301, 20, 332
-0.997726, 305, 265, 432, 296
-0.997726, 311, 285, 326, 316
-0.997727, 273, 229, 288, 260
-0.99773, 101, 301, 116, 332
-0.997731, 79, 29, 94, 60
-0.997736, 87, 61, 102, 92
-0.997736, 193, 41, 320, 72
-0.99774, 165, 33, 180, 64
-0.997744, 193, 97, 320, 128
-0.997746, 1, 265, 16, 296
-0.997748, 181, 145, 196, 176
-0.997749, 169, 1, 184, 32
-0.997755, 193, 109, 208, 140
-0.997758, 41, 9, 56, 40
-0.997766, 9, 1, 40, 256
-0.997767, 165, 273, 180, 304
-0.997779, 141, 33, 172, 288
-0.997779, 193, 257, 320, 288
-0.997783, 283, 213, 298, 244
-0.997785, 67, 237, 82, 268
-0.997851, 177, 57, 304, 88
-0.997863, 289, 65, 416, 192
-0.997876, 129, 213, 256, 244
-0.997888, 377, 1, 440, 128
-0.997908, 97, 289, 224, 320
-0.997921, 225, 145, 480, 208
-0.997938, 177, 185, 304, 216
-0.997953, 193, 49, 448, 112
-0.997956, 1, 193, 500, 256
-0.997965, 1, 273, 500, 333
-0.997978, 369, 245, 496, 276
-0.998029, 353, 25, 480, 88
-0.998053, 193, 161, 320, 192
-0.998073, 273, 201, 400, 232
-0.998082, 65, 241, 192, 272
-0.998186, 177, 133, 304, 164
-0.998186, 257, 241, 384, 272
-0.998227, 349, 209, 380, 333
-0.998259, 445, 1, 476, 128
-0.998297, 325, 161, 356, 288
-0.998323, 425, 65, 488, 320
-0.99834, 225, 113, 288, 176
-0.998343, 233, 113, 296, 240
-0.998366, 33, 101, 96, 116
-0.998369, 273, 1, 400, 32
-0.998378, 169, 103, 232, 118
-0.998384, 193, 81, 448, 144
-0.9984, 233, 287, 296, 302
-0.998407, 33, 107, 96, 122
-0.998409, 1, 305, 64, 320
-0.998422, 121, 317, 184, 332
-0.998427, 1, 313, 64, 328
-0.998428, 273, 287, 336, 302
-0.998441, 97, 317, 160, 332
-0.998451, 57, 309, 120, 324
-0.998452, 209, 17, 336, 48
-0.998453, 217, 293, 280, 308
-0.998453, 97, 311, 160, 326
-0.998454, 57, 103, 120, 118
-0.998456, 57, 283, 120, 298
-0.998456, 1, 239, 32, 254
-0.998456, 241, 297, 304, 312
-0.998457, 133, 43, 164, 58
-0.998458, 37, 213, 68, 228
-0.998458, 173, 57, 204, 72
-0.998459, 53, 63, 84, 78
-0.99846, 97, 163, 128, 178
-0.99846, 105, 79, 168, 94
-0.99846, 313, 281, 344, 296
-0.99846, 77, 313, 108, 328
-0.998461, 193, 183, 224, 198
-0.998461, 5, 49, 36, 176
-0.998463, 221, 289, 252, 304
-0.998464, 77, 283, 108, 298
-0.998464, 165, 99, 196, 114
-0.998465, 233, 265, 296, 280
-0.998467, 25, 137, 56, 152
-0.998467, 257, 273, 288, 288
-0.998467, 9, 9, 40, 24
-0.998467, 33, 299, 64, 314
-0.998467, 149, 311, 180, 326
-0.998467, 233, 221, 264, 236
-0.998468, 173, 43, 204, 58
-0.998469, 161, 3, 192, 18
-0.99847, 129, 77, 192, 92
-0.99847, 297, 249, 328, 264
-0.998471, 53, 55, 84, 70
-0.998471, 37, 95, 68, 110
-0.998471, 33, 45, 64, 60
-0.998471, 57, 315, 120, 330
-0.998473, 241, 279, 272, 294
-0.998473, 25, 113, 56, 128
-0.998474, 61, 317, 92, 332
-0.998474, 77, 113, 108, 128
-0.998474, 209, 285, 272, 300
-0.998475, 177, 109, 208, 124
-0.998475, 221, 243, 252, 258
-0.998475, 217, 159, 248, 174
-0.998476, 17, 225, 80, 240
-0.998477, 273, 275, 304, 290
-0.998477, 257, 113, 384, 176
-0.998478, 57, 267, 88, 282
-0.998478, 25, 307, 88, 322
-0.998479, 289, 281, 320, 296
-0.998479, 189, 59, 220, 74
-0.99848, 9, 7, 72, 22
-0.99848, 233, 219, 296, 234
-0.998481, 281, 315, 312, 330
-0.998482, 89, 61, 120, 76
-0.998483, 1, 253, 32, 268
-0.998483, 221, 231, 252, 246
-0.998484, 257, 307, 288, 322
-0.998484, 97, 35, 128, 50
-0.998485, 193, 123, 224, 138
-0.998487, 121, 311, 184, 326
-0.99849, 205, 243, 236, 258
-0.99849, 233, 289, 264, 304
-0.99849, 109, 63, 140, 78
-0.998491, 205, 37, 236, 52
-0.998492, 9, 1, 72, 16
-0.998493, 45, 309, 76, 324
-0.998494, 249, 297, 280, 312
-0.998496, 177, 109, 240, 124
-0.998496, 153, 285, 216, 300
-0.998496, 45, 41, 76, 56
-0.998496, 185, 285, 216, 300
-0.998496, 265, 297, 296, 312
-0.998497, 25, 13, 56, 28
-0.998497, 65, 293, 96, 308
-0.998497, 141, 121, 172, 136
-0.998498, 5, 191, 36, 206
-0.998499, 25, 289, 88, 304
-0.9985, 17, 219, 80, 234
-0.998502, 25, 43, 88, 58
-0.998503, 261, 265, 292, 280
-0.998504, 173, 281, 204, 296
-0.998506, 269, 311, 300, 326
-0.998507, 281, 227, 312, 242
-0.998508, 25, 313, 88, 328
-0.998508, 161, 277, 192, 292
-0.99851, 265, 267, 328, 282
-0.99851, 209, 303, 272, 318
-0.998511, 1, 295, 64, 310
-0.998511, 249, 281, 312, 296
-0.998511, 197, 117, 228, 132
-0.998512, 297, 217, 328, 232
-0.998512, 65, 97, 96, 112
-0.998513, 245, 303, 276, 318
-0.998513, 57, 119, 88, 134
-0.998515, 193, 241, 256, 256
-0.998515, 189, 107, 220, 122
-0.998515, 49, 113, 112, 128
-0.998515, 389, 177, 420, 304
-0.998515, 137, 49, 168, 64
-0.998516, 285, 265, 316, 280
-0.998517, 73, 261, 104, 276
-0.998518, 193, 291, 256, 306
-0.998519, 285, 233, 316, 248
-0.998519, 45, 3, 76, 18
-0.99852, 321, 113, 448, 240
-0.998521, 153, 115, 216, 130
-0.998522, 169, 9, 200, 24
-0.998523, 273, 293, 336, 308
-0.998523, 9, 137, 72, 152
-0.998523, 117, 43, 148, 58
-0.998523, 101, 317, 132, 332
-0.998524, 57, 45, 120, 60
-0.998524, 277, 293, 308, 308
-0.998524, 9, 101, 72, 116
-0.998524, 57, 277, 120, 292
-0.998525, 49, 315, 80, 330
-0.998525, 25, 113, 88, 128
-0.998525, 409, 249, 472, 264
-0.998526, 289, 289, 320, 304
-0.998527, 41, 301, 104, 316
-0.998528, 97, 81, 128, 96
-0.998528, 257, 231, 320, 246
-0.998528, 201, 289, 232, 304
-0.998529, 289, 275, 352, 290
-0.998529, 313, 267, 344, 282
-0.99853, 233, 227, 296, 242
-0.99853, 105, 305, 168, 320
-0.998531, 193, 101, 256, 116
-0.998532, 145, 57, 208, 72
-0.998532, 81, 79, 144, 94
-0.998532, 57, 289, 120, 304
-0.998532, 233, 273, 296, 288
-0.998535, 233, 311, 296, 326
-0.998536, 145, 145, 208, 160
-0.998537, 89, 315, 120, 330
-0.998537, 249, 317, 312, 332
-0.998538, 65, 285, 96, 300
-0.998539, 221, 295, 252, 310
-0.998539, 61, 113, 92, 128
-0.99854, 33, 1, 96, 16
-0.99854, 21, 231, 52, 246
-0.99854, 261, 279, 292, 294
-0.998541, 37, 107, 68, 122
-0.998541, 201, 111, 232, 126
-0.998541, 201, 99, 232, 114
-0.998542, 33, 311, 64, 326
-0.998542, 169, 291, 232, 306
-0.998543, 289, 223, 352, 238
-0.998543, 33, 7, 96, 22
-0.998543, 217, 247, 280, 262
-0.998543, 37, 113, 68, 128
-0.998544, 81, 303, 144, 318
-0.998544, 209, 263, 272, 278
-0.998545, 17, 49, 80, 64
-0.998545, 81, 77, 112, 92
-0.998545, 25, 73, 88, 88
-0.998546, 233, 233, 296, 248
-0.998546, 169, 97, 232, 112
-0.998547, 9, 233, 40, 248
-0.998549, 273, 259, 336, 274
-0.998549, 149, 317, 180, 332
-0.998549, 209, 1, 336, 32
-0.998549, 21, 307, 52, 322
-0.99855, 193, 297, 256, 312
-0.998551, 241, 265, 272, 280
-0.998552, 33, 33, 96, 48
-0.998553, 25, 1, 56, 16
-0.998554, 177, 115, 240, 130
-0.998554, 281, 217, 344, 232
-0.998554, 25, 119, 88, 134
-0.998555, 153, 279, 216, 294
-0.998555, 57, 267, 120, 282
-0.998555, 53, 289, 84, 304
-0.998555, 17, 213, 80, 228
-0.998556, 273, 249, 336, 264
-0.998556, 149, 79, 180, 94
-0.998558, 273, 281, 336, 296
-0.998559, 33, 95, 96, 110
-0.998559, 161, 13, 224, 28
-0.99856, 137, 99, 200, 114
-0.99856, 89, 45, 120, 60
-0.998561, 289, 265, 352, 280
-0.998562, 25, 213, 56, 228
-0.998562, 57, 65, 120, 80
-0.998562, 53, 105, 84, 120
-0.998562, 57, 39, 120, 54
-0.998562, 9, 13, 72, 28
-0.998563, 25, 295, 88, 310
-0.998563, 5, 305, 36, 320
-0.998563, 301, 243, 332, 258
-0.998563, 177, 103, 208, 118
-0.998563, 305, 25, 368, 88
-0.998564, 105, 55, 168, 70
-0.998564, 49, 119, 112, 134
-0.998565, 273, 265, 304, 280
-0.998566, 425, 255, 488, 270
-0.998566, 89, 55, 120, 70
-0.998568, 185, 285, 248, 300
-0.998568, 105, 85, 168, 100
-0.99857, 233, 305, 296, 320
-0.99857, 145, 105, 208, 120
-0.998571, 9, 231, 72, 246
-0.998572, 169, 35, 232, 50
-0.998572, 33, 133, 96, 148
-0.998572, 145, 135, 208, 150
-0.998572, 277, 285, 308, 300
-0.998573, 217, 239, 280, 254
-0.998574, 145, 121, 208, 136
-0.998575, 33, 13, 96, 28
-0.998575, 257, 225, 320, 240
-0.998576, 193, 227, 256, 242
-0.998577, 57, 295, 120, 310
-0.998577, 369, 225, 496, 256
-0.998578, 121, 311, 152, 326
-0.998579, 97, 113, 160, 128
-0.99858, 185, 183, 248, 198
-0.998581, 57, 97, 120, 112
-0.998581, 69, 269, 100, 284
-0.998581, 273, 243, 336, 258
-0.998583, 233, 229, 264, 244
-0.998584, 145, 127, 208, 142
-0.998585, 129, 277, 192, 292
-0.998585, 17, 61, 80, 76
-0.998585, 105, 119, 168, 134
-0.998586, 185, 57, 248, 72
-0.998586, 57, 33, 120, 48
-0.998586, 385, 243, 448, 258
-0.998586, 209, 279, 272, 294
-0.998588, 105, 137, 168, 152
-0.99859, 169, 81, 232, 96
-0.99859, 9, 107, 72, 122
-0.99859, 57, 55, 120, 70
-0.998591, 133, 79, 164, 94
-0.998591, 137, 83, 200, 98
-0.998591, 161, 51, 224, 66
-0.998592, 37, 13, 68, 28
-0.998593, 53, 49, 68, 176
-0.998594, 33, 273, 96, 288
-0.998594, 161, 63, 224, 78
-0.998594, 129, 305, 192, 320
-0.998594, 257, 211, 320, 226
-0.998595, 237, 295, 268, 310
-0.998596, 161, 45, 224, 60
-0.998607, 53, 99, 84, 114
-0.998608, 1, 161, 500, 224
-0.998612, 121, 317, 152, 332
-0.998621, 257, 287, 288, 302
-0.998623, 221, 237, 252, 252
-0.998624, 337, 209, 368, 333
-0.998625, 245, 287, 276, 302
-0.998627, 189, 101, 220, 116
-0.998633, 65, 279, 96, 294
-0.998635, 369, 161, 432, 224
-0.998639, 109, 79, 140, 94
-0.998643, 37, 101, 68, 116
-0.998643, 65, 103, 96, 118
-0.998644, 181, 1, 196, 128
-0.998654, 161, 79, 192, 94
-0.998658, 201, 105, 232, 120
-0.998658, 121, 79, 152, 94
-0.99866, 301, 289, 332, 304
-0.998673, 289, 209, 304, 333
-0.99869, 369, 49, 496, 112
-0.998696, 191, 1, 206, 128
-0.998697, 65, 197, 192, 228
-0.998699, 11, 177, 26, 304
-0.998699, 1, 169, 128, 200
-0.998703, 321, 13, 448, 44
-0.998712, 137, 317, 168, 332
-0.99872, 169, 1, 184, 128
-0.99872, 183, 81, 198, 208
-0.99872, 123, 49, 138, 176
-0.998732, 175, 1, 190, 128
-0.998734, 61, 1, 76, 128
-0.998738, 17, 177, 32, 304
-0.998741, 283, 209, 298, 333
-0.998744, 257, 13, 384, 44
-0.998746, 137, 307, 168, 322
-0.99875, 5, 177, 20, 304
-0.998757, 195, 81, 210, 208
-0.998758, 177, 81, 192, 208
-0.998767, 113, 1, 128, 128
-0.998781, 321, 221, 448, 252
-0.998782, 257, 41, 384, 104
-0.998783, 237, 209, 252, 333
-0.998794, 295, 209, 310, 333
-0.998798, 119, 1, 134, 128
-0.998804, 85, 81, 100, 208
-0.998807, 63, 81, 78, 208
-0.998811, 157, 81, 172, 208
-0.998811, 225, 145, 352, 176
-0.998823, 193, 121, 320, 152
-0.998826, 71, 17, 86, 144
-0.998831, 215, 81, 230, 208
-0.99884, 209, 81, 224, 208
-0.998848, 133, 65, 148, 192
-0.998853, 77, 65, 92, 192
-0.998872, 189, 81, 204, 208
-0.998882, 133, 1, 148, 128
-0.998883, 127, 1, 142, 128
-0.998885, 203, 81, 218, 208
-0.998886, 113, 49, 128, 176
-0.998891, 97, 65, 352, 128
-0.998902, 209, 29, 336, 60
-0.998903, 229, 209, 244, 333
-0.998911, 49, 229, 176, 260
-0.998927, 215, 17, 230, 144
-0.998928, 143, 65, 158, 192
-0.998932, 163, 1, 178, 128
-0.998933, 47, 17, 62, 144
-0.998951, 217, 209, 232, 333
-0.998954, 321, 1, 448, 32
-0.99896, 37, 81, 52, 208
-0.998968, 321, 249, 448, 280
-0.998972, 131, 113, 146, 240
-0.998976, 45, 81, 60, 208
-0.998986, 103, 81, 118, 208
-0.998992, 369, 9, 496, 40
-0.998993, 273, 149, 400, 180
-0.998997, 221, 33, 252, 288
-0.998997, 39, 1, 54, 128
-0.999006, 97, 113, 112, 240
-0.999013, 85, 17, 100, 144
-0.999027, 209, 85, 336, 116
-0.999029, 281, 169, 344, 232
-0.999035, 91, 97, 106, 224
-0.999035, 117, 209, 148, 333
-0.999038, 95, 33, 110, 160
-0.999046, 277, 209, 292, 333
-0.999049, 97, 161, 112, 288
-0.999051, 23, 209, 38, 333
-0.999059, 433, 1, 496, 333
-0.99906, 369, 73, 496, 136
-0.999063, 271, 209, 286, 333
-0.999064, 153, 1, 168, 128
-0.999067, 203, 17, 218, 144
-0.999069, 209, 73, 336, 104
-0.999076, 71, 209, 86, 333
-0.999077, 193, 121, 448, 184
-0.999077, 163, 65, 178, 192
-0.999078, 321, 209, 448, 240
-0.999083, 139, 17, 154, 144
-0.999084, 71, 81, 86, 208
-0.999086, 137, 113, 152, 240
-0.999096, 27, 1, 42, 128
-0.999102, 219, 145, 234, 272
-0.99911, 149, 113, 164, 240
-0.999114, 337, 165, 464, 196
-0.999118, 197, 1, 212, 128
-0.999121, 79, 1, 94, 128
-0.999125, 169, 97, 184, 224
-0.999134, 223, 209, 238, 333
-0.999145, 385, 65, 448, 320
-0.999154, 221, 81, 236, 208
-0.999156, 43, 129, 58, 256
-0.999165, 53, 1, 68, 128
-0.999167, 247, 209, 262, 333
-0.99917, 103, 1, 118, 128
-0.999172, 149, 65, 164, 192
-0.999177, 265, 209, 280, 333
-0.999181, 321, 57, 448, 120
-0.999194, 211, 209, 226, 333
-0.999207, 209, 17, 224, 144
-0.999207, 171, 49, 186, 176
-0.999213, 17, 129, 32, 256
-0.999221, 147, 1, 162, 128
-0.999241, 57, 97, 72, 224
-0.999244, 401, 209, 432, 333
-0.999245, 9, 113, 24, 240
-0.999248, 119, 97, 134, 224
-0.999248, 227, 145, 242, 272
-0.999249, 91, 177, 106, 304
-0.99925, 301, 209, 316, 333
-0.99925, 109, 97, 124, 224
-0.999253, 113, 193, 240, 224
-0.999267, 317, 209, 332, 333
-0.999268, 31, 49, 46, 176
-0.999275, 253, 177, 268, 304
-0.99928, 27, 145, 42, 272
-0.999285, 75, 129, 90, 256
-0.99929, 309, 209, 324, 333
-0.999299, 369, 25, 496, 56
-0.9993, 157, 129, 172, 256
-0.999309, 49, 209, 64, 333
-0.999318, 31, 97, 46, 224
-0.999319, 97, 229, 224, 260
-0.999321, 103, 145, 118, 272
-0.999322, 25, 97, 40, 224
-0.999325, 19, 1, 34, 128
-0.999341, 259, 209, 274, 333
-0.999358, 239, 161, 254, 288
-0.999358, 317, 1, 348, 256
-0.999364, 3, 129, 18, 256
-0.999365, 305, 81, 432, 144
-0.999366, 273, 189, 400, 220
-0.999371, 83, 209, 98, 333
-0.999382, 37, 129, 52, 256
-0.999391, 143, 113, 158, 240
-0.999391, 97, 209, 112, 333
-0.999394, 65, 209, 80, 333
-0.999401, 81, 129, 96, 256
-0.999407, 293, 161, 308, 288
-0.999408, 177, 129, 192, 256
-0.999409, 125, 97, 140, 224
-0.999412, 323, 209, 338, 333
-0.99942, 189, 129, 204, 256
-0.99942, 163, 113, 178, 240
-0.999421, 69, 129, 84, 256
-0.999439, 211, 161, 226, 288
-0.999439, 35, 193, 50, 320
-0.999445, 77, 177, 92, 304
-0.999447, 33, 1, 48, 128
-0.999453, 183, 129, 198, 256
-0.999458, 301, 1, 332, 256
-0.99946, 147, 161, 162, 288
-0.999465, 303, 161, 318, 288
-0.999468, 59, 209, 74, 333
-0.999478, 109, 145, 124, 272
-0.99948, 1, 129, 500, 192
-0.999484, 233, 145, 248, 272
-0.99949, 51, 97, 66, 224
-0.999503, 225, 33, 240, 160
-0.999515, 265, 161, 280, 288
-0.999538, 29, 193, 44, 320
-0.999539, 205, 209, 220, 333
-0.999543, 165, 177, 180, 304
-0.999545, 155, 209, 170, 333
-0.999546, 195, 129, 210, 256
-0.99955, 245, 65, 276, 320
-0.999557, 369, 193, 496, 256
-0.999574, 321, 277, 448, 308
-0.999575, 233, 65, 264, 320
-0.99958, 241, 161, 368, 192
-0.999627, 337, 121, 464, 184
-0.999654, 65, 217, 192, 248
-0.99967, 369, 153, 496, 184
-0.999694, 3, 299, 18, 314
-0.999694, 203, 287, 218, 302
-0.999694, 199, 115, 214, 130
-0.999695, 75, 287, 90, 302
-0.999695, 97, 39, 112, 54
-0.999696, 309, 245, 324, 260
-0.999696, 255, 265, 270, 280
-0.999697, 111, 45, 126, 60
-0.999697, 109, 73, 124, 88
-0.999697, 237, 225, 252, 240
-0.999697, 53, 315, 68, 330
-0.999698, 165, 275, 180, 290
-0.999698, 291, 223, 306, 238
-0.9997, 175, 279, 190, 294
-0.999701, 185, 107, 200, 122
-0.999701, 163, 57, 178, 72
-0.999702, 67, 241, 82, 256
-0.999702, 33, 309, 48, 324
-0.999703, 47, 313, 62, 328
-0.999703, 89, 281, 104, 296
-0.999704, 197, 59, 212, 74
-0.999705, 247, 289, 262, 304
-0.999706, 251, 295, 266, 310
-0.999706, 321, 289, 448, 320
-0.999707, 229, 239, 244, 254
-0.999708, 125, 309, 140, 324
-0.999708, 193, 109, 208, 124
-0.999709, 221, 293, 236, 308
-0.99971, 77, 55, 92, 70
-0.99971, 177, 107, 192, 122
-0.99971, 61, 53, 76, 68
-0.999712, 93, 313, 108, 328
-0.999712, 83, 283, 98, 298
-0.999713, 123, 317, 138, 332
-0.999713, 113, 81, 128, 96
-0.999713, 239, 295, 254, 310
-0.999714, 55, 41, 70, 56
-0.999715, 181, 1, 196, 16
-0.999716, 147, 49, 162, 64
-0.999718, 167, 49, 182, 64
-0.999718, 185, 57, 200, 72
-0.999718, 37, 113, 52, 128
-0.999718, 99, 47, 114, 62
-0.999718, 235, 231, 250, 246
-0.999719, 157, 317, 172, 332
-0.99972, 267, 281, 282, 296
-0.99972, 139, 55, 154, 70
-0.999723, 181, 45, 196, 60
-0.999723, 265, 269, 280, 284
-0.999724, 87, 101, 102, 116
-0.999724, 1, 293, 16, 308
-0.999725, 59, 315, 74, 330
-0.999726, 297, 229, 312, 244
-0.999727, 99, 55, 114, 70
-0.999727, 425, 193, 456, 320
-0.999727, 71, 49, 86, 64
-0.999727, 87, 107, 102, 122
-0.999728, 303, 289, 318, 304
-0.999729, 63, 43, 78, 58
-0.999734, 19, 305, 34, 320
-0.999735, 55, 105, 70, 120
-0.999736, 61, 105, 76, 120
-0.999738, 133, 81, 148, 96
-0.999738, 319, 245, 334, 260
-0.999738, 133, 57, 148, 72
-0.999738, 47, 105, 62, 120
-0.99974, 149, 311, 164, 326
-0.99974, 153, 305, 168, 320
-0.999742, 199, 107, 214, 122
-0.999743, 79, 43, 94, 58
-0.999743, 267, 287, 282, 302
-0.999743, 129, 315, 144, 330
-0.999747, 175, 55, 190, 70
-0.999749, 261, 287, 276, 302
-0.99975, 89, 41, 104, 56
-0.99975, 105, 317, 120, 332
-0.999751, 69, 105, 84, 120
-0.999752, 173, 79, 188, 94
-0.999752, 255, 285, 270, 300
-0.999753, 319, 289, 334, 304
-0.999753, 209, 107, 224, 122
-0.999753, 175, 1, 190, 16
-0.999754, 273, 265, 288, 280
-0.999758, 167, 79, 182, 94
-0.999759, 73, 265, 88, 280
-0.999759, 165, 43, 180, 58
-0.999761, 111, 57, 126, 72
-0.999762, 75, 105, 90, 120
-0.999763, 245, 295, 260, 310
-0.999766, 119, 79, 134, 94
-0.999768, 123, 49, 138, 64
-0.999769, 103, 77, 118, 92
-0.999771, 157, 55, 172, 70
-0.999774, 41, 101, 56, 116
-0.999777, 71, 43, 86, 58
-0.999779, 147, 43, 162, 58
-0.99978, 141, 45, 156, 60
-0.999783, 311, 287, 326, 302
-0.999783, 369, 213, 496, 244
-0.999784, 215, 107, 230, 122
-0.999785, 157, 79, 172, 94
-0.999788, 321, 153, 448, 184
-0.999789, 117, 43, 132, 58
-0.99979, 81, 103, 96, 118
-0.999791, 175, 45, 190, 60
-0.999793, 71, 55, 86, 70
-0.999794, 157, 45, 172, 60
-0.999796, 93, 79, 108, 94
-0.999797, 131, 309, 146, 324
-0.999798, 329, 1, 360, 256
-0.9998, 129, 47, 144, 62
-0.999802, 303, 239, 318, 254
-0.999803, 215, 101, 230, 116
-0.999806, 87, 79, 102, 94
-0.999806, 457, 1, 488, 128
-0.999806, 143, 317, 158, 332
-0.999807, 125, 57, 140, 72
-0.999807, 155, 311, 170, 326
-0.999809, 117, 53, 132, 68
-0.99981, 177, 101, 192, 116
-0.999811, 65, 99, 80, 114
-0.999811, 137, 307, 152, 322
-0.999819, 147, 55, 162, 70
-0.99982, 73, 99, 88, 114
-0.999823, 127, 79, 142, 94
-0.999823, 195, 101, 210, 116
-0.999824, 305, 137, 432, 168
-0.999828, 143, 309, 158, 324
-0.999829, 209, 101, 224, 116
-0.999833, 181, 177, 212, 304
-0.999839, 47, 99, 62, 114
-0.99984, 59, 99, 74, 114
-0.999843, 183, 101, 198, 116
-0.999843, 189, 101, 204, 116
-0.999846, 321, 25, 448, 56
-0.999847, 203, 101, 218, 116
-0.999852, 135, 315, 150, 330
-0.999854, 53, 99, 68, 114
-0.999858, 151, 317, 166, 332
-0.999891, 321, 177, 448, 208
-0.999893, 321, 65, 384, 320
-0.999898, 353, 161, 384, 288
-0.99992, 249, 113, 312, 176
-0.999925, 369, 257, 496, 288
-0.999932, 469, 209, 500, 333
-1.00001, 321, 145, 384, 208
-1.00005, 289, 1, 320, 256
-1.00008, 273, 137, 336, 200
-1.0001, 369, 97, 496, 160
-1.00019, 313, 145, 344, 272
-1.00021, 433, 65, 464, 320
-1.00022, 273, 65, 304, 320
-1.00029, 417, 65, 448, 320
-1.00033, 257, 73, 384, 136
-1.00033, 261, 65, 292, 320
-1.00041, 433, 1, 464, 128
-1.00042, 353, 49, 480, 176
-1.00044, 365, 65, 396, 320
-1.00045, 345, 153, 408, 216
-1.00045, 461, 65, 492, 320
-1.00046, 341, 65, 372, 320
-1.00048, 393, 145, 456, 208
-1.00054, 445, 65, 476, 320
-1.00059, 281, 25, 344, 88
-1.0006, 405, 65, 436, 320
-1.00066, 409, 169, 472, 232
-1.0007, 469, 1, 500, 128
-1.00072, 393, 1, 424, 256
-1.00073, 129, 209, 160, 333
-1.00076, 377, 65, 408, 320
-1.00076, 225, 65, 352, 192
-1.00083, 369, 265, 496, 328
-1.00083, 353, 65, 384, 320
-1.00084, 137, 193, 200, 256
-1.00085, 329, 177, 392, 240
-1.00087, 409, 41, 472, 104
-1.00099, 409, 1, 440, 128
-1.001, 437, 193, 468, 320
-1.00106, 433, 265, 496, 328
-1.00114, 337, 145, 368, 272
-1.00118, 421, 1, 452, 128
-1.00128, 377, 145, 408, 272
-1.00135, 401, 161, 432, 288
-1.00155, 365, 145, 396, 272
-1.00158, 365, 193, 396, 320
-1.00179, 169, 209, 200, 333
-1.00204, 289, 113, 320, 240
-1.00207, 345, 129, 408, 256
-1.0022, 377, 193, 408, 320
-1.00243, 301, 113, 332, 240
-1.00279, 393, 1, 424, 128
-1.00284, 273, 113, 304, 240
-1.00286, 345, 65, 408, 320
-1.00289, 321, 1, 384, 128
-1.00295, 245, 113, 276, 240
-1.00295, 345, 1, 408, 128
-1.00303, 261, 113, 292, 240
-1.00344, 465, 161, 496, 288
-1.00346, 369, 97, 400, 224
-1.00349, 285, 1, 316, 128
-1.00354, 373, 1, 404, 128
-1.00357, 353, 1, 384, 128
-1.0036, 417, 97, 480, 224
-1.00372, 401, 97, 432, 224
-1.00373, 257, 1, 320, 128
-1.00395, 309, 65, 340, 192
-1.00396, 273, 65, 336, 192
-1.00409, 281, 1, 344, 128
-1.00415, 321, 113, 384, 240
-1.00415, 313, 65, 376, 192
-1.00421, 325, 1, 356, 128
-1.00422, 353, 97, 384, 224
-1.00443, 393, 129, 456, 256
-1.00448, 301, 1, 332, 128
-1.00449, 261, 1, 292, 128
-1.0045, 325, 113, 356, 240
-1.00451, 469, 113, 500, 240
-1.00454, 153, 209, 184, 333
-1.00454, 273, 1, 304, 128
-1.00503, 369, 97, 432, 224
-1.0051, 401, 49, 464, 176
-1.00639, 369, 49, 432, 176
-1.00643, 345, 65, 408, 192
-1.00661, 233, 65, 296, 192
-1.00669, 433, 49, 496, 176
-1.00794, 425, 145, 488, 272
