1891
-0.35787, 1, 65, 500, 320
-0.403629, 1, 1, 500, 333
-0.489752, 65, 1, 320, 333
-0.508369, 129, 65, 384, 320
-0.557506, 225, 1, 480, 333
-0.608883, 1, 65, 256, 320
-0.613398, 225, 33, 480, 288
-0.817195, 177, 33, 304, 288
-0.846518, 161, 1, 288, 333
-0.849441, 1, 161, 500, 288
-0.850539, 97, 65, 224, 320
-0.871672, 1, 209, 500, 333
-0.873984, 305, 65, 432, 320
-0.874046, 1, 65, 128, 320
-0.874673, 257, 1, 384, 256
-0.881901, 209, 1, 336, 333
-0.887133, 113, 1, 240, 333
-0.893443, 17, 1, 144, 333
-0.893618, 49, 65, 176, 320
-0.897761, 129, 161, 384, 288
-0.902065, 65, 1, 192, 333
-0.902336, 1, 193, 256, 320
-0.903143, 257, 1, 384, 333
-0.904915, 1, 113, 500, 240
-0.905994, 305, 1, 432, 333
-0.910421, 129, 209, 384, 333
-0.910675, 1, 65, 500, 192
-0.912303, 97, 81, 352, 208
-0.914767, 33, 145, 288, 272
-0.917638, 225, 161, 480, 288
-0.920019, 257, 161, 384, 288
-0.922055, 97, 193, 224, 320
-0.924284, 193, 161, 320, 288
-0.9254, 353, 65, 480, 320
-0.92799, 1, 193, 128, 320
-0.928512, 273, 177, 336, 304
-0.929041, 161, 65, 288, 192
-0.929296, 337, 193, 400, 320
-0.930896, 313, 193, 376, 320
-0.9324, 305, 161, 432, 288
-0.933201, 193, 49, 256, 176
-0.935028, 313, 145, 376, 272
-0.935305, 329, 201, 392, 264
-0.936308, 249, 161, 312, 288
-0.936571, 273, 209, 400, 333
-0.936593, 225, 113, 480, 240
-0.936749, 225, 209, 480, 333
-0.937013, 385, 193, 448, 320
-0.937669, 1, 97, 256, 224
-0.938636, 161, 161, 224, 288
-0.939545, 177, 113, 304, 240
-0.94, 257, 113, 384, 240
-0.940372, 353, 1, 480, 333
-0.940817, 121, 177, 184, 304
-0.941797, 17, 177, 80, 304
-0.942422, 249, 177, 312, 240
-0.942491, 49, 209, 176, 333
-0.942667, 361, 209, 424, 333
-0.942737, 217, 65, 280, 192
-0.942886, 65, 145, 192, 272
-0.94294, 57, 209, 120, 333
-0.943437, 145, 161, 272, 288
-0.943773, 81, 209, 144, 333
-0.945342, 353, 209, 480, 333
-0.947025, 361, 185, 424, 248
-0.94817, 329, 177, 392, 240
-0.948389, 353, 209, 416, 272
-0.948839, 113, 81, 240, 208
-0.949275, 17, 129, 144, 256
-0.949327, 153, 81, 216, 208
-0.949775, 225, 161, 288, 288
-0.950349, 257, 113, 320, 240
-0.950846, 81, 145, 144, 272
-0.951745, 257, 49, 384, 176
-0.951931, 273, 193, 336, 256
-0.952151, 305, 113, 432, 240
-0.952181, 385, 217, 448, 280
-0.952409, 361, 161, 424, 288
-0.952516, 337, 145, 400, 272
-0.953568, 425, 193, 488, 256
-0.953636, 225, 209, 352, 333
-0.953667, 353, 145, 480, 272
-0.954009, 161, 193, 224, 256
-0.954088, 305, 177, 368, 240
-0.954406, 177, 209, 304, 333
-0.95505, 121, 129, 184, 256
-0.955597, 193, 49, 448, 176
-0.955868, 289, 129, 352, 256
-0.955945, 385, 145, 448, 272
-0.956043, 401, 193, 464, 256
-0.956139, 417, 177, 480, 304
-0.956221, 145, 209, 208, 333
-0.957003, 121, 193, 184, 256
-0.95727, 225, 113, 288, 240
-0.95774, 97, 201, 160, 264
-0.958002, 273, 169, 336, 232
-0.95831, 297, 217, 360, 280
-0.95842, 185, 113, 248, 240
-0.958974, 185, 57, 248, 120
-0.959619, 41, 161, 104, 288
-0.959689, 337, 233, 400, 296
-0.959742, 1, 17, 500, 144
-0.959802, 65, 33, 320, 160
-0.960573, 65, 97, 192, 224
-0.961222, 193, 161, 256, 288
-0.961346, 233, 209, 296, 333
-0.961584, 225, 185, 288, 248
-0.961653, 305, 193, 432, 256
-0.962885, 261, 169, 292, 232
-0.962895, 73, 209, 136, 272
-0.963206, 153, 169, 216, 232
-0.963275, 241, 177, 368, 240
-0.963559, 393, 169, 456, 232
-0.963599, 97, 225, 160, 288
-0.963687, 25, 193, 88, 256
-0.963726, 49, 201, 112, 264
-0.96393, 1, 113, 64, 240
-0.963947, 209, 33, 272, 288
-0.964557, 161, 65, 224, 320
-0.964623, 73, 233, 136, 296
-0.964735, 33, 113, 96, 240
-0.964823, 105, 257, 168, 320
-0.964906, 261, 161, 292, 288
-0.965148, 161, 145, 224, 208
-0.965198, 185, 33, 248, 288
-0.965272, 217, 65, 280, 128
-0.965466, 81, 273, 144, 333
-0.965557, 137, 225, 200, 288
-0.965845, 81, 225, 208, 288
-0.966215, 9, 217, 72, 280
-0.966722, 121, 161, 184, 224
-0.966862, 345, 201, 376, 264
-0.967019, 249, 201, 312, 264
-0.967033, 257, 201, 384, 264
-0.967152, 353, 193, 480, 256
-0.967428, 1, 161, 64, 224
-0.967482, 329, 145, 360, 272
-0.967735, 273, 177, 304, 240
-0.967875, 161, 89, 224, 152
-0.968095, 377, 209, 408, 272
-0.968238, 185, 225, 248, 288
-0.968346, 273, 161, 304, 288
-0.968536, 1, 241, 64, 304
-0.96867, 1, 81, 128, 208
-0.968702, 249, 153, 312, 216
-0.968846, 1, 225, 128, 288
-0.969124, 429, 193, 460, 256
-0.969212, 329, 153, 392, 216
-0.969492, 161, 217, 224, 280
-0.969541, 185, 209, 248, 333
-0.969686, 365, 209, 396, 272
-0.969705, 97, 193, 224, 256
-0.969894, 325, 193, 356, 256
-0.970324, 33, 201, 160, 264
-0.970343, 161, 65, 288, 128
-0.970385, 73, 177, 136, 240
-0.970439, 345, 177, 376, 304
-0.970609, 325, 193, 356, 320
-0.970621, 361, 241, 424, 304
-0.97076, 49, 233, 112, 296
-0.97078, 425, 217, 488, 280
-0.970862, 337, 217, 464, 280
-0.970978, 41, 273, 104, 333
-0.971113, 337, 169, 464, 232
-0.971167, 321, 273, 384, 333
-0.971194, 113, 209, 144, 333
-0.971663, 289, 169, 416, 232
-0.971719, 233, 233, 296, 296
-0.971732, 201, 169, 264, 232
-0.971772, 241, 153, 368, 216
-0.971794, 397, 217, 428, 280
-0.971948, 341, 177, 372, 240
-0.972089, 225, 153, 288, 216
-0.97209, 193, 169, 320, 232
-0.972331, 357, 193, 388, 320
-0.972444, 225, 1, 352, 128
-0.972514, 225, 1, 480, 128
-0.972523, 161, 241, 224, 304
-0.972553, 165, 161, 196, 288
-0.972632, 209, 65, 336, 192
-0.972648, 425, 129, 488, 256
-0.972977, 205, 49, 236, 176
-0.973026, 145, 177, 272, 240
-0.973055, 257, 193, 288, 256
-0.973141, 225, 89, 288, 152
-0.973175, 365, 185, 396, 248
-0.973364, 361, 161, 424, 224
-0.973387, 409, 201, 440, 264
-0.973513, 129, 217, 256, 280
-0.973534, 137, 65, 200, 320
-0.973777, 209, 217, 272, 280
-0.973898, 1, 185, 64, 248
-0.974208, 257, 225, 384, 288
-0.974231, 233, 65, 296, 320
-0.974308, 249, 161, 280, 288
-0.974335, 249, 81, 280, 208
-0.974337, 441, 193, 472, 256
-0.974479, 385, 241, 448, 304
-0.974509, 49, 177, 112, 240
-0.974521, 177, 217, 304, 280
-0.974654, 297, 177, 328, 304
-0.974752, 97, 273, 128, 333
-0.974774, 313, 161, 344, 288
-0.974838, 57, 113, 120, 240
-0.974859, 93, 177, 124, 304
-0.974868, 25, 177, 56, 304
-0.974923, 225, 129, 288, 192
-0.975018, 389, 193, 420, 256
-0.975119, 185, 145, 248, 208
-0.975219, 65, 273, 192, 333
-0.975297, 89, 217, 120, 280
-0.975319, 425, 169, 488, 232
-0.975533, 361, 273, 424, 333
-0.975559, 161, 89, 288, 152
-0.975731, 145, 145, 176, 272
-0.975863, 153, 113, 216, 176
-0.975893, 101, 217, 132, 280
-0.976019, 261, 113, 292, 240
-0.976027, 221, 49, 252, 176
-0.976082, 17, 273, 144, 333
-0.976139, 81, 193, 112, 320
-0.976155, 161, 145, 288, 208
-0.976169, 377, 185, 408, 248
-0.976322, 177, 17, 304, 144
-0.976442, 369, 161, 400, 288
-0.976526, 45, 177, 76, 304
-0.976537, 249, 169, 280, 232
-0.976563, 113, 201, 144, 264
-0.976583, 369, 209, 400, 333
-0.976695, 25, 169, 88, 232
-0.976816, 9, 265, 72, 328
-0.976824, 297, 153, 360, 216
-0.976883, 193, 193, 320, 256
-0.976943, 273, 257, 336, 320
-0.977033, 305, 241, 368, 304
-0.97706, 81, 169, 208, 232
-0.977156, 161, 97, 192, 224
-0.977222, 13, 161, 44, 288
-0.977383, 181, 81, 212, 208
-0.977423, 209, 209, 272, 333
-0.977497, 257, 89, 320, 152
-0.977532, 305, 1, 368, 256
-0.977611, 33, 177, 160, 240
-0.977641, 353, 177, 384, 240
-0.977662, 285, 193, 316, 256
-0.977704, 113, 225, 144, 288
-0.977834, 57, 177, 88, 304
-0.977968, 177, 145, 208, 272
-0.978116, 377, 233, 408, 296
-0.97831, 269, 201, 300, 264
-0.978312, 165, 177, 196, 240
-0.978368, 285, 177, 316, 304
-0.978458, 213, 57, 244, 120
-0.978494, 305, 49, 432, 176
-0.978507, 97, 249, 224, 312
-0.978578, 177, 169, 240, 232
-0.978638, 345, 225, 376, 288
-0.978775, 197, 65, 228, 128
-0.978843, 257, 65, 320, 320
-0.978863, 69, 193, 100, 320
-0.978973, 325, 153, 356, 216
-0.979195, 329, 217, 360, 280
-0.979248, 193, 49, 224, 176
-0.979279, 313, 193, 344, 256
-0.979378, 149, 161, 180, 224
-0.97939, 1, 65, 64, 320
-0.979463, 249, 81, 280, 144
-0.979554, 257, 121, 320, 184
-0.979588, 233, 49, 264, 176
-0.979727, 401, 193, 432, 320
-0.97984, 153, 193, 184, 320
-0.979868, 1, 161, 32, 288
-0.979888, 1, 249, 128, 312
-0.980061, 217, 17, 280, 144
-0.980108, 177, 121, 240, 184
-0.98027, 193, 241, 320, 304
-0.980281, 433, 177, 464, 304
-0.980304, 169, 33, 232, 160
-0.980484, 313, 41, 376, 104
-0.980597, 57, 65, 120, 320
-0.98062, 257, 233, 320, 296
-0.980627, 421, 193, 452, 320
-0.980652, 125, 193, 156, 256
-0.980696, 73, 201, 104, 264
-0.980784, 185, 249, 248, 312
-0.980813, 305, 145, 432, 208
-0.980854, 145, 249, 272, 312
-0.980925, 193, 217, 224, 280
-0.980992, 129, 81, 192, 208
-0.981062, 273, 145, 336, 208
-0.981153, 57, 185, 88, 248
-0.981205, 241, 89, 368, 152
-0.981206, 201, 105, 264, 168
-0.981361, 13, 209, 44, 333
-0.981369, 101, 249, 132, 312
-0.98156, 149, 209, 180, 272
-0.981628, 345, 129, 376, 256
-0.981697, 209, 1, 272, 333
-0.981699, 285, 129, 316, 256
-0.981704, 49, 249, 176, 312
-0.981715, 297, 177, 328, 240
-0.98174, 165, 233, 196, 296
-0.981749, 105, 65, 168, 320
-0.981825, 245, 193, 276, 256
-0.981833, 273, 273, 400, 333
-0.981844, 237, 65, 268, 128
-0.981845, 265, 145, 296, 208
-0.981909, 69, 145, 100, 272
-0.982097, 273, 249, 400, 312
-0.982125, 285, 169, 316, 232
-0.982249, 189, 177, 220, 304
-0.982287, 133, 145, 164, 272
-0.982354, 97, 97, 160, 224
-0.982419, 425, 169, 456, 232
-0.982447, 469, 185, 500, 248
-0.982508, 65, 49, 192, 176
-0.98254, 313, 209, 344, 333
-0.982603, 45, 177, 76, 240
-0.982657, 353, 273, 480, 333
-0.982696, 13, 161, 44, 224
-0.982765, 353, 249, 384, 312
-0.982801, 25, 185, 56, 248
-0.982806, 261, 209, 292, 333
-0.982828, 173, 153, 204, 216
-0.982882, 9, 225, 40, 288
-0.982883, 337, 65, 400, 320
-0.982898, 113, 265, 144, 328
-0.982987, 121, 113, 184, 176
-0.983014, 241, 129, 368, 192
-0.983016, 181, 81, 212, 144
-0.983134, 97, 193, 128, 256
-0.983256, 141, 185, 172, 248
-0.983273, 161, 153, 192, 216
-0.983283, 85, 185, 116, 248
-0.98341, 25, 65, 88, 320
-0.9835, 193, 121, 320, 184
-0.983616, 389, 161, 420, 288
-0.983705, 5, 113, 36, 240
-0.983787, 257, 49, 320, 176
-0.983892, 321, 1, 448, 128
-0.983896, 301, 129, 332, 256
-0.983967, 25, 137, 88, 200
-0.98403, 313, 169, 344, 232
-0.984031, 137, 137, 200, 200
-0.984068, 25, 129, 56, 256
-0.984084, 185, 1, 248, 333
-0.984115, 257, 49, 384, 112
-0.984186, 409, 145, 440, 272
-0.984215, 113, 121, 240, 184
-0.984231, 341, 153, 372, 216
-0.984272, 209, 225, 240, 288
-0.984295, 381, 209, 412, 333
-0.984332, 421, 217, 452, 280
-0.984339, 409, 225, 440, 288
-0.984349, 185, 201, 248, 264
-0.984366, 109, 145, 140, 272
-0.984414, 273, 113, 304, 240
-0.98443, 453, 201, 484, 264
-0.98443, 185, 81, 248, 144
-0.984438, 297, 201, 328, 264
-0.984483, 129, 225, 160, 288
-0.98462, 421, 145, 452, 272
-0.98466, 337, 41, 368, 104
-0.984752, 129, 273, 192, 333
-0.984768, 29, 161, 60, 224
-0.984822, 337, 97, 400, 224
-0.984857, 193, 97, 224, 224
-0.984974, 113, 97, 240, 160
-0.984993, 201, 177, 232, 304
-0.985058, 1, 65, 64, 192
-0.985074, 401, 177, 432, 240
-0.98508, 349, 273, 380, 333
-0.985094, 385, 65, 448, 320
-0.985124, 225, 65, 256, 128
-0.985203, 45, 225, 76, 288
-0.985462, 253, 105, 284, 168
-0.985608, 85, 241, 116, 304
-0.985645, 81, 65, 144, 320
-0.985842, 65, 145, 192, 208
-0.985842, 81, 145, 112, 272
-0.98586, 125, 193, 156, 320
-0.985861, 233, 1, 296, 333
-0.985968, 149, 97, 180, 224
-0.985983, 189, 249, 220, 312
-0.985984, 21, 217, 52, 280
-0.986013, 77, 265, 108, 328
-0.986117, 1, 129, 64, 192
-0.98617, 169, 89, 200, 152
-0.986191, 1, 137, 128, 200
-0.98622, 1, 153, 32, 216
-0.986257, 365, 233, 396, 296
-0.986274, 41, 129, 72, 256
-0.986351, 361, 65, 424, 320
-0.986363, 313, 217, 344, 280
-0.986373, 33, 217, 64, 280
-0.986429, 457, 145, 488, 272
-0.986456, 253, 145, 284, 208
-0.98647, 13, 273, 44, 333
-0.986477, 193, 121, 224, 184
-0.986507, 113, 33, 240, 160
-0.986618, 325, 97, 356, 224
-0.986625, 353, 97, 480, 224
-0.986651, 297, 273, 360, 333
-0.986673, 321, 249, 448, 312
-0.98669, 113, 137, 176, 200
-0.986721, 113, 145, 240, 208
-0.98681, 313, 49, 376, 176
-0.986884, 161, 1, 224, 333
-0.987009, 157, 113, 188, 176
-0.987151, 257, 233, 288, 296
-0.987163, 281, 33, 344, 288
-0.987173, 337, 257, 368, 320
-0.987297, 69, 177, 100, 240
-0.987393, 57, 225, 88, 288
-0.98741, 193, 185, 448, 248
-0.987426, 313, 197, 376, 228
-0.987456, 1, 113, 128, 176
-0.987466, 97, 129, 128, 256
-0.987487, 453, 177, 484, 240
-0.987502, 1, 209, 32, 333
-0.987518, 97, 185, 352, 248
-0.98755, 369, 209, 432, 240
-0.987554, 181, 209, 212, 272
-0.987571, 185, 145, 216, 208
-0.987602, 409, 201, 472, 232
-0.987604, 73, 225, 104, 288
-0.98767, 353, 185, 416, 216
-0.987734, 97, 177, 160, 240
-0.987736, 193, 1, 256, 128
-0.987833, 177, 241, 208, 304
-0.987867, 1, 249, 32, 312
-0.98787, 1, 217, 256, 280
-0.987912, 81, 153, 144, 216
-0.987925, 165, 201, 196, 264
-0.987936, 241, 217, 272, 280
-0.987936, 25, 241, 88, 304
-0.987945, 265, 1, 328, 333
-0.987956, 241, 181, 304, 212
-0.988, 165, 209, 196, 333
-0.988001, 57, 153, 120, 216
-0.988016, 257, 197, 320, 228
-0.988019, 81, 293, 144, 324
-0.988051, 297, 129, 360, 192
-0.988061, 57, 113, 88, 240
-0.98815, 137, 1, 200, 333
-0.988233, 329, 209, 392, 240
-0.988236, 369, 265, 400, 328
-0.988246, 1, 273, 32, 333
-0.988302, 213, 161, 244, 288
-0.988315, 121, 129, 152, 256
-0.988317, 61, 249, 92, 312
-0.988359, 329, 221, 392, 252
-0.988443, 297, 185, 360, 216
-0.988496, 161, 65, 224, 128
-0.98853, 329, 185, 392, 216
-0.988569, 365, 161, 396, 224
-0.988579, 153, 273, 216, 333
-0.98859, 45, 273, 76, 333
-0.988594, 129, 273, 256, 333
-0.988606, 273, 209, 304, 333
-0.988616, 357, 145, 388, 272
-0.988693, 413, 169, 444, 232
-0.988711, 377, 225, 440, 256
-0.988722, 257, 65, 320, 128
-0.988795, 281, 197, 344, 228
-0.988816, 65, 113, 192, 176
-0.98891, 193, 209, 448, 272
-0.988931, 393, 213, 456, 244
-0.988974, 325, 33, 356, 96
-0.988984, 89, 225, 152, 256
-0.989017, 393, 273, 456, 333
-0.989035, 201, 65, 264, 96
-0.989049, 305, 41, 432, 104
-0.989078, 277, 241, 308, 304
-0.989121, 469, 161, 500, 288
-0.989134, 161, 181, 224, 212
-0.989181, 337, 197, 400, 228
-0.989191, 369, 197, 432, 228
-0.989353, 257, 169, 320, 200
-0.98937, 325, 241, 356, 304
-0.989387, 1, 185, 500, 248
-0.989419, 353, 233, 416, 264
-0.989433, 41, 301, 104, 332
-0.989435, 97, 209, 352, 272
-0.989441, 121, 221, 184, 252
-0.989468, 381, 161, 412, 224
-0.989481, 281, 173, 344, 204
-0.989487, 121, 189, 184, 220
-0.989535, 105, 285, 168, 316
-0.98954, 153, 233, 184, 296
-0.989578, 209, 241, 272, 304
-0.989587, 137, 161, 168, 224
-0.989612, 425, 65, 488, 320
-0.989637, 33, 65, 96, 192
-0.989687, 129, 161, 384, 224
-0.989711, 225, 273, 352, 333
-0.989737, 273, 185, 336, 216
-0.989788, 393, 189, 456, 220
-0.989794, 353, 221, 416, 252
-0.989805, 337, 33, 368, 160
-0.989807, 105, 237, 168, 268
-0.98985, 289, 209, 352, 240
-0.989878, 145, 241, 208, 272
-0.989882, 81, 281, 144, 312
-0.989891, 425, 217, 488, 248
-0.989902, 113, 73, 240, 136
-0.989927, 89, 213, 152, 244
-0.989968, 161, 197, 224, 228
-0.990009, 65, 233, 128, 264
-0.990024, 113, 205, 176, 236
-0.990033, 161, 221, 224, 252
-0.990053, 433, 197, 496, 228
-0.990092, 313, 173, 376, 204
-0.990125, 1, 1, 64, 333
-0.990155, 161, 209, 224, 240
-0.990171, 385, 237, 448, 268
-0.990253, 337, 173, 400, 204
-0.990255, 433, 217, 464, 280
-0.990271, 17, 225, 80, 256
-0.990307, 1, 105, 64, 168
-0.990315, 269, 97, 300, 160
-0.990317, 65, 213, 128, 244
-0.990417, 353, 145, 480, 208
-0.990417, 1, 165, 64, 196
-0.990439, 1, 301, 64, 332
-0.990439, 321, 285, 384, 316
-0.990452, 217, 185, 280, 216
-0.990489, 1, 193, 256, 256
-0.990499, 213, 97, 244, 160
-0.990503, 389, 241, 420, 304
-0.990506, 161, 153, 224, 184
-0.990509, 113, 89, 176, 152
-0.990557, 225, 25, 352, 88
-0.990574, 209, 41, 272, 104
-0.990576, 241, 209, 304, 240
-0.99059, 105, 297, 168, 328
-0.990592, 445, 145, 476, 272
-0.9906, 441, 169, 472, 232
-0.990604, 385, 145, 448, 208
-0.990623, 337, 245, 400, 276
-0.990631, 89, 197, 152, 228
-0.990641, 233, 193, 264, 320
-0.990707, 201, 249, 232, 312
-0.990707, 169, 169, 232, 200
-0.990711, 297, 153, 328, 216
-0.990731, 105, 273, 168, 304
-0.990753, 337, 301, 400, 332
-0.990787, 137, 193, 168, 320
-0.990788, 265, 209, 328, 240
-0.9908, 233, 169, 296, 200
-0.990823, 33, 177, 96, 208
-0.990826, 281, 145, 312, 208
-0.990834, 297, 221, 360, 252
-0.990872, 393, 177, 456, 208
-0.99089, 81, 185, 144, 216
-0.990893, 169, 97, 232, 128
-0.990896, 1, 209, 500, 272
-0.9909, 321, 41, 384, 72
-0.990914, 33, 193, 96, 224
-0.990918, 1, 245, 64, 276
-0.990944, 313, 113, 344, 240
-0.990956, 249, 209, 280, 333
-0.990971, 1, 241, 500, 304
-0.990984, 97, 249, 352, 312
-0.990988, 401, 225, 464, 256
-0.991023, 169, 241, 232, 272
-0.991043, 169, 141, 232, 172
-0.991054, 433, 301, 496, 332
-0.991084, 225, 93, 288, 124
-0.991119, 329, 233, 392, 264
-0.991123, 249, 241, 312, 272
-0.991123, 97, 97, 352, 160
-0.991142, 105, 249, 168, 280
-0.991154, 433, 145, 496, 208
-0.991186, 217, 81, 280, 112
-0.991192, 137, 57, 200, 120
-0.991206, 137, 177, 200, 208
-0.991211, 177, 85, 240, 116
-0.991238, 193, 205, 256, 236
-0.99124, 409, 241, 472, 304
-0.991241, 369, 173, 432, 204
-0.991244, 193, 173, 256, 204
-0.991244, 77, 97, 108, 224
-0.991255, 273, 189, 400, 220
-0.991258, 361, 249, 424, 280
-0.991265, 153, 185, 184, 248
-0.991273, 57, 289, 120, 320
-0.991277, 361, 113, 424, 240
-0.991283, 321, 273, 384, 304
-0.991284, 281, 161, 344, 192
-0.991291, 45, 201, 76, 264
-0.9913, 73, 245, 136, 276
-0.991308, 225, 109, 288, 140
-0.991318, 57, 177, 120, 208
-0.991326, 425, 185, 488, 216
-0.991326, 249, 33, 280, 160
-0.991347, 9, 185, 72, 216
-0.991347, 325, 49, 356, 176
-0.991355, 225, 157, 288, 188
-0.991358, 217, 225, 280, 256
-0.991368, 361, 285, 424, 316
-0.99137, 105, 261, 168, 292
-0.991383, 257, 157, 320, 188
-0.991406, 57, 277, 120, 308
-0.991407, 233, 197, 296, 228
-0.991451, 297, 41, 360, 72
-0.991471, 197, 185, 228, 248
-0.991482, 217, 1, 248, 128
-0.991487, 141, 233, 172, 296
-0.991493, 113, 1, 176, 333
-0.991528, 205, 161, 236, 224
-0.991552, 41, 229, 104, 260
-0.991575, 33, 289, 96, 320
-0.991577, 33, 161, 288, 224
-0.9916, 129, 161, 192, 192
-0.991604, 153, 113, 216, 144
-0.991618, 129, 301, 192, 332
-0.991655, 185, 225, 248, 256
-0.991669, 1, 289, 64, 320
-0.991682, 125, 273, 156, 333
-0.991682, 65, 1, 128, 333
-0.991711, 225, 125, 288, 156
-0.991716, 289, 49, 352, 112
-0.991718, 409, 209, 440, 240
-0.99172, 57, 201, 120, 232
-0.991734, 385, 249, 448, 280
-0.991739, 193, 237, 256, 268
-0.991761, 433, 205, 464, 236
-0.991772, 73, 261, 136, 292
-0.99178, 217, 137, 280, 168
-0.991793, 193, 189, 256, 220
-0.991793, 353, 153, 384, 216
-0.99183, 25, 1, 88, 333
-0.991839, 25, 165, 88, 196
-0.991846, 369, 301, 432, 332
-0.991857, 329, 129, 392, 192
-0.991863, 1, 241, 256, 304
-0.991863, 305, 153, 368, 184
-0.991902, 21, 241, 52, 304
-0.991909, 329, 161, 392, 192
-0.991911, 337, 209, 464, 240
-0.991924, 257, 89, 320, 120
-0.991925, 1, 257, 64, 288
-0.991931, 417, 273, 480, 333
-0.991935, 265, 177, 296, 208
-0.991939, 353, 273, 416, 304
-0.991953, 137, 249, 200, 312
-0.991964, 273, 221, 336, 252
-0.991964, 185, 253, 248, 284
-0.991972, 49, 89, 176, 152
-0.991979, 401, 225, 432, 256
-0.992015, 177, 65, 240, 96
-0.992021, 305, 233, 368, 264
-0.992034, 145, 141, 208, 172
-0.99205, 225, 161, 480, 224
-0.992052, 337, 185, 464, 216
-0.992059, 1, 177, 32, 240
-0.992077, 257, 105, 320, 136
-0.992085, 325, 57, 356, 120
-0.992091, 257, 253, 320, 284
-0.992115, 337, 197, 464, 228
-0.992127, 341, 197, 372, 228
-0.992133, 273, 189, 304, 220
-0.992146, 257, 145, 320, 176
-0.992146, 337, 185, 368, 216
-0.99216, 257, 193, 288, 224
-0.99216, 225, 237, 288, 268
-0.992163, 89, 1, 152, 333
-0.992169, 101, 281, 132, 312
-0.992171, 57, 189, 120, 220
-0.992171, 361, 137, 424, 200
-0.992172, 421, 209, 452, 240
-0.992203, 413, 193, 444, 224
-0.992212, 81, 229, 208, 260
-0.992229, 193, 233, 448, 296
-0.992231, 373, 225, 404, 256
-0.992243, 161, 65, 416, 128
-0.992244, 333, 41, 364, 72
-0.992246, 353, 185, 384, 216
-0.992255, 345, 1, 408, 333
-0.992264, 389, 213, 420, 244
-0.992266, 65, 217, 192, 248
-0.992288, 413, 221, 444, 252
-0.99229, 445, 197, 476, 228
-0.992292, 389, 229, 420, 260
-0.992297, 93, 293, 124, 324
-0.992305, 273, 177, 400, 208
-0.992306, 317, 197, 348, 228
-0.992309, 221, 97, 252, 224
-0.99231, 361, 221, 392, 252
-0.992325, 329, 217, 360, 248
-0.992328, 377, 237, 408, 268
-0.992333, 377, 213, 408, 244
-0.992347, 285, 197, 316, 228
-0.992351, 391, 209, 406, 272
-0.992371, 65, 65, 320, 128
-0.99239, 377, 185, 408, 216
-0.992406, 177, 193, 208, 320
-0.992417, 257, 201, 384, 232
-0.992432, 425, 193, 456, 224
-0.992439, 253, 181, 284, 212
-0.99244, 401, 197, 432, 228
-0.992449, 465, 301, 496, 332
-0.992454, 93, 225, 124, 256
-0.992461, 341, 225, 372, 256
-0.992465, 325, 177, 356, 208
-0.992472, 93, 213, 124, 244
-0.992474, 97, 129, 352, 192
-0.992475, 365, 181, 396, 212
-0.992517, 365, 193, 396, 224
-0.992539, 305, 189, 336, 220
-0.992548, 261, 165, 292, 196
-0.992553, 113, 229, 144, 260
-0.992553, 317, 217, 348, 248
-0.992562, 337, 41, 400, 104
-0.992572, 265, 205, 296, 236
-0.992592, 357, 205, 388, 236
-0.992599, 113, 281, 144, 312
-0.992611, 349, 237, 380, 268
-0.992614, 105, 297, 136, 328
-0.992641, 305, 121, 432, 184
-0.992646, 241, 1, 304, 128
-0.992661, 225, 173, 352, 204
-0.99267, 321, 1, 384, 333
-0.992672, 1, 273, 256, 333
-0.992688, 361, 233, 392, 264
-0.992688, 17, 81, 48, 208
-0.992692, 73, 301, 104, 332
-0.992702, 345, 173, 376, 204
-0.992702, 169, 177, 200, 208
-0.992706, 149, 217, 180, 248
-0.992732, 105, 217, 136, 248
-0.992734, 45, 177, 76, 208
-0.99274, 349, 249, 380, 280
-0.992745, 169, 237, 200, 268
-0.992756, 285, 185, 316, 216
-0.992768, 389, 201, 420, 232
-0.992772, 297, 201, 328, 232
-0.992774, 245, 193, 276, 224
-0.992774, 345, 209, 376, 240
-0.992775, 101, 269, 132, 300
-0.992776, 329, 229, 360, 260
-0.992781, 425, 221, 456, 252
-0.992809, 209, 61, 240, 92
-0.992813, 93, 241, 124, 272
-0.992815, 277, 169, 292, 232
-0.992819, 89, 281, 120, 312
-0.992825, 153, 229, 184, 260
-0.992835, 161, 73, 288, 104
-0.992844, 265, 237, 296, 268
-0.992865, 1, 169, 32, 200
-0.992866, 145, 189, 176, 220
-0.992869, 277, 173, 308, 204
-0.992879, 133, 233, 164, 264
-0.992889, 337, 53, 368, 84
-0.9929, 329, 205, 360, 236
-0.992901, 329, 149, 360, 180
-0.992902, 113, 241, 144, 272
-0.992913, 81, 209, 112, 240
-0.992913, 97, 201, 128, 232
-0.992919, 13, 221, 44, 252
-0.99292, 121, 293, 152, 324
-0.992927, 77, 233, 108, 264
-0.992944, 253, 205, 284, 236
-0.992945, 269, 65, 300, 192
-0.992947, 197, 65, 228, 96
-0.992949, 21, 161, 52, 192
-0.992949, 69, 177, 100, 208
-0.992963, 117, 213, 148, 244
-0.992964, 161, 157, 192, 188
-0.992968, 305, 213, 336, 244
-0.992968, 65, 193, 96, 224
-0.992968, 125, 193, 156, 224
-0.992972, 189, 77, 220, 108
-0.992972, 461, 209, 492, 240
-0.992981, 193, 225, 224, 256
-0.992983, 349, 285, 380, 316
-0.992989, 241, 181, 272, 212
-0.992991, 237, 69, 268, 100
-0.992998, 389, 241, 420, 272
-0.992999, 357, 265, 388, 296
-0.993, 29, 185, 60, 216
-0.993, 469, 189, 500, 220
-0.993002, 281, 161, 312, 192
-0.993008, 1, 301, 32, 332
-0.993012, 221, 61, 252, 92
-0.993017, 321, 41, 352, 72
-0.99302, 161, 105, 192, 136
-0.993021, 377, 249, 408, 280
-0.993022, 457, 197, 488, 228
-0.993041, 153, 169, 184, 200
-0.993044, 437, 185, 468, 216
-0.993048, 369, 285, 400, 316
-0.993051, 1, 225, 128, 256
-0.993062, 81, 181, 112, 212
-0.993062, 301, 177, 332, 208
-0.993062, 165, 197, 196, 228
-0.993067, 17, 181, 48, 212
-0.993067, 259, 177, 274, 240
-0.993068, 13, 301, 44, 332
-0.99307, 181, 245, 212, 276
-0.993075, 65, 189, 192, 220
-0.993077, 9, 233, 40, 264
-0.993079, 325, 165, 356, 196
-0.993095, 249, 85, 280, 116
-0.993104, 173, 165, 204, 196
-0.993106, 181, 89, 212, 120
-0.993108, 389, 185, 420, 216
-0.993108, 57, 181, 88, 212
-0.993109, 265, 153, 296, 184
-0.993112, 277, 241, 308, 272
-0.993116, 37, 221, 68, 252
-0.993119, 253, 113, 284, 144
-0.993138, 393, 173, 424, 204
-0.99314, 271, 169, 286, 232
-0.993143, 197, 237, 228, 268
-0.993144, 109, 201, 140, 232
-0.993144, 145, 205, 176, 236
-0.993184, 233, 257, 296, 320
-0.993184, 133, 97, 164, 224
-0.99319, 289, 213, 416, 244
-0.993199, 337, 225, 464, 256
-0.993211, 145, 177, 272, 208
-0.993258, 345, 17, 408, 80
-0.993285, 265, 169, 280, 232
-0.993311, 229, 1, 260, 128
-0.993313, 177, 189, 304, 220
-0.993349, 375, 201, 390, 264
-0.993382, 1, 265, 500, 328
-0.993394, 29, 81, 60, 208
-0.993411, 433, 129, 464, 256
-0.993506, 97, 201, 224, 232
-0.99352, 289, 1, 352, 333
-0.993523, 385, 1, 448, 333
-0.993548, 65, 301, 192, 332
-0.993559, 461, 209, 492, 333
-0.993559, 321, 17, 448, 80
-0.993591, 237, 129, 268, 256
-0.993604, 369, 177, 384, 240
-0.993629, 145, 33, 208, 160
-0.993663, 343, 193, 358, 256
-0.993684, 335, 201, 350, 264
-0.993694, 97, 49, 224, 112
-0.993695, 113, 217, 240, 248
-0.993718, 177, 85, 304, 116
-0.993762, 385, 225, 400, 288
-0.993783, 65, 113, 128, 176
-0.993793, 359, 201, 374, 264
-0.993852, 445, 193, 476, 320
-0.993885, 225, 185, 352, 216
-0.99389, 213, 209, 244, 333
-0.993911, 425, 193, 440, 256
-0.993911, 367, 209, 382, 272
-0.993948, 225, 41, 480, 104
-0.993948, 209, 65, 336, 128
-0.993969, 41, 105, 104, 168
-0.994035, 433, 201, 448, 264
-0.994056, 65, 289, 192, 320
-0.994119, 205, 113, 236, 240
-0.994151, 129, 273, 384, 333
-0.994158, 313, 97, 376, 224
-0.99416, 409, 145, 472, 208
-0.994175, 417, 209, 432, 272
-0.994188, 285, 177, 300, 240
-0.994208, 445, 193, 460, 256
-0.994245, 161, 161, 288, 192
-0.994268, 305, 65, 432, 128
-0.994283, 381, 201, 396, 264
-0.994285, 169, 185, 184, 248
-0.994288, 115, 273, 130, 333
-0.994305, 401, 217, 416, 280
-0.994312, 161, 97, 288, 128
-0.994332, 145, 201, 272, 232
-0.994341, 1, 161, 500, 224
-0.994363, 193, 1, 224, 128
-0.994373, 329, 193, 344, 256
-0.994394, 339, 153, 354, 216
-0.994399, 33, 177, 160, 208
-0.99441, 337, 17, 400, 144
-0.994426, 249, 41, 312, 104
-0.994439, 1, 89, 256, 152
-0.994444, 241, 213, 368, 244
-0.994445, 349, 201, 364, 264
-0.994447, 377, 225, 392, 288
-0.994508, 273, 161, 400, 192
-0.99451, 257, 225, 384, 256
-0.994515, 193, 201, 320, 232
-0.994516, 161, 221, 288, 252
-0.994539, 369, 241, 496, 304
-0.994556, 225, 89, 480, 152
-0.994561, 17, 301, 144, 332
-0.994601, 267, 145, 282, 208
-0.994612, 377, 177, 392, 240
-0.994613, 363, 177, 378, 240
-0.994615, 169, 33, 232, 96
-0.994616, 403, 193, 418, 256
-0.994627, 65, 277, 192, 308
-0.994637, 289, 17, 352, 80
-0.994637, 267, 193, 282, 256
-0.994669, 115, 225, 130, 288
-0.994674, 451, 193, 466, 256
-0.99473, 107, 241, 122, 304
-0.994737, 261, 81, 276, 144
-0.994758, 81, 241, 208, 272
-0.994763, 17, 289, 144, 320
-0.994781, 1, 65, 32, 192
-0.994819, 345, 169, 360, 232
-0.994835, 353, 289, 480, 320
-0.994836, 353, 301, 480, 332
-0.994845, 105, 209, 120, 272
-0.994851, 337, 173, 464, 204
-0.994853, 33, 205, 160, 236
-0.994877, 1, 89, 128, 152
-0.99489, 89, 121, 152, 184
-0.99493, 113, 189, 240, 220
-0.994958, 207, 217, 222, 280
-0.994962, 123, 201, 138, 264
-0.994979, 65, 65, 128, 192
-0.994988, 337, 177, 352, 240
-0.995011, 201, 65, 216, 128
-0.995072, 81, 169, 208, 200
-0.995097, 1, 237, 128, 268
-0.995128, 439, 185, 454, 248
-0.995159, 273, 293, 400, 324
-0.995192, 1, 137, 256, 200
-0.995206, 161, 41, 288, 104
-0.995214, 219, 57, 234, 120
-0.995229, 257, 273, 500, 333
-0.995229, 427, 217, 442, 280
-0.995271, 341, 217, 356, 280
-0.99528, 185, 65, 216, 320
-0.99528, 161, 161, 176, 224
-0.995297, 225, 137, 480, 200
-0.995316, 321, 185, 336, 248
-0.995326, 129, 245, 256, 276
-0.995331, 357, 177, 372, 240
-0.995349, 89, 209, 104, 272
-0.99537, 191, 73, 206, 136
-0.995379, 245, 65, 260, 128
-0.99539, 273, 193, 288, 256
-0.9954, 411, 193, 426, 256
-0.995428, 109, 273, 124, 333
-0.995458, 367, 249, 382, 312
-0.99546, 407, 217, 422, 280
-0.995461, 205, 1, 236, 128
-0.995473, 257, 149, 384, 180
-0.995547, 397, 193, 412, 256
-0.995569, 71, 193, 86, 256
-0.995574, 79, 201, 94, 264
-0.995592, 241, 93, 368, 124
-0.995604, 485, 185, 500, 248
-0.995611, 225, 161, 352, 192
-0.995628, 193, 237, 320, 268
-0.99563, 229, 57, 244, 120
-0.99563, 257, 237, 384, 268
-0.995632, 253, 73, 268, 136
-0.995633, 39, 185, 54, 248
-0.99567, 349, 225, 364, 288
-0.995681, 131, 193, 146, 256
-0.995696, 295, 201, 310, 264
-0.995699, 181, 161, 196, 224
-0.995705, 17, 277, 144, 308
-0.995712, 129, 233, 256, 264
-0.995719, 17, 189, 144, 220
-0.995741, 293, 161, 308, 224
-0.995744, 207, 65, 222, 128
-0.995773, 245, 33, 276, 288
-0.995803, 369, 273, 384, 333
-0.995804, 51, 177, 66, 240
-0.995811, 351, 177, 366, 240
-0.995818, 391, 185, 406, 248
-0.995818, 161, 209, 176, 272
-0.995836, 213, 57, 228, 120
-0.995838, 341, 33, 356, 96
-0.995857, 193, 113, 448, 176
-0.995866, 99, 273, 114, 333
-0.995895, 1, 249, 128, 280
-0.995902, 433, 1, 496, 333
-0.995903, 353, 249, 368, 312
-0.995912, 253, 177, 268, 240
-0.995918, 281, 201, 296, 264
-0.995937, 175, 161, 190, 224
-0.995941, 391, 241, 406, 304
-0.995941, 57, 193, 72, 256
-0.995958, 205, 33, 236, 288
-0.995964, 241, 105, 368, 136
-0.995972, 457, 193, 472, 256
-0.99598, 65, 265, 192, 296
-0.995999, 315, 177, 330, 240
-0.996016, 257, 209, 272, 272
-0.996035, 155, 161, 170, 224
-0.996036, 239, 65, 254, 128
-0.996044, 479, 185, 494, 248
-0.996045, 161, 149, 288, 180
-0.996063, 177, 273, 304, 333
-0.996065, 263, 113, 278, 176
-0.996077, 1, 113, 256, 176
-0.996088, 329, 217, 344, 280
-0.996114, 359, 241, 374, 304
-0.996118, 305, 185, 320, 248
-0.996119, 417, 185, 432, 248
-0.996139, 111, 193, 126, 256
-0.996156, 305, 89, 432, 152
-0.996162, 63, 185, 78, 248
-0.996168, 157, 185, 172, 248
-0.996179, 417, 209, 432, 240
-0.996183, 41, 81, 72, 208
-0.996198, 97, 217, 112, 280
-0.996224, 45, 193, 60, 256
-0.996224, 165, 65, 196, 320
-0.996232, 345, 81, 376, 208
-0.996242, 19, 153, 34, 216
-0.996252, 171, 233, 186, 296
-0.996265, 113, 249, 128, 312
-0.99627, 383, 177, 398, 240
-0.996305, 241, 125, 368, 156
-0.996316, 167, 153, 182, 216
-0.996326, 335, 49, 350, 112
-0.996331, 29, 161, 44, 224
-0.996337, 305, 281, 432, 312
-0.99634, 65, 253, 192, 284
-0.996351, 43, 217, 58, 280
-0.99636, 213, 225, 228, 288
-0.996367, 97, 193, 112, 256
-0.996368, 197, 225, 212, 288
-0.996373, 201, 177, 216, 240
-0.996378, 347, 33, 362, 96
-0.996395, 433, 169, 448, 232
-0.996399, 161, 61, 288, 92
-0.996415, 83, 233, 98, 296
-0.996416, 1, 137, 16, 200
-0.996416, 21, 225, 36, 288
-0.99642, 257, 65, 288, 320
-0.996427, 17, 261, 144, 292
-0.996439, 465, 193, 480, 256
-0.996451, 9, 145, 24, 208
-0.996457, 321, 161, 448, 192
-0.996457, 409, 1, 472, 333
-0.99646, 153, 65, 184, 320
-0.996462, 411, 205, 426, 236
-0.996466, 273, 217, 288, 280
-0.996479, 177, 253, 304, 284
-0.996486, 299, 169, 314, 232
-0.996489, 305, 45, 432, 76
-0.996498, 289, 257, 416, 288
-0.996501, 337, 237, 464, 268
-0.996512, 257, 273, 384, 304
-0.996516, 193, 137, 320, 168
-0.996519, 1, 89, 500, 152
-0.99652, 319, 209, 334, 272
-0.996532, 259, 153, 274, 216
-0.996546, 367, 185, 382, 216
-0.996555, 145, 109, 272, 140
-0.996557, 177, 125, 304, 156
-0.996562, 117, 201, 132, 264
-0.996571, 313, 209, 328, 272
-0.996575, 33, 185, 48, 248
-0.996582, 435, 205, 450, 236
-0.996606, 341, 241, 356, 304
-0.996617, 345, 145, 360, 208
-0.996635, 15, 225, 30, 288
-0.996654, 35, 217, 50, 280
-0.996655, 233, 33, 264, 288
-0.996667, 329, 169, 344, 232
-0.996671, 203, 249, 218, 312
-0.996755, 383, 225, 398, 256
-0.996764, 225, 53, 352, 84
-0.996788, 241, 137, 368, 168
-0.996804, 333, 217, 348, 248
-0.996807, 109, 97, 140, 224
-0.996816, 181, 17, 212, 144
-0.996817, 1, 137, 500, 200
-0.996855, 113, 145, 240, 176
-0.99686, 339, 185, 354, 216
-0.996863, 217, 33, 248, 288
-0.996879, 417, 221, 432, 252
-0.99688, 423, 209, 438, 240
-0.996903, 443, 197, 458, 228
-0.996919, 261, 189, 276, 220
-0.996924, 337, 65, 368, 320
-0.996931, 113, 297, 240, 328
-0.996932, 281, 81, 344, 208
-0.996933, 425, 197, 440, 228
-0.996938, 241, 69, 368, 100
-0.996959, 325, 1, 356, 256
-0.996982, 357, 185, 372, 216
-0.996982, 401, 225, 416, 256
-0.996997, 261, 173, 276, 204
-0.997034, 1, 165, 128, 196
-0.997039, 369, 1, 496, 64
-0.997044, 1, 113, 500, 176
-0.997058, 277, 173, 292, 204
-0.997075, 1, 41, 256, 104
-0.997095, 115, 281, 130, 312
-0.997102, 393, 213, 408, 244
-0.997107, 113, 281, 240, 312
-0.99713, 369, 201, 384, 232
-0.997144, 405, 213, 420, 244
-0.997146, 97, 81, 224, 112
-0.997147, 225, 145, 256, 272
-0.997151, 359, 197, 374, 228
-0.997175, 437, 193, 452, 224
-0.997185, 271, 193, 286, 224
-0.997216, 377, 213, 392, 244
-0.997219, 411, 217, 426, 248
-0.997221, 257, 81, 384, 112
-0.997247, 347, 41, 362, 72
-0.997247, 413, 193, 428, 224
-0.997252, 449, 201, 464, 232
-0.997294, 351, 185, 366, 216
-0.997303, 393, 229, 408, 260
-0.997305, 367, 221, 382, 252
-0.997336, 113, 157, 240, 188
-0.997348, 341, 41, 356, 72
-0.997352, 377, 193, 392, 224
-0.997353, 341, 217, 356, 248
-0.997357, 353, 121, 480, 184
-0.997375, 333, 205, 348, 236
-0.997376, 193, 109, 320, 140
-0.997384, 269, 173, 284, 204
-0.997385, 273, 65, 304, 320
-0.997385, 405, 193, 420, 224
-0.997386, 307, 189, 322, 220
-0.9974, 305, 269, 432, 300
-0.997407, 455, 197, 470, 228
-0.997416, 305, 149, 432, 180
-0.99742, 385, 237, 400, 268
-0.997424, 5, 65, 36, 320
-0.997438, 343, 197, 358, 228
-0.997441, 377, 181, 392, 212
-0.997446, 345, 185, 360, 216
-0.997447, 295, 193, 310, 224
-0.997456, 383, 213, 398, 244
-0.997463, 301, 189, 316, 220
-0.997472, 87, 297, 102, 328
-0.997483, 369, 1, 496, 128
-0.997486, 1, 33, 128, 160
-0.997517, 377, 237, 392, 268
-0.997532, 257, 41, 384, 72
-0.997552, 81, 65, 112, 320
-0.99756, 65, 157, 192, 188
-0.997576, 393, 245, 408, 276
-0.997576, 209, 149, 336, 180
-0.997586, 65, 65, 96, 320
-0.9976, 205, 221, 220, 252
-0.997605, 327, 217, 342, 248
-0.997607, 1, 133, 128, 164
-0.997607, 285, 189, 300, 220
-0.997626, 425, 225, 440, 256
-0.997643, 115, 229, 130, 260
-0.997646, 319, 193, 334, 224
-0.997649, 433, 217, 448, 248
-0.997654, 17, 81, 80, 144
-0.997663, 357, 237, 372, 268
-0.997665, 361, 221, 376, 252
-0.997679, 113, 97, 240, 128
-0.997685, 321, 17, 384, 80
-0.997689, 113, 265, 240, 296
-0.997699, 257, 65, 500, 128
-0.997704, 119, 293, 134, 324
-0.997712, 113, 125, 240, 156
-0.997715, 383, 181, 398, 212
-0.997722, 103, 229, 118, 260
-0.997724, 335, 41, 350, 72
-0.997733, 335, 229, 350, 260
-0.997741, 443, 185, 458, 216
-0.997745, 351, 233, 366, 264
-0.997747, 361, 209, 376, 240
-0.997748, 265, 201, 280, 232
-0.997751, 107, 213, 122, 244
-0.997751, 343, 149, 358, 180
-0.99776, 173, 177, 188, 208
-0.997766, 95, 289, 110, 320
-0.997774, 169, 49, 200, 176
-0.997775, 15, 229, 30, 260
-0.997776, 255, 189, 270, 220
-0.997777, 351, 245, 366, 276
-0.997783, 277, 205, 292, 236
-0.997787, 399, 213, 414, 244
-0.997789, 283, 177, 298, 208
-0.99779, 313, 197, 328, 228
-0.997815, 399, 201, 414, 232
-0.997823, 1, 57, 500, 120
-0.997832, 119, 217, 134, 248
-0.997839, 93, 65, 124, 320
-0.997848, 185, 273, 248, 333
-0.997856, 381, 113, 412, 240
-0.997857, 103, 277, 118, 308
-0.997861, 345, 173, 360, 204
-0.997865, 365, 293, 380, 324
-0.997866, 65, 113, 192, 144
-0.997871, 189, 81, 204, 112
-0.997875, 377, 225, 392, 256
-0.997875, 365, 273, 380, 304
-0.997878, 431, 193, 446, 224
-0.997879, 329, 189, 344, 220
-0.997886, 367, 233, 382, 264
-0.997887, 321, 213, 336, 244
-0.997888, 263, 121, 278, 152
-0.997898, 113, 269, 128, 300
-0.997915, 109, 65, 140, 320
-0.997915, 369, 113, 400, 240
-0.997923, 353, 277, 480, 308
-0.997927, 89, 209, 104, 240
-0.997934, 419, 197, 434, 228
-0.997935, 109, 225, 124, 256
-0.997945, 337, 249, 464, 280
-0.997959, 271, 205, 286, 236
-0.997959, 349, 33, 380, 288
-0.99796, 53, 65, 84, 320
-0.997961, 167, 197, 182, 228
-0.997962, 321, 33, 448, 64
-0.997972, 303, 201, 318, 232
-0.997977, 483, 185, 498, 216
-0.997981, 221, 61, 236, 92
-0.997982, 261, 81, 276, 112
-0.997989, 315, 209, 330, 240
-0.99799, 97, 225, 112, 256
-0.99799, 125, 233, 140, 264
-0.997991, 209, 65, 224, 96
-0.997995, 115, 241, 130, 272
-0.997996, 105, 241, 120, 272
-0.998002, 161, 217, 176, 248
-0.998004, 345, 53, 360, 84
-0.998011, 9, 233, 24, 264
-0.998016, 267, 157, 282, 188
-0.998016, 255, 177, 270, 208
-0.998017, 131, 229, 146, 260
-0.998018, 235, 65, 250, 96
-0.998023, 181, 161, 196, 192
-0.99803, 123, 201, 138, 232
-0.998033, 341, 237, 356, 268
-0.998034, 319, 181, 334, 212
-0.998041, 389, 181, 404, 212
-0.998041, 77, 177, 92, 208
-0.998043, 195, 73, 210, 104
-0.998045, 1, 145, 128, 176
-0.998046, 443, 209, 458, 240
-0.998053, 349, 197, 364, 228
-0.998058, 329, 41, 344, 72
-0.998067, 133, 189, 148, 220
-0.99808, 413, 65, 444, 320
-0.998083, 277, 185, 292, 216
-0.998087, 37, 65, 68, 320
-0.998097, 95, 213, 110, 244
-0.998107, 49, 177, 64, 208
-0.998111, 335, 173, 350, 204
-0.998113, 359, 281, 374, 312
-0.998126, 225, 253, 352, 284
-0.998138, 325, 1, 356, 128
-0.998165, 17, 65, 48, 320
-0.998182, 209, 225, 336, 256
-0.998194, 369, 65, 400, 320
-0.998201, 313, 33, 344, 288
-0.998207, 161, 17, 416, 80
-0.998211, 225, 297, 352, 328
-0.99823, 285, 65, 316, 320
-0.998257, 393, 65, 424, 320
-0.998328, 113, 25, 240, 88
-0.998338, 81, 295, 144, 310
-0.998344, 177, 301, 304, 332
-0.998345, 225, 285, 352, 316
-0.998357, 297, 65, 328, 320
-0.998357, 121, 65, 152, 320
-0.998358, 321, 219, 384, 234
-0.998359, 65, 125, 192, 156
-0.998378, 289, 195, 352, 210
-0.998378, 367, 209, 382, 333
-0.998381, 329, 187, 392, 202
-0.998381, 401, 197, 464, 212
-0.99839, 241, 189, 304, 204
-0.998394, 257, 201, 320, 216
-0.998399, 329, 197, 392, 212
-0.998402, 369, 213, 432, 228
-0.998403, 377, 233, 440, 248
-0.998403, 353, 241, 416, 256
-0.998414, 73, 231, 104, 246
-0.998415, 357, 281, 388, 296
-0.998416, 225, 65, 256, 80
-0.998417, 393, 227, 456, 242
-0.998418, 133, 191, 164, 206
-0.998419, 341, 231, 372, 246
-0.99842, 337, 55, 368, 70
-0.998421, 241, 179, 304, 194
-0.998422, 329, 159, 360, 174
-0.998422, 233, 71, 264, 86
-0.998422, 181, 97, 212, 112
-0.998422, 465, 307, 496, 322
-0.998424, 37, 181, 68, 196
-0.998424, 169, 317, 200, 332
-0.998424, 201, 67, 264, 82
-0.998425, 373, 223, 404, 238
-0.998425, 21, 185, 52, 200
-0.998425, 273, 171, 304, 186
-0.998428, 109, 305, 140, 320
-0.998429, 389, 205, 420, 220
-0.99843, 369, 245, 400, 260
-0.99843, 345, 203, 376, 218
-0.99843, 77, 297, 108, 312
-0.998431, 345, 251, 376, 266
-0.998432, 121, 299, 152, 314
-0.998432, 309, 217, 340, 232
-0.998433, 201, 67, 232, 82
-0.998433, 165, 161, 196, 176
-0.998433, 93, 313, 124, 328
-0.998433, 341, 181, 372, 196
-0.998433, 113, 283, 144, 298
-0.998434, 101, 275, 132, 290
-0.998435, 265, 241, 296, 256
-0.998435, 275, 161, 290, 288
-0.998436, 353, 193, 416, 208
-0.998437, 457, 217, 488, 232
-0.998437, 45, 187, 76, 202
-0.998437, 409, 207, 472, 222
-0.998438, 441, 207, 472, 222
-0.998439, 401, 213, 432, 228
-0.998439, 353, 235, 416, 250
-0.998439, 93, 301, 124, 316
-0.998441, 281, 189, 344, 204
-0.998441, 93, 241, 124, 256
-0.998441, 153, 233, 184, 248
-0.998442, 357, 245, 388, 260
-0.998443, 357, 231, 388, 246
-0.998443, 257, 195, 320, 210
-0.998444, 313, 213, 376, 228
-0.998444, 113, 247, 144, 262
-0.998444, 377, 251, 408, 266
-0.998445, 337, 225, 400, 240
-0.998446, 369, 227, 432, 242
-0.998449, 101, 235, 132, 250
-0.99845, 201, 223, 232, 238
-0.998451, 457, 197, 488, 212
-0.998451, 385, 187, 416, 202
-0.998452, 281, 201, 344, 216
-0.998455, 345, 213, 376, 228
-0.998455, 317, 205, 348, 220
-0.998456, 409, 221, 472, 236
-0.998459, 325, 227, 356, 242
-0.998459, 113, 219, 144, 234
-0.998459, 125, 231, 156, 246
-0.99846, 361, 205, 424, 220
-0.998461, 265, 211, 296, 226
-0.998462, 97, 209, 128, 224
-0.998462, 105, 299, 136, 314
-0.998464, 253, 205, 284, 220
-0.998465, 121, 225, 184, 240
-0.998466, 1, 313, 32, 328
-0.998466, 165, 241, 196, 256
-0.998466, 281, 183, 344, 198
-0.998466, 121, 191, 184, 206
-0.998467, 313, 45, 376, 60
-0.998467, 81, 229, 144, 244
-0.998469, 313, 207, 376, 222
-0.998469, 317, 197, 348, 212
-0.998469, 97, 221, 128, 236
-0.99847, 1, 173, 32, 188
-0.998471, 133, 65, 164, 320
-0.998472, 105, 291, 168, 306
-0.998472, 305, 57, 432, 88
-0.998473, 425, 213, 488, 228
-0.998473, 273, 209, 336, 224
-0.998475, 425, 201, 488, 216
-0.998475, 389, 237, 420, 252
-0.998482, 41, 305, 104, 320
-0.998482, 149, 189, 180, 204
-0.998484, 161, 185, 224, 200
-0.998486, 385, 207, 448, 222
-0.998489, 109, 241, 140, 256
-0.998489, 277, 189, 308, 204
-0.998489, 365, 207, 396, 222
-0.99849, 245, 185, 276, 200
-0.998492, 145, 217, 176, 232
-0.998493, 421, 199, 452, 214
-0.998493, 105, 297, 168, 312
-0.998494, 401, 231, 432, 246
-0.998494, 49, 311, 112, 326
-0.998494, 361, 237, 392, 252
-0.998494, 65, 301, 128, 316
-0.998495, 113, 227, 144, 242
-0.998495, 353, 247, 416, 262
-0.998496, 365, 195, 396, 210
-0.998496, 377, 193, 408, 208
-0.998496, 401, 197, 432, 212
-0.998497, 81, 289, 144, 304
-0.998498, 465, 301, 496, 316
-0.998498, 17, 225, 80, 240
-0.998501, 433, 213, 464, 228
-0.998503, 337, 225, 368, 240
-0.998505, 129, 233, 192, 248
-0.998506, 129, 41, 384, 104
-0.998506, 305, 201, 336, 216
-0.998507, 353, 199, 416, 214
-0.998508, 113, 219, 176, 234
-0.998508, 289, 217, 352, 232
-0.998509, 365, 215, 396, 230
-0.998511, 257, 199, 288, 214
-0.998513, 321, 211, 352, 226
-0.998514, 305, 189, 368, 204
-0.998514, 113, 213, 176, 228
-0.998515, 89, 289, 120, 304
-0.998515, 145, 243, 208, 258
-0.998515, 149, 225, 180, 240
-0.998516, 353, 197, 384, 212
-0.998517, 337, 213, 400, 228
-0.998519, 97, 215, 128, 230
-0.998519, 161, 223, 224, 238
-0.99852, 161, 199, 224, 214
-0.99852, 341, 237, 372, 252
-0.998522, 213, 65, 244, 80
-0.998523, 89, 215, 152, 230
-0.998523, 261, 17, 292, 144
-0.998524, 325, 185, 356, 200
-0.998524, 169, 183, 200, 198
-0.998524, 263, 161, 278, 288
-0.998524, 73, 303, 104, 318
-0.998524, 81, 307, 144, 322
-0.998525, 345, 219, 376, 234
-0.998525, 389, 225, 420, 240
-0.998525, 265, 175, 328, 190
-0.998526, 49, 317, 112, 332
-0.998526, 121, 201, 184, 216
-0.998527, 101, 281, 132, 296
-0.998529, 305, 195, 336, 210
-0.998529, 353, 187, 416, 202
-0.998529, 425, 223, 456, 238
-0.998532, 321, 287, 384, 302
-0.998532, 241, 173, 304, 188
-0.998534, 161, 193, 224, 208
-0.998535, 153, 213, 216, 228
-0.998535, 269, 145, 284, 272
-0.998536, 161, 179, 224, 194
-0.998537, 65, 223, 128, 238
-0.998537, 345, 243, 376, 258
-0.998538, 81, 313, 144, 328
-0.998542, 445, 201, 476, 216
-0.998544, 337, 207, 400, 222
-0.998544, 105, 293, 136, 308
-0.998545, 265, 205, 296, 220
-0.998545, 321, 241, 384, 256
-0.998546, 41, 299, 104, 314
-0.998547, 305, 201, 368, 216
-0.998548, 357, 187, 388, 202
-0.998549, 217, 183, 280, 198
-0.99855, 265, 169, 328, 184
-0.998551, 233, 205, 296, 220
-0.998551, 105, 285, 168, 300
-0.998553, 381, 245, 412, 260
-0.998553, 385, 221, 448, 236
-0.998557, 169, 99, 232, 114
-0.998557, 329, 303, 392, 318
-0.998558, 113, 207, 176, 222
-0.998558, 105, 249, 168, 264
-0.998559, 113, 233, 144, 248
-0.99856, 233, 195, 296, 210
-0.99856, 297, 223, 360, 238
-0.998561, 161, 231, 224, 246
-0.998562, 153, 207, 216, 222
-0.998562, 89, 221, 152, 236
-0.998562, 97, 61, 224, 92
-0.998563, 329, 231, 392, 246
-0.998563, 377, 239, 440, 254
-0.998563, 97, 243, 160, 258
-0.998564, 269, 179, 300, 194
-0.998565, 93, 229, 124, 244
-0.998566, 81, 201, 144, 216
-0.998566, 57, 293, 120, 308
-0.998566, 401, 215, 464, 230
-0.998566, 293, 193, 324, 208
-0.998567, 433, 199, 464, 214
-0.998567, 101, 287, 132, 302
-0.998568, 333, 45, 364, 60
-0.998568, 17, 317, 80, 332
-0.998569, 161, 249, 224, 264
-0.99857, 241, 211, 304, 226
-0.99857, 421, 229, 452, 244
-0.998571, 33, 197, 96, 212
-0.998572, 337, 313, 400, 328
-0.998573, 361, 223, 392, 238
-0.998579, 253, 191, 284, 206
-0.998579, 313, 179, 376, 194
-0.998579, 97, 237, 160, 252
-0.998579, 217, 189, 280, 204
-0.998579, 89, 295, 120, 310
-0.998582, 17, 177, 80, 192
-0.998583, 377, 189, 440, 204
-0.998583, 353, 219, 416, 234
-0.998585, 57, 231, 120, 246
-0.998585, 377, 239, 408, 254
-0.998588, 145, 161, 208, 176
-0.998589, 341, 189, 372, 204
-0.998591, 225, 99, 288, 114
-0.998592, 329, 297, 392, 312
-0.998594, 169, 237, 232, 252
-0.998594, 161, 151, 224, 166
-0.998594, 17, 311, 80, 326
-0.998595, 81, 283, 144, 298
-0.998595, 217, 173, 280, 188
-0.998596, 369, 307, 432, 322
-0.998597, 177, 161, 240, 176
-0.998597, 129, 185, 192, 200
-0.998597, 361, 293, 424, 308
-0.998599, 113, 317, 176, 332
-0.998599, 161, 173, 224, 188
-0.9986, 41, 185, 104, 200
-0.998601, 337, 181, 400, 196
-0.998603, 305, 229, 368, 244
-0.998604, 1, 171, 64, 186
-0.998604, 1, 303, 64, 318
-0.998606, 413, 215, 444, 230
-0.998607, 225, 107, 288, 122
-0.998608, 373, 185, 404, 200
-0.998609, 233, 217, 296, 232
-0.998609, 105, 231, 168, 246
-0.998609, 385, 251, 448, 266
-0.998611, 193, 223, 256, 238
-0.998611, 73, 195, 136, 210
-0.998612, 353, 281, 416, 296
-0.998614, 81, 207, 144, 222
-0.998614, 389, 231, 420, 246
-0.998617, 325, 191, 356, 206
-0.99862, 377, 229, 408, 244
-0.998621, 261, 171, 292, 186
-0.998625, 337, 197, 368, 212
-0.998628, 257, 181, 288, 196
-0.998633, 353, 41, 480, 104
-0.99864, 273, 197, 304, 212
-0.998641, 357, 193, 372, 320
-0.998647, 429, 207, 460, 222
-0.998647, 401, 205, 432, 220
-0.99865, 341, 161, 356, 288
-0.998652, 285, 203, 316, 218
-0.998655, 413, 223, 444, 238
-0.998663, 65, 93, 192, 124
-0.998664, 265, 187, 296, 202
-0.998665, 325, 219, 356, 234
-0.998672, 425, 65, 456, 320
-0.998688, 413, 209, 444, 224
-0.998689, 89, 81, 120, 208
-0.99869, 281, 161, 296, 288
-0.998698, 401, 225, 432, 240
-0.998732, 329, 161, 344, 288
-0.998734, 261, 81, 276, 208
-0.998741, 115, 209, 130, 333
-0.998767, 353, 265, 480, 296
-0.998773, 209, 265, 336, 296
-0.998775, 57, 65, 88, 192
-0.998775, 205, 49, 220, 176
-0.998794, 125, 193, 140, 320
-0.998799, 351, 193, 366, 320
-0.998801, 65, 141, 192, 172
-0.998814, 237, 49, 252, 176
-0.998815, 33, 161, 48, 288
-0.998819, 169, 177, 184, 304
-0.998821, 213, 49, 228, 176
-0.998829, 257, 1, 384, 64
-0.998839, 321, 177, 336, 304
-0.998842, 175, 161, 190, 288
-0.998849, 267, 97, 282, 224
-0.998872, 137, 89, 200, 152
-0.998882, 315, 161, 330, 288
-0.998883, 425, 209, 440, 333
-0.998885, 373, 193, 388, 320
-0.998892, 255, 65, 270, 192
-0.998895, 227, 49, 242, 176
-0.998897, 347, 145, 362, 272
-0.998897, 1, 65, 128, 128
-0.998898, 73, 177, 88, 304
-0.998903, 27, 161, 42, 288
-0.998916, 305, 129, 432, 160
-0.998921, 219, 49, 234, 176
-0.998922, 161, 145, 176, 272
-0.998923, 339, 113, 354, 240
-0.998926, 305, 105, 432, 136
-0.998926, 469, 113, 500, 240
-0.99893, 297, 177, 312, 304
-0.998932, 155, 145, 170, 272
-0.998936, 89, 193, 104, 320
-0.998941, 61, 177, 76, 304
-0.998944, 291, 193, 306, 320
-0.998945, 257, 177, 272, 304
-0.998945, 333, 209, 348, 333
-0.99895, 305, 161, 320, 288
-0.998962, 41, 177, 56, 304
-0.998962, 269, 193, 284, 320
-0.998964, 189, 65, 204, 192
-0.998966, 437, 65, 468, 320
-0.998973, 335, 161, 350, 288
-0.998974, 431, 193, 446, 320
-0.998982, 179, 97, 194, 224
-0.998984, 365, 161, 380, 288
-0.998984, 203, 177, 218, 304
-0.998987, 395, 193, 410, 320
-0.998996, 83, 193, 98, 320
-0.998998, 165, 97, 180, 224
-0.999019, 95, 193, 110, 320
-0.99904, 181, 161, 196, 288
-0.999041, 425, 145, 440, 272
-0.999047, 195, 65, 210, 192
-0.999055, 1, 161, 16, 288
-0.999059, 297, 1, 360, 128
-0.99906, 353, 149, 480, 180
-0.999063, 419, 193, 434, 320
-0.999068, 339, 209, 354, 333
-0.999072, 243, 49, 258, 176
-0.999085, 133, 177, 148, 304
-0.999087, 21, 161, 36, 288
-0.999089, 249, 65, 264, 192
-0.999089, 15, 161, 30, 288
-0.999096, 47, 177, 62, 304
-0.999102, 105, 209, 120, 333
-0.99911, 327, 209, 342, 333
-0.999124, 389, 193, 404, 320
-0.999125, 401, 193, 416, 320
-0.999136, 79, 145, 94, 272
-0.999137, 173, 97, 188, 224
-0.999142, 17, 113, 144, 144
-0.999146, 305, 69, 432, 100
-0.999167, 113, 49, 240, 80
-0.999173, 55, 177, 70, 304
-0.999178, 315, 209, 330, 333
-0.999187, 485, 161, 500, 288
-0.999188, 9, 177, 24, 304
-0.999192, 159, 97, 174, 224
-0.999192, 25, 209, 40, 333
-0.999194, 197, 177, 212, 304
-0.999206, 275, 209, 290, 333
-0.999209, 381, 65, 412, 320
-0.99921, 163, 193, 178, 320
-0.999211, 85, 145, 100, 272
-0.999215, 1, 101, 128, 132
-0.999218, 125, 145, 140, 272
-0.999219, 191, 129, 206, 256
-0.999224, 19, 209, 34, 333
-0.999227, 95, 145, 110, 272
-0.999229, 357, 145, 372, 272
-0.999229, 321, 129, 336, 256
-0.999229, 375, 145, 390, 272
-0.999242, 273, 97, 288, 224
-0.999242, 35, 113, 50, 240
-0.999245, 161, 289, 288, 320
-0.999246, 67, 193, 82, 320
-0.99925, 383, 161, 398, 288
-0.999252, 189, 177, 204, 304
-0.999253, 295, 129, 310, 256
-0.999256, 27, 113, 42, 240
-0.999266, 1, 113, 16, 240
-0.999274, 433, 145, 448, 272
-0.999278, 461, 65, 492, 320
-0.99928, 393, 145, 408, 272
-0.999287, 479, 177, 494, 304
-0.999288, 215, 161, 230, 288
-0.999288, 209, 177, 224, 304
-0.999292, 413, 177, 428, 304
-0.999292, 31, 209, 46, 333
-0.999304, 149, 145, 164, 272
-0.999305, 287, 129, 302, 256
-0.999313, 115, 145, 130, 272
-0.999313, 197, 113, 212, 240
-0.999314, 343, 65, 358, 192
-0.999323, 343, 17, 358, 144
-0.999326, 225, 29, 352, 60
-0.999332, 41, 113, 56, 240
-0.999337, 7, 97, 22, 224
-0.99934, 445, 145, 460, 272
-0.999344, 101, 161, 116, 288
-0.99935, 107, 145, 122, 272
-0.999353, 337, 65, 352, 192
-0.999358, 379, 209, 394, 333
-0.999359, 251, 161, 266, 288
-0.99936, 71, 129, 86, 256
-0.999361, 49, 129, 64, 256
-0.999365, 439, 177, 454, 304
-0.999365, 467, 145, 482, 272
-0.999367, 345, 209, 360, 333
-0.99937, 263, 209, 278, 333
-0.999372, 279, 113, 294, 240
-0.999379, 455, 145, 470, 272
-0.999379, 399, 145, 414, 272
-0.99938, 133, 129, 148, 256
-0.999396, 141, 177, 156, 304
-0.999402, 309, 209, 324, 333
-0.999406, 419, 145, 434, 272
-0.999412, 121, 81, 152, 208
-0.999416, 21, 97, 36, 224
-0.999423, 285, 209, 300, 333
-0.999431, 369, 161, 496, 192
-0.999435, 177, 277, 304, 308
-0.999453, 161, 265, 288, 296
-0.999453, 65, 89, 128, 152
-0.99947, 385, 97, 448, 224
-0.999483, 305, 89, 432, 120
-0.999554, 305, 117, 432, 148
-0.999576, 449, 65, 480, 320
-0.999608, 237, 67, 252, 82
-0.999609, 265, 211, 280, 226
-0.999611, 11, 235, 26, 250
-0.999612, 69, 193, 84, 208
-0.999612, 425, 197, 440, 212
-0.999613, 219, 63, 234, 78
-0.999613, 249, 73, 264, 88
-0.999614, 255, 77, 270, 92
-0.999614, 93, 291, 108, 306
-0.999615, 277, 197, 292, 212
-0.999615, 367, 235, 382, 250
-0.999617, 229, 65, 244, 80
-0.999617, 131, 195, 146, 210
-0.999617, 393, 187, 408, 202
-0.999617, 377, 239, 392, 254
-0.999618, 347, 55, 362, 70
-0.99962, 313, 211, 328, 226
-0.999621, 121, 307, 136, 322
-0.999622, 101, 215, 116, 230
-0.999622, 161, 219, 176, 234
-0.999622, 327, 225, 342, 240
-0.999623, 263, 123, 278, 138
-0.999624, 341, 221, 356, 236
-0.999624, 375, 217, 390, 232
-0.999626, 203, 69, 218, 84
-0.999629, 311, 195, 326, 210
-0.999629, 115, 279, 130, 294
-0.999629, 197, 73, 212, 88
-0.999629, 339, 185, 354, 200
-0.99963, 343, 153, 358, 168
-0.99963, 387, 249, 402, 264
-0.999631, 161, 225, 176, 240
-0.999633, 385, 233, 400, 248
-0.999633, 297, 203, 312, 218
-0.999634, 255, 189, 270, 204
-0.999634, 433, 213, 448, 228
-0.999635, 433, 223, 448, 238
-0.999635, 109, 229, 124, 244
-0.999636, 359, 203, 374, 218
-0.999636, 283, 183, 298, 198
-0.999636, 283, 205, 298, 220
-0.999636, 17, 229, 32, 244
-0.999637, 113, 237, 128, 252
-0.999638, 457, 199, 472, 214
-0.999638, 131, 231, 146, 246
-0.99964, 333, 229, 348, 244
-0.99964, 365, 283, 380, 298
-0.999642, 209, 67, 224, 82
-0.999644, 263, 173, 278, 188
-0.999645, 329, 193, 344, 208
-0.999646, 367, 193, 382, 208
-0.999646, 267, 183, 282, 198
-0.999647, 411, 197, 426, 212
-0.999648, 319, 217, 334, 232
-0.99965, 291, 203, 306, 218
-0.99965, 119, 297, 134, 312
-0.99965, 261, 201, 276, 216
-0.99965, 367, 205, 382, 220
-0.999652, 357, 187, 372, 202
-0.999654, 417, 229, 432, 244
-0.999656, 305, 201, 320, 216
-0.999656, 367, 187, 382, 202
-0.999658, 375, 185, 390, 200
-0.999658, 105, 239, 120, 254
-0.999658, 441, 207, 456, 222
-0.999659, 349, 197, 364, 212
-0.999661, 365, 243, 380, 258
-0.999661, 377, 195, 392, 210
-0.999661, 347, 237, 362, 252
-0.999664, 267, 195, 282, 210
-0.999664, 393, 225, 408, 240
-0.999664, 329, 217, 344, 232
-0.999664, 87, 303, 102, 318
-0.999667, 89, 297, 104, 312
-0.999668, 117, 229, 132, 244
-0.999668, 385, 241, 400, 256
-0.999668, 425, 207, 440, 222
-0.999671, 271, 209, 286, 224
-0.999673, 127, 237, 142, 252
-0.999675, 437, 199, 452, 214
-0.999675, 319, 195, 334, 210
-0.999676, 349, 45, 364, 60
-0.999677, 295, 195, 310, 210
-0.999678, 449, 201, 464, 216
-0.999678, 115, 291, 130, 306
-0.99968, 261, 191, 276, 206
-0.999681, 283, 189, 298, 204
-0.999682, 287, 197, 302, 212
-0.999682, 405, 197, 420, 212
-0.999685, 205, 223, 220, 238
-0.999686, 277, 177, 292, 192
-0.999686, 411, 215, 426, 230
-0.999688, 381, 185, 396, 200
-0.999689, 369, 213, 384, 228
-0.999693, 363, 219, 378, 234
-0.999696, 257, 1, 500, 64
-0.999698, 351, 189, 366, 204
-0.9997, 403, 205, 418, 220
-0.999701, 337, 191, 352, 206
-0.999703, 373, 223, 388, 238
-0.999704, 427, 229, 442, 244
-0.999705, 277, 207, 292, 222
-0.999706, 391, 239, 406, 254
-0.999709, 173, 181, 188, 196
-0.999709, 367, 199, 382, 214
-0.99971, 341, 227, 356, 242
-0.999713, 259, 181, 274, 196
-0.999717, 341, 197, 356, 212
-0.999718, 411, 225, 426, 240
-0.999722, 165, 187, 180, 202
-0.999725, 113, 285, 128, 300
-0.999726, 417, 215, 432, 230
-0.999727, 267, 189, 282, 204
-0.999728, 357, 241, 372, 256
-0.99973, 393, 231, 408, 246
-0.999734, 271, 203, 286, 218
-0.999738, 387, 185, 402, 200
-0.999739, 409, 205, 424, 220
-0.99974, 425, 221, 440, 236
-0.99974, 401, 227, 416, 242
-0.999741, 383, 227, 398, 242
-0.999741, 277, 171, 292, 186
-0.999742, 393, 249, 408, 264
-0.999753, 335, 219, 350, 234
-0.999753, 443, 199, 458, 214
-0.999753, 89, 97, 152, 160
-0.999755, 345, 189, 360, 204
-0.999765, 425, 213, 440, 228
-0.999775, 105, 49, 168, 176
-0.999778, 357, 197, 372, 212
-0.999796, 435, 207, 450, 222
-0.999801, 415, 207, 430, 222
-0.99982, 417, 223, 432, 238
-0.99983, 369, 1, 496, 32
-0.999908, 433, 1, 496, 128
-1.00003, 1, 89, 128, 120
-1.00009, 353, 65, 480, 128
-1.00009, 1, 77, 128, 108
-1.0001, 369, 13, 496, 44
-1.00012, 305, 21, 432, 52
-1.00016, 369, 41, 496, 72
-1.00018, 209, 41, 336, 72
-1.0002, 369, 29, 496, 60
-1.00021, 321, 9, 448, 40
-1.00037, 41, 81, 104, 144
-1.00046, 393, 113, 424, 240
-1.00064, 49, 65, 176, 128
-1.0007, 1, 17, 500, 80
-1.00071, 21, 33, 52, 160
-1.00074, 65, 17, 320, 80
-1.00081, 157, 49, 188, 176
-1.00093, 369, 49, 496, 176
-1.00108, 353, 89, 480, 152
-1.00113, 1, 41, 128, 104
-1.0012, 145, 49, 176, 176
-1.00135, 193, 1, 320, 64
-1.00144, 349, 17, 380, 144
-1.00165, 313, 17, 344, 144
-1.00174, 69, 49, 100, 176
-1.00176, 97, 1, 224, 64
-1.00186, 433, 9, 496, 72
-1.00189, 421, 97, 452, 224
-1.00201, 425, 121, 488, 184
-1.00206, 1, 1, 128, 64
-1.00214, 225, 17, 288, 80
-1.00216, 285, 81, 316, 208
-1.00238, 41, 33, 72, 160
-1.0024, 209, 265, 272, 328
-1.00241, 445, 97, 476, 224
-1.00251, 49, 41, 176, 104
-1.00253, 409, 1, 472, 64
-1.00254, 1, 57, 64, 120
-1.00255, 457, 97, 488, 224
-1.00268, 145, 1, 272, 64
-1.00274, 377, 1, 440, 64
-1.00295, 357, 97, 388, 224
-1.00297, 49, 17, 176, 80
-1.00348, 445, 1, 476, 128
-1.00352, 169, 1, 200, 128
-1.00364, 377, 1, 440, 128
-1.00372, 409, 81, 472, 208
-1.00382, 297, 81, 328, 208
-1.0039, 313, 65, 344, 192
-1.00403, 273, 1, 400, 128
-1.00417, 405, 65, 436, 192
-1.00432, 409, 1, 472, 128
-1.00435, 457, 1, 488, 128
-1.00439, 377, 65, 408, 192
-1.00475, 17, 17, 80, 144
-1.00503, 65, 1, 192, 128
-1.00511, 361, 65, 424, 192
-1.00839, 41, 17, 104, 144
-1.00843, 385, 49, 448, 176
-1.00878, 433, 65, 496, 192
-1.00944, 273, 1, 336, 128
-1.01138, 65, 17, 128, 144
-1.01434, 121, 1, 184, 128
-1.01606, 89, 1, 152, 128
