1881
-0.467447, 1, 1, 500, 333
-0.506096, 65, 1, 320, 333
-0.513792, 1, 65, 500, 320
-0.538557, 193, 1, 448, 333
-0.686401, 1, 65, 256, 320
-0.774249, 97, 1, 352, 256
-0.861975, 33, 1, 160, 333
-0.862215, 81, 1, 208, 256
-0.871439, 17, 33, 144, 288
-0.871624, 257, 1, 500, 256
-0.880976, 1, 209, 500, 333
-0.889463, 289, 1, 416, 333
-0.890549, 369, 1, 496, 333
-0.891648, 161, 1, 288, 333
-0.900911, 81, 1, 208, 333
-0.902391, 241, 1, 368, 333
-0.90381, 1, 65, 500, 192
-0.911567, 129, 1, 256, 256
-0.916963, 1, 1, 500, 128
-0.924602, 257, 65, 384, 320
-0.926724, 1, 161, 500, 288
-0.92732, 257, 177, 320, 304
-0.929431, 1, 145, 256, 272
-0.932616, 297, 145, 360, 272
-0.935082, 65, 97, 320, 224
-0.937593, 281, 193, 344, 320
-0.9378, 33, 65, 160, 192
-0.937818, 209, 65, 336, 320
-0.938947, 65, 17, 320, 144
-0.940701, 41, 65, 104, 192
-0.941515, 225, 193, 480, 320
-0.941566, 89, 81, 152, 208
-0.944488, 353, 65, 480, 320
-0.94479, 273, 129, 336, 256
-0.944981, 65, 81, 128, 208
-0.945662, 305, 209, 368, 333
-0.945749, 17, 17, 80, 144
-0.946686, 33, 1, 160, 128
-0.947451, 273, 177, 336, 240
-0.947478, 305, 1, 432, 256
-0.948419, 257, 209, 384, 333
-0.949682, 113, 97, 176, 224
-0.951185, 97, 1, 224, 128
-0.951399, 289, 233, 352, 296
-0.951417, 129, 209, 384, 333
-0.951535, 249, 233, 312, 296
-0.952027, 273, 201, 336, 264
-0.952165, 1, 129, 128, 256
-0.952514, 129, 1, 192, 128
-0.952548, 81, 97, 208, 224
-0.952593, 73, 129, 136, 256
-0.953638, 329, 1, 392, 128
-0.953641, 81, 33, 144, 160
-0.954466, 41, 1, 104, 128
-0.955252, 41, 9, 104, 72
-0.955497, 105, 89, 168, 152
-0.955641, 49, 33, 112, 96
-0.955721, 17, 129, 80, 256
-0.955879, 217, 25, 280, 88
-0.956209, 305, 169, 368, 232
-0.956968, 81, 89, 144, 152
-0.956976, 1, 193, 256, 320
-0.957053, 161, 65, 416, 192
-0.957099, 1, 113, 500, 240
-0.957538, 97, 145, 160, 272
-0.958186, 281, 257, 344, 320
-0.958236, 41, 73, 104, 136
-0.9583, 257, 153, 320, 216
-0.958983, 97, 145, 352, 272
-0.959039, 177, 33, 240, 96
-0.959273, 145, 25, 208, 88
-0.959428, 17, 177, 144, 304
-0.959642, 73, 153, 136, 216
-0.959967, 369, 17, 496, 144
-0.96127, 257, 145, 500, 272
-0.961667, 105, 33, 168, 160
-0.961689, 321, 161, 384, 288
-0.96224, 257, 273, 320, 333
-0.962263, 241, 25, 304, 88
-0.96233, 17, 9, 80, 72
-0.963223, 241, 1, 368, 128
-0.963534, 105, 33, 168, 96
-0.963804, 249, 1, 312, 64
-0.963967, 209, 161, 336, 288
-0.964133, 97, 49, 224, 176
-0.964261, 281, 49, 344, 112
-0.964266, 297, 49, 360, 176
-0.964269, 289, 49, 416, 176
-0.964295, 1, 145, 64, 208
-0.964366, 41, 113, 104, 240
-0.964637, 9, 209, 72, 333
-0.964938, 257, 129, 384, 256
-0.965206, 17, 65, 80, 192
-0.965476, 73, 9, 136, 72
-0.965769, 209, 209, 336, 333
-0.966119, 273, 1, 336, 64
-0.966217, 297, 209, 360, 272
-0.966226, 425, 1, 488, 128
-0.966457, 41, 97, 104, 160
-0.966869, 33, 177, 96, 304
-0.967252, 233, 161, 296, 288
-0.967786, 17, 73, 144, 136
-0.967968, 105, 121, 168, 184
-0.968095, 305, 49, 368, 112
-0.968233, 249, 209, 312, 272
-0.968392, 145, 73, 208, 136
-0.968511, 209, 65, 336, 192
-0.968586, 265, 25, 328, 88
-0.968738, 17, 49, 80, 112
-0.968836, 97, 9, 160, 72
-0.968947, 305, 209, 432, 333
-0.969467, 65, 65, 128, 128
-0.969574, 41, 1, 104, 256
-0.969779, 297, 97, 360, 224
-0.969811, 241, 1, 368, 64
-0.96982, 17, 121, 80, 184
-0.969867, 1, 73, 64, 136
-0.969876, 321, 1, 448, 128
-0.970055, 177, 33, 304, 96
-0.970589, 81, 41, 144, 104
-0.970664, 17, 1, 80, 256
-0.970695, 241, 49, 304, 112
-0.970707, 41, 137, 104, 200
-0.970939, 129, 49, 192, 112
-0.971025, 137, 1, 200, 64
-0.971048, 1, 217, 64, 280
-0.971257, 17, 177, 80, 240
-0.971414, 297, 1, 360, 128
-0.971659, 193, 121, 256, 184
-0.971712, 273, 81, 336, 208
-0.971769, 353, 49, 416, 112
-0.972014, 249, 185, 312, 248
-0.972205, 297, 161, 328, 288
-0.972224, 313, 25, 376, 88
-0.972476, 97, 153, 160, 216
-0.972495, 241, 225, 368, 288
-0.972566, 81, 121, 144, 184
-0.972992, 101, 145, 132, 208
-0.973072, 337, 209, 400, 333
-0.973077, 145, 49, 208, 176
-0.973139, 225, 1, 480, 128
-0.973153, 269, 177, 300, 304
-0.97328, 313, 273, 376, 333
-0.973371, 289, 265, 320, 328
-0.973491, 241, 25, 272, 88
-0.973515, 393, 41, 456, 104
-0.973728, 129, 25, 256, 88
-0.973812, 289, 185, 320, 248
-0.973924, 105, 65, 168, 128
-0.974006, 65, 33, 128, 288
-0.974058, 225, 25, 256, 88
-0.974087, 377, 17, 440, 80
-0.974214, 289, 73, 352, 136
-0.974365, 153, 1, 216, 128
-0.974374, 81, 49, 208, 112
-0.974469, 277, 201, 308, 264
-0.974494, 321, 233, 384, 296
-0.974519, 225, 161, 288, 224
-0.974637, 41, 185, 104, 248
-0.974699, 85, 9, 116, 72
-0.974709, 129, 89, 256, 152
-0.974987, 301, 193, 332, 256
-0.975075, 61, 25, 92, 88
-0.975125, 309, 217, 340, 280
-0.975147, 145, 65, 272, 192
-0.975163, 57, 17, 88, 144
-0.975168, 117, 97, 148, 224
-0.975274, 225, 33, 352, 96
-0.975374, 269, 241, 300, 304
-0.975485, 105, 81, 136, 208
-0.975691, 337, 1, 464, 64
-0.975795, 65, 105, 192, 168
-0.975872, 429, 25, 460, 88
-0.97589, 89, 89, 120, 152
-0.975972, 289, 1, 320, 64
-0.97599, 285, 193, 316, 320
-0.976032, 65, 177, 128, 240
-0.976098, 233, 265, 296, 328
-0.976117, 49, 9, 176, 72
-0.976204, 253, 225, 284, 288
-0.976211, 241, 193, 368, 256
-0.976243, 1, 177, 128, 240
-0.976379, 145, 33, 176, 96
-0.97638, 241, 65, 304, 192
-0.976383, 33, 33, 160, 96
-0.976408, 85, 65, 116, 192
-0.97645, 333, 193, 364, 256
-0.976461, 417, 41, 480, 104
-0.976611, 193, 113, 320, 240
-0.976612, 133, 97, 164, 160
-0.976786, 25, 233, 88, 296
-0.97681, 105, 1, 136, 128
-0.97689, 225, 1, 288, 64
-0.976906, 353, 193, 480, 320
-0.976922, 205, 25, 236, 88
-0.976963, 421, 1, 452, 64
-0.976991, 257, 65, 500, 192
-0.977001, 281, 33, 312, 96
-0.977033, 65, 145, 192, 272
-0.977084, 17, 137, 144, 200
-0.977141, 105, 1, 168, 256
-0.977174, 301, 169, 332, 232
-0.977207, 337, 265, 400, 328
-0.977247, 269, 1, 300, 64
-0.977302, 321, 113, 384, 240
-0.977329, 281, 153, 344, 216
-0.977357, 253, 25, 284, 88
-0.977412, 289, 25, 352, 88
-0.977541, 241, 153, 368, 216
-0.977625, 109, 97, 140, 160
-0.977657, 401, 1, 464, 64
-0.977671, 69, 65, 100, 128
-0.977733, 157, 41, 188, 104
-0.977747, 45, 57, 76, 120
-0.977761, 69, 1, 100, 128
-0.977793, 305, 161, 432, 288
-0.977804, 45, 33, 76, 160
-0.977868, 177, 57, 240, 120
-0.977879, 17, 105, 144, 168
-0.977884, 317, 49, 348, 112
-0.977885, 129, 49, 256, 112
-0.977929, 57, 209, 120, 333
-0.977956, 89, 65, 120, 128
-0.978037, 13, 1, 44, 128
-0.978038, 257, 249, 384, 312
-0.97808, 317, 153, 348, 216
-0.978094, 329, 33, 360, 96
-0.978096, 297, 113, 328, 240
-0.978149, 129, 113, 256, 240
-0.978267, 285, 145, 316, 272
-0.978281, 101, 121, 132, 184
-0.978373, 337, 49, 464, 112
-0.97852, 85, 153, 116, 216
-0.978593, 321, 209, 384, 272
-0.978868, 293, 33, 324, 96
-0.97887, 269, 161, 300, 224
-0.978984, 129, 97, 192, 160
-0.979059, 325, 225, 356, 288
-0.979082, 337, 1, 368, 128
-0.979083, 321, 257, 448, 320
-0.979147, 305, 209, 336, 333
-0.979248, 309, 161, 340, 288
-0.979357, 161, 1, 224, 64
-0.979427, 265, 33, 328, 160
-0.979504, 261, 193, 292, 256
-0.979707, 329, 49, 392, 112
-0.979781, 129, 113, 256, 176
-0.979838, 193, 57, 320, 120
-0.979866, 265, 65, 328, 320
-0.979894, 321, 1, 352, 128
-0.979952, 225, 209, 288, 333
-0.979964, 117, 17, 148, 144
-0.979983, 9, 145, 40, 208
-0.980004, 329, 57, 360, 120
-0.980068, 337, 25, 400, 88
-0.980101, 321, 25, 448, 88
-0.980137, 65, 73, 192, 136
-0.980157, 105, 129, 136, 256
-0.980202, 201, 49, 264, 112
-0.980284, 405, 33, 436, 96
-0.980325, 257, 209, 288, 333
-0.98035, 137, 97, 200, 224
-0.980363, 377, 249, 440, 312
-0.980404, 93, 1, 124, 128
-0.98051, 225, 185, 288, 248
-0.980529, 345, 193, 376, 320
-0.980531, 289, 217, 320, 280
-0.980536, 73, 1, 104, 64
-0.980678, 273, 273, 400, 333
-0.980718, 1, 9, 128, 72
-0.980747, 85, 41, 116, 104
-0.980819, 273, 65, 400, 128
-0.98088, 49, 9, 80, 72
-0.980906, 225, 241, 288, 304
-0.980912, 273, 25, 400, 88
-0.981064, 269, 25, 300, 88
-0.981085, 401, 209, 464, 333
-0.981133, 65, 65, 96, 192
-0.981238, 129, 1, 192, 256
-0.981243, 1, 97, 64, 160
-0.981243, 417, 49, 448, 112
-0.981396, 441, 25, 472, 88
-0.9814, 281, 129, 344, 192
-0.981437, 257, 1, 288, 64
-0.981462, 29, 1, 60, 128
-0.981598, 257, 161, 288, 288
-0.981624, 309, 1, 340, 64
-0.981643, 117, 121, 148, 184
-0.981675, 141, 1, 172, 64
-0.981737, 305, 145, 368, 208
-0.981752, 361, 49, 424, 176
-0.981766, 409, 241, 472, 304
-0.981777, 209, 113, 240, 176
-0.981844, 293, 241, 324, 304
-0.981857, 193, 233, 320, 296
-0.981918, 29, 25, 60, 88
-0.982061, 121, 97, 152, 160
-0.982109, 385, 33, 448, 160
-0.982134, 433, 233, 496, 296
-0.9822, 425, 193, 488, 320
-0.982209, 257, 169, 288, 232
-0.982227, 157, 1, 188, 128
-0.982302, 85, 113, 116, 240
-0.982361, 225, 113, 288, 240
-0.982455, 41, 1, 104, 333
-0.982572, 225, 273, 352, 333
-0.98259, 249, 113, 312, 240
-0.982593, 289, 161, 416, 224
-0.982636, 25, 49, 56, 112
-0.982658, 265, 217, 296, 280
-0.982659, 193, 185, 320, 248
-0.982678, 129, 81, 160, 208
-0.982714, 133, 17, 164, 144
-0.982733, 217, 49, 248, 112
-0.982782, 305, 49, 336, 112
-0.982842, 305, 65, 368, 320
-0.982894, 193, 25, 224, 88
-0.9829, 305, 233, 432, 296
-0.982919, 153, 97, 216, 160
-0.983035, 205, 89, 236, 152
-0.983053, 289, 33, 320, 160
-0.983126, 209, 161, 272, 288
-0.983132, 73, 25, 104, 88
-0.983133, 313, 177, 344, 240
-0.983149, 337, 217, 368, 280
-0.983213, 49, 225, 112, 288
-0.983239, 369, 249, 496, 312
-0.983249, 101, 9, 132, 72
-0.983276, 341, 65, 372, 128
-0.98337, 1, 185, 32, 248
-0.983376, 317, 25, 348, 88
-0.9834, 85, 113, 116, 176
-0.983406, 157, 73, 188, 136
-0.983435, 1, 177, 32, 304
-0.983447, 341, 25, 372, 88
-0.98345, 289, 153, 320, 216
-0.983486, 321, 145, 352, 272
-0.983513, 217, 137, 280, 200
-0.983636, 81, 129, 208, 192
-0.983688, 185, 9, 248, 72
-0.983736, 29, 225, 60, 288
-0.983811, 41, 161, 72, 288
-0.983854, 17, 209, 48, 333
-0.983898, 333, 193, 364, 320
-0.983908, 65, 193, 192, 320
-0.983972, 181, 33, 212, 96
-0.983981, 1, 1, 32, 128
-0.983992, 321, 65, 384, 192
-0.984084, 305, 265, 336, 328
-0.984187, 97, 1, 224, 64
-0.984189, 121, 9, 152, 72
-0.984246, 313, 73, 376, 136
-0.984363, 325, 257, 356, 320
-0.984472, 133, 57, 164, 120
-0.984545, 177, 1, 304, 64
-0.98455, 5, 9, 36, 72
-0.984751, 17, 241, 144, 304
-0.984829, 277, 265, 308, 328
-0.984834, 41, 233, 72, 296
-0.984959, 145, 105, 176, 168
-0.984966, 17, 129, 48, 256
-0.984969, 41, 161, 104, 224
-0.984974, 49, 161, 176, 224
-0.985122, 321, 209, 352, 333
-0.985136, 25, 81, 56, 208
-0.98517, 193, 161, 320, 224
-0.985184, 337, 249, 368, 312
-0.985216, 329, 169, 360, 232
-0.985252, 41, 33, 72, 96
-0.985273, 261, 273, 292, 333
-0.985304, 17, 257, 80, 320
-0.985338, 45, 81, 76, 208
-0.985346, 97, 169, 128, 232
-0.985482, 161, 17, 192, 80
-0.98552, 181, 57, 212, 120
-0.985522, 225, 217, 288, 280
-0.985541, 433, 17, 496, 80
-0.985541, 17, 217, 48, 280
-0.985558, 145, 1, 176, 128
-0.985565, 1, 81, 32, 144
-0.985611, 209, 89, 336, 152
-0.985643, 193, 113, 320, 176
-0.98577, 37, 209, 68, 333
-0.985791, 153, 49, 216, 112
-0.985883, 105, 33, 136, 96
-0.985948, 281, 241, 312, 304
-0.985996, 133, 33, 164, 96
-0.986037, 1, 113, 32, 240
-0.986057, 401, 65, 464, 128
-0.986159, 305, 1, 368, 64
-0.986238, 105, 73, 136, 136
-0.986358, 417, 25, 448, 88
-0.986383, 145, 57, 176, 120
-0.986428, 305, 129, 432, 192
-0.986551, 425, 33, 456, 160
-0.986568, 221, 113, 252, 176
-0.9866, 257, 129, 384, 192
-0.986677, 273, 1, 336, 333
-0.986717, 25, 1, 56, 64
-0.986729, 81, 1, 112, 128
-0.986738, 249, 201, 280, 264
-0.986912, 141, 97, 172, 224
-0.986914, 29, 73, 60, 136
-0.986968, 1, 1, 64, 333
-0.986969, 437, 1, 468, 128
-0.986982, 201, 73, 264, 136
-0.98699, 313, 1, 376, 333
-0.987068, 353, 17, 384, 80
-0.987151, 245, 249, 276, 312
-0.987192, 425, 81, 488, 144
-0.98725, 241, 1, 272, 64
-0.987263, 289, 1, 416, 64
-0.987279, 177, 89, 240, 152
-0.987328, 169, 49, 232, 176
-0.98738, 305, 25, 336, 88
-0.987383, 229, 49, 260, 112
-0.987475, 321, 65, 352, 192
-0.987487, 241, 129, 304, 192
-0.987547, 37, 1, 68, 64
-0.987575, 169, 121, 232, 184
-0.987575, 345, 233, 408, 296
-0.987673, 453, 1, 484, 64
-0.987696, 337, 145, 400, 208
-0.987814, 309, 113, 340, 240
-0.987819, 293, 57, 324, 120
-0.987849, 389, 49, 420, 112
-0.987853, 333, 145, 364, 272
-0.987859, 269, 49, 300, 112
-0.987917, 205, 49, 236, 112
-0.987944, 337, 1, 400, 333
-0.987963, 149, 49, 180, 176
-0.988018, 145, 17, 272, 144
-0.988186, 5, 113, 36, 176
-0.988237, 377, 193, 440, 320
-0.98825, 17, 201, 144, 264
-0.988346, 193, 49, 224, 112
-0.988388, 369, 25, 496, 88
-0.988396, 349, 177, 380, 240
-0.988396, 321, 209, 448, 272
-0.988459, 73, 1, 136, 333
-0.988467, 169, 73, 200, 136
-0.988499, 281, 213, 344, 244
-0.988506, 353, 49, 384, 112
-0.988537, 173, 9, 204, 72
-0.988541, 129, 121, 160, 184
-0.988553, 105, 101, 168, 132
-0.988572, 65, 161, 96, 224
-0.988594, 353, 1, 416, 128
-0.988607, 13, 41, 44, 104
-0.988617, 93, 161, 124, 288
-0.988674, 257, 89, 320, 152
-0.988691, 337, 73, 464, 136
-0.988707, 257, 225, 320, 256
-0.988738, 377, 65, 440, 128
-0.988767, 433, 1, 464, 64
-0.988792, 273, 173, 336, 204
-0.988798, 241, 161, 272, 224
-0.988808, 17, 185, 48, 248
-0.988829, 217, 73, 248, 136
-0.988845, 65, 161, 96, 288
-0.988846, 49, 249, 112, 312
-0.988846, 161, 161, 288, 288
-0.988852, 53, 177, 84, 304
-0.988922, 301, 33, 332, 160
-0.988955, 257, 241, 320, 272
-0.988978, 13, 49, 44, 176
-0.98898, 69, 113, 100, 240
-0.989013, 29, 145, 60, 272
-0.989043, 137, 21, 200, 52
-0.989075, 329, 169, 392, 232
-0.989078, 429, 49, 460, 112
-0.989088, 273, 129, 304, 256
-0.989091, 405, 9, 436, 72
-0.989126, 193, 65, 256, 192
-0.989178, 61, 1, 92, 64
-0.989195, 41, 33, 104, 64
-0.989196, 89, 273, 152, 333
-0.98921, 193, 17, 320, 144
-0.98927, 337, 73, 400, 136
-0.989308, 433, 49, 496, 176
-0.98931, 369, 81, 496, 208
-0.989331, 273, 185, 336, 216
-0.989374, 305, 177, 368, 208
-0.989444, 289, 237, 352, 268
-0.989467, 33, 265, 160, 328
-0.989501, 241, 177, 304, 208
-0.989631, 81, 101, 144, 132
-0.989647, 273, 201, 336, 232
-0.989686, 25, 209, 88, 272
-0.989757, 1, 137, 64, 168
-0.989765, 73, 69, 136, 100
-0.989766, 49, 73, 112, 104
-0.989774, 305, 165, 368, 196
-0.989903, 41, 89, 104, 120
-0.989905, 177, 209, 304, 272
-0.989911, 245, 161, 276, 288
-0.989918, 349, 1, 380, 128
-0.989921, 193, 121, 256, 152
-0.989921, 57, 21, 120, 52
-0.989974, 177, 265, 304, 328
-0.990013, 81, 209, 144, 333
-0.990025, 89, 81, 152, 112
-0.990046, 89, 149, 152, 180
-0.990096, 273, 153, 336, 184
-0.990096, 81, 33, 144, 64
-0.990144, 281, 277, 344, 308
-0.990158, 121, 5, 184, 36
-0.99017, 49, 45, 112, 76
-0.990201, 289, 185, 416, 248
-0.99021, 41, 273, 104, 333
-0.990211, 305, 97, 432, 224
-0.990213, 89, 21, 152, 52
-0.990221, 161, 25, 224, 56
-0.99027, 337, 17, 400, 48
-0.9903, 161, 33, 416, 96
-0.990304, 241, 1, 304, 333
-0.990305, 281, 225, 344, 256
-0.990306, 73, 161, 136, 192
-0.990318, 121, 33, 184, 64
-0.990324, 417, 1, 480, 333
-0.990345, 65, 273, 128, 333
-0.990362, 277, 33, 308, 160
-0.990366, 41, 181, 104, 212
-0.990367, 129, 121, 192, 184
-0.990382, 297, 21, 360, 52
-0.990391, 97, 153, 224, 216
-0.990398, 305, 213, 368, 244
-0.9904, 1, 65, 32, 192
-0.990423, 225, 1, 480, 64
-0.990432, 1, 37, 64, 68
-0.990436, 273, 89, 400, 152
-0.990497, 73, 173, 136, 204
-0.990506, 289, 53, 352, 84
-0.990508, 145, 93, 208, 124
-0.990512, 153, 105, 216, 136
-0.990524, 385, 53, 448, 84
-0.990531, 129, 45, 192, 76
-0.990537, 105, 113, 168, 144
-0.990539, 105, 125, 168, 156
-0.990545, 297, 253, 360, 284
-0.990557, 417, 1, 480, 256
-0.99057, 249, 45, 312, 76
-0.990584, 1, 169, 64, 200
-0.990604, 217, 105, 280, 168
-0.990616, 65, 85, 128, 116
-0.990619, 233, 165, 296, 196
-0.990619, 33, 21, 96, 52
-0.990628, 113, 21, 176, 52
-0.990636, 17, 69, 80, 100
-0.990649, 201, 161, 264, 224
-0.990665, 257, 269, 320, 300
-0.990667, 297, 197, 360, 228
-0.990692, 81, 121, 144, 152
-0.990702, 49, 9, 112, 40
-0.990713, 249, 193, 312, 224
-0.99086, 257, 253, 320, 284
-0.990879, 153, 41, 216, 72
-0.990924, 305, 225, 368, 256
-0.99093, 41, 121, 104, 152
-0.99095, 57, 137, 120, 168
-0.990955, 73, 9, 136, 40
-0.990956, 17, 125, 80, 156
-0.990966, 289, 33, 352, 64
-0.990977, 393, 9, 456, 40
-0.990986, 285, 97, 316, 224
-0.990988, 265, 289, 328, 320
-0.990993, 1, 21, 64, 52
-0.991019, 153, 1, 216, 256
-0.991021, 1, 217, 64, 248
-0.991029, 17, 9, 80, 40
-0.991036, 249, 213, 312, 244
-0.991037, 161, 209, 288, 333
-0.991057, 409, 37, 472, 68
-0.991077, 161, 1, 224, 32
-0.991086, 9, 181, 72, 212
-0.991097, 265, 33, 328, 64
-0.9911, 265, 33, 296, 160
-0.991101, 281, 265, 344, 296
-0.991111, 41, 109, 104, 140
-0.991135, 161, 61, 224, 92
-0.991141, 297, 9, 360, 40
-0.991155, 97, 9, 160, 40
-0.991158, 113, 65, 176, 96
-0.991169, 461, 1, 492, 128
-0.991203, 1, 153, 64, 184
-0.991211, 1, 93, 64, 124
-0.991217, 97, 45, 160, 76
-0.991223, 97, 1, 160, 333
-0.991225, 433, 13, 496, 44
-0.991236, 1, 81, 64, 112
-0.991239, 113, 149, 176, 180
-0.991245, 33, 57, 96, 88
-0.991293, 185, 25, 248, 56
-0.991306, 237, 209, 268, 333
-0.991314, 49, 169, 112, 200
-0.991329, 193, 137, 320, 200
-0.991331, 117, 145, 148, 272
-0.991345, 361, 53, 424, 84
-0.991347, 9, 229, 72, 260
-0.991348, 321, 253, 384, 284
-0.991362, 265, 1, 328, 32
-0.991363, 1, 33, 500, 96
-0.991384, 409, 217, 472, 280
-0.991385, 305, 281, 368, 312
-0.991401, 433, 145, 496, 272
-0.991431, 377, 225, 440, 288
-0.991431, 1, 225, 500, 288
-0.991451, 273, 301, 336, 332
-0.991461, 81, 273, 208, 333
-0.991467, 73, 49, 136, 80
-0.991475, 361, 1, 424, 333
-0.991485, 97, 161, 160, 192
-0.991525, 113, 81, 176, 112
-0.991526, 33, 237, 96, 268
-0.991533, 25, 169, 88, 200
-0.991542, 329, 57, 392, 88
-0.991562, 41, 157, 104, 188
-0.991593, 81, 133, 144, 164
-0.991594, 217, 229, 280, 260
-0.991599, 33, 25, 288, 88
-0.991608, 185, 1, 248, 32
-0.991632, 65, 49, 320, 112
-0.991637, 233, 1, 296, 32
-0.991638, 65, 149, 128, 180
-0.991648, 217, 25, 280, 56
-0.991661, 409, 53, 472, 84
-0.991662, 345, 129, 408, 256
-0.991697, 177, 105, 240, 136
-0.991699, 217, 53, 280, 84
-0.991711, 145, 1, 208, 333
-0.991725, 137, 69, 200, 100
-0.991736, 185, 53, 248, 84
-0.991767, 333, 49, 364, 176
-0.991772, 161, 13, 224, 44
-0.991776, 201, 17, 264, 144
-0.991785, 209, 1, 272, 32
-0.991786, 313, 269, 376, 300
-0.991795, 369, 13, 432, 44
-0.991795, 233, 241, 296, 272
-0.991805, 297, 293, 360, 324
-0.991809, 253, 113, 284, 240
-0.991818, 385, 49, 416, 176
-0.991823, 265, 57, 328, 88
-0.991834, 361, 65, 424, 96
-0.991859, 25, 141, 88, 172
-0.991865, 65, 185, 128, 216
-0.991871, 145, 33, 176, 64
-0.991905, 113, 209, 240, 333
-0.991917, 17, 201, 80, 232
-0.991953, 153, 81, 216, 112
-0.991957, 129, 105, 192, 136
-0.991967, 345, 265, 408, 296
-0.991984, 225, 257, 288, 288
-0.992102, 393, 1, 456, 333
-0.992113, 209, 117, 240, 148
-0.992126, 369, 225, 496, 288
-0.992132, 413, 17, 444, 144
-0.992148, 129, 265, 384, 328
-0.992233, 313, 213, 344, 244
-0.992233, 1, 57, 500, 120
-0.992247, 253, 229, 284, 260
-0.992287, 89, 177, 152, 240
-0.99229, 101, 149, 132, 180
-0.99233, 145, 145, 272, 208
-0.992344, 137, 21, 168, 52
-0.992354, 153, 21, 184, 52
-0.992363, 89, 89, 120, 120
-0.992369, 293, 217, 324, 248
-0.992372, 321, 157, 352, 188
-0.992378, 153, 9, 184, 40
-0.992383, 265, 169, 296, 200
-0.992414, 297, 181, 328, 212
-0.99242, 461, 49, 492, 176
-0.992422, 301, 201, 332, 232
-0.992429, 281, 185, 312, 216
-0.992435, 281, 105, 344, 168
-0.992449, 265, 217, 296, 248
-0.992459, 257, 181, 288, 212
-0.992463, 417, 33, 448, 64
-0.992467, 85, 29, 116, 60
-0.992475, 329, 1, 392, 64
-0.99248, 9, 29, 40, 60
-0.992491, 341, 17, 372, 48
-0.992496, 225, 217, 480, 280
-0.992504, 273, 229, 304, 260
-0.992505, 281, 205, 312, 236
-0.992518, 101, 73, 132, 104
-0.992522, 81, 69, 112, 100
-0.992542, 325, 169, 356, 200
-0.992545, 85, 157, 116, 188
-0.992567, 273, 41, 304, 72
-0.992571, 1, 81, 256, 144
-0.992577, 141, 1, 172, 32
-0.99258, 293, 37, 324, 68
-0.992581, 1, 141, 32, 172
-0.992586, 433, 13, 464, 44
-0.992591, 301, 49, 332, 80
-0.992609, 325, 21, 356, 52
-0.99261, 169, 21, 200, 52
-0.992616, 61, 37, 92, 68
-0.992617, 285, 237, 316, 268
-0.992618, 133, 45, 164, 76
-0.992619, 437, 29, 468, 60
-0.992627, 109, 101, 140, 132
-0.99263, 397, 33, 428, 160
-0.992646, 261, 241, 292, 272
-0.992647, 429, 41, 460, 72
-0.992651, 85, 1, 116, 32
-0.992655, 85, 169, 116, 200
-0.992655, 65, 17, 96, 48
-0.992671, 309, 177, 340, 208
-0.992673, 281, 273, 312, 304
-0.992674, 133, 101, 164, 132
-0.992683, 445, 17, 476, 48
-0.992683, 305, 229, 336, 260
-0.992687, 125, 29, 156, 60
-0.992695, 417, 53, 448, 84
-0.992706, 53, 69, 84, 100
-0.992711, 221, 121, 252, 152
-0.992711, 85, 141, 116, 172
-0.992716, 85, 109, 116, 140
-0.992727, 313, 145, 344, 176
-0.992731, 37, 21, 68, 52
-0.992731, 29, 33, 60, 64
-0.992739, 97, 161, 128, 192
-0.992741, 97, 9, 128, 40
-0.99275, 33, 229, 64, 260
-0.992751, 305, 165, 336, 196
-0.992753, 277, 173, 308, 204
-0.99276, 317, 41, 348, 72
-0.992766, 433, 209, 496, 272
-0.992768, 97, 33, 128, 64
-0.992771, 61, 177, 92, 208
-0.992779, 113, 29, 144, 60
-0.99278, 365, 1, 396, 128
-0.992781, 17, 213, 48, 244
-0.992788, 41, 41, 72, 72
-0.992791, 41, 69, 72, 100
-0.992793, 41, 57, 72, 88
-0.992796, 313, 9, 344, 40
-0.992796, 309, 25, 340, 56
-0.992806, 317, 53, 348, 84
-0.992807, 101, 85, 132, 116
-0.992808, 157, 45, 188, 76
-0.992809, 329, 217, 360, 248
-0.99281, 5, 13, 36, 44
-0.992811, 49, 29, 80, 60
-0.99282, 301, 145, 332, 176
-0.99282, 405, 45, 436, 76
-0.992821, 157, 33, 188, 64
-0.992828, 321, 265, 352, 296
-0.992833, 305, 281, 336, 312
-0.992839, 1, 73, 32, 104
-0.992841, 281, 217, 312, 248
-0.992847, 101, 173, 132, 204
-0.992849, 5, 157, 36, 188
-0.992853, 85, 17, 116, 48
-0.992856, 121, 41, 152, 72
-0.992857, 457, 9, 488, 40
-0.992859, 109, 125, 140, 156
-0.992864, 145, 45, 176, 76
-0.992864, 97, 45, 128, 76
-0.992871, 21, 21, 52, 52
-0.992878, 25, 77, 56, 108
-0.992881, 325, 253, 356, 284
-0.992883, 49, 177, 80, 208
-0.992887, 45, 9, 76, 40
-0.992895, 1, 97, 32, 128
-0.992909, 165, 9, 196, 40
-0.992915, 121, 101, 152, 132
-0.992917, 121, 145, 184, 272
-0.992919, 53, 57, 84, 88
-0.992921, 249, 169, 280, 200
-0.992925, 285, 285, 316, 316
-0.992926, 361, 13, 392, 44
-0.992929, 345, 1, 408, 256
-0.99293, 125, 9, 156, 40
-0.992949, 289, 257, 320, 288
-0.992951, 321, 237, 352, 268
-0.992954, 305, 253, 336, 284
-0.992966, 169, 17, 200, 144
-0.992983, 421, 17, 452, 48
-0.992984, 13, 41, 44, 72
-0.992989, 333, 205, 364, 236
-0.992995, 101, 61, 132, 92
-0.993002, 261, 37, 292, 68
-0.993006, 173, 33, 204, 64
-0.99301, 5, 85, 36, 116
-0.993011, 1, 169, 32, 200
-0.993019, 269, 193, 300, 224
-0.993021, 85, 49, 116, 80
-0.993022, 101, 21, 132, 52
-0.993023, 273, 261, 304, 292
-0.993025, 105, 113, 136, 144
-0.993028, 261, 53, 292, 84
-0.99304, 401, 61, 432, 92
-0.993044, 117, 141, 148, 172
-0.993045, 337, 249, 368, 280
-0.993045, 257, 225, 272, 288
-0.993046, 65, 189, 96, 220
-0.993046, 69, 81, 100, 112
-0.993059, 1, 177, 256, 240
-0.993069, 129, 1, 384, 64
-0.993257, 241, 233, 368, 264
-0.993272, 53, 129, 84, 256
-0.993277, 349, 129, 380, 256
-0.993298, 121, 145, 184, 208
-0.993328, 313, 169, 328, 232
-0.993363, 321, 97, 448, 160
-0.993394, 17, 69, 144, 100
-0.993452, 33, 153, 288, 216
-0.993468, 257, 257, 500, 320
-0.993581, 465, 209, 496, 333
-0.993618, 113, 145, 128, 208
-0.993626, 305, 193, 320, 256
-0.993632, 297, 233, 312, 296
-0.993676, 217, 1, 280, 333
-0.993677, 293, 265, 308, 328
-0.993755, 209, 273, 272, 333
-0.993772, 65, 185, 192, 248
-0.993801, 103, 145, 118, 208
-0.99381, 283, 177, 298, 240
-0.993812, 1, 265, 500, 328
-0.993816, 293, 1, 308, 64
-0.993901, 279, 201, 294, 264
-0.993923, 445, 193, 476, 320
-0.993924, 321, 209, 336, 272
-0.99394, 433, 193, 464, 320
-0.993987, 201, 209, 264, 272
-0.994026, 253, 25, 268, 88
-0.994058, 353, 145, 480, 272
-0.994061, 241, 25, 256, 88
-0.994075, 3, 145, 18, 208
-0.99408, 137, 273, 200, 333
-0.994137, 433, 33, 448, 96
-0.994145, 277, 161, 292, 224
-0.994148, 129, 113, 256, 144
-0.994173, 151, 25, 166, 88
-0.994185, 291, 185, 306, 248
-0.994197, 33, 1, 288, 64
-0.994206, 257, 25, 500, 88
-0.994209, 233, 25, 248, 88
-0.99421, 81, 73, 208, 104
-0.994265, 241, 53, 368, 84
-0.994271, 247, 25, 262, 88
-0.994297, 353, 13, 480, 44
-0.994321, 281, 1, 296, 64
-0.994384, 65, 37, 192, 68
-0.994401, 265, 225, 280, 288
-0.994417, 315, 193, 330, 256
-0.994465, 227, 33, 242, 96
-0.994474, 109, 121, 124, 184
-0.994517, 145, 97, 160, 160
-0.994528, 331, 49, 346, 112
-0.994545, 65, 21, 192, 52
-0.99457, 65, 121, 320, 184
-0.994579, 49, 101, 176, 132
-0.99458, 17, 29, 144, 60
-0.994587, 145, 33, 272, 64
-0.99459, 287, 33, 302, 96
-0.994602, 57, 9, 72, 72
-0.994617, 337, 33, 352, 96
-0.994645, 93, 65, 108, 128
-0.994674, 83, 49, 98, 112
-0.99468, 241, 221, 368, 252
-0.994683, 193, 57, 448, 120
-0.994688, 65, 217, 192, 280
-0.994695, 9, 161, 24, 224
-0.994697, 113, 97, 128, 160
-0.994708, 341, 169, 356, 232
-0.994746, 443, 25, 458, 88
-0.994777, 285, 209, 300, 272
-0.994782, 449, 1, 480, 128
-0.994844, 99, 41, 114, 104
-0.994869, 299, 265, 314, 328
-0.994882, 17, 137, 144, 168
-0.994904, 255, 201, 270, 264
-0.994921, 369, 97, 496, 160
-0.994927, 421, 193, 452, 320
-0.994928, 233, 1, 296, 128
-0.994932, 287, 273, 302, 333
-0.994947, 347, 185, 362, 248
-0.994952, 305, 1, 320, 64
-0.994964, 157, 33, 172, 96
-0.994982, 265, 1, 280, 64
-0.994991, 221, 25, 236, 88
-0.994991, 53, 33, 68, 96
-0.994995, 325, 33, 340, 96
-0.995002, 17, 149, 144, 180
-0.995002, 15, 153, 30, 216
-0.995022, 81, 49, 208, 80
-0.995039, 85, 1, 100, 64
-0.995039, 285, 153, 300, 216
-0.995041, 253, 33, 284, 160
-0.995063, 103, 121, 118, 184
-0.995089, 17, 89, 144, 120
-0.995093, 217, 65, 280, 192
-0.995095, 17, 165, 144, 196
-0.995102, 1, 241, 256, 304
-0.995128, 469, 161, 500, 288
-0.995135, 299, 33, 314, 96
-0.995142, 1, 1, 500, 64
-0.995143, 409, 209, 440, 333
-0.995148, 81, 73, 96, 136
-0.995158, 169, 1, 232, 333
-0.995186, 215, 25, 230, 88
-0.995187, 449, 17, 464, 80
-0.995196, 385, 209, 416, 333
-0.995223, 313, 49, 328, 112
-0.995232, 89, 25, 104, 88
-0.995238, 129, 273, 256, 333
-0.99524, 97, 73, 352, 136
-0.995241, 425, 41, 440, 104
-0.99525, 129, 185, 384, 248
-0.99526, 65, 113, 192, 144
-0.99526, 211, 89, 226, 152
-0.995261, 177, 161, 240, 224
-0.995262, 77, 9, 92, 72
-0.995263, 437, 1, 452, 64
-0.995281, 353, 129, 480, 192
-0.995281, 251, 225, 266, 288
-0.995295, 63, 9, 78, 72
-0.995305, 261, 25, 276, 88
-0.995323, 339, 57, 354, 120
-0.995326, 275, 1, 290, 64
-0.995328, 17, 113, 144, 144
-0.995345, 269, 81, 300, 208
-0.995359, 1, 185, 128, 216
-0.995392, 241, 173, 368, 204
-0.995395, 33, 1, 48, 64
-0.995405, 293, 33, 308, 96
-0.995409, 341, 249, 356, 312
-0.995409, 357, 177, 388, 304
-0.995414, 101, 81, 116, 144
-0.995416, 285, 233, 300, 296
-0.995421, 273, 25, 288, 88
-0.995427, 257, 253, 384, 284
-0.995428, 121, 97, 136, 160
-0.995438, 17, 9, 144, 40
-0.995439, 59, 33, 74, 96
-0.99544, 113, 273, 176, 333
-0.99545, 307, 33, 322, 96
-0.995451, 329, 217, 344, 280
-0.995457, 197, 25, 212, 88
-0.99546, 135, 97, 150, 160
-0.995461, 155, 1, 170, 64
-0.995474, 89, 89, 104, 152
-0.995476, 271, 153, 286, 216
-0.99548, 241, 33, 272, 160
-0.995488, 1, 217, 256, 280
-0.995489, 325, 145, 340, 208
-0.995505, 5, 73, 20, 136
-0.99551, 273, 185, 288, 248
-0.995519, 121, 1, 184, 333
-0.995523, 109, 17, 124, 80
-0.995539, 85, 1, 116, 256
-0.995548, 273, 241, 288, 304
-0.995562, 45, 49, 60, 112
-0.995591, 161, 241, 416, 304
-0.995592, 321, 177, 336, 240
-0.995596, 193, 1, 256, 333
-0.995605, 51, 233, 66, 296
-0.995605, 257, 5, 384, 36
-0.995613, 221, 105, 236, 168
-0.995615, 273, 217, 288, 280
-0.995645, 127, 97, 142, 160
-0.995653, 109, 169, 124, 232
-0.995656, 291, 241, 306, 304
-0.995663, 105, 193, 168, 320
-0.99567, 77, 33, 92, 96
-0.995675, 147, 73, 162, 136
-0.995686, 311, 217, 326, 280
-0.995688, 337, 53, 464, 84
-0.995697, 43, 225, 58, 288
-0.995698, 425, 17, 440, 80
-0.9957, 433, 105, 496, 168
-0.995709, 329, 121, 392, 184
-0.995713, 143, 1, 158, 64
-0.995716, 117, 121, 132, 184
-0.995723, 145, 185, 272, 248
-0.995725, 115, 9, 130, 72
-0.995729, 129, 101, 256, 132
-0.995742, 193, 113, 256, 240
-0.995753, 65, 125, 192, 156
-0.995756, 129, 129, 160, 256
-0.995762, 99, 17, 114, 80
-0.995767, 145, 25, 160, 88
-0.995778, 225, 193, 352, 224
-0.995778, 137, 1, 168, 256
-0.995782, 299, 209, 314, 272
-0.995784, 1, 81, 500, 144
-0.99579, 113, 61, 240, 92
-0.99579, 287, 1, 302, 64
-0.995794, 69, 9, 84, 72
-0.995797, 145, 125, 272, 156
-0.995816, 297, 177, 312, 240
-0.995819, 305, 21, 432, 52
-0.995821, 255, 1, 270, 64
-0.995825, 207, 25, 222, 88
-0.995825, 145, 1, 272, 32
-0.995851, 345, 49, 360, 112
-0.995856, 65, 209, 96, 333
-0.995864, 209, 1, 336, 32
-0.99587, 331, 17, 346, 80
-0.995881, 257, 169, 500, 232
-0.995882, 431, 1, 446, 64
-0.995887, 241, 41, 368, 72
-0.995897, 233, 49, 248, 112
-0.995908, 305, 97, 368, 160
-0.995909, 39, 25, 54, 88
-0.995912, 31, 25, 46, 88
-0.995918, 193, 89, 448, 152
-0.995922, 267, 25, 282, 88
-0.995922, 293, 57, 308, 120
-0.995925, 85, 209, 116, 333
-0.995927, 169, 9, 184, 72
-0.995928, 153, 97, 168, 160
-0.99593, 307, 265, 322, 328
-0.995932, 347, 217, 362, 280
-0.995932, 401, 105, 464, 168
-0.995946, 209, 285, 336, 316
-0.995953, 37, 49, 52, 112
-0.995957, 17, 45, 144, 76
-0.995959, 335, 257, 350, 320
-0.995962, 257, 273, 384, 304
-0.995966, 153, 97, 184, 224
-0.995967, 319, 33, 334, 96
-0.995972, 163, 41, 178, 104
-0.99598, 337, 153, 464, 216
-0.995981, 193, 121, 320, 152
-0.995987, 73, 241, 136, 304
-0.995992, 5, 121, 20, 184
-0.995994, 37, 225, 52, 288
-0.995994, 409, 49, 472, 176
-0.995999, 91, 1, 106, 64
-0.996061, 193, 73, 320, 104
-0.996067, 369, 1, 496, 32
-0.996101, 25, 33, 56, 288
-0.996102, 397, 209, 428, 333
-0.996118, 369, 201, 496, 264
-0.996162, 177, 53, 304, 84
-0.996208, 1, 125, 128, 156
-0.996273, 129, 89, 256, 120
-0.996278, 113, 21, 240, 52
-0.996285, 105, 1, 136, 256
-0.996371, 77, 161, 108, 288
-0.996386, 257, 149, 384, 180
-0.996394, 65, 9, 192, 40
-0.996401, 1, 201, 128, 232
-0.996408, 369, 209, 400, 333
-0.996412, 129, 209, 384, 272
-0.996425, 369, 1, 432, 256
-0.996439, 193, 221, 320, 252
-0.99644, 105, 177, 136, 304
-0.996478, 81, 249, 208, 312
-0.996483, 81, 141, 208, 172
-0.996495, 233, 145, 264, 272
-0.996497, 153, 1, 184, 256
-0.99651, 65, 61, 192, 92
-0.996514, 1, 273, 256, 333
-0.99655, 241, 161, 368, 192
-0.996558, 197, 65, 228, 192
-0.996565, 273, 189, 400, 220
-0.996611, 289, 57, 416, 88
-0.996615, 257, 209, 384, 240
-0.996646, 81, 85, 208, 116
-0.996656, 273, 293, 400, 324
-0.996728, 225, 193, 480, 256
-0.996738, 193, 181, 320, 212
-0.996783, 1, 121, 500, 184
-0.996839, 129, 145, 384, 208
-0.996845, 73, 1, 104, 256
-0.99685, 283, 181, 298, 212
-0.996854, 257, 145, 500, 208
-0.996861, 305, 253, 432, 284
-0.996915, 401, 161, 464, 288
-0.996926, 193, 233, 320, 264
-0.996941, 103, 153, 118, 184
-0.996951, 113, 157, 128, 188
-0.996951, 225, 117, 240, 148
-0.996956, 315, 213, 330, 244
-0.996957, 109, 145, 124, 176
-0.996982, 289, 237, 416, 268
-0.996983, 317, 165, 332, 196
-0.996984, 81, 153, 208, 184
-0.997, 33, 233, 160, 264
-0.997005, 279, 217, 294, 248
-0.997027, 61, 33, 92, 288
-0.997029, 225, 301, 352, 332
-0.997038, 255, 229, 270, 260
-0.997041, 1, 93, 16, 124
-0.997041, 9, 33, 40, 288
-0.997046, 289, 41, 416, 72
-0.997047, 305, 201, 320, 232
-0.997054, 209, 29, 336, 60
-0.997057, 273, 85, 400, 116
-0.997076, 335, 161, 350, 192
-0.997083, 101, 33, 116, 64
-0.997089, 277, 173, 292, 204
-0.997105, 217, 117, 232, 148
-0.997122, 91, 37, 106, 68
-0.997139, 305, 281, 432, 312
-0.997151, 65, 169, 192, 200
-0.997164, 309, 181, 324, 212
-0.997167, 83, 33, 98, 64
-0.997193, 421, 37, 436, 68
-0.997195, 17, 57, 144, 88
-0.997195, 129, 45, 256, 76
-0.997213, 337, 69, 464, 100
-0.997216, 341, 177, 356, 208
-0.99722, 209, 117, 224, 148
-0.997226, 305, 265, 432, 296
-0.997239, 49, 1, 80, 256
-0.997261, 369, 249, 496, 280
-0.997262, 325, 213, 340, 244
-0.997264, 209, 137, 336, 168
-0.997271, 445, 13, 460, 44
-0.997279, 429, 53, 444, 84
-0.997292, 5, 141, 20, 172
-0.997295, 151, 33, 166, 64
-0.997299, 293, 261, 308, 292
-0.997303, 295, 221, 310, 252
-0.997317, 3, 25, 18, 56
-0.997333, 155, 1, 170, 32
-0.997349, 109, 29, 124, 60
-0.997351, 325, 149, 340, 180
-0.997352, 289, 221, 416, 252
-0.997356, 143, 29, 158, 60
-0.997366, 109, 169, 124, 200
-0.997378, 241, 81, 272, 208
-0.997379, 1, 257, 128, 288
-0.997387, 289, 173, 416, 204
-0.997388, 287, 209, 302, 240
-0.99739, 271, 165, 286, 196
-0.997394, 297, 233, 312, 264
-0.997395, 1, 101, 128, 132
-0.997409, 209, 109, 336, 140
-0.997413, 49, 45, 64, 76
-0.997416, 241, 65, 368, 96
-0.997419, 269, 225, 284, 256
-0.997423, 439, 37, 454, 68
-0.997425, 209, 261, 336, 292
-0.997426, 209, 245, 336, 276
-0.997446, 297, 273, 312, 304
-0.997448, 257, 21, 384, 52
-0.997451, 163, 29, 178, 60
-0.997454, 439, 21, 454, 52
-0.997481, 427, 29, 442, 60
-0.997481, 167, 9, 182, 40
-0.997488, 193, 41, 320, 72
-0.997492, 321, 1, 448, 32
-0.997493, 287, 229, 302, 260
-0.997493, 103, 165, 118, 196
-0.997494, 433, 25, 448, 56
-0.997498, 57, 29, 72, 60
-0.997503, 117, 1, 148, 256
-0.997509, 465, 97, 496, 224
-0.997513, 295, 189, 310, 220
-0.997524, 193, 85, 320, 116
-0.997529, 317, 153, 332, 184
-0.997537, 95, 85, 110, 116
-0.997537, 1, 245, 128, 276
-0.997538, 289, 185, 304, 216
-0.997538, 161, 121, 416, 184
-0.99754, 3, 153, 18, 184
-0.997544, 109, 9, 124, 40
-0.997546, 415, 45, 430, 76
-0.997546, 155, 17, 170, 48
-0.997547, 149, 17, 164, 48
-0.997548, 147, 101, 162, 132
-0.997553, 17, 213, 144, 244
-0.997557, 289, 197, 304, 228
-0.997564, 99, 21, 114, 52
-0.997564, 145, 5, 160, 36
-0.997566, 311, 45, 326, 76
-0.997571, 291, 273, 306, 304
-0.997573, 89, 21, 104, 52
-0.99758, 209, 205, 336, 236
-0.997581, 447, 25, 462, 56
-0.997582, 103, 141, 118, 172
-0.997584, 297, 245, 312, 276
-0.997587, 305, 213, 320, 244
-0.997611, 313, 193, 328, 224
-0.997621, 157, 29, 172, 60
-0.997629, 319, 41, 334, 72
-0.997636, 55, 61, 70, 92
-0.997644, 141, 41, 156, 72
-0.997646, 5, 169, 20, 200
-0.997649, 309, 29, 324, 60
-0.997652, 65, 17, 80, 48
-0.997656, 177, 297, 304, 328
-0.997657, 451, 13, 466, 44
-0.997657, 347, 201, 362, 232
-0.997664, 301, 189, 316, 220
-0.997666, 81, 21, 96, 52
-0.997666, 115, 173, 130, 204
-0.997668, 193, 149, 320, 180
-0.997676, 301, 49, 316, 80
-0.99768, 345, 189, 360, 220
-0.99768, 295, 209, 310, 240
-0.997684, 29, 25, 44, 56
-0.997686, 261, 229, 276, 260
-0.997687, 129, 73, 256, 104
-0.997711, 323, 5, 338, 36
-0.997711, 97, 69, 112, 100
-0.997734, 265, 173, 280, 204
-0.997736, 297, 65, 328, 320
-0.997739, 135, 41, 150, 72
-0.99774, 275, 33, 290, 64
-0.997744, 3, 73, 18, 104
-0.997751, 161, 5, 176, 36
-0.997751, 9, 77, 24, 108
-0.997753, 299, 37, 314, 68
-0.997757, 169, 25, 184, 56
-0.99776, 93, 49, 108, 80
-0.99776, 115, 17, 130, 48
-0.997765, 15, 149, 30, 180
-0.997767, 113, 209, 240, 272
-0.99777, 111, 101, 126, 132
-0.997775, 71, 33, 86, 64
-0.997784, 59, 13, 74, 44
-0.997792, 287, 41, 302, 72
-0.997796, 87, 69, 102, 100
-0.997799, 353, 37, 480, 68
-0.997801, 95, 1, 110, 32
-0.997803, 319, 181, 334, 212
-0.997804, 303, 261, 318, 292
-0.997832, 261, 249, 276, 280
-0.997838, 311, 169, 326, 200
-0.997841, 161, 45, 176, 76
-0.997844, 319, 53, 334, 84
-0.997846, 339, 21, 354, 52
-0.997849, 1, 201, 500, 264
-0.99785, 9, 157, 24, 188
-0.997863, 339, 249, 354, 280
-0.997865, 431, 41, 446, 72
-0.997866, 281, 229, 296, 260
-0.997868, 255, 253, 270, 284
-0.997872, 231, 117, 246, 148
-0.997876, 113, 65, 128, 96
-0.997888, 385, 81, 448, 208
-0.997895, 33, 169, 48, 200
-0.997897, 29, 213, 44, 244
-0.997913, 349, 13, 364, 44
-0.997914, 135, 29, 150, 60
-0.997916, 253, 209, 268, 240
-0.997916, 45, 177, 60, 208
-0.997917, 345, 217, 360, 248
-0.997921, 49, 33, 64, 64
-0.997922, 35, 33, 50, 64
-0.997935, 47, 229, 62, 260
-0.997945, 129, 141, 256, 172
-0.99798, 241, 1, 304, 256
-0.998009, 113, 289, 240, 320
-0.998015, 373, 49, 404, 176
-0.998044, 353, 261, 480, 292
-0.998092, 37, 1, 68, 256
-0.99814, 433, 97, 496, 224
-0.998148, 337, 237, 464, 268
-0.998152, 161, 17, 288, 48
-0.998161, 305, 161, 432, 192
-0.998194, 193, 169, 320, 200
-0.998232, 33, 285, 160, 316
-0.998275, 305, 141, 432, 172
-0.998277, 289, 69, 416, 100
-0.998302, 49, 189, 176, 220
-0.998325, 65, 297, 192, 328
-0.998357, 161, 249, 288, 280
-0.99837, 309, 65, 340, 320
-0.998382, 209, 49, 240, 176
-0.9984, 89, 69, 152, 84
-0.998414, 97, 45, 160, 60
-0.998417, 97, 97, 352, 160
-0.998418, 105, 103, 168, 118
-0.998425, 177, 193, 304, 224
-0.998431, 273, 195, 336, 210
-0.998434, 17, 37, 80, 52
-0.998438, 89, 75, 152, 90
-0.998448, 281, 149, 344, 164
-0.998448, 297, 29, 360, 44
-0.998452, 41, 45, 104, 60
-0.998455, 265, 187, 328, 202
-0.99846, 281, 217, 344, 232
-0.998461, 289, 227, 320, 242
-0.998461, 89, 17, 120, 32
-0.998461, 301, 1, 332, 16
-0.998461, 153, 67, 184, 82
-0.998461, 177, 67, 208, 82
-0.998462, 37, 181, 68, 196
-0.998463, 277, 41, 308, 56
-0.998464, 85, 167, 116, 182
-0.998467, 449, 15, 480, 30
-0.998468, 429, 49, 460, 64
-0.998469, 77, 21, 108, 36
-0.998469, 137, 75, 200, 90
-0.998469, 353, 23, 384, 38
-0.99847, 101, 161, 132, 176
-0.998471, 141, 75, 172, 90
-0.998472, 45, 71, 76, 86
-0.998474, 257, 187, 288, 202
-0.998474, 185, 35, 248, 50
-0.998475, 301, 187, 332, 202
-0.998475, 33, 179, 96, 194
-0.998476, 185, 121, 248, 136
-0.998476, 157, 45, 188, 60
-0.998477, 89, 85, 120, 100
-0.998477, 441, 23, 472, 38
-0.998477, 289, 233, 352, 248
-0.998478, 429, 9, 460, 24
-0.998478, 5, 93, 36, 108
-0.998478, 273, 173, 336, 188
-0.998478, 133, 39, 164, 54
-0.998479, 85, 161, 116, 176
-0.998479, 281, 287, 344, 302
-0.998479, 9, 37, 40, 52
-0.99848, 385, 11, 448, 26
-0.99848, 33, 47, 64, 62
-0.99848, 105, 119, 168, 134
-0.998481, 105, 25, 136, 40
-0.998481, 317, 55, 348, 70
-0.998481, 377, 15, 408, 30
-0.998481, 73, 15, 104, 30
-0.998482, 241, 33, 304, 48
-0.998483, 265, 37, 328, 52
-0.998483, 249, 229, 312, 244
-0.998483, 333, 225, 364, 240
-0.998484, 109, 33, 140, 48
-0.998485, 105, 119, 136, 134
-0.998486, 89, 99, 120, 114
-0.998486, 269, 179, 300, 194
-0.998486, 21, 35, 52, 50
-0.998486, 401, 63, 432, 78
-0.998486, 85, 173, 116, 188
-0.998487, 129, 39, 192, 54
-0.998487, 57, 37, 120, 52
-0.998488, 221, 35, 252, 50
-0.998488, 265, 179, 328, 194
-0.998488, 133, 101, 164, 116
-0.998488, 1, 151, 32, 166
-0.998489, 217, 121, 248, 136
-0.998489, 297, 205, 328, 220
-0.998489, 281, 211, 344, 226
-0.99849, 385, 63, 416, 78
-0.998491, 265, 51, 328, 66
-0.998492, 153, 21, 184, 36
-0.998492, 85, 71, 116, 86
-0.998494, 93, 11, 124, 26
-0.998494, 289, 149, 320, 164
-0.998495, 93, 39, 124, 54
-0.998495, 257, 245, 320, 260
-0.998495, 449, 7, 480, 22
-0.998495, 253, 35, 284, 50
-0.998495, 1, 269, 128, 300
-0.998495, 365, 15, 396, 30
-0.998496, 289, 185, 320, 200
-0.998496, 321, 165, 352, 180
-0.998496, 273, 271, 304, 286
-0.998497, 81, 157, 144, 172
-0.998497, 209, 35, 240, 50
-0.998498, 109, 103, 140, 118
-0.998498, 101, 167, 132, 182
-0.9985, 285, 65, 316, 320
-0.9985, 121, 67, 184, 82
-0.9985, 129, 45, 160, 60
-0.998501, 305, 231, 336, 246
-0.998501, 265, 223, 328, 238
-0.998501, 277, 189, 308, 204
-0.998501, 45, 39, 76, 54
-0.998501, 305, 175, 368, 190
-0.998501, 109, 69, 140, 84
-0.998502, 49, 93, 112, 108
-0.998503, 5, 167, 36, 182
-0.998504, 153, 31, 216, 46
-0.998504, 233, 35, 264, 50
-0.998506, 113, 73, 176, 88
-0.998506, 65, 43, 96, 58
-0.998508, 317, 159, 348, 174
-0.998509, 157, 15, 188, 30
-0.998509, 305, 23, 368, 38
-0.99851, 409, 9, 472, 24
-0.99851, 289, 263, 320, 278
-0.99851, 209, 35, 272, 50
-0.99851, 289, 55, 352, 70
-0.998511, 81, 95, 144, 110
-0.998512, 117, 75, 148, 90
-0.998512, 89, 83, 152, 98
-0.998513, 41, 73, 104, 88
-0.998513, 33, 185, 96, 200
-0.998514, 329, 19, 392, 34
-0.998514, 289, 235, 320, 250
-0.998515, 153, 39, 216, 54
-0.998516, 257, 251, 320, 266
-0.998516, 273, 49, 304, 64
-0.998516, 209, 273, 336, 304
-0.998518, 89, 23, 120, 38
-0.998518, 193, 31, 224, 46
-0.998519, 265, 225, 296, 240
-0.99852, 277, 219, 308, 234
-0.99852, 101, 17, 132, 32
-0.998521, 97, 37, 160, 52
-0.998522, 145, 65, 208, 80
-0.998522, 429, 23, 460, 38
-0.998522, 145, 5, 176, 20
-0.998522, 81, 21, 144, 36
-0.998522, 313, 221, 344, 236
-0.998523, 133, 31, 164, 46
-0.998523, 165, 75, 196, 90
-0.998523, 273, 237, 304, 252
-0.998524, 97, 31, 160, 46
-0.998526, 225, 41, 288, 56
-0.998526, 417, 9, 448, 24
-0.998526, 145, 47, 176, 62
-0.998527, 57, 23, 120, 38
-0.998527, 57, 37, 88, 52
-0.998528, 101, 155, 132, 170
-0.998528, 305, 221, 368, 236
-0.99853, 329, 233, 360, 248
-0.998531, 137, 23, 200, 38
-0.998531, 325, 171, 356, 186
-0.998531, 249, 237, 280, 252
-0.998533, 1, 93, 64, 108
-0.998534, 65, 73, 128, 88
-0.998534, 1, 143, 32, 158
-0.998535, 105, 109, 168, 124
-0.998535, 249, 235, 312, 250
-0.998535, 273, 201, 336, 216
-0.998535, 53, 179, 84, 194
-0.998535, 41, 17, 104, 32
-0.998537, 145, 33, 176, 48
-0.998537, 57, 99, 120, 114
-0.998538, 85, 45, 116, 60
-0.998538, 299, 193, 314, 320
-0.998538, 1, 43, 32, 58
-0.998538, 81, 107, 144, 122
-0.998538, 281, 257, 344, 272
-0.998539, 305, 169, 368, 184
-0.99854, 97, 73, 128, 88
-0.99854, 85, 77, 116, 92
-0.998541, 289, 39, 320, 54
-0.998541, 41, 31, 104, 46
-0.998541, 257, 43, 288, 58
-0.998542, 169, 67, 232, 82
-0.998543, 265, 1, 328, 16
-0.998544, 409, 51, 440, 66
-0.998544, 117, 39, 148, 54
-0.998545, 97, 149, 128, 164
-0.998545, 301, 215, 332, 230
-0.998545, 281, 251, 344, 266
-0.998545, 241, 179, 304, 194
-0.998547, 313, 153, 344, 168
-0.998547, 89, 147, 152, 162
-0.998549, 257, 257, 320, 272
-0.998549, 65, 181, 96, 196
-0.99855, 81, 117, 144, 132
-0.998551, 265, 45, 328, 60
-0.998552, 289, 227, 352, 242
-0.998553, 301, 181, 332, 196
-0.998553, 105, 79, 136, 94
-0.998553, 153, 45, 216, 60
-0.998553, 209, 67, 272, 82
-0.998554, 145, 119, 208, 134
-0.998554, 297, 241, 360, 256
-0.998555, 1, 155, 64, 170
-0.998556, 129, 75, 160, 90
-0.998556, 81, 101, 144, 116
-0.998558, 385, 65, 448, 80
-0.998558, 1, 45, 64, 60
-0.998558, 273, 35, 304, 50
-0.998561, 81, 125, 144, 140
-0.998561, 57, 173, 120, 188
-0.998562, 9, 75, 72, 90
-0.998562, 1, 141, 64, 156
-0.998564, 353, 17, 416, 32
-0.998564, 129, 33, 192, 48
-0.998565, 289, 221, 320, 236
-0.998566, 169, 1, 232, 16
-0.998566, 249, 193, 312, 208
-0.998566, 41, 127, 104, 142
-0.998567, 105, 125, 168, 140
-0.998568, 437, 17, 468, 32
-0.998569, 161, 73, 224, 88
-0.998569, 265, 279, 328, 294
-0.998571, 393, 57, 456, 72
-0.998571, 57, 87, 120, 102
-0.998572, 433, 13, 496, 28
-0.998572, 97, 67, 128, 82
-0.998572, 73, 11, 136, 26
-0.998572, 353, 17, 384, 32
-0.998573, 285, 211, 316, 226
-0.998574, 193, 127, 256, 142
-0.998575, 297, 193, 328, 208
-0.998575, 285, 201, 316, 216
-0.998576, 353, 113, 480, 144
-0.998576, 65, 67, 128, 82
-0.998577, 265, 173, 296, 188
-0.998577, 1, 189, 64, 204
-0.998577, 317, 29, 348, 44
-0.998577, 105, 21, 168, 36
-0.998578, 433, 7, 496, 22
-0.998578, 113, 15, 176, 30
-0.998578, 65, 273, 192, 304
-0.998578, 57, 151, 120, 166
-0.998578, 289, 181, 352, 196
-0.998578, 57, 51, 120, 66
-0.998579, 273, 31, 336, 46
-0.998579, 413, 45, 444, 60
-0.998579, 297, 281, 360, 296
-0.998579, 209, 121, 272, 136
-0.99858, 65, 181, 128, 196
-0.998581, 241, 63, 304, 78
-0.998586, 17, 85, 80, 100
-0.998586, 421, 35, 452, 50
-0.998586, 57, 145, 120, 160
-0.998587, 129, 47, 192, 62
-0.998587, 73, 163, 136, 178
-0.998588, 289, 87, 352, 102
-0.998588, 113, 149, 176, 164
-0.998588, 301, 33, 332, 48
-0.998589, 49, 79, 112, 94
-0.99859, 1, 161, 64, 176
-0.99859, 281, 273, 344, 288
-0.998591, 425, 29, 456, 44
-0.998592, 313, 215, 344, 230
-0.998593, 1, 21, 64, 36
-0.998593, 17, 7, 80, 22
-0.998594, 1, 175, 64, 190
-0.998594, 1, 107, 64, 122
-0.998595, 313, 181, 376, 196
-0.998596, 249, 199, 312, 214
-0.998596, 325, 65, 356, 320
-0.998597, 273, 157, 336, 172
-0.998597, 81, 173, 144, 188
-0.998597, 141, 21, 172, 36
-0.9986, 285, 195, 316, 210
-0.998605, 209, 97, 336, 128
-0.99861, 305, 209, 432, 240
-0.998619, 393, 65, 456, 320
-0.998625, 301, 147, 332, 162
-0.998631, 329, 25, 360, 40
-0.998636, 377, 1, 408, 256
-0.998646, 341, 19, 372, 34
-0.998662, 249, 65, 280, 320
-0.998671, 305, 129, 432, 160
-0.998686, 161, 265, 288, 296
-0.998699, 145, 41, 176, 56
-0.998704, 433, 1, 464, 256
-0.998709, 53, 1, 68, 128
-0.998721, 205, 121, 236, 136
-0.998726, 165, 1, 196, 256
-0.998745, 275, 177, 290, 304
-0.99875, 257, 117, 384, 148
-0.998756, 67, 1, 82, 128
-0.99876, 115, 1, 130, 128
-0.998763, 107, 81, 122, 208
-0.998766, 257, 105, 384, 136
-0.998771, 337, 97, 368, 224
-0.998786, 347, 193, 362, 320
-0.998814, 315, 129, 330, 256
-0.99882, 77, 65, 92, 192
-0.998829, 299, 129, 314, 256
-0.998845, 307, 161, 322, 288
-0.998853, 273, 65, 304, 320
-0.998865, 109, 1, 124, 128
-0.998866, 185, 49, 216, 176
-0.998868, 27, 1, 42, 128
-0.998871, 87, 17, 102, 144
-0.998878, 307, 113, 322, 240
-0.998878, 285, 177, 300, 304
-0.998889, 129, 301, 256, 332
-0.998915, 105, 129, 120, 256
-0.998917, 337, 225, 464, 256
-0.998922, 305, 209, 320, 333
-0.998923, 45, 17, 60, 144
-0.998925, 59, 17, 74, 144
-0.99893, 81, 1, 96, 128
-0.998942, 341, 161, 356, 288
-0.998951, 51, 81, 66, 208
-0.998959, 113, 81, 128, 208
-0.99896, 113, 173, 240, 204
-0.998965, 457, 145, 488, 272
-0.99897, 291, 177, 306, 304
-0.99897, 353, 25, 480, 56
-0.998972, 345, 1, 360, 128
-0.99898, 119, 97, 134, 224
-0.99898, 267, 161, 282, 288
-0.998981, 335, 1, 350, 128
-0.998984, 257, 177, 272, 304
-0.998992, 33, 1, 48, 128
-0.998995, 161, 209, 288, 240
-0.998998, 257, 113, 500, 176
-0.99901, 111, 129, 126, 256
-0.99904, 321, 89, 448, 120
-0.999041, 89, 65, 104, 192
-0.999045, 125, 97, 140, 224
-0.999047, 99, 17, 114, 144
-0.99905, 319, 193, 334, 320
-0.999067, 445, 1, 476, 256
-0.99909, 15, 1, 30, 128
-0.999091, 147, 17, 162, 144
-0.999092, 21, 129, 36, 256
-0.999105, 263, 209, 278, 333
-0.999108, 349, 65, 380, 320
-0.999115, 257, 129, 384, 160
-0.999135, 449, 65, 480, 192
-0.999136, 145, 241, 272, 304
-0.999137, 297, 33, 312, 160
-0.999144, 77, 113, 92, 240
-0.999149, 335, 161, 350, 288
-0.999151, 271, 33, 286, 160
-0.999158, 303, 33, 318, 160
-0.999159, 135, 49, 150, 176
-0.999162, 147, 97, 162, 224
-0.999163, 209, 17, 336, 48
-0.999166, 313, 193, 328, 320
-0.999178, 27, 209, 42, 333
-0.999179, 99, 65, 114, 192
-0.999182, 39, 33, 54, 160
-0.999182, 157, 1, 172, 128
-0.999185, 161, 97, 224, 224
-0.999194, 353, 193, 368, 320
-0.999199, 145, 229, 272, 260
-0.9992, 73, 17, 88, 144
-0.999203, 161, 285, 288, 316
-0.999209, 323, 145, 338, 272
-0.999213, 39, 209, 54, 333
-0.999213, 1, 145, 500, 208
-0.999215, 269, 209, 284, 333
-0.999215, 353, 101, 480, 132
-0.999215, 409, 97, 472, 224
-0.999216, 51, 177, 66, 304
-0.999216, 369, 125, 496, 156
-0.999217, 125, 17, 140, 144
-0.999219, 83, 65, 98, 192
-0.999221, 305, 101, 432, 132
-0.999226, 21, 17, 36, 144
-0.999227, 251, 209, 266, 333
-0.999232, 329, 17, 344, 144
-0.999237, 141, 81, 156, 208
-0.999239, 273, 129, 288, 256
-0.999248, 131, 97, 146, 224
-0.999251, 367, 1, 382, 128
-0.999253, 333, 209, 348, 333
-0.999255, 341, 113, 356, 240
-0.999255, 33, 209, 48, 333
-0.999259, 293, 129, 308, 256
-0.999261, 431, 1, 446, 128
-0.99927, 11, 177, 26, 304
-0.999274, 1, 129, 16, 256
-0.999278, 327, 209, 342, 333
-0.999279, 5, 1, 20, 128
-0.99928, 439, 1, 454, 128
-0.999289, 99, 145, 114, 272
-0.999291, 45, 161, 60, 288
-0.999297, 453, 1, 468, 128
-0.999302, 277, 33, 292, 160
-0.999304, 93, 17, 108, 144
-0.999305, 229, 97, 260, 224
-0.999308, 119, 49, 134, 176
-0.999313, 83, 113, 98, 240
-0.999317, 323, 1, 338, 128
-0.999322, 5, 177, 20, 304
-0.999332, 339, 49, 354, 176
-0.99934, 29, 161, 44, 288
-0.999345, 163, 1, 178, 128
-0.999348, 389, 161, 420, 288
-0.999355, 333, 65, 348, 192
-0.999356, 341, 209, 356, 333
-0.99936, 11, 129, 26, 256
-0.999363, 21, 209, 36, 333
-0.999366, 135, 1, 150, 128
-0.999368, 447, 1, 462, 128
-0.999377, 295, 81, 310, 208
-0.999378, 471, 1, 486, 128
-0.999384, 27, 81, 42, 208
-0.999389, 319, 81, 334, 208
-0.999394, 17, 65, 32, 192
-0.999406, 141, 1, 156, 128
-0.999412, 57, 65, 72, 192
-0.999414, 1, 177, 500, 240
-0.999415, 351, 129, 366, 256
-0.999415, 65, 49, 80, 176
-0.999423, 65, 161, 80, 288
-0.999425, 173, 17, 188, 144
-0.999427, 287, 129, 302, 256
-0.999439, 77, 161, 92, 288
-0.999447, 71, 65, 86, 192
-0.999447, 89, 113, 104, 240
-0.999447, 109, 177, 124, 304
-0.999452, 45, 209, 60, 333
-0.999456, 477, 49, 492, 176
-0.999457, 427, 49, 442, 176
-0.999466, 483, 49, 498, 176
-0.999468, 57, 161, 72, 288
-0.999471, 41, 81, 56, 208
-0.999474, 301, 81, 316, 208
-0.999475, 279, 129, 294, 256
-0.999478, 39, 161, 54, 288
-0.999481, 155, 49, 170, 176
-0.999491, 251, 161, 266, 288
-0.999503, 329, 161, 344, 288
-0.999504, 393, 49, 408, 176
-0.99951, 263, 33, 278, 160
-0.999516, 313, 81, 328, 208
-0.99952, 67, 113, 82, 240
-0.99952, 71, 177, 86, 304
-0.999529, 5, 81, 20, 208
-0.99954, 291, 33, 306, 160
-0.999549, 129, 209, 192, 333
-0.999662, 429, 9, 444, 24
-0.999662, 249, 35, 264, 50
-0.999663, 293, 271, 308, 286
-0.999663, 313, 223, 328, 238
-0.999663, 167, 29, 182, 44
-0.999663, 289, 231, 304, 246
-0.999665, 11, 167, 26, 182
-0.999667, 53, 69, 68, 84
-0.999667, 259, 249, 274, 264
-0.999667, 109, 13, 124, 28
-0.999668, 427, 55, 442, 70
-0.999668, 299, 191, 314, 206
-0.999668, 223, 35, 238, 50
-0.999668, 283, 179, 298, 194
-0.999669, 153, 21, 168, 36
-0.999669, 7, 75, 22, 90
-0.99967, 77, 183, 92, 198
-0.99967, 79, 13, 94, 28
-0.99967, 307, 195, 322, 210
-0.999671, 255, 35, 270, 50
-0.999672, 109, 67, 124, 82
-0.999672, 277, 185, 292, 200
-0.999673, 295, 223, 310, 238
-0.999673, 7, 93, 22, 108
-0.999673, 433, 25, 448, 40
-0.999674, 255, 243, 270, 258
-0.999676, 87, 37, 102, 52
-0.999677, 109, 27, 124, 42
-0.999677, 309, 231, 324, 246
-0.999677, 281, 45, 296, 60
-0.999678, 323, 1, 338, 16
-0.999678, 285, 195, 300, 210
-0.999678, 93, 19, 108, 34
-0.999679, 39, 45, 54, 60
-0.999681, 81, 37, 96, 52
-0.999681, 59, 179, 74, 194
-0.999681, 233, 123, 248, 138
-0.999683, 101, 67, 116, 82
-0.999683, 103, 155, 118, 170
-0.999683, 85, 19, 100, 34
-0.999684, 273, 165, 288, 180
-0.999684, 113, 167, 128, 182
-0.999685, 115, 15, 130, 30
-0.999686, 31, 73, 46, 88
-0.999687, 303, 215, 318, 230
-0.999687, 53, 177, 68, 192
-0.999688, 163, 45, 178, 60
-0.999689, 67, 181, 82, 196
-0.99969, 95, 69, 110, 84
-0.999691, 39, 39, 54, 54
-0.999691, 423, 39, 438, 54
-0.999691, 265, 35, 280, 50
-0.999691, 29, 39, 44, 54
-0.999691, 261, 229, 276, 244
-0.999691, 299, 147, 314, 162
-0.999692, 295, 259, 310, 274
-0.999692, 13, 37, 28, 52
-0.999693, 161, 23, 176, 38
-0.999693, 101, 145, 116, 160
-0.999693, 97, 35, 112, 50
-0.999693, 99, 79, 114, 94
-0.999695, 265, 181, 280, 196
-0.999696, 105, 73, 120, 88
-0.999698, 313, 47, 328, 62
-0.999698, 279, 219, 294, 234
-0.9997, 269, 225, 284, 240
-0.9997, 299, 235, 314, 250
-0.999701, 149, 49, 164, 64
-0.999704, 289, 215, 304, 230
-0.999704, 67, 37, 82, 52
-0.999704, 331, 25, 346, 40
-0.999705, 153, 39, 168, 54
-0.999705, 131, 75, 146, 90
-0.999706, 295, 265, 310, 280
-0.999706, 325, 217, 340, 232
-0.999707, 213, 121, 228, 136
-0.999707, 109, 19, 124, 34
-0.999707, 253, 231, 268, 246
-0.999708, 95, 87, 110, 102
-0.999708, 1, 163, 16, 178
-0.999708, 149, 33, 164, 48
-0.999708, 85, 43, 100, 58
-0.999709, 149, 101, 164, 116
-0.999709, 275, 41, 290, 56
-0.99971, 303, 31, 318, 46
-0.99971, 93, 75, 108, 90
-0.99971, 443, 13, 458, 28
-0.999711, 429, 31, 444, 46
-0.999712, 331, 161, 346, 176
-0.999712, 105, 79, 120, 94
-0.999712, 111, 153, 126, 168
-0.999712, 317, 213, 332, 228
-0.999713, 299, 197, 314, 212
-0.999714, 337, 167, 352, 182
-0.999714, 439, 19, 454, 34
-0.999714, 93, 43, 108, 58
-0.999722, 1, 25, 16, 40
-0.999723, 5, 145, 20, 160
-0.999724, 115, 21, 130, 36
-0.999724, 313, 147, 328, 162
-0.999724, 305, 145, 320, 160
-0.999724, 139, 29, 154, 44
-0.999725, 359, 17, 374, 32
-0.999725, 103, 167, 118, 182
-0.999726, 317, 167, 332, 182
-0.999729, 281, 37, 296, 52
-0.99973, 5, 81, 20, 96
-0.999733, 143, 45, 158, 60
-0.999738, 319, 149, 334, 164
-0.99974, 325, 155, 340, 170
-0.999743, 55, 53, 70, 68
-0.999744, 1, 91, 16, 106
-0.999745, 107, 147, 122, 162
-0.999748, 99, 43, 114, 58
-0.999753, 339, 23, 354, 38
-0.999753, 225, 121, 240, 136
-0.999754, 141, 39, 156, 54
-0.999755, 307, 51, 322, 66
-0.999757, 219, 121, 234, 136
-0.999763, 449, 19, 464, 34
-0.999763, 295, 213, 310, 228
-0.999767, 109, 33, 124, 48
-0.999769, 1, 99, 16, 114
-0.99977, 313, 179, 328, 194
-0.999771, 309, 189, 324, 204
-0.999772, 109, 173, 124, 188
-0.999795, 207, 121, 222, 136
-0.999797, 353, 19, 368, 34
-0.999814, 105, 39, 120, 54
-0.999827, 347, 21, 362, 36
-0.999832, 233, 65, 264, 320
-0.999863, 469, 65, 500, 320
-0.999866, 261, 1, 292, 256
-0.999868, 185, 1, 216, 256
-0.99997, 369, 273, 496, 333
-1.00005, 365, 1, 396, 256
-1.00011, 397, 1, 428, 256
-1.00016, 457, 33, 488, 288
-1.00019, 381, 1, 412, 128
-1.00025, 165, 81, 196, 208
-1.00028, 337, 65, 368, 320
-1.00028, 437, 49, 468, 176
-1.00035, 209, 97, 240, 224
-1.00042, 413, 65, 444, 320
-1.00073, 221, 1, 252, 256
-1.00094, 209, 65, 240, 320
-1.00095, 369, 113, 400, 240
-1.00096, 445, 145, 476, 272
-1.00096, 201, 209, 264, 333
-1.00097, 401, 97, 432, 224
-1.00103, 229, 49, 260, 176
-1.00104, 197, 1, 228, 256
-1.00112, 353, 177, 480, 240
-1.00121, 409, 161, 440, 288
-1.00136, 133, 209, 164, 333
-1.00147, 345, 49, 376, 176
-1.00149, 361, 49, 392, 176
-1.00152, 169, 209, 232, 333
-1.00156, 221, 145, 252, 272
-1.00162, 197, 17, 228, 144
-1.00174, 381, 97, 412, 224
-1.00178, 185, 1, 216, 128
-1.00182, 117, 209, 148, 333
-1.00221, 181, 97, 212, 224
-1.00243, 217, 65, 280, 320
-1.00258, 369, 145, 432, 272
-1.00263, 141, 145, 172, 272
-1.00274, 413, 65, 444, 192
-1.00299, 177, 1, 240, 128
-1.00426, 185, 1, 248, 256
-1.0044, 113, 161, 240, 288
-1.00455, 153, 145, 216, 272
-1.00578, 185, 161, 248, 288
