1990
-0.486633, 1, 97, 500, 352
-0.588399, 1, 1, 500, 400
-0.614319, 1, 1, 500, 256
-0.616029, 161, 1, 416, 400
-0.635957, 33, 1, 288, 400
-0.656376, 1, 97, 256, 352
-0.721838, 257, 1, 500, 400
-0.722798, 97, 97, 352, 352
-0.797227, 257, 129, 500, 384
-0.835403, 1, 1, 256, 256
-0.887773, 33, 97, 160, 352
-0.89787, 97, 97, 224, 352
-0.901409, 161, 1, 416, 256
-0.909702, 177, 1, 304, 400
-0.909838, 145, 129, 272, 384
-0.91094, 1, 225, 500, 352
-0.915246, 209, 97, 336, 352
-0.915652, 257, 225, 500, 352
-0.91936, 33, 1, 160, 400
-0.920153, 337, 1, 464, 400
-0.920564, 129, 1, 256, 400
-0.921269, 1, 161, 500, 288
-0.923289, 289, 1, 416, 400
-0.923618, 289, 129, 416, 384
-0.924844, 353, 129, 480, 384
-0.928648, 225, 1, 352, 400
-0.929317, 161, 225, 416, 352
-0.929762, 1, 161, 256, 288
-0.931529, 81, 1, 208, 400
-0.9326, 33, 209, 288, 336
-0.938755, 225, 225, 352, 352
-0.941159, 161, 177, 416, 304
-0.942441, 33, 1, 160, 256
-0.943477, 161, 1, 288, 256
-0.944192, 273, 225, 400, 352
-0.948366, 289, 225, 352, 352
-0.950182, 1, 113, 256, 240
-0.951551, 1, 81, 500, 208
-0.951553, 113, 177, 240, 304
-0.952285, 145, 225, 272, 352
-0.952901, 185, 225, 248, 352
-0.952926, 81, 1, 208, 256
-0.955897, 1, 257, 256, 384
-0.956593, 1, 65, 256, 192
-0.957198, 9, 81, 72, 208
-0.95787, 321, 225, 448, 352
-0.958094, 41, 113, 104, 240
-0.958977, 33, 145, 160, 272
-0.959752, 265, 225, 328, 352
-0.960401, 217, 241, 280, 368
-0.961263, 289, 225, 352, 288
-0.961448, 313, 241, 376, 368
-0.961987, 257, 177, 500, 304
-0.96248, 369, 33, 496, 288
-0.962855, 1, 33, 500, 160
-0.962948, 169, 177, 232, 304
-0.962983, 97, 273, 352, 400
-0.963566, 369, 225, 496, 352
-0.963755, 289, 33, 416, 288
-0.964037, 49, 225, 176, 352
-0.964054, 193, 177, 320, 304
-0.964619, 1, 273, 500, 400
-0.965372, 65, 97, 192, 224
-0.9656, 1, 97, 128, 224
-0.966193, 233, 265, 296, 328
-0.966704, 241, 241, 304, 368
-0.966753, 353, 225, 416, 352
-0.967216, 225, 273, 352, 400
-0.967567, 401, 225, 464, 352
-0.967897, 257, 249, 320, 312
-0.967993, 185, 233, 248, 296
-0.968116, 97, 129, 352, 256
-0.96899, 433, 225, 496, 352
-0.969217, 33, 113, 96, 176
-0.970278, 65, 129, 128, 256
-0.970852, 209, 257, 272, 320
-0.971098, 49, 137, 112, 200
-0.9721, 273, 177, 400, 304
-0.972383, 337, 241, 400, 304
-0.972717, 33, 49, 160, 176
-0.972905, 9, 89, 72, 152
-0.973354, 273, 297, 336, 360
-0.973446, 1, 17, 256, 144
-0.973478, 377, 225, 440, 352
-0.973479, 177, 273, 304, 400
-0.973848, 161, 241, 224, 304
-0.973854, 113, 129, 240, 256
-0.974022, 49, 193, 112, 320
-0.974118, 305, 273, 368, 336
-0.974365, 145, 177, 208, 304
-0.974479, 161, 241, 224, 368
-0.975431, 97, 225, 224, 352
-0.975435, 369, 177, 496, 304
-0.975631, 97, 81, 352, 208
-0.975633, 33, 217, 96, 280
-0.975899, 41, 97, 104, 352
-0.975979, 193, 177, 256, 304
-0.975986, 225, 273, 480, 400
-0.976597, 185, 257, 248, 320
-0.976623, 193, 265, 320, 328
-0.97665, 73, 233, 136, 296
-0.976656, 369, 233, 432, 296
-0.976737, 305, 177, 368, 304
-0.976742, 89, 177, 152, 304
-0.97686, 417, 233, 480, 296
-0.976903, 241, 289, 304, 352
-0.976975, 209, 1, 336, 256
-0.976977, 57, 241, 120, 368
-0.977327, 273, 233, 400, 296
-0.977505, 177, 209, 240, 272
-0.977661, 33, 241, 96, 368
-0.977768, 329, 249, 360, 312
-0.978017, 9, 65, 72, 320
-0.978024, 145, 249, 272, 312
-0.978164, 273, 273, 336, 336
-0.978184, 113, 273, 240, 400
-0.978288, 305, 217, 336, 280
-0.9783, 129, 97, 192, 224
-0.978618, 225, 233, 288, 296
-0.978953, 329, 193, 392, 320
-0.979126, 225, 193, 288, 320
-0.97921, 161, 185, 224, 248
-0.979443, 305, 209, 336, 336
-0.979562, 17, 129, 80, 256
-0.979607, 225, 225, 352, 288
-0.979773, 161, 97, 288, 224
-0.979899, 313, 241, 376, 304
-0.97993, 369, 233, 496, 296
-0.979932, 281, 249, 344, 312
-0.980014, 1, 241, 128, 368
-0.980056, 53, 113, 84, 176
-0.98025, 193, 273, 256, 400
-0.980381, 433, 177, 496, 304
-0.980446, 177, 225, 304, 288
-0.980465, 321, 177, 448, 304
-0.980542, 1, 177, 64, 304
-0.980673, 33, 97, 64, 160
-0.980674, 57, 113, 88, 240
-0.98092, 393, 233, 456, 296
-0.981231, 321, 209, 384, 272
-0.981419, 1, 193, 128, 320
-0.981422, 73, 137, 104, 200
-0.981498, 97, 241, 160, 304
-0.98157, 225, 241, 256, 368
-0.982026, 73, 145, 136, 208
-0.982081, 265, 177, 328, 304
-0.982109, 97, 225, 160, 352
-0.982138, 345, 241, 376, 304
-0.982527, 9, 113, 72, 176
-0.982621, 9, 73, 40, 136
-0.982623, 9, 65, 40, 192
-0.98273, 209, 289, 336, 352
-0.982734, 41, 97, 72, 224
-0.982753, 185, 241, 216, 304
-0.982759, 129, 225, 192, 288
-0.982908, 113, 209, 240, 272
-0.982912, 25, 81, 56, 208
-0.982967, 269, 257, 300, 320
-0.98311, 65, 129, 192, 192
-0.983112, 409, 209, 472, 272
-0.983177, 325, 241, 356, 368
-0.983191, 21, 81, 52, 144
-0.983342, 73, 113, 136, 176
-0.983744, 305, 209, 432, 272
-0.983892, 113, 65, 240, 192
-0.983954, 377, 177, 440, 304
-0.984031, 89, 129, 152, 256
-0.984063, 1, 65, 64, 128
-0.984066, 33, 65, 96, 192
-0.984067, 209, 225, 240, 352
-0.984119, 345, 225, 376, 352
-0.984124, 281, 289, 312, 352
-0.984284, 9, 17, 72, 144
-0.984376, 1, 177, 64, 240
-0.984469, 257, 33, 500, 288
-0.984497, 69, 129, 100, 256
-0.984554, 49, 241, 176, 304
-0.984608, 197, 177, 228, 304
-0.98461, 217, 233, 248, 296
-0.984749, 1, 121, 128, 184
-0.98479, 281, 257, 312, 320
-0.984877, 293, 225, 324, 352
-0.984888, 465, 225, 496, 288
-0.984918, 269, 241, 300, 368
-0.984955, 401, 177, 464, 304
-0.984985, 41, 257, 104, 320
-0.98513, 177, 129, 240, 384
-0.985294, 113, 177, 240, 240
-0.985377, 81, 81, 144, 208
-0.985411, 321, 233, 448, 296
-0.9856, 137, 249, 200, 312
-0.985634, 177, 177, 208, 304
-0.985639, 177, 113, 240, 240
-0.985643, 129, 65, 192, 320
-0.985711, 293, 289, 324, 352
-0.985724, 257, 257, 384, 320
-0.985739, 237, 265, 268, 328
-0.98583, 73, 129, 136, 384
-0.985845, 97, 233, 224, 296
-0.985862, 265, 225, 328, 288
-0.986031, 121, 225, 184, 352
-0.986175, 377, 209, 440, 272
-0.986305, 33, 209, 160, 272
-0.986324, 257, 265, 288, 328
-0.986353, 353, 177, 416, 304
-0.986418, 449, 225, 480, 352
-0.986444, 25, 137, 88, 200
-0.986551, 225, 257, 256, 320
-0.986606, 305, 273, 432, 400
-0.986734, 129, 289, 256, 352
-0.986889, 433, 209, 496, 272
-0.987008, 429, 225, 460, 352
-0.987163, 101, 225, 132, 288
-0.987228, 237, 257, 268, 384
-0.987237, 25, 193, 88, 320
-0.987258, 357, 225, 388, 352
-0.987279, 197, 249, 228, 312
-0.987324, 205, 217, 236, 280
-0.987343, 257, 297, 384, 360
-0.987364, 17, 145, 144, 208
-0.987385, 65, 105, 192, 168
-0.98741, 17, 97, 144, 160
-0.987425, 281, 241, 312, 368
-0.987535, 217, 289, 280, 352
-0.987626, 193, 129, 448, 256
-0.98765, 137, 161, 200, 224
-0.987709, 465, 225, 496, 352
-0.987754, 193, 225, 224, 352
-0.987816, 353, 209, 480, 272
-0.987829, 297, 129, 360, 384
-0.987874, 357, 241, 388, 304
-0.987975, 193, 201, 320, 264
-0.988153, 369, 225, 400, 352
-0.988168, 97, 209, 160, 272
-0.988188, 417, 225, 448, 352
-0.98819, 257, 257, 288, 384
-0.988193, 81, 153, 208, 216
-0.988226, 449, 225, 480, 288
-0.988334, 317, 225, 348, 288
-0.988385, 161, 265, 224, 328
-0.988475, 57, 65, 120, 192
-0.988558, 381, 233, 412, 296
-0.988587, 433, 233, 464, 296
-0.988646, 329, 225, 360, 288
-0.988785, 49, 161, 112, 224
-0.988888, 433, 129, 496, 384
-0.988914, 345, 217, 408, 280
-0.989165, 1, 1, 64, 400
-0.989199, 169, 289, 232, 352
-0.989239, 65, 193, 128, 256
-0.989341, 369, 233, 400, 296
-0.989353, 1, 1, 128, 128
-0.989553, 45, 193, 76, 320
-0.989592, 321, 297, 384, 360
-0.98962, 289, 241, 352, 272
-0.989668, 225, 281, 256, 344
-0.989688, 405, 225, 436, 352
-0.989696, 97, 137, 160, 200
-0.989708, 201, 97, 264, 352
-0.989735, 329, 129, 392, 384
-0.989773, 153, 129, 216, 384
-0.989869, 85, 145, 116, 208
-0.989901, 273, 301, 336, 332
-0.989906, 137, 273, 200, 336
-0.989942, 173, 249, 204, 312
-0.989964, 105, 97, 168, 352
-0.989964, 401, 129, 464, 384
-0.989984, 1, 241, 64, 304
-0.990085, 381, 225, 412, 352
-0.990209, 97, 265, 224, 328
-0.990228, 81, 241, 112, 304
-0.990254, 181, 225, 212, 352
-0.990285, 1, 169, 128, 232
-0.990293, 393, 225, 424, 352
-0.990302, 293, 233, 324, 296
-0.990353, 265, 273, 328, 400
-0.990367, 417, 233, 448, 296
-0.990377, 73, 257, 136, 320
-0.990415, 317, 273, 348, 336
-0.990416, 177, 245, 240, 276
-0.990468, 41, 209, 72, 272
-0.99047, 153, 129, 216, 256
-0.990474, 257, 233, 500, 296
-0.990493, 325, 177, 356, 304
-0.990516, 257, 261, 320, 292
-0.990543, 33, 73, 160, 136
-0.990584, 393, 233, 424, 296
-0.990644, 89, 145, 120, 272
-0.990674, 297, 229, 360, 260
-0.990745, 353, 281, 416, 344
-0.990756, 89, 185, 152, 248
-0.990847, 1, 257, 128, 320
-0.990852, 257, 201, 320, 264
-0.990927, 25, 121, 88, 152
-0.990951, 97, 33, 352, 160
-0.990971, 1, 93, 64, 124
-0.990993, 265, 289, 328, 320
-0.991003, 193, 257, 256, 288
-0.991003, 97, 233, 352, 296
-0.991003, 49, 145, 112, 176
-0.991023, 349, 217, 380, 280
-0.99104, 41, 241, 72, 368
-0.991101, 49, 133, 112, 164
-0.99114, 9, 177, 40, 240
-0.99116, 377, 129, 440, 384
-0.991179, 353, 129, 416, 384
-0.991182, 17, 109, 80, 140
-0.991193, 225, 129, 288, 384
-0.991196, 69, 193, 100, 320
-0.991202, 405, 233, 436, 296
-0.991205, 225, 269, 288, 300
-0.991212, 189, 177, 220, 240
-0.99122, 241, 297, 304, 328
-0.991313, 73, 237, 136, 268
-0.991319, 345, 241, 408, 272
-0.991356, 213, 257, 244, 320
-0.991389, 321, 245, 384, 276
-0.991422, 321, 229, 384, 260
-0.991424, 201, 269, 264, 300
-0.991443, 73, 249, 136, 280
-0.991446, 241, 209, 272, 336
-0.991448, 161, 137, 288, 200
-0.991489, 145, 253, 208, 284
-0.991511, 117, 241, 148, 304
-0.991513, 313, 293, 376, 324
-0.991524, 425, 233, 488, 264
-0.991535, 369, 237, 432, 268
-0.991573, 97, 241, 160, 272
-0.991594, 85, 225, 116, 352
-0.991611, 185, 233, 248, 264
-0.99165, 225, 253, 288, 284
-0.991681, 169, 137, 232, 200
-0.991782, 289, 253, 352, 284
-0.991796, 33, 213, 96, 244
-0.991834, 41, 1, 104, 400
-0.991867, 217, 297, 280, 328
-0.991872, 225, 285, 288, 316
-0.991879, 341, 265, 372, 328
-0.991884, 169, 257, 232, 288
-0.991906, 273, 229, 336, 260
-0.991915, 129, 237, 192, 268
-0.991916, 393, 237, 456, 268
-0.991919, 73, 149, 136, 180
-0.991921, 49, 185, 176, 248
-0.991976, 253, 209, 284, 336
-0.991988, 369, 273, 496, 336
-0.992034, 65, 113, 96, 176
-0.992075, 1, 49, 128, 112
-0.992078, 209, 313, 336, 376
-0.992141, 161, 161, 224, 224
-0.992187, 89, 137, 152, 168
-0.992201, 305, 305, 368, 336
-0.992216, 41, 245, 104, 276
-0.992243, 1, 17, 32, 144
-0.992261, 1, 81, 64, 112
-0.992276, 257, 129, 320, 384
-0.992277, 201, 209, 264, 272
-0.992278, 305, 225, 336, 256
-0.992285, 49, 157, 112, 188
-0.992285, 25, 257, 88, 288
-0.992295, 113, 129, 240, 192
-0.992297, 177, 293, 240, 324
-0.992315, 161, 185, 224, 216
-0.992342, 177, 1, 240, 400
-0.99235, 217, 1, 280, 400
-0.992371, 53, 65, 84, 192
-0.992373, 121, 113, 184, 176
-0.992408, 201, 281, 264, 312
-0.99242, 297, 297, 360, 360
-0.99243, 345, 289, 408, 320
-0.992439, 289, 289, 352, 320
-0.992472, 41, 257, 72, 320
-0.992495, 113, 177, 176, 304
-0.992497, 177, 269, 240, 300
-0.992504, 113, 105, 240, 168
-0.992513, 1, 217, 64, 280
-0.992543, 81, 125, 144, 156
-0.992546, 289, 297, 320, 328
-0.992568, 461, 177, 492, 304
-0.992574, 297, 277, 360, 308
-0.992609, 277, 297, 308, 328
-0.992629, 225, 241, 288, 272
-0.992638, 121, 269, 184, 300
-0.992639, 73, 141, 104, 172
-0.99264, 1, 201, 64, 232
-0.992651, 161, 33, 224, 288
-0.992655, 345, 245, 376, 276
-0.992657, 49, 121, 112, 152
-0.99269, 233, 309, 296, 340
-0.992691, 137, 273, 200, 400
-0.992693, 81, 217, 112, 280
-0.992695, 161, 313, 288, 376
-0.992706, 105, 257, 168, 288
-0.992707, 161, 33, 288, 160
-0.99271, 97, 229, 160, 260
-0.992719, 21, 185, 52, 248
-0.992727, 469, 265, 500, 328
-0.992745, 433, 273, 496, 336
-0.992769, 349, 285, 380, 316
-0.99277, 185, 245, 216, 276
-0.99278, 265, 249, 328, 280
-0.992809, 61, 129, 92, 160
-0.99281, 201, 245, 264, 276
-0.992811, 425, 1, 488, 400
-0.99282, 57, 261, 120, 292
-0.992828, 237, 233, 268, 296
-0.992831, 73, 161, 136, 192
-0.992843, 177, 217, 240, 248
-0.992845, 49, 117, 80, 148
-0.992854, 417, 221, 480, 252
-0.992856, 33, 185, 96, 248
-0.992858, 329, 253, 360, 284
-0.992876, 249, 237, 312, 268
-0.992881, 25, 97, 88, 128
-0.992882, 169, 205, 232, 236
-0.992883, 385, 225, 448, 256
-0.992888, 249, 273, 312, 304
-0.992907, 273, 261, 304, 292
-0.99291, 1, 53, 64, 84
-0.992912, 301, 301, 332, 332
-0.992924, 313, 265, 376, 296
-0.992929, 33, 101, 64, 132
-0.992964, 209, 309, 272, 340
-0.992976, 37, 49, 68, 176
-0.992981, 17, 137, 80, 168
-0.992992, 313, 301, 344, 332
-0.993001, 21, 89, 52, 120
-0.993017, 1, 181, 64, 212
-0.993023, 153, 281, 216, 312
-0.993033, 33, 225, 96, 256
-0.993051, 241, 269, 272, 300
-0.993057, 9, 77, 40, 108
-0.993057, 437, 233, 468, 264
-0.993064, 49, 97, 112, 128
-0.993071, 437, 209, 468, 272
-0.993073, 329, 305, 392, 336
-0.993077, 217, 249, 248, 280
-0.993079, 101, 237, 132, 268
-0.993092, 209, 233, 240, 264
-0.993097, 105, 313, 168, 376
-0.9931, 49, 197, 112, 228
-0.993104, 249, 313, 312, 376
-0.993112, 433, 273, 496, 304
-0.993114, 113, 313, 176, 344
-0.993119, 337, 301, 368, 332
-0.993119, 209, 273, 240, 400
-0.993122, 197, 249, 228, 280
-0.993125, 365, 241, 396, 272
-0.993126, 33, 81, 96, 112
-0.993136, 117, 249, 148, 280
-0.993142, 17, 65, 80, 96
-0.993144, 277, 285, 308, 316
-0.993144, 225, 305, 256, 336
-0.99315, 221, 261, 252, 292
-0.99315, 385, 237, 416, 268
-0.993153, 449, 233, 480, 264
-0.993155, 393, 1, 456, 400
-0.993159, 25, 149, 88, 180
-0.993175, 177, 281, 240, 312
-0.99318, 153, 241, 216, 272
-0.993187, 257, 217, 320, 248
-0.993193, 349, 297, 380, 328
-0.993193, 329, 233, 360, 264
-0.993198, 85, 149, 116, 180
-0.993202, 417, 237, 448, 268
-0.993204, 161, 209, 416, 272
-0.993205, 1, 245, 64, 276
-0.993214, 65, 257, 96, 384
-0.993218, 185, 305, 248, 336
-0.993219, 297, 285, 328, 316
-0.99322, 65, 109, 128, 140
-0.993222, 465, 233, 496, 264
-0.993223, 353, 277, 416, 308
-0.993224, 137, 177, 200, 208
-0.99323, 313, 217, 376, 248
-0.993232, 313, 1, 376, 400
-0.993253, 281, 309, 312, 340
-0.993259, 41, 209, 72, 240
-0.993262, 57, 221, 120, 252
-0.993263, 273, 313, 336, 344
-0.993268, 89, 201, 152, 232
-0.993271, 81, 249, 112, 280
-0.993279, 69, 81, 100, 208
-0.993282, 405, 237, 436, 268
-0.993283, 253, 273, 284, 304
-0.993288, 137, 165, 200, 196
-0.993294, 65, 209, 128, 240
-0.993304, 41, 109, 104, 140
-0.993307, 173, 249, 204, 280
-0.993315, 265, 297, 296, 328
-0.993317, 201, 193, 264, 224
-0.993317, 217, 221, 280, 252
-0.993319, 9, 177, 40, 208
-0.993327, 305, 237, 336, 268
-0.993337, 369, 1, 432, 400
-0.99334, 185, 185, 216, 216
-0.993342, 277, 225, 308, 288
-0.993345, 1, 65, 32, 96
-0.993347, 45, 105, 76, 136
-0.993355, 33, 269, 96, 300
-0.993356, 1, 125, 64, 156
-0.993356, 81, 237, 112, 268
-0.99336, 41, 257, 72, 288
-0.993366, 89, 189, 152, 220
-0.993367, 317, 241, 348, 272
-0.993376, 341, 265, 372, 296
-0.993376, 97, 149, 160, 180
-0.993378, 437, 177, 468, 304
-0.993379, 289, 273, 352, 400
-0.99338, 9, 213, 72, 244
-0.993381, 49, 89, 112, 152
-0.993382, 89, 313, 152, 344
-0.993385, 137, 257, 168, 288
-0.993387, 201, 265, 232, 296
-0.993388, 61, 265, 92, 296
-0.99339, 209, 301, 240, 332
-0.993394, 345, 229, 408, 260
-0.993394, 225, 293, 256, 324
-0.993396, 189, 265, 220, 296
-0.993398, 193, 177, 320, 240
-0.993398, 261, 261, 292, 292
-0.9934, 77, 161, 108, 192
-0.993406, 65, 249, 96, 280
-0.993408, 97, 141, 128, 172
-0.993413, 469, 273, 500, 304
-0.993416, 161, 173, 224, 204
-0.993421, 129, 245, 160, 276
-0.99343, 285, 253, 316, 284
-0.993432, 117, 229, 148, 260
-0.993435, 277, 193, 308, 320
-0.993437, 1, 257, 64, 288
-0.993444, 61, 257, 92, 320
-0.993449, 89, 161, 120, 192
-0.993459, 345, 233, 376, 264
-0.99347, 121, 133, 184, 164
-0.993474, 205, 217, 236, 248
-0.993475, 257, 285, 288, 316
-0.993477, 209, 289, 240, 320
-0.993477, 297, 249, 328, 280
-0.993478, 361, 285, 392, 316
-0.993483, 57, 209, 88, 336
-0.993485, 349, 309, 380, 340
-0.99349, 105, 249, 136, 280
-0.993495, 97, 269, 160, 300
-0.993501, 97, 217, 160, 248
-0.993505, 29, 253, 60, 284
-0.993506, 161, 257, 192, 288
-0.993508, 281, 241, 312, 272
-0.993508, 329, 289, 360, 320
-0.993511, 117, 177, 148, 304
-0.993511, 225, 281, 256, 312
-0.993525, 237, 293, 268, 324
-0.99353, 9, 197, 40, 228
-0.993537, 269, 305, 300, 368
-0.993538, 149, 269, 180, 300
-0.993543, 177, 261, 208, 292
-0.993544, 361, 301, 424, 332
-0.993553, 137, 225, 200, 256
-0.993555, 145, 297, 208, 360
-0.993558, 461, 221, 492, 252
-0.993559, 249, 241, 280, 304
-0.99356, 185, 233, 216, 264
-0.993564, 317, 289, 348, 320
-0.993568, 157, 245, 188, 276
-0.993574, 149, 257, 180, 288
-0.993576, 65, 221, 96, 252
-0.993578, 129, 241, 160, 304
-0.99359, 425, 225, 456, 256
-0.99359, 249, 257, 280, 288
-0.99359, 401, 273, 464, 304
-0.993596, 161, 65, 224, 192
-0.993597, 413, 225, 444, 256
-0.993597, 21, 197, 52, 228
-0.993602, 121, 313, 152, 344
-0.993605, 237, 257, 268, 288
-0.993606, 129, 149, 192, 180
-0.993608, 57, 149, 88, 180
-0.99361, 25, 201, 88, 232
-0.993612, 445, 221, 476, 252
-0.993618, 93, 249, 124, 280
-0.993619, 137, 309, 200, 340
-0.993623, 325, 221, 356, 252
-0.993624, 169, 153, 232, 184
-0.993631, 137, 201, 200, 264
-0.993631, 137, 269, 168, 300
-0.993632, 73, 261, 104, 292
-0.993632, 305, 213, 336, 244
-0.993635, 361, 229, 392, 260
-0.993636, 41, 137, 72, 168
-0.993644, 73, 129, 104, 160
-0.993647, 29, 209, 60, 240
-0.993649, 297, 313, 328, 344
-0.993649, 193, 285, 224, 316
-0.99365, 169, 277, 200, 308
-0.993652, 401, 225, 432, 256
-0.993652, 125, 261, 156, 292
-0.993653, 245, 305, 276, 336
-0.993653, 89, 177, 152, 208
-0.993656, 5, 141, 36, 172
-0.993656, 237, 281, 268, 312
-0.993657, 21, 185, 52, 216
-0.993657, 213, 277, 244, 308
-0.993659, 433, 285, 496, 316
-0.993661, 273, 277, 336, 308
-0.993662, 137, 229, 168, 260
-0.993663, 145, 269, 208, 300
-0.993663, 449, 277, 480, 308
-0.993665, 53, 217, 84, 248
-0.993667, 53, 253, 84, 284
-0.993667, 325, 301, 356, 332
-0.993668, 269, 309, 300, 340
-0.993669, 57, 365, 120, 396
-0.993673, 61, 205, 92, 236
-0.993675, 89, 129, 120, 160
-0.993677, 221, 237, 252, 268
-0.993679, 361, 297, 392, 328
-0.993679, 133, 313, 164, 344
-0.99368, 61, 117, 92, 148
-0.993681, 193, 205, 224, 236
-0.993708, 137, 197, 200, 228
-0.993726, 281, 217, 344, 248
-0.993729, 105, 325, 168, 356
-0.993765, 121, 109, 184, 140
-0.993769, 9, 161, 72, 192
-0.993786, 161, 141, 224, 172
-0.993792, 449, 177, 480, 304
-0.993824, 337, 1, 400, 400
-0.993825, 97, 257, 352, 320
-0.993857, 293, 265, 324, 328
-0.993859, 353, 177, 384, 304
-0.993896, 1, 249, 256, 312
-0.993901, 265, 1, 328, 400
-0.993947, 49, 265, 176, 328
-0.993955, 129, 209, 160, 336
-0.994016, 1, 209, 256, 272
-0.994093, 209, 297, 240, 360
-0.994141, 341, 177, 372, 304
-0.994222, 65, 217, 96, 280
-0.994226, 409, 265, 472, 328
-0.994248, 65, 273, 192, 400
-0.994251, 129, 1, 192, 400
-0.994301, 101, 225, 132, 352
-0.99431, 289, 1, 352, 400
-0.994353, 349, 289, 380, 352
-0.9944, 1, 49, 32, 112
-0.994411, 193, 305, 256, 368
-0.994432, 73, 161, 104, 224
-0.994445, 1, 241, 64, 368
-0.994459, 9, 105, 40, 168
-0.994466, 81, 33, 144, 288
-0.994496, 21, 33, 52, 160
-0.994516, 121, 137, 184, 200
-0.994523, 421, 209, 452, 272
-0.994581, 305, 289, 432, 352
-0.99459, 113, 273, 176, 336
-0.994592, 129, 81, 256, 144
-0.994648, 405, 209, 436, 272
-0.994655, 153, 1, 216, 400
-0.994677, 221, 305, 252, 368
-0.994679, 197, 273, 228, 336
-0.994679, 237, 289, 268, 352
-0.994697, 273, 245, 400, 276
-0.99472, 25, 65, 88, 128
-0.994722, 177, 177, 208, 240
-0.99477, 221, 193, 252, 320
-0.99478, 269, 281, 300, 344
-0.994791, 201, 177, 264, 240
-0.994792, 97, 337, 224, 400
-0.994804, 49, 89, 80, 152
-0.994812, 305, 161, 336, 288
-0.994816, 65, 1, 128, 400
-0.994829, 117, 241, 148, 368
-0.994853, 1, 169, 256, 232
-0.994938, 381, 209, 412, 272
-0.994961, 83, 137, 98, 200
-0.99497, 325, 201, 356, 264
-0.994981, 117, 209, 148, 272
-0.994988, 297, 201, 360, 264
-0.995001, 209, 297, 336, 328
-0.995039, 33, 73, 64, 136
-0.995042, 161, 113, 288, 176
-0.995044, 81, 313, 208, 376
-0.995048, 313, 297, 344, 360
-0.995062, 161, 257, 192, 320
-0.995068, 169, 241, 200, 368
-0.995072, 61, 137, 92, 200
-0.995072, 9, 41, 72, 104
-0.995107, 1, 233, 128, 296
-0.99514, 193, 281, 256, 344
-0.995168, 105, 1, 168, 400
-0.995192, 185, 217, 216, 280
-0.995215, 33, 113, 288, 176
-0.995224, 241, 1, 304, 400
-0.99523, 145, 257, 272, 288
-0.995248, 257, 209, 500, 272
-0.995295, 9, 177, 40, 304
-0.995295, 257, 257, 500, 320
-0.995325, 193, 297, 448, 360
-0.99536, 41, 1, 104, 256
-0.995371, 225, 233, 352, 264
-0.995403, 273, 229, 400, 260
-0.995411, 1, 145, 256, 208
-0.995441, 1, 209, 500, 272
-0.995475, 305, 265, 432, 328
-0.995497, 393, 209, 424, 272
-0.995519, 287, 289, 302, 352
-0.995547, 389, 177, 420, 304
-0.995557, 353, 237, 480, 268
-0.995576, 1, 81, 256, 144
-0.995579, 165, 177, 196, 304
-0.995579, 409, 177, 440, 304
-0.995583, 281, 313, 312, 376
-0.995601, 25, 161, 88, 224
-0.99563, 297, 273, 328, 400
-0.995651, 193, 129, 224, 256
-0.995665, 53, 257, 84, 384
-0.995678, 331, 249, 346, 312
-0.99568, 257, 201, 384, 264
-0.99569, 105, 177, 136, 304
-0.99569, 67, 121, 82, 184
-0.995701, 77, 129, 92, 192
-0.995735, 351, 241, 366, 304
-0.995771, 97, 289, 352, 352
-0.995776, 257, 301, 384, 332
-0.995777, 457, 249, 488, 312
-0.995784, 181, 129, 212, 256
-0.995801, 177, 245, 304, 276
-0.995804, 1, 241, 500, 304
-0.995808, 59, 113, 74, 176
-0.99582, 185, 265, 216, 328
-0.995844, 53, 105, 68, 168
-0.995847, 365, 209, 396, 272
-0.995887, 293, 289, 308, 352
-0.995897, 365, 177, 396, 304
-0.995908, 345, 241, 360, 304
-0.995913, 225, 209, 288, 272
-0.995974, 13, 113, 44, 240
-0.995979, 57, 337, 120, 400
-0.995983, 29, 241, 60, 368
-0.996008, 421, 177, 452, 304
-0.99604, 239, 265, 254, 328
-0.996053, 45, 97, 60, 160
-0.996087, 33, 313, 160, 376
-0.996125, 97, 185, 352, 248
-0.996125, 81, 289, 208, 352
-0.996136, 305, 225, 320, 288
-0.996142, 97, 245, 224, 276
-0.996143, 129, 321, 192, 384
-0.996162, 37, 89, 52, 152
-0.99619, 105, 81, 168, 208
-0.996199, 89, 193, 120, 256
-0.996204, 321, 225, 336, 288
-0.996232, 19, 73, 34, 136
-0.996256, 201, 241, 216, 304
-0.996285, 49, 233, 80, 296
-0.996307, 291, 257, 306, 320
-0.996314, 11, 65, 26, 128
-0.996326, 273, 257, 288, 320
-0.996351, 27, 81, 42, 144
-0.996352, 209, 177, 240, 304
-0.996362, 201, 129, 264, 256
-0.996365, 161, 49, 288, 112
-0.996369, 3, 57, 18, 120
-0.996386, 1, 153, 64, 216
-0.99639, 469, 201, 500, 264
-0.996402, 187, 241, 202, 304
-0.996423, 133, 97, 164, 224
-0.996438, 173, 153, 204, 216
-0.996442, 65, 133, 192, 164
-0.996444, 225, 257, 352, 288
-0.996466, 33, 253, 160, 284
-0.996479, 283, 257, 298, 320
-0.996492, 193, 81, 448, 208
-0.996494, 481, 273, 496, 336
-0.996511, 249, 265, 264, 328
-0.99657, 465, 225, 480, 288
-0.996587, 357, 241, 372, 304
-0.9966, 329, 273, 392, 336
-0.996603, 93, 121, 124, 184
-0.996611, 225, 245, 352, 276
-0.996615, 377, 177, 408, 304
-0.996643, 137, 81, 200, 144
-0.996679, 459, 225, 474, 288
-0.996728, 89, 145, 104, 208
-0.996744, 29, 129, 60, 256
-0.996769, 207, 249, 222, 312
-0.996777, 347, 265, 362, 328
-0.996783, 21, 57, 52, 120
-0.99679, 81, 149, 208, 180
-0.996793, 263, 273, 278, 336
-0.996798, 339, 249, 354, 312
-0.996803, 137, 49, 200, 176
-0.996806, 315, 217, 330, 280
-0.996833, 449, 201, 480, 264
-0.996853, 357, 289, 372, 352
-0.996853, 383, 233, 398, 296
-0.996855, 299, 233, 314, 296
-0.996865, 273, 289, 400, 320
-0.996866, 17, 121, 144, 152
-0.996867, 443, 233, 458, 296
-0.9969, 193, 241, 208, 304
-0.996908, 129, 241, 144, 304
-0.996915, 483, 225, 498, 288
-0.996916, 129, 229, 256, 260
-0.996936, 233, 257, 248, 320
-0.996949, 189, 273, 220, 400
-0.99695, 299, 289, 314, 352
-0.996951, 201, 193, 232, 256
-0.996964, 21, 217, 52, 280
-0.996974, 113, 205, 240, 236
-0.996976, 449, 233, 464, 296
-0.996979, 213, 257, 228, 320
-0.996995, 255, 265, 270, 328
-0.997005, 193, 1, 256, 256
-0.997011, 471, 225, 486, 288
-0.997013, 193, 285, 320, 316
-0.997028, 161, 269, 288, 300
-0.997029, 209, 221, 336, 252
-0.997038, 113, 185, 240, 216
-0.99704, 293, 177, 324, 304
-0.997058, 305, 273, 336, 336
-0.99706, 29, 249, 60, 312
-0.997075, 425, 233, 440, 296
-0.997081, 193, 309, 320, 340
-0.997105, 129, 313, 160, 376
-0.997116, 1, 57, 256, 120
-0.997143, 129, 301, 256, 332
-0.997159, 1, 133, 128, 164
-0.997165, 437, 233, 452, 296
-0.997187, 431, 233, 446, 296
-0.997192, 33, 109, 160, 140
-0.997204, 181, 249, 196, 312
-0.997207, 477, 225, 492, 288
-0.997215, 419, 233, 434, 296
-0.997242, 223, 233, 238, 296
-0.997267, 409, 233, 424, 296
-0.997272, 25, 193, 56, 320
-0.997278, 307, 289, 322, 352
-0.997281, 313, 297, 328, 360
-0.997301, 129, 217, 256, 248
-0.997306, 375, 241, 390, 304
-0.997314, 77, 113, 108, 176
-0.997316, 355, 265, 370, 328
-0.997326, 97, 113, 160, 176
-0.997347, 129, 217, 160, 280
-0.99735, 293, 297, 308, 328
-0.997369, 229, 297, 244, 360
-0.997376, 33, 145, 160, 176
-0.997392, 325, 273, 340, 336
-0.99742, 281, 289, 296, 352
-0.997428, 49, 137, 80, 200
-0.997431, 395, 233, 410, 296
-0.997451, 287, 297, 302, 328
-0.99747, 113, 273, 176, 400
-0.997484, 363, 241, 378, 304
-0.997491, 337, 289, 368, 352
-0.997506, 389, 233, 404, 296
-0.997508, 321, 225, 448, 256
-0.997512, 107, 225, 122, 288
-0.997513, 225, 269, 352, 300
-0.997513, 403, 233, 418, 296
-0.997538, 81, 257, 208, 288
-0.997543, 33, 237, 160, 268
-0.997548, 123, 241, 138, 304
-0.997558, 5, 137, 36, 200
-0.997594, 69, 193, 100, 256
-0.997598, 19, 177, 34, 240
-0.997603, 95, 145, 110, 208
-0.997608, 353, 297, 480, 360
-0.99761, 213, 217, 228, 280
-0.997613, 97, 153, 128, 216
-0.997615, 239, 289, 254, 352
-0.997631, 223, 297, 238, 360
-0.997639, 369, 241, 384, 304
-0.997659, 1, 273, 256, 336
-0.997661, 297, 257, 312, 320
-0.99767, 337, 225, 352, 288
-0.997673, 17, 337, 144, 400
-0.99768, 331, 225, 346, 288
-0.997687, 341, 249, 356, 280
-0.99769, 81, 161, 208, 192
-0.997693, 351, 217, 366, 280
-0.9977, 17, 97, 144, 128
-0.997708, 73, 97, 104, 352
-0.997719, 89, 233, 104, 296
-0.997738, 33, 213, 160, 244
-0.997748, 229, 233, 244, 296
-0.997767, 33, 265, 160, 296
-0.99777, 177, 289, 208, 352
-0.997771, 161, 145, 416, 208
-0.997776, 11, 169, 26, 232
-0.997778, 345, 217, 360, 280
-0.997783, 83, 141, 98, 172
-0.997785, 193, 177, 208, 240
-0.997785, 453, 209, 468, 272
-0.997786, 41, 65, 72, 320
-0.997805, 45, 257, 60, 320
-0.99781, 169, 129, 200, 256
-0.997813, 93, 153, 108, 184
-0.997824, 145, 113, 208, 176
-0.997825, 307, 201, 322, 264
-0.997828, 345, 305, 408, 368
-0.997828, 37, 129, 68, 192
-0.997856, 273, 257, 400, 288
-0.997882, 349, 245, 364, 276
-0.997895, 315, 301, 330, 332
-0.997898, 447, 209, 462, 272
-0.997903, 353, 265, 384, 328
-0.997904, 61, 257, 76, 320
-0.997904, 275, 289, 290, 352
-0.997922, 309, 225, 324, 256
-0.997924, 97, 313, 352, 376
-0.997933, 319, 225, 334, 256
-0.997934, 257, 289, 288, 352
-0.997935, 429, 209, 444, 272
-0.997941, 359, 285, 374, 316
-0.997956, 83, 161, 98, 224
-0.997956, 363, 289, 378, 352
-0.997966, 89, 97, 120, 224
-0.997966, 117, 129, 148, 256
-0.998005, 177, 337, 304, 400
-0.998008, 189, 265, 204, 328
-0.998009, 225, 33, 480, 160
-0.99801, 65, 121, 192, 152
-0.998014, 439, 209, 454, 272
-0.998015, 135, 233, 150, 296
-0.998025, 319, 289, 334, 352
-0.998031, 199, 177, 214, 240
-0.998035, 249, 289, 264, 352
-0.998043, 21, 65, 52, 320
-0.998044, 419, 209, 434, 272
-0.998047, 49, 201, 176, 232
-0.998047, 25, 177, 40, 240
-0.99805, 373, 217, 388, 280
-0.998053, 115, 241, 130, 304
-0.998057, 69, 225, 84, 288
-0.998066, 45, 209, 60, 272
-0.99807, 265, 233, 296, 296
-0.998072, 329, 145, 392, 272
-0.998073, 261, 249, 276, 312
-0.998075, 207, 209, 222, 272
-0.998088, 283, 285, 298, 316
-0.998088, 1, 65, 128, 96
-0.998095, 369, 221, 496, 252
-0.998098, 291, 225, 306, 288
-0.998102, 73, 257, 88, 320
-0.998107, 185, 129, 216, 384
-0.998111, 79, 241, 94, 304
-0.998112, 57, 97, 88, 352
-0.998123, 33, 185, 48, 248
-0.998127, 77, 133, 92, 164
-0.99813, 97, 249, 112, 312
-0.998141, 409, 209, 424, 272
-0.998143, 321, 201, 336, 264
-0.998144, 97, 173, 224, 204
-0.998149, 231, 305, 246, 336
-0.998159, 299, 297, 314, 328
-0.998164, 57, 161, 88, 288
-0.998173, 219, 265, 234, 328
-0.998204, 449, 273, 480, 336
-0.998205, 403, 209, 418, 272
-0.998207, 357, 217, 372, 280
-0.998209, 219, 209, 234, 272
-0.998215, 67, 265, 82, 328
-0.998219, 281, 301, 296, 332
-0.998224, 165, 225, 196, 288
-0.998225, 309, 301, 324, 332
-0.998237, 193, 209, 320, 240
-0.998246, 189, 217, 204, 280
-0.998251, 83, 113, 98, 176
-0.998253, 353, 293, 368, 324
-0.998258, 89, 121, 104, 184
-0.998259, 329, 259, 360, 274
-0.998261, 69, 157, 100, 172
-0.998261, 277, 313, 308, 328
-0.998261, 137, 241, 168, 256
-0.998262, 245, 299, 276, 314
-0.998262, 341, 253, 372, 268
-0.998262, 113, 241, 144, 256
-0.998262, 125, 315, 156, 330
-0.998263, 177, 255, 208, 270
-0.998264, 81, 145, 112, 160
-0.998264, 445, 279, 476, 294
-0.998266, 317, 227, 348, 242
-0.998269, 349, 285, 380, 300
-0.998269, 237, 265, 268, 280
-0.99827, 221, 283, 252, 298
-0.998271, 37, 265, 68, 280
-0.998271, 365, 299, 396, 314
-0.998274, 201, 217, 232, 232
-0.998274, 273, 233, 288, 296
-0.998276, 209, 297, 240, 312
-0.998276, 285, 259, 316, 274
-0.998277, 209, 279, 240, 294
-0.998277, 261, 291, 292, 306
-0.998278, 53, 217, 84, 232
-0.998278, 109, 257, 140, 272
-0.998278, 221, 277, 252, 292
-0.998279, 141, 267, 172, 282
-0.99828, 353, 239, 384, 254
-0.998281, 367, 217, 382, 280
-0.998283, 209, 237, 240, 252
-0.998284, 313, 311, 344, 326
-0.998284, 65, 211, 96, 226
-0.998284, 313, 275, 344, 290
-0.998285, 237, 307, 268, 322
-0.998285, 253, 275, 284, 290
-0.998286, 333, 295, 364, 310
-0.998287, 391, 209, 406, 272
-0.998288, 361, 285, 392, 300
-0.998288, 243, 241, 258, 304
-0.998289, 281, 287, 312, 302
-0.998289, 161, 121, 416, 184
-0.998289, 301, 247, 332, 262
-0.99829, 205, 273, 236, 288
-0.998291, 129, 245, 144, 276
-0.998292, 355, 245, 370, 276
-0.998292, 97, 151, 128, 166
-0.998292, 313, 299, 344, 314
-0.998292, 69, 265, 100, 280
-0.998293, 253, 267, 284, 282
-0.998294, 297, 253, 328, 268
-0.998296, 189, 269, 220, 284
-0.998299, 49, 267, 80, 282
-0.9983, 93, 235, 124, 250
-0.998301, 1, 75, 32, 90
-0.998302, 221, 313, 252, 328
-0.998303, 269, 269, 300, 284
-0.998303, 189, 187, 220, 202
-0.998304, 137, 209, 152, 272
-0.998305, 281, 253, 312, 268
-0.998305, 201, 265, 216, 328
-0.998306, 9, 81, 40, 96
-0.998306, 337, 307, 368, 322
-0.998306, 205, 303, 236, 318
-0.998307, 313, 247, 344, 262
-0.998308, 13, 87, 44, 102
-0.998308, 305, 241, 336, 256
-0.998309, 177, 261, 208, 276
-0.998309, 81, 253, 112, 268
-0.998309, 117, 235, 148, 250
-0.99831, 71, 129, 86, 160
-0.998311, 197, 255, 228, 270
-0.998311, 21, 93, 52, 108
-0.998313, 79, 217, 94, 280
-0.998316, 209, 243, 240, 258
-0.998318, 221, 271, 252, 286
-0.99832, 117, 251, 148, 266
-0.99832, 101, 225, 116, 288
-0.998321, 345, 265, 376, 280
-0.998322, 125, 243, 156, 258
-0.998322, 275, 261, 290, 292
-0.998324, 345, 291, 376, 306
-0.998325, 329, 237, 360, 252
-0.998326, 25, 99, 56, 114
-0.998326, 225, 301, 240, 332
-0.998326, 417, 237, 448, 252
-0.998329, 373, 241, 404, 256
-0.99833, 129, 261, 160, 276
-0.99833, 211, 253, 226, 284
-0.99833, 9, 33, 40, 288
-0.998331, 265, 299, 296, 314
-0.998332, 165, 251, 196, 266
-0.998334, 33, 105, 64, 120
-0.998337, 201, 261, 232, 276
-0.998338, 325, 303, 356, 318
-0.998339, 177, 233, 304, 264
-0.99834, 21, 113, 52, 176
-0.998341, 365, 285, 380, 316
-0.998343, 453, 233, 484, 248
-0.998343, 201, 267, 232, 282
-0.998344, 61, 117, 76, 148
-0.998344, 265, 307, 296, 322
-0.998345, 345, 297, 360, 328
-0.998346, 37, 111, 68, 126
-0.998346, 433, 237, 464, 252
-0.998347, 325, 253, 356, 268
-0.998347, 305, 223, 336, 238
-0.998347, 213, 249, 244, 264
-0.998348, 93, 157, 124, 172
-0.998349, 321, 301, 336, 332
-0.99835, 37, 259, 68, 274
-0.998351, 189, 263, 220, 278
-0.998353, 85, 241, 116, 256
-0.998353, 81, 247, 112, 262
-0.998354, 405, 237, 436, 252
-0.998356, 333, 267, 364, 282
-0.998356, 349, 307, 380, 322
-0.998357, 81, 161, 112, 176
-0.998358, 385, 239, 416, 254
-0.99836, 101, 241, 132, 256
-0.998361, 465, 233, 496, 248
-0.998362, 289, 309, 320, 324
-0.998362, 101, 247, 132, 262
-0.998365, 61, 259, 92, 274
-0.998367, 45, 117, 76, 132
-0.998368, 469, 275, 500, 290
-0.998371, 217, 255, 248, 270
-0.998372, 53, 127, 84, 142
-0.998377, 225, 301, 256, 316
-0.998384, 61, 133, 92, 148
-0.998388, 221, 265, 252, 280
-0.998388, 89, 141, 104, 172
-0.99839, 241, 273, 272, 288
-0.99839, 277, 295, 308, 310
-0.99839, 69, 141, 100, 156
-0.99839, 359, 297, 374, 328
-0.998393, 97, 161, 160, 224
-0.998396, 45, 101, 60, 132
-0.998396, 81, 305, 144, 368
-0.998399, 41, 213, 72, 228
-0.9984, 361, 245, 392, 260
-0.998402, 81, 233, 208, 264
-0.998403, 337, 301, 368, 316
-0.998404, 49, 261, 80, 276
-0.998405, 449, 233, 464, 264
-0.99841, 265, 193, 296, 320
-0.998413, 297, 297, 328, 312
-0.998413, 273, 301, 336, 316
-0.998415, 301, 309, 332, 324
-0.998416, 113, 133, 240, 164
-0.998417, 77, 151, 108, 166
-0.998422, 329, 243, 360, 258
-0.998422, 187, 245, 202, 276
-0.998423, 193, 193, 320, 224
-0.998423, 113, 269, 240, 300
-0.998426, 439, 233, 454, 264
-0.998431, 129, 289, 256, 320
-0.998435, 273, 263, 304, 278
-0.998436, 457, 233, 472, 264
-0.998437, 313, 305, 344, 320
-0.998438, 55, 113, 70, 144
-0.998441, 225, 307, 256, 322
-0.998441, 305, 235, 336, 250
-0.998447, 141, 193, 172, 320
-0.998454, 185, 245, 216, 260
-0.998456, 317, 249, 348, 312
-0.998456, 277, 307, 308, 322
-0.998467, 209, 89, 336, 152
-0.998473, 199, 245, 214, 276
-0.998474, 369, 241, 384, 272
-0.998476, 1, 189, 128, 220
-0.998477, 349, 299, 380, 314
-0.998478, 1, 85, 128, 116
-0.998479, 389, 237, 404, 268
-0.998481, 335, 253, 350, 284
-0.998493, 345, 247, 376, 262
-0.998502, 463, 233, 478, 264
-0.998504, 205, 249, 220, 280
-0.998512, 145, 313, 272, 344
-0.998513, 431, 237, 446, 268
-0.998516, 289, 247, 352, 262
-0.998522, 483, 229, 498, 260
-0.998526, 97, 89, 352, 152
-0.998527, 291, 309, 306, 340
-0.998528, 247, 269, 262, 300
-0.998532, 17, 289, 144, 352
-0.998533, 177, 247, 240, 262
-0.99854, 305, 229, 336, 244
-0.998541, 193, 185, 448, 248
-0.998544, 121, 249, 136, 280
-0.998544, 265, 307, 328, 322
-0.998545, 469, 129, 500, 384
-0.99855, 423, 237, 438, 268
-0.998551, 277, 301, 308, 316
-0.998553, 149, 265, 180, 328
-0.998555, 3, 61, 18, 92
-0.998562, 301, 241, 316, 272
-0.998569, 193, 265, 256, 280
-0.998573, 321, 247, 384, 262
-0.998576, 241, 303, 304, 318
-0.998578, 297, 303, 328, 318
-0.998578, 313, 305, 376, 320
-0.99858, 289, 241, 352, 256
-0.99858, 33, 225, 160, 256
-0.998582, 35, 93, 50, 124
-0.998589, 383, 237, 398, 268
-0.99859, 185, 255, 248, 270
-0.998595, 235, 265, 250, 296
-0.998598, 23, 81, 38, 112
-0.998598, 275, 301, 290, 332
-0.9986, 25, 125, 88, 140
-0.9986, 225, 259, 288, 274
-0.998602, 11, 69, 26, 100
-0.998602, 217, 273, 280, 288
-0.998605, 469, 233, 484, 264
-0.998607, 49, 149, 112, 164
-0.998607, 33, 133, 96, 148
-0.998609, 17, 117, 80, 132
-0.998609, 449, 129, 480, 384
-0.998609, 313, 299, 376, 314
-0.99861, 329, 249, 344, 280
-0.99861, 205, 129, 236, 384
-0.99861, 9, 103, 72, 118
-0.998611, 17, 111, 80, 126
-0.998611, 289, 253, 352, 268
-0.998613, 235, 293, 250, 324
-0.998615, 321, 237, 384, 252
-0.998617, 345, 243, 408, 258
-0.998617, 49, 143, 112, 158
-0.998619, 433, 235, 496, 250
-0.99862, 73, 259, 136, 274
-0.99862, 233, 297, 296, 312
-0.99862, 225, 265, 288, 280
-0.998621, 73, 241, 136, 256
-0.998621, 33, 261, 96, 276
-0.998621, 377, 239, 440, 254
-0.998621, 297, 231, 360, 246
-0.998622, 417, 233, 432, 264
-0.998623, 85, 129, 116, 384
-0.998623, 1, 95, 64, 110
-0.998624, 265, 263, 328, 278
-0.998624, 33, 161, 160, 192
-0.998624, 73, 247, 136, 262
-0.998626, 273, 295, 336, 310
-0.998629, 33, 217, 96, 232
-0.998633, 137, 251, 200, 266
-0.998635, 89, 153, 152, 168
-0.998639, 313, 257, 344, 384
-0.99864, 97, 243, 160, 258
-0.998644, 401, 237, 416, 268
-0.998646, 323, 237, 338, 268
-0.998647, 105, 233, 120, 264
-0.998648, 145, 259, 208, 274
-0.998649, 241, 269, 256, 300
-0.99865, 29, 85, 44, 116
-0.99865, 193, 271, 256, 286
-0.99865, 181, 245, 196, 276
-0.998651, 401, 237, 464, 252
-0.998651, 257, 273, 272, 304
-0.998652, 73, 253, 136, 268
-0.998653, 291, 285, 306, 316
-0.998654, 241, 309, 304, 324
-0.998654, 361, 245, 376, 276
-0.998654, 185, 237, 248, 252
-0.998655, 33, 253, 96, 268
-0.998655, 293, 257, 308, 288
-0.998655, 81, 141, 144, 156
-0.998656, 377, 241, 392, 272
-0.998658, 89, 159, 152, 174
-0.998659, 249, 291, 312, 306
-0.998662, 289, 307, 352, 322
-0.998663, 217, 303, 280, 318
-0.998663, 269, 265, 284, 296
-0.998663, 263, 273, 278, 304
-0.998663, 37, 185, 68, 248
-0.998664, 303, 229, 318, 260
-0.998665, 65, 155, 128, 170
-0.998666, 407, 237, 422, 268
-0.998668, 145, 137, 208, 200
-0.998668, 17, 77, 32, 108
-0.998669, 257, 271, 320, 286
-0.99867, 273, 231, 336, 246
-0.998674, 283, 261, 298, 292
-0.998674, 277, 289, 292, 320
-0.998675, 81, 135, 144, 150
-0.998676, 89, 147, 152, 162
-0.998677, 201, 247, 264, 262
-0.998679, 49, 161, 112, 176
-0.998681, 87, 161, 102, 192
-0.998681, 161, 253, 224, 268
-0.998682, 169, 261, 232, 276
-0.998682, 211, 269, 226, 300
-0.998683, 351, 305, 366, 336
-0.998684, 73, 129, 136, 144
-0.998685, 129, 243, 192, 258
-0.998687, 217, 309, 280, 324
-0.998689, 193, 279, 256, 294
-0.998691, 97, 237, 160, 252
-0.998691, 153, 245, 216, 260
-0.998692, 305, 275, 368, 290
-0.998694, 217, 287, 280, 302
-0.998695, 73, 265, 136, 280
-0.998696, 305, 289, 320, 320
-0.998698, 395, 237, 410, 268
-0.998699, 105, 251, 168, 266
-0.998699, 477, 229, 492, 260
-0.998699, 1, 89, 64, 104
-0.9987, 161, 187, 224, 202
-0.9987, 33, 211, 96, 226
-0.9987, 33, 247, 96, 262
-0.9987, 87, 237, 102, 268
-0.998703, 337, 299, 400, 314
-0.998705, 121, 261, 184, 276
-0.998707, 265, 257, 328, 272
-0.998708, 113, 269, 176, 284
-0.998709, 9, 259, 72, 274
-0.998711, 233, 281, 296, 296
-0.998711, 177, 301, 240, 316
-0.998712, 65, 123, 128, 138
-0.998712, 313, 311, 376, 326
-0.998712, 57, 137, 120, 152
-0.998714, 49, 109, 112, 124
-0.998715, 315, 289, 330, 320
-0.998715, 185, 293, 248, 308
-0.998716, 201, 265, 216, 296
-0.998716, 33, 241, 96, 256
-0.998717, 209, 297, 272, 312
-0.998717, 161, 267, 224, 282
-0.998718, 369, 185, 496, 248
-0.998718, 345, 289, 408, 304
-0.99872, 41, 101, 104, 116
-0.99872, 349, 265, 364, 296
-0.99872, 33, 93, 96, 108
-0.99872, 1, 209, 64, 224
-0.99872, 9, 71, 72, 86
-0.998721, 25, 85, 88, 100
-0.998721, 305, 225, 368, 240
-0.998722, 257, 277, 320, 292
-0.998722, 321, 253, 384, 268
-0.998723, 57, 115, 120, 130
-0.998723, 209, 253, 272, 268
-0.998723, 1, 63, 64, 78
-0.998723, 257, 243, 320, 258
-0.998724, 97, 261, 160, 276
-0.998724, 17, 79, 80, 94
-0.998725, 393, 231, 456, 246
-0.998726, 305, 301, 432, 332
-0.998726, 33, 155, 96, 170
-0.998726, 289, 259, 352, 274
-0.998727, 105, 315, 168, 330
-0.998727, 297, 293, 360, 308
-0.998728, 265, 313, 328, 328
-0.998728, 57, 211, 120, 226
-0.998729, 345, 307, 408, 322
-0.99873, 33, 267, 96, 282
-0.998731, 169, 279, 232, 294
-0.998731, 153, 285, 216, 300
-0.998732, 193, 285, 256, 300
-0.998732, 9, 215, 72, 230
-0.998732, 177, 231, 240, 246
-0.998732, 257, 237, 320, 252
-0.998732, 225, 245, 288, 260
-0.998732, 193, 309, 256, 324
-0.998733, 177, 217, 240, 232
-0.998733, 321, 289, 384, 304
-0.998735, 433, 277, 496, 292
-0.998735, 335, 237, 350, 268
-0.998736, 1, 185, 64, 200
-0.998736, 73, 235, 136, 250
-0.998738, 249, 251, 312, 266
-0.998738, 161, 273, 224, 288
-0.998738, 361, 295, 424, 310
-0.998739, 161, 193, 224, 208
-0.998742, 149, 273, 180, 400
-0.998749, 17, 265, 80, 328
-0.99875, 63, 265, 78, 296
-0.99875, 33, 177, 160, 208
-0.998757, 193, 245, 208, 276
-0.998759, 121, 97, 152, 352
-0.998761, 43, 209, 58, 240
-0.998769, 129, 273, 160, 336
-0.998771, 361, 289, 392, 352
-0.998772, 485, 273, 500, 304
-0.998774, 231, 253, 246, 284
-0.998782, 161, 145, 288, 176
-0.998786, 215, 217, 230, 248
-0.998801, 113, 121, 240, 152
-0.998802, 43, 257, 58, 288
-0.99881, 95, 249, 110, 280
-0.99882, 135, 249, 150, 280
-0.998827, 193, 181, 208, 212
-0.99883, 217, 261, 232, 292
-0.998833, 365, 305, 380, 336
-0.998838, 433, 129, 464, 384
-0.998845, 315, 213, 330, 244
-0.998847, 153, 257, 168, 288
-0.998848, 297, 309, 312, 340
-0.998853, 309, 129, 340, 384
-0.998853, 135, 237, 150, 268
-0.998854, 329, 237, 344, 268
-0.998854, 115, 245, 130, 276
-0.998856, 241, 281, 256, 312
-0.998856, 225, 313, 240, 344
-0.998858, 219, 297, 234, 328
-0.99887, 225, 237, 240, 268
-0.998883, 295, 245, 310, 276
-0.998884, 417, 129, 448, 384
-0.998888, 81, 317, 208, 348
-0.998893, 145, 157, 272, 188
-0.998924, 101, 129, 132, 384
-0.998925, 53, 253, 68, 284
-0.998933, 143, 257, 158, 288
-0.998935, 339, 289, 354, 320
-0.998936, 19, 181, 34, 212
-0.998937, 359, 309, 374, 340
-0.99894, 351, 233, 366, 264
-0.998944, 137, 65, 168, 320
-0.998946, 343, 261, 358, 292
-0.998947, 69, 269, 84, 300
-0.998948, 353, 297, 480, 328
-0.998951, 193, 261, 208, 292
-0.998954, 177, 25, 304, 88
-0.998956, 273, 313, 400, 344
-0.998958, 81, 245, 96, 276
-0.998959, 299, 285, 314, 316
-0.998966, 99, 237, 114, 268
-0.998968, 321, 129, 352, 384
-0.998973, 225, 285, 240, 316
-0.99898, 249, 289, 264, 320
-0.99898, 13, 173, 28, 204
-0.998983, 333, 129, 364, 384
-0.998984, 139, 309, 154, 340
-0.998987, 71, 253, 86, 284
-0.998995, 67, 117, 82, 148
-0.998999, 161, 129, 288, 160
-0.999001, 353, 129, 384, 384
-0.999003, 237, 305, 252, 336
-0.999008, 113, 109, 240, 140
-0.999022, 273, 217, 400, 248
-0.999036, 1, 53, 128, 84
-0.999045, 225, 97, 256, 352
-0.999068, 235, 241, 250, 368
-0.999082, 397, 129, 428, 384
-0.999093, 297, 129, 328, 384
-0.999094, 321, 225, 336, 352
-0.999095, 229, 241, 244, 368
-0.999096, 307, 209, 322, 336
-0.999097, 1, 201, 128, 232
-0.999125, 305, 185, 432, 248
-0.999129, 1, 161, 500, 224
-0.999131, 347, 225, 362, 352
-0.999134, 73, 113, 88, 240
-0.999138, 57, 97, 72, 224
-0.999141, 277, 129, 308, 384
-0.999149, 81, 281, 208, 312
-0.99916, 287, 241, 302, 368
-0.999161, 105, 249, 136, 312
-0.999163, 165, 129, 196, 384
-0.999168, 301, 225, 316, 352
-0.999171, 293, 241, 308, 368
-0.999171, 285, 201, 316, 264
-0.999171, 141, 233, 172, 296
-0.99918, 369, 261, 496, 292
-0.999183, 1, 185, 500, 248
-0.999186, 365, 129, 396, 384
-0.999186, 3, 49, 18, 176
-0.999189, 385, 129, 416, 384
-0.999189, 15, 65, 30, 192
-0.999192, 51, 97, 66, 224
-0.999194, 39, 81, 54, 208
-0.999196, 219, 225, 234, 352
-0.999205, 23, 65, 38, 192
-0.999213, 193, 177, 208, 304
-0.999213, 329, 241, 344, 368
-0.999215, 1, 337, 256, 400
-0.999219, 145, 169, 272, 200
-0.999232, 321, 249, 448, 280
-0.999243, 361, 225, 376, 352
-0.999244, 277, 241, 292, 368
-0.999247, 177, 181, 304, 212
-0.999247, 9, 49, 24, 176
-0.999255, 199, 177, 214, 304
-0.999256, 67, 113, 82, 240
-0.999258, 225, 65, 352, 128
-0.999259, 81, 129, 96, 256
-0.999261, 315, 209, 330, 336
-0.999268, 33, 81, 48, 208
-0.999268, 449, 225, 464, 352
-0.999282, 45, 81, 60, 208
-0.999285, 339, 241, 354, 368
-0.999291, 157, 81, 188, 208
-0.999292, 459, 225, 474, 352
-0.999295, 97, 361, 224, 392
-0.999314, 129, 93, 256, 124
-0.999315, 479, 225, 494, 352
-0.999316, 443, 225, 458, 352
-0.99932, 355, 225, 370, 352
-0.999332, 247, 257, 262, 384
-0.999341, 427, 225, 442, 352
-0.999345, 97, 337, 160, 400
-0.999351, 473, 225, 488, 352
-0.999356, 241, 257, 256, 384
-0.999357, 207, 177, 222, 304
-0.999358, 187, 177, 202, 304
-0.999358, 437, 225, 452, 352
-0.999364, 271, 241, 286, 368
-0.999365, 33, 345, 160, 376
-0.999368, 465, 225, 480, 352
-0.99937, 485, 209, 500, 336
-0.999371, 407, 225, 422, 352
-0.999378, 199, 225, 214, 352
-0.99938, 417, 225, 432, 352
-0.999386, 153, 65, 184, 320
-0.99939, 371, 225, 386, 352
-0.999406, 57, 209, 72, 336
-0.999416, 433, 273, 496, 400
-0.999421, 145, 81, 176, 208
-0.999425, 193, 225, 208, 352
-0.99943, 395, 225, 410, 352
-0.999434, 65, 189, 192, 220
-0.999436, 17, 153, 48, 216
-0.999439, 213, 209, 228, 336
-0.999442, 385, 225, 400, 352
-0.999445, 401, 225, 416, 352
-0.999448, 335, 193, 350, 320
-0.999451, 261, 257, 276, 384
-0.999454, 337, 285, 464, 316
-0.999454, 253, 257, 268, 384
-0.999457, 237, 129, 268, 384
-0.999457, 129, 341, 256, 372
-0.99946, 379, 225, 394, 352
-0.999464, 205, 225, 220, 352
-0.99947, 161, 73, 288, 104
-0.999471, 49, 329, 176, 360
-0.999477, 181, 177, 196, 304
-0.999484, 91, 161, 106, 288
-0.999486, 161, 161, 192, 224
-0.999491, 43, 241, 58, 368
-0.999494, 41, 259, 56, 274
-0.999495, 311, 299, 326, 314
-0.999495, 311, 279, 326, 294
-0.999496, 195, 185, 210, 200
-0.999496, 87, 247, 102, 262
-0.999496, 277, 293, 292, 308
-0.999496, 93, 249, 108, 264
-0.999497, 51, 265, 66, 280
-0.999497, 423, 237, 438, 252
-0.999497, 271, 265, 286, 280
-0.999499, 205, 249, 220, 264
-0.999499, 263, 275, 278, 290
-0.999501, 29, 87, 44, 102
-0.999501, 231, 257, 246, 272
-0.999502, 179, 255, 194, 270
-0.999502, 79, 265, 94, 280
-0.999502, 241, 209, 256, 336
-0.999502, 301, 253, 316, 268
-0.999503, 355, 239, 370, 254
-0.999503, 303, 245, 318, 260
-0.999503, 37, 95, 52, 110
-0.999504, 329, 305, 344, 320
-0.999504, 17, 75, 32, 90
-0.999504, 369, 273, 496, 304
-0.999505, 349, 307, 364, 322
-0.999505, 217, 267, 232, 282
-0.999505, 321, 273, 336, 288
-0.999506, 243, 273, 258, 288
-0.999506, 185, 145, 216, 208
-0.999506, 293, 255, 308, 270
-0.999508, 23, 81, 38, 96
-0.99951, 9, 67, 24, 82
-0.99951, 43, 101, 58, 116
-0.999511, 51, 193, 66, 320
-0.999511, 53, 111, 68, 126
-0.999511, 87, 241, 102, 256
-0.999513, 97, 155, 112, 170
-0.999513, 121, 243, 136, 258
-0.999513, 225, 301, 240, 316
-0.999513, 227, 313, 242, 328
-0.999513, 305, 237, 320, 252
-0.999514, 135, 245, 150, 260
-0.999515, 369, 243, 384, 258
-0.999515, 339, 295, 354, 310
-0.999517, 411, 237, 426, 252
-0.999517, 389, 239, 404, 254
-0.999517, 397, 239, 412, 254
-0.999518, 97, 243, 112, 258
-0.999518, 193, 263, 208, 278
-0.999518, 477, 233, 492, 248
-0.999518, 451, 235, 466, 250
-0.999519, 87, 161, 102, 176
-0.999519, 355, 309, 370, 324
-0.99952, 1, 61, 16, 76
-0.99952, 63, 121, 78, 136
-0.99952, 45, 193, 60, 320
-0.99952, 239, 301, 254, 316
-0.99952, 439, 237, 454, 252
-0.99952, 103, 247, 118, 262
-0.999521, 367, 305, 382, 320
-0.999521, 481, 307, 496, 322
-0.999521, 301, 297, 316, 312
-0.999521, 325, 245, 340, 260
-0.999522, 237, 307, 252, 322
-0.999523, 119, 251, 134, 266
-0.999523, 47, 107, 62, 122
-0.999525, 323, 303, 338, 318
-0.999525, 199, 245, 214, 260
-0.999526, 87, 225, 102, 352
-0.999526, 57, 117, 72, 132
-0.999526, 321, 235, 336, 250
-0.999526, 375, 243, 390, 258
-0.999526, 433, 237, 448, 252
-0.999527, 145, 297, 176, 360
-0.999528, 459, 235, 474, 250
-0.999528, 67, 127, 82, 142
-0.999529, 417, 237, 432, 252
-0.999531, 65, 263, 80, 278
-0.999532, 287, 261, 302, 276
-0.999533, 67, 209, 82, 336
-0.999534, 43, 211, 58, 226
-0.999536, 383, 241, 398, 256
-0.999537, 187, 245, 202, 260
-0.999537, 471, 233, 486, 248
-0.999538, 343, 301, 358, 316
-0.999539, 335, 245, 350, 260
-0.999541, 355, 177, 370, 304
-0.999541, 73, 133, 88, 148
-0.999541, 329, 251, 344, 266
-0.999541, 211, 269, 226, 284
-0.999541, 47, 259, 62, 274
-0.999542, 293, 261, 308, 276
-0.999543, 335, 255, 350, 270
-0.999544, 297, 307, 312, 322
-0.999546, 231, 301, 246, 316
-0.999547, 317, 299, 332, 314
-0.999547, 85, 145, 100, 160
-0.999548, 273, 299, 288, 314
-0.999549, 213, 261, 228, 276
-0.999552, 79, 139, 94, 154
-0.999552, 355, 247, 370, 262
-0.999552, 359, 289, 374, 304
-0.999553, 87, 113, 102, 240
-0.999554, 129, 247, 144, 262
-0.999555, 285, 287, 300, 302
-0.999555, 465, 233, 480, 248
-0.999556, 353, 295, 368, 310
-0.999558, 363, 245, 378, 260
-0.99956, 341, 193, 356, 320
-0.999561, 485, 231, 500, 246
-0.999562, 201, 265, 216, 280
-0.999563, 77, 193, 92, 320
-0.999563, 475, 177, 490, 304
-0.999565, 63, 65, 78, 192
-0.999565, 187, 225, 202, 352
-0.999566, 345, 265, 360, 280
-0.999567, 223, 273, 238, 400
-0.99957, 313, 311, 328, 326
-0.999571, 33, 337, 96, 400
-0.999571, 83, 177, 98, 304
-0.999574, 291, 295, 306, 310
-0.999575, 67, 257, 82, 384
-0.999576, 365, 285, 380, 300
-0.999576, 283, 295, 298, 310
-0.999579, 341, 251, 356, 266
-0.999579, 459, 177, 474, 304
-0.999579, 329, 177, 344, 304
-0.999581, 305, 303, 320, 318
-0.999583, 277, 305, 292, 320
-0.999584, 91, 151, 106, 166
-0.999588, 293, 193, 308, 320
-0.999589, 449, 177, 464, 304
-0.99959, 257, 129, 288, 384
-0.99959, 283, 307, 298, 322
-0.999591, 59, 261, 74, 276
-0.999592, 129, 105, 160, 168
-0.999592, 265, 209, 280, 336
-0.999593, 231, 307, 246, 322
-0.999595, 361, 307, 376, 322
-0.999595, 51, 49, 66, 176
-0.999596, 277, 263, 292, 278
-0.999597, 73, 257, 88, 384
-0.999597, 247, 209, 262, 336
-0.999598, 53, 259, 68, 274
-0.9996, 467, 177, 482, 304
-0.999601, 351, 265, 366, 280
-0.999601, 1, 73, 500, 136
-0.999604, 33, 313, 160, 344
-0.99961, 259, 209, 274, 336
-0.999615, 105, 209, 120, 336
-0.999617, 49, 357, 176, 388
-0.999617, 315, 161, 330, 288
-0.999618, 81, 81, 96, 208
-0.999619, 321, 177, 336, 304
-0.999619, 349, 301, 364, 316
-0.999621, 69, 65, 84, 192
-0.999621, 483, 275, 498, 290
-0.999623, 129, 241, 144, 368
-0.999623, 97, 329, 224, 360
-0.999629, 119, 241, 134, 368
-0.999629, 297, 313, 328, 376
-0.99963, 315, 257, 330, 384
-0.999631, 427, 177, 442, 304
-0.999631, 127, 193, 142, 320
-0.999631, 359, 301, 374, 316
-0.999635, 17, 17, 32, 144
-0.999635, 291, 307, 306, 322
-0.999635, 225, 307, 240, 322
-0.999637, 309, 229, 324, 244
-0.999638, 111, 209, 126, 336
-0.999638, 137, 209, 152, 336
-0.999642, 175, 161, 190, 288
-0.999642, 437, 177, 452, 304
-0.999643, 363, 177, 378, 304
-0.999646, 93, 161, 108, 176
-0.999646, 349, 177, 364, 304
-0.999646, 183, 129, 198, 256
-0.999646, 81, 241, 96, 368
-0.999646, 253, 209, 268, 336
-0.999651, 369, 249, 496, 280
-0.999652, 119, 177, 134, 304
-0.999653, 101, 161, 116, 288
-0.999654, 295, 301, 310, 316
-0.999654, 101, 337, 132, 400
-0.999655, 349, 245, 364, 260
-0.999655, 95, 241, 110, 368
-0.999656, 13, 161, 28, 288
-0.999658, 317, 225, 332, 240
-0.999659, 29, 33, 44, 160
-0.99966, 51, 241, 66, 368
-0.99966, 35, 33, 50, 160
-0.999662, 419, 177, 434, 304
-0.999664, 317, 305, 332, 320
-0.999665, 311, 305, 326, 320
-0.999668, 93, 113, 108, 240
-0.99967, 405, 177, 420, 304
-0.999671, 443, 177, 458, 304
-0.999672, 61, 257, 76, 384
-0.999676, 189, 129, 204, 256
-0.99968, 1, 1, 16, 128
-0.999685, 373, 177, 388, 304
-0.999685, 385, 177, 400, 304
-0.999687, 283, 193, 298, 320
-0.999688, 483, 161, 498, 288
-0.99969, 23, 17, 38, 144
-0.999691, 1, 305, 256, 368
-0.999693, 309, 257, 324, 384
-0.999694, 395, 177, 410, 304
-0.999695, 379, 177, 394, 304
-0.999696, 173, 1, 204, 256
-0.999698, 89, 33, 120, 288
-0.999701, 289, 301, 304, 316
-0.999703, 301, 177, 316, 304
-0.999704, 411, 177, 426, 304
-0.999708, 283, 301, 298, 316
-0.99971, 289, 277, 416, 308
-0.999712, 117, 313, 148, 376
-0.999718, 437, 265, 468, 328
-0.999722, 1, 357, 128, 388
-0.99974, 81, 293, 208, 324
-0.999741, 185, 33, 248, 96
-0.999742, 409, 273, 472, 400
-0.99976, 81, 341, 208, 372
-0.99976, 45, 145, 76, 272
-0.999787, 81, 221, 208, 252
-0.999788, 409, 289, 472, 352
-0.999795, 161, 61, 288, 92
-0.999826, 81, 305, 208, 336
-0.999831, 217, 313, 280, 376
-0.999833, 161, 117, 288, 148
-0.999836, 85, 169, 116, 232
-0.999843, 257, 321, 384, 384
-0.999846, 113, 89, 176, 152
-0.999846, 65, 1, 96, 256
-0.999878, 313, 33, 376, 288
-0.999884, 193, 1, 224, 256
-0.999903, 1, 129, 32, 384
-0.999923, 97, 65, 352, 128
-0.999924, 385, 257, 448, 320
-0.999925, 105, 129, 136, 256
-0.999938, 17, 301, 144, 332
-0.999945, 161, 45, 288, 76
-0.999958, 257, 177, 384, 240
-0.999969, 321, 213, 448, 244
-0.999996, 49, 369, 176, 400
-0.999999, 1, 265, 500, 328
-1.00002, 113, 137, 144, 200
-1.00003, 193, 153, 256, 216
-1.00003, 369, 209, 496, 240
-1.00004, 225, 321, 352, 352
-1.00006, 89, 281, 152, 344
-1.00006, 1, 97, 500, 160
-1.00006, 225, 65, 352, 192
-1.00007, 1, 325, 128, 356
-1.00009, 17, 277, 144, 308
-1.00009, 177, 17, 240, 144
-1.0001, 113, 81, 240, 112
-1.00013, 161, 105, 288, 136
-1.00013, 53, 1, 84, 256
-1.00015, 177, 333, 304, 364
-1.00015, 273, 205, 400, 236
-1.00015, 177, 33, 304, 64
-1.00016, 353, 273, 480, 400
-1.00016, 193, 365, 320, 396
-1.00016, 177, 353, 304, 384
-1.00016, 209, 109, 336, 140
-1.00018, 193, 321, 448, 384
-1.00019, 177, 113, 240, 176
-1.0002, 209, 93, 336, 124
-1.00022, 1, 137, 500, 200
-1.00022, 161, 41, 416, 104
-1.00023, 205, 1, 236, 256
-1.00023, 353, 309, 480, 340
-1.00024, 81, 49, 208, 112
-1.00024, 217, 1, 248, 256
-1.00026, 145, 365, 272, 396
-1.00029, 1, 369, 128, 400
-1.00029, 33, 289, 160, 320
-1.0003, 329, 33, 360, 288
-1.0003, 413, 33, 444, 288
-1.00032, 109, 33, 140, 288
-1.00032, 81, 93, 208, 124
-1.00033, 321, 261, 448, 292
-1.00033, 241, 65, 368, 96
-1.00035, 361, 257, 424, 320
-1.00036, 193, 169, 320, 200
-1.00036, 225, 345, 352, 376
-1.00037, 429, 33, 460, 288
-1.00038, 81, 65, 208, 96
-1.00039, 133, 257, 164, 384
-1.0004, 353, 33, 384, 288
-1.00041, 401, 33, 432, 288
-1.00041, 461, 33, 492, 288
-1.00042, 89, 273, 152, 400
-1.00044, 305, 33, 336, 288
-1.00044, 441, 33, 472, 288
-1.00045, 193, 97, 448, 160
-1.00045, 225, 53, 352, 84
-1.00047, 373, 33, 404, 288
-1.00047, 425, 33, 488, 288
-1.00048, 321, 137, 448, 200
-1.00048, 1, 33, 256, 96
-1.00048, 73, 89, 136, 152
-1.00049, 209, 121, 336, 152
-1.0005, 241, 77, 368, 108
-1.00052, 97, 337, 352, 400
-1.00053, 65, 77, 192, 108
-1.00053, 209, 113, 336, 176
-1.00053, 385, 33, 416, 288
-1.00053, 1, 25, 128, 88
-1.00054, 369, 197, 496, 228
-1.00054, 97, 29, 224, 60
-1.00055, 225, 29, 352, 60
-1.00055, 225, 41, 352, 72
-1.00057, 225, 17, 352, 80
-1.00058, 97, 49, 224, 80
-1.00059, 57, 313, 120, 376
-1.00061, 321, 325, 448, 356
-1.00063, 369, 33, 432, 288
-1.00066, 225, 41, 352, 104
-1.00068, 225, 65, 480, 128
-1.00069, 321, 321, 448, 384
-1.0007, 289, 33, 320, 288
-1.00076, 169, 65, 200, 192
-1.00076, 229, 1, 260, 256
-1.00079, 341, 33, 372, 288
-1.0008, 125, 1, 156, 256
-1.0008, 33, 289, 96, 352
-1.00084, 1, 289, 500, 352
-1.00085, 317, 33, 348, 288
-1.00085, 209, 113, 240, 240
-1.00088, 77, 1, 108, 256
-1.00091, 113, 25, 240, 88
-1.00096, 353, 161, 480, 224
-1.001, 257, 33, 288, 288
-1.00102, 241, 1, 272, 256
-1.00103, 161, 65, 224, 128
-1.00103, 417, 185, 480, 248
-1.00104, 257, 145, 500, 208
-1.00104, 225, 33, 288, 288
-1.00106, 377, 289, 440, 352
-1.00106, 157, 129, 188, 256
-1.00112, 161, 89, 224, 152
-1.00114, 161, 17, 416, 80
-1.00116, 81, 81, 208, 144
-1.00118, 277, 33, 308, 288
-1.00124, 401, 33, 464, 288
-1.00136, 157, 225, 188, 352
-1.00136, 209, 129, 336, 256
-1.0014, 217, 97, 280, 160
-1.00144, 97, 273, 128, 400
-1.00147, 337, 41, 464, 104
-1.00147, 305, 65, 432, 128
-1.00152, 273, 153, 400, 216
-1.00152, 121, 81, 152, 208
-1.00153, 257, 25, 500, 88
-1.00154, 353, 113, 480, 176
-1.00163, 433, 297, 496, 360
-1.00166, 113, 1, 240, 64
-1.00168, 321, 1, 448, 64
-1.00169, 257, 121, 500, 184
-1.0017, 273, 1, 400, 64
-1.00171, 65, 1, 320, 64
-1.00172, 369, 137, 496, 200
-1.00172, 1, 313, 64, 376
-1.00174, 225, 145, 352, 208
-1.00176, 369, 9, 496, 72
-1.00178, 1, 49, 500, 112
-1.00181, 201, 17, 264, 144
-1.00184, 257, 1, 500, 64
-1.00192, 33, 313, 96, 376
-1.00193, 353, 193, 416, 256
-1.00196, 369, 321, 496, 384
-1.00199, 161, 1, 288, 64
-1.00204, 233, 161, 264, 288
-1.00205, 1, 113, 32, 240
-1.00215, 273, 25, 400, 88
-1.00219, 257, 113, 384, 176
-1.00223, 337, 273, 368, 400
-1.00226, 353, 89, 480, 152
-1.00227, 145, 145, 176, 272
-1.0023, 1, 313, 500, 376
-1.00234, 305, 113, 432, 176
-1.00238, 113, 185, 176, 248
-1.00239, 353, 65, 480, 128
-1.00239, 273, 89, 400, 152
-1.00249, 273, 321, 336, 384
-1.00254, 225, 17, 352, 144
-1.00258, 437, 273, 468, 400
-1.0026, 273, 129, 400, 256
-1.00263, 345, 33, 408, 288
-1.00269, 185, 73, 248, 136
-1.00274, 33, 1, 160, 64
-1.0028, 65, 25, 192, 88
-1.00283, 369, 129, 496, 256
-1.00294, 1, 9, 500, 72
-1.0031, 133, 49, 164, 176
-1.00315, 465, 273, 496, 400
-1.00321, 1, 337, 500, 400
-1.00326, 129, 161, 160, 288
-1.00339, 1, 17, 64, 80
-1.00341, 49, 65, 112, 128
-1.00343, 161, 41, 224, 104
-1.00347, 233, 337, 296, 400
-1.0035, 265, 33, 328, 288
-1.00351, 361, 273, 424, 400
-1.00354, 185, 337, 248, 400
-1.00357, 225, 33, 256, 160
-1.00365, 349, 273, 380, 400
-1.00366, 469, 129, 500, 256
-1.00383, 109, 81, 140, 208
-1.00383, 225, 81, 288, 208
-1.00387, 209, 17, 240, 144
-1.00388, 369, 81, 496, 208
-1.0039, 145, 33, 176, 160
-1.0039, 185, 33, 216, 160
-1.00391, 105, 1, 168, 256
-1.00393, 229, 81, 260, 208
-1.00394, 201, 121, 264, 184
-1.00417, 209, 57, 272, 120
-1.00419, 193, 81, 224, 208
-1.00423, 289, 177, 352, 240
-1.00424, 81, 1, 208, 128
-1.00425, 77, 273, 108, 400
-1.00438, 241, 81, 304, 144
-1.00447, 1, 289, 64, 352
-1.00453, 137, 57, 200, 120
-1.00456, 1, 225, 32, 352
-1.00457, 221, 145, 252, 272
-1.00458, 153, 321, 216, 384
-1.00466, 201, 81, 264, 208
-1.00473, 361, 273, 392, 400
-1.00476, 181, 81, 212, 208
-1.00486, 389, 273, 420, 400
-1.00486, 453, 273, 484, 400
-1.00489, 413, 273, 444, 400
-1.00497, 401, 273, 432, 400
-1.00497, 425, 273, 456, 400
-1.00513, 225, 33, 288, 160
-1.00519, 433, 129, 496, 256
-1.00521, 253, 161, 284, 288
-1.00525, 321, 81, 448, 208
-1.00532, 197, 17, 228, 144
-1.00538, 321, 129, 448, 256
-1.00542, 369, 17, 496, 144
-1.00544, 289, 129, 320, 256
-1.00547, 245, 33, 276, 160
-1.00553, 317, 129, 348, 256
-1.00559, 157, 33, 188, 160
-1.00566, 241, 81, 272, 208
-1.00568, 273, 65, 400, 192
-1.00571, 289, 33, 352, 288
-1.00581, 321, 33, 448, 160
-1.00617, 273, 1, 400, 128
-1.00647, 33, 17, 96, 144
-1.00696, 265, 129, 328, 256
-1.00747, 409, 129, 472, 256
-1.00799, 401, 65, 464, 192
-1.00817, 113, 33, 176, 160
-1.00864, 385, 129, 448, 256
-1.00873, 337, 273, 400, 400
-1.00877, 433, 81, 496, 208
-1.00902, 145, 1, 208, 128
-1.00903, 385, 273, 448, 400
-1.00906, 257, 33, 320, 160
-1.00936, 81, 33, 144, 160
-1.00945, 369, 81, 432, 208
-1.00992, 305, 129, 368, 256
-1.01007, 321, 65, 384, 192
-1.01026, 361, 129, 424, 256
-1.01029, 225, 145, 288, 272
-1.01042, 393, 1, 456, 128
-1.01065, 345, 65, 408, 192
-1.01069, 289, 1, 352, 128
-1.01078, 433, 1, 496, 128
-1.01078, 257, 81, 320, 208
-1.0112, 369, 1, 432, 128
-1.01149, 297, 81, 360, 208
-1.01153, 313, 1, 376, 128
-1.01305, 345, 1, 408, 128
-1.01374, 57, 17, 120, 144
