1973
-0.438966, 1, 129, 500, 375
-0.47772, 1, 1, 500, 256
-0.499617, 1, 1, 500, 375
-0.579233, 225, 1, 480, 375
-0.586243, 1, 1, 256, 375
-0.623617, 97, 1, 352, 375
-0.690292, 33, 33, 288, 288
-0.698619, 129, 129, 384, 375
-0.702351, 1, 129, 256, 375
-0.742719, 225, 129, 480, 375
-0.750902, 161, 1, 416, 256
-0.764177, 257, 33, 500, 288
-0.86922, 193, 129, 320, 375
-0.881144, 81, 129, 208, 375
-0.885356, 321, 129, 448, 375
-0.890858, 225, 1, 352, 375
-0.893631, 225, 33, 352, 288
-0.894626, 1, 1, 128, 375
-0.89507, 17, 129, 144, 375
-0.896785, 273, 33, 400, 288
-0.89754, 1, 33, 128, 288
-0.900411, 273, 129, 400, 375
-0.90327, 81, 33, 208, 288
-0.905608, 113, 1, 240, 375
-0.907107, 161, 33, 288, 288
-0.90761, 177, 1, 304, 375
-0.907624, 145, 129, 272, 375
-0.911447, 1, 129, 500, 256
-0.911917, 1, 241, 500, 368
-0.915061, 273, 1, 400, 375
-0.915187, 1, 81, 500, 208
-0.915621, 65, 1, 192, 375
-0.922835, 337, 1, 464, 375
-0.923032, 321, 33, 448, 288
-0.928389, 97, 241, 352, 368
-0.932143, 129, 145, 384, 272
-0.937013, 257, 97, 500, 224
-0.937666, 257, 145, 500, 272
-0.938298, 1, 33, 500, 160
-0.940969, 33, 81, 288, 208
-0.941074, 1, 129, 256, 256
-0.944037, 369, 65, 496, 320
-0.944117, 161, 129, 288, 256
-0.945597, 225, 241, 352, 368
-0.945751, 313, 289, 376, 352
-0.946566, 1, 177, 500, 304
-0.947104, 185, 129, 248, 256
-0.947185, 81, 145, 208, 272
-0.947764, 225, 49, 480, 176
-0.948193, 257, 193, 500, 320
-0.948285, 129, 81, 384, 208
-0.950537, 81, 241, 208, 368
-0.950755, 193, 241, 448, 368
-0.950811, 129, 241, 192, 368
-0.951756, 97, 241, 160, 368
-0.952241, 49, 305, 112, 368
-0.95274, 433, 145, 496, 272
-0.953719, 137, 297, 200, 360
-0.953899, 1, 241, 256, 368
-0.954816, 33, 1, 288, 128
-0.955313, 193, 81, 320, 208
-0.955703, 145, 193, 272, 320
-0.956526, 337, 129, 464, 256
-0.956704, 81, 97, 208, 224
-0.956867, 297, 145, 360, 272
-0.956901, 257, 193, 384, 320
-0.957335, 97, 193, 352, 320
-0.957581, 209, 265, 272, 328
-0.957907, 129, 273, 192, 336
-0.958569, 425, 209, 488, 336
-0.958802, 89, 273, 152, 336
-0.95883, 17, 161, 144, 288
-0.959686, 161, 241, 288, 368
-0.960171, 1, 113, 128, 240
-0.961558, 161, 129, 224, 256
-0.961707, 313, 313, 376, 375
-0.962001, 337, 241, 464, 368
-0.962259, 209, 145, 336, 272
-0.96258, 433, 185, 496, 248
-0.962727, 105, 297, 168, 360
-0.963297, 185, 281, 248, 344
-0.963552, 401, 129, 464, 256
-0.963781, 313, 241, 376, 368
-0.963901, 289, 97, 416, 224
-0.963988, 241, 97, 368, 224
-0.964202, 305, 169, 368, 232
-0.965661, 1, 193, 256, 320
-0.965853, 353, 177, 480, 304
-0.966172, 193, 129, 256, 192
-0.966181, 273, 241, 400, 368
-0.966258, 121, 193, 184, 320
-0.966452, 97, 145, 160, 272
-0.96652, 433, 97, 496, 224
-0.966789, 129, 33, 384, 160
-0.966829, 353, 65, 480, 192
-0.966965, 257, 49, 384, 176
-0.967358, 433, 153, 496, 216
-0.967413, 185, 81, 248, 208
-0.967683, 145, 81, 272, 208
-0.967915, 257, 145, 384, 272
-0.967928, 169, 153, 232, 216
-0.968166, 161, 209, 224, 336
-0.968308, 33, 313, 160, 375
-0.968645, 281, 193, 344, 320
-0.968675, 137, 145, 200, 272
-0.968915, 273, 97, 336, 224
-0.968918, 81, 297, 208, 360
-0.969189, 121, 121, 184, 184
-0.969549, 233, 265, 296, 328
-0.969646, 313, 145, 376, 208
-0.969804, 249, 241, 312, 368
-0.969925, 377, 97, 440, 224
-0.970017, 265, 161, 328, 224
-0.970326, 121, 249, 184, 312
-0.970627, 289, 209, 352, 272
-0.970915, 149, 297, 180, 360
-0.971056, 161, 281, 288, 344
-0.971248, 257, 49, 320, 176
-0.971325, 401, 81, 464, 208
-0.971369, 249, 113, 312, 240
-0.971406, 25, 129, 88, 192
-0.971485, 145, 113, 208, 176
-0.971514, 209, 97, 272, 224
-0.971754, 225, 241, 288, 368
-0.971801, 273, 241, 336, 368
-0.971807, 153, 273, 216, 336
-0.971822, 321, 81, 384, 208
-0.97204, 81, 129, 144, 192
-0.972206, 289, 297, 416, 360
-0.972372, 161, 297, 192, 360
-0.97254, 145, 81, 208, 208
-0.972668, 97, 161, 160, 224
-0.972711, 257, 193, 320, 320
-0.972781, 25, 129, 88, 256
-0.972829, 193, 33, 320, 160
-0.972967, 17, 81, 80, 208
-0.973054, 281, 297, 344, 360
-0.973152, 129, 145, 192, 208
-0.973156, 169, 121, 232, 184
-0.973159, 281, 49, 344, 176
-0.973163, 73, 81, 136, 208
-0.973167, 305, 33, 432, 160
-0.973209, 401, 161, 464, 224
-0.973533, 369, 97, 432, 160
-0.973555, 353, 97, 416, 224
-0.97379, 193, 153, 256, 216
-0.973826, 185, 241, 248, 368
-0.973866, 97, 193, 224, 320
-0.973912, 321, 145, 384, 272
-0.974469, 289, 65, 352, 128
-0.974551, 297, 97, 360, 224
-0.974647, 161, 305, 224, 368
-0.97468, 265, 65, 328, 128
-0.974917, 1, 225, 128, 352
-0.974928, 209, 273, 336, 336
-0.975144, 97, 81, 160, 208
-0.975185, 149, 273, 180, 336
-0.975261, 225, 105, 288, 168
-0.975327, 113, 121, 240, 184
-0.975336, 201, 129, 232, 256
-0.975512, 233, 265, 264, 328
-0.975515, 137, 297, 168, 360
-0.975577, 81, 153, 208, 216
-0.975713, 273, 161, 400, 224
-0.975881, 209, 289, 272, 352
-0.975886, 297, 209, 328, 272
-0.975904, 161, 185, 224, 248
-0.975932, 209, 145, 272, 272
-0.975956, 97, 1, 224, 128
-0.976136, 65, 153, 128, 216
-0.976371, 325, 289, 356, 352
-0.9765, 217, 273, 248, 336
-0.976529, 273, 137, 336, 200
-0.976623, 1, 129, 64, 256
-0.976764, 1, 129, 64, 192
-0.976832, 161, 145, 288, 208
-0.976907, 393, 289, 456, 352
-0.976922, 57, 129, 120, 192
-0.976981, 9, 289, 72, 352
-0.977071, 225, 1, 480, 128
-0.977246, 425, 49, 488, 176
-0.977251, 113, 273, 144, 336
-0.977329, 345, 289, 376, 352
-0.977382, 417, 97, 480, 160
-0.977399, 161, 273, 192, 336
-0.977496, 181, 169, 212, 232
-0.977504, 305, 177, 432, 304
-0.977634, 337, 281, 464, 344
-0.977703, 377, 49, 440, 176
-0.977856, 273, 33, 336, 288
-0.977868, 353, 241, 416, 368
-0.978182, 9, 97, 72, 160
-0.978405, 9, 241, 72, 368
-0.978631, 137, 225, 168, 352
-0.978693, 181, 129, 212, 256
-0.978702, 41, 129, 104, 375
-0.978795, 1, 65, 128, 192
-0.978821, 453, 145, 484, 272
-0.97884, 97, 1, 160, 64
-0.978849, 305, 169, 336, 232
-0.978918, 225, 161, 352, 224
-0.97897, 53, 313, 84, 375
-0.978983, 49, 113, 112, 240
-0.979039, 401, 177, 464, 304
-0.979124, 337, 313, 464, 375
-0.979181, 169, 185, 200, 248
-0.979196, 353, 281, 416, 344
-0.979284, 97, 1, 160, 128
-0.979435, 137, 185, 200, 248
-0.979468, 225, 129, 288, 375
-0.979475, 65, 273, 192, 336
-0.979589, 217, 129, 280, 192
-0.979707, 353, 305, 416, 368
-0.979743, 445, 185, 476, 248
-0.979756, 281, 185, 344, 248
-0.97976, 345, 161, 408, 224
-0.979768, 313, 265, 376, 328
-0.979828, 305, 17, 368, 144
-0.980043, 1, 129, 128, 192
-0.980119, 273, 145, 336, 272
-0.980157, 209, 121, 240, 184
-0.98018, 353, 145, 416, 272
-0.980196, 297, 129, 360, 375
-0.980197, 217, 241, 280, 304
-0.980285, 393, 121, 456, 184
-0.980353, 73, 209, 136, 336
-0.98036, 265, 41, 328, 104
-0.980399, 321, 169, 448, 232
-0.980406, 257, 105, 320, 168
-0.980432, 385, 241, 448, 368
-0.980479, 305, 193, 368, 320
-0.980507, 121, 97, 184, 224
-0.980586, 169, 1, 232, 128
-0.980644, 297, 1, 360, 256
-0.98065, 289, 33, 352, 96
-0.98071, 233, 65, 296, 192
-0.980728, 209, 193, 272, 320
-0.98082, 297, 105, 360, 168
-0.980932, 225, 105, 352, 168
-0.981145, 17, 161, 144, 224
-0.981241, 321, 81, 384, 144
-0.981295, 369, 17, 496, 144
-0.981327, 345, 97, 408, 160
-0.981417, 225, 65, 352, 128
-0.981463, 257, 257, 320, 320
-0.981512, 257, 129, 320, 375
-0.981514, 201, 153, 232, 216
-0.981601, 273, 137, 400, 200
-0.981619, 65, 129, 128, 375
-0.981667, 417, 273, 480, 336
-0.981694, 193, 193, 320, 320
-0.981723, 241, 49, 304, 112
-0.981767, 81, 305, 112, 368
-0.981844, 145, 217, 208, 280
-0.981864, 73, 129, 136, 256
-0.982, 225, 17, 288, 144
-0.982076, 425, 217, 488, 280
-0.982152, 321, 105, 384, 168
-0.982229, 193, 105, 256, 168
-0.982238, 233, 161, 296, 288
-0.982248, 137, 89, 200, 152
-0.982268, 201, 129, 264, 375
-0.982287, 65, 129, 192, 192
-0.982364, 245, 249, 276, 312
-0.982369, 265, 217, 328, 280
-0.982475, 161, 121, 288, 184
-0.982542, 81, 313, 144, 375
-0.982556, 129, 305, 256, 368
-0.982565, 325, 241, 356, 368
-0.982654, 225, 305, 352, 368
-0.982666, 97, 185, 224, 248
-0.982684, 281, 273, 344, 336
-0.982712, 97, 97, 160, 160
-0.982851, 409, 185, 472, 248
-0.982868, 173, 297, 204, 360
-0.982876, 377, 161, 440, 224
-0.982956, 177, 169, 304, 232
-0.982956, 113, 273, 240, 336
-0.983002, 49, 97, 112, 160
-0.983027, 129, 273, 160, 336
-0.983058, 209, 129, 336, 192
-0.983189, 465, 185, 496, 248
-0.98324, 469, 145, 500, 272
-0.98327, 49, 1, 176, 128
-0.983559, 441, 145, 472, 272
-0.983563, 297, 161, 328, 288
-0.983605, 161, 89, 224, 152
-0.983784, 353, 137, 416, 200
-0.983831, 49, 241, 112, 368
-0.983853, 273, 193, 400, 256
-0.984054, 73, 241, 136, 304
-0.984056, 369, 153, 496, 216
-0.984076, 233, 289, 296, 352
-0.984111, 345, 49, 408, 176
-0.984116, 73, 97, 136, 160
-0.984137, 293, 161, 324, 224
-0.984162, 337, 193, 400, 320
-0.98419, 25, 177, 88, 304
-0.98419, 393, 97, 456, 160
-0.984205, 17, 281, 144, 344
-0.984217, 217, 129, 248, 256
-0.984227, 145, 193, 272, 256
-0.984234, 181, 193, 212, 256
-0.98424, 217, 33, 280, 288
-0.984267, 249, 137, 312, 200
-0.984278, 121, 225, 184, 288
-0.984292, 309, 137, 340, 200
-0.984314, 317, 169, 348, 232
-0.984354, 349, 241, 380, 368
-0.98439, 313, 161, 344, 288
-0.984428, 161, 241, 192, 368
-0.984431, 181, 137, 212, 200
-0.984442, 1, 177, 64, 304
-0.984485, 145, 89, 272, 152
-0.984495, 261, 265, 292, 328
-0.984552, 369, 97, 496, 160
-0.984558, 445, 161, 476, 224
-0.984576, 33, 169, 96, 232
-0.984577, 105, 153, 136, 216
-0.984649, 129, 121, 160, 184
-0.984699, 185, 1, 248, 256
-0.984753, 225, 249, 352, 312
-0.984775, 393, 313, 456, 375
-0.984923, 1, 153, 64, 216
-0.984928, 249, 273, 280, 336
-0.984951, 185, 177, 248, 304
-0.984954, 121, 225, 152, 352
-0.985149, 69, 137, 100, 200
-0.985237, 209, 81, 272, 144
-0.985301, 113, 129, 176, 375
-0.985363, 401, 33, 464, 160
-0.985407, 289, 105, 416, 168
-0.985459, 161, 249, 224, 312
-0.985466, 33, 97, 160, 160
-0.985485, 145, 1, 272, 128
-0.98565, 369, 185, 496, 248
-0.985679, 81, 113, 112, 240
-0.985746, 385, 129, 448, 375
-0.98576, 337, 225, 368, 352
-0.985836, 125, 305, 156, 368
-0.985844, 65, 33, 128, 288
-0.98585, 217, 153, 280, 216
-0.985862, 305, 241, 368, 304
-0.985866, 113, 249, 240, 312
-0.9859, 257, 41, 384, 104
-0.985913, 433, 193, 464, 320
-0.985925, 121, 1, 152, 128
-0.985929, 189, 113, 220, 176
-0.985961, 65, 305, 96, 368
-0.985967, 81, 129, 112, 192
-0.98598, 429, 145, 460, 272
-0.985981, 193, 201, 320, 264
-0.985999, 445, 193, 476, 320
-0.986014, 1, 217, 64, 280
-0.986033, 25, 209, 88, 272
-0.986048, 385, 73, 448, 136
-0.986048, 353, 153, 384, 216
-0.986055, 153, 97, 216, 352
-0.986113, 97, 145, 128, 272
-0.986135, 161, 1, 224, 64
-0.986146, 337, 257, 464, 320
-0.986197, 313, 41, 376, 104
-0.986268, 417, 313, 448, 375
-0.986308, 49, 209, 112, 272
-0.986311, 205, 273, 236, 336
-0.986329, 97, 201, 160, 264
-0.986369, 433, 161, 464, 224
-0.986439, 273, 1, 336, 375
-0.986481, 217, 145, 248, 208
-0.986487, 241, 161, 304, 224
-0.986547, 257, 1, 384, 128
-0.986598, 117, 161, 148, 224
-0.986623, 385, 265, 448, 328
-0.986636, 277, 145, 308, 272
-0.986668, 105, 129, 136, 192
-0.986688, 241, 225, 368, 288
-0.986688, 345, 129, 408, 375
-0.986737, 273, 65, 400, 128
-0.986833, 157, 209, 188, 272
-0.986861, 281, 1, 344, 128
-0.986921, 97, 89, 224, 152
-0.987001, 377, 145, 440, 272
-0.987008, 313, 73, 344, 136
-0.98711, 209, 81, 240, 208
-0.987121, 321, 137, 448, 200
-0.987125, 321, 129, 384, 375
-0.987167, 285, 217, 316, 280
-0.987176, 337, 257, 400, 320
-0.987179, 217, 33, 280, 96
-0.987182, 145, 129, 176, 192
-0.987235, 225, 241, 256, 368
-0.987277, 229, 97, 260, 224
-0.98728, 257, 241, 288, 368
-0.987304, 405, 97, 436, 160
-0.987306, 97, 1, 224, 64
-0.987364, 297, 113, 328, 240
-0.987395, 89, 161, 120, 224
-0.987434, 93, 129, 124, 192
-0.98746, 9, 81, 40, 208
-0.987493, 49, 49, 176, 176
-0.987502, 161, 257, 288, 320
-0.987515, 25, 33, 88, 288
-0.987539, 329, 193, 392, 256
-0.987584, 193, 1, 256, 128
-0.987591, 313, 113, 344, 240
-0.987616, 193, 41, 320, 104
-0.987628, 285, 193, 316, 320
-0.987761, 65, 209, 192, 272
-0.98778, 409, 289, 440, 352
-0.987801, 457, 153, 488, 216
-0.987862, 1, 193, 128, 256
-0.987867, 297, 65, 328, 128
-0.987868, 417, 121, 480, 184
-0.987906, 137, 301, 200, 332
-0.987979, 329, 145, 360, 272
-0.988107, 33, 281, 96, 344
-0.988117, 25, 313, 88, 375
-0.988126, 17, 161, 48, 288
-0.98818, 5, 129, 36, 192
-0.98823, 305, 305, 336, 368
-0.988376, 181, 193, 212, 320
-0.988376, 249, 33, 312, 288
-0.988379, 217, 249, 248, 312
-0.988384, 117, 145, 148, 272
-0.988397, 185, 177, 248, 240
-0.988404, 321, 65, 448, 128
-0.98841, 365, 305, 396, 368
-0.988426, 209, 277, 272, 308
-0.988435, 69, 81, 100, 208
-0.988445, 257, 273, 384, 336
-0.988457, 201, 9, 264, 72
-0.988457, 425, 297, 488, 360
-0.988462, 433, 185, 464, 248
-0.988462, 177, 97, 240, 352
-0.988467, 357, 145, 388, 272
-0.98849, 409, 73, 472, 136
-0.988522, 341, 169, 372, 232
-0.988526, 321, 297, 384, 328
-0.988566, 457, 193, 488, 320
-0.988571, 341, 161, 372, 288
-0.988578, 421, 97, 452, 224
-0.988629, 249, 1, 312, 375
-0.988665, 89, 129, 152, 375
-0.988689, 105, 81, 136, 208
-0.988697, 453, 97, 484, 224
-0.9887, 149, 225, 180, 352
-0.988703, 1, 129, 64, 375
-0.988725, 321, 1, 384, 256
-0.988728, 249, 193, 312, 256
-0.988793, 229, 121, 260, 184
-0.988794, 229, 289, 260, 352
-0.9888, 393, 97, 424, 160
-0.988805, 349, 97, 380, 224
-0.988843, 429, 97, 460, 160
-0.988935, 241, 73, 304, 136
-0.988939, 425, 281, 456, 344
-0.988947, 69, 113, 100, 176
-0.988961, 337, 97, 368, 224
-0.98897, 417, 121, 448, 184
-0.988975, 293, 185, 324, 248
-0.989002, 49, 313, 112, 344
-0.989012, 409, 97, 440, 224
-0.989021, 49, 161, 112, 288
-0.989046, 105, 241, 136, 368
-0.989062, 125, 1, 156, 64
-0.989096, 345, 73, 408, 136
-0.989119, 117, 249, 148, 312
-0.989189, 161, 161, 192, 224
-0.989214, 345, 265, 376, 328
-0.989252, 97, 281, 352, 344
-0.989262, 337, 145, 368, 208
-0.989266, 117, 129, 148, 192
-0.989275, 437, 97, 468, 224
-0.989279, 1, 153, 32, 216
-0.989288, 329, 217, 392, 280
-0.989307, 57, 177, 120, 240
-0.98931, 365, 145, 396, 208
-0.989315, 289, 157, 352, 188
-0.989324, 325, 145, 356, 208
-0.989339, 161, 113, 192, 176
-0.989349, 173, 113, 204, 176
-0.989383, 257, 165, 320, 196
-0.989401, 93, 81, 124, 208
-0.98942, 289, 49, 320, 176
-0.989422, 17, 241, 144, 304
-0.989438, 273, 249, 400, 312
-0.989456, 121, 1, 184, 375
-0.989493, 113, 1, 144, 64
-0.989495, 305, 41, 432, 104
-0.989555, 257, 1, 320, 128
-0.989568, 185, 81, 248, 144
-0.989615, 1, 305, 500, 368
-0.989616, 321, 313, 352, 375
-0.989669, 321, 309, 384, 340
-0.989671, 325, 81, 356, 144
-0.989696, 245, 241, 276, 368
-0.98973, 369, 169, 400, 232
-0.989744, 181, 81, 212, 208
-0.989745, 277, 41, 308, 104
-0.989765, 433, 197, 496, 228
-0.989799, 105, 33, 168, 288
-0.989803, 381, 97, 412, 160
-0.989815, 365, 281, 396, 344
-0.989832, 469, 161, 500, 224
-0.989845, 169, 209, 232, 272
-0.989892, 289, 137, 320, 200
-0.989907, 297, 169, 360, 200
-0.989976, 29, 177, 60, 304
-0.990006, 309, 105, 340, 168
-0.990012, 301, 241, 332, 368
-0.990018, 13, 153, 44, 216
-0.990041, 97, 309, 160, 340
-0.990042, 73, 201, 136, 264
-0.990107, 313, 333, 376, 364
-0.99011, 313, 321, 376, 352
-0.990128, 77, 161, 108, 224
-0.990133, 193, 193, 224, 256
-0.990213, 469, 97, 500, 224
-0.990224, 425, 129, 488, 375
-0.990237, 161, 145, 192, 272
-0.990242, 333, 265, 364, 328
-0.990258, 337, 209, 464, 272
-0.990306, 17, 113, 48, 176
-0.990317, 9, 241, 72, 304
-0.990344, 5, 105, 36, 168
-0.990382, 289, 209, 352, 240
-0.990444, 1, 313, 256, 375
-0.990452, 97, 345, 160, 375
-0.990471, 325, 81, 356, 208
-0.990475, 313, 345, 376, 375
-0.990487, 265, 61, 328, 92
-0.990496, 9, 73, 72, 136
-0.990514, 1, 129, 32, 256
-0.990546, 433, 209, 496, 240
-0.990548, 49, 1, 176, 64
-0.990553, 445, 217, 476, 280
-0.990589, 33, 129, 64, 256
-0.990592, 129, 153, 160, 216
-0.990612, 197, 81, 228, 208
-0.990649, 313, 149, 376, 180
-0.990662, 317, 209, 348, 272
-0.99069, 177, 65, 304, 128
-0.990693, 97, 305, 352, 368
-0.990709, 345, 169, 408, 200
-0.99071, 161, 189, 224, 220
-0.990717, 41, 65, 104, 192
-0.990742, 113, 269, 176, 300
-0.990749, 33, 121, 288, 184
-0.990749, 129, 249, 160, 312
-0.990756, 17, 1, 80, 375
-0.990771, 77, 161, 108, 288
-0.990784, 281, 301, 344, 332
-0.990788, 417, 249, 480, 312
-0.990806, 281, 317, 344, 348
-0.990808, 97, 297, 160, 328
-0.99082, 25, 129, 88, 160
-0.990838, 353, 185, 416, 248
-0.990864, 145, 1, 208, 375
-0.990867, 257, 305, 500, 368
-0.990878, 185, 293, 248, 324
-0.99088, 393, 97, 424, 224
-0.990889, 241, 25, 304, 88
-0.990901, 433, 1, 496, 375
-0.990903, 249, 105, 280, 168
-0.990905, 149, 145, 180, 272
-0.99092, 273, 73, 336, 104
-0.990943, 217, 265, 280, 296
-0.990945, 393, 1, 456, 375
-0.99095, 321, 169, 384, 200
-0.990962, 425, 173, 488, 204
-0.990969, 249, 81, 280, 208
-0.991005, 369, 121, 496, 184
-0.991005, 305, 189, 368, 220
-0.991011, 313, 41, 344, 104
-0.991022, 153, 165, 216, 196
-0.991026, 281, 145, 344, 176
-0.99103, 145, 317, 208, 348
-0.991038, 73, 125, 136, 156
-0.991048, 121, 313, 184, 344
-0.991062, 369, 65, 496, 128
-0.991062, 1, 217, 128, 280
-0.991063, 1, 165, 64, 196
-0.991071, 313, 245, 376, 276
-0.991074, 129, 289, 192, 320
-0.991101, 41, 325, 104, 356
-0.991113, 133, 81, 164, 208
-0.991116, 177, 165, 240, 196
-0.991133, 329, 105, 360, 168
-0.991134, 161, 305, 224, 336
-0.991136, 369, 181, 432, 212
-0.991159, 185, 177, 248, 208
-0.991163, 209, 153, 272, 184
-0.991176, 365, 97, 396, 160
-0.991186, 121, 345, 184, 375
-0.991195, 65, 137, 128, 168
-0.991205, 241, 61, 304, 92
-0.991214, 185, 249, 248, 312
-0.991215, 25, 157, 88, 188
-0.991257, 401, 161, 464, 192
-0.991268, 97, 165, 160, 196
-0.991283, 185, 133, 248, 164
-0.991289, 185, 289, 216, 352
-0.991299, 145, 89, 176, 152
-0.991305, 97, 193, 160, 320
-0.991311, 249, 265, 312, 296
-0.991317, 385, 101, 448, 132
-0.991318, 25, 81, 56, 208
-0.991321, 281, 329, 344, 360
-0.991335, 241, 153, 304, 184
-0.991339, 217, 289, 280, 320
-0.991356, 265, 49, 328, 80
-0.991365, 369, 161, 432, 192
-0.991376, 213, 241, 244, 368
-0.991406, 349, 105, 380, 168
-0.991427, 145, 233, 176, 296
-0.991444, 265, 249, 328, 280
-0.991447, 137, 153, 200, 184
-0.991453, 361, 97, 392, 224
-0.991456, 313, 1, 376, 375
-0.99146, 81, 149, 144, 180
-0.991475, 433, 161, 496, 192
-0.991489, 401, 205, 464, 236
-0.991494, 209, 165, 272, 196
-0.991499, 393, 177, 456, 208
-0.991502, 385, 289, 448, 320
-0.991504, 105, 281, 168, 312
-0.991535, 281, 221, 344, 252
-0.991549, 241, 281, 304, 312
-0.991552, 321, 285, 384, 316
-0.991569, 65, 345, 128, 375
-0.99162, 401, 209, 464, 272
-0.991625, 185, 149, 248, 180
-0.991636, 1, 293, 64, 324
-0.991643, 129, 145, 384, 208
-0.99165, 289, 61, 352, 92
-0.991651, 53, 289, 84, 352
-0.991653, 161, 289, 224, 320
-0.991654, 129, 165, 192, 196
-0.991659, 409, 285, 472, 316
-0.991662, 229, 145, 260, 208
-0.991664, 161, 117, 224, 148
-0.991675, 261, 97, 292, 224
-0.991683, 97, 333, 160, 364
-0.991688, 129, 225, 256, 288
-0.991691, 65, 161, 96, 224
-0.991693, 417, 97, 448, 160
-0.991694, 313, 137, 376, 168
-0.9917, 353, 285, 416, 316
-0.991707, 381, 97, 412, 224
-0.991724, 97, 49, 224, 176
-0.991734, 353, 301, 416, 332
-0.991747, 289, 245, 352, 276
-0.991749, 97, 321, 160, 352
-0.991754, 169, 137, 200, 200
-0.991793, 1, 129, 64, 160
-0.991809, 73, 165, 136, 196
-0.99181, 169, 1, 232, 375
-0.991813, 161, 89, 192, 152
-0.991821, 225, 49, 288, 80
-0.991835, 433, 57, 496, 120
-0.991835, 425, 185, 488, 216
-0.99184, 353, 345, 416, 375
-0.99185, 225, 17, 352, 80
-0.99186, 417, 221, 480, 252
-0.991867, 81, 265, 144, 296
-0.991872, 185, 281, 248, 312
-0.991876, 209, 113, 272, 144
-0.991878, 269, 49, 300, 176
-0.99188, 377, 117, 440, 148
-0.991882, 1, 97, 64, 128
-0.991883, 301, 65, 332, 192
-0.991907, 1, 73, 128, 136
-0.991908, 353, 333, 416, 364
-0.991912, 65, 129, 96, 256
-0.991924, 265, 201, 328, 232
-0.991936, 233, 253, 296, 284
-0.991949, 257, 161, 500, 224
-0.991953, 97, 5, 160, 36
-0.991958, 409, 101, 472, 132
-0.991961, 313, 225, 344, 352
-0.991964, 129, 1, 192, 32
-0.991966, 345, 105, 408, 136
-0.991967, 145, 233, 208, 264
-0.991968, 289, 105, 320, 168
-0.99197, 281, 289, 344, 320
-0.991971, 145, 177, 208, 208
-0.991975, 185, 189, 248, 220
-0.991985, 337, 217, 368, 280
-0.991996, 25, 169, 88, 200
-0.992004, 273, 97, 304, 224
-0.992006, 345, 157, 408, 188
-0.992015, 313, 65, 376, 96
-0.992018, 273, 177, 336, 208
-0.992022, 353, 321, 416, 352
-0.992024, 281, 177, 312, 240
-0.992028, 57, 137, 88, 200
-0.992049, 185, 305, 248, 336
-0.992057, 185, 117, 248, 148
-0.99206, 33, 181, 96, 212
-0.992062, 177, 17, 304, 80
-0.992063, 25, 141, 88, 172
-0.992065, 273, 341, 336, 372
-0.992069, 385, 301, 448, 332
-0.992083, 117, 81, 148, 208
-0.992088, 97, 121, 160, 152
-0.992106, 161, 201, 224, 232
-0.992132, 225, 37, 288, 68
-0.992132, 41, 345, 104, 375
-0.99214, 413, 49, 444, 176
-0.99214, 165, 305, 196, 336
-0.992164, 345, 181, 408, 212
-0.992183, 409, 305, 472, 336
-0.992192, 217, 137, 280, 168
-0.992196, 57, 281, 120, 344
-0.992219, 33, 297, 64, 360
-0.992223, 161, 273, 224, 304
-0.992233, 133, 297, 164, 328
-0.992234, 121, 245, 184, 276
-0.992238, 309, 157, 340, 188
-0.992239, 409, 321, 472, 352
-0.992244, 209, 125, 272, 156
-0.992262, 321, 233, 384, 264
-0.992266, 153, 301, 184, 332
-0.99233, 237, 273, 268, 304
-0.992341, 25, 137, 56, 200
-0.992356, 417, 145, 448, 272
-0.992423, 57, 81, 88, 208
-0.992425, 297, 209, 328, 240
-0.992435, 1, 185, 64, 248
-0.99246, 213, 277, 244, 308
-0.992483, 89, 1, 152, 375
-0.992491, 193, 281, 448, 344
-0.9925, 437, 197, 468, 228
-0.992505, 45, 121, 76, 184
-0.992515, 325, 293, 356, 324
-0.992542, 145, 201, 176, 264
-0.992546, 197, 177, 228, 304
-0.992549, 181, 185, 212, 216
-0.992562, 313, 249, 344, 312
-0.992566, 1, 17, 128, 144
-0.992571, 441, 97, 472, 160
-0.99258, 117, 261, 148, 292
-0.992591, 365, 241, 396, 368
-0.992598, 173, 169, 204, 200
-0.992604, 433, 49, 464, 176
-0.99262, 289, 161, 320, 192
-0.992623, 337, 165, 368, 196
-0.992625, 53, 313, 84, 344
-0.992636, 25, 169, 56, 232
-0.992642, 81, 305, 208, 336
-0.992654, 349, 297, 380, 328
-0.992655, 449, 209, 480, 240
-0.992677, 269, 225, 300, 352
-0.992684, 325, 169, 356, 200
-0.99269, 9, 161, 40, 192
-0.992692, 225, 273, 256, 304
-0.992701, 181, 1, 212, 128
-0.992722, 305, 169, 336, 200
-0.992744, 241, 261, 272, 292
-0.992745, 309, 145, 340, 176
-0.992746, 225, 1, 288, 375
-0.992748, 345, 1, 408, 375
-0.99275, 65, 233, 192, 296
-0.992759, 85, 313, 116, 344
-0.992765, 449, 197, 480, 228
-0.992769, 129, 145, 160, 272
-0.992805, 45, 81, 76, 208
-0.992813, 357, 161, 388, 192
-0.992813, 101, 273, 132, 336
-0.992826, 253, 257, 284, 288
-0.992834, 293, 41, 324, 104
-0.992839, 113, 281, 144, 312
-0.992847, 125, 89, 156, 152
-0.992848, 401, 49, 432, 176
-0.992856, 317, 245, 348, 276
-0.992864, 345, 1, 408, 256
-0.992873, 85, 169, 116, 200
-0.99288, 97, 97, 128, 160
-0.992883, 69, 125, 100, 156
-0.992907, 273, 53, 304, 84
-0.992907, 189, 165, 220, 196
-0.992912, 253, 269, 284, 300
-0.992915, 337, 293, 368, 324
-0.992916, 129, 169, 160, 200
-0.992917, 33, 145, 288, 208
-0.992925, 417, 161, 448, 224
-0.99293, 141, 157, 172, 188
-0.992932, 289, 149, 320, 180
-0.992933, 321, 305, 352, 336
-0.992935, 125, 345, 156, 375
-0.99294, 193, 181, 224, 212
-0.992947, 441, 221, 472, 252
-0.992949, 69, 137, 100, 168
-0.99295, 433, 209, 464, 240
-0.992951, 157, 317, 188, 348
-0.992954, 209, 125, 240, 156
-0.992958, 169, 317, 200, 348
-0.992961, 269, 161, 300, 192
-0.992962, 1, 145, 32, 176
-0.992972, 73, 309, 104, 340
-0.992973, 133, 313, 164, 344
-0.992983, 157, 237, 188, 268
-0.992993, 297, 69, 328, 100
-0.992998, 153, 285, 184, 316
-0.992998, 257, 169, 288, 200
-0.993, 65, 1, 128, 375
-0.993005, 381, 177, 412, 208
-0.993014, 69, 169, 100, 200
-0.993022, 305, 197, 336, 228
-0.99303, 289, 225, 320, 256
-0.993032, 21, 165, 52, 196
-0.993032, 285, 61, 316, 92
-0.993033, 353, 173, 384, 204
-0.993034, 85, 125, 116, 156
-0.993036, 177, 305, 208, 336
-0.993036, 265, 261, 296, 292
-0.993041, 469, 193, 500, 224
-0.993046, 145, 313, 176, 344
-0.993047, 397, 105, 428, 136
-0.993064, 201, 281, 232, 312
-0.993065, 329, 237, 360, 268
-0.993068, 121, 297, 152, 328
-0.993068, 305, 181, 336, 212
-0.99307, 293, 173, 324, 204
-0.993071, 461, 209, 492, 240
-0.993074, 241, 233, 304, 296
-0.993077, 305, 317, 336, 348
-0.993081, 305, 305, 336, 336
-0.993083, 169, 193, 200, 224
-0.99309, 105, 165, 136, 196
-0.993106, 257, 157, 288, 188
-0.993115, 241, 289, 272, 320
-0.993117, 153, 221, 184, 252
-0.99312, 177, 153, 208, 184
-0.993123, 417, 325, 448, 356
-0.993125, 49, 325, 80, 356
-0.993132, 465, 49, 496, 176
-0.993133, 121, 157, 152, 188
-0.99314, 321, 149, 352, 180
-0.993146, 1, 97, 32, 128
-0.993151, 413, 161, 444, 192
-0.993151, 33, 345, 160, 375
-0.993162, 369, 165, 400, 196
-0.993163, 161, 169, 192, 200
-0.993164, 221, 289, 252, 320
-0.993164, 337, 149, 368, 180
-0.993166, 245, 165, 276, 196
-0.993168, 33, 157, 64, 188
-0.99317, 285, 49, 316, 80
-0.993173, 393, 181, 424, 212
-0.993177, 309, 73, 340, 104
-0.993178, 449, 161, 480, 192
-0.993183, 201, 161, 232, 192
-0.993183, 261, 57, 292, 88
-0.993184, 9, 293, 40, 324
-0.993187, 465, 177, 496, 208
-0.993187, 229, 145, 260, 176
-0.993189, 1, 109, 32, 140
-0.993197, 109, 345, 140, 375
-0.993198, 413, 125, 444, 156
-0.993198, 101, 149, 132, 180
-0.993203, 81, 181, 112, 212
-0.993205, 209, 293, 240, 324
-0.993208, 349, 285, 380, 316
-0.993208, 385, 185, 448, 248
-0.993212, 413, 285, 444, 316
-0.993213, 193, 201, 224, 232
-0.993216, 13, 149, 44, 180
-0.993217, 365, 345, 396, 375
-0.993219, 253, 281, 284, 312
-0.99322, 301, 57, 332, 88
-0.993221, 57, 125, 88, 156
-0.993226, 1, 129, 32, 160
-0.99323, 377, 105, 408, 136
-0.993232, 421, 101, 452, 132
-0.993237, 141, 285, 172, 316
-0.993238, 229, 261, 260, 292
-0.993239, 365, 285, 396, 316
-0.993241, 181, 201, 212, 232
-0.993243, 165, 181, 196, 212
-0.993246, 129, 269, 160, 300
-0.993246, 209, 173, 240, 204
-0.993251, 461, 161, 492, 192
-0.993253, 365, 149, 396, 180
-0.993254, 101, 1, 132, 32
-0.99327, 225, 105, 480, 168
-0.993369, 49, 185, 176, 248
-0.993401, 453, 49, 484, 176
-0.993403, 285, 97, 316, 224
-0.993473, 1, 289, 256, 352
-0.993496, 163, 289, 178, 352
-0.993507, 161, 1, 224, 256
-0.993529, 257, 145, 288, 272
-0.993582, 157, 297, 172, 360
-0.993583, 389, 49, 420, 176
-0.993587, 177, 297, 192, 360
-0.993634, 109, 1, 140, 128
-0.99364, 307, 177, 322, 240
-0.993671, 469, 193, 500, 320
-0.993672, 129, 33, 192, 288
-0.993707, 41, 1, 104, 375
-0.993708, 273, 165, 400, 196
-0.993723, 303, 201, 318, 264
-0.993754, 161, 169, 416, 232
-0.993769, 193, 1, 256, 375
-0.993771, 241, 193, 272, 320
-0.993789, 257, 185, 500, 248
-0.993825, 149, 297, 164, 360
-0.99389, 171, 297, 186, 360
-0.993939, 121, 257, 136, 320
-0.993944, 177, 305, 304, 368
-0.993993, 33, 333, 160, 364
-0.994021, 81, 317, 208, 348
-0.994104, 169, 193, 200, 320
-0.994126, 313, 17, 344, 144
-0.994128, 1, 281, 500, 344
-0.994158, 245, 129, 276, 256
-0.994186, 225, 249, 480, 312
-0.994197, 289, 225, 416, 288
-0.994246, 241, 265, 256, 328
-0.994264, 257, 137, 500, 200
-0.994274, 313, 161, 328, 224
-0.994307, 353, 193, 384, 320
-0.994333, 257, 193, 288, 320
-0.994335, 177, 225, 304, 288
-0.99436, 1, 137, 500, 200
-0.994369, 129, 113, 384, 176
-0.994377, 1, 33, 64, 288
-0.994422, 55, 313, 70, 375
-0.994446, 33, 313, 160, 344
-0.994483, 161, 73, 416, 136
-0.994494, 289, 333, 416, 364
-0.994495, 33, 89, 288, 152
-0.994508, 53, 241, 84, 368
-0.99451, 369, 145, 400, 272
-0.994545, 227, 273, 242, 336
-0.994545, 273, 305, 400, 336
-0.994548, 17, 165, 144, 196
-0.994564, 141, 289, 156, 352
-0.994565, 233, 49, 264, 176
-0.994568, 433, 241, 464, 368
-0.994588, 219, 273, 234, 336
-0.994648, 369, 1, 432, 256
-0.994648, 81, 169, 208, 200
-0.994664, 433, 33, 496, 288
-0.994665, 247, 265, 262, 328
-0.994696, 145, 41, 272, 104
-0.99473, 377, 49, 408, 176
-0.994739, 305, 321, 432, 352
-0.994741, 157, 273, 172, 336
-0.994758, 289, 345, 416, 375
-0.99476, 393, 33, 456, 288
-0.994822, 161, 81, 192, 208
-0.994822, 213, 193, 244, 320
-0.99483, 253, 249, 268, 312
-0.994835, 235, 273, 250, 336
-0.994842, 127, 273, 142, 336
-0.994844, 145, 97, 176, 224
-0.994895, 1, 97, 500, 160
-0.994945, 177, 153, 304, 184
-0.995024, 161, 293, 288, 324
-0.995061, 295, 217, 310, 280
-0.995066, 249, 17, 280, 144
-0.995107, 193, 277, 320, 308
-0.995134, 321, 165, 448, 196
-0.995135, 327, 289, 342, 352
-0.995152, 65, 241, 96, 368
-0.99516, 319, 169, 334, 232
-0.995173, 141, 313, 156, 375
-0.995188, 337, 289, 464, 320
-0.99522, 449, 185, 464, 248
-0.995243, 129, 281, 256, 312
-0.995244, 225, 165, 352, 196
-0.995259, 273, 17, 400, 80
-0.995331, 425, 289, 440, 352
-0.995337, 229, 145, 260, 272
-0.995339, 337, 185, 464, 216
-0.995374, 263, 265, 278, 328
-0.995383, 329, 161, 344, 224
-0.995404, 189, 161, 204, 224
-0.995432, 377, 1, 440, 128
-0.995436, 257, 153, 384, 184
-0.995448, 289, 177, 416, 208
-0.99546, 361, 289, 376, 352
-0.995541, 337, 301, 464, 332
-0.995568, 129, 305, 256, 336
-0.995576, 81, 65, 112, 192
-0.995579, 257, 217, 500, 280
-0.995581, 177, 185, 192, 248
-0.995596, 1, 265, 256, 328
-0.995601, 225, 317, 352, 348
-0.995602, 65, 193, 320, 256
-0.995602, 197, 161, 212, 224
-0.995605, 81, 153, 208, 184
-0.995619, 1, 153, 128, 184
-0.995671, 225, 69, 352, 100
-0.995673, 37, 225, 68, 352
-0.995694, 149, 273, 164, 336
-0.995707, 173, 241, 204, 368
-0.995718, 289, 1, 320, 128
-0.995732, 273, 293, 400, 324
-0.995734, 425, 313, 440, 375
-0.995767, 223, 121, 238, 184
-0.995779, 215, 121, 230, 184
-0.995783, 227, 145, 242, 208
-0.995784, 431, 273, 446, 336
-0.995797, 183, 177, 198, 240
-0.995819, 337, 1, 400, 128
-0.995823, 353, 33, 480, 96
-0.995834, 169, 273, 184, 336
-0.995892, 213, 273, 228, 336
-0.995917, 183, 297, 198, 360
-0.995936, 353, 317, 480, 348
-0.995944, 185, 241, 216, 368
-0.995947, 369, 173, 496, 204
-0.995958, 197, 129, 212, 192
-0.995976, 45, 129, 76, 256
-0.995985, 441, 161, 456, 224
-0.99599, 49, 125, 176, 156
-0.995994, 225, 301, 352, 332
-0.995995, 1, 169, 256, 232
-0.995999, 455, 177, 470, 240
-0.996019, 337, 333, 464, 364
-0.996021, 209, 289, 336, 320
-0.996023, 217, 1, 248, 128
-0.996029, 413, 241, 444, 368
-0.996049, 253, 273, 268, 336
-0.996055, 133, 1, 164, 128
-0.996063, 369, 205, 496, 236
-0.996065, 95, 305, 110, 368
-0.996087, 355, 289, 370, 352
-0.996102, 81, 241, 112, 368
-0.996126, 135, 297, 150, 360
-0.996136, 121, 161, 136, 224
-0.996136, 1, 129, 128, 160
-0.996154, 313, 185, 328, 248
-0.996161, 205, 153, 220, 216
-0.996166, 161, 185, 288, 216
-0.9962, 209, 121, 224, 184
-0.996214, 369, 161, 496, 192
-0.996234, 461, 185, 476, 248
-0.996235, 443, 185, 458, 248
-0.996245, 177, 165, 304, 196
-0.996247, 225, 329, 352, 360
-0.996269, 401, 145, 432, 272
-0.996278, 337, 17, 368, 144
-0.996282, 241, 177, 368, 208
-0.996299, 313, 137, 328, 200
-0.996316, 449, 161, 464, 224
-0.996328, 337, 345, 464, 375
-0.996328, 113, 293, 240, 324
-0.996364, 163, 265, 178, 328
-0.996375, 163, 209, 178, 272
-0.996389, 467, 185, 482, 248
-0.996396, 81, 185, 208, 216
-0.996411, 97, 197, 224, 228
-0.996414, 481, 185, 496, 248
-0.996417, 257, 65, 500, 128
-0.996425, 201, 241, 232, 368
-0.996427, 365, 153, 380, 216
-0.996429, 91, 129, 106, 192
-0.996434, 33, 1, 288, 64
-0.996434, 229, 249, 244, 312
-0.996453, 241, 265, 368, 296
-0.996461, 129, 257, 384, 320
-0.996467, 349, 289, 364, 352
-0.996475, 1, 73, 500, 136
-0.996487, 137, 297, 152, 328
-0.99649, 133, 273, 148, 336
-0.996497, 433, 297, 448, 360
-0.996501, 163, 313, 178, 375
-0.996516, 121, 1, 184, 128
-0.996519, 65, 305, 80, 368
-0.996519, 339, 289, 354, 352
-0.996522, 115, 257, 130, 320
-0.996522, 333, 289, 348, 352
-0.996531, 113, 121, 240, 152
-0.996535, 225, 229, 352, 260
-0.996539, 37, 129, 52, 192
-0.99655, 157, 233, 172, 296
-0.996561, 97, 1, 224, 32
-0.99658, 305, 149, 432, 180
-0.996584, 129, 165, 256, 196
-0.996588, 129, 217, 384, 280
-0.996596, 321, 105, 448, 136
-0.996596, 97, 193, 128, 320
-0.996596, 121, 129, 136, 192
-0.996602, 471, 153, 486, 216
-0.996602, 273, 61, 400, 92
-0.996611, 243, 289, 258, 352
-0.996612, 421, 97, 436, 160
-0.996614, 189, 185, 204, 248
-0.996629, 39, 153, 54, 216
-0.996638, 433, 1, 496, 128
-0.996643, 83, 161, 98, 224
-0.996647, 219, 249, 234, 312
-0.996652, 319, 145, 334, 208
-0.996669, 81, 345, 208, 375
-0.996676, 113, 65, 240, 128
-0.996679, 309, 209, 324, 272
-0.99668, 241, 277, 368, 308
-0.996682, 175, 273, 190, 336
-0.996692, 421, 193, 452, 320
-0.996707, 197, 193, 212, 256
-0.996709, 461, 161, 476, 224
-0.996712, 183, 153, 198, 216
-0.996723, 129, 153, 144, 216
-0.996737, 161, 265, 288, 296
-0.99674, 355, 169, 370, 232
-0.996751, 475, 185, 490, 248
-0.996756, 179, 305, 194, 336
-0.99676, 193, 113, 320, 144
-0.996763, 75, 145, 90, 208
-0.996763, 359, 145, 374, 208
-0.996765, 235, 249, 250, 312
-0.996769, 175, 161, 190, 224
-0.996783, 305, 205, 320, 236
-0.99679, 215, 145, 230, 208
-0.996799, 425, 121, 440, 184
-0.996805, 71, 305, 86, 368
-0.99681, 483, 161, 498, 224
-0.996812, 1, 141, 128, 172
-0.996816, 129, 317, 256, 348
-0.99682, 203, 121, 218, 184
-0.996824, 307, 153, 322, 216
-0.996834, 313, 65, 344, 192
-0.996849, 455, 153, 470, 216
-0.996855, 99, 129, 114, 192
-0.996858, 85, 129, 100, 192
-0.996871, 49, 137, 176, 168
-0.996879, 241, 253, 368, 284
-0.99688, 353, 49, 384, 176
-0.996881, 345, 257, 360, 320
-0.99689, 81, 305, 96, 368
-0.996895, 27, 169, 42, 232
-0.996899, 337, 233, 464, 296
-0.996901, 121, 261, 136, 292
-0.99691, 273, 221, 400, 252
-0.996919, 13, 209, 44, 336
-0.996932, 81, 329, 208, 360
-0.996943, 193, 141, 320, 172
-0.996946, 325, 17, 356, 144
-0.99695, 89, 305, 104, 368
-0.996954, 1, 101, 128, 132
-0.996967, 55, 289, 70, 352
-0.996969, 327, 137, 342, 200
-0.996977, 111, 129, 126, 192
-0.996977, 257, 41, 500, 104
-0.996982, 159, 129, 174, 192
-0.996991, 337, 161, 352, 224
-0.996993, 301, 177, 316, 240
-0.996996, 77, 129, 108, 375
-0.997, 129, 133, 256, 164
-0.997019, 409, 97, 424, 160
-0.99702, 297, 217, 312, 248
-0.997027, 311, 65, 326, 128
-0.997029, 355, 265, 370, 328
-0.997041, 105, 129, 120, 192
-0.997047, 431, 249, 446, 312
-0.997053, 427, 97, 442, 160
-0.997071, 445, 197, 460, 228
-0.997074, 127, 129, 142, 192
-0.997082, 161, 193, 416, 256
-0.997085, 133, 1, 148, 64
-0.997087, 225, 341, 352, 372
-0.9971, 169, 177, 184, 240
-0.997106, 11, 121, 26, 184
-0.997108, 17, 177, 144, 208
-0.997111, 61, 129, 92, 375
-0.997116, 327, 73, 342, 136
-0.997118, 325, 193, 356, 320
-0.997121, 313, 129, 344, 375
-0.997128, 127, 1, 142, 64
-0.997129, 185, 121, 200, 184
-0.997133, 317, 65, 332, 128
-0.997155, 273, 49, 400, 80
-0.997171, 147, 301, 162, 332
-0.997171, 1, 209, 32, 336
-0.997177, 259, 241, 274, 304
-0.997179, 235, 113, 250, 176
-0.997183, 163, 301, 178, 332
-0.997189, 331, 257, 346, 320
-0.997202, 97, 269, 224, 300
-0.997202, 1, 177, 500, 240
-0.997204, 17, 201, 144, 232
-0.997215, 177, 305, 304, 336
-0.997232, 157, 301, 172, 332
-0.997236, 145, 201, 272, 232
-0.997248, 309, 193, 324, 224
-0.997258, 305, 33, 336, 288
-0.99726, 449, 209, 464, 240
-0.99726, 193, 57, 320, 88
-0.997261, 257, 109, 384, 140
-0.997286, 369, 1, 432, 375
-0.997293, 299, 161, 314, 192
-0.997298, 273, 73, 400, 104
-0.997311, 219, 277, 234, 308
-0.997313, 1, 201, 500, 264
-0.997323, 289, 189, 416, 220
-0.997339, 193, 125, 320, 156
-0.997347, 161, 49, 416, 112
-0.997347, 17, 189, 144, 220
-0.997349, 33, 301, 160, 332
-0.997369, 65, 229, 192, 260
-0.99737, 305, 161, 320, 192
-0.997382, 369, 101, 496, 132
-0.997386, 253, 265, 268, 296
-0.997398, 169, 301, 184, 332
-0.997399, 1, 65, 256, 128
-0.997422, 217, 129, 248, 375
-0.997429, 201, 129, 232, 375
-0.997429, 321, 65, 448, 96
-0.997473, 337, 277, 464, 308
-0.997479, 81, 213, 208, 244
-0.99748, 325, 129, 356, 375
-0.997496, 243, 273, 258, 304
-0.997512, 73, 1, 136, 128
-0.99752, 235, 273, 250, 304
-0.997526, 315, 153, 330, 184
-0.997558, 329, 161, 344, 192
-0.997558, 325, 297, 340, 328
-0.997568, 49, 1, 176, 32
-0.997578, 213, 277, 228, 308
-0.997588, 241, 197, 368, 228
-0.997597, 257, 241, 384, 272
-0.997601, 337, 125, 464, 156
-0.99761, 369, 217, 496, 248
-0.997613, 451, 197, 466, 228
-0.997623, 225, 277, 240, 308
-0.997669, 245, 129, 276, 375
-0.997676, 455, 209, 470, 240
-0.997704, 127, 281, 142, 312
-0.997712, 29, 169, 44, 200
-0.997712, 431, 277, 446, 308
-0.997715, 337, 129, 368, 375
-0.997717, 359, 161, 374, 192
-0.99772, 161, 25, 416, 88
-0.997727, 27, 157, 42, 188
-0.997736, 361, 297, 376, 328
-0.997745, 49, 269, 176, 300
-0.997748, 185, 169, 200, 200
-0.997749, 55, 313, 70, 344
-0.997755, 353, 149, 480, 180
-0.997762, 83, 169, 98, 200
-0.997766, 273, 129, 304, 375
-0.997767, 175, 169, 190, 200
-0.997787, 289, 129, 320, 375
-0.997789, 129, 233, 256, 264
-0.997792, 249, 277, 264, 308
-0.997805, 293, 161, 308, 192
-0.997816, 443, 213, 458, 244
-0.997817, 439, 197, 454, 228
-0.997819, 49, 285, 176, 316
-0.997822, 349, 129, 380, 375
-0.99783, 377, 193, 440, 320
-0.997838, 65, 33, 320, 96
-0.997841, 289, 137, 416, 168
-0.997843, 17, 213, 144, 244
-0.997848, 347, 169, 362, 200
-0.997853, 193, 213, 320, 244
-0.997863, 71, 125, 86, 156
-0.997863, 163, 281, 178, 312
-0.997876, 17, 225, 144, 256
-0.997878, 101, 129, 132, 375
-0.997896, 425, 325, 440, 356
-0.997925, 205, 33, 236, 288
-0.997929, 97, 313, 112, 344
-0.997933, 79, 125, 94, 156
-0.997937, 69, 33, 100, 288
-0.997938, 1, 113, 128, 144
-0.997948, 33, 241, 288, 304
-0.997951, 365, 157, 380, 188
-0.997953, 321, 173, 336, 204
-0.997962, 259, 277, 274, 308
-0.997965, 281, 157, 296, 188
-0.997967, 451, 221, 466, 252
-0.997967, 197, 201, 212, 232
-0.997979, 353, 169, 368, 200
-0.997985, 65, 65, 192, 128
-0.99799, 311, 165, 326, 196
-0.998, 433, 289, 448, 320
-0.998008, 261, 165, 276, 196
-0.998013, 183, 181, 198, 212
-0.998016, 169, 233, 184, 264
-0.998018, 257, 253, 272, 284
-0.99802, 265, 253, 280, 284
-0.998023, 263, 265, 278, 296
-0.998025, 21, 157, 36, 188
-0.998025, 191, 189, 206, 220
-0.998033, 1, 89, 128, 120
-0.998041, 309, 149, 324, 180
-0.998041, 341, 241, 356, 272
-0.998049, 177, 253, 304, 284
-0.998056, 247, 257, 262, 288
-0.998068, 383, 173, 398, 204
-0.998069, 127, 265, 142, 296
-0.99807, 337, 165, 352, 196
-0.998072, 359, 173, 374, 204
-0.998079, 349, 293, 364, 324
-0.998079, 229, 129, 260, 375
-0.998087, 1, 157, 16, 188
-0.998087, 309, 181, 324, 212
-0.99809, 273, 209, 400, 240
-0.998091, 195, 173, 210, 204
-0.998094, 129, 145, 256, 176
-0.998097, 427, 289, 442, 320
-0.998102, 293, 1, 324, 256
-0.998108, 331, 293, 346, 324
-0.99811, 473, 177, 488, 208
-0.99812, 3, 145, 18, 176
-0.998126, 425, 309, 440, 340
-0.998132, 89, 129, 120, 375
-0.998137, 11, 157, 26, 188
-0.998141, 177, 189, 192, 220
-0.998143, 185, 305, 200, 336
-0.998147, 241, 133, 368, 164
-0.998153, 1, 289, 128, 320
-0.998155, 77, 161, 92, 192
-0.998162, 463, 197, 478, 228
-0.998163, 287, 61, 302, 92
-0.998165, 129, 221, 256, 252
-0.998168, 115, 273, 130, 304
-0.998172, 169, 317, 184, 348
-0.998179, 197, 189, 212, 220
-0.998181, 181, 317, 196, 348
-0.998181, 321, 153, 336, 184
-0.998181, 49, 241, 176, 272
-0.998181, 271, 153, 286, 184
-0.998181, 457, 197, 472, 228
-0.998182, 209, 289, 224, 320
-0.998185, 193, 33, 224, 288
-0.998185, 303, 149, 318, 180
-0.998187, 299, 205, 314, 236
-0.998204, 173, 129, 204, 375
-0.998207, 37, 161, 52, 192
-0.998208, 163, 317, 178, 348
-0.998212, 175, 317, 190, 348
-0.998216, 279, 57, 294, 88
-0.998216, 61, 313, 76, 344
-0.998216, 137, 313, 152, 344
-0.998217, 145, 313, 160, 344
-0.998217, 131, 297, 146, 328
-0.998221, 303, 193, 318, 224
-0.998233, 315, 249, 330, 280
-0.998235, 291, 229, 306, 260
-0.998241, 177, 69, 304, 100
-0.998242, 339, 293, 354, 324
-0.998244, 93, 165, 108, 196
-0.998247, 89, 125, 104, 156
-0.998247, 275, 165, 290, 196
-0.998257, 369, 169, 384, 200
-0.998258, 225, 33, 256, 288
-0.99826, 215, 165, 230, 196
-0.998269, 129, 161, 144, 192
-0.99827, 81, 137, 96, 168
-0.99827, 325, 241, 340, 272
-0.998273, 137, 165, 152, 196
-0.998277, 361, 129, 392, 375
-0.99829, 283, 169, 298, 200
-0.998291, 177, 41, 304, 72
-0.998293, 137, 345, 152, 375
-0.998299, 125, 129, 156, 375
-0.998301, 211, 121, 226, 152
-0.998303, 159, 165, 174, 196
-0.998303, 273, 261, 288, 292
-0.998305, 143, 161, 158, 192
-0.998307, 395, 177, 410, 208
-0.998307, 311, 205, 326, 236
-0.998309, 225, 133, 240, 164
-0.998309, 355, 293, 370, 324
-0.998311, 441, 185, 456, 216
-0.998314, 403, 101, 418, 132
-0.998315, 167, 221, 182, 252
-0.998315, 317, 1, 348, 256
-0.998317, 121, 281, 136, 312
-0.998319, 151, 313, 166, 344
-0.998324, 129, 341, 256, 372
-0.998333, 257, 129, 288, 375
-0.998374, 29, 289, 60, 304
-0.998374, 69, 181, 100, 196
-0.998376, 421, 289, 452, 304
-0.998376, 281, 221, 312, 236
-0.998377, 285, 233, 316, 248
-0.998378, 213, 137, 244, 152
-0.998379, 265, 161, 296, 176
-0.998379, 241, 37, 368, 68
-0.99838, 165, 185, 196, 200
-0.998381, 261, 275, 292, 290
-0.998382, 113, 281, 144, 296
-0.998383, 397, 121, 428, 136
-0.998383, 121, 311, 152, 326
-0.998384, 433, 181, 464, 196
-0.998385, 165, 193, 196, 208
-0.998385, 121, 255, 152, 270
-0.998385, 109, 153, 140, 168
-0.998386, 257, 167, 288, 182
-0.998386, 201, 199, 232, 214
-0.998386, 445, 225, 476, 240
-0.998388, 69, 169, 100, 184
-0.998388, 49, 323, 80, 338
-0.998389, 433, 219, 464, 234
-0.998389, 325, 163, 356, 178
-0.99839, 1, 113, 32, 128
-0.998391, 169, 237, 200, 252
-0.998391, 173, 171, 204, 186
-0.998391, 305, 305, 336, 320
-0.998392, 353, 171, 384, 186
-0.998392, 145, 131, 176, 146
-0.998393, 145, 303, 176, 318
-0.998395, 305, 315, 336, 330
-0.998395, 189, 203, 220, 218
-0.998395, 121, 301, 184, 316
-0.998395, 133, 307, 164, 322
-0.998396, 321, 297, 384, 312
-0.998397, 317, 247, 348, 262
-0.998397, 105, 163, 136, 178
-0.998398, 153, 285, 184, 300
-0.998399, 149, 169, 180, 184
-0.998401, 289, 177, 320, 192
-0.998402, 437, 211, 468, 226
-0.998403, 157, 229, 188, 244
-0.998405, 241, 285, 272, 300
-0.998406, 337, 181, 368, 196
-0.998407, 81, 185, 112, 200
-0.998407, 249, 275, 280, 290
-0.998408, 469, 211, 500, 226
-0.998408, 153, 97, 184, 352
-0.998408, 261, 253, 292, 268
-0.99841, 189, 189, 220, 204
-0.998412, 129, 159, 160, 174
-0.998413, 297, 159, 328, 174
-0.998414, 197, 181, 228, 196
-0.998415, 209, 279, 272, 294
-0.998415, 17, 291, 48, 306
-0.998417, 125, 349, 156, 364
-0.998418, 157, 235, 188, 250
-0.998419, 457, 177, 488, 192
-0.998419, 317, 149, 348, 164
-0.998419, 357, 165, 388, 180
-0.998419, 209, 131, 240, 146
-0.998421, 81, 313, 112, 328
-0.998422, 169, 321, 200, 336
-0.998423, 1, 295, 32, 310
-0.998424, 181, 183, 212, 198
-0.998424, 313, 169, 376, 184
-0.998427, 177, 229, 304, 260
-0.998428, 329, 175, 360, 190
-0.998428, 321, 305, 352, 320
-0.998429, 49, 97, 176, 128
-0.998429, 409, 127, 440, 142
-0.998429, 305, 183, 336, 198
-0.998429, 81, 33, 112, 288
-0.99843, 133, 315, 164, 330
-0.99843, 297, 257, 328, 272
-0.998431, 189, 169, 220, 184
-0.998433, 285, 65, 316, 80
-0.998433, 153, 319, 184, 334
-0.998434, 393, 183, 424, 198
-0.998434, 305, 201, 336, 216
-0.998435, 265, 265, 296, 280
-0.998435, 141, 163, 172, 178
-0.998436, 309, 75, 340, 90
-0.998437, 437, 175, 468, 190
-0.998437, 309, 157, 340, 172
-0.998437, 49, 129, 80, 375
-0.998438, 29, 165, 60, 180
-0.998439, 169, 313, 200, 328
-0.99844, 1, 159, 32, 174
-0.99844, 173, 165, 204, 180
-0.998445, 169, 307, 200, 322
-0.998445, 145, 245, 176, 260
-0.998446, 53, 315, 84, 330
-0.998448, 277, 167, 308, 182
-0.998449, 301, 207, 332, 222
-0.998449, 305, 177, 336, 192
-0.998454, 297, 71, 328, 86
-0.998454, 289, 171, 352, 186
-0.998455, 113, 263, 144, 278
-0.998455, 145, 233, 176, 248
-0.998456, 117, 163, 148, 178
-0.99846, 309, 165, 340, 180
-0.99846, 257, 169, 320, 184
-0.998461, 337, 163, 368, 178
-0.998461, 381, 181, 412, 196
-0.998461, 289, 227, 320, 242
-0.998464, 437, 197, 468, 212
-0.998465, 105, 357, 136, 372
-0.998465, 313, 253, 344, 268
-0.998467, 273, 59, 304, 74
-0.998468, 129, 165, 160, 180
-0.99847, 225, 275, 256, 290
-0.998474, 449, 171, 480, 186
-0.998476, 369, 113, 496, 144
-0.998477, 321, 307, 384, 322
-0.998477, 289, 163, 352, 178
-0.998478, 17, 169, 48, 184
-0.998478, 177, 189, 208, 204
-0.998478, 293, 221, 324, 236
-0.99848, 289, 165, 320, 180
-0.99848, 57, 313, 120, 328
-0.99848, 209, 285, 240, 300
-0.998482, 177, 195, 208, 210
-0.998485, 81, 167, 112, 182
-0.998485, 325, 297, 356, 312
-0.998485, 345, 297, 376, 312
-0.998487, 225, 81, 352, 112
-0.99849, 249, 269, 280, 284
-0.998491, 317, 179, 348, 194
-0.998492, 113, 275, 144, 290
-0.998494, 297, 215, 328, 230
-0.998496, 97, 311, 160, 326
-0.998497, 449, 213, 480, 228
-0.998497, 5, 129, 36, 375
-0.998499, 305, 149, 336, 164
-0.998502, 157, 241, 188, 256
-0.998504, 425, 197, 488, 212
-0.998506, 13, 163, 44, 178
-0.998508, 237, 275, 268, 290
-0.998509, 249, 257, 280, 272
-0.998514, 201, 285, 264, 300
-0.998519, 433, 213, 496, 228
-0.99852, 217, 273, 280, 288
-0.998521, 321, 317, 384, 332
-0.998524, 113, 269, 144, 284
-0.998524, 313, 329, 376, 344
-0.998524, 289, 171, 320, 186
-0.998524, 213, 279, 244, 294
-0.998525, 261, 1, 292, 256
-0.998525, 145, 305, 208, 320
-0.998527, 69, 139, 100, 154
-0.998527, 97, 349, 160, 364
-0.998529, 237, 33, 268, 288
-0.998529, 313, 323, 376, 338
-0.99853, 313, 335, 376, 350
-0.998536, 89, 163, 152, 178
-0.998537, 145, 311, 208, 326
-0.998537, 433, 173, 496, 188
-0.998538, 281, 179, 344, 194
-0.998538, 113, 275, 176, 290
-0.998539, 169, 191, 232, 206
-0.998543, 337, 169, 368, 184
-0.998543, 313, 341, 376, 356
-0.998548, 145, 197, 208, 212
-0.998551, 325, 169, 356, 184
-0.998551, 1, 165, 64, 180
-0.998551, 337, 179, 400, 194
-0.998552, 369, 183, 432, 198
-0.998553, 145, 319, 208, 334
-0.998555, 265, 263, 328, 278
-0.998555, 425, 181, 488, 196
-0.998557, 393, 177, 456, 192
-0.998557, 281, 75, 344, 90
-0.998559, 313, 347, 376, 362
-0.99856, 65, 141, 128, 156
-0.998564, 281, 315, 344, 330
-0.998566, 225, 25, 352, 56
-0.998566, 9, 293, 72, 308
-0.998567, 281, 299, 344, 314
-0.998567, 257, 163, 320, 178
-0.998571, 313, 353, 376, 368
-0.998575, 313, 175, 376, 190
-0.998576, 281, 309, 344, 324
-0.998577, 129, 231, 192, 246
-0.998577, 313, 163, 376, 178
-0.998578, 241, 269, 304, 284
-0.998578, 81, 151, 144, 166
-0.998578, 281, 329, 344, 344
-0.998578, 113, 163, 176, 178
-0.998579, 121, 317, 184, 332
-0.998579, 257, 257, 320, 272
-0.998579, 185, 181, 248, 196
-0.99858, 321, 9, 448, 72
-0.998583, 313, 361, 376, 375
-0.998585, 89, 305, 152, 320
-0.998585, 273, 205, 336, 220
-0.998587, 153, 169, 216, 184
-0.998588, 305, 181, 368, 196
-0.998589, 281, 323, 344, 338
-0.99859, 41, 325, 104, 340
-0.998591, 281, 221, 344, 236
-0.998591, 89, 355, 152, 370
-0.998592, 137, 163, 200, 178
-0.998594, 89, 269, 152, 284
-0.998596, 25, 131, 88, 146
-0.998596, 113, 281, 176, 296
-0.998598, 297, 203, 360, 218
-0.998599, 257, 179, 320, 194
-0.998599, 89, 275, 152, 290
-0.998601, 181, 33, 212, 288
-0.998602, 297, 149, 360, 164
-0.998604, 305, 157, 368, 172
-0.998605, 145, 237, 208, 252
-0.998607, 249, 33, 280, 288
-0.998608, 41, 141, 104, 156
-0.99861, 281, 67, 344, 82
-0.998611, 297, 215, 360, 230
-0.998612, 133, 301, 164, 316
-0.998613, 129, 1, 192, 16
-0.998613, 209, 241, 336, 272
-0.998614, 25, 165, 88, 180
-0.998614, 281, 157, 344, 172
-0.998614, 33, 217, 288, 280
-0.998615, 265, 61, 328, 76
-0.998617, 185, 137, 248, 152
-0.998617, 201, 127, 264, 142
-0.99862, 273, 335, 336, 350
-0.99862, 113, 269, 176, 284
-0.998622, 393, 287, 456, 302
-0.998622, 305, 257, 368, 272
-0.998623, 161, 277, 224, 292
-0.998623, 177, 315, 240, 330
-0.998624, 337, 173, 400, 188
-0.998624, 345, 161, 408, 176
-0.998624, 433, 219, 496, 234
-0.998626, 33, 179, 96, 194
-0.998628, 225, 261, 288, 276
-0.998629, 97, 317, 160, 332
-0.998629, 209, 295, 272, 310
-0.99863, 1, 165, 32, 180
-0.99863, 297, 209, 360, 224
-0.998631, 185, 165, 248, 180
-0.998631, 177, 305, 240, 320
-0.998632, 249, 285, 312, 300
-0.998632, 49, 331, 112, 346
-0.998634, 305, 197, 368, 212
-0.998634, 369, 121, 432, 136
-0.998634, 257, 67, 320, 82
-0.998634, 65, 135, 128, 150
-0.998635, 129, 169, 192, 184
-0.998637, 137, 187, 200, 202
-0.998638, 201, 149, 264, 164
-0.998638, 313, 245, 376, 260
-0.998639, 401, 209, 464, 224
-0.998641, 353, 303, 416, 318
-0.998641, 121, 237, 184, 252
-0.998642, 129, 225, 192, 240
-0.998642, 273, 149, 336, 164
-0.998642, 97, 125, 160, 140
-0.998643, 137, 243, 200, 258
-0.998643, 161, 285, 224, 300
-0.998644, 193, 201, 320, 232
-0.998644, 105, 361, 168, 375
-0.998644, 305, 187, 368, 202
-0.998644, 73, 347, 136, 362
-0.998646, 217, 161, 280, 176
-0.998647, 193, 201, 256, 216
-0.998647, 97, 323, 160, 338
-0.998647, 337, 167, 400, 182
-0.998648, 305, 171, 336, 186
-0.998648, 361, 351, 424, 366
-0.998649, 249, 275, 312, 290
-0.998649, 97, 343, 160, 358
-0.99865, 161, 203, 224, 218
-0.998651, 353, 335, 416, 350
-0.998651, 297, 263, 360, 278
-0.998651, 49, 319, 112, 334
-0.998654, 137, 65, 168, 320
-0.998696, 17, 129, 48, 375
-0.998697, 129, 89, 256, 120
-0.998697, 289, 253, 416, 284
-0.998707, 337, 137, 464, 168
-0.998712, 161, 29, 288, 60
-0.998738, 1, 245, 128, 276
-0.998742, 113, 257, 240, 288
-0.998745, 33, 129, 64, 375
-0.99875, 113, 105, 240, 136
-0.99875, 337, 233, 464, 264
-0.99878, 205, 129, 220, 256
-0.998797, 289, 125, 416, 156
-0.998806, 409, 129, 440, 375
-0.99883, 145, 13, 272, 44
-0.998865, 197, 129, 212, 256
-0.998884, 429, 129, 460, 375
-0.998889, 189, 129, 220, 375
-0.998894, 1, 49, 500, 112
-0.998903, 101, 33, 132, 288
-0.998906, 137, 225, 152, 352
-0.998907, 303, 145, 318, 272
-0.99892, 161, 101, 288, 132
-0.998972, 341, 1, 372, 256
-0.998985, 449, 161, 464, 288
-0.999, 49, 33, 80, 288
-0.999003, 281, 33, 312, 288
-0.999007, 131, 225, 146, 352
-0.999025, 1, 33, 32, 288
-0.99904, 17, 33, 80, 160
-0.99907, 193, 1, 448, 64
-0.999075, 455, 145, 470, 272
-0.999077, 309, 161, 324, 288
-0.999077, 469, 145, 484, 272
-0.999092, 187, 145, 202, 272
-0.999096, 113, 65, 144, 320
-0.999102, 163, 241, 178, 368
-0.999107, 441, 145, 456, 272
-0.999112, 169, 33, 200, 288
-0.999113, 461, 145, 476, 272
-0.999124, 329, 1, 360, 256
-0.999129, 143, 225, 158, 352
-0.999131, 337, 225, 352, 352
-0.999137, 125, 33, 156, 288
-0.999173, 301, 129, 332, 375
-0.999183, 327, 161, 342, 288
-0.999185, 303, 193, 318, 320
-0.999193, 309, 113, 324, 240
-0.999199, 1, 225, 500, 288
-0.999203, 217, 129, 232, 256
-0.99921, 343, 225, 358, 352
-0.999213, 475, 145, 490, 272
-0.999229, 359, 241, 374, 368
-0.999244, 169, 241, 184, 368
-0.999246, 317, 145, 332, 272
-0.999251, 129, 1, 144, 128
-0.999251, 369, 1, 400, 256
-0.999254, 175, 225, 190, 352
-0.999263, 125, 225, 140, 352
-0.999264, 149, 225, 164, 352
-0.999267, 329, 241, 344, 368
-0.999274, 261, 241, 276, 368
-0.999277, 315, 241, 330, 368
-0.999279, 27, 161, 42, 288
-0.999285, 135, 1, 150, 128
-0.999285, 481, 145, 496, 272
-0.999285, 101, 145, 116, 272
-0.999286, 429, 241, 444, 368
-0.999288, 351, 209, 366, 336
-0.999289, 227, 129, 242, 256
-0.999289, 357, 193, 372, 320
-0.99929, 423, 97, 438, 224
-0.999292, 89, 113, 104, 240
-0.999292, 377, 129, 408, 375
-0.9993, 449, 113, 464, 240
-0.999303, 455, 193, 470, 320
-0.999311, 327, 97, 342, 224
-0.999313, 197, 177, 212, 304
-0.999317, 123, 1, 138, 128
-0.999318, 293, 193, 308, 320
-0.999329, 297, 113, 312, 240
-0.99933, 211, 97, 226, 224
-0.999336, 33, 161, 48, 288
-0.999337, 95, 97, 110, 224
-0.999343, 333, 145, 348, 272
-0.999349, 441, 97, 456, 224
-0.999349, 471, 97, 486, 224
-0.99935, 291, 145, 306, 272
-0.999353, 441, 209, 456, 336
-0.999354, 343, 145, 358, 272
-0.999356, 317, 97, 332, 224
-0.999358, 95, 161, 110, 288
-0.999358, 337, 97, 352, 224
-0.999362, 37, 113, 52, 240
-0.999363, 433, 129, 448, 256
-0.999364, 1, 145, 16, 272
-0.999371, 21, 81, 36, 208
-0.999373, 225, 81, 240, 208
-0.999375, 179, 161, 194, 288
-0.999376, 219, 241, 234, 368
-0.999378, 357, 145, 372, 272
-0.999381, 197, 81, 212, 208
-0.999386, 251, 241, 266, 368
-0.999388, 461, 97, 476, 224
-0.99939, 237, 241, 252, 368
-0.999398, 105, 81, 120, 208
-0.999398, 363, 145, 378, 272
-0.9994, 409, 97, 424, 224
-0.999402, 229, 241, 244, 368
-0.999411, 415, 97, 430, 224
-0.999411, 39, 161, 54, 288
-0.999411, 143, 145, 158, 272
-0.999414, 79, 81, 94, 208
-0.999417, 471, 193, 486, 320
-0.999418, 353, 97, 368, 224
-0.999428, 449, 209, 464, 336
-0.999429, 111, 145, 126, 272
-0.999434, 419, 49, 434, 176
-0.999436, 461, 193, 476, 320
-0.999436, 235, 97, 250, 224
-0.999437, 363, 97, 378, 224
-0.999437, 31, 81, 46, 208
-0.999439, 455, 97, 470, 224
-0.99944, 309, 209, 324, 336
-0.999442, 385, 1, 416, 256
-0.999449, 205, 81, 220, 208
-0.999454, 283, 49, 298, 176
-0.999456, 243, 241, 258, 368
-0.999456, 73, 81, 88, 208
-0.999459, 303, 49, 318, 176
-0.999461, 219, 81, 234, 208
-0.999466, 429, 65, 444, 192
-0.999466, 125, 145, 140, 272
-0.999466, 365, 225, 380, 352
-0.999468, 303, 97, 318, 224
-0.999469, 349, 145, 364, 272
-0.99947, 15, 81, 30, 208
-0.999471, 169, 145, 184, 272
-0.999474, 149, 145, 164, 272
-0.999474, 1, 49, 128, 112
-0.999483, 131, 177, 146, 304
-0.999483, 1, 1, 128, 64
-0.999484, 343, 81, 358, 208
-0.999485, 251, 97, 266, 224
-0.999486, 119, 81, 134, 208
-0.999486, 145, 81, 160, 208
-0.999488, 291, 81, 306, 208
-0.999489, 483, 97, 498, 224
-0.999489, 277, 97, 292, 224
-0.999491, 137, 81, 152, 208
-0.999492, 167, 193, 182, 320
-0.999495, 357, 1, 388, 256
-0.999497, 119, 225, 134, 352
-0.9995, 309, 65, 324, 192
-0.999501, 211, 145, 226, 272
-0.999502, 271, 225, 286, 352
-0.999503, 413, 49, 428, 176
-0.999504, 435, 65, 450, 192
-0.999506, 283, 97, 298, 224
-0.999507, 279, 145, 294, 272
-0.999507, 21, 33, 52, 288
-0.999508, 477, 65, 492, 192
-0.999513, 285, 145, 300, 272
-0.999513, 81, 161, 96, 288
-0.999515, 257, 81, 272, 208
-0.999515, 113, 81, 128, 208
-0.999515, 263, 97, 278, 224
-0.999515, 377, 97, 392, 224
-0.999524, 469, 97, 500, 352
-0.999537, 449, 129, 480, 375
-0.999592, 397, 1, 428, 256
-0.999592, 109, 359, 124, 374
-0.999592, 325, 303, 340, 318
-0.999593, 181, 311, 196, 326
-0.999593, 175, 169, 190, 184
-0.999594, 425, 327, 440, 342
-0.999594, 313, 155, 328, 170
-0.999594, 121, 257, 136, 272
-0.999594, 173, 183, 188, 198
-0.999594, 137, 307, 152, 322
-0.999596, 161, 319, 176, 334
-0.999597, 313, 203, 328, 218
-0.999597, 185, 181, 200, 196
-0.999599, 151, 163, 166, 178
-0.999599, 11, 157, 26, 172
-0.9996, 395, 117, 410, 132
-0.999601, 337, 163, 352, 178
-0.999601, 265, 165, 280, 180
-0.999601, 85, 165, 100, 180
-0.999602, 349, 163, 364, 178
-0.999602, 215, 285, 230, 300
-0.999602, 203, 201, 218, 216
-0.999602, 185, 165, 200, 180
-0.999603, 277, 261, 292, 276
-0.999603, 329, 245, 344, 260
-0.999605, 77, 139, 92, 154
-0.999605, 35, 167, 50, 182
-0.999606, 253, 281, 268, 296
-0.999606, 273, 251, 288, 266
-0.999606, 185, 195, 200, 210
-0.999606, 433, 295, 448, 310
-0.999608, 149, 317, 164, 332
-0.999609, 323, 79, 338, 94
-0.999609, 229, 277, 244, 292
-0.99961, 1, 145, 16, 160
-0.99961, 125, 163, 140, 178
-0.99961, 171, 233, 186, 248
-0.999611, 153, 235, 168, 250
-0.999611, 237, 275, 252, 290
-0.999611, 315, 175, 330, 190
-0.999612, 295, 217, 310, 232
-0.999612, 427, 287, 442, 302
-0.999612, 81, 171, 96, 186
-0.999614, 429, 321, 444, 336
-0.999615, 455, 211, 470, 226
-0.999615, 325, 165, 340, 180
-0.999616, 347, 213, 362, 228
-0.999618, 263, 275, 278, 290
-0.999618, 299, 161, 314, 176
-0.999619, 311, 147, 326, 162
-0.99962, 329, 177, 344, 192
-0.99962, 137, 315, 152, 330
-0.999622, 261, 257, 276, 272
-0.999623, 265, 267, 280, 282
-0.999623, 463, 173, 478, 188
-0.999626, 251, 259, 266, 274
-0.999626, 443, 173, 458, 188
-0.999627, 179, 195, 194, 210
-0.999627, 159, 233, 174, 248
-0.999627, 449, 173, 464, 188
-0.999627, 243, 275, 258, 290
-0.999627, 361, 299, 376, 314
-0.999629, 55, 317, 70, 332
-0.99963, 179, 305, 194, 320
-0.99963, 205, 179, 220, 194
-0.99963, 389, 129, 420, 375
-0.99963, 97, 315, 112, 330
-0.999631, 313, 251, 328, 266
-0.999632, 123, 269, 138, 284
-0.999632, 319, 149, 334, 164
-0.999632, 307, 257, 322, 272
-0.999633, 163, 281, 178, 296
-0.999634, 147, 245, 162, 260
-0.999636, 421, 127, 436, 142
-0.999636, 315, 197, 330, 212
-0.999636, 293, 229, 308, 244
-0.999637, 153, 129, 168, 144
-0.999639, 29, 165, 44, 180
-0.99964, 283, 167, 298, 182
-0.99964, 91, 163, 106, 178
-0.999642, 323, 179, 338, 194
-0.999643, 343, 163, 358, 178
-0.999643, 477, 213, 492, 228
-0.999644, 359, 165, 374, 180
-0.999644, 79, 165, 94, 180
-0.999644, 191, 167, 206, 182
-0.999645, 309, 173, 324, 188
-0.999645, 299, 173, 314, 188
-0.999646, 327, 297, 342, 312
-0.999647, 433, 289, 448, 304
-0.999647, 165, 233, 180, 248
-0.99965, 33, 33, 64, 288
-0.99965, 21, 169, 36, 184
-0.999653, 143, 163, 158, 178
-0.999654, 209, 287, 224, 302
-0.999656, 305, 161, 320, 176
-0.999657, 253, 275, 268, 290
-0.99966, 323, 247, 338, 262
-0.999661, 397, 181, 412, 196
-0.999663, 439, 197, 454, 212
-0.999664, 267, 255, 282, 270
-0.999665, 1, 159, 16, 174
-0.999666, 155, 243, 170, 258
-0.999667, 71, 139, 86, 154
-0.999669, 21, 163, 36, 178
-0.99967, 185, 187, 200, 202
-0.999672, 27, 171, 42, 186
-0.999673, 321, 171, 336, 186
-0.999674, 167, 239, 182, 254
-0.999675, 13, 163, 28, 178
-0.999681, 293, 167, 308, 182
-0.999681, 161, 241, 176, 256
-0.999687, 331, 171, 346, 186
-0.999688, 125, 275, 140, 290
-0.999691, 257, 269, 272, 284
-0.999692, 219, 279, 234, 294
-0.999693, 271, 265, 286, 280
-0.999695, 413, 33, 444, 288
-0.999697, 309, 167, 324, 182
-0.999701, 347, 169, 362, 184
-0.999701, 353, 169, 368, 184
-0.999702, 197, 203, 212, 218
-0.999702, 1, 249, 500, 312
-0.999703, 309, 197, 324, 212
-0.999703, 3, 165, 18, 180
-0.999709, 337, 169, 352, 184
-0.999715, 137, 301, 152, 316
-0.999717, 301, 215, 316, 230
-0.999732, 449, 215, 464, 230
-0.999737, 179, 189, 194, 204
-0.99974, 121, 263, 136, 278
-0.999745, 299, 167, 314, 182
-0.999756, 1, 17, 500, 80
-0.999775, 305, 209, 320, 224
-0.999811, 307, 203, 322, 218
-0.999828, 295, 223, 310, 238
-0.999838, 433, 33, 464, 288
-0.99985, 149, 1, 180, 256
-0.999937, 445, 33, 476, 288
-0.999995, 469, 1, 500, 256
-1.00012, 457, 33, 488, 288
-1.0005, 369, 1, 496, 64
-1.00061, 145, 1, 208, 128
-1.00133, 65, 25, 192, 88
-1.00142, 1, 25, 128, 88
-1.00347, 121, 49, 184, 176
-1.00355, 49, 1, 112, 128
