1954
-0.431522, 1, 97, 500, 352
-0.458424, 1, 1, 500, 256
-0.488366, 1, 1, 500, 375
-0.512371, 129, 1, 384, 375
-0.570389, 33, 1, 288, 375
-0.605632, 129, 33, 384, 288
-0.629856, 225, 1, 480, 375
-0.633623, 33, 1, 288, 256
-0.664976, 225, 1, 480, 256
-0.687778, 225, 97, 480, 352
-0.731398, 129, 129, 384, 375
-0.763696, 1, 129, 256, 375
-0.827297, 209, 33, 336, 288
-0.844968, 161, 33, 288, 288
-0.845283, 177, 1, 304, 375
-0.847065, 225, 1, 352, 375
-0.848722, 225, 129, 352, 375
-0.865135, 49, 1, 176, 256
-0.872295, 97, 33, 224, 288
-0.872732, 273, 1, 400, 375
-0.877998, 273, 33, 400, 288
-0.883128, 273, 129, 400, 375
-0.890438, 17, 129, 144, 375
-0.89267, 1, 49, 500, 176
-0.894333, 1, 97, 500, 224
-0.898395, 129, 129, 256, 375
-0.900499, 1, 1, 128, 375
-0.900983, 129, 1, 256, 375
-0.901893, 177, 129, 304, 375
-0.902199, 1, 193, 500, 320
-0.902312, 65, 17, 320, 144
-0.905688, 337, 1, 464, 375
-0.906684, 321, 33, 448, 288
-0.907209, 161, 49, 416, 176
-0.90907, 65, 129, 192, 375
-0.910076, 1, 1, 128, 256
-0.910135, 81, 1, 208, 375
-0.916693, 1, 1, 500, 128
-0.918506, 161, 49, 288, 176
-0.919648, 321, 129, 448, 375
-0.920195, 65, 17, 192, 144
-0.921064, 65, 65, 320, 192
-0.921412, 225, 49, 352, 176
-0.922571, 1, 145, 500, 272
-0.926887, 161, 177, 416, 304
-0.927567, 65, 145, 320, 272
-0.927641, 369, 65, 496, 320
-0.929838, 225, 97, 480, 224
-0.933878, 209, 145, 336, 272
-0.93388, 257, 145, 320, 272
-0.934009, 257, 97, 384, 224
-0.936045, 225, 193, 352, 320
-0.937162, 177, 49, 240, 176
-0.937218, 257, 49, 500, 176
-0.937719, 225, 33, 288, 160
-0.937939, 265, 49, 328, 176
-0.937976, 57, 113, 120, 240
-0.939158, 65, 193, 320, 320
-0.939385, 273, 193, 336, 320
-0.939723, 49, 33, 112, 160
-0.944664, 297, 97, 360, 224
-0.945037, 177, 209, 304, 336
-0.946296, 273, 161, 400, 288
-0.946521, 225, 177, 288, 304
-0.946538, 305, 65, 432, 192
-0.946719, 193, 1, 256, 128
-0.946976, 257, 177, 500, 304
-0.947361, 1, 113, 128, 240
-0.94738, 145, 1, 272, 128
-0.947629, 289, 145, 352, 272
-0.94772, 217, 81, 280, 208
-0.949057, 177, 97, 304, 224
-0.949941, 73, 17, 136, 144
-0.950473, 201, 177, 264, 304
-0.951373, 225, 65, 288, 128
-0.951626, 313, 97, 376, 160
-0.951895, 161, 225, 416, 352
-0.951931, 177, 177, 240, 304
-0.952223, 193, 1, 448, 128
-0.952294, 65, 25, 128, 88
-0.952309, 281, 209, 344, 272
-0.953251, 97, 1, 160, 128
-0.95368, 217, 129, 280, 256
-0.953782, 97, 81, 224, 208
-0.953913, 1, 241, 500, 368
-0.95423, 225, 1, 352, 128
-0.954241, 177, 57, 240, 120
-0.954964, 49, 177, 176, 304
-0.955138, 249, 1, 312, 128
-0.955234, 305, 49, 368, 176
-0.955286, 241, 33, 304, 96
-0.955405, 1, 33, 128, 160
-0.955609, 121, 17, 184, 144
-0.955609, 249, 185, 312, 248
-0.956582, 249, 193, 312, 320
-0.956792, 217, 33, 280, 96
-0.957419, 289, 161, 352, 224
-0.957427, 97, 193, 224, 320
-0.957593, 273, 73, 336, 136
-0.957755, 153, 81, 216, 208
-0.958717, 337, 97, 400, 224
-0.958899, 33, 97, 96, 224
-0.959092, 185, 193, 248, 256
-0.95926, 17, 49, 80, 176
-0.959334, 257, 113, 320, 176
-0.959551, 201, 57, 264, 120
-0.959584, 225, 193, 288, 256
-0.959771, 177, 225, 240, 352
-0.959815, 257, 97, 320, 224
-0.959843, 153, 1, 216, 128
-0.959932, 273, 209, 400, 336
-0.960144, 73, 161, 136, 288
-0.960442, 193, 33, 256, 96
-0.960495, 305, 113, 432, 240
-0.960555, 153, 209, 216, 272
-0.960673, 89, 25, 152, 88
-0.961413, 249, 209, 312, 272
-0.961519, 265, 41, 328, 104
-0.961863, 313, 161, 376, 288
-0.961942, 217, 89, 280, 152
-0.962109, 217, 129, 280, 192
-0.962172, 353, 65, 480, 192
-0.963004, 153, 193, 216, 320
-0.963087, 225, 217, 288, 280
-0.963216, 257, 1, 320, 256
-0.96339, 313, 185, 376, 248
-0.963491, 145, 25, 208, 88
-0.963638, 161, 161, 288, 288
-0.963862, 49, 105, 112, 168
-0.964175, 297, 209, 360, 336
-0.964417, 97, 241, 224, 368
-0.964512, 41, 33, 104, 96
-0.964996, 193, 129, 256, 256
-0.965334, 313, 73, 376, 136
-0.965372, 17, 225, 144, 352
-0.965562, 225, 57, 352, 120
-0.965622, 249, 233, 312, 296
-0.965662, 161, 65, 288, 128
-0.965797, 193, 217, 256, 280
-0.96593, 257, 161, 320, 224
-0.966298, 345, 49, 408, 176
-0.966558, 153, 65, 216, 128
-0.966575, 225, 241, 352, 368
-0.966664, 217, 65, 280, 320
-0.966728, 49, 65, 176, 192
-0.967598, 273, 17, 400, 144
-0.967622, 49, 129, 176, 256
-0.967683, 49, 137, 112, 200
-0.967726, 289, 185, 352, 248
-0.9679, 185, 81, 248, 144
-0.968346, 257, 225, 500, 352
-0.968469, 289, 97, 352, 352
-0.968936, 305, 1, 368, 128
-0.969205, 249, 65, 312, 128
-0.969211, 297, 121, 360, 184
-0.96932, 65, 57, 128, 120
-0.969496, 121, 33, 184, 96
-0.969734, 369, 65, 432, 192
-0.969871, 1, 177, 128, 304
-0.969999, 41, 73, 104, 136
-0.970425, 225, 209, 352, 272
-0.970569, 89, 185, 152, 248
-0.970688, 273, 233, 336, 296
-0.970741, 65, 185, 128, 248
-0.970742, 33, 241, 288, 368
-0.970917, 65, 161, 128, 224
-0.971006, 225, 81, 352, 144
-0.971178, 89, 225, 152, 352
-0.971487, 193, 33, 320, 96
-0.971871, 49, 241, 112, 368
-0.971962, 209, 225, 272, 352
-0.971964, 337, 17, 464, 144
-0.971969, 61, 33, 92, 160
-0.971997, 81, 33, 208, 96
-0.97222, 289, 193, 320, 320
-0.972314, 97, 177, 160, 304
-0.972384, 257, 241, 320, 368
-0.972398, 241, 161, 368, 224
-0.972424, 409, 65, 472, 192
-0.972472, 245, 49, 276, 176
-0.972497, 77, 17, 108, 144
-0.972562, 49, 1, 112, 256
-0.972763, 329, 161, 392, 224
-0.973145, 281, 1, 344, 128
-0.973262, 89, 25, 120, 88
-0.973361, 77, 25, 108, 88
-0.973423, 129, 25, 256, 88
-0.973446, 241, 121, 368, 184
-0.973481, 273, 33, 304, 96
-0.973501, 161, 89, 288, 152
-0.973507, 185, 169, 248, 232
-0.973512, 97, 145, 224, 272
-0.973543, 209, 33, 240, 96
-0.973605, 229, 57, 260, 120
-0.973607, 241, 97, 304, 352
-0.974006, 53, 65, 84, 128
-0.974019, 57, 41, 88, 104
-0.974043, 109, 25, 140, 88
-0.974087, 17, 49, 80, 112
-0.974124, 233, 33, 264, 160
-0.974141, 257, 137, 320, 200
-0.974204, 241, 185, 368, 248
-0.974309, 321, 193, 448, 320
-0.974353, 289, 209, 320, 272
-0.974559, 161, 185, 224, 248
-0.974695, 337, 137, 400, 200
-0.974755, 161, 73, 192, 136
-0.974879, 193, 65, 256, 320
-0.974884, 113, 9, 176, 72
-0.974934, 301, 129, 332, 256
-0.974947, 289, 273, 352, 336
-0.975249, 161, 185, 288, 248
-0.975403, 289, 105, 416, 168
-0.975411, 65, 97, 96, 224
-0.975425, 337, 73, 400, 136
-0.975601, 217, 241, 280, 304
-0.975701, 33, 49, 160, 112
-0.975832, 25, 161, 88, 288
-0.975846, 177, 225, 304, 288
-0.97624, 221, 25, 252, 88
-0.97635, 337, 161, 400, 288
-0.976356, 17, 25, 144, 88
-0.976454, 289, 49, 352, 112
-0.976454, 193, 129, 320, 192
-0.976525, 321, 193, 352, 256
-0.976605, 317, 81, 348, 208
-0.976758, 265, 257, 328, 320
-0.977, 213, 17, 244, 144
-0.977014, 225, 153, 288, 216
-0.977122, 81, 289, 144, 352
-0.97718, 221, 97, 252, 160
-0.97725, 49, 161, 112, 288
-0.977291, 49, 49, 80, 176
-0.977293, 301, 209, 332, 336
-0.977355, 257, 217, 288, 280
-0.977409, 193, 185, 224, 248
-0.977452, 193, 153, 320, 216
-0.977563, 173, 65, 204, 128
-0.977605, 161, 65, 224, 320
-0.977644, 169, 49, 200, 176
-0.977677, 261, 57, 292, 120
-0.977682, 305, 209, 368, 272
-0.977772, 185, 49, 216, 176
-0.97783, 73, 1, 136, 64
-0.977879, 329, 169, 360, 232
-0.977935, 73, 129, 136, 375
-0.977963, 293, 41, 324, 104
-0.978007, 193, 257, 256, 320
-0.978049, 237, 193, 268, 256
-0.978247, 337, 73, 464, 136
-0.978271, 89, 33, 120, 160
-0.978424, 289, 297, 352, 360
-0.978499, 337, 105, 400, 168
-0.978505, 129, 81, 192, 144
-0.978545, 161, 233, 224, 296
-0.978607, 329, 81, 360, 144
-0.978641, 153, 89, 216, 152
-0.978651, 353, 113, 480, 240
-0.978794, 233, 177, 264, 304
-0.978838, 329, 161, 360, 288
-0.978878, 193, 305, 256, 368
-0.978929, 121, 25, 152, 88
-0.978929, 273, 1, 336, 375
-0.979112, 221, 65, 252, 192
-0.979114, 253, 177, 284, 304
-0.979171, 89, 1, 152, 256
-0.979229, 257, 33, 288, 160
-0.979294, 273, 209, 400, 272
-0.979476, 225, 233, 352, 296
-0.979504, 261, 33, 292, 96
-0.979633, 265, 145, 296, 272
-0.979713, 73, 225, 136, 288
-0.979742, 1, 137, 128, 200
-0.979805, 273, 225, 304, 288
-0.97982, 289, 129, 416, 192
-0.979826, 49, 97, 112, 352
-0.979917, 33, 233, 96, 296
-0.979996, 297, 33, 328, 160
-0.980003, 265, 97, 328, 352
-0.980154, 433, 65, 496, 192
-0.980176, 273, 73, 400, 136
-0.980215, 1, 1, 64, 128
-0.980297, 81, 65, 144, 192
-0.980307, 25, 105, 88, 168
-0.980437, 321, 209, 384, 336
-0.980457, 313, 41, 376, 104
-0.980464, 217, 9, 280, 72
-0.980466, 65, 113, 96, 176
-0.980774, 17, 81, 80, 144
-0.980794, 9, 97, 72, 224
-0.980901, 181, 209, 212, 272
-0.980931, 313, 241, 376, 304
-0.980953, 269, 97, 300, 224
-0.980988, 289, 145, 320, 272
-0.981049, 49, 273, 112, 336
-0.981112, 25, 33, 88, 288
-0.981164, 273, 49, 400, 112
-0.981182, 97, 209, 224, 272
-0.981198, 313, 97, 376, 352
-0.981205, 281, 1, 344, 256
-0.981238, 25, 145, 88, 208
-0.981267, 245, 33, 276, 96
-0.981303, 197, 49, 228, 112
-0.981351, 201, 209, 232, 336
-0.981375, 201, 33, 232, 160
-0.981405, 277, 209, 308, 336
-0.981463, 113, 201, 176, 264
-0.981541, 49, 209, 112, 272
-0.981547, 309, 209, 340, 272
-0.981559, 49, 297, 112, 360
-0.98162, 169, 1, 232, 64
-0.981665, 213, 185, 244, 248
-0.98173, 49, 185, 176, 248
-0.981756, 249, 9, 312, 72
-0.981768, 241, 89, 272, 152
-0.981868, 181, 193, 212, 320
-0.981914, 273, 17, 336, 80
-0.981952, 81, 113, 112, 240
-0.981973, 241, 257, 304, 320
-0.98204, 145, 1, 272, 64
-0.982091, 25, 177, 88, 240
-0.982113, 153, 257, 216, 320
-0.982115, 205, 217, 236, 280
-0.982119, 1, 161, 128, 224
-0.982151, 353, 1, 416, 128
-0.982196, 129, 65, 192, 192
-0.982207, 305, 185, 432, 248
-0.982291, 121, 193, 184, 320
-0.9823, 249, 1, 312, 375
-0.982368, 1, 113, 128, 176
-0.982402, 253, 193, 284, 256
-0.982416, 101, 1, 132, 128
-0.982427, 73, 249, 136, 312
-0.98243, 245, 225, 276, 288
-0.982469, 89, 49, 152, 112
-0.982591, 89, 313, 152, 375
-0.982639, 153, 145, 216, 272
-0.982684, 265, 289, 328, 352
-0.982778, 269, 161, 300, 224
-0.982818, 217, 1, 280, 375
-0.982863, 169, 201, 200, 264
-0.982894, 341, 97, 372, 160
-0.982895, 25, 1, 88, 128
-0.982915, 137, 65, 200, 320
-0.983059, 193, 121, 256, 184
-0.983095, 361, 49, 392, 176
-0.983219, 81, 97, 208, 160
-0.983243, 265, 209, 296, 336
-0.983369, 145, 17, 176, 144
-0.983458, 153, 241, 216, 368
-0.983466, 169, 281, 232, 344
-0.983466, 193, 257, 320, 320
-0.983488, 337, 145, 368, 208
-0.983572, 229, 217, 260, 280
-0.983618, 345, 97, 376, 224
-0.983669, 317, 89, 348, 152
-0.983697, 333, 49, 364, 176
-0.983715, 221, 121, 252, 184
-0.983759, 241, 89, 304, 152
-0.983779, 341, 73, 372, 136
-0.983813, 305, 121, 336, 184
-0.983847, 33, 1, 96, 375
-0.983887, 193, 281, 256, 344
-0.983909, 249, 65, 280, 128
-0.983972, 185, 25, 216, 88
-0.983999, 197, 161, 228, 288
-0.984031, 317, 177, 348, 304
-0.984031, 125, 1, 156, 64
-0.984069, 217, 265, 280, 328
-0.984112, 245, 129, 276, 256
-0.984152, 169, 305, 232, 368
-0.98421, 265, 97, 296, 160
-0.984258, 73, 49, 104, 112
-0.98426, 97, 297, 224, 360
-0.984278, 185, 1, 248, 375
-0.984336, 97, 265, 224, 328
-0.984405, 337, 129, 464, 192
-0.984539, 337, 97, 400, 352
-0.984548, 1, 81, 128, 144
-0.984557, 289, 153, 416, 216
-0.984571, 305, 1, 368, 256
-0.984591, 337, 185, 400, 248
-0.984592, 117, 1, 148, 128
-0.984687, 305, 73, 336, 136
-0.984741, 97, 113, 160, 240
-0.984829, 129, 1, 160, 128
-0.98488, 165, 1, 196, 128
-0.984898, 273, 289, 400, 352
-0.984898, 25, 209, 88, 272
-0.985015, 329, 217, 392, 280
-0.985089, 157, 81, 188, 208
-0.985127, 81, 73, 208, 136
-0.985136, 277, 57, 308, 120
-0.985304, 217, 129, 248, 256
-0.985367, 49, 121, 176, 184
-0.985385, 49, 161, 176, 224
-0.985395, 321, 241, 352, 368
-0.985402, 145, 17, 176, 80
-0.985414, 101, 177, 132, 240
-0.985424, 185, 57, 216, 120
-0.985434, 273, 241, 400, 304
-0.98547, 53, 105, 84, 168
-0.985485, 369, 193, 496, 320
-0.985493, 169, 25, 232, 88
-0.985516, 97, 161, 128, 288
-0.985536, 205, 305, 236, 368
-0.985556, 297, 1, 360, 375
-0.98558, 277, 17, 308, 144
-0.985592, 97, 177, 224, 240
-0.985648, 49, 233, 176, 296
-0.985658, 313, 273, 376, 336
-0.985676, 233, 81, 264, 208
-0.985751, 53, 97, 84, 224
-0.985753, 213, 177, 244, 304
-0.985756, 41, 73, 72, 136
-0.985765, 209, 281, 336, 344
-0.985791, 265, 185, 296, 248
-0.985801, 217, 289, 280, 352
-0.985859, 249, 121, 280, 184
-0.985869, 377, 129, 440, 192
-0.986026, 145, 1, 208, 64
-0.986033, 417, 73, 480, 136
-0.986037, 329, 97, 360, 224
-0.98617, 277, 201, 308, 264
-0.986184, 161, 1, 224, 375
-0.986216, 217, 217, 248, 280
-0.98623, 81, 121, 144, 184
-0.986266, 37, 65, 68, 192
-0.98628, 361, 73, 424, 136
-0.98642, 97, 153, 224, 216
-0.986425, 129, 233, 192, 296
-0.986441, 233, 25, 264, 88
-0.986441, 341, 169, 372, 232
-0.986456, 285, 9, 316, 72
-0.986527, 81, 129, 112, 192
-0.986536, 249, 313, 312, 375
-0.986564, 177, 89, 208, 152
-0.986616, 309, 185, 340, 248
-0.986627, 193, 9, 320, 72
-0.986631, 65, 9, 192, 72
-0.986639, 353, 105, 384, 168
-0.986639, 377, 1, 440, 128
-0.986641, 89, 169, 120, 232
-0.986711, 285, 233, 316, 296
-0.986728, 133, 25, 164, 88
-0.98677, 361, 113, 424, 240
-0.986787, 345, 49, 376, 176
-0.9868, 333, 193, 364, 256
-0.986847, 97, 241, 224, 304
-0.986916, 409, 65, 472, 320
-0.986935, 277, 161, 308, 288
-0.986997, 173, 97, 204, 224
-0.987029, 77, 161, 108, 288
-0.987032, 249, 145, 280, 208
-0.987058, 193, 225, 224, 288
-0.987072, 17, 265, 144, 328
-0.987164, 361, 33, 424, 288
-0.987202, 129, 145, 192, 272
-0.98739, 65, 17, 96, 80
-0.987409, 49, 209, 176, 272
-0.987423, 401, 17, 464, 144
-0.987436, 97, 225, 160, 288
-0.987484, 301, 313, 332, 375
-0.98754, 25, 129, 88, 375
-0.987557, 409, 137, 472, 200
-0.987575, 113, 241, 176, 368
-0.987764, 313, 313, 376, 375
-0.987766, 45, 41, 76, 104
-0.987792, 329, 1, 392, 128
-0.987809, 17, 25, 80, 88
-0.987822, 293, 185, 324, 248
-0.987874, 41, 97, 72, 160
-0.987896, 17, 305, 144, 368
-0.987987, 273, 25, 400, 88
-0.988228, 261, 249, 292, 312
-0.988236, 169, 17, 200, 80
-0.988242, 113, 1, 176, 256
-0.988302, 305, 233, 336, 296
-0.988317, 97, 241, 128, 368
-0.988346, 321, 57, 352, 120
-0.988351, 337, 241, 464, 368
-0.988399, 273, 265, 400, 328
-0.988425, 129, 177, 192, 240
-0.988433, 385, 113, 448, 240
-0.988482, 185, 241, 216, 368
-0.988521, 113, 257, 176, 320
-0.988528, 1, 185, 128, 248
-0.988534, 217, 225, 248, 352
-0.988549, 393, 73, 456, 136
-0.988576, 181, 185, 212, 248
-0.988586, 113, 305, 176, 368
-0.988606, 337, 105, 464, 168
-0.988625, 129, 73, 384, 136
-0.9887, 337, 49, 400, 112
-0.988737, 273, 313, 400, 375
-0.988743, 249, 41, 312, 72
-0.988752, 57, 1, 120, 375
-0.98876, 73, 29, 136, 60
-0.988768, 341, 161, 372, 288
-0.988777, 193, 9, 256, 72
-0.98879, 177, 313, 304, 375
-0.988814, 317, 281, 348, 344
-0.988862, 353, 129, 384, 192
-0.988865, 121, 193, 152, 320
-0.988941, 73, 241, 104, 368
-0.988968, 293, 145, 324, 208
-0.988977, 25, 209, 88, 336
-0.989063, 177, 61, 240, 92
-0.989117, 361, 225, 424, 352
-0.98914, 85, 49, 116, 112
-0.989161, 289, 97, 352, 160
-0.989171, 1, 273, 64, 336
-0.989241, 105, 1, 136, 64
-0.989251, 185, 85, 248, 116
-0.989333, 409, 65, 440, 192
-0.989334, 233, 241, 296, 368
-0.989336, 265, 57, 328, 88
-0.989356, 9, 241, 72, 304
-0.989358, 49, 117, 112, 148
-0.989394, 157, 25, 188, 88
-0.989399, 161, 289, 288, 352
-0.9894, 209, 33, 272, 64
-0.989411, 313, 101, 376, 132
-0.989439, 241, 225, 304, 256
-0.989442, 33, 1, 96, 64
-0.989486, 369, 105, 432, 168
-0.989487, 209, 57, 240, 120
-0.989494, 357, 73, 388, 136
-0.989498, 65, 25, 320, 88
-0.989501, 357, 97, 388, 224
-0.989503, 153, 97, 184, 160
-0.989523, 373, 65, 404, 192
-0.989565, 257, 145, 320, 176
-0.989581, 297, 265, 328, 328
-0.989653, 185, 1, 216, 128
-0.989671, 217, 125, 280, 156
-0.989725, 1, 233, 128, 296
-0.989732, 121, 33, 184, 64
-0.989736, 193, 73, 256, 104
-0.989755, 145, 257, 272, 320
-0.989759, 193, 49, 256, 80
-0.989768, 77, 65, 108, 192
-0.989794, 337, 153, 464, 216
-0.98984, 185, 205, 248, 236
-0.98986, 233, 129, 264, 256
-0.989875, 241, 281, 304, 344
-0.989885, 425, 233, 488, 296
-0.9899, 257, 125, 320, 156
-0.989909, 153, 81, 216, 112
-0.989931, 249, 189, 312, 220
-0.989946, 105, 161, 168, 224
-0.990019, 165, 105, 196, 168
-0.990026, 281, 73, 344, 104
-0.990027, 289, 185, 352, 216
-0.990066, 237, 225, 268, 352
-0.990092, 393, 41, 456, 104
-0.990097, 321, 217, 448, 280
-0.990109, 297, 137, 360, 168
-0.990118, 433, 241, 496, 368
-0.990134, 49, 45, 112, 76
-0.990142, 217, 137, 280, 168
-0.990175, 121, 57, 184, 120
-0.990178, 281, 221, 344, 252
-0.990196, 321, 49, 448, 112
-0.990212, 73, 53, 136, 84
-0.990251, 249, 201, 312, 232
-0.990267, 65, 177, 320, 240
-0.990278, 225, 85, 288, 116
-0.990311, 285, 65, 316, 192
-0.99032, 193, 105, 448, 168
-0.990342, 433, 65, 496, 320
-0.990367, 377, 161, 440, 224
-0.99037, 17, 305, 80, 368
-0.990377, 245, 249, 276, 312
-0.990426, 257, 169, 320, 200
-0.990433, 389, 65, 420, 192
-0.990449, 289, 201, 352, 232
-0.990454, 93, 97, 124, 224
-0.990476, 313, 117, 376, 148
-0.99048, 313, 81, 376, 112
-0.990481, 377, 225, 440, 288
-0.990505, 249, 73, 312, 104
-0.990518, 49, 149, 112, 180
-0.990525, 217, 73, 280, 104
-0.990528, 281, 169, 344, 200
-0.99054, 201, 61, 264, 92
-0.990545, 109, 177, 140, 304
-0.990546, 41, 57, 104, 88
-0.990549, 105, 45, 168, 76
-0.990549, 257, 213, 320, 244
-0.99055, 273, 137, 304, 200
-0.990577, 257, 157, 320, 188
-0.990587, 49, 145, 80, 272
-0.990608, 273, 85, 336, 116
-0.99064, 409, 113, 472, 240
-0.990652, 57, 209, 88, 272
-0.990658, 209, 217, 272, 248
-0.990669, 73, 161, 104, 224
-0.990681, 97, 29, 160, 60
-0.990682, 217, 49, 280, 80
-0.990684, 153, 69, 216, 100
-0.990692, 241, 57, 304, 88
-0.990694, 225, 197, 288, 228
-0.990715, 161, 205, 224, 236
-0.990719, 321, 33, 352, 160
-0.990764, 437, 65, 468, 192
-0.990783, 281, 233, 344, 264
-0.990821, 49, 133, 112, 164
-0.990846, 225, 305, 352, 368
-0.990862, 1, 209, 128, 272
-0.990877, 41, 69, 104, 100
-0.990901, 249, 237, 312, 268
-0.99094, 57, 169, 120, 200
-0.990969, 137, 1, 200, 375
-0.990994, 365, 113, 396, 176
-0.990999, 273, 45, 336, 76
-0.991009, 185, 193, 248, 224
-0.991023, 93, 305, 124, 368
-0.99103, 233, 121, 264, 184
-0.991059, 233, 249, 264, 312
-0.991067, 161, 217, 224, 248
-0.991096, 137, 209, 200, 240
-0.9911, 17, 61, 80, 92
-0.991124, 217, 177, 280, 208
-0.991134, 161, 41, 416, 104
-0.991134, 217, 97, 280, 128
-0.991143, 313, 189, 376, 220
-0.991171, 393, 1, 456, 375
-0.991177, 193, 237, 256, 268
-0.991183, 145, 41, 176, 104
-0.991189, 257, 9, 288, 72
-0.991203, 185, 217, 248, 248
-0.991205, 61, 137, 92, 200
-0.991286, 145, 29, 208, 60
-0.991286, 65, 209, 320, 272
-0.99129, 89, 1, 152, 375
-0.991302, 337, 133, 400, 164
-0.991323, 305, 49, 336, 112
-0.991342, 25, 45, 88, 76
-0.991357, 289, 157, 352, 188
-0.991369, 369, 201, 496, 264
-0.99139, 253, 169, 284, 232
-0.991393, 81, 305, 144, 336
-0.991395, 153, 93, 216, 124
-0.991415, 73, 189, 136, 220
-0.991416, 93, 113, 124, 176
-0.991435, 313, 201, 376, 232
-0.991459, 257, 113, 320, 144
-0.991461, 289, 333, 352, 364
-0.991477, 337, 217, 368, 280
-0.991477, 61, 233, 92, 296
-0.991483, 113, 17, 176, 48
-0.991498, 161, 217, 416, 280
-0.991509, 305, 61, 368, 92
-0.991555, 49, 33, 112, 64
-0.991557, 321, 169, 384, 200
-0.991563, 225, 261, 288, 292
-0.99157, 81, 289, 144, 320
-0.991571, 89, 209, 152, 240
-0.991574, 93, 1, 124, 64
-0.991574, 93, 137, 124, 200
-0.991588, 337, 81, 400, 112
-0.991591, 321, 249, 352, 312
-0.991599, 385, 65, 448, 320
-0.991601, 197, 17, 228, 80
-0.991618, 217, 109, 280, 140
-0.99163, 281, 245, 344, 276
-0.991635, 193, 345, 256, 375
-0.991661, 257, 249, 320, 280
-0.991671, 289, 281, 352, 312
-0.991683, 169, 25, 232, 56
-0.99171, 193, 281, 256, 312
-0.991711, 225, 193, 480, 256
-0.991719, 17, 109, 80, 140
-0.991728, 309, 17, 340, 144
-0.991735, 305, 213, 368, 244
-0.991739, 33, 233, 96, 264
-0.991742, 49, 201, 112, 232
-0.991746, 81, 317, 144, 348
-0.991755, 305, 81, 336, 208
-0.991763, 237, 1, 268, 64
-0.991782, 289, 125, 352, 156
-0.99182, 217, 229, 280, 260
-0.991839, 193, 129, 256, 160
-0.991843, 1, 49, 256, 112
-0.991848, 193, 269, 256, 300
-0.991859, 153, 257, 216, 288
-0.991864, 289, 321, 352, 352
-0.991878, 225, 149, 288, 180
-0.991878, 193, 181, 256, 212
-0.991879, 113, 129, 176, 375
-0.991879, 273, 261, 336, 292
-0.991895, 61, 193, 92, 320
-0.991899, 153, 57, 216, 88
-0.991933, 181, 233, 212, 296
-0.991937, 185, 289, 216, 352
-0.991939, 193, 329, 256, 360
-0.991947, 65, 225, 128, 256
-0.991963, 73, 241, 136, 272
-0.991963, 89, 333, 152, 364
-0.991975, 97, 49, 128, 112
-0.992, 193, 305, 256, 336
-0.992004, 305, 293, 368, 324
-0.992007, 225, 249, 288, 280
-0.992009, 301, 289, 332, 352
-0.99201, 421, 65, 452, 192
-0.992016, 273, 97, 336, 128
-0.992017, 177, 257, 240, 288
-0.992026, 81, 225, 112, 288
-0.992028, 53, 177, 84, 240
-0.992028, 73, 253, 136, 284
-0.992036, 265, 293, 328, 324
-0.992042, 17, 73, 80, 104
-0.992042, 49, 213, 112, 244
-0.992064, 157, 209, 188, 272
-0.992065, 289, 345, 352, 375
-0.992083, 321, 241, 384, 272
-0.992106, 41, 257, 104, 288
-0.992123, 177, 97, 240, 128
-0.992129, 169, 233, 232, 264
-0.992137, 305, 41, 368, 72
-0.992153, 313, 337, 376, 368
-0.992169, 317, 113, 348, 176
-0.992169, 69, 257, 100, 320
-0.992175, 257, 1, 384, 64
-0.992176, 337, 157, 400, 188
-0.992179, 1, 1, 128, 64
-0.992182, 9, 1, 72, 375
-0.99219, 1, 49, 64, 80
-0.9922, 305, 305, 368, 336
-0.992223, 169, 289, 232, 320
-0.992226, 113, 209, 176, 240
-0.992229, 113, 201, 144, 264
-0.992235, 217, 165, 280, 196
-0.992238, 249, 29, 312, 60
-0.99225, 185, 265, 216, 328
-0.992263, 221, 125, 252, 156
-0.992272, 93, 265, 124, 328
-0.992304, 105, 305, 136, 368
-0.992306, 329, 181, 360, 212
-0.992318, 225, 193, 256, 256
-0.992366, 353, 1, 416, 375
-0.992391, 217, 41, 248, 72
-0.992409, 185, 57, 216, 88
-0.992441, 321, 197, 352, 228
-0.992455, 205, 281, 236, 344
-0.992474, 289, 213, 320, 244
-0.992509, 129, 33, 160, 64
-0.992516, 57, 69, 88, 100
-0.992528, 209, 53, 240, 84
-0.992545, 117, 33, 148, 64
-0.99255, 257, 41, 288, 72
-0.992552, 61, 41, 92, 72
-0.992565, 145, 29, 176, 60
-0.992576, 269, 57, 300, 88
-0.9926, 201, 225, 232, 256
-0.992607, 177, 205, 208, 236
-0.992612, 297, 53, 328, 84
-0.992623, 229, 33, 260, 64
-0.992625, 289, 241, 320, 368
-0.992649, 333, 165, 364, 196
-0.992659, 177, 69, 208, 100
-0.99266, 1, 177, 64, 304
-0.992661, 65, 97, 320, 160
-0.992665, 77, 57, 108, 88
-0.99267, 277, 41, 308, 72
-0.99267, 193, 41, 320, 72
-0.992671, 105, 29, 136, 60
-0.992677, 65, 137, 320, 200
-0.992696, 197, 209, 228, 240
-0.992719, 217, 29, 248, 60
-0.992722, 325, 81, 356, 112
-0.992728, 53, 53, 84, 84
-0.992728, 77, 29, 108, 60
-0.992732, 65, 113, 96, 144
-0.992749, 325, 97, 356, 128
-0.99277, 257, 225, 288, 256
-0.992779, 161, 85, 192, 116
-0.992786, 85, 209, 116, 336
-0.992789, 245, 133, 276, 164
-0.992796, 289, 41, 320, 72
-0.992797, 237, 193, 268, 224
-0.992813, 33, 1, 64, 128
-0.992814, 225, 77, 256, 108
-0.992833, 205, 65, 236, 96
-0.99284, 261, 69, 292, 100
-0.992846, 41, 65, 72, 96
-0.992846, 273, 225, 304, 256
-0.992872, 149, 193, 180, 320
-0.992873, 113, 45, 144, 76
-0.992878, 317, 185, 348, 216
-0.992891, 197, 53, 228, 84
-0.992897, 337, 297, 464, 360
-0.992903, 313, 209, 344, 240
-0.992909, 337, 81, 368, 112
-0.99291, 345, 129, 376, 160
-0.992929, 89, 169, 120, 200
-0.992937, 245, 53, 276, 84
-0.99294, 213, 221, 244, 252
-0.992944, 145, 129, 272, 192
-0.992945, 77, 117, 108, 148
-0.992947, 157, 29, 188, 60
-0.992951, 317, 69, 348, 100
-0.992963, 333, 193, 364, 224
-0.992966, 449, 65, 480, 192
-0.992966, 217, 197, 248, 228
-0.992974, 177, 77, 304, 108
-0.992978, 93, 29, 124, 60
-0.992987, 193, 189, 224, 220
-0.992992, 341, 177, 372, 208
-0.992993, 101, 181, 132, 212
-0.992996, 237, 213, 268, 244
-0.992996, 269, 173, 300, 204
-0.993009, 213, 137, 244, 168
-0.993011, 185, 221, 216, 252
-0.993022, 305, 133, 336, 164
-0.993029, 201, 341, 232, 372
-0.993031, 225, 73, 480, 136
-0.993037, 201, 177, 232, 208
-0.993037, 229, 93, 260, 124
-0.99304, 225, 217, 256, 248
-0.993041, 253, 81, 284, 112
-0.99305, 49, 81, 80, 112
-0.993054, 153, 105, 184, 136
-0.993058, 89, 41, 120, 72
-0.993072, 337, 145, 368, 176
-0.993073, 209, 209, 240, 240
-0.993074, 325, 109, 356, 140
-0.993075, 245, 121, 276, 152
-0.993076, 309, 81, 340, 112
-0.993084, 249, 181, 280, 212
-0.993085, 265, 117, 296, 148
-0.993091, 241, 241, 272, 272
-0.9931, 53, 113, 84, 144
-0.993103, 301, 329, 332, 360
-0.993109, 281, 77, 312, 108
-0.993112, 265, 185, 296, 216
-0.993114, 129, 21, 160, 52
-0.993115, 249, 201, 280, 232
-0.993116, 233, 57, 264, 88
-0.993125, 313, 221, 344, 252
-0.993126, 349, 81, 380, 112
-0.993128, 169, 25, 200, 56
-0.993128, 229, 229, 260, 260
-0.993132, 293, 65, 324, 96
-0.993139, 141, 41, 172, 72
-0.993141, 273, 161, 304, 192
-0.993144, 309, 197, 340, 228
-0.993144, 173, 97, 204, 128
-0.99315, 337, 101, 368, 132
-0.993152, 337, 273, 464, 336
-0.993155, 97, 321, 128, 352
-0.993159, 301, 145, 332, 176
-0.993162, 317, 121, 348, 152
-0.993165, 293, 225, 324, 256
-0.993166, 241, 229, 272, 260
-0.993167, 205, 305, 236, 336
-0.993168, 125, 45, 156, 76
-0.993168, 205, 37, 236, 68
-0.993178, 245, 1, 276, 128
-0.993181, 297, 285, 328, 316
-0.993183, 101, 49, 132, 80
-0.993185, 197, 77, 228, 108
-0.99319, 241, 85, 272, 116
-0.993195, 41, 53, 72, 84
-0.993198, 165, 73, 196, 104
-0.993199, 321, 249, 448, 312
-0.993199, 301, 341, 332, 372
-0.993207, 161, 61, 288, 92
-0.993208, 201, 113, 232, 240
-0.993209, 73, 153, 104, 184
-0.993212, 321, 161, 352, 192
-0.993214, 37, 77, 68, 108
-0.993217, 233, 125, 264, 156
-0.993218, 73, 137, 104, 168
-0.993225, 165, 205, 196, 236
-0.993231, 273, 93, 304, 124
-0.993238, 317, 129, 348, 256
-0.993239, 1, 169, 500, 232
-0.99324, 185, 89, 216, 120
-0.993243, 265, 105, 296, 136
-0.993243, 105, 193, 136, 224
-0.993248, 177, 193, 208, 224
-0.993249, 185, 241, 216, 272
-0.99325, 357, 133, 388, 164
-0.993265, 313, 93, 344, 124
-0.993266, 209, 53, 336, 84
-0.993267, 213, 181, 244, 212
-0.993268, 205, 317, 236, 348
-0.993271, 181, 257, 212, 288
-0.993271, 277, 209, 308, 240
-0.993275, 301, 213, 332, 244
-0.993303, 101, 49, 132, 176
-0.993403, 335, 169, 350, 232
-0.993429, 169, 193, 200, 320
-0.993487, 321, 1, 384, 375
-0.993495, 409, 225, 472, 352
-0.99354, 249, 225, 280, 352
-0.993569, 161, 89, 288, 120
-0.993619, 49, 33, 176, 64
-0.993625, 225, 137, 480, 200
-0.993716, 257, 41, 500, 104
-0.993739, 369, 41, 496, 104
-0.993746, 225, 81, 352, 112
-0.993757, 369, 177, 496, 240
-0.993776, 145, 29, 272, 60
-0.993846, 257, 93, 384, 124
-0.993851, 417, 1, 480, 375
-0.993874, 225, 169, 480, 232
-0.99389, 231, 97, 246, 160
-0.993917, 1, 121, 500, 184
-0.993922, 425, 17, 488, 144
-0.99393, 81, 25, 96, 88
-0.993949, 49, 1, 80, 128
-0.993963, 369, 1, 400, 128
-0.993975, 1, 33, 500, 96
-0.994002, 259, 201, 274, 264
-0.994016, 123, 25, 138, 88
-0.994031, 33, 73, 288, 136
-0.994038, 329, 1, 392, 256
-0.994057, 173, 145, 204, 272
-0.994073, 241, 145, 368, 176
-0.994084, 71, 33, 86, 96
-0.99409, 209, 65, 336, 96
-0.994093, 225, 209, 352, 240
-0.99416, 223, 33, 238, 96
-0.994295, 287, 33, 302, 96
-0.994314, 369, 225, 496, 288
-0.994335, 241, 169, 368, 200
-0.994351, 241, 157, 368, 188
-0.994402, 55, 73, 70, 136
-0.994404, 257, 109, 384, 140
-0.994411, 103, 25, 118, 88
-0.994414, 209, 125, 336, 156
-0.994456, 177, 225, 304, 256
-0.994471, 1, 65, 64, 320
-0.994472, 95, 121, 110, 184
-0.994474, 91, 25, 106, 88
-0.994528, 137, 193, 168, 320
-0.99453, 325, 193, 340, 256
-0.994531, 117, 25, 132, 88
-0.994549, 279, 33, 294, 96
-0.99468, 177, 101, 304, 132
-0.994701, 433, 145, 496, 272
-0.994701, 189, 57, 204, 120
-0.994738, 97, 25, 112, 88
-0.994741, 173, 73, 188, 136
-0.994752, 231, 65, 246, 128
-0.994764, 33, 49, 160, 80
-0.994805, 111, 25, 126, 88
-0.994808, 193, 165, 320, 196
-0.994817, 129, 77, 256, 108
-0.994829, 215, 201, 230, 264
-0.994848, 225, 193, 352, 224
-0.994864, 259, 33, 274, 96
-0.994879, 163, 81, 178, 144
-0.994891, 337, 209, 368, 336
-0.994924, 193, 177, 320, 208
-0.994949, 97, 37, 224, 68
-0.994966, 63, 41, 78, 104
-0.995006, 241, 89, 256, 152
-0.995024, 225, 225, 352, 256
-0.995054, 241, 181, 368, 212
-0.995078, 145, 161, 272, 224
-0.995079, 1, 241, 64, 368
-0.995082, 289, 121, 416, 152
-0.995091, 193, 137, 320, 168
-0.995093, 377, 161, 440, 288
-0.99512, 273, 197, 400, 228
-0.995124, 295, 209, 310, 272
-0.995133, 199, 49, 214, 112
-0.995161, 329, 169, 344, 232
-0.995162, 269, 105, 284, 168
-0.99517, 129, 25, 144, 88
-0.995174, 361, 129, 424, 375
-0.995196, 113, 1, 176, 375
-0.995256, 33, 1, 288, 64
-0.995256, 179, 65, 194, 128
-0.995257, 225, 97, 240, 160
-0.995282, 61, 73, 76, 136
-0.995287, 191, 193, 206, 256
-0.995289, 257, 133, 384, 164
-0.995301, 265, 217, 280, 280
-0.995301, 237, 57, 252, 120
-0.995321, 249, 49, 264, 112
-0.995345, 235, 121, 250, 184
-0.995382, 257, 81, 288, 208
-0.995385, 193, 217, 208, 280
-0.995389, 267, 33, 282, 96
-0.99539, 357, 1, 388, 128
-0.995409, 61, 113, 76, 176
-0.995409, 259, 225, 274, 288
-0.995439, 83, 121, 98, 184
-0.995447, 257, 69, 384, 100
-0.9955, 301, 209, 316, 272
-0.995524, 355, 105, 370, 168
-0.995525, 1, 37, 128, 68
-0.995526, 1, 201, 500, 264
-0.995532, 417, 113, 448, 240
-0.995535, 241, 241, 368, 272
-0.995545, 341, 177, 356, 240
-0.995548, 1, 97, 500, 160
-0.995584, 273, 217, 400, 248
-0.995584, 1, 117, 128, 148
-0.995587, 55, 49, 70, 112
-0.995589, 265, 185, 280, 248
-0.995593, 253, 201, 268, 264
-0.995596, 305, 109, 432, 140
-0.9956, 231, 25, 246, 88
-0.995653, 121, 145, 152, 272
-0.995655, 1, 145, 500, 208
-0.995666, 319, 81, 334, 144
-0.99567, 273, 33, 288, 96
-0.995674, 309, 65, 340, 320
-0.995685, 177, 209, 304, 240
-0.995713, 161, 241, 416, 304
-0.995725, 81, 49, 208, 80
-0.995726, 205, 49, 220, 112
-0.995743, 341, 1, 372, 128
-0.995745, 273, 81, 400, 112
-0.995764, 327, 89, 342, 152
-0.995806, 293, 33, 308, 96
-0.995807, 51, 105, 66, 168
-0.99581, 213, 41, 228, 104
-0.995811, 61, 241, 92, 368
-0.995813, 241, 41, 368, 72
-0.995819, 237, 25, 252, 88
-0.99582, 203, 233, 218, 296
-0.995825, 145, 25, 160, 88
-0.995828, 347, 73, 362, 136
-0.995831, 397, 113, 428, 240
-0.995835, 263, 137, 278, 200
-0.995837, 257, 217, 500, 280
-0.995845, 209, 113, 336, 144
-0.995848, 421, 1, 452, 128
-0.995886, 287, 225, 302, 288
-0.995909, 269, 57, 284, 120
-0.995941, 275, 57, 290, 120
-0.995941, 271, 217, 286, 280
-0.995969, 193, 153, 320, 184
-0.995979, 185, 193, 200, 256
-0.995995, 101, 169, 116, 232
-0.995998, 97, 89, 224, 120
-0.996002, 273, 57, 400, 88
-0.996014, 109, 241, 140, 368
-0.996032, 97, 213, 224, 244
-0.996054, 1, 161, 128, 192
-0.996071, 243, 57, 258, 120
-0.996086, 333, 73, 348, 136
-0.996093, 185, 145, 216, 272
-0.996095, 281, 225, 296, 288
-0.996101, 49, 65, 64, 128
-0.996103, 161, 189, 288, 220
-0.996105, 401, 17, 432, 144
-0.99611, 309, 129, 324, 192
-0.996117, 369, 113, 400, 240
-0.996132, 211, 177, 226, 240
-0.996166, 145, 65, 176, 192
-0.996169, 225, 269, 352, 300
-0.996178, 139, 25, 154, 88
-0.996213, 17, 181, 144, 212
-0.996224, 297, 161, 312, 224
-0.996231, 97, 313, 352, 375
-0.996235, 315, 201, 330, 264
-0.996242, 353, 81, 368, 144
-0.99626, 151, 17, 166, 80
-0.996262, 65, 21, 192, 52
-0.996274, 49, 201, 176, 232
-0.996299, 229, 217, 244, 280
-0.996299, 73, 105, 88, 168
-0.996303, 81, 49, 96, 112
-0.996315, 177, 237, 304, 268
-0.996326, 237, 185, 252, 248
-0.996331, 317, 121, 332, 184
-0.996345, 253, 225, 268, 288
-0.996353, 263, 65, 278, 128
-0.996357, 253, 65, 284, 320
-0.996359, 307, 49, 322, 112
-0.996372, 65, 1, 96, 256
-0.996377, 65, 233, 320, 296
-0.996388, 33, 257, 288, 320
-0.996417, 331, 193, 346, 256
-0.996418, 95, 161, 110, 224
-0.996421, 341, 153, 356, 216
-0.996436, 357, 129, 372, 192
-0.996436, 297, 33, 328, 288
-0.996437, 347, 129, 362, 192
-0.996451, 107, 177, 122, 240
-0.996453, 381, 17, 412, 144
-0.996462, 275, 89, 290, 152
-0.99647, 121, 1, 136, 64
-0.996473, 341, 97, 356, 160
-0.996486, 303, 137, 318, 200
-0.996487, 177, 249, 304, 280
-0.996497, 37, 113, 68, 240
-0.996502, 465, 65, 496, 192
-0.996502, 65, 61, 192, 92
-0.996504, 307, 217, 322, 280
-0.996509, 273, 229, 400, 260
-0.996512, 341, 73, 356, 136
-0.996516, 189, 25, 204, 88
-0.99653, 287, 57, 302, 120
-0.996551, 217, 129, 232, 192
-0.996559, 185, 89, 200, 152
-0.996561, 67, 65, 82, 128
-0.996573, 285, 1, 316, 256
-0.996573, 241, 33, 272, 288
-0.996579, 299, 41, 314, 104
-0.996598, 337, 17, 464, 80
-0.996608, 1, 145, 128, 176
-0.996632, 223, 1, 238, 64
-0.996639, 347, 97, 362, 160
-0.996659, 33, 289, 288, 352
-0.996661, 289, 145, 416, 176
-0.996661, 73, 65, 88, 128
-0.996662, 199, 73, 214, 136
-0.996663, 65, 285, 192, 316
-0.996669, 287, 201, 302, 264
-0.996675, 257, 73, 272, 136
-0.99668, 225, 281, 352, 312
-0.996698, 81, 105, 208, 136
-0.996703, 177, 261, 304, 292
-0.996708, 313, 57, 328, 120
-0.996717, 217, 33, 248, 288
-0.996722, 145, 49, 272, 80
-0.996727, 235, 217, 250, 280
-0.996728, 293, 129, 324, 375
-0.996728, 281, 57, 296, 120
-0.996737, 161, 265, 416, 328
-0.996744, 97, 269, 224, 300
-0.996744, 157, 81, 172, 144
-0.996756, 45, 241, 76, 368
-0.99676, 225, 253, 352, 284
-0.996772, 247, 193, 262, 256
-0.996779, 229, 1, 244, 64
-0.99678, 169, 105, 184, 168
-0.996784, 337, 185, 464, 216
-0.996803, 129, 1, 384, 64
-0.996803, 49, 193, 80, 320
-0.996808, 157, 17, 172, 80
-0.996811, 109, 113, 140, 240
-0.996818, 115, 185, 130, 248
-0.996824, 321, 217, 336, 280
-0.996824, 1, 233, 128, 264
-0.996826, 273, 285, 400, 316
-0.996827, 363, 73, 378, 136
-0.996831, 333, 185, 348, 216
-0.996833, 169, 65, 200, 320
-0.996842, 347, 185, 362, 248
-0.99685, 273, 257, 400, 288
-0.996856, 53, 33, 84, 288
-0.996863, 235, 125, 250, 156
-0.996877, 197, 177, 212, 240
-0.996891, 179, 201, 194, 264
-0.996903, 1, 57, 500, 120
-0.996906, 337, 201, 352, 264
-0.99691, 97, 321, 224, 352
-0.996919, 113, 225, 240, 256
-0.99692, 337, 137, 464, 168
-0.996923, 49, 41, 64, 104
-0.996926, 369, 249, 496, 312
-0.996935, 289, 157, 416, 188
-0.996935, 191, 81, 206, 144
-0.996941, 133, 49, 164, 176
-0.996954, 257, 17, 500, 80
-0.996965, 369, 77, 496, 108
-0.996966, 81, 165, 208, 196
-0.996971, 87, 49, 102, 112
-0.996978, 353, 161, 384, 288
-0.996981, 257, 241, 500, 304
-0.996982, 247, 81, 262, 144
-0.996993, 97, 333, 224, 364
-0.996996, 321, 81, 448, 112
-0.997028, 33, 337, 160, 368
-0.997029, 65, 297, 192, 328
-0.997035, 129, 101, 256, 132
-0.997044, 129, 345, 256, 375
-0.99708, 33, 129, 160, 160
-0.997084, 327, 189, 342, 220
-0.997105, 49, 213, 176, 244
-0.997123, 305, 97, 432, 128
-0.997131, 273, 345, 400, 375
-0.997132, 265, 97, 296, 352
-0.997139, 77, 65, 108, 320
-0.997142, 129, 285, 256, 316
-0.997172, 17, 61, 144, 92
-0.997174, 225, 29, 240, 60
-0.997195, 205, 129, 236, 375
-0.997207, 289, 169, 416, 200
-0.997212, 325, 129, 356, 375
-0.99722, 49, 225, 176, 256
-0.997231, 305, 69, 432, 100
-0.997243, 129, 33, 144, 64
-0.997251, 17, 305, 144, 336
-0.997251, 81, 177, 208, 208
-0.997257, 1, 221, 128, 252
-0.997257, 113, 17, 240, 48
-0.997259, 81, 77, 208, 108
-0.99726, 125, 241, 156, 368
-0.997267, 193, 29, 320, 60
-0.997299, 223, 125, 238, 156
-0.997299, 445, 225, 476, 352
-0.9973, 113, 189, 240, 220
-0.997302, 321, 229, 448, 260
-0.997305, 143, 33, 158, 64
-0.997323, 153, 29, 168, 60
-0.997324, 17, 265, 144, 296
-0.997326, 129, 237, 256, 268
-0.997349, 17, 277, 144, 308
-0.997365, 209, 293, 336, 324
-0.997365, 9, 97, 40, 224
-0.997388, 17, 321, 144, 352
-0.997394, 97, 309, 224, 340
-0.997397, 135, 33, 150, 64
-0.997406, 177, 277, 304, 308
-0.997415, 89, 1, 120, 256
-0.99742, 337, 129, 368, 375
-0.997425, 337, 173, 352, 204
-0.997428, 289, 37, 416, 68
-0.997456, 273, 329, 400, 360
-0.997457, 215, 221, 230, 252
-0.99746, 321, 197, 448, 228
-0.99751, 189, 201, 204, 232
-0.997523, 273, 1, 304, 256
-0.997525, 229, 97, 260, 352
-0.99753, 273, 305, 400, 336
-0.99754, 177, 345, 304, 375
-0.997544, 53, 65, 68, 96
-0.997544, 123, 33, 138, 64
-0.997547, 65, 253, 192, 284
-0.997552, 65, 97, 96, 352
-0.997558, 159, 29, 174, 60
-0.997559, 129, 257, 256, 288
-0.997559, 1, 233, 500, 296
-0.99758, 97, 201, 224, 232
-0.99759, 211, 53, 226, 84
-0.997597, 99, 169, 114, 200
-0.997601, 49, 237, 176, 268
-0.997609, 305, 241, 432, 272
-0.997615, 385, 113, 416, 240
-0.997628, 215, 41, 230, 72
-0.997645, 181, 1, 212, 256
-0.997645, 323, 201, 338, 232
-0.997652, 161, 113, 288, 144
-0.997653, 273, 273, 400, 304
-0.997674, 209, 325, 336, 356
-0.997687, 117, 29, 132, 60
-0.997696, 321, 217, 448, 248
-0.997706, 209, 305, 336, 336
-0.997721, 199, 53, 214, 84
-0.997727, 79, 33, 94, 64
-0.997737, 161, 89, 176, 120
-0.997765, 225, 345, 352, 375
-0.997781, 321, 33, 352, 288
-0.997786, 95, 129, 110, 160
-0.997801, 329, 201, 344, 232
-0.997802, 193, 65, 224, 320
-0.99781, 329, 93, 344, 124
-0.997815, 55, 77, 70, 108
-0.997821, 231, 29, 246, 60
-0.99783, 229, 1, 260, 256
-0.997832, 1, 245, 128, 276
-0.997832, 17, 293, 144, 324
-0.997841, 33, 73, 160, 104
-0.997841, 349, 129, 364, 160
-0.99785, 111, 29, 126, 60
-0.997857, 161, 125, 288, 156
-0.997878, 129, 297, 256, 328
-0.997887, 215, 209, 230, 240
-0.997895, 289, 185, 416, 216
-0.997897, 337, 125, 464, 156
-0.997898, 259, 225, 274, 256
-0.9979, 309, 133, 324, 164
-0.997901, 129, 177, 256, 208
-0.997916, 1, 9, 500, 72
-0.997917, 291, 41, 306, 72
-0.997929, 59, 61, 74, 92
-0.997938, 337, 153, 464, 184
-0.997944, 401, 161, 464, 288
-0.997946, 287, 73, 302, 104
-0.99796, 93, 117, 108, 148
-0.997963, 257, 265, 500, 328
-0.997965, 309, 53, 324, 84
-0.997967, 335, 161, 350, 192
-0.997973, 1, 93, 128, 124
-0.997975, 259, 205, 274, 236
-0.997978, 63, 73, 78, 104
-0.997979, 279, 41, 294, 72
-0.997985, 161, 289, 416, 352
-0.997986, 221, 41, 236, 72
-0.997989, 287, 225, 302, 256
-0.997999, 355, 137, 370, 168
-0.998007, 181, 97, 212, 352
-0.998019, 297, 41, 312, 72
-0.998022, 329, 81, 344, 112
-0.998026, 337, 81, 352, 112
-0.998029, 303, 213, 318, 244
-0.998033, 297, 213, 312, 244
-0.998036, 81, 117, 96, 148
-0.998044, 117, 1, 148, 256
-0.998052, 191, 217, 206, 248
-0.998053, 91, 29, 106, 60
-0.998061, 81, 53, 96, 84
-0.998063, 285, 41, 300, 72
-0.998064, 275, 93, 290, 124
-0.998065, 61, 117, 76, 148
-0.998073, 349, 97, 380, 352
-0.998075, 191, 61, 206, 92
-0.998079, 65, 145, 96, 272
-0.99808, 229, 125, 244, 156
-0.998082, 165, 25, 180, 56
-0.998086, 41, 33, 72, 288
-0.998087, 229, 69, 244, 100
-0.998088, 315, 125, 330, 156
-0.998096, 315, 213, 330, 244
-0.998102, 253, 229, 268, 260
-0.998105, 213, 181, 228, 212
-0.99811, 51, 53, 66, 84
-0.998112, 89, 129, 120, 375
-0.99812, 235, 137, 250, 168
-0.998131, 321, 69, 336, 100
-0.998135, 105, 29, 120, 60
-0.998136, 225, 313, 480, 375
-0.998149, 49, 77, 64, 108
-0.998152, 249, 85, 264, 116
-0.998155, 105, 177, 120, 208
-0.998158, 187, 93, 202, 124
-0.99816, 205, 53, 220, 84
-0.998163, 75, 61, 90, 92
-0.998164, 115, 185, 130, 216
-0.998164, 145, 21, 160, 52
-0.998165, 327, 177, 342, 208
-0.998167, 321, 89, 336, 120
-0.998174, 199, 77, 214, 108
-0.998174, 233, 217, 248, 248
-0.998175, 69, 113, 84, 144
-0.998175, 113, 49, 128, 80
-0.99818, 373, 177, 404, 304
-0.99818, 53, 129, 84, 375
-0.998189, 267, 117, 282, 148
-0.998191, 183, 205, 198, 236
-0.998204, 343, 81, 358, 112
-0.998209, 259, 37, 274, 68
-0.998211, 123, 45, 138, 76
-0.998211, 239, 189, 254, 220
-0.998213, 335, 197, 350, 228
-0.998215, 219, 29, 234, 60
-0.998216, 57, 105, 72, 136
-0.998219, 49, 97, 64, 128
-0.99822, 195, 193, 210, 224
-0.99823, 285, 57, 300, 88
-0.998231, 167, 81, 182, 112
-0.998238, 255, 77, 270, 108
-0.998239, 251, 197, 266, 228
-0.998245, 217, 129, 232, 160
-0.998245, 101, 65, 132, 320
-0.998248, 219, 197, 234, 228
-0.998254, 203, 233, 218, 264
-0.998257, 303, 49, 318, 80
-0.99826, 97, 29, 112, 60
-0.998261, 327, 105, 342, 136
-0.998267, 73, 37, 88, 68
-0.998268, 265, 65, 280, 96
-0.998274, 269, 105, 284, 136
-0.998274, 241, 133, 256, 164
-0.99828, 45, 65, 60, 96
-0.998287, 263, 145, 278, 176
-0.99829, 1, 257, 500, 320
-0.998292, 237, 97, 252, 128
-0.998297, 273, 41, 288, 72
-0.998298, 193, 85, 208, 116
-0.99831, 279, 57, 294, 88
-0.998314, 129, 45, 144, 76
-0.998314, 57, 45, 72, 76
-0.998322, 87, 49, 102, 80
-0.998328, 51, 109, 66, 140
-0.998328, 341, 197, 356, 228
-0.998329, 195, 229, 210, 260
-0.998333, 65, 61, 80, 92
-0.998338, 179, 105, 194, 136
-0.998338, 343, 169, 358, 200
-0.998347, 243, 89, 258, 120
-0.998348, 201, 221, 216, 252
-0.99835, 67, 41, 82, 72
-0.998355, 193, 187, 224, 202
-0.998355, 209, 219, 240, 234
-0.998355, 297, 297, 328, 312
-0.998355, 211, 169, 226, 200
-0.998355, 301, 345, 332, 360
-0.998356, 205, 323, 236, 338
-0.998357, 269, 41, 300, 56
-0.998357, 357, 109, 372, 140
-0.998358, 165, 101, 196, 116
-0.998358, 53, 115, 84, 130
-0.998359, 293, 227, 324, 242
-0.998359, 333, 83, 364, 98
-0.998359, 157, 37, 188, 52
-0.998361, 89, 179, 120, 194
-0.998363, 165, 209, 196, 224
-0.998365, 357, 135, 388, 150
-0.998365, 197, 47, 228, 62
-0.998365, 273, 167, 304, 182
-0.998365, 65, 41, 96, 56
-0.998365, 201, 77, 232, 92
-0.998366, 217, 55, 248, 70
-0.998367, 201, 237, 232, 252
-0.998368, 261, 75, 292, 90
-0.998368, 325, 109, 356, 124
-0.998369, 265, 119, 296, 134
-0.99837, 265, 69, 296, 84
-0.99837, 237, 203, 268, 218
-0.998371, 41, 57, 72, 72
-0.998371, 49, 83, 80, 98
-0.998372, 105, 191, 136, 206
-0.998372, 293, 233, 324, 248
-0.998373, 81, 119, 112, 134
-0.998373, 285, 75, 316, 90
-0.998375, 227, 41, 242, 72
-0.998375, 343, 129, 358, 160
-0.998376, 301, 337, 332, 352
-0.998376, 269, 181, 300, 196
-0.998376, 1, 313, 256, 375
-0.998376, 85, 171, 116, 186
-0.998378, 293, 221, 324, 236
-0.998378, 225, 137, 256, 152
-0.998378, 329, 203, 360, 218
-0.998378, 37, 77, 68, 92
-0.99838, 57, 55, 88, 70
-0.998381, 177, 201, 208, 216
-0.998381, 301, 147, 332, 162
-0.998381, 233, 123, 264, 138
-0.998381, 217, 207, 248, 222
-0.998383, 269, 173, 300, 188
-0.998384, 313, 129, 344, 144
-0.998385, 321, 85, 352, 100
-0.998386, 205, 39, 236, 54
-0.998388, 45, 65, 76, 80
-0.998389, 237, 213, 268, 228
-0.99839, 201, 345, 232, 360
-0.99839, 41, 71, 72, 86
-0.99839, 245, 197, 276, 212
-0.998393, 61, 49, 92, 64
-0.998394, 89, 49, 120, 64
-0.998394, 333, 165, 364, 180
-0.998395, 213, 197, 244, 212
-0.998395, 101, 183, 132, 198
-0.998396, 89, 31, 120, 46
-0.998396, 161, 109, 192, 124
-0.9984, 173, 77, 204, 92
-0.9984, 325, 103, 356, 118
-0.9984, 257, 225, 288, 240
-0.998402, 245, 125, 276, 140
-0.998402, 145, 41, 176, 56
-0.998404, 201, 181, 232, 196
-0.998405, 313, 223, 344, 238
-0.998405, 305, 141, 336, 156
-0.998406, 189, 201, 220, 216
-0.998406, 345, 141, 376, 156
-0.998407, 345, 135, 376, 150
-0.998408, 221, 221, 252, 236
-0.998409, 321, 167, 352, 182
-0.99841, 317, 75, 348, 90
-0.998412, 289, 215, 320, 230
-0.998412, 273, 227, 304, 242
-0.998414, 125, 45, 156, 60
-0.998414, 317, 207, 348, 222
-0.998415, 213, 33, 244, 48
-0.998416, 229, 95, 260, 110
-0.998417, 221, 229, 252, 244
-0.998417, 225, 87, 256, 102
-0.998417, 309, 213, 340, 228
-0.998418, 197, 207, 228, 222
-0.998419, 281, 43, 312, 58
-0.998421, 317, 191, 348, 206
-0.998423, 209, 61, 240, 76
-0.998427, 121, 35, 152, 50
-0.998427, 217, 131, 280, 146
-0.998429, 297, 67, 328, 82
-0.998431, 249, 189, 280, 204
-0.998431, 197, 217, 228, 232
-0.998431, 241, 131, 272, 146
-0.99844, 209, 45, 240, 60
-0.998443, 333, 193, 364, 208
-0.998444, 265, 59, 328, 74
-0.998445, 57, 69, 88, 84
-0.998445, 105, 31, 136, 46
-0.998446, 249, 41, 312, 56
-0.998446, 205, 1, 236, 256
-0.998448, 205, 71, 236, 86
-0.99845, 197, 223, 228, 238
-0.998452, 257, 41, 288, 56
-0.998452, 113, 49, 144, 64
-0.998454, 57, 61, 88, 76
-0.998455, 181, 71, 212, 86
-0.998455, 293, 53, 324, 68
-0.998457, 333, 181, 364, 196
-0.998458, 165, 31, 196, 46
-0.998458, 325, 97, 356, 112
-0.99846, 233, 195, 264, 210
-0.998461, 233, 39, 264, 54
-0.998464, 297, 61, 328, 76
-0.998467, 257, 145, 320, 160
-0.998467, 133, 35, 164, 50
-0.99847, 193, 59, 224, 74
-0.99847, 185, 59, 248, 74
-0.998472, 209, 231, 240, 246
-0.998472, 221, 39, 252, 54
-0.998474, 333, 171, 364, 186
-0.998476, 81, 59, 112, 74
-0.998477, 185, 89, 248, 104
-0.998481, 221, 125, 252, 140
-0.998482, 201, 53, 232, 68
-0.998482, 77, 33, 108, 48
-0.998484, 209, 37, 272, 52
-0.998486, 257, 153, 320, 168
-0.998486, 217, 137, 280, 152
-0.998486, 273, 59, 304, 74
-0.998487, 53, 75, 84, 90
-0.998488, 213, 137, 244, 152
-0.99849, 201, 49, 264, 64
-0.998492, 177, 69, 240, 84
-0.998494, 73, 31, 136, 46
-0.998496, 149, 145, 180, 272
-0.998498, 385, 225, 416, 352
-0.998499, 49, 121, 112, 136
-0.9985, 153, 83, 216, 98
-0.998508, 281, 77, 344, 92
-0.99851, 245, 137, 276, 152
-0.998512, 249, 193, 312, 208
-0.998515, 313, 107, 376, 122
-0.998515, 257, 159, 320, 174
-0.998519, 209, 43, 272, 58
-0.99852, 249, 199, 312, 214
-0.998521, 225, 93, 288, 108
-0.998521, 49, 53, 112, 68
-0.998523, 217, 195, 280, 210
-0.998524, 121, 31, 184, 46
-0.998525, 277, 129, 308, 375
-0.998526, 137, 145, 168, 272
-0.998526, 185, 65, 216, 80
-0.998528, 33, 63, 96, 78
-0.998529, 321, 197, 352, 212
-0.998532, 193, 207, 256, 222
-0.998534, 313, 101, 376, 116
-0.998538, 177, 207, 208, 222
-0.998539, 329, 187, 360, 202
-0.99854, 257, 137, 320, 152
-0.99854, 169, 75, 232, 90
-0.998541, 217, 71, 280, 86
-0.998543, 249, 239, 312, 254
-0.998544, 241, 79, 304, 94
-0.998546, 145, 95, 208, 110
-0.998546, 217, 125, 280, 140
-0.998547, 185, 33, 248, 48
-0.998547, 217, 81, 280, 96
-0.998547, 257, 187, 320, 202
-0.998547, 145, 33, 176, 48
-0.998549, 153, 89, 216, 104
-0.99855, 209, 225, 240, 240
-0.99855, 65, 115, 96, 130
-0.99855, 185, 83, 248, 98
-0.99855, 313, 113, 376, 128
-0.998551, 289, 205, 352, 220
-0.998553, 257, 167, 320, 182
-0.998555, 217, 201, 280, 216
-0.998555, 257, 181, 320, 196
-0.998556, 281, 195, 344, 210
-0.998556, 297, 141, 360, 156
-0.998557, 281, 167, 344, 182
-0.99856, 249, 229, 312, 244
-0.998561, 241, 87, 304, 102
-0.998562, 217, 143, 280, 158
-0.998563, 221, 131, 252, 146
-0.998563, 177, 201, 240, 216
-0.998564, 225, 33, 256, 48
-0.998565, 257, 65, 320, 80
-0.998567, 73, 61, 136, 76
-0.998567, 257, 175, 320, 190
-0.998567, 273, 83, 336, 98
-0.998568, 257, 129, 320, 144
-0.99857, 249, 205, 312, 220
-0.998571, 41, 73, 104, 88
-0.998571, 1, 289, 500, 352
-0.998574, 365, 33, 396, 288
-0.998576, 273, 89, 336, 104
-0.998576, 185, 95, 248, 110
-0.998577, 289, 233, 352, 248
-0.998577, 185, 213, 248, 228
-0.998578, 233, 59, 296, 74
-0.998579, 297, 135, 360, 150
-0.998579, 249, 71, 312, 86
-0.99858, 281, 179, 344, 194
-0.998581, 289, 187, 352, 202
-0.998582, 281, 227, 344, 242
-0.998582, 201, 229, 264, 244
-0.998585, 153, 211, 216, 226
-0.998588, 185, 221, 248, 236
-0.998588, 49, 149, 112, 164
-0.998588, 265, 53, 328, 68
-0.998589, 193, 77, 256, 92
-0.998589, 281, 69, 344, 84
-0.99859, 33, 115, 96, 130
-0.99859, 297, 147, 360, 162
-0.99859, 225, 65, 288, 80
-0.99859, 281, 173, 344, 188
-0.998591, 49, 155, 112, 170
-0.998593, 257, 215, 320, 230
-0.998593, 49, 163, 112, 178
-0.998595, 217, 187, 280, 202
-0.998596, 49, 143, 112, 158
-0.998596, 73, 55, 136, 70
-0.998596, 225, 221, 288, 236
-0.998597, 145, 33, 208, 48
-0.998597, 177, 195, 240, 210
-0.998598, 313, 187, 376, 202
-0.998598, 49, 133, 112, 148
-0.998599, 313, 125, 376, 140
-0.998599, 281, 241, 344, 256
-0.9986, 65, 43, 128, 58
-0.9986, 313, 83, 376, 98
-0.998601, 105, 45, 168, 60
-0.998602, 89, 209, 152, 224
-0.998602, 57, 115, 120, 130
-0.998605, 75, 17, 90, 144
-0.998607, 97, 35, 160, 50
-0.998608, 217, 87, 280, 102
-0.998609, 297, 219, 360, 234
-0.998609, 297, 211, 360, 226
-0.99861, 233, 53, 296, 68
-0.99861, 249, 245, 312, 260
-0.998611, 49, 127, 112, 142
-0.998614, 193, 135, 256, 150
-0.998614, 249, 47, 312, 62
-0.998616, 201, 65, 264, 80
-0.998616, 193, 239, 256, 254
-0.998617, 161, 227, 224, 242
-0.998618, 273, 221, 336, 236
-0.998618, 305, 75, 368, 90
-0.998619, 81, 319, 144, 334
-0.99862, 217, 119, 280, 134
-0.998621, 321, 167, 384, 182
-0.998623, 281, 161, 344, 176
-0.998624, 337, 139, 400, 154
-0.998624, 59, 33, 74, 160
-0.998624, 161, 63, 224, 78
-0.998625, 313, 203, 376, 218
-0.998626, 217, 181, 280, 196
-0.998627, 193, 341, 256, 356
-0.998628, 89, 327, 152, 342
-0.998629, 153, 205, 216, 220
-0.998629, 281, 249, 344, 264
-0.99863, 17, 49, 80, 64
-0.99863, 157, 65, 188, 320
-0.998631, 281, 287, 344, 302
-0.998631, 137, 105, 200, 120
-0.998632, 57, 169, 120, 184
-0.998633, 289, 343, 352, 358
-0.998633, 49, 211, 112, 226
-0.998633, 249, 253, 312, 268
-0.998667, 217, 129, 248, 375
-0.998682, 297, 145, 312, 272
-0.998686, 389, 161, 420, 288
-0.998728, 237, 49, 252, 176
-0.998735, 17, 161, 48, 288
-0.99876, 445, 65, 476, 320
-0.998776, 121, 129, 152, 375
-0.998782, 313, 49, 328, 176
-0.998784, 229, 65, 244, 192
-0.998787, 417, 33, 448, 288
-0.99881, 69, 17, 84, 144
-0.998825, 185, 49, 200, 176
-0.998843, 97, 121, 224, 184
-0.998847, 337, 33, 368, 288
-0.998854, 465, 65, 496, 320
-0.998861, 441, 1, 472, 128
-0.998863, 245, 33, 260, 160
-0.998865, 81, 17, 96, 144
-0.998877, 295, 193, 310, 320
-0.998878, 253, 33, 268, 160
-0.998878, 177, 49, 192, 176
-0.9989, 103, 1, 118, 128
-0.99891, 167, 65, 182, 192
-0.998921, 331, 161, 346, 288
-0.998921, 265, 17, 280, 144
-0.998923, 87, 17, 102, 144
-0.998928, 457, 145, 488, 272
-0.998938, 323, 81, 338, 208
-0.998942, 161, 145, 192, 272
-0.998955, 325, 177, 340, 304
-0.998956, 193, 177, 208, 304
-0.998957, 469, 177, 500, 304
-0.998961, 285, 209, 300, 336
-0.998966, 65, 65, 80, 192
-0.998968, 433, 65, 464, 320
-0.998969, 53, 65, 68, 192
-0.998971, 259, 49, 274, 176
-0.998972, 273, 65, 288, 192
-0.99898, 385, 225, 448, 352
-0.998982, 213, 177, 228, 304
-0.998987, 267, 145, 282, 272
-0.998996, 303, 129, 318, 256
-0.998998, 95, 17, 110, 144
-0.999017, 261, 129, 276, 256
-0.99902, 301, 193, 316, 320
-0.999021, 357, 49, 372, 176
-0.999029, 351, 49, 366, 176
-0.999033, 229, 17, 244, 144
-0.999049, 261, 177, 276, 304
-0.999092, 313, 113, 328, 240
-0.999095, 351, 97, 366, 224
-0.999111, 271, 17, 286, 144
-0.999112, 323, 241, 338, 368
-0.999115, 157, 17, 172, 144
-0.999115, 71, 65, 86, 192
-0.99912, 197, 49, 212, 176
-0.999125, 207, 209, 222, 336
-0.999141, 133, 1, 148, 128
-0.999147, 277, 209, 292, 336
-0.99915, 239, 177, 254, 304
-0.999152, 109, 1, 124, 128
-0.999157, 191, 33, 206, 160
-0.999161, 331, 209, 346, 336
-0.999162, 339, 129, 354, 256
-0.999166, 95, 113, 110, 240
-0.999169, 397, 33, 428, 288
-0.999174, 223, 49, 238, 176
-0.999174, 235, 97, 250, 224
-0.999175, 243, 81, 258, 208
-0.999187, 313, 209, 328, 336
-0.999187, 277, 17, 292, 144
-0.999188, 319, 193, 334, 320
-0.999189, 267, 97, 282, 224
-0.999192, 329, 97, 344, 224
-0.999195, 357, 97, 372, 224
-0.999196, 57, 113, 72, 240
-0.999197, 105, 161, 120, 288
-0.999199, 171, 17, 186, 144
-0.999204, 139, 1, 154, 128
-0.999206, 81, 97, 96, 224
-0.999207, 253, 177, 268, 304
-0.999209, 345, 81, 360, 208
-0.999214, 87, 113, 102, 240
-0.999219, 289, 161, 304, 288
-0.99922, 165, 17, 180, 144
-0.999223, 307, 193, 322, 320
-0.999228, 305, 33, 320, 160
-0.999234, 187, 177, 202, 304
-0.999234, 331, 49, 346, 176
-0.999237, 283, 17, 298, 144
-0.999239, 339, 81, 354, 208
-0.999242, 271, 209, 286, 336
-0.999246, 133, 129, 164, 375
-0.999249, 207, 33, 222, 160
-0.999256, 127, 1, 142, 128
-0.999263, 381, 33, 412, 288
-0.999266, 221, 129, 236, 256
-0.999274, 363, 49, 378, 176
-0.999277, 229, 209, 244, 336
-0.999285, 63, 113, 78, 240
-0.99929, 115, 1, 130, 128
-0.999292, 199, 225, 214, 352
-0.999295, 319, 33, 334, 160
-0.999303, 119, 177, 134, 304
-0.99931, 221, 225, 236, 352
-0.999311, 101, 49, 116, 176
-0.999312, 239, 1, 254, 128
-0.999316, 297, 1, 312, 128
-0.999323, 145, 1, 160, 128
-0.999331, 197, 1, 212, 128
-0.999337, 241, 129, 272, 375
-0.999338, 349, 145, 364, 272
-0.99934, 99, 161, 114, 288
-0.999342, 113, 161, 128, 288
-0.999344, 217, 1, 232, 128
-0.999347, 67, 177, 82, 304
-0.999352, 161, 65, 176, 192
-0.999356, 53, 17, 68, 144
-0.999357, 247, 177, 262, 304
-0.99936, 257, 289, 500, 352
-0.999366, 121, 1, 136, 128
-0.999369, 179, 97, 194, 224
-0.999378, 151, 1, 166, 128
-0.999382, 199, 161, 214, 288
-0.999384, 369, 129, 400, 375
-0.999385, 47, 49, 62, 176
-0.999391, 145, 97, 176, 352
-0.999398, 369, 65, 384, 192
-0.9994, 279, 65, 294, 192
-0.999405, 173, 97, 188, 224
-0.999406, 303, 241, 318, 368
-0.999407, 181, 1, 196, 128
-0.999407, 97, 241, 112, 368
-0.999409, 423, 65, 438, 192
-0.999412, 353, 1, 384, 256
-0.999415, 375, 65, 390, 192
-0.999417, 389, 65, 404, 192
-0.999424, 223, 1, 238, 128
-0.999425, 191, 81, 206, 208
-0.99943, 417, 65, 432, 192
-0.999432, 325, 17, 340, 144
-0.999437, 91, 65, 106, 192
-0.999451, 339, 177, 354, 304
-0.999454, 219, 177, 234, 304
-0.999466, 297, 49, 312, 176
-0.99947, 249, 81, 264, 208
-0.999478, 229, 129, 244, 256
-0.999482, 273, 161, 288, 288
-0.999486, 215, 129, 230, 256
-0.999488, 289, 1, 304, 128
-0.999488, 399, 65, 414, 192
-0.999498, 17, 97, 48, 352
-0.999532, 401, 129, 432, 375
-0.999553, 129, 33, 160, 288
-0.999561, 269, 115, 284, 130
-0.999561, 325, 85, 340, 100
-0.999562, 325, 91, 340, 106
-0.999562, 85, 133, 100, 148
-0.999562, 215, 217, 230, 232
-0.999562, 185, 67, 200, 82
-0.999562, 253, 229, 268, 244
-0.999562, 161, 87, 176, 102
-0.999562, 327, 109, 342, 124
-0.999563, 53, 89, 68, 104
-0.999563, 231, 227, 246, 242
-0.999563, 181, 207, 196, 222
-0.999564, 191, 93, 206, 108
-0.999565, 291, 43, 306, 58
-0.999565, 313, 213, 328, 228
-0.999567, 9, 1, 40, 256
-0.999567, 321, 97, 336, 112
-0.999568, 213, 185, 228, 200
-0.999568, 285, 41, 300, 56
-0.999569, 105, 185, 120, 200
-0.999569, 159, 93, 174, 108
-0.999569, 77, 65, 92, 80
-0.999569, 275, 59, 290, 74
-0.99957, 191, 219, 206, 234
-0.99957, 223, 139, 238, 154
-0.999571, 183, 31, 198, 46
-0.999571, 259, 227, 274, 242
-0.999572, 307, 55, 322, 70
-0.999573, 169, 109, 184, 124
-0.999573, 347, 141, 362, 156
-0.999573, 327, 183, 342, 198
-0.999575, 125, 47, 140, 62
-0.999575, 309, 135, 324, 150
-0.999575, 193, 195, 208, 210
-0.999576, 131, 45, 146, 60
-0.999576, 141, 43, 156, 58
-0.999578, 69, 39, 84, 54
-0.999578, 219, 199, 234, 214
-0.999579, 219, 127, 234, 142
-0.99958, 333, 195, 348, 210
-0.99958, 203, 237, 218, 252
-0.99958, 213, 43, 228, 58
-0.999581, 199, 81, 214, 96
-0.999581, 87, 51, 102, 66
-0.999582, 235, 99, 250, 114
-0.999583, 237, 63, 252, 78
-0.999583, 109, 31, 124, 46
-0.999583, 215, 209, 230, 224
-0.999584, 175, 111, 190, 126
-0.999585, 287, 77, 302, 92
-0.999585, 179, 71, 194, 86
-0.999587, 191, 61, 206, 76
-0.999587, 267, 65, 282, 80
-0.999587, 95, 31, 110, 46
-0.999587, 247, 91, 262, 106
-0.999588, 319, 73, 334, 88
-0.99959, 237, 193, 252, 208
-0.999592, 115, 31, 130, 46
-0.999592, 303, 49, 318, 64
-0.999593, 237, 141, 252, 156
-0.999594, 333, 183, 348, 198
-0.999594, 57, 113, 72, 128
-0.999595, 81, 117, 96, 132
-0.999595, 127, 35, 142, 50
-0.999597, 339, 197, 354, 212
-0.999597, 229, 41, 244, 56
-0.999599, 303, 217, 318, 232
-0.999599, 311, 63, 326, 78
-0.9996, 53, 83, 68, 98
-0.999601, 259, 41, 274, 56
-0.999601, 211, 57, 226, 72
-0.999602, 339, 183, 354, 198
-0.999604, 113, 185, 128, 200
-0.999604, 89, 31, 104, 46
-0.999604, 215, 135, 230, 150
-0.999605, 353, 141, 368, 156
-0.999605, 297, 45, 312, 60
-0.999606, 53, 57, 68, 72
-0.999607, 167, 83, 182, 98
-0.999608, 287, 229, 302, 244
-0.999608, 59, 121, 74, 136
-0.999611, 91, 117, 106, 132
-0.999612, 317, 129, 332, 144
-0.999613, 343, 175, 358, 190
-0.999615, 345, 135, 360, 150
-0.999615, 241, 95, 256, 110
-0.999615, 95, 167, 110, 182
-0.999616, 335, 189, 350, 204
-0.999617, 57, 69, 72, 84
-0.999621, 83, 57, 98, 72
-0.999622, 69, 115, 84, 130
-0.999623, 63, 75, 78, 90
-0.999624, 117, 49, 132, 64
-0.999625, 331, 95, 346, 110
-0.999629, 79, 33, 94, 48
-0.999632, 95, 131, 110, 146
-0.999632, 239, 35, 254, 50
-0.999633, 335, 177, 350, 192
-0.999634, 165, 31, 180, 46
-0.999635, 213, 177, 228, 192
-0.999641, 219, 47, 234, 62
-0.999641, 133, 37, 148, 52
-0.999642, 101, 179, 116, 194
-0.999643, 351, 131, 366, 146
-0.999643, 199, 57, 214, 72
-0.999645, 53, 75, 68, 90
-0.999648, 237, 135, 252, 150
-0.999649, 49, 63, 64, 78
-0.999649, 331, 201, 346, 216
-0.999657, 329, 189, 344, 204
-0.999661, 335, 167, 350, 182
-0.999661, 211, 49, 226, 64
-0.999663, 219, 39, 234, 54
-0.999663, 159, 31, 174, 46
-0.999668, 99, 173, 114, 188
-0.999675, 233, 33, 248, 48
-0.999675, 233, 123, 248, 138
-0.999676, 231, 135, 246, 150
-0.999677, 93, 125, 108, 140
-0.999682, 325, 201, 340, 216
-0.999688, 225, 127, 240, 142
-0.999689, 323, 207, 338, 222
-0.999689, 141, 35, 156, 50
-0.999691, 189, 203, 204, 218
-0.999695, 151, 33, 166, 48
-0.999696, 205, 53, 220, 68
-0.999702, 235, 129, 250, 144
-0.999707, 215, 223, 230, 238
-0.999715, 327, 195, 342, 210
-0.999718, 225, 33, 240, 48
-0.999727, 221, 133, 236, 148
-0.999731, 1, 129, 32, 375
-0.999857, 385, 129, 416, 375
-0.999861, 41, 129, 72, 375
-0.999872, 413, 129, 444, 375
-0.999948, 29, 129, 60, 375
-1.00004, 29, 1, 60, 256
-1.00007, 1, 313, 500, 375
-1.00013, 145, 1, 176, 256
-1.00057, 433, 193, 496, 320
-1.00809, 105, 65, 168, 192
