1886
-0.377192, 1, 1, 500, 333
-0.403488, 1, 65, 500, 320
-0.466661, 129, 1, 384, 333
-0.551073, 1, 1, 256, 333
-0.599867, 129, 65, 384, 320
-0.602028, 257, 1, 500, 333
-0.688756, 225, 65, 480, 320
-0.737724, 1, 65, 256, 320
-0.858925, 241, 1, 368, 333
-0.877854, 177, 1, 304, 333
-0.879825, 177, 65, 304, 320
-0.882249, 289, 1, 416, 333
-0.886296, 225, 65, 352, 320
-0.888653, 1, 193, 500, 320
-0.890816, 129, 1, 256, 333
-0.891474, 33, 65, 160, 320
-0.892543, 49, 1, 176, 333
-0.892873, 129, 1, 256, 256
-0.899639, 81, 65, 208, 320
-0.902452, 1, 81, 500, 208
-0.904602, 353, 65, 480, 320
-0.905773, 353, 1, 480, 333
-0.90882, 1, 1, 128, 333
-0.910725, 273, 33, 400, 288
-0.920803, 1, 145, 500, 272
-0.923461, 129, 113, 384, 240
-0.924255, 97, 65, 352, 192
-0.926023, 225, 65, 480, 192
-0.930283, 33, 209, 288, 333
-0.93123, 249, 65, 312, 192
-0.93336, 257, 209, 500, 333
-0.934938, 1, 161, 256, 288
-0.937318, 1, 33, 500, 160
-0.939071, 225, 65, 352, 192
-0.939164, 97, 161, 352, 288
-0.941359, 1, 65, 256, 192
-0.942283, 97, 145, 224, 272
-0.942586, 225, 65, 288, 192
-0.944911, 161, 209, 416, 333
-0.945562, 177, 113, 304, 240
-0.94911, 161, 161, 224, 288
-0.951931, 273, 65, 336, 192
-0.953213, 97, 17, 352, 144
-0.953326, 177, 65, 304, 192
-0.95456, 193, 113, 256, 240
-0.954687, 33, 81, 160, 208
-0.954837, 257, 17, 500, 144
-0.955173, 129, 49, 256, 176
-0.957361, 145, 193, 272, 320
-0.95825, 273, 33, 400, 160
-0.95973, 289, 209, 416, 333
-0.960356, 233, 73, 296, 136
-0.960902, 225, 113, 288, 240
-0.96135, 113, 145, 176, 272
-0.961877, 257, 81, 320, 144
-0.964166, 177, 65, 240, 192
-0.964377, 225, 113, 480, 240
-0.964462, 289, 209, 352, 333
-0.964952, 225, 113, 352, 240
-0.965288, 201, 49, 264, 176
-0.965481, 193, 161, 448, 288
-0.965547, 249, 113, 312, 240
-0.965694, 321, 209, 384, 333
-0.965836, 33, 193, 160, 320
-0.965943, 145, 153, 208, 216
-0.966051, 113, 97, 176, 224
-0.966307, 153, 113, 216, 240
-0.966544, 33, 113, 288, 240
-0.966611, 209, 57, 272, 120
-0.966865, 137, 161, 200, 288
-0.967009, 33, 81, 96, 208
-0.967233, 257, 17, 320, 144
-0.967431, 225, 121, 288, 184
-0.967709, 305, 33, 368, 160
-0.967736, 281, 65, 344, 128
-0.967779, 81, 97, 208, 224
-0.968152, 241, 209, 368, 333
-0.968205, 257, 57, 320, 120
-0.968588, 193, 209, 320, 333
-0.968619, 81, 65, 144, 192
-0.969038, 25, 97, 88, 160
-0.969078, 225, 97, 288, 160
-0.969533, 337, 209, 464, 333
-0.969839, 225, 89, 352, 152
-0.969981, 177, 209, 240, 333
-0.969994, 337, 233, 400, 296
-0.970166, 9, 81, 72, 208
-0.970402, 257, 257, 320, 320
-0.971181, 1, 1, 256, 128
-0.971183, 225, 17, 352, 144
-0.971274, 97, 209, 224, 333
-0.971305, 121, 153, 184, 216
-0.97177, 257, 65, 288, 192
-0.972393, 17, 129, 144, 256
-0.972485, 305, 49, 368, 112
-0.972519, 289, 273, 352, 333
-0.97263, 273, 81, 400, 208
-0.973098, 105, 177, 168, 240
-0.973623, 193, 81, 256, 144
-0.973657, 161, 1, 288, 128
-0.973657, 353, 161, 480, 288
-0.973826, 297, 97, 360, 224
-0.973923, 201, 105, 264, 168
-0.973928, 233, 17, 296, 144
-0.973929, 57, 273, 120, 333
-0.974103, 33, 33, 160, 160
-0.97436, 1, 209, 64, 333
-0.974541, 289, 249, 352, 312
-0.974623, 245, 65, 276, 192
-0.974656, 345, 209, 408, 333
-0.974723, 185, 257, 248, 320
-0.974913, 81, 177, 144, 304
-0.975274, 49, 209, 112, 333
-0.975397, 9, 249, 72, 312
-0.975629, 281, 97, 344, 160
-0.975654, 169, 217, 232, 280
-0.975761, 193, 161, 320, 288
-0.976078, 369, 65, 496, 192
-0.976257, 425, 241, 488, 304
-0.976313, 269, 65, 300, 192
-0.976607, 225, 65, 352, 128
-0.976721, 241, 257, 368, 320
-0.976948, 129, 97, 256, 224
-0.977115, 201, 209, 264, 333
-0.977194, 57, 113, 120, 240
-0.977493, 433, 209, 496, 333
-0.977564, 161, 177, 224, 240
-0.97761, 81, 49, 208, 176
-0.977703, 273, 65, 400, 128
-0.97773, 225, 33, 288, 288
-0.978246, 137, 65, 200, 192
-0.978282, 57, 249, 120, 312
-0.978326, 57, 49, 120, 176
-0.978332, 281, 65, 312, 192
-0.978433, 81, 1, 208, 128
-0.97868, 289, 225, 352, 288
-0.978692, 229, 105, 260, 168
-0.978807, 97, 153, 160, 216
-0.978865, 97, 65, 160, 320
-0.978924, 233, 81, 264, 208
-0.978936, 281, 41, 344, 104
-0.978981, 81, 89, 144, 152
-0.979, 281, 17, 344, 144
-0.979096, 97, 161, 224, 224
-0.979129, 233, 49, 296, 112
-0.979217, 209, 1, 272, 128
-0.979463, 249, 121, 312, 184
-0.979614, 185, 57, 248, 120
-0.97991, 297, 161, 360, 288
-0.980019, 257, 33, 320, 288
-0.980149, 313, 225, 376, 288
-0.980185, 401, 65, 464, 192
-0.980327, 225, 113, 352, 176
-0.980437, 273, 161, 400, 288
-0.980481, 161, 1, 224, 128
-0.98053, 225, 273, 288, 333
-0.980585, 305, 73, 368, 136
-0.980602, 345, 161, 408, 288
-0.980652, 337, 1, 464, 128
-0.980673, 257, 73, 288, 136
-0.980683, 289, 233, 416, 296
-0.980738, 329, 1, 392, 128
-0.980899, 273, 73, 304, 136
-0.981051, 321, 81, 448, 208
-0.981145, 1, 225, 64, 288
-0.981157, 17, 89, 144, 152
-0.981251, 281, 65, 344, 320
-0.981359, 185, 137, 248, 200
-0.981396, 369, 241, 496, 304
-0.981407, 153, 145, 184, 272
-0.981536, 145, 57, 272, 120
-0.981573, 277, 257, 308, 320
-0.981619, 193, 65, 256, 320
-0.981887, 217, 57, 248, 120
-0.981972, 145, 113, 272, 176
-0.982131, 289, 65, 320, 128
-0.982483, 209, 161, 272, 288
-0.982529, 137, 209, 200, 333
-0.982531, 237, 49, 268, 112
-0.982562, 221, 81, 252, 144
-0.982608, 253, 113, 284, 240
-0.982712, 301, 89, 332, 152
-0.98279, 113, 185, 240, 248
-0.98288, 49, 97, 112, 160
-0.982883, 185, 161, 216, 288
-0.98289, 301, 65, 332, 128
-0.982906, 209, 233, 272, 296
-0.982962, 57, 65, 120, 128
-0.982972, 361, 233, 424, 296
-0.983074, 433, 265, 496, 328
-0.98317, 153, 65, 216, 320
-0.983186, 289, 1, 352, 333
-0.983287, 245, 89, 276, 152
-0.983381, 141, 145, 172, 272
-0.983468, 417, 65, 480, 320
-0.983488, 273, 113, 336, 240
-0.983516, 177, 81, 304, 144
-0.983537, 313, 257, 376, 320
-0.983549, 225, 41, 352, 104
-0.983579, 265, 209, 328, 333
-0.98367, 205, 209, 236, 333
-0.983672, 345, 209, 376, 333
-0.983745, 25, 33, 88, 160
-0.98382, 1, 249, 128, 312
-0.983933, 1, 97, 64, 160
-0.983945, 165, 153, 196, 216
-0.983948, 25, 73, 88, 136
-0.983966, 297, 65, 328, 192
-0.984031, 161, 137, 288, 200
-0.984085, 377, 1, 440, 128
-0.984167, 209, 33, 272, 96
-0.984206, 225, 209, 288, 333
-0.984348, 153, 257, 216, 320
-0.984429, 121, 33, 184, 288
-0.984458, 161, 241, 288, 304
-0.984463, 121, 1, 184, 128
-0.984472, 409, 193, 472, 320
-0.984525, 257, 33, 320, 96
-0.984685, 1, 33, 64, 160
-0.984712, 337, 209, 400, 272
-0.984737, 345, 225, 376, 288
-0.984757, 205, 257, 236, 320
-0.984828, 41, 89, 72, 152
-0.984886, 433, 89, 496, 152
-0.984932, 105, 89, 168, 152
-0.984951, 121, 57, 184, 120
-0.985039, 153, 153, 184, 216
-0.985104, 121, 97, 152, 224
-0.985244, 297, 201, 360, 264
-0.985356, 457, 241, 488, 304
-0.985376, 73, 65, 136, 320
-0.985476, 41, 81, 72, 208
-0.985562, 265, 233, 328, 296
-0.985632, 393, 241, 456, 304
-0.985642, 221, 49, 252, 176
-0.985643, 25, 129, 88, 256
-0.98579, 97, 1, 160, 128
-0.9858, 353, 1, 416, 128
-0.9858, 433, 97, 496, 224
-0.985827, 193, 217, 320, 280
-0.985849, 81, 241, 208, 304
-0.98585, 81, 177, 144, 240
-0.985915, 129, 81, 256, 144
-0.985945, 193, 273, 320, 333
-0.985957, 253, 121, 284, 184
-0.985984, 265, 49, 296, 112
-0.985997, 213, 129, 244, 256
-0.986002, 289, 89, 416, 152
-0.986101, 165, 145, 196, 272
-0.986161, 369, 81, 432, 208
-0.986284, 49, 177, 176, 240
-0.98642, 41, 65, 104, 320
-0.986565, 289, 41, 416, 104
-0.986623, 369, 177, 432, 304
-0.986647, 133, 153, 164, 216
-0.986657, 409, 81, 472, 144
-0.986778, 241, 233, 368, 296
-0.986815, 209, 193, 272, 256
-0.986833, 97, 273, 224, 333
-0.986836, 417, 217, 480, 280
-0.98684, 1, 121, 64, 184
-0.986868, 33, 273, 96, 333
-0.98698, 49, 121, 176, 184
-0.98699, 113, 129, 176, 192
-0.987021, 1, 273, 128, 333
-0.987027, 89, 113, 152, 240
-0.987107, 233, 33, 264, 160
-0.987114, 361, 65, 424, 320
-0.987119, 29, 81, 60, 208
-0.987215, 17, 65, 144, 128
-0.987221, 285, 89, 316, 152
-0.987221, 113, 209, 240, 272
-0.98725, 305, 41, 336, 104
-0.98734, 65, 89, 192, 152
-0.987352, 101, 81, 132, 208
-0.987379, 289, 257, 416, 320
-0.987414, 49, 1, 112, 128
-0.987417, 189, 257, 220, 320
-0.987486, 89, 241, 152, 304
-0.987522, 309, 33, 340, 160
-0.987559, 321, 161, 384, 288
-0.987584, 333, 233, 364, 296
-0.987668, 193, 161, 256, 224
-0.987845, 321, 209, 352, 333
-0.987847, 81, 65, 144, 128
-0.987886, 225, 1, 288, 333
-0.987906, 145, 1, 208, 333
-0.987999, 345, 73, 408, 136
-0.988004, 153, 129, 216, 192
-0.988015, 185, 169, 216, 232
-0.988061, 1, 65, 64, 128
-0.98811, 137, 233, 200, 296
-0.98815, 313, 9, 376, 72
-0.98817, 65, 217, 192, 280
-0.988191, 169, 1, 232, 333
-0.988237, 433, 33, 496, 160
-0.988238, 317, 257, 348, 320
-0.988245, 157, 185, 188, 248
-0.988248, 97, 57, 224, 120
-0.988381, 369, 81, 496, 144
-0.988431, 369, 113, 496, 240
-0.988446, 273, 97, 304, 160
-0.98846, 233, 129, 264, 192
-0.988481, 161, 65, 224, 128
-0.988515, 89, 265, 152, 328
-0.98853, 241, 129, 272, 256
-0.988651, 185, 33, 248, 96
-0.98868, 265, 1, 328, 333
-0.988704, 313, 65, 344, 128
-0.988803, 113, 201, 176, 264
-0.988807, 57, 97, 88, 160
-0.988818, 89, 121, 152, 184
-0.988937, 297, 17, 328, 144
-0.988942, 129, 177, 192, 240
-0.988946, 133, 97, 164, 224
-0.98895, 41, 225, 104, 288
-0.989043, 273, 113, 400, 176
-0.989134, 113, 1, 176, 333
-0.989199, 337, 217, 464, 280
-0.989204, 117, 89, 148, 152
-0.989243, 301, 273, 332, 333
-0.989281, 33, 1, 96, 333
-0.989292, 289, 121, 352, 184
-0.98932, 313, 65, 376, 320
-0.989388, 113, 161, 144, 224
-0.989406, 33, 129, 96, 192
-0.98942, 53, 65, 84, 192
-0.98943, 77, 257, 108, 320
-0.989456, 385, 217, 448, 280
-0.98946, 233, 73, 296, 104
-0.989506, 217, 257, 248, 320
-0.989523, 201, 233, 232, 296
-0.989527, 261, 17, 292, 144
-0.98954, 217, 105, 248, 168
-0.98956, 305, 97, 368, 160
-0.989567, 337, 65, 400, 320
-0.989574, 209, 17, 336, 80
-0.989576, 1, 161, 64, 288
-0.989583, 193, 161, 320, 224
-0.989632, 273, 161, 336, 288
-0.989646, 113, 49, 176, 176
-0.989691, 393, 65, 456, 320
-0.989693, 317, 41, 348, 104
-0.989695, 25, 193, 88, 320
-0.98977, 113, 193, 176, 320
-0.989772, 49, 161, 112, 288
-0.989776, 1, 225, 128, 288
-0.989793, 265, 121, 296, 184
-0.98985, 233, 249, 296, 312
-0.989903, 129, 81, 192, 144
-0.989928, 333, 209, 364, 333
-0.989931, 385, 65, 448, 128
-0.989987, 401, 1, 464, 128
-0.99001, 289, 265, 320, 328
-0.990011, 25, 97, 88, 128
-0.990024, 57, 121, 120, 184
-0.990027, 209, 65, 240, 192
-0.990064, 185, 113, 216, 240
-0.990123, 333, 161, 364, 288
-0.990152, 233, 129, 296, 160
-0.990157, 121, 145, 152, 272
-0.99016, 49, 153, 176, 216
-0.99021, 233, 73, 264, 136
-0.990242, 161, 33, 288, 96
-0.990248, 193, 185, 320, 248
-0.990253, 161, 41, 224, 104
-0.990254, 57, 1, 120, 333
-0.990261, 177, 113, 240, 176
-0.990274, 261, 257, 292, 320
-0.990286, 273, 85, 336, 116
-0.990291, 1, 65, 64, 320
-0.990302, 105, 177, 168, 208
-0.990321, 193, 209, 224, 333
-0.990358, 65, 257, 96, 320
-0.990365, 209, 117, 272, 148
-0.99037, 89, 1, 152, 333
-0.990379, 29, 97, 60, 160
-0.990425, 465, 265, 496, 328
-0.990445, 201, 81, 264, 112
-0.990452, 197, 161, 228, 288
-0.990469, 145, 161, 272, 224
-0.990484, 257, 257, 320, 288
-0.990485, 337, 229, 400, 260
-0.990504, 257, 73, 320, 104
-0.990571, 97, 33, 160, 96
-0.990586, 253, 49, 284, 112
-0.990606, 57, 193, 120, 256
-0.990611, 145, 177, 176, 240
-0.990621, 193, 1, 256, 333
-0.990635, 161, 177, 224, 208
-0.990651, 225, 85, 288, 116
-0.990756, 89, 217, 152, 280
-0.99079, 417, 1, 480, 333
-0.990798, 137, 153, 200, 184
-0.990799, 265, 113, 296, 240
-0.990803, 209, 65, 272, 96
-0.990834, 185, 185, 248, 248
-0.990861, 233, 101, 296, 132
-0.990903, 145, 265, 272, 328
-0.990942, 361, 201, 424, 264
-0.990999, 249, 85, 312, 116
-0.991019, 145, 193, 176, 320
-0.991024, 453, 209, 484, 333
-0.991037, 209, 137, 336, 200
-0.991056, 201, 65, 232, 128
-0.991078, 249, 273, 280, 333
-0.991078, 309, 81, 340, 208
-0.9911, 105, 161, 136, 288
-0.991109, 401, 145, 464, 272
-0.991128, 1, 153, 128, 216
-0.991163, 313, 1, 376, 333
-0.991204, 233, 25, 296, 88
-0.991228, 265, 57, 328, 88
-0.991286, 289, 277, 352, 308
-0.99129, 325, 1, 356, 128
-0.991294, 97, 113, 224, 176
-0.991297, 201, 189, 264, 220
-0.991306, 145, 165, 208, 196
-0.991334, 77, 89, 108, 152
-0.991349, 133, 177, 164, 240
-0.991372, 49, 253, 112, 284
-0.991375, 289, 65, 352, 96
-0.991391, 57, 281, 120, 312
-0.9914, 1, 245, 64, 276
-0.991401, 417, 241, 480, 272
-0.99141, 289, 249, 352, 280
-0.991496, 193, 97, 448, 160
-0.991497, 273, 97, 336, 128
-0.9915, 289, 9, 416, 72
-0.991503, 281, 41, 312, 104
-0.991528, 289, 289, 352, 320
-0.991534, 289, 301, 352, 332
-0.991554, 169, 241, 232, 272
-0.991595, 385, 9, 448, 72
-0.991595, 297, 49, 360, 80
-0.991611, 345, 65, 408, 192
-0.991627, 49, 265, 112, 296
-0.991627, 305, 225, 368, 256
-0.991631, 93, 193, 124, 320
-0.991632, 113, 157, 176, 188
-0.991659, 49, 265, 176, 328
-0.991669, 321, 225, 352, 288
-0.991674, 185, 69, 248, 100
-0.991674, 217, 233, 248, 296
-0.99169, 281, 209, 312, 333
-0.991709, 229, 129, 260, 256
-0.99171, 257, 269, 320, 300
-0.991713, 233, 113, 296, 144
-0.991735, 217, 281, 280, 312
-0.991737, 193, 293, 256, 324
-0.99174, 197, 193, 228, 256
-0.991752, 137, 33, 200, 96
-0.991758, 201, 53, 264, 84
-0.991794, 149, 97, 180, 224
-0.991814, 193, 93, 256, 124
-0.991827, 161, 193, 224, 224
-0.991855, 433, 121, 496, 184
-0.991856, 97, 73, 352, 136
-0.99188, 257, 209, 384, 272
-0.991896, 57, 301, 120, 332
-0.991897, 193, 105, 256, 136
-0.991912, 209, 129, 272, 160
-0.991916, 257, 125, 320, 156
-0.991918, 113, 137, 240, 200
-0.991923, 17, 105, 48, 168
-0.99193, 313, 293, 376, 324
-0.991935, 197, 153, 228, 216
-0.991935, 97, 93, 160, 124
-0.991966, 369, 89, 432, 152
-0.991987, 273, 113, 336, 144
-0.991999, 289, 265, 352, 296
-0.992001, 17, 201, 144, 264
-0.992011, 297, 241, 328, 304
-0.992016, 65, 65, 96, 128
-0.992025, 393, 1, 456, 333
-0.992068, 33, 33, 64, 160
-0.992074, 469, 81, 500, 144
-0.992085, 209, 257, 272, 288
-0.992098, 25, 109, 88, 140
-0.992127, 273, 1, 304, 128
-0.992154, 17, 81, 48, 208
-0.992163, 337, 41, 400, 104
-0.992175, 233, 61, 296, 92
-0.992181, 273, 9, 336, 72
-0.992187, 245, 17, 276, 144
-0.992194, 177, 149, 240, 180
-0.99222, 1, 257, 64, 288
-0.992227, 297, 109, 360, 140
-0.992236, 145, 245, 208, 276
-0.992251, 197, 81, 228, 208
-0.992251, 193, 165, 256, 196
-0.992251, 297, 237, 360, 268
-0.992254, 345, 1, 408, 333
-0.992256, 137, 57, 200, 88
-0.992277, 445, 233, 476, 296
-0.992281, 57, 109, 120, 140
-0.992284, 97, 189, 160, 220
-0.992288, 441, 209, 472, 333
-0.992289, 121, 189, 184, 220
-0.992298, 1, 233, 64, 264
-0.992304, 185, 121, 248, 152
-0.992304, 433, 261, 496, 292
-0.992313, 153, 301, 216, 332
-0.992324, 57, 153, 120, 216
-0.992327, 1, 25, 64, 88
-0.992329, 357, 177, 388, 304
-0.992336, 81, 173, 144, 204
-0.992386, 401, 229, 464, 260
-0.992386, 337, 217, 400, 248
-0.992411, 77, 209, 108, 333
-0.992428, 209, 177, 240, 240
-0.99243, 201, 141, 264, 172
-0.99246, 313, 61, 376, 92
-0.992461, 185, 253, 248, 284
-0.992482, 161, 69, 224, 100
-0.992488, 129, 177, 192, 208
-0.992501, 297, 213, 360, 244
-0.992506, 169, 225, 232, 256
-0.992519, 297, 89, 360, 120
-0.992528, 73, 85, 136, 116
-0.992528, 33, 121, 96, 152
-0.992529, 293, 209, 324, 333
-0.992534, 337, 9, 400, 72
-0.992539, 241, 281, 304, 312
-0.992557, 281, 81, 312, 112
-0.992559, 193, 177, 256, 208
-0.992561, 129, 97, 160, 160
-0.992565, 177, 265, 240, 296
-0.992568, 1, 105, 64, 136
-0.992571, 257, 241, 500, 304
-0.992581, 361, 237, 424, 268
-0.992582, 433, 101, 496, 132
-0.992585, 201, 269, 264, 300
-0.992595, 261, 73, 292, 104
-0.992624, 277, 257, 308, 288
-0.992626, 81, 161, 144, 192
-0.992643, 113, 301, 176, 332
-0.992645, 1, 117, 64, 148
-0.992648, 409, 85, 472, 116
-0.992648, 321, 245, 384, 276
-0.992651, 33, 133, 96, 164
-0.992653, 9, 269, 72, 300
-0.992663, 33, 85, 96, 116
-0.992663, 433, 89, 496, 120
-0.992679, 101, 169, 132, 232
-0.992681, 321, 273, 384, 304
-0.992682, 233, 77, 264, 108
-0.992682, 1, 113, 128, 176
-0.992689, 169, 213, 232, 244
-0.992692, 129, 85, 192, 116
-0.9927, 225, 245, 288, 276
-0.992714, 329, 257, 360, 320
-0.992723, 161, 53, 224, 84
-0.992731, 273, 237, 336, 268
-0.992732, 57, 125, 120, 156
-0.992736, 433, 301, 496, 332
-0.992744, 237, 133, 268, 164
-0.992757, 209, 233, 272, 264
-0.992759, 433, 273, 496, 304
-0.992763, 73, 245, 136, 276
-0.992772, 41, 241, 104, 272
-0.992781, 217, 209, 248, 333
-0.992796, 113, 49, 144, 176
-0.992797, 249, 45, 312, 76
-0.992805, 201, 201, 264, 232
-0.992816, 253, 125, 284, 156
-0.992816, 57, 97, 120, 128
-0.992837, 33, 177, 288, 240
-0.992844, 385, 241, 448, 272
-0.992852, 69, 49, 100, 176
-0.992854, 289, 125, 352, 156
-0.992856, 225, 121, 256, 152
-0.992859, 1, 281, 64, 312
-0.992861, 41, 57, 72, 120
-0.992863, 213, 65, 244, 96
-0.992864, 377, 81, 440, 112
-0.992865, 33, 257, 288, 320
-0.992866, 321, 261, 384, 292
-0.992869, 321, 49, 352, 176
-0.99287, 121, 233, 184, 264
-0.992883, 73, 257, 136, 288
-0.992895, 233, 269, 296, 300
-0.9929, 33, 281, 96, 312
-0.992905, 241, 65, 272, 96
-0.99291, 297, 77, 360, 108
-0.99292, 225, 73, 480, 136
-0.992921, 293, 81, 324, 112
-0.992925, 301, 65, 332, 96
-0.992929, 153, 189, 184, 220
-0.992929, 425, 229, 488, 260
-0.992933, 237, 117, 268, 148
-0.992937, 209, 189, 240, 220
-0.992944, 297, 37, 360, 68
-0.992954, 169, 161, 232, 192
-0.992958, 25, 153, 88, 216
-0.992962, 129, 9, 256, 72
-0.992965, 105, 65, 168, 96
-0.992973, 349, 225, 380, 256
-0.992976, 41, 93, 72, 124
-0.992984, 317, 289, 348, 320
-0.993005, 233, 105, 264, 136
-0.993009, 193, 281, 256, 312
-0.99301, 13, 105, 44, 136
-0.993011, 221, 93, 252, 124
-0.993018, 65, 185, 128, 216
-0.993023, 153, 285, 216, 316
-0.993031, 97, 81, 128, 144
-0.993035, 309, 49, 340, 80
-0.993036, 297, 277, 328, 308
-0.993044, 329, 49, 392, 80
-0.993049, 153, 257, 216, 288
-0.993053, 217, 77, 248, 108
-0.993056, 29, 97, 60, 128
-0.993066, 133, 177, 164, 208
-0.993089, 273, 69, 304, 100
-0.993091, 449, 241, 480, 272
-0.993124, 333, 229, 364, 260
-0.993126, 157, 153, 188, 184
-0.993127, 265, 125, 296, 156
-0.993132, 169, 249, 200, 280
-0.993132, 221, 109, 252, 140
-0.993135, 189, 177, 220, 208
-0.99314, 277, 93, 308, 124
-0.99314, 197, 297, 228, 328
-0.993142, 233, 93, 264, 124
-0.993143, 109, 173, 140, 204
-0.993147, 201, 253, 232, 284
-0.993156, 289, 65, 320, 96
-0.993157, 173, 161, 204, 192
-0.993161, 249, 77, 280, 108
-0.993171, 369, 1, 432, 333
-0.993172, 77, 277, 108, 308
-0.99318, 145, 177, 176, 208
-0.993192, 321, 185, 384, 248
-0.993212, 365, 233, 396, 296
-0.993214, 113, 33, 240, 96
-0.993215, 301, 293, 332, 324
-0.993221, 213, 253, 244, 284
-0.993222, 261, 61, 292, 92
-0.993226, 329, 241, 360, 272
-0.993228, 233, 53, 264, 84
-0.993238, 217, 53, 248, 84
-0.993243, 309, 209, 340, 333
-0.993246, 321, 301, 352, 332
-0.99325, 141, 153, 172, 184
-0.993258, 53, 97, 84, 128
-0.993262, 469, 89, 500, 120
-0.993264, 469, 101, 500, 132
-0.993265, 89, 273, 120, 333
-0.993267, 89, 65, 120, 192
-0.993268, 305, 105, 336, 136
-0.993269, 117, 157, 148, 188
-0.993271, 301, 93, 332, 124
-0.993273, 81, 289, 112, 320
-0.993275, 125, 97, 156, 128
-0.993278, 261, 265, 292, 296
-0.993279, 137, 193, 168, 224
-0.993279, 61, 273, 92, 304
-0.993284, 249, 273, 280, 304
-0.993285, 69, 257, 100, 288
-0.993288, 189, 253, 220, 284
-0.993292, 441, 229, 472, 260
-0.993309, 189, 193, 220, 224
-0.993311, 329, 253, 360, 284
-0.993312, 333, 217, 364, 248
-0.993319, 229, 65, 260, 96
-0.993321, 245, 93, 276, 124
-0.993322, 121, 177, 152, 208
-0.993327, 61, 109, 92, 140
-0.993331, 229, 285, 260, 316
-0.993331, 313, 269, 344, 300
-0.993331, 81, 245, 112, 276
-0.993332, 65, 97, 96, 128
-0.993335, 77, 113, 108, 144
-0.993339, 205, 265, 236, 296
-0.993339, 129, 157, 160, 188
-0.993346, 209, 289, 240, 320
-0.993346, 17, 117, 48, 148
-0.993349, 309, 77, 340, 108
-0.993362, 297, 249, 328, 280
-0.993371, 193, 265, 224, 296
-0.993375, 297, 265, 328, 296
-0.993375, 353, 213, 384, 244
-0.993378, 433, 65, 496, 128
-0.993378, 461, 257, 492, 288
-0.993382, 385, 81, 416, 208
-0.993385, 201, 65, 232, 96
-0.993386, 213, 121, 244, 152
-0.993386, 81, 265, 112, 296
-0.993387, 33, 249, 96, 312
-0.993396, 225, 137, 256, 168
-0.9934, 265, 253, 296, 284
-0.993401, 321, 97, 352, 128
-0.993402, 113, 93, 144, 124
-0.993404, 149, 53, 180, 84
-0.993409, 209, 177, 240, 208
-0.993411, 5, 241, 36, 272
-0.993412, 65, 285, 96, 316
-0.993424, 97, 97, 352, 160
-0.993443, 289, 93, 320, 124
-0.993446, 153, 245, 184, 276
-0.993447, 313, 221, 344, 252
-0.99345, 221, 129, 252, 192
-0.993452, 13, 73, 44, 136
-0.993454, 317, 233, 348, 264
-0.993454, 465, 269, 496, 300
-0.993454, 201, 241, 232, 272
-0.993462, 165, 177, 196, 208
-0.993466, 189, 153, 220, 184
-0.993466, 177, 257, 208, 320
-0.993472, 105, 185, 136, 216
-0.993473, 249, 113, 280, 144
-0.993481, 69, 245, 100, 276
-0.993482, 165, 81, 196, 208
-0.993483, 1, 1, 64, 333
-0.993484, 29, 109, 60, 140
-0.993486, 289, 53, 320, 84
-0.993486, 457, 89, 488, 120
-0.993486, 225, 97, 352, 128
-0.993487, 365, 233, 396, 264
-0.993489, 77, 93, 108, 124
-0.99349, 189, 241, 220, 272
-0.99349, 193, 205, 224, 236
-0.993491, 221, 237, 252, 268
-0.993497, 277, 245, 308, 276
-0.993501, 429, 229, 460, 260
-0.993519, 321, 61, 352, 92
-0.993525, 317, 257, 348, 288
-0.993527, 277, 133, 308, 164
-0.993528, 1, 109, 32, 140
-0.99353, 177, 261, 208, 292
-0.993537, 469, 233, 500, 264
-0.993537, 97, 73, 128, 104
-0.993537, 429, 241, 460, 272
-0.993538, 389, 77, 420, 108
-0.993538, 265, 93, 296, 124
-0.993553, 33, 201, 288, 264
-0.993633, 193, 49, 448, 112
-0.993651, 321, 65, 448, 128
-0.993686, 145, 201, 176, 264
-0.993707, 421, 241, 452, 304
-0.993715, 309, 217, 340, 280
-0.993734, 285, 1, 316, 128
-0.993758, 329, 201, 360, 264
-0.993779, 313, 105, 344, 168
-0.993779, 9, 225, 40, 288
-0.993813, 377, 233, 408, 296
-0.993883, 321, 81, 384, 208
-0.993903, 161, 273, 416, 333
-0.993916, 1, 249, 500, 312
-0.993997, 389, 97, 420, 160
-0.99402, 97, 153, 352, 216
-0.994021, 157, 129, 188, 192
-0.994028, 37, 257, 68, 320
-0.994034, 337, 257, 400, 320
-0.994052, 289, 145, 416, 208
-0.994109, 185, 1, 248, 128
-0.994151, 1, 273, 64, 333
-0.994152, 369, 57, 496, 120
-0.994155, 33, 233, 288, 296
-0.994165, 65, 33, 192, 96
-0.99418, 217, 33, 248, 96
-0.994208, 433, 233, 464, 296
-0.994222, 177, 145, 208, 208
-0.994257, 293, 41, 324, 104
-0.994319, 1, 97, 256, 160
-0.994332, 269, 233, 300, 296
-0.994336, 1, 225, 500, 288
-0.994367, 385, 1, 416, 128
-0.994412, 9, 209, 40, 333
-0.994518, 129, 129, 384, 192
-0.994557, 285, 113, 316, 240
-0.994567, 261, 97, 292, 160
-0.994609, 161, 17, 224, 80
-0.994661, 353, 17, 480, 80
-0.994662, 113, 225, 176, 288
-0.994666, 101, 33, 132, 160
-0.99468, 25, 201, 88, 264
-0.99472, 193, 9, 256, 72
-0.994735, 1, 177, 128, 240
-0.994751, 229, 257, 260, 320
-0.99476, 449, 161, 480, 288
-0.994762, 53, 193, 84, 320
-0.994818, 129, 201, 384, 264
-0.994823, 197, 41, 228, 104
-0.994826, 369, 209, 400, 333
-0.994828, 401, 233, 432, 296
-0.994865, 409, 1, 472, 64
-0.994943, 361, 9, 424, 72
-0.99497, 241, 225, 304, 288
-0.994977, 429, 177, 460, 304
-0.994986, 265, 145, 328, 208
-0.995002, 209, 85, 336, 116
-0.995026, 409, 57, 472, 120
-0.995038, 365, 1, 396, 128
-0.99504, 433, 145, 496, 272
-0.995094, 377, 33, 440, 96
-0.995102, 1, 73, 256, 136
-0.995117, 397, 81, 428, 208
-0.995118, 1, 81, 500, 144
-0.995123, 181, 65, 212, 192
-0.995124, 225, 109, 352, 140
-0.995125, 345, 97, 408, 160
-0.995136, 205, 89, 236, 152
-0.99516, 1, 153, 256, 216
-0.995162, 85, 113, 116, 240
-0.99517, 161, 241, 192, 304
-0.995177, 353, 193, 480, 256
-0.995207, 33, 49, 288, 112
-0.995215, 225, 145, 288, 208
-0.99524, 409, 105, 472, 168
-0.995254, 1, 1, 128, 64
-0.995256, 229, 25, 260, 88
-0.995261, 185, 161, 248, 288
-0.995273, 41, 193, 72, 320
-0.995287, 161, 225, 416, 288
-0.99529, 209, 277, 336, 308
-0.995296, 73, 1, 136, 128
-0.995302, 225, 73, 352, 104
-0.995308, 433, 65, 464, 192
-0.995308, 313, 121, 376, 184
-0.995309, 9, 249, 40, 312
-0.995318, 113, 177, 240, 208
-0.995343, 161, 209, 192, 333
-0.99536, 241, 265, 368, 296
-0.995369, 129, 177, 384, 240
-0.995436, 53, 113, 84, 240
-0.995478, 1, 273, 500, 333
-0.995508, 197, 33, 228, 160
-0.995512, 17, 33, 48, 160
-0.995517, 25, 49, 88, 112
-0.99552, 241, 161, 368, 224
-0.995523, 149, 49, 180, 176
-0.99554, 65, 193, 96, 320
-0.995551, 53, 241, 84, 304
-0.99557, 137, 209, 200, 272
-0.995586, 97, 161, 224, 192
-0.995598, 369, 105, 496, 168
-0.995606, 283, 73, 298, 136
-0.995609, 239, 105, 254, 168
-0.995616, 161, 249, 416, 312
-0.995651, 289, 113, 320, 176
-0.995698, 225, 121, 352, 152
-0.995699, 307, 57, 322, 120
-0.995711, 313, 49, 328, 112
-0.995723, 301, 113, 332, 176
-0.995742, 349, 1, 380, 128
-0.995746, 277, 129, 308, 192
-0.995752, 469, 81, 500, 208
-0.995776, 177, 73, 304, 104
-0.99579, 17, 97, 144, 128
-0.995799, 205, 121, 236, 184
-0.9958, 275, 73, 290, 136
-0.995811, 1, 145, 64, 208
-0.995841, 129, 105, 192, 168
-0.995857, 213, 201, 244, 264
-0.995863, 273, 77, 400, 108
-0.995881, 209, 57, 336, 88
-0.995886, 289, 145, 352, 208
-0.995901, 1, 109, 128, 140
-0.995912, 377, 161, 408, 288
-0.995915, 289, 169, 416, 232
-0.995935, 291, 257, 306, 320
-0.995964, 337, 1, 368, 128
-0.995991, 397, 1, 428, 128
-0.996005, 357, 209, 388, 272
-0.996013, 145, 129, 176, 192
-0.996019, 145, 113, 272, 144
-0.996019, 219, 257, 234, 320
-0.996031, 121, 65, 152, 128
-0.996034, 465, 209, 496, 333
-0.996046, 213, 1, 244, 128
-0.996065, 247, 97, 262, 160
-0.996072, 1, 253, 128, 284
-0.996072, 193, 257, 320, 288
-0.996076, 239, 73, 254, 136
-0.99608, 257, 217, 500, 280
-0.996086, 225, 1, 288, 64
-0.996098, 145, 225, 176, 288
-0.996103, 231, 89, 246, 152
-0.996123, 321, 9, 352, 72
-0.996131, 1, 193, 500, 256
-0.996154, 29, 65, 60, 128
-0.996166, 457, 81, 488, 144
-0.996192, 251, 57, 266, 120
-0.996196, 369, 265, 496, 328
-0.996203, 165, 1, 196, 128
-0.996218, 1, 81, 32, 208
-0.996222, 159, 153, 174, 216
-0.996268, 267, 73, 282, 136
-0.996268, 281, 233, 312, 296
-0.996284, 269, 121, 284, 184
-0.99629, 479, 273, 494, 333
-0.996293, 369, 245, 496, 276
-0.996297, 173, 225, 204, 288
-0.996299, 445, 97, 476, 224
-0.996318, 17, 41, 144, 104
-0.996352, 309, 17, 340, 80
-0.996353, 261, 73, 276, 136
-0.996355, 231, 65, 246, 128
-0.996357, 81, 249, 208, 280
-0.996359, 145, 57, 176, 120
-0.99636, 1, 105, 500, 168
-0.996371, 129, 1, 160, 128
-0.99638, 213, 217, 228, 280
-0.996399, 181, 209, 212, 333
-0.996405, 303, 81, 318, 144
-0.996412, 53, 273, 84, 333
-0.996415, 113, 249, 176, 312
-0.996431, 209, 289, 336, 320
-0.996437, 225, 121, 480, 184
-0.996448, 273, 65, 400, 96
-0.99645, 297, 81, 312, 144
-0.99645, 189, 233, 220, 296
-0.99645, 49, 17, 80, 144
-0.996453, 113, 197, 240, 228
-0.996453, 269, 209, 300, 333
-0.996455, 37, 129, 68, 192
-0.996496, 321, 237, 448, 268
-0.996498, 53, 65, 84, 128
-0.996505, 315, 73, 330, 136
-0.996511, 159, 185, 174, 248
-0.996525, 1, 105, 32, 168
-0.996527, 301, 57, 316, 120
-0.996529, 381, 209, 412, 333
-0.996535, 151, 153, 166, 216
-0.996538, 223, 57, 238, 120
-0.996545, 209, 133, 336, 164
-0.996576, 349, 225, 364, 288
-0.996579, 97, 293, 224, 324
-0.996581, 41, 145, 72, 272
-0.996586, 321, 113, 352, 240
-0.996607, 473, 257, 488, 320
-0.996614, 241, 253, 368, 284
-0.996625, 169, 153, 184, 216
-0.996628, 345, 161, 376, 288
-0.996628, 241, 209, 272, 333
-0.996628, 161, 125, 288, 156
-0.996637, 329, 49, 360, 112
-0.996637, 245, 121, 260, 184
-0.996641, 25, 241, 56, 304
-0.996655, 161, 17, 416, 80
-0.996665, 417, 177, 448, 304
-0.996666, 401, 81, 432, 144
-0.996674, 309, 89, 324, 152
-0.996677, 241, 49, 256, 112
-0.996689, 213, 257, 228, 320
-0.996694, 161, 61, 288, 92
-0.996694, 289, 225, 416, 256
-0.996719, 81, 9, 208, 72
-0.996726, 29, 209, 60, 333
-0.996732, 85, 65, 116, 128
-0.996747, 353, 137, 480, 200
-0.99675, 185, 121, 216, 184
-0.996751, 211, 185, 226, 248
-0.996761, 373, 81, 404, 208
-0.996784, 241, 185, 368, 248
-0.996803, 59, 89, 74, 152
-0.996811, 185, 49, 216, 112
-0.996811, 291, 65, 306, 128
-0.996818, 233, 113, 248, 176
-0.996818, 203, 265, 218, 328
-0.996825, 41, 89, 56, 152
-0.996833, 81, 233, 112, 296
-0.996853, 273, 97, 288, 160
-0.996864, 273, 89, 400, 120
-0.996883, 389, 233, 420, 296
-0.996887, 193, 153, 448, 216
-0.9969, 323, 41, 338, 104
-0.996902, 205, 177, 220, 240
-0.996904, 265, 49, 280, 112
-0.996914, 463, 241, 478, 304
-0.996943, 65, 185, 192, 216
-0.996947, 263, 121, 278, 184
-0.996961, 161, 245, 288, 276
-0.996969, 229, 137, 244, 200
-0.996981, 457, 97, 488, 224
-0.996987, 289, 53, 416, 84
-0.996995, 125, 89, 140, 152
-0.997, 1, 241, 128, 272
-0.997036, 185, 161, 200, 224
-0.997036, 245, 249, 276, 312
-0.997071, 1, 169, 500, 232
-0.997075, 257, 241, 384, 272
-0.997076, 437, 89, 468, 152
-0.997084, 211, 57, 226, 120
-0.997085, 369, 85, 496, 116
-0.997086, 175, 153, 190, 216
-0.997088, 249, 25, 280, 88
-0.997092, 153, 177, 168, 240
-0.997097, 273, 49, 288, 112
-0.997099, 65, 97, 80, 160
-0.997119, 397, 209, 428, 333
-0.997128, 281, 249, 296, 312
-0.997129, 177, 101, 304, 132
-0.99713, 329, 273, 344, 333
-0.997139, 65, 93, 192, 124
-0.997141, 125, 193, 156, 320
-0.997151, 275, 257, 290, 320
-0.997153, 129, 153, 144, 216
-0.997164, 193, 257, 208, 320
-0.997166, 291, 97, 306, 160
-0.997192, 385, 57, 416, 120
-0.997205, 185, 17, 216, 144
-0.997205, 453, 49, 484, 176
-0.997222, 1, 281, 128, 312
-0.997232, 137, 153, 152, 216
-0.997235, 279, 49, 294, 112
-0.997239, 177, 301, 304, 332
-0.997268, 339, 257, 354, 320
-0.997271, 233, 33, 264, 288
-0.99729, 119, 89, 134, 152
-0.997293, 193, 193, 320, 224
-0.997301, 77, 273, 92, 333
-0.997308, 289, 101, 416, 132
-0.99732, 121, 161, 136, 224
-0.997327, 257, 265, 500, 328
-0.997337, 145, 265, 272, 296
-0.997341, 337, 225, 464, 256
-0.997345, 1, 265, 128, 296
-0.997355, 225, 249, 240, 312
-0.997356, 225, 81, 240, 144
-0.997357, 3, 249, 18, 312
-0.997359, 33, 169, 160, 200
-0.997369, 77, 97, 92, 160
-0.997371, 285, 77, 300, 108
-0.997373, 129, 213, 256, 244
-0.997383, 153, 1, 184, 128
-0.997386, 225, 105, 240, 168
-0.997402, 301, 265, 316, 328
-0.997406, 337, 233, 352, 296
-0.997419, 81, 233, 208, 264
-0.997426, 145, 153, 160, 216
-0.997441, 481, 81, 496, 144
-0.997447, 35, 97, 50, 160
-0.997452, 209, 45, 336, 76
-0.997457, 47, 89, 62, 152
-0.997466, 253, 33, 284, 288
-0.997496, 277, 33, 308, 288
-0.997497, 219, 233, 234, 296
-0.997498, 113, 149, 240, 180
-0.997506, 315, 273, 330, 333
-0.997508, 145, 89, 272, 120
-0.997509, 267, 265, 282, 328
-0.997512, 321, 113, 448, 176
-0.997515, 83, 257, 98, 320
-0.997518, 211, 161, 226, 224
-0.997523, 417, 65, 448, 192
-0.997527, 71, 97, 86, 160
-0.99753, 255, 121, 270, 184
-0.997534, 135, 97, 150, 160
-0.997534, 33, 301, 160, 332
-0.997547, 309, 273, 324, 333
-0.997557, 1, 57, 500, 120
-0.997572, 53, 89, 68, 152
-0.997579, 343, 233, 358, 296
-0.997581, 273, 113, 400, 144
-0.997605, 457, 233, 472, 296
-0.997617, 193, 181, 320, 212
-0.997618, 205, 201, 220, 264
-0.997619, 209, 185, 224, 216
-0.997623, 89, 257, 104, 320
-0.997633, 197, 153, 212, 216
-0.99764, 191, 169, 206, 232
-0.997651, 289, 265, 416, 296
-0.997652, 253, 81, 268, 144
-0.997653, 285, 49, 300, 112
-0.997666, 331, 249, 346, 312
-0.997668, 293, 65, 324, 320
-0.997693, 321, 81, 336, 144
-0.997707, 137, 49, 168, 176
-0.997715, 257, 49, 272, 112
-0.997715, 29, 105, 44, 168
-0.997717, 17, 85, 144, 116
-0.99772, 161, 137, 288, 168
-0.99773, 199, 177, 214, 240
-0.997735, 49, 109, 176, 140
-0.997743, 113, 101, 240, 132
-0.997746, 241, 77, 256, 108
-0.997749, 185, 137, 200, 200
-0.997754, 231, 89, 246, 120
-0.997757, 357, 217, 372, 280
-0.997765, 129, 73, 256, 104
-0.99777, 265, 33, 296, 288
-0.997785, 67, 73, 82, 136
-0.997786, 65, 197, 192, 228
-0.99779, 289, 285, 416, 316
-0.997799, 83, 89, 98, 152
-0.997801, 161, 289, 288, 320
-0.997803, 1, 129, 256, 192
-0.99781, 381, 233, 396, 296
-0.997833, 1, 161, 32, 288
-0.997833, 217, 185, 232, 248
-0.997839, 67, 265, 82, 328
-0.997839, 161, 149, 288, 180
-0.997852, 127, 177, 142, 240
-0.997863, 207, 241, 222, 304
-0.997879, 77, 241, 92, 304
-0.997884, 239, 129, 254, 192
-0.99789, 255, 125, 270, 156
-0.997892, 267, 97, 282, 160
-0.997904, 279, 73, 294, 104
-0.997906, 257, 193, 288, 320
-0.997913, 33, 141, 160, 172
-0.997914, 233, 41, 248, 104
-0.997916, 253, 65, 268, 96
-0.997925, 217, 57, 232, 120
-0.997927, 159, 185, 174, 216
-0.997935, 97, 57, 224, 88
-0.997937, 147, 177, 162, 240
-0.997938, 475, 97, 490, 160
-0.99794, 215, 81, 230, 144
-0.997946, 237, 129, 252, 160
-0.997952, 165, 185, 180, 248
-0.997952, 271, 73, 286, 104
-0.997958, 289, 253, 416, 284
-0.997959, 279, 105, 294, 168
-0.99796, 129, 225, 256, 256
-0.997964, 291, 77, 306, 108
-0.997966, 205, 153, 220, 216
-0.99797, 265, 125, 280, 156
-0.997971, 425, 241, 440, 304
-0.997984, 317, 25, 332, 88
-0.997998, 65, 97, 96, 224
-0.998001, 451, 225, 466, 288
-0.998001, 223, 137, 238, 200
-0.998003, 433, 233, 448, 296
-0.998016, 191, 145, 206, 208
-0.998044, 485, 89, 500, 120
-0.998064, 281, 253, 296, 284
-0.998066, 245, 73, 260, 136
-0.998067, 257, 9, 500, 72
-0.99807, 117, 1, 148, 128
-0.998071, 113, 281, 240, 312
-0.998082, 301, 241, 316, 304
-0.998085, 305, 193, 432, 256
-0.998088, 97, 113, 224, 144
-0.998089, 213, 65, 244, 320
-0.998089, 53, 65, 68, 128
-0.998091, 339, 209, 354, 272
-0.998093, 161, 165, 288, 196
-0.998097, 113, 81, 128, 144
-0.998109, 243, 129, 258, 160
-0.998111, 261, 273, 276, 333
-0.998124, 49, 121, 176, 152
-0.998125, 241, 97, 256, 128
-0.998126, 297, 81, 312, 112
-0.998127, 31, 101, 46, 132
-0.99813, 145, 65, 176, 320
-0.998134, 129, 173, 144, 204
-0.998134, 337, 169, 464, 232
-0.998136, 241, 301, 368, 332
-0.998139, 437, 65, 468, 320
-0.998144, 237, 109, 252, 140
-0.998173, 203, 193, 218, 224
-0.998179, 125, 65, 156, 320
-0.99818, 289, 41, 416, 72
-0.998189, 165, 33, 196, 288
-0.99819, 185, 65, 216, 320
-0.998212, 193, 209, 320, 240
-0.998216, 271, 261, 286, 292
-0.99822, 263, 73, 278, 104
-0.998227, 17, 153, 144, 184
-0.998229, 479, 89, 494, 120
-0.998239, 217, 253, 232, 284
-0.998247, 81, 257, 96, 288
-0.998248, 231, 77, 246, 108
-0.998257, 161, 277, 288, 308
-0.998271, 209, 249, 224, 280
-0.998276, 245, 117, 260, 148
-0.998282, 241, 229, 368, 260
-0.998288, 461, 237, 476, 268
-0.998297, 17, 73, 144, 104
-0.998299, 405, 161, 436, 288
-0.9983, 249, 133, 264, 164
-0.998301, 301, 75, 332, 90
-0.998301, 25, 129, 56, 256
-0.998302, 69, 287, 100, 302
-0.998303, 317, 63, 348, 78
-0.998303, 203, 177, 218, 208
-0.998304, 73, 275, 104, 290
-0.998304, 57, 107, 88, 122
-0.998304, 125, 101, 156, 116
-0.998305, 297, 271, 328, 286
-0.998305, 145, 49, 272, 80
-0.998305, 317, 285, 348, 300
-0.998306, 209, 75, 240, 90
-0.998306, 209, 245, 240, 260
-0.998307, 129, 171, 160, 186
-0.998307, 317, 103, 348, 118
-0.998307, 113, 95, 144, 110
-0.998308, 1, 111, 32, 126
-0.998308, 305, 115, 336, 130
-0.998308, 113, 167, 144, 182
-0.998309, 61, 281, 92, 296
-0.998311, 305, 49, 336, 64
-0.998311, 81, 261, 208, 292
-0.998312, 289, 297, 416, 328
-0.998312, 109, 65, 140, 320
-0.998312, 133, 317, 164, 332
-0.998313, 249, 279, 280, 294
-0.998315, 33, 97, 64, 112
-0.998316, 305, 297, 336, 312
-0.998316, 217, 133, 248, 148
-0.998316, 261, 275, 292, 290
-0.998316, 77, 281, 108, 296
-0.998317, 165, 317, 196, 332
-0.998318, 301, 85, 332, 100
-0.998319, 241, 101, 272, 116
-0.998319, 217, 257, 248, 272
-0.998319, 173, 165, 204, 180
-0.99832, 357, 129, 388, 256
-0.99832, 329, 253, 360, 268
-0.99832, 109, 179, 140, 194
-0.99832, 297, 257, 328, 272
-0.998321, 237, 57, 268, 72
-0.998321, 231, 117, 246, 148
-0.998321, 217, 91, 248, 106
-0.998322, 17, 103, 48, 118
-0.998322, 193, 233, 320, 264
-0.998323, 81, 293, 112, 308
-0.998323, 321, 77, 448, 108
-0.998323, 5, 119, 36, 134
-0.998324, 245, 285, 276, 300
-0.998327, 297, 281, 328, 296
-0.998327, 165, 159, 196, 174
-0.998328, 197, 183, 228, 198
-0.998329, 305, 109, 336, 124
-0.998331, 301, 93, 332, 108
-0.998332, 77, 251, 108, 266
-0.998333, 277, 93, 292, 124
-0.998333, 349, 223, 380, 238
-0.998333, 283, 89, 298, 120
-0.998335, 469, 101, 500, 116
-0.998335, 133, 185, 164, 200
-0.998336, 145, 183, 176, 198
-0.998338, 69, 113, 100, 128
-0.998339, 353, 225, 368, 256
-0.998339, 157, 249, 188, 264
-0.99834, 333, 221, 364, 236
-0.998342, 81, 221, 208, 252
-0.998342, 229, 289, 260, 304
-0.998342, 81, 287, 112, 302
-0.998344, 305, 55, 336, 70
-0.998344, 297, 289, 328, 304
-0.998345, 65, 101, 96, 116
-0.998345, 329, 247, 360, 262
-0.998345, 303, 85, 318, 116
-0.998347, 221, 105, 252, 120
-0.998347, 181, 263, 212, 278
-0.99835, 293, 261, 308, 292
-0.998352, 213, 121, 244, 136
-0.998352, 49, 285, 176, 316
-0.998352, 321, 307, 352, 322
-0.998352, 253, 135, 284, 150
-0.998353, 5, 245, 36, 260
-0.998354, 241, 75, 272, 90
-0.998354, 109, 173, 140, 188
-0.998354, 221, 55, 252, 70
-0.998356, 317, 297, 348, 312
-0.998357, 233, 87, 264, 102
-0.998357, 29, 113, 60, 128
-0.998357, 209, 291, 240, 306
-0.998358, 193, 189, 224, 204
-0.998359, 333, 229, 364, 244
-0.99836, 173, 255, 204, 270
-0.99836, 157, 153, 188, 168
-0.998362, 17, 121, 48, 136
-0.998363, 261, 67, 292, 82
-0.998365, 193, 221, 320, 252
-0.998365, 457, 95, 488, 110
-0.998366, 197, 301, 228, 316
-0.998367, 307, 49, 322, 80
-0.998368, 193, 267, 224, 282
-0.998368, 289, 91, 320, 106
-0.998371, 129, 177, 160, 192
-0.998371, 125, 49, 156, 176
-0.998371, 17, 115, 48, 130
-0.998372, 209, 297, 240, 312
-0.998372, 221, 77, 252, 92
-0.998375, 229, 139, 260, 154
-0.998376, 329, 239, 360, 254
-0.99838, 313, 291, 344, 306
-0.99838, 213, 63, 244, 78
-0.99838, 183, 161, 198, 192
-0.998381, 253, 89, 284, 104
-0.998381, 469, 91, 500, 106
-0.998382, 61, 97, 76, 128
-0.998385, 193, 255, 224, 270
-0.998385, 119, 165, 134, 196
-0.998385, 157, 189, 188, 204
-0.998385, 235, 65, 250, 96
-0.998385, 213, 69, 244, 84
-0.998389, 467, 245, 482, 276
-0.99839, 225, 111, 256, 126
-0.998391, 449, 241, 480, 256
-0.998391, 1, 197, 128, 228
-0.998392, 233, 95, 264, 110
-0.998393, 145, 317, 176, 332
-0.998396, 201, 297, 216, 328
-0.998396, 225, 119, 256, 134
-0.998397, 1, 129, 128, 160
-0.998397, 321, 313, 352, 328
-0.998397, 209, 263, 240, 278
-0.9984, 205, 189, 236, 204
-0.9984, 221, 99, 252, 114
-0.998401, 137, 195, 168, 210
-0.998402, 149, 177, 164, 208
-0.998404, 137, 101, 152, 132
-0.998405, 253, 77, 284, 92
-0.998405, 313, 69, 328, 100
-0.998405, 237, 63, 268, 78
-0.998406, 261, 273, 276, 304
-0.998407, 45, 95, 76, 110
-0.998407, 271, 125, 286, 156
-0.998408, 49, 65, 80, 320
-0.998415, 247, 97, 262, 128
-0.998416, 229, 133, 260, 148
-0.998416, 221, 127, 252, 142
-0.99842, 171, 153, 186, 184
-0.998423, 71, 97, 86, 128
-0.998423, 277, 89, 308, 104
-0.998426, 13, 109, 44, 124
-0.998427, 265, 129, 296, 144
-0.998428, 69, 107, 100, 122
-0.998428, 417, 65, 448, 320
-0.998428, 245, 123, 276, 138
-0.99843, 281, 79, 312, 94
-0.998434, 241, 69, 272, 84
-0.99844, 197, 261, 228, 276
-0.998441, 475, 265, 490, 296
-0.998446, 37, 97, 52, 128
-0.998448, 217, 85, 248, 100
-0.99845, 93, 281, 108, 312
-0.998452, 349, 229, 380, 244
-0.998455, 85, 245, 100, 276
-0.998458, 149, 195, 180, 210
-0.998463, 205, 195, 236, 210
-0.99847, 287, 253, 302, 284
-0.998471, 449, 65, 480, 320
-0.998473, 17, 181, 144, 212
-0.998474, 233, 81, 264, 96
-0.998478, 215, 241, 230, 272
-0.998478, 307, 65, 322, 96
-0.99848, 289, 85, 320, 100
-0.998481, 265, 75, 296, 90
-0.998482, 233, 127, 264, 142
-0.998482, 273, 95, 304, 110
-0.998489, 265, 61, 280, 92
-0.998497, 153, 193, 168, 224
-0.998507, 215, 197, 230, 228
-0.998507, 249, 77, 312, 92
-0.998508, 233, 131, 296, 146
-0.998516, 215, 61, 230, 92
-0.998516, 311, 281, 326, 312
-0.998517, 145, 189, 176, 204
-0.998519, 347, 229, 362, 260
-0.998519, 277, 259, 308, 274
-0.998523, 65, 25, 320, 88
-0.998523, 159, 197, 174, 228
-0.998524, 231, 141, 246, 172
-0.998525, 241, 135, 272, 150
-0.99853, 33, 65, 64, 320
-0.998535, 87, 261, 102, 292
-0.998536, 161, 187, 224, 202
-0.998536, 225, 89, 288, 104
-0.998537, 65, 209, 192, 240
-0.998543, 273, 89, 336, 104
-0.998545, 249, 81, 264, 112
-0.998545, 3, 249, 18, 280
-0.99855, 209, 127, 272, 142
-0.99855, 183, 249, 198, 280
-0.99855, 241, 95, 304, 110
-0.998553, 321, 97, 336, 128
-0.998559, 49, 273, 176, 304
-0.99856, 337, 231, 400, 246
-0.998561, 257, 265, 320, 280
-0.998563, 217, 71, 280, 86
-0.998566, 203, 253, 218, 284
-0.998567, 233, 125, 296, 140
-0.998568, 481, 281, 496, 312
-0.998571, 253, 129, 284, 144
-0.998572, 313, 49, 328, 80
-0.998572, 21, 105, 36, 136
-0.998574, 233, 161, 296, 288
-0.998578, 25, 97, 88, 112
-0.998582, 145, 317, 208, 332
-0.998585, 257, 133, 384, 164
-0.998586, 55, 93, 70, 124
-0.998588, 417, 243, 480, 258
-0.998594, 209, 83, 272, 98
-0.998596, 289, 291, 352, 306
-0.998596, 265, 259, 328, 274
-0.998597, 129, 97, 144, 128
-0.998598, 129, 155, 192, 170
-0.998598, 57, 281, 120, 296
-0.9986, 81, 273, 96, 304
-0.998602, 289, 261, 352, 276
-0.998603, 193, 113, 256, 128
-0.998603, 209, 133, 272, 148
-0.998603, 319, 285, 334, 316
-0.998605, 249, 83, 312, 98
-0.998605, 225, 65, 240, 96
-0.998606, 13, 109, 28, 140
-0.998606, 265, 95, 328, 110
-0.998607, 25, 103, 88, 118
-0.998608, 337, 237, 400, 252
-0.998608, 97, 177, 160, 192
-0.998608, 369, 113, 496, 144
-0.99861, 257, 271, 320, 286
-0.998612, 123, 181, 138, 212
-0.998612, 161, 193, 224, 208
-0.998613, 97, 185, 160, 200
-0.998614, 289, 255, 352, 270
-0.998614, 193, 193, 256, 208
-0.998615, 273, 69, 336, 84
-0.998615, 257, 127, 320, 142
-0.998615, 225, 77, 288, 92
-0.998616, 273, 83, 336, 98
-0.998617, 127, 157, 142, 188
-0.998619, 297, 59, 360, 74
-0.99862, 193, 119, 256, 134
-0.998621, 49, 261, 112, 276
-0.998622, 335, 249, 350, 280
-0.998623, 261, 65, 276, 192
-0.998624, 193, 299, 256, 314
-0.998625, 169, 249, 232, 264
-0.998625, 339, 265, 354, 296
-0.998625, 289, 267, 352, 282
-0.998626, 249, 89, 312, 104
-0.998626, 305, 1, 336, 256
-0.998629, 209, 63, 272, 78
-0.99863, 25, 109, 88, 124
-0.998631, 1, 255, 64, 270
-0.998631, 313, 227, 376, 242
-0.998633, 233, 119, 296, 134
-0.998633, 201, 89, 264, 104
-0.998633, 121, 317, 184, 332
-0.998634, 49, 273, 112, 288
-0.998634, 43, 93, 58, 124
-0.998637, 289, 281, 352, 296
-0.998637, 209, 95, 272, 110
-0.998638, 297, 53, 360, 68
-0.998639, 121, 193, 184, 208
-0.998639, 105, 171, 168, 186
-0.998639, 289, 299, 352, 314
-0.99864, 297, 237, 360, 252
-0.99864, 57, 287, 120, 302
-0.99864, 225, 111, 288, 126
-0.998641, 197, 177, 212, 208
-0.998642, 257, 63, 320, 78
-0.998643, 255, 65, 270, 192
-0.998643, 1, 245, 64, 260
-0.998644, 369, 265, 496, 296
-0.998648, 193, 103, 256, 118
-0.998649, 233, 137, 296, 152
-0.998651, 145, 171, 208, 186
-0.998652, 207, 297, 222, 328
-0.998652, 273, 101, 336, 116
-0.998652, 289, 305, 352, 320
-0.998654, 289, 315, 352, 330
-0.998655, 193, 179, 256, 194
-0.998655, 353, 97, 480, 128
-0.998655, 165, 189, 180, 220
-0.998657, 329, 289, 344, 320
-0.998658, 49, 253, 112, 268
-0.998659, 25, 115, 88, 130
-0.99866, 49, 267, 112, 282
-0.99866, 223, 249, 238, 280
-0.99866, 297, 243, 360, 258
-0.998661, 329, 261, 344, 292
-0.998661, 241, 257, 304, 272
-0.998662, 97, 191, 160, 206
-0.998662, 169, 261, 232, 276
-0.998663, 233, 103, 296, 118
-0.998664, 185, 73, 248, 88
-0.998664, 89, 317, 152, 332
-0.998665, 465, 65, 496, 320
-0.998665, 249, 277, 312, 292
-0.998666, 137, 249, 200, 264
-0.998667, 73, 109, 88, 140
-0.998667, 289, 275, 352, 290
-0.998667, 121, 187, 184, 202
-0.998668, 313, 315, 376, 330
-0.998668, 313, 297, 376, 312
-0.99867, 405, 65, 436, 320
-0.99867, 57, 301, 120, 316
-0.998672, 305, 103, 368, 118
-0.998672, 425, 93, 488, 108
-0.998672, 289, 109, 352, 124
-0.998673, 289, 75, 352, 90
-0.998674, 217, 57, 280, 72
-0.998674, 57, 117, 120, 132
-0.998675, 185, 81, 248, 96
-0.998675, 217, 289, 280, 304
-0.998676, 309, 293, 324, 324
-0.998677, 335, 229, 350, 260
-0.998677, 267, 65, 282, 192
-0.998678, 165, 149, 180, 180
-0.998678, 193, 265, 256, 280
-0.998678, 433, 273, 496, 288
-0.998679, 9, 263, 72, 278
-0.998679, 77, 97, 92, 128
-0.998679, 201, 199, 264, 214
-0.998679, 169, 255, 232, 270
-0.99868, 81, 95, 144, 110
-0.998681, 305, 65, 368, 80
-0.998683, 193, 293, 256, 308
-0.998684, 313, 307, 376, 322
-0.998684, 207, 205, 222, 236
-0.998684, 433, 99, 496, 114
-0.998685, 31, 117, 46, 148
-0.998685, 305, 47, 368, 62
-0.998685, 189, 169, 204, 200
-0.998685, 145, 165, 208, 180
-0.998686, 57, 111, 120, 126
-0.998686, 393, 237, 456, 252
-0.998687, 297, 249, 360, 264
-0.998687, 211, 261, 226, 292
-0.998687, 93, 65, 124, 320
-0.998688, 385, 65, 416, 320
-0.998688, 121, 179, 184, 194
-0.998689, 177, 317, 240, 332
-0.99869, 57, 307, 120, 322
-0.99869, 169, 241, 232, 256
-0.998691, 221, 77, 236, 108
-0.998691, 161, 181, 224, 196
-0.998692, 337, 225, 400, 240
-0.998692, 1, 121, 64, 136
-0.998694, 57, 295, 120, 310
-0.998695, 313, 291, 376, 306
-0.998695, 137, 59, 200, 74
-0.998695, 217, 283, 280, 298
-0.998696, 289, 117, 352, 132
-0.998696, 209, 187, 272, 202
-0.998696, 177, 157, 240, 172
-0.998696, 1, 109, 64, 124
-0.998697, 113, 165, 176, 180
-0.998698, 355, 213, 370, 244
-0.998698, 257, 133, 320, 148
-0.998698, 241, 69, 304, 84
-0.998698, 329, 261, 392, 276
-0.998699, 315, 301, 330, 332
-0.9987, 73, 249, 136, 264
-0.998701, 97, 199, 160, 214
-0.998702, 215, 185, 230, 216
-0.998705, 177, 157, 192, 188
-0.998707, 147, 153, 162, 184
-0.998715, 65, 81, 192, 112
-0.998718, 231, 53, 246, 84
-0.998719, 195, 301, 210, 332
-0.998724, 191, 261, 206, 292
-0.998732, 135, 173, 150, 204
-0.998733, 89, 109, 104, 140
-0.998734, 231, 129, 246, 160
-0.998735, 17, 217, 144, 248
-0.998737, 11, 241, 26, 272
-0.998739, 157, 149, 172, 180
-0.99874, 241, 141, 256, 172
-0.998743, 321, 49, 336, 80
-0.998745, 247, 61, 262, 92
-0.99875, 209, 65, 224, 96
-0.998755, 255, 77, 270, 108
-0.998756, 275, 61, 290, 92
-0.998756, 481, 269, 496, 300
-0.998757, 451, 229, 466, 260
-0.998757, 259, 61, 274, 92
-0.99876, 313, 161, 344, 288
-0.998763, 279, 65, 294, 192
-0.998763, 1, 33, 500, 96
-0.998766, 227, 105, 242, 136
-0.998767, 303, 269, 318, 300
-0.998771, 177, 253, 192, 284
-0.998772, 73, 65, 104, 320
-0.998775, 71, 277, 86, 308
-0.998777, 1, 229, 128, 260
-0.998777, 61, 65, 92, 320
-0.998827, 89, 17, 120, 144
-0.998839, 353, 213, 480, 244
-0.99884, 225, 1, 352, 32
-0.998847, 369, 33, 400, 288
-0.998857, 349, 65, 380, 320
-0.998862, 1, 129, 500, 192
-0.998871, 273, 65, 288, 192
-0.998878, 433, 1, 464, 128
-0.9989, 225, 165, 352, 196
-0.998937, 81, 69, 208, 100
-0.998938, 1, 17, 32, 144
-0.99895, 201, 33, 232, 288
-0.998953, 209, 33, 336, 64
-0.998955, 229, 209, 260, 333
-0.998955, 273, 13, 400, 44
-0.998972, 321, 65, 448, 96
-0.99898, 337, 13, 464, 44
-0.998982, 113, 129, 240, 160
-0.998999, 49, 57, 176, 88
-0.999007, 241, 217, 368, 248
-0.99902, 333, 33, 364, 288
-0.999036, 247, 81, 262, 208
-0.999042, 285, 65, 300, 192
-0.999044, 317, 65, 348, 320
-0.999048, 17, 65, 48, 320
-0.999056, 211, 209, 226, 333
-0.999079, 353, 53, 480, 84
-0.99908, 369, 301, 496, 332
-0.999081, 33, 1, 288, 64
-0.999086, 5, 65, 36, 320
-0.999099, 163, 145, 178, 272
-0.999103, 157, 145, 172, 272
-0.999105, 255, 113, 270, 240
-0.999115, 291, 65, 306, 192
-0.999115, 297, 65, 312, 192
-0.999123, 209, 145, 336, 176
-0.999129, 1, 9, 500, 72
-0.99913, 297, 113, 328, 240
-0.999135, 239, 49, 254, 176
-0.999167, 337, 41, 464, 72
-0.999183, 305, 213, 432, 244
-0.999191, 233, 49, 248, 176
-0.999194, 151, 145, 166, 272
-0.999207, 189, 161, 204, 288
-0.999219, 119, 81, 134, 208
-0.999232, 261, 113, 276, 240
-0.999235, 205, 193, 220, 320
-0.999238, 369, 73, 496, 104
-0.999239, 353, 209, 368, 333
-0.999249, 321, 33, 336, 160
-0.999251, 131, 81, 146, 208
-0.999252, 289, 161, 320, 288
-0.999256, 145, 145, 160, 272
-0.999259, 311, 65, 326, 192
-0.99926, 1, 61, 128, 92
-0.99926, 41, 81, 56, 208
-0.999262, 55, 81, 70, 208
-0.999293, 139, 97, 154, 224
-0.999295, 169, 145, 184, 272
-0.999295, 61, 81, 76, 208
-0.999295, 217, 209, 232, 333
-0.999305, 389, 161, 420, 288
-0.999307, 47, 81, 62, 208
-0.999307, 303, 81, 318, 208
-0.999331, 81, 161, 112, 288
-0.999332, 199, 161, 214, 288
-0.999333, 125, 81, 140, 208
-0.999335, 309, 17, 324, 144
-0.999343, 33, 81, 48, 208
-0.999347, 347, 209, 362, 333
-0.999365, 271, 113, 286, 240
-0.999372, 225, 81, 240, 208
-0.999372, 241, 97, 256, 224
-0.999388, 289, 1, 416, 32
-0.999389, 113, 81, 128, 208
-0.999397, 289, 173, 416, 204
-0.9994, 183, 161, 198, 288
-0.9994, 315, 1, 330, 128
-0.999406, 265, 17, 280, 144
-0.99941, 273, 157, 400, 188
-0.99941, 249, 33, 264, 160
-0.999412, 321, 29, 448, 60
-0.999414, 69, 1, 100, 128
-0.999416, 161, 1, 288, 32
-0.999418, 231, 97, 246, 224
-0.999437, 177, 145, 192, 272
-0.999446, 215, 161, 230, 288
-0.999448, 273, 145, 400, 176
-0.99945, 327, 1, 342, 128
-0.999459, 223, 129, 238, 256
-0.999468, 275, 1, 290, 128
-0.999469, 277, 113, 292, 240
-0.99947, 305, 125, 432, 156
-0.999471, 209, 129, 224, 256
-0.999475, 161, 37, 288, 68
-0.999478, 123, 129, 138, 256
-0.999489, 97, 17, 224, 48
-0.999491, 459, 209, 474, 333
-0.999498, 213, 49, 228, 176
-0.999501, 255, 1, 270, 128
-0.999502, 333, 209, 348, 333
-0.999503, 217, 113, 232, 240
-0.999504, 191, 113, 206, 240
-0.999507, 197, 113, 212, 240
-0.999521, 281, 1, 296, 128
-0.999521, 473, 263, 488, 278
-0.999521, 37, 111, 52, 126
-0.999521, 249, 285, 264, 300
-0.999521, 213, 293, 228, 308
-0.999521, 185, 167, 200, 182
-0.999522, 83, 259, 98, 274
-0.999522, 235, 65, 250, 80
-0.999522, 225, 83, 240, 98
-0.999522, 473, 99, 488, 114
-0.999522, 1, 249, 16, 264
-0.999523, 201, 177, 216, 192
-0.999523, 129, 97, 144, 112
-0.999524, 307, 85, 322, 100
-0.999524, 175, 255, 190, 270
-0.999524, 87, 253, 102, 268
-0.999524, 241, 177, 368, 208
-0.999527, 151, 317, 166, 332
-0.999528, 131, 129, 146, 256
-0.999529, 225, 33, 240, 160
-0.999529, 233, 107, 248, 122
-0.999529, 179, 161, 194, 176
-0.999529, 301, 89, 316, 104
-0.99953, 265, 273, 280, 288
-0.999531, 177, 21, 304, 52
-0.999531, 121, 173, 136, 188
-0.999531, 303, 273, 318, 288
-0.999531, 271, 133, 286, 148
-0.999531, 233, 55, 248, 70
-0.999531, 313, 49, 328, 64
-0.999533, 141, 317, 156, 332
-0.999533, 93, 209, 108, 333
-0.999533, 241, 107, 256, 122
-0.999534, 225, 13, 352, 44
-0.999534, 257, 135, 272, 150
-0.999534, 465, 249, 480, 264
-0.999534, 215, 187, 230, 202
-0.999536, 37, 99, 52, 114
-0.999536, 241, 73, 256, 88
-0.999537, 273, 265, 288, 280
-0.999537, 447, 209, 462, 333
-0.999538, 273, 127, 288, 142
-0.999538, 295, 263, 310, 278
-0.999539, 249, 129, 264, 256
-0.999539, 63, 109, 78, 124
-0.999539, 71, 111, 86, 126
-0.999539, 483, 105, 498, 120
-0.99954, 197, 257, 212, 272
-0.99954, 207, 267, 222, 282
-0.99954, 219, 253, 234, 268
-0.999541, 165, 189, 180, 204
-0.999541, 241, 57, 256, 72
-0.999542, 9, 243, 24, 258
-0.999542, 233, 143, 248, 158
-0.999542, 61, 99, 76, 114
-0.999543, 89, 111, 104, 126
-0.999543, 263, 133, 278, 148
-0.999543, 225, 177, 480, 240
-0.999544, 169, 249, 184, 264
-0.999544, 215, 63, 230, 78
-0.999545, 207, 297, 222, 312
-0.999546, 213, 257, 228, 272
-0.999547, 153, 193, 168, 320
-0.999548, 359, 209, 374, 333
-0.999548, 25, 119, 40, 134
-0.999549, 181, 257, 196, 272
-0.999549, 145, 97, 160, 224
-0.99955, 131, 173, 146, 188
-0.999551, 225, 75, 240, 90
-0.999552, 321, 99, 336, 114
-0.999553, 199, 267, 214, 282
-0.999553, 315, 285, 330, 300
-0.999554, 303, 33, 318, 160
-0.999556, 233, 133, 248, 148
-0.999556, 287, 17, 302, 144
-0.999557, 277, 257, 292, 272
-0.999558, 263, 67, 278, 82
-0.999559, 249, 95, 264, 110
-0.99956, 31, 119, 46, 134
-0.99956, 231, 81, 246, 96
-0.999561, 281, 85, 296, 100
-0.999561, 255, 73, 270, 88
-0.999562, 137, 195, 152, 210
-0.999562, 253, 67, 268, 82
-0.999562, 339, 177, 354, 304
-0.999563, 361, 161, 376, 288
-0.999564, 483, 91, 498, 106
-0.999565, 137, 145, 152, 272
-0.999565, 67, 65, 82, 192
-0.999566, 235, 113, 250, 128
-0.999566, 337, 1, 352, 128
-0.999566, 245, 83, 260, 98
-0.999566, 107, 81, 122, 208
-0.999567, 81, 253, 96, 268
-0.999568, 157, 97, 172, 224
-0.999568, 147, 189, 162, 204
-0.999569, 83, 209, 98, 333
-0.999569, 461, 241, 476, 256
-0.99957, 205, 183, 220, 198
-0.99957, 323, 209, 338, 333
-0.999572, 49, 1, 176, 32
-0.999573, 485, 99, 500, 114
-0.999574, 175, 65, 190, 192
-0.999576, 99, 65, 114, 192
-0.999576, 85, 105, 100, 120
-0.999576, 243, 123, 258, 138
-0.999578, 217, 193, 232, 208
-0.999578, 235, 101, 250, 116
-0.999578, 293, 209, 308, 333
-0.999578, 131, 179, 146, 194
-0.999578, 183, 113, 198, 240
-0.999581, 219, 259, 234, 274
-0.999581, 193, 263, 208, 278
-0.999581, 289, 259, 304, 274
-0.999582, 469, 209, 484, 333
-0.999584, 251, 135, 266, 150
-0.999584, 71, 105, 86, 120
-0.999584, 231, 71, 246, 86
-0.999584, 47, 33, 62, 160
-0.999584, 287, 209, 302, 333
-0.999585, 263, 77, 278, 92
-0.999585, 293, 89, 308, 104
-0.999586, 99, 193, 114, 320
-0.999587, 21, 111, 36, 126
-0.999587, 243, 99, 258, 114
-0.999589, 301, 83, 316, 98
-0.999589, 351, 161, 366, 288
-0.999589, 203, 261, 218, 276
-0.99959, 183, 251, 198, 266
-0.99959, 203, 193, 218, 208
-0.999592, 321, 81, 336, 208
-0.999592, 41, 33, 56, 160
-0.999593, 15, 111, 30, 126
-0.999593, 237, 127, 252, 142
-0.999593, 201, 301, 216, 316
-0.999594, 163, 195, 178, 210
-0.999594, 453, 209, 468, 333
-0.999596, 297, 1, 312, 128
-0.999596, 239, 139, 254, 154
-0.999599, 237, 119, 252, 134
-0.9996, 187, 259, 202, 274
-0.999601, 225, 209, 240, 333
-0.999602, 241, 93, 256, 108
-0.999603, 31, 113, 46, 128
-0.999603, 29, 105, 44, 120
-0.999603, 3, 209, 18, 333
-0.999607, 23, 81, 38, 208
-0.999608, 269, 75, 284, 90
-0.999611, 239, 133, 254, 148
-0.999611, 231, 95, 246, 110
-0.999611, 203, 113, 218, 240
-0.999611, 13, 81, 28, 208
-0.999612, 219, 65, 234, 192
-0.999612, 347, 1, 362, 128
-0.999616, 213, 263, 228, 278
-0.999617, 353, 227, 368, 242
-0.999619, 275, 75, 290, 90
-0.99962, 477, 81, 492, 208
-0.999621, 373, 209, 388, 333
-0.999621, 283, 77, 298, 92
-0.999622, 79, 109, 94, 124
-0.999623, 247, 129, 262, 144
-0.999623, 153, 193, 168, 208
-0.999625, 163, 97, 178, 224
-0.999626, 93, 49, 108, 176
-0.999628, 231, 89, 246, 104
-0.999629, 119, 33, 134, 160
-0.999629, 49, 193, 64, 320
-0.999629, 193, 209, 208, 333
-0.999632, 277, 95, 292, 110
-0.999633, 237, 79, 252, 94
-0.999634, 367, 209, 382, 333
-0.999635, 33, 33, 48, 160
-0.999636, 399, 1, 414, 128
-0.999636, 167, 1, 182, 128
-0.999637, 479, 209, 494, 333
-0.999638, 459, 161, 474, 288
-0.999638, 113, 161, 128, 288
-0.999639, 477, 91, 492, 106
-0.999641, 161, 209, 176, 333
-0.999642, 65, 129, 80, 256
-0.999643, 389, 81, 404, 208
-0.999647, 283, 91, 298, 106
-0.999648, 113, 33, 128, 160
-0.999648, 291, 81, 306, 96
-0.999649, 303, 209, 318, 333
-0.999649, 169, 65, 184, 192
-0.999649, 399, 81, 414, 208
-0.99965, 211, 195, 226, 210
-0.99965, 267, 127, 282, 142
-0.999651, 283, 255, 298, 270
-0.999651, 441, 209, 456, 333
-0.999653, 329, 49, 344, 176
-0.999657, 345, 161, 360, 288
-0.999658, 11, 209, 26, 333
-0.999659, 241, 1, 256, 128
-0.999662, 207, 65, 222, 192
-0.999664, 73, 65, 88, 192
-0.999666, 261, 127, 276, 142
-0.999669, 245, 135, 260, 150
-0.99973, 209, 189, 224, 204
-0.999732, 255, 129, 270, 144
-0.99974, 369, 129, 432, 256
-0.999773, 159, 189, 174, 204
-1.00501, 345, 113, 408, 240
