1969
-0.336067, 1, 1, 500, 375
-0.419669, 1, 129, 500, 375
-0.475155, 65, 1, 320, 375
-0.476222, 257, 1, 500, 375
-0.482358, 161, 1, 416, 375
-0.488387, 1, 33, 500, 288
-0.669636, 161, 33, 416, 288
-0.718989, 257, 129, 500, 375
-0.733336, 33, 33, 288, 288
-0.741759, 33, 129, 288, 375
-0.754249, 257, 33, 500, 288
-0.770679, 161, 129, 416, 375
-0.842576, 161, 1, 288, 375
-0.856269, 273, 33, 400, 288
-0.86492, 241, 1, 368, 375
-0.872693, 1, 177, 500, 304
-0.873313, 113, 1, 240, 375
-0.874459, 289, 1, 416, 375
-0.877009, 369, 1, 496, 375
-0.882886, 225, 33, 352, 288
-0.884753, 65, 1, 192, 375
-0.887588, 209, 129, 336, 375
-0.892114, 161, 33, 288, 288
-0.895842, 337, 129, 464, 375
-0.897151, 17, 1, 144, 375
-0.897941, 145, 129, 272, 375
-0.898691, 81, 1, 208, 256
-0.902582, 321, 33, 448, 288
-0.904699, 369, 33, 496, 288
-0.907884, 81, 129, 208, 375
-0.916724, 33, 129, 160, 375
-0.917194, 33, 209, 288, 336
-0.91799, 289, 129, 416, 375
-0.91951, 97, 1, 352, 128
-0.921799, 1, 49, 500, 176
-0.924022, 193, 193, 448, 320
-0.924121, 1, 241, 500, 368
-0.925468, 257, 1, 500, 128
-0.926632, 1, 129, 500, 256
-0.929869, 33, 1, 160, 256
-0.929909, 225, 1, 352, 128
-0.930577, 1, 1, 500, 128
-0.931708, 1, 1, 256, 128
-0.932794, 145, 1, 272, 128
-0.936577, 145, 193, 208, 320
-0.936951, 33, 225, 160, 352
-0.940587, 169, 193, 232, 320
-0.940847, 161, 193, 288, 320
-0.941884, 433, 193, 496, 320
-0.942002, 241, 145, 304, 272
-0.943808, 33, 225, 96, 352
-0.944571, 209, 1, 272, 128
-0.944636, 281, 1, 344, 128
-0.946052, 1, 241, 64, 368
-0.946944, 113, 209, 240, 336
-0.947125, 257, 1, 320, 128
-0.947547, 193, 193, 256, 320
-0.947888, 33, 257, 96, 320
-0.948201, 97, 1, 224, 128
-0.948642, 249, 41, 312, 104
-0.948854, 265, 145, 328, 272
-0.94904, 281, 193, 344, 320
-0.949362, 377, 193, 440, 320
-0.94941, 1, 161, 256, 288
-0.949777, 209, 193, 336, 320
-0.950225, 113, 1, 176, 128
-0.950321, 17, 1, 80, 128
-0.950507, 321, 193, 448, 320
-0.950745, 161, 49, 416, 176
-0.950895, 113, 209, 176, 336
-0.951683, 153, 1, 216, 128
-0.951847, 161, 241, 224, 368
-0.951961, 89, 209, 152, 336
-0.952128, 273, 193, 400, 320
-0.952414, 369, 193, 496, 320
-0.952995, 257, 169, 320, 232
-0.953053, 225, 241, 480, 368
-0.953084, 241, 9, 304, 72
-0.953149, 161, 201, 224, 264
-0.953232, 305, 1, 368, 128
-0.953477, 9, 273, 72, 336
-0.953562, 129, 241, 384, 368
-0.953741, 321, 193, 384, 320
-0.954072, 217, 193, 280, 320
-0.954286, 17, 1, 144, 128
-0.954478, 257, 145, 500, 272
-0.954625, 233, 17, 296, 144
-0.955094, 97, 161, 352, 288
-0.95529, 265, 17, 328, 80
-0.955679, 217, 25, 280, 88
-0.955843, 345, 177, 408, 304
-0.955975, 97, 161, 224, 288
-0.956295, 57, 193, 120, 320
-0.956885, 209, 145, 336, 272
-0.957142, 57, 1, 120, 128
-0.957149, 409, 193, 472, 320
-0.957828, 281, 201, 344, 264
-0.958108, 1, 313, 64, 375
-0.958318, 33, 177, 160, 304
-0.958806, 273, 17, 400, 144
-0.9591, 217, 1, 280, 64
-0.959157, 177, 1, 240, 128
-0.959325, 241, 193, 304, 320
-0.960019, 193, 49, 320, 176
-0.960591, 369, 129, 496, 256
-0.960737, 273, 129, 400, 256
-0.960942, 33, 49, 288, 176
-0.960991, 57, 241, 120, 368
-0.961511, 417, 241, 480, 368
-0.962152, 121, 225, 184, 288
-0.962412, 353, 241, 480, 368
-0.962573, 121, 33, 184, 96
-0.96274, 137, 257, 200, 320
-0.962799, 265, 145, 328, 208
-0.962866, 89, 1, 152, 64
-0.963294, 409, 209, 472, 272
-0.96347, 33, 305, 96, 368
-0.963565, 257, 49, 500, 176
-0.963751, 9, 177, 72, 304
-0.963952, 249, 193, 312, 256
-0.964269, 321, 145, 448, 272
-0.964343, 137, 241, 200, 368
-0.964639, 393, 241, 456, 368
-0.964802, 145, 1, 208, 64
-0.964944, 33, 281, 96, 344
-0.965031, 401, 129, 464, 256
-0.965254, 161, 249, 224, 312
-0.965258, 137, 145, 200, 272
-0.965343, 337, 201, 400, 264
-0.965822, 137, 201, 200, 264
-0.966246, 369, 209, 432, 272
-0.966382, 361, 129, 424, 256
-0.966404, 161, 241, 288, 368
-0.966422, 81, 257, 144, 320
-0.966453, 433, 281, 496, 344
-0.966499, 433, 129, 496, 256
-0.96673, 433, 1, 496, 128
-0.966758, 33, 233, 96, 296
-0.966825, 177, 145, 240, 272
-0.966826, 113, 9, 176, 72
-0.966886, 1, 129, 64, 256
-0.966959, 9, 225, 72, 288
-0.967579, 161, 273, 224, 336
-0.967643, 57, 273, 120, 336
-0.967668, 177, 1, 240, 64
-0.967831, 281, 241, 344, 368
-0.967844, 161, 129, 288, 256
-0.968162, 337, 129, 400, 256
-0.968201, 369, 33, 432, 160
-0.968268, 65, 1, 128, 64
-0.968296, 185, 209, 248, 272
-0.968587, 185, 241, 248, 368
-0.968704, 57, 217, 120, 280
-0.968789, 89, 1, 152, 128
-0.969028, 177, 297, 240, 360
-0.969119, 237, 41, 268, 104
-0.969132, 337, 1, 400, 128
-0.96924, 257, 241, 384, 368
-0.969277, 329, 49, 392, 176
-0.969618, 393, 297, 456, 360
-0.969706, 225, 201, 288, 264
-0.969725, 25, 49, 88, 176
-0.969823, 269, 145, 300, 272
-0.969832, 145, 225, 208, 288
-0.969888, 177, 25, 240, 88
-0.970249, 305, 201, 368, 264
-0.970531, 57, 305, 120, 368
-0.970609, 297, 49, 360, 112
-0.970746, 241, 65, 368, 192
-0.970785, 121, 281, 184, 344
-0.970806, 433, 209, 496, 272
-0.970889, 57, 249, 120, 312
-0.971101, 225, 49, 288, 112
-0.971164, 217, 113, 280, 240
-0.971421, 257, 33, 320, 288
-0.971554, 297, 145, 360, 272
-0.971615, 233, 169, 296, 232
-0.971816, 225, 33, 288, 288
-0.971892, 273, 49, 336, 176
-0.972057, 289, 1, 352, 64
-0.972095, 337, 1, 464, 128
-0.972117, 433, 1, 496, 64
-0.972133, 201, 49, 264, 112
-0.972166, 89, 25, 152, 88
-0.972183, 401, 1, 464, 128
-0.972235, 209, 17, 336, 80
-0.972349, 417, 305, 480, 368
-0.9724, 113, 161, 176, 288
-0.972423, 409, 193, 440, 320
-0.972442, 49, 49, 176, 176
-0.972519, 241, 1, 272, 128
-0.972748, 393, 265, 456, 328
-0.972858, 321, 241, 384, 368
-0.972976, 173, 177, 204, 304
-0.973006, 137, 177, 200, 240
-0.973086, 173, 209, 204, 272
-0.97321, 9, 249, 72, 312
-0.973321, 169, 177, 232, 240
-0.973324, 249, 129, 312, 375
-0.973392, 273, 97, 336, 224
-0.973523, 153, 209, 184, 336
-0.973677, 269, 17, 300, 80
-0.973696, 269, 177, 300, 240
-0.973778, 249, 1, 280, 64
-0.973969, 273, 201, 400, 264
-0.973997, 417, 241, 448, 368
-0.974066, 41, 225, 72, 352
-0.974209, 437, 193, 468, 320
-0.974247, 249, 65, 312, 128
-0.974264, 285, 1, 316, 64
-0.974277, 137, 313, 200, 375
-0.974385, 1, 265, 128, 328
-0.974481, 249, 25, 280, 88
-0.97452, 129, 49, 256, 176
-0.974633, 305, 241, 432, 368
-0.974697, 213, 1, 244, 128
-0.974831, 201, 313, 264, 375
-0.974969, 353, 225, 416, 352
-0.975174, 305, 1, 336, 128
-0.975378, 297, 33, 360, 288
-0.975383, 253, 1, 284, 128
-0.975558, 361, 185, 424, 248
-0.975657, 281, 73, 344, 136
-0.975687, 369, 81, 432, 208
-0.975763, 269, 1, 300, 128
-0.975798, 185, 193, 216, 320
-0.975954, 377, 233, 440, 296
-0.976108, 225, 41, 352, 104
-0.97617, 369, 81, 496, 208
-0.976175, 193, 177, 320, 240
-0.97622, 17, 1, 144, 64
-0.976221, 257, 1, 384, 64
-0.976375, 237, 17, 268, 80
-0.976396, 65, 249, 96, 312
-0.976415, 369, 313, 432, 375
-0.976623, 161, 209, 288, 272
-0.97664, 97, 233, 160, 296
-0.976749, 65, 257, 192, 320
-0.976749, 225, 241, 288, 368
-0.976781, 157, 225, 188, 288
-0.976801, 385, 185, 448, 248
-0.97685, 89, 281, 152, 344
-0.976858, 413, 209, 444, 272
-0.976882, 201, 185, 264, 248
-0.976937, 225, 33, 256, 96
-0.976993, 433, 65, 496, 128
-0.977042, 145, 41, 208, 104
-0.977167, 129, 33, 256, 96
-0.977242, 141, 209, 172, 336
-0.977264, 137, 49, 200, 176
-0.977311, 1, 305, 128, 368
-0.977453, 201, 273, 264, 336
-0.977456, 205, 193, 236, 320
-0.9775, 209, 241, 336, 368
-0.977581, 161, 1, 288, 64
-0.977635, 425, 193, 456, 320
-0.977643, 173, 185, 204, 248
-0.977717, 401, 49, 464, 176
-0.977718, 225, 201, 352, 264
-0.97779, 41, 257, 72, 320
-0.977853, 285, 193, 316, 320
-0.977871, 33, 113, 288, 240
-0.977893, 65, 193, 96, 320
-0.978078, 425, 41, 488, 104
-0.97812, 221, 193, 252, 320
-0.978133, 281, 177, 344, 240
-0.978164, 417, 257, 480, 320
-0.978229, 81, 1, 208, 64
-0.978342, 433, 129, 496, 375
-0.978408, 1, 129, 64, 375
-0.978448, 9, 201, 72, 264
-0.97846, 285, 201, 316, 264
-0.978594, 165, 249, 196, 312
-0.978604, 321, 49, 448, 176
-0.978638, 121, 57, 184, 120
-0.978643, 1, 137, 64, 200
-0.978646, 133, 1, 164, 128
-0.978714, 241, 145, 304, 208
-0.978729, 113, 257, 176, 320
-0.978729, 89, 161, 152, 288
-0.978746, 369, 97, 432, 160
-0.978787, 73, 217, 104, 280
-0.978807, 273, 49, 336, 112
-0.97885, 113, 201, 176, 264
-0.978851, 113, 209, 240, 272
-0.978883, 265, 121, 328, 184
-0.978889, 205, 33, 236, 96
-0.978982, 433, 209, 464, 272
-0.979105, 433, 49, 496, 176
-0.979159, 257, 161, 288, 288
-0.979317, 421, 297, 452, 360
-0.979354, 369, 209, 496, 272
-0.979364, 321, 201, 448, 264
-0.979379, 65, 1, 128, 256
-0.979387, 469, 193, 500, 320
-0.979399, 33, 177, 96, 304
-0.979415, 169, 225, 200, 352
-0.97944, 297, 1, 328, 64
-0.979566, 153, 201, 184, 264
-0.979576, 385, 193, 416, 320
-0.979576, 269, 153, 300, 216
-0.979593, 65, 233, 192, 296
-0.979617, 337, 289, 400, 352
-0.979639, 225, 1, 288, 375
-0.979654, 249, 49, 280, 112
-0.979686, 97, 1, 128, 64
-0.979695, 257, 217, 320, 280
-0.979775, 273, 297, 336, 360
-0.979844, 233, 65, 296, 192
-0.979862, 309, 193, 340, 320
-0.979895, 117, 1, 148, 64
-0.979915, 289, 1, 352, 375
-0.979952, 417, 265, 448, 328
-0.979977, 49, 297, 176, 360
-0.980019, 297, 49, 360, 176
-0.980062, 337, 193, 368, 320
-0.980084, 433, 185, 496, 248
-0.980105, 17, 241, 48, 304
-0.980113, 1, 97, 128, 224
-0.980148, 49, 129, 176, 256
-0.980225, 469, 1, 500, 128
-0.980286, 317, 49, 348, 112
-0.980327, 137, 17, 168, 80
-0.980331, 305, 177, 368, 240
-0.980353, 165, 1, 196, 128
-0.980356, 153, 33, 216, 288
-0.980415, 373, 193, 404, 320
-0.980428, 409, 185, 472, 248
-0.980456, 185, 273, 216, 336
-0.980476, 49, 49, 112, 176
-0.980482, 353, 193, 384, 320
-0.980507, 217, 1, 248, 64
-0.980514, 41, 1, 104, 64
-0.98054, 257, 97, 500, 224
-0.980573, 273, 41, 304, 104
-0.980631, 233, 297, 296, 360
-0.980635, 329, 73, 392, 136
-0.98064, 273, 49, 400, 112
-0.980669, 121, 209, 152, 336
-0.980684, 73, 241, 104, 368
-0.980721, 233, 193, 264, 320
-0.980744, 457, 193, 488, 320
-0.98085, 265, 1, 328, 375
-0.980855, 209, 73, 272, 136
-0.98091, 281, 225, 344, 288
-0.98094, 193, 201, 224, 264
-0.981035, 65, 25, 192, 88
-0.981039, 241, 121, 304, 184
-0.981054, 77, 241, 108, 304
-0.981118, 325, 193, 356, 320
-0.981123, 253, 201, 284, 264
-0.98113, 1, 233, 128, 296
-0.981132, 97, 305, 160, 368
-0.981141, 145, 185, 272, 248
-0.981163, 337, 313, 400, 375
-0.981176, 273, 177, 400, 240
-0.981176, 297, 201, 328, 264
-0.981237, 1, 65, 64, 192
-0.981362, 457, 145, 488, 272
-0.981377, 293, 41, 324, 104
-0.981409, 149, 1, 180, 128
-0.981438, 289, 257, 352, 320
-0.981442, 461, 209, 492, 272
-0.981453, 369, 129, 432, 375
-0.981462, 409, 129, 472, 375
-0.981463, 329, 1, 392, 64
-0.981471, 297, 25, 360, 88
-0.98149, 385, 209, 416, 272
-0.981531, 289, 1, 320, 128
-0.981538, 297, 129, 360, 375
-0.981554, 117, 25, 148, 88
-0.981562, 177, 313, 304, 375
-0.981583, 1, 233, 32, 296
-0.981644, 113, 273, 240, 336
-0.981673, 201, 249, 264, 312
-0.981745, 257, 241, 320, 368
-0.981748, 17, 209, 48, 336
-0.981858, 321, 65, 384, 320
-0.981877, 349, 201, 380, 264
-0.981892, 321, 41, 448, 104
-0.981928, 189, 17, 220, 80
-0.981985, 429, 241, 460, 368
-0.982022, 397, 193, 428, 320
-0.982035, 161, 281, 288, 344
-0.982046, 245, 193, 276, 320
-0.982095, 25, 97, 88, 224
-0.9821, 257, 161, 288, 224
-0.982145, 113, 249, 240, 312
-0.982157, 225, 1, 256, 128
-0.98218, 17, 17, 80, 80
-0.982209, 73, 1, 104, 128
-0.982222, 37, 305, 68, 368
-0.982279, 273, 129, 336, 375
-0.982379, 177, 129, 240, 375
-0.982432, 469, 129, 500, 256
-0.982499, 297, 305, 360, 368
-0.982505, 129, 305, 256, 368
-0.982536, 321, 313, 448, 375
-0.982563, 337, 177, 400, 240
-0.982596, 37, 281, 68, 344
-0.982616, 9, 105, 72, 168
-0.982616, 41, 1, 72, 128
-0.982639, 41, 17, 72, 80
-0.982656, 89, 193, 120, 320
-0.982704, 185, 33, 248, 288
-0.982751, 277, 129, 308, 192
-0.982809, 425, 145, 456, 272
-0.982809, 17, 265, 48, 328
-0.982841, 41, 97, 104, 352
-0.982919, 149, 1, 180, 64
-0.982929, 33, 49, 96, 112
-0.982933, 205, 1, 236, 64
-0.982943, 53, 209, 84, 336
-0.982946, 105, 1, 136, 128
-0.982967, 177, 41, 304, 104
-0.982974, 429, 273, 460, 336
-0.983025, 97, 49, 160, 112
-0.983034, 401, 1, 464, 64
-0.983039, 61, 225, 92, 288
-0.983065, 129, 1, 192, 256
-0.983117, 433, 121, 496, 184
-0.983149, 117, 1, 148, 128
-0.983155, 345, 97, 408, 352
-0.983191, 169, 41, 200, 104
-0.983319, 185, 1, 216, 128
-0.983376, 113, 49, 176, 176
-0.983402, 65, 1, 96, 64
-0.983474, 345, 1, 408, 375
-0.983501, 145, 225, 176, 288
-0.983514, 449, 209, 480, 272
-0.983518, 169, 1, 232, 375
-0.983533, 397, 209, 428, 272
-0.983549, 369, 257, 432, 320
-0.983567, 441, 129, 472, 256
-0.983584, 401, 233, 464, 296
-0.983598, 121, 1, 184, 375
-0.983598, 469, 1, 500, 64
-0.983658, 321, 233, 384, 296
-0.983679, 305, 25, 336, 88
-0.983706, 297, 193, 328, 320
-0.983745, 313, 281, 376, 344
-0.983761, 385, 33, 448, 288
-0.983792, 81, 17, 112, 80
-0.983818, 361, 201, 392, 264
-0.983861, 153, 161, 184, 288
-0.983866, 309, 1, 340, 64
-0.98388, 89, 201, 152, 264
-0.983893, 97, 177, 224, 240
-0.98393, 361, 281, 424, 344
-0.983959, 193, 49, 256, 176
-0.984024, 425, 33, 488, 288
-0.984037, 457, 1, 488, 128
-0.984178, 369, 289, 496, 352
-0.984178, 369, 129, 400, 256
-0.984187, 97, 113, 224, 240
-0.984213, 65, 201, 192, 264
-0.984253, 65, 145, 128, 272
-0.984299, 441, 305, 472, 368
-0.984359, 173, 17, 204, 80
-0.984366, 149, 25, 180, 88
-0.984411, 225, 129, 288, 375
-0.984423, 161, 113, 416, 240
-0.984455, 57, 273, 88, 336
-0.984498, 65, 25, 128, 88
-0.984512, 369, 9, 432, 72
-0.984581, 205, 209, 236, 272
-0.984595, 1, 161, 64, 224
-0.984641, 17, 1, 80, 375
-0.984694, 201, 1, 232, 128
-0.984708, 309, 209, 340, 272
-0.984738, 89, 49, 152, 176
-0.984761, 417, 1, 480, 375
-0.984771, 13, 297, 44, 360
-0.984772, 153, 129, 216, 375
-0.984832, 217, 57, 248, 120
-0.984908, 377, 129, 440, 192
-0.984919, 145, 1, 208, 375
-0.984923, 29, 1, 60, 64
-0.984945, 77, 265, 108, 328
-0.984977, 469, 49, 500, 112
-0.985022, 317, 25, 348, 88
-0.985047, 345, 113, 408, 176
-0.985063, 281, 177, 312, 240
-0.985076, 329, 209, 360, 272
-0.985127, 393, 1, 456, 375
-0.985192, 137, 265, 168, 328
-0.985203, 161, 257, 288, 320
-0.985208, 281, 129, 312, 256
-0.985223, 121, 225, 152, 288
-0.985247, 41, 233, 72, 296
-0.985322, 53, 249, 84, 312
-0.985323, 65, 305, 96, 368
-0.985327, 225, 209, 256, 272
-0.985408, 193, 1, 256, 375
-0.98543, 433, 145, 496, 208
-0.985456, 89, 1, 120, 128
-0.985462, 197, 273, 228, 336
-0.985467, 409, 241, 440, 304
-0.985482, 161, 1, 192, 64
-0.985518, 273, 25, 400, 88
-0.98552, 157, 297, 188, 360
-0.985536, 133, 41, 164, 104
-0.985565, 369, 65, 432, 128
-0.985569, 93, 25, 124, 88
-0.98559, 321, 41, 384, 104
-0.985613, 93, 265, 124, 328
-0.985679, 389, 145, 420, 272
-0.985704, 1, 225, 32, 352
-0.98572, 313, 1, 376, 375
-0.985724, 257, 313, 384, 375
-0.985755, 81, 129, 144, 375
-0.985815, 77, 193, 108, 320
-0.985844, 353, 233, 416, 296
-0.985884, 401, 145, 432, 272
-0.98594, 369, 41, 432, 104
-0.985955, 241, 201, 272, 264
-0.986066, 373, 201, 404, 264
-0.986163, 1, 145, 32, 272
-0.986178, 165, 129, 196, 256
-0.986187, 61, 33, 92, 96
-0.986187, 157, 273, 188, 336
-0.98622, 177, 153, 304, 216
-0.986222, 273, 209, 304, 272
-0.98624, 401, 121, 464, 184
-0.986253, 333, 1, 364, 128
-0.986291, 241, 281, 368, 344
-0.986305, 101, 241, 132, 304
-0.986321, 17, 41, 144, 104
-0.986456, 161, 161, 192, 224
-0.986599, 17, 1, 80, 256
-0.986672, 401, 41, 464, 104
-0.986675, 369, 313, 496, 375
-0.986717, 177, 249, 208, 312
-0.98673, 369, 1, 432, 375
-0.986733, 201, 129, 264, 375
-0.986742, 305, 49, 336, 112
-0.986743, 433, 241, 464, 304
-0.986767, 89, 225, 120, 288
-0.986767, 177, 297, 208, 360
-0.986814, 109, 265, 140, 328
-0.98684, 169, 49, 232, 112
-0.986869, 81, 49, 208, 112
-0.986883, 9, 73, 72, 136
-0.98689, 337, 265, 464, 328
-0.986945, 109, 209, 140, 336
-0.987003, 369, 185, 496, 248
-0.987087, 1, 209, 128, 272
-0.98714, 453, 9, 484, 72
-0.987198, 189, 177, 220, 240
-0.9873, 469, 281, 500, 344
-0.987345, 441, 241, 472, 368
-0.987364, 329, 49, 360, 112
-0.987391, 141, 201, 172, 264
-0.987404, 397, 241, 428, 368
-0.987431, 457, 65, 488, 192
-0.987477, 161, 233, 288, 296
-0.98749, 357, 129, 388, 256
-0.987542, 125, 249, 156, 312
-0.987596, 369, 25, 496, 88
-0.987627, 413, 129, 444, 256
-0.987652, 77, 289, 108, 352
-0.987675, 29, 1, 60, 128
-0.987687, 425, 185, 456, 248
-0.98772, 97, 33, 160, 288
-0.987774, 453, 41, 484, 104
-0.987781, 177, 65, 304, 128
-0.9878, 129, 97, 192, 352
-0.987811, 273, 193, 304, 320
-0.987865, 49, 313, 80, 375
-0.987868, 85, 241, 116, 368
-0.987888, 317, 1, 348, 128
-0.987977, 273, 73, 400, 136
-0.988037, 369, 57, 496, 120
-0.988048, 189, 145, 220, 272
-0.988128, 41, 41, 72, 104
-0.988137, 237, 65, 268, 128
-0.988149, 169, 273, 200, 336
-0.988172, 209, 225, 336, 288
-0.988226, 5, 169, 36, 232
-0.988312, 121, 273, 152, 336
-0.988356, 61, 1, 92, 128
-0.988374, 249, 113, 280, 240
-0.988407, 289, 257, 416, 320
-0.988415, 369, 105, 400, 168
-0.988426, 57, 1, 120, 375
-0.988427, 437, 1, 468, 64
-0.988512, 461, 241, 492, 368
-0.988516, 305, 233, 432, 296
-0.98853, 321, 65, 448, 128
-0.988561, 321, 177, 448, 240
-0.988563, 385, 185, 416, 248
-0.988598, 345, 1, 376, 128
-0.988626, 405, 185, 436, 248
-0.98864, 261, 41, 292, 104
-0.98866, 441, 281, 472, 344
-0.988669, 133, 225, 164, 288
-0.9887, 469, 49, 500, 176
-0.988717, 321, 97, 448, 224
-0.988731, 393, 313, 424, 375
-0.988764, 265, 129, 296, 192
-0.988779, 85, 313, 116, 375
-0.988781, 257, 49, 288, 176
-0.988794, 41, 1, 104, 256
-0.988802, 185, 41, 216, 104
-0.988813, 305, 289, 432, 352
-0.988888, 369, 129, 496, 192
-0.989007, 265, 13, 328, 44
-0.989098, 225, 65, 352, 128
-0.989168, 409, 49, 440, 176
-0.989209, 145, 49, 176, 176
-0.989313, 321, 145, 352, 272
-0.989331, 305, 145, 336, 272
-0.989365, 321, 17, 448, 80
-0.989368, 33, 261, 96, 292
-0.989394, 217, 17, 280, 48
-0.989403, 53, 161, 84, 288
-0.989408, 161, 221, 224, 252
-0.989462, 257, 153, 384, 216
-0.989499, 441, 65, 472, 192
-0.989523, 249, 41, 312, 72
-0.989554, 105, 129, 168, 375
-0.989585, 225, 29, 288, 60
-0.989597, 209, 145, 240, 272
-0.989645, 369, 89, 496, 152
-0.989648, 265, 25, 328, 56
-0.989679, 9, 277, 72, 308
-0.989682, 41, 177, 72, 304
-0.989696, 369, 241, 496, 304
-0.989736, 313, 241, 344, 368
-0.989764, 217, 241, 248, 368
-0.989766, 1, 337, 64, 368
-0.989792, 89, 29, 152, 60
-0.989849, 65, 41, 128, 72
-0.989862, 193, 241, 224, 368
-0.989884, 65, 17, 128, 48
-0.989898, 257, 225, 384, 288
-0.989901, 337, 145, 368, 272
-0.989904, 33, 273, 96, 304
-0.989912, 257, 165, 320, 196
-0.989928, 129, 161, 160, 288
-0.989931, 233, 65, 296, 96
-0.989963, 29, 241, 60, 368
-0.989991, 121, 233, 184, 264
-0.99001, 241, 13, 304, 44
-0.990054, 9, 309, 72, 340
-0.990057, 97, 41, 160, 72
-0.990059, 9, 297, 72, 328
-0.990075, 33, 293, 96, 324
-0.990077, 257, 1, 320, 32
-0.990085, 297, 13, 360, 44
-0.990122, 281, 1, 344, 32
-0.990141, 113, 13, 176, 44
-0.990146, 233, 1, 296, 32
-0.990205, 265, 205, 328, 236
-0.990215, 57, 257, 120, 288
-0.990215, 9, 261, 72, 292
-0.990219, 369, 49, 400, 176
-0.990221, 73, 281, 136, 312
-0.990223, 181, 241, 212, 368
-0.990244, 49, 1, 112, 32
-0.990277, 409, 213, 472, 244
-0.990279, 265, 153, 328, 184
-0.990297, 241, 209, 304, 240
-0.990298, 137, 33, 200, 64
-0.990301, 185, 37, 248, 68
-0.990304, 33, 29, 96, 60
-0.990323, 1, 321, 64, 352
-0.990325, 169, 285, 232, 316
-0.990353, 153, 273, 216, 304
-0.990372, 385, 209, 448, 240
-0.990373, 233, 161, 296, 192
-0.990401, 229, 49, 260, 176
-0.990413, 97, 1, 160, 375
-0.990414, 225, 145, 256, 272
-0.990494, 73, 1, 136, 32
-0.990533, 273, 49, 304, 176
-0.990538, 305, 61, 368, 92
-0.990548, 153, 209, 216, 240
-0.990559, 185, 13, 248, 44
-0.99056, 289, 209, 352, 240
-0.990561, 193, 213, 256, 244
-0.990569, 257, 61, 320, 92
-0.99057, 145, 253, 208, 284
-0.990595, 289, 49, 352, 80
-0.990625, 161, 45, 224, 76
-0.990638, 209, 49, 272, 80
-0.990638, 417, 305, 480, 336
-0.990649, 285, 49, 316, 176
-0.990651, 345, 201, 408, 232
-0.990662, 289, 29, 352, 60
-0.990671, 261, 209, 292, 336
-0.990686, 9, 245, 72, 276
-0.990692, 353, 1, 416, 256
-0.990698, 129, 65, 256, 128
-0.99077, 25, 325, 88, 356
-0.990776, 129, 1, 192, 32
-0.990777, 65, 29, 128, 60
-0.990778, 209, 257, 336, 320
-0.990792, 185, 49, 248, 80
-0.990796, 89, 269, 152, 300
-0.990808, 89, 17, 152, 48
-0.990817, 369, 1, 496, 64
-0.990873, 245, 49, 276, 176
-0.990875, 33, 249, 96, 280
-0.990895, 393, 301, 456, 332
-0.990906, 121, 317, 184, 348
-0.990921, 161, 197, 224, 228
-0.990936, 169, 49, 232, 176
-0.990965, 137, 45, 200, 76
-0.990986, 385, 337, 448, 368
-0.990987, 265, 73, 328, 104
-0.990999, 169, 253, 232, 284
-0.991005, 141, 161, 172, 288
-0.991015, 129, 221, 192, 252
-0.991021, 1, 145, 128, 208
-0.99103, 305, 1, 368, 32
-0.991043, 433, 289, 496, 320
-0.991058, 321, 209, 384, 240
-0.991068, 177, 25, 240, 56
-0.991075, 65, 305, 128, 336
-0.991078, 25, 17, 88, 48
-0.99108, 225, 201, 480, 264
-0.991103, 121, 345, 184, 375
-0.991104, 225, 77, 288, 108
-0.991134, 193, 281, 256, 312
-0.991145, 337, 241, 368, 368
-0.991146, 105, 1, 168, 32
-0.991148, 161, 13, 224, 44
-0.991165, 113, 29, 176, 60
-0.991169, 209, 61, 272, 92
-0.991178, 185, 329, 248, 360
-0.99118, 265, 225, 328, 256
-0.991199, 241, 193, 304, 224
-0.991205, 121, 277, 184, 308
-0.991205, 65, 229, 128, 260
-0.991216, 129, 209, 192, 240
-0.991216, 33, 49, 96, 80
-0.991246, 385, 69, 448, 100
-0.991247, 57, 269, 120, 300
-0.991257, 433, 213, 496, 244
-0.991257, 49, 177, 176, 240
-0.991267, 33, 305, 96, 336
-0.991273, 425, 1, 488, 32
-0.991283, 233, 173, 296, 204
-0.991291, 89, 297, 152, 328
-0.991327, 145, 333, 208, 364
-0.991332, 201, 1, 264, 32
-0.991332, 265, 177, 328, 208
-0.991342, 145, 237, 208, 268
-0.991344, 97, 209, 352, 272
-0.991345, 81, 249, 144, 280
-0.991352, 129, 9, 384, 72
-0.991357, 289, 73, 352, 104
-0.991361, 153, 321, 216, 352
-0.991363, 169, 345, 232, 375
-0.991395, 409, 337, 472, 368
-0.991406, 57, 293, 120, 324
-0.991424, 401, 137, 464, 168
-0.991435, 9, 233, 72, 264
-0.991441, 353, 241, 384, 368
-0.991441, 401, 289, 464, 320
-0.991449, 281, 61, 344, 92
-0.991458, 121, 289, 184, 320
-0.991462, 65, 317, 128, 348
-0.991481, 105, 329, 168, 360
-0.991489, 177, 241, 240, 272
-0.991496, 433, 13, 496, 44
-0.991502, 217, 209, 280, 240
-0.991505, 137, 13, 200, 44
-0.991519, 121, 245, 184, 276
-0.991522, 153, 309, 216, 340
-0.991526, 257, 285, 320, 316
-0.991531, 433, 141, 496, 172
-0.991531, 393, 269, 456, 300
-0.991531, 177, 269, 240, 300
-0.991544, 25, 345, 88, 375
-0.991545, 369, 197, 432, 228
-0.991552, 265, 193, 328, 224
-0.991554, 385, 317, 448, 348
-0.99169, 293, 145, 324, 272
-0.991811, 421, 33, 452, 160
-0.991818, 49, 73, 176, 136
-0.991954, 365, 241, 396, 368
-0.99196, 273, 129, 400, 192
-0.991965, 229, 241, 260, 368
-0.991993, 237, 145, 268, 272
-0.992104, 269, 161, 300, 192
-0.992151, 321, 49, 352, 176
-0.992161, 389, 97, 420, 224
-0.992162, 321, 97, 448, 160
-0.992271, 281, 13, 312, 44
-0.992281, 269, 25, 300, 56
-0.992283, 1, 209, 500, 272
-0.992333, 253, 13, 284, 44
-0.992362, 253, 33, 284, 64
-0.992364, 169, 217, 200, 248
-0.992366, 289, 1, 320, 32
-0.992372, 289, 25, 320, 56
-0.992408, 93, 17, 124, 48
-0.992435, 17, 17, 48, 144
-0.992439, 77, 1, 108, 32
-0.992448, 389, 49, 420, 176
-0.992455, 213, 25, 244, 56
-0.992478, 97, 241, 128, 368
-0.992506, 77, 17, 108, 48
-0.992518, 297, 13, 328, 44
-0.992537, 265, 1, 296, 32
-0.992549, 273, 37, 304, 68
-0.992552, 293, 205, 324, 236
-0.992554, 409, 209, 440, 240
-0.992557, 113, 25, 144, 56
-0.992559, 173, 197, 204, 228
-0.99256, 205, 41, 236, 72
-0.992562, 241, 21, 272, 52
-0.992579, 153, 229, 184, 260
-0.992581, 97, 29, 128, 60
-0.992585, 17, 113, 144, 176
-0.9926, 41, 261, 72, 292
-0.992638, 225, 33, 256, 64
-0.992639, 425, 213, 456, 244
-0.992649, 269, 13, 300, 44
-0.992655, 421, 285, 452, 316
-0.992663, 1, 225, 256, 288
-0.992665, 241, 65, 272, 96
-0.992674, 281, 141, 312, 172
-0.992683, 33, 33, 288, 96
-0.992707, 269, 173, 300, 204
-0.99271, 241, 1, 272, 32
-0.992712, 417, 265, 448, 296
-0.992717, 301, 37, 332, 68
-0.992722, 301, 1, 332, 32
-0.992735, 17, 261, 48, 292
-0.99274, 37, 293, 68, 324
-0.992742, 121, 37, 152, 68
-0.992744, 165, 237, 196, 268
-0.992746, 257, 45, 288, 76
-0.992749, 421, 297, 452, 328
-0.992754, 273, 209, 304, 240
-0.992757, 193, 41, 224, 72
-0.992771, 309, 21, 340, 52
-0.992772, 273, 153, 288, 216
-0.992776, 17, 273, 48, 304
-0.992777, 165, 185, 196, 216
-0.99278, 449, 213, 480, 244
-0.992793, 385, 201, 416, 232
-0.992793, 101, 5, 132, 36
-0.992794, 293, 65, 324, 96
-0.992799, 437, 213, 468, 244
-0.992799, 305, 209, 336, 240
-0.992799, 253, 1, 284, 32
-0.99281, 185, 21, 216, 52
-0.992812, 61, 25, 92, 56
-0.992819, 269, 189, 300, 220
-0.992819, 289, 53, 320, 84
-0.992828, 241, 33, 272, 64
-0.992829, 81, 33, 112, 64
-0.992835, 189, 285, 220, 316
-0.992837, 57, 297, 88, 328
-0.99284, 129, 1, 160, 32
-0.99284, 169, 253, 200, 284
-0.992846, 133, 17, 164, 48
-0.992851, 409, 333, 440, 364
-0.992853, 185, 201, 216, 232
-0.992853, 1, 237, 32, 268
-0.992856, 41, 277, 72, 308
-0.992862, 53, 249, 84, 280
-0.992862, 205, 281, 236, 312
-0.992871, 37, 309, 68, 340
-0.992876, 69, 229, 100, 260
-0.992883, 77, 261, 108, 292
-0.992891, 253, 209, 284, 240
-0.992893, 169, 45, 200, 76
-0.992897, 317, 57, 348, 88
-0.992897, 409, 1, 440, 128
-0.992898, 237, 45, 268, 76
-0.992899, 285, 221, 316, 252
-0.9929, 109, 37, 140, 68
-0.9929, 225, 21, 256, 52
-0.992901, 65, 261, 96, 292
-0.992905, 285, 241, 316, 368
-0.992906, 133, 45, 164, 76
-0.992909, 197, 209, 228, 240
-0.992912, 153, 213, 184, 244
-0.992912, 17, 289, 48, 320
-0.992918, 257, 57, 288, 88
-0.992921, 413, 241, 444, 272
-0.992928, 301, 77, 332, 108
-0.99293, 277, 1, 308, 32
-0.99293, 65, 281, 96, 312
-0.992931, 237, 77, 268, 108
-0.992931, 137, 33, 168, 64
-0.992933, 425, 245, 456, 276
-0.992936, 41, 249, 72, 280
-0.992938, 101, 49, 132, 80
-0.99294, 49, 321, 80, 352
-0.992941, 37, 321, 68, 352
-0.992941, 117, 13, 148, 44
-0.992944, 201, 29, 232, 60
-0.992945, 397, 341, 428, 372
-0.992951, 421, 313, 452, 344
-0.992951, 413, 253, 444, 284
-0.992955, 409, 293, 440, 324
-0.992965, 189, 1, 220, 32
-0.992965, 149, 37, 180, 68
-0.992966, 173, 17, 204, 48
-0.99297, 441, 309, 472, 340
-0.992971, 433, 297, 464, 328
-0.992975, 445, 1, 476, 32
-0.99298, 129, 225, 160, 256
-0.992981, 433, 229, 464, 260
-0.992989, 41, 337, 72, 368
-0.992997, 177, 285, 208, 316
-0.993, 157, 257, 188, 288
-0.993002, 381, 213, 412, 244
-0.993005, 145, 273, 176, 304
-0.993008, 437, 281, 468, 312
-0.993008, 313, 33, 344, 64
-0.993011, 69, 41, 100, 72
-0.993013, 45, 33, 76, 64
-0.993013, 189, 273, 220, 304
-0.993014, 401, 321, 432, 352
-0.993014, 389, 309, 420, 340
-0.993016, 77, 249, 108, 280
-0.993024, 265, 149, 296, 180
-0.993025, 153, 241, 184, 272
-0.993026, 81, 229, 112, 260
-0.993028, 429, 257, 460, 288
-0.993034, 357, 245, 388, 276
-0.993039, 109, 257, 140, 288
-0.993071, 313, 97, 376, 224
-0.9931, 117, 161, 148, 288
-0.993109, 33, 1, 288, 64
-0.993138, 345, 49, 376, 176
-0.993211, 385, 1, 416, 128
-0.99324, 177, 129, 208, 256
-0.993265, 369, 153, 496, 216
-0.993279, 193, 33, 448, 96
-0.993324, 429, 81, 460, 208
-0.993343, 257, 25, 272, 88
-0.993347, 193, 129, 320, 192
-0.993356, 257, 1, 500, 64
-0.99336, 269, 97, 300, 224
-0.993379, 97, 57, 352, 120
-0.99342, 385, 241, 416, 368
-0.993423, 169, 49, 200, 176
-0.993429, 217, 49, 248, 176
-0.993431, 257, 1, 272, 64
-0.993671, 321, 129, 448, 192
-0.993728, 1, 313, 256, 375
-0.993782, 225, 297, 480, 360
-0.993795, 273, 105, 400, 168
-0.993819, 175, 209, 190, 272
-0.993841, 1, 305, 500, 368
-0.993877, 97, 313, 352, 375
-0.993887, 179, 185, 194, 248
-0.99389, 65, 145, 192, 208
-0.993894, 285, 9, 300, 72
-0.993898, 1, 273, 256, 336
-0.993943, 293, 1, 308, 64
-0.993981, 209, 17, 336, 48
-0.994115, 247, 41, 262, 104
-0.994189, 1, 81, 128, 144
-0.994224, 215, 1, 230, 64
-0.994249, 289, 209, 416, 240
-0.994254, 225, 89, 352, 152
-0.994269, 263, 1, 278, 64
-0.994291, 437, 209, 452, 272
-0.994295, 247, 1, 262, 64
-0.994358, 113, 17, 240, 48
-0.994398, 1, 185, 128, 248
-0.994402, 1, 185, 500, 248
-0.994446, 221, 25, 236, 88
-0.994483, 293, 25, 308, 88
-0.994522, 193, 37, 320, 68
-0.994566, 237, 41, 252, 104
-0.994587, 85, 249, 100, 312
-0.994604, 17, 261, 144, 292
-0.994619, 275, 1, 290, 64
-0.994645, 177, 213, 304, 244
-0.994682, 79, 257, 94, 320
-0.994692, 169, 209, 184, 272
-0.994698, 313, 1, 328, 64
-0.994699, 303, 1, 318, 64
-0.994702, 185, 185, 200, 248
-0.99473, 33, 249, 288, 312
-0.994734, 277, 185, 292, 248
-0.994753, 1, 273, 128, 304
-0.99477, 295, 201, 310, 264
-0.994778, 231, 25, 246, 88
-0.994794, 269, 9, 284, 72
-0.994821, 193, 1, 320, 32
-0.994877, 1, 193, 256, 256
-0.994885, 277, 129, 292, 192
-0.994941, 177, 257, 192, 320
-0.994954, 299, 41, 314, 104
-0.994955, 431, 257, 446, 320
-0.994962, 257, 49, 272, 112
-0.99498, 33, 249, 160, 280
-0.994986, 161, 25, 288, 56
-0.99499, 1, 309, 128, 340
-0.995016, 369, 213, 496, 244
-0.99507, 167, 233, 182, 296
-0.995071, 49, 37, 176, 68
-0.995107, 241, 209, 368, 240
-0.995107, 319, 25, 334, 88
-0.995112, 33, 325, 160, 356
-0.995135, 1, 49, 128, 176
-0.995155, 193, 57, 448, 120
-0.99517, 271, 177, 286, 240
-0.995174, 1, 285, 128, 316
-0.99518, 97, 273, 352, 336
-0.995185, 257, 21, 384, 52
-0.995195, 131, 9, 146, 72
-0.995195, 99, 1, 114, 64
-0.995203, 141, 17, 156, 80
-0.995207, 79, 233, 94, 296
-0.995215, 471, 49, 486, 112
-0.99522, 97, 253, 224, 284
-0.995226, 63, 257, 78, 320
-0.995228, 429, 217, 444, 280
-0.995235, 289, 201, 304, 264
-0.995284, 173, 169, 188, 232
-0.995289, 433, 281, 448, 344
-0.99529, 145, 41, 272, 72
-0.995308, 419, 209, 434, 272
-0.995323, 263, 49, 278, 112
-0.995336, 161, 177, 416, 240
-0.995355, 87, 273, 102, 336
-0.995358, 65, 237, 192, 268
-0.995359, 161, 209, 176, 272
-0.995378, 361, 201, 376, 264
-0.995382, 1, 241, 500, 304
-0.995383, 113, 113, 176, 240
-0.995401, 231, 49, 246, 112
-0.995409, 11, 233, 26, 296
-0.995424, 281, 161, 296, 224
-0.99543, 347, 201, 362, 264
-0.995466, 305, 201, 320, 264
-0.995473, 411, 209, 426, 272
-0.995478, 41, 257, 56, 320
-0.995487, 277, 25, 292, 88
-0.995492, 69, 233, 84, 296
-0.995494, 33, 225, 160, 256
-0.995508, 257, 273, 500, 336
-0.99551, 167, 185, 182, 248
-0.995512, 121, 1, 136, 64
-0.995525, 65, 269, 192, 300
-0.995533, 257, 9, 384, 40
-0.995549, 187, 209, 202, 272
-0.995563, 209, 201, 224, 264
-0.995575, 113, 301, 240, 332
-0.995576, 209, 49, 336, 80
-0.9956, 397, 209, 412, 272
-0.995603, 93, 257, 108, 320
-0.995634, 255, 201, 270, 264
-0.99564, 167, 9, 182, 72
-0.995657, 287, 41, 302, 104
-0.995668, 1, 237, 128, 268
-0.99567, 329, 41, 344, 104
-0.995681, 265, 185, 280, 248
-0.995696, 73, 257, 88, 320
-0.995697, 369, 301, 496, 332
-0.995729, 129, 233, 384, 296
-0.995749, 355, 201, 370, 264
-0.995753, 263, 25, 278, 88
-0.995757, 129, 209, 256, 240
-0.995775, 161, 233, 176, 296
-0.995779, 191, 1, 206, 64
-0.995782, 81, 5, 208, 36
-0.995788, 257, 177, 500, 240
-0.995794, 171, 257, 186, 320
-0.995812, 49, 309, 176, 340
-0.995831, 57, 257, 72, 320
-0.995839, 39, 313, 54, 375
-0.995839, 131, 41, 146, 104
-0.995842, 1, 341, 128, 372
-0.995849, 97, 29, 224, 60
-0.995852, 63, 281, 78, 344
-0.995854, 177, 69, 304, 100
-0.995864, 381, 209, 396, 272
-0.995868, 223, 209, 238, 272
-0.995875, 241, 37, 368, 68
-0.995881, 155, 17, 170, 80
-0.995894, 145, 313, 272, 344
-0.995894, 439, 297, 454, 360
-0.9959, 185, 1, 200, 64
-0.99591, 161, 41, 176, 104
-0.995916, 177, 233, 192, 296
-0.995917, 321, 317, 448, 348
-0.995922, 145, 1, 272, 32
-0.995922, 201, 273, 216, 336
-0.995934, 477, 209, 492, 272
-0.995946, 1, 297, 128, 328
-0.995951, 265, 33, 296, 288
-0.995952, 145, 253, 272, 284
-0.995962, 145, 285, 272, 316
-0.995964, 367, 201, 382, 264
-0.995972, 147, 17, 162, 80
-0.995978, 221, 1, 236, 64
-0.99598, 391, 185, 406, 248
-0.995987, 237, 209, 252, 272
-0.995991, 65, 97, 192, 160
-0.995992, 327, 209, 342, 272
-0.995994, 283, 201, 298, 264
-0.996, 161, 17, 176, 80
-0.996009, 97, 345, 224, 375
-0.996038, 151, 225, 166, 288
-0.996049, 201, 17, 216, 80
-0.99606, 375, 201, 390, 264
-0.996061, 163, 273, 178, 336
-0.99607, 483, 209, 498, 272
-0.996075, 391, 209, 406, 272
-0.996078, 17, 21, 144, 52
-0.996083, 477, 49, 492, 112
-0.996086, 185, 273, 200, 336
-0.99609, 183, 241, 198, 304
-0.996091, 97, 225, 224, 256
-0.996096, 237, 73, 252, 136
-0.996108, 65, 17, 192, 48
-0.996119, 423, 257, 438, 320
-0.996136, 229, 209, 244, 272
-0.996145, 333, 201, 348, 264
-0.996173, 113, 237, 240, 268
-0.996178, 97, 49, 224, 80
-0.99618, 79, 1, 94, 64
-0.996186, 81, 213, 208, 244
-0.996188, 265, 129, 296, 375
-0.996194, 87, 1, 102, 64
-0.996196, 65, 289, 192, 320
-0.996206, 125, 25, 140, 88
-0.996216, 309, 25, 324, 88
-0.996218, 177, 97, 304, 160
-0.996227, 461, 209, 476, 272
-0.996231, 93, 1, 108, 64
-0.996233, 59, 217, 74, 280
-0.99624, 319, 49, 334, 112
-0.99624, 87, 225, 102, 288
-0.996244, 285, 33, 316, 288
-0.996255, 479, 9, 494, 72
-0.996263, 209, 41, 224, 104
-0.996273, 241, 61, 368, 92
-0.996275, 179, 17, 194, 80
-0.996281, 449, 1, 464, 64
-0.996281, 293, 49, 308, 112
-0.996287, 471, 209, 486, 272
-0.996297, 225, 49, 240, 112
-0.996302, 321, 209, 336, 272
-0.996304, 1, 1, 500, 64
-0.996305, 211, 273, 226, 336
-0.996319, 1, 281, 500, 344
-0.99632, 195, 273, 210, 336
-0.996323, 305, 297, 432, 328
-0.996333, 243, 209, 258, 272
-0.996349, 239, 17, 254, 80
-0.99635, 129, 145, 256, 208
-0.996372, 193, 325, 320, 356
-0.996429, 113, 273, 240, 304
-0.996471, 145, 345, 272, 375
-0.996477, 193, 301, 320, 332
-0.996496, 113, 113, 240, 176
-0.996497, 249, 1, 280, 256
-0.996503, 337, 337, 464, 368
-0.996506, 97, 333, 224, 364
-0.996511, 193, 81, 448, 144
-0.996552, 369, 313, 496, 344
-0.996557, 241, 73, 368, 104
-0.996565, 353, 289, 480, 320
-0.996569, 1, 25, 500, 88
-0.996571, 437, 129, 468, 375
-0.996579, 337, 201, 464, 232
-0.996625, 289, 57, 416, 88
-0.996713, 177, 173, 304, 204
-0.996717, 369, 1, 496, 32
-0.996721, 241, 157, 368, 188
-0.996735, 277, 157, 292, 188
-0.996739, 305, 9, 432, 40
-0.996743, 193, 201, 320, 232
-0.996748, 289, 73, 416, 104
-0.996771, 1, 49, 128, 80
-0.99678, 369, 21, 496, 52
-0.996799, 49, 97, 112, 224
-0.996809, 193, 157, 320, 188
-0.99684, 161, 13, 288, 44
-0.996843, 257, 313, 384, 344
-0.996846, 145, 57, 272, 88
-0.996863, 33, 169, 288, 232
-0.99691, 309, 65, 340, 320
-0.996912, 49, 341, 176, 372
-0.996921, 353, 129, 480, 160
-0.99695, 273, 21, 288, 52
-0.996981, 137, 97, 200, 224
-0.996993, 1, 1, 128, 32
-0.996994, 97, 313, 224, 344
-0.997001, 289, 197, 416, 228
-0.997003, 97, 189, 224, 220
-0.997042, 321, 153, 448, 216
-0.997047, 289, 41, 416, 72
-0.997047, 305, 1, 320, 32
-0.997052, 65, 129, 96, 375
-0.997053, 1, 57, 256, 120
-0.997057, 237, 33, 268, 288
-0.997073, 145, 325, 272, 356
-0.997075, 145, 197, 272, 228
-0.997091, 243, 65, 258, 96
-0.997091, 289, 13, 304, 44
-0.997099, 369, 325, 496, 356
-0.997129, 179, 189, 194, 220
-0.997133, 253, 45, 268, 76
-0.997139, 353, 101, 480, 132
-0.997149, 253, 65, 268, 96
-0.997156, 241, 225, 368, 256
-0.997167, 289, 341, 416, 372
-0.997172, 299, 1, 314, 32
-0.997181, 49, 49, 176, 80
-0.997183, 97, 21, 112, 52
-0.997191, 305, 21, 432, 52
-0.997197, 283, 13, 298, 44
-0.997204, 263, 37, 278, 68
-0.997219, 247, 25, 262, 56
-0.997225, 193, 337, 320, 368
-0.997232, 337, 113, 464, 144
-0.997244, 255, 21, 270, 52
-0.997265, 257, 33, 272, 64
-0.997274, 193, 189, 320, 220
-0.997275, 261, 17, 276, 48
-0.997283, 175, 213, 190, 244
-0.997288, 437, 213, 452, 244
-0.997296, 299, 21, 314, 52
-0.997312, 145, 225, 272, 256
-0.997315, 69, 33, 100, 288
-0.997318, 291, 205, 306, 236
-0.99732, 241, 169, 368, 200
-0.997328, 225, 225, 480, 288
-0.997347, 165, 221, 180, 252
-0.99735, 257, 137, 500, 200
-0.997353, 81, 61, 208, 92
-0.997353, 281, 25, 296, 56
-0.997365, 273, 141, 400, 172
-0.997394, 1, 161, 500, 224
-0.997398, 289, 117, 416, 148
-0.997405, 417, 129, 448, 375
-0.997407, 1, 33, 128, 64
-0.997414, 117, 29, 132, 60
-0.997419, 241, 193, 368, 224
-0.997421, 307, 13, 322, 44
-0.997424, 187, 201, 202, 232
-0.99744, 325, 65, 356, 320
-0.997443, 233, 37, 248, 68
-0.997445, 193, 313, 320, 344
-0.997452, 337, 73, 464, 104
-0.997452, 273, 237, 400, 268
-0.997458, 259, 61, 274, 92
-0.997463, 225, 41, 240, 72
-0.997464, 419, 209, 434, 240
-0.99749, 259, 5, 274, 36
-0.997492, 337, 277, 464, 308
-0.997492, 17, 129, 48, 375
-0.997495, 169, 209, 184, 240
-0.997496, 297, 65, 328, 320
-0.997499, 291, 1, 306, 32
-0.997499, 273, 173, 288, 204
-0.997508, 393, 201, 408, 232
-0.99751, 273, 249, 400, 280
-0.997516, 239, 45, 254, 76
-0.997534, 321, 253, 448, 284
-0.997536, 271, 153, 286, 184
-0.997537, 433, 285, 448, 316
-0.997542, 295, 33, 310, 64
-0.997542, 241, 345, 368, 375
-0.997548, 457, 33, 488, 288
-0.99755, 1, 97, 500, 160
-0.997556, 373, 97, 404, 352
-0.997556, 267, 17, 282, 48
-0.997563, 247, 53, 262, 84
-0.99758, 269, 1, 284, 32
-0.997592, 449, 129, 480, 375
-0.997594, 257, 301, 384, 332
-0.997613, 337, 225, 464, 256
-0.997616, 79, 261, 94, 292
-0.997621, 173, 129, 204, 375
-0.997622, 173, 261, 188, 292
-0.997627, 47, 17, 62, 48
-0.997635, 89, 1, 104, 32
-0.997645, 181, 33, 212, 288
-0.997653, 469, 129, 500, 375
-0.997659, 201, 37, 216, 68
-0.997661, 129, 73, 256, 104
-0.997664, 147, 1, 162, 32
-0.997669, 171, 233, 186, 264
-0.997672, 273, 41, 288, 72
-0.997674, 217, 21, 232, 52
-0.997674, 369, 245, 496, 276
-0.997676, 191, 41, 206, 72
-0.997682, 193, 289, 320, 320
-0.997682, 435, 297, 450, 328
-0.997682, 289, 329, 416, 360
-0.997687, 253, 129, 284, 375
-0.997687, 289, 33, 304, 64
-0.99769, 233, 53, 248, 84
-0.997702, 369, 49, 496, 80
-0.997708, 273, 281, 400, 312
-0.997709, 211, 29, 226, 60
-0.997711, 229, 25, 244, 56
-0.997713, 177, 241, 304, 272
-0.997717, 305, 25, 320, 56
-0.997718, 431, 265, 446, 296
-0.99772, 287, 137, 302, 168
-0.997721, 81, 1, 112, 256
-0.997725, 89, 261, 104, 292
-0.997731, 289, 85, 416, 116
-0.997732, 1, 117, 128, 148
-0.997733, 413, 333, 428, 364
-0.997735, 189, 129, 220, 375
-0.997738, 191, 285, 206, 316
-0.997739, 139, 29, 154, 60
-0.99774, 119, 17, 134, 48
-0.997758, 239, 77, 254, 108
-0.997763, 209, 273, 336, 304
-0.997778, 281, 209, 296, 240
-0.997786, 263, 49, 278, 80
-0.997786, 181, 253, 196, 284
-0.997788, 295, 49, 310, 80
-0.997801, 271, 193, 286, 224
-0.997809, 209, 129, 240, 375
-0.997813, 145, 185, 272, 216
-0.997815, 369, 141, 496, 172
-0.997821, 247, 77, 262, 108
-0.997829, 225, 65, 256, 320
-0.997829, 199, 21, 214, 52
-0.997836, 277, 9, 292, 40
-0.997841, 301, 205, 316, 236
-0.997842, 429, 217, 444, 248
-0.997843, 67, 21, 82, 52
-0.997843, 43, 265, 58, 296
-0.997845, 369, 37, 496, 68
-0.997847, 257, 113, 500, 176
-0.997851, 73, 37, 88, 68
-0.997852, 105, 45, 120, 76
-0.997856, 45, 129, 76, 375
-0.997857, 253, 1, 268, 32
-0.997859, 129, 13, 144, 44
-0.997863, 163, 209, 178, 240
-0.997865, 429, 245, 444, 276
-0.997867, 197, 281, 212, 312
-0.997869, 311, 1, 326, 32
-0.997875, 207, 41, 222, 72
-0.997877, 387, 201, 402, 232
-0.997878, 215, 1, 230, 32
-0.997879, 281, 189, 296, 220
-0.99788, 241, 181, 368, 212
-0.997884, 293, 221, 308, 252
-0.997885, 315, 21, 330, 52
-0.997886, 317, 1, 332, 32
-0.997893, 217, 41, 232, 72
-0.997897, 237, 65, 252, 96
-0.997898, 223, 25, 238, 56
-0.997899, 87, 273, 102, 304
-0.997905, 17, 65, 144, 96
-0.997907, 225, 249, 352, 280
-0.997907, 193, 17, 208, 48
-0.997907, 241, 21, 256, 52
-0.997907, 115, 41, 130, 72
-0.997913, 357, 33, 388, 288
-0.997916, 267, 205, 282, 236
-0.997918, 337, 97, 368, 352
-0.997921, 101, 9, 116, 40
-0.997921, 241, 33, 256, 64
-0.997923, 171, 249, 186, 280
-0.99793, 423, 277, 438, 308
-0.997931, 73, 229, 88, 260
-0.997931, 95, 1, 110, 32
-0.997933, 469, 37, 484, 68
-0.997938, 41, 337, 56, 368
-0.99794, 9, 261, 24, 292
-0.99794, 77, 129, 108, 375
-0.997941, 369, 85, 496, 116
-0.997947, 165, 241, 180, 272
-0.997949, 193, 33, 224, 288
-0.997951, 447, 1, 462, 32
-0.997952, 311, 73, 326, 104
-0.997959, 289, 45, 304, 76
-0.997966, 145, 13, 160, 44
-0.997967, 159, 229, 174, 260
-0.997969, 237, 129, 268, 375
-0.99797, 247, 13, 262, 44
-0.997971, 147, 37, 162, 68
-0.997974, 141, 33, 172, 288
-0.997977, 153, 129, 184, 375
-0.997979, 301, 37, 316, 68
-0.99798, 451, 141, 466, 172
-0.99798, 73, 17, 88, 48
-0.997981, 139, 1, 154, 32
-0.997981, 181, 201, 196, 232
-0.997991, 139, 41, 154, 72
-0.997997, 109, 25, 124, 56
-0.998005, 235, 17, 250, 48
-0.99801, 207, 281, 222, 312
-0.998014, 337, 265, 464, 296
-0.998018, 67, 249, 82, 280
-0.998018, 413, 289, 428, 320
-0.998023, 41, 277, 56, 308
-0.998025, 81, 177, 208, 208
-0.998027, 89, 249, 104, 280
-0.998051, 169, 33, 200, 288
-0.998055, 281, 129, 312, 375
-0.998061, 257, 249, 500, 312
-0.998079, 161, 265, 288, 296
-0.998084, 241, 325, 368, 356
-0.998092, 81, 201, 208, 232
-0.998095, 113, 89, 240, 152
-0.998103, 425, 33, 456, 288
-0.998108, 321, 141, 448, 172
-0.998119, 129, 33, 160, 288
-0.99815, 393, 65, 424, 320
-0.998213, 437, 1, 468, 256
-0.998269, 357, 129, 388, 375
-0.998282, 137, 129, 168, 375
-0.998294, 89, 129, 120, 375
-0.998297, 1, 129, 32, 375
-0.9983, 125, 129, 156, 375
-0.998316, 65, 121, 192, 184
-0.998325, 37, 33, 68, 288
-0.998325, 157, 33, 188, 288
-0.998338, 161, 97, 224, 224
-0.998343, 469, 1, 500, 256
-0.998377, 1, 121, 500, 184
-0.998421, 249, 29, 312, 44
-0.998421, 209, 33, 240, 288
-0.998426, 217, 35, 280, 50
-0.998429, 149, 9, 180, 24
-0.998429, 297, 17, 328, 32
-0.998429, 249, 211, 280, 226
-0.99843, 125, 21, 156, 36
-0.998431, 377, 213, 408, 228
-0.998432, 37, 331, 68, 346
-0.998432, 197, 17, 228, 32
-0.998432, 17, 277, 48, 292
-0.998433, 41, 263, 72, 278
-0.998433, 141, 15, 172, 30
-0.998433, 425, 253, 456, 268
-0.998434, 417, 261, 448, 276
-0.998435, 149, 33, 180, 48
-0.998435, 81, 279, 112, 294
-0.998437, 169, 189, 200, 204
-0.998437, 189, 285, 220, 300
-0.998438, 25, 5, 56, 20
-0.998438, 169, 41, 200, 56
-0.998438, 401, 211, 432, 226
-0.998438, 301, 43, 332, 58
-0.998439, 169, 49, 200, 64
-0.998439, 129, 39, 160, 54
-0.998439, 425, 223, 456, 238
-0.998439, 17, 265, 48, 280
-0.99844, 413, 309, 444, 324
-0.998441, 57, 29, 88, 44
-0.998441, 289, 71, 320, 86
-0.998444, 417, 281, 448, 296
-0.998445, 417, 267, 448, 282
-0.998445, 321, 51, 352, 66
-0.998446, 65, 37, 96, 52
-0.998446, 425, 317, 456, 332
-0.998447, 41, 53, 72, 68
-0.998449, 265, 203, 296, 218
-0.99845, 85, 21, 116, 36
-0.99845, 265, 7, 328, 22
-0.99845, 113, 33, 144, 288
-0.99845, 137, 21, 168, 36
-0.99845, 289, 59, 320, 74
-0.99845, 225, 41, 288, 56
-0.998451, 417, 275, 448, 290
-0.998451, 301, 53, 332, 68
-0.998451, 213, 29, 244, 44
-0.998452, 169, 259, 200, 274
-0.998453, 297, 37, 328, 52
-0.998453, 181, 255, 212, 270
-0.998454, 17, 271, 48, 286
-0.998455, 245, 25, 276, 40
-0.998456, 169, 253, 200, 268
-0.998456, 257, 35, 320, 50
-0.998457, 149, 229, 180, 244
-0.998458, 189, 35, 220, 50
-0.998458, 77, 9, 108, 24
-0.998458, 269, 23, 300, 38
-0.998459, 389, 209, 420, 224
-0.998459, 301, 31, 332, 46
-0.998459, 161, 183, 192, 198
-0.99846, 257, 163, 320, 178
-0.99846, 117, 41, 148, 56
-0.998461, 77, 263, 108, 278
-0.998461, 425, 303, 456, 318
-0.998462, 305, 9, 336, 24
-0.998462, 305, 1, 336, 16
-0.998462, 233, 81, 264, 96
-0.998463, 421, 287, 452, 302
-0.998465, 81, 37, 112, 52
-0.998466, 165, 223, 196, 238
-0.99847, 193, 211, 224, 226
-0.998472, 277, 143, 308, 158
-0.998472, 265, 41, 296, 56
-0.998472, 129, 31, 160, 46
-0.998473, 1, 345, 64, 360
-0.998473, 69, 45, 100, 60
-0.998474, 249, 19, 312, 34
-0.998474, 153, 45, 184, 60
-0.998476, 229, 19, 260, 34
-0.998476, 1, 307, 64, 322
-0.998477, 421, 293, 452, 308
-0.998478, 273, 7, 304, 22
-0.998478, 417, 329, 448, 344
-0.998479, 233, 35, 264, 50
-0.99848, 253, 17, 284, 32
-0.998482, 177, 209, 208, 224
-0.998484, 241, 13, 304, 28
-0.998485, 265, 13, 328, 28
-0.998486, 289, 29, 352, 44
-0.998486, 273, 13, 304, 28
-0.998486, 201, 43, 232, 58
-0.998487, 309, 59, 340, 74
-0.998487, 33, 257, 96, 272
-0.998488, 157, 213, 188, 228
-0.998488, 437, 215, 468, 230
-0.998489, 185, 43, 248, 58
-0.998489, 289, 53, 320, 68
-0.998489, 37, 309, 68, 324
-0.998489, 249, 47, 280, 62
-0.998491, 129, 13, 160, 28
-0.998492, 265, 1, 328, 16
-0.998495, 281, 1, 312, 16
-0.998497, 97, 21, 128, 36
-0.998497, 97, 29, 128, 44
-0.998497, 269, 179, 300, 194
-0.998499, 233, 73, 264, 88
-0.998501, 425, 215, 456, 230
-0.998501, 173, 203, 204, 218
-0.998501, 185, 15, 216, 30
-0.998502, 209, 37, 240, 52
-0.998502, 9, 275, 72, 290
-0.998503, 73, 21, 136, 36
-0.998503, 401, 213, 464, 228
-0.998505, 241, 71, 304, 86
-0.998506, 245, 75, 276, 90
-0.998506, 313, 27, 344, 42
-0.998507, 81, 15, 112, 30
-0.998507, 237, 47, 268, 62
-0.998508, 221, 45, 252, 60
-0.998509, 73, 275, 136, 290
-0.99851, 25, 317, 88, 332
-0.998511, 129, 43, 192, 58
-0.998513, 141, 39, 172, 54
-0.998513, 1, 301, 64, 316
-0.998513, 161, 219, 224, 234
-0.998513, 265, 209, 328, 224
-0.998513, 201, 7, 264, 22
-0.998513, 277, 29, 308, 44
-0.998513, 241, 13, 272, 28
-0.998514, 241, 7, 304, 22
-0.998514, 33, 299, 96, 314
-0.998514, 257, 169, 320, 184
-0.998515, 33, 305, 96, 320
-0.998515, 101, 11, 132, 26
-0.998517, 1, 339, 64, 354
-0.998518, 281, 39, 312, 54
-0.998518, 185, 13, 248, 28
-0.998519, 105, 31, 168, 46
-0.998519, 89, 9, 152, 24
-0.998519, 225, 29, 288, 44
-0.99852, 113, 17, 176, 32
-0.998521, 289, 9, 352, 24
-0.998521, 1, 353, 64, 368
-0.998522, 281, 19, 312, 34
-0.998523, 33, 281, 96, 296
-0.998523, 289, 207, 320, 222
-0.998524, 9, 327, 72, 342
-0.998524, 1, 317, 64, 332
-0.998525, 285, 223, 316, 238
-0.998525, 281, 51, 344, 66
-0.998525, 265, 47, 296, 62
-0.998527, 249, 3, 280, 18
-0.99853, 249, 41, 312, 56
-0.99853, 297, 1, 360, 16
-0.998531, 273, 23, 336, 38
-0.998531, 9, 281, 72, 296
-0.998531, 153, 47, 216, 62
-0.998531, 413, 213, 444, 228
-0.998532, 241, 65, 304, 80
-0.998532, 225, 23, 288, 38
-0.998533, 261, 7, 292, 22
-0.998533, 33, 287, 96, 302
-0.998534, 241, 77, 304, 92
-0.998534, 57, 231, 120, 246
-0.998536, 265, 157, 296, 172
-0.998536, 33, 269, 96, 284
-0.998537, 293, 1, 324, 16
-0.998537, 9, 295, 72, 310
-0.998537, 281, 59, 344, 74
-0.998538, 57, 13, 120, 28
-0.998539, 201, 67, 264, 82
-0.998539, 297, 77, 328, 92
-0.998541, 113, 33, 144, 48
-0.998541, 225, 47, 288, 62
-0.998541, 1, 263, 64, 278
-0.998542, 281, 43, 344, 58
-0.998542, 281, 35, 344, 50
-0.998544, 33, 263, 96, 278
-0.998546, 329, 209, 392, 224
-0.998546, 257, 53, 320, 68
-0.998546, 41, 1, 104, 16
-0.998547, 233, 161, 296, 176
-0.998547, 129, 35, 192, 50
-0.998548, 25, 311, 88, 326
-0.998549, 97, 271, 160, 286
-0.998549, 9, 269, 72, 284
-0.99855, 185, 37, 248, 52
-0.99855, 1, 359, 64, 374
-0.998551, 25, 23, 88, 38
-0.998551, 169, 253, 232, 268
-0.998552, 161, 17, 224, 32
-0.998552, 57, 27, 120, 42
-0.998552, 241, 213, 304, 228
-0.998552, 137, 259, 200, 274
-0.998553, 57, 309, 120, 324
-0.998554, 89, 15, 152, 30
-0.998554, 265, 169, 296, 184
-0.998554, 297, 23, 328, 38
-0.998555, 417, 297, 480, 312
-0.998556, 265, 33, 296, 48
-0.998556, 33, 293, 96, 308
-0.998556, 161, 35, 224, 50
-0.998557, 293, 7, 324, 22
-0.998557, 405, 129, 436, 375
-0.998558, 9, 333, 72, 348
-0.998558, 361, 207, 424, 222
-0.99856, 145, 11, 208, 26
-0.998561, 257, 23, 288, 38
-0.998563, 401, 313, 464, 328
-0.998563, 433, 13, 496, 28
-0.998563, 89, 45, 152, 60
-0.998563, 313, 31, 376, 46
-0.998564, 113, 25, 176, 40
-0.998564, 225, 1, 288, 16
-0.998565, 321, 57, 352, 72
-0.998568, 201, 1, 264, 16
-0.998568, 285, 13, 316, 28
-0.998569, 385, 343, 448, 358
-0.998569, 217, 73, 280, 88
-0.998569, 185, 49, 248, 64
-0.99857, 33, 275, 96, 290
-0.99857, 235, 1, 250, 128
-0.998571, 153, 287, 216, 302
-0.998571, 17, 251, 80, 266
-0.998571, 185, 31, 248, 46
-0.998571, 233, 167, 296, 182
-0.998572, 137, 271, 200, 286
-0.998573, 257, 225, 320, 240
-0.998574, 297, 77, 360, 92
-0.998574, 73, 263, 136, 278
-0.998575, 393, 303, 456, 318
-0.998575, 121, 51, 184, 66
-0.998576, 221, 39, 252, 54
-0.998576, 257, 177, 320, 192
-0.998576, 153, 293, 216, 308
-0.998577, 25, 31, 88, 46
-0.998577, 25, 37, 88, 52
-0.998578, 1, 257, 64, 272
-0.998579, 65, 43, 128, 58
-0.99858, 245, 69, 276, 84
-0.99858, 137, 17, 200, 32
-0.99858, 1, 287, 64, 302
-0.998581, 289, 17, 352, 32
-0.998581, 425, 217, 488, 232
-0.998581, 297, 23, 360, 38
-0.998582, 81, 33, 144, 48
-0.998582, 265, 75, 328, 90
-0.998582, 177, 1, 240, 16
-0.998583, 217, 17, 280, 32
-0.998584, 289, 31, 320, 46
-0.998587, 187, 193, 202, 320
-0.998588, 113, 1, 176, 16
-0.998588, 49, 19, 112, 34
-0.998589, 65, 253, 128, 268
-0.99859, 257, 185, 320, 200
-0.99859, 257, 203, 320, 218
-0.99859, 137, 253, 200, 268
-0.99859, 433, 129, 496, 144
-0.998591, 305, 59, 368, 74
-0.998597, 233, 27, 264, 42
-0.998598, 273, 145, 288, 272
-0.998598, 245, 35, 276, 50
-0.998604, 169, 217, 200, 232
-0.998604, 233, 41, 264, 56
-0.998623, 251, 1, 266, 128
-0.99864, 265, 163, 296, 178
-0.998674, 253, 41, 284, 56
-0.998683, 175, 193, 190, 320
-0.998724, 165, 209, 180, 336
-0.998734, 257, 1, 272, 128
-0.998734, 439, 193, 454, 320
-0.998802, 337, 1, 368, 256
-0.99881, 177, 145, 192, 272
-0.998811, 311, 1, 326, 128
-0.998814, 213, 1, 228, 128
-0.998823, 419, 193, 434, 320
-0.998826, 269, 1, 284, 128
-0.99884, 155, 1, 170, 128
-0.998846, 245, 1, 260, 128
-0.998847, 151, 209, 166, 336
-0.998861, 413, 33, 444, 288
-0.998868, 283, 1, 298, 128
-0.998869, 431, 193, 446, 320
-0.998869, 1, 145, 256, 208
-0.998871, 203, 193, 218, 320
-0.998881, 481, 1, 496, 128
-0.998882, 113, 129, 144, 375
-0.998891, 147, 1, 162, 128
-0.998903, 209, 193, 224, 320
-0.998903, 133, 1, 148, 128
-0.998904, 227, 193, 242, 320
-0.998909, 193, 193, 208, 320
-0.998911, 387, 177, 402, 304
-0.998918, 279, 129, 294, 256
-0.998921, 377, 1, 408, 256
-0.998925, 157, 209, 172, 336
-0.998926, 129, 209, 144, 336
-0.998932, 143, 209, 158, 336
-0.99894, 305, 1, 320, 128
-0.998946, 41, 241, 56, 368
-0.998948, 219, 1, 234, 128
-0.998948, 217, 193, 232, 320
-0.998949, 1, 57, 500, 120
-0.99895, 119, 1, 134, 128
-0.998954, 41, 1, 56, 128
-0.998971, 333, 193, 348, 320
-0.998973, 433, 241, 448, 368
-0.998974, 233, 193, 248, 320
-0.998974, 455, 193, 470, 320
-0.998982, 17, 1, 48, 256
-0.998986, 263, 1, 278, 128
-0.99899, 397, 193, 412, 320
-0.998992, 475, 1, 490, 128
-0.999003, 5, 225, 20, 352
-0.99901, 287, 193, 302, 320
-0.999012, 175, 1, 190, 128
-0.999016, 267, 145, 282, 272
-0.999019, 475, 49, 490, 176
-0.999019, 407, 193, 422, 320
-0.999021, 483, 193, 498, 320
-0.999023, 247, 193, 262, 320
-0.999025, 57, 33, 88, 288
-0.999027, 319, 193, 334, 320
-0.999029, 367, 193, 382, 320
-0.999032, 109, 1, 124, 128
-0.999033, 171, 241, 186, 368
-0.999035, 465, 113, 480, 240
-0.99904, 445, 193, 460, 320
-0.999044, 85, 193, 100, 320
-0.999044, 477, 193, 492, 320
-0.999051, 75, 193, 90, 320
-0.999051, 203, 1, 218, 128
-0.999052, 135, 209, 150, 336
-0.999058, 299, 193, 314, 320
-0.999059, 355, 193, 370, 320
-0.99906, 277, 1, 292, 128
-0.999063, 377, 193, 392, 320
-0.999065, 225, 1, 240, 128
-0.999069, 339, 193, 354, 320
-0.99907, 295, 1, 310, 128
-0.999073, 325, 193, 340, 320
-0.999075, 85, 241, 100, 368
-0.999077, 139, 1, 154, 128
-0.999078, 55, 225, 70, 352
-0.99908, 171, 145, 186, 272
-0.999081, 163, 1, 178, 128
-0.999082, 101, 129, 132, 375
-0.999084, 241, 193, 256, 320
-0.999085, 469, 193, 484, 320
-0.999085, 391, 129, 406, 256
-0.999089, 87, 1, 102, 128
-0.99909, 311, 193, 326, 320
-0.999096, 127, 1, 142, 128
-0.999099, 361, 193, 376, 320
-0.999102, 181, 241, 196, 368
-0.999103, 63, 241, 78, 368
-0.999107, 413, 193, 428, 320
-0.999114, 349, 193, 364, 320
-0.999115, 289, 17, 304, 144
-0.999127, 259, 193, 274, 320
-0.999135, 189, 1, 204, 128
-0.999138, 459, 145, 474, 272
-0.999139, 69, 225, 84, 352
-0.999144, 305, 193, 320, 320
-0.999158, 471, 113, 486, 240
-0.999158, 169, 1, 184, 128
-0.999167, 63, 193, 78, 320
-0.999168, 465, 1, 480, 128
-0.999168, 253, 193, 268, 320
-0.99917, 293, 193, 308, 320
-0.999175, 319, 1, 334, 128
-0.999176, 33, 1, 48, 128
-0.999177, 281, 193, 296, 320
-0.999181, 429, 145, 444, 272
-0.999183, 181, 193, 196, 320
-0.999185, 421, 241, 436, 368
-0.999187, 461, 193, 476, 320
-0.999187, 347, 1, 362, 128
-0.999187, 267, 193, 282, 320
-0.999192, 91, 193, 106, 320
-0.999192, 425, 193, 440, 320
-0.999203, 411, 113, 426, 240
-0.999203, 285, 129, 300, 256
-0.999205, 383, 129, 398, 256
-0.999206, 183, 1, 198, 128
-0.999207, 47, 225, 62, 352
-0.99921, 483, 129, 498, 256
-0.99921, 403, 145, 418, 272
-0.999215, 427, 241, 442, 368
-0.999219, 163, 161, 178, 288
-0.999231, 115, 225, 130, 352
-0.999234, 443, 129, 458, 256
-0.999251, 13, 241, 28, 368
-0.999254, 367, 129, 382, 256
-0.999255, 477, 129, 492, 256
-0.999256, 453, 145, 468, 272
-0.999261, 81, 1, 96, 128
-0.999263, 275, 193, 290, 320
-0.999268, 3, 145, 18, 272
-0.999268, 273, 97, 288, 224
-0.999269, 245, 49, 260, 176
-0.99927, 33, 129, 64, 375
-0.999276, 465, 65, 480, 192
-0.999282, 1, 1, 32, 256
-0.99935, 97, 81, 352, 144
-0.99938, 101, 33, 132, 288
-0.999497, 1, 81, 256, 144
-0.999643, 99, 15, 114, 30
-0.999645, 243, 19, 258, 34
-0.999645, 299, 227, 314, 242
-0.999645, 269, 35, 284, 50
-0.999645, 227, 29, 242, 44
-0.999646, 305, 207, 320, 222
-0.999646, 163, 227, 178, 242
-0.999646, 301, 23, 316, 38
-0.999646, 193, 13, 208, 28
-0.999646, 247, 11, 262, 26
-0.999647, 307, 37, 322, 52
-0.999648, 279, 165, 294, 180
-0.999648, 75, 15, 90, 30
-0.999648, 181, 21, 196, 36
-0.999648, 199, 31, 214, 46
-0.999649, 431, 275, 446, 290
-0.999649, 249, 75, 264, 90
-0.999649, 211, 39, 226, 54
-0.99965, 429, 219, 444, 234
-0.99965, 247, 43, 262, 58
-0.99965, 299, 51, 314, 66
-0.999651, 219, 3, 234, 18
-0.999651, 87, 17, 102, 32
-0.999651, 327, 59, 342, 74
-0.999652, 191, 285, 206, 300
-0.999652, 137, 35, 152, 50
-0.999652, 67, 31, 82, 46
-0.999652, 273, 181, 288, 196
-0.999653, 465, 47, 480, 62
-0.999653, 181, 217, 196, 232
-0.999653, 317, 29, 332, 44
-0.999653, 145, 275, 160, 290
-0.999653, 59, 29, 74, 44
-0.999653, 309, 23, 324, 38
-0.999654, 99, 21, 114, 36
-0.999654, 79, 263, 94, 278
-0.999654, 177, 259, 192, 274
-0.999655, 75, 45, 90, 60
-0.999655, 267, 205, 282, 220
-0.999655, 275, 33, 290, 48
-0.999655, 433, 287, 448, 302
-0.999656, 413, 211, 428, 226
-0.999656, 127, 17, 142, 32
-0.999656, 149, 9, 164, 24
-0.999656, 285, 35, 300, 50
-0.999657, 429, 259, 444, 274
-0.999657, 291, 23, 306, 38
-0.999657, 199, 71, 214, 86
-0.999658, 177, 253, 192, 268
-0.999658, 265, 47, 280, 62
-0.999659, 237, 83, 252, 98
-0.99966, 289, 143, 304, 158
-0.99966, 291, 57, 306, 72
-0.999661, 199, 17, 214, 32
-0.999661, 271, 45, 286, 60
-0.999664, 261, 73, 276, 88
-0.999668, 309, 1, 324, 16
-0.999668, 89, 263, 104, 278
-0.999669, 429, 251, 444, 266
-0.999669, 331, 51, 346, 66
-0.999669, 205, 35, 220, 50
-0.99967, 169, 223, 184, 238
-0.999672, 171, 215, 186, 230
-0.999673, 67, 255, 82, 270
-0.999673, 165, 43, 180, 58
-0.999673, 299, 17, 314, 32
-0.999673, 291, 223, 306, 238
-0.999674, 119, 31, 134, 46
-0.999674, 301, 1, 316, 16
-0.999674, 241, 69, 256, 84
-0.999674, 315, 1, 330, 16
-0.999676, 419, 213, 434, 228
-0.999677, 217, 37, 232, 52
-0.999678, 93, 15, 108, 30
-0.99968, 79, 231, 94, 246
-0.99968, 175, 183, 190, 198
-0.999681, 155, 37, 170, 52
-0.999682, 261, 23, 276, 38
-0.999684, 267, 5, 282, 20
-0.999684, 187, 205, 202, 220
-0.999685, 135, 41, 150, 56
-0.999687, 285, 137, 300, 152
-0.999687, 297, 41, 312, 56
-0.999693, 305, 11, 320, 26
-0.999694, 237, 77, 252, 92
-0.999695, 225, 43, 240, 58
-0.999698, 143, 33, 158, 48
-0.999698, 137, 15, 152, 30
-0.9997, 293, 51, 308, 66
-0.999702, 257, 17, 272, 32
-0.999702, 311, 77, 326, 92
-0.999703, 305, 31, 320, 46
-0.999703, 301, 77, 316, 92
-0.999704, 287, 17, 302, 32
-0.999705, 299, 29, 314, 44
-0.999705, 259, 29, 274, 44
-0.999705, 231, 45, 246, 60
-0.999707, 227, 35, 242, 50
-0.999708, 291, 31, 306, 46
-0.999708, 321, 55, 336, 70
-0.99971, 281, 21, 296, 36
-0.999711, 241, 43, 256, 58
-0.999711, 255, 73, 270, 88
-0.999714, 263, 11, 278, 26
-0.999714, 281, 27, 296, 42
-0.999721, 183, 199, 198, 214
-0.999721, 249, 29, 264, 44
-0.999727, 249, 23, 264, 38
-0.999729, 249, 37, 264, 52
-0.999733, 437, 215, 452, 230
-0.999733, 299, 7, 314, 22
-0.999734, 265, 41, 280, 56
-0.999734, 293, 1, 308, 16
-0.999738, 257, 35, 272, 50
-0.999745, 179, 189, 194, 204
-0.999746, 263, 17, 278, 32
-0.999747, 253, 11, 268, 26
-0.999755, 149, 37, 164, 52
-0.999758, 253, 47, 268, 62
-0.999759, 273, 23, 288, 38
-0.999762, 275, 157, 290, 172
-0.999763, 261, 3, 276, 18
-0.999763, 255, 23, 270, 38
-0.999769, 259, 43, 274, 58
-0.99977, 243, 75, 258, 90
-0.99977, 289, 11, 304, 26
-0.999771, 145, 15, 160, 30
-0.999779, 247, 69, 262, 84
-0.999781, 235, 39, 250, 54
-0.999792, 255, 67, 270, 82
-0.999851, 129, 153, 384, 216
-0.999954, 33, 105, 288, 168
-1.00009, 161, 105, 416, 168
-1.00032, 129, 129, 384, 192
-1.00145, 193, 97, 256, 224
-1.0033, 89, 113, 152, 240
