1957
-0.430459, 161, 1, 416, 375
-0.497514, 257, 1, 500, 375
-0.497745, 1, 65, 500, 320
-0.509453, 65, 1, 320, 375
-0.557702, 1, 1, 500, 375
-0.593445, 97, 97, 352, 352
-0.65263, 257, 129, 500, 375
-0.725234, 97, 1, 352, 256
-0.736474, 1, 97, 256, 352
-0.743552, 257, 33, 500, 288
-0.815899, 1, 1, 256, 256
-0.849756, 241, 1, 368, 375
-0.850184, 161, 1, 288, 375
-0.856088, 193, 33, 320, 288
-0.857016, 321, 1, 448, 375
-0.857191, 257, 129, 384, 375
-0.867712, 145, 97, 272, 352
-0.871832, 257, 33, 384, 288
-0.872445, 81, 97, 208, 352
-0.874251, 1, 1, 128, 375
-0.881201, 1, 193, 500, 320
-0.882351, 113, 1, 240, 375
-0.884902, 209, 129, 336, 375
-0.885084, 369, 1, 496, 375
-0.888343, 49, 1, 176, 375
-0.8899, 337, 65, 464, 320
-0.895646, 161, 177, 416, 304
-0.897262, 1, 1, 128, 256
-0.901356, 1, 241, 500, 368
-0.908197, 129, 1, 256, 256
-0.908766, 33, 97, 160, 352
-0.911408, 49, 1, 176, 256
-0.913927, 97, 113, 352, 240
-0.917754, 33, 193, 288, 320
-0.919043, 1, 17, 500, 144
-0.921659, 161, 65, 416, 192
-0.925318, 97, 241, 352, 368
-0.926092, 129, 193, 256, 320
-0.926896, 193, 225, 448, 352
-0.929436, 1, 145, 500, 272
-0.931681, 1, 81, 500, 208
-0.935732, 257, 177, 500, 304
-0.937372, 1, 241, 256, 368
-0.937531, 289, 113, 352, 240
-0.93777, 161, 17, 416, 144
-0.938797, 241, 177, 368, 304
-0.93939, 321, 241, 384, 368
-0.93945, 313, 161, 376, 288
-0.939499, 161, 193, 224, 320
-0.939541, 65, 33, 320, 160
-0.940631, 321, 225, 448, 352
-0.940687, 425, 241, 488, 368
-0.941086, 257, 65, 500, 192
-0.94164, 193, 17, 320, 144
-0.94282, 49, 209, 176, 336
-0.943024, 401, 241, 464, 368
-0.943577, 217, 17, 280, 144
-0.943843, 129, 193, 192, 320
-0.943859, 49, 241, 112, 368
-0.944255, 193, 177, 320, 304
-0.944743, 97, 161, 160, 288
-0.945008, 81, 161, 208, 288
-0.945247, 257, 145, 320, 272
-0.945383, 121, 241, 184, 368
-0.946458, 193, 65, 320, 192
-0.946528, 209, 177, 272, 304
-0.946808, 369, 225, 496, 352
-0.947328, 225, 129, 352, 256
-0.947582, 129, 145, 256, 272
-0.948153, 193, 113, 448, 240
-0.948532, 273, 241, 400, 368
-0.949573, 1, 225, 128, 352
-0.949852, 89, 241, 152, 368
-0.950223, 257, 81, 320, 208
-0.950699, 193, 225, 320, 352
-0.951051, 137, 145, 200, 272
-0.95119, 1, 81, 256, 208
-0.951203, 305, 65, 368, 192
-0.951246, 129, 97, 256, 224
-0.951434, 241, 65, 368, 192
-0.951756, 233, 177, 296, 304
-0.952103, 25, 241, 88, 368
-0.95256, 257, 193, 320, 320
-0.95262, 113, 241, 240, 368
-0.952878, 289, 177, 352, 304
-0.953358, 273, 305, 336, 368
-0.95347, 345, 241, 408, 368
-0.953568, 185, 33, 248, 160
-0.9545, 1, 145, 256, 272
-0.954989, 249, 241, 312, 368
-0.95535, 129, 97, 192, 224
-0.955885, 297, 241, 360, 368
-0.955913, 257, 17, 500, 144
-0.955929, 313, 113, 376, 240
-0.956272, 425, 265, 488, 328
-0.956686, 105, 233, 168, 296
-0.957135, 233, 97, 296, 224
-0.957611, 249, 81, 312, 144
-0.957781, 209, 177, 272, 240
-0.957951, 297, 289, 360, 352
-0.957958, 329, 65, 392, 192
-0.95796, 289, 113, 352, 176
-0.958115, 249, 185, 312, 248
-0.958126, 1, 273, 64, 336
-0.958271, 281, 65, 344, 192
-0.958294, 65, 305, 128, 368
-0.958347, 25, 297, 88, 360
-0.95839, 401, 273, 464, 336
-0.958839, 225, 25, 288, 88
-0.958878, 49, 273, 112, 336
-0.958941, 273, 241, 336, 368
-0.959147, 97, 169, 160, 232
-0.959271, 297, 177, 360, 240
-0.959716, 305, 65, 432, 192
-0.959764, 433, 193, 496, 320
-0.959856, 121, 257, 184, 320
-0.960692, 97, 97, 160, 224
-0.960723, 73, 193, 136, 320
-0.960935, 377, 241, 440, 368
-0.961095, 241, 313, 304, 375
-0.961121, 273, 129, 400, 256
-0.961227, 241, 1, 304, 128
-0.961506, 273, 81, 336, 144
-0.961657, 81, 233, 144, 296
-0.961773, 257, 113, 320, 176
-0.961924, 233, 209, 296, 272
-0.962096, 129, 193, 192, 256
-0.962503, 185, 177, 248, 304
-0.962864, 145, 241, 208, 368
-0.962883, 217, 81, 280, 144
-0.963291, 361, 289, 424, 352
-0.963542, 65, 81, 192, 208
-0.963543, 185, 81, 248, 208
-0.963871, 129, 33, 256, 160
-0.964103, 1, 17, 128, 144
-0.964257, 161, 97, 224, 224
-0.964455, 305, 225, 368, 288
-0.96448, 241, 233, 304, 296
-0.964774, 273, 153, 336, 216
-0.964977, 105, 193, 168, 256
-0.965163, 369, 49, 496, 176
-0.965213, 273, 177, 336, 240
-0.965269, 57, 241, 120, 304
-0.965323, 161, 145, 224, 272
-0.965381, 161, 33, 224, 160
-0.965441, 217, 313, 280, 375
-0.96568, 97, 313, 160, 375
-0.965791, 321, 169, 384, 232
-0.965882, 385, 297, 448, 360
-0.965915, 209, 241, 272, 304
-0.966419, 81, 257, 144, 320
-0.96645, 329, 305, 392, 368
-0.966503, 321, 177, 448, 304
-0.966737, 425, 289, 488, 352
-0.966776, 225, 241, 288, 368
-0.966823, 401, 249, 464, 312
-0.966841, 177, 129, 304, 256
-0.966889, 185, 41, 248, 104
-0.966957, 345, 257, 408, 320
-0.966972, 1, 225, 64, 352
-0.966977, 209, 65, 272, 192
-0.967022, 249, 65, 312, 320
-0.967112, 337, 193, 400, 320
-0.967318, 305, 249, 368, 312
-0.967337, 425, 241, 488, 304
-0.967343, 145, 249, 208, 312
-0.967433, 129, 217, 192, 280
-0.967451, 273, 257, 336, 320
-0.967648, 305, 201, 368, 264
-0.967878, 433, 217, 496, 280
-0.968304, 137, 97, 200, 352
-0.968326, 177, 193, 240, 256
-0.96882, 273, 97, 336, 352
-0.968894, 97, 289, 160, 352
-0.969145, 25, 289, 56, 352
-0.969254, 201, 225, 264, 352
-0.969595, 329, 225, 392, 288
-0.969844, 433, 313, 496, 375
-0.969903, 249, 161, 312, 224
-0.969935, 37, 297, 68, 360
-0.970008, 329, 281, 392, 344
-0.970037, 209, 113, 272, 240
-0.970042, 201, 17, 264, 80
-0.970104, 121, 169, 184, 232
-0.970195, 185, 81, 248, 144
-0.970282, 241, 17, 368, 144
-0.970394, 185, 65, 248, 320
-0.970558, 241, 177, 368, 240
-0.970564, 169, 241, 232, 304
-0.970662, 193, 177, 320, 240
-0.970803, 33, 297, 160, 360
-0.970896, 209, 201, 272, 264
-0.970956, 49, 1, 112, 128
-0.970985, 297, 313, 360, 375
-0.971013, 265, 225, 328, 288
-0.971348, 9, 17, 72, 144
-0.971369, 169, 241, 232, 368
-0.971403, 1, 297, 64, 360
-0.971404, 73, 81, 136, 208
-0.971447, 73, 281, 136, 344
-0.971467, 297, 89, 360, 152
-0.971488, 53, 297, 84, 360
-0.97165, 81, 201, 144, 264
-0.971931, 177, 265, 240, 328
-0.971933, 289, 17, 416, 144
-0.971988, 13, 281, 44, 344
-0.972173, 121, 161, 152, 288
-0.972206, 153, 169, 216, 232
-0.972218, 245, 1, 276, 128
-0.972242, 97, 97, 160, 352
-0.972258, 337, 1, 400, 128
-0.972271, 297, 137, 360, 200
-0.972274, 225, 289, 288, 352
-0.972395, 329, 201, 392, 264
-0.972458, 17, 81, 144, 208
-0.972594, 377, 49, 440, 176
-0.972724, 337, 297, 464, 360
-0.972906, 129, 209, 256, 272
-0.972977, 409, 313, 472, 375
-0.972985, 321, 145, 384, 208
-0.973069, 257, 289, 384, 352
-0.973145, 273, 257, 400, 320
-0.973378, 129, 177, 256, 240
-0.97338, 153, 209, 184, 336
-0.973489, 465, 209, 496, 336
-0.97353, 233, 57, 296, 120
-0.973629, 353, 313, 416, 375
-0.973842, 281, 65, 312, 192
-0.974175, 241, 17, 272, 80
-0.974206, 249, 257, 312, 320
-0.974278, 257, 177, 288, 240
-0.97429, 305, 65, 368, 320
-0.974291, 33, 161, 160, 288
-0.974438, 281, 81, 312, 144
-0.974476, 437, 241, 468, 368
-0.974692, 193, 313, 256, 375
-0.974695, 257, 57, 320, 120
-0.974697, 129, 241, 160, 304
-0.974871, 121, 217, 152, 280
-0.974902, 273, 201, 336, 264
-0.974971, 73, 313, 104, 375
-0.975034, 149, 249, 180, 312
-0.975112, 105, 145, 168, 208
-0.97515, 145, 273, 208, 336
-0.975256, 97, 289, 224, 352
-0.975274, 353, 65, 416, 192
-0.975327, 341, 241, 372, 368
-0.975462, 189, 193, 220, 320
-0.975483, 193, 305, 320, 368
-0.975496, 261, 73, 292, 136
-0.975637, 1, 273, 32, 336
-0.975661, 321, 249, 448, 312
-0.975666, 145, 305, 208, 368
-0.97582, 97, 257, 224, 320
-0.975834, 353, 1, 480, 128
-0.97587, 25, 273, 88, 336
-0.975894, 161, 217, 224, 280
-0.975929, 129, 209, 160, 336
-0.975987, 225, 257, 352, 320
-0.976008, 141, 177, 172, 304
-0.97603, 209, 57, 272, 120
-0.976035, 49, 241, 176, 304
-0.976061, 217, 33, 280, 288
-0.976229, 209, 81, 336, 144
-0.976229, 65, 217, 192, 280
-0.976239, 81, 177, 208, 240
-0.976334, 333, 177, 364, 304
-0.976536, 241, 153, 368, 216
-0.976663, 349, 209, 380, 272
-0.976986, 1, 249, 128, 312
-0.977, 177, 241, 304, 304
-0.977044, 1, 273, 128, 336
-0.977164, 445, 249, 476, 312
-0.9772, 245, 177, 276, 240
-0.977374, 33, 49, 96, 176
-0.977384, 309, 177, 340, 240
-0.977462, 369, 249, 432, 312
-0.977523, 401, 193, 464, 320
-0.977525, 81, 249, 112, 312
-0.977539, 321, 113, 448, 240
-0.977561, 33, 241, 96, 304
-0.977714, 261, 177, 292, 304
-0.977837, 449, 225, 480, 352
-0.977893, 61, 241, 92, 368
-0.977943, 233, 17, 264, 144
-0.977995, 329, 65, 392, 320
-0.978035, 269, 305, 300, 368
-0.978065, 241, 137, 304, 200
-0.978098, 209, 153, 272, 216
-0.978121, 61, 265, 92, 328
-0.978181, 289, 17, 352, 144
-0.978338, 293, 97, 324, 224
-0.978352, 289, 313, 416, 375
-0.978362, 429, 265, 460, 328
-0.978372, 209, 177, 240, 304
-0.978379, 401, 49, 464, 176
-0.978381, 177, 265, 304, 328
-0.978384, 177, 33, 304, 96
-0.978405, 361, 1, 424, 128
-0.978416, 249, 281, 312, 344
-0.978434, 245, 161, 276, 288
-0.978436, 353, 273, 480, 336
-0.978453, 397, 289, 428, 352
-0.978467, 105, 97, 168, 160
-0.97848, 61, 241, 92, 304
-0.978493, 465, 217, 496, 280
-0.978529, 321, 81, 384, 144
-0.978595, 273, 281, 336, 344
-0.978676, 109, 209, 140, 336
-0.978767, 269, 65, 300, 192
-0.978801, 121, 305, 184, 368
-0.978825, 185, 169, 248, 232
-0.978848, 161, 97, 224, 352
-0.978863, 169, 193, 200, 320
-0.978897, 161, 65, 224, 128
-0.978915, 353, 241, 384, 368
-0.978915, 329, 185, 360, 248
-0.978921, 353, 217, 416, 280
-0.979002, 305, 65, 336, 192
-0.979057, 121, 281, 184, 344
-0.97915, 345, 161, 376, 288
-0.979191, 73, 89, 136, 152
-0.979218, 289, 57, 352, 120
-0.979294, 141, 217, 172, 280
-0.979347, 177, 201, 304, 264
-0.979372, 317, 193, 348, 320
-0.979377, 109, 161, 140, 224
-0.979404, 281, 297, 312, 360
-0.979446, 421, 241, 452, 368
-0.9795, 281, 145, 312, 208
-0.979502, 289, 113, 320, 176
-0.979508, 129, 233, 256, 296
-0.979525, 217, 313, 248, 375
-0.979577, 101, 161, 132, 288
-0.979584, 317, 129, 348, 256
-0.979592, 233, 105, 296, 168
-0.979743, 385, 297, 416, 360
-0.979813, 81, 281, 112, 344
-0.979816, 397, 241, 428, 368
-0.979977, 213, 241, 244, 304
-0.979982, 185, 129, 248, 256
-0.980061, 269, 169, 300, 232
-0.980093, 249, 17, 312, 80
-0.980135, 305, 113, 336, 240
-0.98014, 365, 297, 396, 360
-0.980141, 81, 33, 208, 160
-0.980149, 49, 73, 112, 136
-0.980164, 201, 241, 232, 304
-0.980219, 229, 17, 260, 80
-0.980246, 133, 161, 164, 224
-0.980346, 337, 225, 368, 288
-0.980364, 97, 305, 128, 368
-0.980392, 337, 145, 400, 272
-0.980406, 333, 113, 364, 240
-0.980445, 245, 201, 276, 264
-0.980588, 437, 297, 468, 360
-0.980592, 305, 241, 336, 368
-0.980631, 253, 25, 284, 88
-0.980731, 129, 153, 256, 216
-0.980753, 273, 233, 400, 296
-0.980988, 41, 273, 72, 336
-0.980993, 225, 1, 288, 64
-0.981006, 145, 105, 208, 168
-0.981027, 193, 33, 224, 160
-0.981041, 241, 313, 368, 375
-0.981184, 25, 313, 56, 375
-0.981214, 281, 1, 344, 256
-0.981224, 109, 233, 140, 296
-0.981237, 265, 129, 296, 256
-0.981244, 425, 49, 488, 176
-0.981265, 225, 209, 256, 272
-0.981282, 409, 273, 440, 336
-0.981292, 109, 201, 140, 264
-0.98134, 401, 65, 464, 128
-0.981343, 289, 169, 416, 232
-0.981372, 9, 249, 72, 312
-0.981379, 193, 153, 320, 216
-0.981389, 169, 289, 232, 352
-0.981524, 121, 185, 152, 248
-0.981534, 353, 185, 416, 248
-0.98156, 281, 145, 312, 272
-0.981586, 161, 145, 192, 272
-0.981588, 93, 241, 124, 368
-0.981589, 129, 145, 192, 208
-0.981627, 25, 1, 88, 64
-0.981634, 233, 169, 264, 232
-0.981648, 245, 313, 276, 375
-0.981669, 257, 201, 288, 264
-0.981692, 49, 193, 112, 320
-0.981694, 85, 305, 116, 368
-0.981754, 321, 153, 352, 216
-0.981763, 297, 185, 328, 248
-0.981797, 281, 257, 312, 320
-0.981837, 197, 57, 228, 120
-0.981846, 393, 225, 456, 288
-0.981873, 269, 97, 300, 160
-0.981959, 449, 281, 480, 344
-0.98201, 69, 289, 100, 352
-0.982048, 433, 49, 496, 112
-0.982069, 137, 97, 168, 224
-0.982105, 345, 305, 376, 368
-0.982197, 249, 113, 280, 240
-0.982199, 201, 265, 264, 328
-0.982234, 181, 257, 212, 320
-0.9823, 73, 65, 136, 320
-0.982304, 93, 257, 124, 320
-0.982306, 133, 193, 164, 256
-0.982325, 141, 225, 172, 352
-0.982359, 329, 225, 360, 352
-0.982397, 177, 105, 240, 168
-0.982415, 229, 161, 260, 288
-0.982434, 1, 49, 64, 112
-0.982472, 169, 1, 232, 375
-0.982517, 185, 217, 248, 280
-0.982523, 129, 265, 160, 328
-0.982639, 313, 289, 344, 352
-0.982662, 241, 129, 368, 192
-0.982765, 117, 305, 148, 368
-0.982776, 461, 241, 492, 304
-0.982793, 249, 65, 280, 192
-0.982807, 153, 193, 216, 256
-0.982827, 257, 201, 384, 264
-0.982853, 297, 265, 328, 328
-0.982973, 281, 169, 312, 232
-0.982975, 109, 97, 140, 224
-0.982992, 333, 65, 364, 192
-0.983043, 349, 185, 380, 248
-0.983076, 369, 145, 496, 272
-0.983201, 121, 49, 184, 176
-0.983216, 45, 241, 76, 368
-0.983254, 161, 81, 288, 144
-0.983259, 325, 289, 356, 352
-0.983264, 225, 105, 352, 168
-0.983282, 161, 265, 192, 328
-0.983289, 369, 233, 496, 296
-0.983304, 257, 313, 288, 375
-0.983309, 161, 41, 224, 104
-0.983544, 369, 65, 432, 128
-0.983661, 265, 265, 296, 328
-0.983697, 337, 1, 400, 375
-0.983698, 49, 273, 176, 336
-0.983698, 25, 33, 88, 96
-0.983701, 409, 241, 440, 368
-0.983804, 301, 105, 332, 168
-0.983808, 233, 1, 296, 375
-0.983819, 245, 209, 276, 336
-0.983859, 137, 81, 200, 144
-0.983945, 297, 153, 328, 216
-0.98395, 49, 89, 176, 152
-0.983958, 73, 177, 136, 240
-0.98396, 385, 241, 416, 368
-0.983988, 225, 233, 256, 296
-0.984015, 225, 233, 352, 296
-0.984094, 425, 289, 456, 352
-0.984101, 317, 81, 348, 208
-0.984102, 257, 65, 384, 128
-0.984105, 317, 241, 348, 368
-0.984126, 125, 81, 156, 208
-0.984131, 201, 289, 264, 352
-0.984166, 93, 281, 124, 344
-0.984171, 289, 145, 416, 208
-0.984173, 297, 297, 328, 360
-0.984198, 225, 129, 288, 375
-0.984279, 145, 289, 272, 352
-0.984326, 165, 217, 196, 280
-0.984334, 321, 121, 384, 184
-0.984365, 5, 313, 36, 375
-0.984372, 1, 241, 32, 368
-0.984429, 285, 241, 316, 368
-0.984456, 469, 313, 500, 375
-0.984504, 313, 249, 344, 312
-0.984568, 453, 217, 484, 280
-0.984637, 17, 1, 80, 256
-0.984639, 353, 65, 416, 320
-0.984658, 225, 73, 256, 136
-0.984676, 105, 281, 136, 344
-0.984682, 189, 145, 220, 272
-0.984719, 213, 225, 244, 352
-0.98473, 197, 265, 228, 328
-0.98492, 97, 49, 160, 176
-0.984937, 309, 201, 340, 264
-0.98501, 325, 313, 356, 375
-0.985034, 233, 313, 264, 375
-0.98507, 245, 233, 276, 296
-0.985082, 93, 233, 124, 296
-0.985097, 213, 17, 244, 144
-0.985165, 97, 209, 128, 272
-0.985173, 433, 1, 496, 375
-0.985194, 145, 153, 176, 216
-0.985206, 145, 193, 176, 256
-0.98527, 261, 17, 292, 144
-0.985294, 289, 89, 416, 152
-0.985294, 161, 105, 288, 168
-0.985321, 345, 249, 376, 312
-0.985352, 297, 241, 328, 304
-0.985371, 265, 17, 328, 144
-0.985479, 149, 113, 180, 240
-0.985488, 209, 177, 240, 240
-0.985539, 77, 225, 108, 352
-0.985571, 305, 73, 336, 136
-0.98562, 297, 1, 360, 375
-0.985627, 173, 145, 204, 272
-0.985671, 241, 41, 272, 104
-0.985677, 145, 297, 176, 360
-0.985678, 465, 273, 496, 336
-0.985692, 197, 81, 228, 144
-0.9857, 25, 1, 88, 375
-0.985768, 89, 177, 120, 304
-0.985777, 213, 89, 244, 152
-0.985843, 193, 1, 256, 375
-0.985845, 229, 225, 260, 352
-0.985847, 221, 113, 252, 240
-0.985852, 369, 65, 496, 128
-0.985874, 329, 249, 360, 312
-0.985879, 345, 65, 408, 128
-0.985921, 293, 49, 324, 176
-0.985922, 313, 113, 344, 176
-0.985944, 249, 65, 280, 128
-0.985952, 129, 313, 256, 375
-0.985954, 269, 145, 300, 208
-0.985963, 277, 57, 308, 120
-0.98602, 1, 81, 128, 144
-0.986039, 413, 297, 444, 360
-0.986117, 225, 17, 352, 80
-0.986137, 205, 313, 236, 375
-0.986206, 321, 225, 448, 288
-0.98621, 273, 1, 336, 375
-0.986215, 213, 65, 244, 192
-0.986242, 305, 177, 336, 304
-0.986243, 113, 89, 240, 152
-0.986271, 393, 1, 456, 128
-0.986327, 97, 169, 128, 232
-0.986432, 177, 57, 304, 120
-0.986459, 81, 153, 208, 216
-0.98647, 153, 217, 184, 280
-0.986491, 1, 1, 64, 375
-0.986535, 197, 193, 228, 256
-0.986563, 153, 145, 216, 208
-0.986582, 81, 225, 112, 288
-0.986649, 1, 33, 128, 96
-0.986698, 393, 1, 456, 375
-0.986712, 361, 193, 424, 320
-0.986858, 221, 169, 252, 232
-0.986894, 57, 217, 120, 280
-0.986903, 201, 225, 232, 352
-0.986906, 169, 313, 232, 375
-0.986932, 345, 281, 376, 344
-0.986936, 137, 1, 200, 375
-0.986959, 257, 153, 288, 216
-0.986984, 189, 217, 220, 280
-0.986997, 457, 305, 488, 368
-0.987044, 293, 145, 324, 272
-0.987069, 365, 225, 396, 352
-0.987094, 273, 241, 304, 368
-0.987152, 49, 97, 112, 352
-0.987154, 325, 209, 356, 272
-0.987164, 361, 1, 424, 375
-0.987174, 349, 81, 380, 208
-0.987257, 257, 225, 288, 352
-0.987296, 165, 97, 196, 224
-0.987326, 81, 313, 208, 375
-0.987341, 9, 33, 40, 160
-0.987384, 265, 121, 296, 184
-0.987393, 105, 73, 168, 136
-0.987414, 453, 49, 484, 112
-0.987432, 129, 137, 160, 200
-0.987449, 73, 17, 136, 144
-0.987567, 229, 65, 260, 192
-0.987657, 105, 257, 136, 320
-0.987678, 177, 97, 208, 224
-0.987691, 293, 81, 324, 144
-0.987725, 33, 193, 160, 256
-0.987973, 1, 57, 128, 120
-0.988051, 113, 1, 176, 256
-0.988056, 17, 241, 48, 368
-0.988064, 437, 193, 468, 320
-0.988147, 41, 1, 104, 256
-0.988178, 393, 33, 456, 288
-0.988216, 353, 193, 480, 256
-0.988474, 49, 1, 112, 375
-0.988564, 49, 97, 112, 224
-0.988665, 289, 193, 320, 320
-0.988739, 417, 1, 480, 128
-0.988743, 305, 201, 432, 264
-0.988767, 161, 9, 288, 72
-0.98879, 97, 185, 352, 248
-0.9889, 353, 313, 416, 344
-0.989029, 217, 25, 280, 56
-0.989109, 409, 293, 472, 324
-0.989116, 273, 197, 336, 228
-0.98921, 17, 289, 80, 320
-0.98921, 93, 81, 124, 208
-0.989231, 265, 185, 328, 216
-0.989232, 225, 201, 288, 232
-0.989233, 257, 89, 320, 120
-0.989236, 305, 65, 432, 128
-0.989319, 25, 301, 88, 332
-0.989319, 197, 81, 228, 208
-0.989342, 97, 1, 160, 375
-0.989342, 201, 241, 264, 272
-0.989352, 433, 257, 496, 288
-0.989418, 385, 317, 448, 348
-0.989425, 425, 269, 488, 300
-0.989433, 401, 273, 464, 304
-0.989507, 49, 301, 112, 332
-0.98953, 441, 49, 472, 176
-0.989538, 305, 321, 368, 352
-0.989542, 433, 281, 496, 312
-0.989558, 281, 337, 344, 368
-0.989564, 233, 77, 296, 108
-0.989586, 417, 33, 480, 288
-0.989612, 33, 17, 64, 144
-0.989625, 377, 293, 440, 324
-0.989696, 121, 261, 184, 292
-0.989718, 209, 185, 272, 216
-0.989723, 21, 17, 52, 144
-0.989754, 137, 341, 200, 372
-0.989772, 129, 129, 256, 192
-0.989786, 265, 321, 328, 352
-0.989801, 97, 329, 160, 360
-0.989817, 145, 1, 208, 256
-0.989855, 297, 189, 360, 220
-0.989861, 25, 317, 88, 348
-0.989876, 433, 313, 496, 344
-0.989891, 97, 245, 160, 276
-0.989899, 57, 321, 120, 352
-0.989903, 225, 173, 288, 204
-0.98991, 105, 189, 168, 220
-0.989956, 313, 249, 376, 280
-0.989964, 433, 293, 496, 324
-0.989978, 97, 65, 224, 128
-0.989982, 345, 325, 408, 356
-0.990036, 377, 65, 408, 192
-0.990047, 281, 249, 344, 280
-0.990071, 65, 337, 128, 368
-0.990077, 257, 117, 320, 148
-0.990108, 313, 205, 376, 236
-0.990142, 73, 297, 136, 328
-0.990184, 17, 341, 80, 372
-0.990187, 249, 209, 312, 240
-0.990192, 161, 257, 416, 320
-0.990201, 425, 329, 488, 360
-0.990205, 105, 285, 168, 316
-0.990211, 353, 301, 416, 332
-0.990216, 273, 101, 336, 132
-0.99022, 241, 325, 304, 356
-0.990227, 249, 197, 312, 228
-0.990234, 169, 261, 232, 292
-0.990257, 73, 249, 136, 280
-0.990269, 105, 177, 168, 208
-0.99028, 105, 201, 168, 232
-0.990325, 73, 265, 136, 296
-0.990351, 25, 177, 88, 304
-0.99036, 49, 1, 80, 128
-0.990392, 281, 173, 344, 204
-0.990402, 289, 129, 352, 160
-0.990406, 1, 301, 64, 332
-0.990407, 61, 1, 92, 128
-0.990412, 97, 233, 160, 264
-0.990436, 113, 341, 176, 372
-0.990457, 121, 273, 184, 304
-0.990463, 377, 305, 440, 336
-0.990469, 281, 117, 344, 148
-0.990473, 49, 249, 112, 280
-0.990503, 313, 177, 376, 208
-0.990504, 201, 329, 264, 360
-0.990541, 433, 229, 496, 260
-0.990542, 73, 145, 136, 272
-0.990546, 257, 257, 500, 320
-0.990547, 305, 333, 368, 364
-0.990553, 17, 329, 80, 360
-0.990567, 249, 341, 312, 372
-0.990587, 161, 249, 224, 280
-0.990601, 33, 241, 64, 368
-0.990604, 357, 161, 388, 288
-0.990619, 241, 253, 304, 284
-0.990622, 433, 245, 496, 276
-0.990623, 329, 313, 392, 344
-0.990631, 401, 305, 464, 336
-0.990638, 161, 333, 224, 364
-0.990652, 121, 245, 184, 276
-0.990655, 257, 77, 320, 108
-0.990685, 105, 161, 168, 192
-0.990704, 377, 281, 440, 312
-0.990711, 129, 225, 192, 256
-0.990711, 105, 297, 168, 328
-0.990724, 49, 285, 112, 316
-0.990729, 241, 185, 304, 216
-0.990733, 217, 261, 280, 292
-0.990751, 185, 49, 248, 80
-0.990761, 145, 285, 208, 316
-0.990763, 49, 265, 112, 296
-0.990778, 145, 265, 208, 296
-0.990785, 273, 17, 304, 144
-0.990787, 249, 165, 312, 196
-0.990817, 241, 269, 304, 300
-0.990826, 273, 305, 336, 336
-0.990839, 297, 97, 360, 128
-0.990862, 237, 113, 268, 240
-0.990867, 217, 37, 280, 68
-0.990876, 313, 237, 376, 268
-0.990887, 273, 153, 336, 184
-0.990895, 265, 129, 328, 160
-0.990897, 281, 141, 344, 172
-0.990913, 345, 261, 408, 292
-0.990915, 209, 89, 272, 120
-0.990924, 257, 313, 500, 375
-0.990927, 401, 237, 464, 268
-0.990955, 185, 277, 248, 308
-0.990961, 409, 341, 472, 372
-0.990968, 97, 261, 160, 292
-0.990969, 41, 333, 104, 364
-0.990985, 409, 317, 472, 348
-0.990987, 73, 237, 136, 268
-0.991029, 385, 249, 448, 280
-0.99104, 185, 101, 248, 132
-0.991064, 97, 217, 160, 248
-0.991066, 65, 161, 320, 224
-0.991072, 257, 289, 500, 352
-0.991088, 233, 97, 296, 128
-0.991127, 121, 329, 184, 360
-0.99113, 373, 1, 404, 128
-0.99113, 81, 309, 144, 340
-0.991138, 1, 249, 256, 312
-0.991138, 273, 209, 336, 240
-0.991142, 81, 113, 208, 176
-0.991146, 9, 277, 72, 308
-0.99115, 233, 221, 296, 252
-0.991157, 297, 81, 360, 112
-0.991158, 225, 341, 288, 372
-0.991167, 297, 221, 360, 252
-0.991179, 457, 33, 488, 160
-0.991186, 153, 205, 216, 236
-0.991188, 129, 197, 192, 228
-0.991203, 177, 345, 240, 375
-0.991204, 89, 341, 152, 372
-0.991207, 225, 241, 288, 272
-0.991217, 193, 253, 256, 284
-0.991229, 277, 193, 308, 320
-0.991246, 313, 165, 376, 196
-0.991246, 321, 189, 384, 220
-0.99125, 33, 217, 288, 280
-0.991266, 329, 225, 392, 256
-0.991295, 185, 225, 248, 256
-0.991296, 233, 309, 296, 340
-0.991312, 337, 241, 400, 272
-0.991313, 17, 265, 80, 296
-0.991315, 289, 113, 416, 176
-0.991418, 33, 161, 160, 224
-0.991425, 273, 41, 400, 104
-0.99148, 49, 65, 176, 128
-0.99148, 177, 33, 208, 160
-0.991564, 425, 49, 456, 176
-0.991574, 193, 193, 448, 256
-0.991694, 369, 33, 496, 96
-0.991739, 33, 297, 288, 360
-0.991798, 129, 297, 384, 360
-0.991813, 337, 169, 464, 232
-0.991954, 417, 193, 448, 320
-0.992045, 1, 265, 500, 328
-0.99208, 365, 65, 396, 192
-0.992129, 1, 313, 500, 375
-0.992145, 313, 1, 376, 128
-0.992201, 33, 273, 288, 336
-0.992207, 49, 301, 80, 332
-0.992259, 245, 21, 276, 52
-0.992308, 269, 77, 300, 108
-0.992342, 5, 277, 36, 308
-0.992349, 369, 305, 400, 336
-0.992357, 257, 193, 288, 224
-0.992359, 57, 313, 88, 344
-0.99239, 25, 97, 88, 352
-0.992392, 233, 25, 264, 56
-0.992394, 193, 49, 224, 80
-0.992403, 337, 321, 368, 352
-0.992405, 381, 297, 412, 328
-0.992411, 25, 293, 56, 324
-0.992416, 405, 281, 436, 312
-0.992422, 165, 241, 196, 368
-0.992427, 225, 81, 480, 144
-0.992432, 393, 297, 424, 328
-0.992434, 97, 81, 352, 144
-0.992443, 129, 217, 384, 280
-0.992458, 225, 237, 256, 268
-0.992459, 69, 313, 100, 344
-0.992467, 317, 329, 348, 360
-0.992468, 129, 245, 160, 276
-0.992487, 37, 301, 68, 332
-0.992495, 81, 65, 112, 192
-0.992503, 465, 317, 496, 348
-0.992507, 425, 129, 488, 375
-0.992509, 417, 273, 448, 304
-0.992511, 433, 285, 464, 316
-0.992514, 209, 245, 240, 276
-0.992518, 205, 129, 236, 256
-0.992519, 281, 89, 312, 120
-0.992527, 461, 161, 492, 288
-0.992528, 429, 325, 460, 356
-0.992534, 461, 265, 492, 296
-0.992544, 425, 309, 456, 340
-0.992557, 461, 305, 492, 336
-0.992557, 301, 185, 332, 216
-0.992561, 353, 313, 384, 344
-0.992567, 241, 201, 272, 232
-0.992571, 305, 333, 336, 364
-0.992572, 361, 145, 424, 272
-0.992575, 1, 105, 128, 168
-0.992577, 49, 329, 80, 360
-0.992579, 293, 337, 324, 368
-0.992586, 121, 345, 152, 375
-0.992587, 81, 261, 112, 292
-0.992594, 37, 325, 68, 356
-0.992598, 17, 281, 48, 312
-0.9926, 389, 309, 420, 340
-0.992603, 129, 269, 160, 300
-0.992604, 321, 33, 352, 160
-0.992605, 141, 341, 172, 372
-0.992606, 149, 253, 180, 284
-0.992608, 109, 273, 140, 304
-0.992609, 421, 297, 452, 328
-0.992611, 125, 221, 156, 252
-0.99262, 85, 305, 116, 336
-0.992629, 445, 309, 476, 340
-0.99263, 301, 197, 332, 228
-0.992632, 413, 49, 444, 176
-0.992635, 197, 261, 228, 292
-0.992641, 73, 337, 104, 368
-0.992647, 105, 345, 136, 375
-0.992649, 129, 41, 256, 104
-0.992649, 445, 277, 476, 308
-0.992653, 261, 261, 292, 292
-0.992655, 125, 257, 156, 288
-0.992655, 405, 317, 436, 348
-0.992658, 97, 297, 128, 328
-0.992667, 241, 181, 272, 212
-0.992677, 65, 301, 96, 332
-0.99268, 105, 325, 136, 356
-0.992681, 233, 169, 264, 200
-0.992686, 441, 329, 472, 360
-0.992687, 89, 249, 120, 280
-0.992691, 9, 81, 72, 208
-0.992691, 85, 321, 116, 352
-0.992696, 261, 97, 292, 128
-0.992697, 257, 81, 288, 112
-0.9927, 41, 289, 72, 320
-0.992703, 73, 289, 104, 320
-0.992707, 429, 265, 460, 296
-0.992713, 461, 233, 492, 264
-0.992713, 353, 185, 384, 216
-0.992714, 65, 325, 96, 356
-0.992724, 113, 241, 144, 272
-0.99273, 265, 321, 296, 352
-0.992733, 61, 249, 92, 280
-0.992743, 269, 137, 300, 168
-0.992747, 457, 281, 488, 312
-0.99275, 313, 197, 344, 228
-0.99275, 389, 65, 420, 192
-0.992753, 9, 293, 40, 324
-0.992757, 93, 341, 124, 372
-0.992757, 101, 197, 132, 228
-0.99276, 461, 341, 492, 372
-0.99276, 261, 181, 292, 212
-0.992761, 101, 185, 132, 216
-0.992764, 253, 329, 284, 360
-0.992774, 137, 169, 168, 200
-0.992775, 257, 205, 288, 236
-0.992786, 121, 329, 152, 360
-0.992793, 441, 253, 472, 284
-0.992793, 349, 213, 380, 244
-0.992795, 469, 289, 500, 320
-0.992803, 321, 213, 352, 244
-0.992803, 285, 129, 316, 160
-0.992804, 373, 317, 404, 348
-0.992806, 89, 281, 120, 312
-0.99281, 273, 337, 304, 368
-0.992812, 105, 161, 136, 192
-0.992813, 305, 105, 336, 136
-0.992814, 453, 245, 484, 276
-0.992816, 113, 205, 144, 236
-0.992818, 53, 341, 84, 372
-0.992818, 33, 313, 64, 344
-0.99282, 149, 161, 180, 192
-0.992821, 245, 241, 276, 272
-0.992826, 461, 329, 492, 360
-0.992831, 101, 245, 132, 276
-0.992836, 21, 309, 52, 340
-0.992836, 445, 293, 476, 324
-0.992837, 465, 213, 496, 244
-0.992845, 225, 85, 256, 116
-0.992845, 245, 341, 276, 372
-0.992846, 409, 297, 440, 328
-0.992848, 445, 225, 476, 256
-0.992853, 161, 281, 192, 312
-0.992857, 269, 109, 300, 140
-0.992859, 153, 333, 184, 364
-0.992868, 433, 233, 464, 264
-0.992878, 289, 141, 320, 172
-0.992878, 393, 285, 424, 316
-0.992879, 337, 249, 368, 280
-0.992882, 17, 345, 48, 375
-0.992883, 101, 261, 132, 292
-0.992887, 417, 325, 448, 356
-0.992891, 245, 257, 276, 288
-0.992894, 289, 193, 320, 224
-0.9929, 1, 309, 32, 340
-0.992908, 101, 309, 132, 340
-0.992915, 301, 209, 332, 240
-0.992922, 257, 165, 288, 196
-0.992922, 77, 245, 108, 276
-0.992923, 153, 265, 184, 296
-0.992997, 225, 41, 352, 104
-0.993112, 153, 65, 184, 192
-0.993126, 469, 33, 500, 160
-0.993218, 1, 225, 128, 288
-0.993233, 193, 129, 320, 192
-0.993253, 129, 113, 384, 176
-0.993262, 425, 145, 488, 272
-0.993293, 193, 169, 448, 232
-0.993303, 57, 49, 88, 176
-0.993373, 1, 313, 128, 344
-0.993396, 449, 177, 480, 304
-0.993476, 69, 49, 100, 176
-0.993539, 177, 241, 208, 368
-0.993546, 189, 241, 220, 368
-0.993559, 257, 233, 500, 296
-0.993593, 73, 1, 136, 375
-0.993599, 161, 193, 288, 224
-0.993624, 321, 321, 448, 352
-0.993674, 97, 205, 224, 236
-0.993674, 209, 185, 336, 216
-0.993686, 1, 301, 128, 332
-0.993704, 57, 289, 72, 352
-0.993731, 321, 41, 448, 104
-0.993765, 1, 89, 256, 152
-0.993889, 209, 173, 336, 204
-0.993942, 271, 73, 286, 136
-0.993944, 353, 309, 480, 340
-0.993968, 353, 249, 480, 280
-0.994009, 1, 289, 500, 352
-0.994031, 1, 193, 256, 256
-0.994077, 81, 193, 208, 224
-0.994112, 251, 17, 266, 80
-0.994116, 209, 205, 336, 236
-0.994179, 45, 49, 76, 176
-0.994192, 257, 321, 384, 352
-0.994218, 33, 337, 160, 368
-0.994231, 97, 289, 224, 320
-0.994234, 25, 281, 40, 344
-0.994264, 49, 17, 176, 80
-0.994268, 39, 289, 54, 352
-0.994278, 209, 77, 336, 108
-0.994297, 369, 293, 496, 324
-0.994306, 257, 253, 384, 284
-0.994318, 65, 241, 192, 272
-0.994334, 1, 217, 500, 280
-0.994335, 47, 297, 62, 360
-0.99439, 65, 297, 80, 360
-0.99442, 193, 325, 320, 356
-0.994451, 1, 193, 500, 256
-0.994454, 257, 17, 272, 80
-0.994457, 245, 17, 260, 80
-0.994481, 257, 193, 384, 224
-0.994489, 445, 281, 460, 344
-0.994511, 113, 225, 240, 256
-0.99454, 17, 281, 144, 312
-0.994579, 239, 17, 254, 80
-0.994599, 451, 281, 466, 344
-0.994609, 49, 325, 176, 356
-0.994611, 259, 177, 274, 240
-0.994633, 75, 313, 90, 375
-0.994641, 461, 265, 476, 328
-0.994641, 267, 177, 282, 240
-0.994644, 13, 273, 28, 336
-0.994696, 129, 181, 256, 212
-0.994696, 241, 265, 368, 296
-0.99471, 97, 265, 224, 296
-0.994752, 357, 17, 388, 144
-0.994774, 257, 181, 384, 212
-0.994783, 1, 129, 64, 375
-0.994792, 81, 17, 112, 144
-0.994815, 1, 1, 128, 64
-0.994821, 319, 177, 334, 240
-0.994837, 333, 17, 364, 144
-0.994843, 161, 33, 416, 96
-0.994851, 429, 1, 460, 128
-0.994854, 257, 301, 384, 332
-0.994855, 97, 297, 112, 360
-0.994867, 289, 333, 416, 364
-0.994871, 321, 261, 448, 292
-0.994879, 273, 177, 288, 240
-0.994899, 277, 313, 292, 375
-0.994915, 19, 273, 34, 336
-0.994922, 5, 265, 20, 328
-0.99493, 145, 329, 272, 360
-0.994936, 481, 313, 496, 375
-0.994946, 241, 333, 368, 364
-0.99495, 155, 257, 170, 320
-0.994952, 33, 261, 160, 292
-0.994967, 161, 277, 288, 308
-0.994988, 129, 137, 384, 200
-0.994989, 145, 253, 272, 284
-0.994995, 49, 41, 176, 104
-0.994998, 1, 241, 500, 304
-0.995013, 113, 9, 240, 72
-0.995017, 123, 233, 138, 296
-0.995025, 305, 17, 336, 144
-0.995038, 49, 297, 176, 328
-0.995042, 293, 1, 324, 128
-0.995044, 203, 241, 218, 304
-0.995051, 401, 49, 432, 176
-0.995059, 305, 289, 432, 320
-0.995066, 477, 217, 492, 280
-0.995098, 299, 97, 314, 160
-0.995107, 113, 305, 128, 368
-0.99511, 83, 241, 98, 304
-0.995135, 93, 249, 108, 312
-0.995139, 161, 241, 288, 272
-0.995169, 135, 217, 150, 280
-0.995192, 251, 177, 266, 240
-0.995203, 475, 281, 490, 344
-0.99521, 453, 305, 468, 368
-0.995228, 25, 305, 40, 368
-0.995236, 1, 81, 500, 144
-0.99525, 353, 313, 368, 375
-0.995258, 193, 257, 320, 288
-0.995262, 33, 289, 48, 352
-0.995262, 33, 49, 288, 112
-0.995265, 389, 17, 420, 144
-0.99528, 391, 289, 406, 352
-0.995313, 485, 201, 500, 264
-0.995325, 105, 169, 120, 232
-0.99534, 455, 249, 470, 312
-0.995351, 193, 341, 320, 372
-0.995362, 209, 25, 336, 56
-0.995384, 81, 253, 208, 284
-0.995391, 369, 321, 496, 352
-0.995392, 271, 313, 286, 375
-0.995402, 345, 233, 360, 296
-0.995413, 57, 313, 72, 375
-0.995414, 311, 177, 326, 240
-0.995427, 119, 265, 134, 328
-0.995427, 213, 241, 228, 304
-0.995432, 33, 9, 288, 72
-0.995432, 97, 341, 224, 372
-0.995444, 283, 305, 298, 368
-0.995462, 439, 257, 454, 320
-0.995465, 153, 145, 168, 208
-0.995466, 97, 277, 224, 308
-0.995483, 249, 225, 264, 288
-0.995491, 129, 169, 256, 200
-0.995503, 65, 181, 192, 212
-0.995508, 257, 169, 384, 200
-0.995518, 321, 277, 448, 308
-0.99552, 131, 185, 146, 248
-0.995545, 385, 297, 400, 360
-0.995548, 305, 309, 432, 340
-0.995549, 269, 33, 300, 288
-0.995576, 141, 233, 156, 296
-0.995588, 209, 229, 336, 260
-0.995589, 137, 177, 152, 240
-0.995596, 401, 289, 416, 352
-0.995602, 369, 281, 496, 312
-0.995606, 257, 73, 384, 104
-0.995615, 233, 313, 248, 375
-0.995638, 93, 17, 124, 144
-0.995639, 119, 305, 134, 368
-0.99565, 95, 273, 110, 336
-0.995673, 169, 265, 184, 328
-0.995681, 291, 81, 306, 144
-0.995683, 469, 249, 484, 312
-0.9957, 193, 89, 320, 120
-0.9957, 131, 241, 146, 304
-0.995704, 437, 281, 452, 344
-0.995705, 449, 257, 464, 320
-0.995722, 463, 297, 478, 360
-0.995727, 277, 65, 292, 128
-0.995738, 279, 169, 294, 232
-0.995752, 471, 313, 486, 375
-0.995761, 145, 345, 272, 375
-0.995762, 137, 49, 168, 176
-0.995764, 257, 205, 384, 236
-0.995788, 145, 265, 272, 296
-0.995792, 1, 325, 128, 356
-0.995792, 263, 97, 278, 160
-0.995793, 425, 273, 440, 336
-0.995795, 209, 313, 336, 344
-0.995809, 225, 145, 480, 208
-0.99581, 193, 9, 448, 72
-0.995814, 241, 157, 368, 188
-0.995815, 219, 81, 234, 144
-0.995844, 3, 297, 18, 360
-0.995858, 161, 57, 416, 120
-0.995863, 265, 65, 280, 128
-0.995882, 219, 313, 234, 375
-0.995883, 273, 241, 400, 272
-0.995888, 413, 281, 428, 344
-0.995896, 467, 225, 482, 288
-0.995901, 163, 249, 178, 312
-0.995911, 147, 217, 162, 280
-0.99592, 107, 289, 122, 352
-0.995926, 339, 193, 354, 256
-0.995928, 161, 205, 288, 236
-0.995936, 13, 297, 28, 360
-0.995939, 257, 225, 384, 256
-0.99594, 161, 21, 288, 52
-0.995941, 447, 305, 462, 368
-0.995943, 241, 145, 368, 176
-0.995952, 345, 33, 376, 160
-0.995955, 203, 41, 218, 104
-0.995959, 17, 97, 144, 128
-0.995967, 287, 153, 302, 216
-0.995969, 361, 113, 392, 240
-0.995971, 289, 297, 304, 360
-0.995975, 123, 201, 138, 264
-0.995975, 259, 201, 274, 264
-0.995976, 431, 289, 446, 352
-0.995983, 233, 17, 248, 80
-0.995997, 467, 273, 482, 336
-0.996, 87, 297, 102, 360
-0.996001, 49, 145, 112, 272
-0.996017, 143, 153, 158, 216
-0.996036, 81, 265, 96, 328
-0.996041, 309, 289, 324, 352
-0.996044, 71, 241, 86, 304
-0.996046, 193, 37, 320, 68
-0.996046, 303, 297, 318, 360
-0.996051, 309, 265, 324, 328
-0.996052, 111, 209, 126, 272
-0.996054, 261, 313, 276, 375
-0.996061, 431, 265, 446, 328
-0.996069, 461, 233, 476, 296
-0.996073, 263, 17, 278, 80
-0.996082, 197, 257, 212, 320
-0.996083, 301, 265, 316, 328
-0.996084, 327, 169, 342, 232
-0.996087, 337, 333, 464, 364
-0.996091, 241, 345, 368, 375
-0.996096, 209, 277, 336, 308
-0.996098, 241, 161, 256, 224
-0.996098, 359, 249, 374, 312
-0.996104, 161, 109, 288, 140
-0.996105, 193, 41, 208, 104
-0.996117, 81, 297, 96, 360
-0.996124, 125, 161, 140, 224
-0.996125, 1, 57, 500, 120
-0.996128, 311, 201, 326, 264
-0.99613, 337, 137, 464, 200
-0.996133, 369, 305, 384, 368
-0.996138, 305, 241, 320, 304
-0.996149, 285, 81, 300, 144
-0.996158, 223, 233, 238, 296
-0.996174, 333, 185, 348, 248
-0.99618, 61, 193, 92, 320
-0.996195, 19, 313, 34, 375
-0.996198, 439, 305, 454, 368
-0.996201, 241, 129, 368, 160
-0.996216, 149, 249, 164, 312
-0.996229, 285, 273, 300, 336
-0.996233, 117, 33, 148, 160
-0.996242, 161, 297, 288, 328
-0.996249, 317, 289, 332, 352
-0.996264, 281, 65, 312, 320
-0.996265, 367, 177, 382, 240
-0.996287, 339, 217, 354, 280
-0.996294, 257, 97, 288, 352
-0.996298, 359, 289, 374, 352
-0.996301, 113, 241, 240, 272
-0.996303, 333, 65, 364, 320
-0.996311, 157, 209, 172, 272
-0.996312, 241, 117, 368, 148
-0.996315, 105, 265, 120, 328
-0.99633, 335, 257, 350, 320
-0.996353, 369, 237, 496, 268
-0.996361, 49, 313, 176, 344
-0.996361, 161, 217, 288, 248
-0.996366, 1, 33, 500, 96
-0.996371, 125, 65, 156, 320
-0.996438, 257, 57, 500, 120
-0.996444, 289, 89, 416, 120
-0.996452, 97, 101, 224, 132
-0.996477, 225, 105, 352, 136
-0.996492, 245, 65, 276, 320
-0.996584, 369, 265, 496, 296
-0.996605, 173, 97, 204, 352
-0.996621, 209, 241, 336, 272
-0.996649, 5, 193, 36, 320
-0.996654, 97, 329, 224, 360
-0.996655, 145, 97, 272, 128
-0.996735, 81, 169, 208, 200
-0.996755, 369, 69, 496, 100
-0.996767, 353, 221, 480, 252
-0.996773, 1, 53, 128, 84
-0.996773, 177, 65, 304, 96
-0.996803, 65, 229, 192, 260
-0.996818, 185, 97, 216, 352
-0.996821, 241, 289, 368, 320
-0.996837, 275, 77, 290, 108
-0.996862, 49, 217, 176, 248
-0.996872, 17, 245, 144, 276
-0.996878, 145, 65, 176, 320
-0.996925, 97, 305, 224, 336
-0.996949, 81, 157, 208, 188
-0.996951, 209, 217, 336, 248
-0.996956, 157, 97, 188, 352
-0.99696, 297, 65, 328, 320
-0.996997, 257, 33, 500, 96
-0.997007, 113, 65, 144, 320
-0.997013, 201, 65, 232, 320
-0.997031, 443, 285, 458, 316
-0.997096, 305, 157, 432, 188
-0.997104, 15, 277, 30, 308
-0.997128, 37, 293, 52, 324
-0.997144, 97, 65, 128, 320
-0.997148, 401, 129, 464, 375
-0.997164, 213, 65, 244, 320
-0.997208, 479, 321, 494, 352
-0.997221, 305, 145, 432, 176
-0.997225, 51, 301, 66, 332
-0.997226, 269, 129, 300, 375
-0.997228, 31, 289, 46, 320
-0.99723, 241, 89, 368, 120
-0.99723, 33, 129, 160, 192
-0.997234, 273, 277, 400, 308
-0.997244, 49, 205, 176, 236
-0.997254, 225, 1, 256, 256
-0.997258, 113, 113, 240, 144
-0.99727, 471, 257, 486, 288
-0.997277, 193, 161, 320, 192
-0.997292, 345, 65, 376, 320
-0.997297, 77, 177, 108, 304
-0.997305, 321, 233, 448, 264
-0.997311, 353, 345, 480, 375
-0.997333, 375, 309, 390, 340
-0.997337, 381, 305, 396, 336
-0.997343, 255, 21, 270, 52
-0.997345, 21, 281, 36, 312
-0.997347, 49, 109, 176, 140
-0.997349, 305, 193, 432, 224
-0.997352, 269, 85, 284, 116
-0.997363, 17, 9, 144, 40
-0.997368, 137, 169, 152, 200
-0.99737, 133, 181, 148, 212
-0.997374, 401, 293, 416, 324
-0.997374, 305, 217, 432, 248
-0.997393, 313, 33, 344, 288
-0.997395, 45, 297, 60, 328
-0.997397, 53, 317, 68, 348
-0.997399, 337, 81, 464, 112
-0.997412, 177, 53, 304, 84
-0.997413, 245, 21, 260, 52
-0.997413, 1, 113, 256, 176
-0.997415, 119, 265, 134, 296
-0.997442, 129, 157, 256, 188
-0.997463, 63, 301, 78, 332
-0.997464, 479, 273, 494, 304
-0.997474, 121, 285, 136, 316
-0.99748, 253, 181, 268, 212
-0.997485, 207, 253, 222, 284
-0.997487, 9, 273, 24, 304
-0.997492, 387, 301, 402, 332
-0.997495, 17, 85, 144, 116
-0.997499, 125, 273, 140, 304
-0.997501, 305, 169, 432, 200
-0.99751, 57, 297, 72, 328
-0.997515, 305, 65, 432, 96
-0.997521, 461, 277, 476, 308
-0.997522, 357, 65, 388, 320
-0.997527, 443, 321, 458, 352
-0.997534, 263, 173, 278, 204
-0.997538, 417, 281, 432, 312
-0.997539, 1, 265, 16, 296
-0.997539, 265, 189, 280, 220
-0.997544, 117, 345, 132, 375
-0.997545, 449, 309, 464, 340
-0.997552, 309, 185, 324, 216
-0.997552, 103, 185, 118, 216
-0.997554, 219, 241, 234, 272
-0.99756, 259, 189, 274, 220
-0.997568, 437, 265, 452, 296
-0.997568, 467, 273, 482, 304
-0.997572, 115, 197, 130, 228
-0.997581, 395, 297, 410, 328
-0.997588, 417, 317, 432, 348
-0.997594, 147, 245, 162, 276
-0.997597, 17, 321, 32, 352
-0.997601, 349, 321, 364, 352
-0.997606, 481, 337, 496, 368
-0.99761, 201, 261, 216, 292
-0.997616, 47, 325, 62, 356
-0.997625, 21, 341, 36, 372
-0.997632, 33, 193, 160, 224
-0.997634, 69, 305, 84, 336
-0.997637, 449, 277, 464, 308
-0.997643, 239, 25, 254, 56
-0.997646, 263, 341, 278, 372
-0.99765, 485, 209, 500, 240
-0.997662, 261, 21, 276, 52
-0.997668, 407, 289, 422, 320
-0.99767, 59, 321, 74, 352
-0.997671, 65, 329, 80, 360
-0.997671, 127, 345, 142, 375
-0.997675, 29, 333, 44, 364
-0.997683, 149, 173, 164, 204
-0.997683, 429, 273, 444, 304
-0.997685, 109, 201, 124, 232
-0.997694, 83, 257, 98, 288
-0.997697, 359, 317, 374, 348
-0.997702, 365, 313, 380, 344
-0.997703, 471, 229, 486, 260
-0.997707, 463, 237, 478, 268
-0.997711, 267, 325, 282, 356
-0.997711, 1, 169, 500, 232
-0.997713, 259, 257, 274, 288
-0.997716, 281, 133, 296, 164
-0.997724, 213, 245, 228, 276
-0.997726, 135, 221, 150, 252
-0.997734, 451, 289, 466, 320
-0.997741, 161, 229, 288, 260
-0.997757, 423, 277, 438, 308
-0.997758, 339, 325, 354, 356
-0.997763, 303, 193, 318, 224
-0.997765, 113, 297, 128, 328
-0.99777, 471, 337, 486, 368
-0.997773, 139, 249, 154, 280
-0.997774, 131, 169, 146, 200
-0.997776, 473, 313, 488, 344
-0.997787, 477, 261, 492, 292
-0.997787, 59, 337, 74, 368
-0.99779, 305, 181, 432, 212
-0.997791, 481, 309, 496, 340
-0.997793, 203, 49, 218, 80
-0.997793, 257, 61, 384, 92
-0.997799, 471, 301, 486, 332
-0.997805, 439, 309, 454, 340
-0.99781, 477, 229, 492, 260
-0.997825, 69, 345, 84, 375
-0.997829, 97, 85, 224, 116
-0.99783, 145, 33, 272, 64
-0.997837, 291, 133, 306, 164
-0.997841, 241, 13, 368, 44
-0.997843, 77, 313, 92, 344
-0.997848, 481, 285, 496, 316
-0.997848, 95, 305, 110, 336
-0.997849, 269, 73, 284, 104
-0.997852, 9, 293, 24, 324
-0.997853, 331, 329, 346, 360
-0.997853, 93, 245, 108, 276
-0.997855, 139, 181, 154, 212
-0.997855, 249, 245, 264, 276
-0.997855, 393, 313, 408, 344
-0.997863, 389, 325, 404, 356
-0.99787, 75, 329, 90, 360
-0.997874, 133, 337, 148, 368
-0.997874, 289, 133, 416, 164
-0.997886, 473, 281, 488, 312
-0.997886, 255, 333, 270, 364
-0.997887, 323, 329, 338, 360
-0.997894, 227, 237, 242, 268
-0.997896, 147, 337, 162, 368
-0.997897, 343, 221, 358, 252
-0.9979, 119, 253, 134, 284
-0.997903, 153, 149, 168, 180
-0.997904, 453, 249, 468, 280
-0.997905, 457, 293, 472, 324
-0.997908, 23, 321, 38, 352
-0.997908, 467, 313, 482, 344
-0.99791, 119, 221, 134, 252
-0.99791, 443, 257, 458, 288
-0.997914, 233, 97, 264, 352
-0.997917, 21, 309, 36, 340
-0.99792, 223, 89, 238, 120
-0.997921, 483, 221, 498, 252
-0.997923, 309, 333, 324, 364
-0.997929, 85, 245, 100, 276
-0.997931, 299, 333, 314, 364
-0.997932, 267, 201, 282, 232
-0.997935, 45, 313, 60, 344
-0.997941, 225, 105, 480, 168
-0.997977, 193, 121, 320, 152
-0.997977, 129, 65, 256, 96
-0.997993, 49, 1, 80, 256
-0.998, 81, 65, 112, 320
-0.998029, 33, 161, 160, 192
-0.998044, 353, 209, 480, 240
-0.99805, 257, 1, 288, 256
-0.998054, 25, 1, 56, 256
-0.998062, 209, 301, 336, 332
-0.998083, 305, 205, 432, 236
-0.998134, 273, 1, 400, 64
-0.998175, 469, 33, 500, 288
-0.998226, 337, 89, 464, 152
-0.998243, 321, 129, 352, 375
-0.998271, 445, 129, 476, 375
-0.998311, 37, 1, 68, 256
-0.998324, 33, 137, 288, 200
-0.998382, 1, 145, 500, 208
-0.998425, 225, 25, 288, 40
-0.998437, 353, 315, 416, 330
-0.998438, 65, 323, 128, 338
-0.998439, 217, 183, 280, 198
-0.998441, 369, 1, 400, 256
-0.998451, 249, 193, 312, 208
-0.998456, 97, 333, 160, 348
-0.998457, 337, 323, 400, 338
-0.998457, 265, 113, 296, 128
-0.998457, 257, 203, 288, 218
-0.998459, 261, 183, 292, 198
-0.998459, 25, 303, 88, 318
-0.998459, 45, 361, 76, 375
-0.99846, 105, 269, 136, 284
-0.99846, 429, 329, 460, 344
-0.99846, 457, 329, 488, 344
-0.99846, 233, 173, 264, 188
-0.99846, 377, 319, 440, 334
-0.99846, 145, 359, 176, 374
-0.998461, 257, 215, 288, 230
-0.998461, 121, 225, 152, 240
-0.998462, 249, 185, 312, 200
-0.998462, 101, 187, 132, 202
-0.998465, 117, 181, 148, 196
-0.998465, 445, 255, 476, 270
-0.998465, 425, 337, 456, 352
-0.998465, 401, 287, 464, 302
-0.998466, 129, 187, 160, 202
-0.998466, 445, 307, 476, 322
-0.998466, 461, 337, 492, 352
-0.998467, 21, 313, 52, 328
-0.998467, 121, 165, 152, 180
-0.998467, 129, 267, 160, 282
-0.998467, 273, 339, 336, 354
-0.998467, 217, 31, 280, 46
-0.998467, 173, 269, 204, 284
-0.998468, 129, 331, 160, 346
-0.998469, 353, 313, 384, 328
-0.99847, 313, 325, 376, 340
-0.998471, 441, 265, 472, 280
-0.998472, 437, 293, 468, 308
-0.998472, 265, 343, 296, 358
-0.998473, 257, 209, 288, 224
-0.998473, 457, 219, 488, 234
-0.998474, 465, 311, 496, 326
-0.998475, 45, 291, 76, 306
-0.998475, 73, 329, 136, 344
-0.998475, 65, 307, 96, 322
-0.998476, 101, 303, 132, 318
-0.998477, 133, 251, 164, 266
-0.998477, 461, 273, 492, 288
-0.998478, 1, 295, 64, 310
-0.998478, 49, 317, 112, 332
-0.998478, 81, 301, 144, 316
-0.998478, 357, 261, 388, 276
-0.998478, 141, 157, 172, 172
-0.998478, 113, 279, 144, 294
-0.998479, 137, 175, 168, 190
-0.998479, 417, 321, 448, 336
-0.998479, 389, 319, 420, 334
-0.99848, 13, 291, 44, 306
-0.99848, 225, 205, 288, 220
-0.998481, 465, 351, 496, 366
-0.998481, 145, 257, 176, 272
-0.998482, 425, 293, 456, 308
-0.998482, 33, 327, 64, 342
-0.998482, 289, 143, 320, 158
-0.998485, 105, 351, 136, 366
-0.998485, 301, 199, 332, 214
-0.998485, 277, 341, 308, 356
-0.998486, 441, 315, 472, 330
-0.998487, 469, 359, 500, 374
-0.998487, 409, 283, 440, 298
-0.998487, 157, 345, 188, 360
-0.998488, 373, 325, 404, 340
-0.998488, 201, 247, 264, 262
-0.998489, 137, 337, 168, 352
-0.99849, 105, 359, 168, 374
-0.99849, 169, 273, 232, 288
-0.99849, 73, 315, 104, 330
-0.998491, 433, 315, 496, 330
-0.998492, 105, 335, 136, 350
-0.998493, 61, 327, 92, 342
-0.998493, 81, 261, 112, 276
-0.998493, 433, 283, 496, 298
-0.998493, 65, 307, 128, 322
-0.998494, 433, 295, 496, 310
-0.998494, 385, 297, 448, 312
-0.998494, 233, 83, 296, 98
-0.998495, 25, 297, 88, 312
-0.998496, 261, 189, 292, 204
-0.998496, 401, 313, 432, 328
-0.998496, 49, 323, 80, 338
-0.998496, 105, 361, 136, 375
-0.998497, 49, 301, 112, 316
-0.998497, 1, 289, 64, 304
-0.998497, 421, 281, 452, 296
-0.998497, 209, 241, 272, 256
-0.998497, 145, 343, 176, 358
-0.998498, 113, 341, 176, 356
-0.998499, 17, 331, 80, 346
-0.9985, 297, 335, 328, 350
-0.998501, 297, 333, 360, 348
-0.998501, 145, 271, 208, 286
-0.998501, 37, 333, 68, 348
-0.998501, 9, 361, 40, 375
-0.998501, 105, 301, 168, 316
-0.998502, 257, 261, 288, 276
-0.998502, 461, 245, 492, 260
-0.998505, 49, 303, 80, 318
-0.998505, 205, 251, 236, 266
-0.998506, 229, 27, 260, 42
-0.998506, 137, 181, 168, 196
-0.998508, 309, 333, 340, 348
-0.998509, 457, 281, 488, 296
-0.998509, 245, 255, 276, 270
-0.998509, 249, 29, 280, 44
-0.998511, 369, 309, 432, 324
-0.998512, 233, 77, 296, 92
-0.998512, 225, 177, 288, 192
-0.998513, 117, 351, 148, 366
-0.998513, 37, 307, 68, 322
-0.998513, 461, 287, 492, 302
-0.998514, 409, 281, 472, 296
-0.998514, 441, 327, 472, 342
-0.998514, 425, 289, 488, 304
-0.998515, 17, 353, 48, 368
-0.998516, 97, 185, 160, 200
-0.998516, 9, 361, 72, 375
-0.998518, 249, 199, 312, 214
-0.998518, 421, 275, 452, 290
-0.998518, 429, 269, 460, 284
-0.998519, 425, 273, 488, 288
-0.998519, 261, 269, 292, 284
-0.998519, 409, 305, 472, 320
-0.998519, 241, 343, 304, 358
-0.998521, 105, 169, 168, 184
-0.998523, 257, 93, 320, 108
-0.998523, 273, 111, 336, 126
-0.998523, 197, 269, 228, 284
-0.998523, 1, 275, 32, 290
-0.998523, 469, 213, 500, 228
-0.998523, 117, 335, 148, 350
-0.998525, 133, 355, 164, 370
-0.998526, 9, 1, 40, 256
-0.998527, 425, 33, 456, 288
-0.998528, 105, 179, 168, 194
-0.998528, 265, 211, 328, 226
-0.998529, 457, 319, 488, 334
-0.998529, 57, 339, 120, 354
-0.998529, 409, 295, 472, 310
-0.998529, 1, 309, 64, 324
-0.998531, 1, 321, 32, 336
-0.998532, 325, 331, 356, 346
-0.998533, 209, 189, 272, 204
-0.998533, 257, 79, 320, 94
-0.998533, 113, 353, 176, 368
-0.998534, 97, 237, 160, 252
-0.998534, 405, 291, 436, 306
-0.998535, 417, 325, 480, 340
-0.998535, 273, 99, 336, 114
-0.998535, 73, 267, 136, 282
-0.998535, 33, 311, 96, 326
-0.998536, 113, 329, 144, 344
-0.998537, 329, 255, 392, 270
-0.998539, 161, 347, 224, 362
-0.998539, 409, 313, 472, 328
-0.99854, 133, 163, 164, 178
-0.99854, 313, 245, 376, 260
-0.99854, 245, 183, 276, 198
-0.99854, 225, 319, 288, 334
-0.998541, 97, 201, 160, 216
-0.998541, 369, 303, 432, 318
-0.998542, 105, 163, 168, 178
-0.998542, 273, 105, 336, 120
-0.998542, 193, 51, 224, 66
-0.998544, 441, 283, 472, 298
-0.998544, 397, 297, 428, 312
-0.998544, 65, 321, 96, 336
-0.998545, 265, 205, 328, 220
-0.998545, 105, 247, 168, 262
-0.998546, 81, 245, 144, 260
-0.998546, 177, 239, 240, 254
-0.998548, 321, 191, 384, 206
-0.998548, 393, 325, 456, 340
-0.998549, 269, 81, 300, 96
-0.998549, 169, 267, 232, 282
-0.998549, 297, 195, 360, 210
-0.99855, 249, 217, 312, 232
-0.99855, 281, 89, 312, 104
-0.998551, 321, 261, 384, 276
-0.998551, 49, 269, 112, 284
-0.998551, 289, 189, 352, 204
-0.998551, 265, 177, 328, 192
-0.998551, 145, 265, 208, 280
-0.998552, 257, 197, 288, 212
-0.998552, 81, 353, 144, 368
-0.998552, 145, 295, 208, 310
-0.998552, 433, 305, 496, 320
-0.998552, 49, 309, 80, 324
-0.998552, 129, 277, 192, 292
-0.998553, 49, 361, 112, 375
-0.998553, 49, 295, 112, 310
-0.998554, 121, 357, 152, 372
-0.998554, 121, 265, 184, 280
-0.998555, 257, 177, 288, 192
-0.998555, 105, 275, 168, 290
-0.998555, 265, 123, 328, 138
-0.998555, 17, 339, 80, 354
-0.998556, 105, 195, 168, 210
-0.998556, 25, 321, 88, 336
-0.998557, 137, 203, 200, 218
-0.998557, 341, 325, 372, 340
-0.998557, 273, 117, 336, 132
-0.998558, 77, 321, 108, 336
-0.998558, 265, 133, 328, 148
-0.998559, 289, 251, 352, 266
-0.99856, 353, 329, 416, 344
-0.998561, 113, 157, 176, 172
-0.998561, 121, 335, 184, 350
-0.998561, 113, 211, 176, 226
-0.998562, 233, 211, 296, 226
-0.998563, 425, 333, 488, 348
-0.998563, 137, 345, 200, 360
-0.998563, 217, 273, 280, 288
-0.998567, 217, 37, 280, 52
-0.998567, 345, 261, 408, 276
-0.998567, 281, 183, 344, 198
-0.998567, 201, 253, 264, 268
-0.998568, 241, 257, 304, 272
-0.998568, 401, 275, 464, 290
-0.998569, 297, 139, 360, 154
-0.998571, 69, 337, 100, 352
-0.998571, 273, 197, 336, 212
-0.998571, 257, 87, 320, 102
-0.998571, 233, 249, 296, 264
-0.998572, 89, 325, 120, 340
-0.998572, 445, 321, 476, 336
-0.998575, 225, 195, 288, 210
-0.998576, 273, 143, 336, 158
-0.998576, 177, 51, 240, 66
-0.998576, 425, 339, 488, 354
-0.998577, 313, 209, 376, 224
-0.998578, 409, 241, 472, 256
-0.998578, 89, 343, 152, 358
-0.998578, 425, 267, 488, 282
-0.998579, 169, 205, 232, 220
-0.998579, 385, 303, 416, 318
-0.998584, 377, 309, 408, 324
-0.998586, 241, 23, 272, 38
-0.998588, 9, 285, 40, 300
-0.998588, 225, 239, 256, 254
-0.99859, 45, 297, 76, 312
-0.998594, 33, 301, 64, 316
-0.998595, 25, 291, 56, 306
-0.998598, 57, 335, 88, 350
-0.9986, 213, 245, 244, 260
-0.998605, 101, 329, 132, 344
-0.998606, 61, 315, 92, 330
-0.998615, 353, 319, 384, 334
-0.998623, 49, 329, 80, 344
-0.998628, 429, 323, 460, 338
-0.99865, 365, 313, 396, 328
-0.998759, 253, 1, 268, 128
-0.998796, 461, 225, 476, 352
-0.998796, 437, 33, 468, 288
-0.998799, 69, 97, 100, 352
-0.998826, 1, 121, 500, 184
-0.998834, 247, 1, 262, 128
-0.998835, 485, 193, 500, 320
-0.998836, 455, 241, 470, 368
-0.998837, 309, 129, 340, 375
-0.998849, 1, 241, 16, 368
-0.998864, 437, 241, 452, 368
-0.998871, 471, 209, 486, 336
-0.998886, 289, 65, 304, 192
-0.998891, 203, 193, 218, 320
-0.998891, 177, 1, 208, 256
-0.998894, 61, 1, 92, 256
-0.998902, 145, 161, 160, 288
-0.998909, 479, 225, 494, 352
-0.998917, 377, 129, 440, 375
-0.998924, 135, 161, 150, 288
-0.998928, 297, 81, 312, 208
-0.998933, 171, 193, 186, 320
-0.998943, 189, 1, 220, 256
-0.998946, 261, 193, 276, 320
-0.998947, 327, 193, 342, 320
-0.998949, 351, 177, 366, 304
-0.998955, 359, 161, 374, 288
-0.998958, 161, 209, 176, 336
-0.998966, 155, 193, 170, 320
-0.998966, 45, 129, 76, 375
-0.998966, 329, 145, 344, 272
-0.998967, 67, 225, 82, 352
-0.998967, 465, 129, 496, 375
-0.998968, 177, 193, 192, 320
-0.99897, 351, 241, 366, 368
-0.998971, 239, 1, 254, 128
-0.998977, 129, 145, 144, 272
-0.998999, 361, 241, 376, 368
-0.999003, 443, 241, 458, 368
-0.999009, 337, 177, 352, 304
-0.999009, 107, 161, 122, 288
-0.999015, 213, 193, 228, 320
-0.999017, 399, 241, 414, 368
-0.999018, 139, 97, 154, 224
-0.999021, 341, 241, 356, 368
-0.999021, 189, 193, 204, 320
-0.999025, 283, 65, 298, 192
-0.999027, 259, 1, 274, 128
-0.999035, 319, 145, 334, 272
-0.999038, 123, 225, 138, 352
-0.99905, 263, 65, 278, 192
-0.99908, 271, 49, 286, 176
-0.999087, 275, 161, 290, 288
-0.999092, 155, 113, 170, 240
-0.999092, 419, 241, 434, 368
-0.999099, 247, 161, 262, 288
-0.999101, 121, 161, 136, 288
-0.999104, 343, 177, 358, 304
-0.999108, 127, 97, 142, 224
-0.999111, 57, 241, 72, 368
-0.999121, 167, 145, 182, 272
-0.999126, 145, 225, 160, 352
-0.99913, 137, 209, 152, 336
-0.999136, 321, 193, 336, 320
-0.999137, 323, 65, 338, 192
-0.999137, 113, 177, 128, 304
-0.99914, 309, 65, 324, 192
-0.999146, 327, 241, 342, 368
-0.999149, 427, 241, 442, 368
-0.999159, 107, 241, 122, 368
-0.999159, 453, 33, 484, 288
-0.99916, 267, 113, 282, 240
-0.999164, 367, 225, 382, 352
-0.999164, 113, 241, 128, 368
-0.999168, 229, 49, 244, 176
-0.999168, 449, 241, 464, 368
-0.999176, 335, 225, 350, 352
-0.999177, 251, 225, 266, 352
-0.999187, 209, 33, 224, 160
-0.999189, 267, 161, 282, 288
-0.999193, 101, 177, 116, 304
-0.999195, 337, 129, 352, 256
-0.999197, 281, 113, 296, 240
-0.9992, 117, 97, 132, 224
-0.999211, 393, 33, 424, 288
-0.999212, 299, 129, 314, 256
-0.999215, 149, 97, 164, 224
-0.999216, 393, 241, 408, 368
-0.999221, 87, 241, 102, 368
-0.999223, 233, 1, 248, 128
-0.999223, 203, 145, 218, 272
-0.999223, 291, 129, 306, 256
-0.999224, 183, 209, 198, 336
-0.999225, 197, 177, 212, 304
-0.999226, 129, 241, 144, 368
-0.999228, 209, 241, 224, 368
-0.99923, 309, 241, 324, 368
-0.999232, 237, 145, 252, 272
-0.999234, 93, 241, 108, 368
-0.999235, 203, 33, 218, 160
-0.999242, 161, 161, 176, 288
-0.999243, 321, 241, 336, 368
-0.999244, 413, 241, 428, 368
-0.999247, 151, 241, 166, 368
-0.999252, 19, 241, 34, 368
-0.999254, 279, 241, 294, 368
-0.999256, 381, 1, 412, 256
-0.99926, 77, 241, 92, 368
-0.99926, 347, 65, 362, 192
-0.999262, 219, 177, 234, 304
-0.999263, 405, 225, 420, 352
-0.999265, 337, 113, 464, 176
-0.999266, 129, 193, 144, 320
-0.999267, 479, 177, 494, 304
-0.999267, 255, 177, 270, 304
-0.999269, 273, 97, 288, 224
-0.99927, 353, 81, 368, 208
-0.999272, 165, 97, 180, 224
-0.999275, 157, 1, 188, 256
-0.999276, 57, 97, 88, 352
-0.999276, 235, 49, 250, 176
-0.99928, 245, 241, 260, 368
-0.999282, 315, 193, 330, 320
-0.999284, 223, 65, 238, 192
-0.999287, 273, 209, 288, 336
-0.999287, 341, 49, 356, 176
-0.999294, 285, 241, 300, 368
-0.999296, 317, 65, 332, 192
-0.999301, 305, 113, 320, 240
-0.999302, 109, 81, 124, 208
-0.999302, 369, 9, 496, 72
-0.999303, 133, 97, 148, 224
-0.999303, 329, 97, 344, 224
-0.999305, 7, 241, 22, 368
-0.999309, 37, 17, 52, 144
-0.999309, 173, 145, 188, 272
-0.999311, 23, 33, 38, 160
-0.999313, 315, 241, 330, 368
-0.999317, 31, 241, 46, 368
-0.999327, 265, 17, 280, 144
-0.999328, 171, 97, 186, 224
-0.999329, 281, 161, 296, 288
-0.999329, 343, 129, 358, 256
-0.999331, 187, 145, 202, 272
-0.999334, 65, 1, 80, 128
-0.999341, 363, 81, 378, 208
-0.999344, 255, 129, 270, 256
-0.999367, 17, 129, 48, 375
-0.999413, 5, 129, 36, 375
-0.999442, 413, 33, 444, 288
-0.999452, 421, 129, 452, 375
-0.999573, 373, 129, 404, 375
-0.999645, 259, 177, 274, 192
-0.999645, 217, 95, 232, 110
-0.999645, 323, 331, 338, 346
-0.999646, 475, 283, 490, 298
-0.999647, 263, 195, 278, 210
-0.999647, 409, 289, 424, 304
-0.999647, 27, 341, 42, 356
-0.999647, 259, 261, 274, 276
-0.999647, 135, 339, 150, 354
-0.999648, 337, 325, 352, 340
-0.999648, 115, 161, 130, 176
-0.999649, 461, 329, 476, 344
-0.99965, 451, 257, 466, 272
-0.99965, 47, 329, 62, 344
-0.99965, 149, 255, 164, 270
-0.99965, 21, 345, 36, 360
-0.999651, 275, 85, 290, 100
-0.999652, 53, 361, 68, 375
-0.999652, 457, 321, 472, 336
-0.999654, 93, 325, 108, 340
-0.999655, 451, 293, 466, 308
-0.999655, 397, 297, 412, 312
-0.999657, 141, 335, 156, 350
-0.999657, 403, 293, 418, 308
-0.999657, 29, 333, 44, 348
-0.999657, 343, 323, 358, 338
-0.999657, 479, 209, 494, 224
-0.999658, 15, 321, 30, 336
-0.999658, 387, 303, 402, 318
-0.999658, 133, 331, 148, 346
-0.999658, 103, 329, 118, 344
-0.999659, 145, 159, 160, 174
-0.999659, 353, 319, 368, 334
-0.99966, 97, 303, 112, 318
-0.999661, 105, 181, 120, 196
-0.999661, 441, 315, 456, 330
-0.999662, 473, 335, 488, 350
-0.999663, 1, 265, 16, 280
-0.999663, 375, 309, 390, 324
-0.999663, 289, 87, 304, 102
-0.999664, 163, 257, 178, 272
-0.999664, 469, 271, 484, 286
-0.999664, 127, 333, 142, 348
-0.999665, 73, 337, 88, 352
-0.999665, 473, 311, 488, 326
-0.999666, 451, 319, 466, 334
-0.999666, 29, 347, 44, 362
-0.999667, 451, 313, 466, 328
-0.999667, 207, 269, 222, 284
-0.999668, 119, 271, 134, 286
-0.999668, 483, 361, 498, 375
-0.999669, 259, 189, 274, 204
-0.999669, 381, 307, 396, 322
-0.999669, 59, 311, 74, 326
-0.99967, 385, 323, 400, 338
-0.99967, 71, 313, 86, 328
-0.99967, 149, 337, 164, 352
-0.99967, 9, 357, 24, 372
-0.999671, 71, 307, 86, 322
-0.999671, 281, 79, 296, 94
-0.999672, 151, 179, 166, 194
-0.999673, 253, 181, 268, 196
-0.999674, 205, 49, 220, 64
-0.999674, 143, 185, 158, 200
-0.999674, 65, 311, 80, 326
-0.999676, 201, 261, 216, 276
-0.999677, 369, 311, 384, 326
-0.999677, 79, 337, 94, 352
-0.999677, 211, 251, 226, 266
-0.999678, 275, 75, 290, 90
-0.999679, 479, 315, 494, 330
-0.999679, 51, 303, 66, 318
-0.99968, 281, 143, 296, 158
-0.999681, 391, 327, 406, 342
-0.999681, 151, 357, 166, 372
-0.999683, 477, 353, 492, 368
-0.999685, 111, 297, 126, 312
-0.999685, 61, 335, 76, 350
-0.999685, 255, 23, 270, 38
-0.999685, 463, 311, 478, 326
-0.99969, 121, 301, 136, 316
-0.999691, 117, 357, 132, 372
-0.999691, 65, 305, 80, 320
-0.999691, 361, 315, 376, 330
-0.999692, 117, 349, 132, 364
-0.999693, 479, 321, 494, 336
-0.999693, 143, 245, 158, 260
-0.999695, 9, 273, 24, 288
-0.999696, 17, 359, 32, 374
-0.999697, 77, 315, 92, 330
-0.999699, 27, 287, 42, 302
-0.9997, 85, 261, 100, 276
-0.999702, 19, 281, 34, 296
-0.999702, 443, 291, 458, 306
-0.999702, 265, 181, 280, 196
-0.999703, 123, 351, 138, 366
-0.999704, 447, 303, 462, 318
-0.999704, 345, 225, 360, 240
-0.999705, 257, 255, 272, 270
-0.999707, 201, 273, 216, 288
-0.999707, 483, 349, 498, 364
-0.999708, 483, 355, 498, 370
-0.999709, 125, 279, 140, 294
-0.99971, 121, 331, 136, 346
-0.999711, 53, 323, 68, 338
-0.999712, 33, 291, 48, 306
-0.999713, 435, 323, 450, 338
-0.999715, 379, 15, 394, 30
-0.999716, 45, 299, 60, 314
-0.999717, 69, 329, 84, 344
-0.999718, 449, 277, 464, 292
-0.999718, 251, 251, 266, 266
-0.999728, 19, 353, 34, 368
-0.999728, 59, 301, 74, 316
-0.999729, 53, 329, 68, 344
-0.999731, 115, 329, 130, 344
-0.999733, 39, 295, 54, 310
-0.999734, 83, 317, 98, 332
-0.999741, 63, 329, 78, 344
-0.999742, 259, 183, 274, 198
-0.999744, 441, 285, 456, 300
-0.999745, 223, 243, 238, 258
-0.999746, 441, 323, 456, 338
-0.999751, 109, 327, 124, 342
-0.999751, 67, 335, 82, 350
-0.999752, 265, 189, 280, 204
-0.999752, 99, 323, 114, 338
-0.999754, 451, 283, 466, 298
-0.99976, 217, 247, 232, 262
-0.999764, 89, 319, 104, 334
-0.999918, 433, 129, 464, 375
-0.999974, 401, 129, 432, 375
-1.00004, 29, 129, 60, 375
-1.0001, 385, 129, 416, 375
-1.00094, 137, 1, 200, 128
-1.00119, 321, 1, 448, 64
-1.00278, 1, 9, 500, 72
-1.00399, 105, 1, 168, 128
-1.00626, 1, 177, 64, 304
-1.00782, 393, 145, 456, 272
-1.00951, 25, 129, 88, 256
-1.01107, 369, 97, 496, 224
-1.01169, 377, 97, 440, 224
-1.0137, 409, 97, 472, 224
-1.01555, 1, 129, 64, 256
-1.0171, 433, 97, 496, 224
