1974
-0.317462, 1, 1, 500, 374
-0.42277, 1, 33, 500, 288
-0.490451, 97, 1, 352, 374
-0.503084, 1, 129, 500, 374
-0.520237, 225, 1, 480, 374
-0.523751, 1, 1, 256, 374
-0.536103, 33, 1, 288, 256
-0.645969, 1, 97, 256, 352
-0.698747, 193, 65, 448, 320
-0.757067, 97, 97, 352, 352
-0.818894, 17, 33, 144, 288
-0.837162, 1, 1, 128, 374
-0.860548, 33, 129, 160, 374
-0.864708, 209, 1, 336, 374
-0.869392, 241, 65, 368, 320
-0.869494, 65, 1, 192, 374
-0.872048, 321, 1, 448, 374
-0.873261, 321, 33, 448, 288
-0.873949, 81, 33, 208, 288
-0.874205, 193, 33, 320, 288
-0.878557, 369, 1, 496, 374
-0.883246, 1, 49, 500, 176
-0.891983, 257, 1, 384, 374
-0.898201, 369, 33, 496, 288
-0.900613, 161, 1, 288, 374
-0.904447, 177, 129, 304, 374
-0.910353, 1, 33, 256, 160
-0.912588, 1, 97, 500, 224
-0.912768, 1, 161, 500, 288
-0.917032, 289, 129, 416, 374
-0.918046, 17, 33, 144, 160
-0.91904, 129, 33, 256, 288
-0.91997, 113, 1, 240, 374
-0.920438, 81, 129, 208, 374
-0.921999, 81, 17, 144, 144
-0.922975, 1, 81, 128, 208
-0.923862, 161, 129, 416, 256
-0.924123, 1, 193, 256, 320
-0.925747, 1, 129, 256, 256
-0.926784, 73, 65, 136, 192
-0.927246, 65, 81, 320, 208
-0.928829, 9, 145, 72, 272
-0.928991, 129, 129, 256, 374
-0.930509, 33, 97, 96, 224
-0.931438, 193, 65, 448, 192
-0.93171, 41, 17, 104, 144
-0.932625, 33, 161, 96, 288
-0.934626, 1, 145, 128, 272
-0.937204, 9, 97, 72, 224
-0.937455, 241, 129, 368, 256
-0.938436, 17, 33, 80, 160
-0.939958, 17, 193, 144, 320
-0.940696, 1, 1, 500, 128
-0.94105, 1, 209, 500, 336
-0.943495, 65, 65, 192, 192
-0.944013, 33, 209, 96, 336
-0.944209, 81, 65, 144, 128
-0.944362, 97, 241, 352, 368
-0.945231, 105, 49, 168, 176
-0.945284, 97, 41, 160, 104
-0.945751, 305, 129, 368, 256
-0.946459, 337, 129, 464, 374
-0.946676, 9, 161, 72, 224
-0.948101, 33, 209, 96, 272
-0.948192, 289, 81, 416, 208
-0.950611, 1, 241, 256, 368
-0.951322, 81, 113, 144, 240
-0.952074, 337, 49, 464, 176
-0.952463, 33, 145, 96, 208
-0.952973, 65, 89, 128, 152
-0.953731, 9, 97, 72, 160
-0.953731, 9, 137, 72, 200
-0.953865, 97, 17, 352, 144
-0.954244, 49, 129, 176, 256
-0.954284, 65, 17, 192, 144
-0.954441, 297, 81, 360, 208
-0.954536, 1, 193, 64, 320
-0.954564, 329, 97, 392, 224
-0.954743, 33, 233, 96, 296
-0.95498, 57, 17, 120, 80
-0.955038, 33, 169, 96, 232
-0.95514, 97, 177, 352, 304
-0.955258, 9, 217, 72, 280
-0.955637, 113, 33, 240, 160
-0.955879, 9, 185, 72, 248
-0.956022, 33, 241, 160, 368
-0.956123, 209, 49, 336, 176
-0.956204, 321, 49, 384, 176
-0.956374, 185, 161, 248, 288
-0.956379, 153, 193, 216, 320
-0.957182, 121, 49, 184, 112
-0.957195, 57, 65, 120, 128
-0.95747, 33, 33, 96, 288
-0.957602, 65, 161, 128, 288
-0.958196, 257, 113, 500, 240
-0.9585, 281, 129, 344, 256
-0.958593, 289, 129, 416, 256
-0.959055, 57, 113, 120, 240
-0.95933, 249, 129, 312, 256
-0.9597, 41, 97, 104, 160
-0.959738, 73, 113, 136, 176
-0.960272, 109, 65, 140, 128
-0.960284, 1, 241, 64, 368
-0.96051, 89, 89, 152, 152
-0.960974, 337, 97, 464, 224
-0.961221, 193, 177, 448, 304
-0.961869, 305, 145, 368, 208
-0.961874, 193, 129, 320, 256
-0.962124, 41, 121, 104, 184
-0.962221, 65, 1, 128, 256
-0.962789, 65, 177, 192, 304
-0.962875, 37, 161, 68, 288
-0.963213, 25, 49, 88, 112
-0.963551, 109, 33, 140, 160
-0.963814, 369, 49, 432, 176
-0.963854, 337, 153, 400, 216
-0.964152, 89, 1, 120, 128
-0.964435, 9, 129, 72, 374
-0.964749, 345, 49, 408, 176
-0.964798, 433, 49, 496, 176
-0.965013, 177, 193, 304, 320
-0.96508, 265, 81, 328, 208
-0.965255, 129, 209, 256, 336
-0.965864, 209, 193, 272, 320
-0.966003, 1, 33, 64, 288
-0.966016, 65, 41, 128, 104
-0.966034, 393, 49, 456, 176
-0.966034, 337, 145, 400, 272
-0.966055, 209, 65, 272, 192
-0.966247, 201, 113, 264, 240
-0.966251, 129, 49, 192, 176
-0.966334, 33, 73, 96, 136
-0.966342, 225, 129, 288, 256
-0.966457, 241, 145, 304, 208
-0.966906, 289, 33, 416, 160
-0.967119, 177, 241, 304, 368
-0.967129, 17, 73, 144, 136
-0.96714, 353, 97, 416, 224
-0.967231, 37, 169, 68, 232
-0.967299, 105, 1, 168, 128
-0.967348, 81, 17, 144, 80
-0.967666, 29, 81, 60, 208
-0.967695, 57, 225, 120, 352
-0.96854, 241, 65, 304, 192
-0.968921, 9, 241, 72, 304
-0.969777, 41, 257, 104, 320
-0.969796, 93, 81, 124, 144
-0.970038, 33, 129, 96, 374
-0.970042, 177, 185, 240, 248
-0.97028, 33, 25, 160, 88
-0.970282, 217, 241, 280, 368
-0.97043, 265, 145, 328, 208
-0.970494, 193, 17, 448, 144
-0.970592, 29, 145, 60, 208
-0.971058, 89, 57, 120, 120
-0.971307, 57, 17, 88, 144
-0.971356, 125, 41, 156, 104
-0.971712, 93, 49, 124, 176
-0.971992, 105, 97, 168, 224
-0.972011, 129, 161, 256, 288
-0.972029, 1, 201, 128, 264
-0.972067, 185, 209, 248, 336
-0.972287, 41, 233, 72, 296
-0.972419, 257, 177, 320, 304
-0.972466, 113, 89, 176, 152
-0.972515, 29, 217, 60, 280
-0.972609, 73, 313, 136, 374
-0.972654, 41, 33, 72, 160
-0.972782, 225, 177, 352, 304
-0.97279, 377, 97, 440, 224
-0.97282, 17, 145, 48, 272
-0.972893, 17, 169, 144, 232
-0.972933, 113, 305, 176, 368
-0.972986, 17, 97, 144, 160
-0.973007, 33, 257, 160, 320
-0.973022, 73, 73, 104, 136
-0.973055, 13, 145, 44, 208
-0.973103, 29, 97, 60, 160
-0.973127, 193, 241, 448, 368
-0.973328, 1, 73, 64, 136
-0.973363, 5, 129, 36, 256
-0.97359, 29, 193, 60, 256
-0.973595, 185, 241, 248, 304
-0.973735, 37, 209, 68, 336
-0.973873, 289, 65, 352, 128
-0.973924, 1, 49, 64, 112
-0.973955, 29, 33, 60, 160
-0.97401, 5, 169, 36, 232
-0.974062, 241, 73, 304, 136
-0.97434, 121, 33, 152, 160
-0.974392, 337, 33, 400, 288
-0.974494, 73, 201, 136, 264
-0.974495, 17, 129, 144, 192
-0.974599, 65, 49, 192, 112
-0.97472, 201, 129, 264, 192
-0.974972, 41, 113, 72, 240
-0.97498, 201, 153, 264, 216
-0.975104, 241, 145, 368, 208
-0.975159, 53, 201, 84, 264
-0.975286, 1, 273, 64, 336
-0.975314, 77, 97, 108, 160
-0.975335, 77, 17, 108, 144
-0.975382, 225, 265, 288, 328
-0.975475, 49, 177, 80, 304
-0.975526, 73, 65, 104, 192
-0.975648, 97, 105, 128, 168
-0.975798, 21, 169, 52, 232
-0.975869, 337, 145, 464, 272
-0.975879, 209, 57, 272, 120
-0.975883, 177, 113, 240, 240
-0.975952, 109, 41, 140, 104
-0.976113, 113, 81, 240, 208
-0.976128, 97, 33, 160, 288
-0.976133, 65, 225, 128, 288
-0.976151, 57, 145, 120, 208
-0.976405, 249, 105, 312, 168
-0.976411, 217, 241, 280, 304
-0.976513, 113, 81, 144, 208
-0.976771, 17, 97, 48, 224
-0.976811, 177, 217, 240, 280
-0.976814, 305, 169, 368, 232
-0.97689, 201, 185, 264, 248
-0.977003, 113, 145, 176, 272
-0.977154, 321, 105, 384, 168
-0.977295, 109, 97, 140, 160
-0.977438, 353, 145, 384, 208
-0.977568, 97, 249, 160, 312
-0.977583, 153, 177, 216, 240
-0.977667, 97, 113, 160, 176
-0.977684, 5, 33, 36, 160
-0.977724, 89, 17, 120, 80
-0.977747, 121, 273, 184, 336
-0.977827, 17, 121, 48, 184
-0.977832, 25, 193, 56, 320
-0.977911, 57, 177, 120, 240
-0.977936, 17, 305, 80, 368
-0.978025, 1, 81, 32, 208
-0.97807, 161, 81, 288, 208
-0.978238, 57, 129, 120, 374
-0.978283, 289, 145, 416, 208
-0.978418, 97, 273, 160, 336
-0.978431, 153, 217, 216, 280
-0.978534, 113, 57, 240, 120
-0.978563, 297, 129, 328, 256
-0.978585, 209, 97, 336, 160
-0.978586, 49, 225, 80, 352
-0.978701, 57, 81, 88, 208
-0.978707, 49, 1, 112, 374
-0.978714, 145, 265, 208, 328
-0.978762, 1, 49, 128, 112
-0.978769, 153, 145, 216, 272
-0.978795, 61, 129, 92, 256
-0.978807, 281, 121, 344, 184
-0.978868, 41, 201, 72, 264
-0.978915, 49, 137, 80, 200
-0.978971, 185, 265, 248, 328
-0.978993, 265, 57, 328, 120
-0.979004, 33, 25, 96, 88
-0.979012, 289, 177, 416, 304
-0.979014, 297, 65, 360, 320
-0.979074, 129, 241, 192, 368
-0.979168, 9, 97, 40, 160
-0.979195, 333, 129, 364, 256
-0.979225, 101, 97, 132, 224
-0.979262, 257, 33, 320, 288
-0.979273, 81, 225, 208, 352
-0.979354, 233, 193, 296, 320
-0.979413, 73, 17, 104, 80
-0.979494, 33, 281, 160, 344
-0.979532, 153, 241, 216, 368
-0.979583, 97, 225, 160, 352
-0.979586, 177, 169, 304, 232
-0.979618, 193, 65, 320, 128
-0.979717, 241, 169, 304, 232
-0.979768, 281, 97, 344, 160
-0.979822, 113, 89, 240, 152
-0.979846, 209, 81, 272, 144
-0.979994, 349, 49, 380, 176
-0.980033, 5, 209, 36, 272
-0.980166, 125, 81, 156, 144
-0.980254, 209, 217, 272, 280
-0.980375, 1, 1, 64, 374
-0.980406, 333, 145, 364, 208
-0.980496, 357, 97, 388, 224
-0.980642, 65, 105, 192, 168
-0.980669, 61, 113, 92, 176
-0.980714, 33, 225, 160, 288
-0.980819, 209, 65, 272, 320
-0.980863, 329, 65, 392, 128
-0.980873, 289, 105, 416, 168
-0.980878, 217, 105, 280, 168
-0.980906, 177, 161, 240, 224
-0.980943, 345, 97, 376, 224
-0.980975, 61, 33, 92, 96
-0.981046, 297, 145, 328, 208
-0.981155, 345, 177, 408, 240
-0.981191, 281, 169, 344, 232
-0.981226, 29, 73, 60, 136
-0.981291, 313, 81, 344, 208
-0.981382, 17, 233, 48, 296
-0.981399, 185, 65, 248, 320
-0.981408, 365, 145, 396, 208
-0.981442, 177, 145, 304, 208
-0.98147, 281, 33, 344, 160
-0.981564, 133, 273, 164, 336
-0.981864, 281, 113, 312, 240
-0.981874, 17, 209, 48, 272
-0.98189, 1, 121, 32, 184
-0.981899, 61, 73, 92, 136
-0.981954, 61, 233, 92, 296
-0.982012, 237, 193, 268, 320
-0.982129, 105, 17, 168, 80
-0.982143, 65, 73, 192, 136
-0.982149, 81, 137, 144, 200
-0.982196, 249, 241, 312, 368
-0.982357, 85, 97, 116, 224
-0.982361, 1, 145, 32, 208
-0.982428, 65, 169, 192, 232
-0.98243, 241, 121, 368, 184
-0.982583, 361, 33, 424, 288
-0.982693, 133, 33, 164, 160
-0.982738, 17, 33, 48, 160
-0.982796, 37, 121, 68, 184
-0.982909, 1, 177, 32, 304
-0.982981, 273, 81, 400, 144
-0.983102, 369, 113, 432, 176
-0.98313, 73, 249, 136, 312
-0.983174, 377, 49, 408, 176
-0.983182, 137, 41, 168, 104
-0.983231, 345, 129, 408, 192
-0.983231, 25, 1, 88, 374
-0.983267, 53, 257, 84, 320
-0.98329, 325, 81, 356, 208
-0.983323, 9, 49, 40, 112
-0.983374, 337, 49, 368, 176
-0.983405, 309, 129, 340, 256
-0.983417, 49, 305, 176, 368
-0.983551, 193, 177, 224, 240
-0.983621, 293, 81, 324, 208
-0.983679, 121, 305, 152, 368
-0.98371, 365, 49, 396, 176
-0.983737, 61, 145, 92, 208
-0.983744, 113, 265, 240, 328
-0.983763, 281, 145, 312, 208
-0.983793, 41, 97, 72, 160
-0.9838, 145, 193, 272, 256
-0.98382, 433, 33, 496, 288
-0.984035, 81, 161, 112, 288
-0.984163, 317, 137, 348, 200
-0.984212, 217, 305, 280, 368
-0.984232, 369, 97, 400, 224
-0.984302, 13, 193, 44, 320
-0.98435, 393, 33, 456, 288
-0.984381, 49, 193, 176, 256
-0.984477, 29, 49, 60, 112
-0.984489, 121, 1, 184, 256
-0.984778, 49, 33, 80, 96
-0.984863, 29, 249, 60, 312
-0.984875, 185, 177, 216, 304
-0.984902, 61, 209, 92, 336
-0.984933, 213, 241, 244, 304
-0.984936, 265, 1, 328, 374
-0.984976, 241, 57, 368, 120
-0.984987, 49, 177, 80, 240
-0.985204, 73, 1, 136, 374
-0.985219, 193, 105, 256, 168
-0.985271, 121, 273, 152, 336
-0.985275, 401, 113, 464, 240
-0.985356, 361, 145, 424, 272
-0.985381, 281, 49, 312, 176
-0.985425, 113, 169, 240, 232
-0.985497, 109, 17, 140, 80
-0.985507, 209, 185, 240, 248
-0.985538, 305, 57, 432, 120
-0.985636, 425, 49, 456, 176
-0.985648, 97, 289, 224, 352
-0.985685, 337, 113, 464, 176
-0.985764, 133, 249, 164, 312
-0.985781, 81, 121, 112, 184
-0.985809, 241, 49, 304, 112
-0.985811, 353, 145, 384, 272
-0.98591, 217, 1, 280, 374
-0.985933, 81, 129, 208, 192
-0.985939, 245, 129, 276, 256
-0.985986, 41, 305, 104, 368
-0.986056, 129, 1, 192, 128
-0.986075, 293, 57, 324, 120
-0.986079, 265, 129, 328, 374
-0.986292, 225, 241, 256, 304
-0.986324, 113, 33, 240, 96
-0.986371, 405, 49, 436, 176
-0.986382, 417, 1, 480, 374
-0.986382, 185, 289, 248, 352
-0.986422, 113, 241, 240, 304
-0.986429, 457, 49, 488, 176
-0.986458, 393, 1, 456, 374
-0.986465, 177, 121, 304, 184
-0.986487, 81, 161, 144, 224
-0.98653, 129, 25, 192, 88
-0.986578, 177, 265, 304, 328
-0.986608, 369, 57, 432, 120
-0.986638, 241, 169, 368, 232
-0.986647, 137, 241, 200, 304
-0.986651, 345, 105, 408, 168
-0.986692, 313, 57, 344, 120
-0.986789, 321, 129, 352, 256
-0.986848, 65, 169, 96, 232
-0.986848, 253, 241, 284, 368
-0.98686, 265, 129, 296, 256
-0.986875, 173, 193, 204, 320
-0.987028, 289, 169, 416, 232
-0.987057, 233, 129, 296, 374
-0.987075, 433, 57, 496, 120
-0.987101, 209, 97, 240, 160
-0.987107, 233, 33, 296, 288
-0.987113, 337, 1, 464, 128
-0.987151, 393, 49, 424, 176
-0.987163, 269, 145, 300, 208
-0.987223, 97, 313, 224, 374
-0.98729, 469, 49, 500, 176
-0.987299, 241, 1, 304, 374
-0.987372, 81, 129, 144, 374
-0.987392, 1, 73, 32, 136
-0.987532, 181, 169, 212, 232
-0.9876, 193, 1, 256, 374
-0.987653, 409, 57, 472, 120
-0.987678, 65, 209, 96, 272
-0.987699, 369, 161, 432, 224
-0.987759, 281, 177, 344, 304
-0.987781, 289, 1, 352, 374
-0.987833, 445, 49, 476, 176
-0.987913, 241, 57, 272, 120
-0.987939, 9, 169, 72, 200
-0.987981, 269, 73, 300, 136
-0.987986, 73, 241, 104, 304
-0.98805, 197, 193, 228, 320
-0.988086, 97, 45, 160, 76
-0.988117, 221, 65, 252, 192
-0.988135, 249, 257, 280, 320
-0.988137, 181, 193, 212, 256
-0.988202, 177, 241, 304, 304
-0.98823, 229, 129, 260, 192
-0.988271, 81, 101, 144, 132
-0.988302, 369, 1, 432, 374
-0.988308, 1, 25, 64, 88
-0.988348, 249, 137, 280, 200
-0.988378, 337, 1, 400, 374
-0.988379, 33, 181, 96, 212
-0.98847, 77, 217, 108, 280
-0.988504, 81, 69, 144, 100
-0.988532, 237, 241, 268, 304
-0.98854, 89, 85, 152, 116
-0.988563, 209, 113, 240, 240
-0.988568, 293, 81, 324, 144
-0.988593, 65, 113, 128, 144
-0.988611, 121, 193, 184, 320
-0.988622, 337, 161, 464, 224
-0.988638, 225, 57, 256, 120
-0.988647, 5, 233, 36, 296
-0.988684, 381, 97, 412, 224
-0.988729, 65, 89, 128, 120
-0.988767, 233, 265, 264, 328
-0.988805, 65, 25, 128, 56
-0.98881, 225, 97, 256, 160
-0.988814, 9, 129, 72, 160
-0.98896, 97, 129, 128, 192
-0.988961, 133, 225, 164, 352
-0.988977, 409, 121, 472, 184
-0.988992, 137, 73, 200, 136
-0.989004, 33, 197, 96, 228
-0.989025, 1, 221, 64, 252
-0.989051, 285, 161, 316, 288
-0.989055, 77, 49, 108, 112
-0.98907, 9, 185, 72, 216
-0.989107, 321, 81, 448, 144
-0.989109, 217, 121, 248, 184
-0.989116, 281, 105, 312, 168
-0.989123, 57, 125, 120, 156
-0.989148, 269, 105, 300, 168
-0.989163, 17, 237, 80, 268
-0.989166, 265, 65, 296, 192
-0.989167, 129, 177, 192, 240
-0.989187, 209, 65, 240, 192
-0.989241, 33, 221, 96, 252
-0.989279, 237, 105, 268, 168
-0.989292, 221, 145, 252, 272
-0.989302, 1, 313, 128, 374
-0.989326, 41, 165, 104, 196
-0.989348, 353, 57, 480, 120
-0.98938, 1, 209, 64, 240
-0.989414, 33, 249, 96, 280
-0.989439, 225, 193, 256, 320
-0.989454, 9, 153, 72, 184
-0.989477, 113, 217, 240, 280
-0.989493, 41, 89, 104, 120
-0.989499, 253, 65, 284, 192
-0.989557, 249, 265, 312, 328
-0.989572, 365, 145, 396, 272
-0.989621, 185, 65, 248, 192
-0.989627, 321, 129, 384, 374
-0.989631, 161, 49, 224, 112
-0.98964, 113, 57, 176, 88
-0.989655, 213, 65, 244, 128
-0.989656, 137, 65, 168, 128
-0.989656, 249, 305, 312, 368
-0.989674, 345, 105, 376, 168
-0.98968, 33, 129, 96, 160
-0.989683, 113, 249, 144, 312
-0.989699, 41, 149, 104, 180
-0.989705, 225, 241, 352, 368
-0.989707, 17, 73, 48, 136
-0.989719, 209, 209, 240, 272
-0.989721, 241, 1, 368, 128
-0.989743, 121, 105, 152, 168
-0.989759, 297, 121, 328, 184
-0.989768, 81, 57, 144, 88
-0.989773, 33, 81, 288, 144
-0.989807, 221, 273, 252, 336
-0.989844, 229, 217, 260, 280
-0.98989, 33, 209, 96, 240
-0.9899, 249, 81, 280, 144
-0.989949, 161, 241, 224, 304
-0.98996, 297, 169, 328, 232
-0.989965, 233, 65, 264, 192
-0.990001, 313, 177, 376, 304
-0.990015, 41, 233, 104, 264
-0.990022, 25, 101, 88, 132
-0.990042, 233, 201, 296, 264
-0.990074, 49, 37, 112, 68
-0.990075, 97, 33, 160, 64
-0.990086, 9, 197, 72, 228
-0.990091, 25, 241, 56, 368
-0.990095, 433, 105, 496, 168
-0.990109, 185, 277, 248, 308
-0.9902, 57, 77, 120, 108
-0.990271, 333, 169, 364, 232
-0.990321, 57, 245, 120, 276
-0.990323, 337, 161, 400, 192
-0.990335, 201, 153, 232, 216
-0.990341, 85, 161, 116, 224
-0.990389, 97, 217, 160, 280
-0.990424, 105, 73, 168, 104
-0.990432, 9, 141, 72, 172
-0.99051, 105, 97, 168, 128
-0.990514, 145, 273, 208, 304
-0.990532, 57, 101, 120, 132
-0.990546, 41, 261, 104, 292
-0.990555, 1, 101, 64, 132
-0.990566, 305, 145, 368, 176
-0.99059, 193, 217, 224, 280
-0.990597, 249, 177, 280, 304
-0.9906, 1, 145, 256, 208
-0.990604, 25, 117, 88, 148
-0.990618, 65, 137, 128, 168
-0.990619, 433, 113, 496, 240
-0.99064, 1, 177, 256, 240
-0.990705, 401, 97, 464, 160
-0.990713, 57, 65, 120, 96
-0.990722, 253, 105, 284, 168
-0.99077, 161, 89, 288, 152
-0.99079, 153, 1, 216, 374
-0.990792, 9, 249, 72, 280
-0.9908, 9, 49, 72, 80
-0.990809, 1, 117, 64, 148
-0.990814, 133, 297, 164, 360
-0.990825, 241, 145, 304, 176
-0.990895, 89, 117, 152, 148
-0.990915, 129, 121, 256, 184
-0.990934, 53, 305, 84, 368
-0.990959, 193, 197, 256, 228
-0.99096, 193, 193, 320, 256
-0.991005, 217, 265, 280, 296
-0.991012, 57, 181, 120, 212
-0.991015, 97, 1, 160, 374
-0.991019, 125, 81, 156, 208
-0.991031, 177, 265, 240, 296
-0.991063, 169, 217, 232, 248
-0.991075, 41, 49, 104, 80
-0.991079, 337, 57, 368, 120
-0.991159, 81, 9, 208, 72
-0.991166, 337, 137, 464, 200
-0.99118, 249, 241, 312, 304
-0.991207, 193, 129, 224, 256
-0.991221, 109, 225, 140, 352
-0.991238, 193, 145, 448, 208
-0.991244, 97, 193, 224, 256
-0.991248, 377, 81, 440, 144
-0.99125, 193, 217, 320, 280
-0.991275, 153, 225, 184, 352
-0.991292, 25, 73, 88, 104
-0.991299, 281, 57, 312, 120
-0.991317, 73, 333, 136, 364
-0.991354, 265, 149, 328, 180
-0.991355, 285, 177, 316, 240
-0.991363, 313, 1, 376, 374
-0.991364, 185, 181, 248, 212
-0.991373, 253, 57, 284, 120
-0.991383, 33, 121, 288, 184
-0.991396, 153, 153, 216, 216
-0.991412, 289, 97, 352, 128
-0.991414, 233, 145, 264, 272
-0.991414, 73, 289, 136, 352
-0.991421, 73, 345, 136, 374
-0.991427, 25, 281, 88, 344
-0.991436, 121, 45, 184, 76
-0.991437, 329, 149, 392, 180
-0.991441, 1, 41, 256, 104
-0.991442, 185, 249, 248, 280
-0.991458, 193, 209, 256, 240
-0.99146, 225, 245, 288, 276
-0.99148, 217, 69, 280, 100
-0.991514, 201, 241, 232, 304
-0.991515, 161, 33, 224, 160
-0.991517, 73, 193, 136, 224
-0.991547, 81, 185, 112, 248
-0.991565, 209, 133, 272, 164
-0.991573, 161, 181, 224, 212
-0.991576, 73, 41, 136, 72
-0.991585, 297, 77, 360, 108
-0.991594, 261, 193, 292, 320
-0.991623, 1, 249, 256, 312
-0.99163, 273, 61, 336, 92
-0.991638, 113, 333, 176, 364
-0.991639, 73, 321, 136, 352
-0.991648, 109, 73, 140, 104
-0.991665, 1, 81, 64, 112
-0.991669, 113, 309, 176, 340
-0.991672, 113, 345, 176, 374
-0.991678, 305, 41, 368, 104
-0.991684, 209, 233, 272, 264
-0.991698, 9, 241, 40, 368
-0.991702, 57, 209, 120, 240
-0.991707, 241, 61, 304, 92
-0.991711, 97, 289, 160, 320
-0.991713, 329, 105, 360, 168
-0.991721, 305, 157, 368, 188
-0.991733, 265, 77, 328, 108
-0.991752, 121, 209, 184, 272
-0.991759, 377, 161, 408, 224
-0.991765, 225, 161, 256, 224
-0.991778, 121, 85, 184, 116
-0.991797, 305, 169, 368, 200
-0.9918, 1, 201, 256, 264
-0.991801, 73, 153, 136, 184
-0.991813, 37, 273, 68, 336
-0.991819, 185, 273, 216, 336
-0.991848, 209, 177, 240, 304
-0.991858, 209, 17, 272, 144
-0.991867, 89, 177, 152, 304
-0.991871, 1, 285, 64, 316
-0.991884, 129, 73, 192, 104
-0.991888, 73, 225, 104, 352
-0.991906, 21, 25, 52, 88
-0.991938, 25, 61, 88, 92
-0.991945, 61, 245, 92, 276
-0.991949, 153, 261, 216, 292
-0.991949, 245, 201, 276, 264
-0.991966, 237, 161, 268, 224
-0.991974, 217, 277, 280, 308
-0.991983, 129, 297, 192, 328
-0.991984, 113, 261, 176, 292
-0.991985, 305, 33, 336, 160
-0.991986, 41, 177, 72, 208
-0.992002, 281, 137, 344, 168
-0.992025, 97, 109, 128, 140
-0.992029, 113, 273, 176, 304
-0.992034, 153, 285, 216, 316
-0.992036, 217, 169, 280, 200
-0.992046, 1, 273, 64, 304
-0.992048, 49, 137, 80, 168
-0.992054, 73, 169, 136, 200
-0.992055, 17, 261, 80, 292
-0.992081, 17, 297, 80, 328
-0.992086, 241, 269, 304, 300
-0.99209, 241, 157, 304, 188
-0.992097, 29, 169, 60, 200
-0.992104, 177, 289, 240, 320
-0.992109, 241, 201, 368, 264
-0.992118, 81, 253, 144, 284
-0.992135, 137, 205, 200, 236
-0.99214, 281, 161, 344, 192
-0.992157, 201, 157, 264, 188
-0.992164, 25, 317, 88, 348
-0.992167, 321, 105, 384, 136
-0.992182, 89, 89, 120, 120
-0.992184, 93, 53, 124, 84
-0.992189, 113, 321, 176, 352
-0.992195, 241, 173, 304, 204
-0.992198, 109, 37, 140, 68
-0.992198, 189, 249, 220, 312
-0.992215, 205, 265, 236, 328
-0.992217, 349, 169, 380, 232
-0.992217, 101, 193, 132, 256
-0.992219, 233, 17, 296, 144
-0.992221, 73, 229, 136, 260
-0.992233, 169, 197, 232, 228
-0.992249, 177, 137, 240, 200
-0.992289, 25, 37, 88, 68
-0.992291, 193, 221, 256, 252
-0.992296, 109, 121, 140, 184
-0.992299, 89, 273, 152, 304
-0.992301, 33, 217, 64, 248
-0.992304, 89, 21, 120, 52
-0.992309, 145, 217, 208, 248
-0.992325, 201, 57, 264, 88
-0.992334, 13, 177, 44, 208
-0.992339, 85, 105, 116, 136
-0.99234, 25, 229, 56, 260
-0.99234, 241, 81, 304, 112
-0.992349, 185, 57, 248, 120
-0.992352, 237, 241, 268, 368
-0.992352, 185, 169, 248, 200
-0.992361, 89, 309, 152, 340
-0.992362, 37, 129, 68, 160
-0.992372, 201, 85, 264, 116
-0.992373, 41, 189, 72, 220
-0.992373, 145, 289, 208, 352
-0.992382, 89, 129, 152, 160
-0.992398, 305, 61, 368, 92
-0.992408, 305, 193, 368, 256
-0.992409, 329, 61, 392, 92
-0.99241, 369, 89, 496, 152
-0.992412, 41, 245, 72, 276
-0.992417, 5, 121, 36, 152
-0.992417, 193, 121, 256, 152
-0.992426, 109, 101, 140, 132
-0.992428, 85, 117, 116, 148
-0.992464, 1, 221, 32, 252
-0.992469, 85, 65, 116, 96
-0.992469, 309, 105, 340, 168
-0.992471, 193, 97, 448, 160
-0.992473, 125, 45, 156, 76
-0.992483, 73, 245, 104, 276
-0.99249, 161, 177, 192, 240
-0.992501, 37, 205, 68, 236
-0.992509, 61, 133, 92, 164
-0.992521, 33, 37, 160, 68
-0.992535, 17, 161, 48, 192
-0.992536, 53, 229, 84, 260
-0.992544, 169, 313, 232, 374
-0.992552, 37, 145, 68, 176
-0.992557, 29, 157, 60, 188
-0.992558, 393, 97, 424, 224
-0.992578, 45, 217, 76, 248
-0.992599, 25, 185, 56, 216
-0.992601, 25, 129, 56, 160
-0.992605, 125, 57, 156, 88
-0.992611, 5, 165, 36, 196
-0.992613, 69, 109, 100, 140
-0.992638, 105, 61, 136, 92
-0.992639, 57, 121, 88, 152
-0.992645, 69, 121, 100, 152
-0.992649, 25, 201, 56, 232
-0.992654, 185, 265, 216, 296
-0.992661, 105, 85, 136, 116
-0.992685, 57, 201, 88, 232
-0.992696, 9, 101, 40, 132
-0.992705, 53, 257, 84, 288
-0.992707, 337, 145, 368, 176
-0.992713, 73, 77, 104, 108
-0.992716, 41, 233, 72, 264
-0.992733, 65, 181, 96, 212
-0.992738, 265, 33, 328, 96
-0.992744, 65, 257, 96, 288
-0.992757, 89, 77, 120, 108
-0.992763, 41, 165, 72, 196
-0.992767, 21, 213, 52, 244
-0.992777, 185, 281, 216, 312
-0.992778, 197, 181, 228, 212
-0.99278, 121, 89, 152, 120
-0.992788, 129, 145, 256, 208
-0.992797, 53, 157, 84, 188
-0.9928, 353, 153, 384, 184
-0.992804, 97, 265, 352, 328
-0.992811, 105, 129, 168, 374
-0.992817, 29, 245, 60, 276
-0.992822, 97, 121, 128, 152
-0.992832, 137, 45, 168, 76
-0.992843, 25, 141, 56, 172
-0.99285, 297, 149, 328, 180
-0.992863, 109, 25, 140, 56
-0.992864, 97, 41, 128, 72
-0.992868, 1, 97, 500, 160
-0.992873, 129, 285, 160, 316
-0.992878, 1, 205, 32, 236
-0.992882, 249, 245, 280, 276
-0.992885, 137, 269, 168, 300
-0.992904, 161, 1, 288, 128
-0.992906, 57, 33, 88, 64
-0.992909, 1, 181, 32, 212
-0.992916, 69, 25, 100, 56
-0.99294, 21, 49, 52, 80
-0.992941, 81, 129, 112, 160
-0.992943, 217, 193, 248, 224
-0.992945, 217, 261, 248, 292
-0.992945, 25, 89, 56, 120
-0.992947, 29, 101, 60, 132
-0.992947, 229, 261, 260, 292
-0.99295, 111, 65, 126, 128
-0.992952, 73, 113, 104, 240
-0.992954, 237, 241, 268, 272
-0.99296, 241, 269, 272, 300
-0.992961, 205, 269, 236, 300
-0.992962, 121, 101, 152, 132
-0.992977, 221, 273, 252, 304
-0.992982, 161, 169, 416, 232
-0.992992, 13, 233, 44, 264
-0.992994, 113, 49, 144, 80
-0.992996, 73, 65, 104, 96
-0.992997, 317, 149, 348, 180
-0.992997, 17, 253, 48, 284
-0.993005, 325, 33, 356, 160
-0.993009, 117, 345, 148, 374
-0.993016, 49, 93, 80, 124
-0.993019, 77, 93, 108, 124
-0.993022, 65, 149, 96, 180
-0.993024, 221, 125, 252, 156
-0.993024, 1, 133, 32, 164
-0.993033, 45, 41, 76, 72
-0.99305, 125, 309, 156, 340
-0.993054, 5, 161, 20, 224
-0.993059, 41, 261, 72, 292
-0.993063, 329, 41, 392, 104
-0.993066, 197, 245, 228, 276
-0.993072, 209, 177, 240, 208
-0.993089, 33, 89, 160, 120
-0.99309, 17, 117, 48, 148
-0.993093, 9, 145, 40, 176
-0.993093, 353, 165, 384, 196
-0.993094, 113, 113, 144, 144
-0.993104, 185, 241, 216, 368
-0.993105, 9, 193, 40, 224
-0.993113, 209, 109, 240, 140
-0.993116, 5, 49, 36, 80
-0.993124, 253, 273, 284, 304
-0.993125, 313, 69, 344, 100
-0.993125, 33, 49, 64, 80
-0.993129, 1, 85, 32, 116
-0.993129, 65, 233, 96, 264
-0.993131, 29, 113, 60, 144
-0.993131, 31, 161, 46, 224
-0.993134, 129, 33, 160, 64
-0.993136, 85, 249, 116, 280
-0.993145, 209, 85, 240, 116
-0.993147, 57, 217, 88, 248
-0.993151, 53, 189, 84, 220
-0.993155, 237, 137, 268, 168
-0.993156, 197, 205, 228, 236
-0.993158, 181, 213, 212, 244
-0.993159, 53, 169, 84, 200
-0.993159, 105, 177, 168, 240
-0.993165, 249, 257, 280, 288
-0.993168, 221, 237, 252, 268
-0.993179, 265, 145, 296, 176
-0.993183, 117, 273, 148, 304
-0.993193, 161, 33, 288, 96
-0.993194, 117, 289, 148, 320
-0.993195, 209, 229, 240, 260
-0.993197, 81, 41, 112, 72
-0.993198, 81, 149, 112, 180
-0.993231, 97, 57, 352, 120
-0.99329, 337, 1, 400, 128
-0.99332, 105, 153, 168, 216
-0.993352, 225, 249, 352, 312
-0.993356, 161, 177, 192, 304
-0.993378, 1, 185, 16, 248
-0.993408, 131, 33, 146, 96
-0.993457, 273, 33, 400, 96
-0.99351, 33, 289, 288, 352
-0.993516, 313, 1, 376, 128
-0.993534, 93, 161, 124, 288
-0.993538, 197, 241, 228, 368
-0.993545, 17, 109, 144, 140
-0.993584, 1, 225, 256, 288
-0.993584, 121, 1, 184, 374
-0.993593, 337, 185, 464, 248
-0.993662, 101, 89, 116, 152
-0.993706, 33, 77, 160, 108
-0.993742, 1, 121, 16, 184
-0.993793, 121, 65, 136, 128
-0.993855, 241, 149, 368, 180
-0.993909, 17, 177, 144, 208
-0.99392, 29, 105, 44, 168
-0.993931, 25, 1, 88, 64
-0.993965, 1, 121, 128, 152
-0.993978, 45, 209, 60, 272
-0.993979, 65, 53, 192, 84
-0.994034, 129, 145, 192, 208
-0.994046, 51, 169, 66, 232
-0.994056, 17, 133, 144, 164
-0.994074, 393, 1, 456, 128
-0.99409, 161, 33, 224, 288
-0.994097, 1, 57, 500, 120
-0.994148, 81, 65, 96, 128
-0.994155, 39, 145, 54, 208
-0.994209, 225, 33, 352, 96
-0.994227, 1, 165, 128, 196
-0.994233, 97, 145, 352, 208
-0.994279, 137, 41, 152, 104
-0.994297, 281, 193, 344, 256
-0.994304, 97, 241, 352, 304
-0.994312, 169, 105, 232, 168
-0.994339, 1, 161, 500, 224
-0.994345, 7, 137, 22, 200
-0.99436, 19, 145, 34, 208
-0.994389, 39, 209, 54, 272
-0.994413, 1, 233, 128, 264
-0.994419, 11, 169, 26, 232
-0.994492, 105, 41, 120, 104
-0.994498, 91, 57, 106, 120
-0.994506, 33, 225, 48, 288
-0.99452, 43, 233, 58, 296
-0.994523, 33, 253, 160, 284
-0.99453, 91, 81, 106, 144
-0.994536, 433, 1, 496, 128
-0.99459, 45, 161, 60, 224
-0.994606, 111, 33, 126, 96
-0.994634, 101, 17, 116, 80
-0.994645, 209, 313, 336, 374
-0.994665, 127, 73, 142, 136
-0.994673, 17, 189, 144, 220
-0.994686, 33, 313, 288, 374
-0.994717, 17, 153, 144, 184
-0.994727, 37, 169, 52, 232
-0.994741, 1, 97, 16, 160
-0.994765, 369, 33, 496, 96
-0.994804, 115, 105, 130, 168
-0.994815, 107, 97, 122, 160
-0.994824, 31, 137, 46, 200
-0.994852, 49, 281, 112, 344
-0.99487, 51, 225, 66, 288
-0.994888, 97, 65, 112, 128
-0.994893, 51, 137, 66, 200
-0.994893, 221, 241, 252, 368
-0.994897, 377, 145, 408, 272
-0.99494, 177, 81, 240, 144
-0.99497, 149, 177, 180, 304
-0.994999, 1, 49, 128, 80
-0.995, 273, 105, 400, 136
-0.995002, 225, 57, 480, 120
-0.995008, 55, 193, 70, 256
-0.995017, 135, 273, 150, 336
-0.99505, 17, 65, 48, 320
-0.995066, 209, 225, 240, 352
-0.99508, 69, 241, 84, 304
-0.995106, 9, 217, 24, 280
-0.995134, 113, 73, 240, 104
-0.995155, 41, 97, 56, 160
-0.995182, 83, 105, 98, 168
-0.995197, 153, 129, 216, 374
-0.995206, 17, 201, 144, 232
-0.995242, 75, 113, 90, 176
-0.995244, 53, 1, 84, 256
-0.995295, 425, 81, 488, 144
-0.995303, 31, 185, 46, 248
-0.995317, 177, 265, 304, 296
-0.995323, 23, 209, 38, 272
-0.99535, 45, 185, 60, 248
-0.995357, 65, 65, 192, 96
-0.995373, 123, 97, 138, 160
-0.9954, 293, 33, 324, 160
-0.995401, 409, 33, 472, 96
-0.995412, 17, 61, 144, 92
-0.995418, 87, 17, 102, 80
-0.995421, 149, 49, 180, 176
-0.995436, 361, 1, 424, 128
-0.99545, 17, 1, 144, 64
-0.995451, 45, 137, 60, 200
-0.995467, 289, 161, 416, 192
-0.995469, 301, 145, 316, 208
-0.995472, 65, 109, 192, 140
-0.995503, 15, 217, 30, 280
-0.995505, 75, 73, 90, 136
-0.99551, 5, 65, 36, 320
-0.995524, 7, 193, 22, 256
-0.99553, 209, 33, 272, 96
-0.995542, 165, 129, 196, 256
-0.995549, 357, 153, 372, 216
-0.995562, 29, 65, 60, 320
-0.995573, 113, 265, 240, 296
-0.995579, 75, 241, 90, 304
-0.995586, 369, 33, 432, 96
-0.995593, 257, 17, 320, 144
-0.995593, 49, 25, 176, 56
-0.99561, 13, 137, 28, 200
-0.995611, 57, 145, 72, 208
-0.995618, 129, 281, 144, 344
-0.995628, 289, 193, 416, 256
-0.995632, 17, 221, 144, 252
-0.99564, 143, 41, 158, 104
-0.995652, 345, 129, 408, 374
-0.995654, 109, 33, 140, 288
-0.995667, 197, 169, 212, 232
-0.995686, 47, 97, 62, 160
-0.995688, 23, 121, 38, 184
-0.995689, 93, 1, 124, 256
-0.995704, 93, 113, 108, 176
-0.995715, 29, 81, 44, 144
-0.995717, 177, 253, 304, 284
-0.995743, 35, 105, 50, 168
-0.995747, 95, 17, 110, 80
-0.99578, 425, 113, 456, 240
-0.995792, 75, 25, 90, 88
-0.995794, 49, 121, 176, 152
-0.9958, 207, 169, 222, 232
-0.995801, 173, 241, 204, 368
-0.995825, 97, 33, 352, 96
-0.995868, 35, 249, 50, 312
-0.995895, 193, 169, 320, 200
-0.995908, 23, 97, 38, 160
-0.995909, 13, 193, 28, 256
-0.995915, 321, 33, 448, 96
-0.995915, 293, 145, 308, 208
-0.995919, 27, 233, 42, 296
-0.995925, 105, 65, 120, 128
-0.995927, 161, 193, 416, 256
-0.995929, 65, 241, 192, 272
-0.995946, 129, 121, 384, 184
-0.995953, 49, 313, 176, 344
-0.995957, 69, 105, 84, 168
-0.995971, 123, 41, 138, 104
-0.995987, 311, 145, 326, 208
-0.996003, 81, 89, 208, 120
-0.996006, 209, 65, 336, 96
-0.996007, 49, 97, 80, 352
-0.99601, 135, 297, 150, 360
-0.996014, 7, 105, 22, 168
-0.996031, 137, 161, 168, 288
-0.996038, 219, 177, 234, 240
-0.996056, 1, 209, 16, 272
-0.996072, 209, 289, 336, 352
-0.996092, 213, 177, 228, 240
-0.996113, 81, 25, 96, 88
-0.996114, 345, 145, 360, 208
-0.996125, 197, 81, 228, 208
-0.99613, 129, 185, 256, 216
-0.996155, 79, 209, 94, 272
-0.996187, 81, 41, 208, 72
-0.996213, 113, 177, 144, 304
-0.996218, 25, 169, 40, 232
-0.996226, 1, 17, 256, 80
-0.996228, 81, 169, 208, 200
-0.996246, 233, 249, 248, 312
-0.996248, 295, 169, 310, 232
-0.996249, 135, 249, 150, 312
-0.996252, 21, 41, 36, 104
-0.996272, 133, 81, 148, 144
-0.996279, 63, 241, 78, 304
-0.996291, 43, 49, 58, 112
-0.996292, 63, 145, 78, 208
-0.996301, 363, 145, 378, 208
-0.996303, 15, 113, 30, 176
-0.996304, 283, 105, 298, 168
-0.996311, 17, 169, 32, 232
-0.996311, 87, 161, 102, 224
-0.996316, 301, 177, 332, 304
-0.996325, 323, 137, 338, 200
-0.996329, 369, 145, 384, 208
-0.99633, 257, 121, 500, 184
-0.996347, 77, 137, 92, 200
-0.996352, 61, 201, 76, 264
-0.996364, 383, 153, 398, 216
-0.996371, 187, 177, 202, 240
-0.996374, 113, 61, 240, 92
-0.996379, 209, 109, 336, 140
-0.996383, 87, 129, 102, 192
-0.996385, 377, 153, 392, 216
-0.996393, 33, 273, 160, 304
-0.996407, 113, 101, 240, 132
-0.996408, 49, 325, 176, 356
-0.996411, 21, 233, 36, 296
-0.996413, 211, 201, 226, 264
-0.996418, 65, 197, 192, 228
-0.996445, 51, 41, 66, 104
-0.99645, 41, 1, 72, 256
-0.996453, 25, 145, 40, 208
-0.996479, 125, 305, 140, 368
-0.996497, 1, 345, 128, 374
-0.996502, 333, 137, 348, 200
-0.996502, 227, 241, 242, 304
-0.996503, 49, 289, 176, 320
-0.996503, 65, 1, 96, 256
-0.996514, 69, 81, 84, 144
-0.996514, 121, 1, 152, 256
-0.996519, 153, 97, 216, 224
-0.996549, 257, 225, 384, 288
-0.996552, 69, 25, 84, 88
-0.996557, 289, 149, 416, 180
-0.996562, 177, 277, 304, 308
-0.996579, 257, 169, 500, 232
-0.996587, 215, 81, 230, 144
-0.996591, 117, 33, 132, 96
-0.996596, 107, 121, 122, 184
-0.996611, 177, 185, 304, 216
-0.996612, 161, 289, 288, 352
-0.996621, 101, 113, 116, 176
-0.996628, 125, 145, 156, 272
-0.996648, 351, 153, 366, 216
-0.996651, 197, 201, 212, 264
-0.996662, 97, 41, 112, 104
-0.996669, 81, 1, 112, 256
-0.996679, 241, 77, 368, 108
-0.996688, 113, 277, 240, 308
-0.996696, 193, 89, 320, 120
-0.996709, 59, 33, 74, 96
-0.996724, 305, 57, 320, 120
-0.996728, 31, 57, 46, 120
-0.99675, 283, 73, 298, 136
-0.996768, 57, 305, 72, 368
-0.996771, 61, 97, 92, 352
-0.99678, 73, 217, 88, 280
-0.996782, 313, 65, 328, 128
-0.99679, 7, 81, 22, 144
-0.996817, 177, 145, 304, 176
-0.996821, 49, 169, 64, 200
-0.996833, 273, 177, 304, 304
-0.996893, 181, 129, 212, 256
-0.9969, 177, 157, 304, 188
-0.996924, 51, 129, 66, 160
-0.996964, 241, 173, 368, 204
-0.996967, 117, 61, 132, 92
-0.99697, 1, 193, 500, 256
-0.996971, 65, 249, 80, 280
-0.996973, 101, 105, 116, 136
-0.996983, 49, 337, 176, 368
-0.997008, 37, 169, 52, 200
-0.997011, 59, 129, 74, 160
-0.997025, 129, 201, 256, 232
-0.997031, 121, 241, 152, 368
-0.99705, 65, 213, 192, 244
-0.997061, 31, 165, 46, 196
-0.997082, 65, 153, 192, 184
-0.997086, 45, 205, 60, 236
-0.997116, 437, 113, 468, 240
-0.997118, 47, 217, 62, 248
-0.997128, 1, 317, 128, 348
-0.997131, 289, 65, 416, 96
-0.997134, 9, 165, 24, 196
-0.997136, 71, 245, 86, 276
-0.997177, 91, 117, 106, 148
-0.997177, 1, 185, 16, 216
-0.997195, 77, 245, 92, 276
-0.997197, 123, 73, 138, 104
-0.997227, 137, 41, 152, 72
-0.99723, 285, 33, 316, 288
-0.997237, 177, 241, 304, 272
-0.997238, 53, 185, 68, 216
-0.997238, 53, 221, 68, 252
-0.997242, 101, 89, 116, 120
-0.997258, 35, 193, 50, 224
-0.997287, 1, 305, 128, 336
-0.99731, 97, 313, 224, 344
-0.997312, 289, 173, 416, 204
-0.997315, 65, 181, 192, 212
-0.997339, 353, 33, 384, 288
-0.997348, 225, 137, 352, 168
-0.997351, 1, 137, 500, 200
-0.997355, 241, 161, 368, 192
-0.997355, 461, 113, 492, 240
-0.997358, 1, 25, 128, 56
-0.997374, 333, 33, 364, 288
-0.997383, 3, 121, 18, 152
-0.997396, 109, 97, 124, 128
-0.997409, 39, 221, 54, 252
-0.997434, 341, 177, 372, 304
-0.997447, 43, 129, 58, 160
-0.997452, 161, 229, 288, 260
-0.997454, 101, 57, 116, 88
-0.997456, 53, 145, 68, 176
-0.99746, 97, 253, 224, 284
-0.997478, 95, 89, 110, 120
-0.99748, 87, 101, 102, 132
-0.997484, 177, 205, 304, 236
-0.997485, 1, 133, 16, 164
-0.997493, 111, 109, 126, 140
-0.997494, 261, 249, 276, 280
-0.997498, 273, 93, 400, 124
-0.9975, 79, 109, 94, 140
-0.9975, 321, 109, 448, 140
-0.997505, 81, 69, 96, 100
-0.997505, 1, 33, 500, 96
-0.99751, 129, 289, 384, 352
-0.997529, 43, 173, 58, 204
-0.997544, 3, 165, 18, 196
-0.997548, 101, 117, 116, 148
-0.997552, 59, 253, 74, 284
-0.997559, 117, 105, 132, 136
-0.997562, 109, 73, 124, 104
-0.997564, 193, 77, 320, 108
-0.997567, 233, 261, 248, 292
-0.997579, 97, 97, 128, 352
-0.997582, 81, 121, 96, 152
-0.997588, 413, 97, 444, 224
-0.997591, 11, 181, 26, 212
-0.997595, 193, 265, 208, 296
-0.997598, 193, 257, 448, 320
-0.997601, 41, 233, 56, 264
-0.997608, 65, 129, 80, 160
-0.997609, 129, 85, 256, 116
-0.99762, 19, 173, 34, 204
-0.997621, 337, 165, 464, 196
-0.997629, 27, 181, 42, 212
-0.99763, 59, 141, 74, 172
-0.997631, 209, 65, 240, 320
-0.997633, 1, 109, 16, 140
-0.997634, 129, 45, 256, 76
-0.99765, 1, 217, 500, 280
-0.997655, 55, 165, 70, 196
-0.99766, 131, 89, 146, 120
-0.997675, 313, 33, 344, 288
-0.997689, 103, 77, 118, 108
-0.997696, 9, 121, 24, 152
-0.997706, 161, 65, 288, 96
-0.997713, 107, 45, 122, 76
-0.997714, 103, 21, 118, 52
-0.997735, 1, 217, 16, 248
-0.997737, 47, 157, 62, 188
-0.997738, 113, 217, 240, 248
-0.99774, 265, 33, 296, 288
-0.997741, 365, 33, 396, 288
-0.997743, 85, 249, 100, 280
-0.997744, 19, 157, 34, 188
-0.997744, 93, 57, 108, 88
-0.997745, 145, 49, 160, 80
-0.997747, 49, 237, 64, 268
-0.997748, 107, 57, 122, 88
-0.997766, 129, 53, 144, 84
-0.997766, 97, 301, 224, 332
-0.997767, 87, 65, 102, 96
-0.997776, 129, 289, 256, 320
-0.997781, 369, 61, 496, 92
-0.997783, 33, 253, 48, 284
-0.997788, 97, 217, 352, 280
-0.997788, 27, 233, 42, 264
-0.997789, 145, 173, 272, 204
-0.997789, 21, 121, 36, 152
-0.997789, 43, 185, 58, 216
-0.9978, 33, 233, 48, 264
-0.997802, 87, 165, 102, 196
-0.997805, 71, 133, 86, 164
-0.997807, 49, 301, 176, 332
-0.997825, 127, 41, 142, 72
-0.997825, 297, 33, 328, 288
-0.997827, 135, 273, 150, 304
-0.997841, 37, 129, 52, 160
-0.997843, 93, 105, 108, 136
-0.997844, 225, 265, 352, 296
-0.997847, 39, 249, 54, 280
-0.997848, 33, 217, 48, 248
-0.997865, 45, 97, 60, 128
-0.997866, 377, 33, 408, 288
-0.997866, 113, 33, 128, 64
-0.997871, 347, 145, 362, 176
-0.997878, 161, 133, 288, 164
-0.997881, 1, 333, 128, 364
-0.997895, 193, 217, 448, 280
-0.997908, 123, 97, 138, 128
-0.997908, 29, 109, 44, 140
-0.99791, 225, 249, 352, 280
-0.997912, 21, 217, 36, 248
-0.997916, 35, 181, 50, 212
-0.997919, 199, 281, 214, 312
-0.997932, 39, 205, 54, 236
-0.997942, 3, 205, 18, 236
-0.997943, 133, 289, 148, 320
-0.997945, 27, 217, 42, 248
-0.997953, 75, 121, 90, 152
-0.997961, 197, 181, 212, 212
-0.997963, 101, 41, 116, 72
-0.997965, 59, 177, 74, 208
-0.997968, 85, 21, 100, 52
-0.997985, 187, 265, 202, 296
-0.997992, 87, 153, 102, 184
-0.997996, 29, 129, 44, 160
-0.997999, 65, 189, 80, 220
-0.998, 325, 129, 356, 374
-0.998001, 449, 33, 480, 288
-0.998004, 207, 213, 222, 244
-0.998008, 129, 9, 256, 72
-0.998013, 97, 329, 224, 360
-0.998015, 65, 145, 80, 176
-0.998015, 213, 181, 228, 212
-0.998021, 41, 141, 56, 172
-0.998024, 359, 145, 374, 176
-0.998024, 469, 33, 500, 288
-0.998024, 327, 149, 342, 180
-0.998027, 113, 229, 240, 260
-0.998028, 97, 341, 224, 372
-0.998052, 75, 29, 90, 60
-0.998052, 75, 257, 90, 288
-0.998054, 353, 121, 480, 152
-0.998055, 83, 133, 98, 164
-0.998057, 7, 101, 22, 132
-0.998057, 23, 97, 38, 128
-0.99806, 65, 261, 80, 292
-0.99806, 51, 205, 66, 236
-0.998061, 57, 201, 72, 232
-0.998062, 65, 137, 192, 168
-0.998074, 79, 153, 94, 184
-0.998078, 337, 145, 464, 176
-0.998087, 219, 181, 234, 212
-0.998088, 243, 273, 258, 304
-0.998089, 41, 153, 56, 184
-0.998089, 143, 289, 158, 320
-0.998089, 129, 241, 256, 272
-0.99809, 31, 85, 46, 116
-0.998091, 355, 157, 370, 188
-0.998093, 207, 177, 222, 208
-0.998093, 123, 61, 138, 92
-0.998093, 85, 97, 116, 352
-0.998096, 193, 281, 208, 312
-0.998104, 59, 241, 74, 272
-0.998104, 393, 33, 424, 288
-0.998111, 55, 41, 70, 72
-0.998115, 433, 33, 464, 288
-0.998126, 97, 241, 128, 368
-0.998133, 107, 33, 122, 64
-0.998133, 229, 273, 244, 304
-0.998144, 217, 193, 232, 224
-0.998154, 75, 73, 90, 104
-0.998155, 97, 9, 352, 72
-0.998163, 405, 33, 436, 288
-0.998173, 145, 313, 272, 374
-0.998178, 421, 33, 452, 288
-0.998186, 289, 77, 416, 108
-0.998219, 161, 217, 288, 248
-0.998245, 253, 33, 284, 288
-0.998281, 73, 129, 104, 374
-0.998287, 297, 129, 328, 374
-0.998301, 321, 89, 448, 120
-0.998308, 221, 33, 252, 288
-0.99833, 133, 1, 164, 256
-0.998367, 241, 53, 368, 84
-0.99837, 33, 185, 96, 200
-0.998374, 241, 185, 368, 216
-0.998381, 111, 33, 126, 160
-0.998384, 65, 225, 192, 256
-0.998387, 89, 89, 152, 104
-0.998389, 97, 43, 160, 58
-0.998393, 9, 175, 72, 190
-0.998393, 117, 49, 132, 176
-0.998403, 57, 261, 88, 276
-0.998404, 125, 61, 156, 76
-0.998404, 325, 177, 356, 304
-0.998404, 121, 101, 152, 116
-0.998404, 197, 187, 228, 202
-0.998405, 65, 159, 96, 174
-0.998405, 185, 267, 216, 282
-0.998406, 9, 103, 40, 118
-0.998406, 53, 221, 84, 236
-0.998407, 33, 201, 96, 216
-0.998409, 25, 211, 56, 226
-0.998409, 1, 221, 32, 236
-0.998409, 25, 95, 56, 110
-0.998409, 129, 285, 160, 300
-0.99841, 353, 159, 384, 174
-0.998411, 129, 89, 160, 104
-0.998411, 9, 199, 40, 214
-0.998412, 117, 345, 148, 360
-0.998413, 41, 233, 72, 248
-0.998414, 353, 147, 384, 162
-0.998414, 65, 129, 96, 144
-0.998414, 129, 291, 160, 306
-0.998414, 297, 149, 328, 164
-0.998414, 5, 177, 36, 192
-0.998414, 53, 237, 84, 252
-0.998416, 57, 41, 88, 56
-0.998416, 73, 75, 104, 90
-0.998416, 185, 275, 216, 290
-0.998418, 217, 195, 248, 210
-0.998418, 181, 215, 212, 230
-0.998418, 97, 49, 160, 64
-0.998419, 221, 249, 252, 264
-0.998419, 1, 133, 32, 148
-0.99842, 57, 197, 88, 212
-0.998421, 93, 33, 124, 48
-0.998421, 65, 83, 128, 98
-0.998421, 137, 57, 168, 72
-0.998423, 365, 153, 396, 168
-0.998423, 225, 277, 256, 292
-0.998424, 81, 105, 144, 120
-0.998424, 33, 103, 64, 118
-0.998424, 45, 213, 76, 228
-0.998428, 249, 265, 280, 280
-0.998429, 65, 123, 96, 138
-0.998429, 93, 69, 124, 84
-0.99843, 109, 129, 140, 374
-0.998431, 21, 51, 52, 66
-0.998431, 41, 179, 104, 194
-0.998432, 1, 215, 32, 230
-0.998432, 341, 147, 372, 162
-0.998432, 33, 249, 96, 264
-0.998434, 73, 153, 104, 168
-0.998435, 17, 131, 48, 146
-0.998435, 73, 257, 104, 272
-0.998435, 89, 83, 152, 98
-0.998437, 105, 33, 136, 48
-0.998439, 65, 33, 128, 48
-0.998441, 33, 225, 96, 240
-0.998441, 57, 137, 88, 152
-0.998441, 9, 169, 72, 184
-0.998442, 73, 105, 104, 120
-0.998443, 49, 251, 80, 266
-0.998444, 5, 117, 36, 132
-0.998445, 53, 173, 84, 188
-0.998446, 109, 83, 140, 98
-0.998446, 41, 163, 104, 178
-0.998446, 309, 129, 340, 374
-0.998447, 233, 129, 264, 374
-0.998449, 65, 89, 128, 104
-0.998449, 69, 85, 100, 100
-0.998451, 69, 203, 100, 218
-0.998453, 61, 151, 92, 166
-0.998454, 1, 223, 64, 238
-0.998454, 81, 111, 112, 126
-0.998454, 109, 69, 140, 84
-0.998455, 73, 245, 104, 260
-0.998456, 21, 225, 52, 240
-0.998457, 9, 181, 72, 196
-0.998458, 9, 203, 72, 218
-0.998461, 41, 173, 72, 188
-0.998461, 85, 209, 116, 336
-0.998463, 201, 179, 232, 194
-0.998463, 65, 71, 128, 86
-0.998464, 13, 161, 44, 176
-0.998465, 81, 63, 144, 78
-0.998466, 65, 121, 128, 136
-0.998466, 33, 243, 96, 258
-0.998466, 313, 71, 344, 86
-0.998466, 41, 195, 104, 210
-0.998466, 25, 217, 56, 232
-0.998467, 49, 129, 112, 144
-0.998467, 289, 137, 416, 168
-0.998467, 125, 43, 156, 58
-0.998469, 85, 63, 116, 78
-0.998469, 33, 219, 96, 234
-0.99847, 9, 163, 72, 178
-0.99847, 105, 95, 136, 110
-0.998472, 237, 273, 268, 288
-0.998473, 33, 253, 64, 268
-0.998474, 33, 157, 64, 172
-0.998474, 9, 157, 72, 172
-0.998474, 1, 195, 64, 210
-0.998475, 225, 125, 352, 156
-0.998477, 45, 207, 76, 222
-0.998479, 1, 165, 32, 180
-0.998479, 57, 209, 88, 224
-0.99848, 33, 207, 96, 222
-0.99848, 81, 95, 144, 110
-0.998486, 117, 55, 148, 70
-0.998486, 37, 163, 68, 178
-0.998487, 97, 51, 128, 66
-0.998488, 77, 119, 108, 134
-0.998488, 45, 145, 76, 160
-0.998489, 101, 117, 132, 132
-0.998489, 25, 131, 88, 146
-0.998491, 25, 231, 88, 246
-0.998491, 33, 203, 64, 218
-0.998494, 5, 227, 36, 242
-0.998497, 77, 129, 108, 144
-0.998498, 1, 233, 64, 248
-0.9985, 1, 123, 32, 138
-0.9985, 53, 159, 84, 174
-0.9985, 109, 101, 140, 116
-0.998501, 109, 45, 140, 60
-0.998501, 89, 95, 120, 110
-0.998501, 65, 27, 128, 42
-0.998501, 17, 177, 48, 192
-0.998502, 41, 149, 104, 164
-0.998502, 97, 55, 160, 70
-0.998504, 65, 77, 128, 92
-0.998504, 41, 169, 104, 184
-0.998504, 53, 227, 84, 242
-0.998506, 65, 181, 96, 196
-0.998506, 57, 249, 120, 264
-0.998506, 97, 125, 128, 140
-0.998507, 17, 167, 48, 182
-0.998509, 105, 63, 136, 78
-0.998509, 109, 89, 140, 104
-0.998509, 47, 145, 62, 272
-0.998511, 53, 179, 84, 194
-0.998512, 133, 49, 164, 64
-0.998513, 21, 185, 52, 200
-0.998513, 65, 115, 128, 130
-0.998514, 29, 175, 60, 190
-0.998517, 49, 43, 112, 58
-0.998517, 29, 139, 60, 154
-0.998519, 33, 157, 96, 172
-0.998519, 41, 99, 104, 114
-0.998522, 69, 111, 100, 126
-0.998522, 353, 153, 384, 168
-0.998522, 89, 77, 152, 92
-0.998526, 49, 131, 80, 146
-0.998526, 1, 209, 64, 224
-0.998528, 45, 81, 60, 208
-0.998529, 45, 139, 76, 154
-0.998529, 41, 245, 72, 260
-0.998532, 97, 111, 128, 126
-0.998537, 1, 217, 64, 232
-0.998537, 73, 251, 104, 266
-0.998538, 45, 199, 76, 214
-0.998538, 73, 127, 136, 142
-0.99854, 109, 107, 140, 122
-0.998543, 33, 213, 96, 228
-0.998544, 41, 193, 72, 208
-0.998546, 1, 133, 64, 148
-0.998546, 25, 105, 88, 120
-0.998549, 21, 195, 52, 210
-0.998549, 25, 255, 88, 270
-0.998551, 1, 189, 64, 204
-0.998552, 29, 133, 60, 148
-0.998552, 41, 93, 104, 108
-0.998553, 97, 37, 160, 52
-0.998553, 73, 201, 136, 216
-0.998557, 9, 139, 72, 154
-0.998557, 121, 69, 184, 84
-0.998557, 57, 203, 88, 218
-0.998557, 9, 51, 72, 66
-0.998558, 121, 59, 184, 74
-0.998561, 29, 231, 60, 246
-0.998562, 49, 137, 112, 152
-0.998563, 321, 149, 384, 164
-0.998564, 9, 247, 72, 262
-0.998565, 9, 183, 40, 198
-0.998565, 1, 101, 64, 116
-0.998567, 105, 1, 120, 128
-0.998568, 185, 277, 248, 292
-0.998569, 29, 169, 60, 184
-0.998573, 57, 185, 120, 200
-0.998573, 105, 101, 168, 116
-0.998574, 113, 113, 240, 144
-0.998574, 97, 57, 128, 72
-0.998575, 137, 281, 200, 296
-0.998576, 185, 213, 248, 228
-0.998576, 97, 121, 160, 136
-0.998577, 85, 23, 116, 38
-0.998578, 25, 83, 88, 98
-0.998578, 345, 165, 408, 180
-0.99858, 197, 65, 228, 320
-0.998581, 37, 219, 68, 234
-0.998581, 193, 283, 256, 298
-0.998581, 9, 241, 72, 256
-0.998582, 89, 89, 120, 104
-0.998582, 1, 107, 64, 122
-0.998582, 41, 123, 104, 138
-0.998583, 89, 105, 120, 120
-0.998585, 61, 247, 92, 262
-0.998586, 89, 117, 120, 132
-0.998587, 73, 355, 136, 370
-0.998588, 41, 177, 56, 304
-0.998588, 89, 83, 120, 98
-0.998589, 57, 109, 120, 124
-0.998589, 225, 333, 352, 364
-0.99859, 17, 113, 80, 128
-0.998591, 193, 249, 256, 264
-0.998591, 41, 179, 72, 194
-0.998592, 49, 255, 112, 270
-0.998592, 245, 129, 276, 374
-0.998592, 121, 53, 184, 68
-0.998594, 73, 349, 136, 364
-0.998598, 89, 111, 152, 126
-0.998598, 33, 261, 96, 276
-0.998598, 225, 275, 288, 290
-0.998598, 41, 225, 72, 240
-0.998599, 105, 95, 168, 110
-0.998602, 321, 157, 384, 172
-0.998602, 153, 275, 216, 290
-0.998604, 161, 215, 224, 230
-0.998604, 353, 177, 480, 208
-0.998607, 17, 121, 80, 136
-0.998607, 73, 179, 136, 194
-0.99861, 73, 255, 136, 270
-0.99861, 345, 157, 408, 172
-0.998611, 73, 341, 136, 356
-0.998614, 185, 269, 248, 284
-0.998615, 177, 177, 240, 192
-0.998615, 217, 243, 280, 258
-0.998615, 217, 263, 280, 278
-0.998616, 289, 101, 352, 116
-0.998616, 113, 345, 176, 360
-0.998616, 123, 33, 138, 160
-0.998617, 337, 129, 368, 374
-0.998617, 281, 75, 344, 90
-0.998619, 1, 253, 64, 268
-0.998621, 81, 133, 144, 148
-0.998622, 17, 95, 80, 110
-0.998624, 25, 75, 88, 90
-0.998625, 113, 309, 176, 324
-0.998626, 113, 331, 176, 346
-0.998626, 17, 147, 80, 162
-0.998628, 185, 189, 248, 204
-0.998628, 241, 79, 304, 94
-0.998628, 73, 153, 136, 168
-0.998628, 321, 163, 384, 178
-0.998628, 73, 195, 136, 210
-0.998629, 281, 177, 344, 192
-0.99863, 73, 147, 136, 162
-0.998632, 153, 267, 216, 282
-0.998633, 121, 75, 184, 90
-0.998634, 281, 143, 344, 158
-0.998634, 73, 41, 136, 56
-0.998634, 185, 183, 248, 198
-0.998634, 65, 53, 128, 68
-0.998634, 217, 269, 280, 284
-0.998634, 345, 1, 376, 128
-0.998636, 73, 243, 136, 258
-0.998636, 41, 237, 104, 252
-0.998637, 109, 39, 140, 54
-0.998637, 113, 339, 176, 354
-0.998641, 305, 171, 368, 186
-0.998641, 241, 147, 304, 162
-0.998643, 161, 183, 224, 198
-0.998643, 177, 243, 240, 258
-0.998646, 79, 17, 94, 144
-0.998659, 99, 1, 114, 128
-0.998661, 1, 293, 128, 324
-0.998662, 109, 75, 140, 90
-0.998663, 37, 187, 68, 202
-0.998667, 55, 161, 70, 288
-0.99868, 161, 121, 288, 152
-0.99869, 45, 33, 60, 160
-0.998692, 233, 33, 264, 288
-0.998694, 85, 17, 100, 144
-0.998701, 129, 157, 256, 188
-0.998703, 61, 253, 92, 268
-0.998712, 51, 97, 66, 224
-0.998714, 369, 105, 496, 136
-0.998716, 93, 1, 108, 128
-0.998728, 81, 13, 208, 44
-0.998731, 79, 65, 94, 192
-0.998744, 241, 237, 368, 268
-0.99875, 73, 17, 88, 144
-0.998751, 193, 53, 320, 84
-0.998757, 177, 289, 304, 320
-0.998759, 97, 125, 224, 156
-0.998769, 53, 33, 68, 160
-0.99877, 19, 129, 34, 256
-0.998772, 337, 193, 400, 320
-0.998777, 97, 25, 224, 56
-0.998787, 105, 65, 120, 192
-0.998788, 35, 161, 50, 288
-0.998794, 37, 97, 52, 224
-0.9988, 29, 161, 44, 288
-0.99883, 65, 17, 80, 144
-0.998833, 285, 129, 316, 374
-0.998842, 265, 241, 296, 368
-0.998843, 129, 17, 144, 144
-0.998847, 29, 81, 44, 208
-0.998848, 149, 1, 180, 128
-0.998849, 257, 305, 384, 368
-0.998867, 39, 33, 54, 160
-0.998867, 129, 129, 192, 374
-0.998868, 273, 129, 304, 374
-0.998883, 209, 221, 336, 252
-0.998888, 161, 105, 288, 136
-0.998898, 59, 33, 74, 160
-0.998909, 35, 209, 50, 336
-0.998915, 1, 161, 16, 288
-0.998927, 51, 209, 66, 336
-0.998927, 289, 185, 416, 216
-0.998938, 237, 17, 268, 144
-0.99895, 217, 17, 248, 144
-0.998951, 241, 205, 368, 236
-0.998952, 33, 33, 48, 160
-0.998953, 73, 65, 88, 192
-0.998957, 121, 97, 152, 352
-0.998965, 7, 113, 22, 240
-0.998972, 115, 97, 130, 224
-0.998982, 305, 113, 320, 240
-0.998983, 369, 1, 400, 128
-0.998983, 21, 33, 36, 160
-0.999003, 257, 129, 288, 374
-0.999003, 45, 225, 60, 352
-0.999007, 29, 209, 44, 336
-0.999011, 87, 65, 102, 192
-0.999023, 57, 81, 72, 208
-0.999023, 363, 97, 378, 224
-0.999033, 129, 313, 384, 374
-0.999033, 113, 141, 240, 172
-0.999035, 361, 49, 376, 176
-0.999044, 57, 209, 72, 336
-0.999049, 355, 97, 370, 224
-0.999051, 253, 17, 284, 144
-0.999052, 1, 113, 16, 240
-0.999064, 299, 129, 314, 256
-0.999065, 225, 33, 480, 96
-0.99907, 373, 97, 388, 224
-0.999071, 327, 129, 342, 256
-0.999073, 371, 49, 386, 176
-0.999074, 311, 129, 326, 256
-0.999076, 7, 33, 22, 160
-0.999077, 349, 129, 364, 256
-0.999085, 293, 113, 308, 240
-0.999086, 347, 49, 362, 176
-0.999089, 209, 301, 336, 332
-0.999089, 99, 49, 114, 176
-0.999096, 357, 1, 388, 128
-0.999102, 79, 193, 94, 320
-0.999105, 449, 113, 480, 240
-0.999108, 85, 161, 100, 288
-0.999121, 299, 81, 314, 208
-0.999145, 141, 113, 172, 240
-0.999146, 1, 33, 16, 160
-0.999152, 13, 129, 28, 256
-0.999152, 123, 81, 138, 208
-0.999153, 355, 49, 370, 176
-0.999153, 317, 65, 332, 192
-0.999155, 323, 49, 338, 176
-0.999158, 339, 49, 354, 176
-0.999172, 23, 81, 38, 208
-0.999176, 63, 177, 78, 304
-0.999176, 93, 49, 108, 176
-0.999179, 277, 49, 292, 176
-0.999179, 329, 81, 344, 208
-0.999182, 339, 129, 354, 256
-0.999184, 257, 193, 272, 320
-0.999185, 187, 177, 202, 304
-0.999196, 333, 129, 348, 256
-0.999198, 9, 177, 24, 304
-0.999198, 263, 241, 278, 368
-0.999199, 135, 33, 150, 160
-0.999201, 381, 49, 396, 176
-0.999203, 287, 113, 302, 240
-0.999204, 63, 225, 78, 352
-0.999213, 129, 65, 144, 192
-0.999216, 13, 49, 28, 176
-0.999222, 93, 97, 108, 224
-0.999229, 283, 49, 298, 176
-0.999229, 453, 1, 484, 128
-0.999233, 321, 129, 336, 256
-0.999233, 277, 129, 292, 256
-0.999235, 23, 209, 38, 336
-0.999237, 63, 129, 78, 256
-0.999241, 247, 193, 262, 320
-0.999241, 337, 189, 464, 220
-0.999241, 311, 81, 326, 208
-0.999249, 393, 49, 408, 176
-0.999259, 425, 49, 440, 176
-0.999267, 1, 13, 128, 44
-0.999268, 417, 49, 432, 176
-0.999268, 357, 145, 372, 272
-0.999271, 439, 49, 454, 176
-0.999272, 385, 97, 400, 224
-0.999274, 83, 113, 98, 240
-0.999276, 107, 113, 122, 240
-0.999276, 209, 177, 224, 304
-0.999276, 63, 81, 78, 208
-0.999277, 431, 49, 446, 176
-0.999278, 193, 177, 208, 304
-0.999279, 305, 49, 320, 176
-0.99928, 455, 49, 470, 176
-0.999283, 273, 125, 400, 156
-0.999292, 387, 49, 402, 176
-0.999292, 379, 97, 394, 224
-0.999293, 445, 49, 460, 176
-0.999295, 15, 193, 30, 320
-0.9993, 467, 49, 482, 176
-0.999301, 77, 145, 92, 272
-0.999307, 73, 193, 88, 320
-0.999308, 473, 49, 488, 176
-0.99931, 483, 49, 498, 176
-0.99931, 239, 193, 254, 320
-0.999315, 27, 33, 42, 160
-0.999319, 407, 49, 422, 176
-0.999322, 289, 53, 416, 84
-0.999323, 221, 129, 252, 374
-0.999325, 289, 65, 304, 192
-0.999329, 461, 49, 476, 176
-0.999331, 271, 49, 286, 176
-0.999332, 399, 49, 414, 176
-0.999337, 1, 273, 500, 336
-0.999339, 117, 1, 132, 128
-0.999342, 217, 113, 232, 240
-0.999352, 269, 129, 284, 256
-0.999365, 203, 161, 218, 288
-0.999369, 273, 225, 400, 352
-0.99937, 213, 65, 228, 192
-0.999375, 257, 241, 272, 368
-0.999381, 193, 345, 320, 374
-0.999391, 369, 49, 496, 80
-0.999392, 217, 161, 232, 288
-0.999395, 141, 17, 156, 144
-0.9994, 209, 321, 336, 352
-0.999415, 99, 113, 114, 240
-0.999415, 245, 49, 260, 176
-0.999429, 177, 129, 208, 374
-0.999442, 349, 129, 380, 374
-0.999451, 321, 201, 448, 232
-0.99946, 225, 277, 352, 308
-0.999466, 257, 193, 500, 256
-0.999545, 113, 129, 144, 256
-0.999608, 187, 213, 202, 228
-0.999608, 207, 177, 222, 192
-0.999608, 11, 217, 26, 232
-0.999611, 73, 31, 88, 46
-0.999611, 233, 275, 248, 290
-0.999611, 147, 57, 162, 72
-0.999611, 139, 49, 154, 64
-0.999611, 21, 229, 36, 244
-0.999611, 23, 51, 38, 66
-0.999612, 89, 23, 104, 38
-0.999613, 109, 77, 124, 92
-0.999614, 67, 203, 82, 218
-0.999615, 111, 199, 126, 214
-0.999615, 31, 139, 46, 154
-0.999616, 55, 43, 70, 58
-0.999617, 207, 215, 222, 230
-0.999617, 201, 179, 216, 194
-0.999618, 81, 111, 96, 126
-0.999618, 195, 173, 210, 188
-0.99962, 215, 185, 230, 200
-0.99962, 373, 151, 388, 166
-0.999621, 5, 217, 20, 232
-0.999621, 101, 53, 116, 68
-0.999622, 103, 103, 118, 118
-0.999622, 59, 131, 74, 146
-0.999623, 239, 213, 254, 228
-0.999624, 67, 35, 82, 50
-0.999624, 29, 223, 44, 238
-0.999625, 41, 247, 56, 262
-0.999625, 125, 37, 140, 52
-0.999625, 111, 51, 126, 66
-0.999626, 83, 129, 98, 144
-0.999626, 87, 161, 102, 176
-0.999626, 77, 157, 92, 172
-0.999626, 109, 121, 124, 136
-0.999628, 349, 147, 364, 162
-0.999628, 1, 165, 16, 180
-0.999628, 77, 75, 92, 90
-0.999629, 205, 221, 220, 236
-0.999629, 193, 267, 208, 282
-0.99963, 101, 23, 116, 38
-0.999631, 7, 225, 22, 240
-0.999631, 21, 161, 36, 176
-0.999632, 1, 193, 16, 208
-0.999632, 261, 251, 276, 266
-0.999633, 73, 205, 88, 220
-0.999633, 95, 59, 110, 74
-0.999634, 103, 127, 118, 142
-0.999634, 63, 197, 78, 212
-0.999635, 87, 175, 102, 190
-0.999636, 77, 179, 92, 194
-0.999636, 81, 121, 96, 136
-0.999637, 101, 59, 116, 74
-0.999637, 35, 251, 50, 266
-0.999638, 45, 139, 60, 154
-0.999638, 29, 133, 44, 148
-0.999639, 83, 71, 98, 86
-0.999639, 93, 83, 108, 98
-0.999639, 315, 75, 330, 90
-0.99964, 51, 219, 66, 234
-0.99964, 215, 179, 230, 194
-0.999642, 45, 181, 60, 196
-0.999642, 79, 203, 94, 218
-0.999643, 45, 207, 60, 222
-0.999643, 53, 187, 68, 202
-0.999644, 145, 51, 160, 66
-0.999644, 61, 39, 76, 54
-0.999646, 57, 139, 72, 154
-0.999646, 133, 89, 148, 104
-0.999647, 55, 161, 70, 176
-0.999648, 41, 173, 56, 188
-0.99965, 91, 129, 106, 144
-0.99965, 95, 89, 110, 104
-0.99965, 45, 99, 60, 114
-0.999652, 39, 219, 54, 234
-0.999653, 43, 133, 58, 148
-0.999654, 67, 247, 82, 262
-0.999656, 123, 103, 138, 118
-0.999656, 33, 183, 48, 198
-0.999657, 19, 169, 34, 184
-0.999658, 75, 151, 90, 166
-0.999658, 1, 133, 16, 148
-0.999659, 53, 171, 68, 186
-0.999659, 7, 193, 22, 208
-0.99966, 109, 101, 124, 116
-0.999662, 37, 201, 52, 216
-0.999662, 357, 157, 372, 172
-0.999664, 111, 109, 126, 124
-0.999664, 87, 105, 102, 120
-0.999665, 123, 75, 138, 90
-0.999667, 73, 253, 88, 268
-0.999667, 53, 131, 68, 146
-0.999672, 103, 117, 118, 132
-0.999672, 35, 225, 50, 240
-0.999673, 51, 207, 66, 222
-0.999673, 9, 165, 24, 180
-0.999674, 45, 217, 60, 232
-0.999674, 51, 213, 66, 228
-0.999676, 115, 35, 130, 50
-0.999681, 103, 83, 118, 98
-0.999682, 85, 155, 100, 170
-0.999683, 45, 231, 60, 246
-0.999688, 27, 183, 42, 198
-0.999688, 47, 165, 62, 180
-0.99969, 91, 115, 106, 130
-0.99969, 53, 227, 68, 242
-0.999692, 225, 305, 480, 368
-0.999695, 59, 203, 74, 218
-0.999699, 101, 91, 116, 106
-0.999699, 31, 167, 46, 182
-0.999699, 73, 247, 88, 262
-0.9997, 47, 175, 62, 190
-0.9997, 61, 183, 76, 198
-0.9997, 1, 121, 16, 136
-0.999703, 19, 179, 34, 194
-0.999706, 1, 187, 16, 202
-0.999707, 39, 183, 54, 198
-0.999707, 67, 253, 82, 268
-0.999708, 101, 109, 116, 124
-0.99971, 31, 189, 46, 204
-0.999711, 51, 139, 66, 154
-0.999713, 35, 195, 50, 210
-0.999713, 165, 129, 196, 374
-0.999715, 117, 61, 132, 76
-0.999715, 133, 129, 164, 374
-0.999717, 57, 177, 72, 192
-0.999724, 369, 129, 432, 374
-0.999731, 85, 251, 100, 266
-0.999732, 9, 185, 24, 200
-0.999736, 133, 41, 148, 56
-0.999736, 185, 33, 216, 288
-0.999741, 45, 223, 60, 238
-0.999745, 257, 281, 384, 344
-0.999757, 79, 251, 94, 266
-0.999766, 51, 181, 66, 196
-0.999786, 61, 253, 76, 268
-0.999842, 1, 241, 500, 304
-0.999894, 173, 33, 204, 288
-0.999974, 305, 217, 432, 280
-1.00001, 129, 97, 192, 224
-1.00008, 1, 9, 500, 72
-1.00011, 225, 281, 480, 344
-1.00016, 145, 33, 176, 288
-1.00033, 153, 129, 184, 374
-1.00034, 365, 129, 396, 374
-1.00048, 381, 129, 412, 374
-1.00048, 161, 33, 192, 288
-1.00049, 273, 257, 400, 320
-1.0005, 393, 129, 424, 374
-1.00055, 305, 313, 432, 374
-1.00063, 461, 129, 492, 374
-1.0007, 445, 129, 476, 374
-1.00072, 429, 129, 460, 374
-1.00074, 413, 129, 444, 374
-1.00113, 1, 313, 500, 374
-1.00121, 393, 129, 456, 374
-1.00185, 353, 233, 480, 296
-1.00207, 225, 9, 480, 72
-1.00207, 353, 313, 480, 374
-1.0021, 353, 209, 480, 272
-1.0021, 433, 129, 496, 374
-1.00217, 353, 265, 480, 328
-1.00223, 321, 289, 448, 352
-1.00248, 337, 193, 464, 320
-1.00266, 369, 289, 496, 352
-1.00318, 177, 9, 304, 72
-1.00326, 273, 9, 400, 72
-1.00336, 321, 9, 448, 72
-1.00344, 225, 9, 352, 72
-1.00368, 369, 9, 496, 72
-1.00473, 185, 17, 248, 144
-1.00486, 273, 241, 336, 368
-1.00666, 385, 161, 448, 288
-1.00711, 297, 225, 360, 352
-1.00728, 369, 241, 496, 368
-1.00845, 321, 241, 448, 368
-1.01042, 361, 193, 424, 320
-1.01062, 417, 225, 480, 352
-1.01078, 393, 209, 456, 336
-1.01198, 433, 177, 496, 304
-1.01208, 321, 241, 384, 368
-1.0125, 361, 241, 424, 368
-1.01481, 409, 161, 472, 288
