1954
-0.180999, 1, 1, 500, 375
-0.23895, 1, 129, 500, 375
-0.331695, 97, 1, 352, 375
-0.346962, 1, 33, 500, 288
-0.371288, 193, 1, 448, 375
-0.445021, 129, 33, 384, 288
-0.452922, 1, 1, 256, 375
-0.518105, 257, 129, 500, 375
-0.529427, 65, 129, 320, 375
-0.610517, 161, 129, 416, 375
-0.646466, 33, 1, 288, 256
-0.659404, 257, 1, 500, 256
-0.816447, 145, 1, 272, 375
-0.818356, 65, 129, 192, 375
-0.829163, 113, 97, 240, 352
-0.832384, 369, 1, 496, 375
-0.834884, 145, 1, 272, 256
-0.835308, 321, 1, 448, 375
-0.835969, 65, 1, 192, 256
-0.836022, 289, 129, 416, 375
-0.838528, 1, 129, 128, 375
-0.841482, 193, 1, 320, 375
-0.842924, 81, 1, 208, 375
-0.844042, 1, 209, 500, 336
-0.845749, 193, 129, 320, 375
-0.853287, 369, 97, 496, 352
-0.85567, 1, 1, 128, 375
-0.856845, 1, 113, 500, 240
-0.859413, 241, 1, 368, 375
-0.859424, 1, 161, 500, 288
-0.859689, 1, 1, 500, 128
-0.868038, 241, 65, 368, 320
-0.874328, 193, 1, 320, 256
-0.87664, 321, 33, 448, 288
-0.87686, 1, 33, 128, 288
-0.883955, 65, 145, 320, 272
-0.885208, 65, 193, 320, 320
-0.890995, 1, 65, 500, 192
-0.89123, 1, 241, 256, 368
-0.894567, 369, 1, 496, 256
-0.895855, 225, 193, 480, 320
-0.897194, 161, 241, 416, 368
-0.89743, 65, 65, 320, 192
-0.897623, 65, 17, 320, 144
-0.898205, 161, 65, 416, 192
-0.898429, 161, 1, 416, 128
-0.899682, 161, 145, 416, 272
-0.901849, 257, 81, 500, 208
-0.912405, 33, 225, 160, 352
-0.913102, 265, 225, 328, 352
-0.915361, 257, 1, 500, 128
-0.916198, 369, 225, 496, 352
-0.916343, 161, 161, 288, 288
-0.916899, 193, 241, 320, 368
-0.917345, 49, 161, 176, 288
-0.920473, 257, 129, 500, 256
-0.921675, 369, 1, 496, 128
-0.922165, 105, 161, 168, 288
-0.922271, 1, 1, 128, 128
-0.92332, 129, 193, 192, 320
-0.923385, 113, 145, 240, 272
-0.923389, 129, 1, 192, 128
-0.924327, 209, 145, 272, 272
-0.924382, 97, 193, 224, 320
-0.924605, 17, 1, 80, 128
-0.924643, 369, 81, 496, 208
-0.925326, 209, 241, 272, 368
-0.92586, 257, 1, 384, 128
-0.92593, 65, 161, 128, 288
-0.926109, 161, 49, 288, 176
-0.926147, 201, 33, 264, 160
-0.926322, 345, 65, 408, 192
-0.926407, 113, 1, 240, 128
-0.926409, 257, 225, 384, 352
-0.927145, 49, 241, 112, 368
-0.927263, 81, 241, 208, 368
-0.927602, 169, 1, 232, 128
-0.927738, 145, 145, 208, 272
-0.927924, 305, 1, 432, 128
-0.928335, 1, 145, 128, 272
-0.928444, 257, 241, 500, 368
-0.928706, 249, 177, 312, 304
-0.929, 433, 193, 496, 320
-0.929261, 169, 161, 232, 288
-0.929562, 145, 225, 272, 352
-0.930222, 97, 225, 160, 352
-0.930354, 273, 49, 400, 176
-0.930563, 369, 81, 432, 208
-0.931133, 321, 65, 448, 192
-0.931402, 241, 1, 304, 128
-0.931671, 97, 113, 160, 240
-0.931957, 161, 1, 288, 128
-0.93213, 129, 97, 256, 224
-0.932364, 161, 209, 224, 336
-0.933094, 169, 49, 232, 176
-0.933262, 425, 1, 488, 128
-0.933338, 337, 129, 464, 256
-0.93384, 345, 129, 408, 256
-0.934535, 217, 193, 280, 320
-0.934727, 209, 33, 336, 160
-0.93548, 289, 161, 416, 288
-0.935695, 65, 1, 128, 128
-0.93579, 209, 193, 336, 320
-0.936705, 97, 1, 160, 128
-0.936714, 257, 97, 384, 224
-0.936747, 233, 241, 296, 368
-0.937099, 1, 297, 64, 360
-0.937273, 113, 1, 176, 64
-0.9373, 233, 65, 296, 192
-0.93768, 369, 177, 496, 304
-0.938351, 113, 49, 240, 176
-0.93837, 65, 1, 192, 128
-0.938828, 169, 97, 232, 224
-0.938884, 1, 49, 64, 176
-0.939161, 121, 113, 184, 240
-0.939531, 209, 145, 336, 272
-0.939679, 209, 153, 272, 216
-0.939834, 209, 49, 272, 112
-0.940083, 193, 97, 256, 224
-0.940132, 305, 209, 432, 336
-0.940178, 369, 17, 432, 144
-0.941072, 185, 209, 248, 336
-0.9411, 137, 65, 200, 192
-0.941135, 305, 161, 368, 288
-0.941195, 289, 225, 352, 352
-0.941391, 1, 209, 64, 336
-0.94194, 393, 1, 456, 128
-0.942432, 73, 241, 136, 368
-0.943231, 433, 1, 496, 64
-0.943276, 25, 241, 88, 368
-0.943939, 329, 1, 392, 128
-0.94403, 25, 281, 88, 344
-0.944356, 409, 177, 472, 304
-0.944538, 1, 97, 64, 224
-0.94507, 105, 137, 168, 200
-0.945807, 81, 233, 144, 296
-0.945832, 73, 161, 136, 224
-0.945844, 225, 1, 288, 64
-0.945905, 425, 129, 488, 256
-0.945922, 121, 241, 184, 368
-0.946512, 65, 113, 192, 240
-0.946736, 321, 65, 384, 192
-0.946869, 177, 97, 304, 224
-0.946919, 257, 265, 320, 328
-0.946994, 385, 193, 448, 320
-0.947062, 345, 73, 408, 136
-0.947507, 409, 1, 472, 64
-0.947615, 281, 177, 344, 304
-0.947804, 121, 249, 184, 312
-0.947972, 1, 145, 64, 272
-0.948338, 113, 49, 176, 176
-0.948707, 273, 233, 336, 296
-0.948791, 129, 153, 192, 216
-0.949214, 49, 49, 176, 176
-0.94926, 233, 129, 296, 256
-0.949386, 169, 1, 232, 64
-0.949593, 89, 1, 152, 64
-0.949604, 1, 81, 128, 208
-0.949782, 65, 1, 128, 64
-0.950107, 425, 185, 488, 248
-0.950114, 281, 201, 344, 264
-0.95036, 273, 289, 336, 352
-0.95046, 361, 1, 424, 64
-0.950611, 113, 25, 176, 88
-0.950666, 305, 1, 368, 128
-0.950732, 305, 169, 368, 232
-0.950818, 97, 177, 160, 240
-0.950884, 153, 49, 216, 112
-0.951072, 321, 113, 384, 240
-0.951146, 169, 297, 232, 360
-0.951371, 97, 257, 160, 320
-0.951385, 73, 113, 136, 240
-0.951417, 33, 129, 96, 256
-0.951848, 161, 217, 224, 280
-0.952463, 81, 25, 144, 88
-0.9525, 425, 49, 488, 176
-0.952541, 97, 297, 160, 360
-0.952556, 249, 225, 312, 288
-0.952726, 249, 289, 312, 352
-0.95274, 393, 81, 456, 208
-0.952778, 49, 313, 112, 375
-0.952867, 57, 233, 120, 296
-0.953328, 41, 1, 104, 128
-0.953603, 49, 257, 112, 320
-0.953837, 129, 281, 192, 344
-0.953909, 257, 97, 320, 224
-0.954009, 41, 1, 104, 64
-0.954284, 1, 273, 64, 336
-0.954471, 297, 49, 360, 176
-0.954761, 233, 33, 296, 96
-0.955165, 137, 25, 200, 88
-0.955316, 121, 201, 184, 264
-0.955376, 313, 209, 376, 272
-0.955416, 433, 225, 496, 288
-0.955585, 177, 121, 240, 184
-0.955614, 369, 49, 432, 112
-0.955747, 297, 297, 360, 360
-0.955754, 1, 65, 64, 128
-0.955773, 337, 241, 400, 368
-0.956213, 81, 137, 144, 200
-0.956272, 369, 89, 432, 152
-0.956433, 337, 113, 400, 176
-0.956465, 265, 1, 328, 128
-0.956503, 377, 241, 440, 368
-0.95655, 345, 153, 408, 216
-0.956648, 137, 1, 200, 64
-0.956748, 433, 153, 496, 216
-0.956809, 241, 169, 304, 232
-0.956847, 17, 1, 80, 64
-0.957051, 73, 129, 136, 375
-0.95724, 185, 65, 248, 128
-0.957268, 73, 273, 136, 336
-0.957382, 233, 129, 296, 192
-0.957518, 49, 161, 112, 224
-0.957527, 281, 129, 344, 256
-0.95753, 1, 33, 64, 96
-0.957729, 433, 49, 496, 112
-0.957737, 33, 81, 96, 208
-0.957889, 233, 257, 296, 320
-0.958207, 265, 313, 328, 375
-0.958581, 369, 129, 432, 256
-0.958766, 233, 313, 296, 375
-0.958872, 169, 161, 232, 224
-0.958971, 89, 49, 152, 176
-0.959213, 281, 1, 344, 64
-0.959377, 433, 241, 496, 368
-0.959465, 273, 49, 336, 176
-0.959598, 201, 313, 264, 375
-0.959624, 113, 129, 176, 375
-0.95974, 65, 201, 128, 264
-0.959809, 129, 65, 192, 128
-0.959912, 49, 289, 112, 352
-0.959916, 113, 225, 176, 288
-0.960195, 161, 97, 224, 352
-0.96027, 305, 73, 368, 136
-0.960322, 345, 129, 408, 375
-0.960449, 25, 145, 88, 208
-0.960736, 153, 273, 216, 336
-0.960978, 209, 241, 272, 304
-0.961051, 209, 129, 272, 375
-0.961075, 329, 177, 392, 304
-0.96115, 313, 145, 376, 208
-0.961302, 369, 137, 432, 200
-0.961392, 209, 201, 272, 264
-0.961427, 65, 49, 128, 176
-0.961589, 145, 241, 208, 304
-0.96165, 169, 25, 232, 88
-0.961656, 145, 1, 208, 256
-0.96166, 1, 145, 64, 208
-0.961816, 185, 225, 248, 288
-0.961995, 433, 257, 496, 320
-0.961997, 281, 177, 344, 240
-0.962, 145, 313, 208, 375
-0.962031, 433, 25, 496, 88
-0.962065, 353, 313, 416, 375
-0.962189, 177, 1, 208, 128
-0.962214, 73, 313, 136, 375
-0.962245, 401, 193, 464, 256
-0.962263, 153, 129, 216, 192
-0.962321, 201, 1, 264, 256
-0.962399, 241, 193, 304, 256
-0.962548, 41, 49, 104, 112
-0.962565, 1, 249, 64, 312
-0.962734, 393, 25, 456, 88
-0.962873, 329, 1, 392, 64
-0.962904, 101, 1, 132, 64
-0.963007, 209, 25, 272, 88
-0.963281, 345, 289, 408, 352
-0.963315, 1, 177, 64, 240
-0.963337, 101, 209, 132, 336
-0.963384, 33, 265, 160, 328
-0.963417, 1, 121, 64, 184
-0.96347, 377, 273, 440, 336
-0.963524, 129, 129, 192, 192
-0.963799, 193, 1, 256, 64
-0.963801, 409, 73, 472, 136
-0.963837, 257, 41, 320, 104
-0.96385, 465, 177, 496, 304
-0.963873, 253, 177, 284, 304
-0.963937, 233, 129, 296, 375
-0.964148, 81, 281, 208, 344
-0.964321, 97, 113, 160, 176
-0.964333, 305, 1, 368, 64
-0.964384, 313, 49, 376, 112
-0.964717, 269, 209, 300, 336
-0.964719, 353, 65, 384, 192
-0.964737, 257, 105, 320, 168
-0.964962, 225, 289, 288, 352
-0.964987, 305, 97, 368, 160
-0.964991, 233, 81, 296, 144
-0.965014, 345, 49, 408, 112
-0.965303, 53, 289, 84, 352
-0.965377, 65, 33, 192, 96
-0.965458, 177, 1, 240, 256
-0.965606, 461, 1, 492, 64
-0.96575, 353, 113, 384, 240
-0.965805, 261, 257, 292, 320
-0.965882, 89, 49, 152, 112
-0.966025, 433, 313, 496, 375
-0.966072, 257, 1, 320, 64
-0.96615, 161, 81, 224, 144
-0.966199, 189, 1, 220, 128
-0.966233, 297, 241, 360, 304
-0.966254, 113, 161, 144, 288
-0.9663, 161, 41, 288, 104
-0.966314, 1, 1, 128, 64
-0.966377, 377, 65, 440, 320
-0.966462, 161, 1, 288, 64
-0.966554, 1, 289, 128, 352
-0.966568, 329, 177, 392, 240
-0.966589, 369, 265, 496, 328
-0.966649, 297, 209, 328, 336
-0.966687, 89, 1, 152, 256
-0.966714, 129, 161, 256, 224
-0.966722, 173, 145, 204, 272
-0.966769, 81, 1, 208, 64
-0.966778, 377, 241, 440, 304
-0.966793, 121, 1, 152, 64
-0.966921, 185, 129, 248, 375
-0.966934, 149, 1, 180, 64
-0.967008, 157, 1, 188, 128
-0.967048, 97, 209, 224, 272
-0.967096, 349, 57, 380, 120
-0.9671, 453, 145, 484, 272
-0.967166, 177, 313, 304, 375
-0.967207, 289, 73, 416, 136
-0.967226, 113, 25, 240, 88
-0.967237, 121, 1, 184, 256
-0.967338, 321, 313, 384, 375
-0.96735, 1, 313, 128, 375
-0.967392, 65, 225, 96, 352
-0.967521, 89, 153, 120, 216
-0.967524, 281, 129, 344, 375
-0.967581, 433, 65, 496, 320
-0.967633, 201, 105, 264, 168
-0.967649, 357, 121, 388, 184
-0.967788, 273, 1, 400, 64
-0.967791, 409, 161, 472, 224
-0.96792, 113, 257, 144, 320
-0.968028, 33, 241, 160, 304
-0.968223, 281, 265, 344, 328
-0.968263, 225, 105, 288, 168
-0.968265, 313, 241, 376, 368
-0.968347, 1, 217, 64, 280
-0.968414, 373, 81, 404, 208
-0.968491, 153, 41, 184, 104
-0.968602, 65, 57, 128, 120
-0.968603, 257, 241, 288, 368
-0.96862, 65, 145, 192, 208
-0.968637, 461, 153, 492, 216
-0.968641, 241, 305, 368, 368
-0.968762, 245, 65, 276, 192
-0.968798, 57, 137, 120, 200
-0.968811, 465, 129, 496, 256
-0.96885, 53, 313, 84, 375
-0.968935, 81, 305, 208, 368
-0.968944, 49, 185, 176, 248
-0.968951, 137, 97, 200, 352
-0.969032, 17, 161, 144, 224
-0.96904, 173, 1, 204, 64
-0.969052, 377, 313, 440, 375
-0.969064, 321, 1, 352, 128
-0.969126, 149, 273, 180, 336
-0.969168, 153, 129, 184, 256
-0.969234, 113, 225, 144, 352
-0.969275, 285, 225, 316, 352
-0.969288, 369, 1, 496, 64
-0.969485, 165, 41, 196, 104
-0.969501, 333, 65, 364, 192
-0.969508, 337, 33, 400, 288
-0.969512, 141, 25, 172, 88
-0.969564, 189, 297, 220, 360
-0.969587, 261, 297, 292, 360
-0.969588, 189, 65, 220, 192
-0.969745, 125, 113, 156, 240
-0.969773, 225, 145, 256, 272
-0.969856, 365, 81, 396, 144
-0.969861, 273, 105, 400, 168
-0.969918, 137, 129, 168, 192
-0.969961, 369, 225, 496, 288
-0.96997, 5, 9, 36, 72
-0.970026, 229, 145, 260, 208
-0.970043, 197, 161, 228, 288
-0.970055, 241, 161, 272, 288
-0.970084, 33, 193, 96, 320
-0.970108, 161, 249, 288, 312
-0.970115, 137, 1, 168, 64
-0.970145, 165, 65, 196, 192
-0.970145, 241, 241, 272, 368
-0.970203, 89, 9, 120, 72
-0.970244, 161, 1, 192, 64
-0.970308, 449, 1, 480, 128
-0.970337, 93, 1, 124, 128
-0.970349, 225, 1, 256, 64
-0.970367, 97, 57, 224, 120
-0.970379, 5, 1, 36, 128
-0.970416, 249, 177, 280, 240
-0.970473, 177, 49, 208, 112
-0.970507, 125, 281, 156, 344
-0.970509, 301, 209, 332, 272
-0.97053, 141, 1, 172, 128
-0.97066, 209, 209, 336, 272
-0.970723, 81, 313, 112, 375
-0.970746, 269, 1, 300, 64
-0.970786, 273, 153, 400, 216
-0.970822, 201, 225, 232, 352
-0.970824, 25, 1, 56, 64
-0.970832, 145, 249, 176, 312
-0.970857, 141, 145, 172, 272
-0.970873, 465, 217, 496, 280
-0.970876, 49, 129, 112, 375
-0.970924, 313, 65, 376, 320
-0.970932, 189, 57, 220, 120
-0.97101, 209, 41, 336, 104
-0.971031, 177, 209, 208, 336
-0.971081, 217, 41, 248, 104
-0.971112, 193, 153, 320, 216
-0.971137, 5, 49, 36, 176
-0.971199, 401, 129, 464, 256
-0.971282, 465, 1, 496, 128
-0.971283, 49, 265, 80, 328
-0.971324, 241, 73, 368, 136
-0.971342, 101, 137, 132, 200
-0.971418, 289, 273, 320, 336
-0.971473, 225, 177, 352, 240
-0.971505, 305, 201, 432, 264
-0.971524, 389, 89, 420, 152
-0.971545, 185, 161, 216, 288
-0.971675, 209, 161, 240, 288
-0.97169, 177, 289, 208, 352
-0.97169, 213, 313, 244, 375
-0.971694, 141, 193, 172, 320
-0.971708, 161, 193, 192, 320
-0.971761, 1, 1, 64, 256
-0.971781, 433, 185, 464, 248
-0.971821, 77, 161, 108, 224
-0.971902, 249, 1, 280, 128
-0.972021, 1, 129, 64, 375
-0.972036, 273, 265, 304, 328
-0.972036, 29, 281, 60, 344
-0.97207, 1, 201, 128, 264
-0.972076, 453, 193, 484, 256
-0.972205, 201, 49, 232, 176
-0.972233, 405, 1, 436, 128
-0.972241, 349, 153, 380, 216
-0.972266, 225, 281, 352, 344
-0.9723, 361, 177, 424, 304
-0.972315, 189, 209, 220, 336
-0.972401, 377, 33, 408, 160
-0.972434, 157, 201, 188, 264
-0.972438, 161, 65, 288, 128
-0.972438, 289, 297, 416, 360
-0.972452, 317, 209, 348, 272
-0.972485, 241, 33, 304, 288
-0.972527, 225, 97, 256, 224
-0.972556, 241, 1, 272, 64
-0.972592, 437, 1, 468, 128
-0.972598, 61, 233, 92, 296
-0.972601, 369, 57, 496, 120
-0.972662, 221, 17, 252, 144
-0.972765, 105, 113, 136, 240
-0.972808, 209, 113, 336, 176
-0.97284, 113, 25, 144, 88
-0.972921, 101, 305, 132, 368
-0.972962, 369, 121, 400, 184
-0.972989, 49, 241, 80, 368
-0.973004, 1, 57, 32, 120
-0.973049, 385, 313, 416, 375
-0.973053, 129, 121, 256, 184
-0.97309, 177, 49, 208, 176
-0.973179, 321, 1, 448, 64
-0.973182, 157, 145, 188, 208
-0.97321, 417, 177, 448, 304
-0.97335, 113, 169, 144, 232
-0.973376, 125, 249, 156, 312
-0.97338, 337, 81, 464, 144
-0.973426, 257, 1, 288, 64
-0.973447, 161, 273, 192, 336
-0.973468, 465, 193, 496, 256
-0.9735, 65, 1, 96, 128
-0.973587, 137, 153, 168, 216
-0.973589, 81, 233, 208, 296
-0.97363, 333, 17, 364, 144
-0.973661, 241, 49, 272, 112
-0.973671, 49, 1, 80, 128
-0.97374, 25, 1, 56, 128
-0.973821, 277, 289, 308, 352
-0.973864, 229, 33, 260, 96
-0.973934, 73, 1, 104, 64
-0.973988, 241, 249, 272, 312
-0.973993, 361, 1, 392, 128
-0.974028, 293, 1, 324, 128
-0.974051, 209, 1, 240, 128
-0.974073, 393, 81, 424, 208
-0.974135, 305, 289, 336, 352
-0.974141, 225, 1, 352, 64
-0.974301, 1, 49, 128, 112
-0.974315, 217, 225, 248, 352
-0.974361, 181, 129, 212, 192
-0.974464, 257, 233, 384, 296
-0.974468, 349, 1, 380, 128
-0.974474, 77, 241, 108, 368
-0.974491, 357, 1, 388, 64
-0.974551, 353, 145, 480, 208
-0.974556, 229, 225, 260, 352
-0.974591, 61, 153, 92, 216
-0.974615, 89, 161, 120, 288
-0.974682, 161, 289, 288, 352
-0.974802, 449, 1, 480, 64
-0.974816, 369, 33, 496, 96
-0.974829, 309, 169, 340, 232
-0.974852, 241, 113, 272, 240
-0.974891, 285, 177, 316, 304
-0.974893, 113, 145, 144, 208
-0.974949, 109, 233, 140, 296
-0.974949, 337, 177, 464, 240
-0.974951, 253, 41, 284, 104
-0.974964, 5, 177, 36, 240
-0.975002, 305, 161, 336, 288
-0.975014, 177, 313, 208, 375
-0.975054, 245, 129, 276, 192
-0.975063, 141, 209, 172, 272
-0.975069, 409, 225, 472, 352
-0.975075, 161, 233, 192, 296
-0.975076, 285, 1, 316, 64
-0.975149, 1, 25, 128, 88
-0.97518, 177, 89, 304, 152
-0.975222, 313, 209, 344, 336
-0.975246, 449, 193, 480, 320
-0.975271, 437, 1, 468, 64
-0.97528, 261, 17, 292, 144
-0.975303, 253, 129, 284, 256
-0.97536, 413, 1, 444, 64
-0.975385, 177, 217, 208, 280
-0.975396, 101, 265, 132, 328
-0.975445, 409, 65, 472, 320
-0.975465, 253, 217, 284, 280
-0.975488, 337, 1, 368, 64
-0.97552, 197, 1, 228, 64
-0.975551, 201, 113, 232, 240
-0.975688, 161, 193, 288, 256
-0.975721, 385, 1, 416, 64
-0.975807, 137, 273, 168, 336
-0.975907, 129, 33, 160, 96
-0.975913, 201, 305, 232, 368
-0.975915, 289, 257, 416, 320
-0.975944, 125, 177, 156, 304
-0.97595, 245, 73, 276, 136
-0.975955, 77, 145, 108, 272
-0.975967, 393, 1, 424, 128
-0.975984, 329, 209, 360, 272
-0.975996, 365, 153, 396, 216
-0.97601, 345, 177, 376, 240
-0.976149, 281, 201, 312, 264
-0.97615, 129, 313, 256, 375
-0.97622, 5, 209, 36, 336
-0.976382, 321, 185, 352, 248
-0.9764, 381, 57, 412, 120
-0.976443, 445, 225, 476, 288
-0.976518, 177, 81, 208, 144
-0.97652, 185, 1, 216, 64
-0.976566, 369, 289, 496, 352
-0.976588, 125, 129, 156, 192
-0.9766, 65, 305, 96, 368
-0.976622, 341, 145, 372, 272
-0.976638, 237, 1, 268, 128
-0.976686, 305, 49, 336, 176
-0.976727, 257, 137, 288, 200
-0.9768, 261, 185, 292, 248
-0.976852, 141, 49, 172, 176
-0.976884, 217, 153, 248, 216
-0.97691, 449, 169, 480, 232
-0.976912, 465, 225, 496, 352
-0.97703, 93, 113, 124, 240
-0.977045, 193, 225, 224, 288
-0.977061, 281, 233, 312, 296
-0.977175, 453, 25, 484, 88
-0.977177, 257, 41, 384, 104
-0.97719, 89, 177, 120, 240
-0.977229, 301, 233, 332, 296
-0.977252, 41, 289, 72, 352
-0.977272, 113, 281, 144, 344
-0.977374, 165, 241, 196, 368
-0.977461, 369, 105, 496, 168
-0.977502, 249, 281, 280, 344
-0.977564, 245, 153, 276, 216
-0.977583, 329, 65, 360, 128
-0.977624, 273, 129, 400, 192
-0.977673, 297, 1, 328, 64
-0.977695, 165, 73, 196, 136
-0.977706, 121, 1, 152, 128
-0.977711, 101, 161, 132, 288
-0.977731, 309, 1, 340, 128
-0.977767, 5, 257, 36, 320
-0.97778, 89, 273, 120, 336
-0.977842, 365, 41, 396, 104
-0.977849, 421, 1, 452, 128
-0.977859, 433, 1, 496, 375
-0.977903, 37, 1, 68, 128
-0.977908, 265, 225, 296, 288
-0.977943, 77, 1, 108, 128
-0.978023, 265, 161, 296, 288
-0.978042, 213, 81, 244, 208
-0.978078, 101, 161, 132, 224
-0.978097, 177, 1, 240, 375
-0.978167, 5, 161, 36, 288
-0.978347, 25, 129, 88, 375
-0.978403, 89, 241, 120, 368
-0.978562, 437, 177, 468, 304
-0.97866, 369, 313, 496, 375
-0.978942, 305, 49, 432, 112
-0.978951, 381, 241, 412, 368
-0.979024, 65, 1, 128, 256
-0.979077, 265, 113, 296, 240
-0.979267, 257, 129, 320, 375
-0.97937, 125, 49, 156, 176
-0.979395, 321, 113, 448, 176
-0.979493, 465, 65, 496, 192
-0.979509, 393, 1, 456, 375
-0.979577, 189, 113, 220, 240
-0.979667, 105, 1, 136, 128
-0.979784, 257, 201, 384, 264
-0.979866, 1, 121, 128, 184
-0.979901, 289, 177, 416, 240
-0.979986, 365, 145, 396, 272
-0.980023, 369, 201, 496, 264
-0.980105, 5, 113, 36, 240
-0.980154, 421, 65, 452, 192
-0.980241, 1, 73, 128, 136
-0.980252, 49, 57, 176, 120
-0.980258, 453, 65, 484, 192
-0.980547, 153, 241, 184, 368
-0.980606, 305, 25, 432, 88
-0.980682, 85, 65, 116, 192
-0.980715, 81, 121, 208, 184
-0.980744, 209, 233, 336, 296
-0.98079, 49, 209, 176, 272
-0.98086, 113, 185, 240, 248
-0.98096, 145, 217, 272, 280
-0.980973, 265, 33, 328, 288
-0.981023, 201, 1, 264, 375
-0.981287, 125, 225, 156, 352
-0.981319, 49, 145, 80, 272
-0.981327, 249, 1, 312, 375
-0.981366, 405, 177, 436, 304
-0.981381, 393, 193, 424, 320
-0.981489, 409, 81, 440, 208
-0.981528, 113, 89, 240, 152
-0.981541, 145, 1, 208, 375
-0.981628, 1, 1, 64, 375
-0.981652, 325, 209, 356, 336
-0.981662, 137, 97, 168, 224
-0.981676, 57, 97, 88, 224
-0.981684, 113, 49, 144, 176
-0.981697, 153, 65, 184, 192
-0.981721, 41, 1, 104, 256
-0.981856, 81, 257, 208, 320
-0.981874, 317, 145, 348, 272
-0.98188, 225, 1, 288, 375
-0.981914, 433, 129, 464, 256
-0.98195, 285, 49, 316, 176
-0.981983, 141, 241, 172, 368
-0.982055, 393, 241, 424, 368
-0.982263, 353, 1, 416, 375
-0.982378, 61, 161, 92, 288
-0.982436, 329, 161, 360, 288
-0.982579, 29, 241, 60, 368
-0.982763, 233, 49, 264, 176
-0.982843, 57, 1, 120, 375
-0.982899, 209, 257, 336, 320
-0.983054, 121, 1, 184, 375
-0.983073, 441, 49, 472, 176
-0.983287, 97, 1, 160, 375
-0.984462, 329, 1, 392, 375
-0.984647, 321, 225, 448, 288
-0.985234, 33, 1, 96, 375
-0.985714, 289, 33, 352, 288
-0.986374, 1, 97, 128, 160
-0.986498, 297, 1, 360, 375
-0.986886, 49, 81, 176, 144
-0.987098, 225, 273, 480, 336
-0.987286, 265, 289, 328, 320
-0.987321, 249, 273, 312, 304
-0.987553, 65, 241, 320, 304
-0.98756, 433, 9, 496, 40
-0.987578, 225, 297, 480, 360
-0.987582, 209, 57, 272, 88
-0.987633, 65, 157, 128, 188
-0.98776, 33, 185, 288, 248
-0.987797, 25, 293, 88, 324
-0.9878, 33, 153, 288, 216
-0.987893, 273, 1, 336, 375
-0.987903, 177, 305, 240, 336
-0.988, 217, 45, 280, 76
-0.988001, 33, 313, 288, 375
-0.988032, 129, 297, 384, 360
-0.98806, 161, 185, 416, 248
-0.988107, 209, 169, 272, 200
-0.988141, 129, 41, 192, 72
-0.988159, 337, 85, 400, 116
-0.988162, 121, 257, 184, 288
-0.988172, 1, 1, 256, 64
-0.98821, 105, 141, 168, 172
-0.98821, 161, 209, 416, 272
-0.988385, 257, 193, 500, 256
-0.98839, 193, 345, 256, 375
-0.988403, 145, 5, 208, 36
-0.988408, 1, 297, 64, 328
-0.988421, 169, 61, 232, 92
-0.988423, 65, 177, 128, 208
-0.988436, 89, 173, 152, 204
-0.98845, 129, 149, 192, 180
-0.988514, 105, 245, 168, 276
-0.98853, 81, 249, 144, 280
-0.988544, 105, 189, 168, 220
-0.988556, 409, 185, 472, 216
-0.988557, 257, 317, 320, 348
-0.988565, 305, 197, 368, 228
-0.988602, 105, 269, 168, 300
-0.988602, 1, 249, 500, 312
-0.988604, 1, 277, 64, 308
-0.988628, 313, 153, 376, 184
-0.988662, 313, 181, 376, 212
-0.988665, 193, 1, 448, 64
-0.988695, 393, 5, 456, 36
-0.988711, 297, 309, 360, 340
-0.988718, 337, 153, 400, 184
-0.98873, 65, 317, 128, 348
-0.988763, 337, 73, 400, 104
-0.988764, 209, 153, 272, 184
-0.988782, 273, 209, 336, 240
-0.988796, 73, 237, 136, 268
-0.988801, 49, 261, 112, 292
-0.988809, 41, 5, 104, 36
-0.988841, 161, 49, 416, 112
-0.988855, 17, 9, 80, 40
-0.988858, 281, 221, 344, 252
-0.988863, 169, 5, 232, 36
-0.988907, 169, 33, 232, 64
-0.988912, 113, 217, 176, 248
-0.988948, 49, 345, 112, 375
-0.988972, 161, 221, 224, 252
-0.988975, 1, 161, 500, 224
-0.989007, 121, 5, 184, 36
-0.989007, 241, 185, 304, 216
-0.98906, 241, 53, 304, 84
-0.989095, 433, 181, 496, 212
-0.989125, 233, 5, 296, 36
-0.989126, 41, 305, 104, 336
-0.98913, 225, 161, 480, 224
-0.989133, 1, 49, 64, 80
-0.989149, 257, 301, 320, 332
-0.989177, 433, 345, 496, 375
-0.989183, 321, 169, 384, 200
-0.989189, 209, 69, 272, 100
-0.989215, 1, 85, 64, 116
-0.989242, 145, 313, 208, 344
-0.989253, 193, 45, 256, 76
-0.989266, 337, 129, 400, 160
-0.989272, 41, 325, 104, 356
-0.989277, 65, 189, 128, 220
-0.989285, 65, 217, 320, 280
-0.989288, 345, 165, 408, 196
-0.989288, 25, 281, 88, 312
-0.989294, 121, 301, 184, 332
-0.989298, 185, 153, 248, 184
-0.989298, 65, 265, 320, 328
-0.989322, 89, 309, 152, 340
-0.989335, 233, 309, 296, 340
-0.989343, 193, 73, 448, 136
-0.989345, 129, 25, 192, 56
-0.989345, 89, 33, 152, 64
-0.989345, 113, 281, 176, 312
-0.989349, 1, 313, 64, 344
-0.989353, 225, 249, 480, 312
-0.98936, 361, 5, 424, 36
-0.989361, 81, 1, 144, 32
-0.989366, 273, 5, 336, 36
-0.98938, 153, 273, 216, 304
-0.989385, 297, 1, 360, 32
-0.989393, 433, 225, 496, 256
-0.989427, 369, 345, 432, 375
-0.98943, 97, 9, 352, 72
-0.989441, 137, 285, 200, 316
-0.98946, 65, 201, 128, 232
-0.989477, 1, 297, 500, 360
-0.989495, 249, 229, 312, 260
-0.989528, 273, 193, 336, 224
-0.989544, 353, 321, 416, 352
-0.989581, 33, 169, 96, 200
-0.989582, 33, 153, 96, 184
-0.989582, 73, 329, 136, 360
-0.98959, 65, 305, 128, 336
-0.989608, 241, 197, 304, 228
-0.989609, 281, 181, 344, 212
-0.989629, 137, 205, 200, 236
-0.989639, 153, 49, 216, 80
-0.989642, 33, 41, 288, 104
-0.989646, 153, 161, 216, 192
-0.989648, 313, 345, 376, 375
-0.989651, 425, 197, 488, 228
-0.989676, 121, 161, 184, 192
-0.989683, 97, 233, 160, 264
-0.989708, 1, 145, 64, 176
-0.989735, 297, 93, 360, 124
-0.989738, 57, 145, 120, 176
-0.989747, 433, 261, 496, 292
-0.989761, 297, 165, 360, 196
-0.989766, 249, 69, 312, 100
-0.989774, 225, 257, 288, 288
-0.989781, 409, 17, 472, 48
-0.989802, 89, 153, 152, 184
-0.989803, 361, 109, 424, 140
-0.989818, 361, 141, 424, 172
-0.989842, 121, 233, 184, 264
-0.989853, 161, 333, 224, 364
-0.989856, 305, 225, 368, 256
-0.989857, 273, 345, 336, 375
-0.989873, 57, 249, 120, 280
-0.989877, 257, 109, 320, 140
-0.989877, 337, 141, 400, 172
-0.989885, 81, 261, 144, 292
-0.989893, 273, 333, 336, 364
-0.989899, 433, 169, 496, 200
-0.989922, 401, 345, 464, 375
-0.989936, 97, 297, 160, 328
-0.989938, 369, 93, 432, 124
-0.989938, 193, 113, 448, 176
-0.989942, 145, 249, 208, 280
-0.989955, 305, 105, 368, 136
-0.989966, 33, 249, 96, 280
-0.989971, 249, 261, 312, 292
-0.989974, 169, 141, 232, 172
-0.989981, 241, 41, 304, 72
-0.989981, 305, 141, 368, 172
-0.990028, 1, 137, 500, 200
-0.990039, 33, 289, 288, 352
-0.990348, 129, 161, 384, 224
-0.990403, 129, 137, 384, 200
-0.990439, 1, 185, 500, 248
-0.990547, 257, 225, 500, 288
-0.990697, 257, 137, 500, 200
-0.990703, 1, 1, 500, 64
-0.990766, 33, 65, 288, 128
-0.990922, 1, 225, 500, 288
-0.990943, 33, 129, 288, 192
-0.991021, 161, 313, 288, 344
-0.991224, 241, 309, 368, 340
-0.991324, 1, 65, 500, 128
-0.991356, 1, 273, 500, 336
-0.991509, 257, 49, 500, 112
-0.991672, 257, 25, 500, 88
-0.991849, 349, 77, 380, 108
-0.991884, 277, 273, 308, 304
-0.991939, 261, 289, 292, 320
-0.991953, 33, 273, 160, 304
-0.991953, 261, 309, 292, 340
-0.991981, 1, 113, 500, 176
-0.991982, 205, 5, 236, 36
-0.991987, 145, 145, 176, 176
-0.991988, 53, 329, 84, 360
-0.992, 33, 233, 160, 264
-0.992004, 173, 5, 204, 36
-0.992013, 61, 245, 92, 276
-0.992015, 465, 5, 496, 36
-0.992026, 133, 141, 164, 172
-0.992027, 357, 157, 388, 188
-0.992028, 29, 285, 60, 316
-0.992041, 53, 293, 84, 324
-0.992065, 225, 153, 256, 184
-0.992079, 453, 177, 484, 208
-0.99208, 61, 313, 92, 344
-0.992082, 185, 297, 216, 328
-0.992112, 101, 25, 132, 56
-0.992117, 161, 301, 288, 332
-0.992122, 81, 317, 112, 348
-0.992127, 153, 205, 184, 236
-0.992139, 121, 33, 152, 64
-0.992141, 173, 317, 204, 348
-0.992157, 289, 289, 320, 320
-0.992158, 241, 169, 272, 200
-0.992163, 249, 57, 280, 88
-0.992167, 161, 61, 288, 92
-0.992172, 1, 41, 500, 104
-0.992174, 93, 9, 124, 40
-0.99218, 253, 185, 284, 216
-0.99218, 5, 177, 36, 208
-0.99218, 341, 185, 372, 216
-0.992185, 113, 269, 144, 300
-0.992195, 425, 5, 456, 36
-0.992201, 145, 49, 272, 80
-0.992207, 241, 145, 272, 176
-0.992212, 453, 345, 484, 375
-0.992226, 137, 41, 168, 72
-0.992229, 245, 133, 276, 164
-0.992245, 41, 277, 72, 308
-0.992246, 449, 9, 480, 40
-0.992254, 209, 345, 240, 375
-0.992257, 161, 157, 288, 188
-0.992263, 265, 277, 296, 308
-0.992265, 225, 45, 256, 76
-0.992265, 145, 5, 176, 36
-0.992271, 97, 301, 128, 332
-0.99228, 109, 233, 140, 264
-0.992281, 5, 5, 36, 36
-0.992289, 1, 5, 128, 36
-0.992292, 305, 341, 336, 372
-0.992294, 145, 25, 176, 56
-0.992297, 85, 161, 116, 192
-0.992299, 129, 253, 160, 284
-0.992302, 65, 5, 96, 36
-0.992303, 109, 293, 140, 324
-0.992304, 193, 333, 224, 364
-0.992314, 165, 49, 196, 80
-0.992315, 125, 241, 156, 272
-0.992318, 465, 165, 496, 196
-0.992328, 149, 41, 180, 72
-0.992328, 257, 149, 288, 180
-0.992333, 261, 261, 292, 292
-0.992335, 465, 345, 496, 375
-0.992346, 465, 225, 496, 256
-0.992346, 393, 97, 424, 128
-0.992347, 369, 149, 400, 180
-0.992347, 133, 285, 164, 316
-0.992348, 157, 153, 188, 184
-0.99235, 217, 57, 248, 88
-0.99235, 273, 9, 304, 40
-0.99235, 309, 297, 340, 328
-0.992351, 61, 161, 92, 192
-0.992352, 81, 153, 208, 184
-0.992355, 321, 89, 448, 120
-0.992356, 81, 13, 112, 44
-0.992356, 249, 305, 280, 336
-0.992358, 237, 49, 268, 80
-0.99236, 333, 197, 364, 228
-0.992361, 69, 345, 100, 375
-0.992362, 113, 253, 144, 284
-0.992365, 145, 281, 176, 312
-0.992375, 105, 161, 136, 192
-0.992376, 17, 5, 48, 36
-0.992379, 73, 57, 104, 88
-0.992379, 281, 221, 312, 252
-0.99238, 117, 281, 148, 312
-0.992382, 5, 285, 36, 316
-0.992383, 321, 213, 352, 244
-0.992385, 33, 245, 160, 276
-0.992392, 261, 321, 292, 352
-0.992393, 297, 209, 328, 240
-0.9924, 241, 157, 272, 188
-0.992401, 465, 333, 496, 364
-0.992402, 5, 25, 36, 56
-0.992402, 177, 157, 208, 188
-0.992406, 257, 45, 288, 76
-0.992409, 321, 1, 352, 32
-0.992409, 405, 9, 436, 40
-0.99241, 93, 173, 124, 204
-0.99241, 349, 173, 380, 204
-0.99241, 117, 181, 148, 212
-0.992418, 465, 177, 496, 208
-0.992418, 277, 305, 308, 336
-0.992418, 441, 185, 472, 216
-0.992419, 193, 1, 224, 32
-0.992423, 433, 197, 464, 228
-0.992424, 389, 1, 420, 32
-0.992427, 465, 145, 496, 176
-0.992428, 381, 317, 412, 348
-0.992431, 229, 1, 260, 32
-0.992431, 161, 21, 192, 52
-0.992431, 313, 177, 344, 208
-0.99244, 149, 261, 180, 292
-0.992445, 5, 73, 36, 104
-0.992447, 205, 161, 236, 192
-0.992447, 269, 1, 284, 64
-0.992447, 77, 333, 108, 364
-0.99245, 361, 69, 392, 100
-0.992453, 283, 1, 298, 64
-0.992454, 261, 61, 292, 92
-0.992455, 465, 305, 496, 336
-0.99246, 309, 73, 340, 104
-0.992464, 293, 277, 324, 308
-0.992465, 73, 161, 104, 192
-0.992465, 177, 221, 208, 252
-0.992467, 129, 273, 160, 304
-0.992469, 125, 1, 140, 64
-0.992477, 329, 85, 360, 116
-0.992481, 465, 257, 496, 288
-0.992481, 381, 141, 412, 172
-0.992487, 113, 37, 240, 68
-0.992488, 353, 185, 384, 216
-0.992489, 257, 121, 288, 152
-0.992493, 165, 33, 196, 64
-0.992495, 389, 277, 420, 308
-0.992497, 313, 165, 344, 196
-0.992499, 321, 345, 352, 375
-0.9925, 105, 13, 136, 44
-0.992505, 381, 93, 412, 124
-0.992505, 429, 345, 460, 375
-0.992505, 261, 5, 292, 36
-0.992539, 119, 1, 134, 64
-0.992574, 135, 1, 150, 64
-0.992634, 193, 325, 320, 356
-0.992658, 97, 293, 224, 324
-0.992663, 477, 153, 492, 216
-0.992667, 129, 345, 256, 375
-0.992709, 157, 249, 172, 312
-0.992752, 73, 153, 88, 216
-0.992753, 103, 1, 118, 64
-0.992808, 81, 309, 208, 340
-0.992826, 53, 273, 68, 336
-0.992846, 113, 1, 128, 64
-0.9929, 173, 1, 188, 64
-0.992936, 33, 297, 160, 328
-0.992939, 33, 261, 160, 292
-0.992946, 249, 49, 264, 112
-0.99296, 163, 33, 178, 96
-0.99299, 163, 1, 178, 64
-0.993025, 271, 297, 286, 360
-0.993063, 169, 41, 184, 104
-0.993097, 1, 309, 128, 340
-0.993119, 69, 297, 84, 360
-0.993134, 289, 305, 416, 336
-0.99314, 65, 45, 192, 76
-0.993147, 145, 5, 272, 36
-0.993148, 1, 321, 128, 352
-0.993167, 17, 165, 144, 196
-0.993169, 367, 153, 382, 216
-0.993184, 255, 49, 270, 112
-0.9932, 157, 273, 172, 336
-0.993203, 117, 225, 132, 288
-0.993225, 153, 1, 168, 64
-0.993225, 273, 257, 288, 320
-0.993231, 97, 89, 352, 152
-0.993234, 61, 289, 76, 352
-0.993242, 241, 197, 368, 228
-0.993257, 261, 41, 276, 104
-0.99327, 65, 141, 192, 172
-0.993277, 113, 233, 240, 264
-0.993289, 367, 121, 382, 184
-0.993298, 279, 265, 294, 328
-0.993314, 369, 277, 496, 308
-0.99333, 253, 145, 268, 208
-0.993341, 97, 217, 224, 248
-0.993348, 193, 45, 320, 76
-0.99336, 97, 1, 112, 64
-0.993372, 145, 145, 272, 176
-0.993401, 145, 245, 272, 276
-0.993415, 193, 57, 208, 120
-0.993419, 353, 1, 480, 32
-0.993461, 187, 289, 202, 352
-0.993464, 245, 137, 260, 200
-0.993468, 97, 329, 224, 360
-0.993477, 377, 81, 392, 144
-0.993487, 241, 177, 368, 208
-0.993501, 203, 297, 218, 360
-0.993511, 475, 217, 490, 280
-0.993514, 257, 321, 384, 352
-0.993522, 103, 305, 118, 368
-0.993526, 305, 5, 432, 36
-0.99353, 185, 49, 200, 112
-0.993532, 225, 345, 352, 375
-0.993559, 241, 85, 368, 116
-0.993561, 241, 57, 368, 88
-0.993565, 123, 249, 138, 312
-0.993592, 155, 41, 170, 104
-0.993596, 357, 153, 372, 216
-0.993598, 81, 25, 208, 56
-0.993608, 257, 105, 384, 136
-0.993613, 81, 49, 96, 112
-0.993626, 369, 21, 496, 52
-0.993633, 303, 209, 318, 272
-0.993637, 209, 297, 336, 328
-0.993646, 141, 281, 156, 344
-0.993654, 475, 1, 490, 64
-0.993656, 263, 273, 278, 336
-0.993663, 369, 45, 496, 76
-0.993665, 235, 145, 250, 208
-0.993667, 193, 297, 208, 360
-0.993681, 103, 153, 118, 216
-0.993698, 289, 45, 416, 76
-0.993704, 229, 1, 244, 64
-0.993718, 257, 177, 272, 240
-0.993719, 263, 1, 278, 64
-0.993719, 265, 297, 280, 360
-0.99372, 47, 273, 62, 336
-0.99373, 337, 181, 464, 212
-0.993747, 161, 73, 288, 104
-0.993748, 113, 173, 240, 204
-0.993759, 33, 177, 160, 208
-0.993763, 93, 161, 108, 224
-0.993764, 179, 41, 194, 104
-0.99377, 475, 185, 490, 248
-0.993777, 27, 1, 42, 64
-0.993782, 239, 25, 254, 88
-0.993792, 321, 169, 336, 232
-0.993804, 365, 1, 380, 64
-0.993809, 263, 249, 278, 312
-0.993818, 81, 281, 208, 312
-0.993829, 305, 325, 432, 356
-0.993838, 65, 197, 192, 228
-0.99384, 1, 89, 500, 152
-0.99384, 81, 13, 208, 44
-0.993843, 193, 177, 320, 208
-0.99385, 369, 57, 496, 88
-0.993852, 313, 209, 328, 272
-0.993854, 261, 113, 276, 176
-0.993855, 467, 169, 482, 232
-0.993874, 223, 313, 238, 375
-0.993879, 277, 1, 292, 64
-0.993898, 193, 217, 320, 248
-0.993906, 451, 1, 466, 64
-0.993918, 163, 201, 178, 264
-0.993933, 189, 1, 204, 64
-0.993938, 7, 161, 22, 224
-0.993944, 287, 201, 302, 264
-0.993962, 1, 37, 128, 68
-0.993996, 289, 269, 416, 300
-0.994004, 289, 57, 416, 88
-0.994016, 225, 9, 352, 40
-0.994022, 289, 133, 416, 164
-0.994022, 357, 113, 372, 176
-0.994023, 147, 249, 162, 312
-0.994035, 179, 1, 194, 64
-0.994039, 297, 201, 312, 264
-0.99404, 369, 77, 496, 108
-0.994043, 123, 25, 138, 88
-0.994047, 65, 345, 192, 375
-0.994052, 133, 241, 148, 304
-0.994054, 269, 25, 284, 88
-0.994057, 321, 209, 336, 272
-0.994058, 225, 153, 352, 184
-0.994085, 407, 25, 422, 88
-0.994093, 105, 273, 120, 336
-0.99411, 255, 249, 270, 312
-0.994118, 241, 237, 368, 268
-0.994119, 49, 321, 176, 352
-0.994127, 81, 1, 96, 64
-0.994133, 375, 1, 390, 64
-0.994138, 377, 121, 392, 184
-0.99415, 351, 73, 366, 136
-0.99415, 459, 185, 474, 248
-0.994152, 145, 33, 160, 96
-0.994182, 369, 317, 496, 348
-0.99419, 251, 177, 266, 240
-0.994201, 113, 61, 240, 92
-0.994204, 395, 313, 410, 375
-0.994216, 461, 1, 476, 64
-0.994218, 67, 225, 82, 288
-0.994228, 135, 33, 150, 96
-0.994257, 91, 9, 106, 72
-0.994257, 81, 161, 96, 224
-0.994258, 295, 1, 310, 64
-0.994261, 165, 233, 180, 296
-0.99427, 367, 81, 382, 144
-0.994275, 161, 205, 288, 236
-0.994277, 129, 33, 144, 96
-0.994282, 241, 165, 368, 196
-0.994301, 351, 1, 366, 64
-0.994304, 349, 153, 364, 216
-0.994305, 223, 17, 238, 80
-0.994309, 461, 153, 476, 216
-0.994312, 305, 293, 432, 324
-0.994313, 163, 273, 178, 336
-0.994314, 249, 1, 264, 64
-0.994322, 289, 77, 416, 108
-0.994322, 239, 1, 254, 64
-0.994327, 269, 49, 284, 112
-0.994331, 257, 1, 272, 64
-0.994331, 63, 313, 78, 375
-0.994334, 371, 57, 386, 120
-0.994338, 17, 1, 32, 64
-0.994341, 285, 265, 300, 328
-0.994342, 1, 25, 128, 56
-0.994345, 465, 193, 480, 256
-0.994351, 141, 145, 156, 208
-0.99436, 1, 153, 128, 184
-0.994366, 127, 145, 142, 208
-0.994371, 141, 1, 156, 64
-0.994374, 369, 289, 496, 320
-0.994377, 115, 137, 130, 200
-0.994389, 211, 305, 226, 368
-0.994391, 265, 177, 280, 240
-0.994394, 155, 225, 170, 288
-0.994402, 481, 217, 496, 280
-0.994402, 5, 265, 20, 328
-0.994408, 49, 57, 176, 88
-0.994409, 255, 209, 270, 272
-0.994409, 313, 65, 328, 128
-0.99441, 75, 313, 90, 375
-0.994417, 51, 297, 66, 360
-0.994428, 281, 289, 296, 352
-0.994431, 211, 1, 226, 64
-0.994458, 81, 245, 208, 276
-0.994464, 273, 117, 400, 148
-0.994467, 129, 193, 256, 224
-0.994468, 109, 161, 124, 224
-0.994489, 129, 133, 256, 164
-0.9945, 337, 101, 464, 132
-0.994522, 241, 45, 368, 76
-0.99455, 161, 33, 288, 64
-0.99456, 257, 213, 384, 244
-0.994637, 1, 217, 128, 248
-0.994648, 1, 345, 128, 375
-0.994671, 145, 17, 272, 48
-0.994679, 321, 197, 448, 228
-0.994698, 81, 265, 208, 296
-0.994708, 141, 65, 172, 320
-0.99471, 369, 229, 496, 260
-0.994721, 1, 53, 128, 84
-0.994737, 169, 97, 200, 352
-0.994753, 353, 153, 480, 184
-0.994778, 33, 333, 160, 364
-0.994811, 241, 285, 368, 316
-0.994812, 321, 165, 448, 196
-0.994817, 369, 33, 496, 64
-0.994836, 193, 97, 224, 352
-0.994844, 193, 265, 320, 296
-0.994883, 241, 141, 368, 172
-0.994901, 65, 165, 192, 196
-0.99491, 289, 281, 416, 312
-0.994916, 369, 345, 496, 375
-0.994937, 33, 285, 160, 316
-0.994942, 241, 73, 368, 104
-0.994946, 193, 113, 320, 144
-0.994989, 209, 33, 336, 64
-0.994998, 305, 213, 432, 244
-0.995003, 369, 265, 496, 296
-0.995004, 289, 145, 416, 176
-0.995034, 193, 125, 320, 156
-0.995119, 129, 97, 160, 352
-0.99512, 81, 129, 112, 375
-0.995134, 49, 1, 176, 32
-0.995175, 161, 289, 288, 320
-0.995179, 237, 129, 268, 375
-0.995189, 289, 177, 416, 208
-0.99522, 289, 225, 416, 256
-0.995223, 189, 1, 220, 256
-0.995225, 153, 1, 184, 256
-0.995248, 1, 89, 256, 152
-0.995255, 1, 189, 128, 220
-0.995286, 353, 141, 480, 172
-0.995302, 221, 1, 252, 256
-0.995348, 301, 97, 332, 352
-0.995353, 145, 325, 272, 356
-0.995376, 369, 301, 496, 332
-0.9954, 5, 1, 36, 256
-0.99544, 49, 213, 176, 244
-0.995448, 193, 229, 320, 260
-0.995455, 1, 81, 128, 112
-0.995467, 369, 217, 496, 248
-0.995495, 273, 257, 400, 288
-0.995503, 117, 33, 148, 288
-0.995559, 1, 65, 128, 96
-0.995577, 353, 113, 480, 144
-0.995592, 305, 21, 432, 52
-0.995608, 81, 73, 208, 104
-0.995632, 305, 33, 432, 64
-0.995647, 349, 65, 380, 320
-0.995655, 321, 341, 448, 372
-0.995697, 365, 1, 396, 256
-0.995734, 181, 129, 212, 375
-0.995758, 465, 129, 496, 375
-0.995776, 117, 129, 148, 375
-0.995848, 205, 1, 236, 256
-0.995902, 153, 129, 184, 375
-0.996056, 453, 33, 484, 288
-0.996062, 93, 129, 124, 375
-0.996075, 285, 129, 316, 375
-0.996091, 169, 1, 200, 256
-0.996096, 129, 1, 160, 256
-0.996099, 253, 1, 284, 256
-0.996121, 221, 97, 252, 352
-0.996132, 333, 129, 364, 375
-0.996193, 253, 129, 284, 375
-0.996205, 69, 129, 100, 375
-0.996214, 205, 129, 236, 375
-0.996291, 381, 65, 412, 320
-0.996321, 265, 129, 296, 375
-0.996326, 401, 65, 432, 320
-0.996361, 105, 33, 136, 288
-0.996381, 265, 313, 280, 344
-0.996392, 5, 129, 36, 375
-0.996423, 271, 313, 286, 344
-0.996434, 147, 141, 162, 172
-0.996437, 313, 129, 344, 375
-0.996489, 155, 145, 170, 176
-0.996489, 479, 165, 494, 196
-0.996535, 65, 321, 80, 352
-0.996581, 413, 97, 444, 352
-0.996631, 101, 305, 116, 336
-0.996656, 407, 345, 422, 375
-0.996672, 267, 273, 282, 304
-0.996693, 75, 345, 90, 375
-0.996718, 481, 325, 496, 356
-0.996734, 441, 65, 472, 320
-0.996736, 191, 297, 206, 328
-0.996736, 167, 25, 182, 56
-0.996737, 55, 325, 70, 356
-0.996744, 113, 229, 128, 260
-0.996752, 481, 309, 496, 340
-0.996762, 105, 129, 136, 375
-0.996766, 135, 261, 150, 292
-0.996776, 81, 1, 112, 256
-0.996782, 73, 313, 88, 344
-0.996804, 49, 129, 80, 375
-0.99681, 265, 301, 280, 332
-0.99681, 249, 53, 264, 84
-0.996812, 259, 313, 274, 344
-0.996813, 207, 1, 222, 32
-0.996823, 99, 13, 114, 44
-0.996825, 161, 5, 176, 36
-0.996832, 159, 277, 174, 308
-0.996838, 271, 289, 286, 320
-0.996839, 185, 317, 200, 348
-0.99685, 75, 161, 90, 192
-0.996852, 313, 145, 328, 176
-0.99686, 261, 57, 276, 88
-0.996861, 365, 157, 380, 188
-0.996869, 369, 129, 400, 375
-0.996874, 65, 157, 80, 188
-0.996878, 177, 313, 192, 344
-0.996891, 49, 277, 64, 308
-0.996891, 469, 1, 500, 256
-0.996895, 121, 29, 136, 60
-0.996904, 143, 257, 158, 288
-0.996909, 91, 1, 106, 32
-0.996928, 283, 5, 298, 36
-0.996944, 319, 165, 334, 196
-0.996951, 383, 89, 398, 120
-0.996951, 151, 277, 166, 308
-0.996952, 279, 301, 294, 332
-0.99696, 355, 181, 370, 212
-0.99696, 475, 337, 490, 368
-0.996963, 425, 65, 456, 320
-0.99697, 273, 9, 288, 40
-0.996971, 237, 1, 268, 256
-0.996979, 351, 77, 366, 108
-0.996982, 347, 189, 362, 220
-0.996988, 265, 5, 280, 36
-0.996989, 169, 153, 184, 184
-0.996991, 357, 165, 372, 196
-0.996992, 253, 133, 268, 164
-0.996998, 105, 9, 120, 40
-0.996999, 207, 165, 222, 196
-0.996999, 467, 345, 482, 375
-0.997005, 479, 297, 494, 328
-0.997007, 81, 177, 96, 208
-0.997015, 331, 1, 346, 32
-0.997015, 161, 149, 176, 180
-0.997019, 263, 141, 278, 172
-0.99702, 137, 133, 152, 164
-0.997034, 159, 289, 174, 320
-0.997044, 55, 289, 70, 320
-0.997047, 373, 153, 388, 184
-0.997049, 111, 17, 126, 48
-0.99705, 71, 1, 86, 32
-0.997051, 93, 17, 108, 48
-0.997063, 9, 169, 24, 200
-0.997072, 457, 9, 472, 40
-0.997074, 295, 193, 310, 224
-0.997079, 85, 9, 100, 40
-0.997086, 425, 1, 440, 32
-0.997095, 317, 193, 332, 224
-0.997096, 161, 29, 176, 60
-0.997098, 269, 45, 284, 76
-0.997099, 23, 5, 38, 36
-0.997103, 133, 289, 148, 320
-0.997105, 281, 277, 296, 308
-0.997107, 455, 181, 470, 212
-0.997113, 361, 65, 376, 96
-0.997125, 57, 273, 72, 304
-0.997128, 109, 161, 124, 192
-0.997138, 241, 153, 256, 184
-0.997148, 477, 153, 492, 184
-0.997153, 247, 153, 262, 184
-0.997153, 133, 245, 148, 276
-0.997156, 177, 37, 192, 68
-0.997156, 231, 153, 246, 184
-0.99716, 259, 1, 274, 32
-0.997161, 135, 37, 150, 68
-0.997162, 97, 165, 112, 196
-0.997164, 315, 177, 330, 208
-0.997168, 73, 333, 88, 364
-0.997169, 167, 41, 182, 72
-0.997177, 417, 9, 432, 40
-0.997182, 475, 177, 490, 208
-0.997187, 473, 165, 488, 196
-0.997187, 183, 305, 198, 336
-0.99719, 393, 93, 408, 124
-0.997192, 447, 1, 462, 32
-0.997194, 479, 221, 494, 252
-0.997199, 95, 345, 110, 375
-0.997204, 223, 5, 238, 36
-0.997206, 79, 5, 94, 36
-0.997211, 151, 249, 166, 280
-0.997221, 309, 337, 324, 368
-0.997225, 183, 157, 198, 188
-0.997226, 233, 1, 248, 32
-0.997228, 221, 45, 236, 76
-0.997243, 67, 233, 82, 264
-0.997248, 167, 5, 182, 36
-0.997248, 69, 301, 84, 332
-0.99725, 325, 193, 340, 224
-0.997252, 307, 141, 322, 172
-0.997252, 175, 5, 190, 36
-0.997255, 173, 49, 188, 80
-0.997261, 263, 121, 278, 152
-0.997268, 71, 197, 86, 228
-0.997268, 379, 145, 394, 176
-0.997271, 401, 1, 416, 32
-0.997276, 227, 41, 242, 72
-0.997279, 359, 153, 374, 184
-0.997283, 277, 265, 292, 296
-0.997285, 259, 77, 274, 108
-0.997292, 479, 253, 494, 284
-0.997292, 109, 313, 124, 344
-0.997294, 327, 205, 342, 236
-0.997297, 375, 85, 390, 116
-0.997297, 269, 25, 284, 56
-0.997299, 283, 189, 298, 220
-0.9973, 127, 33, 142, 64
-0.997484, 273, 33, 304, 288
-0.997611, 413, 1, 444, 256
-0.997633, 285, 33, 316, 288
-0.997691, 329, 33, 360, 288
-0.997749, 61, 33, 92, 288
-0.997803, 37, 129, 68, 375
-0.997814, 93, 33, 124, 288
-0.997895, 317, 33, 348, 288
-0.99804, 301, 1, 332, 256
-0.998175, 179, 1, 194, 128
-0.998185, 197, 1, 212, 128
-0.998194, 17, 1, 48, 256
-0.998225, 113, 209, 128, 336
-0.998246, 453, 129, 484, 375
-0.998274, 203, 1, 218, 128
-0.998316, 433, 359, 496, 374
-0.998323, 189, 1, 204, 128
-0.998334, 467, 145, 482, 272
-0.998336, 477, 129, 492, 256
-0.998338, 265, 241, 280, 368
-0.998341, 281, 209, 296, 336
-0.998343, 17, 293, 80, 308
-0.998348, 1, 299, 64, 314
-0.998349, 65, 163, 128, 178
-0.998356, 41, 9, 104, 24
-0.998372, 217, 47, 280, 62
-0.998373, 249, 279, 312, 294
-0.998374, 337, 155, 400, 170
-0.998374, 173, 1, 188, 128
-0.998375, 273, 223, 336, 238
-0.998375, 433, 187, 496, 202
-0.998379, 217, 157, 280, 172
-0.99838, 73, 169, 136, 184
-0.998381, 357, 97, 372, 224
-0.998382, 281, 233, 344, 248
-0.998382, 121, 43, 184, 58
-0.998382, 369, 65, 384, 192
-0.998382, 275, 209, 290, 336
-0.998383, 433, 11, 496, 26
-0.998384, 177, 163, 240, 178
-0.998398, 273, 293, 336, 308
-0.998399, 351, 65, 366, 192
-0.998399, 289, 5, 352, 20
-0.9984, 177, 315, 240, 330
-0.998406, 153, 5, 216, 20
-0.998406, 265, 285, 328, 300
-0.998407, 409, 21, 472, 36
-0.998408, 81, 261, 144, 276
-0.99841, 433, 353, 496, 368
-0.99841, 65, 309, 128, 324
-0.998412, 105, 153, 168, 168
-0.998412, 81, 31, 144, 46
-0.998412, 209, 57, 272, 72
-0.998413, 25, 299, 88, 314
-0.998414, 65, 153, 128, 168
-0.998415, 257, 319, 320, 334
-0.998416, 257, 301, 320, 316
-0.998416, 121, 253, 184, 268
-0.998417, 97, 245, 160, 260
-0.998418, 49, 269, 112, 284
-0.998419, 321, 173, 384, 188
-0.998422, 305, 203, 368, 218
-0.998422, 153, 361, 216, 375
-0.998423, 193, 7, 256, 22
-0.998423, 65, 181, 128, 196
-0.998424, 25, 305, 88, 320
-0.998425, 81, 175, 144, 190
-0.998426, 263, 161, 278, 288
-0.998427, 89, 185, 152, 200
-0.998427, 313, 179, 376, 194
-0.998428, 297, 87, 360, 102
-0.998428, 337, 85, 400, 100
-0.998429, 145, 159, 208, 174
-0.99843, 361, 5, 424, 20
-0.99843, 49, 319, 112, 334
-0.998431, 129, 361, 192, 375
-0.998432, 105, 37, 168, 52
-0.998432, 57, 243, 120, 258
-0.998432, 345, 361, 408, 375
-0.998436, 297, 309, 360, 324
-0.998437, 177, 305, 240, 320
-0.998437, 409, 357, 472, 372
-0.998437, 1, 145, 64, 160
-0.998438, 121, 263, 184, 278
-0.998439, 417, 5, 480, 20
-0.99844, 337, 103, 400, 118
-0.998441, 217, 167, 280, 182
-0.998441, 1, 287, 64, 302
-0.998441, 89, 271, 152, 286
-0.998442, 1, 305, 64, 320
-0.998442, 249, 273, 312, 288
-0.998442, 81, 251, 144, 266
-0.998442, 281, 303, 344, 318
-0.998442, 81, 237, 144, 252
-0.998443, 249, 291, 312, 306
-0.998444, 137, 323, 200, 338
-0.998445, 1, 151, 64, 166
-0.998445, 129, 149, 192, 164
-0.998447, 241, 43, 304, 58
-0.998447, 201, 63, 264, 78
-0.998449, 433, 347, 496, 362
-0.99845, 409, 191, 472, 206
-0.99845, 313, 155, 376, 170
-0.998451, 241, 187, 304, 202
-0.998453, 105, 191, 168, 206
-0.998454, 369, 95, 432, 110
-0.998456, 225, 317, 288, 332
-0.998457, 249, 207, 312, 222
-0.998458, 297, 149, 360, 164
-0.99846, 305, 105, 368, 120
-0.998461, 281, 205, 344, 220
-0.998462, 145, 219, 208, 234
-0.998462, 57, 325, 120, 340
-0.998462, 33, 157, 96, 172
-0.998463, 353, 149, 416, 164
-0.998463, 41, 177, 104, 192
-0.998463, 377, 361, 440, 375
-0.998463, 153, 59, 216, 74
-0.998465, 433, 51, 496, 66
-0.998465, 1, 277, 64, 292
-0.998465, 249, 215, 312, 230
-0.998465, 153, 21, 216, 36
-0.998465, 241, 49, 304, 64
-0.998465, 305, 195, 368, 210
-0.998466, 361, 49, 376, 176
-0.998466, 393, 11, 456, 26
-0.998467, 129, 49, 192, 64
-0.998467, 161, 65, 224, 80
-0.998469, 289, 215, 352, 230
-0.998469, 321, 79, 384, 94
-0.998469, 337, 179, 400, 194
-0.998469, 1, 11, 64, 26
-0.998471, 1, 65, 64, 80
-0.998473, 353, 325, 416, 340
-0.998473, 337, 91, 400, 106
-0.998474, 65, 5, 128, 20
-0.998474, 153, 329, 216, 344
-0.998474, 105, 143, 168, 158
-0.998475, 137, 313, 200, 328
-0.998475, 105, 283, 168, 298
-0.998475, 65, 187, 128, 202
-0.998476, 265, 7, 328, 22
-0.998478, 97, 305, 160, 320
-0.998479, 305, 227, 368, 242
-0.998479, 129, 27, 192, 42
-0.99848, 433, 27, 496, 42
-0.99848, 433, 17, 496, 32
-0.998481, 177, 57, 240, 72
-0.998481, 241, 3, 304, 18
-0.998481, 479, 177, 494, 304
-0.998481, 433, 229, 496, 244
-0.998481, 33, 171, 96, 186
-0.998481, 257, 325, 320, 340
-0.998481, 121, 225, 136, 352
-0.998482, 153, 273, 216, 288
-0.998482, 65, 193, 128, 208
-0.998483, 49, 275, 112, 290
-0.998484, 313, 209, 376, 224
-0.998485, 181, 145, 196, 272
-0.998485, 377, 81, 392, 208
-0.998485, 337, 129, 400, 144
-0.998502, 197, 81, 212, 208
-0.998507, 121, 129, 136, 256
-0.998515, 257, 161, 272, 288
-0.998518, 309, 193, 324, 320
-0.998527, 115, 161, 130, 288
-0.998533, 107, 241, 122, 368
-0.998538, 145, 145, 160, 272
-0.99854, 213, 161, 228, 288
-0.998541, 179, 65, 194, 192
-0.998548, 149, 1, 164, 128
-0.998554, 297, 239, 328, 254
-0.998555, 169, 291, 200, 306
-0.998555, 81, 15, 112, 30
-0.998555, 185, 335, 216, 350
-0.998556, 141, 147, 172, 162
-0.998557, 113, 249, 144, 264
-0.998559, 135, 113, 150, 240
-0.998559, 181, 163, 212, 178
-0.99856, 261, 7, 292, 22
-0.998561, 5, 301, 36, 316
-0.998561, 113, 269, 144, 284
-0.998561, 1, 13, 32, 28
-0.998561, 153, 311, 184, 326
-0.998561, 93, 159, 124, 174
-0.998562, 169, 357, 200, 372
-0.998563, 465, 27, 496, 42
-0.998564, 153, 207, 184, 222
-0.998565, 117, 275, 148, 290
-0.998565, 221, 165, 252, 180
-0.998566, 449, 25, 480, 40
-0.998566, 465, 33, 496, 48
-0.998566, 461, 145, 476, 272
-0.998567, 385, 5, 416, 20
-0.998567, 203, 49, 218, 176
-0.998568, 357, 165, 388, 180
-0.998569, 117, 263, 148, 278
-0.99857, 301, 215, 332, 230
-0.998572, 5, 181, 36, 196
-0.998572, 433, 7, 464, 22
-0.998572, 163, 1, 178, 128
-0.998572, 461, 179, 492, 194
-0.998572, 465, 307, 496, 322
-0.998573, 161, 155, 192, 170
-0.998573, 217, 59, 248, 74
-0.998574, 257, 67, 288, 82
-0.998574, 81, 5, 112, 20
-0.998575, 245, 141, 276, 156
-0.998575, 149, 9, 180, 24
-0.998576, 257, 53, 288, 68
-0.998576, 201, 5, 232, 20
-0.998577, 385, 359, 416, 374
-0.998578, 257, 225, 272, 352
-0.998579, 121, 361, 152, 375
-0.998579, 309, 179, 340, 194
-0.998579, 61, 247, 92, 262
-0.99858, 405, 13, 436, 28
-0.99858, 133, 39, 164, 54
-0.99858, 237, 55, 268, 70
-0.99858, 281, 7, 312, 22
-0.99858, 187, 145, 202, 272
-0.998581, 313, 233, 344, 248
-0.998581, 305, 343, 336, 358
-0.998582, 465, 225, 496, 240
-0.998582, 165, 309, 196, 324
-0.998583, 325, 207, 356, 222
-0.998584, 465, 349, 496, 364
-0.998585, 329, 179, 360, 194
-0.998586, 433, 353, 464, 368
-0.998586, 97, 305, 128, 320
-0.998587, 355, 1, 370, 128
-0.998587, 113, 255, 144, 270
-0.998589, 241, 171, 272, 186
-0.99859, 113, 297, 144, 312
-0.99859, 303, 209, 318, 336
-0.99859, 133, 139, 164, 154
-0.998591, 125, 249, 156, 264
-0.998591, 301, 5, 332, 20
-0.998591, 173, 65, 188, 192
-0.998591, 363, 97, 378, 224
-0.998592, 381, 147, 412, 162
-0.998592, 417, 1, 432, 128
-0.998593, 253, 1, 268, 128
-0.998594, 265, 303, 296, 318
-0.998594, 465, 361, 496, 375
-0.998595, 77, 165, 108, 180
-0.998595, 325, 217, 356, 232
-0.998595, 109, 243, 140, 258
-0.998596, 475, 1, 490, 128
-0.998597, 161, 129, 176, 256
-0.998597, 453, 351, 484, 366
-0.998597, 215, 225, 230, 352
-0.998597, 465, 5, 496, 20
-0.998598, 465, 173, 496, 188
-0.998599, 369, 113, 384, 240
-0.9986, 269, 27, 300, 42
-0.9986, 285, 291, 316, 306
-0.9986, 289, 233, 320, 248
-0.998601, 145, 41, 176, 56
-0.998602, 285, 223, 316, 238
-0.998602, 5, 295, 36, 310
-0.998603, 97, 311, 128, 326
-0.998603, 269, 193, 284, 320
-0.998604, 243, 1, 258, 128
-0.998605, 473, 177, 488, 304
-0.998607, 333, 199, 364, 214
-0.998608, 61, 241, 92, 256
-0.99861, 449, 359, 480, 374
-0.998612, 465, 261, 496, 276
-0.998613, 451, 1, 466, 128
-0.998613, 309, 145, 324, 272
-0.998614, 203, 129, 218, 256
-0.998614, 461, 1, 476, 128
-0.998615, 357, 69, 388, 84
-0.998617, 253, 59, 284, 74
-0.998617, 65, 317, 96, 332
-0.998618, 345, 185, 376, 200
-0.998619, 77, 319, 108, 334
-0.99862, 263, 1, 278, 128
-0.998621, 53, 303, 84, 318
-0.998622, 261, 323, 292, 338
-0.998622, 261, 113, 276, 240
-0.998623, 261, 315, 292, 330
-0.998623, 173, 7, 204, 22
-0.998624, 229, 153, 260, 168
-0.998624, 353, 173, 384, 188
-0.998625, 175, 145, 190, 272
-0.998625, 125, 283, 156, 298
-0.998626, 49, 1, 64, 128
-0.998626, 261, 287, 292, 302
-0.998629, 59, 241, 74, 368
-0.998629, 309, 303, 340, 318
-0.99863, 191, 209, 206, 336
-0.99863, 249, 185, 280, 200
-0.998631, 13, 7, 44, 22
-0.998631, 261, 277, 292, 292
-0.998632, 365, 361, 396, 375
-0.998632, 157, 361, 188, 375
-0.998632, 21, 97, 52, 352
-0.998634, 61, 253, 92, 268
-0.998634, 287, 209, 302, 336
-0.998635, 133, 291, 164, 306
-0.998636, 245, 147, 276, 162
-0.998638, 349, 79, 380, 94
-0.998638, 121, 37, 152, 52
-0.998639, 397, 361, 428, 375
-0.998641, 225, 45, 256, 60
-0.998641, 169, 193, 184, 320
-0.998642, 7, 49, 22, 176
-0.998642, 61, 323, 92, 338
-0.998642, 337, 193, 368, 208
-0.998642, 201, 167, 232, 182
-0.998643, 321, 225, 352, 240
-0.998643, 153, 145, 168, 272
-0.998646, 129, 259, 160, 274
-0.998647, 373, 153, 404, 168
-0.998647, 113, 31, 144, 46
-0.998647, 5, 175, 36, 190
-0.998648, 61, 5, 92, 20
-0.998649, 191, 81, 206, 208
-0.99865, 365, 159, 396, 174
-0.998653, 469, 337, 500, 352
-0.998656, 251, 177, 266, 304
-0.998659, 345, 179, 376, 194
-0.998662, 261, 293, 292, 308
-0.998665, 183, 225, 198, 352
-0.998666, 141, 255, 172, 270
-0.998668, 53, 333, 84, 348
-0.998668, 93, 9, 124, 24
-0.998669, 141, 279, 172, 294
-0.998672, 129, 129, 144, 256
-0.998672, 173, 315, 204, 330
-0.998673, 63, 1, 78, 128
-0.998677, 49, 327, 80, 342
-0.998678, 421, 357, 452, 372
-0.998679, 251, 225, 266, 352
-0.998683, 197, 161, 212, 288
-0.998683, 185, 301, 216, 316
-0.998683, 69, 209, 84, 336
-0.998687, 465, 355, 496, 370
-0.998689, 49, 297, 80, 312
-0.99869, 157, 1, 172, 128
-0.998693, 95, 1, 110, 128
-0.998698, 97, 29, 128, 44
-0.998701, 293, 225, 308, 352
-0.998702, 145, 285, 176, 300
-0.998703, 467, 1, 482, 128
-0.998711, 9, 1, 24, 128
-0.998711, 317, 209, 332, 336
-0.998712, 293, 161, 308, 288
-0.998715, 221, 1, 236, 128
-0.998718, 203, 225, 218, 352
-0.998722, 245, 161, 260, 288
-0.998729, 79, 241, 94, 368
-0.998734, 337, 1, 352, 128
-0.998736, 159, 193, 174, 320
-0.998739, 311, 49, 326, 176
-0.99874, 239, 225, 254, 352
-0.998743, 455, 145, 470, 272
-0.998744, 255, 49, 270, 176
-0.998744, 361, 1, 376, 128
-0.998746, 223, 225, 238, 352
-0.998754, 287, 161, 302, 288
-0.998756, 81, 1, 96, 128
-0.998761, 237, 97, 252, 224
-0.998765, 395, 49, 410, 176
-0.998772, 325, 209, 340, 336
-0.998774, 137, 1, 152, 128
-0.998775, 89, 241, 104, 368
-0.998775, 303, 145, 318, 272
-0.998778, 481, 1, 496, 128
-0.998783, 409, 1, 424, 128
-0.998783, 197, 209, 212, 336
-0.998791, 245, 65, 260, 192
-0.998791, 167, 129, 182, 256
-0.998792, 465, 193, 480, 320
-0.998798, 375, 1, 390, 128
-0.998799, 25, 1, 40, 128
-0.998801, 223, 145, 238, 272
-0.998808, 349, 129, 364, 256
-0.998811, 395, 241, 410, 368
-0.998812, 213, 49, 228, 176
-0.998814, 321, 1, 336, 128
-0.99882, 139, 49, 154, 176
-0.998821, 185, 65, 200, 192
-0.998822, 299, 1, 314, 128
-0.998827, 97, 241, 112, 368
-0.99883, 383, 49, 398, 176
-0.99883, 237, 17, 252, 144
-0.998837, 209, 225, 224, 352
-0.998838, 391, 1, 406, 128
-0.99884, 77, 161, 92, 288
-0.998848, 427, 177, 442, 304
-0.998852, 87, 1, 102, 128
-0.998857, 143, 193, 158, 320
-0.99886, 357, 145, 372, 272
-0.99886, 143, 1, 158, 128
-0.998861, 215, 1, 230, 128
-0.998863, 227, 17, 242, 144
-0.998864, 109, 113, 124, 240
-0.998866, 457, 193, 472, 320
-0.99887, 345, 1, 360, 128
-0.998976, 45, 33, 76, 288
-0.999251, 29, 1, 60, 256
-0.99973, 351, 193, 366, 208
-0.999731, 99, 27, 114, 42
-0.999731, 473, 335, 488, 350
-0.999731, 7, 347, 22, 362
-0.999732, 209, 5, 224, 20
-0.999732, 267, 327, 282, 342
-0.999732, 55, 273, 70, 288
-0.999733, 321, 209, 336, 224
-0.999733, 291, 225, 306, 240
-0.999733, 269, 41, 284, 56
-0.999733, 407, 353, 422, 368
-0.999734, 115, 361, 130, 375
-0.999734, 5, 157, 20, 172
-0.999734, 227, 7, 242, 22
-0.999734, 293, 233, 308, 248
-0.999735, 167, 153, 182, 168
-0.999735, 143, 5, 158, 20
-0.999736, 71, 193, 86, 208
-0.999736, 257, 141, 272, 156
-0.999736, 267, 141, 282, 156
-0.999737, 159, 295, 174, 310
-0.999737, 363, 361, 378, 375
-0.999738, 337, 217, 352, 232
-0.999739, 161, 149, 176, 164
-0.999739, 265, 283, 280, 298
-0.999739, 283, 195, 298, 210
-0.999739, 135, 137, 150, 152
-0.99974, 141, 283, 156, 298
-0.99974, 261, 87, 276, 102
-0.999741, 287, 5, 302, 20
-0.999741, 259, 79, 274, 94
-0.999741, 275, 289, 290, 304
-0.999741, 319, 5, 334, 20
-0.999743, 251, 147, 266, 162
-0.999743, 369, 159, 384, 174
-0.999744, 359, 185, 374, 200
-0.999744, 337, 203, 352, 218
-0.999745, 161, 359, 176, 374
-0.999747, 315, 339, 330, 354
-0.999749, 197, 23, 212, 38
-0.99975, 77, 315, 92, 330
-0.99975, 265, 51, 280, 66
-0.99975, 65, 191, 80, 206
-0.99975, 467, 349, 482, 364
-0.999752, 187, 5, 202, 20
-0.999752, 125, 33, 140, 48
-0.999753, 345, 187, 360, 202
-0.999753, 7, 229, 22, 244
-0.999753, 349, 77, 364, 92
-0.999754, 5, 61, 20, 76
-0.999754, 377, 43, 392, 58
-0.999755, 183, 319, 198, 334
-0.999756, 137, 37, 152, 52
-0.999756, 481, 151, 496, 166
-0.999757, 465, 359, 480, 374
-0.999757, 349, 179, 364, 194
-0.999758, 119, 31, 134, 46
-0.999759, 265, 291, 280, 306
-0.999759, 51, 327, 66, 342
-0.99976, 295, 7, 310, 22
-0.99976, 163, 37, 178, 52
-0.99976, 143, 139, 158, 154
-0.999761, 173, 359, 188, 374
-0.999761, 73, 333, 88, 348
-0.999761, 135, 289, 150, 304
-0.999762, 49, 277, 64, 292
-0.999762, 257, 179, 272, 194
-0.999764, 167, 309, 182, 324
-0.999764, 263, 301, 278, 316
-0.999765, 479, 173, 494, 188
-0.999766, 159, 289, 174, 304
-0.999767, 109, 361, 124, 375
-0.999767, 247, 5, 262, 20
-0.999767, 101, 9, 116, 24
-0.999768, 379, 361, 394, 375
-0.999768, 337, 193, 352, 208
-0.999769, 271, 9, 286, 24
-0.999769, 93, 17, 108, 32
-0.99977, 359, 165, 374, 180
-0.99977, 131, 253, 146, 268
-0.999771, 55, 333, 70, 348
-0.999771, 259, 57, 274, 72
-0.999772, 259, 323, 274, 338
-0.999772, 263, 309, 278, 324
-0.999772, 435, 359, 450, 374
-0.999774, 479, 161, 494, 176
-0.999774, 307, 5, 322, 20
-0.999775, 149, 255, 164, 270
-0.999777, 413, 361, 428, 375
-0.999777, 67, 161, 82, 176
-0.999777, 87, 5, 102, 20
-0.999778, 75, 5, 90, 20
-0.999778, 155, 251, 170, 266
-0.99978, 91, 11, 106, 26
-0.99978, 481, 323, 496, 338
-0.999781, 105, 27, 120, 42
-0.999784, 265, 277, 280, 292
-0.999786, 309, 339, 324, 354
-0.999788, 363, 69, 378, 84
-0.999788, 183, 313, 198, 328
-0.999788, 9, 173, 24, 188
-0.999788, 257, 5, 272, 20
-0.999789, 71, 199, 86, 214
-0.99979, 479, 167, 494, 182
-0.99979, 113, 29, 128, 44
-0.999792, 159, 281, 174, 296
-0.999793, 271, 283, 286, 298
-0.999794, 167, 357, 182, 372
-0.999794, 265, 319, 280, 334
-0.999795, 319, 179, 334, 194
-0.999796, 135, 281, 150, 296
-0.999796, 149, 281, 164, 296
-0.999797, 481, 249, 496, 264
-0.999799, 157, 257, 172, 272
-0.9998, 471, 357, 486, 372
-0.9998, 271, 119, 286, 134
-0.999802, 115, 215, 130, 230
-0.999805, 313, 147, 328, 162
-0.999805, 363, 63, 378, 78
-0.999806, 143, 257, 158, 272
-0.999807, 271, 25, 286, 40
-0.999809, 177, 317, 192, 332
-0.999815, 61, 327, 76, 342
-0.999819, 281, 5, 296, 20
-0.999824, 479, 335, 494, 350
-0.999827, 101, 307, 116, 322
-0.999829, 475, 351, 490, 366
-0.999832, 69, 319, 84, 334
-0.999838, 273, 323, 288, 338
-0.999849, 459, 359, 474, 374
