1965
-0.376801, 1, 1, 500, 256
-0.441959, 1, 1, 256, 375
-0.450507, 97, 1, 352, 375
-0.482028, 1, 1, 500, 375
-0.496113, 1, 97, 500, 352
-0.500729, 193, 1, 448, 375
-0.582572, 257, 1, 500, 256
-0.590163, 1, 33, 256, 288
-0.590307, 97, 1, 352, 256
-0.618217, 193, 97, 448, 352
-0.644927, 97, 97, 352, 352
-0.762687, 1, 129, 256, 375
-0.834646, 193, 1, 320, 375
-0.847994, 353, 1, 480, 256
-0.848788, 225, 1, 352, 256
-0.850098, 193, 129, 320, 375
-0.851968, 113, 1, 240, 256
-0.860257, 161, 1, 288, 256
-0.860848, 273, 1, 400, 256
-0.863329, 97, 1, 224, 375
-0.864827, 17, 1, 144, 375
-0.875325, 113, 97, 240, 352
-0.876, 1, 1, 128, 256
-0.879383, 65, 1, 192, 256
-0.881596, 145, 1, 272, 375
-0.883993, 273, 1, 400, 375
-0.884986, 321, 1, 448, 375
-0.898945, 1, 33, 500, 160
-0.900305, 289, 97, 416, 352
-0.905435, 241, 129, 368, 375
-0.906346, 369, 1, 496, 375
-0.914025, 97, 33, 352, 160
-0.91891, 129, 129, 384, 256
-0.92057, 1, 81, 500, 208
-0.922619, 1, 145, 500, 272
-0.923385, 65, 97, 192, 352
-0.923593, 129, 193, 384, 320
-0.924267, 257, 49, 500, 176
-0.92768, 321, 17, 448, 144
-0.927685, 209, 129, 336, 256
-0.928894, 1, 97, 128, 352
-0.93001, 209, 177, 272, 304
-0.930376, 353, 97, 480, 352
-0.931232, 177, 209, 240, 336
-0.932272, 225, 1, 480, 128
-0.932502, 257, 97, 500, 224
-0.933531, 1, 65, 256, 192
-0.93365, 1, 241, 500, 368
-0.934445, 97, 81, 352, 208
-0.934819, 241, 1, 368, 128
-0.935025, 193, 177, 320, 304
-0.935706, 241, 113, 304, 240
-0.935977, 289, 1, 352, 128
-0.937568, 97, 241, 352, 368
-0.937822, 217, 113, 280, 240
-0.938048, 177, 145, 240, 272
-0.938821, 353, 33, 416, 160
-0.939775, 273, 49, 400, 176
-0.940538, 257, 1, 320, 128
-0.940645, 33, 129, 288, 256
-0.941079, 257, 65, 320, 192
-0.942435, 1, 33, 128, 160
-0.943061, 177, 225, 304, 352
-0.943242, 81, 33, 208, 160
-0.944921, 233, 1, 296, 128
-0.946388, 393, 1, 456, 128
-0.94661, 209, 17, 272, 144
-0.94669, 193, 17, 320, 144
-0.947802, 145, 33, 272, 160
-0.947971, 193, 81, 320, 208
-0.948825, 369, 1, 496, 128
-0.949256, 225, 145, 480, 272
-0.949292, 249, 161, 312, 288
-0.949688, 129, 81, 256, 208
-0.950188, 177, 161, 240, 224
-0.950211, 289, 49, 352, 176
-0.950269, 209, 201, 272, 264
-0.951333, 417, 17, 480, 144
-0.951333, 177, 33, 240, 160
-0.951518, 321, 49, 384, 176
-0.952578, 129, 225, 256, 352
-0.953307, 89, 49, 152, 176
-0.953309, 145, 33, 208, 160
-0.953516, 1, 193, 256, 320
-0.953533, 321, 65, 448, 192
-0.954177, 57, 49, 120, 176
-0.954872, 249, 121, 312, 184
-0.955076, 161, 129, 288, 256
-0.955095, 369, 65, 496, 192
-0.955165, 257, 193, 500, 320
-0.955278, 273, 97, 400, 224
-0.955425, 17, 33, 80, 160
-0.955536, 177, 225, 240, 288
-0.956158, 201, 225, 264, 352
-0.956487, 209, 65, 272, 192
-0.956859, 201, 169, 264, 232
-0.957018, 249, 97, 312, 160
-0.957038, 1, 193, 500, 320
-0.957114, 257, 241, 500, 368
-0.957172, 185, 201, 248, 264
-0.957846, 209, 137, 272, 200
-0.95791, 177, 97, 240, 224
-0.958272, 209, 225, 272, 288
-0.959085, 225, 97, 288, 160
-0.959538, 353, 25, 416, 88
-0.9596, 1, 1, 256, 128
-0.961006, 321, 25, 384, 88
-0.961642, 145, 177, 272, 304
-0.961684, 233, 49, 296, 176
-0.961957, 297, 25, 360, 88
-0.962142, 169, 257, 232, 320
-0.96236, 289, 97, 352, 224
-0.962402, 121, 33, 184, 160
-0.962817, 145, 241, 208, 368
-0.96289, 209, 1, 272, 256
-0.963618, 273, 225, 336, 352
-0.963831, 97, 129, 224, 256
-0.963905, 289, 57, 352, 120
-0.964061, 177, 33, 240, 96
-0.964426, 169, 281, 232, 344
-0.964502, 1, 81, 128, 208
-0.964553, 233, 209, 296, 336
-0.964698, 249, 33, 312, 288
-0.964831, 313, 1, 376, 128
-0.964858, 289, 1, 352, 64
-0.964911, 385, 1, 448, 64
-0.965102, 137, 49, 200, 112
-0.965508, 1, 241, 256, 368
-0.9661, 17, 81, 80, 208
-0.96618, 265, 73, 328, 136
-0.966252, 65, 81, 192, 208
-0.966271, 217, 25, 280, 88
-0.966397, 209, 249, 272, 312
-0.966613, 377, 49, 440, 176
-0.966655, 153, 161, 216, 288
-0.966781, 201, 169, 232, 232
-0.966821, 177, 57, 240, 120
-0.966871, 177, 1, 240, 256
-0.967032, 425, 25, 488, 88
-0.967139, 177, 89, 240, 152
-0.967318, 249, 9, 312, 72
-0.967431, 209, 97, 272, 352
-0.967457, 273, 177, 336, 304
-0.967488, 409, 65, 472, 192
-0.967569, 233, 193, 296, 256
-0.967607, 193, 9, 256, 72
-0.968121, 217, 193, 248, 320
-0.968183, 197, 209, 228, 336
-0.968308, 225, 185, 256, 248
-0.9684, 241, 257, 304, 320
-0.968985, 313, 49, 376, 112
-0.969007, 9, 33, 72, 96
-0.969454, 209, 73, 272, 136
-0.969522, 361, 1, 424, 256
-0.969582, 249, 169, 312, 232
-0.969907, 153, 97, 216, 224
-0.969938, 153, 89, 216, 152
-0.970006, 289, 105, 352, 168
-0.970077, 209, 273, 272, 336
-0.970342, 321, 33, 448, 96
-0.970349, 257, 193, 320, 256
-0.970436, 225, 225, 352, 352
-0.970492, 209, 209, 240, 272
-0.970576, 265, 113, 328, 240
-0.970673, 209, 185, 336, 248
-0.97072, 253, 97, 284, 160
-0.970773, 197, 161, 228, 288
-0.970778, 273, 25, 336, 88
-0.970788, 17, 81, 80, 144
-0.97093, 129, 281, 192, 344
-0.970954, 205, 145, 236, 208
-0.970975, 345, 97, 408, 224
-0.971164, 249, 129, 312, 375
-0.971273, 213, 129, 244, 256
-0.97138, 193, 129, 320, 192
-0.971582, 213, 185, 244, 248
-0.971673, 249, 81, 280, 208
-0.971825, 1, 1, 64, 64
-0.971842, 97, 57, 160, 120
-0.971999, 249, 233, 312, 296
-0.972509, 241, 17, 368, 80
-0.972576, 193, 209, 320, 272
-0.972605, 169, 113, 232, 176
-0.972899, 177, 129, 240, 375
-0.973016, 385, 97, 448, 224
-0.973059, 225, 169, 288, 232
-0.973103, 201, 49, 264, 112
-0.973195, 185, 137, 248, 200
-0.973237, 229, 129, 260, 256
-0.973283, 425, 1, 488, 256
-0.973308, 289, 161, 352, 224
-0.973356, 281, 1, 344, 256
-0.973404, 217, 241, 248, 304
-0.97354, 257, 145, 384, 272
-0.973752, 217, 1, 280, 64
-0.973777, 57, 49, 120, 112
-0.973795, 201, 113, 264, 176
-0.973937, 249, 129, 280, 256
-0.973948, 129, 97, 192, 160
-0.974096, 97, 113, 160, 240
-0.974252, 257, 49, 320, 112
-0.974405, 337, 49, 400, 112
-0.974543, 337, 1, 400, 256
-0.974816, 393, 1, 456, 256
-0.974937, 197, 233, 228, 296
-0.975048, 153, 145, 216, 208
-0.975165, 41, 1, 104, 128
-0.975183, 73, 97, 136, 224
-0.975697, 129, 97, 192, 224
-0.975743, 321, 113, 448, 240
-0.975791, 369, 17, 400, 144
-0.975817, 193, 161, 320, 224
-0.975908, 17, 57, 80, 120
-0.976006, 229, 209, 260, 272
-0.976016, 145, 89, 272, 152
-0.976029, 241, 105, 272, 168
-0.976398, 49, 33, 112, 288
-0.976551, 193, 273, 224, 336
-0.976567, 297, 145, 360, 272
-0.976591, 249, 33, 280, 160
-0.976659, 117, 49, 148, 176
-0.976767, 197, 209, 228, 272
-0.976877, 273, 49, 400, 112
-0.976882, 289, 225, 352, 288
-0.976905, 337, 25, 368, 88
-0.976988, 193, 249, 320, 312
-0.977082, 385, 25, 448, 88
-0.977129, 81, 241, 208, 368
-0.977151, 265, 1, 296, 128
-0.977222, 281, 65, 312, 192
-0.97723, 129, 1, 192, 256
-0.977259, 229, 193, 260, 320
-0.977284, 225, 81, 352, 144
-0.977344, 193, 105, 320, 168
-0.977368, 445, 17, 476, 144
-0.977483, 269, 81, 300, 208
-0.977497, 97, 89, 160, 152
-0.97756, 389, 17, 420, 144
-0.977614, 17, 105, 80, 168
-0.977616, 185, 161, 216, 224
-0.977632, 445, 25, 476, 88
-0.977727, 177, 225, 208, 352
-0.977765, 357, 17, 388, 144
-0.977979, 9, 1, 40, 128
-0.978047, 297, 81, 360, 144
-0.978075, 321, 73, 384, 136
-0.978106, 49, 297, 112, 360
-0.97813, 433, 65, 496, 192
-0.978143, 253, 129, 284, 192
-0.9782, 49, 97, 112, 224
-0.978351, 213, 241, 244, 368
-0.978356, 385, 81, 448, 144
-0.978358, 161, 185, 224, 248
-0.978421, 309, 1, 340, 128
-0.978434, 153, 33, 216, 288
-0.978515, 97, 177, 224, 304
-0.978542, 45, 49, 76, 176
-0.978563, 137, 49, 168, 112
-0.978812, 233, 73, 296, 136
-0.97883, 209, 289, 336, 352
-0.978927, 321, 97, 384, 224
-0.979004, 249, 145, 312, 208
-0.979138, 233, 281, 296, 344
-0.979162, 413, 1, 444, 128
-0.979193, 409, 1, 472, 64
-0.9792, 329, 49, 360, 176
-0.979202, 209, 1, 272, 375
-0.979233, 145, 169, 272, 232
-0.979284, 277, 89, 308, 152
-0.979315, 297, 1, 328, 128
-0.97932, 245, 169, 276, 232
-0.979334, 273, 209, 400, 336
-0.979381, 197, 33, 228, 160
-0.97939, 97, 289, 224, 352
-0.979409, 321, 9, 448, 72
-0.979456, 213, 265, 244, 328
-0.979484, 1, 145, 128, 272
-0.979512, 345, 49, 376, 176
-0.979541, 325, 1, 356, 128
-0.979581, 49, 65, 176, 128
-0.97973, 145, 209, 272, 272
-0.979745, 313, 33, 376, 288
-0.979747, 145, 249, 272, 312
-0.979776, 221, 1, 252, 128
-0.979889, 89, 33, 152, 288
-0.979889, 41, 81, 104, 144
-0.97993, 145, 273, 272, 336
-0.97994, 169, 1, 232, 375
-0.979949, 81, 33, 112, 160
-0.98002, 169, 305, 232, 368
-0.980073, 193, 97, 224, 224
-0.980103, 177, 273, 208, 336
-0.980114, 141, 33, 172, 160
-0.980186, 265, 121, 296, 184
-0.980197, 233, 129, 264, 192
-0.980275, 25, 1, 88, 64
-0.980298, 409, 1, 440, 64
-0.980302, 169, 49, 200, 176
-0.980316, 193, 297, 256, 360
-0.980364, 289, 129, 352, 375
-0.980454, 193, 25, 320, 88
-0.98054, 181, 241, 212, 304
-0.980612, 281, 177, 312, 304
-0.980614, 125, 49, 156, 112
-0.980691, 217, 145, 248, 208
-0.980703, 289, 193, 352, 256
-0.980762, 369, 113, 496, 240
-0.980801, 5, 1, 36, 64
-0.980828, 309, 1, 340, 64
-0.980891, 289, 137, 352, 200
-0.980971, 181, 113, 212, 240
-0.981024, 97, 33, 160, 96
-0.981035, 321, 57, 448, 120
-0.981042, 97, 65, 128, 192
-0.981047, 113, 41, 240, 104
-0.981064, 25, 33, 56, 160
-0.981098, 273, 113, 400, 176
-0.981124, 433, 17, 464, 144
-0.98118, 153, 33, 184, 160
-0.981181, 257, 289, 320, 352
-0.981196, 321, 1, 384, 64
-0.981205, 37, 65, 68, 128
-0.981224, 217, 17, 248, 80
-0.981257, 457, 17, 488, 144
-0.981272, 261, 1, 292, 64
-0.981402, 305, 313, 368, 375
-0.981499, 177, 313, 304, 375
-0.98151, 17, 1, 80, 256
-0.98157, 317, 41, 348, 104
-0.981572, 325, 17, 356, 80
-0.981617, 297, 25, 328, 88
-0.98167, 121, 25, 184, 88
-0.981677, 1, 41, 128, 104
-0.981682, 281, 17, 312, 144
-0.981745, 369, 17, 496, 80
-0.981809, 229, 97, 260, 160
-0.981925, 97, 1, 160, 128
-0.981933, 61, 49, 92, 176
-0.982077, 237, 81, 268, 208
-0.982088, 329, 57, 360, 120
-0.982096, 433, 49, 496, 112
-0.982205, 345, 89, 408, 152
-0.98222, 33, 33, 96, 96
-0.982289, 401, 17, 432, 144
-0.982492, 229, 233, 260, 296
-0.98254, 113, 113, 240, 176
-0.982595, 237, 17, 268, 144
-0.982648, 397, 9, 428, 72
-0.982658, 289, 49, 320, 112
-0.982659, 249, 1, 312, 375
-0.982661, 233, 161, 264, 224
-0.982745, 37, 1, 68, 128
-0.982758, 361, 41, 392, 104
-0.982787, 281, 113, 312, 240
-0.982804, 121, 225, 184, 352
-0.982869, 193, 41, 224, 104
-0.983031, 5, 49, 36, 176
-0.98305, 129, 89, 160, 152
-0.98308, 301, 145, 332, 272
-0.983123, 73, 273, 136, 336
-0.983247, 409, 81, 472, 144
-0.983263, 197, 73, 228, 136
-0.983264, 49, 33, 176, 96
-0.983298, 293, 49, 324, 176
-0.983319, 369, 65, 496, 128
-0.983423, 321, 105, 384, 168
-0.98346, 337, 1, 368, 128
-0.983559, 137, 1, 200, 375
-0.983559, 25, 41, 56, 104
-0.983573, 1, 89, 128, 152
-0.983605, 17, 89, 48, 152
-0.983698, 293, 89, 324, 152
-0.983705, 49, 273, 112, 336
-0.983785, 349, 25, 380, 88
-0.983845, 241, 193, 272, 256
-0.983902, 185, 1, 216, 128
-0.983922, 185, 161, 216, 288
-0.984049, 129, 145, 256, 208
-0.984076, 273, 265, 336, 328
-0.984097, 241, 177, 272, 304
-0.984115, 109, 57, 140, 120
-0.984127, 153, 25, 216, 88
-0.984199, 17, 1, 48, 64
-0.984208, 373, 25, 404, 88
-0.984268, 273, 89, 400, 152
-0.984285, 281, 217, 312, 280
-0.984339, 129, 49, 160, 176
-0.984347, 297, 225, 328, 288
-0.984363, 241, 313, 304, 375
-0.984369, 177, 65, 304, 128
-0.984407, 385, 25, 416, 88
-0.984422, 145, 305, 208, 368
-0.98445, 117, 81, 148, 144
-0.984488, 469, 17, 500, 144
-0.984497, 97, 89, 224, 152
-0.9845, 153, 41, 184, 104
-0.984505, 129, 257, 192, 320
-0.984548, 53, 57, 84, 120
-0.98457, 433, 73, 496, 136
-0.984574, 49, 129, 176, 256
-0.98458, 409, 49, 472, 112
-0.984628, 369, 41, 496, 104
-0.984631, 57, 1, 120, 375
-0.98467, 169, 97, 200, 224
-0.984701, 97, 161, 160, 224
-0.984717, 209, 1, 240, 128
-0.984726, 341, 49, 372, 112
-0.984734, 153, 233, 216, 296
-0.984737, 145, 97, 176, 160
-0.984747, 277, 241, 308, 304
-0.984779, 353, 89, 480, 152
-0.98479, 193, 1, 320, 64
-0.984807, 17, 81, 48, 208
-0.984837, 97, 65, 224, 128
-0.98485, 73, 305, 136, 368
-0.9849, 97, 57, 128, 120
-0.984906, 185, 209, 216, 272
-0.98491, 421, 17, 452, 80
-0.984929, 121, 121, 184, 184
-0.984961, 273, 137, 400, 200
-0.984976, 65, 1, 128, 128
-0.984999, 25, 225, 88, 352
-0.985045, 457, 25, 488, 88
-0.985085, 113, 17, 240, 80
-0.985099, 117, 25, 148, 88
-0.985163, 301, 97, 332, 224
-0.985171, 253, 73, 284, 136
-0.98518, 185, 185, 216, 248
-0.985259, 217, 89, 248, 152
-0.985262, 317, 49, 348, 176
-0.985264, 429, 65, 460, 192
-0.985322, 393, 105, 456, 168
-0.985337, 57, 113, 120, 176
-0.985364, 205, 81, 236, 208
-0.985422, 469, 17, 500, 80
-0.985448, 273, 177, 400, 240
-0.985509, 17, 313, 144, 375
-0.985573, 57, 145, 120, 272
-0.985596, 205, 17, 236, 80
-0.985642, 233, 49, 296, 112
-0.985732, 33, 1, 96, 375
-0.985781, 301, 65, 332, 128
-0.98579, 297, 209, 360, 336
-0.985855, 265, 97, 296, 160
-0.985859, 145, 129, 208, 375
-0.985869, 37, 33, 68, 96
-0.985902, 129, 73, 192, 136
-0.985928, 281, 265, 312, 328
-0.985946, 281, 193, 312, 256
-0.985959, 41, 89, 72, 152
-0.986021, 361, 281, 424, 344
-0.986116, 277, 129, 308, 192
-0.986157, 385, 265, 448, 328
-0.986187, 225, 49, 352, 112
-0.986197, 173, 177, 204, 304
-0.986228, 277, 49, 308, 112
-0.986232, 181, 297, 212, 360
-0.986235, 341, 81, 372, 144
-0.986235, 213, 289, 244, 352
-0.986292, 265, 265, 296, 328
-0.986299, 1, 25, 32, 88
-0.986342, 165, 49, 196, 112
-0.986391, 281, 289, 344, 352
-0.9864, 437, 49, 468, 112
-0.986452, 185, 89, 216, 152
-0.98646, 25, 65, 56, 128
-0.98653, 225, 81, 256, 208
-0.986557, 81, 1, 144, 375
-0.986581, 241, 81, 272, 144
-0.986644, 65, 73, 128, 136
-0.986649, 49, 89, 176, 152
-0.986661, 9, 313, 72, 375
-0.986663, 129, 25, 160, 88
-0.986676, 137, 169, 200, 232
-0.986704, 9, 289, 72, 352
-0.986762, 445, 65, 476, 192
-0.986831, 285, 25, 316, 88
-0.98685, 177, 49, 208, 112
-0.986861, 1, 113, 128, 176
-0.986868, 97, 289, 160, 352
-0.986916, 289, 1, 352, 375
-0.986929, 433, 25, 464, 88
-0.986984, 113, 1, 176, 375
-0.986997, 345, 1, 408, 64
-0.987015, 145, 121, 208, 184
-0.987128, 193, 297, 224, 360
-0.987132, 9, 129, 72, 256
-0.987331, 301, 113, 332, 176
-0.987333, 81, 49, 112, 112
-0.987341, 5, 113, 36, 240
-0.987347, 81, 121, 144, 184
-0.987362, 297, 161, 328, 224
-0.987432, 97, 185, 224, 248
-0.987451, 241, 257, 272, 320
-0.987491, 29, 97, 60, 160
-0.987529, 129, 145, 192, 208
-0.987594, 97, 241, 224, 304
-0.987596, 1, 65, 128, 128
-0.987607, 353, 113, 416, 176
-0.98765, 417, 105, 480, 168
-0.987704, 405, 65, 436, 192
-0.987747, 229, 25, 260, 88
-0.987772, 173, 73, 204, 136
-0.987924, 209, 201, 272, 232
-0.987994, 277, 153, 308, 216
-0.988042, 389, 65, 420, 192
-0.988102, 261, 129, 292, 256
-0.988133, 273, 217, 400, 280
-0.988195, 209, 57, 240, 120
-0.988286, 385, 57, 448, 120
-0.988292, 313, 89, 344, 152
-0.988321, 17, 201, 80, 264
-0.988375, 5, 81, 36, 144
-0.988427, 33, 9, 64, 72
-0.988444, 193, 189, 256, 220
-0.988457, 189, 137, 220, 200
-0.988487, 273, 265, 400, 328
-0.98849, 337, 1, 400, 375
-0.988497, 249, 129, 312, 160
-0.988528, 41, 169, 104, 232
-0.988536, 417, 1, 480, 375
-0.988551, 377, 65, 408, 192
-0.988561, 265, 313, 328, 375
-0.988576, 289, 225, 320, 352
-0.98858, 97, 81, 128, 144
-0.988595, 357, 65, 388, 192
-0.988627, 329, 305, 392, 368
-0.988694, 249, 17, 280, 80
-0.988701, 1, 1, 128, 64
-0.988709, 29, 81, 60, 208
-0.988719, 457, 49, 488, 112
-0.988816, 141, 25, 172, 88
-0.988819, 277, 289, 308, 352
-0.988839, 13, 49, 44, 112
-0.988921, 33, 241, 160, 368
-0.988978, 273, 305, 400, 368
-0.98903, 185, 17, 216, 80
-0.989087, 181, 65, 212, 192
-0.989107, 1, 273, 128, 336
-0.989123, 325, 81, 356, 144
-0.989175, 229, 273, 260, 336
-0.989197, 185, 221, 248, 252
-0.989223, 157, 281, 188, 344
-0.989247, 157, 89, 188, 152
-0.98927, 1, 169, 128, 232
-0.989317, 89, 185, 152, 248
-0.989341, 185, 233, 248, 264
-0.989344, 241, 117, 304, 148
-0.989384, 353, 73, 384, 136
-0.98942, 445, 81, 476, 144
-0.989457, 417, 49, 448, 176
-0.989481, 221, 121, 252, 184
-0.989485, 249, 193, 312, 224
-0.989508, 185, 177, 248, 208
-0.989585, 217, 133, 280, 164
-0.989626, 201, 113, 232, 176
-0.989633, 57, 81, 88, 144
-0.989659, 141, 73, 172, 136
-0.989662, 289, 21, 352, 52
-0.98968, 233, 101, 296, 132
-0.989701, 361, 17, 392, 80
-0.989702, 217, 89, 280, 120
-0.989705, 249, 21, 312, 52
-0.989746, 217, 305, 280, 368
-0.989757, 361, 49, 424, 112
-0.98976, 169, 165, 232, 196
-0.989767, 153, 209, 216, 272
-0.989794, 321, 97, 352, 224
-0.989809, 249, 85, 312, 116
-0.989819, 161, 1, 224, 64
-0.989819, 289, 37, 352, 68
-0.989857, 177, 41, 240, 72
-0.989884, 277, 225, 308, 352
-0.989891, 321, 25, 384, 56
-0.989904, 209, 177, 272, 208
-0.989916, 85, 81, 116, 208
-0.989929, 129, 289, 192, 320
-0.989932, 305, 53, 368, 84
-0.989953, 65, 97, 96, 224
-0.989956, 269, 25, 300, 88
-0.98996, 177, 245, 240, 276
-0.989984, 1, 169, 64, 232
-0.989997, 457, 65, 488, 192
-0.990022, 17, 97, 80, 352
-0.990029, 49, 273, 176, 336
-0.990038, 169, 309, 232, 340
-0.990043, 313, 1, 376, 375
-0.990062, 321, 113, 448, 176
-0.990073, 201, 249, 264, 280
-0.990113, 217, 33, 280, 64
-0.990121, 425, 49, 456, 112
-0.990157, 409, 113, 472, 240
-0.990186, 173, 193, 204, 256
-0.9902, 269, 177, 300, 304
-0.990206, 137, 53, 200, 84
-0.990209, 417, 97, 448, 224
-0.990232, 217, 117, 280, 148
-0.990245, 161, 273, 224, 304
-0.990246, 201, 157, 264, 188
-0.990256, 233, 177, 296, 208
-0.990279, 297, 137, 328, 200
-0.99028, 209, 21, 272, 52
-0.990283, 401, 5, 464, 36
-0.990289, 401, 25, 464, 56
-0.990309, 65, 113, 192, 176
-0.990319, 209, 213, 272, 244
-0.99037, 385, 1, 448, 375
-0.990371, 249, 33, 312, 64
-0.990373, 169, 285, 232, 316
-0.990397, 469, 65, 500, 192
-0.990406, 257, 161, 320, 192
-0.990411, 217, 189, 280, 220
-0.990437, 169, 193, 232, 224
-0.990442, 305, 65, 368, 96
-0.990446, 17, 93, 80, 124
-0.990458, 97, 265, 224, 328
-0.990471, 321, 37, 384, 68
-0.990479, 193, 97, 256, 128
-0.990516, 209, 233, 272, 264
-0.990525, 353, 41, 416, 72
-0.990527, 225, 241, 256, 368
-0.990536, 257, 213, 320, 244
-0.990536, 369, 29, 432, 60
-0.990558, 369, 225, 496, 352
-0.990567, 17, 81, 80, 112
-0.990568, 257, 225, 320, 256
-0.990583, 177, 85, 240, 116
-0.99061, 289, 9, 352, 40
-0.990658, 9, 1, 72, 375
-0.990699, 281, 49, 344, 80
-0.990743, 201, 45, 264, 76
-0.990753, 97, 17, 128, 144
-0.99078, 369, 17, 432, 48
-0.990782, 257, 97, 320, 128
-0.990787, 177, 257, 240, 288
-0.990792, 241, 285, 304, 316
-0.990817, 329, 49, 392, 80
-0.990827, 201, 265, 264, 296
-0.990834, 49, 1, 80, 128
-0.990844, 361, 97, 424, 352
-0.990845, 217, 9, 280, 40
-0.990859, 329, 153, 392, 216
-0.990864, 57, 53, 120, 84
-0.990893, 1, 29, 64, 60
-0.990909, 177, 53, 240, 84
-0.990916, 249, 265, 312, 296
-0.99093, 273, 345, 336, 375
-0.99094, 289, 181, 352, 212
-0.990964, 281, 229, 344, 260
-0.990965, 185, 205, 248, 236
-0.990968, 137, 97, 200, 128
-0.990984, 369, 113, 496, 176
-0.991006, 97, 161, 160, 288
-0.991026, 265, 69, 328, 100
-0.991029, 337, 281, 464, 344
-0.991037, 177, 153, 240, 184
-0.99104, 73, 309, 136, 340
-0.991085, 249, 253, 312, 284
-0.99109, 105, 93, 168, 124
-0.991096, 257, 181, 320, 212
-0.991127, 1, 1, 64, 32
-0.99113, 217, 77, 280, 108
-0.991156, 1, 337, 64, 368
-0.991161, 161, 297, 224, 328
-0.991161, 433, 25, 496, 56
-0.991163, 305, 49, 336, 176
-0.991194, 257, 45, 320, 76
-0.991195, 169, 101, 232, 132
-0.991209, 165, 241, 196, 368
-0.991231, 289, 169, 352, 200
-0.991242, 1, 129, 64, 192
-0.991279, 25, 329, 88, 360
-0.991281, 281, 117, 344, 148
-0.991297, 81, 153, 208, 216
-0.991299, 97, 217, 224, 280
-0.991303, 193, 121, 256, 152
-0.991304, 361, 1, 424, 375
-0.991306, 49, 317, 112, 348
-0.991312, 57, 65, 120, 96
-0.991315, 153, 177, 216, 208
-0.99132, 193, 301, 256, 332
-0.991334, 345, 29, 408, 60
-0.991334, 249, 237, 312, 268
-0.991377, 105, 57, 168, 88
-0.991386, 209, 145, 272, 176
-0.991401, 97, 301, 160, 332
-0.991408, 17, 69, 80, 100
-0.991415, 433, 53, 496, 84
-0.991426, 9, 49, 72, 80
-0.991443, 225, 261, 288, 292
-0.991448, 281, 85, 344, 116
-0.991453, 9, 17, 72, 48
-0.991477, 201, 65, 264, 96
-0.991511, 297, 329, 360, 360
-0.991511, 161, 137, 416, 200
-0.991536, 177, 17, 240, 48
-0.991545, 257, 297, 320, 328
-0.991548, 145, 165, 208, 196
-0.991558, 425, 41, 488, 72
-0.991573, 233, 205, 296, 236
-0.991616, 81, 53, 144, 84
-0.991637, 137, 81, 200, 112
-0.991644, 177, 65, 240, 96
-0.991657, 137, 41, 200, 72
-0.991695, 49, 93, 112, 124
-0.991703, 49, 9, 176, 72
-0.99171, 117, 1, 148, 128
-0.991732, 193, 5, 256, 36
-0.991744, 241, 141, 304, 172
-0.991782, 225, 165, 288, 196
-0.991782, 105, 289, 168, 320
-0.991793, 225, 273, 288, 304
-0.991796, 225, 313, 352, 375
-0.99182, 221, 189, 252, 220
-0.991828, 137, 109, 200, 140
-0.991832, 97, 105, 160, 136
-0.991834, 193, 277, 256, 308
-0.991835, 25, 5, 88, 36
-0.991838, 105, 69, 168, 100
-0.991842, 193, 289, 256, 320
-0.991849, 177, 29, 240, 60
-0.991852, 233, 217, 296, 248
-0.991859, 49, 105, 112, 136
-0.99186, 281, 193, 344, 224
-0.991864, 401, 45, 464, 76
-0.991899, 265, 9, 328, 40
-0.991969, 129, 161, 384, 224
-0.991986, 241, 241, 368, 304
-0.992098, 97, 313, 224, 375
-0.992124, 345, 97, 376, 224
-0.992132, 113, 97, 144, 224
-0.992144, 249, 117, 280, 148
-0.992165, 213, 213, 244, 244
-0.992172, 221, 201, 252, 232
-0.992184, 65, 41, 320, 104
-0.992185, 233, 201, 264, 232
-0.992208, 201, 225, 232, 256
-0.992231, 257, 17, 500, 80
-0.992265, 201, 213, 232, 244
-0.992267, 201, 173, 232, 204
-0.992298, 213, 173, 244, 204
-0.992309, 153, 97, 184, 224
-0.992312, 45, 97, 76, 224
-0.992335, 193, 161, 224, 192
-0.992336, 33, 145, 160, 208
-0.992365, 257, 85, 288, 116
-0.992379, 49, 177, 176, 304
-0.992402, 257, 57, 500, 120
-0.992408, 269, 121, 300, 152
-0.992412, 337, 53, 368, 84
-0.992414, 185, 173, 216, 204
-0.992429, 193, 273, 224, 304
-0.992439, 249, 129, 280, 160
-0.992445, 245, 105, 276, 136
-0.992463, 293, 229, 324, 260
-0.992465, 277, 185, 308, 216
-0.992468, 217, 21, 248, 52
-0.992533, 233, 181, 264, 212
-0.992535, 217, 241, 248, 272
-0.992547, 229, 129, 260, 160
-0.99255, 265, 241, 296, 368
-0.992556, 329, 33, 360, 64
-0.992571, 401, 17, 432, 48
-0.99259, 409, 97, 472, 352
-0.99259, 161, 9, 416, 72
-0.992595, 385, 97, 448, 352
-0.992597, 409, 5, 440, 36
-0.992602, 205, 237, 236, 268
-0.99261, 201, 185, 232, 216
-0.992611, 1, 13, 32, 44
-0.992612, 257, 105, 288, 136
-0.992614, 173, 281, 204, 312
-0.992616, 129, 209, 384, 272
-0.992623, 113, 97, 176, 352
-0.992634, 217, 229, 248, 260
-0.992636, 217, 9, 248, 40
-0.992639, 217, 257, 248, 288
-0.99264, 161, 81, 416, 144
-0.992652, 37, 77, 68, 108
-0.992653, 289, 217, 320, 248
-0.992667, 313, 45, 344, 76
-0.992667, 245, 93, 276, 124
-0.99268, 109, 81, 140, 112
-0.992684, 193, 185, 448, 248
-0.992684, 193, 301, 224, 332
-0.992693, 129, 265, 384, 328
-0.992695, 445, 49, 476, 80
-0.992703, 201, 261, 232, 292
-0.992708, 205, 285, 236, 316
-0.992711, 225, 217, 256, 248
-0.992716, 225, 93, 256, 124
-0.992718, 153, 45, 184, 76
-0.992726, 181, 161, 212, 192
-0.992746, 261, 133, 292, 164
-0.992746, 205, 161, 236, 192
-0.992749, 37, 89, 68, 120
-0.992759, 193, 289, 224, 320
-0.992763, 269, 285, 300, 316
-0.992775, 33, 37, 64, 68
-0.992776, 185, 233, 216, 264
-0.992782, 233, 169, 264, 200
-0.992783, 445, 25, 476, 56
-0.992793, 325, 21, 356, 52
-0.992809, 245, 197, 276, 228
-0.992812, 309, 1, 340, 32
-0.992812, 177, 301, 208, 332
-0.992824, 337, 69, 368, 100
-0.992827, 289, 53, 320, 84
-0.992827, 97, 105, 352, 168
-0.992832, 25, 25, 56, 56
-0.992835, 369, 33, 400, 64
-0.992837, 117, 69, 148, 100
-0.992837, 389, 29, 420, 60
-0.992843, 285, 161, 316, 192
-0.992856, 357, 45, 388, 76
-0.992859, 33, 61, 64, 92
-0.992863, 277, 89, 308, 120
-0.992871, 297, 173, 328, 204
-0.992874, 129, 53, 160, 84
-0.992875, 201, 249, 232, 280
-0.992879, 245, 81, 276, 112
-0.992881, 237, 117, 268, 148
-0.992882, 97, 185, 352, 248
-0.992884, 213, 269, 244, 300
-0.992885, 17, 9, 48, 40
-0.992886, 433, 113, 496, 240
-0.99289, 173, 1, 204, 128
-0.992898, 157, 281, 188, 312
-0.992902, 181, 245, 212, 276
-0.992912, 221, 33, 252, 64
-0.992917, 1, 25, 32, 56
-0.992919, 269, 101, 300, 132
-0.992925, 25, 73, 56, 104
-0.992933, 205, 25, 236, 56
-0.99294, 17, 89, 48, 120
-0.992946, 205, 201, 236, 232
-0.992951, 229, 229, 260, 260
-0.992953, 125, 89, 156, 120
-0.992962, 261, 17, 292, 48
-0.992962, 173, 173, 204, 204
-0.992963, 197, 41, 228, 72
-0.992965, 49, 65, 80, 96
-0.992967, 245, 169, 276, 200
-0.99297, 465, 53, 496, 84
-0.99297, 97, 89, 128, 120
-0.992971, 325, 53, 356, 84
-0.992973, 141, 41, 172, 72
-0.992973, 245, 141, 276, 172
-0.992973, 209, 149, 240, 180
-0.992983, 89, 77, 120, 108
-0.992983, 241, 29, 272, 60
-0.992985, 221, 161, 252, 192
-0.992995, 227, 177, 242, 240
-0.992997, 173, 269, 204, 300
-0.993, 21, 41, 52, 72
-0.993001, 281, 233, 312, 264
-0.993003, 309, 13, 340, 44
-0.993003, 181, 201, 212, 232
-0.993005, 445, 61, 476, 92
-0.993005, 217, 281, 248, 312
-0.993008, 213, 45, 244, 76
-0.993015, 301, 41, 332, 72
-0.993016, 341, 33, 372, 64
-0.993023, 269, 197, 300, 228
-0.993026, 209, 89, 240, 120
-0.993039, 297, 73, 328, 104
-0.993039, 305, 233, 336, 264
-0.99304, 193, 81, 224, 112
-0.993041, 277, 209, 308, 240
-0.993041, 261, 269, 292, 300
-0.99305, 285, 29, 316, 60
-0.993051, 149, 105, 180, 136
-0.993051, 205, 301, 236, 332
-0.993053, 277, 345, 308, 375
-0.993054, 109, 93, 140, 124
-0.993054, 229, 241, 260, 272
-0.993057, 229, 105, 260, 136
-0.993059, 265, 5, 296, 36
-0.993067, 357, 61, 388, 92
-0.993069, 189, 313, 220, 344
-0.993075, 389, 17, 420, 48
-0.993136, 129, 241, 384, 304
-0.993158, 321, 153, 448, 216
-0.993164, 129, 1, 160, 128
-0.9932, 239, 185, 254, 248
-0.99321, 227, 217, 242, 280
-0.993236, 193, 113, 448, 176
-0.993254, 221, 217, 236, 280
-0.993267, 289, 241, 416, 304
-0.993317, 33, 153, 288, 216
-0.993329, 1, 217, 128, 280
-0.99335, 101, 113, 132, 240
-0.993363, 209, 217, 336, 248
-0.993422, 289, 33, 416, 64
-0.993424, 97, 289, 352, 352
-0.993424, 41, 129, 104, 375
-0.993444, 49, 185, 176, 248
-0.993464, 333, 97, 364, 224
-0.993491, 321, 45, 448, 76
-0.993531, 217, 145, 232, 208
-0.993567, 1, 17, 256, 80
-0.993589, 233, 201, 248, 264
-0.99359, 129, 285, 256, 316
-0.993591, 215, 233, 230, 296
-0.993615, 125, 97, 156, 224
-0.99367, 215, 209, 230, 272
-0.993677, 1, 105, 256, 168
-0.993738, 209, 177, 336, 208
-0.993742, 141, 49, 156, 112
-0.993773, 249, 105, 264, 168
-0.993787, 33, 145, 96, 272
-0.993853, 209, 205, 336, 236
-0.993884, 213, 169, 228, 232
-0.993886, 233, 169, 248, 232
-0.993925, 221, 193, 236, 256
-0.993951, 221, 241, 236, 304
-0.99407, 257, 21, 384, 52
-0.994175, 193, 157, 320, 188
-0.994199, 389, 113, 420, 240
-0.994205, 249, 161, 264, 224
-0.99421, 161, 41, 416, 104
-0.994231, 1, 281, 256, 344
-0.994246, 401, 113, 432, 240
-0.994276, 247, 137, 262, 200
-0.9943, 255, 105, 270, 168
-0.994312, 209, 189, 336, 220
-0.994318, 73, 129, 136, 375
-0.99439, 337, 97, 400, 352
-0.994402, 245, 225, 276, 352
-0.994436, 201, 209, 216, 272
-0.994445, 257, 45, 384, 76
-0.994457, 301, 193, 332, 320
-0.994459, 257, 193, 288, 320
-0.994478, 193, 129, 320, 160
-0.99448, 257, 89, 500, 152
-0.994481, 299, 41, 314, 104
-0.994486, 321, 57, 448, 88
-0.994543, 215, 273, 230, 336
-0.994594, 145, 173, 272, 204
-0.994605, 193, 141, 320, 172
-0.994633, 33, 233, 288, 296
-0.994646, 209, 33, 336, 64
-0.994676, 89, 241, 152, 368
-0.994691, 339, 25, 354, 88
-0.994699, 209, 209, 224, 272
-0.9947, 209, 265, 224, 328
-0.99471, 5, 1, 20, 64
-0.994711, 193, 289, 320, 320
-0.994777, 313, 129, 376, 375
-0.994793, 209, 233, 224, 296
-0.994802, 49, 241, 112, 368
-0.994804, 53, 241, 84, 368
-0.994816, 97, 297, 224, 328
-0.99482, 1, 41, 500, 104
-0.994831, 145, 193, 272, 224
-0.99488, 141, 81, 172, 208
-0.994908, 243, 97, 258, 160
-0.994913, 135, 41, 150, 104
-0.99497, 161, 89, 288, 120
-0.994995, 209, 145, 224, 208
-0.995, 223, 145, 238, 208
-0.995012, 257, 289, 500, 352
-0.995035, 253, 137, 268, 200
-0.995054, 65, 193, 128, 320
-0.995077, 221, 169, 236, 232
-0.995101, 293, 49, 308, 112
-0.995103, 161, 237, 288, 268
-0.995122, 429, 113, 460, 240
-0.995139, 219, 17, 234, 80
-0.995142, 293, 201, 308, 264
-0.995144, 353, 21, 480, 52
-0.995149, 237, 1, 268, 256
-0.99515, 193, 169, 208, 232
-0.995152, 65, 129, 320, 192
-0.995164, 257, 153, 500, 216
-0.995175, 231, 1, 246, 64
-0.995177, 259, 137, 274, 200
-0.995201, 369, 137, 496, 200
-0.995207, 1, 305, 256, 368
-0.99521, 369, 257, 496, 320
-0.995228, 249, 81, 264, 144
-0.995228, 261, 105, 276, 168
-0.995233, 161, 205, 288, 236
-0.99524, 201, 273, 216, 336
-0.995254, 321, 305, 448, 368
-0.995277, 193, 277, 320, 308
-0.995299, 295, 137, 310, 200
-0.995299, 11, 1, 26, 64
-0.9953, 307, 9, 322, 72
-0.995304, 1, 17, 500, 80
-0.995315, 207, 169, 222, 232
-0.995315, 1, 185, 256, 248
-0.995322, 419, 1, 434, 64
-0.995409, 271, 113, 286, 176
-0.995423, 191, 233, 206, 296
-0.995426, 333, 17, 348, 80
-0.995448, 449, 25, 464, 88
-0.995453, 271, 89, 286, 152
-0.995482, 369, 177, 496, 304
-0.995485, 225, 93, 352, 124
-0.995493, 47, 33, 62, 96
-0.995498, 287, 49, 302, 112
-0.995503, 35, 33, 50, 96
-0.995515, 439, 33, 454, 96
-0.995529, 345, 25, 360, 88
-0.995534, 279, 89, 294, 152
-0.995543, 1, 193, 128, 256
-0.995543, 241, 9, 368, 40
-0.995554, 33, 89, 160, 120
-0.995559, 1, 65, 256, 128
-0.99556, 225, 1, 240, 64
-0.995563, 273, 57, 400, 88
-0.995566, 225, 229, 352, 260
-0.995575, 145, 297, 272, 328
-0.995578, 351, 41, 366, 104
-0.995596, 321, 1, 336, 64
-0.995615, 33, 249, 160, 312
-0.995641, 245, 193, 260, 256
-0.995658, 161, 221, 288, 252
-0.99567, 195, 273, 210, 336
-0.995675, 337, 33, 464, 64
-0.995676, 49, 209, 176, 272
-0.995696, 289, 233, 304, 296
-0.995697, 49, 53, 176, 84
-0.995702, 193, 117, 320, 148
-0.995705, 257, 209, 500, 272
-0.995709, 1, 97, 500, 160
-0.995727, 409, 9, 424, 72
-0.995731, 299, 217, 314, 280
-0.995738, 145, 89, 160, 152
-0.995741, 201, 185, 216, 248
-0.995758, 213, 57, 228, 120
-0.995771, 65, 309, 192, 340
-0.995774, 203, 145, 218, 208
-0.995781, 211, 297, 226, 360
-0.995789, 129, 145, 192, 272
-0.995818, 275, 1, 290, 64
-0.995824, 65, 1, 96, 128
-0.995832, 129, 313, 384, 375
-0.995845, 103, 57, 118, 120
-0.99586, 239, 161, 254, 224
-0.995861, 401, 17, 416, 80
-0.995862, 177, 105, 304, 136
-0.995866, 425, 1, 440, 64
-0.995868, 257, 265, 500, 328
-0.995874, 459, 25, 474, 88
-0.99589, 265, 129, 280, 192
-0.995895, 241, 117, 368, 148
-0.99591, 185, 241, 200, 304
-0.995925, 429, 25, 444, 88
-0.995928, 297, 89, 312, 152
-0.99593, 41, 1, 56, 64
-0.995931, 349, 65, 364, 128
-0.995977, 249, 65, 280, 320
-0.995977, 221, 265, 236, 328
-0.995979, 23, 81, 38, 144
-0.995981, 387, 25, 402, 88
-0.995985, 129, 161, 256, 192
-0.995995, 33, 69, 160, 100
-0.996002, 321, 9, 448, 40
-0.99601, 285, 89, 300, 152
-0.996018, 33, 97, 48, 160
-0.996022, 41, 33, 56, 96
-0.996038, 229, 137, 244, 200
-0.99604, 161, 193, 192, 320
-0.996042, 193, 265, 320, 296
-0.996052, 363, 25, 378, 88
-0.996057, 43, 73, 58, 136
-0.996064, 273, 77, 400, 108
-0.996067, 31, 57, 46, 120
-0.996075, 81, 129, 112, 256
-0.996078, 209, 21, 336, 52
-0.996088, 287, 25, 302, 88
-0.996094, 149, 41, 164, 104
-0.996101, 119, 57, 134, 120
-0.996114, 109, 65, 124, 128
-0.996123, 241, 129, 368, 160
-0.996126, 113, 101, 240, 132
-0.99614, 389, 1, 420, 256
-0.996144, 445, 1, 476, 256
-0.996145, 259, 161, 274, 224
-0.996151, 309, 49, 324, 112
-0.996161, 207, 41, 222, 104
-0.996166, 239, 129, 254, 192
-0.996174, 1, 161, 500, 224
-0.996193, 253, 185, 268, 248
-0.996194, 327, 17, 342, 80
-0.996199, 225, 1, 256, 256
-0.996204, 273, 169, 400, 200
-0.996205, 239, 209, 254, 272
-0.996207, 209, 241, 336, 272
-0.996209, 299, 17, 314, 80
-0.996224, 369, 45, 496, 76
-0.996229, 33, 257, 288, 320
-0.996235, 373, 113, 404, 240
-0.996241, 305, 21, 432, 52
-0.996249, 205, 33, 236, 288
-0.996253, 113, 81, 240, 112
-0.996254, 465, 25, 480, 88
-0.996254, 53, 89, 68, 152
-0.996254, 255, 81, 270, 144
-0.996255, 289, 161, 304, 224
-0.996259, 237, 97, 268, 352
-0.996261, 255, 257, 270, 320
-0.996268, 1, 289, 500, 352
-0.996271, 265, 81, 280, 144
-0.996281, 369, 1, 400, 256
-0.996284, 193, 89, 208, 152
-0.996284, 137, 225, 168, 352
-0.996299, 203, 297, 218, 360
-0.996318, 25, 1, 40, 64
-0.996325, 241, 297, 368, 328
-0.996341, 199, 33, 214, 96
-0.996344, 329, 41, 344, 104
-0.996344, 195, 209, 210, 272
-0.996345, 283, 273, 298, 336
-0.996345, 33, 209, 288, 272
-0.996353, 193, 77, 320, 108
-0.996353, 441, 57, 456, 120
-0.99636, 417, 177, 480, 304
-0.996366, 193, 301, 320, 332
-0.99637, 299, 161, 314, 224
-0.996375, 369, 305, 496, 368
-0.996375, 131, 65, 146, 128
-0.996386, 315, 1, 330, 64
-0.99639, 1, 265, 500, 328
-0.996394, 189, 65, 220, 320
-0.996417, 301, 1, 332, 256
-0.996424, 135, 17, 150, 80
-0.996442, 143, 25, 158, 88
-0.996453, 343, 65, 358, 128
-0.996455, 237, 89, 252, 152
-0.996458, 265, 1, 296, 256
-0.996469, 369, 185, 496, 248
-0.996473, 137, 97, 152, 160
-0.996474, 233, 225, 248, 288
-0.99648, 433, 97, 496, 352
-0.99648, 129, 37, 256, 68
-0.996491, 193, 305, 208, 368
-0.996509, 321, 69, 448, 100
-0.996515, 269, 1, 284, 64
-0.996515, 303, 113, 318, 176
-0.996519, 129, 53, 256, 84
-0.996523, 199, 73, 214, 136
-0.996568, 17, 321, 144, 352
-0.996569, 97, 173, 224, 204
-0.996605, 209, 253, 336, 284
-0.996643, 273, 285, 400, 316
-0.996691, 145, 273, 272, 304
-0.99672, 273, 229, 400, 260
-0.996732, 353, 93, 480, 124
-0.996745, 257, 233, 500, 296
-0.996751, 353, 1, 384, 256
-0.996757, 161, 249, 288, 280
-0.996763, 241, 197, 256, 228
-0.996782, 9, 177, 72, 304
-0.996785, 113, 69, 240, 100
-0.996786, 65, 105, 192, 136
-0.996815, 369, 69, 496, 100
-0.996824, 1, 65, 500, 128
-0.996855, 225, 129, 256, 375
-0.996861, 417, 1, 448, 256
-0.996862, 145, 141, 272, 172
-0.996865, 145, 121, 272, 152
-0.996887, 225, 105, 352, 136
-0.996895, 313, 1, 344, 256
-0.996918, 237, 185, 252, 216
-0.99692, 273, 181, 400, 212
-0.99692, 1, 121, 500, 184
-0.996922, 215, 173, 230, 204
-0.996922, 227, 217, 242, 248
-0.996924, 257, 313, 500, 375
-0.996939, 433, 1, 464, 256
-0.996945, 281, 33, 312, 288
-0.996945, 221, 221, 236, 252
-0.996955, 149, 1, 180, 256
-0.996959, 1, 333, 128, 364
-0.996965, 113, 249, 240, 280
-0.996971, 305, 113, 432, 144
-0.996971, 205, 129, 236, 375
-0.996986, 209, 49, 336, 80
-0.996988, 173, 33, 204, 288
-0.996994, 193, 65, 320, 96
-0.996995, 223, 173, 238, 204
-0.997004, 221, 241, 236, 272
-0.997021, 161, 1, 192, 256
-0.997025, 457, 1, 488, 256
-0.997029, 235, 205, 250, 236
-0.99703, 129, 1, 160, 256
-0.99703, 215, 217, 230, 248
-0.997055, 215, 277, 230, 308
-0.997057, 57, 33, 88, 288
-0.997067, 41, 1, 72, 256
-0.997074, 417, 225, 480, 352
-0.997137, 225, 189, 240, 220
-0.997143, 69, 161, 100, 288
-0.997147, 401, 1, 432, 256
-0.997151, 369, 9, 496, 40
-0.997151, 295, 229, 310, 260
-0.997152, 209, 173, 224, 204
-0.997154, 205, 293, 220, 324
-0.997184, 273, 201, 400, 232
-0.997208, 369, 57, 496, 88
-0.997227, 1, 313, 500, 375
-0.997228, 255, 129, 270, 160
-0.997228, 85, 33, 116, 288
-0.997234, 221, 205, 236, 236
-0.997235, 49, 161, 176, 192
-0.997257, 81, 41, 208, 72
-0.997278, 161, 21, 288, 52
-0.997278, 1, 57, 128, 88
-0.997279, 1, 9, 128, 40
-0.997279, 1, 209, 500, 272
-0.997283, 353, 109, 480, 140
-0.99729, 81, 285, 208, 316
-0.997304, 407, 17, 422, 48
-0.997311, 97, 189, 224, 220
-0.997313, 339, 53, 354, 84
-0.997347, 273, 157, 400, 188
-0.997347, 205, 161, 220, 192
-0.997364, 349, 65, 364, 96
-0.997368, 361, 113, 392, 240
-0.997373, 321, 177, 448, 304
-0.997384, 145, 261, 272, 292
-0.997385, 73, 33, 104, 288
-0.997391, 1, 101, 128, 132
-0.997402, 295, 217, 310, 248
-0.997403, 215, 249, 230, 280
-0.997404, 5, 9, 20, 40
-0.997404, 231, 185, 246, 216
-0.997413, 177, 313, 304, 344
-0.997419, 243, 181, 258, 212
-0.997423, 231, 173, 246, 204
-0.997431, 117, 33, 148, 288
-0.997433, 273, 89, 400, 120
-0.997438, 5, 1, 36, 256
-0.997439, 265, 137, 280, 168
-0.997456, 177, 5, 304, 36
-0.997479, 249, 117, 264, 148
-0.997483, 321, 81, 448, 112
-0.997485, 261, 97, 292, 352
-0.997496, 457, 113, 488, 240
-0.997504, 211, 289, 226, 320
-0.997511, 137, 53, 152, 84
-0.997516, 25, 1, 56, 256
-0.997519, 249, 97, 264, 128
-0.997525, 31, 89, 46, 120
-0.997538, 265, 117, 280, 148
-0.997545, 195, 281, 210, 312
-0.997547, 325, 1, 356, 256
-0.997555, 295, 157, 310, 188
-0.997565, 227, 229, 242, 260
-0.997567, 307, 229, 322, 260
-0.997569, 257, 345, 384, 375
-0.99757, 321, 241, 448, 368
-0.997575, 439, 49, 454, 80
-0.997588, 97, 33, 128, 288
-0.997589, 249, 133, 264, 164
-0.997589, 211, 261, 226, 292
-0.997591, 273, 145, 400, 176
-0.997594, 369, 81, 496, 112
-0.997596, 143, 53, 158, 84
-0.997597, 215, 229, 230, 260
-0.997602, 387, 29, 402, 60
-0.997607, 189, 161, 204, 192
-0.997608, 219, 261, 234, 292
-0.997635, 197, 225, 212, 256
-0.997652, 177, 129, 208, 375
-0.997656, 195, 169, 210, 200
-0.997663, 97, 149, 224, 180
-0.997664, 291, 53, 306, 84
-0.997668, 201, 213, 216, 244
-0.997672, 285, 281, 300, 312
-0.997675, 1, 117, 128, 148
-0.997678, 373, 33, 388, 64
-0.997684, 341, 1, 372, 256
-0.997692, 287, 237, 302, 268
-0.997698, 247, 197, 262, 228
-0.997703, 353, 45, 368, 76
-0.997703, 1, 237, 128, 268
-0.997704, 251, 85, 266, 116
-0.997707, 401, 21, 416, 52
-0.997709, 33, 289, 160, 320
-0.99771, 229, 241, 244, 272
-0.997715, 225, 257, 240, 288
-0.997716, 273, 333, 400, 364
-0.997718, 441, 113, 472, 240
-0.997721, 213, 153, 228, 184
-0.997721, 191, 233, 206, 264
-0.997722, 215, 185, 230, 216
-0.997723, 257, 105, 272, 136
-0.997751, 297, 49, 312, 80
-0.997757, 377, 193, 440, 320
-0.997758, 413, 1, 428, 32
-0.99776, 335, 21, 350, 52
-0.997763, 207, 273, 222, 304
-0.997764, 97, 217, 224, 248
-0.997767, 331, 33, 346, 64
-0.997783, 277, 113, 292, 144
-0.997796, 1, 205, 128, 236
-0.997812, 45, 57, 60, 88
-0.997828, 343, 65, 358, 96
-0.997833, 109, 81, 124, 112
-0.997834, 45, 37, 60, 68
-0.997834, 295, 145, 310, 176
-0.99784, 143, 41, 158, 72
-0.997843, 231, 25, 246, 56
-0.997844, 327, 45, 342, 76
-0.997847, 273, 125, 288, 156
-0.997854, 363, 45, 378, 76
-0.997856, 281, 129, 312, 375
-0.997857, 33, 41, 160, 72
-0.997858, 221, 13, 236, 44
-0.997858, 449, 53, 464, 84
-0.997868, 291, 185, 306, 216
-0.997874, 53, 89, 68, 120
-0.997874, 419, 13, 434, 44
-0.997876, 359, 61, 374, 92
-0.997887, 19, 25, 34, 56
-0.99789, 259, 117, 274, 148
-0.9979, 203, 173, 218, 204
-0.997903, 291, 205, 306, 236
-0.997912, 273, 217, 400, 248
-0.997914, 337, 33, 352, 64
-0.997924, 253, 193, 268, 224
-0.997924, 287, 41, 302, 72
-0.997926, 301, 221, 316, 252
-0.997929, 241, 309, 368, 340
-0.997934, 253, 261, 268, 292
-0.997934, 11, 9, 26, 40
-0.997934, 379, 33, 394, 64
-0.997934, 239, 129, 254, 160
-0.997939, 201, 277, 216, 308
-0.99795, 199, 157, 214, 188
-0.997952, 51, 57, 66, 88
-0.997954, 185, 173, 200, 204
-0.997966, 273, 101, 400, 132
-0.997975, 413, 17, 428, 48
-0.997978, 199, 301, 214, 332
-0.997983, 267, 85, 282, 116
-0.997984, 469, 1, 500, 256
-0.997986, 227, 201, 242, 232
-0.997993, 261, 177, 276, 208
-0.997996, 329, 21, 344, 52
-0.997999, 299, 177, 314, 208
-0.998001, 243, 105, 258, 136
-0.998001, 321, 217, 448, 280
-0.998003, 291, 129, 306, 160
-0.998007, 217, 289, 232, 320
-0.998009, 273, 273, 400, 304
-0.998029, 229, 5, 244, 36
-0.998033, 429, 1, 444, 32
-0.998043, 25, 37, 40, 68
-0.998062, 29, 25, 44, 56
-0.998063, 249, 173, 264, 204
-0.998066, 63, 61, 78, 92
-0.998078, 145, 65, 160, 96
-0.998083, 413, 29, 428, 60
-0.998088, 189, 193, 204, 224
-0.998096, 53, 77, 68, 108
-0.998098, 455, 21, 470, 52
-0.998101, 297, 201, 312, 232
-0.998103, 279, 269, 294, 300
-0.998107, 279, 81, 294, 112
-0.998109, 35, 49, 50, 80
-0.998114, 81, 121, 208, 152
-0.998116, 261, 81, 276, 112
-0.998116, 289, 321, 416, 352
-0.998119, 321, 145, 384, 272
-0.998126, 419, 1, 434, 32
-0.998128, 217, 85, 232, 116
-0.99813, 351, 81, 366, 112
-0.998131, 297, 85, 312, 116
-0.998138, 113, 229, 240, 260
-0.998168, 113, 25, 240, 56
-0.998168, 193, 325, 320, 356
-0.998197, 21, 129, 52, 256
-0.998197, 73, 241, 104, 368
-0.998252, 301, 129, 332, 375
-0.998273, 273, 241, 400, 272
-0.998285, 1, 21, 128, 52
-0.998296, 17, 309, 144, 340
-0.998318, 1, 173, 128, 204
-0.998357, 117, 241, 148, 368
-0.998376, 217, 177, 232, 304
-0.998378, 97, 273, 224, 304
-0.998411, 113, 205, 240, 236
-0.998418, 113, 321, 240, 352
-0.99842, 209, 201, 272, 216
-0.998425, 193, 305, 224, 320
-0.998425, 1, 19, 32, 34
-0.998425, 249, 135, 312, 150
-0.998426, 265, 277, 296, 292
-0.998426, 145, 101, 176, 116
-0.998426, 229, 249, 260, 264
-0.998427, 445, 63, 476, 78
-0.998427, 233, 187, 264, 202
-0.998429, 305, 229, 336, 244
-0.998429, 237, 179, 268, 194
-0.998429, 297, 183, 328, 198
-0.99843, 201, 195, 232, 210
-0.99843, 301, 43, 332, 58
-0.998431, 205, 291, 236, 306
-0.998431, 337, 49, 368, 64
-0.998431, 197, 235, 228, 250
-0.998431, 29, 93, 60, 108
-0.998431, 193, 311, 224, 326
-0.998432, 173, 167, 204, 182
-0.998432, 193, 289, 224, 304
-0.998433, 261, 271, 292, 286
-0.998433, 225, 141, 256, 156
-0.998434, 241, 199, 304, 214
-0.998435, 129, 61, 160, 76
-0.998435, 149, 45, 180, 60
-0.998436, 193, 171, 256, 186
-0.998437, 25, 71, 56, 86
-0.998437, 445, 25, 476, 40
-0.998437, 205, 251, 236, 266
-0.998438, 193, 295, 224, 310
-0.998438, 221, 37, 252, 52
-0.998438, 289, 65, 320, 80
-0.998441, 281, 223, 312, 238
-0.998442, 185, 197, 248, 212
-0.998443, 233, 111, 264, 126
-0.998443, 389, 29, 420, 44
-0.998444, 181, 199, 212, 214
-0.998444, 241, 139, 272, 154
-0.998444, 257, 177, 288, 192
-0.998445, 53, 97, 84, 112
-0.998446, 257, 105, 288, 120
-0.998447, 185, 189, 248, 204
-0.998447, 217, 141, 280, 156
-0.998448, 229, 101, 260, 116
-0.998448, 209, 283, 240, 298
-0.998449, 177, 311, 208, 326
-0.998449, 417, 1, 448, 16
-0.99845, 233, 193, 264, 208
-0.99845, 301, 173, 332, 188
-0.99845, 305, 237, 336, 252
-0.998451, 229, 211, 260, 226
-0.998451, 209, 207, 272, 222
-0.998451, 25, 45, 56, 60
-0.998452, 265, 137, 296, 152
-0.998452, 185, 237, 216, 252
-0.998453, 285, 165, 316, 180
-0.998453, 153, 287, 184, 302
-0.998455, 173, 279, 204, 294
-0.998455, 277, 91, 308, 106
-0.998457, 201, 241, 232, 256
-0.998457, 365, 39, 396, 54
-0.998457, 209, 195, 272, 210
-0.998458, 289, 45, 320, 60
-0.998458, 189, 179, 220, 194
-0.998459, 233, 129, 264, 144
-0.99846, 257, 93, 288, 108
-0.99846, 309, 13, 340, 28
-0.998462, 193, 221, 256, 236
-0.998462, 289, 125, 416, 156
-0.998463, 445, 57, 476, 72
-0.998464, 205, 41, 236, 56
-0.998466, 329, 33, 360, 48
-0.998467, 41, 93, 72, 108
-0.998468, 277, 187, 308, 202
-0.99847, 257, 111, 288, 126
-0.99847, 21, 11, 52, 26
-0.998471, 169, 169, 232, 184
-0.998473, 217, 135, 280, 150
-0.998479, 221, 237, 252, 252
-0.99848, 249, 201, 280, 216
-0.99848, 205, 169, 236, 184
-0.998481, 237, 93, 268, 108
-0.998482, 213, 265, 244, 280
-0.998483, 201, 275, 232, 290
-0.998483, 217, 13, 248, 28
-0.998485, 229, 29, 260, 44
-0.998485, 241, 129, 304, 144
-0.998486, 321, 49, 352, 64
-0.998486, 181, 173, 212, 188
-0.998487, 129, 91, 160, 106
-0.998488, 249, 85, 280, 100
-0.998489, 337, 289, 464, 320
-0.998489, 117, 97, 148, 112
-0.998491, 177, 177, 240, 192
-0.998491, 37, 39, 68, 54
-0.998492, 217, 179, 280, 194
-0.998494, 185, 231, 248, 246
-0.998494, 257, 99, 288, 114
-0.998496, 221, 171, 252, 186
-0.998498, 33, 65, 64, 80
-0.998498, 201, 263, 232, 278
-0.998499, 401, 19, 432, 34
-0.998502, 185, 237, 248, 252
-0.998503, 217, 21, 248, 36
-0.998504, 321, 33, 384, 48
-0.998505, 217, 257, 248, 272
-0.998506, 229, 135, 260, 150
-0.998507, 257, 131, 288, 146
-0.998508, 245, 173, 276, 188
-0.998508, 221, 231, 252, 246
-0.998509, 377, 33, 408, 48
-0.998509, 245, 117, 276, 132
-0.998509, 193, 183, 256, 198
-0.99851, 213, 225, 244, 240
-0.998511, 209, 213, 272, 228
-0.998512, 289, 47, 352, 62
-0.998513, 217, 129, 280, 144
-0.998513, 289, 61, 352, 76
-0.998514, 277, 279, 308, 294
-0.998514, 161, 285, 224, 300
-0.998515, 169, 247, 232, 262
-0.998516, 369, 31, 432, 46
-0.998516, 201, 189, 232, 204
-0.998516, 305, 55, 368, 70
-0.998517, 241, 123, 304, 138
-0.998521, 9, 7, 72, 22
-0.998522, 241, 105, 304, 120
-0.998523, 293, 235, 324, 250
-0.998524, 217, 249, 248, 264
-0.998525, 209, 189, 272, 204
-0.998526, 209, 37, 272, 52
-0.998526, 249, 29, 312, 44
-0.998528, 49, 185, 176, 216
-0.998528, 177, 45, 240, 60
-0.998528, 289, 21, 352, 36
-0.998528, 285, 229, 316, 244
-0.998529, 109, 87, 140, 102
-0.99853, 257, 23, 320, 38
-0.998531, 217, 17, 280, 32
-0.998531, 233, 99, 296, 114
-0.998532, 321, 41, 384, 56
-0.998532, 249, 193, 312, 208
-0.998533, 365, 29, 396, 44
-0.998533, 241, 111, 304, 126
-0.998534, 253, 139, 284, 154
-0.998534, 257, 121, 288, 136
-0.998534, 257, 173, 320, 188
-0.998535, 273, 233, 336, 248
-0.998539, 249, 141, 312, 156
-0.998539, 205, 183, 236, 198
-0.99854, 173, 285, 204, 300
-0.99854, 217, 27, 248, 42
-0.99854, 209, 233, 240, 248
-0.99854, 17, 99, 80, 114
-0.99854, 217, 243, 248, 258
-0.99854, 241, 85, 304, 100
-0.998544, 289, 27, 352, 42
-0.998544, 185, 203, 248, 218
-0.998544, 233, 205, 264, 220
-0.998545, 321, 193, 448, 256
-0.998547, 217, 173, 280, 188
-0.998547, 409, 27, 472, 42
-0.998548, 305, 67, 368, 82
-0.998548, 249, 43, 312, 58
-0.998549, 169, 183, 232, 198
-0.998549, 245, 103, 276, 118
-0.99855, 289, 41, 352, 56
-0.99855, 209, 227, 272, 242
-0.998551, 1, 185, 500, 248
-0.998552, 273, 33, 336, 48
-0.998552, 129, 287, 192, 302
-0.998552, 209, 233, 272, 248
-0.998554, 369, 37, 432, 52
-0.998554, 211, 161, 226, 288
-0.998554, 17, 93, 80, 108
-0.998555, 385, 23, 448, 38
-0.998556, 185, 165, 216, 180
-0.998559, 201, 49, 264, 64
-0.998562, 321, 47, 384, 62
-0.998563, 177, 215, 240, 230
-0.998563, 233, 199, 264, 214
-0.998563, 249, 265, 312, 280
-0.998563, 273, 127, 304, 142
-0.998564, 245, 109, 276, 124
-0.998565, 329, 57, 392, 72
-0.998565, 129, 295, 192, 310
-0.998566, 161, 279, 224, 294
-0.998566, 209, 245, 272, 260
-0.998568, 337, 27, 400, 42
-0.998569, 245, 127, 276, 142
-0.998571, 177, 55, 240, 70
-0.998573, 273, 83, 336, 98
-0.998574, 177, 61, 240, 76
-0.998575, 345, 33, 408, 48
-0.998575, 201, 267, 264, 282
-0.998576, 209, 27, 272, 42
-0.998576, 209, 101, 272, 116
-0.998576, 153, 175, 216, 190
-0.998577, 233, 23, 296, 38
-0.998578, 233, 271, 296, 286
-0.998581, 233, 205, 296, 220
-0.998582, 201, 227, 232, 242
-0.998582, 233, 117, 296, 132
-0.998583, 257, 167, 320, 182
-0.998583, 209, 95, 272, 110
-0.998583, 161, 307, 224, 322
-0.998584, 41, 233, 104, 248
-0.998584, 297, 33, 360, 48
-0.998585, 289, 169, 352, 184
-0.998586, 177, 253, 240, 268
-0.998586, 17, 73, 80, 88
-0.998586, 241, 179, 304, 194
-0.998588, 1, 11, 32, 26
-0.998588, 169, 313, 232, 328
-0.998588, 17, 85, 80, 100
-0.998589, 217, 109, 280, 124
-0.99859, 257, 215, 320, 230
-0.99859, 137, 101, 200, 116
-0.99859, 233, 277, 296, 292
-0.998591, 249, 91, 312, 106
-0.998592, 193, 281, 224, 296
-0.998594, 137, 53, 200, 68
-0.998597, 345, 49, 408, 64
-0.998599, 105, 93, 168, 108
-0.998599, 193, 135, 256, 150
-0.998599, 297, 229, 360, 244
-0.9986, 257, 227, 320, 242
-0.9986, 281, 89, 344, 104
-0.9986, 145, 189, 208, 204
-0.998601, 201, 221, 232, 236
-0.998601, 177, 85, 240, 100
-0.998602, 225, 177, 256, 192
-0.998603, 169, 163, 232, 178
-0.998603, 249, 35, 312, 50
-0.998603, 161, 291, 224, 306
-0.998604, 201, 215, 232, 230
-0.998604, 177, 91, 240, 106
-0.998604, 193, 171, 224, 186
-0.998605, 201, 255, 264, 270
-0.998605, 1, 129, 128, 160
-0.998606, 257, 49, 320, 64
-0.998607, 289, 183, 352, 198
-0.998607, 177, 259, 240, 274
-0.998607, 217, 11, 280, 26
-0.998607, 337, 55, 368, 70
-0.998611, 17, 239, 80, 254
-0.998611, 265, 129, 328, 144
-0.998612, 273, 15, 336, 30
-0.998612, 65, 317, 128, 332
-0.998613, 217, 83, 280, 98
-0.998614, 433, 57, 496, 72
-0.998615, 225, 221, 288, 236
-0.998615, 57, 67, 120, 82
-0.998615, 209, 115, 272, 130
-0.998615, 161, 301, 224, 316
-0.998616, 9, 35, 72, 50
-0.998616, 213, 213, 244, 228
-0.998617, 73, 311, 136, 326
-0.998617, 289, 175, 352, 190
-0.998618, 281, 55, 344, 70
-0.998629, 193, 341, 320, 372
-0.998631, 227, 209, 242, 336
-0.998636, 249, 113, 264, 240
-0.998637, 385, 241, 448, 368
-0.998641, 277, 1, 292, 128
-0.998646, 209, 175, 240, 190
-0.998655, 213, 219, 244, 234
-0.99867, 161, 97, 192, 352
-0.998672, 245, 133, 276, 148
-0.998681, 221, 193, 252, 208
-0.998683, 113, 309, 240, 340
-0.998687, 225, 129, 240, 256
-0.998689, 217, 185, 248, 200
-0.998696, 321, 301, 448, 332
-0.998699, 211, 209, 226, 336
-0.998701, 221, 203, 252, 218
-0.998702, 221, 225, 236, 352
-0.998712, 1, 193, 128, 224
-0.998716, 243, 129, 258, 256
-0.998725, 197, 209, 212, 336
-0.998741, 261, 97, 276, 224
-0.998747, 235, 161, 250, 288
-0.998763, 337, 241, 400, 368
-0.998767, 321, 161, 448, 192
-0.998768, 33, 277, 160, 308
-0.998783, 297, 33, 312, 160
-0.998783, 205, 209, 220, 336
-0.998802, 217, 129, 232, 256
-0.998813, 185, 225, 200, 352
-0.998836, 101, 161, 132, 288
-0.998844, 409, 17, 424, 144
-0.99886, 369, 161, 496, 224
-0.998861, 399, 17, 414, 144
-0.998866, 255, 97, 270, 224
-0.998867, 429, 33, 444, 160
-0.998886, 385, 17, 400, 144
-0.998895, 297, 145, 312, 272
-0.998897, 1, 97, 32, 352
-0.998906, 449, 17, 464, 144
-0.99891, 313, 145, 344, 272
-0.998915, 359, 33, 374, 160
-0.998922, 371, 17, 386, 144
-0.998927, 369, 209, 496, 272
-0.998927, 365, 97, 396, 352
-0.998929, 455, 1, 470, 128
-0.998936, 305, 1, 320, 128
-0.998945, 287, 49, 302, 176
-0.998948, 189, 65, 204, 192
-0.99895, 1, 241, 500, 304
-0.998952, 351, 49, 366, 176
-0.998962, 263, 1, 278, 128
-0.998963, 345, 49, 360, 176
-0.998963, 361, 145, 424, 272
-0.998965, 119, 49, 134, 176
-0.998973, 81, 129, 112, 375
-0.998988, 393, 17, 408, 144
-0.998989, 29, 97, 60, 352
-0.998996, 437, 49, 452, 176
-0.998998, 223, 1, 238, 128
-0.998998, 415, 1, 430, 128
-0.998999, 251, 161, 266, 288
-0.999, 257, 33, 272, 160
-0.999004, 365, 33, 380, 160
-0.999005, 205, 161, 220, 288
-0.999008, 105, 49, 120, 176
-0.999009, 197, 17, 212, 144
-0.99901, 189, 145, 204, 272
-0.999012, 339, 1, 354, 128
-0.999015, 45, 49, 60, 176
-0.999021, 463, 17, 478, 144
-0.999025, 207, 33, 222, 160
-0.999027, 11, 1, 26, 128
-0.999032, 311, 17, 326, 144
-0.999034, 377, 97, 408, 352
-0.999037, 267, 65, 282, 192
-0.999039, 423, 17, 438, 144
-0.999042, 443, 33, 458, 160
-0.999046, 335, 49, 350, 176
-0.999046, 269, 1, 284, 128
-0.999054, 321, 97, 352, 352
-0.999054, 291, 129, 306, 256
-0.999054, 31, 33, 46, 160
-0.999067, 69, 49, 84, 176
-0.999072, 97, 49, 112, 176
-0.999076, 329, 17, 344, 144
-0.999076, 379, 17, 394, 144
-0.999078, 133, 49, 148, 176
-0.999081, 91, 33, 106, 160
-0.999082, 301, 81, 316, 208
-0.999085, 297, 193, 312, 320
-0.999086, 173, 49, 188, 176
-0.999086, 45, 1, 60, 128
-0.999088, 59, 49, 74, 176
-0.999095, 163, 33, 178, 160
-0.9991, 65, 129, 96, 375
-0.9991, 213, 33, 228, 160
-0.999106, 191, 225, 206, 352
-0.99911, 257, 145, 272, 272
-0.999112, 139, 49, 154, 176
-0.999118, 57, 161, 88, 288
-0.999119, 183, 33, 198, 160
-0.999121, 389, 97, 420, 352
-0.999122, 111, 49, 126, 176
-0.999125, 199, 161, 214, 288
-0.999131, 249, 17, 264, 144
-0.999132, 19, 1, 34, 128
-0.999134, 85, 33, 100, 160
-0.999136, 37, 1, 52, 128
-0.999142, 249, 65, 264, 192
-0.999146, 449, 97, 480, 352
-0.999151, 241, 177, 256, 304
-0.999152, 149, 33, 164, 160
-0.999161, 287, 1, 302, 128
-0.999161, 211, 113, 226, 240
-0.999163, 281, 225, 296, 352
-0.999165, 125, 33, 140, 160
-0.999168, 3, 49, 18, 176
-0.999169, 21, 49, 36, 176
-0.999169, 179, 97, 194, 224
-0.999171, 239, 17, 254, 144
-0.999174, 481, 1, 496, 128
-0.999177, 231, 113, 246, 240
-0.999184, 217, 81, 232, 208
-0.999186, 267, 113, 282, 240
-0.999196, 273, 81, 288, 208
-0.999197, 157, 33, 172, 160
-0.999201, 291, 193, 306, 320
-0.999208, 53, 49, 68, 176
-0.99922, 1, 1, 16, 128
-0.999224, 13, 65, 28, 192
-0.999227, 239, 81, 254, 208
-0.999228, 321, 1, 336, 128
-0.999229, 75, 33, 90, 160
-0.999232, 25, 1, 40, 128
-0.999233, 235, 209, 250, 336
-0.999234, 231, 1, 246, 128
-0.999245, 39, 49, 54, 176
-0.999255, 471, 17, 486, 144
-0.999255, 303, 145, 318, 272
-0.999256, 295, 81, 310, 208
-0.999262, 51, 1, 66, 128
-0.999264, 281, 177, 296, 304
-0.999274, 197, 97, 212, 224
-0.999293, 279, 81, 294, 208
-0.999296, 41, 97, 72, 352
-0.999304, 31, 81, 46, 208
-0.999311, 401, 97, 432, 352
-0.999313, 13, 113, 28, 240
-0.999316, 191, 1, 206, 128
-0.999322, 405, 65, 420, 192
-0.999323, 179, 225, 194, 352
-0.99934, 425, 81, 440, 208
-0.999344, 309, 65, 324, 192
-0.999351, 291, 241, 306, 368
-0.999354, 113, 97, 128, 224
-0.99936, 437, 1, 452, 128
-0.999361, 375, 97, 390, 224
-0.999361, 223, 81, 238, 208
-0.999362, 457, 65, 472, 192
-0.999371, 415, 49, 430, 176
-0.999373, 417, 97, 448, 352
-0.999379, 129, 97, 160, 352
-0.999382, 317, 49, 332, 176
-0.999435, 437, 97, 468, 352
-0.999451, 153, 241, 184, 368
-0.999455, 369, 233, 496, 296
-0.999456, 349, 97, 380, 352
-0.999471, 461, 97, 492, 352
-0.999548, 17, 97, 48, 352
-0.999575, 141, 97, 172, 352
-0.999627, 229, 245, 244, 260
-0.999629, 287, 239, 302, 254
-0.99963, 229, 221, 244, 236
-0.999632, 287, 55, 302, 70
-0.999633, 213, 285, 228, 300
-0.999633, 109, 97, 124, 112
-0.999634, 275, 275, 290, 290
-0.999635, 275, 125, 290, 140
-0.999635, 207, 285, 222, 300
-0.999635, 197, 279, 212, 294
-0.999636, 215, 257, 230, 272
-0.999636, 209, 299, 224, 314
-0.999636, 199, 163, 214, 178
-0.999636, 297, 91, 312, 106
-0.999637, 299, 185, 314, 200
-0.999637, 247, 137, 262, 152
-0.999638, 407, 23, 422, 38
-0.999638, 183, 171, 198, 186
-0.999638, 377, 29, 392, 44
-0.999638, 283, 289, 298, 304
-0.999639, 305, 21, 320, 36
-0.999639, 45, 57, 60, 72
-0.999639, 295, 235, 310, 250
-0.999639, 5, 11, 20, 26
-0.99964, 211, 187, 226, 202
-0.99964, 225, 263, 240, 278
-0.99964, 287, 45, 302, 60
-0.999641, 31, 97, 46, 112
-0.999641, 267, 117, 282, 132
-0.999641, 255, 265, 270, 280
-0.999642, 237, 177, 252, 192
-0.999643, 7, 45, 22, 60
-0.999644, 243, 181, 258, 196
-0.999644, 203, 301, 218, 316
-0.999645, 239, 129, 254, 144
-0.999646, 295, 161, 310, 176
-0.999646, 291, 211, 306, 226
-0.999646, 209, 169, 224, 184
-0.999646, 419, 19, 434, 34
-0.999646, 201, 227, 216, 242
-0.999647, 227, 257, 242, 272
-0.999648, 143, 53, 158, 68
-0.999648, 445, 177, 476, 304
-0.999648, 333, 97, 364, 352
-0.999649, 201, 309, 216, 324
-0.999651, 237, 171, 252, 186
-0.999651, 203, 175, 218, 190
-0.999652, 349, 67, 364, 82
-0.999652, 195, 233, 210, 248
-0.999652, 31, 85, 46, 100
-0.999654, 307, 229, 322, 244
-0.999655, 143, 59, 158, 74
-0.999656, 339, 55, 354, 70
-0.999656, 109, 89, 124, 104
-0.999659, 233, 227, 248, 242
-0.999661, 409, 15, 424, 30
-0.999662, 401, 29, 416, 44
-0.999663, 393, 193, 424, 320
-0.999663, 281, 275, 296, 290
-0.999663, 237, 185, 252, 200
-0.999664, 369, 27, 384, 42
-0.999666, 397, 35, 412, 50
-0.999666, 267, 123, 282, 138
-0.999667, 245, 107, 260, 122
-0.999667, 225, 215, 240, 230
-0.999667, 249, 131, 264, 146
-0.99967, 369, 39, 384, 54
-0.99967, 299, 51, 314, 66
-0.99967, 259, 109, 274, 124
-0.999672, 257, 117, 272, 132
-0.999673, 237, 211, 252, 226
-0.999673, 419, 1, 434, 16
-0.999674, 31, 91, 46, 106
-0.999674, 251, 101, 266, 116
-0.999675, 261, 175, 276, 190
-0.999675, 447, 61, 462, 76
-0.999676, 215, 263, 230, 278
-0.999676, 213, 235, 228, 250
-0.999679, 215, 273, 230, 288
-0.99968, 203, 181, 218, 196
-0.999682, 227, 179, 242, 194
-0.999682, 249, 143, 264, 158
-0.999683, 247, 199, 262, 214
-0.999683, 203, 221, 218, 236
-0.999683, 267, 135, 282, 150
-0.999689, 263, 141, 278, 156
-0.999689, 441, 53, 456, 68
-0.999689, 379, 37, 394, 52
-0.99969, 249, 125, 264, 140
-0.999691, 295, 217, 310, 232
-0.999692, 191, 171, 206, 186
-0.999692, 295, 223, 310, 238
-0.999694, 209, 175, 224, 190
-0.999697, 387, 33, 402, 48
-0.999702, 231, 211, 246, 226
-0.999704, 251, 113, 266, 128
-0.999706, 187, 195, 202, 210
-0.999706, 207, 293, 222, 308
-0.999707, 223, 205, 238, 220
-0.999707, 305, 235, 320, 250
-0.999708, 213, 213, 228, 228
-0.999708, 263, 129, 278, 144
-0.999709, 225, 199, 240, 214
-0.99971, 249, 173, 264, 188
-0.999711, 199, 215, 214, 230
-0.999713, 297, 229, 312, 244
-0.999714, 227, 173, 242, 188
-0.999715, 217, 227, 232, 242
-0.999719, 53, 93, 68, 108
-0.99972, 207, 229, 222, 244
-0.999722, 245, 205, 260, 220
-0.999722, 219, 213, 234, 228
-0.999723, 231, 185, 246, 200
-0.999726, 235, 199, 250, 214
-0.999726, 217, 175, 232, 190
-0.999729, 189, 165, 204, 180
-0.999729, 221, 257, 236, 272
-0.999729, 281, 281, 296, 296
-0.999735, 221, 183, 236, 198
-0.999738, 223, 221, 238, 236
-0.999738, 197, 171, 212, 186
-0.99974, 221, 251, 236, 266
-0.999745, 253, 107, 268, 122
-0.999746, 235, 193, 250, 208
-0.999747, 257, 135, 272, 150
-0.999756, 223, 241, 238, 256
-0.999761, 209, 219, 224, 234
-0.999765, 217, 221, 232, 236
-0.99977, 223, 231, 238, 246
-0.999786, 53, 129, 84, 375
-0.999786, 203, 169, 218, 184
-0.999786, 225, 189, 240, 204
-0.999793, 235, 205, 250, 220
-0.999821, 137, 129, 168, 256
-0.999824, 241, 199, 256, 214
-0.999843, 33, 161, 64, 288
-1.00005, 93, 129, 124, 375
-1.00029, 113, 129, 144, 375
-1.00031, 161, 145, 192, 272
-1.00035, 417, 177, 448, 304
-1.00182, 361, 241, 424, 368
-1.00197, 353, 193, 416, 320
-1.00229, 321, 193, 384, 320
-1.00252, 1, 225, 64, 352
-1.00256, 1, 193, 128, 320
-1.00584, 385, 145, 448, 272
