1986
-0.40884, 1, 129, 500, 375
-0.611049, 1, 1, 500, 375
-0.638268, 1, 33, 500, 288
-0.643491, 97, 1, 352, 375
-0.700572, 161, 129, 416, 375
-0.709741, 257, 1, 500, 375
-0.718298, 65, 129, 320, 375
-0.737146, 257, 129, 500, 375
-0.771255, 1, 1, 256, 375
-0.855611, 1, 145, 500, 272
-0.862321, 129, 33, 384, 288
-0.864226, 97, 129, 224, 375
-0.88072, 145, 129, 272, 375
-0.90132, 49, 129, 176, 375
-0.902573, 257, 129, 384, 375
-0.904307, 257, 33, 500, 288
-0.904838, 1, 193, 500, 320
-0.907204, 369, 129, 496, 375
-0.910358, 305, 129, 432, 375
-0.914055, 209, 129, 336, 375
-0.914594, 49, 1, 176, 375
-0.91594, 145, 1, 272, 375
-0.921031, 273, 1, 400, 375
-0.922347, 321, 1, 448, 375
-0.922707, 65, 161, 320, 288
-0.923678, 161, 145, 416, 272
-0.928932, 193, 1, 320, 375
-0.930036, 1, 129, 128, 375
-0.93141, 369, 177, 496, 304
-0.931548, 257, 193, 500, 320
-0.932865, 121, 145, 184, 272
-0.933128, 97, 1, 224, 375
-0.93358, 97, 129, 224, 256
-0.934571, 1, 1, 128, 375
-0.935069, 321, 161, 448, 288
-0.936618, 65, 113, 320, 240
-0.936748, 369, 1, 496, 375
-0.93747, 145, 113, 208, 240
-0.937601, 257, 145, 500, 272
-0.938585, 129, 33, 256, 288
-0.942318, 257, 145, 384, 272
-0.942455, 329, 161, 392, 288
-0.942546, 369, 177, 432, 304
-0.942701, 65, 33, 192, 288
-0.942869, 49, 145, 176, 272
-0.94385, 1, 97, 500, 224
-0.944258, 177, 33, 304, 288
-0.945873, 161, 193, 416, 320
-0.946909, 145, 145, 272, 272
-0.948581, 97, 129, 160, 256
-0.94871, 81, 193, 208, 320
-0.950137, 1, 241, 500, 368
-0.950875, 353, 33, 480, 288
-0.951499, 409, 177, 472, 304
-0.951627, 129, 193, 192, 320
-0.952413, 153, 129, 216, 192
-0.953388, 385, 185, 448, 248
-0.953469, 241, 33, 368, 288
-0.954637, 17, 33, 144, 288
-0.95494, 289, 145, 352, 208
-0.955079, 409, 185, 472, 248
-0.955701, 81, 169, 144, 232
-0.955726, 297, 145, 360, 272
-0.955757, 33, 33, 288, 288
-0.955798, 289, 33, 416, 288
-0.955812, 129, 145, 192, 208
-0.956024, 145, 193, 272, 320
-0.956396, 265, 129, 328, 256
-0.956559, 105, 193, 168, 320
-0.958055, 33, 193, 160, 320
-0.958199, 337, 177, 400, 240
-0.958355, 169, 145, 232, 272
-0.958375, 249, 145, 312, 208
-0.95882, 321, 209, 448, 336
-0.959024, 193, 145, 320, 272
-0.959146, 1, 209, 256, 336
-0.960466, 73, 145, 136, 272
-0.961206, 233, 121, 296, 184
-0.961266, 193, 145, 256, 208
-0.961287, 153, 169, 216, 232
-0.961873, 233, 145, 296, 272
-0.962502, 97, 129, 160, 192
-0.962684, 113, 201, 176, 264
-0.963068, 145, 97, 272, 224
-0.963211, 361, 177, 424, 240
-0.963359, 313, 161, 376, 224
-0.963466, 81, 193, 144, 320
-0.963851, 409, 209, 472, 272
-0.96419, 1, 145, 128, 272
-0.964361, 273, 193, 400, 320
-0.964729, 193, 193, 320, 320
-0.965251, 361, 201, 424, 264
-0.965411, 209, 145, 272, 272
-0.965476, 57, 177, 120, 240
-0.965676, 433, 185, 496, 248
-0.966566, 81, 145, 208, 208
-0.967096, 433, 177, 496, 304
-0.967859, 177, 121, 240, 184
-0.967882, 217, 145, 280, 208
-0.968117, 249, 169, 312, 232
-0.968344, 105, 161, 168, 224
-0.968407, 289, 169, 352, 232
-0.968752, 121, 121, 184, 184
-0.968824, 153, 193, 216, 320
-0.969169, 137, 145, 168, 272
-0.969267, 241, 145, 368, 208
-0.969564, 369, 129, 496, 256
-0.970429, 393, 129, 456, 256
-0.970578, 305, 193, 368, 320
-0.970652, 177, 169, 240, 232
-0.970653, 121, 97, 184, 224
-0.97117, 145, 129, 272, 192
-0.971184, 153, 129, 184, 256
-0.971396, 325, 153, 356, 216
-0.971593, 337, 209, 400, 336
-0.971854, 33, 169, 160, 232
-0.97193, 353, 185, 480, 248
-0.971971, 49, 161, 112, 288
-0.97207, 153, 217, 216, 280
-0.972084, 225, 169, 288, 232
-0.972271, 209, 121, 272, 184
-0.972315, 137, 241, 200, 304
-0.972438, 185, 193, 248, 320
-0.97267, 113, 97, 176, 352
-0.972778, 169, 97, 232, 224
-0.972824, 409, 161, 472, 224
-0.972837, 169, 137, 200, 200
-0.973101, 209, 97, 336, 224
-0.973232, 289, 177, 416, 240
-0.973378, 161, 241, 416, 368
-0.973471, 337, 113, 400, 240
-0.974117, 225, 193, 288, 320
-0.974138, 193, 129, 320, 192
-0.974341, 369, 129, 432, 256
-0.97446, 117, 145, 148, 272
-0.974597, 97, 233, 160, 296
-0.974759, 157, 137, 188, 200
-0.974986, 385, 233, 448, 296
-0.97499, 369, 241, 496, 368
-0.975025, 377, 193, 408, 320
-0.975095, 401, 177, 432, 240
-0.975143, 385, 177, 416, 240
-0.975297, 417, 201, 448, 264
-0.975369, 385, 209, 448, 272
-0.975405, 157, 193, 188, 320
-0.975676, 273, 209, 336, 336
-0.97568, 165, 145, 196, 272
-0.975774, 389, 177, 420, 304
-0.975808, 57, 201, 120, 264
-0.975861, 65, 145, 128, 208
-0.976124, 325, 145, 356, 272
-0.976133, 89, 209, 152, 272
-0.976185, 161, 209, 192, 272
-0.976226, 33, 97, 160, 224
-0.976255, 433, 185, 464, 248
-0.97637, 49, 201, 176, 264
-0.976425, 305, 137, 336, 200
-0.976483, 33, 169, 96, 232
-0.976546, 249, 193, 312, 320
-0.97655, 17, 177, 80, 304
-0.976668, 365, 177, 396, 240
-0.976704, 145, 241, 272, 368
-0.976712, 401, 161, 432, 288
-0.976779, 193, 153, 320, 216
-0.976811, 381, 201, 412, 264
-0.976831, 257, 121, 320, 184
-0.976832, 425, 233, 488, 296
-0.976998, 129, 169, 192, 232
-0.977089, 225, 97, 288, 224
-0.977185, 161, 129, 224, 375
-0.977405, 337, 153, 400, 216
-0.977427, 337, 209, 464, 272
-0.977549, 161, 97, 416, 224
-0.977592, 417, 177, 448, 304
-0.977625, 433, 209, 464, 272
-0.977633, 201, 97, 264, 224
-0.977681, 341, 161, 372, 224
-0.977692, 305, 113, 432, 240
-0.97788, 145, 225, 176, 288
-0.977944, 141, 137, 172, 200
-0.97821, 145, 169, 272, 232
-0.978315, 421, 177, 452, 240
-0.978401, 117, 193, 148, 320
-0.97861, 161, 241, 224, 304
-0.978613, 257, 97, 500, 224
-0.97912, 113, 257, 176, 320
-0.979167, 313, 129, 376, 375
-0.97921, 313, 185, 376, 248
-0.979215, 137, 129, 200, 375
-0.979299, 201, 169, 264, 232
-0.979342, 181, 129, 212, 192
-0.979452, 393, 257, 456, 320
-0.979475, 277, 145, 308, 208
-0.979511, 253, 137, 284, 200
-0.979578, 145, 201, 176, 264
-0.979636, 241, 169, 368, 232
-0.979644, 137, 193, 200, 256
-0.97965, 353, 161, 384, 288
-0.97984, 337, 145, 368, 272
-0.979858, 445, 185, 476, 248
-0.979875, 393, 129, 456, 375
-0.979919, 177, 113, 208, 240
-0.979998, 81, 169, 208, 232
-0.980116, 401, 201, 432, 264
-0.980227, 289, 97, 352, 224
-0.980289, 289, 137, 320, 200
-0.980405, 453, 177, 484, 304
-0.980422, 73, 177, 104, 240
-0.98043, 89, 169, 120, 232
-0.98049, 377, 145, 408, 272
-0.98064, 337, 129, 400, 375
-0.980669, 109, 137, 140, 200
-0.980732, 313, 137, 376, 200
-0.980755, 97, 209, 224, 272
-0.980899, 201, 137, 232, 200
-0.980915, 113, 241, 240, 304
-0.981012, 145, 193, 176, 320
-0.981056, 233, 145, 264, 208
-0.981131, 437, 233, 468, 296
-0.981163, 441, 177, 472, 304
-0.981249, 113, 201, 144, 264
-0.981343, 105, 145, 136, 272
-0.98137, 433, 225, 496, 352
-0.981641, 97, 145, 128, 208
-0.981644, 133, 193, 164, 256
-0.981675, 369, 129, 432, 375
-0.981776, 97, 121, 224, 184
-0.981818, 157, 161, 188, 224
-0.981846, 61, 169, 92, 232
-0.981859, 365, 145, 396, 272
-0.981938, 337, 233, 464, 296
-0.982019, 265, 137, 296, 200
-0.982063, 101, 193, 132, 320
-0.982114, 313, 145, 344, 272
-0.982136, 433, 161, 496, 224
-0.98215, 221, 145, 252, 208
-0.982165, 97, 81, 224, 208
-0.982179, 257, 97, 384, 224
-0.982236, 329, 177, 360, 240
-0.982289, 133, 225, 164, 288
-0.982457, 169, 169, 200, 232
-0.982496, 361, 225, 424, 352
-0.982522, 289, 153, 416, 216
-0.982591, 361, 225, 424, 288
-0.982618, 97, 241, 224, 368
-0.982768, 185, 161, 216, 224
-0.982883, 385, 161, 448, 224
-0.983044, 149, 249, 180, 312
-0.983083, 185, 241, 248, 304
-0.983132, 337, 161, 464, 224
-0.983141, 121, 129, 152, 192
-0.983144, 89, 145, 120, 272
-0.983176, 253, 169, 284, 232
-0.983286, 421, 233, 452, 296
-0.98334, 33, 193, 96, 256
-0.983379, 125, 161, 156, 224
-0.983394, 429, 161, 460, 288
-0.983461, 73, 241, 136, 304
-0.9835, 289, 129, 352, 375
-0.983544, 9, 185, 72, 248
-0.983717, 317, 177, 348, 240
-0.983899, 461, 169, 492, 232
-0.984173, 101, 169, 132, 232
-0.984206, 417, 129, 480, 256
-0.984225, 1, 193, 128, 256
-0.984261, 273, 193, 336, 256
-0.984292, 233, 145, 264, 272
-0.984311, 361, 249, 424, 312
-0.984374, 101, 209, 132, 272
-0.984587, 249, 129, 312, 375
-0.984635, 305, 161, 336, 224
-0.984694, 365, 193, 396, 320
-0.984776, 113, 169, 144, 232
-0.984901, 337, 217, 400, 280
-0.985, 289, 217, 416, 280
-0.98508, 265, 161, 296, 224
-0.985105, 125, 97, 156, 224
-0.985131, 277, 129, 308, 256
-0.985167, 369, 257, 496, 320
-0.985168, 65, 65, 320, 192
-0.985232, 169, 193, 200, 320
-0.985237, 65, 233, 192, 296
-0.985256, 197, 161, 228, 224
-0.985313, 125, 249, 156, 312
-0.985325, 237, 169, 268, 232
-0.985347, 321, 249, 384, 312
-0.985352, 429, 209, 460, 336
-0.985356, 245, 145, 276, 272
-0.985378, 281, 121, 344, 184
-0.985405, 33, 137, 160, 200
-0.985469, 145, 209, 272, 272
-0.985513, 401, 225, 464, 352
-0.985615, 81, 129, 144, 375
-0.985635, 241, 121, 272, 184
-0.985787, 181, 161, 212, 288
-0.985803, 241, 121, 368, 184
-0.985881, 145, 65, 208, 192
-0.985947, 249, 81, 312, 208
-0.985971, 417, 129, 480, 375
-0.986008, 353, 169, 384, 232
-0.986046, 321, 273, 384, 336
-0.986079, 177, 193, 240, 256
-0.986085, 213, 121, 244, 184
-0.986138, 257, 145, 288, 272
-0.98617, 285, 169, 316, 232
-0.986206, 61, 193, 92, 256
-0.986342, 297, 249, 360, 312
-0.986376, 165, 97, 196, 224
-0.986378, 169, 241, 232, 368
-0.986395, 225, 169, 256, 232
-0.98641, 417, 257, 480, 320
-0.98653, 193, 177, 320, 240
-0.986582, 121, 225, 152, 288
-0.986591, 97, 81, 160, 208
-0.986627, 289, 129, 320, 256
-0.986709, 85, 145, 116, 208
-0.986761, 225, 129, 288, 375
-0.987009, 149, 113, 180, 176
-0.987016, 465, 177, 496, 304
-0.98703, 433, 209, 496, 272
-0.987185, 57, 225, 120, 352
-0.987216, 361, 153, 424, 216
-0.9873, 161, 233, 192, 296
-0.987317, 65, 161, 96, 288
-0.987406, 273, 249, 336, 312
-0.987551, 273, 241, 400, 368
-0.987678, 177, 249, 304, 312
-0.987769, 129, 193, 160, 320
-0.987814, 273, 225, 336, 288
-0.987882, 249, 201, 312, 264
-0.987885, 301, 145, 332, 272
-0.987953, 369, 217, 400, 280
-0.98796, 209, 161, 240, 224
-0.988066, 153, 105, 216, 168
-0.988072, 313, 97, 376, 224
-0.988083, 457, 193, 488, 256
-0.988109, 341, 193, 372, 320
-0.988197, 137, 97, 168, 224
-0.988309, 273, 249, 400, 312
-0.988342, 193, 217, 320, 280
-0.988511, 441, 161, 472, 224
-0.988582, 409, 233, 440, 296
-0.988666, 177, 105, 304, 168
-0.98867, 209, 249, 272, 312
-0.988736, 313, 165, 376, 196
-0.988766, 297, 273, 360, 336
-0.988766, 345, 273, 408, 336
-0.988807, 417, 189, 480, 220
-0.988889, 297, 209, 360, 272
-0.988919, 321, 129, 352, 192
-0.988967, 249, 225, 312, 288
-0.988996, 389, 129, 420, 256
-0.989003, 161, 133, 224, 164
-0.989018, 41, 145, 104, 208
-0.989032, 377, 205, 440, 236
-0.989066, 225, 121, 256, 184
-0.989101, 97, 129, 352, 192
-0.989107, 113, 201, 176, 232
-0.989182, 169, 113, 200, 176
-0.989188, 185, 129, 248, 375
-0.989189, 277, 121, 308, 184
-0.989211, 81, 165, 144, 196
-0.989293, 1, 169, 500, 232
-0.989375, 221, 145, 252, 272
-0.989411, 209, 97, 272, 160
-0.989413, 113, 241, 176, 368
-0.989417, 321, 257, 448, 320
-0.98947, 233, 157, 296, 188
-0.989541, 241, 209, 368, 272
-0.989556, 337, 173, 400, 204
-0.989584, 273, 141, 336, 172
-0.9896, 121, 161, 184, 192
-0.989641, 249, 249, 312, 312
-0.989656, 201, 241, 264, 368
-0.989669, 145, 145, 208, 176
-0.989715, 237, 193, 268, 320
-0.989754, 337, 137, 368, 200
-0.989756, 205, 113, 236, 240
-0.989773, 313, 193, 344, 320
-0.989791, 65, 161, 320, 224
-0.989792, 209, 225, 272, 288
-0.989808, 253, 113, 284, 176
-0.989839, 121, 149, 184, 180
-0.989839, 1, 49, 500, 176
-0.989873, 77, 177, 108, 304
-0.98997, 157, 185, 188, 248
-0.989998, 289, 153, 352, 184
-0.99, 65, 257, 192, 320
-0.990006, 33, 217, 96, 280
-0.990034, 293, 209, 324, 336
-0.990051, 161, 157, 224, 188
-0.990067, 9, 161, 72, 224
-0.99008, 105, 233, 136, 296
-0.990087, 145, 241, 208, 368
-0.990096, 329, 193, 360, 320
-0.990097, 469, 193, 500, 256
-0.990109, 393, 189, 456, 220
-0.990188, 9, 129, 72, 256
-0.990189, 289, 165, 352, 196
-0.990217, 281, 177, 344, 208
-0.990223, 17, 225, 144, 288
-0.990225, 177, 217, 240, 280
-0.990257, 257, 161, 320, 192
-0.990296, 193, 113, 224, 240
-0.990303, 193, 153, 256, 184
-0.990331, 257, 129, 320, 160
-0.990365, 53, 145, 84, 272
-0.990381, 401, 221, 464, 252
-0.990402, 421, 257, 452, 320
-0.990442, 257, 241, 500, 368
-0.990454, 249, 145, 312, 176
-0.9905, 213, 193, 244, 320
-0.990519, 137, 265, 200, 328
-0.990525, 129, 133, 192, 164
-0.990532, 41, 185, 72, 248
-0.990552, 369, 185, 432, 216
-0.99057, 257, 273, 384, 336
-0.990572, 161, 173, 224, 204
-0.990578, 137, 249, 168, 312
-0.990579, 97, 141, 160, 172
-0.990603, 225, 177, 480, 240
-0.990614, 145, 169, 176, 232
-0.990693, 209, 173, 272, 204
-0.990739, 65, 201, 128, 232
-0.990749, 137, 181, 200, 212
-0.990806, 185, 169, 248, 200
-0.990809, 305, 181, 368, 212
-0.990838, 385, 237, 448, 268
-0.990888, 105, 253, 168, 284
-0.990895, 181, 249, 212, 312
-0.990932, 193, 241, 224, 304
-0.990933, 245, 97, 276, 224
-0.990934, 233, 133, 296, 164
-0.99097, 401, 209, 464, 240
-0.990986, 73, 177, 136, 208
-0.99099, 393, 265, 456, 296
-0.990991, 369, 217, 432, 248
-0.991001, 257, 177, 320, 208
-0.991063, 89, 1, 152, 375
-0.991083, 257, 193, 288, 320
-0.991086, 49, 181, 112, 212
-0.9911, 81, 153, 144, 184
-0.991104, 353, 201, 384, 264
-0.991123, 225, 249, 352, 312
-0.991129, 433, 201, 496, 232
-0.991169, 233, 173, 296, 204
-0.991183, 153, 81, 184, 208
-0.991208, 81, 253, 144, 284
-0.991209, 89, 265, 152, 328
-0.991219, 417, 177, 480, 208
-0.99123, 185, 129, 248, 160
-0.991244, 361, 233, 424, 264
-0.991262, 385, 249, 448, 280
-0.99128, 169, 145, 232, 176
-0.991319, 265, 113, 296, 176
-0.991352, 269, 193, 300, 320
-0.991367, 129, 241, 192, 272
-0.991416, 49, 169, 112, 200
-0.991481, 409, 233, 472, 264
-0.991489, 361, 245, 424, 276
-0.991502, 225, 193, 256, 320
-0.991532, 281, 209, 312, 336
-0.991551, 81, 189, 144, 220
-0.991554, 89, 241, 152, 272
-0.991586, 369, 265, 432, 296
-0.991591, 225, 145, 288, 176
-0.991636, 129, 213, 192, 244
-0.991647, 401, 209, 432, 336
-0.991651, 193, 153, 448, 216
-0.991666, 217, 121, 280, 152
-0.991687, 225, 193, 288, 256
-0.991705, 209, 133, 272, 164
-0.99171, 425, 221, 488, 252
-0.991724, 297, 141, 360, 172
-0.991726, 201, 193, 232, 320
-0.99173, 233, 97, 264, 224
-0.991752, 129, 1, 192, 375
-0.991766, 105, 129, 168, 160
-0.991787, 345, 213, 408, 244
-0.991809, 81, 217, 144, 248
-0.99182, 329, 245, 392, 276
-0.991836, 113, 265, 240, 328
-0.991853, 89, 229, 152, 260
-0.991856, 393, 173, 456, 204
-0.991882, 41, 177, 72, 304
-0.991899, 305, 241, 368, 272
-0.991913, 417, 261, 480, 292
-0.991923, 113, 265, 176, 296
-0.991924, 73, 153, 104, 216
-0.991942, 337, 161, 400, 192
-0.991944, 137, 225, 200, 256
-0.991949, 49, 161, 80, 224
-0.991949, 445, 209, 476, 272
-0.991952, 297, 185, 328, 248
-0.991971, 105, 217, 168, 248
-0.991989, 361, 169, 424, 200
-0.99202, 49, 241, 176, 368
-0.99203, 337, 197, 400, 228
-0.992032, 57, 157, 120, 188
-0.99206, 1, 241, 128, 368
-0.992071, 85, 193, 116, 256
-0.992077, 25, 181, 88, 212
-0.992089, 161, 253, 224, 284
-0.99209, 273, 185, 304, 248
-0.9921, 161, 201, 224, 232
-0.992105, 137, 33, 200, 288
-0.992117, 305, 253, 368, 284
-0.992145, 129, 121, 192, 152
-0.992166, 417, 245, 480, 276
-0.992179, 17, 193, 80, 224
-0.9922, 129, 97, 192, 160
-0.992215, 137, 253, 200, 284
-0.992216, 65, 241, 128, 272
-0.992236, 313, 153, 376, 184
-0.992262, 113, 229, 176, 260
-0.99229, 305, 97, 336, 224
-0.992303, 333, 165, 364, 196
-0.992337, 337, 233, 400, 264
-0.992377, 353, 249, 384, 312
-0.992385, 161, 217, 224, 248
-0.992403, 89, 205, 152, 236
-0.992449, 145, 145, 176, 176
-0.992454, 105, 189, 168, 220
-0.992467, 281, 241, 344, 272
-0.99247, 157, 137, 188, 168
-0.992491, 441, 225, 472, 352
-0.9925, 177, 133, 208, 164
-0.992513, 41, 193, 104, 224
-0.992528, 345, 173, 376, 204
-0.992529, 421, 245, 452, 276
-0.992536, 405, 249, 436, 280
-0.992543, 89, 169, 120, 200
-0.992546, 161, 121, 224, 152
-0.992555, 41, 205, 104, 236
-0.992561, 137, 201, 200, 232
-0.992583, 389, 205, 420, 236
-0.99259, 345, 257, 408, 288
-0.992593, 233, 157, 264, 188
-0.992595, 129, 201, 160, 232
-0.992614, 113, 205, 144, 236
-0.992618, 357, 173, 388, 204
-0.992627, 317, 169, 348, 200
-0.99264, 133, 241, 164, 272
-0.992653, 405, 185, 436, 216
-0.992663, 165, 153, 196, 184
-0.992679, 133, 153, 164, 184
-0.992687, 281, 253, 344, 284
-0.992689, 409, 261, 440, 292
-0.992692, 409, 233, 440, 264
-0.992698, 285, 133, 316, 164
-0.992704, 469, 193, 500, 224
-0.992708, 173, 225, 204, 288
-0.99272, 157, 165, 188, 196
-0.99273, 105, 161, 136, 192
-0.992731, 289, 129, 352, 160
-0.992734, 257, 173, 288, 204
-0.992741, 425, 189, 456, 220
-0.992743, 153, 209, 184, 240
-0.992759, 181, 169, 212, 200
-0.992763, 421, 265, 452, 296
-0.992764, 133, 253, 164, 284
-0.992774, 221, 161, 252, 192
-0.992787, 289, 121, 416, 184
-0.992792, 129, 145, 256, 176
-0.992798, 153, 237, 216, 268
-0.992807, 309, 141, 340, 172
-0.99281, 333, 181, 364, 212
-0.992811, 405, 201, 436, 232
-0.992814, 297, 141, 328, 172
-0.992818, 425, 209, 456, 240
-0.992823, 201, 209, 264, 240
-0.992832, 25, 169, 88, 200
-0.992839, 277, 165, 308, 196
-0.992852, 113, 177, 176, 208
-0.992854, 189, 129, 220, 160
-0.992856, 1, 145, 500, 208
-0.99286, 177, 241, 240, 272
-0.99286, 377, 277, 440, 308
-0.99286, 325, 153, 356, 184
-0.992861, 121, 225, 152, 256
-0.992873, 353, 161, 384, 192
-0.992878, 141, 201, 172, 232
-0.992879, 441, 193, 472, 224
-0.992881, 281, 145, 312, 176
-0.992882, 113, 253, 144, 284
-0.99289, 17, 205, 80, 236
-0.992892, 393, 237, 424, 268
-0.992896, 401, 277, 464, 308
-0.992899, 305, 177, 336, 208
-0.992901, 241, 117, 304, 148
-0.992903, 89, 153, 120, 184
-0.992907, 421, 233, 452, 264
-0.99291, 169, 173, 200, 204
-0.992917, 165, 125, 196, 156
-0.992929, 321, 213, 384, 244
-0.992932, 245, 165, 276, 196
-0.992932, 57, 217, 120, 248
-0.992933, 377, 209, 408, 240
-0.992938, 105, 233, 136, 264
-0.992951, 433, 233, 496, 264
-0.992953, 397, 265, 428, 296
-0.992958, 225, 173, 256, 204
-0.992958, 193, 253, 256, 284
-0.992966, 297, 161, 328, 192
-0.99297, 265, 133, 296, 164
-0.992977, 249, 273, 312, 304
-0.99298, 245, 177, 276, 208
-0.992984, 121, 161, 152, 192
-0.992987, 77, 181, 108, 212
-0.992988, 121, 237, 152, 268
-0.992997, 433, 221, 464, 252
-0.993006, 145, 241, 176, 272
-0.993007, 281, 177, 312, 208
-0.993015, 145, 165, 176, 196
-0.993017, 321, 181, 352, 212
-0.993017, 81, 165, 208, 196
-0.993019, 453, 189, 484, 220
-0.993023, 389, 181, 420, 212
-0.993029, 369, 173, 400, 204
-0.99303, 265, 161, 296, 192
-0.99303, 101, 145, 132, 176
-0.993034, 133, 229, 164, 260
-0.993047, 185, 117, 248, 148
-0.993053, 393, 253, 424, 284
-0.993056, 261, 185, 292, 216
-0.993061, 457, 173, 488, 204
-0.993069, 201, 193, 264, 256
-0.993076, 149, 253, 180, 284
-0.993078, 233, 185, 296, 216
-0.99308, 41, 237, 104, 268
-0.993085, 69, 193, 100, 224
-0.993085, 313, 153, 344, 184
-0.993085, 245, 153, 276, 184
-0.993088, 65, 173, 96, 204
-0.993092, 193, 241, 320, 368
-0.993098, 217, 141, 248, 172
-0.993103, 213, 173, 244, 204
-0.993111, 105, 221, 136, 252
-0.993118, 193, 169, 224, 200
-0.99312, 225, 273, 288, 304
-0.993121, 77, 161, 108, 192
-0.993124, 145, 229, 176, 260
-0.993126, 161, 189, 224, 220
-0.993129, 121, 145, 152, 176
-0.993131, 297, 129, 328, 160
-0.993135, 257, 241, 320, 272
-0.993148, 161, 233, 192, 264
-0.99315, 293, 177, 324, 208
-0.993152, 341, 245, 372, 276
-0.993159, 149, 181, 180, 212
-0.993162, 273, 273, 336, 304
-0.993168, 133, 133, 164, 164
-0.993176, 341, 185, 372, 248
-0.993177, 445, 177, 476, 208
-0.99318, 369, 189, 496, 220
-0.9932, 249, 121, 280, 152
-0.993203, 89, 225, 120, 288
-0.993206, 133, 189, 164, 220
-0.993206, 229, 141, 260, 172
-0.993216, 469, 181, 500, 212
-0.993221, 433, 233, 464, 264
-0.993224, 177, 157, 208, 188
-0.993226, 33, 221, 96, 252
-0.993233, 57, 185, 88, 216
-0.993234, 241, 141, 272, 172
-0.993235, 65, 229, 128, 260
-0.993237, 5, 177, 36, 304
-0.993238, 433, 249, 464, 280
-0.993244, 409, 273, 440, 304
-0.993245, 265, 145, 296, 176
-0.993245, 201, 149, 232, 180
-0.993248, 221, 129, 252, 160
-0.993258, 153, 125, 184, 156
-0.993262, 449, 205, 480, 236
-0.993271, 93, 201, 124, 232
-0.993273, 57, 201, 88, 232
-0.993273, 377, 221, 408, 252
-0.993276, 137, 217, 168, 248
-0.993282, 125, 265, 156, 296
-0.993284, 209, 161, 240, 192
-0.993292, 329, 241, 360, 272
-0.993292, 353, 245, 384, 276
-0.993293, 369, 197, 400, 228
-0.993297, 405, 221, 436, 252
-0.993299, 405, 173, 436, 204
-0.993311, 393, 225, 424, 256
-0.993312, 217, 253, 280, 284
-0.993312, 161, 221, 192, 252
-0.993312, 145, 265, 208, 296
-0.993315, 233, 129, 264, 160
-0.993318, 425, 173, 456, 204
-0.993322, 357, 273, 388, 336
-0.993323, 313, 273, 376, 304
-0.993324, 345, 185, 408, 216
-0.993326, 317, 241, 348, 272
-0.993326, 201, 129, 232, 160
-0.993327, 73, 141, 136, 172
-0.99333, 89, 265, 152, 296
-0.993338, 357, 209, 388, 240
-0.993344, 177, 121, 208, 152
-0.993348, 85, 237, 116, 268
-0.99336, 105, 97, 136, 224
-0.993366, 1, 177, 64, 208
-0.993371, 257, 97, 288, 224
-0.993382, 21, 177, 52, 304
-0.993398, 353, 113, 384, 240
-0.993492, 1, 209, 256, 272
-0.993515, 265, 273, 328, 336
-0.993534, 197, 113, 228, 176
-0.993542, 137, 113, 168, 176
-0.993545, 397, 233, 428, 296
-0.993548, 1, 137, 256, 200
-0.993555, 169, 137, 184, 200
-0.993623, 241, 161, 368, 192
-0.99366, 153, 1, 216, 375
-0.993677, 49, 113, 112, 240
-0.993715, 65, 185, 320, 248
-0.99373, 177, 49, 304, 176
-0.993739, 357, 145, 388, 208
-0.993753, 81, 153, 208, 184
-0.993794, 177, 193, 208, 256
-0.993804, 257, 201, 500, 264
-0.993815, 205, 249, 236, 312
-0.993823, 49, 201, 176, 232
-0.993883, 281, 1, 344, 375
-0.993887, 81, 241, 144, 368
-0.99389, 401, 113, 432, 240
-0.99392, 435, 209, 450, 272
-0.993926, 181, 105, 212, 168
-0.993952, 435, 185, 450, 248
-0.994008, 377, 1, 440, 375
-0.994032, 413, 225, 444, 352
-0.994083, 423, 193, 438, 256
-0.994087, 221, 97, 252, 224
-0.994241, 305, 281, 432, 344
-0.994256, 57, 121, 120, 184
-0.994256, 1, 193, 500, 256
-0.994299, 369, 201, 496, 232
-0.994302, 161, 173, 288, 204
-0.994313, 161, 157, 288, 188
-0.994327, 345, 273, 376, 336
-0.994332, 401, 177, 416, 240
-0.994374, 395, 177, 410, 240
-0.994386, 429, 185, 444, 248
-0.994393, 159, 137, 174, 200
-0.994413, 337, 249, 368, 312
-0.994426, 285, 193, 316, 256
-0.994438, 387, 177, 402, 240
-0.99444, 57, 129, 120, 375
-0.994448, 49, 1, 112, 375
-0.994466, 113, 133, 240, 164
-0.994481, 177, 97, 240, 160
-0.99449, 33, 189, 160, 220
-0.994503, 113, 97, 240, 160
-0.994512, 177, 129, 304, 160
-0.994523, 113, 257, 144, 320
-0.994573, 209, 273, 336, 336
-0.994582, 209, 145, 336, 176
-0.994586, 77, 217, 108, 280
-0.994619, 337, 1, 400, 375
-0.994668, 411, 177, 426, 240
-0.994681, 333, 273, 364, 336
-0.994689, 417, 129, 448, 256
-0.994715, 169, 265, 232, 328
-0.994723, 325, 97, 356, 224
-0.99474, 441, 185, 456, 248
-0.994764, 321, 173, 448, 204
-0.994768, 129, 209, 384, 272
-0.994768, 49, 113, 176, 176
-0.994781, 139, 225, 154, 288
-0.994794, 245, 145, 260, 208
-0.994803, 273, 177, 400, 208
-0.994806, 159, 201, 174, 264
-0.99481, 409, 1, 472, 375
-0.994815, 241, 1, 304, 375
-0.994832, 417, 177, 432, 240
-0.994834, 177, 129, 192, 192
-0.99484, 189, 217, 220, 280
-0.994875, 369, 273, 432, 336
-0.994912, 149, 241, 180, 368
-0.994963, 97, 249, 352, 312
-0.994967, 381, 177, 396, 240
-0.994994, 345, 33, 408, 288
-0.994995, 73, 97, 136, 224
-0.995002, 317, 249, 348, 312
-0.995037, 415, 201, 430, 264
-0.995052, 341, 161, 356, 224
-0.995058, 153, 201, 168, 264
-0.995076, 393, 201, 408, 264
-0.995083, 301, 249, 332, 312
-0.995083, 17, 129, 80, 375
-0.99509, 321, 249, 448, 280
-0.995092, 453, 225, 484, 352
-0.9951, 289, 137, 304, 200
-0.995111, 377, 153, 408, 216
-0.995124, 261, 201, 292, 264
-0.995128, 97, 205, 224, 236
-0.995137, 169, 33, 232, 288
-0.995172, 337, 137, 464, 200
-0.995182, 53, 193, 84, 320
-0.995193, 321, 273, 352, 336
-0.9952, 265, 33, 328, 288
-0.995219, 461, 129, 492, 256
-0.995227, 37, 161, 68, 224
-0.995228, 347, 161, 362, 224
-0.995253, 375, 177, 390, 240
-0.995263, 437, 233, 452, 296
-0.995273, 401, 201, 416, 264
-0.995284, 385, 257, 416, 320
-0.995287, 103, 145, 118, 208
-0.995288, 445, 217, 460, 280
-0.995298, 441, 129, 472, 256
-0.995322, 151, 137, 166, 200
-0.995396, 165, 209, 180, 272
-0.9954, 359, 169, 374, 232
-0.995414, 251, 137, 266, 200
-0.99545, 269, 225, 300, 288
-0.995467, 329, 153, 344, 216
-0.995476, 337, 97, 368, 224
-0.995494, 353, 169, 368, 232
-0.995495, 131, 161, 146, 224
-0.995498, 353, 209, 384, 336
-0.995504, 289, 33, 352, 288
-0.995571, 289, 113, 320, 176
-0.99559, 139, 193, 154, 256
-0.995591, 409, 201, 424, 264
-0.995602, 335, 153, 350, 216
-0.995603, 1, 185, 32, 248
-0.995625, 353, 213, 480, 244
-0.995631, 257, 97, 320, 160
-0.995636, 147, 225, 162, 288
-0.995642, 369, 177, 384, 240
-0.995648, 33, 213, 160, 244
-0.995658, 183, 129, 198, 192
-0.995663, 205, 137, 220, 200
-0.995694, 235, 145, 250, 208
-0.995699, 257, 137, 272, 200
-0.995709, 113, 137, 128, 200
-0.99571, 159, 161, 174, 224
-0.995712, 193, 161, 208, 224
-0.995727, 365, 249, 396, 312
-0.995731, 65, 177, 192, 208
-0.995744, 49, 209, 80, 272
-0.995761, 129, 193, 144, 256
-0.995765, 209, 177, 336, 208
-0.995769, 73, 177, 88, 240
-0.99577, 285, 217, 316, 280
-0.995774, 155, 225, 170, 288
-0.995814, 89, 193, 120, 320
-0.99584, 257, 149, 384, 180
-0.995847, 387, 201, 402, 264
-0.995872, 427, 225, 442, 288
-0.995872, 187, 161, 202, 224
-0.995879, 81, 177, 96, 240
-0.995884, 139, 249, 154, 312
-0.9959, 453, 185, 468, 248
-0.995905, 137, 153, 152, 216
-0.995921, 125, 169, 140, 232
-0.995934, 263, 137, 278, 200
-0.995936, 95, 153, 110, 216
-0.995946, 65, 141, 192, 172
-0.99595, 111, 209, 126, 272
-0.996003, 305, 1, 368, 375
-0.996008, 129, 225, 144, 288
-0.996012, 145, 201, 160, 264
-0.996019, 211, 137, 226, 200
-0.996055, 295, 145, 310, 208
-0.996067, 447, 185, 462, 248
-0.9961, 123, 201, 138, 264
-0.996102, 253, 169, 268, 232
-0.996116, 281, 145, 296, 208
-0.996124, 303, 137, 318, 200
-0.996143, 199, 161, 214, 224
-0.996147, 193, 129, 208, 192
-0.996175, 257, 225, 288, 288
-0.996177, 433, 257, 464, 320
-0.996183, 321, 185, 448, 216
-0.996194, 199, 137, 214, 200
-0.996206, 337, 237, 464, 268
-0.99621, 281, 249, 312, 312
-0.996215, 105, 169, 120, 232
-0.996224, 417, 233, 432, 296
-0.996224, 65, 245, 192, 276
-0.996232, 319, 145, 334, 208
-0.996234, 121, 129, 136, 192
-0.996237, 269, 137, 284, 200
-0.996247, 227, 145, 242, 208
-0.996247, 1, 177, 128, 208
-0.996255, 379, 209, 394, 272
-0.996258, 65, 229, 192, 260
-0.99626, 177, 241, 208, 368
-0.996266, 239, 169, 254, 232
-0.996278, 113, 253, 240, 284
-0.996303, 25, 1, 88, 375
-0.996316, 263, 161, 278, 224
-0.996325, 313, 137, 328, 200
-0.996334, 193, 129, 448, 192
-0.996336, 301, 209, 332, 272
-0.996356, 33, 165, 160, 196
-0.996359, 181, 169, 196, 232
-0.996367, 113, 161, 128, 224
-0.996367, 141, 129, 156, 192
-0.996376, 21, 185, 52, 248
-0.996412, 325, 177, 340, 240
-0.996413, 221, 137, 236, 200
-0.996421, 245, 169, 260, 232
-0.996436, 171, 209, 186, 272
-0.996438, 201, 1, 264, 375
-0.996454, 65, 169, 80, 232
-0.996464, 459, 169, 474, 232
-0.996485, 333, 177, 348, 240
-0.996486, 165, 177, 180, 240
-0.996489, 353, 269, 480, 300
-0.996492, 1, 1, 64, 375
-0.996495, 289, 161, 304, 224
-0.996501, 481, 169, 496, 232
-0.996521, 129, 129, 144, 192
-0.996525, 275, 137, 290, 200
-0.996534, 233, 97, 296, 160
-0.996541, 369, 177, 496, 208
-0.996547, 251, 113, 266, 176
-0.996547, 87, 169, 102, 232
-0.996562, 175, 169, 190, 232
-0.996576, 81, 217, 208, 248
-0.996578, 207, 161, 222, 224
-0.996619, 119, 169, 134, 232
-0.996631, 135, 129, 150, 192
-0.996633, 289, 161, 416, 192
-0.996636, 321, 201, 448, 232
-0.996645, 353, 281, 480, 344
-0.996655, 1, 249, 128, 312
-0.996664, 113, 241, 240, 272
-0.996675, 471, 169, 486, 232
-0.996679, 129, 249, 144, 312
-0.996691, 269, 169, 284, 232
-0.996725, 163, 233, 178, 296
-0.996775, 117, 201, 132, 264
-0.996778, 133, 129, 164, 375
-0.99679, 423, 169, 438, 232
-0.996792, 235, 121, 250, 184
-0.996796, 435, 257, 450, 320
-0.996797, 319, 177, 334, 240
-0.996809, 245, 121, 260, 184
-0.996815, 163, 113, 178, 176
-0.99683, 297, 169, 312, 232
-0.996833, 193, 249, 448, 312
-0.996836, 213, 161, 228, 224
-0.996865, 65, 113, 96, 240
-0.996868, 231, 169, 246, 232
-0.996891, 77, 225, 108, 352
-0.9969, 109, 129, 140, 375
-0.996913, 349, 165, 364, 196
-0.996919, 145, 249, 160, 312
-0.996926, 241, 33, 304, 288
-0.99693, 221, 161, 236, 224
-0.996945, 145, 213, 272, 244
-0.996983, 291, 185, 306, 248
-0.996986, 49, 313, 176, 375
-0.996999, 143, 153, 158, 216
-0.997001, 225, 133, 352, 164
-0.997012, 353, 225, 480, 256
-0.997015, 405, 225, 420, 288
-0.997024, 157, 249, 172, 312
-0.997046, 465, 169, 480, 232
-0.997048, 273, 253, 400, 284
-0.997066, 157, 97, 188, 352
-0.997074, 1, 233, 256, 296
-0.997075, 285, 81, 316, 208
-0.997075, 303, 177, 318, 240
-0.997079, 153, 177, 168, 240
-0.997097, 411, 233, 426, 296
-0.997098, 469, 193, 484, 256
-0.997101, 1, 201, 128, 232
-0.997134, 285, 185, 300, 248
-0.997147, 257, 241, 384, 272
-0.997148, 65, 261, 192, 292
-0.997176, 113, 185, 240, 216
-0.9972, 313, 241, 376, 368
-0.997248, 329, 169, 344, 200
-0.997249, 413, 257, 428, 288
-0.99726, 425, 249, 440, 280
-0.99727, 169, 129, 200, 375
-0.997271, 177, 1, 240, 375
-0.997285, 121, 97, 152, 352
-0.997311, 343, 161, 358, 192
-0.997322, 257, 97, 384, 160
-0.997344, 269, 81, 300, 208
-0.997351, 405, 257, 420, 288
-0.997354, 9, 209, 72, 272
-0.997375, 173, 137, 188, 168
-0.997377, 165, 137, 180, 168
-0.997387, 433, 1, 496, 375
-0.997387, 355, 173, 370, 204
-0.99739, 385, 129, 416, 375
-0.997391, 225, 241, 288, 368
-0.997398, 407, 245, 422, 276
-0.997407, 153, 229, 168, 260
-0.997408, 189, 225, 220, 352
-0.997414, 161, 161, 176, 192
-0.997432, 257, 225, 500, 288
-0.997453, 405, 129, 436, 375
-0.997465, 241, 157, 256, 188
-0.997471, 145, 129, 176, 375
-0.997479, 129, 105, 384, 168
-0.997491, 129, 121, 256, 152
-0.997502, 425, 265, 440, 296
-0.99751, 33, 153, 160, 184
-0.997515, 133, 241, 148, 272
-0.997521, 419, 257, 434, 288
-0.997527, 145, 201, 272, 232
-0.997528, 171, 169, 186, 200
-0.997544, 323, 169, 338, 200
-0.997551, 139, 229, 154, 260
-0.99756, 133, 241, 164, 368
-0.997561, 33, 225, 96, 352
-0.997571, 1, 217, 500, 280
-0.997572, 289, 217, 416, 248
-0.997576, 179, 133, 194, 164
-0.99759, 153, 241, 168, 272
-0.9976, 169, 149, 184, 180
-0.997601, 429, 233, 444, 264
-0.997604, 271, 173, 286, 204
-0.997618, 159, 145, 174, 176
-0.997645, 143, 249, 158, 280
-0.997647, 361, 173, 376, 204
-0.997677, 431, 249, 446, 280
-0.997685, 235, 157, 250, 188
-0.997691, 415, 185, 430, 216
-0.997699, 181, 129, 212, 375
-0.997705, 335, 161, 350, 192
-0.997707, 415, 233, 430, 264
-0.997716, 127, 237, 142, 268
-0.997719, 135, 201, 150, 232
-0.997727, 393, 205, 408, 236
-0.997741, 149, 149, 164, 180
-0.997742, 341, 181, 356, 212
-0.997745, 129, 257, 144, 288
-0.997754, 155, 253, 170, 284
-0.99776, 409, 185, 424, 216
-0.997766, 273, 201, 400, 232
-0.997771, 417, 245, 432, 276
-0.997771, 91, 169, 106, 200
-0.997774, 137, 253, 152, 284
-0.997778, 431, 265, 446, 296
-0.997782, 113, 229, 240, 260
-0.997782, 389, 241, 420, 368
-0.997792, 421, 129, 452, 375
-0.997803, 1, 257, 256, 320
-0.997826, 249, 161, 264, 192
-0.997828, 421, 189, 436, 220
-0.997832, 329, 153, 344, 184
-0.997833, 323, 157, 338, 188
-0.997843, 145, 201, 160, 232
-0.99785, 427, 189, 442, 220
-0.997852, 125, 201, 140, 232
-0.997859, 113, 241, 144, 368
-0.997866, 417, 269, 432, 300
-0.997867, 1, 241, 500, 304
-0.99787, 409, 233, 424, 264
-0.997886, 469, 189, 484, 220
-0.997893, 111, 165, 126, 196
-0.9979, 385, 209, 400, 240
-0.9979, 183, 173, 198, 204
-0.997904, 161, 241, 192, 368
-0.997909, 347, 181, 362, 212
-0.997928, 131, 161, 146, 192
-0.997929, 17, 257, 144, 288
-0.99793, 411, 205, 426, 236
-0.997932, 337, 129, 368, 375
-0.997933, 261, 173, 276, 204
-0.997935, 257, 273, 500, 336
-0.997937, 441, 217, 456, 248
-0.99794, 435, 237, 450, 268
-0.997944, 127, 225, 142, 256
-0.997949, 399, 201, 414, 232
-0.997955, 133, 225, 148, 256
-0.997958, 161, 253, 288, 284
-0.99796, 465, 225, 496, 352
-0.997964, 41, 241, 104, 304
-0.997965, 117, 205, 132, 236
-0.997968, 401, 245, 416, 276
-0.997968, 369, 177, 384, 208
-0.997976, 1, 313, 128, 375
-0.997977, 209, 241, 336, 272
-0.99798, 97, 105, 160, 168
-0.997989, 323, 181, 338, 212
-0.998006, 229, 153, 244, 184
-0.998026, 349, 129, 380, 375
-0.998032, 65, 129, 192, 160
-0.998036, 189, 129, 204, 160
-0.998038, 99, 153, 114, 184
-0.99804, 159, 205, 174, 236
-0.998045, 121, 233, 136, 264
-0.99805, 239, 145, 254, 176
-0.99805, 355, 161, 370, 192
-0.99805, 403, 225, 418, 256
-0.998051, 159, 237, 174, 268
-0.998055, 437, 189, 452, 220
-0.998067, 309, 129, 340, 375
-0.99808, 317, 145, 332, 176
-0.998085, 369, 257, 496, 288
-0.998085, 81, 173, 96, 204
-0.998088, 313, 33, 376, 288
-0.99809, 419, 201, 434, 232
-0.998094, 239, 173, 254, 204
-0.998098, 209, 189, 336, 220
-0.998098, 337, 161, 464, 192
-0.9981, 429, 209, 444, 240
-0.998103, 165, 209, 180, 240
-0.998108, 105, 165, 120, 196
-0.998109, 299, 133, 314, 164
-0.998109, 123, 257, 138, 288
-0.998113, 117, 165, 132, 196
-0.998113, 463, 185, 478, 216
-0.998117, 433, 129, 464, 375
-0.998118, 137, 157, 152, 188
-0.998122, 403, 185, 418, 216
-0.998124, 255, 177, 270, 208
-0.998135, 233, 173, 248, 204
-0.998142, 143, 153, 158, 184
-0.998143, 405, 201, 420, 232
-0.998148, 37, 129, 68, 256
-0.998152, 1, 225, 128, 256
-0.998154, 461, 173, 476, 204
-0.998157, 373, 129, 404, 375
-0.998158, 329, 185, 344, 216
-0.998165, 177, 117, 304, 148
-0.998167, 145, 233, 160, 264
-0.998169, 475, 189, 490, 220
-0.998172, 273, 229, 400, 260
-0.998174, 335, 181, 350, 212
-0.998181, 309, 141, 324, 172
-0.998185, 423, 237, 438, 268
-0.998195, 169, 125, 184, 156
-0.998195, 125, 161, 140, 192
-0.998196, 65, 33, 128, 288
-0.998199, 397, 233, 412, 264
-0.998204, 151, 201, 166, 232
-0.998205, 279, 133, 294, 164
-0.998208, 189, 173, 204, 204
-0.998212, 435, 209, 450, 240
-0.99822, 177, 173, 192, 204
-0.99822, 91, 157, 106, 188
-0.998221, 317, 177, 332, 208
-0.998223, 161, 249, 176, 280
-0.998231, 161, 185, 288, 216
-0.998232, 289, 129, 320, 375
-0.998242, 399, 257, 414, 288
-0.998255, 97, 169, 112, 200
-0.998258, 247, 177, 262, 208
-0.99826, 155, 169, 170, 200
-0.998261, 467, 201, 482, 232
-0.998262, 73, 181, 88, 212
-0.998268, 77, 193, 92, 224
-0.998268, 291, 133, 306, 164
-0.998273, 325, 129, 356, 375
-0.998276, 227, 165, 242, 196
-0.998277, 379, 217, 394, 248
-0.998277, 233, 141, 248, 172
-0.998278, 105, 149, 120, 180
-0.998282, 377, 173, 392, 204
-0.998284, 17, 237, 144, 268
-0.998293, 149, 253, 164, 284
-0.998296, 221, 173, 236, 204
-0.998299, 205, 241, 236, 368
-0.998323, 65, 209, 96, 336
-0.998355, 193, 169, 224, 184
-0.998356, 233, 169, 264, 184
-0.998357, 437, 251, 468, 266
-0.998357, 165, 179, 196, 194
-0.998358, 281, 151, 312, 166
-0.998359, 313, 161, 344, 176
-0.99836, 113, 215, 144, 230
-0.99836, 437, 241, 468, 256
-0.998363, 145, 173, 176, 188
-0.998363, 185, 65, 216, 192
-0.998364, 73, 191, 104, 206
-0.998364, 157, 219, 188, 234
-0.998365, 285, 129, 316, 144
-0.998365, 181, 175, 212, 190
-0.998365, 389, 265, 420, 280
-0.998366, 253, 155, 284, 170
-0.998366, 113, 207, 144, 222
-0.998367, 413, 231, 444, 246
-0.998368, 89, 181, 120, 196
-0.99837, 453, 197, 484, 212
-0.99837, 73, 173, 104, 188
-0.998371, 397, 185, 428, 200
-0.998371, 289, 141, 320, 156
-0.998372, 69, 197, 100, 212
-0.998372, 401, 233, 432, 248
-0.998373, 441, 195, 472, 210
-0.998373, 153, 213, 184, 228
-0.998374, 205, 127, 236, 142
-0.998374, 277, 179, 308, 194
-0.998376, 93, 163, 124, 178
-0.998377, 457, 205, 488, 220
-0.998378, 117, 155, 148, 170
-0.998379, 125, 227, 156, 242
-0.998379, 61, 183, 92, 198
-0.998379, 113, 259, 144, 274
-0.998379, 161, 225, 192, 240
-0.99838, 453, 189, 484, 204
-0.99838, 369, 181, 400, 196
-0.998381, 317, 171, 348, 186
-0.998381, 121, 253, 152, 268
-0.998381, 1, 113, 128, 176
-0.998382, 189, 245, 220, 260
-0.998382, 433, 233, 464, 248
-0.998384, 385, 183, 416, 198
-0.998384, 261, 185, 292, 200
-0.998384, 317, 149, 348, 164
-0.998387, 221, 153, 252, 168
-0.998389, 225, 127, 256, 142
-0.99839, 193, 127, 224, 142
-0.99839, 393, 249, 424, 264
-0.998394, 429, 265, 460, 280
-0.998395, 469, 205, 500, 220
-0.998395, 145, 265, 176, 280
-0.998396, 385, 211, 416, 226
-0.998398, 165, 157, 196, 172
-0.998398, 85, 169, 116, 184
-0.998398, 145, 273, 272, 304
-0.998399, 393, 241, 424, 256
-0.9984, 261, 179, 292, 194
-0.9984, 169, 173, 200, 188
-0.9984, 417, 207, 448, 222
-0.998402, 249, 175, 280, 190
-0.998403, 121, 239, 152, 254
-0.998405, 169, 151, 200, 166
-0.998406, 465, 191, 496, 206
-0.998406, 173, 145, 204, 160
-0.998409, 105, 235, 136, 250
-0.998412, 293, 135, 324, 150
-0.998414, 433, 257, 464, 272
-0.998414, 125, 267, 156, 282
-0.998416, 161, 273, 288, 336
-0.998418, 145, 207, 176, 222
-0.998419, 225, 253, 352, 284
-0.99842, 149, 251, 180, 266
-0.99842, 233, 157, 264, 172
-0.99842, 89, 175, 120, 190
-0.998423, 369, 175, 400, 190
-0.998425, 257, 125, 288, 140
-0.99843, 177, 135, 208, 150
-0.998432, 313, 173, 376, 188
-0.998434, 193, 133, 224, 148
-0.998438, 1, 121, 500, 184
-0.998439, 153, 131, 184, 146
-0.998439, 145, 167, 176, 182
-0.99844, 133, 161, 164, 176
-0.998441, 385, 207, 448, 222
-0.998442, 137, 201, 168, 216
-0.998445, 157, 173, 188, 188
-0.998446, 105, 169, 136, 184
-0.998446, 241, 273, 368, 304
-0.998446, 357, 171, 388, 186
-0.998447, 137, 223, 168, 238
-0.998448, 421, 253, 452, 268
-0.998449, 301, 149, 332, 164
-0.99845, 341, 169, 372, 184
-0.998452, 417, 237, 448, 252
-0.998452, 329, 173, 360, 188
-0.998456, 337, 177, 400, 192
-0.998457, 245, 123, 276, 138
-0.998458, 125, 203, 156, 218
-0.998458, 209, 33, 272, 288
-0.998459, 113, 163, 176, 178
-0.99846, 145, 259, 176, 274
-0.998461, 169, 135, 232, 150
-0.998461, 413, 271, 444, 286
-0.998463, 269, 131, 300, 146
-0.998464, 301, 143, 332, 158
-0.998469, 281, 135, 312, 150
-0.998469, 73, 179, 104, 194
-0.998469, 405, 203, 436, 218
-0.99847, 117, 247, 148, 262
-0.998471, 245, 129, 276, 375
-0.998471, 153, 143, 216, 158
-0.998474, 325, 159, 356, 174
-0.998475, 113, 205, 176, 220
-0.998476, 425, 243, 456, 258
-0.998477, 401, 263, 432, 278
-0.998478, 465, 199, 496, 214
-0.998478, 145, 237, 176, 252
-0.998479, 329, 183, 360, 198
-0.998479, 137, 247, 168, 262
-0.998486, 121, 133, 184, 148
-0.998487, 401, 269, 432, 284
-0.998487, 417, 259, 448, 274
-0.998488, 145, 153, 176, 168
-0.998488, 261, 129, 292, 375
-0.998492, 313, 155, 344, 170
-0.998493, 341, 183, 372, 198
-0.998494, 121, 163, 152, 178
-0.998494, 141, 231, 172, 246
-0.998498, 449, 129, 480, 375
-0.998498, 133, 255, 164, 270
-0.998498, 393, 205, 424, 220
-0.998499, 161, 141, 192, 156
-0.998499, 145, 151, 208, 166
-0.9985, 405, 247, 436, 262
-0.998501, 173, 129, 204, 144
-0.998506, 125, 233, 156, 248
-0.998507, 313, 181, 344, 196
-0.998507, 165, 135, 196, 150
-0.998508, 405, 239, 436, 254
-0.998515, 405, 257, 436, 272
-0.998516, 273, 179, 336, 194
-0.998516, 225, 121, 352, 152
-0.998517, 153, 147, 184, 162
-0.998519, 417, 265, 448, 280
-0.998525, 133, 261, 164, 276
-0.998528, 157, 165, 188, 180
-0.99853, 1, 129, 32, 256
-0.998532, 297, 159, 360, 174
-0.998534, 273, 153, 336, 168
-0.998535, 113, 239, 176, 254
-0.998536, 401, 225, 464, 240
-0.998538, 357, 177, 388, 192
-0.99854, 113, 157, 176, 172
-0.99854, 137, 237, 200, 252
-0.998541, 153, 159, 216, 174
-0.998542, 385, 255, 448, 270
-0.998543, 113, 247, 176, 262
-0.998544, 193, 213, 320, 244
-0.998545, 417, 201, 480, 216
-0.998546, 145, 247, 208, 262
-0.998547, 153, 165, 216, 180
-0.998548, 113, 255, 176, 270
-0.998549, 169, 175, 232, 190
-0.99855, 385, 263, 448, 278
-0.998554, 233, 157, 296, 172
-0.998554, 313, 167, 376, 182
-0.998555, 145, 129, 208, 144
-0.998555, 49, 177, 112, 192
-0.998558, 361, 249, 424, 264
-0.998558, 433, 187, 496, 202
-0.998559, 89, 169, 152, 184
-0.998562, 89, 237, 152, 252
-0.998562, 345, 175, 376, 190
-0.998563, 225, 125, 288, 140
-0.998566, 385, 241, 448, 256
-0.998566, 121, 151, 184, 166
-0.998567, 313, 183, 376, 198
-0.998569, 81, 175, 144, 190
-0.998571, 257, 133, 320, 148
-0.998573, 385, 233, 448, 248
-0.998575, 133, 239, 164, 254
-0.998575, 233, 129, 264, 375
-0.998576, 129, 143, 192, 158
-0.998578, 385, 271, 448, 286
-0.998582, 361, 129, 392, 375
-0.998583, 89, 155, 152, 170
-0.998584, 145, 171, 208, 186
-0.998584, 409, 195, 472, 210
-0.998584, 433, 207, 496, 222
-0.998585, 169, 149, 232, 164
-0.998587, 193, 127, 256, 142
-0.998587, 369, 183, 432, 198
-0.998587, 273, 147, 336, 162
-0.998591, 233, 131, 296, 146
-0.998592, 417, 181, 480, 196
-0.998593, 409, 245, 472, 260
-0.998593, 369, 223, 432, 238
-0.998598, 177, 243, 240, 258
-0.9986, 361, 229, 424, 244
-0.9986, 113, 169, 176, 184
-0.998601, 409, 231, 472, 246
-0.998602, 89, 255, 152, 270
-0.998603, 105, 145, 168, 160
-0.998603, 233, 151, 296, 166
-0.998604, 233, 173, 296, 188
-0.998605, 193, 155, 256, 170
-0.998606, 169, 129, 232, 144
-0.998606, 273, 161, 336, 176
-0.998608, 113, 233, 176, 248
-0.998608, 97, 263, 160, 278
-0.998609, 297, 153, 360, 168
-0.99861, 385, 249, 448, 264
-0.998611, 121, 261, 184, 276
-0.998619, 257, 173, 320, 188
-0.99862, 417, 265, 480, 280
-0.99862, 145, 137, 208, 152
-0.998621, 393, 189, 456, 204
-0.998621, 65, 205, 128, 220
-0.998623, 289, 167, 352, 182
-0.998625, 425, 259, 488, 274
-0.998626, 153, 253, 216, 268
-0.998627, 161, 213, 224, 228
-0.998628, 193, 133, 256, 148
-0.998628, 401, 219, 464, 234
-0.998629, 361, 177, 424, 192
-0.998629, 209, 169, 272, 184
-0.998629, 81, 161, 144, 176
-0.998629, 121, 267, 184, 282
-0.99863, 193, 175, 256, 190
-0.998632, 65, 169, 128, 184
-0.998633, 273, 141, 336, 156
-0.998633, 361, 239, 424, 254
-0.998634, 57, 241, 120, 256
-0.998637, 81, 187, 144, 202
-0.998637, 233, 163, 296, 178
-0.998638, 185, 169, 248, 184
-0.998638, 433, 193, 496, 208
-0.998638, 105, 219, 168, 234
-0.998639, 329, 165, 360, 180
-0.998639, 169, 49, 232, 176
-0.998641, 177, 249, 240, 264
-0.998641, 81, 245, 144, 260
-0.998641, 393, 179, 456, 194
-0.998641, 129, 225, 192, 240
-0.998641, 289, 173, 352, 188
-0.998642, 369, 217, 432, 232
-0.998643, 81, 231, 144, 246
-0.998644, 409, 237, 472, 252
-0.998645, 49, 183, 112, 198
-0.998645, 233, 145, 296, 160
-0.998648, 249, 179, 312, 194
-0.998648, 337, 171, 400, 186
-0.99865, 377, 201, 440, 216
-0.998652, 129, 211, 192, 226
-0.998652, 105, 213, 168, 228
-0.998653, 105, 139, 168, 154
-0.998654, 113, 199, 176, 214
-0.998654, 417, 251, 480, 266
-0.998655, 73, 181, 136, 196
-0.998656, 57, 211, 120, 226
-0.998656, 401, 213, 464, 228
-0.998657, 281, 247, 344, 262
-0.99866, 25, 175, 88, 190
-0.998661, 321, 247, 384, 262
-0.998661, 257, 167, 320, 182
-0.998662, 177, 141, 240, 156
-0.998662, 41, 189, 104, 204
-0.998663, 337, 183, 400, 198
-0.998663, 73, 199, 136, 214
-0.998663, 201, 245, 264, 260
-0.998664, 129, 217, 192, 232
-0.998667, 193, 149, 256, 164
-0.998668, 145, 259, 208, 274
-0.998668, 137, 231, 200, 246
-0.998669, 217, 179, 280, 194
-0.998675, 193, 273, 320, 304
-0.998683, 305, 273, 432, 304
-0.998692, 77, 129, 108, 256
-0.998699, 273, 129, 304, 375
-0.998716, 129, 273, 384, 336
-0.998717, 217, 129, 248, 375
-0.998737, 257, 189, 384, 220
-0.998741, 337, 129, 400, 192
-0.998753, 289, 137, 416, 168
-0.998763, 197, 129, 228, 375
-0.998763, 395, 161, 410, 288
-0.998768, 161, 233, 288, 264
-0.998773, 147, 129, 162, 256
-0.998781, 169, 129, 184, 256
-0.998787, 305, 149, 432, 180
-0.998792, 155, 177, 170, 304
-0.998812, 403, 177, 418, 304
-0.99882, 125, 145, 140, 272
-0.998822, 389, 161, 404, 288
-0.998825, 139, 145, 154, 272
-0.998853, 167, 193, 182, 320
-0.998858, 417, 177, 432, 304
-0.998878, 425, 177, 440, 304
-0.998895, 17, 141, 144, 172
-0.998897, 383, 177, 398, 304
-0.998905, 131, 145, 146, 272
-0.998907, 257, 105, 500, 168
-0.998911, 461, 129, 492, 375
-0.998913, 225, 201, 352, 232
-0.998914, 177, 113, 192, 240
-0.998926, 117, 145, 132, 272
-0.998927, 159, 129, 174, 256
-0.998953, 17, 313, 80, 375
-0.998964, 325, 145, 340, 272
-0.998986, 125, 193, 140, 320
-0.998987, 377, 193, 392, 320
-0.99902, 339, 145, 354, 272
-0.999023, 115, 193, 130, 320
-0.999032, 97, 129, 128, 375
-0.999037, 377, 145, 392, 272
-0.999054, 411, 177, 426, 304
-0.999057, 347, 145, 362, 272
-0.999065, 369, 161, 384, 288
-0.999077, 353, 145, 368, 272
-0.999081, 437, 193, 452, 320
-0.999105, 457, 177, 472, 304
-0.999112, 243, 145, 258, 272
-0.999115, 257, 297, 384, 360
-0.999121, 81, 117, 208, 148
-0.999121, 431, 177, 446, 304
-0.999126, 445, 177, 460, 304
-0.99914, 111, 145, 126, 272
-0.99914, 363, 161, 378, 288
-0.999152, 113, 1, 176, 256
-0.999156, 331, 145, 346, 272
-0.999172, 153, 129, 168, 256
-0.999174, 161, 177, 176, 304
-0.999178, 131, 193, 146, 320
-0.999189, 251, 145, 266, 272
-0.999189, 173, 193, 188, 320
-0.999191, 319, 145, 334, 272
-0.999203, 109, 193, 124, 320
-0.999204, 97, 273, 224, 304
-0.999211, 143, 193, 158, 320
-0.999221, 241, 213, 368, 244
-0.999232, 113, 313, 240, 375
-0.999242, 161, 225, 176, 352
-0.999246, 469, 177, 484, 304
-0.999247, 183, 129, 198, 256
-0.999251, 149, 177, 164, 304
-0.999267, 105, 145, 120, 272
-0.999274, 237, 145, 252, 272
-0.999275, 183, 177, 198, 304
-0.999277, 141, 97, 156, 224
-0.999287, 257, 161, 272, 288
-0.999296, 383, 129, 398, 256
-0.999302, 263, 145, 278, 272
-0.999312, 25, 129, 56, 256
-0.999316, 85, 129, 116, 375
-0.999317, 133, 97, 148, 224
-0.999318, 269, 145, 284, 272
-0.99932, 463, 161, 478, 288
-0.999323, 451, 177, 466, 304
-0.999327, 209, 285, 336, 316
-0.99933, 369, 281, 496, 312
-0.999349, 125, 97, 140, 224
-0.99935, 1, 113, 256, 176
-0.999356, 145, 33, 176, 288
-0.999358, 99, 145, 114, 272
-0.999362, 427, 225, 442, 352
-0.999366, 189, 113, 204, 240
-0.999369, 65, 145, 80, 272
-0.999371, 287, 129, 302, 256
-0.999375, 303, 145, 318, 272
-0.999378, 393, 33, 456, 288
-0.99938, 137, 193, 152, 320
-0.999384, 353, 193, 368, 320
-0.999384, 371, 209, 386, 336
-0.999387, 275, 145, 290, 272
-0.999394, 391, 113, 406, 240
-0.999396, 281, 129, 296, 256
-0.999399, 293, 129, 308, 256
-0.999399, 395, 209, 410, 336
-0.999399, 81, 161, 96, 288
-0.999401, 403, 129, 418, 256
-0.999406, 225, 113, 240, 240
-0.999408, 309, 145, 324, 272
-0.999413, 97, 313, 160, 375
-0.999415, 421, 241, 436, 368
-0.99942, 345, 193, 360, 320
-0.999423, 71, 145, 86, 272
-0.999427, 475, 193, 490, 320
-0.999429, 333, 193, 348, 320
-0.999432, 17, 125, 144, 156
-0.999432, 247, 97, 262, 224
-0.999439, 231, 145, 246, 272
-0.99944, 251, 193, 266, 320
-0.999441, 173, 33, 204, 288
-0.999441, 315, 209, 330, 336
-0.999442, 433, 281, 496, 344
-0.999443, 305, 209, 320, 336
-0.999444, 191, 161, 206, 288
-0.99945, 327, 193, 342, 320
-0.999451, 17, 269, 144, 300
-0.999456, 219, 113, 234, 240
-0.999459, 299, 209, 314, 336
-0.999462, 197, 161, 212, 288
-0.999463, 53, 129, 84, 375
-0.999467, 245, 193, 260, 320
-0.999471, 207, 113, 222, 240
-0.999474, 359, 113, 374, 240
-0.999474, 269, 193, 284, 320
-0.999475, 195, 113, 210, 240
-0.99948, 413, 225, 428, 352
-0.999486, 201, 113, 216, 240
-0.999487, 449, 225, 464, 352
-0.999489, 321, 209, 336, 336
-0.999491, 289, 193, 304, 320
-0.999494, 213, 193, 228, 320
-0.999496, 397, 113, 412, 240
-0.999499, 235, 193, 250, 320
-0.999499, 223, 193, 238, 320
-0.999501, 479, 145, 494, 272
-0.999503, 409, 129, 424, 256
-0.999503, 241, 97, 256, 224
-0.999504, 339, 193, 354, 320
-0.999504, 275, 193, 290, 320
-0.999523, 155, 225, 170, 352
-0.999525, 229, 193, 244, 320
-0.999527, 65, 129, 96, 375
-0.999528, 113, 341, 240, 372
-0.999528, 179, 225, 194, 352
-0.999528, 283, 209, 298, 336
-0.999532, 213, 113, 228, 240
-0.999537, 55, 177, 70, 304
-0.999538, 257, 113, 272, 240
-0.999539, 263, 193, 278, 320
-0.99954, 207, 193, 222, 320
-0.999545, 147, 81, 162, 208
-0.999546, 235, 97, 250, 224
-0.999553, 331, 97, 346, 224
-0.999555, 389, 209, 404, 336
-0.999558, 1, 177, 16, 304
-0.99956, 17, 177, 32, 304
-0.999563, 103, 193, 118, 320
-0.999564, 419, 129, 434, 256
-0.999564, 455, 225, 470, 352
-0.999565, 9, 177, 24, 304
-0.999565, 89, 177, 104, 304
-0.999578, 129, 221, 144, 236
-0.999578, 185, 245, 200, 260
-0.999579, 139, 199, 154, 214
-0.99958, 147, 201, 162, 216
-0.999582, 417, 203, 432, 218
-0.999582, 329, 173, 344, 188
-0.999584, 413, 263, 428, 278
-0.999585, 119, 209, 134, 224
-0.999585, 485, 195, 500, 210
-0.999586, 407, 203, 422, 218
-0.999586, 289, 125, 416, 156
-0.999588, 143, 227, 158, 242
-0.999588, 147, 153, 162, 168
-0.999589, 433, 211, 448, 226
-0.99959, 161, 235, 176, 250
-0.99959, 249, 123, 264, 138
-0.99959, 423, 205, 438, 220
-0.99959, 141, 157, 156, 172
-0.999591, 235, 155, 250, 170
-0.999592, 413, 227, 428, 242
-0.999597, 401, 205, 416, 220
-0.999597, 279, 131, 294, 146
-0.999597, 197, 129, 212, 144
-0.999598, 155, 171, 170, 186
-0.999599, 273, 129, 288, 144
-0.999599, 435, 257, 450, 272
-0.999599, 125, 205, 140, 220
-0.999599, 159, 145, 174, 160
-0.9996, 159, 253, 174, 268
-0.999601, 77, 183, 92, 198
-0.999601, 367, 179, 382, 194
-0.999601, 189, 129, 204, 144
-0.999601, 403, 229, 418, 244
-0.999605, 373, 173, 388, 188
-0.999605, 387, 211, 402, 226
-0.999606, 169, 155, 184, 170
-0.999608, 153, 263, 168, 278
-0.999608, 401, 249, 416, 264
-0.999609, 171, 179, 186, 194
-0.999609, 419, 233, 434, 248
-0.999612, 403, 241, 418, 256
-0.999612, 475, 201, 490, 216
-0.999614, 243, 153, 258, 168
-0.999615, 153, 149, 168, 164
-0.999616, 165, 131, 180, 146
-0.999616, 331, 167, 346, 182
-0.999616, 409, 233, 424, 248
-0.999618, 419, 261, 434, 276
-0.999618, 123, 247, 138, 262
-0.999619, 287, 133, 302, 148
-0.999621, 435, 243, 450, 258
-0.999621, 133, 263, 148, 278
-0.999621, 135, 161, 150, 176
-0.999623, 397, 241, 412, 256
-0.999624, 167, 163, 182, 178
-0.999624, 117, 165, 132, 180
-0.999625, 351, 167, 366, 182
-0.999625, 137, 223, 152, 238
-0.999626, 409, 243, 424, 258
-0.999626, 293, 135, 308, 150
-0.999626, 321, 151, 336, 166
-0.999626, 269, 179, 284, 194
-0.999626, 435, 233, 450, 248
-0.999626, 323, 171, 338, 186
-0.999627, 327, 151, 342, 166
-0.999628, 189, 135, 204, 150
-0.999628, 127, 263, 142, 278
-0.999628, 307, 143, 322, 158
-0.999629, 125, 257, 140, 272
-0.99963, 155, 233, 170, 248
-0.99963, 145, 237, 160, 252
-0.999631, 321, 181, 336, 196
-0.999632, 395, 207, 410, 222
-0.999633, 425, 271, 440, 286
-0.999633, 341, 183, 356, 198
-0.999634, 131, 239, 146, 254
-0.999634, 173, 149, 188, 164
-0.999634, 165, 173, 180, 188
-0.999635, 401, 261, 416, 276
-0.999635, 171, 173, 186, 188
-0.999635, 341, 161, 356, 176
-0.999636, 255, 123, 270, 138
-0.999637, 469, 199, 484, 214
-0.999638, 379, 175, 394, 190
-0.999639, 139, 241, 154, 256
-0.999639, 209, 229, 336, 260
-0.99964, 147, 221, 162, 236
-0.999642, 419, 247, 434, 262
-0.999643, 179, 131, 194, 146
-0.999645, 127, 165, 142, 180
-0.999646, 331, 179, 346, 194
-0.999646, 179, 141, 194, 156
-0.999647, 409, 253, 424, 268
-0.999647, 423, 253, 438, 268
-0.99965, 431, 265, 446, 280
-0.999651, 301, 137, 316, 152
-0.999656, 147, 263, 162, 278
-0.999656, 129, 227, 144, 242
-0.999657, 407, 265, 422, 280
-0.999657, 329, 157, 344, 172
-0.999657, 153, 257, 168, 272
-0.99966, 129, 245, 144, 260
-0.999661, 415, 255, 430, 270
-0.999664, 137, 251, 152, 266
-0.999665, 417, 241, 432, 256
-0.999666, 135, 233, 150, 248
-0.999669, 423, 239, 438, 254
-0.999669, 315, 147, 330, 162
-0.999671, 137, 257, 152, 272
-0.999676, 165, 141, 180, 156
-0.999678, 125, 237, 140, 252
-0.99968, 429, 257, 444, 272
-0.999685, 185, 33, 216, 288
-0.99969, 425, 265, 440, 280
-0.999695, 81, 177, 96, 192
-0.999696, 429, 245, 444, 260
-0.999696, 149, 231, 164, 246
-0.999697, 335, 161, 350, 176
-0.999697, 145, 245, 160, 260
-0.999699, 131, 255, 146, 270
-0.999702, 361, 175, 376, 190
-0.999703, 345, 167, 360, 182
-0.999704, 415, 269, 430, 284
-0.999706, 141, 263, 156, 278
-0.999707, 407, 259, 422, 274
-0.999709, 155, 239, 170, 254
-0.999723, 147, 253, 162, 268
-0.999724, 155, 227, 170, 242
-0.999725, 159, 165, 174, 180
-0.999731, 121, 49, 184, 176
-0.999744, 429, 237, 444, 252
-0.999747, 173, 135, 188, 150
-0.999757, 351, 173, 366, 188
-0.999767, 155, 247, 170, 262
-0.999776, 305, 33, 336, 288
-0.999788, 1, 273, 128, 336
-0.999829, 285, 33, 316, 288
-0.999833, 17, 329, 144, 360
-0.999834, 21, 129, 52, 375
-0.999837, 369, 293, 496, 324
-0.999843, 65, 341, 192, 372
-0.999853, 329, 33, 360, 288
-0.999865, 5, 129, 36, 375
-0.999868, 321, 285, 448, 316
-0.999917, 49, 289, 176, 352
-0.999918, 241, 109, 368, 140
-0.999924, 41, 313, 104, 375
-0.999924, 133, 33, 164, 288
-0.999934, 157, 1, 188, 256
-0.999938, 161, 345, 288, 375
-0.999941, 41, 129, 72, 375
-0.999949, 241, 273, 304, 336
-0.999967, 257, 285, 384, 316
-0.999976, 1, 341, 128, 372
-1.00001, 161, 313, 288, 375
-1.00002, 57, 265, 120, 328
-1.00003, 241, 33, 272, 288
-1.00005, 269, 33, 300, 288
-1.00005, 209, 341, 336, 372
-1.00006, 257, 33, 288, 288
-1.00006, 13, 129, 44, 256
-1.00008, 1, 317, 128, 348
-1.00009, 161, 289, 288, 320
-1.0001, 229, 33, 260, 288
-1.00012, 109, 33, 140, 288
-1.00013, 417, 33, 480, 288
-1.00016, 357, 33, 388, 288
-1.00016, 197, 33, 228, 288
-1.00017, 217, 33, 248, 288
-1.00018, 129, 329, 256, 360
-1.00018, 405, 33, 436, 288
-1.0002, 97, 33, 128, 288
-1.00021, 65, 305, 192, 336
-1.00021, 389, 33, 420, 288
-1.00022, 1, 313, 256, 375
-1.00023, 233, 241, 264, 368
-1.00023, 121, 1, 152, 256
-1.00023, 129, 109, 256, 140
-1.00023, 177, 305, 304, 336
-1.00026, 177, 329, 304, 360
-1.00026, 89, 33, 152, 288
-1.00028, 369, 97, 400, 224
-1.00028, 225, 49, 480, 176
-1.00028, 329, 241, 360, 368
-1.00028, 365, 241, 396, 368
-1.00029, 113, 297, 240, 328
-1.0003, 1, 1, 500, 128
-1.00031, 425, 33, 456, 288
-1.00032, 313, 113, 376, 176
-1.00034, 369, 33, 400, 288
-1.00035, 33, 113, 160, 144
-1.00036, 305, 305, 432, 368
-1.00037, 225, 329, 352, 360
-1.00039, 453, 33, 484, 288
-1.0004, 217, 241, 248, 368
-1.0004, 65, 329, 192, 360
-1.00041, 441, 33, 472, 288
-1.00043, 45, 33, 76, 288
-1.00043, 17, 305, 144, 336
-1.00046, 241, 317, 368, 348
-1.00047, 113, 313, 240, 344
-1.00048, 113, 285, 240, 316
-1.00049, 317, 33, 348, 288
-1.0005, 17, 241, 80, 304
-1.00052, 321, 297, 448, 328
-1.00053, 113, 289, 240, 352
-1.00053, 1, 281, 128, 312
-1.00057, 65, 317, 192, 348
-1.00058, 1, 265, 500, 328
-1.00058, 289, 309, 416, 340
-1.00059, 353, 149, 480, 180
-1.0006, 345, 33, 376, 288
-1.0006, 369, 333, 496, 364
-1.00061, 273, 329, 400, 360
-1.00061, 65, 33, 96, 288
-1.00062, 177, 317, 304, 348
-1.00063, 73, 97, 136, 160
-1.00063, 241, 297, 368, 328
-1.00063, 257, 341, 384, 372
-1.00067, 17, 293, 144, 324
-1.00069, 209, 273, 272, 336
-1.0007, 321, 325, 448, 356
-1.0007, 209, 313, 336, 375
-1.00071, 97, 313, 352, 375
-1.00072, 321, 341, 448, 372
-1.00073, 177, 81, 304, 144
-1.00074, 465, 33, 496, 288
-1.00075, 337, 137, 464, 168
-1.00075, 5, 33, 36, 288
-1.00077, 369, 313, 496, 344
-1.00077, 193, 297, 448, 360
-1.00079, 49, 281, 176, 312
-1.00079, 17, 33, 48, 288
-1.00082, 409, 137, 472, 200
-1.00082, 369, 1, 496, 32
-1.00086, 33, 33, 64, 288
-1.00086, 65, 293, 192, 324
-1.00089, 193, 105, 320, 136
-1.0009, 341, 241, 372, 368
-1.00093, 369, 13, 496, 44
-1.00099, 369, 345, 496, 375
-1.00101, 73, 313, 136, 375
-1.00104, 209, 65, 240, 192
-1.00104, 353, 305, 480, 368
-1.00105, 77, 33, 108, 288
-1.00112, 1, 89, 256, 152
-1.00114, 1, 289, 256, 352
-1.00117, 101, 241, 132, 368
-1.00131, 225, 81, 480, 144
-1.00147, 121, 313, 184, 375
-1.00159, 269, 241, 300, 368
-1.00159, 49, 89, 176, 152
-1.00166, 329, 297, 392, 360
-1.00179, 129, 81, 384, 144
-1.00191, 173, 49, 204, 176
-1.00193, 257, 41, 500, 104
-1.00195, 1, 17, 256, 80
-1.00195, 97, 17, 352, 80
-1.002, 1, 305, 500, 368
-1.00202, 309, 241, 340, 368
-1.00204, 369, 33, 432, 288
-1.00205, 305, 297, 368, 360
-1.00206, 193, 1, 448, 64
-1.00208, 81, 33, 208, 160
-1.00212, 65, 57, 320, 120
-1.00212, 161, 57, 416, 120
-1.00215, 85, 81, 116, 208
-1.00219, 33, 49, 160, 176
-1.00253, 89, 241, 120, 368
-1.00254, 369, 1, 496, 64
-1.0026, 33, 265, 96, 328
-1.00262, 81, 17, 208, 80
-1.00262, 129, 17, 256, 80
-1.00264, 305, 97, 432, 160
-1.00264, 49, 97, 80, 224
-1.00267, 249, 241, 280, 368
-1.0027, 197, 65, 228, 192
-1.00271, 1, 241, 32, 368
-1.00276, 177, 1, 304, 64
-1.00276, 321, 1, 448, 64
-1.00276, 369, 49, 496, 112
-1.00276, 369, 73, 496, 136
-1.00277, 9, 33, 72, 288
-1.00287, 145, 305, 208, 368
-1.00288, 353, 25, 480, 88
-1.0029, 137, 49, 168, 176
-1.00291, 225, 9, 352, 72
-1.00291, 273, 9, 400, 72
-1.00291, 33, 17, 160, 80
-1.00291, 177, 33, 304, 96
-1.00291, 225, 33, 352, 96
-1.00291, 273, 33, 400, 96
-1.00291, 33, 41, 160, 104
-1.00291, 321, 49, 448, 112
-1.00291, 81, 57, 208, 120
-1.00291, 129, 57, 256, 120
-1.00291, 177, 57, 304, 120
-1.00291, 225, 57, 352, 120
-1.00291, 273, 57, 400, 120
-1.00291, 1, 65, 128, 128
-1.00291, 321, 73, 448, 136
-1.00291, 369, 97, 496, 160
-1.00299, 1, 97, 500, 160
-1.00315, 1, 225, 64, 352
-1.00321, 429, 113, 460, 240
-1.00331, 53, 241, 84, 368
-1.00334, 281, 297, 344, 360
-1.00355, 249, 241, 312, 368
-1.00356, 9, 137, 72, 200
-1.00363, 113, 289, 176, 352
-1.0037, 73, 289, 136, 352
-1.00372, 1, 57, 500, 120
-1.00372, 385, 137, 448, 200
-1.00383, 1, 33, 500, 96
-1.00389, 281, 97, 344, 160
-1.00391, 1, 1, 500, 64
-1.00396, 393, 281, 456, 344
-1.00397, 37, 241, 68, 368
-1.00398, 33, 33, 96, 288
-1.00407, 125, 49, 156, 176
-1.0041, 1, 89, 128, 152
-1.00411, 13, 241, 44, 368
-1.00414, 377, 241, 408, 368
-1.00425, 1, 289, 64, 352
-1.0044, 193, 313, 256, 375
-1.00442, 225, 49, 288, 176
-1.00447, 353, 297, 416, 360
-1.00453, 41, 289, 104, 352
-1.00468, 233, 305, 296, 368
-1.00478, 25, 225, 56, 352
-1.00523, 225, 49, 256, 176
-1.00535, 305, 65, 432, 192
-1.00541, 169, 305, 232, 368
-1.00558, 297, 49, 328, 176
-1.0056, 369, 81, 496, 208
-1.0058, 257, 297, 320, 360
-1.00582, 101, 49, 132, 176
-1.00631, 381, 81, 412, 208
-1.00636, 361, 81, 424, 208
-1.00639, 257, 49, 384, 176
-1.00714, 289, 49, 352, 176
-1.00738, 129, 33, 256, 160
-1.00846, 369, 1, 496, 128
-1.00855, 193, 33, 256, 160
-1.00914, 97, 1, 352, 128
-1.00942, 425, 81, 488, 208
-1.01002, 1, 1, 128, 128
-1.01074, 321, 1, 448, 128
-1.01085, 249, 33, 312, 160
-1.01131, 73, 49, 136, 176
-1.01135, 1, 17, 256, 144
-1.01145, 209, 1, 336, 128
-1.01164, 49, 65, 112, 192
-1.01165, 393, 81, 456, 208
-1.012, 257, 1, 500, 128
-1.01218, 273, 1, 400, 128
-1.01238, 25, 81, 88, 208
-1.01293, 433, 1, 496, 128
-1.01293, 145, 17, 208, 144
-1.01398, 337, 65, 400, 192
-1.01406, 369, 1, 432, 128
-1.01406, 393, 1, 456, 128
-1.01442, 33, 1, 96, 128
-1.01442, 57, 1, 120, 128
-1.01467, 97, 33, 160, 160
-1.01478, 321, 1, 384, 128
-1.01478, 9, 17, 72, 144
-1.01478, 345, 17, 408, 144
-1.01488, 1, 81, 64, 208
-1.01568, 281, 1, 344, 128
-1.01611, 313, 49, 376, 176
-1.01707, 121, 1, 184, 128
-1.01737, 225, 1, 288, 128
-1.01883, 169, 1, 232, 128
