1882
-0.413688, 1, 1, 500, 334
-0.430592, 1, 1, 500, 256
-0.517878, 1, 1, 256, 334
-0.563553, 97, 1, 352, 334
-0.616676, 225, 1, 480, 334
-0.631188, 97, 33, 352, 288
-0.678299, 1, 33, 256, 288
-0.744993, 257, 65, 500, 320
-0.86792, 1, 1, 128, 334
-0.870733, 33, 1, 160, 256
-0.871145, 193, 1, 320, 334
-0.881704, 81, 65, 208, 320
-0.884294, 81, 1, 208, 334
-0.886446, 193, 33, 320, 288
-0.887465, 129, 33, 256, 288
-0.889916, 145, 1, 272, 334
-0.897779, 241, 1, 368, 334
-0.900231, 305, 65, 432, 320
-0.903344, 1, 145, 500, 272
-0.904774, 1, 209, 500, 334
-0.911314, 1, 17, 500, 144
-0.911332, 337, 1, 464, 334
-0.915427, 241, 1, 368, 256
-0.92402, 353, 65, 480, 320
-0.925391, 1, 65, 500, 192
-0.925759, 33, 65, 288, 192
-0.934748, 33, 1, 288, 128
-0.935401, 33, 209, 288, 334
-0.935496, 289, 1, 416, 334
-0.939754, 1, 49, 128, 176
-0.942816, 49, 49, 112, 176
-0.943298, 129, 209, 384, 334
-0.943859, 65, 65, 192, 192
-0.945088, 161, 129, 416, 256
-0.945453, 1, 161, 256, 288
-0.947062, 257, 161, 500, 288
-0.947389, 1, 1, 128, 128
-0.948515, 9, 49, 72, 176
-0.949759, 161, 49, 416, 176
-0.950468, 73, 49, 136, 176
-0.952401, 65, 113, 320, 240
-0.952463, 49, 17, 176, 144
-0.953896, 1, 97, 128, 224
-0.954298, 97, 193, 224, 320
-0.954415, 25, 1, 88, 128
-0.954469, 257, 97, 500, 224
-0.955493, 41, 97, 104, 160
-0.95678, 33, 97, 96, 224
-0.95734, 97, 1, 160, 128
-0.958782, 177, 1, 240, 128
-0.959247, 225, 209, 480, 334
-0.959452, 65, 97, 128, 160
-0.959923, 121, 65, 184, 192
-0.960494, 9, 97, 72, 224
-0.961306, 225, 1, 480, 128
-0.961438, 129, 1, 384, 128
-0.961581, 321, 113, 448, 240
-0.961826, 353, 97, 416, 224
-0.962794, 73, 1, 136, 128
-0.963143, 177, 225, 240, 288
-0.963341, 129, 65, 256, 192
-0.963547, 1, 177, 128, 304
-0.96407, 273, 113, 336, 240
-0.964101, 89, 121, 152, 184
-0.964392, 97, 49, 160, 176
-0.964429, 113, 121, 176, 184
-0.964943, 145, 1, 272, 128
-0.965085, 233, 33, 296, 160
-0.965175, 177, 65, 304, 192
-0.965468, 161, 145, 288, 272
-0.965473, 65, 65, 128, 128
-0.965694, 49, 209, 112, 334
-0.96643, 161, 209, 288, 334
-0.966554, 49, 209, 176, 334
-0.966865, 65, 97, 128, 224
-0.967061, 145, 65, 208, 192
-0.967364, 1, 1, 64, 128
-0.967397, 257, 1, 320, 128
-0.967579, 137, 209, 200, 272
-0.967583, 121, 129, 184, 256
-0.967683, 25, 57, 88, 120
-0.967875, 321, 129, 384, 256
-0.968063, 81, 129, 208, 256
-0.968843, 97, 97, 160, 160
-0.969865, 49, 161, 112, 288
-0.969946, 161, 177, 224, 304
-0.970235, 241, 129, 368, 256
-0.970294, 9, 105, 72, 168
-0.970373, 169, 49, 232, 176
-0.97046, 353, 97, 416, 160
-0.97077, 225, 1, 352, 128
-0.970819, 81, 265, 144, 328
-0.970896, 161, 113, 224, 176
-0.971047, 73, 209, 136, 334
-0.971152, 129, 81, 192, 144
-0.971453, 89, 1, 152, 256
-0.971641, 273, 129, 336, 192
-0.971724, 137, 113, 200, 176
-0.971771, 241, 209, 368, 334
-0.97182, 121, 145, 184, 208
-0.972002, 113, 185, 176, 248
-0.972281, 69, 97, 100, 160
-0.972534, 89, 73, 152, 136
-0.97269, 297, 193, 360, 320
-0.97282, 201, 81, 264, 208
-0.973098, 137, 193, 200, 320
-0.973146, 97, 17, 224, 144
-0.973285, 185, 209, 248, 334
-0.973581, 89, 97, 152, 224
-0.973754, 129, 65, 192, 320
-0.973895, 161, 201, 224, 264
-0.973973, 89, 145, 152, 272
-0.974183, 273, 81, 400, 208
-0.97459, 73, 33, 136, 96
-0.975072, 1, 57, 128, 120
-0.975116, 49, 1, 112, 128
-0.975276, 161, 89, 224, 152
-0.97553, 41, 25, 104, 88
-0.975709, 65, 73, 192, 136
-0.975747, 49, 233, 112, 296
-0.975748, 97, 209, 224, 272
-0.975758, 1, 49, 64, 112
-0.975792, 105, 209, 168, 334
-0.975961, 369, 145, 496, 272
-0.9763, 25, 49, 56, 176
-0.976341, 65, 1, 128, 256
-0.976353, 49, 161, 112, 224
-0.976353, 169, 249, 232, 312
-0.97638, 25, 177, 88, 304
-0.976492, 77, 49, 108, 176
-0.976667, 153, 1, 216, 128
-0.976802, 97, 97, 128, 160
-0.976828, 209, 145, 272, 272
-0.977037, 353, 65, 480, 192
-0.977132, 17, 81, 80, 144
-0.977197, 65, 129, 128, 192
-0.977457, 265, 1, 328, 64
-0.977542, 297, 129, 360, 256
-0.977577, 201, 1, 264, 128
-0.977605, 241, 1, 304, 256
-0.977642, 241, 33, 304, 96
-0.977715, 289, 193, 416, 320
-0.977914, 49, 97, 176, 160
-0.977959, 9, 1, 72, 256
-0.978066, 345, 137, 408, 200
-0.97814, 53, 49, 84, 176
-0.978409, 89, 49, 120, 176
-0.978464, 201, 225, 264, 288
-0.978482, 1, 105, 128, 168
-0.978509, 53, 97, 84, 224
-0.978608, 169, 129, 232, 256
-0.978748, 233, 145, 296, 272
-0.978792, 185, 25, 248, 88
-0.979333, 113, 121, 240, 184
-0.979357, 89, 209, 152, 272
-0.979363, 161, 225, 288, 288
-0.979411, 217, 33, 280, 288
-0.979521, 169, 49, 232, 112
-0.979536, 225, 81, 288, 208
-0.979649, 117, 121, 148, 184
-0.979698, 49, 201, 112, 264
-0.979877, 141, 121, 172, 184
-0.97991, 145, 129, 208, 256
-0.979977, 9, 1, 72, 334
-0.98001, 113, 233, 176, 296
-0.980224, 289, 161, 352, 224
-0.980277, 321, 137, 448, 200
-0.98028, 113, 81, 240, 144
-0.980371, 329, 97, 392, 160
-0.980393, 81, 233, 144, 296
-0.980431, 181, 225, 212, 288
-0.980452, 89, 1, 152, 64
-0.980455, 33, 65, 96, 320
-0.980486, 161, 1, 224, 256
-0.980553, 37, 49, 68, 176
-0.980698, 273, 161, 336, 288
-0.980761, 185, 201, 248, 264
-0.980767, 249, 217, 312, 280
-0.980789, 9, 17, 72, 80
-0.980806, 101, 49, 132, 176
-0.980965, 81, 97, 112, 160
-0.980973, 193, 217, 224, 280
-0.981168, 13, 33, 44, 160
-0.981179, 33, 97, 64, 160
-0.981284, 241, 129, 304, 192
-0.981299, 97, 41, 160, 104
-0.981312, 225, 57, 288, 120
-0.981364, 65, 9, 128, 72
-0.981377, 249, 209, 312, 334
-0.981435, 25, 209, 88, 272
-0.981626, 69, 65, 100, 128
-0.981751, 33, 137, 96, 200
-0.981779, 125, 97, 156, 160
-0.981862, 297, 137, 360, 200
-0.981902, 145, 57, 208, 120
-0.982106, 177, 89, 304, 152
-0.982268, 1, 241, 128, 304
-0.98227, 289, 193, 352, 256
-0.982291, 321, 81, 384, 208
-0.982309, 373, 97, 404, 224
-0.982311, 157, 113, 188, 176
-0.982341, 281, 121, 312, 184
-0.982372, 109, 97, 140, 160
-0.982392, 209, 193, 272, 320
-0.982412, 353, 193, 480, 320
-0.98242, 113, 233, 240, 296
-0.982452, 193, 1, 256, 64
-0.982589, 129, 57, 256, 120
-0.982624, 33, 1, 64, 128
-0.982671, 145, 177, 208, 240
-0.982717, 345, 65, 408, 320
-0.982747, 65, 49, 96, 176
-0.982832, 373, 81, 404, 144
-0.982898, 193, 249, 256, 312
-0.982911, 53, 97, 84, 160
-0.982933, 85, 65, 116, 128
-0.983012, 225, 225, 288, 288
-0.983013, 97, 185, 224, 248
-0.983021, 89, 121, 120, 184
-0.983044, 345, 265, 408, 328
-0.983229, 369, 137, 432, 200
-0.983262, 145, 233, 208, 296
-0.983307, 65, 129, 192, 192
-0.983379, 141, 65, 172, 192
-0.98342, 65, 25, 192, 88
-0.983467, 377, 81, 440, 208
-0.983514, 129, 1, 192, 128
-0.983674, 241, 137, 368, 200
-0.983766, 77, 97, 108, 224
-0.983798, 113, 81, 144, 208
-0.983897, 201, 89, 264, 152
-0.983906, 305, 105, 432, 168
-0.98391, 89, 1, 120, 128
-0.983929, 17, 33, 144, 96
-0.983953, 161, 17, 288, 80
-0.983962, 105, 1, 136, 128
-0.984081, 101, 73, 132, 136
-0.984091, 145, 153, 208, 216
-0.984154, 45, 1, 76, 128
-0.984237, 161, 81, 192, 144
-0.984298, 265, 153, 328, 216
-0.984409, 353, 73, 416, 136
-0.984416, 97, 145, 160, 208
-0.984419, 281, 233, 344, 296
-0.984465, 393, 137, 456, 200
-0.984483, 161, 201, 288, 264
-0.984487, 105, 265, 168, 328
-0.984495, 1, 81, 128, 144
-0.984576, 125, 65, 156, 192
-0.984594, 273, 209, 336, 334
-0.984614, 49, 225, 176, 288
-0.984619, 257, 49, 500, 176
-0.984626, 25, 241, 88, 304
-0.98471, 113, 161, 240, 224
-0.984719, 53, 57, 84, 120
-0.984721, 101, 97, 132, 224
-0.984752, 377, 97, 440, 160
-0.984958, 69, 145, 100, 272
-0.98496, 385, 129, 448, 256
-0.985022, 313, 161, 376, 224
-0.985069, 49, 273, 176, 334
-0.985076, 65, 97, 96, 224
-0.9851, 377, 273, 440, 334
-0.985168, 141, 81, 172, 144
-0.985287, 265, 1, 328, 256
-0.985293, 1, 9, 128, 72
-0.9853, 361, 97, 392, 160
-0.985414, 225, 49, 352, 176
-0.985416, 193, 49, 256, 112
-0.985587, 1, 33, 32, 160
-0.985597, 125, 129, 156, 256
-0.985615, 225, 1, 288, 64
-0.985639, 1, 209, 64, 334
-0.985652, 89, 185, 152, 248
-0.985671, 33, 97, 64, 224
-0.985676, 81, 209, 112, 334
-0.985728, 89, 97, 120, 224
-0.985748, 113, 209, 176, 272
-0.985772, 33, 1, 96, 334
-0.985783, 85, 233, 116, 296
-0.985804, 241, 1, 304, 334
-0.985913, 101, 209, 132, 334
-0.985933, 161, 113, 288, 176
-0.986004, 321, 137, 384, 200
-0.986005, 161, 1, 224, 334
-0.986026, 249, 97, 312, 224
-0.986101, 129, 73, 160, 136
-0.986164, 333, 145, 364, 272
-0.986243, 241, 241, 368, 304
-0.98628, 73, 153, 136, 216
-0.986367, 169, 113, 200, 176
-0.986409, 321, 177, 384, 304
-0.986431, 101, 121, 132, 184
-0.98645, 357, 97, 388, 224
-0.986461, 65, 49, 192, 112
-0.986618, 133, 145, 164, 208
-0.98673, 373, 105, 404, 168
-0.986745, 65, 1, 128, 334
-0.986753, 49, 185, 176, 248
-0.98678, 281, 1, 312, 64
-0.986896, 209, 217, 336, 280
-0.98691, 337, 273, 464, 334
-0.987044, 105, 225, 136, 288
-0.987065, 97, 257, 224, 320
-0.987099, 177, 49, 304, 112
-0.987111, 161, 209, 192, 272
-0.987144, 97, 25, 128, 88
-0.987174, 353, 137, 384, 200
-0.987188, 297, 81, 360, 208
-0.987262, 177, 249, 304, 312
-0.9873, 173, 89, 204, 152
-0.987302, 185, 1, 216, 128
-0.987311, 217, 1, 280, 334
-0.987322, 201, 1, 232, 128
-0.98739, 169, 137, 232, 200
-0.987393, 305, 217, 368, 280
-0.987439, 265, 193, 328, 256
-0.987443, 113, 1, 176, 64
-0.987455, 209, 225, 240, 288
-0.987463, 185, 209, 216, 334
-0.987485, 193, 65, 256, 320
-0.987493, 153, 65, 184, 192
-0.987494, 85, 25, 116, 88
-0.987561, 153, 129, 184, 256
-0.987622, 153, 17, 216, 80
-0.987625, 57, 273, 120, 334
-0.987639, 1, 201, 128, 264
-0.987716, 153, 137, 184, 200
-0.987745, 433, 145, 496, 272
-0.987788, 161, 153, 288, 216
-0.987832, 217, 249, 280, 312
-0.987976, 97, 1, 160, 334
-0.988003, 241, 153, 304, 216
-0.988051, 209, 1, 336, 64
-0.988223, 81, 1, 208, 64
-0.988233, 169, 177, 232, 240
-0.988307, 289, 265, 416, 328
-0.988316, 137, 1, 200, 334
-0.988366, 113, 129, 144, 256
-0.988419, 89, 273, 120, 334
-0.988468, 133, 185, 164, 248
-0.988477, 101, 257, 132, 320
-0.988478, 185, 113, 248, 176
-0.988514, 161, 177, 192, 304
-0.988524, 433, 209, 496, 334
-0.988534, 321, 129, 352, 256
-0.988558, 121, 57, 184, 120
-0.988574, 93, 145, 124, 272
-0.988582, 177, 49, 208, 112
-0.988704, 209, 25, 272, 88
-0.988776, 241, 113, 368, 176
-0.988788, 265, 25, 296, 88
-0.988856, 393, 209, 456, 334
-0.98894, 41, 65, 72, 128
-0.98897, 277, 1, 308, 128
-0.988986, 169, 241, 200, 304
-0.989025, 177, 193, 208, 256
-0.98905, 209, 201, 272, 264
-0.989144, 249, 49, 280, 112
-0.989151, 45, 209, 76, 334
-0.989155, 173, 33, 204, 160
-0.989204, 189, 89, 220, 152
-0.989224, 265, 25, 328, 88
-0.989229, 117, 185, 148, 248
-0.989241, 41, 17, 72, 80
-0.989283, 305, 137, 336, 200
-0.989288, 313, 257, 376, 320
-0.989343, 69, 161, 100, 224
-0.989364, 21, 105, 52, 168
-0.989373, 49, 101, 112, 132
-0.98942, 53, 25, 84, 88
-0.989427, 265, 1, 296, 128
-0.989442, 353, 113, 480, 176
-0.989565, 173, 177, 204, 304
-0.989586, 69, 1, 100, 128
-0.989608, 269, 129, 300, 192
-0.989631, 337, 241, 400, 304
-0.989634, 197, 177, 228, 304
-0.98973, 241, 65, 272, 192
-0.989732, 129, 121, 192, 152
-0.989743, 113, 73, 144, 136
-0.989808, 225, 25, 352, 88
-0.98985, 93, 1, 124, 64
-0.989891, 217, 81, 248, 208
-0.989894, 113, 193, 144, 320
-0.989963, 1, 257, 64, 320
-0.989973, 77, 129, 108, 192
-0.990005, 65, 153, 192, 216
-0.990065, 145, 217, 208, 248
-0.990066, 97, 201, 128, 264
-0.990106, 61, 193, 92, 320
-0.990109, 293, 121, 324, 184
-0.990117, 189, 193, 220, 256
-0.990142, 377, 241, 440, 304
-0.990163, 1, 225, 64, 288
-0.990171, 109, 33, 140, 96
-0.990213, 177, 233, 240, 264
-0.990216, 25, 265, 88, 328
-0.990229, 73, 25, 104, 88
-0.990238, 273, 81, 400, 144
-0.990241, 281, 113, 312, 240
-0.990298, 165, 137, 196, 200
-0.990312, 165, 169, 196, 232
-0.990315, 149, 193, 180, 256
-0.990324, 321, 65, 384, 320
-0.990345, 113, 109, 176, 140
-0.990369, 161, 177, 288, 240
-0.990379, 345, 209, 408, 334
-0.990463, 301, 113, 332, 240
-0.990467, 89, 273, 152, 304
-0.99047, 289, 65, 352, 320
-0.990506, 9, 105, 72, 136
-0.990535, 137, 113, 168, 240
-0.990538, 209, 153, 272, 216
-0.990562, 153, 117, 216, 148
-0.990565, 289, 241, 416, 304
-0.990606, 241, 257, 304, 320
-0.990643, 225, 57, 352, 120
-0.990656, 345, 129, 376, 256
-0.990688, 377, 73, 440, 136
-0.990749, 105, 121, 168, 152
-0.99075, 189, 249, 220, 312
-0.990757, 373, 137, 404, 200
-0.990785, 313, 185, 376, 248
-0.990839, 245, 25, 276, 88
-0.99084, 345, 265, 408, 296
-0.990893, 273, 133, 336, 164
-0.990899, 97, 49, 128, 112
-0.990902, 265, 1, 328, 334
-0.990918, 225, 57, 256, 120
-0.990925, 353, 93, 416, 124
-0.990936, 33, 61, 96, 92
-0.990975, 57, 65, 120, 96
-0.991017, 25, 93, 88, 124
-0.991026, 73, 101, 136, 132
-0.991036, 65, 233, 128, 264
-0.991047, 129, 133, 192, 164
-0.991054, 121, 221, 184, 252
-0.991061, 257, 145, 288, 272
-0.991076, 289, 209, 416, 272
-0.991142, 89, 229, 152, 260
-0.991179, 17, 73, 48, 136
-0.991217, 49, 173, 112, 204
-0.991232, 209, 145, 240, 272
-0.991241, 345, 137, 408, 168
-0.991291, 193, 1, 256, 334
-0.991319, 241, 161, 368, 224
-0.99132, 169, 81, 200, 208
-0.991332, 117, 225, 148, 288
-0.991343, 113, 33, 240, 96
-0.991352, 1, 73, 256, 136
-0.991361, 129, 121, 160, 184
-0.991361, 149, 169, 180, 232
-0.991378, 25, 161, 88, 224
-0.991379, 89, 133, 152, 164
-0.991393, 397, 129, 428, 256
-0.991418, 153, 129, 216, 160
-0.991421, 305, 105, 368, 168
-0.99143, 189, 1, 220, 64
-0.99143, 33, 113, 96, 144
-0.99144, 81, 73, 144, 104
-0.991459, 113, 205, 176, 236
-0.991467, 225, 229, 288, 260
-0.99148, 65, 133, 128, 164
-0.991485, 261, 1, 292, 64
-0.991485, 1, 273, 128, 334
-0.99149, 197, 113, 228, 176
-0.991498, 169, 245, 232, 276
-0.99151, 57, 53, 120, 84
-0.991512, 169, 213, 232, 244
-0.991518, 9, 53, 72, 84
-0.991518, 5, 49, 36, 112
-0.991527, 81, 117, 144, 148
-0.991541, 369, 137, 432, 168
-0.991558, 77, 209, 108, 272
-0.991569, 241, 185, 368, 248
-0.991582, 81, 145, 112, 272
-0.991602, 401, 137, 432, 200
-0.99163, 385, 81, 416, 208
-0.991643, 181, 129, 212, 192
-0.991655, 273, 145, 336, 176
-0.991657, 257, 1, 384, 64
-0.991705, 117, 145, 148, 208
-0.991708, 113, 185, 176, 216
-0.99171, 129, 233, 192, 264
-0.991713, 73, 13, 136, 44
-0.99173, 33, 161, 96, 192
-0.99173, 369, 145, 496, 208
-0.991739, 17, 129, 144, 192
-0.99176, 1, 1, 32, 64
-0.991767, 33, 1, 96, 64
-0.991792, 153, 197, 216, 228
-0.991838, 81, 57, 144, 88
-0.991839, 353, 81, 480, 144
-0.991842, 49, 193, 112, 224
-0.991846, 241, 225, 272, 288
-0.991869, 201, 229, 264, 260
-0.991873, 273, 257, 336, 320
-0.991898, 281, 157, 344, 188
-0.991899, 245, 1, 276, 128
-0.991913, 57, 1, 88, 128
-0.991917, 113, 173, 176, 204
-0.991917, 321, 149, 384, 180
-0.991945, 249, 229, 312, 260
-0.99197, 113, 265, 144, 328
-0.991971, 73, 257, 136, 288
-0.991972, 409, 129, 472, 256
-0.991979, 129, 145, 192, 176
-0.992001, 229, 65, 260, 192
-0.99201, 137, 181, 200, 212
-0.992054, 73, 185, 136, 216
-0.992089, 97, 13, 160, 44
-0.992097, 321, 145, 352, 208
-0.992099, 33, 233, 64, 296
-0.992109, 65, 89, 128, 120
-0.992113, 289, 161, 416, 224
-0.992115, 201, 81, 264, 112
-0.992117, 145, 105, 208, 136
-0.99212, 137, 245, 200, 276
-0.992126, 253, 225, 284, 288
-0.992147, 53, 145, 84, 272
-0.992154, 97, 241, 160, 272
-0.992162, 41, 241, 104, 272
-0.992166, 433, 193, 496, 256
-0.99217, 369, 241, 496, 304
-0.992198, 345, 145, 408, 272
-0.992201, 241, 137, 304, 168
-0.992218, 313, 137, 376, 168
-0.992219, 401, 273, 464, 334
-0.992224, 49, 285, 112, 316
-0.992226, 65, 29, 128, 60
-0.992249, 201, 241, 264, 272
-0.992265, 137, 169, 200, 200
-0.992266, 33, 149, 96, 180
-0.992271, 1, 9, 64, 40
-0.992277, 377, 277, 440, 308
-0.992291, 9, 225, 72, 256
-0.992291, 129, 85, 192, 116
-0.992294, 257, 1, 320, 32
-0.992315, 13, 225, 44, 288
-0.99232, 97, 1, 160, 32
-0.992322, 265, 209, 296, 334
-0.992323, 353, 105, 416, 136
-0.992332, 17, 9, 48, 72
-0.992333, 153, 233, 216, 264
-0.992333, 153, 89, 216, 120
-0.992338, 49, 221, 112, 252
-0.992339, 25, 185, 88, 248
-0.992348, 65, 161, 128, 192
-0.992354, 185, 97, 248, 128
-0.992378, 105, 77, 168, 108
-0.992378, 49, 41, 112, 72
-0.992385, 273, 65, 336, 192
-0.992388, 233, 17, 264, 144
-0.992389, 161, 181, 224, 212
-0.992394, 1, 93, 64, 124
-0.992395, 249, 149, 312, 180
-0.992396, 65, 273, 128, 304
-0.992403, 401, 65, 464, 320
-0.992411, 269, 217, 300, 280
-0.992416, 81, 209, 144, 240
-0.992424, 401, 145, 464, 176
-0.992429, 73, 1, 136, 32
-0.99244, 369, 201, 496, 264
-0.992452, 345, 117, 408, 148
-0.992472, 217, 65, 280, 96
-0.992475, 161, 257, 224, 288
-0.992487, 225, 149, 288, 180
-0.992488, 153, 121, 184, 152
-0.992509, 257, 105, 320, 168
-0.99251, 33, 129, 96, 160
-0.992514, 345, 1, 408, 334
-0.992515, 89, 25, 152, 56
-0.992518, 145, 73, 208, 104
-0.992538, 241, 17, 304, 48
-0.992539, 17, 237, 80, 268
-0.992544, 289, 221, 352, 252
-0.99255, 21, 49, 52, 112
-0.992553, 273, 121, 336, 152
-0.992578, 289, 181, 352, 212
-0.992579, 25, 17, 88, 48
-0.99258, 81, 173, 144, 204
-0.992591, 97, 145, 160, 176
-0.992596, 33, 109, 64, 140
-0.992598, 73, 233, 104, 296
-0.992602, 73, 285, 136, 316
-0.992602, 113, 285, 176, 316
-0.992606, 113, 65, 176, 96
-0.992611, 45, 109, 76, 140
-0.992617, 225, 53, 288, 84
-0.992618, 273, 33, 400, 160
-0.992618, 65, 101, 96, 132
-0.99262, 81, 45, 144, 76
-0.992624, 233, 105, 296, 168
-0.992628, 377, 101, 440, 132
-0.99263, 161, 273, 224, 334
-0.992634, 137, 257, 200, 320
-0.992638, 281, 5, 344, 36
-0.992638, 241, 29, 304, 60
-0.992638, 289, 193, 352, 224
-0.992648, 297, 257, 360, 288
-0.992651, 305, 169, 368, 200
-0.992653, 193, 273, 320, 334
-0.992658, 257, 241, 320, 272
-0.992664, 341, 129, 372, 192
-0.992675, 225, 245, 288, 276
-0.992682, 161, 141, 224, 172
-0.992686, 49, 9, 112, 40
-0.992686, 369, 261, 432, 292
-0.992687, 265, 29, 328, 60
-0.992697, 49, 209, 112, 240
-0.992698, 25, 293, 88, 324
-0.992719, 193, 253, 256, 284
-0.992721, 53, 209, 84, 272
-0.992731, 185, 1, 248, 32
-0.992744, 273, 17, 336, 48
-0.99275, 257, 161, 320, 192
-0.992751, 225, 41, 288, 72
-0.992755, 33, 209, 288, 272
-0.992788, 65, 149, 128, 180
-0.992788, 185, 25, 248, 56
-0.992789, 257, 41, 320, 72
-0.99279, 193, 217, 256, 248
-0.992792, 141, 121, 172, 152
-0.992794, 137, 109, 168, 140
-0.992827, 101, 269, 132, 300
-0.99283, 29, 73, 60, 136
-0.992834, 65, 113, 320, 176
-0.992834, 241, 193, 304, 256
-0.992842, 29, 17, 60, 80
-0.992858, 117, 1, 148, 128
-0.992866, 373, 89, 404, 120
-0.992868, 53, 121, 84, 184
-0.992868, 225, 249, 256, 312
-0.992874, 117, 133, 148, 164
-0.992875, 81, 97, 112, 128
-0.992897, 253, 49, 284, 176
-0.992909, 125, 117, 156, 148
-0.992921, 165, 49, 196, 112
-0.992925, 129, 225, 384, 288
-0.992926, 157, 109, 188, 140
-0.992927, 41, 97, 72, 128
-0.99293, 181, 233, 212, 264
-0.992949, 181, 113, 212, 144
-0.99296, 81, 237, 112, 268
-0.992977, 89, 57, 120, 88
-0.992986, 173, 129, 204, 256
-0.992991, 105, 117, 136, 148
-0.992993, 165, 121, 196, 152
-0.992995, 197, 81, 228, 208
-0.992998, 105, 129, 136, 160
-0.992999, 361, 89, 392, 120
-0.993005, 169, 217, 200, 248
-0.993021, 425, 137, 456, 200
-0.993021, 285, 225, 316, 288
-0.993023, 53, 97, 84, 128
-0.993033, 89, 129, 120, 160
-0.993036, 129, 221, 160, 252
-0.993038, 237, 229, 268, 260
-0.993044, 373, 137, 404, 168
-0.993052, 181, 245, 212, 276
-0.993058, 141, 133, 172, 164
-0.993059, 373, 101, 404, 132
-0.99307, 93, 253, 124, 284
-0.993073, 121, 189, 152, 220
-0.993075, 281, 129, 312, 160
-0.993076, 201, 193, 232, 256
-0.993077, 69, 161, 100, 192
-0.993086, 345, 137, 376, 168
-0.993103, 149, 217, 180, 248
-0.993114, 193, 25, 224, 88
-0.993118, 161, 133, 192, 164
-0.993121, 189, 213, 220, 244
-0.993135, 101, 97, 132, 128
-0.993135, 137, 145, 168, 176
-0.993137, 109, 229, 140, 260
-0.99314, 89, 277, 120, 308
-0.993143, 397, 137, 428, 168
-0.993145, 25, 97, 56, 128
-0.993148, 141, 205, 172, 236
-0.99315, 213, 229, 244, 260
-0.993152, 65, 33, 320, 96
-0.993153, 333, 149, 364, 180
-0.993157, 177, 125, 208, 156
-0.993159, 93, 233, 124, 264
-0.993162, 89, 117, 120, 148
-0.993163, 369, 265, 400, 296
-0.993167, 285, 9, 316, 40
-0.993175, 153, 193, 184, 224
-0.993176, 125, 105, 156, 136
-0.993181, 1, 273, 500, 334
-0.993184, 21, 109, 52, 140
-0.993188, 69, 89, 100, 120
-0.993192, 49, 61, 80, 92
-0.993195, 373, 265, 404, 328
-0.993215, 425, 145, 456, 176
-0.99323, 101, 13, 132, 44
-0.993234, 169, 109, 200, 140
-0.993238, 193, 229, 224, 260
-0.993238, 253, 229, 284, 260
-0.993239, 369, 1, 432, 334
-0.99324, 361, 101, 392, 132
-0.993241, 69, 65, 100, 96
-0.993244, 269, 1, 300, 32
-0.993245, 125, 149, 156, 180
-0.993247, 273, 25, 304, 56
-0.993252, 225, 85, 256, 116
-0.993252, 165, 229, 196, 260
-0.993255, 33, 57, 64, 88
-0.993258, 9, 101, 40, 132
-0.993264, 145, 181, 176, 212
-0.993269, 129, 133, 160, 164
-0.993274, 5, 97, 36, 160
-0.993276, 173, 257, 204, 288
-0.993276, 173, 77, 204, 108
-0.99328, 249, 57, 312, 120
-0.993283, 269, 137, 300, 168
-0.993284, 301, 133, 332, 164
-0.993287, 361, 121, 392, 152
-0.993288, 161, 161, 192, 192
-0.993289, 77, 129, 108, 160
-0.993291, 321, 149, 352, 180
-0.993294, 357, 137, 388, 168
-0.993295, 69, 173, 100, 204
-0.993296, 165, 201, 196, 232
-0.993301, 137, 217, 168, 280
-0.993309, 97, 25, 128, 56
-0.993312, 177, 173, 208, 204
-0.993319, 389, 97, 420, 160
-0.993319, 13, 53, 44, 84
-0.99332, 265, 37, 296, 68
-0.993333, 117, 77, 148, 108
-0.993335, 77, 53, 108, 84
-0.993339, 105, 185, 136, 216
-0.99334, 25, 13, 56, 44
-0.993342, 261, 13, 292, 44
-0.993345, 113, 101, 144, 132
-0.993347, 257, 49, 288, 80
-0.993347, 353, 265, 384, 296
-0.993352, 101, 73, 132, 104
-0.993356, 109, 241, 140, 272
-0.993356, 105, 1, 136, 32
-0.993358, 97, 81, 352, 144
-0.993358, 133, 185, 164, 216
-0.993363, 121, 233, 152, 264
-0.993363, 253, 25, 284, 56
-0.993364, 293, 121, 324, 152
-0.993365, 157, 69, 188, 100
-0.993366, 81, 173, 112, 204
-0.993367, 125, 209, 156, 240
-0.993374, 101, 57, 132, 88
-0.993375, 257, 145, 288, 208
-0.993375, 229, 225, 260, 288
-0.993377, 161, 181, 192, 212
-0.993378, 37, 17, 68, 48
-0.993379, 181, 197, 212, 228
-0.993383, 161, 149, 192, 180
-0.993385, 225, 237, 256, 268
-0.993389, 261, 149, 292, 180
-0.993391, 89, 69, 120, 100
-0.993394, 237, 49, 268, 80
-0.993398, 305, 145, 336, 176
-0.993398, 13, 9, 44, 40
-0.9934, 225, 69, 256, 100
-0.9934, 165, 245, 196, 276
-0.993405, 117, 169, 148, 200
-0.993406, 249, 61, 280, 92
-0.993407, 97, 37, 128, 68
-0.993407, 65, 249, 320, 312
-0.993408, 277, 117, 308, 148
-0.993408, 105, 257, 136, 288
-0.993412, 245, 37, 276, 68
-0.993415, 9, 225, 40, 256
-0.993416, 89, 141, 120, 172
-0.993417, 53, 173, 84, 204
-0.99342, 53, 49, 84, 80
-0.993421, 1, 45, 32, 76
-0.99344, 33, 209, 64, 334
-0.99345, 177, 25, 208, 88
-0.993471, 89, 145, 120, 208
-0.993471, 145, 273, 272, 334
-0.993481, 233, 33, 264, 96
-0.993515, 401, 209, 464, 272
-0.993625, 245, 145, 276, 272
-0.993725, 9, 97, 40, 224
-0.993732, 105, 1, 136, 64
-0.993763, 241, 273, 368, 334
-0.993765, 21, 97, 52, 224
-0.993771, 189, 129, 220, 256
-0.993777, 161, 201, 416, 264
-0.993854, 185, 65, 216, 192
-0.993856, 53, 153, 84, 216
-0.993866, 33, 209, 64, 272
-0.993889, 273, 161, 304, 288
-0.993899, 273, 193, 304, 256
-0.993916, 209, 193, 240, 320
-0.993925, 409, 129, 440, 256
-0.993935, 441, 145, 472, 208
-0.993936, 277, 209, 308, 334
-0.993947, 433, 145, 496, 208
-0.993987, 225, 137, 480, 200
-0.993987, 321, 193, 352, 320
-0.994012, 193, 273, 256, 334
-0.994034, 9, 209, 40, 334
-0.994044, 149, 177, 180, 304
-0.994047, 133, 177, 164, 304
-0.994059, 365, 49, 396, 176
-0.994074, 201, 1, 232, 64
-0.994085, 129, 33, 192, 96
-0.994121, 253, 209, 284, 334
-0.99414, 297, 1, 360, 334
-0.994225, 297, 209, 328, 272
-0.994248, 369, 65, 432, 320
-0.994255, 33, 101, 160, 132
-0.994301, 421, 129, 452, 256
-0.994301, 321, 1, 384, 334
-0.994318, 201, 249, 232, 312
-0.994322, 237, 65, 268, 128
-0.994328, 289, 185, 416, 248
-0.99433, 349, 105, 380, 168
-0.994355, 345, 81, 376, 208
-0.994395, 209, 89, 240, 152
-0.994398, 409, 233, 472, 296
-0.994411, 149, 57, 180, 120
-0.994489, 353, 169, 480, 232
-0.994492, 25, 257, 56, 320
-0.994507, 149, 217, 180, 280
-0.994519, 237, 249, 268, 312
-0.994534, 281, 105, 344, 168
-0.994565, 81, 121, 208, 152
-0.994569, 313, 73, 376, 136
-0.9946, 5, 73, 36, 136
-0.994609, 217, 129, 280, 192
-0.994624, 353, 17, 480, 144
-0.994649, 1, 249, 500, 312
-0.994674, 117, 1, 148, 64
-0.994698, 83, 97, 98, 160
-0.994733, 49, 249, 176, 312
-0.994785, 103, 97, 118, 160
-0.99485, 401, 161, 464, 224
-0.99489, 217, 273, 280, 334
-0.994948, 129, 17, 160, 144
-0.994957, 229, 193, 260, 320
-0.994964, 385, 129, 416, 256
-0.994968, 161, 249, 416, 312
-0.994999, 161, 1, 192, 128
-0.99501, 45, 97, 60, 160
-0.995031, 1, 137, 256, 200
-0.995054, 9, 137, 72, 200
-0.995102, 161, 105, 416, 168
-0.995162, 21, 209, 52, 334
-0.995169, 225, 81, 352, 144
-0.995169, 1, 177, 128, 240
-0.995182, 393, 1, 456, 334
-0.995198, 165, 113, 180, 176
-0.995222, 233, 145, 264, 272
-0.995226, 77, 65, 92, 128
-0.99529, 111, 97, 126, 160
-0.99529, 97, 137, 352, 200
-0.995305, 301, 177, 332, 304
-0.995309, 225, 273, 480, 334
-0.995317, 257, 209, 500, 272
-0.995359, 93, 97, 108, 160
-0.995379, 1, 185, 256, 248
-0.995414, 213, 1, 244, 128
-0.995433, 125, 97, 140, 160
-0.995455, 189, 225, 204, 288
-0.995509, 55, 105, 70, 168
-0.995545, 71, 89, 86, 152
-0.995626, 113, 229, 240, 260
-0.995634, 95, 121, 110, 184
-0.995691, 1, 89, 128, 120
-0.995697, 145, 69, 272, 100
-0.995727, 121, 121, 136, 184
-0.995737, 1, 73, 500, 136
-0.995738, 195, 225, 210, 288
-0.995779, 97, 177, 352, 240
-0.995799, 269, 97, 300, 224
-0.995833, 233, 81, 296, 144
-0.995845, 1, 145, 500, 208
-0.995865, 345, 209, 376, 334
-0.995866, 161, 229, 288, 260
-0.995878, 141, 17, 172, 144
-0.995894, 39, 97, 54, 160
-0.995918, 321, 137, 448, 168
-0.995925, 257, 161, 500, 224
-0.99593, 81, 245, 208, 276
-0.995975, 161, 241, 288, 272
-0.995978, 97, 57, 352, 120
-0.995978, 17, 153, 144, 216
-0.996014, 131, 113, 146, 176
-0.996032, 257, 129, 384, 160
-0.996079, 157, 113, 172, 176
-0.996081, 77, 97, 92, 160
-0.996086, 97, 165, 224, 196
-0.9961, 371, 81, 386, 144
-0.99611, 377, 97, 392, 160
-0.996114, 113, 217, 240, 248
-0.996118, 81, 109, 208, 140
-0.996126, 1, 237, 128, 268
-0.996137, 97, 9, 352, 72
-0.996155, 193, 65, 448, 128
-0.996214, 103, 121, 118, 184
-0.99622, 71, 57, 86, 120
-0.996225, 1, 273, 256, 334
-0.996229, 65, 97, 80, 160
-0.996235, 293, 121, 308, 184
-0.996259, 1, 201, 64, 264
-0.996262, 365, 113, 380, 176
-0.996299, 65, 73, 192, 104
-0.996351, 1, 161, 256, 224
-0.996361, 65, 281, 192, 312
-0.996365, 83, 65, 98, 128
-0.996395, 113, 81, 240, 112
-0.996399, 1, 113, 128, 144
-0.996421, 285, 161, 316, 288
-0.996421, 105, 249, 120, 312
-0.996429, 241, 209, 272, 334
-0.996429, 385, 81, 400, 144
-0.99643, 183, 233, 198, 296
-0.996453, 99, 25, 114, 88
-0.996468, 289, 209, 320, 334
-0.996472, 101, 57, 116, 120
-0.996476, 1, 41, 500, 104
-0.996477, 141, 73, 156, 136
-0.996487, 117, 97, 132, 160
-0.996497, 321, 81, 352, 208
-0.996501, 111, 73, 126, 136
-0.996505, 113, 121, 128, 184
-0.996505, 181, 209, 196, 272
-0.996514, 173, 81, 188, 144
-0.996534, 1, 209, 500, 272
-0.996538, 177, 121, 304, 152
-0.996565, 97, 1, 128, 256
-0.996574, 1, 61, 128, 92
-0.996586, 401, 81, 464, 208
-0.996595, 425, 1, 488, 334
-0.996612, 51, 81, 66, 144
-0.996616, 99, 233, 114, 296
-0.996626, 141, 137, 156, 200
-0.996647, 115, 225, 130, 288
-0.996658, 289, 1, 304, 64
-0.996665, 281, 129, 296, 192
-0.996683, 139, 97, 154, 160
-0.996683, 171, 113, 186, 176
-0.996693, 433, 233, 496, 296
-0.996707, 441, 129, 472, 256
-0.996712, 149, 129, 164, 192
-0.996712, 63, 57, 78, 120
-0.996718, 135, 73, 150, 136
-0.996721, 165, 137, 180, 200
-0.996725, 257, 185, 500, 248
-0.99673, 225, 1, 480, 64
-0.996735, 209, 233, 336, 264
-0.996746, 391, 105, 406, 168
-0.996749, 221, 145, 252, 272
-0.996751, 129, 125, 256, 156
-0.996759, 145, 105, 160, 168
-0.996766, 133, 145, 148, 208
-0.996766, 225, 41, 480, 104
-0.996774, 81, 269, 208, 300
-0.996775, 157, 137, 172, 200
-0.996833, 185, 89, 200, 152
-0.996835, 257, 249, 500, 312
-0.996843, 369, 209, 432, 334
-0.996869, 161, 41, 288, 72
-0.99688, 65, 233, 192, 264
-0.996881, 121, 73, 136, 136
-0.996883, 201, 217, 216, 280
-0.996902, 89, 65, 104, 128
-0.996905, 99, 273, 114, 334
-0.996914, 333, 81, 364, 208
-0.996917, 369, 57, 496, 120
-0.996924, 109, 33, 124, 96
-0.996931, 45, 65, 60, 128
-0.996936, 95, 65, 110, 128
-0.996945, 177, 9, 304, 40
-0.996958, 161, 153, 288, 184
-0.996963, 97, 205, 224, 236
-0.996982, 153, 81, 168, 144
-0.996987, 81, 133, 208, 164
-0.996996, 127, 73, 142, 136
-0.997016, 345, 49, 408, 176
-0.997023, 283, 9, 298, 72
-0.997026, 93, 233, 108, 296
-0.997029, 189, 249, 204, 312
-0.99703, 25, 1, 56, 256
-0.997041, 213, 225, 228, 288
-0.997055, 129, 113, 256, 144
-0.997057, 33, 1, 160, 32
-0.997066, 357, 129, 372, 192
-0.997068, 337, 277, 464, 308
-0.997077, 57, 81, 72, 144
-0.997082, 365, 89, 380, 152
-0.997093, 89, 209, 104, 272
-0.997106, 161, 209, 288, 240
-0.99711, 181, 65, 196, 128
-0.997118, 181, 41, 196, 104
-0.997119, 177, 113, 192, 176
-0.997125, 89, 121, 104, 184
-0.997126, 191, 89, 206, 152
-0.997136, 441, 209, 472, 334
-0.997148, 137, 65, 168, 320
-0.997149, 17, 41, 144, 72
-0.997152, 97, 257, 224, 288
-0.997159, 109, 1, 140, 256
-0.997166, 277, 17, 292, 80
-0.997178, 241, 145, 368, 176
-0.997184, 209, 245, 336, 276
-0.997186, 139, 161, 154, 224
-0.997191, 371, 113, 386, 176
-0.997198, 161, 253, 288, 284
-0.997198, 111, 257, 126, 320
-0.997206, 385, 113, 400, 176
-0.997212, 269, 1, 300, 256
-0.997215, 333, 193, 364, 320
-0.997217, 189, 201, 204, 264
-0.997219, 97, 189, 224, 220
-0.997231, 273, 257, 400, 288
-0.997233, 257, 105, 500, 168
-0.99724, 1, 185, 500, 248
-0.99724, 33, 97, 48, 160
-0.997244, 177, 21, 304, 52
-0.997262, 121, 33, 152, 288
-0.997265, 151, 185, 166, 248
-0.99728, 271, 1, 286, 64
-0.997289, 205, 193, 220, 256
-0.997293, 107, 1, 122, 64
-0.997297, 65, 49, 192, 80
-0.997305, 195, 249, 210, 312
-0.997305, 379, 73, 394, 136
-0.997319, 357, 209, 388, 334
-0.997321, 81, 9, 208, 40
-0.997323, 179, 89, 194, 152
-0.997323, 71, 161, 86, 224
-0.997327, 49, 109, 64, 140
-0.997332, 73, 137, 88, 200
-0.997337, 159, 121, 174, 152
-0.997339, 193, 17, 208, 80
-0.997346, 1, 9, 256, 72
-0.997348, 203, 1, 218, 64
-0.99735, 51, 57, 66, 120
-0.997356, 147, 81, 162, 144
-0.997357, 93, 33, 108, 96
-0.997385, 267, 33, 282, 96
-0.99739, 85, 1, 116, 256
-0.997391, 57, 17, 72, 80
-0.997405, 325, 145, 340, 208
-0.99742, 1, 225, 128, 256
-0.997446, 165, 81, 180, 144
-0.997451, 65, 153, 192, 184
-0.997463, 245, 225, 260, 288
-0.997467, 39, 73, 54, 136
-0.997469, 197, 89, 212, 152
-0.997472, 161, 81, 288, 112
-0.997481, 1, 261, 128, 292
-0.997482, 159, 201, 174, 264
-0.997484, 165, 121, 180, 152
-0.997484, 117, 265, 132, 328
-0.997494, 145, 57, 272, 88
-0.997498, 195, 193, 210, 256
-0.997502, 219, 225, 234, 288
-0.997504, 425, 193, 456, 320
-0.997508, 93, 273, 108, 334
-0.997509, 35, 233, 50, 296
-0.997512, 131, 193, 146, 256
-0.997512, 207, 225, 222, 288
-0.997515, 261, 41, 276, 104
-0.997517, 171, 137, 186, 200
-0.997521, 265, 225, 280, 288
-0.997523, 387, 137, 402, 200
-0.997528, 113, 177, 240, 208
-0.997533, 1, 145, 64, 272
-0.99754, 445, 137, 460, 200
-0.997542, 123, 201, 138, 264
-0.997544, 11, 1, 26, 64
-0.997548, 201, 249, 216, 312
-0.997554, 145, 177, 160, 240
-0.997563, 299, 121, 314, 184
-0.997564, 407, 137, 422, 200
-0.997569, 359, 105, 374, 168
-0.997591, 57, 109, 72, 140
-0.997605, 17, 289, 144, 320
-0.997612, 187, 25, 202, 88
-0.997612, 77, 161, 92, 224
-0.997617, 369, 209, 400, 334
-0.997624, 71, 101, 86, 132
-0.997627, 203, 89, 218, 152
-0.997641, 183, 185, 198, 248
-0.997641, 53, 1, 84, 256
-0.997644, 39, 49, 54, 112
-0.997648, 227, 225, 242, 288
-0.997685, 33, 173, 160, 204
-0.997717, 65, 85, 192, 116
-0.997727, 39, 109, 54, 140
-0.997742, 65, 221, 192, 252
-0.997743, 337, 93, 464, 124
-0.997763, 129, 93, 256, 124
-0.997773, 49, 189, 176, 220
-0.99779, 33, 161, 64, 288
-0.997793, 73, 1, 104, 256
-0.997801, 289, 113, 416, 144
-0.997805, 183, 237, 198, 268
-0.997806, 97, 273, 352, 334
-0.997808, 129, 137, 256, 168
-0.997814, 149, 65, 180, 320
-0.997831, 171, 121, 186, 152
-0.997833, 97, 61, 224, 92
-0.99785, 17, 21, 144, 52
-0.997857, 81, 97, 208, 128
-0.997859, 337, 149, 464, 180
-0.997867, 159, 109, 174, 140
-0.997871, 41, 65, 72, 320
-0.997876, 63, 109, 78, 140
-0.997898, 161, 65, 192, 320
-0.997901, 249, 33, 280, 288
-0.997944, 153, 121, 168, 152
-0.997944, 65, 97, 80, 128
-0.997949, 369, 93, 384, 124
-0.997971, 321, 265, 448, 296
-0.997971, 229, 33, 260, 288
-0.997974, 77, 93, 92, 124
-0.997976, 289, 93, 416, 124
-0.997983, 113, 153, 240, 184
-0.997986, 185, 1, 216, 256
-0.998006, 17, 277, 144, 308
-0.998011, 149, 109, 164, 140
-0.998018, 385, 89, 400, 120
-0.998043, 49, 209, 176, 240
-0.998048, 47, 97, 62, 128
-0.998051, 273, 245, 400, 276
-0.998056, 141, 137, 156, 168
-0.998072, 129, 269, 256, 300
-0.998085, 369, 221, 496, 252
-0.998099, 125, 117, 140, 148
-0.998103, 469, 209, 500, 334
-0.998107, 103, 129, 118, 160
-0.998109, 273, 229, 400, 260
-0.998123, 379, 121, 394, 152
-0.998138, 177, 125, 192, 156
-0.998145, 397, 65, 428, 192
-0.998148, 115, 117, 130, 148
-0.998148, 167, 109, 182, 140
-0.998152, 73, 161, 88, 192
-0.998159, 129, 285, 256, 316
-0.99816, 97, 57, 112, 88
-0.998164, 17, 249, 144, 280
-0.99817, 213, 65, 244, 320
-0.998172, 113, 269, 128, 300
-0.998177, 177, 165, 304, 196
-0.998181, 359, 133, 374, 164
-0.998188, 97, 237, 112, 268
-0.998198, 83, 97, 98, 128
-0.998203, 379, 261, 394, 292
-0.998204, 177, 113, 192, 144
-0.998214, 123, 105, 138, 136
-0.998216, 97, 37, 224, 68
-0.998227, 33, 105, 48, 136
-0.998231, 77, 105, 92, 136
-0.998239, 105, 257, 120, 288
-0.998242, 17, 129, 144, 160
-0.998245, 407, 137, 422, 168
-0.998252, 241, 161, 368, 192
-0.998256, 253, 97, 284, 224
-0.998257, 195, 213, 210, 244
-0.998262, 187, 117, 202, 148
-0.998263, 95, 101, 110, 132
-0.998269, 209, 133, 336, 164
-0.99827, 39, 97, 54, 128
-0.998272, 13, 1, 44, 256
-0.998275, 131, 117, 146, 148
-0.998275, 65, 21, 192, 52
-0.998282, 295, 121, 310, 152
-0.998284, 107, 233, 122, 264
-0.998287, 379, 97, 394, 128
-0.998289, 225, 257, 352, 288
-0.998296, 369, 65, 400, 320
-0.998307, 241, 25, 368, 56
-0.99831, 269, 9, 300, 24
-0.99831, 161, 153, 192, 168
-0.998311, 161, 183, 192, 198
-0.998312, 9, 225, 40, 240
-0.998313, 125, 185, 156, 200
-0.998314, 73, 287, 104, 302
-0.998314, 95, 129, 110, 160
-0.998314, 69, 161, 100, 176
-0.998315, 93, 101, 124, 116
-0.998316, 53, 97, 68, 128
-0.998317, 377, 103, 408, 118
-0.998317, 73, 125, 104, 140
-0.998318, 193, 225, 224, 240
-0.998318, 93, 33, 124, 48
-0.998318, 125, 151, 156, 166
-0.99832, 97, 25, 128, 40
-0.99832, 105, 273, 120, 304
-0.99832, 185, 237, 216, 252
-0.998321, 105, 1, 136, 16
-0.998321, 161, 181, 288, 212
-0.998322, 249, 151, 280, 166
-0.998322, 17, 53, 48, 68
-0.998323, 137, 195, 168, 210
-0.998323, 153, 129, 184, 144
-0.998323, 81, 137, 112, 152
-0.998325, 193, 257, 224, 272
-0.998325, 101, 243, 132, 258
-0.998326, 373, 271, 404, 286
-0.998327, 65, 59, 96, 74
-0.998329, 125, 229, 156, 244
-0.99833, 293, 127, 324, 142
-0.99833, 145, 215, 176, 230
-0.99833, 301, 133, 332, 148
-0.99833, 385, 141, 416, 156
-0.99833, 101, 19, 132, 34
-0.998331, 241, 213, 368, 244
-0.998331, 29, 17, 60, 32
-0.998331, 261, 151, 292, 166
-0.998331, 145, 201, 176, 216
-0.998332, 193, 213, 224, 228
-0.998333, 89, 101, 104, 132
-0.998333, 101, 13, 132, 28
-0.998334, 385, 135, 416, 150
-0.998335, 17, 13, 48, 28
-0.998335, 377, 97, 408, 112
-0.998335, 121, 111, 152, 126
-0.998336, 141, 83, 172, 98
-0.998337, 117, 221, 148, 236
-0.998337, 101, 251, 132, 266
-0.998337, 5, 51, 36, 66
-0.998338, 53, 117, 84, 132
-0.998338, 273, 3, 304, 18
-0.998338, 137, 185, 168, 200
-0.998339, 233, 231, 264, 246
-0.998339, 129, 1, 256, 32
-0.998339, 137, 129, 168, 144
-0.99834, 157, 191, 188, 206
-0.99834, 109, 111, 140, 126
-0.998341, 161, 161, 192, 176
-0.998343, 105, 75, 136, 90
-0.998344, 101, 227, 132, 242
-0.998344, 197, 129, 212, 160
-0.998345, 41, 21, 72, 36
-0.998345, 437, 147, 468, 162
-0.998346, 93, 277, 124, 292
-0.998346, 77, 131, 108, 146
-0.998346, 153, 223, 184, 238
-0.998347, 365, 265, 396, 280
-0.998347, 169, 227, 200, 242
-0.998347, 237, 229, 252, 260
-0.99835, 189, 233, 204, 264
-0.99835, 357, 141, 388, 156
-0.998353, 353, 147, 384, 162
-0.998353, 321, 149, 352, 164
-0.998353, 229, 239, 260, 254
-0.998355, 125, 145, 156, 160
-0.998356, 81, 107, 112, 122
-0.998357, 385, 137, 400, 168
-0.99836, 365, 103, 396, 118
-0.99836, 173, 257, 204, 272
-0.998361, 29, 57, 60, 72
-0.998361, 149, 147, 180, 162
-0.998361, 89, 251, 120, 266
-0.998361, 181, 247, 212, 262
-0.998362, 145, 115, 176, 130
-0.998362, 345, 141, 376, 156
-0.998363, 121, 79, 152, 94
-0.998367, 1, 1, 500, 64
-0.998367, 169, 119, 200, 134
-0.998367, 371, 137, 386, 168
-0.998367, 89, 71, 120, 86
-0.998368, 333, 149, 364, 164
-0.998368, 137, 137, 168, 152
-0.998372, 193, 69, 320, 100
-0.998375, 61, 65, 92, 80
-0.998377, 61, 111, 92, 126
-0.998378, 117, 137, 148, 152
-0.998378, 361, 91, 392, 106
-0.998379, 213, 231, 244, 246
-0.99838, 97, 125, 128, 140
-0.998381, 281, 131, 312, 146
-0.998382, 73, 67, 104, 82
-0.998382, 373, 143, 404, 158
-0.998382, 173, 1, 204, 256
-0.998387, 81, 101, 112, 116
-0.998389, 357, 135, 388, 150
-0.998389, 181, 127, 212, 142
-0.99839, 131, 133, 146, 164
-0.998394, 117, 125, 148, 140
-0.998395, 101, 131, 132, 146
-0.998396, 45, 61, 76, 76
-0.998397, 137, 145, 168, 160
-0.998399, 69, 99, 100, 114
-0.9984, 141, 225, 156, 256
-0.9984, 369, 109, 400, 124
-0.998401, 33, 103, 64, 118
-0.998401, 181, 213, 212, 228
-0.998402, 133, 115, 164, 130
-0.998402, 163, 133, 178, 164
-0.998408, 69, 167, 100, 182
-0.998409, 103, 117, 118, 148
-0.99841, 169, 125, 200, 140
-0.998411, 361, 97, 392, 112
-0.998414, 97, 277, 112, 308
-0.998415, 147, 121, 162, 152
-0.998415, 181, 121, 212, 136
-0.998417, 145, 123, 176, 138
-0.998419, 241, 37, 368, 68
-0.99842, 81, 235, 112, 250
-0.998423, 155, 133, 170, 164
-0.998423, 179, 253, 194, 284
-0.998424, 117, 119, 148, 134
-0.998425, 113, 227, 144, 242
-0.998428, 293, 1, 308, 32
-0.998429, 13, 105, 44, 120
-0.998433, 101, 233, 132, 248
-0.998433, 25, 109, 88, 124
-0.998433, 157, 117, 188, 132
-0.998434, 49, 101, 80, 116
-0.998437, 281, 133, 296, 164
-0.998439, 273, 269, 400, 300
-0.998439, 373, 137, 404, 152
-0.998446, 397, 141, 428, 156
-0.998448, 111, 133, 126, 164
-0.998452, 129, 105, 144, 136
-0.998453, 189, 231, 220, 246
-0.998453, 373, 89, 404, 104
-0.998454, 257, 13, 384, 44
-0.998457, 177, 197, 304, 228
-0.998459, 25, 109, 56, 124
-0.99846, 49, 111, 80, 126
-0.998461, 169, 215, 200, 230
-0.998461, 129, 223, 160, 238
-0.998462, 287, 13, 302, 44
-0.998462, 133, 121, 164, 136
-0.998462, 141, 221, 172, 236
-0.998467, 129, 123, 192, 138
-0.998468, 89, 131, 120, 146
-0.998469, 157, 217, 188, 232
-0.998471, 177, 77, 192, 108
-0.998474, 177, 109, 304, 140
-0.998474, 117, 131, 148, 146
-0.998474, 241, 49, 368, 80
-0.998474, 245, 229, 260, 260
-0.998485, 141, 117, 156, 148
-0.998485, 125, 229, 140, 260
-0.998488, 281, 21, 296, 52
-0.998489, 281, 1, 312, 256
-0.998491, 375, 109, 390, 140
-0.998494, 135, 105, 150, 136
-0.998498, 377, 133, 392, 164
-0.9985, 105, 271, 136, 286
-0.998508, 93, 117, 108, 148
-0.998508, 177, 93, 304, 124
-0.998509, 65, 105, 96, 120
-0.998511, 81, 169, 96, 200
-0.998512, 57, 107, 120, 122
-0.998519, 121, 223, 184, 238
-0.99852, 1, 97, 500, 160
-0.998521, 379, 85, 394, 116
-0.998522, 181, 221, 196, 252
-0.998527, 91, 57, 106, 88
-0.998527, 357, 65, 388, 320
-0.99853, 385, 209, 416, 334
-0.998532, 105, 121, 168, 136
-0.998533, 177, 233, 240, 248
-0.998542, 193, 113, 208, 144
-0.998543, 17, 73, 144, 104
-0.998544, 153, 123, 216, 138
-0.998544, 25, 103, 88, 118
-0.998544, 65, 101, 128, 116
-0.998544, 273, 133, 336, 148
-0.998545, 137, 217, 200, 232
-0.998546, 193, 57, 320, 88
-0.998549, 257, 1, 384, 32
-0.99855, 161, 215, 224, 230
-0.99855, 251, 229, 266, 260
-0.998552, 145, 205, 160, 236
-0.998553, 71, 89, 86, 120
-0.998559, 175, 181, 190, 212
-0.99856, 335, 149, 350, 180
-0.998561, 273, 33, 288, 64
-0.998563, 105, 97, 120, 128
-0.998564, 121, 129, 136, 160
-0.998566, 321, 165, 448, 196
-0.998567, 159, 221, 174, 252
-0.998569, 115, 105, 130, 136
-0.998569, 199, 117, 214, 148
-0.99857, 1, 213, 128, 244
-0.998574, 61, 61, 76, 92
-0.998575, 77, 65, 92, 96
-0.998577, 353, 91, 416, 106
-0.998578, 89, 131, 152, 146
-0.998578, 79, 233, 94, 264
-0.99858, 129, 117, 192, 132
-0.998581, 59, 97, 74, 128
-0.998583, 289, 193, 416, 224
-0.998584, 103, 57, 118, 88
-0.998584, 353, 97, 416, 112
-0.998585, 97, 227, 160, 242
-0.998588, 113, 129, 176, 144
-0.998591, 73, 71, 136, 86
-0.998591, 113, 21, 240, 52
-0.998591, 89, 279, 152, 294
-0.998592, 33, 141, 160, 172
-0.998595, 371, 265, 386, 296
-0.998598, 345, 145, 408, 160
-0.9986, 49, 65, 112, 80
-0.9986, 177, 239, 240, 254
-0.998602, 89, 273, 152, 288
-0.998605, 145, 223, 208, 238
-0.998605, 265, 45, 280, 76
-0.998605, 49, 167, 112, 182
-0.998605, 37, 109, 68, 124
-0.99861, 169, 245, 232, 260
-0.998611, 313, 149, 376, 164
-0.998611, 65, 237, 128, 252
-0.998612, 133, 225, 148, 256
-0.998612, 25, 59, 88, 74
-0.998614, 97, 77, 160, 92
-0.998616, 353, 103, 416, 118
-0.998616, 137, 129, 200, 144
-0.998617, 153, 117, 216, 132
-0.998618, 271, 141, 286, 172
-0.998618, 171, 197, 186, 228
-0.998619, 369, 139, 432, 154
-0.998619, 157, 123, 188, 138
-0.99862, 73, 231, 136, 246
-0.998622, 129, 145, 192, 160
-0.998624, 113, 185, 176, 200
-0.998626, 25, 97, 88, 112
-0.998628, 345, 137, 408, 152
-0.99863, 65, 59, 128, 74
-0.99863, 241, 177, 368, 208
-0.998632, 137, 235, 200, 250
-0.998633, 1, 55, 64, 70
-0.998634, 49, 113, 112, 128
-0.998634, 49, 61, 176, 92
-0.998636, 209, 81, 336, 112
-0.998636, 65, 131, 128, 146
-0.998636, 173, 213, 188, 244
-0.998637, 137, 229, 200, 244
-0.998638, 187, 257, 202, 288
-0.998639, 1, 107, 64, 122
-0.998639, 389, 113, 404, 144
-0.99864, 337, 265, 400, 280
-0.99864, 73, 23, 136, 38
-0.99864, 49, 173, 112, 188
-0.998641, 169, 251, 232, 266
-0.998642, 97, 233, 160, 248
-0.998645, 201, 241, 264, 256
-0.998645, 273, 151, 336, 166
-0.998645, 49, 231, 112, 246
-0.998645, 41, 291, 104, 306
-0.998646, 201, 231, 264, 246
-0.998646, 137, 203, 200, 218
-0.998646, 129, 135, 192, 150
-0.998647, 1, 101, 64, 116
-0.998647, 273, 141, 336, 156
-0.998647, 81, 285, 144, 300
-0.99865, 169, 209, 232, 224
-0.998652, 49, 53, 112, 68
-0.998653, 325, 157, 340, 188
-0.998653, 281, 157, 344, 172
-0.998653, 105, 113, 168, 128
-0.998654, 229, 229, 244, 260
-0.998654, 81, 109, 144, 124
-0.998656, 33, 161, 96, 176
-0.998656, 141, 149, 156, 180
-0.998656, 89, 17, 152, 32
-0.998657, 91, 281, 106, 312
-0.998657, 97, 137, 160, 152
-0.998659, 285, 1, 300, 32
-0.998659, 57, 17, 120, 32
-0.99866, 241, 147, 304, 162
-0.998663, 113, 193, 176, 208
-0.998663, 233, 231, 296, 246
-0.998664, 121, 83, 184, 98
-0.998665, 241, 197, 368, 228
-0.998665, 49, 137, 112, 152
-0.998666, 161, 257, 224, 272
-0.998666, 81, 125, 144, 140
-0.998667, 161, 199, 224, 214
-0.998667, 81, 119, 144, 134
-0.998668, 161, 143, 224, 158
-0.998668, 151, 205, 166, 236
-0.998668, 289, 165, 352, 180
-0.998673, 409, 149, 472, 164
-0.998674, 121, 71, 184, 86
-0.998674, 9, 239, 72, 254
-0.998674, 297, 65, 328, 320
-0.998675, 65, 33, 128, 48
-0.998675, 139, 185, 154, 216
-0.998676, 121, 151, 184, 166
-0.998676, 45, 57, 60, 88
-0.998677, 177, 265, 304, 296
-0.998677, 185, 257, 248, 272
-0.998679, 345, 271, 408, 286
-0.998679, 289, 195, 352, 210
-0.998679, 137, 193, 200, 208
-0.998679, 97, 11, 160, 26
-0.99868, 81, 3, 144, 18
-0.998681, 169, 225, 232, 240
-0.998681, 369, 275, 432, 290
-0.998681, 129, 179, 192, 194
-0.998681, 353, 109, 416, 124
-0.998681, 137, 167, 200, 182
-0.998682, 97, 23, 160, 38
-0.998682, 137, 243, 200, 258
-0.998682, 65, 95, 128, 110
-0.998682, 1, 13, 64, 28
-0.998682, 9, 19, 72, 34
-0.998683, 261, 149, 276, 180
-0.998683, 89, 103, 152, 118
-0.998684, 257, 57, 272, 88
-0.998684, 233, 31, 296, 46
-0.998684, 97, 249, 160, 264
-0.998684, 81, 165, 144, 180
-0.998687, 129, 111, 192, 126
-0.998687, 49, 121, 112, 136
-0.998687, 25, 233, 88, 248
-0.998687, 273, 127, 336, 142
-0.998688, 109, 113, 124, 144
-0.998688, 145, 89, 208, 104
-0.998688, 201, 89, 264, 104
-0.998689, 9, 225, 72, 240
-0.99869, 161, 129, 224, 144
-0.99869, 83, 65, 98, 96
-0.99869, 237, 241, 252, 272
-0.99869, 249, 1, 312, 16
-0.99869, 289, 171, 352, 186
-0.998691, 119, 225, 134, 256
-0.998691, 83, 109, 98, 140
-0.998691, 89, 47, 152, 62
-0.998691, 89, 129, 104, 160
-0.998692, 201, 65, 232, 320
-0.998692, 33, 195, 96, 210
-0.998692, 191, 129, 206, 160
-0.998693, 49, 201, 112, 216
-0.998693, 447, 145, 462, 176
-0.998693, 35, 245, 50, 276
-0.998694, 217, 153, 280, 168
-0.998694, 369, 145, 432, 160
-0.998694, 249, 7, 312, 22
-0.998694, 113, 205, 176, 220
-0.998696, 305, 141, 368, 156
-0.998696, 73, 189, 136, 204
-0.998698, 57, 281, 120, 296
-0.998699, 33, 143, 96, 158
-0.998699, 147, 181, 162, 212
-0.998699, 25, 115, 88, 130
-0.998699, 177, 121, 240, 136
-0.998703, 121, 189, 136, 220
-0.998704, 55, 57, 70, 88
-0.998704, 193, 25, 208, 56
-0.998705, 141, 105, 156, 136
-0.998709, 149, 137, 164, 168
-0.998738, 369, 105, 496, 136
-0.998748, 305, 125, 432, 156
-0.998767, 289, 1, 320, 128
-0.99878, 297, 65, 328, 192
-0.998853, 1, 1, 32, 256
-0.998869, 353, 289, 480, 320
-0.998878, 289, 149, 416, 180
-0.9989, 353, 117, 480, 148
-0.998921, 337, 209, 464, 240
-0.998923, 309, 65, 340, 320
-0.998925, 39, 49, 54, 176
-0.998928, 369, 81, 496, 112
-0.998936, 49, 49, 64, 176
-0.998949, 425, 65, 456, 320
-0.99895, 89, 49, 104, 176
-0.998977, 1, 301, 128, 332
-0.998989, 353, 197, 480, 228
-0.998989, 281, 65, 312, 192
-0.998992, 49, 97, 64, 224
-0.998995, 289, 209, 416, 240
-0.999007, 381, 65, 412, 320
-0.999018, 425, 65, 488, 320
-0.999031, 289, 181, 416, 212
-0.999037, 31, 49, 46, 176
-0.999044, 209, 285, 336, 316
-0.999047, 55, 49, 70, 176
-0.999069, 353, 253, 480, 284
-0.999072, 25, 49, 40, 176
-0.999075, 43, 97, 58, 224
-0.999088, 19, 33, 34, 160
-0.999089, 329, 65, 360, 320
-0.999098, 61, 49, 76, 176
-0.999099, 47, 1, 62, 128
-0.99911, 103, 49, 118, 176
-0.999114, 71, 49, 86, 176
-0.99912, 241, 61, 368, 92
-0.999128, 83, 49, 98, 176
-0.999128, 241, 117, 368, 148
-0.999134, 71, 97, 86, 224
-0.999134, 129, 81, 144, 208
-0.999138, 55, 97, 70, 224
-0.999143, 397, 65, 428, 320
-0.999146, 97, 17, 112, 144
-0.999166, 337, 177, 464, 208
-0.999168, 273, 281, 400, 312
-0.999184, 353, 233, 480, 264
-0.999189, 149, 65, 164, 192
-0.999193, 77, 49, 92, 176
-0.999202, 95, 65, 110, 192
-0.999206, 105, 209, 120, 334
-0.999208, 1, 121, 500, 184
-0.999233, 369, 81, 384, 208
-0.999235, 81, 97, 96, 224
-0.999242, 353, 301, 480, 332
-0.999247, 125, 129, 140, 256
-0.999253, 93, 209, 108, 334
-0.999254, 121, 49, 136, 176
-0.999255, 73, 145, 88, 272
-0.999256, 135, 81, 150, 208
-0.999259, 29, 1, 44, 128
-0.999259, 117, 1, 132, 128
-0.999261, 13, 33, 28, 160
-0.999262, 39, 1, 54, 128
-0.999268, 103, 97, 118, 224
-0.999286, 335, 129, 350, 256
-0.999286, 115, 209, 130, 334
-0.999289, 143, 49, 158, 176
-0.9993, 155, 65, 170, 192
-0.999308, 111, 17, 126, 144
-0.999317, 113, 65, 128, 192
-0.999318, 53, 1, 68, 128
-0.999337, 383, 97, 398, 224
-0.999355, 103, 1, 118, 128
-0.999357, 63, 97, 78, 224
-0.999358, 1, 193, 128, 224
-0.999364, 47, 209, 62, 334
-0.99938, 205, 177, 220, 304
-0.999382, 195, 1, 210, 128
-0.999385, 189, 177, 204, 304
-0.999388, 195, 209, 210, 334
-0.9994, 89, 97, 104, 224
-0.999402, 99, 193, 114, 320
-0.999403, 161, 65, 176, 192
-0.999406, 175, 177, 190, 304
-0.999412, 189, 65, 204, 192
-0.999412, 389, 81, 404, 208
-0.999416, 139, 129, 154, 256
-0.999418, 355, 113, 370, 240
-0.999422, 287, 1, 302, 128
-0.999425, 271, 145, 286, 272
-0.99943, 369, 133, 496, 164
-0.999431, 195, 129, 210, 256
-0.999433, 375, 97, 390, 224
-0.999434, 363, 65, 378, 192
-0.999435, 187, 1, 202, 128
-0.999435, 215, 145, 230, 272
-0.999438, 157, 129, 172, 256
-0.999441, 179, 49, 194, 176
-0.999445, 95, 113, 110, 240
-0.999449, 201, 1, 216, 128
-0.999453, 225, 81, 240, 208
-0.999455, 7, 33, 22, 160
-0.999457, 297, 97, 312, 224
-0.99946, 1, 33, 16, 160
-0.999462, 247, 65, 262, 192
-0.999467, 73, 1, 88, 128
-0.999471, 265, 145, 280, 272
-0.999483, 63, 1, 78, 128
-0.999483, 181, 177, 196, 304
-0.999487, 169, 177, 184, 304
-0.999488, 235, 49, 250, 176
-0.999493, 167, 65, 182, 192
-0.999495, 105, 145, 120, 272
-0.999499, 231, 97, 246, 224
-0.9995, 49, 161, 64, 288
-0.999504, 149, 113, 164, 240
-0.999505, 281, 1, 296, 128
-0.999506, 87, 209, 102, 334
-0.999507, 71, 193, 86, 320
-0.999507, 269, 1, 284, 128
-0.999508, 119, 97, 134, 224
-0.999511, 37, 97, 52, 224
-0.999511, 259, 1, 274, 128
-0.999521, 1, 161, 128, 192
-0.999522, 323, 151, 338, 166
-0.999524, 47, 57, 62, 72
-0.999524, 357, 133, 372, 148
-0.999524, 95, 69, 110, 84
-0.999525, 249, 1, 264, 128
-0.999525, 277, 19, 292, 34
-0.999526, 199, 133, 214, 148
-0.999527, 131, 113, 146, 128
-0.999527, 97, 137, 112, 152
-0.999527, 87, 99, 102, 114
-0.999527, 163, 145, 178, 160
-0.999527, 45, 21, 60, 36
-0.999528, 87, 67, 102, 82
-0.999528, 167, 129, 182, 144
-0.999528, 287, 5, 302, 20
-0.999528, 69, 63, 84, 78
-0.999528, 315, 133, 330, 148
-0.999529, 79, 145, 94, 272
-0.999529, 381, 271, 396, 286
-0.999529, 187, 239, 202, 254
-0.999529, 81, 65, 96, 80
-0.99953, 341, 129, 356, 256
-0.99953, 81, 233, 96, 248
-0.99953, 245, 231, 260, 246
-0.99953, 225, 269, 352, 300
-0.999531, 211, 209, 226, 334
-0.999531, 89, 285, 104, 300
-0.999531, 271, 145, 286, 160
-0.999532, 87, 129, 102, 144
-0.999532, 111, 125, 126, 140
-0.999532, 267, 151, 282, 166
-0.999532, 149, 147, 164, 162
-0.999532, 97, 251, 112, 266
-0.999533, 139, 113, 154, 128
-0.999533, 175, 81, 190, 96
-0.999533, 195, 257, 210, 272
-0.999534, 293, 129, 308, 144
-0.999534, 187, 119, 202, 134
-0.999535, 371, 265, 386, 280
-0.999535, 57, 59, 72, 74
-0.999537, 235, 239, 250, 254
-0.999537, 185, 215, 200, 230
-0.999538, 279, 133, 294, 148
-0.999538, 93, 279, 108, 294
-0.999539, 63, 61, 78, 76
-0.999539, 155, 129, 170, 144
-0.999539, 131, 133, 146, 148
-0.999539, 47, 103, 62, 118
-0.99954, 205, 81, 220, 208
-0.99954, 411, 129, 426, 256
-0.999541, 215, 151, 230, 166
-0.999542, 345, 65, 376, 320
-0.999542, 155, 143, 170, 158
-0.999542, 229, 231, 244, 246
-0.999542, 115, 227, 130, 242
-0.999542, 81, 169, 96, 184
-0.999542, 177, 257, 192, 272
-0.999543, 35, 255, 50, 270
-0.999543, 377, 111, 392, 126
-0.999543, 395, 81, 410, 208
-0.999543, 141, 145, 156, 160
-0.999543, 147, 121, 162, 136
-0.999543, 93, 125, 108, 140
-0.999544, 359, 141, 374, 156
-0.999544, 203, 127, 218, 142
-0.999544, 187, 257, 202, 272
-0.999545, 81, 209, 96, 334
-0.999545, 293, 117, 308, 132
-0.999545, 325, 157, 340, 172
-0.999545, 279, 113, 294, 240
-0.999546, 379, 97, 394, 112
-0.999547, 65, 193, 80, 320
-0.999547, 291, 97, 306, 224
-0.999547, 235, 231, 250, 246
-0.999548, 193, 131, 208, 146
-0.999551, 121, 111, 136, 126
-0.999551, 363, 95, 378, 110
-0.999552, 169, 157, 184, 172
-0.999552, 315, 113, 330, 240
-0.999553, 123, 225, 138, 240
-0.999553, 69, 111, 84, 126
-0.999554, 181, 119, 196, 134
-0.999555, 261, 149, 276, 164
-0.999555, 379, 261, 394, 276
-0.999556, 195, 213, 210, 228
-0.999557, 121, 135, 136, 150
-0.999558, 277, 177, 292, 304
-0.999558, 141, 1, 156, 128
-0.999559, 255, 145, 270, 272
-0.999559, 257, 81, 384, 112
-0.999559, 369, 105, 384, 120
-0.999559, 289, 57, 416, 120
-0.99956, 385, 89, 400, 104
-0.99956, 53, 105, 68, 120
-0.99956, 127, 209, 142, 334
-0.999562, 337, 149, 352, 164
-0.999563, 141, 139, 156, 154
-0.999563, 103, 233, 118, 248
-0.999563, 153, 117, 168, 132
-0.999564, 89, 1, 104, 128
-0.999565, 133, 145, 148, 160
-0.999566, 375, 89, 390, 104
-0.999567, 131, 145, 146, 272
-0.999568, 179, 217, 194, 232
-0.999568, 215, 1, 230, 128
-0.999569, 73, 163, 88, 178
-0.999569, 85, 145, 100, 272
-0.99957, 373, 141, 388, 156
-0.999571, 377, 49, 392, 176
-0.999571, 247, 145, 262, 272
-0.999571, 129, 127, 144, 142
-0.999572, 79, 105, 94, 120
-0.999573, 27, 107, 42, 122
-0.999573, 129, 225, 144, 240
-0.999573, 171, 129, 186, 256
-0.999574, 99, 275, 114, 290
-0.999575, 111, 161, 126, 288
-0.999576, 105, 131, 120, 146
-0.999576, 79, 99, 94, 114
-0.999576, 73, 97, 88, 112
-0.999576, 219, 81, 234, 208
-0.999577, 99, 129, 114, 144
-0.999577, 275, 1, 290, 128
-0.999577, 183, 125, 198, 140
-0.999577, 115, 271, 130, 286
-0.999578, 65, 105, 80, 120
-0.999578, 121, 209, 136, 334
-0.99958, 103, 251, 118, 266
-0.99958, 165, 151, 180, 166
-0.999582, 195, 49, 210, 176
-0.999583, 135, 223, 150, 238
-0.999585, 133, 121, 148, 136
-0.999586, 181, 249, 196, 264
-0.999586, 167, 117, 182, 132
-0.999586, 145, 221, 160, 236
-0.999587, 255, 209, 270, 334
-0.999589, 325, 209, 340, 334
-0.999589, 93, 131, 108, 146
-0.99959, 93, 161, 108, 288
-0.99959, 385, 139, 400, 154
-0.99959, 107, 271, 122, 286
-0.99959, 369, 91, 384, 106
-0.99959, 153, 123, 168, 138
-0.999591, 393, 129, 408, 256
-0.999591, 201, 129, 216, 256
-0.999595, 37, 103, 52, 118
-0.999596, 241, 65, 256, 192
-0.999596, 153, 219, 168, 234
-0.9996, 31, 97, 46, 224
-0.999603, 163, 217, 178, 232
-0.999604, 293, 123, 308, 138
-0.999604, 173, 215, 188, 230
-0.999604, 407, 141, 422, 156
-0.999604, 133, 33, 148, 160
-0.999605, 79, 1, 94, 128
-0.999607, 53, 209, 68, 334
-0.999608, 127, 33, 142, 160
-0.99961, 159, 117, 174, 132
-0.999612, 121, 129, 136, 144
-0.999616, 115, 131, 130, 146
-0.999619, 191, 231, 206, 246
-0.999623, 125, 119, 140, 134
-0.999636, 175, 119, 190, 134
-0.999643, 409, 65, 440, 320
-0.999647, 33, 109, 48, 124
-0.999665, 63, 111, 78, 126
-0.999668, 47, 109, 62, 124
-0.999671, 379, 135, 394, 150
-0.999682, 57, 111, 72, 126
-0.999683, 39, 109, 54, 124
-0.999685, 177, 125, 192, 140
-0.999693, 167, 123, 182, 138
-0.999695, 71, 105, 86, 120
-0.999717, 437, 65, 468, 320
-0.999735, 159, 123, 174, 138
-0.999737, 369, 265, 496, 296
-1.00001, 421, 81, 452, 208
-1.00011, 353, 1, 480, 64
-1.0002, 265, 49, 296, 176
-1.00022, 449, 65, 480, 320
-1.0004, 337, 33, 464, 96
-1.00047, 281, 1, 344, 128
-1.00059, 273, 25, 400, 88
-1.00062, 409, 81, 440, 208
-1.00082, 461, 65, 492, 320
-1.00086, 397, 209, 428, 334
-1.00108, 385, 33, 448, 160
-1.00147, 457, 209, 488, 334
-1.00151, 433, 81, 464, 208
-1.00209, 21, 161, 52, 288
-1.00243, 357, 145, 388, 272
-1.00245, 413, 209, 444, 334
-1.00246, 453, 145, 484, 272
-1.0025, 5, 161, 36, 288
-1.00253, 305, 1, 432, 64
-1.00284, 377, 33, 408, 160
-1.00428, 433, 97, 496, 224
-1.00465, 361, 1, 424, 128
-1.00504, 313, 33, 376, 160
-1.00925, 425, 49, 488, 176
-1.00968, 433, 1, 496, 128
-1.01085, 409, 1, 472, 128
-1.01326, 337, 1, 400, 128
