1960
-0.338897, 1, 129, 500, 375
-0.427599, 1, 1, 500, 375
-0.489992, 1, 33, 500, 288
-0.551493, 257, 1, 500, 375
-0.579162, 129, 129, 384, 375
-0.586594, 65, 1, 320, 375
-0.61026, 33, 129, 288, 375
-0.625136, 257, 97, 500, 352
-0.630854, 161, 1, 416, 375
-0.775738, 225, 1, 480, 256
-0.811832, 33, 33, 288, 288
-0.831464, 129, 33, 384, 288
-0.854103, 321, 65, 448, 320
-0.854293, 49, 129, 176, 375
-0.857745, 1, 209, 500, 336
-0.862343, 129, 129, 256, 375
-0.862754, 209, 129, 336, 375
-0.870614, 1, 129, 128, 375
-0.879754, 33, 1, 160, 375
-0.881082, 273, 129, 400, 375
-0.883896, 289, 1, 416, 375
-0.890111, 1, 161, 500, 288
-0.890424, 97, 209, 352, 336
-0.891466, 369, 97, 496, 352
-0.892798, 273, 33, 400, 288
-0.89433, 337, 1, 464, 375
-0.89609, 113, 1, 240, 375
-0.903354, 1, 225, 256, 352
-0.903554, 209, 1, 336, 375
-0.907411, 257, 193, 500, 320
-0.911014, 17, 225, 144, 352
-0.913688, 161, 145, 416, 272
-0.913784, 161, 1, 288, 375
-0.917456, 225, 33, 352, 288
-0.920182, 113, 33, 240, 288
-0.92077, 145, 209, 272, 336
-0.922949, 65, 209, 192, 336
-0.923648, 193, 241, 448, 368
-0.927443, 193, 225, 320, 352
-0.927773, 41, 225, 104, 352
-0.930105, 113, 209, 176, 336
-0.93088, 65, 225, 128, 352
-0.931642, 289, 177, 416, 304
-0.931757, 257, 113, 500, 240
-0.93192, 209, 209, 272, 336
-0.932017, 65, 33, 192, 288
-0.935259, 89, 225, 152, 352
-0.936005, 369, 225, 496, 352
-0.93691, 9, 225, 72, 352
-0.937792, 1, 113, 500, 240
-0.937899, 33, 145, 288, 272
-0.938098, 129, 145, 256, 272
-0.938475, 281, 241, 344, 368
-0.938881, 17, 33, 144, 288
-0.93905, 209, 177, 336, 304
-0.942285, 273, 241, 400, 368
-0.942471, 81, 241, 144, 304
-0.943173, 345, 49, 408, 176
-0.943743, 185, 225, 248, 352
-0.944242, 233, 241, 296, 368
-0.944286, 313, 177, 376, 304
-0.94458, 41, 225, 104, 288
-0.945464, 89, 281, 152, 344
-0.94575, 1, 65, 500, 192
-0.945844, 49, 161, 176, 288
-0.946045, 177, 33, 304, 288
-0.946346, 409, 241, 472, 368
-0.946505, 57, 249, 120, 312
-0.946941, 305, 129, 368, 256
-0.947181, 193, 65, 448, 192
-0.947816, 265, 193, 328, 320
-0.948067, 209, 129, 336, 256
-0.949313, 313, 185, 376, 248
-0.950298, 417, 177, 480, 304
-0.950906, 321, 49, 448, 176
-0.951484, 369, 1, 496, 256
-0.951907, 377, 225, 440, 352
-0.952169, 289, 177, 352, 304
-0.952491, 177, 249, 240, 312
-0.952714, 137, 209, 200, 336
-0.952806, 201, 225, 264, 288
-0.952859, 121, 233, 184, 296
-0.953238, 57, 273, 120, 336
-0.953359, 337, 113, 464, 240
-0.954666, 289, 129, 416, 256
-0.954735, 329, 129, 392, 256
-0.955097, 9, 233, 72, 296
-0.955203, 433, 225, 496, 352
-0.95544, 113, 257, 176, 320
-0.955907, 321, 225, 448, 352
-0.95609, 257, 241, 320, 368
-0.956451, 249, 257, 312, 320
-0.956848, 161, 193, 224, 320
-0.957189, 177, 145, 240, 272
-0.957693, 129, 129, 192, 256
-0.957898, 105, 209, 168, 272
-0.958114, 273, 49, 400, 176
-0.958395, 321, 49, 384, 176
-0.958759, 105, 161, 168, 288
-0.958802, 409, 217, 472, 280
-0.95898, 337, 193, 400, 320
-0.959379, 217, 257, 280, 320
-0.960043, 65, 217, 128, 280
-0.960187, 257, 233, 320, 296
-0.960331, 281, 297, 344, 360
-0.960343, 33, 257, 96, 320
-0.960601, 161, 241, 224, 368
-0.960805, 369, 177, 496, 304
-0.960991, 297, 209, 360, 272
-0.961049, 345, 49, 408, 112
-0.961083, 193, 17, 448, 144
-0.961781, 241, 297, 304, 360
-0.961849, 265, 145, 328, 272
-0.96222, 297, 161, 360, 224
-0.96303, 409, 241, 472, 304
-0.963476, 73, 177, 136, 304
-0.964117, 297, 81, 360, 208
-0.964325, 97, 97, 352, 224
-0.964639, 153, 145, 216, 272
-0.965141, 313, 225, 376, 352
-0.965264, 321, 49, 384, 112
-0.965441, 129, 209, 192, 272
-0.965492, 57, 297, 120, 360
-0.965494, 281, 257, 344, 320
-0.965673, 289, 185, 352, 248
-0.965788, 153, 225, 216, 288
-0.965893, 113, 217, 240, 280
-0.965952, 1, 17, 500, 144
-0.966097, 9, 273, 72, 336
-0.966104, 153, 265, 216, 328
-0.966162, 225, 193, 256, 320
-0.966373, 201, 145, 264, 272
-0.966532, 69, 265, 100, 328
-0.966685, 177, 273, 240, 336
-0.966768, 33, 281, 96, 344
-0.966768, 209, 289, 272, 352
-0.967148, 17, 249, 144, 312
-0.96729, 177, 217, 240, 280
-0.967328, 425, 305, 488, 368
-0.967335, 1, 145, 128, 272
-0.967363, 97, 225, 128, 352
-0.967446, 41, 177, 104, 304
-0.967832, 225, 233, 288, 296
-0.96795, 329, 313, 392, 375
-0.968022, 353, 97, 416, 224
-0.968143, 17, 145, 80, 272
-0.968442, 241, 193, 304, 320
-0.968547, 41, 129, 104, 375
-0.968575, 65, 241, 96, 368
-0.968599, 65, 233, 192, 296
-0.968622, 117, 225, 148, 352
-0.968623, 137, 201, 168, 264
-0.968646, 69, 233, 100, 296
-0.968886, 85, 225, 116, 352
-0.969032, 1, 97, 256, 224
-0.969067, 333, 177, 364, 240
-0.96922, 209, 257, 336, 320
-0.969408, 89, 129, 152, 375
-0.969459, 133, 193, 164, 320
-0.969481, 113, 281, 176, 344
-0.969484, 193, 225, 320, 288
-0.969545, 329, 209, 392, 272
-0.969582, 433, 209, 496, 272
-0.969628, 81, 281, 112, 344
-0.96964, 369, 313, 432, 375
-0.969696, 329, 25, 392, 88
-0.969993, 349, 185, 380, 248
-0.970364, 49, 225, 80, 288
-0.970649, 85, 241, 116, 304
-0.970867, 321, 281, 384, 344
-0.970923, 1, 225, 128, 288
-0.971151, 113, 257, 240, 320
-0.971242, 385, 217, 448, 280
-0.971299, 97, 281, 128, 344
-0.971313, 273, 209, 336, 272
-0.971366, 281, 233, 344, 296
-0.971909, 33, 281, 160, 344
-0.971948, 417, 129, 480, 256
-0.971962, 329, 1, 392, 128
-0.97213, 129, 129, 192, 375
-0.97217, 377, 249, 440, 312
-0.972443, 305, 97, 368, 352
-0.972459, 297, 241, 328, 368
-0.972584, 393, 289, 456, 352
-0.972816, 369, 49, 432, 176
-0.972864, 153, 201, 216, 264
-0.973141, 209, 249, 240, 312
-0.973144, 9, 297, 72, 360
-0.973297, 237, 209, 268, 336
-0.9734, 273, 313, 400, 375
-0.973543, 213, 193, 244, 320
-0.973807, 201, 201, 264, 264
-0.973812, 225, 209, 256, 272
-0.973818, 65, 289, 96, 352
-0.973974, 425, 225, 456, 352
-0.974023, 45, 249, 76, 312
-0.974078, 13, 225, 44, 352
-0.97416, 161, 129, 224, 375
-0.974241, 41, 225, 72, 352
-0.974268, 65, 201, 192, 264
-0.974421, 353, 241, 416, 368
-0.974427, 193, 289, 320, 352
-0.974639, 341, 129, 372, 256
-0.974859, 321, 281, 448, 344
-0.974875, 321, 225, 448, 288
-0.974898, 221, 257, 252, 320
-0.974925, 273, 281, 400, 344
-0.974989, 337, 1, 400, 256
-0.975008, 81, 305, 144, 368
-0.975053, 213, 241, 244, 368
-0.975078, 109, 241, 140, 304
-0.975162, 273, 161, 336, 224
-0.975401, 301, 177, 332, 304
-0.975512, 425, 177, 488, 240
-0.975609, 53, 209, 84, 336
-0.975695, 273, 225, 400, 288
-0.975807, 53, 281, 84, 344
-0.975872, 1, 129, 64, 375
-0.975925, 113, 193, 240, 256
-0.97606, 321, 177, 352, 304
-0.976088, 273, 193, 400, 256
-0.976149, 117, 273, 148, 336
-0.976254, 193, 129, 256, 375
-0.976269, 57, 257, 88, 320
-0.976276, 233, 257, 264, 320
-0.976408, 213, 225, 244, 288
-0.976442, 197, 225, 228, 352
-0.976678, 125, 225, 156, 288
-0.976681, 29, 241, 60, 368
-0.976681, 137, 289, 200, 352
-0.976718, 161, 249, 288, 312
-0.976719, 421, 209, 452, 272
-0.976723, 293, 265, 324, 328
-0.976736, 145, 145, 208, 208
-0.976791, 305, 137, 368, 200
-0.976816, 177, 193, 240, 256
-0.976824, 81, 281, 208, 344
-0.976852, 285, 233, 316, 296
-0.976852, 209, 81, 336, 208
-0.976888, 33, 305, 96, 368
-0.97699, 337, 185, 400, 248
-0.97705, 353, 305, 480, 368
-0.977223, 225, 193, 352, 256
-0.977301, 361, 201, 424, 264
-0.977356, 361, 65, 424, 320
-0.977357, 433, 241, 496, 304
-0.977383, 441, 225, 472, 352
-0.97741, 73, 193, 104, 320
-0.977425, 345, 281, 408, 344
-0.977472, 297, 33, 360, 160
-0.977538, 285, 209, 316, 336
-0.97754, 65, 257, 192, 320
-0.977571, 137, 225, 168, 288
-0.977664, 13, 233, 44, 296
-0.977785, 241, 145, 304, 272
-0.977807, 257, 1, 384, 128
-0.977894, 321, 185, 352, 248
-0.978121, 425, 129, 488, 375
-0.978123, 369, 273, 432, 336
-0.978242, 269, 241, 300, 368
-0.978322, 65, 129, 128, 375
-0.978342, 349, 177, 380, 304
-0.978382, 305, 193, 336, 256
-0.978486, 409, 265, 472, 328
-0.978511, 273, 297, 304, 360
-0.978522, 421, 249, 452, 312
-0.978524, 17, 209, 80, 272
-0.978529, 337, 73, 400, 136
-0.978582, 393, 177, 456, 304
-0.978613, 353, 145, 416, 272
-0.978653, 345, 97, 408, 160
-0.978659, 273, 249, 400, 312
-0.978751, 401, 313, 464, 375
-0.978758, 201, 225, 232, 288
-0.978804, 245, 233, 276, 296
-0.978879, 357, 49, 388, 112
-0.979033, 365, 49, 396, 176
-0.979049, 369, 241, 496, 304
-0.979246, 97, 257, 128, 320
-0.979307, 157, 265, 188, 328
-0.979344, 145, 209, 176, 336
-0.979485, 121, 249, 152, 312
-0.979488, 321, 201, 448, 264
-0.979583, 225, 313, 352, 375
-0.979667, 353, 49, 384, 176
-0.979688, 225, 241, 256, 368
-0.979708, 273, 169, 400, 232
-0.979843, 353, 25, 416, 88
-0.979889, 277, 257, 308, 320
-0.980004, 437, 217, 468, 280
-0.980152, 305, 129, 336, 256
-0.980181, 201, 145, 264, 208
-0.98027, 105, 153, 168, 216
-0.980314, 425, 177, 456, 304
-0.980339, 29, 265, 60, 328
-0.980367, 377, 113, 440, 240
-0.980445, 265, 129, 328, 375
-0.980477, 369, 217, 496, 280
-0.980611, 133, 145, 164, 272
-0.980646, 305, 233, 368, 296
-0.980667, 249, 225, 280, 352
-0.980774, 325, 209, 356, 272
-0.980834, 305, 161, 336, 224
-0.980885, 337, 33, 368, 160
-0.98091, 321, 257, 448, 320
-0.981064, 409, 209, 440, 336
-0.981106, 353, 209, 384, 272
-0.981109, 201, 145, 232, 272
-0.981142, 49, 305, 80, 368
-0.981261, 329, 97, 392, 352
-0.981276, 289, 129, 416, 192
-0.981434, 337, 177, 464, 240
-0.981474, 49, 305, 176, 368
-0.981518, 217, 281, 248, 344
-0.981621, 97, 233, 128, 296
-0.981648, 125, 201, 156, 264
-0.981665, 333, 81, 364, 208
-0.981694, 37, 225, 68, 288
-0.981714, 81, 217, 112, 280
-0.981733, 157, 193, 188, 320
-0.981756, 117, 145, 148, 272
-0.981789, 197, 249, 228, 312
-0.981821, 433, 297, 464, 360
-0.981874, 337, 137, 400, 200
-0.981881, 177, 161, 240, 224
-0.981923, 81, 129, 144, 256
-0.981983, 113, 305, 176, 368
-0.982022, 293, 289, 324, 352
-0.982022, 453, 225, 484, 352
-0.982065, 97, 145, 224, 208
-0.982121, 217, 129, 280, 375
-0.982144, 369, 33, 496, 160
-0.982163, 41, 273, 72, 336
-0.98217, 193, 145, 320, 208
-0.982191, 453, 201, 484, 264
-0.982298, 353, 129, 384, 256
-0.982366, 209, 313, 272, 375
-0.982385, 369, 281, 496, 344
-0.982429, 41, 201, 104, 264
-0.982451, 33, 97, 160, 224
-0.982541, 57, 129, 120, 256
-0.982577, 245, 257, 276, 320
-0.982658, 305, 49, 432, 112
-0.982697, 369, 113, 432, 176
-0.98271, 453, 305, 484, 368
-0.98277, 213, 145, 244, 272
-0.982777, 81, 305, 112, 368
-0.982826, 457, 177, 488, 304
-0.982904, 157, 209, 188, 272
-0.982962, 313, 113, 376, 176
-0.983011, 129, 241, 160, 368
-0.983014, 129, 185, 192, 248
-0.983049, 241, 193, 304, 256
-0.98305, 333, 33, 364, 96
-0.983131, 257, 97, 320, 224
-0.98314, 49, 153, 112, 216
-0.983173, 425, 137, 488, 200
-0.983195, 129, 81, 256, 208
-0.983207, 337, 201, 368, 264
-0.983254, 213, 201, 244, 264
-0.983324, 257, 137, 320, 200
-0.983364, 305, 249, 336, 312
-0.983394, 153, 129, 184, 256
-0.983481, 361, 193, 392, 320
-0.983495, 185, 241, 216, 368
-0.983518, 29, 289, 60, 352
-0.983588, 173, 265, 204, 328
-0.983706, 1, 305, 128, 368
-0.983706, 25, 241, 56, 304
-0.983742, 373, 33, 404, 96
-0.983754, 413, 281, 444, 344
-0.983788, 305, 257, 368, 320
-0.983789, 401, 129, 464, 375
-0.983812, 225, 233, 256, 296
-0.983815, 377, 49, 408, 176
-0.983853, 145, 281, 272, 344
-0.983881, 345, 1, 408, 375
-0.983915, 169, 297, 232, 360
-0.983923, 141, 289, 172, 352
-0.984026, 321, 1, 448, 128
-0.98403, 13, 297, 44, 360
-0.984169, 81, 113, 208, 240
-0.984184, 265, 233, 296, 296
-0.984187, 257, 257, 288, 320
-0.984193, 181, 145, 212, 272
-0.984244, 289, 161, 320, 288
-0.98434, 129, 273, 160, 336
-0.984372, 5, 273, 36, 336
-0.984376, 337, 177, 368, 304
-0.984455, 409, 217, 440, 280
-0.984469, 361, 25, 392, 88
-0.984538, 265, 185, 328, 248
-0.984648, 313, 73, 376, 136
-0.984744, 433, 241, 464, 304
-0.984783, 309, 225, 340, 352
-0.984862, 377, 241, 408, 368
-0.984887, 29, 145, 60, 272
-0.984957, 209, 169, 336, 232
-0.985022, 161, 241, 192, 304
-0.985074, 185, 241, 216, 304
-0.985098, 313, 1, 376, 256
-0.985115, 1, 145, 64, 208
-0.98527, 225, 145, 256, 272
-0.985295, 141, 249, 172, 312
-0.985489, 353, 1, 416, 128
-0.985538, 461, 177, 492, 240
-0.985579, 73, 153, 136, 216
-0.985579, 105, 145, 136, 272
-0.985601, 317, 129, 348, 256
-0.985603, 69, 209, 100, 272
-0.985629, 205, 273, 236, 336
-0.985647, 369, 65, 432, 128
-0.985746, 177, 129, 240, 192
-0.985953, 289, 81, 416, 144
-0.986059, 337, 113, 464, 176
-0.986084, 65, 313, 96, 375
-0.986259, 409, 305, 440, 368
-0.986314, 341, 57, 372, 120
-0.986348, 465, 201, 496, 264
-0.986349, 25, 153, 88, 216
-0.986459, 109, 217, 140, 280
-0.986479, 369, 281, 400, 344
-0.986484, 241, 129, 304, 375
-0.986487, 305, 313, 368, 375
-0.986524, 61, 145, 92, 272
-0.986526, 297, 225, 328, 288
-0.986621, 81, 193, 144, 256
-0.986629, 297, 49, 360, 112
-0.986771, 365, 209, 396, 272
-0.986889, 161, 201, 288, 264
-0.986943, 373, 57, 404, 120
-0.986971, 177, 97, 240, 224
-0.987015, 353, 281, 384, 344
-0.98712, 33, 249, 288, 312
-0.987138, 441, 177, 472, 304
-0.987168, 129, 313, 256, 375
-0.987182, 369, 1, 432, 375
-0.987374, 253, 297, 284, 360
-0.987374, 361, 305, 392, 368
-0.987423, 25, 217, 56, 280
-0.987467, 373, 241, 404, 304
-0.987511, 305, 25, 432, 88
-0.987521, 405, 241, 436, 304
-0.987582, 305, 25, 368, 88
-0.987645, 389, 313, 420, 375
-0.987646, 389, 225, 420, 352
-0.987691, 73, 145, 104, 272
-0.987693, 17, 201, 144, 264
-0.987722, 1, 241, 32, 368
-0.987806, 41, 145, 72, 272
-0.987847, 17, 1, 80, 375
-0.987877, 105, 185, 168, 248
-0.98788, 129, 297, 160, 360
-0.987881, 25, 193, 56, 320
-0.987923, 309, 225, 340, 288
-0.987923, 305, 1, 368, 375
-0.988016, 185, 193, 216, 320
-0.98806, 105, 233, 168, 264
-0.988076, 85, 145, 116, 272
-0.988182, 453, 233, 484, 296
-0.988225, 385, 89, 448, 152
-0.988249, 193, 233, 448, 296
-0.988261, 93, 305, 124, 368
-0.98834, 129, 265, 384, 328
-0.988369, 353, 1, 384, 128
-0.988374, 329, 129, 360, 256
-0.988383, 257, 33, 384, 96
-0.988418, 209, 121, 336, 184
-0.988419, 41, 237, 104, 268
-0.98849, 49, 309, 112, 340
-0.988516, 165, 241, 196, 368
-0.988547, 173, 241, 204, 304
-0.988559, 105, 97, 168, 224
-0.988588, 65, 237, 128, 268
-0.988634, 389, 65, 420, 192
-0.988636, 377, 41, 440, 104
-0.988669, 145, 153, 272, 216
-0.988673, 345, 25, 376, 88
-0.988688, 145, 1, 208, 375
-0.988707, 33, 225, 288, 288
-0.988764, 41, 225, 104, 256
-0.988766, 465, 225, 496, 352
-0.988798, 209, 257, 272, 288
-0.988841, 57, 261, 120, 292
-0.98886, 313, 213, 376, 244
-0.988867, 57, 249, 120, 280
-0.98888, 105, 1, 168, 375
-0.988886, 337, 233, 400, 296
-0.988894, 321, 197, 384, 228
-0.988924, 5, 129, 36, 256
-0.988925, 17, 265, 48, 328
-0.988935, 33, 249, 96, 280
-0.98897, 9, 237, 72, 268
-0.989046, 185, 265, 216, 328
-0.989063, 1, 153, 128, 216
-0.989087, 81, 265, 144, 296
-0.989102, 193, 1, 256, 375
-0.989116, 297, 177, 360, 208
-0.989128, 121, 261, 184, 292
-0.989174, 225, 145, 288, 208
-0.989212, 89, 281, 152, 312
-0.98924, 285, 313, 316, 375
-0.989243, 81, 249, 144, 280
-0.989271, 185, 161, 216, 224
-0.989368, 113, 245, 176, 276
-0.989396, 341, 281, 372, 344
-0.989479, 257, 105, 384, 168
-0.989504, 89, 33, 152, 288
-0.989527, 445, 129, 476, 256
-0.989539, 41, 1, 104, 375
-0.989612, 337, 73, 464, 136
-0.989626, 113, 221, 176, 252
-0.989652, 297, 193, 360, 224
-0.989668, 257, 261, 320, 292
-0.989669, 129, 233, 192, 264
-0.989686, 193, 201, 224, 264
-0.989691, 165, 129, 196, 256
-0.989705, 1, 217, 500, 280
-0.989718, 49, 161, 176, 224
-0.989728, 289, 169, 320, 232
-0.989729, 353, 41, 480, 104
-0.989738, 321, 53, 384, 84
-0.989746, 169, 269, 232, 300
-0.989747, 153, 289, 184, 352
-0.989765, 257, 273, 500, 336
-0.989768, 169, 193, 200, 320
-0.989779, 329, 161, 392, 224
-0.989782, 81, 65, 208, 192
-0.989815, 329, 225, 392, 256
-0.989822, 57, 281, 120, 312
-0.989823, 345, 53, 408, 84
-0.989838, 113, 297, 144, 360
-0.989845, 9, 249, 72, 280
-0.989885, 409, 237, 472, 268
-0.9899, 17, 293, 80, 324
-0.989903, 129, 201, 192, 232
-0.989958, 377, 237, 440, 268
-0.989983, 281, 137, 344, 200
-0.989988, 201, 229, 264, 260
-0.989989, 409, 217, 472, 248
-0.989991, 321, 185, 384, 216
-0.990003, 177, 313, 304, 375
-0.990043, 121, 273, 184, 304
-0.990047, 325, 281, 356, 344
-0.990054, 73, 225, 136, 256
-0.990095, 1, 249, 32, 312
-0.990106, 469, 161, 500, 288
-0.990124, 73, 301, 136, 332
-0.990138, 433, 205, 496, 236
-0.990153, 281, 325, 344, 356
-0.99017, 257, 57, 384, 120
-0.990177, 401, 273, 432, 336
-0.990178, 285, 113, 316, 240
-0.990182, 289, 205, 352, 236
-0.990182, 201, 217, 264, 248
-0.990213, 177, 249, 240, 280
-0.990225, 409, 253, 472, 284
-0.990236, 289, 1, 352, 256
-0.990245, 337, 213, 400, 244
-0.99025, 33, 261, 96, 292
-0.990255, 33, 273, 288, 336
-0.990266, 317, 161, 348, 224
-0.990273, 369, 333, 432, 364
-0.99028, 273, 289, 336, 320
-0.990281, 17, 225, 80, 256
-0.990286, 329, 321, 392, 352
-0.990298, 229, 297, 260, 360
-0.9903, 225, 97, 288, 224
-0.990309, 153, 249, 216, 280
-0.990373, 373, 1, 404, 128
-0.990379, 145, 221, 208, 252
-0.99038, 441, 185, 472, 248
-0.990409, 153, 97, 216, 224
-0.990439, 241, 145, 368, 208
-0.990521, 433, 281, 496, 344
-0.990523, 241, 289, 272, 352
-0.990525, 369, 317, 432, 348
-0.990534, 17, 317, 80, 348
-0.990537, 361, 213, 424, 244
-0.990546, 305, 225, 368, 256
-0.990584, 337, 225, 368, 288
-0.990604, 105, 301, 168, 332
-0.990639, 293, 193, 324, 256
-0.990639, 33, 273, 96, 304
-0.990692, 313, 285, 376, 316
-0.990696, 25, 305, 88, 336
-0.990702, 297, 165, 360, 196
-0.99075, 289, 277, 352, 308
-0.990764, 9, 277, 72, 308
-0.990778, 1, 249, 500, 312
-0.990791, 417, 301, 480, 332
-0.990793, 361, 225, 424, 288
-0.990806, 353, 97, 384, 160
-0.990807, 17, 33, 80, 288
-0.990813, 281, 337, 344, 368
-0.990856, 177, 237, 240, 268
-0.990857, 225, 297, 288, 328
-0.990864, 369, 225, 432, 256
-0.990884, 81, 1, 144, 375
-0.99089, 145, 269, 208, 300
-0.990914, 81, 313, 144, 344
-0.990948, 257, 337, 320, 368
-0.99095, 249, 301, 312, 332
-0.990958, 353, 65, 416, 96
-0.990977, 129, 301, 192, 332
-0.990979, 233, 257, 296, 288
-0.990983, 145, 153, 208, 184
-0.99099, 365, 129, 396, 256
-0.990991, 53, 201, 84, 264
-0.991017, 257, 305, 500, 368
-0.991018, 41, 293, 104, 324
-0.99102, 57, 33, 120, 288
-0.991023, 273, 229, 336, 260
-0.99104, 217, 1, 280, 375
-0.991054, 1, 261, 64, 292
-0.991055, 433, 341, 496, 372
-0.99107, 185, 281, 248, 312
-0.991122, 281, 313, 344, 344
-0.991123, 201, 97, 264, 224
-0.991134, 1, 273, 500, 336
-0.991137, 249, 285, 312, 316
-0.991153, 365, 241, 396, 368
-0.99119, 353, 285, 416, 316
-0.991211, 257, 241, 320, 272
-0.991227, 161, 121, 288, 184
-0.991229, 385, 65, 416, 128
-0.99123, 385, 281, 448, 312
-0.991248, 105, 209, 168, 240
-0.991262, 177, 213, 240, 244
-0.991292, 369, 345, 432, 375
-0.991318, 321, 49, 352, 176
-0.991323, 97, 129, 160, 192
-0.991323, 17, 129, 144, 192
-0.991327, 409, 333, 472, 364
-0.99133, 345, 129, 376, 192
-0.991367, 433, 225, 496, 256
-0.99137, 257, 209, 500, 272
-0.99138, 337, 97, 368, 160
-0.991399, 249, 325, 312, 356
-0.991408, 389, 241, 420, 304
-0.99142, 433, 245, 496, 276
-0.991424, 337, 29, 400, 60
-0.991431, 305, 137, 336, 200
-0.991448, 321, 41, 384, 72
-0.99146, 273, 193, 304, 320
-0.991462, 201, 245, 264, 276
-0.991473, 197, 153, 228, 216
-0.991489, 17, 81, 80, 208
-0.99152, 113, 285, 176, 316
-0.991541, 393, 293, 456, 324
-0.991542, 321, 65, 384, 96
-0.991551, 257, 149, 320, 180
-0.991559, 217, 285, 280, 316
-0.991561, 33, 49, 288, 176
-0.991562, 329, 333, 392, 364
-0.991571, 153, 233, 216, 264
-0.991572, 129, 33, 192, 288
-0.99158, 257, 129, 500, 192
-0.991583, 425, 313, 488, 344
-0.991591, 337, 257, 400, 320
-0.991595, 401, 121, 464, 184
-0.991604, 161, 313, 224, 344
-0.991606, 225, 241, 288, 272
-0.99161, 273, 193, 336, 224
-0.991613, 177, 225, 240, 256
-0.991627, 337, 117, 400, 148
-0.991632, 409, 345, 472, 375
-0.991635, 401, 317, 464, 348
-0.99164, 249, 313, 312, 344
-0.99165, 145, 289, 208, 320
-0.991661, 129, 209, 384, 272
-0.991671, 289, 265, 352, 296
-0.991675, 281, 301, 344, 332
-0.99169, 297, 249, 360, 280
-0.991703, 273, 177, 336, 208
-0.991708, 185, 297, 248, 328
-0.991719, 249, 273, 312, 304
-0.991736, 305, 137, 368, 168
-0.991738, 1, 305, 64, 336
-0.991751, 329, 309, 392, 340
-0.99176, 305, 329, 368, 360
-0.991783, 57, 325, 120, 356
-0.991787, 193, 153, 256, 184
-0.991803, 361, 305, 424, 336
-0.991811, 377, 269, 440, 300
-0.99184, 433, 329, 496, 360
-0.991845, 337, 77, 400, 108
-0.991858, 161, 289, 416, 352
-0.991872, 105, 197, 168, 228
-0.991904, 33, 129, 96, 192
-0.991925, 49, 241, 176, 272
-0.99196, 257, 185, 500, 248
-0.992, 33, 201, 288, 264
-0.992014, 137, 233, 168, 264
-0.992066, 69, 237, 100, 268
-0.992121, 221, 209, 252, 240
-0.992142, 257, 1, 320, 375
-0.992146, 61, 265, 92, 296
-0.992165, 349, 213, 380, 244
-0.992173, 89, 265, 120, 296
-0.992183, 361, 177, 424, 240
-0.992198, 137, 197, 168, 228
-0.992212, 49, 225, 80, 256
-0.992215, 401, 193, 464, 256
-0.992215, 133, 213, 164, 244
-0.992225, 333, 181, 364, 212
-0.992238, 73, 265, 104, 296
-0.992247, 125, 229, 156, 260
-0.992262, 49, 253, 80, 284
-0.992273, 185, 33, 248, 288
-0.992281, 345, 189, 376, 220
-0.992284, 61, 253, 92, 284
-0.992323, 333, 209, 364, 240
-0.992326, 77, 309, 108, 340
-0.992331, 97, 237, 128, 268
-0.992343, 113, 225, 240, 256
-0.992347, 105, 257, 136, 288
-0.99237, 113, 241, 144, 272
-0.992393, 1, 297, 256, 360
-0.992405, 329, 197, 360, 228
-0.992446, 101, 285, 132, 316
-0.99247, 77, 225, 108, 256
-0.992485, 393, 49, 456, 176
-0.992494, 89, 277, 120, 308
-0.992498, 41, 241, 72, 272
-0.992504, 353, 201, 384, 232
-0.992526, 89, 305, 120, 336
-0.992528, 109, 269, 140, 300
-0.992544, 25, 301, 56, 332
-0.992546, 437, 237, 468, 268
-0.992547, 85, 249, 116, 280
-0.992547, 217, 257, 248, 288
-0.992561, 13, 241, 44, 272
-0.992562, 145, 213, 176, 244
-0.992568, 29, 253, 60, 284
-0.992572, 417, 1, 480, 375
-0.992583, 333, 225, 364, 352
-0.992584, 285, 257, 316, 288
-0.992588, 29, 229, 60, 260
-0.9926, 65, 309, 96, 340
-0.992611, 125, 241, 156, 272
-0.992631, 29, 241, 60, 272
-0.992645, 113, 229, 144, 260
-0.99265, 37, 289, 68, 320
-0.992652, 45, 301, 76, 332
-0.992661, 45, 269, 76, 300
-0.99267, 321, 213, 352, 244
-0.992671, 169, 1, 232, 375
-0.992672, 85, 237, 116, 268
-0.992673, 69, 289, 100, 320
-0.992681, 333, 221, 364, 252
-0.992686, 9, 297, 40, 328
-0.992708, 117, 281, 148, 312
-0.99271, 357, 225, 388, 256
-0.992712, 245, 257, 276, 288
-0.992747, 49, 229, 176, 260
-0.992747, 209, 261, 336, 292
-0.992748, 209, 277, 240, 308
-0.992751, 161, 269, 192, 300
-0.992754, 65, 225, 96, 256
-0.992758, 413, 309, 444, 340
-0.992765, 313, 189, 344, 220
-0.992768, 425, 253, 456, 284
-0.992769, 357, 53, 388, 84
-0.992775, 117, 257, 148, 288
-0.992779, 457, 129, 488, 256
-0.992785, 305, 177, 336, 208
-0.992787, 117, 301, 148, 332
-0.99279, 73, 277, 104, 308
-0.992804, 205, 225, 236, 256
-0.992804, 57, 241, 88, 272
-0.992814, 73, 249, 104, 280
-0.992815, 137, 245, 168, 276
-0.992815, 89, 289, 120, 320
-0.992819, 61, 277, 92, 308
-0.992821, 197, 237, 228, 268
-0.992831, 353, 185, 368, 248
-0.992833, 13, 253, 44, 284
-0.992839, 445, 305, 476, 336
-0.992842, 13, 281, 44, 312
-0.992846, 197, 269, 228, 300
-0.992847, 153, 201, 184, 232
-0.992856, 97, 153, 352, 216
-0.992856, 229, 257, 260, 288
-0.992858, 305, 201, 336, 232
-0.992872, 297, 281, 328, 312
-0.992872, 273, 309, 304, 340
-0.992873, 421, 217, 452, 248
-0.992875, 89, 225, 120, 256
-0.99289, 457, 205, 488, 236
-0.99289, 17, 145, 48, 272
-0.992894, 173, 269, 204, 300
-0.992895, 205, 253, 236, 284
-0.992914, 321, 225, 352, 352
-0.992914, 101, 297, 132, 328
-0.992916, 425, 241, 456, 272
-0.992918, 125, 201, 156, 232
-0.992919, 157, 249, 188, 280
-0.992921, 17, 253, 144, 284
-0.992924, 153, 229, 184, 260
-0.992924, 433, 113, 464, 240
-0.992932, 129, 301, 160, 332
-0.992951, 209, 237, 240, 268
-0.992951, 409, 237, 440, 268
-0.992952, 257, 257, 288, 288
-0.992963, 25, 269, 56, 300
-0.992965, 341, 285, 372, 316
-0.992972, 293, 293, 324, 324
-0.992972, 13, 309, 44, 340
-0.992979, 185, 265, 216, 296
-0.992979, 25, 285, 56, 316
-0.99298, 425, 297, 456, 328
-0.99299, 305, 225, 336, 256
-0.99299, 125, 269, 156, 300
-0.992999, 269, 261, 300, 292
-0.993004, 377, 69, 408, 100
-0.993006, 361, 285, 392, 316
-0.993011, 141, 305, 172, 336
-0.993012, 301, 249, 332, 280
-0.993022, 45, 313, 76, 344
-0.993023, 225, 113, 288, 176
-0.993024, 73, 233, 88, 296
-0.993026, 49, 281, 80, 312
-0.993028, 349, 121, 380, 152
-0.993028, 245, 297, 276, 328
-0.993029, 461, 345, 492, 375
-0.993029, 317, 233, 348, 264
-0.993031, 297, 321, 328, 352
-0.993033, 193, 213, 224, 244
-0.993035, 281, 293, 312, 324
-0.993036, 441, 253, 472, 284
-0.993042, 109, 313, 140, 344
-0.99305, 317, 201, 348, 232
-0.993053, 57, 297, 88, 328
-0.993058, 225, 241, 256, 272
-0.993061, 445, 337, 476, 368
-0.993065, 309, 213, 340, 244
-0.993066, 409, 33, 472, 288
-0.993069, 117, 217, 148, 248
-0.993069, 449, 237, 480, 268
-0.993072, 261, 301, 292, 332
-0.993073, 221, 289, 252, 320
-0.993074, 149, 261, 180, 292
-0.993078, 25, 313, 56, 344
-0.993088, 265, 113, 328, 176
-0.993088, 357, 313, 388, 344
-0.993113, 73, 257, 88, 320
-0.993152, 65, 257, 192, 288
-0.993155, 83, 257, 98, 320
-0.993185, 1, 237, 128, 268
-0.99319, 65, 129, 128, 192
-0.993224, 337, 153, 464, 216
-0.993323, 113, 213, 240, 244
-0.993362, 363, 193, 378, 256
-0.993397, 349, 225, 380, 352
-0.9934, 49, 81, 112, 208
-0.993428, 81, 233, 96, 296
-0.993443, 249, 177, 280, 304
-0.993496, 113, 237, 240, 268
-0.993508, 99, 281, 114, 344
-0.993513, 137, 209, 152, 272
-0.993516, 129, 65, 192, 192
-0.993537, 145, 313, 208, 375
-0.993547, 113, 121, 240, 184
-0.993555, 137, 121, 200, 184
-0.993587, 63, 249, 78, 312
-0.993599, 305, 229, 432, 260
-0.993619, 385, 33, 448, 288
-0.993658, 261, 193, 292, 320
-0.993742, 153, 169, 216, 232
-0.993764, 143, 201, 158, 264
-0.99381, 221, 249, 236, 312
-0.993812, 113, 269, 240, 300
-0.993827, 161, 177, 416, 240
-0.993828, 67, 281, 82, 344
-0.993838, 121, 241, 136, 304
-0.993841, 65, 121, 192, 184
-0.993869, 93, 281, 108, 344
-0.993887, 17, 265, 144, 296
-0.993909, 413, 161, 444, 288
-0.99391, 91, 233, 106, 296
-0.993966, 273, 325, 400, 356
-0.994026, 145, 249, 272, 280
-0.994038, 227, 257, 242, 320
-0.994073, 353, 17, 480, 80
-0.994076, 393, 1, 456, 375
-0.994108, 17, 289, 144, 320
-0.99413, 337, 213, 464, 244
-0.99424, 17, 305, 144, 336
-0.994241, 265, 33, 328, 288
-0.994282, 343, 177, 358, 240
-0.994285, 241, 81, 368, 144
-0.994304, 111, 273, 126, 336
-0.994309, 273, 185, 400, 216
-0.994327, 67, 225, 82, 288
-0.99434, 131, 217, 146, 280
-0.994343, 121, 281, 136, 344
-0.994347, 149, 201, 164, 264
-0.994372, 353, 337, 480, 368
-0.994389, 1, 225, 128, 256
-0.994409, 335, 177, 350, 240
-0.994427, 209, 277, 336, 308
-0.994437, 273, 313, 400, 344
-0.994455, 85, 281, 100, 344
-0.994491, 305, 257, 320, 320
-0.994492, 65, 213, 192, 244
-0.994497, 193, 225, 320, 256
-0.994506, 237, 257, 252, 320
-0.994528, 241, 9, 368, 72
-0.994557, 105, 257, 120, 320
-0.99457, 297, 233, 312, 296
-0.994572, 201, 121, 264, 184
-0.994613, 95, 257, 110, 320
-0.994614, 215, 241, 230, 304
-0.994618, 377, 1, 440, 128
-0.994649, 59, 289, 74, 352
-0.994663, 345, 201, 360, 264
-0.994677, 113, 201, 240, 232
-0.994692, 161, 33, 224, 288
-0.994716, 17, 277, 144, 308
-0.994719, 233, 33, 296, 288
-0.994789, 127, 241, 142, 304
-0.994805, 115, 249, 130, 312
-0.994864, 237, 129, 268, 256
-0.994893, 309, 161, 324, 224
-0.9949, 97, 153, 224, 184
-0.994905, 281, 1, 344, 375
-0.994907, 105, 233, 120, 296
-0.994914, 417, 81, 480, 208
-0.99492, 227, 233, 242, 296
-0.994936, 35, 241, 50, 304
-0.99494, 225, 237, 352, 268
-0.994965, 219, 217, 234, 280
-0.99499, 273, 337, 400, 368
-0.995015, 321, 325, 448, 356
-0.995016, 369, 241, 496, 272
-0.995024, 73, 281, 88, 344
-0.995039, 369, 321, 496, 352
-0.99508, 257, 289, 384, 320
-0.995091, 155, 201, 170, 264
-0.995099, 225, 341, 352, 372
-0.995106, 251, 249, 266, 312
-0.995112, 65, 269, 192, 300
-0.995122, 9, 121, 72, 184
-0.995125, 161, 265, 176, 328
-0.995127, 287, 305, 302, 368
-0.995133, 161, 217, 176, 280
-0.995147, 427, 249, 442, 312
-0.995154, 353, 225, 480, 256
-0.995156, 105, 281, 120, 344
-0.995187, 289, 73, 352, 136
-0.995187, 443, 217, 458, 280
-0.995189, 55, 217, 70, 280
-0.995193, 1, 297, 500, 360
-0.995195, 309, 201, 324, 264
-0.995195, 303, 233, 318, 296
-0.995213, 337, 285, 464, 316
-0.995244, 161, 313, 416, 375
-0.995261, 377, 97, 408, 224
-0.995269, 97, 1, 352, 128
-0.995276, 425, 209, 440, 272
-0.995319, 225, 213, 352, 244
-0.995335, 257, 161, 500, 224
-0.995338, 291, 257, 306, 320
-0.995346, 209, 233, 224, 296
-0.995348, 299, 273, 314, 336
-0.995355, 351, 209, 366, 272
-0.995375, 41, 249, 56, 312
-0.995376, 291, 233, 306, 296
-0.995416, 127, 273, 142, 336
-0.995423, 193, 153, 320, 184
-0.995427, 89, 257, 104, 320
-0.995438, 15, 241, 30, 304
-0.995442, 65, 301, 192, 332
-0.995455, 49, 233, 64, 296
-0.995462, 145, 289, 272, 320
-0.995472, 193, 309, 320, 340
-0.995493, 61, 225, 76, 288
-0.995504, 289, 269, 416, 300
-0.995529, 227, 201, 242, 264
-0.995564, 1, 193, 500, 256
-0.995571, 431, 209, 446, 272
-0.995572, 305, 249, 432, 280
-0.995596, 369, 309, 496, 340
-0.995598, 273, 209, 400, 240
-0.995619, 245, 249, 260, 312
-0.995627, 113, 225, 128, 288
-0.995628, 209, 33, 272, 288
-0.995628, 241, 217, 256, 280
-0.995663, 79, 281, 94, 344
-0.995681, 321, 201, 448, 232
-0.995691, 225, 329, 352, 360
-0.995702, 19, 273, 34, 336
-0.995734, 401, 169, 464, 232
-0.995762, 1, 161, 500, 224
-0.995769, 49, 317, 176, 348
-0.99578, 387, 41, 402, 104
-0.995783, 137, 129, 168, 375
-0.995786, 97, 233, 112, 296
-0.995818, 53, 289, 68, 352
-0.995821, 311, 249, 326, 312
-0.995824, 161, 177, 288, 240
-0.995851, 97, 129, 352, 192
-0.995875, 91, 305, 106, 368
-0.995877, 193, 97, 448, 160
-0.995888, 203, 233, 218, 296
-0.995908, 413, 113, 444, 240
-0.995925, 81, 285, 208, 316
-0.995936, 247, 225, 262, 288
-0.995941, 367, 281, 382, 344
-0.99595, 215, 273, 230, 336
-0.995953, 461, 305, 476, 368
-0.995956, 257, 197, 384, 228
-0.99596, 179, 257, 194, 320
-0.995965, 417, 225, 432, 288
-0.995974, 257, 233, 272, 296
-0.995985, 257, 257, 272, 320
-0.995999, 357, 209, 372, 272
-0.995999, 367, 217, 382, 280
-0.996017, 43, 225, 58, 288
-0.99603, 263, 233, 278, 296
-0.996035, 449, 225, 464, 288
-0.996037, 155, 249, 170, 312
-0.99604, 173, 265, 188, 328
-0.996051, 263, 257, 278, 320
-0.996053, 339, 201, 354, 264
-0.99607, 193, 249, 320, 280
-0.996075, 13, 289, 28, 352
-0.996091, 473, 201, 488, 264
-0.996096, 177, 237, 304, 268
-0.996099, 329, 185, 344, 248
-0.996101, 361, 49, 376, 112
-0.996105, 423, 281, 438, 344
-0.99611, 337, 297, 464, 328
-0.996111, 281, 17, 344, 80
-0.996117, 235, 209, 250, 272
-0.996125, 9, 257, 24, 320
-0.996127, 337, 185, 464, 216
-0.996146, 193, 293, 320, 324
-0.996147, 153, 281, 168, 344
-0.996148, 77, 305, 92, 368
-0.996151, 337, 273, 464, 304
-0.996153, 463, 177, 478, 240
-0.996157, 321, 313, 448, 344
-0.996158, 155, 225, 170, 288
-0.996194, 23, 233, 38, 296
-0.996196, 53, 129, 84, 375
-0.9962, 257, 225, 384, 256
-0.9962, 467, 201, 482, 264
-0.996211, 361, 281, 376, 344
-0.996211, 137, 185, 152, 248
-0.996212, 269, 233, 284, 296
-0.996215, 167, 257, 182, 320
-0.996221, 71, 305, 86, 368
-0.99623, 223, 281, 238, 344
-0.996234, 275, 233, 290, 296
-0.996247, 373, 281, 388, 344
-0.996273, 133, 273, 148, 336
-0.996294, 305, 57, 432, 88
-0.996304, 437, 217, 452, 280
-0.996314, 437, 297, 452, 360
-0.996334, 371, 49, 386, 112
-0.996334, 43, 273, 58, 336
-0.996335, 273, 301, 400, 332
-0.996337, 283, 233, 298, 296
-0.996354, 355, 57, 370, 120
-0.996354, 469, 313, 484, 375
-0.996363, 445, 305, 460, 368
-0.996365, 65, 305, 80, 368
-0.996376, 117, 129, 148, 375
-0.996389, 97, 317, 224, 348
-0.996398, 395, 65, 410, 128
-0.996425, 161, 261, 288, 292
-0.99643, 25, 265, 40, 328
-0.996431, 161, 209, 288, 240
-0.996442, 455, 305, 470, 368
-0.996443, 269, 257, 284, 320
-0.996443, 333, 217, 348, 280
-0.996444, 213, 209, 228, 272
-0.9965, 369, 253, 496, 284
-0.9965, 225, 57, 480, 120
-0.996513, 213, 129, 244, 375
-0.996514, 273, 173, 400, 204
-0.99652, 341, 65, 372, 320
-0.996554, 161, 273, 288, 304
-0.9966, 29, 129, 60, 375
-0.996614, 337, 125, 464, 156
-0.996643, 1, 161, 256, 224
-0.996644, 157, 129, 188, 375
-0.996649, 137, 221, 152, 252
-0.99669, 83, 269, 98, 300
-0.996712, 185, 97, 216, 224
-0.996716, 105, 129, 136, 375
-0.996723, 329, 1, 392, 64
-0.996773, 193, 33, 448, 96
-0.996782, 65, 201, 192, 232
-0.996786, 75, 261, 90, 292
-0.996787, 305, 37, 432, 68
-0.996794, 93, 129, 124, 375
-0.996819, 289, 137, 416, 168
-0.996834, 377, 17, 440, 80
-0.996839, 1, 325, 128, 356
-0.996855, 65, 249, 80, 280
-0.99691, 1, 177, 32, 304
-0.99692, 389, 17, 420, 144
-0.996921, 81, 129, 112, 375
-0.996926, 357, 189, 372, 220
-0.996959, 205, 97, 236, 224
-0.996976, 353, 33, 384, 288
-0.996981, 31, 297, 46, 328
-0.997005, 65, 129, 96, 375
-0.997012, 131, 229, 146, 260
-0.997024, 113, 301, 240, 332
-0.997028, 433, 33, 496, 288
-0.997071, 373, 193, 404, 320
-0.997078, 81, 225, 96, 256
-0.997083, 133, 97, 164, 224
-0.99709, 347, 209, 362, 240
-0.997093, 209, 197, 336, 228
-0.997098, 209, 177, 336, 208
-0.997099, 73, 81, 136, 208
-0.997104, 209, 141, 336, 172
-0.997104, 137, 201, 152, 232
-0.997105, 347, 181, 362, 212
-0.997106, 353, 213, 368, 244
-0.997112, 101, 265, 116, 296
-0.997115, 93, 305, 108, 336
-0.997115, 357, 201, 372, 232
-0.997123, 13, 129, 44, 375
-0.997135, 1, 157, 128, 188
-0.997149, 91, 285, 106, 316
-0.997181, 363, 201, 378, 232
-0.997186, 189, 129, 220, 375
-0.997191, 347, 193, 362, 224
-0.997194, 305, 73, 432, 104
-0.9972, 373, 65, 404, 320
-0.997201, 143, 213, 158, 244
-0.997214, 335, 193, 350, 224
-0.997219, 93, 269, 108, 300
-0.997222, 71, 237, 86, 268
-0.997225, 1, 129, 256, 192
-0.997241, 117, 273, 132, 304
-0.997246, 111, 273, 126, 304
-0.997267, 83, 309, 98, 340
-0.99727, 337, 177, 352, 208
-0.997273, 147, 197, 162, 228
-0.997281, 365, 213, 380, 244
-0.997335, 89, 237, 104, 268
-0.997341, 273, 161, 400, 192
-0.997363, 151, 233, 166, 264
-0.997386, 41, 129, 72, 375
-0.997388, 139, 233, 154, 264
-0.997408, 209, 1, 336, 128
-0.997438, 99, 253, 114, 284
-0.997444, 437, 97, 468, 352
-0.997464, 155, 221, 170, 252
-0.997481, 97, 281, 112, 312
-0.997483, 149, 221, 164, 252
-0.997489, 241, 249, 368, 280
-0.997491, 225, 129, 256, 375
-0.997493, 109, 261, 124, 292
-0.997493, 61, 261, 76, 292
-0.997496, 329, 97, 360, 352
-0.997512, 121, 237, 136, 268
-0.997517, 215, 221, 230, 252
-0.997518, 337, 205, 352, 236
-0.997519, 289, 129, 320, 375
-0.99752, 153, 201, 168, 232
-0.997525, 39, 249, 54, 280
-0.997526, 309, 97, 340, 352
-0.997528, 71, 225, 86, 256
-0.997534, 91, 249, 106, 280
-0.997538, 103, 229, 118, 260
-0.997541, 367, 225, 382, 256
-0.997547, 1, 129, 32, 375
-0.997548, 105, 285, 120, 316
-0.997548, 49, 157, 176, 188
-0.997551, 113, 237, 128, 268
-0.997562, 95, 229, 110, 260
-0.997564, 81, 237, 96, 268
-0.997566, 59, 301, 74, 332
-0.997579, 145, 233, 160, 264
-0.997581, 129, 241, 144, 272
-0.997587, 69, 269, 84, 300
-0.997608, 169, 129, 200, 375
-0.99761, 201, 129, 232, 375
-0.997611, 353, 129, 384, 375
-0.997615, 321, 173, 448, 204
-0.997617, 177, 329, 304, 360
-0.997628, 33, 145, 160, 176
-0.997642, 103, 241, 118, 272
-0.997645, 111, 285, 126, 316
-0.99765, 305, 85, 432, 116
-0.99766, 65, 225, 80, 256
-0.99766, 53, 225, 68, 256
-0.997667, 79, 249, 94, 280
-0.997672, 121, 285, 136, 316
-0.997679, 305, 261, 320, 292
-0.997679, 359, 213, 374, 244
-0.997682, 341, 189, 356, 220
-0.997682, 295, 261, 310, 292
-0.997691, 99, 301, 114, 332
-0.997695, 129, 189, 256, 220
-0.997698, 313, 249, 328, 280
-0.997718, 87, 225, 102, 256
-0.997719, 121, 253, 136, 284
-0.997727, 205, 233, 220, 264
-0.997729, 307, 169, 322, 200
-0.997729, 21, 301, 36, 332
-0.99777, 115, 249, 130, 280
-0.997776, 161, 209, 176, 240
-0.997789, 61, 237, 76, 268
-0.997791, 449, 129, 480, 375
-0.997814, 161, 229, 176, 260
-0.99782, 369, 201, 496, 232
-0.997821, 257, 49, 384, 80
-0.997833, 225, 257, 240, 288
-0.997836, 289, 149, 416, 180
-0.997837, 429, 245, 444, 276
-0.997844, 289, 109, 416, 140
-0.997853, 131, 213, 146, 244
-0.997855, 257, 257, 272, 288
-0.997855, 225, 165, 352, 196
-0.997868, 413, 317, 428, 348
-0.99787, 419, 237, 434, 268
-0.997874, 75, 313, 90, 344
-0.997874, 53, 301, 68, 332
-0.997877, 1, 1, 256, 128
-0.997891, 425, 129, 456, 375
-0.997892, 381, 241, 396, 272
-0.997894, 275, 297, 290, 328
-0.997898, 173, 269, 188, 300
-0.997903, 33, 253, 48, 284
-0.997907, 123, 265, 138, 296
-0.99791, 51, 241, 66, 272
-0.997914, 327, 209, 342, 240
-0.997916, 393, 69, 408, 100
-0.997924, 363, 189, 378, 220
-0.997926, 299, 277, 314, 308
-0.99793, 333, 217, 348, 248
-0.997931, 219, 253, 234, 284
-0.997934, 219, 277, 234, 308
-0.99794, 295, 293, 310, 324
-0.997942, 331, 181, 346, 212
-0.997943, 247, 257, 262, 288
-0.997943, 131, 301, 146, 332
-0.997944, 83, 281, 98, 312
-0.99795, 15, 293, 30, 324
-0.997953, 357, 225, 372, 256
-0.99796, 17, 213, 144, 244
-0.997963, 145, 141, 272, 172
-0.997964, 289, 125, 416, 156
-0.997976, 67, 301, 82, 332
-0.997979, 325, 197, 340, 228
-0.99798, 469, 97, 500, 224
-0.997983, 235, 257, 250, 288
-0.997996, 127, 253, 142, 284
-0.998001, 457, 305, 472, 336
-0.998003, 145, 317, 272, 348
-0.998005, 71, 249, 86, 280
-0.998011, 141, 297, 156, 328
-0.998012, 353, 49, 480, 80
-0.998012, 307, 157, 322, 188
-0.998015, 63, 273, 78, 304
-0.998021, 37, 297, 52, 328
-0.998022, 45, 245, 60, 276
-0.998029, 129, 265, 144, 296
-0.998032, 83, 293, 98, 324
-0.998037, 163, 273, 178, 304
-0.998038, 25, 233, 40, 264
-0.998044, 109, 249, 124, 280
-0.998047, 241, 257, 256, 288
-0.998058, 21, 285, 36, 316
-0.998059, 435, 241, 450, 272
-0.998059, 263, 257, 278, 288
-0.998061, 179, 265, 194, 296
-0.998071, 227, 205, 242, 236
-0.998076, 309, 181, 324, 212
-0.998079, 127, 281, 142, 312
-0.998083, 59, 289, 74, 320
-0.998084, 471, 213, 486, 244
-0.998091, 361, 285, 376, 316
-0.998113, 161, 341, 288, 372
-0.998168, 461, 129, 492, 375
-0.998197, 257, 85, 384, 116
-0.998227, 237, 129, 268, 375
-0.998274, 145, 153, 272, 184
-0.99829, 305, 81, 336, 208
-0.998337, 413, 129, 444, 375
-0.998377, 321, 97, 448, 128
-0.998391, 257, 69, 384, 100
-0.998394, 129, 329, 256, 360
-0.998403, 113, 235, 176, 250
-0.998408, 273, 129, 304, 256
-0.998417, 25, 275, 56, 290
-0.998417, 333, 191, 364, 206
-0.998418, 119, 225, 134, 352
-0.998418, 137, 249, 168, 264
-0.998418, 105, 243, 168, 258
-0.998419, 297, 179, 360, 194
-0.998419, 305, 191, 336, 206
-0.998419, 121, 265, 184, 280
-0.998419, 69, 305, 100, 320
-0.99842, 441, 243, 472, 258
-0.99842, 213, 241, 244, 256
-0.998423, 49, 321, 80, 336
-0.998424, 153, 231, 184, 246
-0.998426, 449, 249, 480, 264
-0.998426, 353, 137, 480, 168
-0.998427, 57, 241, 120, 256
-0.998428, 321, 227, 352, 242
-0.99843, 277, 293, 308, 308
-0.99843, 45, 275, 76, 290
-0.99843, 417, 241, 448, 256
-0.998431, 117, 287, 148, 302
-0.998431, 225, 251, 256, 266
-0.998432, 29, 259, 60, 274
-0.998433, 57, 253, 120, 268
-0.998433, 89, 233, 152, 248
-0.998434, 13, 285, 44, 300
-0.998435, 369, 243, 400, 258
-0.998435, 33, 247, 96, 262
-0.998436, 201, 231, 232, 246
-0.998436, 45, 305, 76, 320
-0.998437, 325, 215, 356, 230
-0.998438, 57, 247, 120, 262
-0.998439, 437, 303, 468, 318
-0.998439, 17, 309, 48, 324
-0.998441, 173, 269, 204, 284
-0.998442, 33, 239, 96, 254
-0.998442, 221, 217, 252, 232
-0.998442, 49, 233, 80, 248
-0.998443, 125, 247, 156, 262
-0.998443, 413, 249, 444, 264
-0.998444, 73, 287, 104, 302
-0.998445, 49, 287, 80, 302
-0.998445, 305, 205, 336, 220
-0.998445, 61, 323, 92, 338
-0.998447, 329, 217, 392, 232
-0.998448, 117, 311, 148, 326
-0.998449, 273, 299, 304, 314
-0.99845, 409, 317, 440, 332
-0.99845, 337, 113, 464, 144
-0.99845, 101, 253, 132, 268
-0.998451, 145, 225, 176, 240
-0.998451, 29, 239, 60, 254
-0.998452, 97, 259, 128, 274
-0.998452, 81, 259, 144, 274
-0.998453, 385, 33, 416, 288
-0.998454, 353, 227, 384, 242
-0.998456, 29, 231, 60, 246
-0.998457, 9, 239, 72, 254
-0.998457, 17, 239, 48, 254
-0.998459, 89, 271, 152, 286
-0.998462, 309, 197, 340, 212
-0.998463, 45, 281, 76, 296
-0.998463, 333, 289, 364, 304
-0.998464, 89, 251, 152, 266
-0.998464, 101, 281, 132, 296
-0.998465, 49, 227, 80, 242
-0.998466, 41, 265, 104, 280
-0.998466, 197, 273, 228, 288
-0.998466, 205, 253, 236, 268
-0.998466, 101, 265, 132, 280
-0.998468, 13, 253, 44, 268
-0.998468, 85, 249, 116, 264
-0.998469, 145, 219, 176, 234
-0.99847, 49, 229, 112, 244
-0.99847, 49, 303, 112, 318
-0.99847, 109, 317, 140, 332
-0.998471, 65, 313, 128, 328
-0.998471, 353, 215, 384, 230
-0.998474, 61, 285, 92, 300
-0.998476, 89, 285, 152, 300
-0.998477, 321, 205, 384, 220
-0.998482, 117, 281, 148, 296
-0.998482, 297, 195, 360, 210
-0.998483, 77, 317, 108, 332
-0.998483, 313, 227, 376, 242
-0.998485, 235, 193, 250, 320
-0.998486, 81, 305, 144, 320
-0.998487, 49, 239, 80, 254
-0.998489, 81, 229, 112, 244
-0.99849, 333, 197, 364, 212
-0.99849, 425, 247, 456, 262
-0.99849, 357, 57, 388, 72
-0.99849, 37, 299, 68, 314
-0.998492, 113, 249, 176, 264
-0.998492, 145, 213, 176, 228
-0.998492, 161, 263, 192, 278
-0.998493, 105, 227, 168, 242
-0.998493, 113, 269, 144, 284
-0.998493, 257, 263, 320, 278
-0.998494, 45, 269, 76, 284
-0.998494, 57, 277, 120, 292
-0.998495, 161, 271, 192, 286
-0.998498, 97, 315, 128, 330
-0.998498, 113, 225, 128, 352
-0.998499, 101, 247, 132, 262
-0.9985, 89, 277, 152, 292
-0.998501, 325, 203, 356, 218
-0.998502, 41, 259, 104, 274
-0.998502, 321, 221, 352, 236
-0.998503, 357, 233, 388, 248
-0.998503, 9, 305, 72, 320
-0.998503, 161, 267, 224, 282
-0.998505, 409, 255, 472, 270
-0.998505, 125, 241, 156, 256
-0.998505, 113, 257, 176, 272
-0.998506, 25, 231, 88, 246
-0.998506, 33, 253, 96, 268
-0.998508, 101, 235, 132, 250
-0.998508, 137, 155, 200, 170
-0.998508, 289, 263, 320, 278
-0.998508, 81, 239, 144, 254
-0.998508, 25, 303, 56, 318
-0.99851, 89, 307, 120, 322
-0.99851, 13, 247, 44, 262
-0.998511, 85, 277, 116, 292
-0.998511, 289, 325, 352, 340
-0.998511, 349, 221, 380, 236
-0.998512, 73, 261, 104, 276
-0.998513, 1, 257, 64, 272
-0.998513, 81, 265, 144, 280
-0.998513, 329, 325, 392, 340
-0.998517, 377, 239, 440, 254
-0.998518, 369, 345, 432, 360
-0.998518, 337, 215, 368, 230
-0.998519, 321, 199, 384, 214
-0.998519, 97, 301, 128, 316
-0.998519, 321, 57, 384, 72
-0.99852, 297, 185, 360, 200
-0.998521, 177, 251, 240, 266
-0.998522, 201, 231, 264, 246
-0.998522, 57, 283, 120, 298
-0.998524, 133, 219, 164, 234
-0.998525, 113, 263, 144, 278
-0.998525, 329, 211, 392, 226
-0.998525, 41, 309, 104, 324
-0.998526, 437, 249, 468, 264
-0.998527, 297, 219, 360, 234
-0.998527, 289, 333, 352, 348
-0.998527, 9, 247, 72, 262
-0.998528, 61, 279, 92, 294
-0.998529, 137, 197, 168, 212
-0.998529, 353, 209, 384, 224
-0.998529, 133, 211, 164, 226
-0.998532, 73, 275, 104, 290
-0.998532, 61, 255, 92, 270
-0.998534, 345, 191, 376, 206
-0.998534, 81, 245, 144, 260
-0.998535, 321, 189, 384, 204
-0.998535, 17, 299, 80, 314
-0.998536, 217, 297, 280, 312
-0.998538, 113, 235, 144, 250
-0.998538, 297, 205, 360, 220
-0.998538, 369, 331, 432, 346
-0.998539, 121, 271, 184, 286
-0.998539, 129, 241, 192, 256
-0.998539, 29, 253, 60, 268
-0.99854, 49, 261, 80, 276
-0.99854, 61, 313, 92, 328
-0.99854, 81, 241, 112, 256
-0.998541, 65, 247, 96, 262
-0.998541, 41, 315, 104, 330
-0.998542, 89, 285, 120, 300
-0.998543, 57, 307, 88, 322
-0.998543, 113, 247, 144, 262
-0.998544, 17, 323, 80, 338
-0.998544, 41, 271, 104, 286
-0.998544, 409, 239, 472, 254
-0.998545, 45, 251, 76, 266
-0.998545, 417, 249, 480, 264
-0.998545, 369, 233, 432, 248
-0.998546, 349, 201, 380, 216
-0.998546, 297, 211, 360, 226
-0.998546, 29, 245, 60, 260
-0.998546, 85, 259, 116, 274
-0.998547, 113, 253, 144, 268
-0.998547, 97, 241, 128, 256
-0.998549, 281, 339, 344, 354
-0.99855, 337, 65, 400, 80
-0.99855, 401, 97, 432, 352
-0.99855, 289, 105, 352, 168
-0.998552, 417, 307, 480, 322
-0.998553, 333, 209, 364, 224
-0.998554, 289, 285, 352, 300
-0.998554, 221, 211, 252, 226
-0.998556, 409, 223, 472, 238
-0.998556, 227, 193, 242, 320
-0.998557, 89, 317, 152, 332
-0.998557, 345, 57, 408, 72
-0.998558, 193, 215, 256, 230
-0.998558, 129, 205, 192, 220
-0.998559, 337, 225, 400, 240
-0.998559, 433, 211, 496, 226
-0.99856, 121, 213, 184, 228
-0.998561, 105, 275, 136, 290
-0.998562, 217, 259, 280, 274
-0.998562, 129, 229, 192, 244
-0.998564, 433, 341, 496, 356
-0.998565, 329, 233, 392, 248
-0.998565, 425, 253, 456, 268
-0.998566, 49, 321, 112, 336
-0.998571, 17, 279, 80, 294
-0.998571, 153, 261, 216, 276
-0.998572, 1, 273, 64, 288
-0.998572, 409, 349, 472, 364
-0.998572, 153, 291, 216, 306
-0.998573, 185, 285, 248, 300
-0.998574, 249, 293, 312, 308
-0.998574, 409, 341, 472, 356
-0.998575, 85, 269, 116, 284
-0.998576, 369, 361, 432, 375
-0.998577, 369, 325, 432, 340
-0.998577, 201, 223, 264, 238
-0.998578, 137, 203, 168, 218
-0.998578, 369, 339, 432, 354
-0.998579, 313, 293, 376, 308
-0.998581, 75, 225, 90, 352
-0.998581, 329, 183, 392, 198
-0.998582, 17, 97, 48, 224
-0.998583, 129, 223, 192, 238
-0.998583, 333, 181, 364, 196
-0.998583, 369, 227, 432, 242
-0.998583, 153, 247, 216, 262
-0.998584, 345, 287, 408, 302
-0.998584, 169, 273, 232, 288
-0.998586, 273, 235, 336, 250
-0.998586, 89, 225, 104, 352
-0.998586, 1, 233, 64, 248
-0.998587, 109, 241, 140, 256
-0.998587, 369, 355, 432, 370
-0.998588, 321, 287, 384, 302
-0.998588, 113, 279, 176, 294
-0.998589, 97, 299, 160, 314
-0.998589, 1, 291, 64, 306
-0.99859, 89, 311, 152, 326
-0.998591, 289, 291, 352, 306
-0.998591, 69, 239, 100, 254
-0.998592, 57, 235, 120, 250
-0.998593, 49, 297, 112, 312
-0.998593, 361, 219, 424, 234
-0.998593, 33, 287, 96, 302
-0.998595, 201, 291, 264, 306
-0.998595, 129, 199, 192, 214
-0.998596, 113, 307, 176, 322
-0.998597, 73, 281, 104, 296
-0.998598, 1, 267, 64, 282
-0.998598, 77, 311, 108, 326
-0.998599, 353, 71, 416, 86
-0.998599, 73, 267, 104, 282
-0.998599, 257, 345, 320, 360
-0.998599, 329, 331, 392, 346
-0.9986, 177, 221, 240, 236
-0.998601, 201, 237, 264, 252
-0.998602, 385, 245, 448, 260
-0.998602, 289, 173, 352, 188
-0.998609, 133, 227, 164, 242
-0.99861, 125, 235, 156, 250
-0.998611, 49, 245, 80, 260
-0.998613, 137, 243, 168, 258
-0.998617, 137, 233, 168, 248
-0.998623, 353, 61, 480, 92
-0.998627, 307, 193, 322, 320
-0.998627, 61, 271, 92, 286
-0.998629, 61, 261, 92, 276
-0.998632, 95, 241, 110, 368
-0.998634, 129, 193, 144, 320
-0.998639, 69, 241, 84, 368
-0.998646, 351, 129, 366, 256
-0.998683, 427, 193, 442, 320
-0.99869, 401, 65, 432, 192
-0.998696, 273, 129, 304, 375
-0.998706, 243, 209, 258, 336
-0.998708, 309, 145, 324, 272
-0.998709, 221, 193, 236, 320
-0.998722, 249, 129, 280, 375
-0.998727, 147, 193, 162, 320
-0.998729, 361, 129, 376, 256
-0.998791, 299, 209, 314, 336
-0.998808, 321, 1, 352, 256
-0.998808, 257, 97, 384, 128
-0.998819, 81, 209, 96, 336
-0.998826, 101, 225, 116, 352
-0.998832, 227, 241, 242, 368
-0.998834, 137, 209, 152, 336
-0.998836, 41, 241, 56, 368
-0.998841, 125, 241, 140, 368
-0.998843, 53, 209, 68, 336
-0.998846, 313, 1, 344, 128
-0.998857, 257, 37, 384, 68
-0.998863, 63, 241, 78, 368
-0.998865, 107, 225, 122, 352
-0.998867, 353, 177, 368, 304
-0.998868, 139, 145, 154, 272
-0.998874, 315, 209, 330, 336
-0.998876, 117, 97, 148, 224
-0.998879, 1, 121, 500, 184
-0.998888, 427, 241, 442, 368
-0.998889, 117, 33, 148, 288
-0.998889, 341, 161, 356, 288
-0.998891, 305, 1, 432, 64
-0.998892, 49, 189, 176, 220
-0.998892, 363, 193, 378, 320
-0.998894, 283, 241, 298, 368
-0.9989, 437, 225, 452, 352
-0.99891, 369, 77, 496, 108
-0.998912, 15, 225, 30, 352
-0.998922, 53, 33, 84, 288
-0.998938, 249, 225, 264, 352
-0.998939, 25, 209, 40, 336
-0.998944, 81, 141, 208, 172
-0.998958, 237, 241, 252, 368
-0.998958, 241, 129, 368, 160
-0.998961, 209, 225, 224, 352
-0.998962, 269, 241, 284, 368
-0.998963, 33, 33, 64, 288
-0.998964, 305, 25, 432, 56
-0.998969, 97, 169, 224, 232
-0.99897, 5, 65, 36, 192
-0.998971, 215, 193, 230, 320
-0.998976, 335, 161, 350, 288
-0.998984, 131, 241, 146, 368
-0.998993, 137, 33, 168, 288
-0.998994, 153, 209, 168, 336
-0.999002, 47, 225, 62, 352
-0.999006, 203, 225, 218, 352
-0.999007, 355, 49, 370, 176
-0.999007, 259, 241, 274, 368
-0.999007, 277, 241, 292, 368
-0.99901, 161, 193, 176, 320
-0.999011, 373, 49, 388, 176
-0.999014, 289, 241, 304, 368
-0.99903, 445, 225, 460, 352
-0.999039, 147, 145, 162, 272
-0.999039, 303, 145, 318, 272
-0.999041, 35, 225, 50, 352
-0.999048, 307, 241, 322, 368
-0.999051, 215, 241, 230, 368
-0.999064, 73, 33, 104, 288
-0.999065, 385, 129, 416, 375
-0.999066, 401, 113, 432, 240
-0.999068, 369, 165, 496, 196
-0.999082, 223, 145, 238, 272
-0.999083, 345, 113, 360, 240
-0.999084, 391, 49, 406, 176
-0.99909, 455, 225, 470, 352
-0.99909, 81, 97, 112, 224
-0.999091, 221, 241, 236, 368
-0.999094, 133, 145, 148, 272
-0.999104, 225, 33, 256, 288
-0.999105, 127, 145, 142, 272
-0.999111, 89, 33, 120, 288
-0.999113, 453, 81, 484, 208
-0.999115, 229, 145, 244, 272
-0.999115, 421, 193, 436, 320
-0.99912, 463, 161, 478, 288
-0.999124, 343, 33, 358, 160
-0.999129, 435, 177, 450, 304
-0.99913, 95, 193, 110, 320
-0.999133, 29, 81, 60, 208
-0.999134, 337, 113, 352, 240
-0.999134, 65, 193, 80, 320
-0.999135, 461, 209, 476, 336
-0.999138, 385, 65, 400, 192
-0.999142, 315, 161, 330, 288
-0.999143, 197, 241, 212, 368
-0.999143, 153, 145, 168, 272
-0.999149, 389, 241, 404, 368
-0.999158, 217, 145, 232, 272
-0.999166, 199, 145, 214, 272
-0.999171, 379, 49, 394, 176
-0.999175, 409, 97, 472, 160
-0.999176, 321, 193, 336, 320
-0.999176, 385, 17, 400, 144
-0.999177, 59, 193, 74, 320
-0.999184, 349, 49, 364, 176
-0.999191, 369, 193, 384, 320
-0.999197, 467, 225, 482, 352
-0.999198, 201, 33, 232, 288
-0.999199, 149, 33, 180, 288
-0.999202, 261, 129, 292, 375
-0.999204, 455, 161, 470, 288
-0.999204, 241, 21, 368, 52
-0.999204, 347, 177, 362, 304
-0.999205, 159, 241, 174, 368
-0.999206, 55, 145, 70, 272
-0.99921, 205, 145, 220, 272
-0.999226, 415, 209, 430, 336
-0.999233, 337, 209, 352, 336
-0.999238, 337, 17, 352, 144
-0.999244, 211, 145, 226, 272
-0.999244, 421, 241, 436, 368
-0.999245, 113, 145, 128, 272
-0.999245, 329, 161, 344, 288
-0.999245, 129, 165, 256, 196
-0.999246, 121, 161, 136, 288
-0.999251, 369, 89, 496, 120
-0.999267, 43, 145, 58, 272
-0.999268, 61, 145, 76, 272
-0.999271, 213, 33, 244, 288
-0.999271, 353, 37, 480, 68
-0.999282, 441, 177, 456, 304
-0.999287, 1, 41, 500, 104
-0.999289, 175, 209, 190, 336
-0.999292, 71, 145, 86, 272
-0.999294, 367, 49, 382, 176
-0.999297, 97, 145, 112, 272
-0.999301, 401, 161, 432, 288
-0.999305, 161, 65, 192, 192
-0.999309, 471, 161, 486, 288
-0.999311, 197, 193, 212, 320
-0.999315, 371, 129, 386, 256
-0.999321, 377, 225, 392, 352
-0.999327, 177, 129, 192, 256
-0.999329, 241, 117, 368, 148
-0.99933, 191, 209, 206, 336
-0.999333, 107, 145, 122, 272
-0.999334, 159, 129, 174, 256
-0.999344, 361, 49, 376, 176
-0.999345, 473, 225, 488, 352
-0.999347, 209, 33, 336, 96
-0.999356, 235, 145, 250, 272
-0.999357, 325, 113, 340, 240
-0.999358, 83, 145, 98, 272
-0.999373, 167, 209, 182, 336
-0.999378, 351, 1, 366, 128
-0.99939, 91, 145, 106, 272
-0.99939, 353, 21, 480, 52
-0.999391, 413, 65, 444, 192
-0.999394, 193, 145, 208, 272
-0.999398, 395, 225, 410, 352
-0.999399, 333, 65, 348, 192
-0.999401, 363, 1, 378, 128
-0.999407, 9, 241, 24, 368
-0.999419, 5, 33, 36, 288
-0.999427, 369, 153, 496, 184
-0.99945, 177, 165, 304, 196
-0.999451, 173, 81, 204, 208
-0.999485, 97, 97, 128, 224
-0.999487, 49, 329, 176, 360
-0.999515, 105, 33, 136, 288
-0.99952, 45, 97, 76, 224
-0.999522, 193, 9, 448, 72
-0.999567, 321, 161, 448, 192
-0.999577, 145, 81, 272, 144
-0.99959, 217, 65, 248, 192
-0.999617, 189, 33, 220, 288
-0.99962, 297, 33, 328, 288
-0.99963, 141, 195, 156, 210
-0.99963, 409, 323, 424, 338
-0.99963, 365, 217, 380, 232
-0.99963, 333, 199, 348, 214
-0.99963, 341, 227, 356, 242
-0.999631, 71, 245, 86, 260
-0.999631, 123, 233, 138, 248
-0.999632, 361, 211, 376, 226
-0.999633, 447, 251, 462, 266
-0.999633, 95, 251, 110, 266
-0.999634, 109, 251, 124, 266
-0.999634, 111, 313, 126, 328
-0.999635, 129, 251, 144, 266
-0.999635, 77, 285, 92, 300
-0.999636, 177, 271, 192, 286
-0.999636, 339, 215, 354, 230
-0.999636, 359, 189, 374, 204
-0.999637, 435, 249, 450, 264
-0.999638, 105, 233, 120, 248
-0.999639, 99, 233, 114, 248
-0.99964, 413, 33, 444, 288
-0.99964, 171, 271, 186, 286
-0.99964, 109, 265, 124, 280
-0.999641, 307, 177, 322, 192
-0.999641, 353, 187, 368, 202
-0.999641, 349, 219, 364, 234
-0.999643, 63, 309, 78, 324
-0.999645, 311, 255, 326, 270
-0.999645, 109, 259, 124, 274
-0.999645, 61, 249, 76, 264
-0.999646, 67, 273, 82, 288
-0.999646, 121, 257, 136, 272
-0.999647, 49, 243, 64, 258
-0.999649, 153, 227, 168, 242
-0.99965, 97, 273, 112, 288
-0.999651, 117, 287, 132, 302
-0.999652, 61, 277, 76, 292
-0.999653, 67, 265, 82, 280
-0.999654, 353, 225, 368, 240
-0.999654, 349, 181, 364, 196
-0.999655, 115, 265, 130, 280
-0.999656, 33, 255, 48, 270
-0.999657, 77, 317, 92, 332
-0.999657, 341, 199, 356, 214
-0.999658, 101, 261, 116, 276
-0.999658, 83, 259, 98, 274
-0.999658, 121, 263, 136, 278
-0.999659, 91, 261, 106, 276
-0.999659, 101, 267, 116, 282
-0.99966, 367, 223, 382, 238
-0.999661, 141, 233, 156, 248
-0.999663, 99, 285, 114, 300
-0.999664, 209, 57, 336, 120
-0.999664, 381, 243, 396, 258
-0.999666, 151, 241, 166, 256
-0.999667, 115, 251, 130, 266
-0.999667, 355, 211, 370, 226
-0.999667, 105, 285, 120, 300
-0.999668, 91, 269, 106, 284
-0.999668, 237, 33, 268, 288
-0.999671, 85, 305, 100, 320
-0.999672, 71, 315, 86, 330
-0.999672, 205, 235, 220, 250
-0.999673, 303, 261, 318, 276
-0.999673, 81, 229, 96, 244
-0.999673, 83, 283, 98, 298
-0.999674, 113, 235, 128, 250
-0.999674, 229, 209, 244, 224
-0.999674, 105, 241, 120, 256
-0.999675, 67, 279, 82, 294
-0.999676, 177, 33, 208, 288
-0.999677, 149, 197, 164, 212
-0.999678, 147, 211, 162, 226
-0.999678, 275, 299, 290, 314
-0.999679, 335, 185, 350, 200
-0.99968, 81, 239, 96, 254
-0.999681, 59, 303, 74, 318
-0.999681, 429, 251, 444, 266
-0.999681, 119, 275, 134, 290
-0.999684, 333, 193, 348, 208
-0.999686, 155, 221, 170, 236
-0.999686, 111, 283, 126, 298
-0.999687, 91, 275, 106, 290
-0.999687, 65, 257, 80, 272
-0.999688, 75, 279, 90, 294
-0.999688, 87, 239, 102, 254
-0.999688, 375, 237, 390, 252
-0.999689, 441, 249, 456, 264
-0.99969, 151, 205, 166, 220
-0.999691, 137, 205, 152, 220
-0.999692, 119, 239, 134, 254
-0.999694, 73, 271, 88, 286
-0.999697, 361, 225, 376, 240
-0.999697, 347, 213, 362, 228
-0.999698, 103, 279, 118, 294
-0.999699, 41, 251, 56, 266
-0.999701, 159, 227, 174, 242
-0.999702, 143, 201, 158, 216
-0.999703, 113, 241, 128, 256
-0.999703, 143, 219, 158, 234
-0.999704, 135, 233, 150, 248
-0.999708, 91, 285, 106, 300
-0.999708, 95, 239, 110, 254
-0.999709, 121, 251, 136, 266
-0.999709, 137, 213, 152, 228
-0.99971, 369, 229, 384, 244
-0.999711, 111, 271, 126, 286
-0.999711, 131, 243, 146, 258
-0.999717, 129, 237, 144, 252
-0.999721, 353, 199, 368, 214
-0.999721, 147, 225, 162, 240
-0.999721, 151, 233, 166, 248
-0.999723, 347, 199, 362, 214
-0.999726, 121, 245, 136, 260
-0.999726, 79, 311, 94, 326
-0.999728, 41, 245, 56, 260
-0.999728, 35, 249, 50, 264
-0.999728, 21, 33, 52, 288
-0.999729, 83, 267, 98, 282
-0.999731, 95, 303, 110, 318
-0.999735, 353, 205, 368, 220
-0.999736, 457, 33, 488, 288
-0.999737, 137, 225, 152, 240
-0.999738, 31, 301, 46, 316
-0.999741, 339, 179, 354, 194
-0.999745, 273, 49, 336, 176
-0.999746, 347, 207, 362, 222
-0.999748, 77, 263, 92, 278
-0.999748, 61, 243, 76, 258
-0.999755, 109, 277, 124, 292
-0.999757, 83, 277, 98, 292
-0.999757, 71, 237, 86, 252
-0.999757, 85, 311, 100, 326
-0.999761, 359, 195, 374, 210
-0.999765, 91, 309, 106, 324
-0.999778, 363, 203, 378, 218
-0.999781, 161, 33, 192, 288
-0.999783, 137, 219, 152, 234
-0.999844, 369, 101, 496, 132
-0.999881, 309, 1, 340, 256
-0.999904, 161, 129, 288, 160
-0.999937, 425, 33, 456, 288
-0.99995, 249, 129, 280, 256
-0.999955, 285, 33, 316, 288
-0.999959, 129, 177, 256, 208
-1.0001, 49, 177, 176, 208
-1.00012, 17, 201, 144, 232
-1.00014, 209, 101, 336, 132
-1.00014, 145, 113, 272, 144
-1.00016, 397, 1, 428, 256
-1.00021, 1, 65, 500, 128
-1.00022, 69, 81, 100, 208
-1.00024, 33, 105, 288, 168
-1.00025, 249, 33, 280, 288
-1.00026, 145, 81, 176, 208
-1.00029, 325, 1, 356, 128
-1.00032, 261, 145, 292, 272
-1.00038, 265, 33, 296, 288
-1.00039, 469, 33, 500, 288
-1.00039, 57, 81, 88, 208
-1.00041, 1, 41, 128, 104
-1.0005, 229, 65, 260, 192
-1.00054, 389, 113, 420, 240
-1.00055, 437, 1, 468, 256
-1.00056, 233, 49, 296, 176
-1.0007, 129, 73, 384, 136
-1.00077, 97, 25, 352, 88
-1.00078, 425, 65, 456, 192
-1.00087, 17, 73, 144, 136
-1.00091, 33, 81, 288, 144
-1.00093, 1, 177, 128, 240
-1.00095, 49, 41, 176, 104
-1.00097, 193, 89, 320, 152
-1.00102, 1, 17, 128, 80
-1.00109, 193, 9, 320, 72
-1.00116, 65, 49, 320, 112
-1.00119, 161, 57, 288, 120
-1.0012, 1, 97, 500, 160
-1.00124, 81, 65, 208, 128
-1.00127, 65, 9, 192, 72
-1.0013, 1, 17, 256, 80
-1.00136, 285, 65, 316, 192
-1.0014, 97, 1, 224, 128
-1.00144, 261, 97, 292, 224
-1.00145, 249, 81, 280, 208
-1.00152, 145, 33, 272, 96
-1.00155, 1, 105, 128, 168
-1.00172, 97, 1, 352, 64
-1.00176, 97, 33, 224, 96
-1.0018, 1, 17, 500, 80
-1.00189, 145, 1, 272, 64
-1.00189, 17, 1, 144, 128
-1.0021, 81, 89, 208, 152
-1.00225, 1, 49, 128, 176
-1.00244, 161, 1, 288, 128
-1.00292, 169, 49, 232, 176
-1.00369, 273, 1, 336, 128
-1.0038, 193, 49, 256, 176
-1.00458, 25, 1, 88, 128
-1.0057, 425, 33, 488, 160
-1.00584, 169, 1, 232, 128
-1.00594, 81, 1, 144, 128
-1.00598, 57, 17, 120, 144
-1.00614, 113, 1, 176, 128
-1.00643, 105, 49, 168, 176
-1.00646, 233, 1, 296, 128
-1.00656, 1, 17, 64, 144
-1.00656, 145, 17, 208, 144
-1.00685, 193, 1, 256, 128
-1.0109, 401, 1, 464, 128
