1822
-0.388896, 1, 1, 500, 273
-0.462011, 1, 33, 500, 273
-0.473251, 257, 1, 500, 273
-0.601801, 1, 1, 256, 273
-0.629822, 97, 1, 352, 273
-0.664768, 257, 1, 500, 256
-0.81569, 33, 1, 288, 256
-0.819277, 161, 33, 416, 273
-0.860724, 369, 1, 496, 273
-0.870305, 321, 1, 448, 273
-0.873755, 369, 33, 496, 273
-0.874002, 321, 1, 448, 256
-0.886382, 273, 1, 400, 273
-0.890324, 1, 97, 500, 224
-0.897516, 193, 1, 320, 273
-0.905187, 145, 1, 272, 273
-0.905803, 1, 1, 500, 128
-0.912471, 161, 1, 288, 256
-0.915581, 1, 33, 128, 273
-0.915978, 257, 1, 384, 256
-0.922209, 1, 145, 500, 272
-0.923106, 97, 1, 224, 273
-0.925851, 257, 113, 500, 240
-0.926262, 129, 81, 384, 208
-0.926358, 113, 1, 240, 256
-0.926843, 209, 1, 336, 256
-0.92709, 1, 49, 500, 176
-0.929683, 1, 1, 128, 273
-0.930226, 65, 1, 192, 256
-0.935707, 257, 17, 500, 144
-0.936476, 49, 1, 176, 273
-0.940375, 225, 65, 480, 192
-0.942146, 129, 145, 384, 272
-0.942147, 353, 1, 480, 128
-0.944034, 417, 1, 480, 128
-0.945065, 425, 49, 488, 176
-0.946654, 33, 97, 288, 224
-0.946992, 409, 1, 472, 64
-0.947652, 193, 81, 320, 208
-0.947697, 265, 97, 328, 224
-0.949312, 1, 145, 256, 272
-0.949552, 369, 49, 496, 176
-0.951738, 145, 97, 272, 224
-0.952709, 337, 113, 464, 240
-0.952944, 241, 81, 368, 208
-0.955605, 169, 97, 232, 224
-0.957465, 193, 145, 320, 272
-0.957772, 385, 1, 448, 128
-0.958878, 209, 97, 272, 224
-0.959888, 289, 97, 352, 224
-0.960081, 217, 145, 280, 272
-0.960732, 401, 81, 464, 208
-0.961168, 241, 145, 368, 272
-0.961194, 241, 97, 304, 224
-0.96176, 433, 73, 496, 136
-0.961931, 249, 145, 312, 272
-0.962129, 385, 1, 448, 64
-0.962661, 97, 33, 352, 160
-0.963018, 9, 1, 72, 128
-0.963174, 193, 33, 320, 160
-0.963345, 97, 97, 224, 224
-0.963528, 289, 97, 416, 224
-0.963639, 1, 49, 256, 176
-0.964306, 369, 81, 432, 208
-0.964347, 289, 49, 416, 176
-0.964778, 273, 89, 336, 152
-0.964969, 1, 145, 128, 272
-0.965733, 425, 49, 488, 112
-0.966226, 337, 113, 400, 240
-0.966927, 361, 1, 424, 64
-0.966965, 433, 129, 496, 256
-0.967854, 33, 81, 160, 208
-0.967952, 145, 145, 272, 272
-0.968015, 377, 129, 440, 256
-0.968699, 393, 113, 456, 176
-0.968768, 417, 25, 480, 88
-0.969212, 145, 97, 208, 224
-0.969217, 353, 129, 416, 192
-0.969385, 1, 1, 256, 128
-0.969527, 9, 1, 72, 64
-0.97042, 297, 169, 360, 232
-0.970485, 177, 89, 240, 152
-0.970538, 265, 169, 328, 232
-0.970576, 297, 145, 360, 272
-0.970652, 369, 1, 496, 64
-0.970698, 273, 145, 336, 272
-0.970772, 305, 1, 432, 128
-0.971134, 377, 137, 440, 200
-0.97122, 177, 145, 240, 272
-0.971224, 177, 169, 240, 232
-0.971283, 97, 145, 224, 272
-0.971556, 445, 1, 476, 128
-0.971686, 441, 1, 472, 64
-0.971762, 321, 169, 384, 232
-0.971835, 201, 169, 264, 232
-0.971875, 33, 65, 96, 192
-0.972009, 201, 81, 264, 144
-0.972123, 417, 113, 480, 176
-0.972284, 241, 169, 304, 232
-0.972318, 433, 1, 496, 256
-0.972536, 1, 129, 64, 256
-0.972575, 209, 1, 272, 128
-0.972692, 273, 145, 336, 208
-0.97293, 97, 49, 224, 176
-0.973623, 249, 81, 312, 144
-0.973852, 461, 49, 492, 112
-0.974059, 201, 49, 264, 176
-0.974284, 297, 145, 360, 208
-0.974302, 241, 145, 304, 208
-0.97433, 369, 105, 432, 168
-0.974331, 289, 145, 416, 272
-0.974779, 41, 1, 104, 64
-0.974949, 369, 1, 432, 256
-0.975092, 65, 1, 128, 128
-0.975314, 121, 97, 184, 224
-0.975493, 297, 113, 360, 176
-0.975522, 49, 1, 176, 128
-0.975593, 217, 193, 280, 256
-0.975818, 305, 49, 368, 176
-0.975851, 193, 73, 320, 136
-0.975874, 337, 1, 400, 64
-0.976113, 1, 1, 128, 128
-0.976252, 145, 145, 208, 272
-0.976473, 401, 1, 432, 64
-0.976519, 297, 81, 360, 144
-0.976742, 321, 129, 448, 192
-0.97684, 409, 1, 472, 256
-0.976857, 461, 17, 492, 144
-0.976877, 89, 97, 152, 224
-0.976922, 153, 177, 216, 240
-0.977059, 233, 17, 296, 144
-0.977425, 329, 129, 392, 192
-0.977497, 461, 25, 492, 88
-0.977762, 241, 1, 368, 128
-0.977793, 409, 73, 472, 136
-0.977802, 129, 1, 256, 128
-0.977849, 177, 193, 240, 256
-0.977892, 153, 81, 216, 144
-0.978195, 409, 129, 472, 256
-0.978433, 369, 113, 496, 176
-0.978448, 161, 169, 288, 232
-0.978653, 225, 81, 288, 144
-0.979026, 185, 57, 248, 120
-0.979056, 209, 1, 272, 64
-0.979161, 369, 25, 496, 88
-0.979185, 409, 137, 472, 200
-0.979271, 425, 1, 456, 64
-0.979312, 321, 1, 448, 64
-0.979398, 421, 113, 452, 176
-0.979425, 241, 169, 368, 232
-0.979453, 413, 1, 444, 64
-0.979462, 313, 97, 376, 224
-0.979491, 145, 49, 272, 176
-0.979518, 265, 17, 328, 144
-0.979596, 345, 169, 408, 232
-0.979632, 241, 57, 304, 120
-0.979657, 153, 153, 216, 216
-0.979754, 389, 1, 420, 64
-0.979849, 145, 49, 208, 176
-0.97996, 49, 129, 176, 256
-0.979973, 65, 1, 128, 64
-0.979975, 293, 97, 324, 224
-0.980164, 201, 113, 264, 176
-0.980204, 417, 113, 448, 240
-0.980436, 217, 145, 280, 208
-0.980457, 433, 1, 496, 64
-0.980679, 369, 65, 496, 128
-0.980693, 361, 1, 424, 128
-0.980783, 197, 97, 228, 224
-0.980824, 169, 17, 232, 144
-0.980913, 441, 65, 472, 128
-0.981193, 293, 81, 324, 144
-0.981278, 241, 89, 368, 152
-0.981292, 385, 81, 448, 144
-0.981382, 193, 145, 256, 208
-0.981455, 377, 1, 408, 64
-0.981475, 229, 193, 260, 256
-0.981546, 193, 145, 320, 208
-0.981556, 433, 1, 496, 273
-0.981559, 9, 33, 72, 96
-0.981856, 17, 137, 80, 200
-0.981969, 1, 1, 128, 64
-0.982209, 249, 193, 312, 256
-0.982266, 41, 1, 104, 128
-0.982487, 241, 145, 368, 208
-0.982572, 269, 97, 300, 224
-0.982814, 57, 81, 120, 208
-0.982873, 345, 1, 408, 256
-0.982939, 289, 169, 416, 232
-0.982939, 397, 1, 428, 128
-0.982944, 281, 193, 344, 256
-0.982988, 241, 169, 272, 232
-0.983054, 193, 81, 224, 144
-0.983059, 385, 25, 448, 88
-0.983223, 185, 97, 216, 224
-0.983262, 273, 113, 336, 176
-0.983274, 249, 105, 312, 168
-0.983275, 429, 81, 460, 208
-0.983345, 209, 57, 272, 120
-0.983477, 13, 1, 44, 64
-0.983543, 461, 73, 492, 136
-0.983585, 241, 113, 368, 176
-0.983603, 461, 65, 492, 192
-0.983618, 465, 1, 496, 64
-0.983723, 281, 81, 312, 208
-0.983726, 49, 49, 112, 112
-0.983726, 41, 145, 104, 208
-0.983893, 229, 169, 260, 232
-0.983965, 233, 1, 296, 64
-0.984112, 129, 177, 192, 240
-0.984174, 445, 49, 476, 176
-0.984185, 337, 89, 464, 152
-0.984201, 369, 185, 496, 248
-0.984209, 113, 89, 240, 152
-0.984267, 265, 49, 328, 112
-0.984331, 153, 57, 216, 120
-0.984424, 289, 73, 416, 136
-0.984428, 305, 81, 336, 144
-0.984484, 397, 81, 428, 208
-0.984499, 305, 97, 336, 224
-0.984563, 369, 145, 496, 208
-0.984563, 401, 49, 464, 112
-0.984564, 321, 169, 352, 232
-0.984604, 369, 185, 432, 248
-0.984604, 337, 193, 400, 256
-0.984626, 113, 153, 240, 216
-0.984668, 385, 1, 448, 273
-0.984684, 209, 177, 240, 240
-0.984886, 313, 1, 376, 64
-0.985012, 301, 169, 332, 232
-0.985037, 209, 97, 240, 224
-0.98504, 1, 169, 64, 232
-0.98504, 305, 193, 368, 256
-0.985055, 25, 209, 88, 272
-0.985069, 129, 193, 256, 256
-0.985115, 25, 65, 88, 128
-0.985168, 385, 137, 416, 200
-0.985227, 269, 153, 300, 216
-0.985266, 433, 169, 496, 232
-0.98528, 241, 145, 272, 272
-0.985399, 225, 193, 352, 256
-0.985402, 181, 81, 212, 144
-0.985532, 253, 145, 284, 272
-0.985534, 9, 65, 72, 192
-0.985617, 369, 129, 400, 192
-0.985679, 281, 81, 312, 144
-0.985745, 173, 97, 204, 224
-0.985747, 193, 153, 224, 216
-0.985764, 301, 145, 332, 208
-0.985843, 289, 145, 320, 208
-0.98588, 281, 169, 312, 232
-0.985889, 209, 49, 336, 112
-0.985898, 329, 105, 392, 168
-0.985996, 429, 89, 460, 152
-0.986, 401, 113, 432, 176
-0.986069, 297, 57, 360, 120
-0.98613, 153, 209, 216, 272
-0.986271, 361, 113, 392, 240
-0.986301, 233, 1, 264, 64
-0.986346, 273, 145, 304, 272
-0.986376, 333, 169, 364, 232
-0.986392, 209, 33, 272, 273
-0.98643, 365, 1, 396, 64
-0.986441, 417, 49, 448, 176
-0.98646, 313, 145, 344, 208
-0.986518, 353, 1, 416, 273
-0.98654, 321, 1, 384, 256
-0.986558, 425, 193, 488, 256
-0.986597, 1, 185, 128, 248
-0.986613, 417, 73, 448, 136
-0.986626, 233, 1, 264, 128
-0.986742, 405, 137, 436, 200
-0.986941, 213, 145, 244, 272
-0.986977, 233, 81, 264, 144
-0.987064, 285, 145, 316, 272
-0.987175, 177, 121, 304, 184
-0.987179, 385, 113, 416, 240
-0.987197, 49, 209, 112, 272
-0.987254, 41, 113, 104, 176
-0.98727, 409, 1, 440, 128
-0.987288, 177, 193, 304, 256
-0.987312, 129, 209, 192, 272
-0.987324, 321, 25, 448, 88
-0.987458, 1, 113, 64, 176
-0.987504, 113, 65, 240, 128
-0.987505, 161, 1, 288, 64
-0.987565, 349, 169, 380, 232
-0.987571, 17, 209, 144, 272
-0.987589, 325, 145, 356, 208
-0.987593, 49, 65, 80, 192
-0.987618, 377, 161, 440, 224
-0.987668, 257, 1, 320, 273
-0.987696, 289, 193, 416, 256
-0.987739, 49, 73, 112, 136
-0.987749, 197, 177, 228, 240
-0.987786, 161, 97, 288, 160
-0.987818, 245, 1, 276, 64
-0.987858, 233, 1, 296, 256
-0.987891, 265, 1, 328, 256
-0.987991, 245, 97, 276, 224
-0.988011, 177, 113, 240, 176
-0.988037, 177, 1, 240, 256
-0.988055, 405, 129, 436, 256
-0.988075, 417, 137, 448, 200
-0.988116, 253, 169, 284, 232
-0.988123, 25, 1, 88, 256
-0.988158, 25, 129, 88, 256
-0.988221, 241, 145, 272, 208
-0.988266, 121, 145, 184, 272
-0.988266, 273, 1, 400, 64
-0.988286, 293, 105, 324, 168
-0.988287, 221, 1, 252, 128
-0.988294, 409, 1, 472, 32
-0.988345, 353, 1, 384, 64
-0.988367, 41, 169, 104, 232
-0.988369, 65, 73, 192, 136
-0.988419, 105, 209, 168, 272
-0.988479, 53, 1, 84, 64
-0.988495, 441, 41, 472, 104
-0.988548, 141, 97, 172, 224
-0.988556, 305, 1, 368, 273
-0.98857, 205, 89, 236, 152
-0.98859, 49, 145, 176, 208
-0.988631, 213, 153, 244, 216
-0.98866, 49, 25, 112, 88
-0.988707, 65, 145, 128, 208
-0.988716, 57, 129, 120, 256
-0.988788, 161, 97, 192, 224
-0.988802, 241, 193, 272, 256
-0.988863, 313, 145, 344, 272
-0.988931, 409, 1, 472, 273
-0.988939, 33, 105, 160, 168
-0.988988, 221, 97, 252, 224
-0.98899, 225, 1, 352, 64
-0.989027, 373, 129, 404, 256
-0.989047, 105, 1, 168, 128
-0.989083, 369, 209, 496, 272
-0.989089, 257, 97, 288, 224
-0.989114, 225, 121, 288, 184
-0.989121, 81, 177, 208, 240
-0.989211, 153, 105, 216, 168
-0.989214, 73, 105, 136, 168
-0.989224, 217, 201, 248, 264
-0.989247, 469, 201, 500, 264
-0.989273, 329, 1, 392, 128
-0.989318, 81, 209, 144, 272
-0.989464, 121, 49, 184, 176
-0.989542, 321, 113, 352, 176
-0.989585, 341, 145, 372, 208
-0.989612, 233, 81, 264, 208
-0.989676, 433, 1, 464, 128
-0.989712, 1, 1, 32, 64
-0.989772, 193, 105, 224, 168
-0.989772, 297, 145, 328, 272
-0.989836, 233, 1, 296, 273
-0.989875, 181, 153, 212, 216
-0.989942, 421, 49, 452, 112
-0.989973, 353, 1, 416, 32
-0.98998, 293, 57, 324, 120
-0.989981, 289, 1, 352, 64
-0.990005, 1, 65, 128, 128
-0.990008, 145, 1, 208, 128
-0.990031, 257, 49, 384, 112
-0.990034, 425, 81, 488, 112
-0.990041, 25, 1, 56, 64
-0.990075, 193, 145, 224, 272
-0.990193, 425, 45, 488, 76
-0.990204, 337, 113, 368, 240
-0.990242, 221, 1, 252, 64
-0.990247, 329, 1, 392, 273
-0.990274, 253, 193, 284, 256
-0.990281, 361, 25, 424, 88
-0.990331, 61, 73, 92, 136
-0.99034, 49, 1, 176, 64
-0.990349, 185, 93, 248, 124
-0.990352, 89, 73, 152, 136
-0.99037, 281, 1, 344, 273
-0.990371, 289, 97, 416, 160
-0.990386, 89, 145, 152, 272
-0.990404, 217, 205, 280, 236
-0.990453, 129, 153, 192, 216
-0.990481, 105, 185, 168, 248
-0.990489, 65, 1, 96, 64
-0.990506, 317, 97, 348, 224
-0.990514, 297, 1, 360, 256
-0.990534, 185, 1, 248, 64
-0.990551, 381, 185, 412, 248
-0.990566, 185, 193, 216, 256
-0.990567, 169, 1, 232, 273
-0.990584, 153, 1, 216, 64
-0.990589, 41, 1, 72, 128
-0.990599, 129, 73, 192, 136
-0.990605, 325, 145, 356, 272
-0.990609, 361, 169, 392, 232
-0.990618, 229, 145, 260, 272
-0.990618, 417, 33, 480, 64
-0.990652, 353, 121, 384, 184
-0.990671, 309, 113, 340, 176
-0.990676, 417, 17, 480, 48
-0.990705, 409, 137, 472, 168
-0.990726, 265, 85, 328, 116
-0.990737, 193, 1, 256, 273
-0.990769, 17, 1, 48, 128
-0.990791, 169, 169, 200, 232
-0.990798, 389, 113, 420, 176
-0.990802, 81, 1, 112, 64
-0.990825, 177, 25, 304, 88
-0.990853, 153, 177, 184, 240
-0.990868, 281, 105, 312, 168
-0.990878, 241, 209, 304, 240
-0.990911, 221, 73, 252, 136
-0.990942, 377, 141, 440, 172
-0.99097, 417, 69, 480, 100
-0.990986, 417, 125, 480, 156
-0.990991, 1, 161, 128, 224
-0.990992, 293, 49, 324, 176
-0.990993, 385, 129, 448, 160
-0.991012, 161, 93, 224, 124
-0.991029, 265, 97, 328, 128
-0.991045, 193, 57, 224, 120
-0.991056, 177, 205, 240, 236
-0.991059, 49, 57, 80, 120
-0.991076, 257, 145, 288, 208
-0.991103, 193, 165, 256, 196
-0.991113, 249, 157, 312, 188
-0.991115, 113, 97, 144, 224
-0.991129, 1, 129, 128, 192
-0.991147, 385, 1, 448, 32
-0.991149, 273, 177, 336, 208
-0.991184, 161, 49, 288, 112
-0.991195, 1, 201, 64, 264
-0.991199, 405, 89, 436, 152
-0.991202, 73, 169, 136, 232
-0.991213, 69, 1, 100, 128
-0.991261, 201, 193, 264, 224
-0.991265, 65, 209, 192, 272
-0.991278, 433, 137, 496, 168
-0.991298, 417, 57, 480, 88
-0.991313, 205, 65, 236, 128
-0.991313, 269, 177, 300, 240
-0.991323, 417, 113, 480, 144
-0.99133, 25, 1, 88, 32
-0.991333, 161, 157, 224, 188
-0.991346, 393, 85, 456, 116
-0.991352, 201, 81, 264, 112
-0.991364, 209, 97, 272, 128
-0.991407, 217, 157, 280, 188
-0.991407, 233, 189, 296, 220
-0.991435, 177, 105, 240, 136
-0.991443, 233, 177, 296, 208
-0.991443, 257, 1, 500, 64
-0.991461, 349, 97, 380, 224
-0.991466, 401, 149, 464, 180
-0.991488, 297, 177, 360, 208
-0.991491, 469, 129, 500, 256
-0.991508, 97, 129, 224, 192
-0.991522, 49, 49, 176, 112
-0.991534, 177, 193, 240, 224
-0.991536, 345, 129, 408, 160
-0.991562, 337, 121, 368, 184
-0.991568, 153, 1, 216, 256
-0.991574, 329, 1, 392, 32
-0.991578, 369, 117, 432, 148
-0.991584, 281, 209, 344, 240
-0.991587, 257, 189, 320, 220
-0.991637, 121, 157, 184, 188
-0.991668, 289, 157, 352, 188
-0.991702, 433, 93, 496, 124
-0.991729, 369, 209, 432, 272
-0.991743, 321, 125, 384, 156
-0.991749, 433, 137, 496, 200
-0.991752, 289, 89, 352, 120
-0.991786, 241, 97, 304, 128
-0.991811, 297, 189, 360, 220
-0.991835, 145, 1, 208, 273
-0.991855, 1, 1, 64, 32
-0.991866, 129, 89, 384, 152
-0.991892, 305, 209, 368, 240
-0.991904, 73, 1, 136, 32
-0.991913, 385, 105, 448, 136
-0.991915, 305, 49, 432, 112
-0.991925, 1, 209, 500, 272
-0.991929, 217, 1, 280, 32
-0.991933, 245, 65, 276, 128
-0.991944, 169, 169, 232, 200
-0.991947, 1, 25, 32, 88
-0.991963, 369, 161, 432, 192
-0.991966, 229, 129, 260, 192
-0.991975, 169, 81, 232, 112
-0.991987, 97, 157, 160, 188
-0.991992, 321, 177, 384, 208
-0.991998, 337, 157, 400, 188
-0.992005, 181, 57, 212, 120
-0.992005, 1, 137, 64, 168
-0.992017, 353, 141, 416, 172
-0.992027, 241, 81, 304, 112
-0.992031, 393, 117, 456, 148
-0.992034, 337, 25, 400, 88
-0.992037, 265, 109, 328, 140
-0.992039, 153, 129, 216, 192
-0.992045, 41, 1, 104, 273
-0.992053, 317, 73, 348, 136
-0.992063, 241, 1, 304, 32
-0.992077, 393, 185, 456, 248
-0.992091, 193, 49, 224, 176
-0.992094, 49, 65, 112, 96
-0.992095, 41, 1, 72, 64
-0.99212, 89, 145, 152, 208
-0.992124, 89, 49, 152, 176
-0.992127, 353, 181, 416, 212
-0.992154, 297, 117, 360, 148
-0.992164, 61, 65, 92, 192
-0.992171, 65, 1, 128, 256
-0.992181, 241, 113, 272, 176
-0.992214, 329, 209, 392, 240
-0.992215, 305, 1, 368, 32
-0.992218, 193, 1, 256, 32
-0.992228, 201, 181, 264, 212
-0.992238, 177, 217, 240, 248
-0.992254, 177, 181, 240, 212
-0.992258, 1, 97, 32, 224
-0.992261, 153, 205, 216, 236
-0.992281, 1, 29, 64, 60
-0.99229, 265, 73, 328, 104
-0.992292, 25, 69, 88, 100
-0.992292, 313, 157, 376, 188
-0.992294, 49, 5, 112, 36
-0.992308, 165, 193, 196, 256
-0.992316, 217, 217, 280, 248
-0.992322, 289, 101, 352, 132
-0.992339, 209, 145, 272, 176
-0.992351, 385, 21, 448, 52
-0.992363, 153, 1, 216, 32
-0.992364, 393, 73, 456, 104
-0.992371, 225, 25, 352, 88
-0.99238, 433, 113, 464, 176
-0.992384, 461, 65, 492, 96
-0.992385, 185, 33, 248, 96
-0.992392, 1, 25, 128, 88
-0.992401, 417, 1, 448, 32
-0.992405, 265, 145, 328, 176
-0.992408, 321, 189, 384, 220
-0.992411, 469, 97, 500, 160
-0.992432, 33, 149, 96, 180
-0.992437, 25, 57, 88, 88
-0.99246, 129, 173, 192, 204
-0.992466, 57, 157, 120, 188
-0.992468, 393, 161, 456, 192
-0.99247, 153, 193, 216, 224
-0.992479, 201, 109, 264, 140
-0.992487, 377, 181, 440, 212
-0.992506, 241, 241, 304, 272
-0.992511, 345, 65, 408, 192
-0.992511, 345, 169, 408, 200
-0.992515, 441, 5, 472, 36
-0.992544, 441, 73, 472, 104
-0.992549, 353, 201, 416, 232
-0.992557, 213, 49, 244, 176
-0.992559, 217, 25, 280, 88
-0.99256, 185, 69, 248, 100
-0.99257, 465, 37, 496, 68
-0.99258, 41, 137, 104, 168
-0.992581, 129, 97, 160, 224
-0.992585, 425, 149, 488, 180
-0.992618, 305, 77, 368, 108
-0.992623, 429, 1, 460, 32
-0.992624, 129, 153, 384, 216
-0.992632, 137, 93, 200, 124
-0.992632, 289, 1, 352, 128
-0.992633, 309, 193, 340, 256
-0.992637, 1, 185, 64, 216
-0.992641, 97, 1, 160, 32
-0.992645, 417, 241, 480, 272
-0.992647, 385, 1, 416, 32
-0.992652, 25, 129, 56, 192
-0.99266, 433, 197, 496, 228
-0.992671, 49, 53, 112, 84
-0.992704, 121, 145, 184, 176
-0.992715, 197, 93, 228, 124
-0.992723, 401, 161, 464, 224
-0.992724, 141, 169, 172, 232
-0.992729, 225, 109, 288, 140
-0.992732, 9, 241, 72, 272
-0.992738, 181, 145, 212, 272
-0.992748, 241, 69, 304, 100
-0.992751, 281, 241, 344, 272
-0.992757, 321, 145, 384, 176
-0.992757, 433, 213, 496, 244
-0.992757, 461, 53, 492, 84
-0.992759, 257, 73, 500, 136
-0.99276, 461, 25, 492, 56
-0.992781, 397, 5, 428, 36
-0.992782, 9, 149, 72, 180
-0.992788, 121, 189, 184, 220
-0.992789, 57, 237, 120, 268
-0.992799, 217, 49, 280, 80
-0.992801, 457, 129, 488, 256
-0.992803, 293, 81, 324, 112
-0.992815, 221, 189, 252, 220
-0.992823, 153, 105, 216, 136
-0.992823, 377, 209, 440, 240
-0.99284, 205, 201, 236, 264
-0.992848, 353, 213, 416, 244
-0.992851, 401, 145, 432, 176
-0.992854, 1, 1, 64, 273
-0.992858, 193, 241, 256, 272
-0.99286, 193, 177, 448, 240
-0.992862, 161, 145, 224, 176
-0.992868, 1, 57, 64, 88
-0.992878, 461, 77, 492, 108
-0.992882, 245, 17, 276, 144
-0.992888, 313, 221, 376, 252
-0.992889, 153, 181, 216, 212
-0.992921, 353, 145, 384, 208
-0.992929, 257, 157, 288, 188
-0.99293, 37, 137, 68, 200
-0.992949, 185, 89, 216, 120
-0.992952, 105, 105, 168, 168
-0.992958, 373, 1, 404, 32
-0.99296, 229, 205, 260, 236
-0.992961, 205, 205, 236, 236
-0.992965, 249, 205, 280, 236
-0.992974, 465, 5, 496, 36
-0.992981, 201, 161, 232, 192
-0.992985, 401, 125, 432, 156
-0.99299, 381, 137, 412, 168
-0.992995, 297, 97, 328, 128
-0.992999, 445, 21, 476, 52
-0.993003, 221, 169, 252, 200
-0.993003, 185, 101, 216, 132
-0.993006, 317, 49, 348, 176
-0.993014, 269, 157, 300, 188
-0.993031, 321, 177, 352, 208
-0.993033, 333, 193, 364, 256
-0.993038, 209, 173, 240, 204
-0.99305, 421, 125, 452, 156
-0.993058, 241, 177, 272, 208
-0.993061, 449, 133, 480, 164
-0.993062, 421, 81, 452, 112
-0.993063, 193, 205, 224, 236
-0.99307, 297, 177, 328, 208
-0.993071, 25, 1, 56, 32
-0.993073, 413, 137, 444, 168
-0.993082, 209, 193, 240, 224
-0.993096, 29, 137, 60, 168
-0.993106, 13, 5, 44, 36
-0.993107, 241, 189, 272, 220
-0.993115, 361, 1, 392, 32
-0.993115, 261, 205, 292, 236
-0.993118, 281, 157, 312, 188
-0.993119, 89, 1, 152, 64
-0.993132, 441, 61, 472, 92
-0.993134, 309, 177, 340, 208
-0.993157, 261, 189, 292, 220
-0.993158, 349, 1, 380, 32
-0.993161, 245, 1, 276, 32
-0.993162, 457, 129, 488, 192
-0.993172, 225, 1, 256, 32
-0.993172, 305, 209, 336, 240
-0.993172, 149, 157, 180, 188
-0.993173, 285, 101, 316, 132
-0.993176, 137, 157, 168, 188
-0.993176, 1, 201, 32, 264
-0.993177, 217, 209, 248, 240
-0.993181, 37, 1, 68, 32
-0.993182, 297, 157, 328, 188
-0.993183, 369, 133, 400, 164
-0.993183, 1, 21, 32, 52
-0.993187, 273, 189, 304, 220
-0.993188, 313, 189, 344, 220
-0.993196, 413, 149, 444, 180
-0.993197, 125, 157, 156, 188
-0.993198, 465, 129, 496, 160
-0.9932, 277, 177, 308, 208
-0.993202, 209, 97, 240, 128
-0.993202, 173, 157, 204, 188
-0.993213, 293, 189, 324, 220
-0.993221, 445, 41, 476, 72
-0.993233, 273, 205, 304, 236
-0.993236, 293, 209, 324, 240
-0.993238, 197, 105, 228, 136
-0.993239, 465, 89, 496, 120
-0.993256, 57, 65, 88, 96
-0.993257, 321, 209, 352, 240
-0.99326, 189, 161, 220, 192
-0.99326, 385, 1, 416, 128
-0.993272, 261, 169, 292, 200
-0.993273, 169, 145, 200, 208
-0.993274, 333, 177, 364, 208
-0.993275, 233, 89, 264, 120
-0.993279, 173, 97, 204, 128
-0.99328, 233, 77, 264, 108
-0.993282, 161, 157, 192, 188
-0.993285, 441, 85, 472, 116
-0.993292, 313, 157, 344, 188
-0.993293, 93, 1, 124, 32
-0.993294, 17, 133, 48, 164
-0.993305, 309, 97, 340, 128
-0.993307, 429, 113, 460, 144
-0.993309, 277, 145, 308, 176
-0.993309, 45, 65, 76, 96
-0.993311, 281, 89, 312, 120
-0.993312, 113, 157, 144, 188
-0.993315, 269, 81, 300, 144
-0.993316, 469, 225, 500, 256
-0.993317, 221, 157, 252, 188
-0.993317, 225, 121, 480, 184
-0.993318, 405, 21, 436, 52
-0.993318, 333, 209, 364, 240
-0.993318, 241, 165, 272, 196
-0.993323, 37, 149, 68, 180
-0.993323, 333, 189, 364, 220
-0.993324, 421, 1, 452, 128
-0.993325, 197, 81, 228, 112
-0.993329, 337, 1, 368, 32
-0.993331, 345, 125, 376, 156
-0.993335, 381, 181, 412, 212
-0.993336, 357, 129, 388, 160
-0.993336, 417, 161, 448, 192
-0.99334, 433, 141, 464, 172
-0.993342, 61, 49, 92, 112
-0.993343, 245, 77, 276, 108
-0.993346, 161, 1, 192, 32
-0.993351, 361, 181, 392, 212
-0.993351, 241, 217, 272, 248
-0.993356, 421, 69, 452, 100
-0.993357, 469, 209, 500, 240
-0.993361, 345, 209, 376, 240
-0.993363, 441, 137, 472, 200
-0.993366, 357, 157, 388, 188
-0.993377, 181, 205, 212, 236
-0.99338, 329, 121, 360, 152
-0.993381, 305, 49, 336, 176
-0.993385, 205, 217, 236, 248
-0.993389, 369, 169, 400, 200
-0.993389, 229, 105, 260, 136
-0.99339, 193, 193, 224, 224
-0.993391, 305, 85, 336, 116
-0.993393, 97, 1, 224, 64
-0.993397, 9, 121, 40, 152
-0.993403, 321, 1, 352, 32
-0.993404, 81, 105, 112, 136
-0.993405, 221, 93, 252, 124
-0.993405, 305, 117, 336, 148
-0.993413, 101, 157, 132, 188
-0.9935, 77, 105, 108, 168
-0.993534, 225, 153, 480, 216
-0.993546, 1, 1, 500, 64
-0.993581, 121, 1, 184, 256
-0.993602, 121, 1, 184, 273
-0.993617, 5, 1, 36, 128
-0.993709, 73, 49, 136, 112
-0.993773, 373, 81, 404, 208
-0.993897, 181, 105, 212, 168
-0.993899, 129, 177, 160, 240
-0.993918, 297, 193, 328, 256
-0.993959, 441, 89, 472, 152
-0.993988, 377, 161, 408, 224
-0.994008, 1, 33, 64, 273
-0.994009, 393, 185, 424, 248
-0.994049, 29, 1, 60, 128
-0.994055, 245, 89, 276, 152
-0.994069, 57, 145, 88, 208
-0.994077, 129, 105, 192, 168
-0.994123, 349, 145, 380, 272
-0.994155, 341, 1, 372, 64
-0.994201, 455, 1, 470, 64
-0.994203, 353, 81, 416, 144
-0.994226, 81, 1, 112, 128
-0.994268, 353, 1, 480, 32
-0.994279, 181, 49, 212, 176
-0.994288, 101, 97, 132, 224
-0.994316, 321, 193, 352, 256
-0.994329, 1, 113, 500, 176
-0.99438, 69, 145, 100, 208
-0.994388, 1, 153, 500, 216
-0.994431, 57, 17, 88, 144
-0.994469, 1, 193, 256, 256
-0.994493, 225, 105, 256, 168
-0.994517, 197, 129, 228, 192
-0.994517, 345, 193, 376, 256
-0.99457, 113, 41, 240, 104
-0.994591, 45, 33, 76, 96
-0.994592, 129, 57, 384, 120
-0.994622, 257, 25, 500, 88
-0.994632, 411, 1, 426, 64
-0.994635, 165, 145, 196, 272
-0.994643, 193, 89, 320, 120
-0.994658, 409, 25, 440, 88
-0.994689, 169, 81, 200, 144
-0.994718, 89, 97, 120, 224
-0.994723, 225, 97, 480, 160
-0.994741, 13, 113, 44, 240
-0.994749, 233, 25, 264, 88
-0.994776, 277, 57, 308, 120
-0.994776, 33, 89, 288, 152
-0.99479, 281, 17, 312, 144
-0.994799, 405, 1, 420, 64
-0.994802, 133, 209, 164, 272
-0.994807, 257, 49, 500, 112
-0.994814, 29, 97, 60, 224
-0.994847, 33, 145, 288, 208
-0.994868, 97, 1, 160, 256
-0.994888, 157, 49, 188, 176
-0.994892, 353, 117, 480, 148
-0.994893, 419, 1, 434, 64
-0.994928, 197, 1, 228, 128
-0.994966, 97, 185, 352, 248
-0.994967, 399, 1, 414, 64
-0.995064, 89, 1, 152, 273
-0.995103, 1, 1, 256, 64
-0.995148, 33, 57, 288, 120
-0.995196, 425, 1, 440, 64
-0.99521, 137, 145, 168, 272
-0.995222, 129, 113, 384, 176
-0.995224, 431, 1, 446, 64
-0.995231, 201, 81, 216, 144
-0.995252, 257, 209, 500, 272
-0.995317, 225, 161, 352, 192
-0.995334, 369, 25, 496, 56
-0.995356, 153, 145, 184, 272
-0.995369, 481, 33, 496, 96
-0.995392, 1, 57, 500, 120
-0.995424, 243, 81, 258, 144
-0.99545, 393, 1, 408, 64
-0.99546, 235, 185, 250, 248
-0.995494, 465, 41, 480, 104
-0.995497, 369, 81, 496, 112
-0.99553, 1, 57, 64, 120
-0.995601, 437, 1, 452, 64
-0.995616, 195, 81, 210, 144
-0.995643, 401, 209, 464, 272
-0.995673, 297, 81, 312, 144
-0.995683, 1, 81, 500, 144
-0.995737, 477, 65, 492, 128
-0.995737, 313, 33, 376, 96
-0.995765, 1, 169, 256, 232
-0.995782, 289, 1, 416, 32
-0.995798, 25, 89, 88, 152
-0.99582, 241, 209, 368, 240
-0.995856, 427, 121, 442, 184
-0.995861, 161, 165, 288, 196
-0.995867, 305, 73, 320, 136
-0.995872, 1, 177, 500, 240
-0.995878, 483, 193, 498, 256
-0.995925, 485, 9, 500, 72
-0.995942, 177, 77, 304, 108
-0.995968, 193, 209, 320, 240
-0.995991, 385, 1, 400, 64
-0.996003, 247, 1, 262, 64
-0.996003, 449, 1, 464, 64
-0.996007, 369, 45, 496, 76
-0.996022, 225, 173, 352, 204
-0.996024, 443, 1, 458, 64
-0.996064, 311, 81, 326, 144
-0.996074, 311, 169, 326, 232
-0.996081, 237, 1, 252, 64
-0.996096, 97, 209, 352, 272
-0.996104, 19, 1, 34, 64
-0.996145, 241, 33, 304, 96
-0.996187, 433, 105, 448, 168
-0.996198, 209, 101, 336, 132
-0.99621, 97, 157, 224, 188
-0.996213, 241, 169, 256, 232
-0.996226, 317, 169, 332, 232
-0.996233, 49, 113, 80, 240
-0.996255, 337, 141, 464, 172
-0.996258, 113, 93, 240, 124
-0.996278, 305, 169, 320, 232
-0.996281, 421, 129, 436, 192
-0.996281, 1, 33, 500, 96
-0.996294, 339, 169, 354, 232
-0.996298, 309, 145, 324, 208
-0.996313, 379, 1, 394, 64
-0.996325, 129, 1, 192, 64
-0.996333, 189, 81, 204, 144
-0.99634, 33, 113, 288, 176
-0.996346, 369, 65, 496, 96
-0.996367, 207, 81, 222, 144
-0.996371, 285, 145, 300, 208
-0.996381, 241, 193, 256, 256
-0.996381, 209, 177, 224, 240
-0.9964, 349, 169, 364, 232
-0.996404, 317, 145, 332, 208
-0.996406, 291, 81, 306, 144
-0.996418, 269, 17, 300, 144
-0.996418, 145, 49, 176, 176
-0.996423, 325, 169, 340, 232
-0.996426, 227, 193, 242, 256
-0.996434, 295, 145, 310, 208
-0.996446, 369, 13, 496, 44
-0.996459, 461, 33, 492, 273
-0.996478, 17, 1, 144, 32
-0.996478, 257, 89, 384, 120
-0.996501, 289, 125, 416, 156
-0.996508, 303, 145, 318, 208
-0.996512, 273, 169, 288, 232
-0.996514, 397, 137, 412, 200
-0.996532, 161, 185, 288, 216
-0.996534, 81, 1, 208, 32
-0.996536, 241, 117, 368, 148
-0.996561, 273, 177, 400, 208
-0.996579, 369, 129, 496, 160
-0.996579, 305, 157, 432, 188
-0.99659, 417, 1, 448, 256
-0.996597, 241, 189, 368, 220
-0.996604, 249, 73, 264, 136
-0.996609, 215, 177, 230, 240
-0.996609, 283, 169, 298, 232
-0.99662, 373, 1, 388, 64
-0.996623, 37, 49, 68, 176
-0.996633, 77, 97, 108, 224
-0.996634, 13, 1, 28, 64
-0.996645, 445, 97, 476, 224
-0.996656, 161, 101, 288, 132
-0.996659, 247, 169, 262, 232
-0.996676, 295, 169, 310, 232
-0.996682, 381, 129, 396, 192
-0.996687, 327, 145, 342, 208
-0.996688, 169, 49, 200, 176
-0.99671, 221, 193, 236, 256
-0.996728, 477, 209, 492, 272
-0.996755, 333, 169, 348, 232
-0.996756, 277, 145, 292, 208
-0.99676, 339, 145, 354, 208
-0.996776, 257, 149, 384, 180
-0.996778, 243, 113, 258, 176
-0.996781, 369, 209, 496, 240
-0.996792, 27, 1, 42, 64
-0.996803, 1, 49, 32, 176
-0.996813, 329, 65, 360, 192
-0.996829, 289, 209, 416, 240
-0.996831, 463, 81, 478, 144
-0.996839, 389, 137, 404, 200
-0.99684, 317, 81, 332, 144
-0.996846, 193, 197, 320, 228
-0.996847, 273, 25, 336, 88
-0.996873, 289, 169, 304, 232
-0.996875, 303, 97, 318, 160
-0.99689, 257, 177, 272, 240
-0.996897, 61, 129, 92, 256
-0.996907, 321, 105, 448, 136
-0.996915, 65, 25, 192, 88
-0.99694, 145, 205, 272, 236
-0.996943, 355, 169, 370, 232
-0.996946, 267, 169, 282, 232
-0.99695, 25, 145, 56, 272
-0.996955, 49, 157, 176, 188
-0.99696, 333, 145, 348, 208
-0.996969, 1, 25, 16, 88
-0.996969, 345, 145, 360, 208
-0.996974, 209, 153, 224, 216
-0.996975, 243, 145, 258, 208
-0.996983, 415, 137, 430, 200
-0.996993, 367, 1, 382, 64
-0.996998, 253, 153, 268, 216
-0.997018, 361, 57, 424, 120
-0.99702, 433, 65, 448, 128
-0.997025, 203, 177, 218, 240
-0.997028, 331, 113, 346, 176
-0.997042, 485, 57, 500, 120
-0.997049, 481, 89, 496, 152
-0.997056, 457, 65, 472, 128
-0.997081, 289, 77, 416, 108
-0.997082, 351, 145, 366, 208
-0.99709, 249, 193, 264, 256
-0.997099, 53, 1, 68, 64
-0.997103, 239, 57, 254, 120
-0.997111, 321, 169, 448, 200
-0.99712, 63, 1, 78, 64
-0.997124, 89, 1, 104, 64
-0.997125, 471, 65, 486, 128
-0.997126, 273, 25, 400, 88
-0.997126, 197, 193, 212, 256
-0.997128, 439, 97, 454, 160
-0.997155, 321, 81, 384, 144
-0.997157, 461, 17, 476, 80
-0.997161, 161, 1, 416, 64
-0.997164, 419, 1, 434, 32
-0.997179, 475, 41, 490, 104
-0.997181, 271, 145, 286, 208
-0.997182, 199, 153, 214, 216
-0.997186, 249, 113, 264, 176
-0.99719, 285, 81, 300, 144
-0.997195, 197, 105, 212, 168
-0.997198, 295, 105, 310, 168
-0.997208, 129, 129, 192, 192
-0.997214, 129, 1, 256, 32
-0.997229, 83, 105, 98, 168
-0.997235, 325, 113, 340, 176
-0.997237, 113, 181, 240, 212
-0.997244, 397, 113, 412, 176
-0.997251, 75, 1, 90, 64
-0.997271, 241, 1, 368, 32
-0.997276, 237, 81, 252, 144
-0.997277, 177, 149, 304, 180
-0.997281, 397, 1, 428, 256
-0.997283, 167, 177, 182, 240
-0.997284, 361, 169, 376, 232
-0.99729, 63, 57, 78, 120
-0.997293, 197, 57, 212, 120
-0.997293, 235, 153, 250, 216
-0.997294, 377, 1, 408, 256
-0.997298, 225, 77, 352, 108
-0.997301, 459, 41, 474, 104
-0.997311, 403, 137, 418, 200
-0.997327, 361, 1, 376, 64
-0.997332, 259, 153, 274, 216
-0.997333, 369, 221, 496, 252
-0.99734, 425, 97, 440, 160
-0.997346, 355, 121, 370, 184
-0.997353, 213, 81, 228, 144
-0.997364, 117, 145, 148, 272
-0.997377, 173, 169, 188, 232
-0.997382, 191, 153, 206, 216
-0.997384, 381, 185, 396, 248
-0.997396, 365, 121, 380, 184
-0.997411, 179, 169, 194, 232
-0.997414, 317, 113, 332, 176
-0.997433, 41, 137, 56, 200
-0.99746, 113, 81, 240, 112
-0.997468, 455, 9, 470, 40
-0.997497, 369, 93, 496, 124
-0.997501, 289, 189, 416, 220
-0.997515, 353, 153, 480, 184
-0.99753, 1, 205, 128, 236
-0.997542, 97, 205, 224, 236
-0.997547, 1, 137, 128, 168
-0.997551, 353, 241, 480, 272
-0.997554, 369, 189, 496, 220
-0.99757, 113, 105, 240, 136
-0.997594, 65, 1, 128, 273
-0.9976, 427, 1, 442, 32
-0.997615, 399, 1, 414, 32
-0.997623, 185, 1, 216, 128
-0.997667, 65, 93, 192, 124
-0.997667, 1, 193, 128, 224
-0.997685, 437, 1, 452, 32
-0.997687, 81, 169, 208, 200
-0.997702, 113, 193, 240, 224
-0.997707, 369, 17, 400, 144
-0.997711, 357, 1, 388, 128
-0.997724, 209, 1, 240, 128
-0.997735, 33, 65, 160, 96
-0.997749, 385, 65, 416, 192
-0.99776, 33, 237, 160, 268
-0.997762, 413, 5, 428, 36
-0.997771, 445, 1, 476, 256
-0.997802, 443, 1, 458, 32
-0.997836, 161, 33, 224, 96
-0.997862, 243, 97, 258, 128
-0.99787, 369, 105, 496, 136
-0.997871, 269, 157, 284, 188
-0.99788, 177, 241, 304, 272
-0.997915, 257, 105, 384, 136
-0.99792, 407, 5, 422, 36
-0.997929, 177, 1, 304, 32
-0.997931, 165, 1, 196, 128
-0.997937, 485, 201, 500, 232
-0.997946, 449, 5, 464, 36
-0.997951, 417, 141, 432, 172
-0.997974, 201, 89, 216, 120
-0.997978, 393, 1, 408, 32
-0.997989, 321, 37, 448, 68
-0.997995, 225, 185, 240, 216
-0.998007, 289, 137, 416, 168
-0.998016, 215, 205, 230, 236
-0.998025, 1, 217, 128, 248
-0.998027, 333, 17, 364, 144
-0.998046, 483, 37, 498, 68
-0.998047, 275, 157, 290, 188
-0.998047, 29, 1, 44, 32
-0.99805, 309, 97, 324, 128
-0.998061, 479, 209, 494, 240
-0.998064, 207, 93, 222, 124
-0.998067, 365, 1, 396, 256
-0.998078, 463, 65, 478, 96
-0.998079, 243, 81, 258, 112
-0.998088, 369, 165, 496, 196
-0.998089, 241, 221, 368, 252
-0.998094, 113, 145, 240, 176
-0.998097, 253, 205, 268, 236
-0.998097, 233, 189, 248, 220
-0.998097, 233, 173, 248, 204
-0.9981, 209, 205, 224, 236
-0.998104, 49, 197, 176, 228
-0.998105, 485, 25, 500, 56
-0.998112, 475, 73, 490, 104
-0.998113, 481, 49, 496, 80
-0.998121, 457, 21, 472, 52
-0.998122, 211, 161, 226, 192
-0.998122, 225, 241, 352, 272
-0.998126, 1, 89, 64, 152
-0.998138, 65, 145, 192, 176
-0.998147, 387, 1, 402, 32
-0.998151, 307, 81, 322, 112
-0.998152, 409, 149, 424, 180
-0.998154, 327, 177, 342, 208
-0.998157, 263, 205, 278, 236
-0.998165, 1, 149, 128, 180
-0.998165, 379, 1, 394, 32
-0.998171, 193, 65, 320, 96
-0.998179, 435, 85, 450, 116
-0.998179, 199, 101, 214, 132
-0.998182, 73, 25, 136, 88
-0.998183, 241, 189, 256, 220
-0.998188, 263, 157, 278, 188
-0.998191, 195, 89, 210, 120
-0.998194, 321, 25, 448, 56
-0.998196, 429, 1, 460, 256
-0.998201, 113, 69, 240, 100
-0.998206, 479, 61, 494, 92
-0.998221, 17, 53, 144, 84
-0.998223, 241, 33, 272, 273
-0.998225, 33, 169, 160, 200
-0.998226, 297, 1, 328, 128
-0.998231, 303, 97, 318, 128
-0.998232, 485, 13, 500, 44
-0.998238, 221, 205, 236, 236
-0.998238, 369, 1, 384, 32
-0.998247, 113, 241, 240, 272
-0.998253, 239, 113, 254, 144
-0.998254, 231, 1, 246, 32
-0.998261, 317, 177, 332, 208
-0.998264, 255, 1, 270, 32
-0.998272, 17, 125, 144, 156
-0.998282, 269, 205, 284, 236
-0.998287, 397, 141, 412, 172
-0.998289, 403, 145, 418, 176
-0.998296, 335, 177, 350, 208
-0.998297, 241, 205, 256, 236
-0.998299, 309, 177, 324, 208
-0.998303, 203, 205, 218, 236
-0.998309, 205, 161, 220, 192
-0.998309, 129, 33, 384, 96
-0.998312, 241, 159, 272, 174
-0.998313, 469, 215, 500, 230
-0.998313, 209, 99, 240, 114
-0.998314, 381, 129, 412, 144
-0.998314, 313, 189, 344, 204
-0.998314, 401, 131, 432, 146
-0.998314, 217, 1, 248, 16
-0.998314, 41, 249, 72, 264
-0.998315, 353, 1, 384, 256
-0.998315, 69, 107, 100, 122
-0.998316, 245, 87, 276, 102
-0.998316, 229, 117, 260, 132
-0.998317, 257, 167, 288, 182
-0.998318, 221, 175, 252, 190
-0.998318, 301, 183, 332, 198
-0.998318, 241, 179, 272, 194
-0.99832, 173, 159, 204, 174
-0.99832, 197, 171, 228, 186
-0.998321, 301, 177, 316, 208
-0.998321, 213, 193, 244, 208
-0.998322, 277, 183, 308, 198
-0.998323, 297, 97, 328, 112
-0.998323, 173, 1, 204, 16
-0.998323, 465, 139, 496, 154
-0.998324, 233, 167, 264, 182
-0.998324, 17, 77, 144, 108
-0.998324, 209, 203, 240, 218
-0.998325, 185, 209, 216, 224
-0.998326, 441, 147, 472, 162
-0.998326, 301, 167, 332, 182
-0.998327, 337, 125, 368, 140
-0.998328, 421, 141, 452, 156
-0.998329, 321, 1, 352, 16
-0.998329, 421, 159, 452, 174
-0.99833, 333, 213, 364, 228
-0.998331, 313, 159, 344, 174
-0.998331, 441, 153, 472, 168
-0.998332, 357, 183, 388, 198
-0.998332, 397, 147, 428, 162
-0.998332, 357, 1, 372, 32
-0.998333, 17, 3, 48, 18
-0.998335, 241, 205, 272, 220
-0.998335, 197, 187, 228, 202
-0.998336, 217, 161, 232, 192
-0.998336, 345, 183, 376, 198
-0.998338, 53, 69, 84, 84
-0.998338, 425, 125, 440, 156
-0.998339, 181, 99, 212, 114
-0.998339, 475, 221, 490, 252
-0.99834, 293, 159, 324, 174
-0.99834, 253, 205, 284, 220
-0.99834, 253, 1, 284, 16
-0.998341, 449, 133, 480, 148
-0.998341, 445, 35, 476, 50
-0.998342, 185, 91, 216, 106
-0.998343, 87, 105, 102, 136
-0.998345, 293, 91, 324, 106
-0.998345, 333, 183, 364, 198
-0.998345, 197, 101, 228, 116
-0.998346, 425, 135, 456, 150
-0.998347, 271, 189, 286, 220
-0.998348, 429, 129, 460, 256
-0.998348, 145, 1, 176, 16
-0.998349, 233, 91, 264, 106
-0.998349, 233, 191, 264, 206
-0.99835, 209, 215, 240, 230
-0.99835, 445, 57, 476, 72
-0.99835, 65, 77, 192, 108
-0.998352, 445, 47, 476, 62
-0.998352, 349, 127, 380, 142
-0.998353, 461, 5, 492, 20
-0.998353, 209, 181, 240, 196
-0.998353, 161, 1, 192, 16
-0.998354, 29, 145, 60, 160
-0.998354, 313, 213, 344, 228
-0.998355, 1, 17, 16, 48
-0.998355, 189, 97, 204, 128
-0.998356, 193, 113, 320, 144
-0.998356, 281, 157, 312, 172
-0.998358, 445, 19, 476, 34
-0.998358, 233, 85, 264, 100
-0.998359, 429, 153, 460, 168
-0.998359, 281, 157, 296, 188
-0.99836, 449, 139, 480, 154
-0.99836, 363, 1, 378, 32
-0.998364, 237, 215, 268, 230
-0.998367, 461, 133, 492, 148
-0.998367, 161, 157, 176, 188
-0.998367, 233, 79, 264, 94
-0.998368, 221, 167, 252, 182
-0.99837, 445, 41, 476, 56
-0.998374, 127, 157, 142, 188
-0.998375, 297, 213, 328, 228
-0.998376, 285, 211, 316, 226
-0.998376, 329, 209, 344, 240
-0.998376, 113, 217, 240, 248
-0.998376, 1, 27, 32, 42
-0.998377, 429, 1, 460, 16
-0.998378, 465, 49, 480, 80
-0.998379, 253, 161, 284, 176
-0.998379, 445, 25, 476, 40
-0.998381, 49, 105, 176, 136
-0.998381, 29, 133, 44, 164
-0.998382, 409, 151, 440, 166
-0.998384, 445, 13, 476, 28
-0.998384, 341, 1, 372, 16
-0.998387, 209, 169, 240, 184
-0.998387, 321, 181, 352, 196
-0.998388, 225, 203, 256, 218
-0.998389, 297, 85, 328, 100
-0.998389, 221, 181, 252, 196
-0.998389, 409, 5, 472, 20
-0.99839, 17, 141, 48, 156
-0.998391, 197, 209, 228, 224
-0.998392, 441, 67, 472, 82
-0.998392, 269, 159, 300, 174
-0.998395, 361, 131, 392, 146
-0.998397, 47, 1, 62, 32
-0.998401, 273, 211, 304, 226
-0.998402, 227, 205, 242, 236
-0.998403, 409, 145, 440, 160
-0.998405, 401, 137, 432, 152
-0.998406, 441, 85, 472, 100
-0.998406, 459, 133, 474, 164
-0.998406, 461, 85, 492, 100
-0.998406, 41, 141, 56, 172
-0.998406, 233, 185, 264, 200
-0.998407, 421, 81, 452, 96
-0.998411, 233, 201, 248, 232
-0.998413, 33, 1, 64, 16
-0.998413, 461, 61, 492, 76
-0.998414, 465, 55, 496, 70
-0.998415, 385, 141, 416, 156
-0.998415, 153, 157, 168, 188
-0.998416, 277, 205, 292, 236
-0.998417, 197, 163, 228, 178
-0.998419, 33, 33, 288, 96
-0.99842, 461, 11, 492, 26
-0.998421, 461, 25, 492, 40
-0.998423, 247, 205, 262, 236
-0.998428, 249, 85, 264, 116
-0.998431, 197, 95, 228, 110
-0.998432, 455, 69, 470, 100
-0.998434, 261, 211, 292, 226
-0.998437, 209, 187, 240, 202
-0.998438, 353, 1, 384, 16
-0.99844, 405, 5, 436, 20
-0.998441, 461, 31, 492, 46
-0.998442, 341, 1, 372, 256
-0.998449, 305, 93, 432, 124
-0.99845, 467, 233, 482, 264
-0.998457, 295, 177, 310, 208
-0.99846, 351, 1, 366, 32
-0.998462, 297, 97, 312, 128
-0.998465, 323, 209, 338, 240
-0.998466, 209, 209, 240, 224
-0.998467, 461, 17, 492, 32
-0.998471, 141, 157, 156, 188
-0.998474, 441, 73, 472, 88
-0.998475, 465, 37, 480, 68
-0.998476, 301, 157, 316, 188
-0.998476, 277, 189, 292, 220
-0.998477, 219, 193, 234, 224
-0.998479, 461, 81, 476, 112
-0.99848, 207, 105, 222, 136
-0.998482, 373, 1, 404, 16
-0.998482, 391, 137, 406, 168
-0.998484, 217, 211, 280, 226
-0.998485, 321, 49, 448, 80
-0.998485, 147, 157, 162, 188
-0.998488, 221, 187, 252, 202
-0.998488, 461, 79, 492, 94
-0.998489, 461, 37, 492, 52
-0.998491, 385, 3, 416, 18
-0.998492, 319, 189, 334, 220
-0.998494, 213, 97, 228, 128
-0.998494, 437, 7, 468, 22
-0.998496, 289, 221, 416, 252
-0.998496, 461, 67, 492, 82
-0.998497, 263, 189, 278, 220
-0.998497, 475, 49, 490, 80
-0.998498, 249, 211, 280, 226
-0.998498, 81, 105, 96, 136
-0.9985, 167, 157, 182, 188
-0.998501, 345, 1, 408, 16
-0.998502, 17, 25, 144, 56
-0.998503, 295, 189, 310, 220
-0.998505, 217, 173, 232, 204
-0.998506, 465, 49, 496, 64
-0.998507, 305, 189, 320, 220
-0.998507, 383, 137, 398, 168
-0.998511, 425, 85, 488, 100
-0.998516, 249, 1, 264, 32
-0.998516, 289, 189, 304, 220
-0.998519, 229, 209, 260, 224
-0.998519, 315, 209, 330, 240
-0.998529, 241, 211, 304, 226
-0.998531, 441, 79, 472, 94
-0.998531, 295, 157, 310, 188
-0.998531, 417, 3, 448, 18
-0.998538, 273, 169, 288, 200
-0.998539, 297, 85, 312, 116
-0.99854, 37, 1, 52, 32
-0.99854, 311, 157, 326, 188
-0.99854, 311, 189, 326, 220
-0.998541, 485, 97, 500, 128
-0.998543, 425, 45, 488, 60
-0.998543, 465, 43, 496, 58
-0.998545, 133, 157, 148, 188
-0.998545, 433, 91, 496, 106
-0.998548, 453, 133, 468, 164
-0.998549, 173, 157, 188, 188
-0.998551, 65, 65, 80, 96
-0.998551, 223, 173, 238, 204
-0.998552, 425, 37, 488, 52
-0.998553, 289, 177, 304, 208
-0.998553, 417, 51, 480, 66
-0.998555, 377, 133, 392, 164
-0.998555, 265, 159, 328, 174
-0.998556, 241, 61, 368, 92
-0.998556, 185, 97, 248, 112
-0.99856, 417, 29, 480, 44
-0.998564, 273, 89, 336, 104
-0.998564, 425, 79, 488, 94
-0.998565, 307, 209, 322, 240
-0.998565, 57, 1, 88, 256
-0.998569, 177, 209, 240, 224
-0.99857, 345, 17, 376, 144
-0.99857, 357, 49, 388, 176
-0.998572, 461, 73, 492, 88
-0.998575, 417, 57, 480, 72
-0.998577, 409, 135, 472, 150
-0.998579, 377, 131, 440, 146
-0.998579, 409, 141, 472, 156
-0.998581, 417, 19, 480, 34
-0.998585, 385, 3, 448, 18
-0.998589, 217, 185, 280, 200
-0.998591, 417, 63, 480, 78
-0.998593, 129, 49, 192, 112
-0.998594, 321, 1, 384, 16
-0.998595, 169, 91, 232, 106
-0.998595, 9, 1, 72, 16
-0.998596, 201, 91, 264, 106
-0.998597, 1, 109, 128, 140
-0.998597, 201, 205, 264, 220
-0.998599, 193, 187, 256, 202
-0.998603, 217, 163, 280, 178
-0.998605, 241, 159, 304, 174
-0.998607, 393, 87, 456, 102
-0.998608, 265, 95, 328, 110
-0.99861, 193, 181, 256, 196
-0.99861, 265, 211, 328, 226
-0.99861, 417, 129, 480, 144
-0.998611, 185, 103, 248, 118
-0.998618, 417, 73, 480, 88
-0.998619, 417, 13, 480, 28
-0.998619, 177, 163, 240, 178
-0.998619, 1, 13, 128, 44
-0.998623, 393, 147, 456, 162
-0.998623, 297, 121, 360, 136
-0.998624, 369, 141, 432, 156
-0.998625, 257, 1, 320, 64
-0.998626, 289, 213, 352, 228
-0.998628, 417, 123, 480, 138
-0.99863, 345, 183, 408, 198
-0.998631, 209, 97, 272, 112
-0.998632, 9, 141, 72, 156
-0.998634, 329, 129, 392, 144
-0.998634, 1, 181, 128, 212
-0.998635, 433, 135, 496, 150
-0.998636, 385, 111, 448, 126
-0.998636, 273, 83, 336, 98
-0.998637, 393, 79, 456, 94
-0.998637, 249, 1, 312, 16
-0.998638, 393, 93, 456, 108
-0.998638, 161, 97, 224, 112
-0.998639, 177, 171, 240, 186
-0.99864, 241, 183, 304, 198
-0.998642, 313, 181, 376, 196
-0.998643, 201, 169, 264, 184
-0.998645, 425, 117, 488, 132
-0.998646, 265, 167, 328, 182
-0.998647, 241, 91, 304, 106
-0.998648, 153, 161, 216, 176
-0.998649, 185, 1, 248, 16
-0.998649, 201, 85, 264, 100
-0.99865, 455, 1, 470, 128
-0.99865, 385, 121, 448, 136
-0.998651, 49, 181, 176, 212
-0.998651, 241, 165, 304, 180
-0.998653, 289, 159, 352, 174
-0.998653, 345, 135, 408, 150
-0.998654, 1, 145, 32, 272
-0.998655, 241, 85, 304, 100
-0.998657, 145, 1, 208, 16
-0.998657, 49, 67, 112, 82
-0.998657, 265, 183, 328, 198
-0.998657, 249, 205, 312, 220
-0.998658, 321, 211, 384, 226
-0.998658, 225, 205, 288, 220
-0.998659, 393, 105, 456, 120
-0.998659, 289, 181, 352, 196
-0.99866, 265, 101, 328, 116
-0.998661, 321, 159, 384, 174
-0.998661, 169, 183, 232, 198
-0.998662, 265, 113, 328, 128
-0.998662, 241, 217, 304, 232
-0.998662, 385, 155, 448, 170
-0.998663, 41, 5, 104, 20
-0.998663, 217, 191, 280, 206
-0.998664, 353, 177, 416, 192
-0.998664, 433, 257, 496, 272
-0.998664, 233, 177, 296, 192
-0.998664, 193, 215, 256, 230
-0.998664, 425, 103, 488, 118
-0.998665, 433, 141, 496, 156
-0.998665, 225, 1, 288, 16
-0.998668, 17, 249, 80, 264
-0.998668, 153, 169, 216, 184
-0.998668, 305, 89, 368, 104
-0.998669, 25, 65, 88, 80
-0.99867, 385, 163, 448, 178
-0.998671, 241, 97, 304, 112
-0.998671, 393, 99, 456, 114
-0.998671, 129, 57, 256, 88
-0.998671, 1, 135, 64, 150
-0.998672, 305, 95, 368, 110
-0.998672, 425, 151, 488, 166
-0.998672, 329, 175, 392, 190
-0.998674, 217, 217, 280, 232
-0.998675, 177, 203, 240, 218
-0.998675, 313, 187, 376, 202
-0.998676, 433, 97, 496, 112
-0.998677, 425, 111, 488, 126
-0.998678, 201, 109, 264, 124
-0.998678, 281, 173, 344, 188
-0.998679, 209, 103, 272, 118
-0.998679, 49, 73, 112, 88
-0.998679, 81, 1, 144, 16
-0.998679, 153, 209, 216, 224
-0.99868, 217, 157, 280, 172
-0.99868, 433, 213, 496, 228
-0.998681, 177, 25, 304, 56
-0.998681, 289, 165, 352, 180
-0.998681, 361, 161, 424, 176
-0.998681, 49, 61, 112, 76
-0.998682, 377, 25, 440, 40
-0.998684, 145, 1, 176, 128
-0.998685, 353, 123, 416, 138
-0.998685, 17, 147, 80, 162
-0.998685, 369, 9, 432, 24
-0.998685, 297, 207, 360, 222
-0.998685, 297, 1, 360, 16
-0.998686, 1, 35, 64, 50
-0.998687, 377, 185, 440, 200
-0.998687, 209, 115, 272, 130
-0.998709, 145, 117, 272, 148
-0.998745, 483, 17, 498, 144
-0.998795, 177, 49, 304, 80
-0.998802, 273, 241, 400, 272
-0.998843, 241, 49, 368, 80
-0.998851, 329, 1, 360, 256
-0.998893, 69, 1, 100, 256
-0.998909, 197, 1, 228, 256
-0.99893, 477, 49, 492, 176
-0.998956, 369, 177, 496, 208
-0.998958, 321, 65, 448, 96
-0.998965, 193, 221, 320, 252
-0.998979, 229, 1, 260, 256
-0.99898, 1, 97, 128, 128
-0.999021, 211, 97, 226, 224
-0.999024, 49, 213, 176, 244
-0.999038, 205, 97, 220, 224
-0.999057, 301, 97, 316, 224
-0.999059, 199, 97, 214, 224
-0.99906, 273, 1, 304, 256
-0.999072, 241, 1, 256, 128
-0.999078, 33, 41, 160, 72
-0.999079, 129, 49, 160, 176
-0.999088, 429, 113, 444, 240
-0.999091, 313, 1, 344, 256
-0.999095, 161, 13, 288, 44
-0.999099, 45, 1, 76, 256
-0.999103, 407, 1, 422, 128
-0.999104, 241, 25, 368, 56
-0.999106, 81, 57, 208, 88
-0.999107, 289, 97, 304, 224
-0.99911, 105, 49, 168, 112
-0.999115, 13, 65, 44, 192
-0.999119, 295, 97, 310, 224
-0.999124, 465, 33, 480, 160
-0.999125, 471, 65, 486, 192
-0.999147, 307, 97, 322, 224
-0.999156, 193, 97, 208, 224
-0.99916, 321, 13, 448, 44
-0.999164, 437, 81, 452, 208
-0.999174, 263, 145, 278, 272
-0.99918, 283, 97, 298, 224
-0.999181, 193, 137, 320, 168
-0.999184, 193, 125, 320, 156
-0.999185, 277, 97, 292, 224
-0.999189, 413, 1, 428, 128
-0.99919, 449, 1, 464, 128
-0.999202, 217, 97, 232, 224
-0.999203, 485, 81, 500, 208
-0.999213, 149, 1, 180, 256
-0.999226, 185, 97, 200, 224
-0.999228, 419, 129, 434, 256
-0.999228, 243, 81, 258, 208
-0.999237, 267, 97, 282, 224
-0.999237, 409, 81, 424, 208
-0.999243, 161, 37, 288, 68
-0.999244, 185, 1, 216, 256
-0.999252, 465, 81, 480, 208
-0.99926, 257, 145, 272, 272
-0.999265, 419, 65, 434, 192
-0.999269, 285, 145, 300, 272
-0.999272, 293, 1, 324, 256
-0.999272, 313, 65, 328, 192
-0.999275, 269, 145, 284, 272
-0.999289, 247, 1, 262, 128
-0.999292, 169, 1, 200, 256
-0.999297, 253, 1, 284, 256
-0.999301, 209, 37, 336, 68
-0.999302, 371, 113, 386, 240
-0.999315, 411, 129, 426, 256
-0.999318, 459, 49, 474, 176
-0.999324, 431, 49, 446, 176
-0.999329, 399, 113, 414, 240
-0.999334, 291, 145, 306, 272
-0.999336, 215, 145, 230, 272
-0.999337, 275, 145, 290, 272
-0.99934, 249, 97, 264, 224
-0.999345, 161, 97, 176, 224
-0.999349, 225, 13, 352, 44
-0.999354, 401, 1, 416, 128
-0.999354, 207, 145, 222, 272
-0.999374, 129, 1, 160, 256
-0.999375, 175, 97, 190, 224
-0.999388, 241, 129, 256, 256
-0.99939, 443, 1, 458, 128
-0.99939, 377, 113, 392, 240
-0.999391, 299, 49, 314, 176
-0.999394, 167, 97, 182, 224
-0.999395, 61, 65, 76, 192
-0.999397, 155, 97, 170, 224
-0.999398, 297, 145, 312, 272
-0.999402, 225, 145, 240, 272
-0.999402, 201, 145, 216, 272
-0.999411, 477, 1, 492, 128
-0.999411, 141, 97, 156, 224
-0.999417, 319, 81, 334, 208
-0.999417, 303, 145, 318, 272
-0.999418, 1, 1, 32, 256
-0.999423, 389, 129, 404, 256
-0.999427, 305, 49, 320, 176
-0.999428, 325, 97, 340, 224
-0.999429, 419, 1, 434, 128
-0.999429, 443, 81, 458, 208
-0.999434, 235, 97, 250, 224
-0.999439, 235, 1, 250, 128
-0.999441, 261, 97, 276, 224
-0.999444, 483, 129, 498, 256
-0.999444, 339, 113, 354, 240
-0.999453, 333, 145, 348, 272
-0.999456, 127, 97, 142, 224
-0.999458, 325, 145, 340, 272
-0.99946, 365, 113, 380, 240
-0.99946, 293, 49, 308, 176
-0.999461, 311, 145, 326, 272
-0.999463, 333, 97, 348, 224
-0.999465, 223, 97, 238, 224
-0.999469, 345, 113, 360, 240
-0.999469, 85, 1, 100, 128
-0.999473, 405, 129, 420, 256
-0.999478, 425, 65, 440, 192
-0.999481, 195, 145, 210, 272
-0.999487, 251, 145, 266, 272
-0.999489, 317, 145, 332, 272
-0.999501, 255, 97, 270, 224
-0.999503, 477, 145, 492, 272
-0.999505, 203, 49, 218, 176
-0.999505, 471, 17, 486, 144
-0.999507, 383, 113, 398, 240
-0.999511, 209, 1, 240, 256
-0.999511, 21, 1, 36, 128
-0.999516, 55, 65, 70, 192
-0.999522, 211, 49, 226, 176
-0.999524, 147, 97, 162, 224
-0.999527, 193, 49, 208, 176
-0.999532, 433, 151, 448, 166
-0.999532, 283, 183, 298, 198
-0.999532, 217, 163, 232, 178
-0.999532, 425, 1, 440, 128
-0.999533, 445, 145, 476, 272
-0.999534, 209, 97, 224, 112
-0.999534, 465, 45, 480, 60
-0.999534, 483, 9, 498, 24
-0.999534, 463, 77, 478, 92
-0.999535, 255, 1, 270, 16
-0.999535, 467, 35, 482, 50
-0.999535, 55, 1, 70, 128
-0.999536, 459, 37, 474, 52
-0.999536, 435, 89, 450, 104
-0.999536, 327, 213, 342, 228
-0.999537, 29, 3, 44, 18
-0.999537, 193, 99, 208, 114
-0.999538, 241, 21, 256, 36
-0.999538, 135, 97, 150, 224
-0.999539, 241, 211, 256, 226
-0.999539, 249, 91, 264, 106
-0.999539, 485, 203, 500, 218
-0.999541, 227, 1, 242, 16
-0.999541, 327, 1, 342, 16
-0.999541, 355, 97, 370, 224
-0.999541, 243, 185, 258, 200
-0.999543, 25, 49, 56, 176
-0.999543, 403, 147, 418, 162
-0.999543, 283, 157, 298, 172
-0.999543, 333, 213, 348, 228
-0.999543, 321, 213, 336, 228
-0.999544, 243, 103, 258, 118
-0.999544, 113, 1, 144, 256
-0.999544, 465, 57, 480, 72
-0.999544, 477, 225, 492, 240
-0.999545, 207, 163, 222, 178
-0.999545, 161, 1, 176, 16
-0.999545, 233, 201, 248, 216
-0.999545, 201, 93, 216, 108
-0.999545, 5, 1, 20, 128
-0.999546, 391, 141, 406, 156
-0.999546, 201, 209, 216, 224
-0.999546, 463, 71, 478, 86
-0.999547, 345, 185, 360, 200
-0.999547, 463, 65, 478, 80
-0.999547, 453, 77, 468, 92
-0.999547, 243, 111, 258, 126
-0.999548, 315, 213, 330, 228
-0.999548, 301, 211, 316, 226
-0.999548, 247, 75, 262, 90
-0.999549, 377, 135, 392, 150
-0.999549, 469, 81, 484, 96
-0.999549, 43, 143, 58, 158
-0.99955, 189, 145, 204, 272
-0.99955, 275, 159, 290, 174
-0.999551, 309, 213, 324, 228
-0.999551, 247, 123, 262, 138
-0.999551, 459, 83, 474, 98
-0.999552, 1, 29, 16, 44
-0.999552, 465, 51, 480, 66
-0.999554, 197, 161, 212, 176
-0.999556, 241, 75, 256, 90
-0.999556, 417, 141, 432, 156
-0.999556, 451, 137, 466, 152
-0.999557, 471, 145, 486, 272
-0.999558, 349, 1, 364, 16
-0.999558, 223, 181, 238, 196
-0.999559, 37, 1, 52, 128
-0.999559, 409, 143, 424, 158
-0.999559, 333, 1, 348, 16
-0.99956, 461, 133, 476, 148
-0.99956, 241, 191, 256, 206
-0.99956, 479, 219, 494, 234
-0.999562, 371, 131, 386, 146
-0.999563, 107, 97, 122, 224
-0.999564, 289, 211, 304, 226
-0.999564, 67, 65, 82, 192
-0.999565, 295, 211, 310, 226
-0.999565, 241, 205, 256, 220
-0.999565, 409, 151, 424, 166
-0.999566, 485, 15, 500, 30
-0.999566, 1, 97, 16, 224
-0.999566, 265, 161, 280, 176
-0.999567, 213, 183, 228, 198
-0.999568, 329, 181, 344, 196
-0.999569, 213, 171, 228, 186
-0.999569, 479, 63, 494, 78
-0.99957, 483, 37, 498, 52
-0.999571, 485, 21, 500, 36
-0.999572, 241, 117, 256, 132
-0.999572, 405, 7, 420, 22
-0.999572, 45, 1, 60, 16
-0.999573, 435, 3, 450, 18
-0.999574, 479, 69, 494, 84
-0.999574, 117, 97, 132, 224
-0.999577, 233, 189, 248, 204
-0.999577, 1, 21, 16, 36
-0.999579, 473, 87, 488, 102
-0.999581, 129, 25, 256, 56
-0.999581, 43, 1, 58, 128
-0.999584, 219, 187, 234, 202
-0.999585, 207, 209, 222, 224
-0.999586, 485, 27, 500, 42
-0.999587, 27, 1, 42, 128
-0.999588, 477, 77, 492, 92
-0.999588, 81, 105, 96, 120
-0.999588, 397, 141, 412, 156
-0.999589, 409, 1, 424, 16
-0.999589, 481, 57, 496, 72
-0.99959, 393, 81, 408, 208
-0.99959, 87, 107, 102, 122
-0.99959, 459, 25, 474, 40
-0.999591, 61, 1, 76, 128
-0.999592, 441, 5, 456, 20
-0.999592, 483, 43, 498, 58
-0.999593, 417, 147, 432, 162
-0.999594, 429, 3, 444, 18
-0.999595, 457, 15, 472, 30
-0.999596, 283, 211, 298, 226
-0.999596, 335, 181, 350, 196
-0.999597, 273, 211, 288, 226
-0.999597, 247, 211, 262, 226
-0.999599, 235, 207, 250, 222
-0.999599, 17, 145, 32, 272
-0.999601, 483, 213, 498, 228
-0.999602, 101, 97, 116, 224
-0.999603, 433, 81, 448, 96
-0.999605, 243, 81, 258, 96
-0.999606, 363, 1, 378, 16
-0.999608, 481, 49, 496, 64
-0.999609, 355, 1, 370, 16
-0.999609, 229, 209, 244, 224
-0.99961, 423, 3, 438, 18
-0.99961, 377, 1, 392, 16
-0.99961, 259, 211, 274, 226
-0.999611, 243, 91, 258, 106
-0.999612, 267, 211, 282, 226
-0.999613, 217, 49, 232, 176
-0.999614, 213, 209, 228, 224
-0.999614, 389, 1, 404, 16
-0.999614, 287, 49, 302, 176
-0.999616, 369, 1, 384, 16
-0.999617, 257, 37, 384, 68
-0.999619, 243, 97, 258, 112
-0.999622, 351, 145, 366, 272
-0.999622, 383, 1, 398, 16
-0.999623, 225, 189, 240, 204
-0.999624, 317, 1, 348, 128
-0.999624, 1, 49, 16, 176
-0.999624, 219, 209, 234, 224
-0.999625, 7, 97, 22, 224
-0.999625, 433, 1, 448, 128
-0.99963, 67, 1, 82, 128
-0.999631, 233, 183, 248, 198
-0.999632, 201, 1, 216, 128
-0.999633, 187, 49, 202, 176
-0.999633, 411, 7, 426, 22
-0.999634, 253, 211, 268, 226
-0.999634, 239, 123, 254, 138
-0.999639, 447, 5, 462, 20
-0.999641, 357, 145, 372, 272
-0.999647, 237, 49, 252, 176
-0.999649, 159, 49, 174, 176
-0.999651, 49, 1, 64, 128
-0.999651, 49, 13, 176, 44
-0.999652, 157, 145, 172, 272
-0.999662, 399, 5, 414, 20
-0.999666, 13, 33, 44, 273
-0.999683, 417, 5, 432, 20
-0.99969, 453, 9, 468, 24
-0.999701, 97, 45, 224, 76
-0.999712, 113, 13, 240, 44
-0.999722, 81, 1, 112, 256
-0.999725, 65, 117, 192, 148
-0.99974, 101, 1, 132, 256
-0.999769, 65, 25, 192, 56
-0.999794, 145, 229, 272, 260
-0.999808, 241, 137, 368, 168
-0.999831, 105, 49, 136, 176
-0.999854, 113, 133, 240, 164
-0.999861, 49, 225, 176, 256
-0.999912, 273, 13, 400, 44
-0.999982, 257, 49, 288, 176
-0.99999, 65, 133, 192, 164
-1.00002, 133, 1, 164, 128
-1.00016, 73, 49, 104, 176
-1.00036, 121, 1, 152, 128
-1.00041, 33, 33, 64, 273
-1.00042, 109, 1, 140, 128
-1.00056, 117, 49, 148, 176
-1.00066, 93, 145, 124, 272
-1.00098, 93, 49, 124, 176
-1.00101, 105, 145, 136, 272
-1.00106, 37, 145, 68, 272
-1.00125, 81, 145, 112, 272
-1.00155, 257, 1, 288, 128
-1.00165, 93, 1, 124, 128
