1880
-0.431495, 1, 65, 500, 320
-0.550019, 1, 65, 256, 320
-0.580003, 33, 1, 288, 333
-0.623381, 1, 1, 500, 333
-0.658539, 97, 65, 352, 320
-0.709532, 193, 1, 448, 333
-0.775643, 193, 65, 448, 320
-0.852515, 129, 65, 256, 320
-0.871461, 177, 65, 304, 320
-0.877743, 81, 65, 208, 320
-0.879856, 49, 1, 176, 333
-0.884184, 129, 1, 256, 333
-0.884242, 1, 209, 500, 333
-0.895506, 1, 65, 128, 320
-0.896888, 225, 1, 352, 333
-0.901055, 273, 65, 400, 320
-0.903489, 97, 209, 352, 333
-0.903693, 225, 65, 352, 320
-0.909549, 273, 1, 400, 333
-0.913733, 177, 1, 304, 333
-0.915469, 1, 209, 256, 333
-0.91653, 1, 1, 128, 333
-0.918336, 1, 97, 500, 224
-0.920384, 33, 97, 288, 224
-0.923064, 353, 1, 480, 333
-0.926191, 209, 129, 272, 256
-0.928743, 129, 209, 256, 333
-0.929109, 97, 161, 352, 288
-0.931176, 1, 161, 500, 288
-0.931699, 177, 193, 304, 320
-0.93266, 225, 177, 288, 304
-0.933892, 1, 209, 128, 333
-0.935718, 121, 209, 184, 333
-0.936632, 129, 81, 256, 208
-0.938447, 177, 209, 240, 333
-0.938601, 193, 209, 448, 333
-0.938741, 137, 81, 200, 208
-0.938898, 17, 209, 80, 333
-0.93976, 1, 49, 500, 176
-0.940765, 81, 81, 208, 208
-0.940868, 257, 209, 384, 333
-0.941039, 169, 97, 232, 224
-0.941563, 177, 217, 240, 280
-0.941598, 321, 65, 448, 320
-0.942091, 193, 65, 448, 192
-0.943826, 49, 209, 176, 333
-0.944282, 385, 265, 448, 328
-0.944468, 57, 209, 120, 333
-0.944673, 161, 129, 288, 256
-0.945625, 249, 209, 312, 333
-0.945852, 89, 265, 152, 328
-0.946003, 137, 89, 200, 152
-0.946419, 137, 217, 200, 280
-0.947108, 313, 265, 376, 328
-0.947165, 97, 65, 160, 192
-0.947375, 185, 105, 248, 168
-0.947524, 153, 193, 216, 320
-0.947779, 1, 145, 256, 272
-0.948215, 361, 273, 424, 333
-0.948373, 289, 209, 352, 333
-0.948781, 1, 49, 256, 176
-0.948851, 201, 209, 264, 333
-0.949229, 417, 273, 480, 333
-0.949585, 201, 241, 264, 304
-0.950596, 1, 249, 64, 312
-0.951555, 193, 81, 256, 208
-0.951684, 209, 129, 272, 192
-0.951863, 289, 265, 352, 328
-0.952559, 257, 249, 320, 312
-0.952649, 337, 273, 400, 333
-0.952814, 129, 113, 384, 240
-0.952887, 161, 97, 224, 160
-0.953106, 305, 209, 432, 333
-0.953305, 193, 161, 448, 288
-0.953832, 57, 273, 120, 333
-0.954108, 97, 81, 160, 144
-0.954415, 225, 161, 352, 288
-0.955264, 225, 81, 352, 208
-0.955437, 217, 169, 280, 232
-0.956554, 233, 249, 296, 312
-0.957208, 57, 249, 120, 312
-0.957305, 17, 65, 144, 192
-0.957389, 17, 65, 80, 192
-0.957623, 113, 233, 176, 296
-0.957709, 153, 193, 216, 256
-0.958714, 49, 209, 112, 272
-0.958915, 33, 241, 96, 304
-0.958921, 137, 273, 200, 333
-0.96, 225, 209, 288, 272
-0.960112, 161, 145, 224, 272
-0.96034, 73, 65, 136, 192
-0.960585, 145, 241, 208, 304
-0.960665, 241, 273, 304, 333
-0.961096, 273, 161, 336, 288
-0.961264, 9, 217, 72, 280
-0.961526, 1, 1, 500, 128
-0.961591, 225, 113, 480, 240
-0.962197, 33, 81, 96, 144
-0.96257, 97, 209, 160, 333
-0.963208, 1, 73, 64, 136
-0.963317, 201, 209, 264, 272
-0.963642, 201, 265, 264, 328
-0.963838, 113, 161, 240, 288
-0.963859, 209, 105, 272, 168
-0.964674, 113, 273, 176, 333
-0.964674, 313, 209, 376, 333
-0.96473, 249, 81, 312, 208
-0.964781, 209, 65, 272, 320
-0.964947, 17, 273, 80, 333
-0.965019, 169, 249, 232, 312
-0.965032, 129, 225, 256, 288
-0.965045, 89, 241, 152, 304
-0.965208, 65, 81, 128, 144
-0.965489, 33, 161, 160, 288
-0.965559, 161, 89, 192, 152
-0.966109, 249, 161, 312, 288
-0.966226, 49, 81, 112, 208
-0.966238, 177, 193, 240, 256
-0.966282, 137, 33, 200, 160
-0.96651, 33, 161, 96, 288
-0.966796, 229, 113, 260, 240
-0.966811, 257, 193, 320, 256
-0.967241, 289, 241, 352, 304
-0.967299, 161, 65, 224, 320
-0.967501, 161, 273, 224, 333
-0.967747, 217, 81, 280, 208
-0.968082, 249, 161, 280, 288
-0.968713, 129, 113, 192, 176
-0.969041, 161, 249, 288, 312
-0.969079, 225, 241, 256, 304
-0.969243, 353, 265, 480, 328
-0.969422, 1, 233, 128, 296
-0.969462, 209, 217, 240, 280
-0.969529, 129, 97, 256, 160
-0.969951, 337, 249, 400, 312
-0.970014, 221, 105, 252, 168
-0.970032, 249, 225, 312, 288
-0.970089, 81, 89, 208, 152
-0.970161, 173, 89, 204, 152
-0.970366, 81, 273, 208, 333
-0.970691, 205, 193, 236, 320
-0.970852, 81, 33, 208, 160
-0.970918, 149, 89, 180, 152
-0.970938, 185, 161, 248, 288
-0.971035, 249, 177, 280, 240
-0.971046, 249, 145, 312, 208
-0.971235, 173, 81, 204, 208
-0.971333, 209, 249, 336, 312
-0.971356, 129, 201, 256, 264
-0.971493, 353, 49, 416, 176
-0.971495, 169, 49, 232, 176
-0.971708, 1, 241, 32, 304
-0.971721, 181, 217, 212, 280
-0.971725, 345, 265, 376, 328
-0.971831, 237, 129, 268, 192
-0.971914, 33, 17, 160, 144
-0.971958, 265, 273, 328, 333
-0.972046, 197, 209, 228, 272
-0.972079, 245, 241, 276, 304
-0.972098, 413, 265, 444, 328
-0.972125, 177, 225, 304, 288
-0.972139, 393, 265, 424, 328
-0.972218, 141, 209, 172, 333
-0.972221, 89, 209, 152, 272
-0.972245, 373, 265, 404, 328
-0.97226, 185, 97, 216, 160
-0.97233, 305, 257, 432, 320
-0.97237, 345, 209, 408, 333
-0.972556, 433, 265, 464, 328
-0.972581, 81, 233, 208, 296
-0.972612, 209, 105, 240, 168
-0.972626, 257, 265, 384, 328
-0.97301, 117, 273, 148, 333
-0.973049, 89, 161, 152, 288
-0.973074, 113, 209, 176, 272
-0.973123, 133, 89, 164, 152
-0.973179, 113, 81, 144, 144
-0.973325, 165, 217, 196, 280
-0.973355, 465, 265, 496, 328
-0.973492, 385, 209, 448, 333
-0.97352, 433, 1, 496, 128
-0.973528, 185, 65, 248, 320
-0.973557, 369, 65, 496, 320
-0.973718, 261, 193, 292, 320
-0.973843, 193, 201, 320, 264
-0.973922, 265, 249, 296, 312
-0.973938, 33, 249, 64, 312
-0.973978, 329, 265, 360, 328
-0.973983, 273, 49, 400, 176
-0.974132, 33, 81, 160, 144
-0.974215, 81, 209, 208, 272
-0.974252, 313, 241, 376, 304
-0.974286, 361, 249, 424, 312
-0.974334, 317, 265, 348, 328
-0.974337, 417, 209, 480, 333
-0.974434, 1, 209, 128, 272
-0.974474, 289, 33, 352, 160
-0.974509, 257, 169, 320, 232
-0.974638, 129, 33, 256, 160
-0.974693, 193, 177, 320, 240
-0.974903, 177, 81, 304, 208
-0.974909, 161, 121, 288, 184
-0.974912, 209, 241, 240, 304
-0.974943, 97, 233, 128, 296
-0.975018, 133, 257, 164, 320
-0.975053, 409, 249, 472, 312
-0.975094, 105, 257, 136, 320
-0.975169, 45, 233, 76, 296
-0.975223, 109, 65, 140, 192
-0.975297, 241, 273, 272, 333
-0.975324, 445, 273, 476, 333
-0.975341, 193, 169, 256, 232
-0.975392, 361, 265, 392, 328
-0.975506, 305, 97, 432, 224
-0.97552, 161, 273, 288, 333
-0.975552, 137, 145, 200, 272
-0.975663, 273, 1, 400, 128
-0.975668, 257, 209, 288, 272
-0.975774, 297, 161, 360, 288
-0.975784, 217, 97, 248, 224
-0.975785, 9, 161, 72, 288
-0.975856, 33, 273, 160, 333
-0.975868, 61, 81, 92, 144
-0.975897, 369, 209, 496, 333
-0.975928, 273, 161, 400, 288
-0.975982, 137, 233, 168, 296
-0.975998, 197, 97, 228, 160
-0.97601, 153, 217, 184, 280
-0.976095, 77, 241, 108, 304
-0.976143, 121, 65, 184, 320
-0.976239, 233, 193, 264, 320
-0.976263, 93, 273, 124, 333
-0.976289, 289, 97, 352, 224
-0.976297, 153, 65, 184, 192
-0.97642, 1, 193, 64, 256
-0.976511, 185, 81, 216, 208
-0.976667, 21, 241, 52, 304
-0.976692, 33, 193, 64, 320
-0.976808, 301, 265, 332, 328
-0.976918, 97, 49, 352, 176
-0.976982, 277, 249, 308, 312
-0.976991, 169, 169, 232, 232
-0.977111, 193, 193, 224, 320
-0.977328, 233, 105, 264, 168
-0.977525, 217, 129, 248, 192
-0.977555, 185, 129, 248, 192
-0.977654, 113, 17, 176, 144
-0.977686, 145, 273, 176, 333
-0.977731, 225, 225, 352, 288
-0.97793, 209, 273, 336, 333
-0.977965, 233, 89, 296, 152
-0.977984, 217, 209, 248, 333
-0.977985, 21, 193, 52, 320
-0.978013, 49, 33, 112, 160
-0.978076, 221, 217, 252, 280
-0.978156, 241, 153, 272, 216
-0.9782, 253, 265, 284, 328
-0.978222, 121, 65, 184, 128
-0.978331, 157, 193, 188, 320
-0.978417, 29, 73, 60, 136
-0.978442, 57, 241, 88, 304
-0.978478, 193, 17, 448, 144
-0.978486, 305, 89, 368, 152
-0.978525, 101, 81, 132, 144
-0.978571, 161, 273, 192, 333
-0.978579, 245, 217, 276, 280
-0.97862, 161, 73, 224, 136
-0.978691, 321, 33, 448, 160
-0.978803, 161, 145, 288, 208
-0.978822, 217, 161, 248, 288
-0.978861, 1, 193, 32, 320
-0.978878, 225, 265, 256, 328
-0.97893, 241, 113, 272, 240
-0.978999, 305, 33, 368, 96
-0.97903, 81, 209, 112, 333
-0.979215, 125, 233, 156, 296
-0.979266, 1, 33, 64, 288
-0.979269, 289, 217, 352, 280
-0.979374, 81, 65, 144, 320
-0.979397, 205, 97, 236, 224
-0.979455, 273, 233, 400, 296
-0.979501, 377, 17, 440, 144
-0.979543, 193, 81, 256, 144
-0.97967, 289, 257, 320, 320
-0.979792, 169, 241, 200, 304
-0.979885, 61, 193, 92, 320
-0.979916, 45, 273, 76, 333
-0.979932, 185, 193, 216, 256
-0.97996, 189, 257, 220, 320
-0.979966, 141, 209, 172, 272
-0.97999, 161, 193, 192, 256
-0.980008, 209, 193, 240, 256
-0.98001, 45, 81, 76, 144
-0.98008, 141, 65, 172, 192
-0.980213, 225, 153, 352, 216
-0.980278, 65, 57, 128, 120
-0.980315, 313, 49, 376, 176
-0.98037, 77, 217, 108, 280
-0.98039, 41, 65, 104, 320
-0.980428, 153, 121, 216, 184
-0.98046, 73, 273, 104, 333
-0.9805, 125, 209, 156, 333
-0.980562, 25, 193, 88, 256
-0.980712, 293, 209, 324, 333
-0.98076, 269, 185, 300, 248
-0.980819, 433, 249, 496, 312
-0.980823, 49, 193, 80, 320
-0.980832, 197, 233, 228, 296
-0.980907, 225, 121, 352, 184
-0.980956, 97, 105, 160, 168
-0.980964, 313, 97, 376, 224
-0.980981, 149, 241, 180, 304
-0.981011, 233, 121, 296, 184
-0.981052, 33, 57, 96, 120
-0.981102, 161, 113, 192, 176
-0.981216, 377, 41, 440, 104
-0.981379, 45, 65, 76, 192
-0.981568, 113, 113, 176, 240
-0.981734, 61, 209, 92, 272
-0.981738, 121, 65, 152, 192
-0.981866, 273, 73, 336, 136
-0.981927, 289, 177, 352, 240
-0.981927, 225, 97, 352, 160
-0.981987, 145, 177, 272, 240
-0.982081, 41, 209, 72, 272
-0.982407, 193, 33, 320, 160
-0.982545, 313, 65, 376, 128
-0.982616, 265, 65, 328, 320
-0.982684, 357, 209, 388, 333
-0.982699, 57, 273, 88, 333
-0.982748, 169, 209, 200, 333
-0.982825, 181, 209, 212, 333
-0.982836, 369, 17, 496, 144
-0.982966, 353, 97, 416, 160
-0.98301, 317, 241, 348, 304
-0.983039, 213, 273, 244, 333
-0.983185, 49, 185, 112, 248
-0.983245, 9, 17, 72, 144
-0.983287, 433, 57, 496, 120
-0.983308, 153, 113, 184, 240
-0.983407, 209, 169, 240, 232
-0.983513, 81, 113, 208, 176
-0.983531, 149, 113, 180, 176
-0.983562, 321, 209, 352, 333
-0.983565, 173, 265, 204, 328
-0.983572, 221, 153, 252, 216
-0.983747, 109, 233, 140, 296
-0.983756, 253, 153, 284, 216
-0.983834, 337, 57, 400, 120
-0.984202, 49, 185, 176, 248
-0.984347, 89, 81, 120, 144
-0.984361, 245, 209, 276, 333
-0.984378, 257, 121, 320, 184
-0.984443, 145, 1, 208, 333
-0.984721, 33, 49, 64, 176
-0.984738, 337, 41, 464, 104
-0.984777, 265, 273, 296, 333
-0.984793, 361, 73, 424, 136
-0.984866, 309, 209, 340, 333
-0.984894, 273, 145, 336, 208
-0.984901, 273, 57, 400, 120
-0.984929, 313, 121, 376, 184
-0.985037, 241, 177, 368, 240
-0.985244, 13, 265, 44, 328
-0.985247, 313, 193, 376, 256
-0.985362, 273, 49, 336, 112
-0.985366, 17, 65, 48, 128
-0.985453, 101, 209, 132, 333
-0.985455, 1, 265, 32, 328
-0.985594, 313, 1, 376, 128
-0.985604, 265, 17, 328, 144
-0.985619, 273, 209, 304, 333
-0.98566, 277, 273, 308, 333
-0.985665, 105, 1, 168, 333
-0.985672, 65, 161, 128, 288
-0.985689, 33, 113, 160, 240
-0.985726, 17, 57, 144, 120
-0.985758, 113, 161, 176, 288
-0.985802, 1, 1, 256, 128
-0.985851, 13, 217, 44, 280
-0.985888, 97, 81, 128, 208
-0.985902, 193, 33, 256, 160
-0.986002, 297, 233, 328, 296
-0.986055, 221, 193, 252, 256
-0.986087, 401, 33, 464, 160
-0.986093, 57, 65, 88, 192
-0.986125, 73, 105, 136, 168
-0.986284, 345, 209, 376, 333
-0.986302, 333, 241, 364, 304
-0.986304, 73, 17, 136, 144
-0.986333, 137, 145, 200, 208
-0.986342, 5, 65, 36, 128
-0.986393, 321, 233, 448, 296
-0.986451, 81, 65, 208, 128
-0.98649, 297, 153, 360, 216
-0.986522, 273, 33, 400, 96
-0.986539, 73, 81, 104, 144
-0.986666, 289, 65, 352, 320
-0.986806, 233, 217, 264, 280
-0.986815, 289, 113, 352, 176
-0.986935, 193, 73, 320, 136
-0.987023, 229, 65, 260, 192
-0.987075, 289, 9, 352, 72
-0.987114, 233, 65, 296, 320
-0.987204, 1, 49, 64, 112
-0.987241, 465, 1, 496, 128
-0.987308, 129, 73, 256, 136
-0.987323, 113, 209, 144, 333
-0.987383, 405, 209, 436, 333
-0.987428, 361, 41, 392, 104
-0.987502, 269, 209, 300, 272
-0.98758, 385, 241, 448, 304
-0.987586, 137, 113, 168, 176
-0.987589, 161, 217, 224, 248
-0.987633, 169, 1, 232, 333
-0.987678, 29, 193, 60, 256
-0.987693, 173, 129, 204, 256
-0.987796, 173, 193, 204, 256
-0.987814, 65, 241, 320, 304
-0.987854, 345, 33, 408, 96
-0.987855, 97, 49, 160, 112
-0.987906, 201, 265, 232, 328
-0.987955, 113, 177, 176, 240
-0.988027, 329, 97, 392, 160
-0.98803, 25, 217, 56, 280
-0.988114, 49, 105, 112, 168
-0.988119, 81, 185, 144, 248
-0.988144, 177, 237, 240, 268
-0.988269, 185, 225, 248, 256
-0.988286, 41, 57, 72, 120
-0.988298, 301, 161, 332, 288
-0.988372, 125, 65, 156, 128
-0.98838, 369, 241, 496, 304
-0.988392, 197, 185, 228, 248
-0.988397, 433, 17, 496, 80
-0.988401, 209, 49, 240, 176
-0.988459, 33, 273, 64, 333
-0.988475, 425, 209, 456, 333
-0.988479, 33, 105, 160, 168
-0.988524, 369, 73, 400, 136
-0.988532, 141, 65, 172, 128
-0.98854, 225, 241, 288, 272
-0.988543, 17, 169, 80, 232
-0.988569, 337, 225, 400, 288
-0.988575, 137, 217, 200, 248
-0.988594, 177, 97, 304, 160
-0.988603, 193, 109, 256, 140
-0.988635, 241, 201, 368, 264
-0.988659, 161, 205, 224, 236
-0.988681, 273, 81, 400, 144
-0.988684, 65, 273, 320, 333
-0.988693, 453, 249, 484, 312
-0.988712, 385, 269, 448, 300
-0.988762, 417, 273, 480, 304
-0.988779, 377, 289, 440, 320
-0.988793, 173, 113, 204, 176
-0.988822, 237, 177, 268, 240
-0.988856, 201, 249, 264, 280
-0.988877, 385, 129, 448, 192
-0.988901, 225, 265, 480, 328
-0.988912, 165, 33, 196, 160
-0.988912, 353, 97, 384, 160
-0.988947, 201, 237, 264, 268
-0.988957, 145, 93, 208, 124
-0.988958, 345, 297, 408, 328
-0.988986, 209, 165, 272, 196
-0.989006, 1, 241, 64, 272
-0.989022, 205, 145, 236, 272
-0.989036, 89, 85, 152, 116
-0.989038, 81, 113, 144, 240
-0.989043, 377, 209, 408, 333
-0.989049, 169, 101, 232, 132
-0.989173, 305, 265, 368, 296
-0.989192, 217, 177, 280, 208
-0.989198, 153, 229, 216, 260
-0.989207, 321, 301, 384, 332
-0.989217, 353, 269, 416, 300
-0.989223, 209, 137, 272, 168
-0.989235, 401, 297, 464, 328
-0.989236, 33, 85, 96, 116
-0.989287, 233, 273, 296, 304
-0.989307, 145, 109, 208, 140
-0.989314, 153, 241, 216, 272
-0.989363, 85, 81, 116, 208
-0.989372, 201, 205, 264, 236
-0.989376, 233, 285, 296, 316
-0.989389, 113, 277, 176, 308
-0.989416, 137, 269, 200, 300
-0.989462, 89, 277, 152, 308
-0.98947, 297, 285, 360, 316
-0.989475, 121, 253, 184, 284
-0.989492, 409, 57, 472, 120
-0.989496, 129, 233, 192, 264
-0.989499, 177, 249, 240, 280
-0.989536, 137, 297, 200, 328
-0.989559, 125, 17, 156, 144
-0.989592, 81, 1, 144, 333
-0.989598, 201, 125, 264, 156
-0.989631, 357, 241, 388, 304
-0.989635, 469, 9, 500, 72
-0.989642, 73, 249, 136, 280
-0.989689, 289, 1, 352, 333
-0.989692, 49, 277, 112, 308
-0.989757, 53, 57, 84, 120
-0.989759, 113, 301, 176, 332
-0.989765, 169, 113, 232, 144
-0.98977, 257, 249, 320, 280
-0.989796, 285, 225, 316, 288
-0.989806, 41, 241, 104, 272
-0.989809, 41, 209, 104, 240
-0.989817, 161, 269, 224, 300
-0.989818, 217, 261, 280, 292
-0.989844, 413, 241, 444, 304
-0.989856, 273, 289, 336, 320
-0.989857, 9, 261, 72, 292
-0.989875, 385, 241, 416, 304
-0.989881, 57, 89, 120, 120
-0.989903, 353, 285, 416, 316
-0.989904, 273, 9, 400, 72
-0.989922, 1, 77, 64, 108
-0.989955, 201, 285, 264, 316
-0.989995, 329, 269, 392, 300
-0.990023, 217, 149, 280, 180
-0.990026, 89, 261, 152, 292
-0.990027, 321, 281, 384, 312
-0.990031, 321, 65, 448, 128
-0.990096, 409, 285, 472, 316
-0.990119, 305, 105, 432, 168
-0.990119, 433, 301, 496, 332
-0.990129, 65, 217, 320, 280
-0.990157, 345, 241, 376, 304
-0.990167, 217, 81, 248, 144
-0.990204, 81, 297, 144, 328
-0.990208, 189, 129, 220, 256
-0.990211, 377, 301, 440, 332
-0.990222, 21, 65, 52, 192
-0.990226, 17, 225, 80, 256
-0.990232, 193, 265, 256, 296
-0.990246, 277, 161, 308, 288
-0.990256, 53, 185, 84, 248
-0.990294, 145, 169, 208, 232
-0.990312, 433, 261, 496, 292
-0.990327, 433, 285, 496, 316
-0.990337, 69, 81, 100, 208
-0.990365, 121, 93, 184, 124
-0.990371, 1, 81, 256, 144
-0.990375, 273, 269, 336, 300
-0.990378, 257, 169, 320, 200
-0.990391, 233, 189, 296, 220
-0.990393, 105, 105, 136, 168
-0.990423, 281, 301, 344, 332
-0.990427, 81, 237, 144, 268
-0.99044, 129, 209, 160, 272
-0.99044, 33, 105, 288, 168
-0.990453, 253, 97, 284, 224
-0.990466, 113, 265, 176, 296
-0.990488, 297, 97, 328, 224
-0.990507, 257, 201, 320, 232
-0.990524, 121, 113, 184, 144
-0.990532, 105, 225, 168, 256
-0.990545, 169, 301, 232, 332
-0.990549, 249, 1, 312, 333
-0.990566, 137, 281, 200, 312
-0.990576, 137, 201, 200, 232
-0.990584, 377, 105, 440, 168
-0.990652, 425, 105, 488, 168
-0.990653, 209, 1, 272, 333
-0.99067, 337, 1, 400, 128
-0.990681, 345, 57, 376, 120
-0.990698, 297, 17, 328, 144
-0.990715, 313, 217, 376, 280
-0.990745, 177, 281, 240, 312
-0.99075, 249, 301, 312, 332
-0.990752, 97, 249, 160, 280
-0.990765, 217, 113, 280, 144
-0.990768, 257, 189, 320, 220
-0.990771, 217, 297, 280, 328
-0.990772, 217, 225, 280, 256
-0.990779, 105, 289, 168, 320
-0.9908, 1, 265, 500, 328
-0.990816, 165, 161, 196, 224
-0.990821, 249, 157, 312, 188
-0.990829, 25, 273, 88, 304
-0.990834, 25, 293, 88, 324
-0.990842, 33, 261, 96, 292
-0.990856, 49, 301, 112, 332
-0.990875, 145, 257, 208, 288
-0.990876, 49, 289, 112, 320
-0.990882, 49, 1, 112, 333
-0.990896, 169, 193, 232, 224
-0.990945, 193, 241, 448, 304
-0.990968, 449, 209, 480, 333
-0.990992, 433, 49, 496, 176
-0.990996, 409, 257, 472, 288
-0.991036, 177, 125, 240, 156
-0.991043, 161, 65, 192, 128
-0.991054, 65, 265, 128, 296
-0.991098, 365, 33, 396, 160
-0.991111, 353, 257, 416, 288
-0.99113, 1, 277, 64, 308
-0.991144, 49, 221, 112, 252
-0.99115, 137, 161, 168, 288
-0.991164, 389, 33, 420, 96
-0.991175, 113, 153, 240, 216
-0.991218, 369, 17, 496, 80
-0.991229, 281, 253, 344, 284
-0.991231, 249, 145, 312, 176
-0.991235, 25, 113, 88, 240
-0.991311, 89, 213, 152, 244
-0.991314, 417, 1, 480, 333
-0.991351, 241, 261, 304, 292
-0.991358, 305, 253, 368, 284
-0.991393, 145, 121, 208, 152
-0.991398, 97, 105, 160, 136
-0.991435, 265, 233, 328, 264
-0.991458, 329, 257, 392, 288
-0.991489, 65, 101, 128, 132
-0.9915, 105, 237, 168, 268
-0.991508, 193, 301, 256, 332
-0.991531, 241, 133, 304, 164
-0.991574, 241, 217, 304, 248
-0.991583, 337, 65, 400, 96
-0.991599, 185, 33, 216, 160
-0.991627, 177, 169, 240, 200
-0.991647, 313, 97, 376, 128
-0.991659, 289, 241, 352, 272
-0.991663, 141, 113, 172, 240
-0.991673, 209, 193, 272, 224
-0.991703, 1, 177, 128, 240
-0.99171, 25, 197, 88, 228
-0.99171, 385, 257, 448, 288
-0.991718, 393, 209, 424, 333
-0.99172, 9, 213, 72, 244
-0.991746, 201, 225, 232, 256
-0.991757, 33, 73, 96, 104
-0.991771, 241, 229, 304, 260
-0.991799, 113, 77, 176, 108
-0.991852, 137, 81, 200, 112
-0.991876, 313, 65, 376, 320
-0.991878, 289, 85, 352, 116
-0.991881, 41, 101, 104, 132
-0.991997, 217, 241, 248, 272
-0.992006, 305, 129, 432, 192
-0.992067, 165, 217, 196, 248
-0.992077, 225, 113, 256, 144
-0.992084, 405, 269, 436, 300
-0.992104, 317, 49, 348, 176
-0.992158, 185, 221, 216, 252
-0.992164, 393, 269, 424, 300
-0.992181, 213, 229, 244, 260
-0.992185, 81, 89, 208, 120
-0.992195, 317, 261, 348, 292
-0.992218, 161, 89, 192, 120
-0.992219, 77, 161, 108, 288
-0.992219, 65, 193, 320, 256
-0.992219, 213, 209, 244, 240
-0.992229, 233, 245, 264, 276
-0.992231, 17, 1, 80, 333
-0.992235, 465, 265, 496, 296
-0.992245, 189, 205, 220, 236
-0.992246, 377, 269, 408, 300
-0.992258, 241, 269, 272, 300
-0.992259, 57, 85, 88, 116
-0.992273, 5, 245, 36, 276
-0.992292, 253, 185, 284, 216
-0.992299, 161, 145, 224, 208
-0.992309, 197, 49, 228, 176
-0.992312, 393, 285, 424, 316
-0.992316, 345, 49, 376, 176
-0.992319, 25, 249, 56, 280
-0.99232, 125, 285, 156, 316
-0.992332, 121, 257, 152, 288
-0.992336, 329, 265, 360, 296
-0.992347, 33, 261, 64, 292
-0.992349, 433, 269, 464, 300
-0.992354, 77, 289, 108, 320
-0.992354, 241, 165, 272, 196
-0.992365, 249, 237, 280, 268
-0.992375, 185, 101, 216, 132
-0.992382, 129, 297, 160, 328
-0.99239, 233, 129, 264, 160
-0.992395, 201, 209, 232, 240
-0.992399, 409, 293, 440, 324
-0.992401, 189, 241, 220, 272
-0.992408, 201, 241, 232, 272
-0.992412, 205, 109, 236, 140
-0.992426, 221, 277, 252, 308
-0.99243, 141, 273, 172, 304
-0.992433, 61, 285, 92, 316
-0.992441, 153, 221, 184, 252
-0.992444, 429, 297, 460, 328
-0.992453, 353, 297, 384, 328
-0.992463, 173, 97, 204, 128
-0.992464, 341, 301, 372, 332
-0.992471, 233, 233, 264, 264
-0.992473, 185, 261, 216, 292
-0.992475, 349, 269, 380, 300
-0.992477, 17, 261, 48, 292
-0.992482, 237, 293, 268, 324
-0.992486, 137, 93, 168, 124
-0.992488, 105, 273, 136, 304
-0.992497, 141, 285, 172, 316
-0.9925, 233, 257, 264, 288
-0.992505, 417, 273, 448, 304
-0.992508, 113, 245, 144, 276
-0.992515, 201, 193, 232, 224
-0.992519, 301, 285, 332, 316
-0.992519, 161, 109, 192, 140
-0.992521, 445, 301, 476, 332
-0.992524, 41, 81, 72, 112
-0.992525, 453, 269, 484, 300
-0.992544, 101, 237, 132, 268
-0.992549, 233, 281, 264, 312
-0.992551, 237, 141, 268, 172
-0.992555, 325, 297, 356, 328
-0.992564, 285, 285, 316, 316
-0.992564, 157, 261, 188, 292
-0.992569, 121, 273, 152, 304
-0.992573, 405, 265, 420, 328
-0.992577, 25, 77, 56, 108
-0.992582, 153, 201, 184, 232
-0.992587, 253, 145, 268, 208
-0.992589, 261, 249, 292, 280
-0.992594, 205, 257, 236, 288
-0.992595, 113, 85, 144, 116
-0.992596, 361, 273, 392, 304
-0.992603, 269, 197, 300, 228
-0.992617, 141, 233, 172, 264
-0.992628, 245, 257, 276, 288
-0.992635, 241, 153, 272, 184
-0.992639, 289, 297, 320, 328
-0.992642, 421, 285, 452, 316
-0.992646, 305, 301, 336, 332
-0.992649, 221, 261, 252, 292
-0.992653, 301, 265, 332, 296
-0.992653, 177, 237, 208, 268
-0.992654, 85, 277, 116, 308
-0.992655, 361, 285, 392, 316
-0.992657, 97, 301, 128, 332
-0.992658, 173, 301, 204, 332
-0.992679, 177, 201, 208, 232
-0.99268, 101, 261, 132, 292
-0.992684, 189, 301, 220, 332
-0.992689, 421, 261, 452, 292
-0.992691, 333, 285, 364, 316
-0.992697, 93, 249, 124, 280
-0.992702, 89, 233, 120, 264
-0.992705, 57, 273, 88, 304
-0.992706, 381, 281, 412, 312
-0.99271, 13, 77, 44, 108
-0.992719, 253, 285, 284, 316
-0.992722, 269, 301, 300, 332
-0.992735, 313, 281, 344, 312
-0.99274, 149, 109, 180, 140
-0.992743, 105, 285, 136, 316
-0.992746, 141, 297, 172, 328
-0.992746, 5, 261, 36, 292
-0.992754, 141, 253, 172, 284
-0.99276, 81, 89, 112, 120
-0.992762, 365, 297, 396, 328
-0.992763, 253, 173, 284, 204
-0.992765, 149, 93, 180, 124
-0.992772, 433, 285, 464, 316
-0.992774, 253, 273, 284, 304
-0.992775, 465, 285, 496, 316
-0.992781, 9, 233, 40, 264
-0.992784, 277, 249, 308, 280
-0.992791, 253, 213, 284, 244
-0.992792, 225, 301, 256, 332
-0.992792, 165, 233, 196, 264
-0.992795, 173, 257, 204, 288
-0.992799, 381, 293, 412, 324
-0.9928, 141, 217, 172, 248
-0.992808, 41, 229, 72, 260
-0.992813, 213, 129, 244, 160
-0.992819, 117, 297, 148, 328
-0.992821, 369, 65, 496, 128
-0.992821, 37, 273, 68, 304
-0.992827, 165, 273, 196, 304
-0.992828, 61, 301, 92, 332
-0.992831, 165, 201, 196, 232
-0.992831, 153, 289, 184, 320
-0.99289, 163, 89, 178, 152
-0.992901, 65, 169, 320, 232
-0.992915, 129, 221, 256, 252
-0.992943, 145, 113, 272, 144
-0.992945, 273, 153, 400, 216
-0.993, 161, 177, 416, 240
-0.993001, 305, 209, 432, 272
-0.993016, 465, 209, 496, 333
-0.993098, 237, 105, 252, 168
-0.993163, 243, 249, 258, 312
-0.993168, 57, 17, 88, 144
-0.993178, 179, 89, 194, 152
-0.99319, 305, 301, 432, 332
-0.993224, 173, 89, 188, 152
-0.993253, 415, 265, 430, 328
-0.993262, 265, 217, 280, 280
-0.993269, 265, 177, 280, 240
-0.993273, 377, 273, 392, 333
-0.99328, 81, 217, 208, 248
-0.993303, 255, 241, 270, 304
-0.993317, 353, 265, 480, 296
-0.993319, 113, 101, 240, 132
-0.993326, 33, 85, 160, 116
-0.993337, 313, 1, 376, 333
-0.993354, 389, 265, 404, 328
-0.993366, 1, 241, 16, 304
-0.993389, 11, 241, 26, 304
-0.993397, 381, 49, 412, 176
-0.993411, 49, 281, 176, 312
-0.993439, 377, 97, 440, 224
-0.993454, 129, 237, 256, 268
-0.993456, 209, 249, 336, 280
-0.993458, 227, 233, 242, 296
-0.993472, 65, 253, 192, 284
-0.99348, 467, 265, 482, 328
-0.993484, 265, 9, 328, 72
-0.993505, 153, 89, 168, 152
-0.993505, 235, 241, 250, 304
-0.993509, 289, 269, 416, 300
-0.993552, 241, 261, 368, 292
-0.993591, 57, 145, 88, 272
-0.993604, 193, 97, 448, 160
-0.993619, 339, 265, 354, 328
-0.993632, 385, 1, 416, 128
-0.993636, 17, 241, 144, 272
-0.993647, 1, 193, 500, 256
-0.993662, 213, 217, 228, 280
-0.993665, 161, 201, 416, 264
-0.993679, 349, 265, 364, 328
-0.993699, 271, 185, 286, 248
-0.993706, 17, 241, 32, 304
-0.993726, 261, 249, 276, 312
-0.993727, 1, 145, 128, 208
-0.993734, 409, 25, 472, 88
-0.993751, 305, 185, 432, 248
-0.993759, 425, 273, 440, 333
-0.993762, 229, 105, 244, 168
-0.993762, 271, 241, 286, 304
-0.99377, 219, 105, 234, 168
-0.993772, 333, 193, 364, 320
-0.993783, 193, 121, 448, 184
-0.993812, 1, 241, 500, 304
-0.993823, 247, 129, 262, 192
-0.993824, 147, 89, 162, 152
-0.993838, 447, 273, 462, 333
-0.993843, 473, 265, 488, 328
-0.993867, 255, 265, 270, 328
-0.993878, 259, 169, 274, 232
-0.993882, 433, 265, 448, 328
-0.993887, 161, 249, 288, 280
-0.993892, 125, 161, 156, 288
-0.993894, 153, 233, 168, 296
-0.993898, 353, 105, 480, 168
-0.9939, 41, 249, 56, 312
-0.993906, 81, 233, 208, 264
-0.993937, 241, 65, 272, 192
-0.993943, 225, 209, 240, 272
-0.993944, 45, 145, 76, 272
-0.993946, 365, 265, 380, 328
-0.993976, 201, 97, 216, 160
-0.993994, 395, 273, 410, 333
-0.993999, 101, 273, 116, 333
-0.994013, 47, 257, 62, 320
-0.994092, 129, 209, 256, 240
-0.994094, 193, 237, 320, 268
-0.994105, 129, 261, 256, 292
-0.994125, 461, 273, 476, 333
-0.994127, 183, 265, 198, 328
-0.994129, 185, 89, 200, 152
-0.994141, 359, 265, 374, 328
-0.994167, 205, 209, 220, 272
-0.994175, 9, 65, 40, 192
-0.994176, 159, 273, 174, 333
-0.994188, 401, 97, 464, 160
-0.994191, 33, 249, 48, 312
-0.994204, 221, 233, 236, 296
-0.994208, 149, 273, 164, 333
-0.994215, 181, 217, 196, 280
-0.994263, 143, 249, 158, 312
-0.994276, 161, 125, 288, 156
-0.994283, 1, 229, 128, 260
-0.994291, 225, 33, 288, 160
-0.994313, 199, 201, 214, 264
-0.994324, 453, 265, 468, 328
-0.994341, 383, 265, 398, 328
-0.994352, 225, 293, 352, 324
-0.994358, 113, 257, 128, 320
-0.994358, 329, 257, 344, 320
-0.994391, 439, 265, 454, 328
-0.994407, 97, 161, 128, 288
-0.994408, 193, 173, 320, 204
-0.994419, 177, 265, 192, 328
-0.994421, 193, 209, 320, 240
-0.994434, 287, 257, 302, 320
-0.994443, 97, 249, 112, 312
-0.994446, 195, 97, 210, 160
-0.994471, 189, 225, 204, 288
-0.994486, 127, 81, 142, 144
-0.994486, 319, 265, 334, 328
-0.994498, 469, 49, 500, 176
-0.994498, 249, 265, 264, 328
-0.994512, 353, 293, 480, 324
-0.994524, 225, 129, 240, 192
-0.994557, 65, 145, 320, 208
-0.994581, 225, 17, 352, 80
-0.99459, 67, 81, 82, 144
-0.994591, 97, 177, 224, 240
-0.994615, 231, 129, 246, 192
-0.994617, 97, 33, 128, 160
-0.994619, 17, 253, 144, 284
-0.994633, 369, 65, 496, 192
-0.994639, 277, 249, 292, 312
-0.994641, 111, 81, 126, 144
-0.994644, 61, 81, 76, 144
-0.994647, 123, 249, 138, 312
-0.994658, 249, 233, 264, 296
-0.99466, 95, 225, 110, 288
-0.994662, 75, 81, 90, 144
-0.994712, 123, 273, 138, 333
-0.994729, 177, 241, 192, 304
-0.994744, 293, 249, 308, 312
-0.994751, 161, 73, 416, 136
-0.994771, 147, 217, 162, 280
-0.994779, 107, 273, 122, 333
-0.994783, 167, 265, 182, 328
-0.99479, 141, 89, 156, 152
-0.994806, 91, 257, 106, 320
-0.994821, 371, 273, 386, 333
-0.994823, 109, 233, 124, 296
-0.994824, 479, 265, 494, 328
-0.994832, 437, 209, 468, 333
-0.994833, 145, 273, 272, 304
-0.994839, 129, 249, 144, 312
-0.99485, 73, 137, 136, 200
-0.994855, 21, 145, 52, 272
-0.994856, 175, 209, 190, 272
-0.994859, 207, 97, 222, 160
-0.994866, 41, 73, 56, 136
-0.994881, 117, 81, 132, 144
-0.994892, 213, 105, 228, 168
-0.994893, 113, 249, 240, 280
-0.994914, 157, 209, 172, 272
-0.994917, 209, 277, 336, 308
-0.994932, 139, 273, 154, 333
-0.994934, 1, 145, 32, 272
-0.994939, 169, 201, 184, 264
-0.99494, 453, 1, 484, 128
-0.994966, 129, 297, 256, 328
-0.994974, 77, 33, 108, 160
-0.994988, 225, 41, 352, 104
-0.995016, 237, 265, 252, 328
-0.995017, 57, 273, 72, 333
-0.99502, 33, 265, 160, 296
-0.995029, 353, 277, 480, 308
-0.995035, 193, 189, 320, 220
-0.995039, 55, 81, 70, 144
-0.995048, 39, 225, 54, 288
-0.995099, 211, 265, 226, 328
-0.995103, 161, 233, 176, 296
-0.995105, 205, 241, 220, 304
-0.995123, 133, 273, 148, 333
-0.995129, 259, 217, 274, 280
-0.995137, 265, 97, 328, 160
-0.995148, 103, 249, 118, 312
-0.995164, 225, 125, 352, 156
-0.995166, 305, 257, 432, 288
-0.995168, 23, 249, 38, 312
-0.995173, 199, 233, 214, 296
-0.995178, 215, 193, 230, 256
-0.995185, 81, 293, 208, 324
-0.995213, 87, 217, 102, 280
-0.995232, 33, 213, 160, 244
-0.995248, 299, 257, 314, 320
-0.995266, 193, 113, 320, 144
-0.995268, 11, 265, 26, 328
-0.99527, 183, 241, 198, 304
-0.995285, 191, 265, 206, 328
-0.99533, 225, 65, 256, 320
-0.995331, 241, 225, 256, 288
-0.995335, 243, 273, 258, 333
-0.995335, 253, 169, 268, 232
-0.995338, 65, 161, 128, 224
-0.99534, 75, 273, 90, 333
-0.995351, 259, 193, 274, 256
-0.995375, 243, 105, 258, 168
-0.995375, 49, 217, 64, 280
-0.995376, 189, 201, 204, 264
-0.995398, 305, 289, 432, 320
-0.995428, 167, 233, 182, 296
-0.995431, 129, 197, 256, 228
-0.995436, 485, 265, 500, 328
-0.99547, 47, 73, 62, 136
-0.995491, 103, 81, 118, 144
-0.995492, 177, 301, 304, 332
-0.995506, 293, 273, 308, 333
-0.995511, 385, 1, 448, 333
-0.995534, 1, 217, 500, 280
-0.995547, 81, 205, 208, 236
-0.995576, 377, 1, 440, 64
-0.995585, 241, 237, 368, 268
-0.995589, 205, 65, 236, 320
-0.995601, 337, 9, 400, 72
-0.995628, 193, 153, 448, 216
-0.995631, 81, 269, 208, 300
-0.995649, 65, 137, 192, 200
-0.99568, 261, 145, 292, 272
-0.995746, 409, 81, 472, 208
-0.995748, 1, 97, 500, 160
-0.995759, 21, 17, 52, 144
-0.995802, 17, 73, 144, 104
-0.995809, 337, 65, 400, 320
-0.995812, 177, 221, 304, 252
-0.995832, 81, 113, 208, 144
-0.995854, 161, 137, 288, 168
-0.995855, 161, 101, 288, 132
-0.995863, 317, 97, 348, 224
-0.995871, 177, 289, 304, 320
-0.995885, 177, 261, 304, 292
-0.995904, 385, 65, 448, 128
-0.995969, 257, 281, 384, 312
-0.995973, 161, 161, 288, 192
-0.995974, 337, 1, 400, 333
-0.995982, 33, 301, 160, 332
-0.996022, 321, 9, 448, 72
-0.996037, 225, 157, 352, 188
-0.996102, 129, 285, 256, 316
-0.996155, 241, 173, 368, 204
-0.996165, 1, 57, 256, 120
-0.996177, 225, 145, 352, 176
-0.996183, 49, 101, 176, 132
-0.996233, 45, 17, 76, 144
-0.996256, 113, 17, 144, 144
-0.996324, 185, 65, 216, 320
-0.996335, 317, 161, 348, 288
-0.996341, 97, 41, 224, 104
-0.99638, 33, 201, 160, 232
-0.996386, 125, 113, 156, 240
-0.99639, 49, 161, 176, 224
-0.9965, 173, 65, 204, 320
-0.996522, 237, 65, 268, 320
-0.996565, 137, 17, 168, 144
-0.996579, 353, 129, 480, 192
-0.996586, 289, 245, 416, 276
-0.996683, 469, 265, 484, 296
-0.99669, 337, 45, 464, 76
-0.996727, 225, 225, 352, 256
-0.996728, 225, 237, 240, 268
-0.996732, 1, 285, 128, 316
-0.99676, 405, 269, 420, 300
-0.996772, 207, 217, 222, 248
-0.996801, 253, 153, 268, 184
-0.996827, 219, 233, 234, 264
-0.996836, 273, 65, 400, 96
-0.996837, 129, 89, 256, 120
-0.99685, 113, 125, 240, 156
-0.996866, 145, 177, 272, 208
-0.996878, 265, 97, 296, 224
-0.996917, 259, 169, 274, 200
-0.99692, 395, 269, 410, 300
-0.996946, 267, 181, 282, 212
-0.996946, 417, 129, 480, 192
-0.996966, 39, 253, 54, 284
-0.996967, 33, 145, 64, 272
-0.996968, 113, 137, 176, 200
-0.996988, 1, 97, 128, 128
-0.996994, 329, 261, 344, 292
-0.996999, 369, 33, 496, 64
-0.997053, 389, 265, 404, 296
-0.997056, 161, 149, 288, 180
-0.997064, 273, 41, 400, 72
-0.997081, 15, 241, 30, 272
-0.997097, 265, 237, 280, 268
-0.997097, 247, 273, 262, 304
-0.997106, 439, 265, 454, 296
-0.997109, 149, 65, 180, 320
-0.997119, 25, 33, 56, 288
-0.997137, 3, 241, 18, 272
-0.997143, 215, 201, 230, 232
-0.997149, 81, 77, 208, 108
-0.997163, 121, 249, 136, 280
-0.997163, 475, 269, 490, 300
-0.997166, 273, 201, 288, 232
-0.997166, 141, 293, 156, 324
-0.997171, 201, 221, 216, 252
-0.997172, 231, 241, 246, 272
-0.997192, 369, 253, 496, 284
-0.997195, 137, 65, 168, 320
-0.997199, 213, 221, 228, 252
-0.997199, 431, 261, 446, 292
-0.997207, 225, 113, 240, 144
-0.997213, 241, 185, 368, 216
-0.997215, 329, 297, 344, 328
-0.997223, 237, 109, 252, 140
-0.997229, 135, 277, 150, 308
-0.99723, 89, 65, 120, 320
-0.997235, 309, 285, 324, 316
-0.997239, 199, 101, 214, 132
-0.997245, 305, 97, 432, 128
-0.997255, 17, 145, 80, 208
-0.997257, 193, 229, 208, 260
-0.997266, 69, 85, 84, 116
-0.997267, 183, 217, 198, 248
-0.997273, 213, 109, 228, 140
-0.997274, 113, 265, 128, 296
-0.997277, 485, 265, 500, 296
-0.997284, 219, 109, 234, 140
-0.997286, 419, 269, 434, 300
-0.997289, 357, 297, 372, 328
-0.997296, 177, 85, 304, 116
-0.9973, 203, 205, 218, 236
-0.997303, 241, 285, 256, 316
-0.997308, 247, 133, 262, 164
-0.997309, 45, 257, 60, 288
-0.99732, 169, 217, 184, 248
-0.997322, 319, 301, 334, 332
-0.997332, 347, 265, 362, 296
-0.997335, 87, 241, 102, 272
-0.997336, 51, 81, 66, 112
-0.997339, 141, 281, 156, 312
-0.997344, 357, 269, 372, 300
-0.997348, 409, 49, 440, 176
-0.997356, 207, 105, 222, 136
-0.99736, 411, 265, 426, 296
-0.997365, 337, 57, 464, 88
-0.997366, 175, 213, 190, 244
-0.99737, 377, 297, 392, 328
-0.997371, 93, 245, 108, 276
-0.997382, 249, 33, 312, 96
-0.997386, 271, 241, 286, 272
-0.997396, 119, 269, 134, 300
-0.997396, 347, 289, 362, 320
-0.997397, 447, 273, 462, 304
-0.997402, 1, 65, 500, 128
-0.997403, 237, 245, 252, 276
-0.997406, 33, 261, 48, 292
-0.997413, 255, 285, 270, 316
-0.997416, 63, 85, 78, 116
-0.997418, 261, 253, 276, 284
-0.997421, 101, 237, 116, 268
-0.997422, 241, 113, 368, 144
-0.997428, 161, 65, 192, 320
-0.997436, 443, 297, 458, 328
-0.997449, 189, 97, 204, 128
-0.997449, 9, 241, 24, 272
-0.997455, 75, 85, 90, 116
-0.997459, 393, 97, 424, 224
-0.997463, 239, 273, 254, 304
-0.997464, 463, 269, 478, 300
-0.997474, 457, 273, 472, 304
-0.997474, 287, 297, 302, 328
-0.997477, 167, 89, 182, 120
-0.997482, 321, 261, 336, 292
-0.997483, 45, 81, 60, 112
-0.997485, 79, 277, 94, 308
-0.997495, 247, 285, 262, 316
-0.997496, 39, 77, 54, 108
-0.997498, 273, 189, 288, 220
-0.997503, 81, 89, 96, 120
-0.997503, 151, 93, 166, 124
-0.997505, 239, 301, 254, 332
-0.997507, 33, 77, 48, 108
-0.997518, 233, 273, 248, 304
-0.99752, 85, 289, 100, 320
-0.997521, 197, 301, 212, 332
-0.997524, 161, 89, 176, 120
-0.997526, 267, 201, 282, 232
-0.997529, 187, 261, 202, 292
-0.997534, 155, 285, 170, 316
-0.997535, 153, 17, 184, 144
-0.997535, 253, 141, 268, 172
-0.997538, 375, 273, 390, 304
-0.997541, 301, 297, 316, 328
-0.997542, 361, 65, 424, 320
-0.997542, 19, 261, 34, 292
-0.997543, 227, 133, 242, 164
-0.997545, 313, 269, 328, 300
-0.997546, 225, 101, 352, 132
-0.997546, 111, 253, 126, 284
-0.997551, 425, 265, 440, 296
-0.997554, 335, 301, 350, 332
-0.997555, 395, 281, 410, 312
-0.997557, 273, 29, 400, 60
-0.997562, 363, 273, 378, 304
-0.997566, 257, 241, 272, 272
-0.997568, 239, 261, 254, 292
-0.99757, 179, 89, 194, 120
-0.997573, 125, 273, 140, 304
-0.997577, 9, 17, 40, 144
-0.997583, 181, 229, 196, 260
-0.997586, 213, 233, 228, 264
-0.997587, 21, 241, 36, 272
-0.997591, 135, 293, 150, 324
-0.997596, 201, 241, 216, 272
-0.997596, 165, 285, 180, 316
-0.997596, 361, 225, 424, 288
-0.997601, 219, 245, 234, 276
-0.997605, 127, 293, 142, 324
-0.997613, 253, 165, 268, 196
-0.997613, 351, 301, 366, 332
-0.997615, 187, 237, 202, 268
-0.997619, 417, 293, 432, 324
-0.997626, 95, 233, 110, 264
-0.997631, 231, 229, 246, 260
-0.997636, 259, 269, 274, 300
-0.997638, 335, 265, 350, 296
-0.997638, 179, 201, 194, 232
-0.997639, 147, 285, 162, 316
-0.997641, 295, 285, 310, 316
-0.997641, 243, 233, 258, 264
-0.997643, 229, 301, 244, 332
-0.997643, 453, 297, 468, 328
-0.99768, 273, 225, 400, 256
-0.997752, 121, 41, 184, 104
-0.997758, 313, 1, 344, 128
-0.997792, 273, 53, 400, 84
-0.997792, 273, 85, 400, 116
-0.997793, 333, 17, 364, 144
-0.997811, 257, 49, 500, 112
-0.997822, 101, 65, 132, 320
-0.997833, 409, 1, 472, 64
-0.997851, 313, 9, 376, 72
-0.997888, 13, 33, 44, 288
-0.997932, 273, 201, 400, 232
-0.99794, 361, 1, 424, 333
-0.997989, 321, 33, 448, 64
-0.99799, 305, 109, 432, 140
-0.997997, 41, 65, 72, 320
-0.998, 1, 1, 32, 256
-0.998064, 125, 33, 156, 288
-0.998151, 241, 213, 368, 244
-0.99818, 429, 49, 460, 176
-0.998193, 113, 165, 240, 196
-0.9982, 257, 217, 500, 280
-0.998248, 33, 113, 160, 144
-0.998255, 369, 21, 496, 52
-0.998285, 337, 121, 400, 184
-0.998295, 69, 65, 100, 320
-0.998308, 273, 161, 400, 192
-0.998375, 369, 101, 496, 132
-0.998376, 49, 189, 176, 220
-0.998382, 305, 213, 432, 244
-0.998384, 353, 113, 480, 240
-0.998391, 201, 113, 264, 128
-0.998394, 185, 237, 248, 252
-0.998399, 433, 275, 496, 290
-0.998406, 353, 97, 416, 224
-0.998409, 161, 215, 224, 230
-0.998411, 185, 243, 248, 258
-0.998412, 89, 87, 152, 102
-0.998414, 217, 249, 280, 264
-0.998415, 377, 289, 440, 304
-0.998416, 137, 93, 200, 108
-0.998421, 225, 241, 288, 256
-0.998422, 89, 279, 152, 294
-0.998424, 9, 97, 72, 160
-0.998425, 169, 231, 232, 246
-0.998425, 281, 113, 312, 240
-0.998425, 137, 225, 200, 240
-0.998429, 137, 317, 200, 332
-0.998429, 401, 311, 464, 326
-0.998436, 169, 221, 232, 236
-0.998439, 385, 269, 448, 284
-0.998446, 169, 111, 232, 126
-0.99845, 41, 87, 104, 102
-0.998452, 353, 275, 416, 290
-0.998453, 253, 65, 284, 320
-0.998454, 201, 211, 264, 226
-0.998456, 433, 269, 496, 284
-0.998462, 1, 255, 64, 270
-0.998465, 313, 303, 376, 318
-0.998465, 65, 301, 128, 316
-0.998466, 121, 267, 184, 282
-0.998467, 353, 297, 416, 312
-0.998468, 105, 307, 168, 322
-0.998469, 209, 167, 272, 182
-0.99847, 89, 253, 152, 268
-0.99847, 89, 273, 152, 288
-0.998472, 113, 65, 144, 320
-0.998472, 297, 289, 360, 304
-0.998475, 97, 1, 352, 128
-0.998475, 377, 313, 440, 328
-0.998476, 209, 135, 272, 150
-0.998477, 433, 309, 496, 324
-0.998477, 353, 313, 416, 328
-0.998478, 129, 297, 192, 312
-0.998479, 113, 279, 176, 294
-0.99848, 185, 253, 248, 268
-0.998482, 145, 233, 208, 248
-0.998483, 153, 205, 216, 220
-0.998484, 89, 285, 152, 300
-0.998484, 89, 301, 152, 316
-0.998484, 169, 105, 232, 120
-0.998485, 137, 281, 200, 296
-0.998486, 241, 253, 304, 268
-0.998486, 361, 269, 424, 284
-0.998487, 209, 235, 272, 250
-0.998488, 129, 307, 192, 322
-0.998489, 1, 79, 64, 94
-0.998491, 145, 117, 208, 132
-0.998494, 273, 297, 336, 312
-0.998494, 409, 283, 472, 298
-0.998495, 113, 261, 176, 276
-0.998497, 313, 297, 376, 312
-0.998498, 49, 275, 112, 290
-0.998499, 393, 305, 456, 320
-0.998499, 393, 275, 456, 290
-0.9985, 153, 301, 216, 316
-0.9985, 65, 317, 96, 332
-0.9985, 225, 317, 256, 332
-0.9985, 373, 297, 404, 312
-0.998501, 205, 311, 236, 326
-0.998501, 345, 287, 408, 302
-0.998501, 81, 315, 112, 330
-0.998501, 109, 295, 140, 310
-0.998502, 153, 243, 216, 258
-0.998502, 217, 175, 280, 190
-0.998502, 177, 315, 240, 330
-0.998502, 233, 265, 264, 280
-0.998502, 341, 303, 372, 318
-0.998502, 401, 279, 432, 294
-0.998502, 209, 203, 240, 218
-0.998502, 141, 309, 172, 324
-0.998503, 129, 273, 192, 288
-0.998503, 201, 127, 264, 142
-0.998503, 249, 285, 312, 300
-0.998504, 169, 121, 232, 136
-0.998504, 217, 159, 280, 174
-0.998504, 241, 247, 304, 262
-0.998504, 125, 293, 156, 308
-0.998504, 469, 307, 500, 322
-0.998504, 145, 223, 176, 238
-0.998505, 329, 269, 392, 284
-0.998505, 241, 307, 272, 322
-0.998505, 65, 89, 96, 104
-0.998505, 113, 149, 240, 180
-0.998505, 217, 277, 280, 292
-0.998505, 33, 317, 96, 332
-0.998506, 337, 281, 400, 296
-0.998507, 33, 249, 64, 264
-0.998507, 313, 315, 376, 330
-0.998507, 225, 311, 256, 326
-0.998507, 129, 289, 192, 304
-0.998508, 65, 293, 128, 308
-0.998508, 393, 295, 456, 310
-0.998508, 209, 141, 272, 156
-0.998508, 237, 253, 268, 268
-0.998509, 337, 303, 400, 318
-0.998509, 13, 265, 44, 280
-0.998509, 169, 265, 232, 280
-0.99851, 41, 283, 72, 298
-0.99851, 149, 303, 180, 318
-0.99851, 33, 317, 64, 332
-0.99851, 209, 217, 272, 232
-0.99851, 165, 315, 196, 330
-0.99851, 41, 283, 104, 298
-0.99851, 241, 259, 304, 274
-0.99851, 125, 285, 156, 300
-0.99851, 201, 247, 232, 262
-0.998511, 33, 255, 96, 270
-0.998512, 241, 171, 272, 186
-0.998513, 321, 289, 384, 304
-0.998513, 121, 273, 152, 288
-0.998513, 185, 223, 216, 238
-0.998514, 21, 271, 52, 286
-0.998515, 409, 293, 440, 308
-0.998516, 57, 65, 88, 320
-0.998516, 385, 315, 416, 330
-0.998516, 81, 305, 112, 320
-0.998516, 225, 313, 288, 328
-0.998516, 169, 115, 200, 130
-0.998517, 217, 275, 248, 290
-0.998517, 329, 299, 360, 314
-0.998517, 193, 105, 224, 120
-0.998517, 77, 283, 108, 298
-0.998517, 401, 289, 464, 304
-0.998518, 237, 141, 268, 156
-0.998518, 129, 109, 192, 124
-0.998518, 361, 293, 392, 308
-0.998519, 277, 253, 308, 268
-0.998519, 189, 313, 220, 328
-0.998519, 421, 265, 452, 280
-0.998519, 73, 311, 136, 326
-0.998521, 239, 97, 254, 224
-0.998521, 369, 307, 432, 322
-0.998522, 153, 309, 184, 324
-0.998522, 309, 305, 340, 320
-0.998523, 193, 301, 256, 316
-0.998523, 129, 49, 384, 112
-0.998523, 1, 249, 64, 264
-0.998523, 177, 313, 208, 328
-0.998523, 289, 259, 320, 274
-0.998523, 105, 231, 168, 246
-0.998524, 425, 317, 488, 332
-0.998524, 269, 311, 300, 326
-0.998524, 305, 265, 368, 280
-0.998524, 433, 281, 496, 296
-0.998525, 257, 179, 320, 194
-0.998525, 241, 151, 272, 166
-0.998525, 253, 251, 284, 266
-0.998525, 313, 289, 344, 304
-0.998525, 137, 217, 200, 232
-0.998526, 245, 269, 276, 284
-0.998526, 265, 261, 328, 276
-0.998526, 137, 275, 168, 290
-0.998527, 265, 253, 328, 268
-0.998527, 153, 209, 168, 333
-0.998527, 153, 295, 216, 310
-0.998527, 257, 241, 288, 256
-0.998527, 177, 265, 208, 280
-0.998528, 201, 119, 264, 134
-0.998529, 213, 251, 244, 266
-0.998529, 241, 273, 304, 288
-0.998531, 301, 289, 332, 304
-0.998531, 425, 301, 488, 316
-0.998534, 341, 269, 372, 284
-0.998535, 237, 245, 268, 260
-0.998535, 217, 149, 280, 164
-0.998535, 177, 127, 240, 142
-0.998535, 225, 181, 288, 196
-0.998535, 1, 121, 500, 184
-0.998536, 457, 269, 488, 284
-0.998536, 233, 235, 296, 250
-0.998536, 37, 263, 68, 278
-0.998536, 373, 289, 404, 304
-0.998537, 157, 115, 188, 130
-0.998537, 265, 279, 328, 294
-0.998537, 241, 301, 304, 316
-0.998538, 217, 263, 280, 278
-0.998538, 137, 289, 168, 304
-0.998538, 41, 207, 104, 222
-0.998538, 369, 283, 432, 298
-0.998539, 181, 305, 212, 320
-0.998539, 425, 293, 488, 308
-0.998539, 429, 317, 460, 332
-0.99854, 137, 283, 168, 298
-0.99854, 177, 205, 240, 220
-0.998541, 257, 189, 320, 204
-0.998541, 25, 81, 88, 96
-0.998541, 233, 187, 296, 202
-0.998542, 65, 281, 128, 296
-0.998542, 1, 243, 64, 258
-0.998542, 209, 271, 272, 286
-0.998542, 9, 261, 72, 276
-0.998542, 57, 317, 120, 332
-0.998542, 273, 317, 336, 332
-0.998542, 177, 199, 240, 214
-0.998542, 33, 271, 64, 286
-0.998543, 153, 265, 184, 280
-0.998543, 169, 235, 200, 250
-0.998543, 225, 121, 256, 136
-0.998543, 1, 79, 32, 94
-0.998544, 225, 203, 288, 218
-0.998544, 257, 207, 320, 222
-0.998544, 193, 229, 256, 244
-0.998544, 165, 259, 196, 274
-0.998544, 245, 235, 276, 250
-0.998544, 179, 81, 194, 208
-0.998544, 201, 229, 232, 244
-0.998544, 313, 315, 344, 330
-0.998545, 197, 241, 228, 256
-0.998546, 41, 247, 104, 262
-0.998546, 25, 275, 88, 290
-0.998546, 77, 295, 108, 310
-0.998547, 109, 85, 140, 100
-0.998548, 297, 65, 328, 320
-0.99855, 181, 229, 212, 244
-0.998552, 249, 179, 280, 194
-0.998552, 89, 281, 120, 296
-0.998553, 253, 213, 284, 228
-0.998553, 213, 113, 244, 128
-0.998554, 213, 209, 244, 224
-0.998555, 237, 277, 268, 292
-0.998556, 61, 285, 92, 300
-0.998556, 137, 297, 168, 312
-0.998556, 33, 81, 64, 96
-0.998556, 257, 187, 288, 202
-0.998557, 129, 303, 160, 318
-0.998558, 97, 301, 128, 316
-0.998558, 9, 245, 40, 260
-0.998559, 441, 305, 472, 320
-0.998559, 129, 77, 256, 108
-0.998559, 25, 261, 56, 276
-0.99856, 365, 277, 396, 292
-0.99856, 409, 113, 440, 240
-0.99856, 233, 133, 264, 148
-0.998564, 233, 235, 264, 250
-0.998566, 321, 307, 352, 322
-0.998567, 109, 275, 140, 290
-0.998568, 397, 311, 428, 326
-0.998569, 229, 127, 260, 142
-0.99857, 329, 267, 360, 282
-0.99857, 373, 271, 404, 286
-0.998571, 193, 217, 224, 232
-0.998572, 441, 273, 472, 288
-0.998572, 181, 235, 212, 250
-0.998574, 353, 303, 384, 318
-0.998574, 185, 241, 216, 256
-0.998578, 385, 267, 416, 282
-0.998579, 217, 235, 248, 250
-0.99858, 221, 281, 252, 296
-0.998581, 429, 309, 460, 324
-0.998583, 165, 217, 196, 232
-0.998584, 225, 113, 256, 128
-0.998584, 161, 91, 192, 106
-0.998589, 305, 125, 432, 156
-0.99859, 409, 271, 440, 286
-0.998593, 353, 271, 384, 286
-0.998595, 233, 97, 248, 224
-0.998597, 121, 279, 152, 294
-0.998601, 241, 165, 272, 180
-0.998602, 201, 235, 232, 250
-0.998602, 317, 263, 348, 278
-0.998605, 257, 73, 500, 136
-0.998611, 255, 145, 270, 272
-0.998612, 469, 267, 500, 282
-0.998616, 185, 81, 200, 208
-0.998623, 393, 287, 424, 302
-0.998629, 213, 245, 244, 260
-0.998637, 225, 245, 256, 260
-0.998643, 1, 189, 128, 220
-0.998643, 397, 269, 428, 284
-0.998643, 353, 209, 480, 272
-0.998647, 197, 223, 228, 238
-0.998652, 225, 251, 256, 266
-0.998665, 289, 161, 320, 288
-0.998669, 393, 49, 424, 176
-0.998671, 265, 193, 280, 320
-0.998672, 409, 313, 440, 328
-0.998683, 41, 161, 104, 224
-0.998686, 321, 69, 448, 100
-0.998688, 245, 113, 260, 240
-0.998696, 365, 65, 396, 320
-0.998721, 33, 1, 64, 128
-0.998726, 145, 49, 272, 112
-0.998729, 173, 81, 188, 208
-0.998758, 215, 209, 230, 333
-0.998763, 225, 77, 352, 108
-0.998769, 227, 97, 242, 224
-0.998772, 257, 25, 500, 88
-0.998792, 317, 65, 348, 320
-0.998797, 225, 209, 240, 333
-0.998802, 273, 17, 400, 48
-0.998812, 337, 129, 368, 256
-0.998817, 225, 57, 352, 88
-0.998838, 207, 209, 222, 333
-0.998846, 159, 193, 174, 320
-0.998849, 191, 81, 206, 208
-0.998861, 273, 1, 400, 32
-0.998866, 119, 65, 134, 192
-0.99889, 221, 97, 236, 224
-0.998906, 145, 81, 160, 208
-0.998913, 329, 81, 360, 208
-0.998924, 257, 193, 272, 320
-0.998926, 113, 65, 128, 192
-0.998929, 83, 193, 98, 320
-0.998932, 197, 193, 212, 320
-0.998934, 167, 65, 182, 192
-0.998935, 271, 193, 286, 320
-0.998935, 249, 161, 264, 288
-0.99894, 19, 209, 34, 333
-0.99894, 147, 193, 162, 320
-0.998942, 321, 161, 448, 288
-0.998945, 157, 65, 172, 192
-0.998951, 93, 209, 108, 333
-0.99896, 281, 49, 312, 176
-0.998966, 57, 65, 72, 192
-0.998987, 139, 209, 154, 333
-0.998997, 273, 137, 400, 168
-0.999003, 233, 193, 248, 320
-0.999006, 261, 145, 276, 272
-0.999007, 251, 97, 266, 224
-0.999017, 27, 209, 42, 333
-0.99903, 65, 125, 192, 156
-0.999043, 171, 193, 186, 320
-0.999046, 1, 169, 500, 232
-0.99905, 57, 193, 72, 320
-0.999061, 69, 193, 84, 320
-0.999066, 293, 209, 308, 333
-0.999067, 151, 81, 166, 208
-0.999068, 63, 193, 78, 320
-0.999083, 225, 89, 352, 120
-0.999084, 165, 193, 180, 320
-0.999087, 353, 209, 368, 333
-0.99909, 225, 145, 240, 272
-0.999092, 481, 1, 496, 128
-0.999092, 125, 65, 140, 192
-0.999099, 219, 161, 234, 288
-0.999102, 139, 81, 154, 208
-0.999102, 243, 193, 258, 320
-0.999102, 299, 209, 314, 333
-0.999104, 109, 161, 140, 288
-0.999109, 17, 33, 144, 96
-0.999114, 369, 69, 496, 100
-0.999114, 249, 209, 264, 333
-0.999123, 75, 193, 90, 320
-0.999124, 49, 193, 64, 320
-0.999124, 117, 209, 132, 333
-0.999126, 353, 81, 480, 112
-0.999128, 17, 61, 144, 92
-0.999129, 125, 209, 140, 333
-0.999134, 359, 209, 374, 333
-0.999135, 215, 97, 230, 224
-0.99914, 207, 97, 222, 224
-0.999144, 107, 65, 122, 192
-0.999155, 51, 65, 66, 192
-0.999157, 231, 145, 246, 272
-0.999164, 9, 193, 24, 320
-0.999171, 63, 65, 78, 192
-0.999183, 279, 209, 294, 333
-0.99919, 197, 81, 212, 208
-0.999194, 97, 181, 224, 212
-0.999204, 45, 49, 60, 176
-0.99921, 225, 9, 352, 40
-0.99921, 305, 185, 432, 216
-0.999213, 101, 81, 116, 208
-0.999221, 41, 209, 56, 333
-0.999222, 103, 209, 118, 333
-0.999222, 353, 113, 480, 144
-0.99924, 163, 145, 178, 272
-0.999241, 179, 33, 194, 160
-0.999246, 109, 113, 140, 240
-0.999254, 179, 193, 194, 320
-0.999256, 239, 145, 254, 272
-0.999259, 1, 209, 16, 333
-0.99926, 35, 193, 50, 320
-0.999269, 175, 129, 190, 256
-0.99927, 225, 29, 352, 60
-0.999276, 213, 161, 228, 288
-0.999279, 207, 161, 222, 288
-0.999282, 273, 149, 400, 180
-0.999284, 333, 209, 348, 333
-0.999287, 1, 177, 128, 208
-0.999291, 325, 209, 340, 333
-0.999294, 37, 49, 52, 176
-0.999295, 187, 209, 202, 333
-0.999299, 305, 173, 432, 204
-0.999308, 81, 137, 208, 168
-0.999314, 411, 209, 426, 333
-0.999315, 233, 49, 248, 176
-0.999319, 285, 209, 300, 333
-0.999332, 1, 165, 128, 196
-0.999336, 387, 209, 402, 333
-0.999344, 147, 33, 162, 160
-0.999344, 319, 209, 334, 333
-0.999344, 425, 209, 440, 333
-0.999344, 185, 33, 200, 160
-0.999351, 131, 65, 146, 192
-0.999359, 353, 213, 480, 244
-0.999362, 305, 209, 320, 333
-0.99937, 111, 209, 126, 333
-0.999372, 153, 161, 168, 288
-0.999375, 73, 81, 88, 208
-0.99938, 369, 9, 496, 40
-0.999387, 345, 65, 376, 320
-0.999388, 343, 209, 358, 333
-0.999388, 21, 161, 36, 288
-0.999395, 257, 177, 500, 240
-0.999402, 1, 153, 128, 184
-0.999403, 137, 33, 152, 160
-0.999405, 223, 49, 238, 176
-0.999407, 437, 209, 452, 333
-0.999413, 173, 33, 188, 160
-0.999413, 269, 145, 284, 272
-0.999414, 31, 49, 46, 176
-0.999417, 183, 129, 198, 256
-0.999418, 131, 209, 146, 333
-0.999431, 321, 225, 448, 256
-0.999442, 269, 65, 300, 320
-0.999443, 157, 113, 172, 240
-0.999444, 395, 209, 410, 333
-0.999452, 353, 137, 480, 168
-0.999456, 27, 161, 42, 288
-0.999463, 169, 145, 184, 272
-0.999474, 313, 209, 328, 333
-0.999476, 457, 209, 472, 333
-0.999479, 15, 161, 30, 288
-0.999494, 213, 49, 228, 176
-0.999494, 95, 81, 110, 208
-0.999496, 419, 209, 434, 333
-0.999496, 353, 125, 480, 156
-0.999497, 97, 65, 224, 96
-0.999497, 447, 209, 462, 333
-0.9995, 475, 1, 490, 128
-0.999503, 257, 97, 272, 224
-0.999511, 381, 49, 396, 176
-0.999513, 475, 209, 490, 333
-0.999516, 203, 49, 218, 176
-0.999518, 281, 65, 312, 320
-0.999521, 49, 149, 176, 180
-0.999521, 467, 209, 482, 333
-0.999527, 41, 161, 56, 288
-0.999529, 245, 65, 260, 192
-0.99953, 51, 17, 66, 144
-0.999533, 119, 17, 134, 144
-0.999543, 431, 209, 446, 333
-0.99955, 485, 49, 500, 176
-0.99956, 147, 129, 162, 256
-0.999565, 9, 145, 24, 272
-0.999605, 393, 65, 424, 320
-0.999671, 333, 65, 364, 320
-0.999684, 259, 267, 274, 282
-0.999684, 35, 317, 50, 332
-0.999684, 183, 267, 198, 282
-0.999684, 399, 315, 414, 330
-0.999685, 227, 135, 242, 150
-0.999685, 473, 311, 488, 326
-0.999685, 19, 79, 34, 94
-0.999685, 317, 311, 332, 326
-0.999686, 207, 219, 222, 234
-0.999686, 397, 267, 412, 282
-0.999686, 483, 311, 498, 326
-0.999686, 409, 275, 424, 290
-0.999687, 197, 265, 212, 280
-0.999687, 391, 273, 406, 288
-0.999687, 283, 253, 298, 268
-0.999687, 167, 311, 182, 326
-0.999687, 81, 281, 96, 296
-0.999688, 177, 93, 192, 108
-0.999689, 183, 235, 198, 250
-0.999689, 283, 303, 298, 318
-0.999689, 403, 293, 418, 308
-0.999689, 285, 317, 300, 332
-0.999691, 129, 305, 144, 320
-0.999692, 233, 237, 248, 252
-0.999692, 191, 269, 206, 284
-0.999692, 233, 301, 248, 316
-0.999692, 405, 263, 420, 278
-0.999693, 145, 309, 160, 324
-0.999693, 193, 241, 208, 256
-0.999693, 217, 251, 232, 266
-0.999693, 263, 181, 278, 196
-0.999693, 267, 187, 282, 202
-0.999693, 137, 255, 152, 270
-0.999694, 29, 255, 44, 270
-0.999694, 107, 251, 122, 266
-0.999696, 481, 267, 496, 282
-0.999696, 5, 265, 20, 280
-0.999696, 7, 243, 22, 258
-0.999697, 193, 45, 320, 76
-0.999697, 323, 299, 338, 314
-0.999697, 241, 305, 256, 320
-0.999698, 271, 247, 286, 262
-0.999698, 117, 269, 132, 284
-0.999698, 379, 271, 394, 286
-0.999699, 259, 175, 274, 190
-0.9997, 439, 269, 454, 284
-0.9997, 321, 263, 336, 278
-0.9997, 207, 263, 222, 278
-0.999701, 319, 291, 334, 306
-0.999702, 79, 287, 94, 302
-0.999703, 425, 267, 440, 282
-0.999703, 237, 277, 252, 292
-0.999703, 89, 285, 104, 300
-0.999703, 219, 113, 234, 128
-0.999703, 195, 307, 210, 322
-0.999704, 357, 303, 372, 318
-0.999704, 465, 273, 480, 288
-0.999705, 383, 69, 398, 84
-0.999705, 237, 247, 252, 262
-0.999705, 179, 117, 194, 132
-0.999705, 317, 301, 332, 316
-0.999707, 183, 221, 198, 236
-0.999708, 273, 205, 288, 220
-0.999708, 103, 301, 118, 316
-0.999708, 153, 301, 168, 316
-0.999708, 445, 307, 460, 322
-0.999709, 379, 299, 394, 314
-0.999709, 165, 263, 180, 278
-0.999709, 37, 261, 52, 276
-0.99971, 191, 315, 206, 330
-0.99971, 83, 249, 98, 264
-0.999711, 229, 311, 244, 326
-0.999713, 219, 203, 234, 218
-0.999713, 475, 271, 490, 286
-0.999715, 257, 1, 500, 64
-0.999715, 123, 251, 138, 266
-0.999715, 309, 293, 324, 308
-0.999716, 175, 309, 190, 324
-0.999717, 371, 277, 386, 292
-0.999718, 173, 215, 188, 230
-0.999718, 141, 299, 156, 314
-0.999719, 39, 253, 54, 268
-0.999719, 253, 147, 268, 162
-0.99972, 343, 267, 358, 282
-0.999721, 97, 245, 112, 260
-0.999721, 97, 305, 112, 320
-0.999721, 43, 263, 58, 278
-0.999723, 199, 241, 214, 256
-0.999723, 23, 273, 38, 288
-0.999723, 425, 313, 440, 328
-0.999724, 159, 267, 174, 282
-0.999726, 411, 269, 426, 284
-0.999727, 181, 315, 196, 330
-0.999729, 29, 265, 44, 280
-0.999732, 329, 309, 344, 324
-0.999732, 413, 291, 428, 306
-0.999732, 309, 287, 324, 302
-0.999733, 407, 311, 422, 326
-0.999734, 361, 273, 376, 288
-0.999736, 257, 215, 272, 230
-0.999736, 93, 251, 108, 266
-0.999737, 395, 285, 410, 300
-0.999737, 265, 237, 280, 252
-0.999739, 453, 273, 468, 288
-0.999739, 329, 299, 344, 314
-0.99974, 205, 213, 220, 228
-0.99974, 223, 239, 238, 254
-0.999742, 217, 243, 232, 258
-0.999742, 253, 161, 268, 176
-0.999742, 123, 275, 138, 290
-0.999743, 419, 269, 434, 284
-0.999744, 323, 305, 338, 320
-0.999744, 237, 113, 252, 128
-0.999745, 433, 271, 448, 286
-0.999747, 17, 243, 32, 258
-0.999749, 223, 247, 238, 262
-0.999751, 135, 281, 150, 296
-0.999753, 443, 275, 458, 290
-0.999755, 351, 269, 366, 284
-0.999757, 405, 287, 420, 302
-0.999759, 265, 213, 280, 228
-0.99976, 469, 267, 484, 282
-0.99976, 193, 235, 208, 250
-0.999762, 211, 225, 226, 240
-0.999763, 387, 267, 402, 282
-0.999769, 221, 233, 236, 248
-0.999772, 253, 153, 268, 168
-0.999775, 403, 269, 418, 284
-0.999784, 147, 287, 162, 302
-0.999791, 231, 243, 246, 258
-0.999794, 431, 265, 446, 280
-0.999828, 329, 263, 344, 278
-0.999919, 337, 153, 464, 216
-0.999959, 129, 25, 384, 88
-1.00001, 469, 1, 500, 256
-1.00002, 33, 97, 64, 224
-1.00009, 377, 65, 408, 320
-1.00025, 97, 17, 224, 80
-1.00029, 345, 1, 376, 128
-1.00031, 433, 1, 496, 256
-1.00035, 1, 145, 500, 208
-1.00041, 1, 33, 256, 96
-1.00043, 445, 65, 476, 320
-1.00045, 1, 41, 500, 104
-1.00045, 65, 1, 320, 64
-1.00049, 441, 49, 472, 176
-1.00058, 49, 1, 176, 64
-1.00062, 385, 65, 448, 320
-1.00064, 457, 1, 488, 256
-1.00066, 425, 65, 456, 320
-1.00079, 1, 113, 64, 240
-1.00079, 281, 1, 312, 128
-1.00082, 405, 65, 436, 320
-1.00084, 369, 185, 496, 248
-1.00105, 1, 1, 500, 64
-1.00117, 429, 1, 460, 128
-1.00118, 353, 97, 384, 224
-1.00121, 441, 1, 472, 128
-1.00142, 405, 1, 436, 128
-1.00145, 369, 81, 400, 208
-1.0015, 409, 65, 472, 320
-1.00165, 161, 1, 416, 64
-1.00191, 253, 49, 284, 176
-1.00221, 457, 81, 488, 208
-1.00225, 361, 161, 392, 288
-1.0023, 409, 129, 472, 256
-1.00237, 321, 161, 384, 288
-1.00265, 221, 17, 252, 144
-1.00272, 417, 1, 448, 128
-1.00285, 177, 1, 304, 64
-1.00288, 1, 1, 128, 64
-1.00295, 177, 25, 304, 88
-1.00529, 369, 161, 496, 288
-1.00555, 433, 97, 496, 224
-1.00753, 353, 161, 416, 288
-1.00846, 161, 1, 224, 128
-1.01074, 385, 145, 448, 272
-1.01457, 433, 161, 496, 288
