1831
-0.380079, 1, 193, 291, 448
-0.410001, 1, 97, 291, 352
-0.523517, 33, 193, 288, 448
-0.553548, 1, 1, 291, 480
-0.579542, 1, 1, 291, 256
-0.619859, 1, 1, 256, 480
-0.648147, 1, 97, 256, 352
-0.833071, 49, 225, 176, 480
-0.851602, 65, 97, 192, 352
-0.856159, 1, 193, 128, 448
-0.862043, 1, 161, 291, 288
-0.86387, 129, 225, 256, 480
-0.869762, 65, 1, 192, 480
-0.878153, 17, 97, 144, 352
-0.879119, 113, 97, 240, 352
-0.885339, 1, 289, 291, 416
-0.89007, 161, 1, 288, 480
-0.891859, 1, 337, 291, 464
-0.897868, 113, 1, 240, 480
-0.898216, 1, 1, 128, 480
-0.898542, 1, 1, 256, 256
-0.899138, 1, 113, 291, 240
-0.905143, 33, 289, 288, 416
-0.906728, 161, 129, 288, 384
-0.9071, 1, 209, 291, 336
-0.909793, 1, 161, 256, 288
-0.916781, 161, 33, 288, 288
-0.918895, 33, 353, 288, 480
-0.919168, 1, 65, 291, 192
-0.919918, 49, 1, 176, 256
-0.921766, 1, 113, 256, 240
-0.925182, 33, 177, 160, 304
-0.927631, 1, 353, 128, 480
-0.928433, 81, 129, 208, 256
-0.928944, 33, 209, 288, 336
-0.929009, 49, 161, 112, 288
-0.929395, 81, 321, 208, 448
-0.931745, 97, 129, 160, 256
-0.933614, 97, 1, 224, 256
-0.934036, 121, 113, 184, 240
-0.93461, 137, 161, 200, 288
-0.935163, 97, 177, 160, 304
-0.93642, 65, 305, 128, 432
-0.936549, 97, 193, 224, 320
-0.937716, 161, 113, 288, 240
-0.938544, 129, 337, 256, 464
-0.939393, 1, 1, 128, 256
-0.940838, 33, 113, 160, 240
-0.941628, 1, 65, 256, 192
-0.942113, 161, 353, 224, 416
-0.942175, 89, 321, 152, 448
-0.94247, 65, 241, 192, 368
-0.942562, 57, 353, 120, 480
-0.94313, 49, 177, 112, 240
-0.943372, 73, 145, 136, 272
-0.945408, 73, 193, 136, 320
-0.945778, 1, 305, 128, 432
-0.945862, 89, 337, 152, 400
-0.94598, 1, 129, 64, 256
-0.946919, 65, 353, 128, 416
-0.947986, 161, 289, 224, 416
-0.948016, 161, 273, 288, 400
-0.948117, 209, 361, 272, 424
-0.948379, 113, 105, 176, 168
-0.948598, 121, 337, 184, 400
-0.948694, 161, 209, 288, 336
-0.949395, 145, 161, 272, 288
-0.949832, 97, 185, 160, 248
-0.949953, 145, 113, 208, 240
-0.950211, 81, 81, 208, 208
-0.950506, 153, 193, 216, 256
-0.950932, 225, 97, 288, 224
-0.951037, 81, 241, 144, 368
-0.95122, 113, 361, 176, 424
-0.951553, 185, 345, 248, 408
-0.951598, 121, 129, 184, 192
-0.951791, 161, 337, 224, 464
-0.951857, 217, 337, 280, 400
-0.952003, 217, 337, 280, 464
-0.952292, 113, 161, 176, 224
-0.952353, 33, 65, 160, 192
-0.952402, 161, 193, 224, 320
-0.952513, 73, 145, 136, 208
-0.952773, 121, 305, 184, 432
-0.953146, 65, 329, 128, 392
-0.953645, 41, 209, 104, 336
-0.953981, 81, 377, 144, 440
-0.954473, 17, 353, 80, 416
-0.955166, 9, 337, 72, 464
-0.955252, 89, 209, 152, 272
-0.955448, 217, 193, 280, 320
-0.956008, 137, 65, 200, 192
-0.956183, 1, 1, 291, 128
-0.956629, 97, 81, 160, 208
-0.956836, 113, 273, 240, 400
-0.957016, 49, 113, 112, 240
-0.957028, 41, 217, 104, 280
-0.957296, 121, 241, 184, 368
-0.957331, 1, 49, 64, 176
-0.957538, 161, 313, 224, 376
-0.957886, 137, 169, 200, 232
-0.957972, 185, 337, 248, 464
-0.958315, 97, 137, 160, 200
-0.958619, 121, 353, 184, 480
-0.958683, 81, 105, 144, 168
-0.958839, 89, 401, 152, 464
-0.958915, 57, 305, 120, 368
-0.959351, 193, 193, 256, 320
-0.960422, 225, 145, 288, 272
-0.960712, 217, 209, 280, 272
-0.960714, 217, 393, 280, 456
-0.960935, 65, 401, 128, 464
-0.961369, 57, 377, 120, 440
-0.961753, 65, 209, 128, 272
-0.961824, 101, 353, 132, 416
-0.961839, 9, 321, 72, 384
-0.962066, 73, 97, 136, 224
-0.962314, 81, 353, 208, 416
-0.962431, 81, 193, 144, 448
-0.96258, 113, 313, 176, 376
-0.962623, 161, 417, 224, 480
-0.963256, 177, 145, 240, 272
-0.963534, 73, 177, 136, 240
-0.96368, 177, 193, 240, 256
-0.963692, 113, 393, 176, 456
-0.963707, 81, 289, 144, 352
-0.963716, 1, 185, 64, 248
-0.964069, 153, 129, 216, 192
-0.96457, 57, 257, 120, 384
-0.964602, 25, 161, 88, 288
-0.964639, 33, 337, 96, 464
-0.964656, 217, 313, 280, 376
-0.964775, 89, 313, 152, 376
-0.96526, 161, 65, 288, 192
-0.965403, 153, 161, 216, 416
-0.965587, 49, 225, 112, 480
-0.965705, 33, 297, 96, 360
-0.965776, 1, 361, 128, 424
-0.965809, 105, 97, 168, 352
-0.965819, 225, 129, 288, 192
-0.965827, 129, 353, 256, 416
-0.965894, 217, 345, 248, 408
-0.965913, 101, 321, 132, 448
-0.96644, 185, 377, 248, 440
-0.966611, 41, 105, 104, 168
-0.966629, 217, 241, 280, 368
-0.966904, 17, 225, 144, 352
-0.966905, 65, 97, 128, 352
-0.966947, 217, 417, 280, 480
-0.966951, 113, 209, 176, 272
-0.967079, 49, 177, 176, 240
-0.96709, 89, 81, 152, 144
-0.967107, 25, 97, 88, 224
-0.967217, 137, 361, 200, 424
-0.967222, 49, 153, 112, 216
-0.967375, 73, 233, 136, 296
-0.967408, 137, 105, 200, 168
-0.967421, 177, 193, 240, 448
-0.967555, 217, 289, 280, 416
-0.967662, 141, 105, 172, 168
-0.967672, 121, 193, 184, 448
-0.967719, 97, 393, 128, 456
-0.967779, 185, 225, 248, 288
-0.967863, 65, 329, 192, 392
-0.967918, 169, 273, 232, 336
-0.968183, 153, 241, 216, 368
-0.968298, 41, 353, 104, 416
-0.968361, 9, 417, 72, 480
-0.968593, 129, 321, 256, 384
-0.968728, 113, 417, 176, 480
-0.968938, 109, 329, 140, 392
-0.968983, 97, 185, 224, 248
-0.969038, 153, 217, 216, 280
-0.969108, 137, 313, 200, 376
-0.969217, 41, 417, 104, 480
-0.969343, 33, 385, 96, 448
-0.969442, 201, 353, 232, 416
-0.96959, 1, 337, 128, 400
-0.96962, 1, 177, 64, 304
-0.969672, 153, 345, 184, 408
-0.969772, 177, 241, 240, 368
-0.969794, 193, 321, 256, 384
-0.969909, 1, 337, 32, 400
-0.969963, 161, 65, 224, 192
-0.970026, 153, 385, 216, 448
-0.970153, 81, 257, 144, 320
-0.970211, 17, 385, 144, 448
-0.97024, 201, 193, 264, 448
-0.970314, 41, 81, 104, 144
-0.970359, 193, 97, 256, 224
-0.970428, 1, 81, 64, 144
-0.970498, 121, 81, 184, 144
-0.970582, 1, 393, 64, 456
-0.970657, 89, 177, 120, 304
-0.971027, 1, 313, 128, 376
-0.971033, 9, 297, 72, 360
-0.971045, 225, 49, 288, 176
-0.971136, 25, 137, 88, 200
-0.97127, 217, 185, 280, 248
-0.971598, 125, 97, 156, 160
-0.971628, 141, 113, 172, 240
-0.971632, 89, 361, 120, 424
-0.971947, 173, 353, 204, 416
-0.971971, 193, 297, 256, 360
-0.971984, 137, 417, 200, 480
-0.971998, 125, 113, 156, 240
-0.972004, 145, 297, 272, 360
-0.972099, 145, 161, 176, 288
-0.972145, 161, 169, 224, 232
-0.972153, 25, 193, 88, 448
-0.972199, 161, 385, 288, 448
-0.972248, 93, 225, 124, 352
-0.972389, 65, 137, 192, 200
-0.972426, 65, 393, 192, 456
-0.972499, 105, 113, 136, 240
-0.972778, 109, 193, 140, 320
-0.97291, 193, 169, 256, 232
-0.972929, 121, 361, 152, 424
-0.97303, 17, 209, 144, 272
-0.973093, 57, 281, 120, 344
-0.973264, 65, 105, 192, 168
-0.973269, 161, 313, 192, 376
-0.973426, 77, 161, 108, 288
-0.973521, 17, 417, 144, 480
-0.973523, 17, 209, 80, 272
-0.973553, 33, 329, 96, 392
-0.973563, 77, 361, 108, 424
-0.973572, 169, 185, 200, 248
-0.973592, 157, 129, 188, 256
-0.973629, 85, 209, 116, 272
-0.973672, 201, 145, 264, 272
-0.973686, 129, 97, 192, 352
-0.97374, 1, 177, 128, 240
-0.973777, 129, 209, 256, 272
-0.973812, 109, 377, 140, 440
-0.974083, 121, 249, 184, 312
-0.97413, 1, 113, 64, 176
-0.974145, 157, 137, 188, 200
-0.974153, 225, 105, 288, 168
-0.974261, 57, 145, 88, 272
-0.974297, 57, 177, 88, 240
-0.974404, 93, 329, 124, 392
-0.974463, 161, 105, 224, 168
-0.97451, 85, 177, 116, 240
-0.974582, 141, 161, 172, 224
-0.974657, 217, 289, 280, 352
-0.974756, 1, 161, 64, 224
-0.974813, 141, 185, 172, 248
-0.974837, 145, 241, 208, 304
-0.975005, 97, 209, 128, 272
-0.975059, 81, 329, 112, 392
-0.975068, 113, 321, 144, 448
-0.97507, 117, 185, 148, 248
-0.975074, 97, 417, 224, 480
-0.97545, 17, 361, 48, 424
-0.975453, 89, 353, 120, 480
-0.975513, 49, 353, 80, 416
-0.975567, 181, 281, 212, 344
-0.975596, 65, 289, 192, 352
-0.975784, 149, 321, 180, 384
-0.975826, 145, 289, 208, 352
-0.975865, 145, 185, 272, 248
-0.976006, 121, 329, 152, 392
-0.976034, 65, 81, 128, 144
-0.976208, 229, 361, 260, 424
-0.976292, 121, 129, 152, 192
-0.976305, 97, 161, 224, 224
-0.976362, 193, 273, 256, 336
-0.976365, 185, 353, 216, 416
-0.976401, 193, 417, 256, 480
-0.976538, 33, 81, 160, 144
-0.976563, 161, 113, 192, 176
-0.976583, 69, 353, 100, 480
-0.976607, 85, 393, 116, 456
-0.976651, 189, 193, 220, 256
-0.976869, 1, 57, 64, 120
-0.976915, 161, 249, 288, 312
-0.976927, 101, 417, 132, 480
-0.977028, 153, 169, 184, 232
-0.977081, 161, 161, 288, 224
-0.97709, 141, 137, 172, 200
-0.977183, 97, 233, 160, 296
-0.977186, 1, 153, 128, 216
-0.977269, 249, 129, 280, 256
-0.977373, 113, 377, 240, 440
-0.977387, 133, 177, 164, 304
-0.977434, 85, 249, 116, 312
-0.977437, 1, 289, 64, 416
-0.977477, 121, 161, 152, 288
-0.977672, 221, 321, 252, 384
-0.977672, 49, 241, 112, 304
-0.977677, 65, 209, 192, 272
-0.97769, 49, 129, 112, 192
-0.977744, 97, 185, 128, 248
-0.977879, 153, 321, 184, 448
-0.977917, 161, 273, 288, 336
-0.977951, 1, 17, 256, 144
-0.977987, 225, 161, 288, 224
-0.978005, 105, 273, 136, 400
-0.9781, 225, 249, 288, 312
-0.97819, 81, 257, 208, 320
-0.978242, 237, 209, 268, 272
-0.978303, 161, 121, 288, 184
-0.978372, 49, 65, 112, 192
-0.978372, 241, 345, 272, 408
-0.978396, 137, 209, 168, 272
-0.978398, 73, 217, 104, 280
-0.978508, 89, 273, 120, 400
-0.978597, 189, 193, 220, 320
-0.978611, 41, 81, 72, 208
-0.978613, 61, 361, 92, 424
-0.978622, 25, 177, 88, 240
-0.97863, 89, 417, 120, 480
-0.978647, 161, 417, 288, 480
-0.978682, 225, 225, 288, 480
-0.978832, 57, 385, 88, 448
-0.978968, 177, 249, 240, 312
-0.979051, 189, 217, 220, 280
-0.979102, 117, 401, 148, 464
-0.979251, 93, 297, 124, 360
-0.979293, 165, 305, 196, 432
-0.979321, 185, 97, 248, 352
-0.979337, 1, 289, 128, 352
-0.979382, 113, 105, 240, 168
-0.979445, 257, 81, 288, 208
-0.979446, 197, 417, 228, 480
-0.979447, 249, 209, 280, 336
-0.979451, 169, 113, 200, 240
-0.979474, 69, 153, 100, 216
-0.979594, 57, 353, 88, 480
-0.979664, 113, 105, 144, 168
-0.979784, 33, 17, 160, 144
-0.979786, 153, 65, 216, 320
-0.979811, 253, 129, 284, 192
-0.97982, 113, 33, 240, 160
-0.979836, 169, 161, 200, 288
-0.979853, 201, 337, 232, 464
-0.979905, 97, 33, 160, 160
-0.979928, 13, 337, 44, 400
-0.979941, 5, 65, 36, 192
-0.980062, 41, 97, 104, 352
-0.980099, 165, 417, 196, 480
-0.980103, 73, 289, 104, 352
-0.980206, 77, 225, 108, 352
-0.980207, 41, 57, 104, 120
-0.980275, 133, 353, 164, 416
-0.980281, 5, 177, 36, 304
-0.980314, 17, 105, 144, 168
-0.980366, 81, 145, 112, 208
-0.980379, 97, 233, 224, 296
-0.98044, 205, 377, 236, 440
-0.980449, 41, 113, 72, 176
-0.980456, 1, 193, 64, 448
-0.980515, 121, 289, 184, 352
-0.980538, 193, 145, 256, 208
-0.980594, 185, 417, 216, 480
-0.980662, 73, 177, 104, 240
-0.980716, 93, 129, 124, 256
-0.98079, 173, 313, 204, 376
-0.980857, 65, 337, 96, 400
-0.980909, 157, 385, 188, 448
-0.980995, 105, 161, 136, 224
-0.981072, 9, 313, 40, 376
-0.981095, 193, 121, 256, 184
-0.981195, 9, 233, 72, 296
-0.981277, 97, 1, 160, 256
-0.981452, 181, 169, 212, 232
-0.981477, 181, 129, 212, 256
-0.981489, 129, 153, 160, 216
-0.981543, 57, 305, 88, 368
-0.981586, 233, 305, 264, 368
-0.981593, 57, 153, 88, 216
-0.981657, 145, 81, 208, 144
-0.981756, 25, 273, 88, 336
-0.981856, 29, 337, 60, 400
-0.981868, 65, 209, 96, 336
-0.98192, 217, 97, 280, 352
-0.982015, 165, 353, 196, 480
-0.982017, 1, 353, 32, 480
-0.982049, 81, 81, 208, 144
-0.982094, 153, 81, 184, 208
-0.982175, 253, 385, 284, 448
-0.982195, 1, 273, 64, 336
-0.982239, 113, 129, 240, 192
-0.982426, 261, 105, 291, 168
-0.98244, 249, 209, 280, 272
-0.982486, 213, 337, 244, 464
-0.982513, 77, 417, 108, 480
-0.982528, 45, 321, 76, 448
-0.982546, 109, 129, 140, 192
-0.982667, 77, 273, 108, 400
-0.982706, 193, 273, 224, 336
-0.982749, 253, 337, 284, 400
-0.982764, 237, 209, 268, 336
-0.982821, 1, 385, 32, 448
-0.982857, 169, 145, 200, 208
-0.982929, 153, 89, 184, 152
-0.983032, 177, 321, 208, 448
-0.983134, 41, 313, 72, 376
-0.983201, 5, 185, 36, 248
-0.983265, 1, 361, 32, 424
-0.983267, 1, 137, 64, 200
-0.983287, 69, 105, 100, 168
-0.983452, 61, 417, 92, 480
-0.983453, 117, 161, 148, 224
-0.98351, 105, 241, 136, 304
-0.983511, 125, 65, 156, 192
-0.98355, 189, 257, 220, 384
-0.983573, 205, 329, 236, 392
-0.983575, 65, 81, 96, 208
-0.98358, 217, 377, 248, 440
-0.983584, 177, 273, 208, 400
-0.983618, 177, 209, 208, 336
-0.983665, 9, 97, 72, 352
-0.983747, 157, 177, 188, 304
-0.983764, 237, 161, 268, 288
-0.983817, 41, 129, 72, 256
-0.983849, 9, 129, 40, 256
-0.983855, 201, 305, 232, 368
-0.983887, 261, 129, 291, 256
-0.983975, 77, 113, 108, 240
-0.984048, 93, 153, 124, 216
-0.984079, 85, 273, 116, 336
-0.984118, 25, 49, 88, 176
-0.984223, 145, 265, 208, 328
-0.984231, 145, 241, 176, 304
-0.984404, 141, 65, 172, 192
-0.984419, 185, 289, 248, 416
-0.984448, 21, 297, 52, 360
-0.984523, 201, 249, 264, 312
-0.984533, 125, 241, 156, 368
-0.984577, 129, 185, 160, 248
-0.984593, 245, 81, 276, 208
-0.984595, 73, 385, 104, 448
-0.984611, 249, 297, 280, 360
-0.984646, 257, 353, 288, 480
-0.984723, 169, 393, 200, 456
-0.984778, 149, 209, 180, 272
-0.984836, 89, 105, 120, 168
-0.984867, 173, 121, 204, 184
-0.984898, 109, 209, 140, 272
-0.984967, 225, 81, 288, 144
-0.98497, 53, 129, 84, 192
-0.985011, 17, 233, 144, 296
-0.985034, 209, 417, 240, 480
-0.985096, 185, 377, 216, 440
-0.985139, 13, 337, 44, 464
-0.985148, 253, 257, 284, 384
-0.985273, 201, 201, 232, 264
-0.985277, 221, 209, 252, 272
-0.985334, 33, 57, 160, 120
-0.985366, 233, 113, 264, 240
-0.985366, 253, 361, 284, 424
-0.985425, 53, 217, 84, 280
-0.98543, 1, 265, 128, 328
-0.985457, 5, 209, 36, 272
-0.98559, 105, 1, 168, 480
-0.9856, 129, 73, 256, 136
-0.985615, 73, 33, 136, 160
-0.985616, 133, 329, 164, 392
-0.985629, 45, 177, 76, 304
-0.9859, 181, 249, 212, 312
-0.985909, 53, 97, 84, 224
-0.985926, 169, 289, 200, 352
-0.986143, 33, 289, 96, 416
-0.986216, 105, 265, 136, 328
-0.986238, 125, 73, 156, 136
-0.986298, 245, 169, 276, 232
-0.986334, 1, 1, 64, 128
-0.986389, 13, 385, 44, 448
-0.986417, 245, 321, 276, 448
-0.986462, 41, 137, 72, 200
-0.986501, 193, 145, 224, 272
-0.986692, 41, 417, 72, 480
-0.986796, 241, 385, 272, 448
-0.986833, 37, 193, 68, 256
-0.986839, 101, 105, 132, 168
-0.986848, 177, 209, 208, 272
-0.986933, 201, 193, 232, 320
-0.987, 49, 1, 112, 256
-0.987027, 65, 57, 128, 120
-0.987054, 125, 353, 156, 480
-0.987243, 161, 97, 288, 160
-0.987317, 121, 1, 184, 256
-0.987407, 145, 1, 208, 480
-0.987459, 33, 353, 288, 416
-0.98749, 33, 329, 288, 392
-0.987493, 49, 1, 112, 480
-0.987668, 145, 225, 176, 352
-0.98768, 81, 1, 144, 480
-0.987774, 225, 337, 256, 464
-0.987782, 113, 333, 176, 364
-0.987927, 25, 349, 88, 380
-0.987991, 25, 145, 56, 272
-0.988048, 25, 65, 56, 192
-0.988054, 153, 201, 216, 232
-0.98808, 57, 425, 120, 456
-0.988109, 129, 57, 192, 120
-0.988132, 185, 49, 248, 176
-0.988231, 193, 349, 256, 380
-0.988282, 65, 333, 128, 364
-0.988375, 129, 117, 192, 148
-0.988377, 153, 349, 216, 380
-0.988438, 73, 381, 136, 412
-0.988455, 217, 337, 280, 368
-0.98847, 169, 429, 232, 460
-0.988554, 93, 81, 124, 208
-0.988559, 97, 201, 160, 232
-0.988584, 189, 353, 220, 480
-0.988695, 165, 257, 196, 384
-0.988736, 261, 193, 291, 320
-0.988785, 169, 337, 232, 368
-0.988821, 105, 109, 168, 140
-0.988843, 97, 349, 160, 380
-0.988866, 89, 329, 152, 360
-0.988869, 89, 57, 152, 120
-0.988885, 9, 337, 72, 368
-0.988894, 9, 425, 72, 456
-0.988904, 49, 297, 112, 328
-0.98891, 121, 133, 184, 164
-0.988929, 129, 353, 192, 384
-0.988929, 105, 189, 168, 220
-0.988997, 49, 361, 112, 392
-0.98906, 201, 257, 232, 384
-0.989101, 73, 145, 136, 176
-0.989168, 41, 1, 104, 128
-0.989178, 113, 377, 176, 408
-0.98918, 137, 189, 200, 220
-0.9892, 169, 381, 232, 412
-0.989202, 17, 129, 144, 192
-0.989235, 49, 349, 112, 380
-0.989291, 121, 157, 184, 188
-0.989406, 137, 17, 200, 144
-0.989408, 217, 429, 280, 460
-0.989461, 81, 393, 144, 424
-0.989464, 129, 101, 192, 132
-0.989488, 73, 353, 136, 384
-0.989489, 201, 297, 264, 328
-0.989504, 201, 97, 264, 160
-0.98953, 121, 169, 184, 200
-0.989599, 217, 385, 280, 416
-0.989624, 49, 181, 112, 212
-0.989642, 65, 213, 128, 244
-0.989668, 225, 353, 288, 384
-0.989674, 9, 381, 72, 412
-0.989689, 25, 337, 56, 464
-0.989701, 217, 369, 280, 400
-0.989709, 185, 201, 248, 232
-0.989728, 81, 113, 144, 144
-0.989783, 89, 213, 152, 244
-0.989793, 97, 169, 160, 200
-0.989808, 25, 361, 88, 392
-0.989825, 49, 389, 112, 420
-0.989863, 193, 361, 256, 392
-0.989931, 225, 177, 256, 304
-0.989939, 161, 189, 224, 220
-0.989946, 97, 141, 160, 172
-0.989971, 73, 241, 136, 272
-0.990013, 145, 429, 208, 460
-0.990025, 41, 221, 104, 252
-0.990052, 121, 321, 184, 352
-0.990067, 33, 385, 288, 448
-0.990085, 193, 429, 256, 460
-0.990091, 153, 325, 216, 356
-0.990098, 121, 429, 184, 460
-0.990127, 181, 81, 212, 208
-0.990149, 81, 429, 144, 460
-0.990163, 81, 289, 144, 320
-0.990165, 1, 357, 64, 388
-0.990186, 89, 253, 152, 284
-0.990231, 97, 129, 160, 160
-0.990231, 25, 297, 88, 328
-0.990236, 129, 201, 192, 232
-0.990243, 169, 441, 232, 472
-0.990266, 225, 301, 288, 332
-0.990291, 105, 389, 168, 420
-0.990305, 121, 145, 184, 176
-0.99032, 1, 297, 64, 328
-0.990339, 33, 305, 288, 368
-0.990344, 105, 365, 168, 396
-0.990357, 65, 157, 128, 188
-0.990359, 9, 201, 72, 232
-0.990369, 1, 417, 256, 480
-0.990373, 145, 337, 208, 368
-0.990375, 73, 369, 136, 400
-0.990394, 153, 113, 216, 144
-0.990396, 1, 185, 64, 216
-0.990407, 89, 157, 152, 188
-0.990411, 81, 317, 144, 348
-0.990417, 41, 101, 104, 132
-0.990421, 225, 213, 288, 244
-0.990426, 1, 193, 256, 256
-0.990433, 1, 313, 291, 376
-0.990435, 73, 229, 136, 260
-0.990443, 41, 329, 104, 360
-0.990446, 225, 113, 288, 144
-0.99045, 193, 337, 256, 368
-0.99045, 1, 353, 291, 416
-0.990453, 89, 97, 152, 128
-0.990453, 217, 1, 280, 480
-0.990466, 185, 233, 248, 264
-0.990476, 41, 437, 104, 468
-0.990478, 169, 365, 232, 396
-0.99048, 57, 285, 120, 316
-0.990483, 81, 277, 144, 308
-0.990507, 177, 213, 240, 244
-0.990518, 205, 129, 236, 256
-0.99052, 177, 301, 240, 332
-0.990521, 225, 225, 256, 352
-0.990521, 217, 325, 280, 356
-0.99054, 129, 365, 192, 396
-0.990543, 41, 117, 104, 148
-0.990544, 169, 285, 232, 316
-0.990573, 65, 305, 96, 432
-0.990617, 213, 81, 244, 208
-0.990637, 129, 389, 192, 420
-0.990661, 17, 437, 80, 468
-0.990667, 41, 201, 104, 232
-0.990676, 137, 441, 200, 472
-0.990683, 161, 17, 288, 144
-0.990715, 73, 201, 136, 232
-0.990721, 1, 1, 64, 480
-0.990732, 97, 241, 160, 272
-0.990751, 1, 305, 32, 432
-0.990757, 153, 313, 216, 344
-0.990778, 145, 213, 208, 244
-0.990782, 193, 385, 256, 416
-0.990787, 233, 65, 264, 192
-0.990827, 145, 129, 208, 160
-0.990851, 9, 213, 72, 244
-0.990858, 81, 417, 144, 448
-0.99086, 125, 289, 156, 416
-0.99088, 1, 117, 64, 148
-0.990894, 73, 441, 136, 472
-0.990905, 153, 149, 216, 180
-0.990952, 49, 377, 112, 408
-0.990965, 81, 405, 144, 436
-0.990975, 1, 33, 64, 96
-0.990988, 113, 65, 144, 192
-0.990997, 217, 201, 280, 232
-0.991005, 105, 417, 168, 448
-0.991012, 57, 133, 120, 164
-0.991014, 73, 181, 136, 212
-0.991029, 225, 149, 288, 180
-0.991036, 145, 241, 208, 272
-0.99104, 193, 285, 256, 316
-0.991069, 89, 265, 152, 296
-0.991075, 153, 165, 216, 196
-0.99108, 25, 285, 88, 316
-0.991082, 217, 225, 280, 256
-0.991103, 129, 349, 256, 380
-0.99111, 193, 441, 256, 472
-0.991129, 9, 173, 72, 204
-0.991139, 1, 185, 291, 248
-0.991151, 1, 369, 64, 400
-0.991168, 49, 169, 112, 200
-0.991187, 113, 213, 176, 244
-0.991188, 49, 233, 112, 264
-0.991197, 165, 65, 196, 192
-0.9912, 1, 241, 64, 368
-0.991396, 81, 349, 208, 380
-0.991484, 1, 217, 256, 280
-0.99161, 193, 1, 256, 480
-0.991637, 1, 341, 128, 372
-0.991661, 257, 305, 288, 432
-0.991855, 17, 381, 144, 412
-0.991872, 1, 217, 291, 280
-0.991874, 33, 281, 288, 344
-0.991881, 17, 1, 80, 256
-0.991958, 1, 345, 32, 376
-0.991977, 141, 121, 172, 152
-0.99198, 209, 349, 240, 380
-0.991998, 153, 349, 184, 380
-0.992001, 113, 329, 144, 360
-0.992038, 93, 425, 124, 456
-0.99209, 105, 393, 136, 424
-0.992117, 121, 105, 152, 136
-0.992121, 93, 341, 124, 372
-0.992124, 81, 429, 208, 460
-0.992183, 165, 429, 196, 460
-0.992194, 201, 429, 232, 460
-0.992196, 105, 381, 136, 412
-0.992205, 5, 357, 36, 388
-0.992227, 117, 381, 148, 412
-0.992233, 169, 1, 232, 480
-0.992243, 149, 337, 180, 368
-0.992245, 81, 57, 208, 120
-0.992248, 93, 381, 124, 412
-0.992264, 121, 133, 152, 164
-0.992268, 33, 185, 160, 216
-0.992275, 165, 341, 196, 372
-0.992275, 157, 113, 188, 144
-0.992282, 107, 353, 122, 416
-0.992305, 145, 197, 176, 228
-0.992311, 93, 213, 124, 244
-0.992317, 113, 333, 240, 364
-0.992321, 165, 189, 196, 220
-0.992348, 221, 337, 252, 368
-0.992353, 141, 357, 172, 388
-0.992353, 113, 341, 144, 372
-0.992361, 101, 353, 132, 384
-0.992362, 137, 109, 168, 140
-0.992368, 57, 429, 88, 460
-0.992372, 93, 201, 124, 232
-0.992386, 49, 341, 80, 372
-0.992388, 13, 337, 44, 368
-0.992388, 89, 245, 120, 276
-0.992409, 141, 353, 172, 480
-0.992412, 101, 329, 132, 360
-0.992431, 149, 153, 180, 184
-0.992438, 221, 349, 252, 380
-0.992452, 77, 329, 108, 360
-0.992455, 61, 381, 92, 412
-0.992456, 33, 425, 160, 456
-0.99247, 65, 349, 96, 380
-0.992483, 105, 369, 136, 400
-0.992485, 111, 329, 126, 392
-0.99249, 1, 429, 32, 460
-0.992498, 65, 293, 96, 324
-0.992509, 93, 393, 124, 424
-0.992514, 81, 361, 112, 392
-0.99252, 189, 201, 220, 232
-0.992528, 169, 353, 200, 384
-0.99253, 57, 361, 88, 392
-0.992532, 93, 233, 124, 264
-0.992543, 205, 385, 236, 416
-0.992551, 189, 429, 220, 460
-0.992559, 137, 141, 168, 172
-0.99256, 73, 381, 104, 412
-0.992562, 149, 185, 180, 216
-0.992563, 105, 193, 136, 224
-0.992563, 141, 165, 172, 196
-0.992571, 1, 113, 256, 176
-0.992571, 201, 337, 232, 368
-0.992575, 201, 369, 232, 400
-0.992581, 125, 189, 156, 220
-0.992584, 157, 169, 188, 200
-0.992584, 205, 441, 236, 472
-0.992586, 153, 129, 184, 160
-0.992586, 157, 325, 188, 356
-0.992589, 17, 361, 48, 392
-0.992591, 93, 409, 124, 440
-0.992592, 1, 381, 32, 412
-0.992599, 193, 349, 224, 380
-0.9926, 33, 353, 160, 384
-0.992601, 213, 429, 244, 460
-0.992605, 105, 425, 136, 456
-0.992611, 1, 145, 256, 208
-0.992615, 37, 349, 68, 380
-0.992616, 177, 429, 208, 460
-0.992619, 181, 349, 212, 380
-0.992619, 173, 201, 204, 232
-0.992624, 153, 429, 184, 460
-0.992629, 49, 381, 80, 412
-0.99263, 125, 365, 156, 396
-0.992634, 57, 329, 88, 360
-0.992634, 45, 433, 76, 464
-0.992638, 157, 389, 188, 420
-0.992644, 253, 337, 284, 368
-0.992646, 101, 437, 132, 468
-0.992654, 77, 297, 108, 328
-0.992655, 81, 425, 112, 456
-0.992655, 181, 285, 212, 316
-0.992665, 81, 341, 112, 372
-0.992671, 165, 133, 196, 164
-0.992684, 13, 381, 44, 412
-0.992686, 65, 165, 96, 196
-0.992698, 113, 353, 144, 384
-0.992703, 225, 361, 256, 392
-0.992712, 257, 125, 288, 156
-0.992721, 65, 333, 192, 364
-0.992737, 85, 285, 116, 316
-0.992737, 161, 157, 192, 188
-0.992743, 109, 137, 140, 168
-0.992744, 101, 337, 116, 400
-0.992744, 115, 393, 130, 456
-0.992745, 89, 181, 120, 212
-0.992747, 121, 145, 152, 176
-0.992751, 89, 257, 120, 288
-0.992759, 105, 405, 136, 436
-0.992761, 233, 337, 264, 368
-0.992761, 145, 209, 176, 240
-0.992765, 53, 181, 84, 212
-0.992767, 33, 169, 288, 232
-0.992767, 189, 217, 220, 248
-0.992772, 121, 117, 152, 148
-0.992779, 73, 221, 104, 252
-0.992787, 177, 381, 208, 412
-0.992788, 49, 301, 80, 332
-0.992789, 261, 113, 291, 144
-0.992791, 1, 181, 32, 212
-0.992795, 73, 241, 104, 272
-0.992795, 1, 273, 291, 336
-0.992803, 93, 365, 124, 396
-0.992808, 253, 433, 284, 464
-0.99281, 117, 205, 148, 236
-0.992812, 161, 441, 192, 472
-0.992816, 41, 329, 72, 360
-0.992817, 149, 101, 180, 132
-0.992818, 89, 325, 120, 356
-0.992819, 53, 393, 84, 424
-0.992819, 153, 141, 184, 172
-0.992824, 121, 157, 152, 188
-0.992826, 41, 121, 72, 152
-0.992829, 45, 361, 76, 392
-0.992834, 201, 301, 232, 332
-0.992837, 157, 361, 188, 392
-0.99284, 261, 449, 291, 480
-0.992841, 177, 181, 208, 212
-0.992848, 129, 169, 160, 200
-0.992849, 137, 153, 168, 184
-0.992851, 81, 201, 208, 232
-0.992852, 25, 349, 56, 380
-0.992856, 129, 429, 256, 460
-0.992857, 117, 393, 148, 424
-0.992862, 29, 297, 60, 328
-0.992863, 1, 441, 32, 472
-0.992866, 217, 385, 248, 416
-0.992873, 49, 33, 80, 160
-0.992893, 65, 381, 192, 412
-0.992914, 169, 81, 232, 144
-0.993016, 193, 81, 224, 208
-0.993077, 161, 337, 288, 368
-0.993109, 99, 393, 114, 456
-0.993156, 161, 385, 288, 416
-0.993159, 117, 337, 132, 400
-0.993179, 221, 289, 252, 416
-0.993239, 219, 345, 234, 408
-0.993248, 123, 321, 138, 384
-0.993275, 1, 365, 128, 396
-0.993295, 105, 185, 120, 248
-0.993307, 189, 305, 220, 432
-0.99335, 167, 345, 182, 408
-0.993374, 225, 345, 240, 408
-0.993422, 161, 365, 288, 396
-0.993425, 1, 113, 291, 176
-0.993482, 213, 193, 244, 320
-0.993514, 73, 1, 136, 256
-0.993597, 107, 377, 122, 440
-0.993598, 105, 401, 120, 464
-0.993608, 1, 377, 291, 440
-0.993635, 17, 393, 144, 424
-0.993665, 95, 353, 110, 416
-0.993692, 221, 129, 252, 256
-0.9937, 161, 129, 176, 192
-0.993709, 173, 353, 188, 416
-0.993748, 81, 189, 208, 220
-0.993751, 17, 289, 48, 416
-0.993769, 81, 141, 208, 172
-0.993801, 161, 301, 288, 332
-0.993805, 133, 97, 148, 160
-0.993818, 113, 381, 240, 412
-0.993842, 161, 321, 176, 384
-0.993847, 7, 345, 22, 408
-0.993885, 145, 105, 160, 168
-0.993892, 33, 201, 160, 232
-0.993894, 1, 297, 128, 328
-0.993895, 201, 353, 216, 416
-0.993936, 235, 337, 250, 400
-0.993959, 159, 345, 174, 408
-0.993962, 33, 241, 288, 304
-0.993982, 17, 213, 144, 244
-0.994006, 125, 361, 140, 424
-0.994034, 1, 33, 128, 96
-0.994034, 129, 49, 256, 112
-0.994067, 257, 33, 288, 160
-0.994078, 13, 345, 28, 408
-0.994082, 97, 209, 112, 272
-0.994123, 193, 73, 256, 136
-0.994129, 57, 177, 72, 240
-0.99414, 209, 353, 224, 416
-0.994159, 81, 169, 208, 200
-0.994177, 65, 321, 192, 352
-0.994182, 113, 365, 240, 396
-0.994197, 237, 361, 252, 424
-0.994223, 195, 193, 210, 256
-0.994236, 1, 329, 128, 360
-0.994237, 17, 193, 48, 320
-0.994239, 97, 177, 112, 240
-0.994248, 101, 361, 116, 424
-0.99428, 145, 217, 272, 248
-0.994298, 59, 353, 74, 416
-0.9943, 119, 369, 134, 432
-0.994322, 93, 401, 108, 464
-0.994323, 1, 89, 256, 152
-0.994342, 111, 417, 126, 480
-0.994355, 23, 353, 38, 416
-0.994445, 195, 353, 210, 416
-0.994455, 81, 113, 208, 144
-0.994457, 65, 365, 192, 396
-0.994459, 155, 321, 170, 384
-0.994469, 161, 57, 224, 120
-0.994484, 1, 401, 291, 464
-0.994484, 29, 17, 60, 144
-0.994497, 173, 313, 188, 376
-0.994536, 33, 437, 160, 468
-0.994564, 117, 313, 132, 376
-0.994588, 153, 273, 184, 400
-0.994617, 1, 345, 16, 408
-0.994628, 169, 377, 184, 440
-0.99465, 1, 89, 291, 152
-0.994658, 167, 321, 182, 384
-0.994667, 65, 289, 192, 320
-0.994673, 167, 105, 182, 168
-0.994674, 93, 329, 108, 392
-0.994694, 49, 33, 176, 96
-0.994736, 139, 105, 154, 168
-0.994743, 25, 1, 88, 480
-0.994756, 65, 393, 192, 424
-0.994761, 89, 177, 104, 240
-0.994775, 67, 361, 82, 424
-0.994797, 65, 213, 192, 244
-0.994807, 129, 329, 144, 392
-0.994854, 173, 121, 188, 184
-0.994861, 155, 129, 170, 192
-0.994863, 1, 173, 128, 204
-0.994886, 201, 193, 216, 256
-0.994932, 189, 353, 204, 416
-0.994936, 3, 177, 18, 240
-0.994944, 93, 377, 108, 440
-0.994949, 181, 281, 196, 344
-0.994961, 113, 441, 240, 472
-0.994967, 65, 153, 192, 184
-0.994973, 213, 417, 228, 480
-0.994975, 121, 105, 136, 168
-0.994987, 237, 257, 268, 384
-0.994992, 149, 209, 164, 272
-0.994995, 181, 353, 196, 416
-0.995003, 1, 17, 32, 144
-0.99501, 185, 1, 248, 256
-0.995021, 113, 369, 128, 432
-0.995021, 153, 177, 168, 240
-0.995025, 97, 245, 224, 276
-0.995032, 161, 441, 288, 472
-0.995033, 89, 217, 104, 280
-0.995046, 87, 257, 102, 320
-0.995052, 111, 217, 126, 280
-0.995069, 195, 217, 210, 280
-0.995074, 141, 289, 172, 416
-0.995077, 171, 417, 186, 480
-0.995087, 247, 209, 262, 272
-0.995115, 185, 193, 200, 256
-0.995128, 97, 225, 224, 256
-0.995131, 161, 281, 288, 312
-0.995133, 1, 153, 291, 216
-0.995137, 33, 101, 160, 132
-0.995137, 191, 249, 206, 312
-0.99514, 15, 377, 30, 440
-0.995144, 155, 209, 170, 272
-0.995147, 33, 193, 64, 320
-0.995158, 231, 361, 246, 424
-0.995161, 225, 1, 288, 256
-0.995188, 97, 249, 112, 312
-0.995203, 65, 129, 192, 160
-0.995215, 141, 361, 156, 424
-0.995216, 81, 417, 208, 448
-0.995219, 127, 113, 142, 176
-0.995233, 83, 297, 98, 360
-0.995234, 121, 401, 136, 464
-0.995242, 87, 361, 102, 424
-0.995248, 217, 57, 280, 120
-0.995263, 5, 321, 20, 384
-0.995292, 75, 153, 90, 216
-0.995299, 229, 321, 244, 384
-0.995307, 97, 193, 128, 448
-0.995313, 219, 369, 234, 432
-0.995327, 265, 209, 280, 272
-0.995331, 61, 137, 76, 200
-0.995338, 161, 125, 288, 156
-0.99534, 15, 177, 30, 240
-0.995343, 75, 361, 90, 424
-0.995345, 161, 325, 288, 356
-0.995353, 81, 65, 112, 192
-0.995361, 151, 97, 166, 160
-0.995369, 145, 205, 272, 236
-0.995383, 269, 121, 284, 184
-0.995384, 115, 193, 130, 256
-0.995387, 1, 285, 128, 316
-0.99541, 241, 337, 256, 400
-0.995417, 207, 417, 222, 480
-0.995426, 19, 329, 34, 392
-0.995471, 143, 185, 158, 248
-0.995472, 145, 225, 176, 480
-0.995473, 241, 305, 256, 368
-0.99549, 131, 361, 146, 424
-0.995494, 87, 321, 102, 384
-0.995512, 235, 209, 250, 272
-0.995515, 243, 361, 258, 424
-0.995521, 79, 217, 94, 280
-0.995524, 221, 321, 236, 384
-0.995539, 177, 417, 192, 480
-0.995547, 29, 337, 44, 400
-0.995557, 201, 417, 216, 480
-0.995567, 29, 361, 44, 424
-0.995577, 133, 121, 148, 184
-0.99559, 99, 417, 114, 480
-0.995595, 145, 233, 272, 264
-0.995596, 83, 145, 98, 208
-0.995597, 163, 377, 178, 440
-0.99561, 149, 337, 164, 400
-0.995617, 65, 393, 80, 456
-0.995624, 33, 113, 160, 144
-0.995641, 89, 97, 120, 352
-0.995646, 161, 193, 288, 224
-0.995658, 87, 401, 102, 464
-0.995664, 11, 417, 26, 480
-0.995672, 53, 337, 68, 400
-0.995684, 25, 33, 88, 96
-0.995691, 13, 321, 28, 384
-0.995693, 185, 169, 200, 232
-0.995714, 143, 137, 158, 200
-0.99572, 247, 337, 262, 400
-0.99572, 161, 253, 288, 284
-0.995723, 109, 193, 140, 448
-0.995736, 113, 285, 240, 316
-0.995753, 199, 377, 214, 440
-0.995756, 65, 305, 192, 336
-0.995766, 265, 369, 280, 432
-0.995768, 193, 49, 256, 112
-0.99579, 131, 153, 146, 216
-0.99579, 17, 225, 144, 256
-0.995794, 59, 417, 74, 480
-0.995795, 113, 125, 240, 156
-0.995804, 33, 141, 160, 172
-0.995808, 197, 273, 212, 336
-0.995809, 117, 169, 132, 232
-0.995822, 11, 201, 26, 264
-0.995822, 143, 209, 158, 272
-0.99583, 273, 417, 288, 480
-0.995851, 185, 193, 216, 448
-0.995859, 103, 225, 118, 288
-0.995867, 51, 313, 66, 376
-0.995876, 145, 149, 272, 180
-0.995912, 65, 277, 192, 308
-0.995926, 161, 313, 288, 344
-0.995938, 113, 393, 240, 424
-0.99597, 57, 225, 88, 480
-0.995999, 245, 33, 276, 160
-0.996013, 1, 65, 256, 128
-0.996015, 161, 17, 224, 144
-0.996044, 93, 33, 124, 160
-0.996053, 161, 161, 288, 192
-0.996055, 81, 101, 208, 132
-0.99608, 69, 193, 100, 448
-0.996111, 1, 309, 128, 340
-0.996126, 161, 417, 288, 448
-0.996167, 81, 265, 208, 296
-0.996173, 1, 249, 291, 312
-0.996194, 157, 129, 188, 384
-0.996196, 17, 413, 144, 444
-0.99624, 85, 193, 116, 448
-0.996249, 161, 113, 288, 144
-0.996274, 101, 97, 132, 352
-0.996294, 157, 225, 188, 480
-0.996299, 17, 125, 144, 156
-0.996314, 9, 193, 40, 448
-0.996329, 145, 137, 272, 168
-0.996348, 1, 161, 128, 192
-0.996359, 173, 193, 204, 448
-0.996361, 133, 193, 164, 448
-0.996363, 45, 193, 76, 448
-0.996367, 145, 97, 176, 352
-0.996373, 121, 65, 152, 320
-0.996396, 33, 89, 160, 120
-0.996415, 213, 193, 244, 448
-0.996429, 61, 33, 92, 160
-0.996491, 5, 341, 20, 372
-0.996493, 113, 333, 128, 364
-0.996525, 161, 181, 288, 212
-0.996534, 113, 297, 240, 328
-0.99654, 57, 129, 88, 384
-0.996544, 129, 101, 256, 132
-0.996545, 105, 201, 120, 232
-0.996569, 165, 341, 180, 372
-0.996586, 219, 341, 234, 372
-0.996631, 59, 341, 74, 372
-0.996658, 161, 397, 288, 428
-0.996659, 253, 193, 284, 448
-0.99666, 133, 97, 164, 352
-0.996679, 107, 421, 122, 452
-0.996684, 161, 269, 288, 300
-0.996718, 145, 113, 160, 144
-0.996719, 33, 237, 160, 268
-0.996726, 49, 33, 112, 96
-0.996763, 121, 321, 136, 352
-0.996768, 103, 341, 118, 372
-0.996772, 165, 429, 180, 460
-0.996774, 33, 249, 160, 280
-0.996787, 65, 257, 96, 384
-0.996833, 33, 69, 160, 100
-0.99685, 113, 425, 128, 456
-0.996859, 225, 193, 256, 448
-0.99686, 215, 429, 230, 460
-0.996901, 125, 17, 156, 144
-0.996907, 213, 241, 244, 368
-0.996927, 41, 273, 72, 400
-0.996937, 155, 337, 170, 368
-0.996937, 153, 33, 184, 160
-0.996942, 147, 357, 162, 388
-0.996969, 113, 321, 240, 352
-0.996972, 165, 353, 180, 384
-0.997003, 117, 381, 132, 412
-0.997007, 15, 381, 30, 412
-0.997022, 11, 429, 26, 460
-0.997066, 169, 385, 184, 416
-0.997077, 201, 193, 232, 448
-0.997082, 169, 97, 200, 352
-0.997102, 99, 381, 114, 412
-0.997108, 59, 429, 74, 460
-0.997113, 77, 97, 108, 352
-0.997114, 127, 381, 142, 412
-0.997125, 23, 357, 38, 388
-0.997134, 213, 349, 228, 380
-0.997136, 101, 425, 116, 456
-0.997146, 125, 337, 140, 368
-0.997148, 67, 381, 82, 412
-0.99715, 95, 213, 110, 244
-0.997151, 227, 337, 242, 368
-0.997154, 135, 125, 150, 156
-0.997161, 17, 357, 32, 388
-0.997166, 5, 225, 36, 352
-0.997176, 137, 105, 152, 136
-0.997178, 117, 393, 132, 424
-0.99718, 15, 341, 30, 372
-0.997186, 195, 201, 210, 232
-0.997192, 267, 429, 282, 460
-0.997203, 53, 225, 84, 352
-0.997207, 225, 1, 288, 128
-0.99721, 171, 429, 186, 460
-0.997213, 227, 349, 242, 380
-0.997219, 1, 65, 291, 128
-0.997227, 109, 393, 124, 424
-0.997236, 209, 429, 224, 460
-0.99724, 1, 353, 16, 384
-0.997251, 159, 133, 174, 164
-0.997262, 275, 437, 290, 468
-0.997268, 93, 425, 108, 456
-0.997278, 157, 349, 172, 380
-0.99728, 107, 381, 122, 412
-0.997294, 97, 341, 112, 372
-0.997296, 115, 345, 130, 376
-0.997309, 121, 225, 152, 480
-0.997318, 219, 385, 234, 416
-0.997326, 67, 349, 82, 380
-0.997327, 81, 81, 208, 112
-0.997332, 219, 353, 234, 384
-0.997343, 63, 361, 78, 392
-0.997349, 171, 133, 186, 164
-0.997371, 89, 233, 104, 264
-0.997377, 11, 353, 26, 384
-0.99738, 111, 193, 126, 224
-0.997383, 189, 197, 204, 228
-0.997388, 89, 329, 104, 360
-0.997391, 17, 1, 48, 128
-0.997406, 173, 349, 188, 380
-0.99742, 161, 149, 176, 180
-0.997423, 203, 429, 218, 460
-0.997441, 241, 161, 272, 416
-0.997442, 159, 325, 174, 356
-0.997444, 151, 105, 166, 136
-0.997455, 177, 429, 192, 460
-0.997456, 233, 357, 248, 388
-0.997456, 211, 441, 226, 472
-0.997461, 81, 297, 96, 328
-0.997492, 33, 193, 64, 448
-0.997497, 53, 273, 84, 400
-0.997501, 267, 441, 282, 472
-0.997505, 99, 393, 114, 424
-0.997517, 1, 273, 128, 304
-0.997526, 65, 429, 80, 460
-0.997534, 81, 405, 208, 436
-0.997536, 219, 329, 234, 360
-0.997541, 5, 429, 20, 460
-0.997542, 163, 169, 178, 200
-0.99755, 201, 201, 216, 232
-0.997552, 141, 193, 156, 224
-0.997568, 197, 429, 212, 460
-0.997574, 189, 97, 220, 352
-0.99758, 3, 181, 18, 212
-0.997582, 207, 349, 222, 380
-0.997583, 179, 121, 194, 152
-0.997587, 145, 101, 160, 132
-0.997592, 153, 177, 168, 208
-0.997593, 5, 329, 20, 360
-0.997601, 153, 125, 168, 156
-0.997604, 155, 153, 170, 184
-0.997606, 199, 349, 214, 380
-0.997608, 99, 353, 114, 384
-0.997609, 53, 349, 68, 380
-0.997611, 93, 381, 108, 412
-0.997613, 181, 353, 196, 384
-0.997617, 187, 429, 202, 460
-0.997622, 151, 189, 166, 220
-0.997623, 125, 133, 140, 164
-0.997629, 59, 329, 74, 360
-0.997629, 29, 361, 44, 392
-0.997633, 239, 365, 254, 396
-0.99765, 197, 213, 212, 244
-0.997651, 217, 441, 232, 472
-0.997661, 91, 361, 106, 392
-0.997662, 265, 113, 280, 144
-0.99767, 181, 285, 196, 316
-0.997679, 115, 321, 130, 352
-0.997683, 131, 113, 146, 144
-0.997686, 173, 333, 188, 364
-0.997688, 1, 41, 256, 104
-0.997689, 169, 117, 184, 148
-0.997699, 113, 437, 128, 468
-0.997701, 141, 357, 156, 388
-0.997704, 105, 213, 120, 244
-0.997707, 33, 261, 160, 292
-0.997709, 29, 297, 44, 328
-0.997713, 105, 189, 120, 220
-0.997719, 21, 345, 36, 376
-0.99772, 119, 333, 134, 364
-0.997724, 21, 225, 52, 480
-0.997726, 113, 405, 128, 436
-0.997731, 173, 361, 188, 392
-0.997733, 209, 297, 224, 328
-0.997734, 139, 137, 154, 168
-0.997736, 125, 369, 140, 400
-0.997741, 63, 297, 78, 328
-0.997741, 147, 345, 162, 376
-0.997746, 235, 213, 250, 244
-0.997748, 121, 193, 136, 224
-0.997759, 109, 237, 124, 268
-0.997761, 207, 369, 222, 400
-0.997763, 107, 409, 122, 440
-0.997769, 275, 421, 290, 452
-0.997778, 221, 429, 236, 460
-0.997779, 5, 381, 20, 412
-0.997784, 233, 337, 248, 368
-0.997784, 53, 429, 68, 460
-0.997784, 49, 337, 64, 368
-0.997797, 161, 89, 288, 120
-0.997805, 261, 97, 291, 352
-0.997834, 113, 309, 240, 340
-0.997959, 149, 1, 180, 256
-0.998025, 229, 97, 260, 352
-0.998035, 1, 97, 32, 352
-0.998037, 81, 69, 208, 100
-0.998057, 213, 33, 244, 160
-0.998066, 213, 97, 244, 352
-0.998121, 169, 17, 200, 144
-0.998165, 45, 65, 76, 320
-0.998207, 217, 33, 280, 96
-0.998223, 105, 1, 136, 256
-0.99827, 129, 73, 256, 104
-0.998344, 201, 361, 264, 376
-0.998368, 9, 433, 72, 448
-0.998373, 153, 201, 216, 216
-0.99838, 25, 361, 88, 376
-0.99838, 201, 301, 264, 316
-0.998383, 89, 333, 152, 348
-0.99839, 97, 33, 160, 96
-0.998398, 49, 361, 112, 376
-0.9984, 169, 431, 232, 446
-0.998402, 137, 195, 200, 210
-0.998414, 129, 119, 192, 134
-0.998415, 169, 385, 232, 400
-0.998415, 113, 337, 176, 352
-0.998417, 121, 389, 184, 404
-0.998422, 33, 299, 96, 314
-0.998422, 113, 433, 176, 448
-0.998423, 145, 211, 208, 226
-0.998427, 9, 351, 72, 366
-0.99843, 97, 203, 160, 218
-0.99843, 113, 195, 176, 210
-0.99843, 169, 351, 232, 366
-0.998431, 65, 335, 128, 350
-0.998431, 17, 389, 80, 404
-0.998431, 57, 299, 120, 314
-0.998432, 65, 343, 128, 358
-0.998433, 129, 361, 192, 376
-0.998437, 169, 343, 232, 358
-0.99844, 209, 385, 272, 400
-0.998442, 113, 351, 176, 366
-0.998444, 65, 351, 128, 366
-0.998444, 161, 361, 224, 376
-0.99845, 129, 129, 192, 144
-0.998452, 105, 113, 168, 128
-0.998452, 105, 327, 168, 342
-0.998453, 89, 107, 152, 122
-0.998454, 169, 391, 232, 406
-0.998455, 57, 429, 120, 444
-0.998459, 89, 213, 152, 228
-0.998464, 81, 327, 144, 342
-0.998466, 97, 189, 160, 204
-0.998467, 133, 1, 164, 256
-0.998468, 49, 305, 112, 320
-0.998468, 1, 299, 64, 314
-0.998469, 169, 437, 232, 452
-0.99847, 13, 97, 44, 352
-0.99847, 177, 201, 240, 216
-0.998471, 225, 361, 288, 376
-0.998474, 113, 153, 176, 168
-0.998476, 49, 181, 112, 196
-0.998477, 89, 363, 152, 378
-0.998478, 217, 341, 280, 356
-0.998478, 93, 227, 124, 242
-0.998478, 217, 439, 280, 454
-0.998479, 225, 299, 256, 314
-0.998479, 49, 215, 112, 230
-0.998479, 113, 345, 176, 360
-0.998479, 113, 163, 176, 178
-0.998479, 57, 437, 120, 452
-0.99848, 101, 377, 132, 392
-0.99848, 13, 385, 44, 400
-0.99848, 117, 379, 148, 394
-0.99848, 153, 147, 184, 162
-0.998481, 121, 137, 184, 152
-0.998482, 217, 385, 248, 400
-0.998482, 129, 103, 160, 118
-0.998482, 1, 361, 64, 376
-0.998483, 73, 385, 136, 400
-0.998484, 65, 391, 128, 406
-0.998484, 101, 201, 132, 216
-0.998484, 5, 185, 36, 200
-0.998485, 97, 143, 160, 158
-0.998485, 49, 367, 112, 382
-0.998485, 121, 117, 152, 132
-0.998486, 189, 217, 220, 232
-0.998486, 89, 427, 120, 442
-0.998486, 93, 351, 124, 366
-0.998487, 9, 345, 72, 360
-0.998488, 185, 195, 216, 210
-0.998488, 13, 351, 44, 366
-0.998489, 149, 433, 180, 448
-0.99849, 141, 171, 172, 186
-0.99849, 9, 439, 72, 454
-0.99849, 241, 361, 272, 376
-0.998491, 65, 221, 128, 236
-0.998491, 113, 383, 176, 398
-0.998491, 133, 139, 164, 154
-0.998491, 129, 109, 192, 124
-0.998492, 13, 391, 44, 406
-0.998492, 1, 437, 32, 452
-0.998492, 201, 351, 264, 366
-0.998492, 49, 391, 80, 406
-0.998492, 217, 433, 280, 448
-0.998493, 113, 435, 144, 450
-0.998493, 169, 355, 200, 370
-0.998494, 257, 117, 288, 132
-0.998495, 53, 301, 84, 316
-0.998495, 109, 135, 140, 150
-0.998496, 165, 203, 196, 218
-0.998496, 89, 357, 152, 372
-0.998497, 237, 301, 268, 316
-0.998497, 201, 367, 264, 382
-0.998497, 41, 431, 72, 446
-0.998497, 149, 189, 180, 204
-0.998499, 153, 133, 184, 148
-0.998499, 145, 351, 176, 366
-0.9985, 113, 141, 144, 156
-0.9985, 205, 299, 236, 314
-0.9985, 185, 213, 248, 228
-0.998501, 9, 339, 72, 354
-0.998501, 217, 433, 248, 448
-0.998501, 157, 121, 188, 136
-0.998501, 73, 243, 136, 258
-0.998502, 81, 397, 144, 412
-0.998502, 117, 167, 148, 182
-0.998503, 25, 361, 56, 376
-0.998503, 105, 405, 136, 420
-0.998503, 105, 123, 168, 138
-0.998503, 225, 301, 288, 316
-0.998504, 125, 145, 156, 160
-0.998504, 33, 355, 96, 370
-0.998505, 161, 439, 192, 454
-0.998506, 93, 235, 124, 250
-0.998506, 137, 355, 200, 370
-0.998507, 165, 393, 196, 408
-0.998507, 141, 147, 172, 162
-0.998507, 53, 437, 84, 452
-0.998508, 105, 183, 168, 198
-0.99851, 93, 221, 124, 236
-0.99851, 149, 161, 180, 176
-0.998512, 161, 185, 192, 200
-0.998512, 65, 351, 96, 366
-0.998512, 93, 401, 124, 416
-0.998512, 165, 343, 196, 358
-0.998512, 129, 201, 192, 216
-0.998513, 145, 203, 176, 218
-0.998513, 177, 207, 240, 222
-0.998514, 169, 361, 200, 376
-0.998514, 165, 349, 196, 364
-0.998515, 109, 195, 140, 210
-0.998515, 25, 305, 88, 320
-0.998515, 17, 299, 48, 314
-0.998517, 29, 301, 60, 316
-0.998518, 145, 331, 208, 346
-0.998518, 121, 169, 184, 184
-0.998519, 121, 147, 184, 162
-0.99852, 153, 337, 184, 352
-0.99852, 1, 391, 32, 406
-0.99852, 193, 361, 224, 376
-0.998521, 109, 345, 140, 360
-0.998522, 201, 383, 232, 398
-0.998522, 225, 367, 288, 382
-0.998522, 157, 331, 188, 346
-0.998522, 225, 117, 288, 132
-0.998523, 101, 433, 132, 448
-0.998524, 61, 391, 92, 406
-0.998524, 89, 255, 120, 270
-0.998525, 1, 385, 32, 400
-0.998526, 217, 351, 248, 366
-0.998526, 149, 153, 180, 168
-0.998526, 105, 355, 136, 370
-0.998528, 177, 385, 208, 400
-0.998528, 101, 439, 132, 454
-0.998529, 129, 103, 192, 118
-0.998529, 157, 387, 188, 402
-0.99853, 93, 363, 124, 378
-0.998531, 65, 337, 96, 352
-0.998532, 149, 109, 180, 124
-0.998532, 25, 367, 88, 382
-0.998533, 161, 367, 224, 382
-0.998533, 141, 131, 172, 146
-0.998533, 49, 361, 80, 376
-0.998534, 81, 257, 144, 272
-0.998535, 225, 355, 288, 370
-0.998535, 85, 295, 116, 310
-0.998536, 105, 129, 168, 144
-0.998536, 97, 207, 128, 222
-0.998537, 9, 383, 72, 398
-0.998537, 137, 367, 200, 382
-0.998537, 165, 191, 196, 206
-0.998538, 113, 385, 144, 400
-0.998538, 61, 385, 92, 400
-0.998538, 97, 335, 128, 350
-0.998538, 97, 137, 160, 152
-0.998539, 169, 337, 232, 352
-0.998539, 145, 431, 208, 446
-0.998539, 1, 351, 32, 366
-0.99854, 41, 299, 72, 314
-0.99854, 89, 177, 152, 192
-0.99854, 89, 157, 152, 172
-0.998541, 205, 439, 236, 454
-0.998542, 73, 361, 104, 376
-0.998542, 49, 355, 80, 370
-0.998542, 73, 147, 136, 162
-0.998542, 1, 343, 32, 358
-0.998542, 157, 115, 188, 130
-0.998543, 145, 337, 208, 352
-0.998544, 217, 391, 280, 406
-0.998544, 33, 431, 96, 446
-0.998544, 133, 109, 164, 124
-0.998546, 49, 345, 80, 360
-0.998546, 213, 345, 244, 360
-0.998546, 177, 307, 240, 322
-0.998546, 49, 105, 112, 120
-0.998547, 89, 339, 152, 354
-0.998547, 9, 201, 72, 216
-0.998548, 101, 385, 132, 400
-0.998548, 9, 427, 72, 442
-0.998548, 153, 161, 168, 288
-0.998551, 9, 219, 72, 234
-0.998551, 185, 243, 248, 258
-0.998552, 145, 189, 208, 204
-0.998552, 97, 219, 160, 234
-0.998553, 1, 431, 32, 446
-0.998553, 225, 307, 288, 322
-0.998554, 41, 225, 104, 240
-0.998555, 113, 427, 176, 442
-0.998555, 49, 207, 112, 222
-0.998555, 137, 345, 200, 360
-0.998556, 89, 197, 152, 212
-0.998556, 73, 237, 136, 252
-0.998557, 137, 155, 200, 170
-0.998557, 129, 439, 192, 454
-0.998557, 137, 163, 200, 178
-0.998557, 121, 109, 152, 124
-0.998558, 177, 195, 240, 210
-0.998558, 153, 169, 216, 184
-0.998559, 41, 395, 104, 410
-0.998559, 53, 431, 84, 446
-0.998559, 49, 329, 112, 344
-0.998559, 201, 307, 264, 322
-0.99856, 85, 241, 116, 256
-0.998562, 109, 337, 140, 352
-0.998562, 81, 437, 144, 452
-0.998562, 193, 433, 256, 448
-0.998562, 145, 197, 176, 212
-0.998562, 153, 343, 184, 358
-0.998563, 81, 431, 144, 446
-0.998563, 129, 175, 192, 190
-0.998567, 125, 365, 156, 380
-0.998569, 205, 361, 236, 376
-0.998573, 205, 433, 236, 448
-0.998573, 99, 161, 114, 288
-0.998581, 189, 201, 220, 216
-0.998584, 101, 427, 132, 442
-0.998592, 161, 431, 192, 446
-0.998593, 61, 361, 92, 376
-0.998593, 141, 119, 172, 134
-0.998594, 115, 353, 130, 480
-0.998597, 77, 333, 108, 348
-0.998597, 205, 389, 236, 404
-0.998598, 205, 355, 236, 370
-0.9986, 157, 355, 188, 370
-0.998603, 85, 247, 116, 262
-0.998603, 157, 361, 188, 376
-0.998604, 13, 361, 44, 376
-0.998604, 165, 197, 196, 212
-0.998607, 97, 343, 128, 358
-0.998621, 121, 135, 152, 150
-0.998622, 93, 215, 124, 230
-0.99863, 111, 193, 126, 320
-0.998637, 221, 361, 252, 376
-0.99864, 65, 299, 96, 314
-0.998641, 113, 329, 144, 344
-0.998651, 105, 395, 136, 410
-0.998651, 147, 97, 162, 224
-0.998652, 1, 359, 32, 374
-0.998663, 57, 33, 88, 288
-0.998664, 107, 321, 122, 448
-0.998681, 101, 353, 116, 480
-0.998682, 141, 125, 172, 140
-0.998683, 145, 361, 176, 376
-0.998684, 253, 1, 284, 256
-0.998685, 49, 57, 176, 88
-0.998703, 1, 57, 128, 88
-0.998707, 1, 9, 128, 72
-0.998748, 29, 289, 60, 416
-0.99875, 105, 145, 120, 272
-0.998755, 59, 145, 74, 272
-0.99876, 141, 97, 156, 224
-0.998782, 89, 161, 104, 288
-0.998791, 169, 305, 184, 432
-0.998806, 95, 353, 110, 480
-0.998821, 95, 209, 110, 336
-0.998836, 129, 61, 256, 92
-0.998836, 169, 353, 184, 480
-0.998844, 265, 209, 280, 336
-0.998861, 169, 1, 200, 256
-0.99887, 111, 129, 126, 256
-0.998878, 161, 113, 176, 240
-0.998879, 105, 273, 120, 400
-0.998881, 65, 449, 192, 480
-0.998888, 197, 193, 212, 320
-0.998889, 11, 353, 26, 480
-0.998898, 147, 161, 162, 288
-0.998911, 67, 353, 82, 480
-0.998923, 3, 113, 18, 240
-0.998926, 1, 41, 291, 104
-0.998928, 79, 161, 94, 288
-0.998939, 201, 97, 232, 352
-0.998966, 155, 113, 170, 240
-0.998966, 81, 209, 96, 336
-0.998966, 115, 305, 130, 432
-0.998972, 65, 161, 80, 288
-0.998973, 277, 113, 291, 240
-0.998974, 159, 161, 174, 288
-0.998977, 101, 209, 116, 336
-0.998979, 175, 113, 190, 240
-0.99898, 121, 353, 136, 480
-0.998986, 117, 129, 132, 256
-0.998988, 163, 353, 178, 480
-0.998993, 61, 353, 76, 480
-0.998995, 125, 145, 140, 272
-0.998998, 3, 353, 18, 480
-0.999003, 139, 177, 154, 304
-0.999005, 85, 1, 116, 256
-0.999006, 87, 353, 102, 480
-0.999007, 177, 321, 192, 448
-0.999021, 253, 209, 268, 336
-0.999029, 183, 193, 198, 320
-0.99903, 267, 337, 282, 464
-0.999031, 267, 81, 282, 208
-0.999035, 87, 257, 102, 384
-0.999042, 251, 161, 266, 288
-0.999048, 189, 129, 204, 256
-0.999058, 33, 97, 64, 352
-0.99906, 73, 353, 88, 480
-0.999073, 93, 273, 108, 400
-0.999073, 123, 273, 138, 400
-0.999078, 203, 193, 218, 320
-0.999089, 241, 161, 256, 288
-0.999096, 117, 177, 132, 304
-0.999101, 7, 177, 22, 304
-0.999102, 71, 161, 86, 288
-0.999109, 49, 9, 176, 72
-0.999112, 99, 273, 114, 400
-0.999117, 127, 321, 142, 448
-0.999122, 13, 177, 28, 304
-0.999125, 247, 209, 262, 336
-0.999128, 265, 129, 280, 256
-0.999132, 259, 209, 274, 336
-0.999132, 131, 113, 146, 240
-0.999135, 1, 45, 128, 76
-0.999142, 219, 337, 234, 464
-0.999145, 193, 241, 208, 368
-0.99915, 115, 257, 130, 384
-0.999151, 175, 273, 190, 400
-0.999152, 261, 353, 276, 480
-0.999154, 9, 129, 24, 256
-0.999155, 189, 193, 204, 320
-0.999156, 81, 353, 96, 480
-0.999156, 15, 129, 30, 256
-0.999171, 65, 113, 80, 240
-0.999171, 255, 113, 270, 240
-0.999174, 199, 129, 214, 256
-0.999177, 163, 305, 178, 432
-0.999191, 43, 65, 58, 192
-0.999191, 211, 337, 226, 464
-0.999194, 275, 161, 290, 288
-0.999194, 73, 1, 104, 256
-0.999196, 187, 273, 202, 400
-0.9992, 181, 273, 196, 400
-0.999201, 239, 209, 254, 336
-0.999207, 53, 161, 68, 288
-0.99921, 133, 161, 148, 288
-0.999212, 125, 193, 140, 320
-0.999217, 7, 65, 22, 192
-0.999223, 1, 65, 16, 192
-0.999225, 89, 209, 104, 336
-0.999226, 17, 353, 32, 480
-0.99923, 55, 337, 70, 464
-0.99924, 13, 65, 28, 192
-0.999242, 57, 97, 72, 224
-0.999244, 165, 65, 180, 192
-0.999244, 51, 81, 66, 208
-0.999244, 259, 161, 274, 288
-0.999248, 47, 129, 62, 256
-0.999248, 205, 337, 220, 464
-0.99925, 135, 241, 150, 368
-0.999256, 261, 81, 276, 208
-0.999264, 239, 113, 254, 240
-0.999268, 71, 209, 86, 336
-0.999271, 145, 209, 160, 336
-0.99928, 165, 161, 180, 288
-0.999282, 249, 81, 264, 208
-0.999288, 201, 257, 216, 384
-0.999291, 197, 353, 212, 480
-0.999294, 153, 65, 168, 192
-0.999295, 233, 209, 248, 336
-0.999299, 87, 305, 102, 432
-0.999299, 225, 337, 240, 464
-0.999299, 1, 161, 16, 288
-0.999302, 117, 81, 132, 208
-0.999305, 89, 113, 104, 240
-0.999306, 129, 241, 144, 368
-0.999316, 21, 241, 52, 368
-0.999316, 23, 353, 38, 480
-0.999322, 169, 113, 184, 240
-0.999332, 1, 1, 32, 256
-0.999333, 25, 145, 40, 272
-0.999334, 209, 161, 224, 288
-0.999334, 267, 289, 282, 416
-0.999337, 99, 113, 114, 240
-0.999338, 277, 65, 291, 192
-0.999339, 183, 113, 198, 240
-0.999341, 125, 97, 140, 224
-0.999347, 61, 209, 76, 336
-0.999347, 253, 321, 268, 448
-0.999349, 147, 49, 162, 176
-0.99935, 231, 161, 246, 288
-0.999355, 191, 337, 206, 464
-0.999359, 169, 257, 184, 384
-0.999372, 81, 1, 112, 128
-0.999377, 1, 449, 128, 480
-0.999494, 161, 9, 288, 72
-0.999497, 233, 1, 264, 256
-0.999561, 1, 9, 64, 72
-0.999563, 181, 1, 212, 256
-0.99964, 21, 1, 52, 256
-0.999648, 151, 117, 166, 132
-0.999649, 125, 337, 140, 352
-0.99965, 115, 193, 130, 208
-0.999651, 159, 329, 174, 344
-0.999651, 271, 461, 286, 476
-0.999651, 3, 189, 18, 204
-0.999652, 89, 247, 104, 262
-0.999652, 113, 441, 128, 456
-0.999653, 173, 431, 188, 446
-0.999654, 99, 401, 114, 416
-0.999654, 147, 149, 162, 164
-0.999654, 99, 209, 114, 224
-0.999654, 155, 341, 170, 356
-0.999654, 125, 377, 140, 392
-0.999655, 125, 393, 140, 408
-0.999656, 141, 111, 156, 126
-0.999656, 105, 437, 120, 452
-0.999657, 151, 123, 166, 138
-0.999657, 27, 367, 42, 382
-0.999657, 115, 351, 130, 366
-0.999658, 105, 343, 120, 358
-0.999658, 131, 363, 146, 378
-0.999659, 269, 433, 284, 448
-0.999659, 123, 323, 138, 338
-0.99966, 219, 391, 234, 406
-0.999661, 143, 123, 158, 138
-0.999661, 155, 143, 170, 158
-0.999662, 163, 137, 178, 152
-0.999662, 135, 135, 150, 150
-0.999663, 167, 349, 182, 364
-0.999665, 171, 367, 186, 382
-0.999665, 67, 391, 82, 406
-0.999666, 89, 235, 104, 250
-0.999666, 57, 391, 72, 406
-0.999667, 7, 355, 22, 370
-0.999667, 179, 197, 194, 212
-0.999667, 125, 329, 140, 344
-0.999667, 149, 195, 164, 210
-0.999668, 99, 249, 114, 264
-0.999668, 193, 33, 224, 160
-0.999669, 61, 367, 76, 382
-0.999669, 217, 439, 232, 454
-0.99967, 165, 437, 180, 452
-0.99967, 127, 383, 142, 398
-0.999671, 215, 361, 230, 376
-0.999671, 145, 207, 160, 222
-0.999672, 267, 445, 282, 460
-0.999673, 57, 437, 72, 452
-0.999674, 115, 435, 130, 450
-0.999675, 113, 339, 128, 354
-0.999675, 87, 361, 102, 376
-0.999676, 167, 395, 182, 410
-0.999677, 163, 155, 178, 170
-0.999677, 67, 351, 82, 366
-0.999677, 111, 397, 126, 412
-0.999677, 105, 205, 120, 220
-0.999677, 137, 365, 152, 380
-0.999682, 145, 143, 160, 158
-0.999683, 13, 359, 28, 374
-0.999683, 15, 351, 30, 366
-0.999684, 197, 213, 212, 228
-0.999685, 141, 201, 156, 216
-0.999687, 57, 361, 72, 376
-0.999687, 193, 197, 208, 212
-0.999687, 171, 355, 186, 370
-0.999688, 87, 331, 102, 346
-0.999688, 97, 215, 112, 230
-0.99969, 15, 391, 30, 406
-0.999691, 241, 361, 256, 376
-0.999693, 1, 357, 16, 372
-0.999694, 207, 301, 222, 316
-0.999696, 151, 361, 166, 376
-0.999696, 157, 351, 172, 366
-0.999697, 157, 335, 172, 350
-0.999697, 211, 385, 226, 400
-0.999698, 69, 361, 84, 376
-0.999698, 133, 129, 148, 144
-0.9997, 213, 355, 228, 370
-0.9997, 173, 131, 188, 146
-0.999701, 157, 361, 172, 376
-0.999702, 227, 351, 242, 366
-0.999702, 147, 111, 162, 126
-0.999703, 33, 301, 48, 316
-0.999703, 239, 301, 254, 316
-0.999706, 203, 361, 218, 376
-0.999706, 135, 107, 150, 122
-0.999707, 157, 149, 172, 164
-0.999708, 81, 299, 96, 314
-0.999708, 275, 437, 290, 452
-0.999708, 229, 361, 244, 376
-0.999709, 31, 361, 46, 376
-0.999711, 153, 189, 168, 204
-0.999711, 219, 351, 234, 366
-0.999716, 175, 361, 190, 376
-0.999719, 163, 361, 178, 376
-0.99972, 181, 125, 196, 140
-0.999722, 219, 385, 234, 400
-0.999723, 89, 241, 104, 256
-0.999724, 187, 201, 202, 216
-0.999725, 13, 429, 28, 444
-0.999726, 109, 199, 124, 214
-0.999727, 141, 105, 156, 120
-0.99973, 59, 355, 74, 370
-0.999735, 113, 333, 128, 348
-0.999736, 67, 385, 82, 400
-0.999737, 117, 395, 132, 410
-0.999741, 269, 439, 284, 454
-0.999741, 63, 299, 78, 314
-0.999741, 107, 423, 122, 438
-0.999744, 63, 361, 78, 376
-0.999746, 113, 429, 128, 444
-0.99975, 19, 359, 34, 374
-0.999754, 59, 343, 74, 358
-0.999756, 165, 355, 180, 370
-0.999761, 209, 361, 224, 376
-0.999763, 57, 431, 72, 446
-0.999763, 5, 343, 20, 358
-0.999767, 195, 207, 210, 222
-0.999768, 117, 385, 132, 400
-0.999771, 25, 361, 40, 376
-0.999772, 15, 385, 30, 400
-0.999773, 115, 345, 130, 360
-0.999775, 217, 433, 232, 448
-0.999779, 235, 361, 250, 376
-0.99978, 167, 343, 182, 358
-0.999784, 33, 1, 64, 256
-0.999785, 163, 431, 178, 446
-0.999786, 169, 361, 184, 376
-0.9998, 145, 361, 160, 376
-0.999803, 141, 17, 172, 144
-0.999809, 219, 343, 234, 358
-0.99981, 145, 117, 160, 132
-0.999823, 167, 387, 182, 402
-0.999875, 213, 1, 244, 256
-0.999924, 1, 17, 256, 80
-0.999948, 161, 1, 288, 32
-0.999972, 201, 1, 232, 256
-1.00004, 49, 45, 176, 76
-1.00008, 17, 9, 144, 40
-1.00008, 97, 49, 224, 80
-1.00008, 185, 17, 248, 80
-1.00009, 161, 49, 288, 80
-1.00012, 113, 25, 240, 88
-1.00013, 49, 29, 176, 60
-1.00015, 145, 33, 208, 96
-1.00018, 1, 21, 128, 52
-1.00019, 113, 13, 240, 44
-1.00021, 1, 33, 128, 64
-1.00028, 65, 17, 192, 48
-1.00029, 65, 1, 192, 32
-1.00031, 161, 13, 288, 44
-1.00032, 161, 25, 288, 56
-1.00038, 97, 1, 224, 64
-1.00045, 113, 25, 240, 56
-1.00048, 113, 1, 240, 32
-1.00059, 161, 37, 288, 68
-1.00065, 225, 9, 288, 72
-1.00076, 97, 37, 224, 68
-1.00097, 1, 17, 291, 80
-1.00111, 73, 33, 136, 96
-1.00127, 121, 33, 184, 96
-1.00136, 113, 1, 144, 128
-1.00221, 225, 1, 256, 128
-1.00229, 185, 1, 248, 128
-1.00252, 181, 33, 212, 160
