1870
-0.130311, 1, 1, 500, 334
-0.291944, 65, 1, 320, 334
-0.357222, 1, 1, 500, 256
-0.47818, 257, 1, 500, 334
-0.484612, 161, 1, 416, 334
-0.597241, 33, 33, 288, 288
-0.651716, 225, 1, 480, 256
-0.732023, 129, 1, 384, 256
-0.837977, 177, 1, 304, 334
-0.838087, 81, 1, 208, 334
-0.839824, 17, 1, 144, 256
-0.84188, 129, 1, 256, 334
-0.851457, 1, 1, 128, 334
-0.864106, 225, 1, 352, 334
-0.866012, 1, 177, 500, 304
-0.867407, 65, 1, 192, 256
-0.867474, 1, 49, 500, 176
-0.871319, 1, 97, 500, 224
-0.875711, 369, 1, 496, 334
-0.885144, 337, 1, 464, 256
-0.887522, 145, 65, 272, 320
-0.894957, 321, 1, 448, 334
-0.895435, 273, 1, 400, 256
-0.897862, 225, 1, 352, 256
-0.898921, 1, 1, 500, 128
-0.904074, 65, 33, 320, 160
-0.905006, 33, 97, 288, 224
-0.917537, 257, 1, 500, 128
-0.923403, 1, 145, 256, 272
-0.923793, 25, 113, 88, 240
-0.92469, 1, 129, 128, 256
-0.925799, 97, 145, 352, 272
-0.92597, 273, 1, 400, 334
-0.927364, 49, 113, 176, 240
-0.930455, 129, 129, 256, 256
-0.930877, 193, 129, 448, 256
-0.93145, 33, 1, 160, 128
-0.933291, 49, 161, 176, 288
-0.936821, 1, 129, 64, 256
-0.937318, 1, 177, 64, 304
-0.937976, 97, 33, 224, 160
-0.938219, 73, 113, 136, 240
-0.938566, 49, 129, 112, 256
-0.939144, 177, 161, 304, 288
-0.939538, 1, 177, 128, 304
-0.940078, 193, 209, 448, 334
-0.940223, 193, 129, 256, 256
-0.941074, 97, 33, 160, 160
-0.941626, 97, 193, 224, 320
-0.941682, 17, 65, 144, 192
-0.942446, 97, 209, 352, 334
-0.94298, 217, 49, 280, 176
-0.943055, 153, 161, 216, 288
-0.943272, 97, 81, 160, 208
-0.943514, 257, 1, 384, 128
-0.943603, 129, 113, 192, 240
-0.945002, 161, 1, 416, 128
-0.945749, 217, 145, 280, 272
-0.946802, 225, 81, 480, 208
-0.947524, 401, 1, 464, 64
-0.948021, 9, 65, 72, 192
-0.948046, 177, 113, 304, 240
-0.948153, 33, 113, 96, 176
-0.948864, 57, 129, 120, 192
-0.949798, 193, 33, 320, 160
-0.94995, 193, 177, 256, 304
-0.950202, 121, 33, 184, 160
-0.950529, 25, 161, 88, 288
-0.950623, 1, 193, 256, 320
-0.951023, 33, 49, 96, 176
-0.951772, 169, 97, 232, 224
-0.95184, 73, 161, 136, 288
-0.951961, 377, 1, 440, 128
-0.952038, 65, 65, 128, 192
-0.952045, 281, 1, 344, 128
-0.95205, 105, 9, 168, 72
-0.952307, 361, 9, 424, 72
-0.952418, 105, 129, 168, 256
-0.952726, 369, 113, 496, 240
-0.952896, 153, 209, 216, 334
-0.953024, 305, 129, 432, 256
-0.953029, 249, 33, 312, 160
-0.953404, 369, 1, 496, 128
-0.953444, 145, 33, 272, 160
-0.953805, 241, 1, 304, 64
-0.954063, 241, 161, 304, 288
-0.95491, 257, 177, 384, 304
-0.955248, 393, 113, 456, 240
-0.955299, 185, 33, 248, 160
-0.955492, 369, 209, 496, 334
-0.955715, 177, 209, 304, 334
-0.955847, 433, 113, 496, 240
-0.955908, 1, 193, 64, 256
-0.955924, 217, 97, 280, 224
-0.956034, 33, 137, 96, 200
-0.956161, 97, 97, 160, 160
-0.956514, 153, 33, 216, 160
-0.956565, 129, 1, 192, 64
-0.95665, 233, 33, 296, 96
-0.956849, 425, 1, 488, 64
-0.95726, 49, 209, 176, 334
-0.957598, 97, 129, 160, 192
-0.957718, 57, 1, 120, 128
-0.957787, 49, 89, 112, 152
-0.957871, 33, 57, 96, 120
-0.958183, 9, 121, 72, 184
-0.95822, 329, 113, 392, 240
-0.958621, 25, 209, 88, 334
-0.95881, 137, 185, 200, 248
-0.95913, 225, 113, 352, 240
-0.959246, 1, 161, 64, 224
-0.959339, 433, 1, 496, 128
-0.959621, 273, 185, 336, 248
-0.959642, 65, 169, 128, 232
-0.960279, 97, 81, 224, 208
-0.960352, 129, 193, 192, 320
-0.960611, 25, 1, 88, 128
-0.960762, 433, 209, 496, 334
-0.961087, 105, 33, 168, 96
-0.961301, 273, 177, 336, 304
-0.961596, 9, 81, 72, 144
-0.961692, 153, 1, 216, 64
-0.961748, 353, 161, 480, 288
-0.961824, 353, 1, 416, 128
-0.961868, 369, 97, 432, 224
-0.962109, 73, 105, 136, 168
-0.962679, 241, 169, 304, 232
-0.962737, 25, 201, 88, 264
-0.96278, 177, 177, 240, 240
-0.96334, 9, 233, 72, 296
-0.963513, 353, 209, 416, 334
-0.963667, 433, 129, 496, 192
-0.964165, 129, 121, 192, 184
-0.964196, 393, 177, 456, 304
-0.964351, 381, 1, 412, 64
-0.964413, 313, 193, 376, 320
-0.964618, 105, 177, 168, 304
-0.964754, 313, 1, 376, 64
-0.964882, 321, 1, 448, 128
-0.965045, 73, 65, 136, 320
-0.965232, 129, 81, 384, 208
-0.96564, 353, 273, 416, 334
-0.965642, 25, 65, 88, 320
-0.965733, 225, 273, 288, 334
-0.965855, 57, 209, 120, 334
-0.965885, 409, 1, 472, 128
-0.966271, 161, 201, 224, 264
-0.966387, 129, 161, 192, 224
-0.966578, 321, 209, 448, 334
-0.966654, 409, 121, 472, 184
-0.967368, 177, 257, 240, 320
-0.967474, 185, 33, 248, 96
-0.967526, 153, 153, 216, 216
-0.967542, 289, 9, 352, 72
-0.967637, 41, 225, 104, 288
-0.967814, 265, 9, 328, 72
-0.968094, 81, 1, 144, 64
-0.968178, 153, 273, 216, 334
-0.968435, 409, 153, 472, 216
-0.968458, 217, 1, 280, 64
-0.96849, 297, 169, 360, 232
-0.968518, 73, 41, 136, 104
-0.969034, 81, 113, 112, 240
-0.969081, 369, 105, 432, 168
-0.969219, 257, 273, 320, 334
-0.969425, 109, 1, 140, 128
-0.969443, 105, 177, 168, 240
-0.969492, 97, 153, 160, 216
-0.969556, 65, 121, 192, 184
-0.969563, 209, 33, 272, 96
-0.969572, 353, 225, 416, 288
-0.96961, 25, 9, 88, 72
-0.969628, 201, 145, 264, 208
-0.969789, 73, 65, 136, 128
-0.969932, 1, 1, 64, 128
-0.970061, 93, 113, 124, 176
-0.970112, 257, 33, 320, 96
-0.970211, 321, 81, 448, 208
-0.970236, 297, 273, 360, 334
-0.970282, 321, 1, 384, 128
-0.97031, 17, 97, 144, 160
-0.970475, 65, 129, 96, 256
-0.97051, 5, 113, 36, 240
-0.970619, 129, 33, 192, 96
-0.970625, 105, 1, 136, 64
-0.970703, 25, 161, 88, 224
-0.97071, 225, 105, 288, 168
-0.970763, 217, 129, 248, 256
-0.970964, 25, 33, 88, 96
-0.970994, 393, 1, 424, 64
-0.971003, 21, 129, 52, 256
-0.97106, 1, 65, 64, 320
-0.971294, 1, 137, 128, 200
-0.971417, 193, 1, 320, 64
-0.971563, 193, 1, 256, 64
-0.971757, 225, 1, 288, 128
-0.971906, 297, 145, 360, 272
-0.972034, 9, 257, 72, 320
-0.972056, 117, 9, 148, 72
-0.972139, 273, 1, 304, 64
-0.972315, 261, 9, 292, 72
-0.972498, 97, 1, 160, 256
-0.972768, 85, 137, 116, 200
-0.972854, 209, 73, 272, 136
-0.97289, 337, 1, 400, 64
-0.973063, 177, 105, 240, 168
-0.973149, 241, 113, 304, 240
-0.973219, 433, 161, 496, 288
-0.973265, 289, 1, 416, 64
-0.97328, 9, 57, 72, 120
-0.973346, 37, 81, 68, 208
-0.973375, 437, 1, 468, 64
-0.973387, 217, 177, 280, 240
-0.973428, 61, 137, 92, 200
-0.973443, 33, 9, 160, 72
-0.973471, 353, 1, 384, 64
-0.973516, 65, 97, 192, 160
-0.973526, 93, 81, 124, 208
-0.973592, 9, 161, 40, 288
-0.973707, 113, 33, 240, 96
-0.973745, 97, 73, 160, 136
-0.973767, 49, 33, 112, 96
-0.973871, 241, 65, 368, 192
-0.973934, 129, 1, 160, 64
-0.973934, 1, 1, 64, 64
-0.974096, 17, 65, 144, 128
-0.974288, 49, 65, 112, 320
-0.974298, 1, 225, 128, 288
-0.974346, 65, 177, 192, 240
-0.974586, 81, 9, 208, 72
-0.974654, 97, 153, 224, 216
-0.974748, 313, 201, 376, 264
-0.974795, 377, 1, 440, 256
-0.974907, 1, 161, 128, 224
-0.974934, 241, 209, 304, 334
-0.974956, 425, 1, 456, 64
-0.975132, 393, 273, 456, 334
-0.975163, 41, 121, 72, 184
-0.975188, 153, 33, 216, 96
-0.975211, 93, 1, 124, 128
-0.97528, 145, 137, 272, 200
-0.975303, 321, 1, 384, 256
-0.975354, 113, 209, 176, 272
-0.975396, 265, 129, 328, 256
-0.975397, 321, 153, 384, 216
-0.975512, 329, 241, 392, 304
-0.975551, 233, 233, 296, 296
-0.975722, 221, 33, 252, 160
-0.975801, 209, 273, 336, 334
-0.975855, 73, 137, 104, 200
-0.97593, 369, 1, 496, 64
-0.976031, 309, 177, 340, 240
-0.976068, 329, 129, 392, 192
-0.976083, 257, 241, 320, 304
-0.976135, 21, 129, 52, 192
-0.976217, 81, 105, 112, 168
-0.976251, 433, 153, 496, 216
-0.976351, 105, 81, 136, 208
-0.976393, 113, 177, 240, 240
-0.976597, 217, 193, 280, 320
-0.976622, 177, 145, 208, 272
-0.976674, 125, 33, 156, 160
-0.976674, 225, 1, 288, 334
-0.976678, 225, 177, 352, 240
-0.976746, 101, 89, 132, 152
-0.976768, 185, 209, 216, 334
-0.976825, 161, 265, 288, 328
-0.97692, 33, 17, 64, 80
-0.976936, 257, 145, 288, 272
-0.976938, 197, 161, 228, 288
-0.976972, 1, 137, 32, 200
-0.977011, 65, 225, 128, 288
-0.977076, 353, 201, 416, 264
-0.977276, 37, 65, 68, 128
-0.977335, 261, 33, 292, 96
-0.977362, 249, 145, 312, 208
-0.977479, 145, 1, 272, 64
-0.97748, 353, 249, 416, 312
-0.977507, 265, 81, 328, 208
-0.977543, 385, 145, 448, 208
-0.977555, 321, 265, 384, 328
-0.977623, 1, 25, 64, 88
-0.977657, 137, 209, 200, 272
-0.977706, 53, 129, 84, 256
-0.977747, 177, 233, 240, 296
-0.977755, 57, 1, 120, 64
-0.977767, 141, 1, 172, 64
-0.97779, 233, 33, 264, 96
-0.977808, 417, 65, 480, 192
-0.977917, 369, 1, 400, 64
-0.977956, 457, 1, 488, 128
-0.977999, 397, 1, 428, 128
-0.978004, 49, 249, 112, 312
-0.978028, 433, 217, 496, 280
-0.978054, 409, 1, 440, 64
-0.97816, 337, 161, 400, 288
-0.978164, 233, 57, 296, 120
-0.978186, 417, 265, 480, 328
-0.978211, 369, 161, 432, 288
-0.978229, 225, 145, 288, 208
-0.978261, 237, 81, 268, 208
-0.978274, 149, 113, 180, 240
-0.978275, 145, 105, 272, 168
-0.978318, 377, 225, 440, 288
-0.978327, 17, 153, 48, 216
-0.978365, 129, 273, 192, 334
-0.978374, 165, 145, 196, 272
-0.978387, 105, 1, 168, 334
-0.978396, 305, 97, 368, 224
-0.978412, 65, 185, 96, 248
-0.978442, 177, 177, 304, 240
-0.978563, 81, 49, 112, 176
-0.9786, 393, 185, 456, 248
-0.978643, 285, 273, 316, 334
-0.978688, 461, 1, 492, 64
-0.978703, 209, 33, 336, 96
-0.978726, 353, 113, 480, 176
-0.978729, 369, 1, 400, 128
-0.978737, 385, 25, 448, 88
-0.978857, 137, 249, 200, 312
-0.97891, 65, 81, 96, 208
-0.978917, 93, 129, 124, 256
-0.978948, 49, 153, 176, 216
-0.97895, 201, 241, 264, 304
-0.979143, 249, 1, 280, 64
-0.979154, 53, 201, 84, 264
-0.979176, 29, 177, 60, 304
-0.979186, 49, 201, 176, 264
-0.979216, 409, 25, 472, 88
-0.979294, 241, 9, 368, 72
-0.979376, 21, 81, 52, 208
-0.97938, 165, 273, 196, 334
-0.979475, 281, 25, 312, 88
-0.9795, 321, 105, 384, 168
-0.979517, 117, 33, 148, 96
-0.979526, 257, 33, 288, 160
-0.979532, 33, 17, 64, 144
-0.979575, 17, 41, 144, 104
-0.979577, 17, 1, 80, 334
-0.979583, 29, 193, 60, 256
-0.979608, 185, 1, 248, 334
-0.979786, 41, 129, 72, 256
-0.979874, 345, 105, 408, 168
-0.979917, 253, 153, 284, 216
-0.979946, 321, 177, 352, 240
-0.979975, 121, 97, 184, 160
-0.980022, 49, 193, 112, 256
-0.980025, 393, 249, 456, 312
-0.980116, 249, 33, 280, 96
-0.980181, 105, 25, 136, 88
-0.980182, 177, 153, 240, 216
-0.980201, 209, 1, 272, 256
-0.980231, 221, 65, 252, 128
-0.98024, 385, 1, 416, 128
-0.98027, 273, 209, 336, 272
-0.980322, 105, 121, 136, 184
-0.980331, 153, 193, 184, 256
-0.980358, 85, 1, 116, 64
-0.980373, 73, 177, 104, 304
-0.980413, 201, 177, 232, 240
-0.980442, 97, 201, 224, 264
-0.980452, 305, 153, 432, 216
-0.980471, 37, 97, 68, 160
-0.980482, 169, 169, 200, 232
-0.980519, 185, 161, 216, 224
-0.980553, 73, 193, 136, 256
-0.980558, 305, 177, 432, 240
-0.980566, 97, 145, 128, 208
-0.980598, 321, 49, 384, 176
-0.980603, 417, 97, 480, 160
-0.980712, 249, 193, 312, 256
-0.980797, 5, 161, 36, 224
-0.980816, 21, 97, 52, 160
-0.980904, 57, 113, 88, 176
-0.980921, 1, 193, 128, 256
-0.980928, 425, 1, 488, 334
-0.980943, 257, 201, 384, 264
-0.980953, 201, 217, 264, 280
-0.980971, 161, 1, 192, 64
-0.981042, 353, 129, 416, 192
-0.981268, 153, 65, 216, 320
-0.981311, 29, 217, 60, 280
-0.981319, 161, 33, 288, 96
-0.981432, 53, 177, 84, 304
-0.981443, 141, 185, 172, 248
-0.981466, 137, 1, 168, 128
-0.981555, 101, 65, 132, 128
-0.981584, 369, 65, 496, 192
-0.981587, 369, 257, 496, 320
-0.981593, 65, 33, 192, 96
-0.981684, 149, 177, 180, 304
-0.981691, 217, 33, 248, 96
-0.981733, 137, 113, 168, 240
-0.981734, 281, 1, 344, 256
-0.981738, 353, 49, 416, 176
-0.981787, 209, 177, 240, 304
-0.981804, 193, 153, 320, 216
-0.981836, 325, 145, 356, 272
-0.981869, 433, 25, 496, 88
-0.981896, 121, 113, 152, 240
-0.981913, 401, 1, 464, 256
-0.981917, 129, 1, 192, 334
-0.981955, 393, 65, 456, 192
-0.982033, 125, 193, 156, 256
-0.982064, 337, 233, 464, 296
-0.982076, 153, 1, 216, 334
-0.982079, 233, 33, 264, 160
-0.98215, 229, 129, 260, 256
-0.982173, 85, 81, 116, 144
-0.98218, 105, 265, 168, 328
-0.982184, 221, 145, 252, 208
-0.982261, 237, 1, 268, 64
-0.982285, 5, 185, 36, 248
-0.9823, 313, 161, 344, 288
-0.982328, 321, 177, 384, 240
-0.982409, 153, 129, 216, 192
-0.982409, 305, 209, 432, 272
-0.982422, 365, 25, 396, 88
-0.98243, 257, 1, 320, 256
-0.982445, 9, 217, 40, 280
-0.982446, 277, 1, 308, 128
-0.982465, 337, 25, 400, 88
-0.982517, 225, 265, 256, 328
-0.982546, 33, 41, 64, 104
-0.982659, 433, 177, 496, 240
-0.982694, 257, 257, 384, 320
-0.982697, 45, 177, 76, 240
-0.982723, 1, 113, 32, 176
-0.982737, 433, 121, 464, 184
-0.982765, 53, 225, 84, 288
-0.982861, 377, 209, 408, 272
-0.982915, 65, 1, 128, 334
-0.982935, 81, 209, 144, 334
-0.982938, 69, 113, 100, 176
-0.982992, 205, 33, 236, 96
-0.983043, 413, 1, 444, 128
-0.983077, 369, 169, 432, 232
-0.983118, 365, 233, 396, 296
-0.983134, 173, 1, 204, 64
-0.983271, 393, 97, 456, 160
-0.983291, 205, 113, 236, 240
-0.983332, 129, 161, 160, 288
-0.983366, 277, 177, 308, 240
-0.983396, 165, 33, 196, 160
-0.983413, 245, 33, 276, 160
-0.983416, 449, 1, 480, 64
-0.983431, 177, 129, 240, 192
-0.983511, 81, 1, 112, 128
-0.983512, 17, 41, 48, 104
-0.983555, 185, 1, 216, 64
-0.983557, 425, 65, 488, 320
-0.983586, 373, 209, 404, 334
-0.983593, 445, 161, 476, 224
-0.983655, 377, 241, 408, 304
-0.983669, 169, 193, 200, 320
-0.983733, 265, 257, 296, 320
-0.983757, 41, 1, 104, 334
-0.983758, 265, 1, 328, 334
-0.983789, 197, 1, 228, 64
-0.983794, 33, 241, 64, 304
-0.983831, 321, 265, 448, 328
-0.983902, 365, 273, 396, 334
-0.983924, 157, 153, 188, 216
-0.983924, 325, 193, 356, 320
-0.983952, 209, 33, 240, 160
-0.983973, 73, 249, 136, 312
-0.983984, 1, 249, 128, 312
-0.983988, 369, 209, 496, 272
-0.984041, 401, 209, 464, 272
-0.984087, 41, 145, 72, 208
-0.984156, 161, 241, 288, 304
-0.984197, 85, 57, 116, 120
-0.984198, 461, 137, 492, 200
-0.984227, 225, 201, 288, 264
-0.984232, 113, 177, 144, 304
-0.984244, 85, 169, 116, 232
-0.984254, 369, 185, 496, 248
-0.984275, 273, 161, 336, 224
-0.984278, 353, 233, 384, 296
-0.984315, 145, 217, 272, 280
-0.984324, 225, 97, 256, 160
-0.984376, 29, 161, 60, 224
-0.984388, 149, 33, 180, 160
-0.984419, 329, 201, 360, 264
-0.984457, 193, 33, 224, 160
-0.984525, 265, 233, 296, 296
-0.984576, 401, 1, 464, 334
-0.984579, 185, 209, 216, 272
-0.98458, 57, 89, 88, 152
-0.984585, 113, 81, 144, 144
-0.984585, 81, 73, 208, 136
-0.984624, 141, 209, 172, 272
-0.984664, 401, 25, 432, 88
-0.984754, 253, 273, 284, 334
-0.984763, 209, 217, 240, 280
-0.984811, 425, 145, 456, 208
-0.984821, 365, 209, 396, 272
-0.984869, 237, 105, 268, 168
-0.984941, 449, 113, 480, 240
-0.984956, 369, 137, 496, 200
-0.985022, 337, 25, 464, 88
-0.985053, 117, 105, 148, 168
-0.985089, 405, 97, 436, 224
-0.985168, 225, 129, 352, 192
-0.985213, 405, 105, 436, 168
-0.985285, 233, 33, 296, 288
-0.98533, 353, 65, 416, 320
-0.985349, 185, 1, 248, 256
-0.985363, 129, 33, 160, 96
-0.985385, 393, 209, 424, 334
-0.985411, 441, 209, 472, 334
-0.985425, 257, 33, 384, 96
-0.985432, 49, 241, 176, 304
-0.985484, 109, 145, 140, 208
-0.985498, 17, 33, 48, 160
-0.985503, 209, 57, 336, 120
-0.98552, 145, 25, 176, 88
-0.985524, 297, 185, 328, 248
-0.985544, 353, 161, 480, 224
-0.985563, 425, 129, 456, 256
-0.985567, 17, 193, 48, 256
-0.985613, 313, 201, 344, 264
-0.985723, 193, 81, 256, 208
-0.985733, 233, 57, 264, 120
-0.985735, 341, 273, 372, 334
-0.985758, 381, 25, 412, 88
-0.985768, 105, 129, 136, 256
-0.985797, 213, 1, 244, 64
-0.985802, 269, 193, 300, 320
-0.985847, 249, 209, 280, 334
-0.985914, 193, 97, 320, 160
-0.985924, 189, 265, 220, 328
-0.985938, 449, 129, 480, 192
-0.985946, 145, 161, 176, 224
-0.98598, 233, 177, 264, 304
-0.986076, 165, 33, 196, 96
-0.986087, 317, 1, 348, 128
-0.986201, 17, 17, 48, 80
-0.986264, 165, 193, 196, 256
-0.986271, 225, 1, 256, 64
-0.9863, 233, 137, 264, 200
-0.986303, 113, 249, 240, 312
-0.986309, 129, 121, 160, 184
-0.986366, 217, 121, 248, 184
-0.986491, 305, 97, 432, 160
-0.986515, 289, 1, 320, 128
-0.986526, 209, 241, 336, 304
-0.986541, 53, 49, 84, 176
-0.986568, 125, 161, 156, 224
-0.986618, 145, 121, 176, 184
-0.986835, 305, 1, 336, 128
-0.986888, 249, 81, 280, 208
-0.986911, 241, 153, 368, 216
-0.987041, 245, 145, 276, 272
-0.987123, 97, 225, 224, 288
-0.987125, 5, 209, 36, 334
-0.987162, 469, 1, 500, 128
-0.987194, 437, 145, 468, 272
-0.987354, 177, 33, 208, 160
-0.987391, 49, 265, 176, 328
-0.987438, 445, 1, 476, 128
-0.987495, 101, 177, 132, 304
-0.987567, 281, 161, 312, 288
-0.987643, 369, 1, 432, 334
-0.987672, 145, 81, 272, 144
-0.987715, 337, 113, 368, 240
-0.987742, 53, 1, 84, 128
-0.987762, 197, 209, 228, 334
-0.987779, 461, 129, 492, 256
-0.987892, 97, 1, 352, 64
-0.987897, 305, 129, 432, 192
-0.987918, 49, 113, 112, 144
-0.988038, 129, 65, 192, 320
-0.988398, 193, 209, 320, 272
-0.988425, 97, 273, 224, 334
-0.988433, 377, 1, 440, 32
-0.988522, 385, 21, 448, 52
-0.988603, 65, 33, 320, 96
-0.988635, 289, 233, 416, 296
-0.98872, 177, 97, 208, 224
-0.988739, 269, 49, 300, 176
-0.988764, 17, 137, 80, 168
-0.988795, 353, 17, 416, 48
-0.988811, 17, 209, 48, 334
-0.988825, 33, 121, 288, 184
-0.988952, 425, 5, 488, 36
-0.989005, 57, 145, 120, 176
-0.989087, 461, 209, 492, 334
-0.989134, 57, 133, 120, 164
-0.989158, 1, 201, 64, 232
-0.989225, 249, 5, 312, 36
-0.989233, 33, 125, 96, 156
-0.989244, 161, 97, 192, 224
-0.989272, 41, 209, 72, 334
-0.989279, 265, 305, 328, 334
-0.989279, 221, 177, 252, 304
-0.989297, 433, 21, 496, 52
-0.989426, 401, 5, 464, 36
-0.989461, 145, 201, 208, 232
-0.989471, 81, 133, 144, 164
-0.989564, 9, 245, 72, 276
-0.98958, 425, 17, 456, 144
-0.989641, 121, 5, 184, 36
-0.989647, 353, 1, 416, 32
-0.989675, 89, 1, 152, 32
-0.989675, 257, 1, 500, 64
-0.989729, 9, 125, 72, 156
-0.989749, 33, 97, 96, 128
-0.989751, 341, 209, 372, 334
-0.9898, 1, 153, 256, 216
-0.989803, 361, 29, 424, 60
-0.98984, 289, 5, 352, 36
-0.989845, 385, 145, 416, 272
-0.989857, 369, 105, 432, 136
-0.989874, 289, 17, 352, 48
-0.989887, 97, 105, 160, 136
-0.989914, 401, 161, 432, 288
-0.989919, 129, 125, 192, 156
-0.989931, 1, 273, 128, 334
-0.989951, 409, 17, 472, 48
-0.989955, 233, 37, 296, 68
-0.989958, 361, 193, 392, 320
-0.989961, 81, 145, 144, 176
-0.989964, 249, 17, 312, 48
-0.990011, 137, 189, 200, 220
-0.990049, 9, 229, 72, 260
-0.990052, 313, 5, 376, 36
-0.990067, 217, 129, 280, 160
-0.990068, 1, 213, 64, 244
-0.990077, 345, 1, 408, 334
-0.990079, 33, 225, 96, 256
-0.99009, 25, 153, 88, 184
-0.990133, 189, 113, 220, 240
-0.99016, 353, 89, 480, 152
-0.99017, 89, 121, 152, 152
-0.990176, 33, 73, 96, 104
-0.99018, 1, 149, 64, 180
-0.990187, 105, 137, 168, 168
-0.9902, 241, 173, 304, 204
-0.990217, 265, 97, 296, 224
-0.990244, 281, 189, 344, 220
-0.990246, 65, 1, 128, 32
-0.990251, 1, 1, 500, 64
-0.990251, 25, 205, 88, 236
-0.990273, 33, 237, 96, 268
-0.990297, 1, 173, 64, 204
-0.990304, 105, 25, 168, 56
-0.990314, 137, 177, 200, 208
-0.990371, 33, 189, 96, 220
-0.990415, 57, 97, 120, 128
-0.990443, 97, 41, 160, 72
-0.990448, 225, 273, 288, 304
-0.990485, 73, 177, 136, 208
-0.990499, 265, 33, 328, 64
-0.990513, 65, 85, 128, 116
-0.990526, 81, 29, 144, 60
-0.990527, 329, 1, 360, 128
-0.990529, 1, 185, 64, 216
-0.990537, 417, 125, 480, 156
-0.990544, 321, 205, 384, 236
-0.990545, 289, 305, 352, 334
-0.990546, 161, 181, 224, 212
-0.990599, 225, 1, 288, 32
-0.990601, 9, 257, 72, 288
-0.99062, 337, 29, 400, 60
-0.990622, 177, 197, 240, 228
-0.990635, 9, 113, 72, 144
-0.990653, 121, 37, 184, 68
-0.990673, 385, 33, 448, 64
-0.990679, 337, 161, 368, 288
-0.990679, 233, 77, 296, 108
-0.990681, 305, 293, 368, 324
-0.990682, 97, 153, 352, 216
-0.990687, 41, 1, 104, 32
-0.990693, 337, 241, 400, 272
-0.990705, 257, 185, 320, 216
-0.990724, 193, 37, 256, 68
-0.990746, 1, 33, 64, 64
-0.990747, 161, 177, 416, 240
-0.990747, 365, 97, 396, 224
-0.990761, 33, 61, 96, 92
-0.99077, 409, 161, 472, 192
-0.990783, 217, 149, 280, 180
-0.990787, 1, 161, 64, 192
-0.990799, 233, 65, 296, 96
-0.990809, 233, 53, 296, 84
-0.990813, 145, 5, 208, 36
-0.990861, 25, 49, 88, 80
-0.990865, 433, 145, 496, 176
-0.990868, 193, 5, 256, 36
-0.990868, 105, 193, 168, 224
-0.990871, 209, 81, 272, 112
-0.990874, 33, 85, 96, 116
-0.990878, 329, 17, 392, 48
-0.990882, 153, 213, 216, 244
-0.990892, 1, 5, 64, 36
-0.990901, 289, 205, 352, 236
-0.990904, 25, 17, 88, 48
-0.990921, 33, 165, 96, 196
-0.990923, 97, 161, 160, 192
-0.990924, 145, 165, 208, 196
-0.990937, 105, 205, 168, 236
-0.990956, 217, 81, 248, 208
-0.990962, 41, 249, 104, 280
-0.990973, 9, 85, 72, 116
-0.99098, 301, 193, 332, 320
-0.990991, 145, 57, 272, 120
-0.990994, 113, 173, 176, 204
-0.991012, 161, 305, 224, 334
-0.991033, 65, 229, 128, 260
-0.991044, 193, 265, 256, 296
-0.991044, 177, 129, 240, 160
-0.991045, 169, 5, 232, 36
-0.991093, 353, 285, 416, 316
-0.991108, 97, 13, 160, 44
-0.991109, 25, 37, 88, 68
-0.991111, 153, 281, 216, 312
-0.991111, 401, 149, 464, 180
-0.991121, 393, 297, 456, 328
-0.991121, 185, 185, 248, 216
-0.991137, 249, 289, 312, 320
-0.991148, 353, 221, 416, 252
-0.99115, 97, 89, 160, 120
-0.991151, 177, 209, 240, 240
-0.991155, 65, 61, 128, 92
-0.991175, 49, 45, 112, 76
-0.991185, 65, 73, 128, 104
-0.991212, 429, 209, 460, 334
-0.991224, 129, 265, 384, 328
-0.991234, 225, 261, 288, 292
-0.991249, 409, 29, 472, 60
-0.991263, 9, 101, 72, 132
-0.991269, 153, 17, 216, 48
-0.991277, 89, 77, 152, 108
-0.991282, 433, 157, 496, 188
-0.991289, 233, 301, 296, 332
-0.991306, 209, 69, 272, 100
-0.991398, 65, 81, 320, 144
-0.99143, 1, 185, 256, 248
-0.991515, 85, 177, 116, 304
-0.991531, 257, 105, 384, 168
-0.991544, 393, 97, 424, 224
-0.991653, 449, 161, 480, 288
-0.991681, 437, 97, 468, 224
-0.991718, 5, 65, 36, 192
-0.991821, 1, 113, 500, 176
-0.99186, 357, 1, 388, 128
-0.992044, 393, 1, 424, 32
-0.992053, 137, 209, 168, 334
-0.992074, 381, 17, 412, 48
-0.992082, 89, 137, 120, 168
-0.992096, 413, 9, 444, 40
-0.992147, 377, 97, 408, 224
-0.992217, 105, 21, 136, 52
-0.992247, 393, 13, 424, 44
-0.992248, 1, 145, 32, 176
-0.992252, 429, 1, 460, 32
-0.992275, 425, 65, 456, 192
-0.992281, 169, 281, 200, 312
-0.992287, 369, 21, 400, 52
-0.992291, 221, 129, 252, 160
-0.992293, 105, 5, 136, 36
-0.992299, 133, 5, 164, 36
-0.992305, 41, 129, 72, 160
-0.992327, 193, 145, 448, 208
-0.992344, 193, 201, 448, 264
-0.992346, 453, 9, 484, 40
-0.99236, 325, 97, 356, 224
-0.99238, 125, 17, 156, 48
-0.992395, 405, 21, 436, 52
-0.992427, 277, 301, 308, 332
-0.99244, 401, 1, 416, 64
-0.992442, 373, 5, 404, 36
-0.992458, 25, 145, 56, 176
-0.992462, 81, 125, 208, 156
-0.992462, 85, 97, 116, 128
-0.992476, 65, 57, 320, 120
-0.992477, 65, 141, 96, 172
-0.992484, 37, 93, 68, 124
-0.992497, 105, 85, 136, 116
-0.9925, 345, 29, 376, 60
-0.992506, 273, 17, 304, 48
-0.992516, 257, 113, 500, 176
-0.992516, 345, 17, 376, 48
-0.992521, 93, 125, 124, 156
-0.992527, 13, 149, 44, 180
-0.99253, 253, 37, 284, 68
-0.992537, 265, 1, 296, 32
-0.992545, 145, 5, 176, 36
-0.992545, 77, 137, 108, 168
-0.992556, 117, 5, 148, 36
-0.992561, 249, 1, 280, 32
-0.992578, 465, 21, 496, 52
-0.992596, 285, 29, 316, 60
-0.9926, 441, 9, 472, 40
-0.9926, 425, 13, 456, 44
-0.992604, 21, 133, 52, 164
-0.992606, 289, 305, 320, 334
-0.992612, 105, 33, 136, 64
-0.992619, 37, 117, 68, 148
-0.992636, 17, 165, 48, 196
-0.992641, 345, 289, 376, 320
-0.99267, 221, 81, 252, 112
-0.992683, 105, 101, 136, 132
-0.992684, 117, 37, 148, 68
-0.992685, 393, 25, 424, 56
-0.992685, 369, 9, 496, 40
-0.992697, 37, 73, 68, 104
-0.992699, 281, 185, 312, 216
-0.992712, 85, 1, 116, 32
-0.992712, 233, 265, 264, 296
-0.992721, 9, 205, 40, 236
-0.992721, 105, 73, 136, 104
-0.992734, 41, 141, 72, 172
-0.992744, 33, 37, 64, 68
-0.992745, 41, 157, 72, 188
-0.992747, 353, 5, 384, 36
-0.992747, 1, 41, 500, 104
-0.99275, 101, 137, 132, 168
-0.992753, 265, 233, 296, 264
-0.992755, 1, 169, 32, 200
-0.99276, 1, 137, 500, 200
-0.992762, 1, 133, 32, 164
-0.992764, 13, 181, 44, 212
-0.992768, 1, 193, 32, 224
-0.992769, 85, 77, 116, 108
-0.992772, 37, 105, 68, 136
-0.992773, 29, 193, 60, 224
-0.992776, 465, 9, 496, 40
-0.992777, 1, 157, 32, 188
-0.992777, 29, 1, 60, 32
-0.992779, 85, 61, 116, 92
-0.99278, 53, 137, 84, 168
-0.992783, 53, 217, 84, 248
-0.992785, 237, 137, 268, 168
-0.992788, 141, 213, 172, 244
-0.99279, 453, 21, 484, 52
-0.992794, 225, 5, 256, 36
-0.992797, 177, 157, 208, 188
-0.992798, 313, 209, 344, 334
-0.992804, 329, 205, 360, 236
-0.992805, 13, 245, 44, 276
-0.992808, 33, 53, 64, 84
-0.992813, 353, 113, 384, 240
-0.992817, 241, 81, 368, 144
-0.992827, 429, 153, 460, 184
-0.992829, 149, 197, 180, 228
-0.99283, 273, 37, 304, 68
-0.992833, 45, 201, 76, 232
-0.992833, 33, 17, 64, 48
-0.992835, 241, 69, 272, 100
-0.992836, 141, 29, 172, 60
-0.992838, 233, 37, 264, 68
-0.992839, 29, 161, 60, 192
-0.992844, 57, 97, 88, 128
-0.992844, 301, 189, 332, 220
-0.992845, 85, 113, 116, 144
-0.992846, 29, 213, 60, 244
-0.992857, 377, 221, 408, 252
-0.99286, 297, 29, 328, 60
-0.992863, 169, 201, 200, 232
-0.992865, 1, 229, 32, 260
-0.992869, 89, 149, 120, 180
-0.99287, 165, 181, 196, 212
-0.992881, 205, 217, 236, 248
-0.992885, 273, 13, 400, 44
-0.992892, 277, 1, 308, 32
-0.992893, 97, 113, 128, 144
-0.992896, 213, 5, 244, 36
-0.992899, 105, 61, 136, 92
-0.992904, 249, 273, 280, 304
-0.992907, 129, 193, 160, 224
-0.992907, 181, 297, 212, 328
-0.99291, 253, 165, 284, 196
-0.992914, 265, 305, 296, 334
-0.992915, 157, 301, 188, 332
-0.992915, 201, 197, 232, 228
-0.992916, 53, 229, 84, 260
-0.992916, 257, 273, 500, 334
-0.99292, 333, 5, 364, 36
-0.992921, 57, 153, 88, 184
-0.992922, 425, 25, 456, 56
-0.992924, 317, 1, 348, 32
-0.992933, 113, 137, 144, 168
-0.992938, 241, 81, 272, 112
-0.992941, 237, 5, 268, 36
-0.992941, 361, 245, 392, 276
-0.992946, 29, 181, 60, 212
-0.992948, 73, 97, 104, 128
-0.992949, 1, 245, 32, 276
-0.992951, 33, 253, 64, 284
-0.992952, 297, 17, 328, 48
-0.992957, 261, 49, 292, 80
-0.992967, 281, 209, 312, 334
-0.992969, 201, 5, 232, 36
-0.99297, 21, 109, 52, 140
-0.993037, 225, 233, 480, 296
-0.993056, 129, 9, 144, 72
-0.993092, 17, 105, 144, 136
-0.993097, 373, 161, 404, 288
-0.993165, 109, 17, 124, 80
-0.993204, 227, 121, 242, 184
-0.993217, 377, 49, 408, 176
-0.993272, 309, 113, 340, 240
-0.993278, 65, 33, 96, 160
-0.993299, 161, 121, 416, 184
-0.993312, 391, 1, 406, 64
-0.993341, 345, 1, 376, 128
-0.993367, 17, 85, 144, 116
-0.993378, 33, 273, 288, 334
-0.99347, 407, 1, 422, 64
-0.993473, 17, 117, 144, 148
-0.993553, 1, 1, 256, 64
-0.993556, 417, 209, 448, 334
-0.993582, 297, 49, 360, 176
-0.9936, 257, 177, 500, 240
-0.993637, 225, 1, 352, 32
-0.99364, 449, 1, 464, 64
-0.993654, 193, 25, 448, 88
-0.993694, 1, 129, 128, 160
-0.993866, 139, 1, 154, 64
-0.993897, 99, 113, 114, 176
-0.993931, 137, 49, 168, 176
-0.993943, 321, 1, 448, 32
-0.993943, 1, 169, 500, 232
-0.993945, 1, 153, 128, 184
-0.993961, 33, 233, 288, 296
-0.993976, 193, 17, 320, 48
-0.994007, 243, 33, 258, 96
-0.994014, 115, 1, 130, 64
-0.994015, 423, 1, 438, 64
-0.994036, 285, 1, 300, 64
-0.994053, 1, 201, 500, 264
-0.994078, 289, 1, 352, 334
-0.994099, 269, 145, 300, 272
-0.994127, 111, 57, 126, 120
-0.99413, 271, 1, 286, 64
-0.994161, 263, 1, 278, 64
-0.994168, 125, 209, 156, 334
-0.994176, 1, 89, 500, 152
-0.994181, 209, 305, 336, 334
-0.994267, 17, 141, 144, 172
-0.994293, 81, 5, 208, 36
-0.994327, 89, 137, 104, 200
-0.99438, 353, 49, 384, 176
-0.994432, 21, 121, 36, 184
-0.994433, 49, 193, 176, 224
-0.994469, 177, 5, 304, 36
-0.994469, 145, 1, 160, 64
-0.994482, 435, 1, 450, 64
-0.994486, 413, 145, 444, 272
-0.99449, 17, 73, 144, 104
-0.994496, 65, 137, 192, 168
-0.994505, 1, 205, 128, 236
-0.99451, 193, 181, 320, 212
-0.994521, 461, 81, 492, 208
-0.994546, 353, 21, 480, 52
-0.994556, 277, 9, 292, 72
-0.99456, 151, 1, 166, 64
-0.994561, 369, 9, 384, 72
-0.994567, 231, 33, 246, 96
-0.994579, 275, 33, 290, 96
-0.994587, 65, 177, 192, 208
-0.994598, 323, 177, 338, 240
-0.994601, 465, 1, 480, 64
-0.994613, 79, 129, 94, 192
-0.994624, 33, 1, 160, 32
-0.994644, 9, 169, 24, 232
-0.994654, 97, 201, 352, 264
-0.99467, 259, 145, 274, 208
-0.994762, 33, 25, 160, 56
-0.994806, 233, 57, 248, 120
-0.994859, 105, 105, 120, 168
-0.994891, 113, 181, 240, 212
-0.994898, 1, 241, 500, 304
-0.994899, 81, 109, 208, 140
-0.994909, 291, 17, 306, 80
-0.99492, 105, 49, 120, 112
-0.994937, 253, 33, 268, 96
-0.994956, 285, 33, 300, 96
-0.994961, 1, 253, 128, 284
-0.994976, 289, 73, 416, 136
-0.99498, 145, 137, 272, 168
-0.99499, 1, 221, 128, 252
-0.994999, 111, 81, 126, 144
-0.995005, 269, 33, 284, 96
-0.995006, 103, 137, 118, 200
-0.995022, 177, 161, 192, 224
-0.995031, 1, 241, 128, 272
-0.99504, 97, 41, 224, 72
-0.995057, 113, 17, 240, 48
-0.995058, 33, 13, 160, 44
-0.995071, 415, 1, 430, 64
-0.995073, 129, 225, 384, 288
-0.995096, 89, 97, 104, 160
-0.995101, 21, 161, 36, 224
-0.995112, 163, 1, 178, 64
-0.99513, 157, 1, 172, 64
-0.995135, 43, 217, 58, 280
-0.995152, 35, 121, 50, 184
-0.995153, 299, 273, 314, 334
-0.995168, 13, 137, 28, 200
-0.995173, 1, 65, 500, 128
-0.995179, 321, 109, 448, 140
-0.995202, 385, 1, 400, 64
-0.995224, 99, 41, 114, 104
-0.995228, 15, 161, 30, 224
-0.995232, 161, 149, 288, 180
-0.995243, 257, 1, 272, 64
-0.995255, 459, 9, 474, 72
-0.995261, 49, 213, 176, 244
-0.995268, 245, 57, 260, 120
-0.995273, 121, 9, 136, 72
-0.995275, 237, 33, 252, 96
-0.995279, 103, 9, 118, 72
-0.995301, 101, 73, 116, 136
-0.995305, 67, 193, 82, 256
-0.995315, 401, 25, 416, 88
-0.995339, 145, 125, 272, 156
-0.995344, 177, 273, 192, 334
-0.995349, 65, 165, 192, 196
-0.995353, 17, 61, 144, 92
-0.995366, 449, 153, 464, 216
-0.995382, 177, 273, 304, 304
-0.995387, 55, 121, 70, 184
-0.99539, 193, 37, 320, 68
-0.995395, 69, 145, 84, 208
-0.995417, 259, 33, 274, 96
-0.995419, 145, 285, 272, 316
-0.995428, 193, 89, 448, 152
-0.995429, 97, 137, 112, 200
-0.995429, 1, 165, 128, 196
-0.995446, 159, 193, 174, 256
-0.995464, 209, 293, 336, 324
-0.995466, 147, 201, 162, 264
-0.995479, 273, 1, 400, 32
-0.995481, 379, 1, 394, 64
-0.995493, 35, 97, 50, 160
-0.995509, 359, 1, 374, 64
-0.995517, 129, 5, 256, 36
-0.995519, 113, 213, 240, 244
-0.995526, 29, 137, 44, 200
-0.995586, 337, 241, 464, 272
-0.99562, 165, 185, 180, 248
-0.995633, 441, 1, 456, 64
-0.995638, 81, 153, 208, 184
-0.995643, 273, 25, 400, 56
-0.995645, 161, 297, 288, 328
-0.995662, 97, 1, 112, 64
-0.995675, 429, 1, 444, 64
-0.995677, 237, 81, 252, 144
-0.995678, 63, 137, 78, 200
-0.995678, 97, 1, 128, 256
-0.995689, 473, 1, 488, 64
-0.995697, 1, 209, 256, 272
-0.995716, 135, 193, 150, 256
-0.995726, 37, 1, 68, 256
-0.995733, 291, 273, 306, 334
-0.995735, 185, 1, 200, 64
-0.995738, 17, 49, 144, 80
-0.99574, 81, 97, 208, 128
-0.995742, 95, 89, 110, 152
-0.995771, 245, 1, 260, 64
-0.995772, 145, 169, 272, 200
-0.995774, 179, 1, 194, 64
-0.995786, 17, 181, 144, 212
-0.99581, 217, 33, 232, 96
-0.995834, 225, 33, 240, 96
-0.995835, 225, 97, 240, 160
-0.99584, 73, 113, 88, 176
-0.995841, 235, 1, 250, 64
-0.995847, 253, 153, 268, 216
-0.995858, 127, 33, 142, 96
-0.995872, 113, 193, 240, 224
-0.995882, 41, 169, 56, 232
-0.995887, 171, 273, 186, 334
-0.995888, 67, 169, 82, 232
-0.995894, 365, 241, 380, 304
-0.995896, 109, 137, 124, 200
-0.995902, 321, 1, 384, 334
-0.995906, 279, 233, 294, 296
-0.995917, 225, 165, 352, 196
-0.995918, 191, 1, 206, 64
-0.99592, 1, 193, 128, 224
-0.995922, 281, 273, 296, 334
-0.995927, 189, 153, 204, 216
-0.995929, 169, 1, 184, 64
-0.995957, 329, 201, 344, 264
-0.995962, 317, 177, 332, 240
-0.995965, 35, 161, 50, 224
-0.995976, 211, 1, 226, 64
-0.995977, 65, 217, 80, 280
-0.995985, 115, 25, 130, 88
-0.995985, 75, 185, 90, 248
-0.995988, 21, 225, 36, 288
-0.996, 5, 145, 20, 208
-0.996, 257, 189, 384, 220
-0.996018, 199, 1, 214, 64
-0.996024, 135, 33, 150, 96
-0.996029, 329, 169, 344, 232
-0.996031, 147, 25, 162, 88
-0.996039, 119, 65, 134, 128
-0.996077, 81, 29, 208, 60
-0.996082, 33, 37, 160, 68
-0.996086, 231, 145, 246, 208
-0.996094, 205, 1, 220, 64
-0.9961, 1, 273, 500, 334
-0.996104, 73, 65, 104, 320
-0.996108, 209, 193, 336, 224
-0.996118, 335, 193, 350, 256
-0.996119, 237, 257, 252, 320
-0.996127, 239, 57, 254, 120
-0.996127, 289, 177, 304, 240
-0.996146, 183, 169, 198, 232
-0.996149, 97, 305, 224, 334
-0.996149, 141, 193, 156, 256
-0.996156, 129, 193, 144, 256
-0.99616, 171, 153, 186, 216
-0.996168, 29, 25, 44, 88
-0.996189, 443, 121, 458, 184
-0.996194, 61, 193, 76, 256
-0.996198, 305, 177, 432, 208
-0.99621, 145, 37, 272, 68
-0.996293, 65, 241, 192, 272
-0.996305, 257, 301, 384, 332
-0.996325, 241, 177, 368, 208
-0.996394, 81, 289, 208, 320
-0.996398, 177, 221, 304, 252
-0.996421, 369, 65, 496, 128
-0.996433, 241, 37, 368, 68
-0.996461, 289, 213, 416, 244
-0.996489, 21, 65, 52, 320
-0.996491, 337, 289, 464, 320
-0.996509, 257, 285, 384, 316
-0.996511, 369, 129, 496, 160
-0.996512, 305, 153, 432, 184
-0.996542, 49, 225, 176, 256
-0.996562, 369, 229, 496, 260
-0.996585, 97, 277, 224, 308
-0.9966, 85, 65, 116, 320
-0.996647, 369, 141, 496, 172
-0.996681, 305, 201, 432, 232
-0.996699, 387, 9, 402, 40
-0.996731, 161, 193, 288, 224
-0.996731, 65, 265, 192, 296
-0.996732, 145, 113, 272, 144
-0.99675, 321, 165, 448, 196
-0.996751, 193, 125, 320, 156
-0.996757, 225, 141, 352, 172
-0.996823, 1, 265, 128, 296
-0.996875, 177, 233, 304, 264
-0.996881, 477, 21, 492, 52
-0.99689, 113, 225, 240, 256
-0.996913, 337, 253, 464, 284
-0.996944, 321, 49, 448, 112
-0.996954, 289, 225, 416, 256
-0.996969, 337, 217, 464, 248
-0.996989, 421, 9, 436, 40
-0.996993, 61, 65, 92, 320
-0.997011, 107, 1, 122, 32
-0.997015, 225, 153, 352, 184
-0.997015, 257, 265, 384, 296
-0.99703, 49, 277, 176, 308
-0.997037, 353, 201, 480, 232
-0.997061, 369, 277, 496, 308
-0.997064, 225, 61, 352, 92
-0.997065, 369, 105, 496, 136
-0.997097, 113, 1, 128, 32
-0.997116, 109, 37, 124, 68
-0.997119, 399, 9, 414, 40
-0.997122, 293, 29, 308, 60
-0.997138, 305, 305, 432, 334
-0.997146, 411, 13, 426, 44
-0.997185, 393, 1, 408, 32
-0.997197, 405, 21, 420, 52
-0.997202, 95, 129, 110, 160
-0.997214, 407, 1, 422, 32
-0.997224, 177, 261, 304, 292
-0.997231, 109, 1, 140, 256
-0.997241, 193, 65, 448, 128
-0.997243, 469, 1, 484, 32
-0.997244, 369, 161, 496, 192
-0.997254, 227, 125, 242, 156
-0.997267, 97, 85, 224, 116
-0.997274, 107, 17, 122, 48
-0.997275, 259, 1, 274, 32
-0.997279, 109, 49, 124, 80
-0.99728, 305, 305, 320, 334
-0.997291, 65, 69, 192, 100
-0.997294, 321, 141, 448, 172
-0.997318, 177, 245, 304, 276
-0.99733, 33, 289, 160, 320
-0.997337, 345, 1, 376, 256
-0.997339, 377, 21, 392, 52
-0.997344, 1, 65, 32, 320
-0.997358, 49, 65, 80, 320
-0.997359, 409, 1, 440, 256
-0.997369, 151, 1, 166, 32
-0.997371, 241, 213, 368, 244
-0.997371, 391, 21, 406, 52
-0.997386, 259, 149, 274, 180
-0.997387, 461, 9, 476, 40
-0.997392, 295, 301, 310, 332
-0.997406, 397, 25, 412, 56
-0.997407, 449, 1, 464, 32
-0.997419, 177, 205, 304, 236
-0.997419, 237, 265, 252, 296
-0.997423, 67, 209, 82, 240
-0.997427, 137, 1, 152, 32
-0.997427, 13, 145, 28, 176
-0.997428, 429, 9, 444, 40
-0.997434, 353, 33, 480, 64
-0.997437, 369, 117, 496, 148
-0.997441, 385, 21, 400, 52
-0.997442, 111, 77, 126, 108
-0.997452, 353, 181, 480, 212
-0.997453, 99, 117, 114, 148
-0.997457, 97, 97, 112, 128
-0.99746, 321, 277, 448, 308
-0.997468, 325, 1, 356, 256
-0.99747, 119, 21, 134, 52
-0.997478, 279, 1, 294, 32
-0.997478, 285, 17, 300, 48
-0.997481, 105, 133, 120, 164
-0.997483, 369, 301, 496, 332
-0.99749, 257, 201, 384, 232
-0.997522, 279, 301, 294, 332
-0.997525, 1, 277, 128, 308
-0.99753, 113, 257, 240, 288
-0.99753, 181, 285, 196, 316
-0.997531, 285, 305, 300, 334
-0.997532, 45, 221, 60, 252
-0.997537, 161, 65, 192, 320
-0.997548, 335, 201, 350, 232
-0.997556, 113, 237, 240, 268
-0.997564, 109, 61, 124, 92
-0.997569, 413, 25, 428, 56
-0.997576, 101, 81, 116, 112
-0.997597, 65, 253, 192, 284
-0.997599, 299, 29, 314, 60
-0.997602, 285, 5, 300, 36
-0.997611, 435, 9, 450, 40
-0.997622, 265, 1, 280, 32
-0.997624, 67, 197, 82, 228
-0.997625, 37, 141, 52, 172
-0.99764, 289, 245, 416, 276
-0.99764, 113, 13, 128, 44
-0.997644, 241, 121, 368, 152
-0.997644, 369, 21, 384, 52
-0.997649, 97, 1, 112, 32
-0.997664, 235, 81, 250, 112
-0.997668, 119, 5, 134, 36
-0.997669, 89, 133, 104, 164
-0.997672, 259, 37, 274, 68
-0.997677, 441, 1, 456, 32
-0.997677, 111, 89, 126, 120
-0.99769, 23, 141, 38, 172
-0.997692, 145, 5, 160, 36
-0.997693, 47, 241, 62, 272
-0.997695, 31, 141, 46, 172
-0.997696, 277, 37, 292, 68
-0.997698, 381, 5, 396, 36
-0.997699, 11, 193, 26, 224
-0.9977, 221, 1, 252, 256
-0.99771, 469, 21, 484, 52
-0.99771, 7, 137, 22, 168
-0.997716, 149, 213, 164, 244
-0.997718, 9, 173, 24, 204
-0.99772, 321, 121, 448, 152
-0.997725, 97, 57, 224, 88
-0.997725, 105, 105, 120, 136
-0.997732, 329, 205, 344, 236
-0.997737, 243, 81, 258, 112
-0.997743, 57, 153, 72, 184
-0.997746, 273, 1, 288, 32
-0.997753, 79, 141, 94, 172
-0.997754, 455, 9, 470, 40
-0.997759, 285, 37, 300, 68
-0.997769, 13, 133, 28, 164
-0.997778, 305, 189, 432, 220
-0.997784, 61, 197, 76, 228
-0.997786, 35, 125, 50, 156
-0.997787, 11, 205, 26, 236
-0.99779, 129, 5, 144, 36
-0.997801, 235, 5, 250, 36
-0.997808, 241, 233, 368, 264
-0.99781, 147, 29, 162, 60
-0.997817, 21, 129, 36, 160
-0.997822, 241, 1, 272, 256
-0.997825, 275, 233, 290, 264
-0.997826, 231, 137, 246, 168
-0.997831, 79, 101, 94, 132
-0.997832, 337, 265, 464, 296
-0.997845, 1, 129, 16, 160
-0.997849, 265, 77, 280, 108
-0.997851, 347, 13, 362, 44
-0.997872, 271, 37, 286, 68
-0.997873, 429, 21, 444, 52
-0.997876, 421, 21, 436, 52
-0.997883, 363, 13, 378, 44
-0.997886, 233, 37, 248, 68
-0.997889, 359, 293, 374, 324
-0.997889, 107, 149, 122, 180
-0.99789, 99, 49, 114, 80
-0.997898, 49, 301, 176, 332
-0.997905, 21, 205, 36, 236
-0.997908, 279, 177, 294, 208
-0.997911, 155, 201, 170, 232
-0.997913, 41, 193, 56, 224
-0.997916, 241, 49, 368, 80
-0.997923, 277, 81, 292, 112
-0.997924, 161, 101, 288, 132
-0.997937, 253, 5, 268, 36
-0.997941, 67, 185, 82, 216
-0.997943, 45, 209, 60, 240
-0.997944, 181, 65, 212, 320
-0.997951, 287, 181, 302, 212
-0.997954, 5, 157, 20, 188
-0.997955, 341, 5, 356, 36
-0.997955, 221, 5, 236, 36
-0.997955, 241, 37, 256, 68
-0.997955, 101, 145, 116, 176
-0.997956, 231, 273, 246, 304
-0.997963, 39, 177, 54, 208
-0.997965, 1, 173, 16, 204
-0.997968, 37, 161, 52, 192
-0.99797, 369, 9, 384, 40
-0.997971, 115, 41, 130, 72
-0.997971, 249, 37, 264, 68
-0.997972, 13, 229, 28, 260
-0.997974, 29, 129, 44, 160
-0.997976, 363, 29, 378, 60
-0.997977, 59, 137, 74, 168
-0.997984, 161, 297, 176, 328
-0.997993, 149, 65, 180, 320
-0.998161, 309, 1, 340, 256
-0.998245, 381, 1, 412, 256
-0.998256, 121, 65, 152, 320
-0.998258, 433, 65, 464, 320
-0.998258, 449, 65, 480, 320
-0.998286, 261, 1, 292, 256
-0.99829, 205, 65, 236, 320
-0.998349, 377, 15, 440, 30
-0.9984, 385, 27, 448, 42
-0.998404, 401, 21, 464, 36
-0.998405, 421, 65, 452, 320
-0.998406, 377, 3, 440, 18
-0.998409, 49, 117, 112, 132
-0.998415, 121, 9, 184, 24
-0.998422, 361, 31, 424, 46
-0.998423, 241, 11, 304, 26
-0.998425, 397, 65, 428, 320
-0.998436, 433, 27, 496, 42
-0.998437, 57, 135, 120, 150
-0.998439, 369, 21, 432, 36
-0.998441, 401, 9, 464, 24
-0.998441, 17, 145, 80, 160
-0.998442, 425, 5, 488, 20
-0.998444, 341, 289, 372, 304
-0.998445, 393, 105, 424, 120
-0.998445, 453, 29, 484, 44
-0.998446, 425, 15, 456, 30
-0.998446, 29, 215, 60, 230
-0.998448, 273, 303, 304, 318
-0.998449, 73, 111, 104, 126
-0.998449, 37, 111, 68, 126
-0.998449, 237, 277, 268, 292
-0.99845, 137, 37, 168, 52
-0.998451, 365, 21, 396, 36
-0.998451, 17, 165, 48, 180
-0.998452, 149, 1, 180, 16
-0.998452, 317, 7, 348, 22
-0.998453, 397, 1, 428, 16
-0.998454, 81, 3, 112, 18
-0.998454, 33, 31, 64, 46
-0.998454, 313, 7, 376, 22
-0.998454, 277, 313, 308, 328
-0.998455, 37, 73, 68, 88
-0.998455, 65, 147, 96, 162
-0.998456, 265, 317, 296, 332
-0.998456, 465, 29, 496, 44
-0.998457, 385, 33, 448, 48
-0.998462, 37, 83, 68, 98
-0.998462, 41, 141, 72, 156
-0.998463, 221, 75, 252, 90
-0.998465, 229, 271, 260, 286
-0.998465, 37, 157, 68, 172
-0.998466, 217, 11, 280, 26
-0.998466, 117, 3, 148, 18
-0.998466, 33, 139, 96, 154
-0.998467, 89, 5, 152, 20
-0.998467, 1, 205, 64, 220
-0.998468, 33, 229, 64, 244
-0.998468, 401, 15, 432, 30
-0.998468, 37, 117, 68, 132
-0.998468, 281, 9, 344, 24
-0.998468, 33, 57, 64, 72
-0.99847, 141, 217, 172, 232
-0.99847, 81, 135, 144, 150
-0.998472, 33, 49, 64, 64
-0.998473, 261, 1, 292, 16
-0.998473, 325, 213, 356, 228
-0.998475, 17, 131, 80, 146
-0.998475, 85, 99, 116, 114
-0.998476, 225, 265, 256, 280
-0.998476, 45, 209, 76, 224
-0.998477, 293, 303, 324, 318
-0.998478, 73, 145, 136, 160
-0.998478, 105, 37, 136, 52
-0.998479, 193, 11, 256, 26
-0.998479, 445, 21, 476, 36
-0.998479, 21, 137, 52, 152
-0.99848, 37, 99, 68, 114
-0.998481, 433, 21, 496, 36
-0.998481, 105, 77, 136, 92
-0.998481, 149, 205, 180, 220
-0.998482, 377, 9, 440, 24
-0.998482, 1, 135, 32, 150
-0.998482, 221, 85, 252, 100
-0.998483, 97, 9, 128, 24
-0.998483, 337, 31, 400, 46
-0.998483, 67, 129, 82, 256
-0.998484, 349, 7, 380, 22
-0.998485, 425, 11, 488, 26
-0.998485, 93, 145, 124, 160
-0.998486, 145, 11, 208, 26
-0.998487, 313, 211, 344, 226
-0.998487, 389, 9, 420, 24
-0.998487, 33, 43, 64, 58
-0.998488, 169, 11, 232, 26
-0.998488, 129, 127, 192, 142
-0.998488, 241, 81, 272, 96
-0.998489, 1, 151, 64, 166
-0.99849, 273, 295, 304, 310
-0.99849, 49, 111, 112, 126
-0.998491, 17, 125, 80, 140
-0.998491, 125, 31, 156, 46
-0.998491, 241, 3, 304, 18
-0.998492, 89, 125, 152, 140
-0.998494, 149, 211, 180, 226
-0.998495, 153, 203, 216, 218
-0.998495, 97, 93, 128, 108
-0.998495, 1, 129, 32, 144
-0.998495, 409, 27, 472, 42
-0.998497, 97, 125, 128, 140
-0.998498, 273, 315, 336, 330
-0.998499, 41, 129, 72, 144
-0.9985, 353, 5, 416, 20
-0.998501, 293, 33, 324, 48
-0.998501, 61, 137, 92, 152
-0.998501, 121, 17, 184, 32
-0.998502, 245, 1, 276, 16
-0.998502, 173, 9, 204, 24
-0.998502, 265, 305, 328, 320
-0.998504, 353, 11, 416, 26
-0.998505, 105, 141, 168, 156
-0.998506, 273, 1, 336, 16
-0.998506, 9, 137, 72, 152
-0.998507, 85, 111, 116, 126
-0.998507, 21, 143, 52, 158
-0.998508, 325, 207, 356, 222
-0.998508, 25, 149, 56, 164
-0.998509, 457, 11, 488, 26
-0.998509, 117, 41, 148, 56
-0.99851, 221, 145, 252, 160
-0.99851, 37, 123, 68, 138
-0.99851, 421, 3, 452, 18
-0.998511, 205, 219, 236, 234
-0.998511, 113, 3, 176, 18
-0.998512, 445, 13, 476, 28
-0.998512, 49, 129, 112, 144
-0.998514, 161, 11, 192, 26
-0.998518, 9, 243, 72, 258
-0.998519, 37, 89, 68, 104
-0.99852, 133, 65, 164, 320
-0.99852, 105, 17, 136, 32
-0.998522, 29, 1, 60, 16
-0.998522, 369, 11, 400, 26
-0.998523, 21, 131, 52, 146
-0.998523, 249, 17, 312, 32
-0.998524, 81, 141, 112, 156
-0.998525, 93, 139, 124, 154
-0.998526, 1, 217, 64, 232
-0.998527, 233, 85, 296, 100
-0.998527, 461, 65, 492, 320
-0.998528, 209, 145, 272, 160
-0.998529, 105, 41, 168, 56
-0.998529, 25, 219, 88, 234
-0.998529, 417, 35, 480, 50
-0.998529, 369, 107, 432, 122
-0.998529, 109, 17, 124, 144
-0.998531, 393, 23, 424, 38
-0.998531, 345, 21, 408, 36
-0.998532, 221, 139, 252, 154
-0.998533, 185, 11, 216, 26
-0.998534, 169, 279, 200, 294
-0.998535, 373, 5, 404, 20
-0.998535, 37, 105, 68, 120
-0.998536, 273, 187, 336, 202
-0.998536, 33, 235, 96, 250
-0.998536, 281, 31, 312, 46
-0.998537, 137, 197, 200, 212
-0.998537, 41, 229, 104, 244
-0.998537, 41, 213, 104, 228
-0.998538, 249, 183, 312, 198
-0.998539, 381, 33, 412, 48
-0.99854, 73, 111, 136, 126
-0.99854, 93, 133, 124, 148
-0.998541, 125, 17, 156, 32
-0.998541, 33, 105, 96, 120
-0.998541, 105, 23, 136, 38
-0.998543, 25, 161, 88, 176
-0.998543, 49, 123, 112, 138
-0.998544, 145, 9, 176, 24
-0.998545, 205, 11, 236, 26
-0.998545, 401, 3, 464, 18
-0.998546, 109, 9, 140, 24
-0.998546, 405, 21, 436, 36
-0.998546, 1, 211, 64, 226
-0.998547, 33, 91, 96, 106
-0.998547, 105, 35, 168, 50
-0.998549, 25, 203, 88, 218
-0.99855, 1, 223, 64, 238
-0.99855, 1, 191, 64, 206
-0.99855, 97, 101, 160, 116
-0.998551, 1, 231, 64, 246
-0.998551, 33, 77, 96, 92
-0.998551, 321, 291, 384, 306
-0.998551, 401, 15, 464, 30
-0.998551, 401, 7, 432, 22
-0.998551, 217, 11, 248, 26
-0.998552, 425, 21, 456, 36
-0.998552, 137, 209, 200, 224
-0.998552, 1, 5, 64, 20
-0.998553, 153, 191, 216, 206
-0.998553, 25, 253, 88, 268
-0.998555, 289, 27, 352, 42
-0.998555, 105, 87, 136, 102
-0.998555, 41, 153, 104, 168
-0.998555, 17, 119, 80, 134
-0.998556, 161, 215, 224, 230
-0.998557, 89, 11, 152, 26
-0.998559, 9, 265, 72, 280
-0.998559, 41, 247, 104, 262
-0.998559, 413, 9, 444, 24
-0.99856, 25, 195, 88, 210
-0.99856, 25, 129, 40, 256
-0.99856, 25, 63, 88, 78
-0.998561, 89, 119, 152, 134
-0.998563, 41, 145, 104, 160
-0.998564, 145, 173, 208, 188
-0.998565, 313, 215, 376, 230
-0.998566, 33, 83, 96, 98
-0.998566, 289, 209, 352, 224
-0.998567, 361, 37, 424, 52
-0.998568, 101, 1, 132, 16
-0.998569, 73, 181, 136, 196
-0.998569, 209, 85, 272, 100
-0.99857, 17, 111, 80, 126
-0.99857, 1, 41, 64, 56
-0.99857, 25, 57, 88, 72
-0.998571, 77, 129, 92, 256
-0.998571, 265, 299, 328, 314
-0.998572, 329, 15, 392, 30
-0.998572, 329, 37, 392, 52
-0.998572, 177, 197, 240, 212
-0.998573, 249, 29, 312, 44
-0.998573, 233, 11, 264, 26
-0.998573, 1, 185, 64, 200
-0.998574, 393, 33, 424, 48
-0.998576, 41, 1, 104, 16
-0.998576, 249, 317, 312, 332
-0.998577, 9, 51, 72, 66
-0.998577, 177, 277, 240, 292
-0.998577, 33, 241, 96, 256
-0.998577, 465, 23, 496, 38
-0.998577, 217, 129, 280, 144
-0.998577, 65, 85, 128, 100
-0.998578, 81, 33, 144, 48
-0.998578, 449, 1, 480, 16
-0.998578, 377, 27, 408, 42
-0.998578, 1, 237, 64, 252
-0.998579, 25, 11, 88, 26
-0.998579, 369, 113, 432, 128
-0.998579, 233, 53, 296, 68
-0.998579, 405, 27, 436, 42
-0.998579, 1, 145, 32, 160
-0.998579, 345, 243, 408, 258
-0.99858, 401, 167, 464, 182
-0.99858, 241, 177, 304, 192
-0.99858, 225, 277, 288, 292
-0.998581, 1, 249, 64, 264
-0.998581, 361, 27, 392, 42
-0.998581, 289, 33, 352, 48
-0.998582, 133, 5, 164, 20
-0.998583, 273, 11, 304, 26
-0.998586, 385, 1, 416, 16
-0.998588, 41, 135, 72, 150
-0.998589, 273, 1, 304, 16
-0.99859, 217, 131, 248, 146
-0.998593, 245, 11, 276, 26
-0.998596, 425, 9, 456, 24
-0.998597, 119, 1, 134, 128
-0.998604, 105, 31, 136, 46
-0.99861, 365, 33, 396, 48
-0.998615, 261, 7, 292, 22
-0.998619, 433, 3, 464, 18
-0.998623, 377, 21, 408, 36
-0.998623, 389, 15, 420, 30
-0.998634, 35, 129, 50, 256
-0.998636, 345, 31, 376, 46
-0.998649, 231, 129, 246, 256
-0.998656, 97, 113, 112, 240
-0.998666, 413, 15, 444, 30
-0.998676, 223, 129, 238, 256
-0.998686, 365, 65, 396, 320
-0.998721, 85, 129, 100, 256
-0.998735, 105, 81, 120, 208
-0.99876, 7, 113, 22, 240
-0.998763, 385, 1, 400, 128
-0.998779, 17, 129, 32, 256
-0.998809, 9, 161, 24, 288
-0.998809, 147, 1, 162, 128
-0.99881, 289, 1, 320, 256
-0.998836, 97, 1, 112, 128
-0.99888, 277, 1, 308, 256
-0.998881, 133, 33, 148, 160
-0.998886, 83, 81, 98, 208
-0.99889, 189, 145, 204, 272
-0.998896, 193, 209, 208, 334
-0.998898, 103, 1, 118, 128
-0.9989, 91, 113, 106, 240
-0.998904, 1, 145, 16, 272
-0.99891, 173, 145, 188, 272
-0.998916, 125, 1, 140, 128
-0.998925, 265, 33, 280, 160
-0.998928, 67, 193, 82, 320
-0.99893, 199, 161, 214, 288
-0.998938, 17, 177, 32, 304
-0.998946, 35, 81, 50, 208
-0.998954, 43, 177, 58, 304
-0.998954, 99, 49, 114, 176
-0.998961, 231, 33, 246, 160
-0.998972, 219, 33, 234, 160
-0.998976, 89, 65, 104, 192
-0.998982, 243, 33, 258, 160
-0.998989, 255, 33, 270, 160
-0.998993, 59, 129, 74, 256
-0.999003, 327, 161, 342, 288
-0.999017, 111, 65, 126, 192
-0.999019, 29, 1, 44, 128
-0.99902, 425, 1, 440, 128
-0.999022, 399, 1, 414, 128
-0.999023, 187, 209, 202, 334
-0.999031, 411, 1, 426, 128
-0.999037, 179, 161, 194, 288
-0.999048, 459, 1, 474, 128
-0.999058, 161, 177, 176, 304
-0.999063, 277, 33, 292, 160
-0.999068, 259, 81, 274, 208
-0.999068, 1, 97, 16, 224
-0.999074, 45, 49, 60, 176
-0.999083, 59, 177, 74, 304
-0.999084, 75, 81, 90, 208
-0.999085, 75, 177, 90, 304
-0.999088, 229, 81, 244, 208
-0.999094, 465, 1, 480, 128
-0.999098, 131, 177, 146, 304
-0.999098, 167, 129, 182, 256
-0.999099, 285, 17, 300, 144
-0.9991, 259, 129, 274, 256
-0.999101, 51, 81, 66, 208
-0.999101, 225, 33, 240, 160
-0.999116, 271, 17, 286, 144
-0.999117, 419, 1, 434, 128
-0.999122, 159, 33, 174, 160
-0.999126, 237, 33, 252, 160
-0.999126, 193, 1, 224, 256
-0.999131, 151, 113, 166, 240
-0.999133, 27, 177, 42, 304
-0.999136, 53, 145, 68, 272
-0.999137, 157, 129, 172, 256
-0.999138, 479, 1, 494, 128
-0.999143, 395, 209, 410, 334
-0.999147, 41, 1, 56, 128
-0.999152, 391, 1, 406, 128
-0.999153, 211, 33, 226, 160
-0.999154, 335, 145, 350, 272
-0.999154, 111, 145, 126, 272
-0.999154, 471, 1, 486, 128
-0.999154, 209, 161, 224, 288
-0.999156, 41, 113, 56, 240
-0.99916, 199, 209, 214, 334
-0.999171, 379, 1, 394, 128
-0.999172, 141, 193, 156, 320
-0.999175, 139, 33, 154, 160
-0.999175, 405, 1, 420, 128
-0.999178, 155, 193, 170, 320
-0.999179, 169, 33, 184, 160
-0.99918, 101, 161, 116, 288
-0.999183, 61, 81, 76, 208
-0.999185, 237, 129, 252, 256
-0.999189, 123, 177, 138, 304
-0.999191, 27, 81, 42, 208
-0.999201, 249, 17, 264, 144
-0.999203, 317, 1, 332, 128
-0.999211, 179, 209, 194, 334
-0.999212, 169, 193, 184, 320
-0.999215, 153, 1, 168, 128
-0.999215, 35, 177, 50, 304
-0.999216, 321, 161, 336, 288
-0.999218, 219, 177, 234, 304
-0.99922, 133, 113, 148, 240
-0.999221, 417, 97, 432, 224
-0.999223, 453, 113, 468, 240
-0.999234, 149, 177, 164, 304
-0.999237, 291, 1, 306, 128
-0.99924, 277, 161, 292, 288
-0.999241, 49, 209, 64, 334
-0.99925, 1, 193, 16, 320
-0.99925, 141, 145, 156, 272
-0.999259, 453, 1, 468, 128
-0.99926, 425, 113, 440, 240
-0.999261, 265, 129, 280, 256
-0.999262, 205, 33, 220, 160
-0.999264, 381, 209, 396, 334
-0.999267, 441, 1, 456, 128
-0.999272, 447, 1, 462, 128
-0.999275, 189, 33, 204, 160
-0.999276, 179, 113, 194, 240
-0.999277, 253, 145, 268, 272
-0.999281, 55, 1, 70, 128
-0.999281, 269, 81, 284, 208
-0.999284, 17, 81, 32, 208
-0.999287, 225, 177, 240, 304
-0.999287, 387, 209, 402, 334
-0.999288, 333, 209, 348, 334
-0.999288, 433, 1, 448, 128
-0.99929, 217, 129, 232, 256
-0.999293, 195, 33, 210, 160
-0.999643, 151, 17, 166, 32
-0.999643, 403, 35, 418, 50
-0.999643, 479, 33, 494, 48
-0.999644, 107, 139, 122, 154
-0.999645, 275, 233, 290, 248
-0.999646, 305, 307, 320, 322
-0.999647, 145, 211, 160, 226
-0.999648, 93, 141, 108, 156
-0.999649, 239, 273, 254, 288
-0.999649, 147, 37, 162, 52
-0.99965, 113, 23, 128, 38
-0.99965, 455, 21, 470, 36
-0.999651, 117, 17, 132, 32
-0.999651, 421, 31, 436, 46
-0.999653, 353, 31, 368, 46
-0.999654, 9, 187, 24, 202
-0.999655, 85, 1, 100, 16
-0.999655, 37, 143, 52, 158
-0.999656, 21, 131, 36, 146
-0.999656, 393, 15, 408, 30
-0.999657, 97, 5, 112, 20
-0.999659, 399, 15, 414, 30
-0.99966, 45, 221, 60, 236
-0.999661, 447, 29, 462, 44
-0.999662, 261, 149, 276, 164
-0.999662, 13, 135, 28, 150
-0.999662, 405, 23, 420, 38
-0.999664, 413, 27, 428, 42
-0.999664, 285, 17, 300, 32
-0.999664, 385, 25, 400, 40
-0.999664, 461, 27, 476, 42
-0.999665, 91, 135, 106, 150
-0.999667, 361, 297, 376, 312
-0.999668, 141, 1, 156, 16
-0.999669, 101, 97, 116, 112
-0.999669, 97, 129, 112, 144
-0.999669, 449, 19, 464, 34
-0.99967, 127, 17, 142, 32
-0.99967, 299, 33, 314, 48
-0.999671, 167, 9, 182, 24
-0.999671, 415, 11, 430, 26
-0.999673, 181, 9, 196, 24
-0.999674, 175, 9, 190, 24
-0.999676, 107, 29, 122, 44
-0.999676, 263, 1, 278, 16
-0.999677, 131, 7, 146, 22
-0.999678, 149, 11, 164, 26
-0.999678, 161, 9, 176, 24
-0.999678, 119, 31, 134, 46
-0.99968, 107, 9, 122, 24
-0.999681, 191, 11, 206, 26
-0.999681, 235, 263, 250, 278
-0.999682, 21, 143, 36, 158
-0.999683, 137, 9, 152, 24
-0.999683, 67, 215, 82, 230
-0.999685, 203, 11, 218, 26
-0.999685, 67, 199, 82, 214
-0.999686, 367, 27, 382, 42
-0.999686, 283, 295, 298, 310
-0.999687, 389, 3, 404, 18
-0.999687, 395, 9, 410, 24
-0.999689, 111, 85, 126, 100
-0.99969, 197, 11, 212, 26
-0.99969, 109, 57, 124, 72
-0.999692, 213, 11, 228, 26
-0.999692, 433, 3, 448, 18
-0.999693, 111, 79, 126, 94
-0.999694, 385, 31, 400, 46
-0.999695, 463, 21, 478, 36
-0.999696, 147, 5, 162, 20
-0.999697, 327, 213, 342, 228
-0.999698, 109, 69, 124, 84
-0.999699, 423, 17, 438, 32
-0.9997, 231, 147, 246, 162
-0.9997, 439, 11, 454, 26
-0.999701, 155, 11, 170, 26
-0.999703, 403, 5, 418, 20
-0.999704, 219, 11, 234, 26
-0.999704, 111, 91, 126, 106
-0.999705, 471, 1, 486, 16
-0.999705, 243, 81, 258, 96
-0.999706, 447, 9, 462, 24
-0.999708, 465, 11, 480, 26
-0.999709, 235, 85, 250, 100
-0.999709, 107, 21, 122, 36
-0.999709, 369, 33, 384, 48
-0.99971, 109, 51, 124, 66
-0.999713, 109, 35, 124, 50
-0.999713, 441, 3, 456, 18
-0.999714, 271, 5, 286, 20
-0.999714, 107, 15, 122, 30
-0.999714, 119, 9, 134, 24
-0.999715, 177, 279, 192, 294
-0.999715, 105, 1, 120, 16
-0.999719, 257, 1, 272, 16
-0.999722, 395, 1, 410, 16
-0.999722, 375, 31, 390, 46
-0.999722, 67, 209, 82, 224
-0.999723, 411, 21, 426, 36
-0.999724, 475, 27, 490, 42
-0.999724, 231, 11, 246, 26
-0.999726, 277, 299, 292, 314
-0.999728, 469, 21, 484, 36
-0.999729, 241, 11, 256, 26
-0.999731, 429, 11, 444, 26
-0.999732, 225, 11, 240, 26
-0.999737, 251, 11, 266, 26
-0.999738, 375, 23, 390, 38
-0.999739, 109, 43, 124, 58
-0.99974, 477, 21, 492, 36
-0.999741, 227, 125, 242, 140
-0.999741, 275, 11, 290, 26
-0.999743, 283, 1, 298, 16
-0.999744, 257, 11, 272, 26
-0.999744, 421, 23, 436, 38
-0.999746, 403, 29, 418, 44
-0.999752, 457, 13, 472, 28
-0.999752, 285, 11, 300, 26
-0.999753, 111, 1, 126, 16
-0.999754, 363, 33, 378, 48
-0.999755, 293, 31, 308, 46
-0.999755, 389, 9, 404, 24
-0.999759, 265, 7, 280, 22
-0.99976, 277, 5, 292, 20
-0.99976, 421, 9, 436, 24
-0.999764, 417, 17, 432, 32
-0.999767, 397, 31, 412, 46
-0.999774, 385, 19, 400, 34
-0.999776, 429, 19, 444, 34
-0.999801, 447, 3, 462, 18
