2000
-0.526885, 1, 1, 500, 256
-0.554865, 1, 97, 500, 352
-0.633055, 257, 1, 500, 375
-0.645746, 129, 1, 384, 375
-0.667556, 1, 1, 500, 375
-0.704095, 1, 1, 256, 256
-0.71697, 129, 1, 384, 256
-0.73923, 33, 1, 288, 375
-0.747955, 225, 1, 480, 256
-0.792151, 65, 97, 320, 352
-0.864098, 161, 129, 416, 375
-0.891754, 177, 1, 304, 375
-0.895254, 129, 1, 256, 256
-0.896918, 65, 1, 192, 256
-0.900323, 193, 1, 320, 256
-0.903724, 129, 97, 256, 352
-0.905255, 369, 1, 496, 256
-0.907446, 257, 129, 500, 375
-0.908118, 321, 1, 448, 256
-0.911314, 1, 129, 500, 256
-0.911658, 129, 1, 256, 375
-0.912983, 241, 1, 368, 256
-0.915481, 225, 1, 352, 375
-0.918448, 177, 97, 304, 352
-0.920157, 129, 97, 384, 224
-0.923471, 81, 1, 208, 375
-0.928584, 369, 1, 496, 375
-0.929013, 273, 1, 400, 375
-0.93166, 17, 1, 144, 256
-0.936421, 97, 145, 352, 272
-0.938029, 321, 1, 448, 375
-0.938113, 81, 97, 208, 352
-0.942088, 369, 97, 496, 352
-0.942845, 257, 97, 500, 224
-0.944636, 161, 97, 224, 224
-0.946118, 129, 97, 256, 224
-0.946309, 225, 129, 352, 375
-0.947779, 1, 17, 500, 144
-0.949728, 185, 97, 248, 224
-0.95098, 273, 153, 336, 216
-0.951021, 425, 97, 488, 224
-0.951201, 1, 177, 500, 304
-0.951412, 1, 1, 128, 375
-0.951825, 209, 97, 336, 224
-0.952547, 241, 145, 304, 208
-0.953038, 33, 97, 288, 224
-0.953744, 1, 81, 500, 208
-0.954702, 193, 145, 448, 272
-0.954912, 201, 129, 264, 192
-0.95664, 241, 97, 304, 224
-0.95779, 273, 161, 336, 288
-0.958304, 265, 113, 328, 240
-0.95831, 177, 137, 240, 200
-0.958709, 145, 129, 208, 192
-0.960013, 129, 49, 384, 176
-0.960114, 209, 97, 272, 224
-0.960471, 433, 145, 496, 208
-0.961254, 129, 1, 384, 128
-0.962099, 177, 105, 240, 168
-0.962278, 257, 49, 500, 176
-0.962618, 177, 49, 304, 176
-0.963176, 1, 17, 256, 144
-0.963342, 433, 121, 496, 184
-0.963723, 241, 145, 304, 272
-0.963732, 185, 145, 248, 272
-0.963824, 145, 105, 208, 168
-0.964023, 433, 145, 496, 272
-0.964353, 209, 105, 272, 168
-0.964843, 281, 177, 344, 240
-0.964891, 177, 145, 304, 272
-0.965339, 321, 97, 448, 352
-0.965386, 217, 145, 280, 272
-0.965416, 137, 97, 200, 224
-0.965441, 257, 113, 320, 176
-0.965661, 273, 97, 400, 352
-0.966763, 337, 25, 400, 88
-0.967013, 225, 1, 480, 128
-0.967692, 225, 145, 352, 272
-0.968127, 409, 25, 472, 88
-0.968253, 369, 1, 496, 128
-0.968498, 225, 145, 352, 208
-0.969317, 241, 169, 304, 232
-0.96953, 369, 25, 432, 88
-0.970289, 161, 49, 224, 176
-0.970345, 305, 169, 368, 232
-0.970437, 265, 25, 328, 88
-0.971305, 193, 25, 256, 88
-0.971351, 425, 169, 488, 232
-0.971544, 145, 1, 272, 128
-0.97178, 201, 153, 264, 216
-0.97179, 129, 145, 256, 272
-0.971906, 465, 121, 496, 184
-0.972014, 233, 121, 296, 184
-0.972231, 257, 1, 384, 128
-0.972415, 225, 25, 288, 88
-0.972433, 257, 97, 384, 224
-0.972503, 161, 145, 224, 272
-0.972732, 177, 105, 304, 168
-0.97299, 433, 25, 496, 88
-0.973155, 81, 113, 208, 240
-0.973207, 81, 1, 208, 128
-0.973321, 265, 145, 296, 208
-0.973701, 177, 137, 304, 200
-0.974187, 213, 129, 244, 192
-0.974839, 129, 49, 256, 176
-0.974985, 193, 17, 256, 144
-0.975323, 297, 161, 360, 288
-0.975414, 393, 1, 456, 128
-0.975639, 313, 25, 376, 88
-0.97594, 245, 145, 276, 208
-0.975967, 169, 25, 232, 88
-0.97629, 129, 129, 256, 192
-0.976296, 1, 145, 256, 272
-0.976301, 161, 1, 224, 128
-0.976637, 285, 153, 316, 216
-0.976822, 277, 105, 308, 168
-0.976832, 469, 113, 500, 240
-0.976839, 201, 121, 232, 184
-0.976969, 241, 169, 368, 232
-0.977128, 297, 153, 328, 216
-0.977821, 121, 121, 184, 184
-0.977834, 129, 105, 256, 168
-0.977906, 425, 1, 488, 256
-0.977912, 369, 113, 496, 240
-0.977969, 241, 1, 304, 128
-0.978128, 449, 145, 480, 208
-0.978195, 241, 49, 304, 176
-0.978247, 185, 129, 216, 192
-0.978398, 177, 169, 304, 232
-0.978582, 425, 33, 488, 160
-0.978663, 173, 129, 204, 192
-0.978686, 461, 145, 492, 208
-0.978743, 225, 121, 352, 184
-0.978762, 217, 1, 280, 128
-0.978782, 289, 97, 320, 224
-0.978823, 337, 25, 464, 88
-0.979377, 153, 113, 184, 176
-0.979602, 321, 169, 352, 232
-0.979805, 177, 1, 240, 256
-0.979812, 305, 1, 432, 128
-0.979824, 193, 1, 320, 128
-0.979888, 281, 1, 344, 128
-0.97993, 265, 113, 296, 176
-0.979967, 297, 1, 360, 64
-0.979995, 153, 153, 216, 216
-0.980073, 137, 145, 200, 272
-0.980159, 193, 81, 224, 208
-0.98042, 221, 113, 252, 240
-0.980489, 377, 1, 440, 64
-0.980509, 217, 105, 248, 168
-0.980516, 273, 97, 304, 224
-0.980686, 329, 1, 392, 128
-0.980688, 305, 177, 336, 240
-0.980732, 1, 17, 128, 144
-0.980766, 177, 25, 304, 88
-0.980777, 433, 153, 464, 216
-0.980827, 205, 97, 236, 224
-0.980893, 297, 145, 360, 208
-0.980913, 361, 1, 424, 128
-0.980999, 409, 145, 472, 272
-0.981113, 337, 1, 400, 64
-0.981123, 165, 81, 196, 208
-0.981173, 289, 25, 352, 88
-0.981602, 409, 145, 472, 208
-0.981627, 249, 1, 312, 64
-0.981895, 137, 1, 200, 256
-0.982015, 453, 113, 484, 176
-0.982078, 201, 1, 264, 64
-0.982106, 201, 97, 232, 160
-0.982111, 233, 97, 296, 160
-0.982116, 177, 161, 240, 224
-0.982142, 1, 241, 500, 368
-0.982282, 185, 97, 216, 160
-0.982328, 165, 97, 196, 160
-0.982532, 145, 81, 208, 144
-0.982669, 377, 25, 408, 88
-0.982762, 429, 25, 460, 88
-0.982791, 233, 113, 264, 240
-0.982843, 129, 153, 192, 216
-0.982917, 229, 137, 260, 200
-0.982932, 453, 97, 484, 224
-0.982934, 401, 1, 464, 64
-0.98294, 113, 97, 176, 224
-0.98301, 281, 49, 344, 176
-0.983036, 1, 129, 128, 375
-0.983071, 197, 25, 228, 88
-0.983079, 241, 25, 368, 88
-0.983096, 137, 1, 200, 128
-0.983155, 233, 1, 296, 256
-0.983179, 265, 169, 296, 232
-0.983257, 217, 49, 280, 176
-0.983299, 121, 97, 184, 160
-0.98335, 293, 113, 324, 176
-0.983441, 305, 1, 368, 128
-0.983444, 413, 25, 444, 88
-0.983509, 209, 1, 272, 256
-0.983672, 73, 1, 136, 128
-0.983674, 265, 145, 296, 272
-0.983711, 289, 25, 416, 88
-0.98376, 273, 145, 400, 272
-0.983767, 397, 25, 428, 88
-0.983829, 345, 25, 376, 88
-0.98399, 401, 177, 464, 240
-0.984033, 209, 177, 272, 240
-0.984088, 137, 49, 200, 176
-0.984147, 273, 1, 336, 256
-0.984275, 365, 25, 396, 88
-0.984386, 245, 121, 276, 184
-0.984432, 253, 25, 284, 88
-0.984439, 177, 97, 208, 224
-0.984443, 321, 129, 448, 256
-0.98445, 9, 25, 72, 88
-0.984543, 161, 193, 416, 320
-0.984609, 409, 113, 472, 176
-0.98461, 289, 97, 352, 224
-0.98466, 457, 169, 488, 232
-0.984664, 241, 25, 272, 88
-0.984695, 269, 25, 300, 88
-0.984759, 161, 1, 224, 64
-0.984774, 433, 1, 496, 64
-0.984802, 289, 49, 416, 176
-0.984916, 149, 81, 180, 208
-0.984948, 309, 153, 340, 216
-0.985015, 225, 1, 288, 64
-0.985083, 289, 25, 320, 88
-0.985096, 169, 97, 232, 352
-0.985121, 97, 1, 160, 256
-0.985137, 369, 153, 496, 216
-0.985337, 129, 25, 256, 88
-0.98535, 193, 97, 256, 352
-0.985478, 309, 161, 340, 288
-0.985478, 201, 145, 232, 208
-0.985603, 33, 25, 96, 88
-0.98561, 385, 1, 448, 256
-0.985637, 229, 105, 260, 168
-0.985643, 393, 97, 456, 224
-0.985721, 73, 25, 136, 88
-0.985914, 209, 25, 240, 88
-0.985928, 297, 1, 360, 256
-0.985943, 285, 177, 316, 240
-0.985989, 441, 105, 472, 168
-0.986017, 129, 153, 256, 216
-0.986063, 141, 105, 172, 168
-0.986138, 153, 89, 184, 152
-0.986219, 241, 1, 368, 64
-0.986282, 321, 169, 448, 232
-0.98647, 353, 49, 480, 176
-0.986513, 281, 121, 344, 184
-0.986548, 229, 25, 260, 88
-0.986664, 145, 25, 208, 88
-0.98672, 333, 25, 364, 88
-0.986728, 65, 49, 192, 176
-0.986871, 261, 97, 292, 224
-0.986888, 245, 169, 276, 232
-0.986942, 121, 25, 184, 88
-0.986951, 257, 89, 320, 152
-0.986999, 433, 97, 496, 352
-0.987006, 393, 49, 456, 176
-0.987051, 433, 129, 464, 256
-0.987176, 425, 89, 488, 152
-0.987179, 277, 145, 308, 272
-0.987221, 97, 25, 160, 88
-0.987246, 193, 1, 320, 64
-0.987283, 293, 145, 324, 272
-0.987403, 305, 193, 368, 256
-0.987462, 145, 137, 176, 200
-0.987555, 441, 25, 472, 88
-0.987568, 457, 145, 488, 272
-0.987611, 241, 193, 368, 256
-0.98766, 321, 145, 448, 208
-0.987677, 185, 25, 216, 88
-0.987786, 329, 169, 392, 232
-0.987998, 177, 81, 240, 144
-0.988031, 233, 161, 264, 224
-0.988086, 25, 1, 88, 128
-0.988098, 1, 25, 128, 88
-0.98818, 281, 161, 344, 192
-0.988207, 273, 145, 400, 208
-0.988247, 249, 1, 312, 375
-0.98825, 369, 113, 496, 176
-0.988274, 369, 161, 496, 288
-0.988291, 265, 173, 328, 204
-0.988321, 329, 1, 392, 256
-0.988328, 301, 25, 332, 88
-0.988396, 217, 97, 280, 352
-0.988455, 245, 129, 276, 256
-0.988503, 81, 129, 208, 192
-0.988583, 205, 145, 236, 272
-0.988718, 289, 177, 352, 208
-0.988745, 225, 49, 352, 176
-0.988767, 445, 169, 476, 232
-0.988778, 81, 105, 208, 168
-0.988862, 277, 129, 308, 192
-0.98887, 153, 121, 216, 152
-0.98889, 213, 49, 244, 176
-0.988926, 409, 313, 472, 375
-0.988983, 249, 153, 312, 184
-0.989035, 169, 137, 232, 168
-0.989039, 145, 97, 208, 352
-0.989091, 337, 1, 464, 64
-0.989157, 193, 1, 256, 375
-0.989249, 257, 193, 320, 256
-0.989287, 49, 1, 112, 128
-0.989293, 177, 125, 240, 156
-0.989313, 65, 25, 192, 88
-0.989381, 461, 25, 492, 88
-0.989396, 225, 97, 352, 160
-0.989432, 233, 173, 296, 204
-0.989434, 469, 169, 500, 232
-0.98952, 281, 201, 344, 264
-0.989673, 137, 133, 200, 164
-0.989737, 249, 129, 312, 375
-0.989738, 169, 1, 232, 375
-0.989756, 161, 1, 192, 128
-0.989757, 425, 169, 488, 200
-0.989796, 289, 1, 416, 64
-0.989827, 273, 113, 400, 176
-0.989842, 385, 145, 448, 208
-0.989887, 169, 149, 232, 180
-0.989901, 269, 49, 300, 176
-0.98991, 225, 1, 288, 375
-0.989926, 209, 137, 272, 168
-0.989943, 185, 33, 216, 160
-0.989973, 161, 81, 288, 144
-0.989995, 137, 145, 200, 176
-0.990023, 193, 157, 256, 188
-0.990034, 421, 1, 452, 128
-0.990046, 113, 1, 240, 64
-0.990104, 149, 33, 180, 160
-0.990133, 209, 169, 272, 200
-0.99021, 313, 173, 376, 204
-0.990238, 217, 153, 248, 216
-0.990275, 409, 29, 472, 60
-0.990282, 265, 185, 328, 216
-0.990346, 185, 33, 248, 64
-0.990396, 429, 177, 460, 240
-0.990406, 345, 29, 408, 60
-0.990407, 225, 1, 256, 128
-0.990407, 469, 49, 500, 176
-0.99044, 105, 1, 168, 128
-0.990491, 301, 97, 332, 224
-0.990521, 49, 1, 112, 256
-0.990561, 425, 157, 488, 188
-0.990581, 157, 129, 188, 256
-0.990619, 421, 1, 452, 64
-0.990623, 189, 153, 220, 216
-0.990629, 257, 113, 320, 144
-0.990672, 289, 189, 352, 220
-0.990675, 153, 101, 216, 132
-0.990743, 273, 1, 304, 64
-0.990755, 129, 113, 192, 144
-0.990767, 165, 153, 196, 216
-0.990781, 257, 29, 320, 60
-0.990782, 129, 153, 384, 216
-0.990825, 281, 29, 344, 60
-0.990826, 321, 145, 352, 208
-0.990855, 233, 133, 296, 164
-0.990921, 225, 29, 288, 60
-0.990934, 261, 1, 292, 64
-0.990965, 377, 29, 440, 60
-0.990997, 305, 33, 368, 64
-0.991005, 73, 1, 136, 256
-0.991006, 145, 37, 208, 68
-0.991009, 257, 193, 500, 320
-0.991018, 317, 25, 348, 88
-0.991037, 273, 1, 336, 375
-0.991042, 173, 1, 204, 128
-0.991043, 65, 37, 128, 68
-0.991046, 237, 49, 268, 176
-0.991061, 425, 1, 488, 375
-0.991063, 425, 117, 488, 148
-0.991083, 225, 149, 288, 180
-0.991093, 433, 37, 496, 68
-0.991097, 353, 313, 480, 375
-0.991127, 233, 113, 296, 144
-0.991138, 201, 1, 232, 128
-0.991145, 285, 49, 316, 176
-0.99116, 369, 177, 496, 240
-0.991162, 121, 33, 184, 64
-0.99117, 457, 33, 488, 160
-0.991172, 145, 1, 208, 375
-0.99119, 145, 157, 208, 188
-0.99121, 249, 1, 280, 64
-0.991223, 313, 113, 376, 240
-0.991263, 145, 129, 176, 256
-0.99127, 345, 1, 376, 64
-0.991353, 273, 1, 336, 64
-0.991354, 321, 145, 352, 272
-0.991363, 25, 37, 88, 68
-0.991369, 469, 1, 500, 128
-0.991373, 89, 37, 152, 68
-0.991407, 193, 109, 256, 140
-0.99143, 361, 1, 424, 256
-0.991438, 169, 161, 232, 192
-0.991494, 429, 121, 460, 184
-0.991508, 241, 185, 304, 216
-0.991508, 201, 121, 264, 152
-0.991508, 269, 1, 300, 128
-0.991527, 433, 81, 464, 208
-0.991594, 245, 1, 276, 128
-0.991707, 425, 129, 488, 160
-0.991729, 401, 1, 432, 64
-0.991789, 9, 1, 72, 256
-0.991797, 305, 161, 368, 192
-0.991805, 401, 173, 464, 204
-0.991821, 1, 37, 64, 68
-0.991833, 425, 181, 488, 212
-0.991837, 401, 345, 464, 375
-0.991839, 345, 345, 408, 375
-0.991897, 257, 125, 320, 156
-0.991902, 377, 1, 408, 64
-0.991958, 173, 25, 204, 88
-0.991965, 113, 133, 176, 164
-0.991996, 161, 25, 224, 56
-0.992049, 401, 333, 464, 364
-0.992076, 129, 129, 384, 192
-0.99208, 425, 145, 488, 176
-0.992086, 193, 193, 320, 256
-0.992109, 401, 157, 464, 188
-0.992148, 121, 97, 184, 352
-0.992157, 377, 45, 440, 76
-0.992165, 225, 193, 352, 320
-0.992169, 97, 25, 160, 56
-0.992181, 369, 313, 432, 375
-0.992186, 129, 101, 192, 132
-0.992194, 433, 193, 496, 256
-0.992197, 369, 337, 432, 368
-0.992236, 297, 161, 328, 192
-0.99225, 193, 145, 224, 272
-0.992258, 433, 1, 464, 64
-0.992265, 333, 169, 364, 232
-0.992275, 197, 1, 228, 64
-0.992337, 65, 25, 128, 56
-0.992339, 441, 1, 472, 128
-0.992344, 257, 25, 500, 88
-0.99236, 425, 345, 488, 375
-0.992365, 161, 125, 192, 156
-0.992374, 249, 101, 312, 132
-0.992397, 217, 161, 248, 288
-0.992409, 277, 81, 308, 144
-0.992425, 309, 177, 340, 208
-0.992441, 345, 45, 408, 76
-0.992451, 329, 173, 360, 204
-0.992454, 221, 133, 252, 164
-0.992459, 309, 165, 340, 196
-0.992472, 433, 105, 496, 136
-0.992476, 185, 173, 248, 204
-0.992481, 313, 185, 376, 216
-0.992487, 209, 181, 272, 212
-0.992489, 277, 153, 308, 184
-0.992489, 285, 173, 316, 204
-0.992509, 249, 193, 312, 320
-0.99251, 269, 173, 300, 204
-0.992518, 297, 177, 328, 208
-0.992521, 469, 137, 500, 168
-0.992542, 181, 125, 212, 156
-0.992561, 449, 149, 480, 180
-0.992568, 445, 145, 476, 272
-0.992569, 289, 149, 352, 180
-0.992573, 377, 1, 408, 128
-0.992606, 205, 129, 236, 160
-0.992609, 281, 109, 312, 140
-0.992616, 221, 157, 252, 188
-0.992617, 469, 121, 500, 152
-0.992623, 281, 113, 344, 144
-0.992629, 237, 165, 268, 196
-0.992663, 201, 81, 264, 144
-0.992664, 257, 141, 320, 172
-0.992668, 237, 141, 268, 172
-0.992671, 145, 137, 176, 168
-0.992694, 241, 129, 272, 160
-0.992697, 257, 165, 288, 196
-0.992699, 221, 121, 252, 152
-0.992702, 425, 325, 488, 356
-0.992722, 213, 1, 244, 64
-0.992733, 321, 45, 384, 76
-0.992742, 257, 29, 288, 60
-0.992746, 433, 157, 464, 188
-0.992752, 401, 45, 464, 76
-0.992753, 285, 1, 316, 64
-0.992753, 389, 1, 420, 64
-0.992756, 249, 45, 312, 76
-0.992761, 205, 153, 236, 184
-0.992761, 173, 137, 204, 168
-0.992763, 257, 161, 500, 224
-0.992769, 41, 25, 104, 56
-0.992771, 471, 113, 486, 176
-0.992782, 201, 21, 264, 52
-0.992783, 417, 29, 448, 60
-0.992796, 293, 149, 324, 180
-0.992799, 237, 1, 268, 64
-0.992804, 257, 129, 288, 160
-0.992806, 169, 149, 200, 180
-0.992813, 357, 29, 388, 60
-0.992817, 193, 149, 224, 180
-0.992821, 181, 113, 212, 144
-0.992825, 461, 153, 492, 184
-0.992831, 265, 149, 296, 180
-0.992833, 405, 29, 436, 60
-0.992833, 265, 197, 328, 228
-0.992838, 197, 29, 228, 60
-0.99284, 201, 117, 232, 148
-0.992844, 357, 1, 388, 128
-0.992845, 337, 33, 368, 64
-0.992848, 225, 45, 288, 76
-0.992848, 161, 25, 416, 88
-0.992852, 257, 1, 288, 128
-0.992859, 401, 113, 464, 144
-0.992865, 433, 29, 464, 60
-0.992869, 337, 161, 400, 192
-0.992869, 165, 113, 196, 144
-0.992874, 437, 109, 468, 140
-0.992877, 469, 33, 500, 64
-0.99288, 281, 185, 312, 216
-0.99288, 285, 29, 316, 60
-0.992881, 177, 45, 240, 76
-0.992883, 93, 37, 124, 68
-0.992888, 249, 145, 280, 176
-0.992889, 145, 105, 176, 136
-0.992894, 433, 169, 464, 200
-0.992906, 225, 169, 256, 200
-0.992907, 249, 177, 280, 208
-0.992909, 389, 29, 420, 60
-0.992911, 53, 37, 84, 68
-0.992917, 321, 345, 384, 375
-0.992924, 469, 165, 500, 196
-0.992929, 321, 161, 352, 192
-0.992931, 457, 121, 488, 152
-0.992932, 73, 37, 104, 68
-0.992933, 457, 137, 488, 168
-0.992939, 269, 33, 300, 64
-0.99294, 445, 173, 476, 204
-0.992942, 121, 33, 152, 64
-0.992943, 241, 33, 272, 64
-0.992949, 221, 33, 252, 64
-0.99295, 113, 145, 176, 176
-0.992955, 289, 101, 352, 132
-0.992956, 265, 113, 296, 144
-0.992957, 305, 21, 368, 52
-0.992963, 465, 109, 496, 140
-0.992964, 113, 49, 176, 176
-0.992964, 185, 137, 216, 168
-0.992965, 369, 17, 432, 48
-0.992972, 105, 109, 168, 140
-0.992972, 425, 49, 488, 80
-0.992974, 445, 49, 476, 176
-0.992977, 33, 37, 64, 68
-0.992977, 449, 37, 480, 68
-0.992978, 469, 161, 500, 288
-0.99298, 121, 45, 184, 76
-0.992985, 357, 1, 388, 64
-0.992991, 369, 29, 400, 60
-0.992993, 209, 141, 240, 172
-0.992994, 177, 33, 208, 64
-0.993, 325, 33, 356, 64
-0.993013, 445, 161, 476, 192
-0.993017, 149, 37, 180, 68
-0.993017, 149, 125, 180, 156
-0.993023, 433, 25, 496, 56
-0.993039, 181, 153, 212, 184
-0.993047, 209, 33, 240, 64
-0.993048, 285, 1, 316, 128
-0.993055, 157, 145, 188, 176
-0.993057, 289, 201, 352, 232
-0.993061, 457, 165, 488, 196
-0.993061, 305, 33, 336, 64
-0.993062, 321, 185, 352, 216
-0.993064, 209, 165, 240, 196
-0.993068, 465, 177, 496, 208
-0.993069, 165, 101, 196, 132
-0.993077, 193, 161, 224, 192
-0.993082, 201, 45, 264, 76
-0.993086, 137, 37, 168, 68
-0.993092, 165, 37, 196, 68
-0.993092, 297, 189, 328, 220
-0.993104, 9, 37, 40, 68
-0.993105, 193, 149, 320, 180
-0.993114, 225, 145, 256, 176
-0.993117, 269, 185, 300, 216
-0.993121, 273, 45, 336, 76
-0.993127, 177, 97, 240, 128
-0.993127, 109, 37, 140, 68
-0.993133, 81, 25, 112, 88
-0.993143, 81, 1, 112, 128
-0.99315, 293, 113, 324, 144
-0.993161, 237, 177, 268, 208
-0.993163, 269, 97, 300, 128
-0.993166, 401, 185, 464, 216
-0.99317, 425, 341, 456, 372
-0.993177, 137, 21, 200, 52
-0.99318, 21, 37, 52, 68
-0.99318, 445, 121, 476, 152
-0.993186, 425, 113, 456, 144
-0.993197, 249, 109, 280, 140
-0.993202, 129, 1, 192, 64
-0.99321, 229, 109, 260, 140
-0.993216, 277, 121, 308, 152
-0.993219, 17, 25, 80, 56
-0.993223, 309, 189, 340, 220
-0.993229, 129, 105, 384, 168
-0.99323, 437, 345, 468, 375
-0.993234, 225, 101, 288, 132
-0.993239, 345, 17, 408, 48
-0.993246, 81, 153, 208, 216
-0.993249, 241, 165, 368, 196
-0.993257, 237, 153, 268, 184
-0.993258, 289, 213, 352, 244
-0.99326, 433, 193, 496, 224
-0.99326, 305, 149, 336, 180
-0.993286, 205, 105, 236, 136
-0.99329, 433, 313, 464, 375
-0.993294, 177, 101, 208, 132
-0.993295, 401, 17, 464, 48
-0.993296, 189, 101, 220, 132
-0.993296, 421, 169, 452, 200
-0.9933, 433, 181, 464, 212
-0.993308, 1, 49, 64, 80
-0.993316, 449, 109, 480, 140
-0.99332, 81, 25, 112, 56
-0.993321, 141, 25, 172, 56
-0.993323, 345, 1, 376, 128
-0.993329, 433, 145, 464, 176
-0.993338, 281, 97, 312, 128
-0.993338, 105, 25, 136, 56
-0.993341, 417, 205, 480, 236
-0.993344, 121, 157, 184, 188
-0.993346, 341, 169, 372, 200
-0.99335, 241, 13, 304, 44
-0.993362, 145, 169, 208, 200
-0.993362, 413, 345, 444, 375
-0.993363, 153, 89, 216, 120
-0.993363, 217, 109, 248, 140
-0.993365, 449, 345, 480, 375
-0.993374, 165, 25, 196, 56
-0.993378, 297, 45, 360, 76
-0.993379, 105, 121, 168, 152
-0.993398, 93, 25, 124, 56
-0.9934, 413, 333, 444, 364
-0.993406, 441, 97, 472, 128
-0.993407, 133, 137, 164, 168
-0.993408, 177, 193, 304, 320
-0.993409, 361, 345, 392, 375
-0.993413, 337, 177, 400, 208
-0.993425, 401, 145, 464, 176
-0.993428, 393, 45, 424, 76
-0.993432, 397, 1, 428, 128
-0.993433, 429, 97, 460, 128
-0.993459, 289, 193, 416, 256
-0.99349, 313, 213, 376, 244
-0.993519, 281, 17, 344, 48
-0.993541, 161, 177, 416, 240
-0.993545, 161, 133, 288, 164
-0.993553, 377, 169, 440, 200
-0.993574, 25, 49, 88, 80
-0.993575, 409, 1, 440, 128
-0.993628, 313, 149, 376, 180
-0.993638, 313, 197, 376, 228
-0.993639, 129, 89, 192, 120
-0.99364, 241, 97, 272, 160
-0.993648, 449, 1, 480, 64
-0.993682, 169, 193, 232, 224
-0.993685, 297, 345, 360, 375
-0.993689, 321, 333, 384, 364
-0.993698, 325, 1, 356, 64
-0.993714, 377, 325, 440, 356
-0.993716, 393, 197, 456, 228
-0.993721, 201, 93, 264, 124
-0.993721, 433, 217, 496, 248
-0.99374, 281, 137, 344, 168
-0.993942, 97, 81, 224, 144
-0.993956, 321, 145, 384, 208
-0.993979, 465, 97, 496, 160
-0.993999, 121, 1, 184, 375
-0.994009, 241, 177, 368, 208
-0.994013, 129, 177, 256, 240
-0.994056, 279, 145, 294, 208
-0.99406, 65, 1, 192, 64
-0.994064, 105, 25, 136, 88
-0.994076, 17, 25, 48, 88
-0.994097, 253, 97, 284, 160
-0.994124, 153, 25, 184, 88
-0.994142, 305, 1, 368, 375
-0.994154, 255, 145, 270, 208
-0.994244, 219, 129, 234, 192
-0.994249, 145, 157, 272, 188
-0.99426, 269, 145, 284, 208
-0.994279, 93, 25, 124, 88
-0.994324, 265, 89, 296, 152
-0.994428, 1, 33, 32, 96
-0.994483, 421, 145, 452, 272
-0.994499, 315, 153, 330, 216
-0.994508, 445, 81, 476, 144
-0.994527, 225, 129, 240, 192
-0.994534, 241, 153, 368, 184
-0.994541, 129, 121, 256, 152
-0.994545, 193, 169, 320, 200
-0.994549, 333, 1, 364, 128
-0.994562, 61, 1, 92, 128
-0.994569, 201, 169, 232, 232
-0.994571, 385, 145, 448, 272
-0.994577, 305, 129, 336, 192
-0.994585, 225, 49, 256, 176
-0.994598, 145, 145, 272, 176
-0.994609, 225, 129, 480, 192
-0.994631, 337, 29, 464, 60
-0.994666, 1, 1, 128, 64
-0.994671, 305, 1, 336, 128
-0.994674, 65, 25, 320, 88
-0.994753, 467, 137, 482, 200
-0.994769, 309, 153, 324, 216
-0.994776, 273, 89, 400, 152
-0.994794, 421, 153, 452, 216
-0.994809, 257, 49, 288, 176
-0.994842, 297, 1, 328, 64
-0.994872, 479, 129, 494, 192
-0.994923, 317, 177, 332, 240
-0.994963, 33, 121, 288, 184
-0.994973, 117, 25, 148, 88
-0.994988, 57, 25, 88, 88
-0.995028, 321, 1, 352, 128
-0.995029, 175, 129, 190, 192
-0.995098, 211, 129, 226, 192
-0.995128, 263, 145, 278, 208
-0.995129, 29, 25, 60, 88
-0.995131, 281, 129, 344, 375
-0.995145, 177, 109, 304, 140
-0.995152, 285, 145, 300, 208
-0.995174, 145, 169, 272, 200
-0.995189, 449, 153, 464, 216
-0.995193, 279, 121, 294, 184
-0.995202, 233, 73, 296, 136
-0.995205, 465, 113, 480, 176
-0.995209, 185, 1, 216, 64
-0.995212, 209, 125, 336, 156
-0.995221, 1, 49, 128, 112
-0.99524, 401, 89, 464, 152
-0.995257, 179, 105, 194, 168
-0.995282, 253, 177, 284, 304
-0.995298, 57, 1, 120, 64
-0.99533, 45, 25, 76, 88
-0.995347, 181, 129, 196, 192
-0.99536, 225, 29, 352, 60
-0.995367, 65, 193, 320, 320
-0.995375, 485, 145, 500, 208
-0.995413, 435, 161, 450, 224
-0.995425, 225, 1, 480, 64
-0.995426, 273, 121, 288, 184
-0.995429, 161, 33, 288, 64
-0.995433, 33, 145, 288, 208
-0.995439, 459, 113, 474, 176
-0.995474, 219, 105, 234, 168
-0.995477, 247, 145, 262, 208
-0.995483, 273, 193, 304, 256
-0.995483, 289, 201, 320, 264
-0.9955, 285, 105, 300, 168
-0.995519, 311, 177, 326, 240
-0.995529, 279, 169, 294, 232
-0.995531, 133, 25, 164, 88
-0.99555, 461, 145, 476, 208
-0.995569, 129, 113, 160, 176
-0.99557, 273, 33, 400, 64
-0.995576, 257, 185, 500, 248
-0.995578, 291, 153, 306, 216
-0.995598, 229, 161, 260, 288
-0.995605, 321, 193, 352, 256
-0.995622, 69, 25, 100, 88
-0.995628, 225, 241, 480, 368
-0.995631, 325, 169, 340, 232
-0.995644, 289, 81, 320, 144
-0.995655, 133, 137, 164, 200
-0.995662, 97, 149, 224, 180
-0.995668, 169, 113, 184, 176
-0.995671, 289, 173, 416, 204
-0.995677, 181, 145, 212, 272
-0.995684, 189, 113, 204, 176
-0.995691, 151, 105, 166, 168
-0.995696, 429, 89, 460, 152
-0.99571, 9, 49, 72, 112
-0.995718, 1, 25, 500, 88
-0.995729, 211, 105, 226, 168
-0.995737, 449, 313, 480, 375
-0.995761, 301, 153, 316, 216
-0.995762, 433, 313, 496, 375
-0.995762, 225, 105, 240, 168
-0.995777, 213, 177, 244, 240
-0.995791, 49, 37, 176, 68
-0.995792, 159, 89, 174, 152
-0.995795, 473, 137, 488, 200
-0.995796, 239, 137, 254, 200
-0.995804, 199, 129, 214, 192
-0.995807, 381, 25, 396, 88
-0.995826, 33, 1, 96, 64
-0.995841, 263, 121, 278, 184
-0.995868, 353, 89, 480, 152
-0.99588, 443, 89, 458, 152
-0.995897, 305, 201, 336, 264
-0.995904, 443, 25, 458, 88
-0.995931, 301, 113, 316, 176
-0.995935, 415, 25, 430, 88
-0.995944, 241, 189, 368, 220
-0.995951, 399, 25, 414, 88
-0.995959, 369, 49, 496, 112
-0.995964, 45, 1, 76, 128
-0.995977, 1, 33, 64, 160
-0.99599, 113, 73, 176, 136
-0.995997, 209, 137, 336, 168
-0.996008, 205, 121, 220, 184
-0.996011, 289, 177, 304, 240
-0.99602, 437, 25, 452, 88
-0.996036, 431, 25, 446, 88
-0.996038, 347, 25, 362, 88
-0.99604, 233, 137, 248, 200
-0.996051, 373, 25, 388, 88
-0.996055, 9, 1, 72, 64
-0.996077, 193, 181, 320, 212
-0.996079, 369, 177, 496, 208
-0.996087, 1, 153, 500, 216
-0.996093, 255, 25, 270, 88
-0.996116, 1, 113, 500, 176
-0.996123, 159, 129, 174, 192
-0.996129, 331, 169, 346, 232
-0.996139, 199, 25, 214, 88
-0.996144, 291, 105, 306, 168
-0.996154, 337, 201, 464, 264
-0.996156, 225, 217, 352, 280
-0.996157, 387, 25, 402, 88
-0.996157, 393, 25, 408, 88
-0.996162, 385, 1, 448, 375
-0.996163, 113, 133, 240, 164
-0.996168, 129, 105, 256, 136
-0.996174, 479, 153, 494, 216
-0.996177, 483, 105, 498, 168
-0.996179, 363, 25, 378, 88
-0.996209, 97, 37, 224, 68
-0.996223, 257, 89, 500, 152
-0.996224, 271, 25, 286, 88
-0.996297, 97, 113, 160, 176
-0.996305, 225, 1, 256, 64
-0.996308, 321, 341, 448, 372
-0.996316, 279, 89, 294, 152
-0.996333, 285, 25, 300, 88
-0.996339, 357, 25, 372, 88
-0.996361, 1, 37, 128, 68
-0.99637, 211, 25, 226, 88
-0.996378, 93, 17, 124, 144
-0.996379, 233, 25, 248, 88
-0.996383, 247, 121, 262, 184
-0.996388, 233, 113, 248, 176
-0.996389, 199, 97, 214, 160
-0.996391, 421, 25, 436, 88
-0.996393, 233, 193, 296, 256
-0.996394, 261, 25, 276, 88
-0.996401, 151, 129, 166, 192
-0.996424, 205, 25, 220, 88
-0.996427, 247, 25, 262, 88
-0.99643, 305, 177, 320, 240
-0.996433, 405, 25, 420, 88
-0.996439, 189, 137, 204, 200
-0.996502, 33, 97, 288, 160
-0.996512, 257, 121, 272, 184
-0.996517, 137, 1, 168, 128
-0.996529, 65, 1, 320, 64
-0.996537, 291, 25, 306, 88
-0.996568, 369, 153, 496, 184
-0.996598, 225, 113, 352, 144
-0.996601, 301, 25, 316, 88
-0.996613, 455, 161, 470, 224
-0.996618, 413, 97, 444, 224
-0.996625, 241, 25, 256, 88
-0.996646, 285, 81, 300, 144
-0.996646, 153, 177, 216, 240
-0.996648, 205, 145, 220, 208
-0.996649, 217, 25, 232, 88
-0.996658, 81, 1, 144, 64
-0.996671, 409, 201, 472, 264
-0.996678, 57, 49, 120, 112
-0.996723, 443, 153, 458, 216
-0.996728, 265, 169, 280, 232
-0.996731, 295, 177, 310, 240
-0.996746, 341, 25, 356, 88
-0.996747, 443, 121, 458, 184
-0.996773, 137, 81, 168, 208
-0.996782, 169, 89, 184, 152
-0.996786, 49, 81, 176, 144
-0.996791, 1, 241, 128, 368
-0.996794, 213, 1, 244, 128
-0.996816, 257, 169, 272, 232
-0.996819, 277, 25, 292, 88
-0.996826, 477, 105, 492, 168
-0.996828, 317, 97, 348, 224
-0.996847, 81, 1, 144, 375
-0.996855, 129, 201, 256, 264
-0.996856, 307, 25, 322, 88
-0.996857, 307, 129, 322, 192
-0.996877, 455, 137, 470, 200
-0.996912, 473, 161, 488, 224
-0.996919, 449, 25, 464, 88
-0.996935, 169, 153, 184, 216
-0.996936, 33, 1, 64, 128
-0.996957, 81, 25, 208, 56
-0.996968, 225, 25, 240, 88
-0.996993, 297, 89, 360, 152
-0.996996, 193, 25, 208, 88
-0.996999, 337, 161, 352, 224
-0.997004, 105, 1, 168, 64
-0.997006, 81, 121, 208, 152
-0.99703, 471, 25, 486, 88
-0.997045, 301, 157, 316, 188
-0.99707, 199, 153, 214, 216
-0.9971, 477, 25, 492, 88
-0.997102, 299, 177, 314, 208
-0.997103, 469, 193, 500, 256
-0.997113, 207, 1, 222, 64
-0.997124, 441, 1, 456, 64
-0.997132, 227, 153, 242, 216
-0.997146, 81, 177, 208, 240
-0.997147, 209, 73, 336, 136
-0.997154, 291, 81, 306, 144
-0.997155, 295, 157, 310, 188
-0.997163, 433, 177, 464, 304
-0.997165, 189, 125, 204, 156
-0.997165, 485, 169, 500, 232
-0.997167, 33, 113, 160, 176
-0.997174, 113, 145, 176, 272
-0.997176, 435, 137, 450, 200
-0.997179, 273, 169, 288, 232
-0.997191, 239, 113, 254, 176
-0.997197, 1, 289, 128, 352
-0.997213, 273, 217, 400, 280
-0.997217, 447, 177, 462, 240
-0.997218, 291, 169, 306, 200
-0.997229, 453, 1, 484, 256
-0.997239, 453, 113, 468, 176
-0.997241, 417, 313, 448, 375
-0.997244, 275, 1, 290, 64
-0.997248, 179, 133, 194, 164
-0.997252, 469, 121, 484, 152
-0.997256, 81, 161, 208, 288
-0.997264, 435, 1, 450, 64
-0.997269, 65, 137, 192, 168
-0.997271, 461, 169, 476, 232
-0.997275, 321, 173, 336, 204
-0.997287, 289, 161, 416, 192
-0.997288, 219, 153, 234, 216
-0.997303, 315, 25, 330, 88
-0.997306, 307, 157, 322, 188
-0.997316, 333, 173, 348, 204
-0.997325, 353, 113, 480, 144
-0.997328, 179, 121, 194, 152
-0.997332, 337, 165, 464, 196
-0.997333, 273, 97, 288, 160
-0.997345, 205, 97, 220, 160
-0.997356, 145, 97, 160, 160
-0.997362, 409, 97, 472, 352
-0.997376, 315, 161, 330, 192
-0.997378, 199, 129, 214, 160
-0.997388, 209, 1, 240, 256
-0.9974, 433, 193, 496, 320
-0.997408, 33, 169, 288, 232
-0.99741, 433, 49, 496, 112
-0.997411, 289, 153, 304, 184
-0.997416, 153, 1, 184, 256
-0.997453, 273, 193, 400, 320
-0.997453, 165, 1, 196, 64
-0.997463, 311, 177, 326, 208
-0.997495, 285, 101, 300, 132
-0.997525, 313, 217, 376, 280
-0.997533, 321, 45, 448, 76
-0.997551, 217, 129, 232, 160
-0.997569, 275, 173, 290, 204
-0.997573, 97, 161, 224, 192
-0.997579, 321, 113, 448, 176
-0.997581, 173, 133, 188, 164
-0.997591, 305, 129, 368, 375
-0.997601, 223, 125, 238, 156
-0.997608, 65, 49, 192, 112
-0.997635, 259, 169, 274, 200
-0.997636, 159, 133, 174, 164
-0.997646, 289, 185, 416, 216
-0.99766, 245, 165, 260, 196
-0.997668, 483, 121, 498, 152
-0.997674, 229, 161, 244, 192
-0.997674, 471, 141, 486, 172
-0.997681, 201, 149, 216, 180
-0.997681, 243, 129, 258, 160
-0.997684, 233, 125, 248, 156
-0.997708, 187, 141, 202, 172
-0.997714, 129, 49, 256, 112
-0.997719, 305, 177, 320, 208
-0.99772, 285, 173, 300, 204
-0.997725, 219, 157, 234, 188
-0.99773, 151, 137, 166, 168
-0.997733, 341, 169, 356, 200
-0.99774, 207, 125, 222, 156
-0.997753, 105, 145, 168, 208
-0.997757, 225, 141, 240, 172
-0.997761, 451, 149, 466, 180
-0.997761, 185, 1, 216, 256
-0.997771, 325, 161, 340, 192
-0.997774, 477, 153, 492, 184
-0.997782, 169, 145, 200, 272
-0.997788, 323, 185, 338, 216
-0.997793, 421, 49, 452, 176
-0.997795, 485, 169, 500, 200
-0.997799, 281, 153, 296, 184
-0.997802, 445, 97, 460, 128
-0.99781, 299, 113, 314, 144
-0.997823, 269, 149, 284, 180
-0.997827, 225, 193, 288, 320
-0.997829, 267, 29, 282, 60
-0.997841, 279, 113, 294, 144
-0.997842, 419, 29, 434, 60
-0.997855, 291, 181, 306, 212
-0.997857, 293, 109, 308, 140
-0.997858, 169, 121, 184, 152
-0.99786, 247, 141, 262, 172
-0.997871, 257, 133, 272, 164
-0.997871, 475, 121, 490, 152
-0.997872, 477, 137, 492, 168
-0.997873, 461, 149, 476, 180
-0.997877, 235, 157, 250, 188
-0.997878, 233, 137, 248, 168
-0.997884, 369, 329, 496, 360
-0.997902, 195, 145, 210, 176
-0.997905, 1, 1, 64, 375
-0.99791, 461, 117, 476, 148
-0.997914, 185, 185, 248, 248
-0.997915, 97, 33, 112, 64
-0.997916, 161, 117, 176, 148
-0.997917, 369, 125, 496, 156
-0.997918, 327, 173, 342, 204
-0.997921, 267, 169, 282, 200
-0.997923, 433, 169, 448, 200
-0.997925, 259, 149, 274, 180
-0.997936, 241, 145, 256, 176
-0.997943, 305, 49, 432, 112
-0.997947, 167, 145, 182, 176
-0.997947, 257, 137, 384, 168
-0.997948, 461, 129, 476, 160
-0.997964, 363, 29, 378, 60
-0.997968, 329, 1, 392, 375
-0.99797, 209, 45, 336, 76
-0.997978, 253, 165, 268, 196
-0.997979, 269, 129, 284, 160
-0.997981, 457, 165, 472, 196
-0.997981, 195, 117, 210, 148
-0.997999, 259, 33, 274, 64
-0.998, 265, 181, 280, 212
-0.998003, 57, 1, 120, 375
-0.998004, 173, 145, 188, 176
-0.998006, 155, 33, 170, 64
-0.998007, 195, 157, 210, 188
-0.998008, 1, 1, 500, 64
-0.998032, 237, 33, 252, 64
-0.998036, 251, 129, 266, 160
-0.998037, 165, 37, 180, 68
-0.998039, 409, 33, 424, 64
-0.998041, 275, 149, 290, 180
-0.998041, 183, 33, 198, 64
-0.998042, 441, 1, 472, 256
-0.99805, 257, 125, 384, 156
-0.99806, 393, 49, 456, 112
-0.998061, 473, 33, 488, 64
-0.998063, 353, 33, 368, 64
-0.998064, 399, 29, 414, 60
-0.998065, 233, 185, 264, 248
-0.998065, 285, 1, 316, 256
-0.998078, 207, 29, 222, 60
-0.998079, 287, 29, 302, 60
-0.99808, 469, 1, 500, 256
-0.998081, 133, 33, 148, 64
-0.998091, 343, 33, 358, 64
-0.998096, 201, 117, 216, 148
-0.998096, 219, 33, 234, 64
-0.998097, 57, 37, 72, 68
-0.9981, 213, 157, 228, 188
-0.998102, 275, 161, 290, 192
-0.998108, 269, 1, 300, 256
-0.99811, 277, 33, 292, 64
-0.998111, 155, 113, 170, 144
-0.998112, 297, 25, 312, 56
-0.998118, 273, 21, 400, 52
-0.998119, 443, 153, 458, 184
-0.99812, 1, 9, 32, 72
-0.998125, 165, 1, 196, 256
-0.998126, 455, 117, 470, 148
-0.998127, 205, 97, 236, 352
-0.99813, 65, 109, 192, 140
-0.998132, 197, 1, 228, 256
-0.998137, 269, 193, 300, 320
-0.998139, 483, 153, 498, 184
-0.998141, 383, 29, 398, 60
-0.998141, 253, 33, 268, 64
-0.998142, 353, 141, 480, 172
-0.998142, 253, 177, 268, 208
-0.998144, 445, 29, 460, 60
-0.998146, 285, 185, 300, 216
-0.998151, 79, 37, 94, 68
-0.998153, 81, 49, 144, 112
-0.998155, 237, 1, 268, 256
-0.998156, 201, 29, 216, 60
-0.998156, 33, 97, 160, 224
-0.998157, 239, 169, 254, 200
-0.998158, 189, 33, 204, 64
-0.99816, 145, 45, 272, 76
-0.99816, 133, 1, 164, 256
-0.998161, 465, 129, 496, 375
-0.998166, 451, 173, 466, 204
-0.998167, 179, 153, 194, 184
-0.998174, 393, 29, 408, 60
-0.998174, 127, 33, 142, 64
-0.998176, 243, 33, 258, 64
-0.99818, 273, 45, 400, 76
-0.998181, 231, 33, 246, 64
-0.998181, 263, 133, 278, 164
-0.998186, 393, 313, 424, 375
-0.99819, 377, 29, 392, 60
-0.99819, 329, 33, 344, 64
-0.99819, 49, 37, 64, 68
-0.998194, 427, 33, 442, 64
-0.998205, 285, 113, 300, 144
-0.998206, 229, 97, 260, 352
-0.998212, 435, 113, 450, 144
-0.998213, 485, 133, 500, 164
-0.998214, 307, 33, 322, 64
-0.998217, 269, 113, 284, 144
-0.998217, 129, 177, 192, 240
-0.99822, 103, 37, 118, 68
-0.998225, 289, 149, 416, 180
-0.99824, 177, 153, 208, 216
-0.998253, 429, 1, 460, 256
-0.99827, 369, 45, 496, 76
-0.998271, 1, 25, 128, 56
-0.998293, 177, 49, 304, 112
-0.998297, 417, 177, 448, 240
-0.998323, 105, 1, 136, 128
-0.998323, 165, 97, 196, 352
-0.998325, 129, 49, 192, 112
-0.998325, 377, 169, 440, 232
-0.998334, 313, 1, 344, 256
-0.998353, 341, 33, 372, 48
-0.998353, 237, 149, 268, 164
-0.998354, 301, 119, 332, 134
-0.998354, 469, 37, 500, 52
-0.998356, 201, 31, 232, 46
-0.998357, 177, 21, 304, 52
-0.998358, 261, 127, 292, 142
-0.998359, 245, 127, 276, 142
-0.998359, 41, 39, 72, 54
-0.998359, 457, 133, 488, 148
-0.998359, 457, 143, 488, 158
-0.998365, 437, 111, 468, 126
-0.998365, 401, 361, 432, 375
-0.998365, 453, 163, 484, 178
-0.998366, 165, 157, 196, 172
-0.998366, 369, 345, 496, 375
-0.998367, 449, 169, 480, 184
-0.998367, 273, 165, 304, 180
-0.998367, 13, 41, 44, 56
-0.998367, 469, 137, 500, 152
-0.998369, 221, 173, 252, 188
-0.998369, 217, 97, 248, 352
-0.998369, 281, 193, 312, 208
-0.99837, 169, 127, 232, 142
-0.998372, 189, 33, 220, 48
-0.998373, 137, 39, 168, 54
-0.998374, 437, 351, 468, 366
-0.998374, 421, 361, 452, 375
-0.998375, 433, 165, 464, 180
-0.998377, 129, 81, 384, 144
-0.998377, 185, 147, 216, 162
-0.998378, 109, 41, 140, 56
-0.99838, 321, 191, 352, 206
-0.998381, 433, 155, 464, 170
-0.998382, 449, 113, 480, 128
-0.998383, 165, 39, 196, 54
-0.998384, 165, 115, 196, 130
-0.998385, 257, 161, 288, 176
-0.998385, 389, 31, 420, 46
-0.998385, 461, 173, 492, 188
-0.998386, 229, 127, 260, 142
-0.998388, 417, 1, 448, 256
-0.998388, 177, 37, 208, 52
-0.998389, 129, 89, 160, 152
-0.998389, 461, 117, 492, 132
-0.998391, 277, 117, 308, 132
-0.998392, 257, 143, 288, 158
-0.998393, 145, 109, 176, 124
-0.998395, 177, 119, 208, 134
-0.998395, 257, 31, 288, 46
-0.998396, 261, 115, 292, 130
-0.998397, 121, 39, 152, 54
-0.998397, 201, 137, 232, 152
-0.998398, 225, 153, 256, 168
-0.998401, 189, 121, 220, 136
-0.998401, 237, 155, 268, 170
-0.998403, 469, 167, 500, 182
-0.998407, 369, 189, 496, 220
-0.998408, 173, 145, 204, 160
-0.998408, 265, 153, 296, 168
-0.99841, 433, 31, 464, 46
-0.998411, 53, 39, 84, 54
-0.998411, 149, 97, 180, 352
-0.998413, 333, 171, 364, 186
-0.998418, 237, 163, 268, 178
-0.998419, 149, 39, 180, 54
-0.998419, 277, 123, 308, 138
-0.99842, 217, 141, 248, 156
-0.99842, 449, 121, 480, 136
-0.99842, 461, 153, 492, 168
-0.998421, 465, 179, 496, 194
-0.998421, 213, 167, 244, 182
-0.998421, 129, 21, 256, 52
-0.998422, 249, 135, 280, 150
-0.998424, 357, 29, 388, 44
-0.998425, 273, 109, 400, 140
-0.998425, 73, 39, 104, 54
-0.998427, 449, 175, 480, 190
-0.998428, 153, 119, 184, 134
-0.998428, 413, 31, 444, 46
-0.998429, 245, 177, 276, 192
-0.99843, 285, 29, 316, 44
-0.998433, 273, 177, 304, 192
-0.998434, 277, 155, 308, 170
-0.998435, 201, 165, 232, 180
-0.998435, 237, 169, 268, 184
-0.998435, 189, 161, 220, 176
-0.998436, 409, 193, 472, 320
-0.998437, 145, 135, 208, 150
-0.998437, 289, 167, 352, 182
-0.998438, 469, 131, 500, 146
-0.998439, 469, 143, 500, 158
-0.998441, 261, 169, 292, 184
-0.998443, 161, 141, 192, 156
-0.998443, 141, 143, 172, 158
-0.998443, 249, 149, 280, 164
-0.998444, 177, 159, 208, 174
-0.998445, 425, 117, 456, 132
-0.998445, 273, 345, 400, 375
-0.998446, 233, 175, 264, 190
-0.998446, 153, 149, 184, 164
-0.998447, 185, 153, 216, 168
-0.99845, 249, 167, 280, 182
-0.998451, 289, 185, 352, 200
-0.998452, 93, 39, 124, 54
-0.998452, 173, 137, 204, 152
-0.998452, 285, 183, 316, 198
-0.998453, 261, 181, 292, 196
-0.998455, 173, 151, 204, 166
-0.998461, 325, 1, 356, 256
-0.998462, 209, 157, 240, 172
-0.998462, 297, 173, 360, 188
-0.998473, 225, 165, 256, 180
-0.998475, 437, 119, 468, 134
-0.998477, 197, 153, 228, 168
-0.998477, 281, 179, 344, 194
-0.998479, 209, 97, 336, 128
-0.998481, 153, 141, 216, 156
-0.998482, 249, 173, 312, 188
-0.998482, 305, 313, 432, 375
-0.998483, 261, 175, 292, 190
-0.998483, 201, 125, 232, 140
-0.998483, 257, 183, 320, 198
-0.998483, 169, 131, 200, 146
-0.998483, 429, 171, 460, 186
-0.998491, 325, 181, 356, 196
-0.998493, 177, 217, 304, 280
-0.998495, 193, 139, 256, 154
-0.998498, 169, 147, 232, 162
-0.998498, 265, 159, 328, 174
-0.998498, 273, 185, 304, 200
-0.998499, 321, 201, 448, 232
-0.998499, 221, 159, 252, 174
-0.998503, 145, 137, 176, 152
-0.998509, 425, 171, 488, 186
-0.998511, 145, 147, 208, 162
-0.998512, 289, 169, 320, 184
-0.998512, 321, 167, 352, 182
-0.998512, 201, 157, 264, 172
-0.998513, 185, 133, 216, 148
-0.998513, 449, 151, 480, 166
-0.998514, 193, 167, 256, 182
-0.998521, 289, 117, 320, 132
-0.998522, 1, 177, 500, 240
-0.998523, 297, 1, 328, 256
-0.998523, 337, 17, 464, 48
-0.998524, 237, 143, 268, 158
-0.998525, 237, 133, 268, 148
-0.998525, 153, 121, 216, 136
-0.998525, 425, 177, 488, 192
-0.998526, 273, 171, 304, 186
-0.998526, 309, 167, 340, 182
-0.998527, 177, 161, 240, 176
-0.998529, 193, 133, 256, 148
-0.99853, 433, 153, 496, 168
-0.998531, 153, 155, 216, 170
-0.998531, 293, 177, 324, 192
-0.998532, 217, 133, 280, 148
-0.998532, 353, 225, 480, 288
-0.998537, 417, 121, 480, 136
-0.998537, 233, 149, 296, 164
-0.99854, 293, 189, 324, 204
-0.998545, 289, 159, 320, 174
-0.998545, 281, 111, 312, 126
-0.998546, 305, 185, 336, 200
-0.998547, 169, 133, 232, 148
-0.998547, 233, 165, 296, 180
-0.998549, 265, 167, 328, 182
-0.998551, 461, 123, 492, 138
-0.998554, 309, 177, 340, 192
-0.998554, 189, 127, 220, 142
-0.998556, 301, 161, 332, 176
-0.998564, 177, 155, 240, 170
-0.998564, 145, 129, 208, 144
-0.998565, 217, 129, 248, 144
-0.998566, 165, 123, 196, 138
-0.998566, 157, 131, 188, 146
-0.998569, 321, 173, 352, 188
-0.998569, 289, 191, 352, 206
-0.998572, 145, 37, 208, 52
-0.998573, 305, 179, 368, 194
-0.998573, 321, 173, 384, 188
-0.998574, 217, 143, 280, 158
-0.998574, 409, 31, 472, 46
-0.998574, 209, 125, 272, 140
-0.998576, 217, 173, 280, 188
-0.998578, 265, 123, 328, 138
-0.998579, 425, 113, 488, 128
-0.998584, 265, 189, 328, 204
-0.998585, 185, 35, 248, 50
-0.998589, 89, 39, 152, 54
-0.99859, 257, 113, 320, 128
-0.998595, 221, 1, 252, 256
-0.998596, 65, 37, 128, 52
-0.998598, 193, 193, 320, 224
-0.998598, 257, 153, 320, 168
-0.9986, 257, 31, 320, 46
-0.998602, 225, 181, 288, 196
-0.998603, 121, 37, 184, 52
-0.998605, 121, 145, 184, 160
-0.998605, 337, 31, 400, 46
-0.998607, 193, 149, 256, 164
-0.99861, 233, 113, 296, 128
-0.998613, 345, 361, 408, 375
-0.998614, 129, 119, 192, 134
-0.998624, 425, 161, 488, 176
-0.998625, 289, 161, 352, 176
-0.998626, 281, 117, 344, 132
-0.998626, 393, 361, 456, 375
-0.998627, 433, 133, 496, 148
-0.998627, 161, 201, 416, 264
-0.99863, 185, 119, 248, 134
-0.99863, 145, 181, 272, 212
-0.998631, 209, 35, 272, 50
-0.998632, 177, 125, 208, 140
-0.998632, 281, 31, 344, 46
-0.998633, 205, 131, 236, 146
-0.998634, 401, 173, 464, 188
-0.99864, 145, 103, 208, 118
-0.998646, 337, 347, 400, 362
-0.998649, 9, 41, 72, 56
-0.998652, 121, 139, 184, 154
-0.998655, 153, 113, 216, 128
-0.998656, 41, 39, 104, 54
-0.998657, 233, 127, 296, 142
-0.998657, 289, 37, 352, 52
-0.998658, 385, 31, 448, 46
-0.998658, 181, 97, 212, 352
-0.998658, 221, 135, 252, 150
-0.998659, 273, 173, 336, 188
-0.998659, 369, 353, 432, 368
-0.99866, 1, 49, 128, 80
-0.998662, 425, 127, 488, 142
-0.998663, 169, 167, 232, 182
-0.998664, 193, 173, 256, 188
-0.998664, 129, 153, 192, 168
-0.998665, 417, 183, 480, 198
-0.998665, 153, 161, 216, 176
-0.998665, 433, 347, 496, 362
-0.998667, 233, 159, 296, 174
-0.998668, 241, 189, 304, 204
-0.998669, 241, 119, 304, 134
-0.99867, 425, 189, 488, 204
-0.99867, 433, 143, 496, 158
-0.998672, 313, 191, 376, 206
-0.998673, 401, 351, 464, 366
-0.998673, 409, 343, 472, 358
-0.998675, 313, 353, 376, 368
-0.998675, 377, 49, 440, 64
-0.998676, 121, 113, 184, 128
-0.998677, 401, 49, 464, 64
-0.998677, 289, 197, 352, 212
-0.998678, 345, 355, 408, 370
-0.998679, 249, 107, 312, 122
-0.99868, 393, 117, 456, 132
-0.998681, 369, 343, 432, 358
-0.998682, 249, 143, 312, 158
-0.998683, 121, 131, 184, 146
-0.998684, 241, 133, 304, 148
-0.998685, 185, 29, 248, 44
-0.998686, 361, 29, 424, 44
-0.998687, 233, 29, 296, 44
-0.998689, 337, 47, 400, 62
-0.998689, 313, 31, 376, 46
-0.99869, 341, 1, 372, 256
-0.998691, 409, 151, 472, 166
-0.998691, 209, 109, 272, 124
-0.998692, 297, 25, 360, 40
-0.998693, 321, 167, 384, 182
-0.998694, 401, 159, 464, 174
-0.998697, 433, 35, 496, 50
-0.998699, 185, 105, 248, 120
-0.998702, 257, 195, 320, 210
-0.998705, 313, 185, 376, 200
-0.998705, 89, 47, 152, 62
-0.998705, 289, 361, 352, 375
-0.998706, 65, 47, 128, 62
-0.998709, 401, 165, 464, 180
-0.99871, 329, 179, 392, 194
-0.99871, 425, 49, 488, 64
-0.998711, 417, 333, 480, 348
-0.998711, 145, 45, 208, 60
-0.998711, 377, 337, 440, 352
-0.998712, 241, 37, 304, 52
-0.998713, 305, 47, 368, 62
-0.998713, 161, 31, 224, 46
-0.998716, 377, 43, 440, 58
-0.998716, 249, 101, 312, 116
-0.998721, 145, 93, 272, 124
-0.998727, 121, 1, 152, 256
-0.998729, 369, 241, 496, 368
-0.998738, 417, 121, 448, 184
-0.998752, 33, 49, 96, 112
-0.998791, 49, 149, 176, 180
-0.998808, 241, 201, 368, 232
-0.998832, 285, 81, 300, 208
-0.998833, 1, 313, 128, 375
-0.998844, 273, 97, 304, 352
-0.998864, 273, 249, 400, 312
-0.998864, 445, 193, 476, 256
-0.998868, 257, 209, 500, 272
-0.998868, 305, 49, 368, 176
-0.998896, 253, 1, 284, 256
-0.998897, 283, 145, 298, 272
-0.998916, 471, 113, 486, 240
-0.998927, 261, 129, 292, 375
-0.998945, 21, 1, 52, 128
-0.99895, 97, 1, 128, 256
-0.998953, 309, 1, 340, 64
-0.998955, 85, 1, 116, 256
-0.998963, 229, 113, 244, 240
-0.998978, 65, 1, 96, 256
-0.998979, 477, 113, 492, 240
-0.998983, 353, 1, 384, 256
-0.998983, 53, 1, 84, 256
-0.998989, 169, 81, 184, 208
-0.999006, 369, 201, 496, 232
-0.999012, 225, 213, 352, 244
-0.999019, 137, 97, 168, 352
-0.999043, 193, 313, 448, 375
-0.999046, 433, 217, 496, 280
-0.999049, 179, 81, 194, 208
-0.999067, 397, 1, 428, 256
-0.999078, 151, 113, 166, 240
-0.99908, 109, 1, 140, 256
-0.999082, 225, 13, 352, 44
-0.999085, 187, 81, 202, 208
-0.999088, 277, 129, 292, 256
-0.99909, 209, 97, 224, 224
-0.999091, 317, 161, 332, 288
-0.999107, 235, 113, 250, 240
-0.999113, 309, 49, 340, 176
-0.999118, 305, 129, 320, 256
-0.999122, 291, 97, 306, 224
-0.999122, 241, 177, 272, 304
-0.999127, 159, 65, 174, 192
-0.99913, 193, 97, 224, 352
-0.999131, 17, 1, 48, 256
-0.999134, 361, 49, 424, 176
-0.999143, 377, 1, 408, 256
-0.999151, 365, 1, 396, 256
-0.999163, 483, 129, 498, 256
-0.999166, 49, 49, 176, 80
-0.999174, 33, 1, 64, 256
-0.999177, 441, 97, 456, 224
-0.999179, 223, 97, 238, 224
-0.999184, 215, 97, 230, 224
-0.999188, 435, 145, 450, 272
-0.999194, 65, 49, 128, 176
-0.999204, 97, 49, 352, 112
-0.999213, 25, 1, 88, 375
-0.999218, 193, 81, 208, 208
-0.999225, 311, 145, 326, 272
-0.99923, 337, 313, 400, 375
-0.999239, 161, 113, 176, 240
-0.99924, 1, 1, 32, 256
-0.999247, 199, 81, 214, 208
-0.999257, 435, 97, 450, 224
-0.999272, 453, 97, 484, 352
-0.999278, 329, 193, 392, 256
-0.99929, 263, 129, 278, 256
-0.999301, 285, 97, 316, 352
-0.999303, 271, 97, 286, 224
-0.999308, 279, 81, 294, 208
-0.999308, 179, 129, 194, 256
-0.999316, 353, 101, 480, 132
-0.999325, 289, 161, 304, 288
-0.999328, 257, 49, 384, 112
-0.999344, 465, 97, 480, 224
-0.999346, 185, 129, 200, 256
-0.999356, 81, 177, 208, 208
-0.999356, 179, 33, 194, 160
-0.999363, 153, 65, 168, 192
-0.999366, 169, 33, 184, 160
-0.999367, 255, 129, 270, 256
-0.99938, 281, 1, 296, 128
-0.999385, 437, 1, 452, 128
-0.999387, 289, 17, 304, 144
-0.999395, 299, 97, 314, 224
-0.999398, 65, 97, 192, 128
-0.999404, 187, 33, 202, 160
-0.999408, 473, 49, 488, 176
-0.999409, 221, 145, 236, 272
-0.999409, 207, 33, 222, 160
-0.999411, 447, 1, 462, 128
-0.999414, 199, 17, 214, 144
-0.999414, 275, 1, 290, 128
-0.999417, 171, 129, 186, 256
-0.999418, 439, 49, 454, 176
-0.99943, 299, 49, 314, 176
-0.999433, 249, 129, 280, 375
-0.999442, 193, 33, 208, 160
-0.999448, 97, 189, 224, 220
-0.99945, 247, 97, 262, 224
-0.999458, 273, 217, 400, 248
-0.99946, 311, 97, 326, 224
-0.999464, 241, 81, 256, 208
-0.999467, 249, 1, 264, 128
-0.999468, 263, 1, 278, 128
-0.99948, 219, 49, 234, 176
-0.99948, 433, 129, 464, 375
-0.999483, 193, 129, 208, 256
-0.999484, 225, 49, 240, 176
-0.999486, 447, 49, 462, 176
-0.999486, 289, 9, 416, 40
-0.999487, 145, 113, 160, 240
-0.999488, 117, 1, 148, 128
-0.99949, 449, 97, 464, 224
-0.99949, 215, 145, 230, 272
-0.999491, 271, 145, 286, 272
-0.999493, 215, 1, 230, 128
-0.999493, 323, 161, 338, 288
-0.999494, 465, 145, 480, 272
-0.999495, 429, 1, 444, 128
-0.999498, 231, 49, 246, 176
-0.999499, 471, 161, 486, 288
-0.999515, 441, 145, 456, 272
-0.999518, 269, 1, 284, 128
-0.999524, 205, 145, 220, 272
-0.999525, 471, 1, 486, 128
-0.999528, 413, 1, 428, 128
-0.999536, 163, 1, 178, 128
-0.999536, 257, 81, 272, 208
-0.999536, 463, 33, 478, 160
-0.999536, 449, 145, 464, 272
-0.999536, 237, 33, 252, 160
-0.999536, 231, 1, 246, 128
-0.999538, 243, 1, 258, 128
-0.99954, 419, 1, 434, 128
-0.999542, 213, 49, 228, 176
-0.999545, 273, 49, 288, 176
-0.999545, 295, 1, 310, 128
-0.999545, 483, 81, 498, 208
-0.999545, 459, 81, 474, 208
-0.999547, 225, 225, 352, 256
-0.999548, 97, 1, 112, 128
-0.999549, 377, 1, 392, 128
-0.999551, 389, 1, 404, 128
-0.999553, 145, 205, 272, 236
-0.999555, 231, 161, 246, 288
-0.999557, 349, 1, 364, 128
-0.999558, 367, 1, 382, 128
-0.99956, 257, 1, 272, 128
-0.999561, 155, 1, 170, 128
-0.999562, 299, 161, 314, 288
-0.999564, 305, 133, 432, 164
-0.999572, 277, 177, 292, 304
-0.999574, 407, 1, 422, 128
-0.999578, 361, 1, 376, 128
-0.999579, 265, 177, 280, 304
-0.99958, 199, 129, 214, 256
-0.999583, 383, 1, 398, 128
-0.999584, 209, 341, 336, 372
-0.999589, 429, 97, 444, 224
-0.999592, 477, 1, 492, 128
-0.999592, 395, 1, 410, 128
-0.999594, 249, 145, 264, 272
-0.999596, 181, 157, 196, 172
-0.999596, 273, 183, 288, 198
-0.999596, 193, 161, 208, 176
-0.999597, 241, 129, 256, 256
-0.999597, 201, 121, 216, 136
-0.999597, 291, 157, 306, 172
-0.999598, 279, 123, 294, 138
-0.999598, 287, 181, 302, 196
-0.999599, 221, 1, 236, 128
-0.999599, 455, 1, 470, 128
-0.999599, 255, 133, 270, 148
-0.9996, 221, 157, 236, 172
-0.9996, 225, 127, 240, 142
-0.9996, 237, 173, 252, 188
-0.9996, 401, 1, 416, 128
-0.999601, 459, 121, 474, 136
-0.999601, 477, 161, 492, 288
-0.999601, 273, 177, 288, 192
-0.999602, 243, 175, 258, 190
-0.999602, 229, 171, 244, 186
-0.999602, 321, 1, 336, 128
-0.999602, 207, 165, 222, 180
-0.999602, 339, 179, 354, 194
-0.999603, 265, 149, 280, 164
-0.999605, 315, 161, 330, 176
-0.999605, 203, 151, 218, 166
-0.999605, 307, 1, 322, 128
-0.999606, 95, 37, 110, 52
-0.999606, 335, 167, 350, 182
-0.999607, 259, 149, 274, 164
-0.999607, 189, 139, 204, 154
-0.99961, 343, 1, 358, 128
-0.99961, 153, 143, 168, 158
-0.999611, 277, 171, 292, 186
-0.999611, 153, 49, 216, 112
-0.999612, 453, 151, 468, 166
-0.999612, 329, 167, 344, 182
-0.999613, 289, 109, 304, 124
-0.999613, 187, 159, 202, 174
-0.999613, 223, 169, 238, 184
-0.999616, 419, 29, 434, 44
-0.999617, 145, 217, 272, 248
-0.999617, 267, 181, 282, 196
-0.999619, 363, 29, 378, 44
-0.999619, 253, 171, 268, 186
-0.99962, 251, 177, 266, 192
-0.99962, 473, 141, 488, 156
-0.99962, 285, 93, 300, 108
-0.999621, 163, 145, 178, 160
-0.999621, 191, 153, 206, 168
-0.999621, 201, 163, 216, 178
-0.999621, 459, 145, 474, 272
-0.999621, 355, 1, 370, 128
-0.999621, 169, 117, 184, 132
-0.999622, 481, 153, 496, 168
-0.999622, 227, 159, 242, 174
-0.999623, 275, 115, 290, 130
-0.999624, 219, 139, 234, 154
-0.999624, 97, 49, 224, 80
-0.999626, 301, 167, 316, 182
-0.999626, 193, 147, 208, 162
-0.999627, 295, 175, 310, 190
-0.999627, 269, 31, 284, 46
-0.999628, 477, 123, 492, 138
-0.999628, 177, 147, 192, 162
-0.99963, 87, 1, 102, 128
-0.99963, 159, 37, 174, 52
-0.99963, 261, 179, 276, 194
-0.999632, 287, 119, 302, 134
-0.999632, 175, 137, 190, 152
-0.999632, 483, 131, 498, 146
-0.999632, 283, 113, 298, 128
-0.999633, 301, 183, 316, 198
-0.999633, 471, 147, 486, 162
-0.999634, 159, 139, 174, 154
-0.999634, 261, 173, 276, 188
-0.999634, 155, 129, 170, 144
-0.999634, 207, 133, 222, 148
-0.999637, 321, 185, 336, 200
-0.999637, 275, 151, 290, 166
-0.999639, 241, 145, 256, 160
-0.999639, 247, 169, 262, 184
-0.99964, 221, 163, 236, 178
-0.99964, 443, 117, 458, 132
-0.99964, 263, 49, 278, 176
-0.999641, 431, 115, 446, 130
-0.999641, 229, 165, 244, 180
-0.999641, 279, 185, 294, 200
-0.999642, 199, 135, 214, 150
-0.999642, 331, 161, 346, 288
-0.999643, 239, 167, 254, 182
-0.999643, 279, 177, 294, 192
-0.999643, 187, 133, 202, 148
-0.999644, 283, 169, 298, 184
-0.999644, 171, 147, 186, 162
-0.999644, 317, 113, 332, 240
-0.999645, 429, 145, 444, 272
-0.999646, 453, 119, 468, 134
-0.999646, 331, 1, 346, 128
-0.999647, 177, 119, 192, 134
-0.999647, 473, 131, 488, 146
-0.999648, 183, 149, 198, 164
-0.999648, 267, 175, 282, 190
-0.999649, 235, 135, 250, 150
-0.999649, 211, 159, 226, 174
-0.999649, 353, 1, 416, 375
-0.99965, 297, 117, 312, 132
-0.999651, 169, 135, 184, 150
-0.999651, 75, 1, 90, 128
-0.999651, 33, 137, 160, 200
-0.999653, 343, 171, 358, 186
-0.999653, 251, 49, 266, 176
-0.999653, 201, 157, 216, 172
-0.999654, 103, 1, 118, 128
-0.999655, 345, 49, 408, 112
-0.999658, 195, 125, 210, 140
-0.999658, 65, 1, 80, 128
-0.99966, 259, 177, 274, 304
-0.999662, 293, 181, 308, 196
-0.999663, 483, 123, 498, 138
-0.999663, 435, 171, 450, 186
-0.999665, 295, 169, 310, 184
-0.999665, 321, 329, 448, 360
-0.999666, 269, 143, 284, 158
-0.999666, 297, 159, 312, 174
-0.999668, 313, 129, 344, 375
-0.999668, 309, 161, 324, 176
-0.999671, 161, 131, 176, 146
-0.999675, 337, 1, 352, 128
-0.999675, 437, 117, 452, 132
-0.999678, 289, 187, 304, 202
-0.999681, 329, 183, 344, 198
-0.999681, 181, 141, 196, 156
-0.999685, 299, 189, 314, 204
-0.999687, 301, 177, 316, 192
-0.999689, 169, 123, 184, 138
-0.99969, 207, 127, 222, 142
-0.999691, 323, 167, 338, 182
-0.999691, 169, 129, 184, 144
-0.999691, 303, 117, 318, 132
-0.999692, 273, 225, 336, 288
-0.999692, 289, 175, 304, 190
-0.999699, 249, 143, 264, 158
-0.999699, 465, 121, 480, 136
-0.999701, 229, 133, 244, 148
-0.999702, 311, 179, 326, 194
-0.999704, 153, 137, 168, 152
-0.999706, 209, 237, 336, 268
-0.999707, 175, 131, 190, 146
-0.999708, 289, 169, 304, 184
-0.999708, 331, 173, 346, 188
-0.999709, 303, 159, 318, 174
-0.99971, 201, 127, 216, 142
-0.999714, 319, 177, 334, 192
-0.999725, 241, 133, 256, 148
-0.999726, 1, 73, 256, 136
-0.999731, 1, 325, 128, 356
-0.999732, 337, 173, 352, 188
-0.999742, 89, 49, 152, 176
-0.999749, 325, 175, 340, 190
-0.999755, 217, 131, 232, 146
-0.999757, 179, 125, 194, 140
-0.999757, 145, 193, 272, 224
-0.99976, 189, 127, 204, 142
-0.999775, 1, 305, 128, 336
-0.999783, 273, 97, 400, 128
-0.999784, 181, 135, 196, 150
-0.999791, 257, 49, 500, 112
-0.999791, 257, 333, 384, 364
-0.999807, 1, 341, 128, 372
-0.999808, 301, 129, 332, 375
-0.999809, 223, 133, 238, 148
-0.999829, 321, 213, 448, 244
-0.999864, 33, 121, 160, 152
-0.999864, 321, 193, 448, 320
-0.99987, 329, 129, 360, 375
-0.999884, 129, 1, 256, 32
-0.999894, 161, 233, 288, 264
-0.999928, 49, 165, 176, 196
-0.999941, 321, 317, 448, 348
-0.999949, 65, 193, 320, 256
-0.99996, 225, 241, 352, 304
-0.999961, 1, 89, 500, 152
-0.999975, 97, 85, 224, 116
-0.999986, 97, 205, 224, 236
-0.999986, 33, 169, 160, 232
-0.999999, 421, 129, 452, 375
-1.00003, 337, 1, 464, 32
-1.00006, 273, 229, 400, 260
-1.00008, 1, 49, 256, 112
-1.0001, 1, 141, 128, 172
-1.0001, 337, 49, 400, 176
-1.00011, 1, 313, 64, 375
-1.00012, 369, 225, 496, 256
-1.00012, 65, 209, 192, 272
-1.00014, 65, 1, 192, 32
-1.00014, 81, 13, 208, 44
-1.00015, 1, 305, 256, 368
-1.00016, 353, 237, 480, 268
-1.00016, 369, 49, 432, 112
-1.00016, 273, 241, 400, 272
-1.00018, 209, 1, 336, 32
-1.00019, 369, 213, 496, 244
-1.00022, 333, 161, 364, 288
-1.00025, 177, 217, 240, 280
-1.00025, 81, 241, 208, 304
-1.00027, 209, 85, 336, 116
-1.00027, 1, 293, 128, 324
-1.00028, 1, 1, 128, 32
-1.00029, 193, 249, 320, 280
-1.0003, 1, 157, 128, 188
-1.00033, 161, 345, 288, 375
-1.00034, 17, 13, 144, 44
-1.00035, 369, 253, 496, 284
-1.00037, 177, 241, 304, 304
-1.00041, 113, 233, 240, 264
-1.00042, 1, 313, 500, 375
-1.00043, 193, 273, 320, 304
-1.00045, 49, 85, 176, 116
-1.00045, 81, 245, 208, 276
-1.00046, 297, 49, 328, 176
-1.00047, 241, 253, 368, 284
-1.00047, 369, 265, 496, 296
-1.00047, 233, 49, 296, 112
-1.0005, 113, 265, 240, 296
-1.0005, 193, 261, 320, 292
-1.0005, 289, 257, 416, 288
-1.00051, 353, 89, 480, 120
-1.00051, 97, 217, 224, 248
-1.00052, 161, 81, 288, 112
-1.00053, 369, 309, 496, 340
-1.00054, 257, 233, 500, 296
-1.00057, 129, 233, 256, 296
-1.00057, 321, 161, 384, 288
-1.00058, 129, 225, 384, 288
-1.0006, 257, 313, 384, 375
-1.00061, 209, 313, 336, 375
-1.00066, 1, 201, 500, 264
-1.00067, 305, 49, 368, 112
-1.00068, 321, 289, 448, 352
-1.00068, 201, 209, 264, 272
-1.00069, 369, 257, 496, 320
-1.00073, 313, 313, 376, 375
-1.00077, 321, 249, 448, 312
-1.00078, 409, 241, 472, 368
-1.00078, 125, 97, 156, 352
-1.00081, 341, 129, 372, 375
-1.00082, 161, 249, 416, 312
-1.00087, 273, 249, 336, 312
-1.00095, 409, 97, 440, 352
-1.00098, 17, 217, 144, 280
-1.00098, 81, 273, 208, 336
-1.00099, 129, 273, 256, 336
-1.001, 457, 193, 488, 320
-1.001, 177, 265, 304, 328
-1.00104, 257, 257, 500, 320
-1.00105, 1, 281, 256, 344
-1.00106, 33, 225, 288, 288
-1.00106, 57, 97, 88, 352
-1.00107, 33, 257, 160, 320
-1.00108, 133, 129, 164, 256
-1.0011, 9, 1, 40, 128
-1.00113, 13, 129, 44, 375
-1.00114, 105, 49, 168, 112
-1.00116, 77, 97, 108, 352
-1.00119, 273, 49, 336, 112
-1.0012, 101, 97, 132, 352
-1.0012, 1, 129, 32, 375
-1.00128, 89, 129, 120, 375
-1.00128, 45, 129, 76, 375
-1.0013, 113, 129, 144, 375
-1.00131, 25, 129, 56, 375
-1.00131, 97, 313, 352, 375
-1.00132, 1, 89, 128, 152
-1.00135, 225, 265, 352, 328
-1.00137, 397, 97, 428, 352
-1.00138, 33, 249, 288, 312
-1.00139, 1, 49, 500, 112
-1.00139, 185, 49, 248, 112
-1.00142, 445, 193, 476, 320
-1.00143, 353, 97, 384, 352
-1.00145, 97, 281, 352, 344
-1.0015, 193, 289, 448, 352
-1.00152, 381, 97, 412, 352
-1.00153, 273, 289, 400, 352
-1.0016, 369, 97, 400, 352
-1.00162, 125, 65, 156, 192
-1.00165, 49, 297, 176, 360
-1.00167, 1, 281, 64, 344
-1.00169, 305, 121, 368, 184
-1.00169, 17, 193, 144, 256
-1.00172, 305, 249, 368, 312
-1.0018, 409, 49, 440, 176
-1.00181, 1, 225, 500, 288
-1.00188, 241, 217, 304, 280
-1.0019, 209, 289, 336, 352
-1.00196, 129, 193, 256, 320
-1.00204, 377, 241, 440, 368
-1.00206, 297, 193, 328, 320
-1.00218, 369, 281, 496, 344
-1.00219, 97, 313, 224, 375
-1.00221, 385, 201, 448, 264
-1.00222, 425, 289, 488, 352
-1.00224, 9, 241, 72, 368
-1.00228, 1, 249, 500, 312
-1.00228, 281, 193, 312, 320
-1.00242, 1, 289, 500, 352
-1.00244, 25, 49, 56, 176
-1.00249, 257, 241, 384, 368
-1.0025, 345, 145, 408, 208
-1.00261, 321, 193, 352, 320
-1.00271, 321, 241, 448, 368
-1.00271, 209, 49, 272, 112
-1.00273, 329, 97, 392, 352
-1.00275, 385, 121, 448, 184
-1.00276, 145, 297, 272, 360
-1.00279, 201, 193, 264, 320
-1.00282, 361, 49, 392, 176
-1.00283, 105, 177, 168, 240
-1.00284, 33, 145, 160, 272
-1.00286, 25, 49, 88, 176
-1.00295, 209, 233, 272, 296
-1.00295, 69, 49, 100, 176
-1.00296, 449, 241, 480, 368
-1.00309, 289, 209, 352, 336
-1.00309, 377, 49, 408, 176
-1.00316, 385, 97, 448, 352
-1.0032, 97, 129, 160, 375
-1.00324, 345, 49, 376, 176
-1.00332, 409, 241, 472, 304
-1.00333, 345, 129, 376, 256
-1.00334, 241, 241, 304, 304
-1.00334, 81, 177, 144, 240
-1.00343, 145, 249, 208, 312
-1.00351, 53, 49, 84, 176
-1.00353, 1, 241, 32, 368
-1.00354, 397, 49, 428, 176
-1.00363, 333, 49, 364, 176
-1.00363, 25, 305, 88, 368
-1.00368, 433, 241, 496, 368
-1.00371, 41, 49, 72, 176
-1.0038, 145, 217, 208, 280
-1.00394, 417, 241, 448, 368
-1.00406, 377, 241, 408, 368
-1.00423, 105, 49, 136, 176
-1.0043, 309, 209, 340, 336
-1.00431, 329, 97, 360, 224
-1.00444, 1, 241, 256, 368
-1.00444, 17, 241, 48, 368
-1.00444, 433, 241, 464, 368
-1.00446, 209, 241, 336, 368
-1.00459, 417, 193, 448, 320
-1.00461, 33, 113, 64, 240
-1.00466, 409, 145, 440, 272
-1.00468, 177, 193, 240, 320
-1.00481, 17, 113, 48, 240
-1.00481, 169, 193, 200, 320
-1.00481, 349, 241, 380, 368
-1.00491, 13, 49, 44, 176
-1.00492, 397, 241, 428, 368
-1.005, 117, 129, 148, 256
-1.00508, 465, 241, 496, 368
-1.00513, 153, 177, 184, 304
-1.00519, 9, 129, 72, 375
-1.00528, 81, 49, 112, 176
-1.00531, 221, 209, 252, 336
-1.00539, 17, 113, 80, 240
-1.00542, 205, 193, 236, 320
-1.00558, 81, 225, 208, 352
-1.00574, 5, 113, 36, 240
-1.00577, 345, 193, 376, 320
-1.00585, 253, 225, 284, 352
-1.0059, 361, 177, 392, 304
-1.00604, 145, 193, 208, 320
-1.00623, 337, 113, 400, 240
-1.00647, 49, 97, 112, 352
-1.00657, 73, 129, 136, 375
-1.00672, 89, 97, 152, 224
-1.00757, 89, 177, 152, 304
-1.0077, 361, 193, 424, 320
-1.00771, 361, 97, 424, 352
-1.00792, 313, 209, 376, 336
-1.00805, 161, 241, 288, 368
-1.00813, 33, 193, 160, 320
-1.00831, 41, 97, 104, 224
-1.00834, 369, 97, 432, 224
-1.00835, 129, 241, 384, 368
-1.00838, 65, 97, 128, 224
-1.0084, 249, 241, 312, 368
-1.00877, 153, 241, 216, 368
-1.00884, 65, 161, 128, 288
-1.00899, 385, 193, 448, 320
-1.00913, 49, 209, 112, 336
-1.00948, 81, 225, 144, 352
-1.00951, 129, 241, 192, 368
-1.01004, 121, 193, 184, 320
-1.01013, 185, 241, 248, 368
-1.0102, 361, 145, 424, 272
-1.01072, 9, 161, 72, 288
-1.01078, 353, 241, 416, 368
-1.0112, 41, 145, 104, 272
-1.01136, 105, 241, 168, 368
-1.01207, 217, 241, 280, 368
