1891
-0.379661, 1, 65, 500, 320
-0.413343, 1, 1, 500, 333
-0.433098, 193, 1, 448, 333
-0.466206, 97, 1, 352, 333
-0.569634, 129, 33, 384, 288
-0.609912, 1, 1, 256, 333
-0.666897, 225, 65, 480, 320
-0.765218, 33, 33, 288, 288
-0.854975, 129, 1, 256, 333
-0.858295, 1, 209, 500, 333
-0.859022, 161, 33, 288, 288
-0.867445, 193, 1, 320, 333
-0.877698, 1, 161, 500, 288
-0.878272, 241, 33, 368, 288
-0.881388, 241, 1, 368, 333
-0.883645, 113, 65, 240, 320
-0.887935, 305, 1, 432, 333
-0.892498, 321, 65, 448, 320
-0.896788, 1, 65, 500, 192
-0.897618, 49, 1, 176, 333
-0.90176, 161, 49, 416, 176
-0.909986, 353, 1, 480, 333
-0.916909, 97, 193, 352, 320
-0.918925, 193, 161, 448, 288
-0.920619, 49, 65, 176, 320
-0.926191, 1, 1, 128, 333
-0.927367, 1, 113, 500, 240
-0.929099, 193, 49, 320, 176
-0.931438, 193, 209, 448, 333
-0.935165, 129, 97, 384, 224
-0.936305, 65, 49, 320, 176
-0.936349, 369, 33, 496, 288
-0.937178, 97, 145, 352, 272
-0.937687, 1, 209, 256, 333
-0.941457, 161, 1, 416, 128
-0.942195, 1, 17, 500, 144
-0.944241, 353, 209, 480, 333
-0.944837, 257, 33, 500, 160
-0.945611, 361, 209, 424, 333
-0.945693, 217, 177, 280, 304
-0.946371, 129, 193, 256, 320
-0.94821, 185, 49, 248, 176
-0.948616, 129, 145, 256, 272
-0.950114, 257, 97, 500, 224
-0.950482, 401, 177, 464, 304
-0.951138, 65, 1, 320, 128
-0.951764, 193, 193, 320, 320
-0.953251, 113, 49, 240, 176
-0.954262, 49, 209, 176, 333
-0.954421, 1, 65, 128, 320
-0.95494, 217, 1, 280, 128
-0.955693, 129, 97, 256, 224
-0.956031, 193, 1, 320, 128
-0.956075, 217, 185, 280, 248
-0.956531, 161, 65, 224, 192
-0.956561, 257, 33, 320, 160
-0.957007, 425, 177, 488, 304
-0.957553, 89, 209, 152, 333
-0.957583, 33, 97, 288, 224
-0.958681, 361, 225, 424, 288
-0.958811, 241, 129, 368, 256
-0.958891, 209, 49, 272, 176
-0.959646, 321, 145, 448, 272
-0.959712, 289, 49, 416, 176
-0.95993, 417, 185, 480, 248
-0.960527, 161, 113, 224, 240
-0.961177, 425, 1, 488, 128
-0.961288, 241, 177, 368, 304
-0.961819, 161, 113, 224, 176
-0.961938, 289, 81, 352, 208
-0.962139, 233, 49, 296, 176
-0.962241, 1, 161, 256, 288
-0.962603, 113, 209, 176, 333
-0.962606, 305, 209, 432, 333
-0.963331, 241, 33, 368, 160
-0.964825, 105, 233, 168, 296
-0.96536, 369, 1, 496, 128
-0.965582, 385, 209, 448, 272
-0.966261, 185, 65, 248, 128
-0.967267, 209, 57, 272, 120
-0.967814, 145, 177, 208, 304
-0.967984, 185, 113, 248, 240
-0.968457, 289, 121, 352, 184
-0.9689, 193, 129, 320, 256
-0.968915, 329, 177, 392, 304
-0.96898, 41, 249, 104, 312
-0.969269, 145, 89, 208, 152
-0.969812, 257, 65, 320, 128
-0.969959, 321, 73, 384, 136
-0.970357, 265, 129, 328, 256
-0.970441, 337, 49, 464, 176
-0.970624, 241, 81, 368, 208
-0.971082, 113, 161, 176, 288
-0.971452, 65, 81, 192, 208
-0.971966, 81, 233, 144, 296
-0.972162, 241, 177, 304, 304
-0.972266, 153, 137, 216, 200
-0.97265, 329, 33, 392, 160
-0.972719, 369, 161, 496, 288
-0.972785, 113, 97, 176, 224
-0.973326, 249, 33, 312, 96
-0.973565, 1, 257, 64, 320
-0.973765, 401, 1, 464, 128
-0.973826, 353, 49, 416, 176
-0.974219, 289, 41, 352, 104
-0.974843, 281, 33, 344, 160
-0.974865, 345, 49, 408, 112
-0.975069, 289, 97, 352, 160
-0.975136, 129, 209, 256, 272
-0.975178, 177, 33, 240, 288
-0.975233, 209, 33, 272, 288
-0.975268, 265, 121, 328, 184
-0.975286, 41, 209, 104, 333
-0.975288, 177, 65, 304, 128
-0.975467, 233, 1, 296, 256
-0.975522, 321, 241, 384, 304
-0.975765, 185, 89, 248, 152
-0.975883, 1, 209, 128, 333
-0.976178, 193, 49, 224, 176
-0.976339, 49, 233, 176, 296
-0.976464, 353, 249, 416, 312
-0.976576, 193, 177, 256, 304
-0.976693, 137, 49, 200, 176
-0.976707, 193, 1, 256, 128
-0.976739, 129, 217, 192, 280
-0.976787, 321, 225, 448, 288
-0.976791, 65, 161, 192, 288
-0.976999, 113, 121, 176, 184
-0.977106, 1, 209, 64, 333
-0.977119, 145, 57, 208, 120
-0.977323, 189, 113, 220, 176
-0.977554, 377, 161, 440, 288
-0.977586, 393, 185, 456, 248
-0.977682, 233, 57, 296, 120
-0.978182, 313, 49, 376, 112
-0.978223, 181, 65, 212, 192
-0.978334, 153, 65, 216, 320
-0.978416, 385, 209, 416, 333
-0.978476, 305, 65, 432, 128
-0.978525, 329, 209, 392, 272
-0.978746, 145, 193, 208, 256
-0.978832, 113, 97, 240, 160
-0.978874, 97, 1, 224, 128
-0.978996, 217, 233, 280, 296
-0.979146, 417, 177, 448, 304
-0.97936, 193, 185, 320, 248
-0.979473, 225, 57, 352, 120
-0.979491, 185, 113, 248, 176
-0.979493, 281, 73, 344, 136
-0.979498, 105, 65, 168, 320
-0.979536, 305, 97, 432, 224
-0.979591, 141, 209, 172, 333
-0.979756, 129, 161, 256, 224
-0.979871, 409, 209, 472, 272
-0.979877, 121, 97, 184, 160
-0.980014, 1, 17, 128, 144
-0.980083, 241, 1, 272, 128
-0.980091, 257, 1, 320, 256
-0.980145, 177, 97, 208, 160
-0.980293, 145, 1, 272, 128
-0.980309, 65, 209, 128, 333
-0.980506, 289, 121, 320, 184
-0.980513, 361, 233, 392, 296
-0.980717, 405, 209, 436, 272
-0.980792, 121, 49, 184, 112
-0.980805, 193, 241, 256, 304
-0.980822, 429, 177, 460, 304
-0.980851, 405, 193, 436, 320
-0.980858, 141, 217, 172, 280
-0.980946, 369, 217, 496, 280
-0.980955, 209, 129, 272, 256
-0.980975, 205, 49, 236, 176
-0.981427, 81, 81, 144, 144
-0.981517, 305, 209, 368, 333
-0.981543, 225, 25, 288, 88
-0.981609, 425, 9, 488, 72
-0.981616, 321, 201, 448, 264
-0.98164, 129, 185, 256, 248
-0.981659, 425, 185, 456, 248
-0.981738, 177, 201, 240, 264
-0.981794, 401, 233, 464, 296
-0.981851, 289, 1, 416, 128
-0.981883, 273, 41, 400, 104
-0.981912, 193, 249, 320, 312
-0.981955, 401, 129, 464, 256
-0.981998, 105, 73, 168, 136
-0.982105, 89, 81, 152, 208
-0.982137, 433, 209, 496, 272
-0.982202, 345, 73, 408, 136
-0.982231, 1, 249, 128, 312
-0.982384, 145, 169, 208, 232
-0.982439, 193, 225, 320, 288
-0.982537, 369, 65, 432, 320
-0.982542, 121, 193, 184, 256
-0.982662, 393, 217, 424, 280
-0.9827, 329, 129, 392, 256
-0.982705, 417, 1, 480, 256
-0.98285, 241, 153, 368, 216
-0.982895, 229, 177, 260, 304
-0.982898, 273, 105, 400, 168
-0.982923, 97, 57, 224, 120
-0.982979, 241, 129, 304, 256
-0.983029, 189, 89, 220, 152
-0.983037, 265, 145, 328, 208
-0.983101, 289, 129, 352, 256
-0.983146, 193, 113, 320, 176
-0.983251, 373, 209, 404, 333
-0.98331, 361, 209, 392, 333
-0.983348, 221, 185, 252, 248
-0.983398, 121, 233, 152, 296
-0.983437, 377, 225, 408, 288
-0.983551, 197, 65, 228, 128
-0.983583, 97, 233, 224, 296
-0.98359, 121, 209, 152, 333
-0.983593, 281, 49, 312, 176
-0.983624, 441, 185, 472, 248
-0.983665, 241, 225, 368, 288
-0.983677, 253, 1, 284, 128
-0.983704, 145, 137, 272, 200
-0.983751, 369, 185, 496, 248
-0.983918, 1, 257, 32, 320
-0.983923, 109, 233, 140, 296
-0.983983, 289, 145, 352, 208
-0.984071, 265, 81, 328, 208
-0.9842, 217, 177, 248, 304
-0.984231, 89, 241, 120, 304
-0.984291, 241, 1, 304, 333
-0.984355, 161, 1, 224, 333
-0.984377, 377, 49, 440, 176
-0.984391, 225, 161, 288, 224
-0.98443, 193, 33, 320, 96
-0.984481, 337, 65, 400, 320
-0.984509, 41, 249, 72, 312
-0.984531, 265, 17, 296, 144
-0.98458, 313, 105, 376, 168
-0.984632, 337, 41, 464, 104
-0.98468, 305, 33, 368, 160
-0.984765, 249, 177, 280, 240
-0.984767, 49, 1, 176, 128
-0.984809, 285, 57, 316, 120
-0.984817, 157, 129, 188, 256
-0.984832, 13, 257, 44, 320
-0.984878, 229, 1, 260, 128
-0.984975, 241, 201, 368, 264
-0.985102, 185, 41, 248, 104
-0.985248, 105, 209, 136, 333
-0.985253, 241, 57, 272, 120
-0.985264, 113, 257, 240, 320
-0.985282, 313, 81, 376, 208
-0.985287, 289, 33, 352, 288
-0.9853, 377, 249, 440, 312
-0.985317, 137, 97, 200, 224
-0.985318, 105, 1, 168, 333
-0.985326, 293, 49, 324, 176
-0.985547, 257, 209, 320, 272
-0.985639, 265, 177, 328, 304
-0.985646, 205, 193, 236, 320
-0.985653, 433, 1, 464, 128
-0.985669, 53, 249, 84, 312
-0.985685, 273, 249, 400, 312
-0.985698, 217, 49, 248, 176
-0.985698, 245, 177, 276, 304
-0.985757, 17, 65, 144, 192
-0.985903, 329, 265, 392, 328
-0.985965, 185, 145, 248, 208
-0.986011, 65, 249, 96, 312
-0.986036, 297, 233, 360, 296
-0.986072, 353, 249, 480, 312
-0.986075, 177, 89, 304, 152
-0.986103, 217, 1, 280, 333
-0.986135, 257, 257, 320, 320
-0.986162, 333, 241, 364, 304
-0.9862, 137, 1, 200, 333
-0.986215, 257, 169, 320, 232
-0.986261, 369, 57, 432, 120
-0.98628, 209, 209, 272, 272
-0.986282, 353, 1, 416, 333
-0.986359, 213, 57, 244, 120
-0.9864, 113, 169, 176, 232
-0.986419, 153, 241, 216, 304
-0.986493, 257, 81, 384, 144
-0.986521, 269, 41, 300, 104
-0.986571, 241, 177, 368, 240
-0.986737, 269, 65, 300, 128
-0.986818, 217, 1, 280, 64
-0.986843, 257, 177, 288, 304
-0.987057, 229, 49, 260, 176
-0.987097, 321, 169, 448, 232
-0.987123, 193, 1, 256, 333
-0.987148, 353, 161, 416, 288
-0.987173, 77, 241, 108, 304
-0.987194, 157, 177, 188, 240
-0.987218, 253, 49, 284, 176
-0.987229, 17, 233, 80, 296
-0.987254, 217, 273, 280, 333
-0.987282, 49, 225, 112, 288
-0.987424, 201, 113, 232, 176
-0.987426, 345, 249, 376, 312
-0.987531, 169, 161, 232, 288
-0.987531, 441, 177, 472, 304
-0.987603, 89, 209, 152, 272
-0.987618, 181, 57, 212, 120
-0.98762, 65, 113, 192, 176
-0.987635, 205, 241, 236, 304
-0.987646, 25, 257, 56, 320
-0.987735, 125, 65, 156, 128
-0.987737, 301, 121, 332, 184
-0.987756, 229, 57, 260, 120
-0.987801, 153, 177, 184, 304
-0.987941, 97, 33, 160, 160
-0.988003, 453, 185, 484, 248
-0.988067, 89, 105, 152, 168
-0.988101, 281, 33, 312, 96
-0.988236, 17, 161, 144, 288
-0.988311, 161, 57, 416, 120
-0.988342, 109, 81, 140, 144
-0.98835, 205, 217, 236, 280
-0.988377, 329, 1, 392, 333
-0.988414, 361, 273, 424, 333
-0.988417, 353, 97, 480, 224
-0.988493, 169, 169, 232, 232
-0.988523, 241, 49, 272, 176
-0.98856, 81, 65, 144, 320
-0.988579, 241, 129, 368, 192
-0.988707, 173, 121, 204, 184
-0.988712, 193, 273, 320, 333
-0.988723, 345, 65, 376, 128
-0.988735, 385, 81, 448, 144
-0.988777, 417, 1, 480, 333
-0.988813, 201, 97, 232, 224
-0.988862, 141, 161, 172, 288
-0.988869, 141, 97, 172, 224
-0.988926, 153, 217, 216, 280
-0.989038, 257, 25, 288, 88
-0.98906, 257, 65, 288, 128
-0.989209, 445, 1, 476, 128
-0.989229, 169, 1, 232, 128
-0.989303, 193, 273, 256, 333
-0.989382, 357, 41, 388, 104
-0.98948, 325, 73, 356, 136
-0.989527, 265, 1, 328, 333
-0.989528, 65, 89, 192, 152
-0.989551, 433, 129, 496, 256
-0.989556, 313, 97, 344, 160
-0.989714, 65, 209, 192, 272
-0.989771, 129, 33, 256, 96
-0.989802, 425, 185, 488, 216
-0.989829, 257, 97, 320, 160
-0.989846, 217, 181, 280, 212
-0.989856, 169, 97, 200, 224
-0.989865, 241, 137, 304, 200
-0.989882, 417, 209, 448, 272
-0.989884, 145, 233, 272, 296
-0.989888, 193, 177, 256, 240
-0.989929, 469, 193, 500, 256
-0.989947, 169, 209, 232, 333
-0.989953, 313, 69, 376, 100
-0.989956, 161, 81, 416, 144
-0.989956, 1, 233, 500, 296
-0.989978, 129, 257, 192, 320
-0.990043, 377, 97, 440, 224
-0.990049, 157, 153, 188, 216
-0.990072, 361, 257, 392, 320
-0.990129, 97, 233, 160, 264
-0.990145, 345, 217, 376, 280
-0.990167, 137, 193, 168, 256
-0.990169, 457, 1, 488, 128
-0.990181, 289, 201, 352, 264
-0.990188, 93, 209, 124, 333
-0.990193, 273, 273, 400, 333
-0.990225, 65, 161, 128, 288
-0.990354, 161, 1, 288, 64
-0.990429, 161, 117, 224, 148
-0.990456, 145, 1, 208, 128
-0.990479, 161, 133, 224, 164
-0.990485, 329, 137, 392, 200
-0.990488, 401, 1, 464, 64
-0.990545, 285, 97, 316, 224
-0.990571, 249, 65, 312, 96
-0.990585, 369, 225, 432, 256
-0.990649, 241, 233, 304, 296
-0.990714, 401, 205, 464, 236
-0.990773, 97, 217, 352, 280
-0.990775, 57, 1, 120, 128
-0.990839, 193, 137, 320, 200
-0.99086, 193, 161, 320, 224
-0.990876, 265, 257, 296, 320
-0.99088, 185, 65, 248, 96
-0.990902, 289, 169, 352, 232
-0.990902, 41, 249, 104, 280
-0.990908, 209, 61, 272, 92
-0.990936, 265, 125, 328, 156
-0.990941, 193, 185, 448, 248
-0.990972, 121, 225, 184, 256
-0.990974, 369, 9, 496, 72
-0.990985, 185, 121, 248, 152
-0.990988, 77, 209, 108, 333
-0.991018, 289, 125, 352, 156
-0.991023, 377, 1, 440, 128
-0.991027, 65, 245, 128, 276
-0.991035, 169, 73, 200, 136
-0.991052, 321, 89, 448, 152
-0.991053, 385, 161, 448, 224
-0.991056, 337, 233, 400, 264
-0.991071, 329, 185, 392, 248
-0.991078, 337, 209, 368, 333
-0.991134, 17, 253, 80, 284
-0.991145, 161, 129, 192, 192
-0.991164, 129, 49, 160, 176
-0.9912, 145, 105, 208, 136
-0.991235, 393, 217, 456, 248
-0.991244, 21, 209, 52, 333
-0.991258, 317, 97, 348, 224
-0.991267, 281, 57, 344, 88
-0.991291, 217, 225, 248, 288
-0.991307, 357, 73, 388, 136
-0.991397, 345, 53, 408, 84
-0.991477, 233, 177, 264, 240
-0.99148, 141, 129, 172, 192
-0.991484, 193, 225, 448, 288
-0.991506, 153, 209, 184, 272
-0.991557, 217, 113, 248, 240
-0.991567, 393, 49, 456, 112
-0.991571, 81, 105, 144, 136
-0.991577, 137, 57, 200, 88
-0.991625, 425, 161, 488, 224
-0.99163, 353, 245, 416, 276
-0.991642, 49, 209, 80, 333
-0.991643, 393, 65, 456, 320
-0.99165, 273, 69, 336, 100
-0.991672, 329, 217, 392, 248
-0.991723, 33, 241, 288, 304
-0.991736, 65, 209, 96, 333
-0.99174, 9, 209, 40, 333
-0.991742, 145, 213, 208, 244
-0.991751, 313, 229, 376, 260
-0.991779, 145, 189, 208, 220
-0.99178, 353, 65, 480, 128
-0.991781, 145, 85, 208, 116
-0.991792, 65, 185, 192, 248
-0.991796, 157, 65, 188, 192
-0.991811, 417, 129, 448, 256
-0.991863, 161, 33, 224, 96
-0.991887, 381, 49, 412, 176
-0.991891, 273, 137, 336, 168
-0.991901, 161, 61, 224, 92
-0.991919, 1, 217, 128, 280
-0.991929, 357, 33, 388, 160
-0.991937, 393, 161, 424, 288
-0.991948, 217, 233, 280, 264
-0.991979, 305, 81, 368, 112
-0.991998, 313, 241, 376, 272
-0.992004, 393, 1, 456, 333
-0.992014, 185, 97, 248, 128
-0.992018, 97, 81, 128, 144
-0.992036, 297, 89, 328, 152
-0.992039, 281, 81, 344, 112
-0.99204, 197, 145, 228, 272
-0.99207, 145, 177, 208, 208
-0.992083, 209, 193, 272, 224
-0.992104, 453, 177, 484, 304
-0.992121, 121, 101, 184, 132
-0.992121, 369, 213, 432, 244
-0.992126, 289, 113, 352, 144
-0.992127, 353, 65, 416, 96
-0.992153, 157, 89, 188, 152
-0.992153, 153, 157, 216, 188
-0.992173, 421, 1, 452, 128
-0.992187, 177, 77, 240, 108
-0.992195, 321, 145, 448, 208
-0.992202, 277, 121, 308, 184
-0.992213, 169, 273, 232, 333
-0.992221, 145, 201, 208, 232
-0.992227, 137, 117, 200, 148
-0.992232, 329, 81, 392, 112
-0.992252, 153, 245, 216, 276
-0.992257, 153, 145, 216, 176
-0.992265, 217, 213, 280, 244
-0.992282, 297, 113, 328, 240
-0.992289, 193, 245, 256, 276
-0.992289, 233, 53, 296, 84
-0.992291, 205, 193, 236, 256
-0.9923, 133, 97, 164, 160
-0.992325, 321, 273, 448, 333
-0.992376, 145, 73, 208, 104
-0.992379, 257, 53, 320, 84
-0.992409, 185, 221, 248, 252
-0.992412, 401, 193, 464, 224
-0.99244, 273, 129, 304, 256
-0.992455, 97, 193, 352, 256
-0.992466, 385, 25, 448, 88
-0.992472, 97, 89, 160, 120
-0.992478, 353, 257, 416, 288
-0.992491, 217, 301, 280, 332
-0.992495, 189, 117, 220, 148
-0.992511, 361, 201, 424, 264
-0.99252, 425, 1, 488, 32
-0.992536, 281, 93, 344, 124
-0.992536, 177, 197, 240, 228
-0.992536, 337, 49, 368, 176
-0.99254, 185, 133, 248, 164
-0.992547, 113, 69, 176, 100
-0.992568, 425, 17, 488, 48
-0.992576, 217, 245, 280, 276
-0.992577, 113, 121, 176, 152
-0.992591, 433, 205, 496, 236
-0.992599, 33, 209, 64, 333
-0.992604, 161, 105, 416, 168
-0.992608, 297, 137, 360, 168
-0.992612, 313, 57, 376, 88
-0.992617, 297, 57, 328, 120
-0.992628, 177, 209, 240, 240
-0.992637, 153, 257, 216, 288
-0.992644, 185, 53, 248, 84
-0.992669, 241, 181, 304, 212
-0.992682, 97, 129, 352, 192
-0.992712, 293, 125, 324, 156
-0.992716, 117, 49, 148, 176
-0.992722, 269, 177, 300, 304
-0.992748, 177, 117, 208, 148
-0.992752, 433, 221, 496, 252
-0.99276, 249, 229, 312, 260
-0.992777, 89, 117, 152, 148
-0.992779, 365, 233, 396, 264
-0.992783, 425, 189, 456, 220
-0.99279, 289, 233, 352, 264
-0.992794, 405, 145, 436, 272
-0.992795, 105, 209, 168, 240
-0.992807, 377, 185, 440, 216
-0.992817, 113, 177, 176, 208
-0.992819, 425, 233, 488, 296
-0.99282, 265, 197, 328, 228
-0.992825, 33, 237, 96, 268
-0.992826, 65, 153, 192, 216
-0.992828, 265, 177, 328, 208
-0.99283, 177, 185, 240, 216
-0.99283, 409, 229, 472, 260
-0.992835, 141, 221, 172, 252
-0.992841, 313, 253, 376, 284
-0.992843, 353, 77, 416, 108
-0.992844, 345, 269, 408, 300
-0.992849, 437, 185, 468, 216
-0.992854, 113, 233, 144, 264
-0.992859, 1, 241, 64, 272
-0.992867, 185, 105, 216, 136
-0.992879, 389, 221, 420, 252
-0.992884, 121, 145, 184, 208
-0.992888, 249, 137, 312, 168
-0.99289, 401, 241, 464, 272
-0.992892, 377, 73, 440, 104
-0.992895, 193, 233, 256, 264
-0.992908, 277, 65, 308, 96
-0.992911, 257, 209, 320, 240
-0.992911, 433, 1, 464, 64
-0.992916, 405, 209, 436, 240
-0.992918, 65, 273, 192, 333
-0.992932, 81, 245, 112, 276
-0.992932, 381, 57, 412, 120
-0.992935, 377, 225, 408, 256
-0.992935, 241, 249, 304, 280
-0.992943, 297, 161, 360, 192
-0.992946, 73, 233, 136, 264
-0.992956, 37, 253, 68, 284
-0.99296, 113, 57, 176, 88
-0.992973, 369, 49, 400, 112
-0.992973, 385, 85, 448, 116
-0.992975, 233, 169, 296, 200
-0.992977, 265, 65, 296, 96
-0.992989, 125, 233, 156, 264
-0.992992, 101, 237, 132, 268
-0.992994, 137, 129, 200, 160
-0.992994, 341, 69, 372, 100
-0.992999, 401, 181, 464, 212
-0.99301, 413, 185, 444, 248
-0.993017, 245, 61, 276, 92
-0.99303, 353, 241, 384, 272
-0.993031, 341, 249, 372, 280
-0.993035, 61, 249, 92, 280
-0.993036, 113, 189, 176, 220
-0.993039, 113, 165, 176, 196
-0.993041, 125, 65, 156, 96
-0.993042, 417, 201, 448, 232
-0.993047, 249, 301, 312, 332
-0.993048, 209, 289, 272, 320
-0.993052, 217, 13, 280, 44
-0.993057, 321, 105, 384, 136
-0.993059, 49, 249, 80, 280
-0.993062, 193, 257, 256, 288
-0.993063, 209, 105, 272, 168
-0.993063, 193, 169, 256, 200
-0.99307, 217, 189, 248, 220
-0.993072, 9, 257, 40, 288
-0.993075, 25, 253, 56, 284
-0.993081, 189, 61, 220, 92
-0.993082, 185, 109, 248, 140
-0.993085, 253, 181, 284, 212
-0.99309, 229, 177, 260, 208
-0.993092, 345, 229, 376, 260
-0.993097, 385, 105, 448, 168
-0.993103, 201, 249, 232, 280
-0.99311, 313, 73, 344, 104
-0.993112, 217, 269, 280, 300
-0.993112, 257, 41, 320, 72
-0.993113, 377, 201, 440, 232
-0.993113, 217, 61, 248, 92
-0.993114, 353, 73, 384, 104
-0.99312, 193, 133, 224, 164
-0.993122, 257, 57, 500, 120
-0.993128, 101, 97, 132, 128
-0.99313, 329, 121, 392, 152
-0.993132, 385, 49, 448, 80
-0.993134, 233, 61, 264, 92
-0.993147, 169, 49, 200, 176
-0.993149, 201, 1, 264, 32
-0.993153, 369, 269, 432, 300
-0.993156, 297, 149, 360, 180
-0.99316, 153, 233, 216, 264
-0.993163, 265, 113, 328, 144
-0.993163, 329, 237, 360, 268
-0.993172, 361, 89, 424, 120
-0.993175, 449, 185, 480, 216
-0.993179, 393, 61, 456, 92
-0.993186, 109, 85, 140, 116
-0.993187, 121, 237, 184, 268
-0.993191, 157, 181, 188, 212
-0.993193, 345, 281, 408, 312
-0.993193, 173, 129, 204, 160
-0.993193, 241, 181, 272, 212
-0.993219, 281, 45, 344, 76
-0.99322, 249, 129, 280, 256
-0.993229, 205, 61, 236, 92
-0.993233, 329, 69, 360, 100
-0.993236, 289, 69, 320, 100
-0.993236, 281, 129, 312, 160
-0.993236, 289, 57, 320, 88
-0.993238, 173, 105, 204, 136
-0.993257, 113, 73, 144, 104
-0.993271, 201, 121, 232, 152
-0.993298, 129, 1, 192, 256
-0.993301, 469, 193, 500, 224
-0.993306, 189, 93, 220, 124
-0.993317, 265, 53, 296, 84
-0.993318, 89, 101, 120, 132
-0.993321, 173, 81, 204, 112
-0.993323, 1, 73, 500, 136
-0.993327, 177, 61, 208, 92
-0.993329, 153, 209, 184, 240
-0.993339, 353, 253, 384, 284
-0.99334, 297, 141, 328, 172
-0.993348, 345, 57, 376, 88
-0.993351, 153, 193, 184, 224
-0.993351, 213, 225, 244, 256
-0.993352, 17, 97, 144, 160
-0.993356, 305, 129, 336, 160
-0.993361, 157, 169, 188, 200
-0.993363, 313, 113, 344, 144
-0.99337, 301, 69, 332, 100
-0.99338, 161, 157, 192, 188
-0.993399, 217, 177, 248, 208
-0.993401, 277, 53, 308, 84
-0.993418, 337, 161, 368, 288
-0.993422, 129, 105, 160, 136
-0.993422, 201, 261, 232, 292
-0.993424, 197, 77, 228, 108
-0.99343, 137, 189, 168, 220
-0.99343, 137, 201, 168, 232
-0.993437, 365, 77, 396, 108
-0.993441, 133, 53, 164, 84
-0.993441, 357, 265, 388, 296
-0.99345, 293, 33, 324, 96
-0.993452, 201, 205, 232, 236
-0.993452, 165, 117, 196, 148
-0.993453, 161, 145, 192, 176
-0.99346, 301, 57, 332, 88
-0.993461, 213, 241, 244, 272
-0.993467, 153, 113, 184, 144
-0.993471, 125, 217, 156, 248
-0.993474, 285, 141, 316, 172
-0.993483, 301, 81, 332, 112
-0.993483, 53, 237, 84, 268
-0.993487, 29, 241, 60, 272
-0.993494, 317, 229, 348, 260
-0.993503, 357, 49, 388, 80
-0.993504, 317, 217, 348, 248
-0.993505, 201, 193, 232, 224
-0.993506, 77, 233, 108, 264
-0.993508, 321, 113, 448, 176
-0.993509, 153, 221, 184, 252
-0.993509, 13, 245, 44, 276
-0.993512, 269, 201, 300, 232
-0.993521, 1, 245, 32, 276
-0.993523, 317, 125, 348, 156
-0.993524, 145, 129, 176, 160
-0.993524, 89, 229, 120, 260
-0.993528, 121, 117, 152, 148
-0.993531, 197, 1, 228, 128
-0.993533, 141, 233, 172, 264
-0.993535, 185, 81, 216, 112
-0.993536, 289, 1, 352, 333
-0.993536, 165, 57, 196, 88
-0.993537, 385, 209, 416, 240
-0.993537, 161, 129, 192, 160
-0.993538, 65, 237, 96, 268
-0.993539, 257, 225, 288, 256
-0.993541, 401, 221, 432, 252
-0.993544, 149, 53, 180, 84
-0.993546, 113, 221, 144, 252
-0.993547, 333, 57, 364, 88
-0.993548, 165, 93, 196, 124
-0.993549, 177, 93, 208, 124
-0.993549, 145, 177, 176, 208
-0.993551, 269, 257, 300, 288
-0.993553, 461, 205, 492, 236
-0.993555, 257, 193, 288, 224
-0.993556, 213, 297, 244, 328
-0.993557, 141, 165, 172, 196
-0.993561, 85, 113, 116, 144
-0.993568, 437, 13, 468, 44
-0.993569, 201, 285, 232, 316
-0.99357, 241, 169, 272, 200
-0.993571, 333, 213, 364, 244
-0.993573, 233, 301, 264, 332
-0.993622, 217, 1, 248, 128
-0.993648, 285, 97, 316, 160
-0.993686, 269, 193, 300, 256
-0.993745, 1, 97, 256, 160
-0.9938, 185, 137, 216, 200
-0.993804, 49, 1, 176, 64
-0.993808, 233, 209, 296, 272
-0.993811, 193, 249, 448, 312
-0.99387, 145, 105, 176, 168
-0.993874, 305, 65, 336, 192
-0.993876, 237, 129, 268, 256
-0.993908, 105, 65, 136, 192
-0.993923, 413, 241, 444, 304
-0.993939, 97, 265, 352, 328
-0.993939, 121, 209, 152, 272
-0.993999, 1, 57, 128, 120
-0.994009, 325, 217, 356, 280
-0.994046, 41, 161, 104, 288
-0.99405, 225, 161, 480, 224
-0.994055, 1, 57, 256, 120
-0.994057, 129, 161, 160, 288
-0.994068, 465, 177, 496, 304
-0.994088, 401, 49, 464, 176
-0.994106, 193, 65, 320, 96
-0.994107, 161, 33, 416, 96
-0.994111, 1, 97, 500, 160
-0.994129, 49, 1, 112, 333
-0.994172, 369, 273, 496, 333
-0.994192, 97, 169, 352, 232
-0.994194, 369, 33, 400, 160
-0.994294, 105, 273, 168, 333
-0.9943, 65, 1, 128, 64
-0.994315, 361, 97, 424, 160
-0.994347, 309, 57, 340, 120
-0.99437, 85, 217, 116, 280
-0.994428, 373, 201, 404, 264
-0.994455, 209, 265, 240, 328
-0.994465, 199, 113, 214, 176
-0.994466, 57, 225, 88, 288
-0.99449, 1, 257, 500, 320
-0.994495, 129, 221, 256, 252
-0.994511, 89, 105, 120, 168
-0.994514, 33, 25, 160, 88
-0.994515, 345, 41, 376, 104
-0.994517, 329, 41, 360, 104
-0.994563, 349, 209, 380, 333
-0.994571, 9, 1, 72, 333
-0.994573, 13, 233, 44, 296
-0.994648, 273, 17, 400, 80
-0.994651, 321, 225, 448, 256
-0.994744, 209, 9, 336, 72
-0.994751, 257, 33, 500, 96
-0.994752, 269, 65, 300, 192
-0.994757, 257, 81, 500, 144
-0.994799, 29, 233, 60, 296
-0.99482, 277, 1, 308, 128
-0.994849, 193, 113, 208, 176
-0.994861, 193, 249, 224, 312
-0.994882, 313, 33, 376, 288
-0.994937, 1, 185, 500, 248
-0.994954, 253, 249, 284, 312
-0.994957, 1, 217, 256, 280
-0.994962, 429, 161, 460, 224
-0.994983, 209, 33, 240, 96
-0.994987, 1, 209, 500, 272
-0.994995, 89, 161, 152, 288
-0.995029, 445, 1, 476, 64
-0.995045, 205, 153, 236, 216
-0.995054, 1, 273, 128, 333
-0.99509, 321, 177, 352, 304
-0.995091, 321, 121, 352, 184
-0.995097, 233, 105, 296, 168
-0.995098, 297, 145, 328, 208
-0.995165, 337, 113, 400, 176
-0.995166, 363, 241, 378, 304
-0.995167, 385, 193, 416, 256
-0.995211, 65, 237, 192, 268
-0.995219, 353, 1, 416, 128
-0.995234, 461, 1, 492, 64
-0.995243, 401, 257, 464, 320
-0.995246, 73, 217, 104, 280
-0.995296, 401, 249, 432, 312
-0.995297, 393, 65, 424, 192
-0.995325, 193, 89, 208, 152
-0.995352, 299, 121, 314, 184
-0.99536, 305, 77, 432, 108
-0.995373, 145, 161, 176, 224
-0.995406, 361, 177, 424, 240
-0.995419, 445, 129, 476, 256
-0.995421, 221, 33, 252, 96
-0.995429, 429, 129, 460, 256
-0.995465, 97, 65, 224, 96
-0.995488, 129, 209, 256, 240
-0.995494, 41, 49, 104, 176
-0.995496, 193, 273, 448, 333
-0.995499, 45, 225, 76, 288
-0.995507, 129, 197, 256, 228
-0.995603, 193, 245, 320, 276
-0.995617, 257, 61, 384, 92
-0.995621, 113, 233, 240, 264
-0.995624, 1, 233, 32, 296
-0.995626, 81, 273, 144, 333
-0.99563, 1, 249, 128, 280
-0.995654, 129, 181, 256, 212
-0.995661, 49, 57, 176, 120
-0.995664, 321, 237, 448, 268
-0.995666, 257, 113, 500, 176
-0.995682, 101, 209, 132, 272
-0.995697, 329, 161, 392, 224
-0.995717, 193, 125, 320, 156
-0.995745, 113, 109, 240, 140
-0.995789, 421, 1, 452, 64
-0.995803, 187, 97, 202, 160
-0.995805, 121, 25, 184, 88
-0.995811, 305, 121, 320, 184
-0.995824, 245, 25, 276, 88
-0.995833, 325, 49, 356, 176
-0.995836, 201, 89, 232, 152
-0.995862, 265, 225, 296, 288
-0.995879, 193, 185, 320, 216
-0.995908, 205, 113, 220, 176
-0.995928, 433, 209, 464, 272
-0.995941, 81, 49, 144, 112
-0.995968, 151, 217, 166, 280
-0.995996, 193, 41, 224, 104
-0.995999, 209, 137, 272, 200
-0.996011, 3, 257, 18, 320
-0.99602, 369, 233, 384, 296
-0.996029, 403, 217, 418, 280
-0.996031, 437, 185, 452, 248
-0.996036, 337, 105, 368, 168
-0.99604, 81, 1, 144, 333
-0.996045, 337, 57, 464, 88
-0.996047, 9, 257, 24, 320
-0.996058, 411, 209, 426, 272
-0.996062, 145, 225, 160, 288
-0.996063, 305, 17, 336, 144
-0.99607, 159, 177, 174, 240
-0.996073, 135, 233, 150, 296
-0.996078, 65, 97, 128, 224
-0.996093, 369, 153, 496, 216
-0.996101, 369, 213, 496, 244
-0.996108, 181, 17, 212, 144
-0.996131, 431, 185, 446, 248
-0.996137, 185, 113, 216, 240
-0.996138, 43, 249, 58, 312
-0.996141, 225, 185, 240, 248
-0.996145, 257, 1, 500, 64
-0.996157, 97, 241, 112, 304
-0.996163, 15, 257, 30, 320
-0.996185, 157, 49, 188, 112
-0.996198, 241, 225, 368, 256
-0.996205, 199, 73, 214, 136
-0.996225, 233, 33, 264, 96
-0.996226, 97, 89, 224, 120
-0.996245, 381, 225, 396, 288
-0.996255, 193, 197, 320, 228
-0.996264, 397, 185, 428, 248
-0.996266, 91, 241, 106, 304
-0.996285, 53, 249, 68, 312
-0.996301, 425, 193, 440, 256
-0.996308, 129, 169, 256, 200
-0.996315, 113, 233, 128, 296
-0.996316, 233, 153, 264, 216
-0.996319, 79, 249, 94, 312
-0.996322, 1, 33, 64, 96
-0.996323, 417, 209, 432, 272
-0.996331, 127, 233, 142, 296
-0.996345, 23, 257, 38, 320
-0.996368, 121, 233, 136, 296
-0.996369, 381, 161, 412, 288
-0.996373, 81, 33, 208, 96
-0.99638, 103, 241, 118, 304
-0.996388, 217, 161, 248, 224
-0.996392, 285, 145, 316, 208
-0.996399, 129, 121, 160, 184
-0.996412, 163, 145, 178, 208
-0.996413, 121, 97, 152, 160
-0.996421, 449, 161, 480, 224
-0.996429, 219, 185, 234, 248
-0.996438, 345, 25, 408, 88
-0.996456, 321, 213, 448, 244
-0.996465, 273, 125, 400, 156
-0.996473, 29, 257, 44, 320
-0.996477, 69, 249, 84, 312
-0.996485, 113, 121, 240, 152
-0.996506, 293, 121, 308, 184
-0.996507, 281, 257, 344, 320
-0.99651, 59, 249, 74, 312
-0.996514, 85, 241, 100, 304
-0.996521, 65, 1, 320, 64
-0.996533, 145, 61, 272, 92
-0.996535, 397, 217, 412, 280
-0.996537, 281, 65, 296, 128
-0.996567, 267, 185, 282, 248
-0.996578, 1, 161, 500, 224
-0.996583, 337, 233, 352, 296
-0.996601, 277, 41, 292, 104
-0.996602, 443, 185, 458, 248
-0.996604, 255, 57, 270, 120
-0.996606, 197, 273, 228, 333
-0.996611, 369, 225, 496, 256
-0.996616, 137, 49, 168, 112
-0.99662, 275, 65, 290, 128
-0.99662, 289, 57, 304, 120
-0.99662, 267, 65, 282, 128
-0.996645, 375, 225, 390, 288
-0.996649, 283, 41, 298, 104
-0.996665, 257, 73, 384, 104
-0.996669, 241, 181, 368, 212
-0.996684, 377, 249, 408, 312
-0.996686, 387, 225, 402, 288
-0.996698, 273, 237, 400, 268
-0.99671, 369, 97, 496, 160
-0.996739, 161, 77, 288, 108
-0.99678, 113, 253, 240, 284
-0.996783, 225, 33, 256, 288
-0.996785, 261, 57, 276, 120
-0.996787, 127, 65, 142, 128
-0.996787, 247, 57, 262, 120
-0.99679, 193, 113, 320, 144
-0.996801, 1, 177, 256, 240
-0.996802, 191, 57, 206, 120
-0.996813, 425, 233, 456, 296
-0.996841, 35, 257, 50, 320
-0.996864, 289, 33, 304, 96
-0.996903, 295, 57, 310, 120
-0.996903, 207, 249, 222, 312
-0.99691, 97, 77, 224, 108
-0.996912, 369, 161, 400, 288
-0.996933, 237, 33, 268, 288
-0.996935, 239, 57, 254, 120
-0.996952, 213, 57, 228, 120
-0.996959, 205, 65, 220, 128
-0.996964, 193, 209, 320, 240
-0.996965, 25, 273, 88, 333
-0.996974, 33, 1, 96, 128
-0.996983, 193, 233, 320, 264
-0.996984, 257, 49, 384, 80
-0.996986, 311, 121, 326, 184
-0.99699, 271, 41, 286, 104
-0.99699, 343, 241, 358, 304
-0.996996, 347, 57, 362, 120
-0.996996, 353, 257, 368, 320
-0.997, 145, 133, 272, 164
-0.99701, 369, 189, 496, 220
-0.997011, 229, 57, 244, 120
-0.997018, 449, 177, 464, 240
-0.997022, 157, 201, 172, 264
-0.997029, 253, 225, 284, 288
-0.99704, 213, 33, 244, 288
-0.997047, 241, 169, 368, 200
-0.997064, 1, 1, 128, 64
-0.997077, 1, 121, 256, 184
-0.997089, 259, 177, 274, 240
-0.997095, 49, 249, 176, 280
-0.997101, 241, 213, 368, 244
-0.997104, 151, 193, 166, 256
-0.997105, 181, 105, 196, 168
-0.997171, 295, 33, 310, 96
-0.997183, 223, 57, 238, 120
-0.997191, 193, 261, 320, 292
-0.997196, 353, 57, 368, 120
-0.997197, 321, 249, 448, 280
-0.997197, 231, 177, 246, 240
-0.997198, 225, 225, 240, 288
-0.99721, 305, 89, 432, 120
-0.997216, 1, 273, 256, 333
-0.997283, 241, 197, 368, 228
-0.997301, 249, 1, 280, 256
-0.997304, 119, 73, 134, 136
-0.997333, 1, 129, 500, 192
-0.997341, 313, 25, 376, 88
-0.997342, 273, 113, 400, 144
-0.997344, 219, 217, 234, 280
-0.99735, 113, 273, 240, 304
-0.997379, 457, 185, 472, 248
-0.997384, 321, 17, 448, 80
-0.997384, 1, 33, 256, 96
-0.997391, 301, 97, 316, 160
-0.997413, 97, 53, 224, 84
-0.997414, 321, 201, 448, 232
-0.997416, 199, 117, 214, 148
-0.997421, 363, 49, 378, 112
-0.99744, 185, 73, 200, 136
-0.997441, 209, 53, 336, 84
-0.997449, 463, 185, 478, 248
-0.997459, 261, 1, 292, 256
-0.997478, 353, 225, 368, 288
-0.997508, 153, 129, 168, 192
-0.997512, 65, 109, 192, 140
-0.997514, 193, 221, 320, 252
-0.997525, 49, 25, 112, 88
-0.997549, 109, 161, 140, 288
-0.997553, 273, 249, 400, 280
-0.997576, 265, 25, 280, 88
-0.997576, 289, 1, 320, 128
-0.997585, 341, 57, 356, 120
-0.997597, 273, 261, 400, 292
-0.997603, 211, 113, 226, 176
-0.997624, 201, 249, 216, 312
-0.997626, 335, 73, 350, 136
-0.997635, 321, 181, 448, 212
-0.997638, 213, 241, 228, 304
-0.997643, 369, 1, 496, 32
-0.997648, 301, 57, 316, 120
-0.997648, 1, 49, 500, 112
-0.997657, 337, 261, 464, 292
-0.997664, 281, 1, 312, 256
-0.997667, 469, 185, 484, 248
-0.997682, 193, 33, 224, 288
-0.997685, 273, 193, 288, 256
-0.997694, 241, 137, 368, 168
-0.997699, 213, 201, 228, 264
-0.99771, 245, 177, 260, 240
-0.997722, 251, 177, 266, 240
-0.997729, 337, 201, 352, 264
-0.997741, 133, 57, 148, 120
-0.997749, 65, 121, 192, 152
-0.997749, 199, 49, 214, 112
-0.997774, 105, 89, 120, 152
-0.997787, 193, 273, 320, 304
-0.997791, 369, 201, 496, 232
-0.997793, 265, 1, 328, 64
-0.997794, 161, 97, 288, 128
-0.9978, 237, 177, 252, 240
-0.997804, 193, 117, 208, 148
-0.997812, 325, 73, 340, 136
-0.997822, 97, 97, 112, 160
-0.997823, 347, 81, 362, 144
-0.997825, 125, 73, 140, 104
-0.997825, 111, 81, 126, 144
-0.997832, 133, 97, 148, 160
-0.99784, 145, 149, 272, 180
-0.997841, 1, 153, 256, 216
-0.997849, 425, 169, 440, 232
-0.997849, 25, 49, 88, 112
-0.997862, 331, 209, 346, 272
-0.997865, 433, 1, 464, 256
-0.997867, 161, 49, 288, 80
-0.997868, 113, 285, 240, 316
-0.997871, 225, 137, 480, 200
-0.997875, 193, 137, 320, 168
-0.997882, 475, 185, 490, 248
-0.997901, 1, 65, 64, 320
-0.997912, 301, 33, 316, 96
-0.997913, 187, 121, 202, 184
-0.997913, 151, 221, 166, 252
-0.997916, 151, 89, 166, 152
-0.997941, 375, 49, 390, 112
-0.997943, 267, 209, 282, 272
-0.997951, 129, 97, 160, 224
-0.997952, 301, 125, 316, 156
-0.997962, 205, 89, 220, 152
-0.997964, 113, 297, 240, 328
-0.997966, 135, 209, 150, 272
-0.997973, 219, 241, 234, 304
-0.997977, 273, 273, 400, 304
-0.997979, 369, 233, 384, 264
-0.997986, 257, 101, 384, 132
-0.99799, 225, 85, 352, 116
-0.997992, 169, 129, 184, 192
-0.997996, 79, 225, 94, 288
-0.997999, 291, 97, 306, 160
-0.998006, 439, 185, 454, 216
-0.998008, 119, 73, 134, 104
-0.998014, 139, 97, 154, 160
-0.998015, 433, 189, 448, 220
-0.998016, 353, 69, 480, 100
-0.998019, 443, 1, 458, 64
-0.998019, 269, 257, 284, 320
-0.998031, 65, 225, 192, 256
-0.998032, 241, 149, 368, 180
-0.998047, 189, 101, 204, 132
-0.998068, 145, 225, 160, 256
-0.998071, 409, 213, 424, 244
-0.998084, 337, 233, 352, 264
-0.998085, 377, 229, 392, 260
-0.998095, 193, 285, 320, 316
-0.998096, 417, 73, 480, 136
-0.99811, 111, 237, 126, 268
-0.998113, 193, 301, 320, 332
-0.998114, 133, 65, 148, 96
-0.998123, 425, 197, 440, 228
-0.998126, 337, 97, 368, 224
-0.998132, 273, 65, 288, 96
-0.998134, 103, 241, 118, 272
-0.998137, 165, 65, 196, 320
-0.998141, 415, 209, 430, 240
-0.998142, 119, 233, 134, 264
-0.998151, 305, 101, 432, 132
-0.998154, 91, 245, 106, 276
-0.99817, 137, 65, 168, 320
-0.998175, 355, 69, 370, 100
-0.998176, 177, 173, 304, 204
-0.998179, 99, 97, 114, 128
-0.998182, 207, 121, 222, 152
-0.998182, 115, 85, 130, 116
-0.998188, 279, 65, 294, 96
-0.998193, 261, 65, 276, 96
-0.998199, 267, 65, 282, 96
-0.998201, 383, 225, 398, 256
-0.998204, 85, 245, 100, 276
-0.998206, 43, 253, 58, 284
-0.998209, 337, 45, 464, 76
-0.998221, 67, 249, 82, 280
-0.998234, 159, 185, 174, 216
-0.998236, 125, 65, 156, 320
-0.998244, 93, 81, 124, 208
-0.998245, 125, 233, 140, 264
-0.998248, 37, 253, 52, 284
-0.998254, 135, 233, 150, 264
-0.998266, 397, 65, 428, 320
-0.998268, 343, 241, 358, 272
-0.998269, 121, 227, 152, 242
-0.998269, 157, 125, 188, 140
-0.998269, 89, 111, 120, 126
-0.998269, 57, 245, 88, 260
-0.998269, 137, 213, 168, 228
-0.99827, 105, 81, 136, 96
-0.998271, 141, 171, 172, 186
-0.998272, 85, 97, 116, 112
-0.998274, 201, 199, 232, 214
-0.998274, 213, 227, 244, 242
-0.998275, 205, 219, 236, 234
-0.998275, 157, 209, 188, 224
-0.998275, 269, 209, 300, 224
-0.998277, 253, 189, 284, 204
-0.998278, 213, 303, 244, 318
-0.998279, 281, 131, 312, 146
-0.99828, 173, 89, 204, 104
-0.998281, 201, 263, 232, 278
-0.998282, 165, 119, 196, 134
-0.998282, 181, 109, 196, 140
-0.998282, 181, 77, 212, 92
-0.998282, 273, 61, 304, 76
-0.998282, 105, 97, 120, 128
-0.998282, 73, 249, 88, 280
-0.998283, 1, 1, 500, 64
-0.998284, 201, 243, 232, 258
-0.998284, 73, 243, 104, 258
-0.998284, 341, 261, 372, 276
-0.998284, 285, 143, 316, 158
-0.998285, 403, 217, 418, 248
-0.998285, 469, 195, 500, 210
-0.998286, 209, 125, 240, 140
-0.998286, 21, 251, 52, 266
-0.998286, 157, 203, 188, 218
-0.998288, 389, 219, 420, 234
-0.998288, 137, 207, 168, 222
-0.998288, 293, 73, 324, 88
-0.998288, 45, 247, 76, 262
-0.998289, 285, 61, 300, 92
-0.99829, 137, 191, 168, 206
-0.998292, 201, 193, 232, 208
-0.998294, 157, 165, 188, 180
-0.998294, 357, 263, 388, 278
-0.998295, 217, 197, 248, 212
-0.998296, 267, 185, 282, 216
-0.998296, 317, 71, 348, 86
-0.998297, 149, 57, 180, 72
-0.998298, 17, 257, 32, 288
-0.9983, 301, 143, 332, 158
-0.998302, 189, 99, 220, 114
-0.998303, 157, 171, 188, 186
-0.998305, 237, 309, 268, 324
-0.998306, 285, 63, 316, 78
-0.998306, 189, 115, 220, 130
-0.998307, 161, 157, 192, 172
-0.998308, 205, 131, 236, 146
-0.998309, 293, 133, 324, 148
-0.998309, 221, 185, 252, 200
-0.99831, 353, 257, 384, 272
-0.998313, 157, 215, 188, 230
-0.998313, 177, 83, 208, 98
-0.998316, 169, 135, 200, 150
-0.998317, 445, 185, 460, 216
-0.998318, 389, 225, 404, 256
-0.998318, 321, 233, 352, 248
-0.998319, 137, 233, 168, 248
-0.998319, 353, 251, 384, 266
-0.998319, 225, 309, 256, 324
-0.99832, 109, 87, 140, 102
-0.99832, 153, 197, 184, 212
-0.998321, 109, 69, 140, 84
-0.998323, 157, 177, 188, 192
-0.998323, 261, 61, 292, 76
-0.998323, 307, 125, 322, 156
-0.998326, 79, 245, 94, 276
-0.998328, 329, 245, 360, 260
-0.998329, 361, 73, 376, 104
-0.99833, 177, 61, 208, 76
-0.99833, 341, 67, 372, 82
-0.998331, 417, 33, 480, 96
-0.998332, 153, 189, 184, 204
-0.998332, 185, 107, 216, 122
-0.998332, 363, 241, 378, 272
-0.998333, 453, 189, 484, 204
-0.998333, 133, 227, 164, 242
-0.998338, 201, 249, 232, 264
-0.99834, 281, 137, 312, 152
-0.998342, 97, 245, 112, 276
-0.998344, 225, 181, 240, 212
-0.998344, 325, 239, 356, 254
-0.998347, 117, 79, 148, 94
-0.998347, 105, 93, 136, 108
-0.998348, 157, 183, 188, 198
-0.998348, 93, 105, 124, 120
-0.998349, 57, 249, 72, 280
-0.998349, 309, 81, 340, 96
-0.99835, 205, 65, 236, 80
-0.99835, 325, 77, 356, 92
-0.998353, 149, 221, 180, 236
-0.998354, 89, 161, 120, 288
-0.998354, 429, 189, 460, 204
-0.998356, 177, 115, 208, 130
-0.998357, 349, 69, 364, 100
-0.998357, 117, 97, 148, 224
-0.998358, 255, 61, 270, 92
-0.998359, 221, 191, 252, 206
-0.998359, 361, 81, 392, 208
-0.99836, 205, 65, 220, 96
-0.998362, 49, 249, 64, 280
-0.998362, 361, 245, 392, 260
-0.998362, 221, 63, 252, 78
-0.998363, 341, 255, 372, 270
-0.998368, 193, 65, 224, 80
-0.99837, 353, 79, 384, 94
-0.998371, 187, 121, 202, 152
-0.998371, 425, 201, 456, 216
-0.998374, 369, 241, 496, 272
-0.998374, 305, 75, 336, 90
-0.998377, 345, 235, 376, 250
-0.998377, 91, 105, 106, 136
-0.998379, 233, 65, 264, 80
-0.998381, 249, 61, 264, 92
-0.998383, 229, 179, 260, 194
-0.998384, 173, 129, 204, 144
-0.998384, 401, 219, 432, 234
-0.998387, 101, 99, 132, 114
-0.998388, 245, 183, 276, 198
-0.998388, 261, 67, 292, 82
-0.998389, 429, 195, 460, 210
-0.998389, 445, 1, 476, 256
-0.998389, 11, 257, 26, 288
-0.99839, 417, 207, 448, 222
-0.99839, 189, 131, 220, 146
-0.99839, 341, 249, 372, 264
-0.998391, 137, 61, 168, 76
-0.998392, 9, 259, 40, 274
-0.998393, 345, 243, 376, 258
-0.998394, 121, 73, 152, 88
-0.998394, 397, 221, 412, 252
-0.998398, 329, 71, 360, 86
-0.998405, 177, 123, 208, 138
-0.998405, 409, 213, 440, 228
-0.998405, 23, 257, 38, 288
-0.998408, 29, 253, 44, 284
-0.998411, 273, 67, 304, 82
-0.998411, 219, 189, 234, 220
-0.998413, 365, 235, 396, 250
-0.998415, 57, 251, 88, 266
-0.998423, 21, 257, 52, 272
-0.998426, 129, 67, 160, 82
-0.998426, 293, 127, 324, 142
-0.998426, 101, 241, 132, 256
-0.998427, 113, 65, 144, 320
-0.998431, 33, 255, 64, 270
-0.998432, 389, 225, 420, 240
-0.998437, 203, 245, 218, 276
-0.998439, 125, 233, 156, 248
-0.998439, 69, 249, 100, 264
-0.99844, 209, 41, 336, 72
-0.998441, 181, 33, 212, 288
-0.998443, 199, 133, 214, 164
-0.998447, 293, 129, 308, 160
-0.998454, 89, 245, 120, 260
-0.998454, 45, 253, 76, 268
-0.998454, 229, 61, 244, 92
-0.998456, 377, 229, 408, 244
-0.998457, 441, 187, 472, 202
-0.998465, 237, 177, 252, 208
-0.998466, 245, 65, 276, 80
-0.998473, 49, 213, 176, 244
-0.998473, 313, 73, 376, 88
-0.998474, 145, 227, 176, 242
-0.998476, 17, 225, 144, 256
-0.998476, 157, 217, 172, 248
-0.998477, 293, 1, 324, 256
-0.998477, 291, 57, 306, 88
-0.998479, 109, 85, 124, 116
-0.99848, 417, 65, 448, 320
-0.998481, 357, 245, 372, 276
-0.998483, 217, 61, 232, 92
-0.998486, 113, 235, 144, 250
-0.998489, 49, 273, 112, 333
-0.99849, 5, 257, 20, 288
-0.998498, 223, 61, 238, 92
-0.998506, 331, 229, 346, 260
-0.998506, 345, 73, 376, 88
-0.998507, 425, 189, 488, 204
-0.99851, 199, 65, 214, 96
-0.998516, 211, 61, 226, 92
-0.998523, 17, 237, 144, 268
-0.998526, 113, 233, 176, 248
-0.998532, 163, 157, 178, 188
-0.998534, 321, 73, 336, 104
-0.998537, 193, 61, 208, 92
-0.998538, 65, 157, 192, 188
-0.998538, 261, 129, 292, 256
-0.998539, 189, 121, 220, 136
-0.998539, 33, 253, 96, 268
-0.998541, 321, 273, 448, 304
-0.998544, 217, 183, 280, 198
-0.998546, 231, 177, 246, 208
-0.99855, 273, 233, 336, 296
-0.998552, 161, 123, 224, 138
-0.998554, 243, 61, 258, 92
-0.99856, 159, 173, 174, 204
-0.99856, 199, 105, 214, 136
-0.99856, 57, 249, 120, 264
-0.998561, 217, 65, 280, 80
-0.998564, 235, 61, 250, 92
-0.998568, 161, 133, 224, 148
-0.99857, 241, 67, 304, 82
-0.998577, 385, 223, 448, 238
-0.99858, 1, 257, 64, 272
-0.998581, 281, 129, 344, 144
-0.998583, 185, 65, 248, 80
-0.998583, 145, 49, 176, 176
-0.998583, 159, 201, 174, 232
-0.998586, 97, 239, 160, 254
-0.998592, 393, 217, 456, 232
-0.998595, 329, 235, 392, 250
-0.998601, 369, 229, 432, 244
-0.998604, 17, 101, 144, 132
-0.998604, 33, 45, 160, 76
-0.998607, 161, 9, 288, 40
-0.998608, 351, 253, 366, 284
-0.998608, 145, 117, 208, 132
-0.998609, 137, 59, 200, 74
-0.998611, 337, 241, 400, 256
-0.998612, 127, 61, 142, 92
-0.998616, 417, 201, 480, 216
-0.998617, 409, 207, 472, 222
-0.998618, 453, 185, 468, 216
-0.998618, 185, 129, 248, 144
-0.998618, 321, 79, 384, 94
-0.998619, 369, 177, 496, 208
-0.998621, 137, 227, 200, 242
-0.998622, 185, 123, 248, 138
-0.998624, 209, 309, 272, 324
-0.998626, 361, 235, 424, 250
-0.998627, 161, 139, 224, 154
-0.998628, 73, 243, 136, 258
-0.99863, 65, 201, 192, 232
-0.998632, 273, 135, 336, 150
-0.998633, 273, 141, 336, 156
-0.998633, 217, 189, 280, 204
-0.998637, 329, 225, 392, 240
-0.998637, 337, 247, 400, 262
-0.998638, 353, 69, 416, 84
-0.998639, 273, 73, 336, 88
-0.998642, 305, 67, 368, 82
-0.998642, 313, 241, 376, 256
-0.998644, 367, 77, 382, 108
-0.998645, 343, 65, 358, 96
-0.998645, 145, 187, 208, 202
-0.998646, 145, 111, 208, 126
-0.998648, 145, 195, 208, 210
-0.998649, 289, 123, 352, 138
-0.99865, 297, 79, 360, 94
-0.998651, 145, 209, 208, 224
-0.998651, 145, 201, 208, 216
-0.998652, 151, 209, 166, 240
-0.998654, 425, 195, 488, 210
-0.998654, 313, 247, 376, 262
-0.998656, 145, 221, 208, 236
-0.998661, 217, 217, 280, 232
-0.998661, 209, 243, 272, 258
-0.998661, 97, 133, 224, 164
-0.998662, 145, 91, 208, 106
-0.998664, 353, 57, 368, 88
-0.998665, 89, 101, 152, 116
-0.998666, 145, 181, 208, 196
-0.998666, 165, 145, 180, 176
-0.998666, 361, 257, 376, 288
-0.998668, 259, 181, 274, 212
-0.998669, 113, 227, 176, 242
-0.998669, 121, 65, 184, 80
-0.998669, 301, 141, 316, 172
-0.99867, 241, 61, 304, 76
-0.998673, 177, 105, 240, 120
-0.998675, 281, 61, 344, 76
-0.998675, 145, 215, 208, 230
-0.998676, 153, 247, 216, 262
-0.998676, 361, 75, 424, 90
-0.998677, 81, 109, 144, 124
-0.998677, 81, 115, 144, 130
-0.998678, 185, 135, 248, 150
-0.998678, 297, 57, 312, 88
-0.99868, 217, 223, 280, 238
-0.99868, 153, 159, 216, 174
-0.998681, 177, 189, 240, 204
-0.998681, 169, 117, 232, 132
-0.998682, 145, 103, 208, 118
-0.998684, 477, 193, 492, 224
-0.998685, 161, 61, 224, 76
-0.998685, 153, 253, 216, 268
-0.998688, 97, 95, 160, 110
-0.998689, 353, 253, 416, 268
-0.998689, 305, 137, 368, 152
-0.998689, 345, 63, 408, 78
-0.998692, 197, 81, 212, 112
-0.998693, 193, 59, 256, 74
-0.998693, 177, 77, 240, 92
-0.998693, 345, 271, 408, 286
-0.998693, 273, 81, 336, 96
-0.998693, 385, 211, 448, 226
-0.998695, 209, 197, 272, 212
-0.998695, 305, 131, 368, 146
-0.998695, 177, 199, 240, 214
-0.998696, 209, 207, 272, 222
-0.998696, 153, 85, 216, 100
-0.998697, 313, 253, 376, 268
-0.998697, 265, 67, 328, 82
-0.998698, 297, 85, 360, 100
-0.998698, 153, 261, 216, 276
-0.998699, 145, 175, 208, 190
-0.998699, 169, 111, 232, 126
-0.998699, 257, 211, 320, 226
-0.998701, 137, 129, 200, 144
-0.998701, 425, 11, 488, 26
-0.998702, 153, 153, 216, 168
-0.998702, 145, 97, 208, 112
-0.998702, 137, 123, 200, 138
-0.998702, 297, 235, 360, 250
-0.998703, 177, 99, 240, 114
-0.998703, 249, 133, 312, 148
-0.998704, 153, 165, 216, 180
-0.998704, 153, 145, 216, 160
-0.998704, 361, 241, 424, 256
-0.998704, 193, 133, 208, 164
-0.998704, 169, 205, 232, 220
-0.998705, 153, 79, 216, 94
-0.998705, 353, 259, 416, 274
-0.998705, 265, 123, 328, 138
-0.998706, 181, 121, 196, 152
-0.998706, 121, 111, 184, 126
-0.998706, 217, 177, 280, 192
-0.998707, 217, 237, 280, 252
-0.998707, 153, 73, 216, 88
-0.998708, 345, 265, 408, 280
-0.998709, 377, 205, 440, 220
-0.99871, 345, 57, 408, 72
-0.99871, 113, 73, 176, 88
-0.99871, 345, 277, 408, 292
-0.998711, 361, 223, 424, 238
-0.998712, 425, 5, 488, 20
-0.998713, 393, 199, 456, 214
-0.998713, 247, 181, 262, 212
-0.998713, 241, 185, 304, 200
-0.998713, 393, 193, 456, 208
-0.998715, 161, 67, 224, 82
-0.998716, 121, 117, 184, 132
-0.998716, 425, 17, 488, 32
-0.998716, 177, 221, 240, 236
-0.998717, 305, 91, 368, 106
-0.998717, 209, 229, 272, 244
-0.998717, 361, 81, 424, 96
-0.998724, 209, 249, 224, 280
-0.998725, 313, 129, 328, 160
-0.998729, 177, 21, 304, 52
-0.998741, 271, 209, 286, 240
-0.99875, 17, 193, 144, 256
-0.998758, 65, 177, 192, 208
-0.998763, 253, 181, 268, 212
-0.998765, 225, 225, 240, 256
-0.998771, 359, 57, 374, 88
-0.998776, 321, 117, 448, 148
-0.998777, 303, 69, 318, 100
-0.998778, 207, 133, 222, 164
-0.998783, 65, 189, 192, 220
-0.998783, 315, 69, 330, 100
-0.998794, 275, 53, 290, 84
-0.998798, 149, 197, 164, 228
-0.998808, 305, 141, 432, 172
-0.998829, 207, 285, 222, 316
-0.998833, 467, 189, 482, 220
-0.998843, 329, 65, 344, 96
-0.998847, 293, 69, 308, 100
-0.99885, 89, 233, 104, 264
-0.998853, 459, 185, 474, 216
-0.998858, 135, 221, 150, 252
-0.998859, 139, 61, 154, 92
-0.998861, 269, 53, 284, 84
-0.998863, 263, 53, 278, 84
-0.998865, 217, 297, 232, 328
-0.998868, 101, 229, 116, 260
-0.998878, 369, 13, 496, 44
-0.998881, 33, 61, 160, 92
-0.998891, 49, 85, 176, 116
-0.998891, 369, 273, 496, 304
-0.998893, 151, 209, 166, 333
-0.998897, 197, 49, 212, 176
-0.998908, 345, 65, 376, 320
-0.998911, 289, 17, 352, 80
-0.998914, 321, 169, 448, 200
-0.998921, 205, 49, 220, 176
-0.99894, 457, 1, 488, 256
-0.998943, 369, 121, 496, 184
-0.998968, 97, 25, 160, 88
-0.998986, 65, 145, 192, 176
-0.998989, 253, 1, 268, 128
-0.99899, 1, 25, 500, 88
-0.999008, 401, 209, 416, 333
-0.999009, 361, 65, 392, 320
-0.999011, 431, 177, 446, 304
-0.99902, 305, 153, 432, 184
-0.999029, 1, 65, 64, 192
-0.999031, 193, 149, 320, 180
-0.999034, 411, 193, 426, 320
-0.999046, 305, 265, 368, 328
-0.99905, 417, 193, 432, 320
-0.999052, 257, 33, 384, 64
-0.999053, 145, 209, 160, 333
-0.999071, 247, 1, 262, 128
-0.999075, 373, 33, 404, 288
-0.999078, 337, 33, 464, 64
-0.999079, 273, 301, 400, 332
-0.999085, 153, 65, 184, 320
-0.999087, 395, 209, 410, 333
-0.999092, 469, 1, 500, 128
-0.999095, 425, 177, 440, 304
-0.999101, 287, 49, 302, 176
-0.999102, 259, 1, 274, 128
-0.999105, 353, 81, 480, 112
-0.999107, 213, 49, 228, 176
-0.999107, 295, 49, 310, 176
-0.99911, 191, 65, 206, 192
-0.999113, 17, 161, 80, 288
-0.999116, 389, 209, 404, 333
-0.999129, 221, 177, 236, 304
-0.999135, 159, 161, 174, 288
-0.999138, 437, 177, 452, 304
-0.999146, 365, 209, 380, 333
-0.999148, 321, 129, 448, 160
-0.999152, 65, 273, 192, 304
-0.999159, 317, 65, 348, 320
-0.999164, 133, 209, 148, 333
-0.999165, 49, 1, 176, 32
-0.99918, 273, 285, 400, 316
-0.999186, 1, 293, 128, 324
-0.999195, 383, 209, 398, 333
-0.999196, 265, 1, 280, 128
-0.9992, 241, 1, 256, 128
-0.999217, 371, 209, 386, 333
-0.999221, 1, 73, 128, 104
-0.999222, 139, 209, 154, 333
-0.999224, 219, 49, 234, 176
-0.999225, 161, 9, 416, 72
-0.999238, 353, 285, 480, 316
-0.999239, 281, 49, 296, 176
-0.999242, 227, 177, 242, 304
-0.999245, 259, 177, 274, 304
-0.999245, 127, 209, 142, 333
-0.999252, 273, 17, 288, 144
-0.99926, 443, 177, 458, 304
-0.999261, 225, 49, 240, 176
-0.99927, 305, 1, 336, 256
-0.99927, 377, 209, 392, 333
-0.999277, 269, 177, 284, 304
-0.999284, 441, 1, 456, 128
-0.999288, 301, 65, 316, 192
-0.99929, 177, 161, 304, 192
-0.999301, 385, 33, 416, 288
-0.999309, 259, 49, 274, 176
-0.999311, 17, 113, 144, 144
-0.999312, 121, 209, 136, 333
-0.999316, 253, 177, 268, 304
-0.999316, 115, 209, 130, 333
-0.99932, 101, 33, 132, 288
-0.999321, 215, 193, 230, 320
-0.999329, 109, 209, 124, 333
-0.999335, 435, 1, 450, 128
-0.999336, 233, 161, 248, 288
-0.999342, 247, 177, 262, 304
-0.999343, 235, 1, 250, 128
-0.999345, 57, 65, 120, 320
-0.999346, 241, 9, 368, 40
-0.999351, 253, 49, 268, 176
-0.999355, 239, 161, 254, 288
-0.999358, 185, 65, 200, 192
-0.999362, 265, 49, 280, 176
-0.999364, 203, 97, 218, 224
-0.999369, 131, 49, 146, 176
-0.999372, 49, 293, 176, 324
-0.999374, 241, 21, 368, 52
-0.999378, 209, 101, 336, 132
-0.999392, 153, 161, 168, 288
-0.999393, 447, 1, 462, 128
-0.999398, 231, 49, 246, 176
-0.999405, 237, 49, 252, 176
-0.999406, 17, 121, 144, 184
-0.99941, 353, 297, 480, 328
-0.999413, 449, 177, 464, 304
-0.999413, 459, 1, 474, 128
-0.999429, 307, 65, 322, 192
-0.999432, 453, 1, 468, 128
-0.999433, 81, 65, 112, 320
-0.999436, 185, 193, 216, 320
-0.99944, 295, 97, 310, 224
-0.999444, 103, 209, 118, 333
-0.999444, 165, 129, 180, 256
-0.999444, 247, 49, 262, 176
-0.999445, 353, 105, 480, 136
-0.999448, 87, 209, 102, 333
-0.99945, 155, 81, 170, 208
-0.999454, 353, 93, 480, 124
-0.99946, 197, 97, 212, 224
-0.999465, 7, 209, 22, 333
-0.999466, 81, 209, 96, 333
-0.999469, 465, 1, 480, 128
-0.999474, 341, 161, 356, 288
-0.999481, 15, 209, 30, 333
-0.999484, 229, 1, 244, 128
-0.999486, 405, 161, 420, 288
-0.999486, 1, 209, 16, 333
-0.999487, 75, 209, 90, 333
-0.999496, 45, 209, 60, 333
-0.999498, 353, 243, 368, 258
-0.999501, 281, 61, 296, 76
-0.999501, 93, 209, 108, 333
-0.999501, 253, 181, 268, 196
-0.999503, 301, 113, 316, 240
-0.999505, 287, 61, 302, 76
-0.999505, 137, 227, 152, 242
-0.999505, 153, 169, 168, 184
-0.999506, 163, 165, 178, 180
-0.999507, 161, 173, 176, 188
-0.999507, 101, 95, 116, 110
-0.999508, 271, 61, 286, 76
-0.999508, 317, 81, 332, 96
-0.999508, 301, 133, 316, 148
-0.999509, 29, 209, 44, 333
-0.999509, 215, 301, 230, 316
-0.999509, 457, 187, 472, 202
-0.999509, 197, 127, 212, 142
-0.999512, 49, 261, 176, 292
-0.999512, 193, 97, 208, 112
-0.999512, 305, 141, 320, 156
-0.999513, 143, 59, 158, 74
-0.999513, 65, 209, 80, 333
-0.999513, 371, 81, 386, 96
-0.999513, 311, 75, 326, 90
-0.999513, 269, 211, 284, 226
-0.999514, 323, 75, 338, 90
-0.999514, 159, 201, 174, 216
-0.999515, 209, 97, 224, 224
-0.999515, 301, 17, 316, 144
-0.999515, 201, 115, 216, 130
-0.999516, 205, 129, 220, 144
-0.999516, 351, 67, 366, 82
-0.999516, 293, 127, 308, 142
-0.999517, 285, 145, 316, 272
-0.999519, 195, 65, 210, 80
-0.999519, 259, 183, 274, 198
-0.999519, 89, 113, 104, 128
-0.99952, 229, 181, 244, 196
-0.99952, 363, 245, 378, 260
-0.999522, 199, 133, 214, 148
-0.999522, 223, 129, 238, 256
-0.999523, 275, 193, 290, 320
-0.999523, 209, 65, 224, 80
-0.999523, 21, 209, 36, 333
-0.999524, 157, 209, 172, 333
-0.999524, 329, 71, 344, 86
-0.999524, 185, 113, 200, 128
-0.999525, 203, 247, 218, 262
-0.999525, 163, 159, 178, 174
-0.999526, 287, 67, 302, 82
-0.999527, 245, 181, 260, 196
-0.99953, 237, 65, 252, 80
-0.999531, 355, 255, 370, 270
-0.999532, 187, 129, 202, 144
-0.999532, 331, 229, 346, 244
-0.999532, 455, 177, 470, 304
-0.999532, 293, 137, 308, 152
-0.999532, 189, 103, 204, 118
-0.999533, 311, 137, 326, 152
-0.999533, 207, 123, 222, 138
-0.999534, 5, 261, 20, 276
-0.999535, 223, 63, 238, 78
-0.999535, 267, 189, 282, 204
-0.999535, 51, 209, 66, 333
-0.999536, 231, 63, 246, 78
-0.999537, 219, 191, 234, 206
-0.999539, 35, 209, 50, 333
-0.999539, 343, 247, 358, 262
-0.999539, 237, 179, 252, 194
-0.99954, 215, 65, 230, 80
-0.999541, 159, 191, 174, 206
-0.999543, 215, 129, 230, 256
-0.999544, 77, 161, 108, 288
-0.999545, 11, 259, 26, 274
-0.999545, 355, 249, 370, 264
-0.999545, 337, 209, 352, 333
-0.999546, 429, 1, 444, 128
-0.999546, 317, 75, 332, 90
-0.999546, 161, 179, 176, 194
-0.999547, 159, 215, 174, 230
-0.999549, 181, 119, 196, 134
-0.999549, 243, 65, 258, 80
-0.999549, 209, 193, 224, 320
-0.99955, 425, 203, 440, 218
-0.999551, 59, 209, 74, 333
-0.999551, 121, 73, 136, 88
-0.999553, 365, 239, 380, 254
-0.999553, 111, 89, 126, 104
-0.999554, 165, 81, 180, 208
-0.999556, 339, 71, 354, 86
-0.999558, 429, 197, 444, 212
-0.999559, 193, 133, 208, 148
-0.999559, 61, 251, 76, 266
-0.999559, 419, 145, 434, 272
-0.99956, 189, 123, 204, 138
-0.999561, 399, 223, 414, 238
-0.999561, 371, 33, 386, 160
-0.999562, 279, 1, 294, 128
-0.999564, 447, 185, 462, 200
-0.999564, 339, 241, 354, 256
-0.999564, 147, 161, 162, 288
-0.999565, 303, 125, 318, 140
-0.999565, 125, 49, 140, 176
-0.999566, 267, 67, 282, 82
-0.999566, 27, 257, 42, 272
-0.999566, 389, 227, 404, 242
-0.999567, 137, 233, 152, 248
-0.999567, 17, 259, 32, 274
-0.999567, 33, 257, 48, 272
-0.999568, 249, 65, 264, 80
-0.999568, 127, 235, 142, 250
-0.999569, 427, 129, 442, 256
-0.999569, 405, 219, 420, 234
-0.99957, 225, 187, 240, 202
-0.99957, 261, 65, 276, 80
-0.999571, 201, 121, 216, 136
-0.999571, 417, 209, 432, 224
-0.999572, 249, 129, 264, 256
-0.999572, 359, 209, 374, 333
-0.999572, 53, 253, 68, 268
-0.999574, 179, 81, 194, 208
-0.999574, 137, 61, 152, 76
-0.999575, 435, 191, 450, 206
-0.999576, 441, 187, 456, 202
-0.999579, 159, 185, 174, 200
-0.999581, 345, 71, 360, 86
-0.999581, 275, 67, 290, 82
-0.999582, 49, 13, 176, 44
-0.999583, 67, 251, 82, 266
-0.999586, 289, 97, 304, 224
-0.999586, 383, 229, 398, 244
-0.999587, 191, 17, 206, 144
-0.999589, 85, 247, 100, 262
-0.999589, 281, 67, 296, 82
-0.99959, 77, 249, 92, 264
-0.999592, 47, 253, 62, 268
-0.999593, 91, 247, 106, 262
-0.999593, 143, 231, 158, 246
-0.999594, 335, 235, 350, 250
-0.999595, 95, 107, 110, 122
-0.999595, 255, 65, 270, 80
-0.999596, 433, 129, 448, 256
-0.999596, 41, 255, 56, 270
-0.999598, 365, 77, 380, 92
-0.999598, 411, 215, 426, 230
-0.999599, 127, 67, 142, 82
-0.9996, 377, 231, 392, 246
-0.9996, 377, 33, 392, 160
-0.999601, 195, 119, 210, 134
-0.999603, 351, 73, 366, 88
-0.999603, 107, 95, 122, 110
-0.999606, 383, 49, 398, 176
-0.999607, 465, 177, 480, 304
-0.999607, 371, 235, 386, 250
-0.999608, 97, 245, 112, 260
-0.999608, 223, 1, 238, 128
-0.999609, 149, 113, 164, 240
-0.999609, 199, 1, 214, 128
-0.999611, 121, 235, 136, 250
-0.999613, 109, 241, 124, 256
-0.999614, 117, 85, 132, 100
-0.999615, 399, 161, 414, 288
-0.999615, 261, 129, 276, 256
-0.999617, 365, 33, 380, 160
-0.999621, 155, 221, 170, 236
-0.999621, 141, 161, 156, 288
-0.999622, 393, 49, 408, 176
-0.999622, 103, 243, 118, 258
-0.999623, 445, 129, 460, 256
-0.999623, 307, 113, 322, 240
-0.999624, 351, 49, 366, 176
-0.999632, 351, 209, 366, 333
-0.999636, 471, 1, 486, 128
-0.999636, 115, 237, 130, 252
-0.999637, 357, 73, 372, 88
-0.999638, 255, 129, 270, 256
-0.99964, 439, 129, 454, 256
-0.999644, 101, 101, 116, 116
-0.999654, 121, 79, 136, 94
-0.999656, 149, 225, 164, 240
-0.999659, 133, 67, 148, 82
-0.999674, 1, 29, 128, 60
-0.999695, 127, 73, 142, 88
-0.999718, 1, 85, 128, 116
-0.999739, 413, 49, 444, 176
-0.999805, 349, 161, 380, 288
-0.999833, 1, 1, 64, 128
-0.999867, 333, 65, 364, 320
-0.999899, 361, 121, 424, 184
-0.999945, 25, 25, 88, 88
-1.0001, 169, 1, 200, 128
-1.0001, 29, 65, 60, 320
-1.00013, 457, 129, 488, 256
-1.00017, 381, 1, 412, 128
-1.00031, 469, 1, 500, 256
-1.00032, 69, 65, 100, 320
-1.00033, 65, 161, 96, 288
-1.00035, 349, 81, 380, 208
-1.00038, 409, 105, 472, 168
-1.00039, 17, 65, 48, 320
-1.00042, 49, 161, 80, 288
-1.00043, 25, 65, 88, 320
-1.00051, 377, 1, 440, 64
-1.00052, 41, 65, 72, 320
-1.00055, 1, 65, 32, 320
-1.00066, 1, 57, 64, 120
-1.00077, 101, 17, 132, 144
-1.00077, 469, 129, 500, 256
-1.00081, 17, 33, 48, 160
-1.00084, 37, 161, 68, 288
-1.00084, 285, 193, 316, 320
-1.00085, 17, 145, 144, 208
-1.0009, 53, 1, 84, 256
-1.00099, 81, 97, 112, 224
-1.00106, 409, 1, 440, 128
-1.00123, 97, 9, 224, 72
-1.00133, 133, 1, 164, 128
-1.00136, 157, 17, 188, 144
-1.00139, 405, 97, 436, 224
-1.00145, 17, 169, 144, 232
-1.00148, 57, 1, 88, 128
-1.00149, 345, 1, 376, 128
-1.00161, 85, 1, 116, 128
-1.00166, 45, 33, 76, 160
-1.00181, 113, 1, 144, 128
-1.00198, 25, 161, 56, 288
-1.00213, 393, 17, 424, 144
-1.00224, 165, 193, 196, 320
-1.00234, 425, 49, 488, 176
-1.00242, 425, 49, 456, 176
-1.00244, 353, 113, 416, 240
-1.0026, 29, 65, 60, 192
-1.0027, 329, 1, 360, 128
-1.00617, 65, 49, 128, 176
-1.00663, 121, 1, 184, 128
-1.00779, 17, 113, 144, 240
-1.00896, 1, 113, 64, 240
-1.01036, 33, 97, 96, 224
