1870
-0.462133, 1, 65, 500, 320
-0.57886, 1, 1, 500, 332
-0.581838, 225, 1, 480, 332
-0.620453, 129, 1, 384, 332
-0.716804, 33, 1, 288, 332
-0.720637, 129, 65, 384, 320
-0.732231, 225, 65, 480, 320
-0.753656, 1, 65, 256, 320
-0.900191, 33, 65, 160, 320
-0.902705, 1, 161, 500, 288
-0.903635, 161, 1, 288, 332
-0.90619, 209, 65, 336, 320
-0.906799, 273, 65, 400, 320
-0.907997, 1, 1, 128, 332
-0.908251, 209, 1, 336, 332
-0.911022, 273, 1, 400, 332
-0.91123, 1, 209, 500, 332
-0.914849, 129, 65, 256, 320
-0.914862, 321, 1, 448, 332
-0.9216, 369, 1, 496, 332
-0.921731, 1, 97, 500, 224
-0.926547, 65, 1, 192, 332
-0.927557, 369, 65, 496, 320
-0.927635, 225, 209, 480, 332
-0.927968, 81, 65, 208, 320
-0.930404, 113, 1, 240, 332
-0.931202, 161, 145, 416, 272
-0.931426, 321, 65, 448, 320
-0.933084, 33, 177, 288, 304
-0.93539, 1, 49, 500, 176
-0.937111, 129, 97, 384, 224
-0.941089, 1, 113, 256, 240
-0.942514, 129, 193, 384, 320
-0.945198, 337, 177, 464, 304
-0.945922, 257, 161, 500, 288
-0.949976, 257, 129, 320, 256
-0.951396, 289, 145, 416, 272
-0.951653, 225, 81, 480, 208
-0.953383, 1, 209, 128, 332
-0.954324, 257, 81, 320, 208
-0.956344, 369, 209, 432, 332
-0.956806, 297, 161, 360, 288
-0.95826, 257, 209, 384, 332
-0.959073, 145, 129, 208, 256
-0.960596, 129, 113, 256, 240
-0.960767, 129, 49, 384, 176
-0.961065, 129, 193, 256, 320
-0.961091, 81, 161, 208, 288
-0.961572, 241, 161, 368, 288
-0.961698, 49, 193, 112, 320
-0.961992, 153, 169, 216, 232
-0.962351, 369, 97, 496, 224
-0.962381, 49, 113, 176, 240
-0.962568, 281, 81, 344, 208
-0.96312, 257, 129, 320, 192
-0.963127, 217, 257, 280, 320
-0.963268, 353, 161, 416, 288
-0.963513, 73, 209, 136, 332
-0.964246, 289, 97, 416, 224
-0.964319, 33, 65, 288, 192
-0.964654, 177, 193, 304, 320
-0.965499, 177, 129, 304, 256
-0.965563, 185, 113, 248, 240
-0.965607, 9, 193, 72, 320
-0.965633, 153, 129, 216, 192
-0.965969, 393, 209, 456, 332
-0.966438, 321, 209, 384, 332
-0.966965, 217, 193, 280, 320
-0.967303, 385, 161, 448, 288
-0.967448, 225, 33, 480, 160
-0.967649, 121, 161, 184, 288
-0.967748, 49, 209, 176, 332
-0.968051, 209, 81, 336, 208
-0.968178, 169, 193, 232, 256
-0.968243, 401, 193, 464, 256
-0.968389, 297, 161, 360, 224
-0.968536, 1, 1, 500, 128
-0.968561, 265, 97, 328, 160
-0.968635, 233, 65, 296, 192
-0.968689, 257, 209, 320, 332
-0.96965, 33, 113, 96, 240
-0.969805, 129, 177, 192, 240
-0.969931, 377, 257, 440, 320
-0.970016, 153, 177, 216, 304
-0.971099, 377, 233, 440, 296
-0.971333, 1, 113, 128, 240
-0.971721, 265, 153, 328, 216
-0.971893, 33, 161, 160, 288
-0.972001, 177, 193, 240, 320
-0.972158, 1, 129, 64, 256
-0.972205, 145, 81, 208, 208
-0.972963, 97, 193, 160, 320
-0.973219, 329, 145, 392, 272
-0.973254, 417, 193, 480, 320
-0.973595, 377, 185, 440, 248
-0.974183, 177, 33, 304, 160
-0.974612, 153, 105, 216, 168
-0.974686, 185, 137, 248, 200
-0.974773, 33, 225, 96, 288
-0.974843, 305, 97, 368, 224
-0.975011, 193, 193, 256, 256
-0.975187, 257, 65, 320, 320
-0.975237, 321, 233, 384, 296
-0.975283, 249, 241, 312, 304
-0.975881, 281, 65, 344, 320
-0.976019, 129, 137, 192, 200
-0.976202, 289, 161, 416, 224
-0.97628, 289, 209, 352, 332
-0.97645, 97, 97, 160, 224
-0.976476, 233, 145, 296, 272
-0.976693, 353, 169, 416, 232
-0.976736, 185, 241, 248, 304
-0.976783, 285, 89, 316, 152
-0.976832, 49, 193, 112, 256
-0.976953, 289, 49, 416, 176
-0.97698, 305, 137, 368, 200
-0.977089, 345, 209, 408, 332
-0.977271, 353, 273, 416, 332
-0.977311, 433, 201, 496, 264
-0.977639, 297, 225, 360, 288
-0.97796, 297, 193, 360, 256
-0.978018, 257, 73, 320, 136
-0.978053, 417, 241, 480, 304
-0.978346, 25, 249, 88, 312
-0.978576, 129, 1, 384, 128
-0.978733, 241, 105, 304, 168
-0.97881, 329, 257, 392, 320
-0.978978, 65, 233, 128, 296
-0.979092, 105, 193, 168, 256
-0.979153, 73, 193, 136, 256
-0.979225, 129, 137, 256, 200
-0.979239, 369, 193, 496, 256
-0.979432, 9, 201, 72, 264
-0.979518, 273, 89, 304, 152
-0.979632, 81, 65, 208, 192
-0.979787, 113, 177, 240, 240
-0.980006, 305, 161, 336, 224
-0.98008, 289, 81, 320, 208
-0.98011, 209, 145, 272, 272
-0.98014, 393, 97, 456, 224
-0.980149, 273, 233, 336, 296
-0.980201, 273, 233, 400, 296
-0.980303, 377, 209, 440, 272
-0.980338, 409, 265, 472, 328
-0.980458, 73, 161, 136, 288
-0.980495, 121, 217, 184, 280
-0.980524, 409, 217, 472, 280
-0.980538, 217, 113, 280, 176
-0.980555, 249, 265, 312, 328
-0.980568, 217, 233, 280, 296
-0.980643, 129, 65, 256, 192
-0.980658, 409, 145, 472, 272
-0.980696, 305, 161, 336, 288
-0.980752, 225, 145, 288, 208
-0.98078, 361, 97, 424, 224
-0.980898, 33, 121, 96, 184
-0.980992, 381, 265, 412, 328
-0.981, 393, 177, 424, 304
-0.98112, 257, 177, 320, 240
-0.981206, 265, 209, 328, 272
-0.981215, 297, 113, 360, 176
-0.981224, 345, 225, 408, 288
-0.981435, 157, 129, 188, 192
-0.981553, 209, 169, 272, 232
-0.981555, 233, 65, 296, 320
-0.981567, 241, 1, 368, 128
-0.981629, 121, 113, 184, 240
-0.98167, 281, 73, 344, 136
-0.981676, 189, 177, 220, 240
-0.981759, 57, 97, 120, 224
-0.981813, 145, 217, 208, 280
-0.981899, 385, 153, 448, 216
-0.98196, 433, 129, 496, 256
-0.982116, 129, 209, 192, 332
-0.982121, 209, 97, 272, 224
-0.982182, 241, 1, 304, 128
-0.982285, 1, 49, 128, 176
-0.98236, 177, 177, 304, 240
-0.982381, 353, 249, 416, 312
-0.982458, 353, 233, 480, 296
-0.982567, 145, 153, 176, 216
-0.982606, 409, 169, 472, 232
-0.982634, 233, 81, 296, 144
-0.982673, 73, 105, 136, 168
-0.982734, 113, 105, 176, 168
-0.982737, 41, 225, 72, 288
-0.982806, 169, 129, 200, 256
-0.982865, 177, 65, 240, 192
-0.982888, 157, 129, 188, 256
-0.982924, 209, 89, 336, 152
-0.982934, 1, 225, 64, 288
-0.982961, 113, 201, 240, 264
-0.982975, 153, 177, 184, 240
-0.982984, 345, 145, 408, 208
-0.982986, 273, 81, 304, 208
-0.982999, 41, 177, 72, 304
-0.983121, 177, 201, 304, 264
-0.983123, 1, 257, 64, 320
-0.983424, 209, 145, 336, 208
-0.983534, 65, 105, 192, 168
-0.983537, 433, 177, 496, 240
-0.983708, 201, 193, 232, 256
-0.983732, 389, 177, 420, 240
-0.983834, 169, 217, 232, 280
-0.983861, 209, 121, 336, 184
-0.983864, 369, 49, 496, 176
-0.983885, 369, 161, 400, 288
-0.983946, 321, 209, 448, 272
-0.983998, 257, 89, 384, 152
-0.984127, 281, 33, 344, 160
-0.984208, 145, 65, 208, 320
-0.984214, 97, 145, 160, 272
-0.98431, 33, 17, 288, 144
-0.984346, 321, 185, 448, 248
-0.984374, 33, 65, 96, 320
-0.984418, 377, 209, 408, 332
-0.984527, 241, 169, 368, 232
-0.984561, 1, 129, 64, 192
-0.98457, 289, 1, 416, 128
-0.984577, 305, 257, 432, 320
-0.984601, 25, 97, 88, 160
-0.984616, 225, 201, 288, 264
-0.984666, 169, 169, 200, 232
-0.984733, 65, 193, 192, 256
-0.98478, 105, 161, 168, 224
-0.984794, 429, 193, 460, 256
-0.98499, 65, 193, 96, 320
-0.985011, 9, 49, 72, 176
-0.985019, 169, 273, 232, 332
-0.985037, 209, 49, 272, 176
-0.98508, 185, 97, 248, 160
-0.985232, 193, 273, 256, 332
-0.985244, 137, 177, 168, 240
-0.985272, 317, 145, 348, 272
-0.985383, 253, 265, 284, 328
-0.985405, 249, 193, 280, 320
-0.985407, 181, 161, 212, 288
-0.985461, 233, 177, 296, 240
-0.985661, 129, 233, 256, 296
-0.985662, 193, 217, 256, 280
-0.985735, 373, 233, 404, 296
-0.98574, 193, 241, 320, 304
-0.985784, 129, 113, 256, 176
-0.98583, 69, 233, 100, 296
-0.985843, 1, 249, 128, 312
-0.985849, 421, 193, 452, 320
-0.985877, 185, 97, 216, 224
-0.985882, 289, 65, 320, 128
-0.985927, 289, 137, 416, 200
-0.98595, 269, 209, 300, 332
-0.985965, 425, 113, 488, 176
-0.986015, 49, 217, 176, 280
-0.986082, 257, 57, 384, 120
-0.986108, 177, 105, 208, 168
-0.986155, 345, 201, 408, 264
-0.986208, 185, 169, 248, 232
-0.986209, 149, 177, 180, 304
-0.986209, 269, 65, 300, 128
-0.986248, 25, 177, 88, 240
-0.986257, 209, 65, 272, 320
-0.986259, 49, 113, 80, 240
-0.986301, 321, 209, 384, 272
-0.986311, 161, 249, 224, 312
-0.986433, 285, 137, 316, 200
-0.986447, 9, 1, 72, 256
-0.986491, 293, 113, 324, 176
-0.986516, 37, 113, 68, 240
-0.986543, 257, 145, 288, 208
-0.986571, 65, 169, 192, 232
-0.986579, 49, 257, 112, 320
-0.986601, 269, 121, 300, 184
-0.986668, 57, 233, 88, 296
-0.986747, 233, 257, 264, 320
-0.986753, 405, 193, 436, 320
-0.986762, 281, 49, 344, 112
-0.986793, 129, 249, 192, 312
-0.986793, 33, 1, 160, 128
-0.986802, 301, 137, 332, 200
-0.986847, 241, 193, 368, 256
-0.986865, 353, 265, 480, 328
-0.986896, 265, 129, 296, 256
-0.986943, 305, 49, 368, 176
-0.987068, 65, 65, 128, 320
-0.987121, 89, 65, 152, 320
-0.987132, 369, 145, 496, 208
-0.987136, 9, 1, 72, 128
-0.987164, 177, 65, 304, 128
-0.987209, 145, 129, 176, 256
-0.987235, 169, 137, 200, 200
-0.987247, 385, 129, 448, 192
-0.987256, 377, 169, 408, 232
-0.987273, 337, 193, 368, 320
-0.987511, 353, 121, 480, 184
-0.987532, 273, 257, 336, 320
-0.987557, 209, 41, 272, 104
-0.987584, 25, 113, 56, 240
-0.987618, 305, 73, 368, 136
-0.987622, 89, 217, 152, 280
-0.987624, 9, 1, 72, 332
-0.987625, 1, 97, 64, 160
-0.987704, 193, 177, 224, 304
-0.987706, 217, 1, 280, 128
-0.987715, 33, 65, 96, 192
-0.987764, 353, 113, 416, 176
-0.987817, 305, 65, 368, 320
-0.987833, 393, 129, 424, 256
-0.98784, 125, 177, 156, 240
-0.987871, 285, 129, 316, 256
-0.987924, 1, 113, 128, 176
-0.987977, 313, 137, 344, 200
-0.988021, 257, 113, 384, 176
-0.988108, 53, 193, 84, 320
-0.988132, 337, 65, 400, 320
-0.988331, 157, 105, 188, 168
-0.988338, 353, 249, 384, 312
-0.988367, 65, 145, 192, 208
-0.988452, 129, 1, 256, 128
-0.988458, 393, 257, 424, 320
-0.988522, 217, 273, 248, 332
-0.988553, 425, 249, 456, 312
-0.988728, 177, 273, 304, 332
-0.988754, 457, 193, 488, 256
-0.988783, 381, 161, 412, 288
-0.988811, 161, 81, 192, 208
-0.988834, 305, 113, 432, 176
-0.988842, 185, 65, 248, 320
-0.988901, 393, 153, 424, 216
-0.988924, 265, 249, 296, 312
-0.988947, 49, 241, 176, 304
-0.98897, 373, 145, 404, 208
-0.989015, 21, 225, 52, 288
-0.989036, 333, 233, 364, 296
-0.989059, 213, 241, 244, 304
-0.98908, 1, 209, 128, 272
-0.989181, 189, 129, 220, 192
-0.989182, 233, 57, 296, 120
-0.9892, 197, 129, 228, 256
-0.989219, 445, 201, 476, 264
-0.989239, 89, 241, 152, 304
-0.989299, 325, 193, 356, 320
-0.989325, 145, 129, 176, 192
-0.989353, 289, 1, 352, 332
-0.989382, 21, 193, 52, 320
-0.989384, 417, 193, 448, 256
-0.989434, 405, 193, 436, 256
-0.989451, 257, 1, 320, 332
-0.989467, 61, 129, 92, 256
-0.989474, 265, 149, 328, 180
-0.989536, 93, 209, 124, 332
-0.989568, 45, 249, 76, 312
-0.989597, 261, 81, 292, 208
-0.989602, 165, 177, 196, 304
-0.98966, 113, 49, 176, 176
-0.989736, 37, 201, 68, 264
-0.989747, 425, 81, 488, 208
-0.989785, 301, 113, 332, 240
-0.989788, 165, 193, 196, 256
-0.989796, 57, 201, 88, 264
-0.98981, 393, 65, 456, 320
-0.989843, 153, 125, 216, 156
-0.989864, 353, 209, 384, 332
-0.989893, 105, 137, 168, 200
-0.989913, 225, 217, 352, 280
-0.989952, 369, 89, 496, 152
-0.989957, 113, 257, 240, 320
-0.98996, 217, 265, 280, 296
-0.989965, 133, 161, 164, 288
-0.990005, 153, 173, 216, 204
-0.990099, 369, 169, 496, 232
-0.990114, 421, 217, 452, 280
-0.99013, 189, 201, 220, 264
-0.990177, 13, 129, 44, 256
-0.990193, 433, 145, 496, 208
-0.990204, 329, 97, 392, 224
-0.990219, 365, 257, 396, 320
-0.990238, 257, 81, 288, 144
-0.990271, 133, 217, 164, 280
-0.990313, 469, 145, 500, 272
-0.990344, 57, 257, 88, 320
-0.990383, 313, 1, 376, 332
-0.990388, 77, 193, 108, 320
-0.990418, 257, 49, 320, 112
-0.990505, 201, 1, 264, 332
-0.990525, 217, 209, 248, 332
-0.990544, 65, 49, 128, 176
-0.990549, 121, 65, 184, 320
-0.990576, 273, 225, 304, 288
-0.990589, 229, 209, 260, 332
-0.990597, 1, 113, 32, 240
-0.990629, 337, 145, 368, 272
-0.990631, 253, 241, 284, 304
-0.99064, 353, 17, 416, 144
-0.990667, 321, 89, 448, 152
-0.990698, 285, 201, 316, 264
-0.990729, 69, 193, 100, 256
-0.990731, 233, 1, 296, 332
-0.990761, 185, 1, 248, 128
-0.99077, 377, 261, 440, 292
-0.990809, 177, 133, 240, 164
-0.990822, 205, 193, 236, 320
-0.99083, 297, 89, 328, 152
-0.990832, 173, 81, 204, 208
-0.990923, 441, 177, 472, 304
-0.990936, 321, 1, 384, 128
-0.990945, 305, 161, 368, 192
-0.990947, 157, 217, 188, 280
-0.990949, 81, 233, 112, 296
-0.990967, 321, 49, 384, 112
-0.990976, 153, 1, 216, 332
-0.990981, 25, 205, 88, 236
-0.990985, 137, 161, 200, 192
-0.990988, 257, 169, 320, 200
-0.990992, 25, 17, 88, 80
-0.990995, 361, 273, 424, 304
-0.991002, 265, 137, 328, 168
-0.991013, 393, 97, 456, 160
-0.991039, 217, 253, 280, 284
-0.991057, 225, 277, 288, 308
-0.991081, 153, 137, 216, 168
-0.991084, 89, 265, 152, 328
-0.991094, 241, 89, 304, 120
-0.991133, 329, 209, 360, 272
-0.991146, 281, 169, 344, 200
-0.991156, 25, 273, 88, 332
-0.991177, 297, 233, 360, 264
-0.991178, 305, 145, 368, 176
-0.991199, 353, 89, 416, 152
-0.99121, 33, 1, 96, 332
-0.991212, 29, 249, 60, 312
-0.991214, 145, 233, 176, 296
-0.99122, 377, 249, 440, 280
-0.991239, 85, 193, 116, 256
-0.991241, 241, 241, 304, 272
-0.99125, 265, 237, 328, 268
-0.991252, 153, 185, 216, 216
-0.991258, 169, 237, 232, 268
-0.991303, 269, 145, 300, 208
-0.99131, 329, 121, 392, 184
-0.991332, 369, 113, 400, 240
-0.991346, 265, 101, 328, 132
-0.991349, 409, 217, 472, 248
-0.991359, 257, 181, 320, 212
-0.991401, 345, 169, 408, 200
-0.991426, 241, 137, 304, 168
-0.991458, 69, 257, 100, 320
-0.991473, 257, 257, 384, 320
-0.991481, 65, 201, 128, 232
-0.991517, 433, 217, 496, 248
-0.991518, 129, 173, 192, 204
-0.991525, 21, 105, 52, 168
-0.991533, 169, 197, 232, 228
-0.991538, 149, 81, 180, 208
-0.99156, 157, 153, 188, 216
-0.991572, 265, 77, 328, 108
-0.991575, 281, 89, 344, 120
-0.991578, 309, 81, 340, 144
-0.991579, 353, 1, 416, 332
-0.991585, 377, 237, 440, 268
-0.991595, 265, 1, 328, 64
-0.991599, 25, 225, 88, 256
-0.991614, 1, 89, 128, 152
-0.991678, 297, 233, 328, 296
-0.991686, 133, 153, 164, 216
-0.991689, 25, 245, 88, 276
-0.991702, 193, 237, 256, 268
-0.991707, 37, 121, 68, 184
-0.991713, 337, 237, 400, 268
-0.991719, 129, 237, 192, 268
-0.991724, 341, 209, 372, 272
-0.991728, 401, 197, 464, 228
-0.991733, 433, 189, 496, 220
-0.991735, 265, 125, 328, 156
-0.991766, 209, 129, 272, 160
-0.991771, 377, 193, 440, 224
-0.991779, 293, 161, 324, 224
-0.991786, 217, 149, 280, 180
-0.991802, 385, 181, 448, 212
-0.991803, 409, 229, 472, 260
-0.991813, 257, 169, 288, 232
-0.991826, 105, 193, 136, 320
-0.991827, 405, 273, 436, 332
-0.991829, 321, 65, 448, 128
-0.991832, 89, 241, 152, 272
-0.991838, 329, 153, 392, 184
-0.991838, 249, 253, 312, 284
-0.991854, 89, 201, 152, 232
-0.991858, 9, 225, 40, 288
-0.991877, 145, 149, 208, 180
-0.991887, 353, 253, 416, 284
-0.991891, 377, 285, 440, 316
-0.991893, 129, 137, 384, 200
-0.991902, 193, 185, 256, 216
-0.991904, 209, 169, 240, 232
-0.991913, 385, 209, 448, 240
-0.991919, 337, 269, 400, 300
-0.99193, 241, 33, 368, 96
-0.991942, 145, 89, 272, 152
-0.991952, 241, 149, 304, 180
-0.991961, 49, 229, 112, 260
-0.991966, 297, 249, 360, 312
-0.991969, 357, 145, 388, 272
-0.991974, 417, 241, 480, 272
-0.991978, 169, 225, 232, 256
-0.991981, 185, 49, 248, 112
-0.992013, 361, 181, 424, 212
-0.992014, 185, 169, 248, 200
-0.992036, 385, 273, 448, 304
-0.992038, 129, 225, 192, 256
-0.992054, 217, 189, 280, 220
-0.992056, 305, 133, 368, 164
-0.992069, 329, 253, 392, 284
-0.992085, 249, 269, 312, 300
-0.992089, 361, 65, 424, 320
-0.992095, 1, 273, 128, 332
-0.992097, 73, 113, 104, 240
-0.992112, 65, 245, 128, 276
-0.992114, 69, 113, 100, 176
-0.992129, 145, 201, 208, 232
-0.992132, 265, 225, 328, 256
-0.992141, 241, 109, 304, 140
-0.992142, 385, 225, 448, 256
-0.992146, 113, 201, 176, 232
-0.992153, 245, 153, 276, 216
-0.992154, 297, 197, 360, 228
-0.992167, 97, 193, 128, 256
-0.992172, 257, 193, 320, 224
-0.992173, 185, 121, 248, 152
-0.992185, 1, 253, 64, 284
-0.992189, 113, 189, 176, 220
-0.992196, 233, 145, 264, 208
-0.992202, 337, 221, 400, 252
-0.992234, 113, 137, 176, 168
-0.992246, 277, 249, 308, 312
-0.992249, 329, 169, 392, 232
-0.992256, 385, 73, 448, 136
-0.992258, 241, 77, 304, 108
-0.992264, 81, 17, 208, 144
-0.992265, 201, 201, 264, 232
-0.992271, 17, 137, 48, 200
-0.992277, 17, 177, 144, 240
-0.992279, 153, 113, 216, 144
-0.992283, 129, 121, 192, 152
-0.992287, 49, 293, 112, 324
-0.992287, 217, 241, 280, 272
-0.992293, 385, 161, 448, 192
-0.992299, 1, 137, 128, 200
-0.992299, 1, 9, 64, 72
-0.99232, 49, 213, 112, 244
-0.992322, 41, 193, 104, 224
-0.992325, 109, 193, 140, 256
-0.992326, 33, 125, 96, 156
-0.992328, 417, 265, 480, 296
-0.992339, 133, 209, 164, 332
-0.992346, 177, 289, 240, 320
-0.992347, 249, 105, 280, 168
-0.992347, 193, 249, 256, 280
-0.992367, 253, 129, 284, 256
-0.992393, 97, 293, 160, 324
-0.992398, 361, 145, 424, 176
-0.992399, 433, 217, 464, 280
-0.9924, 297, 221, 360, 252
-0.9924, 185, 145, 248, 176
-0.992408, 1, 17, 64, 48
-0.99241, 405, 129, 436, 256
-0.992413, 113, 161, 176, 192
-0.992436, 177, 265, 240, 296
-0.992447, 289, 185, 352, 216
-0.992451, 337, 281, 400, 312
-0.992452, 289, 25, 416, 88
-0.992464, 73, 109, 136, 140
-0.992488, 425, 89, 488, 152
-0.992493, 265, 113, 328, 144
-0.992495, 241, 125, 304, 156
-0.992536, 433, 229, 496, 260
-0.992537, 81, 81, 208, 144
-0.992551, 409, 185, 472, 216
-0.992556, 225, 229, 288, 260
-0.992567, 1, 209, 64, 240
-0.992574, 381, 97, 412, 224
-0.992577, 177, 277, 240, 308
-0.992578, 177, 1, 240, 332
-0.992578, 201, 281, 264, 312
-0.992586, 93, 241, 124, 304
-0.992586, 153, 81, 216, 144
-0.992587, 425, 205, 488, 236
-0.992587, 265, 209, 328, 240
-0.992603, 193, 249, 448, 312
-0.992604, 1, 265, 64, 296
-0.992611, 301, 161, 332, 192
-0.992617, 257, 281, 320, 312
-0.992629, 33, 97, 64, 160
-0.992634, 185, 213, 248, 244
-0.992639, 281, 65, 344, 96
-0.992648, 137, 105, 168, 168
-0.992655, 33, 261, 96, 292
-0.992659, 233, 177, 296, 208
-0.99267, 313, 97, 344, 224
-0.992674, 225, 201, 288, 232
-0.992676, 285, 89, 316, 120
-0.992689, 417, 253, 480, 284
-0.99269, 49, 265, 176, 328
-0.992692, 201, 225, 264, 256
-0.992694, 353, 157, 416, 188
-0.992698, 161, 161, 224, 192
-0.992713, 217, 161, 280, 192
-0.992716, 1, 241, 64, 272
-0.992718, 377, 265, 408, 296
-0.992724, 169, 169, 200, 200
-0.992752, 377, 165, 408, 196
-0.992773, 313, 113, 344, 176
-0.992781, 273, 85, 304, 116
-0.992786, 281, 193, 312, 320
-0.992788, 133, 97, 164, 224
-0.992807, 237, 257, 268, 288
-0.992813, 233, 233, 264, 296
-0.992833, 157, 129, 188, 160
-0.992863, 285, 101, 316, 132
-0.992873, 313, 161, 344, 192
-0.992875, 177, 193, 208, 256
-0.992881, 177, 125, 208, 156
-0.992907, 389, 177, 420, 208
-0.992917, 245, 129, 276, 192
-0.992917, 389, 269, 420, 300
-0.992935, 257, 269, 288, 300
-0.99294, 293, 145, 324, 176
-0.992941, 377, 277, 408, 308
-0.992946, 265, 141, 296, 172
-0.992985, 121, 201, 152, 264
-0.992993, 249, 65, 280, 192
-0.992993, 337, 237, 368, 268
-0.993007, 269, 129, 300, 160
-0.99301, 181, 153, 212, 216
-0.993019, 185, 181, 216, 212
-0.993021, 213, 277, 244, 308
-0.993032, 377, 253, 408, 284
-0.993041, 421, 221, 452, 252
-0.993042, 253, 145, 284, 176
-0.993043, 157, 169, 188, 200
-0.993047, 313, 141, 344, 172
-0.993057, 301, 173, 332, 204
-0.993057, 193, 193, 224, 224
-0.993075, 289, 237, 320, 268
-0.993077, 189, 129, 220, 160
-0.993079, 257, 281, 288, 312
-0.993088, 141, 169, 172, 200
-0.9931, 289, 33, 320, 160
-0.9931, 273, 109, 304, 140
-0.993102, 321, 229, 352, 260
-0.993113, 149, 181, 180, 212
-0.993115, 289, 169, 320, 200
-0.993126, 389, 281, 420, 312
-0.993127, 201, 237, 232, 268
-0.993127, 181, 169, 212, 200
-0.99313, 273, 73, 304, 104
-0.993141, 353, 225, 384, 288
-0.993151, 269, 273, 300, 304
-0.993157, 41, 245, 72, 276
-0.993158, 409, 169, 440, 232
-0.993158, 409, 217, 440, 280
-0.993158, 273, 237, 304, 268
-0.993159, 145, 157, 176, 188
-0.993164, 209, 261, 240, 292
-0.993165, 261, 257, 292, 288
-0.99317, 445, 177, 476, 240
-0.993174, 177, 233, 208, 264
-0.993176, 81, 265, 112, 328
-0.993191, 49, 225, 80, 256
-0.993194, 201, 133, 232, 164
-0.993196, 97, 201, 128, 232
-0.993196, 89, 237, 120, 268
-0.993199, 65, 229, 96, 260
-0.993207, 245, 269, 276, 300
-0.993208, 117, 237, 148, 268
-0.993211, 153, 141, 184, 172
-0.993215, 21, 249, 52, 280
-0.993219, 277, 225, 308, 256
-0.993222, 253, 245, 284, 276
-0.993223, 49, 89, 112, 152
-0.993226, 437, 217, 468, 248
-0.99323, 373, 289, 404, 320
-0.993234, 225, 169, 480, 232
-0.993236, 317, 161, 348, 224
-0.993239, 365, 153, 396, 184
-0.993241, 257, 89, 288, 120
-0.993242, 393, 189, 424, 220
-0.993253, 121, 201, 152, 232
-0.993253, 301, 237, 332, 268
-0.993253, 109, 201, 140, 232
-0.993256, 53, 205, 84, 236
-0.993261, 405, 249, 436, 312
-0.993261, 165, 237, 196, 268
-0.993262, 429, 193, 460, 224
-0.993263, 241, 157, 272, 188
-0.993265, 157, 157, 188, 188
-0.99327, 273, 153, 304, 184
-0.993273, 353, 241, 384, 272
-0.993273, 221, 241, 252, 272
-0.993274, 145, 125, 176, 156
-0.993275, 257, 165, 288, 196
-0.993276, 273, 97, 304, 128
-0.993276, 221, 261, 252, 292
-0.993276, 25, 49, 88, 112
-0.993281, 165, 113, 196, 144
-0.993281, 225, 137, 256, 168
-0.993281, 433, 205, 464, 236
-0.993282, 241, 137, 272, 168
-0.993286, 389, 257, 420, 288
-0.993286, 201, 273, 232, 304
-0.993287, 293, 129, 324, 160
-0.993288, 65, 209, 96, 240
-0.99329, 105, 237, 136, 268
-0.993293, 113, 1, 176, 332
-0.993294, 445, 193, 476, 224
-0.993296, 133, 201, 164, 232
-0.993297, 1, 193, 32, 320
-0.993299, 385, 153, 416, 184
-0.993305, 409, 193, 440, 224
-0.993307, 417, 209, 448, 240
-0.993315, 1, 249, 32, 280
-0.993318, 37, 209, 68, 240
-0.993321, 69, 241, 100, 272
-0.993326, 305, 93, 336, 124
-0.993326, 205, 181, 236, 212
-0.993334, 365, 277, 396, 308
-0.993335, 437, 229, 468, 260
-0.993337, 273, 253, 304, 284
-0.993338, 421, 233, 452, 264
-0.993345, 205, 201, 236, 232
-0.993349, 133, 189, 164, 220
-0.993349, 457, 197, 488, 228
-0.993352, 213, 133, 244, 164
-0.993354, 373, 241, 404, 272
-0.993356, 413, 277, 444, 308
-0.993358, 37, 129, 68, 160
-0.99336, 289, 181, 320, 212
-0.993367, 205, 289, 236, 320
-0.993369, 425, 265, 456, 296
-0.99337, 85, 201, 116, 232
-0.993371, 377, 1, 440, 332
-0.993375, 217, 121, 248, 184
-0.993377, 289, 221, 320, 252
-0.993377, 289, 77, 320, 108
-0.993377, 209, 121, 240, 152
-0.993379, 285, 201, 316, 232
-0.99338, 205, 225, 236, 256
-0.993381, 425, 249, 456, 280
-0.993383, 77, 225, 108, 256
-0.993386, 409, 177, 440, 208
-0.993386, 57, 241, 88, 272
-0.993387, 17, 237, 48, 268
-0.993388, 37, 221, 68, 252
-0.993391, 225, 277, 256, 308
-0.993391, 161, 201, 192, 232
-0.993395, 145, 201, 176, 232
-0.993396, 77, 289, 108, 320
-0.993403, 189, 233, 220, 264
-0.993404, 181, 201, 212, 232
-0.993405, 341, 217, 372, 248
-0.993409, 329, 25, 392, 88
-0.993444, 293, 193, 324, 320
-0.993455, 225, 1, 288, 64
-0.993502, 81, 105, 112, 168
-0.993519, 313, 209, 344, 332
-0.993564, 53, 129, 84, 192
-0.993579, 1, 233, 256, 296
-0.993653, 21, 201, 52, 264
-0.993653, 201, 217, 232, 280
-0.993676, 177, 41, 304, 104
-0.993703, 145, 33, 208, 160
-0.993721, 1, 177, 64, 240
-0.993733, 97, 177, 352, 240
-0.993756, 241, 113, 272, 240
-0.993758, 261, 201, 292, 264
-0.993759, 73, 81, 136, 144
-0.993827, 129, 273, 192, 332
-0.993837, 1, 9, 128, 72
-0.993867, 469, 81, 500, 208
-0.993884, 209, 129, 240, 256
-0.993887, 105, 217, 136, 280
-0.993901, 201, 273, 232, 332
-0.993926, 365, 209, 396, 332
-0.993936, 353, 97, 384, 224
-0.993944, 209, 9, 336, 72
-0.993974, 305, 193, 336, 256
-0.993978, 17, 49, 48, 176
-0.993981, 257, 193, 500, 256
-0.994007, 121, 225, 152, 288
-0.994011, 321, 233, 352, 296
-0.99402, 65, 201, 320, 264
-0.994021, 145, 209, 176, 272
-0.994023, 301, 65, 332, 192
-0.994098, 65, 169, 128, 232
-0.994131, 173, 217, 204, 280
-0.994154, 369, 57, 496, 120
-0.99416, 469, 193, 500, 256
-0.994201, 353, 49, 416, 112
-0.99421, 97, 233, 352, 296
-0.994239, 469, 153, 500, 216
-0.994251, 201, 137, 232, 200
-0.994254, 181, 209, 212, 332
-0.994304, 361, 145, 392, 208
-0.994363, 1, 201, 32, 264
-0.994377, 185, 73, 248, 136
-0.99438, 417, 273, 448, 332
-0.994399, 53, 97, 84, 160
-0.994402, 217, 193, 248, 256
-0.994405, 169, 17, 232, 80
-0.99442, 257, 1, 384, 64
-0.994435, 409, 145, 472, 208
-0.994496, 61, 65, 92, 192
-0.994509, 129, 81, 192, 144
-0.994549, 369, 1, 496, 128
-0.99456, 233, 121, 264, 184
-0.994566, 257, 225, 500, 288
-0.994575, 453, 193, 484, 320
-0.994577, 289, 157, 416, 188
-0.994588, 33, 65, 160, 128
-0.994602, 401, 1, 464, 332
-0.994655, 417, 145, 448, 272
-0.994686, 229, 129, 260, 256
-0.994745, 457, 97, 488, 224
-0.994769, 281, 25, 344, 88
-0.994819, 113, 41, 240, 104
-0.994819, 225, 89, 480, 152
-0.99487, 285, 81, 300, 144
-0.994884, 329, 73, 392, 136
-0.994884, 1, 33, 128, 96
-0.994897, 273, 233, 400, 264
-0.994911, 393, 257, 408, 320
-0.994953, 311, 153, 326, 216
-0.994988, 291, 89, 306, 152
-0.995005, 305, 25, 368, 88
-0.995005, 129, 113, 384, 176
-0.99502, 1, 177, 256, 240
-0.995057, 1, 177, 500, 240
-0.995076, 197, 81, 228, 208
-0.995113, 121, 209, 152, 332
-0.995149, 433, 33, 496, 160
-0.995222, 89, 1, 152, 332
-0.995255, 209, 65, 272, 128
-0.99526, 33, 113, 288, 176
-0.995284, 161, 209, 416, 272
-0.995286, 325, 97, 356, 224
-0.995333, 237, 65, 268, 192
-0.995341, 225, 113, 480, 176
-0.995356, 203, 193, 218, 256
-0.995397, 321, 233, 448, 264
-0.995418, 113, 237, 240, 268
-0.995451, 121, 97, 152, 224
-0.995454, 193, 177, 208, 240
-0.995464, 1, 153, 500, 216
-0.995474, 129, 89, 384, 152
-0.995476, 1, 257, 256, 320
-0.995491, 65, 1, 128, 332
-0.995515, 433, 129, 464, 256
-0.995523, 279, 89, 294, 152
-0.995626, 57, 129, 120, 192
-0.995633, 225, 273, 480, 332
-0.995636, 395, 169, 410, 232
-0.995637, 49, 25, 176, 88
-0.995647, 393, 81, 424, 208
-0.99568, 433, 65, 496, 320
-0.995685, 261, 33, 292, 160
-0.995711, 209, 153, 336, 184
-0.995711, 313, 49, 344, 176
-0.99574, 97, 265, 352, 328
-0.995747, 185, 49, 216, 176
-0.995774, 289, 169, 416, 200
-0.99578, 321, 97, 384, 160
-0.99579, 273, 33, 304, 160
-0.995872, 261, 137, 276, 200
-0.995906, 297, 97, 312, 160
-0.995937, 49, 49, 80, 176
-0.995946, 225, 237, 352, 268
-0.995947, 1, 201, 500, 264
-0.995981, 33, 201, 160, 232
-0.995993, 129, 137, 256, 168
-0.996051, 85, 97, 116, 224
-0.996066, 387, 169, 402, 232
-0.99608, 369, 225, 496, 256
-0.996121, 337, 249, 464, 280
-0.996149, 387, 145, 402, 208
-0.996162, 457, 145, 488, 272
-0.996171, 193, 189, 320, 220
-0.996175, 171, 129, 186, 192
-0.996183, 289, 1, 352, 64
-0.996192, 113, 201, 240, 232
-0.996201, 53, 225, 68, 288
-0.996205, 337, 17, 464, 80
-0.996207, 269, 129, 284, 192
-0.996231, 309, 1, 340, 128
-0.996242, 241, 165, 368, 196
-0.996242, 161, 17, 288, 80
-0.996255, 271, 81, 286, 144
-0.996262, 129, 65, 384, 128
-0.996272, 313, 129, 328, 192
-0.996276, 225, 145, 480, 208
-0.996286, 177, 237, 304, 268
-0.996287, 263, 161, 278, 224
-0.996296, 321, 217, 448, 248
-0.996332, 145, 153, 160, 216
-0.996347, 161, 177, 176, 240
-0.99635, 29, 49, 60, 176
-0.996354, 387, 273, 402, 332
-0.996359, 163, 153, 178, 216
-0.996365, 157, 121, 172, 184
-0.996375, 271, 265, 286, 328
-0.996399, 141, 177, 156, 240
-0.996412, 285, 105, 300, 168
-0.996413, 145, 125, 272, 156
-0.996426, 1, 113, 500, 176
-0.99643, 167, 177, 182, 240
-0.996451, 449, 201, 464, 264
-0.996457, 457, 193, 472, 256
-0.996499, 423, 209, 438, 272
-0.996504, 179, 121, 194, 184
-0.996505, 213, 201, 228, 264
-0.996506, 305, 153, 320, 216
-0.996516, 33, 1, 96, 128
-0.996519, 33, 245, 160, 276
-0.996521, 225, 141, 352, 172
-0.996522, 1, 241, 500, 304
-0.996531, 217, 265, 232, 328
-0.996542, 289, 145, 416, 176
-0.99657, 1, 137, 256, 200
-0.996589, 303, 97, 318, 160
-0.996595, 257, 249, 384, 280
-0.996613, 261, 273, 276, 332
-0.996617, 173, 169, 188, 232
-0.996634, 379, 249, 394, 312
-0.996641, 291, 65, 306, 128
-0.996645, 121, 161, 152, 288
-0.996662, 59, 217, 74, 280
-0.996671, 279, 65, 294, 128
-0.996672, 181, 161, 196, 224
-0.996675, 321, 265, 448, 296
-0.996677, 129, 165, 256, 196
-0.996682, 269, 161, 284, 224
-0.996688, 209, 49, 240, 176
-0.996692, 59, 193, 74, 256
-0.996713, 369, 257, 384, 320
-0.996713, 369, 189, 496, 220
-0.996732, 167, 105, 182, 168
-0.996737, 209, 225, 336, 256
-0.996738, 129, 149, 256, 180
-0.996738, 289, 181, 416, 212
-0.996752, 317, 161, 332, 224
-0.99676, 151, 177, 166, 240
-0.996773, 225, 273, 240, 332
-0.996784, 187, 169, 202, 232
-0.996802, 369, 261, 496, 292
-0.996805, 397, 145, 412, 208
-0.996807, 135, 177, 150, 240
-0.996807, 307, 129, 322, 192
-0.996821, 65, 109, 192, 140
-0.99684, 113, 181, 240, 212
-0.996865, 93, 145, 124, 272
-0.996872, 443, 193, 458, 256
-0.996893, 151, 137, 166, 200
-0.99691, 61, 241, 76, 304
-0.996945, 421, 185, 436, 248
-0.996963, 225, 249, 240, 312
-0.996964, 89, 17, 152, 144
-0.996968, 49, 1, 176, 64
-0.996969, 385, 33, 448, 160
-0.996969, 69, 225, 84, 288
-0.996974, 1, 49, 32, 176
-0.996997, 83, 193, 98, 256
-0.997, 43, 257, 58, 320
-0.997001, 43, 233, 58, 296
-0.997006, 431, 193, 446, 256
-0.997013, 387, 233, 402, 296
-0.997016, 97, 125, 224, 156
-0.997022, 369, 273, 496, 304
-0.997062, 185, 193, 200, 256
-0.997072, 69, 201, 84, 264
-0.997081, 189, 137, 204, 200
-0.997085, 209, 201, 336, 232
-0.997089, 343, 209, 358, 272
-0.997093, 255, 265, 270, 328
-0.997096, 425, 1, 488, 332
-0.997106, 265, 249, 280, 312
-0.997114, 209, 89, 336, 120
-0.99712, 65, 229, 192, 260
-0.997127, 313, 157, 328, 188
-0.997135, 241, 189, 368, 220
-0.997135, 199, 169, 214, 232
-0.997141, 193, 169, 320, 200
-0.997152, 177, 73, 304, 104
-0.997153, 151, 217, 166, 280
-0.99716, 401, 177, 416, 240
-0.99716, 25, 1, 56, 128
-0.997165, 85, 233, 100, 296
-0.997165, 37, 249, 52, 312
-0.997166, 257, 221, 384, 252
-0.997177, 269, 65, 300, 320
-0.997177, 173, 193, 188, 256
-0.997187, 257, 85, 384, 116
-0.99719, 249, 257, 264, 320
-0.997198, 113, 225, 240, 256
-0.997218, 225, 57, 480, 120
-0.997219, 193, 249, 320, 280
-0.99722, 235, 257, 250, 320
-0.997229, 377, 145, 392, 208
-0.997229, 139, 217, 154, 280
-0.997237, 49, 201, 64, 264
-0.997239, 463, 201, 478, 264
-0.997253, 277, 249, 292, 312
-0.997253, 303, 217, 318, 280
-0.997255, 429, 241, 444, 304
-0.997268, 415, 193, 430, 256
-0.997274, 75, 225, 90, 288
-0.997275, 163, 129, 178, 192
-0.997277, 283, 89, 298, 120
-0.997282, 209, 129, 336, 160
-0.997289, 161, 201, 288, 232
-0.997297, 249, 1, 280, 128
-0.997297, 179, 97, 194, 160
-0.997301, 157, 153, 172, 216
-0.997315, 241, 177, 368, 208
-0.997316, 101, 97, 132, 224
-0.997332, 33, 213, 160, 244
-0.997334, 145, 201, 160, 264
-0.997339, 271, 241, 286, 304
-0.997344, 473, 193, 488, 256
-0.997348, 301, 73, 316, 136
-0.997356, 193, 269, 320, 300
-0.997375, 337, 225, 352, 288
-0.997387, 161, 225, 288, 256
-0.997392, 463, 177, 478, 240
-0.997399, 455, 217, 470, 280
-0.997417, 173, 105, 188, 168
-0.997418, 195, 201, 210, 264
-0.997438, 113, 193, 128, 256
-0.997457, 3, 225, 18, 288
-0.997457, 281, 65, 312, 320
-0.997467, 297, 233, 312, 296
-0.997478, 97, 193, 112, 256
-0.997482, 375, 273, 390, 332
-0.997483, 213, 225, 228, 288
-0.997483, 67, 249, 82, 312
-0.997484, 349, 233, 364, 296
-0.997497, 197, 129, 212, 192
-0.997501, 161, 201, 176, 264
-0.997521, 37, 121, 52, 184
-0.997532, 387, 165, 402, 196
-0.997532, 157, 225, 172, 288
-0.997535, 399, 265, 414, 328
-0.997541, 279, 113, 294, 176
-0.997548, 123, 193, 138, 256
-0.99755, 255, 233, 270, 296
-0.997551, 479, 153, 494, 216
-0.997562, 369, 237, 496, 268
-0.997569, 49, 125, 176, 156
-0.997569, 179, 193, 194, 256
-0.997571, 189, 105, 204, 168
-0.997571, 397, 173, 412, 204
-0.997579, 319, 137, 334, 200
-0.997582, 369, 177, 496, 208
-0.997588, 205, 169, 220, 232
-0.997589, 307, 165, 322, 196
-0.997598, 437, 209, 452, 272
-0.997603, 307, 153, 322, 184
-0.997608, 45, 121, 60, 184
-0.99761, 343, 233, 358, 296
-0.997618, 171, 217, 186, 280
-0.997618, 33, 89, 288, 152
-0.99762, 369, 161, 496, 192
-0.99763, 243, 249, 258, 312
-0.997635, 309, 89, 324, 152
-0.997635, 307, 177, 322, 240
-0.997636, 289, 101, 416, 132
-0.997639, 1, 257, 128, 288
-0.997643, 129, 65, 256, 128
-0.997644, 451, 177, 466, 240
-0.997644, 75, 193, 90, 256
-0.997644, 393, 233, 408, 296
-0.997652, 257, 113, 384, 144
-0.997663, 393, 265, 408, 296
-0.997681, 81, 169, 208, 200
-0.997694, 49, 293, 176, 324
-0.997696, 73, 65, 104, 192
-0.997698, 1, 233, 128, 264
-0.997703, 289, 197, 416, 228
-0.997723, 97, 9, 224, 72
-0.997728, 229, 1, 260, 128
-0.99773, 257, 73, 384, 104
-0.99776, 273, 85, 288, 116
-0.997762, 295, 89, 310, 120
-0.997776, 209, 105, 336, 136
-0.997781, 369, 117, 496, 148
-0.99779, 1, 121, 128, 152
-0.9978, 185, 169, 200, 200
-0.997804, 285, 101, 300, 132
-0.997807, 369, 209, 496, 240
-0.99781, 81, 213, 208, 244
-0.997837, 113, 257, 240, 288
-0.997852, 257, 125, 384, 156
-0.99788, 273, 261, 400, 292
-0.997886, 193, 177, 208, 208
-0.997886, 305, 133, 432, 164
-0.997889, 193, 33, 448, 96
-0.997914, 289, 85, 304, 116
-0.997917, 65, 137, 192, 168
-0.997931, 65, 157, 192, 188
-0.997933, 309, 65, 340, 320
-0.997936, 321, 277, 448, 308
-0.99794, 269, 269, 284, 300
-0.997943, 161, 113, 288, 144
-0.997965, 265, 169, 280, 200
-0.997969, 33, 189, 160, 220
-0.997989, 97, 289, 224, 320
-0.997993, 269, 141, 284, 172
-0.997995, 305, 113, 432, 144
-0.998008, 301, 169, 316, 200
-0.998017, 41, 1, 72, 128
-0.998022, 161, 125, 176, 156
-0.998029, 171, 169, 186, 200
-0.998073, 393, 253, 408, 284
-0.998074, 177, 141, 304, 172
-0.998079, 439, 229, 454, 260
-0.998109, 209, 117, 336, 148
-0.99812, 201, 185, 216, 216
-0.998143, 303, 101, 318, 132
-0.998152, 17, 281, 144, 312
-0.998166, 261, 269, 276, 300
-0.998167, 297, 237, 312, 268
-0.998167, 217, 273, 232, 304
-0.998169, 209, 213, 336, 244
-0.998171, 337, 97, 368, 224
-0.998179, 189, 125, 204, 156
-0.99818, 113, 277, 240, 308
-0.99819, 379, 269, 394, 300
-0.998199, 315, 169, 330, 200
-0.9982, 381, 165, 396, 196
-0.998203, 277, 97, 292, 128
-0.99823, 369, 137, 496, 168
-0.99823, 293, 65, 324, 320
-0.998235, 1, 73, 500, 136
-0.998237, 389, 153, 404, 184
-0.998246, 129, 213, 256, 244
-0.998248, 447, 209, 462, 240
-0.998248, 387, 177, 402, 208
-0.998252, 341, 233, 356, 264
-0.998256, 9, 1, 40, 128
-0.998263, 277, 73, 292, 104
-0.998264, 21, 1, 52, 256
-0.998271, 221, 65, 252, 192
-0.998274, 257, 65, 288, 320
-0.998276, 335, 229, 350, 260
-0.998284, 157, 137, 172, 168
-0.998286, 1, 265, 500, 328
-0.998286, 143, 169, 158, 200
-0.998292, 395, 161, 410, 192
-0.998301, 369, 97, 496, 128
-0.998303, 379, 153, 394, 184
-0.998303, 153, 181, 168, 212
-0.998306, 179, 125, 194, 156
-0.998309, 179, 169, 194, 200
-0.998315, 271, 165, 286, 196
-0.998322, 131, 237, 146, 268
-0.998332, 259, 161, 274, 192
-0.998334, 61, 225, 76, 256
-0.998334, 41, 215, 72, 230
-0.998334, 377, 257, 408, 272
-0.998335, 217, 269, 248, 284
-0.998336, 57, 207, 88, 222
-0.998336, 315, 141, 330, 172
-0.998337, 73, 241, 104, 256
-0.998337, 393, 193, 424, 208
-0.998337, 21, 257, 52, 272
-0.998338, 181, 205, 212, 220
-0.998338, 73, 205, 104, 220
-0.998338, 141, 183, 172, 198
-0.998339, 207, 193, 222, 224
-0.998339, 149, 205, 180, 220
-0.99834, 189, 137, 220, 152
-0.99834, 61, 245, 92, 260
-0.998341, 69, 235, 100, 250
-0.998342, 309, 143, 340, 158
-0.998343, 289, 141, 320, 156
-0.998343, 57, 233, 88, 248
-0.998344, 149, 151, 180, 166
-0.998344, 257, 167, 288, 182
-0.998345, 181, 239, 212, 254
-0.998345, 201, 245, 232, 260
-0.998345, 433, 227, 464, 242
-0.998346, 281, 233, 312, 248
-0.998347, 233, 261, 248, 292
-0.998348, 57, 219, 88, 234
-0.998348, 173, 133, 204, 148
-0.998349, 269, 279, 300, 294
-0.998349, 389, 285, 420, 300
-0.99835, 169, 241, 200, 256
-0.99835, 157, 163, 188, 178
-0.99835, 221, 263, 252, 278
-0.99835, 201, 133, 232, 148
-0.998351, 393, 175, 424, 190
-0.998351, 273, 149, 304, 164
-0.998352, 253, 143, 284, 158
-0.998352, 205, 193, 236, 208
-0.998352, 193, 209, 224, 224
-0.998353, 297, 101, 328, 116
-0.998353, 41, 203, 72, 218
-0.998354, 189, 189, 220, 204
-0.998354, 101, 241, 132, 256
-0.998355, 289, 239, 320, 254
-0.998356, 405, 81, 436, 208
-0.998357, 193, 281, 320, 312
-0.998357, 225, 147, 256, 162
-0.998357, 29, 213, 60, 228
-0.998358, 389, 277, 404, 308
-0.998358, 389, 267, 420, 282
-0.998358, 85, 243, 116, 258
-0.998358, 303, 237, 318, 268
-0.998359, 393, 187, 424, 202
-0.99836, 261, 287, 292, 302
-0.99836, 169, 205, 200, 220
-0.998361, 313, 149, 344, 164
-0.998361, 189, 199, 220, 214
-0.998361, 421, 237, 452, 252
-0.998363, 213, 275, 244, 290
-0.998364, 297, 153, 328, 168
-0.998364, 257, 157, 288, 172
-0.998364, 369, 163, 400, 178
-0.998364, 309, 235, 340, 250
-0.998365, 445, 229, 476, 244
-0.998366, 125, 201, 140, 232
-0.998366, 283, 77, 298, 108
-0.998367, 141, 163, 172, 178
-0.998367, 289, 173, 320, 188
-0.998368, 193, 239, 224, 254
-0.998368, 425, 197, 456, 212
-0.998369, 261, 273, 292, 288
-0.99837, 121, 211, 152, 226
-0.99837, 289, 189, 320, 204
-0.998371, 253, 261, 284, 276
-0.998371, 385, 169, 416, 184
-0.998372, 461, 231, 492, 246
-0.998372, 449, 191, 480, 206
-0.998373, 213, 287, 244, 302
-0.998374, 301, 95, 332, 110
-0.998375, 57, 239, 88, 254
-0.998376, 121, 243, 152, 258
-0.998376, 269, 241, 300, 256
-0.998377, 269, 139, 300, 154
-0.998378, 377, 291, 408, 306
-0.998378, 189, 129, 220, 144
-0.998378, 133, 205, 164, 220
-0.998381, 101, 205, 132, 220
-0.998381, 257, 281, 288, 296
-0.998382, 317, 163, 348, 178
-0.998384, 41, 209, 72, 224
-0.998384, 149, 201, 164, 232
-0.998384, 421, 227, 452, 242
-0.998385, 213, 281, 244, 296
-0.998386, 149, 169, 180, 184
-0.998387, 263, 149, 278, 180
-0.998388, 349, 241, 380, 256
-0.998388, 133, 243, 164, 258
-0.998388, 273, 153, 288, 184
-0.998388, 157, 143, 188, 158
-0.998389, 201, 199, 232, 214
-0.998389, 205, 239, 236, 254
-0.998389, 57, 213, 88, 228
-0.998389, 251, 257, 266, 288
-0.998391, 385, 181, 416, 196
-0.998391, 113, 205, 144, 220
-0.998392, 257, 267, 288, 282
-0.998393, 153, 241, 184, 256
-0.998393, 273, 103, 304, 118
-0.998394, 293, 147, 324, 162
-0.998394, 265, 91, 296, 106
-0.998394, 461, 191, 492, 206
-0.998395, 279, 133, 294, 164
-0.998395, 273, 81, 304, 96
-0.998396, 289, 93, 320, 108
-0.998397, 161, 165, 176, 196
-0.998397, 261, 149, 292, 164
-0.998399, 41, 245, 72, 260
-0.998399, 313, 157, 344, 172
-0.998399, 241, 61, 368, 92
-0.998402, 155, 169, 170, 200
-0.998404, 337, 237, 368, 252
-0.998405, 257, 209, 384, 240
-0.998407, 389, 273, 420, 288
-0.998407, 157, 133, 188, 148
-0.998407, 291, 101, 306, 132
-0.998407, 249, 149, 280, 164
-0.998413, 93, 65, 124, 320
-0.998413, 293, 167, 324, 182
-0.998418, 105, 237, 120, 268
-0.99842, 325, 231, 356, 246
-0.998421, 61, 205, 76, 236
-0.998422, 377, 263, 408, 278
-0.998427, 115, 237, 130, 268
-0.998428, 301, 173, 332, 188
-0.998429, 387, 237, 402, 268
-0.998431, 237, 261, 268, 276
-0.998432, 381, 175, 412, 190
-0.998433, 177, 179, 208, 194
-0.998436, 273, 97, 304, 112
-0.998436, 377, 285, 408, 300
-0.998437, 137, 177, 168, 192
-0.998442, 165, 127, 196, 142
-0.998444, 137, 49, 168, 176
-0.998449, 285, 141, 300, 172
-0.998449, 291, 237, 306, 268
-0.998452, 157, 181, 188, 196
-0.998452, 377, 275, 408, 290
-0.998452, 157, 175, 188, 190
-0.998452, 125, 237, 140, 268
-0.998453, 99, 201, 114, 232
-0.998454, 205, 233, 220, 264
-0.998456, 171, 129, 186, 160
-0.998458, 197, 129, 212, 160
-0.99846, 319, 153, 334, 184
-0.99846, 25, 249, 40, 280
-0.998461, 223, 281, 238, 312
-0.998461, 215, 233, 230, 264
-0.998463, 177, 127, 208, 142
-0.998464, 277, 89, 308, 104
-0.998464, 225, 253, 240, 284
-0.998466, 301, 161, 332, 176
-0.998471, 373, 169, 404, 184
-0.998473, 351, 237, 366, 268
-0.998474, 69, 201, 84, 232
-0.99848, 71, 221, 86, 252
-0.99848, 377, 269, 408, 284
-0.998481, 191, 165, 206, 196
-0.998483, 1, 25, 256, 88
-0.998485, 433, 229, 448, 260
-0.998491, 203, 133, 218, 164
-0.998494, 285, 105, 316, 120
-0.998496, 321, 81, 448, 112
-0.998497, 133, 201, 148, 232
-0.998504, 265, 257, 280, 288
-0.998513, 197, 237, 212, 268
-0.998515, 49, 257, 176, 288
-0.998524, 245, 253, 260, 284
-0.998527, 283, 237, 298, 268
-0.998527, 265, 149, 328, 164
-0.998529, 5, 65, 36, 320
-0.99853, 145, 157, 160, 188
-0.998533, 301, 181, 316, 212
-0.998536, 225, 263, 288, 278
-0.998537, 161, 181, 176, 212
-0.998537, 275, 241, 290, 272
-0.998538, 153, 181, 216, 196
-0.998539, 153, 131, 216, 146
-0.998542, 309, 97, 324, 128
-0.998544, 305, 49, 432, 80
-0.998544, 145, 175, 208, 190
-0.998547, 41, 205, 56, 236
-0.998548, 279, 109, 294, 140
-0.998552, 65, 65, 96, 320
-0.998553, 209, 41, 336, 72
-0.998554, 297, 165, 360, 180
-0.998554, 453, 213, 468, 244
-0.998557, 267, 77, 282, 108
-0.998563, 175, 237, 190, 268
-0.998563, 273, 101, 336, 116
-0.998563, 305, 167, 336, 182
-0.998565, 181, 157, 196, 188
-0.998566, 173, 171, 204, 186
-0.998567, 113, 65, 144, 320
-0.998568, 305, 141, 320, 172
-0.99857, 25, 209, 88, 224
-0.998574, 451, 197, 466, 228
-0.998575, 265, 167, 328, 182
-0.998575, 469, 193, 500, 320
-0.998577, 265, 107, 328, 122
-0.998577, 369, 275, 432, 290
-0.99858, 245, 153, 260, 184
-0.99858, 225, 269, 288, 284
-0.998582, 257, 143, 320, 158
-0.998582, 229, 273, 244, 304
-0.998583, 377, 261, 440, 276
-0.998583, 33, 1, 288, 64
-0.998586, 89, 201, 104, 232
-0.998588, 285, 99, 316, 114
-0.998588, 257, 191, 320, 206
-0.998589, 369, 149, 496, 180
-0.99859, 265, 281, 280, 312
-0.998591, 49, 243, 112, 258
-0.998592, 209, 257, 272, 272
-0.998592, 163, 137, 178, 168
-0.998593, 229, 133, 244, 164
-0.998593, 153, 149, 168, 180
-0.998593, 177, 201, 240, 216
-0.998594, 129, 241, 192, 256
-0.998595, 217, 281, 280, 296
-0.998595, 369, 261, 384, 292
-0.998596, 41, 245, 56, 276
-0.998597, 361, 281, 424, 296
-0.998598, 271, 129, 286, 160
-0.998599, 169, 173, 232, 188
-0.9986, 297, 101, 312, 132
-0.998603, 265, 241, 328, 256
-0.998603, 129, 165, 192, 180
-0.998604, 485, 141, 500, 172
-0.998605, 153, 137, 216, 152
-0.998606, 169, 239, 232, 254
-0.998608, 377, 269, 440, 284
-0.998608, 19, 253, 34, 284
-0.998609, 1, 209, 64, 224
-0.998609, 217, 149, 280, 164
-0.998611, 89, 243, 152, 258
-0.998611, 217, 275, 280, 290
-0.998611, 409, 229, 472, 244
-0.998612, 149, 169, 164, 200
-0.998614, 377, 287, 440, 302
-0.998617, 89, 205, 152, 220
-0.998617, 433, 191, 496, 206
-0.998617, 249, 95, 312, 110
-0.998617, 25, 251, 88, 266
-0.998618, 129, 181, 192, 196
-0.998618, 327, 229, 342, 260
-0.998619, 437, 217, 452, 248
-0.998619, 17, 259, 80, 274
-0.99862, 305, 147, 368, 162
-0.998622, 433, 229, 496, 244
-0.998622, 121, 205, 184, 220
-0.998622, 233, 103, 296, 118
-0.998625, 289, 171, 352, 186
-0.998627, 55, 201, 70, 232
-0.998627, 409, 207, 472, 222
-0.998628, 89, 211, 152, 226
-0.99863, 257, 173, 320, 188
-0.99863, 281, 95, 344, 110
-0.99863, 17, 215, 80, 230
-0.998631, 439, 193, 454, 224
-0.998631, 265, 89, 328, 104
-0.998632, 377, 253, 440, 268
-0.998632, 241, 149, 304, 164
-0.998634, 249, 79, 312, 94
-0.998634, 65, 207, 128, 222
-0.998635, 153, 187, 216, 202
-0.998635, 305, 155, 368, 170
-0.998635, 147, 189, 162, 220
-0.998636, 273, 161, 336, 176
-0.998636, 425, 221, 488, 236
-0.998637, 153, 205, 216, 220
-0.998638, 1, 253, 64, 268
-0.998639, 177, 135, 240, 150
-0.998639, 195, 189, 210, 220
-0.99864, 121, 171, 184, 186
-0.99864, 305, 235, 368, 250
-0.998641, 285, 129, 300, 160
-0.998643, 275, 273, 290, 304
-0.998643, 119, 201, 134, 232
-0.998644, 193, 241, 256, 256
-0.998644, 225, 245, 288, 260
-0.998645, 345, 241, 408, 256
-0.998645, 321, 247, 384, 262
-0.998645, 33, 57, 288, 120
-0.998646, 273, 155, 336, 170
-0.998646, 433, 197, 496, 212
-0.998646, 177, 127, 240, 142
-0.998647, 177, 61, 304, 92
-0.998649, 233, 257, 296, 272
-0.998649, 217, 289, 232, 320
-0.998649, 249, 263, 312, 278
-0.998649, 337, 275, 400, 290
-0.99865, 169, 245, 232, 260
-0.998651, 279, 149, 294, 180
-0.998651, 49, 237, 112, 252
-0.998652, 337, 283, 400, 298
-0.998652, 177, 195, 240, 210
-0.998652, 379, 285, 394, 316
-0.998652, 137, 159, 200, 174
-0.998652, 257, 197, 320, 212
-0.998652, 185, 145, 248, 160
-0.998653, 217, 155, 280, 170
-0.998653, 297, 141, 360, 156
-0.998653, 401, 197, 464, 212
-0.998653, 353, 171, 416, 186
-0.998653, 257, 185, 320, 200
-0.998654, 139, 201, 154, 232
-0.998654, 297, 243, 360, 258
-0.998654, 233, 143, 296, 158
-0.998655, 49, 201, 112, 216
-0.998656, 185, 179, 248, 194
-0.998656, 249, 271, 312, 286
-0.998657, 393, 65, 424, 320
-0.998658, 409, 235, 472, 250
-0.998658, 217, 287, 280, 302
-0.998659, 161, 211, 224, 226
-0.998659, 137, 307, 200, 322
-0.998661, 265, 113, 328, 128
-0.998662, 433, 237, 496, 252
-0.998662, 153, 125, 216, 140
-0.998663, 49, 213, 112, 228
-0.998664, 265, 137, 328, 152
-0.998665, 1, 293, 128, 324
-0.998665, 145, 147, 208, 162
-0.998666, 25, 221, 88, 236
-0.998666, 417, 271, 480, 286
-0.998666, 133, 65, 164, 320
-0.998666, 349, 49, 380, 176
-0.998667, 225, 85, 288, 100
-0.998667, 353, 267, 416, 282
-0.998667, 345, 231, 408, 246
-0.998668, 393, 275, 456, 290
-0.998668, 25, 203, 88, 218
-0.998669, 377, 243, 440, 258
-0.998669, 193, 185, 256, 200
-0.99867, 401, 191, 464, 206
-0.99867, 257, 281, 320, 296
-0.99867, 177, 281, 240, 296
-0.998671, 217, 239, 280, 254
-0.998671, 97, 237, 160, 252
-0.998671, 49, 229, 112, 244
-0.998671, 265, 121, 328, 136
-0.998671, 377, 197, 440, 212
-0.998673, 257, 131, 320, 146
-0.998673, 137, 153, 200, 168
-0.998673, 217, 197, 280, 212
-0.998673, 1, 109, 128, 140
-0.998673, 145, 235, 208, 250
-0.998673, 201, 269, 264, 284
-0.998675, 377, 237, 440, 252
-0.998676, 241, 155, 304, 170
-0.998676, 353, 253, 416, 268
-0.998677, 345, 293, 408, 308
-0.998677, 137, 211, 200, 226
-0.998678, 417, 263, 480, 278
-0.998678, 217, 191, 280, 206
-0.998678, 361, 181, 424, 196
-0.998678, 173, 65, 204, 320
-0.998703, 369, 285, 496, 316
-0.998714, 213, 65, 244, 320
-0.998716, 373, 65, 404, 320
-0.998729, 1, 133, 128, 164
-0.998729, 153, 65, 184, 320
-0.998757, 37, 65, 68, 320
-0.998763, 325, 49, 356, 176
-0.99877, 145, 49, 272, 80
-0.998776, 161, 301, 288, 332
-0.998804, 321, 65, 352, 320
-0.998811, 113, 109, 240, 140
-0.998822, 369, 85, 496, 116
-0.998826, 241, 65, 272, 320
-0.998887, 161, 93, 288, 124
-0.998891, 201, 1, 232, 128
-0.998911, 201, 1, 232, 256
-0.998946, 81, 65, 112, 320
-0.998963, 1, 269, 128, 300
-0.998965, 405, 65, 436, 320
-0.998985, 33, 169, 160, 200
-0.999012, 241, 29, 368, 60
-0.999041, 209, 9, 336, 40
-0.999044, 1, 17, 128, 48
-0.999047, 369, 297, 496, 328
-0.999054, 49, 1, 80, 256
-0.999072, 129, 33, 256, 64
-0.999081, 445, 129, 476, 256
-0.999084, 321, 289, 448, 320
-0.999091, 321, 69, 448, 100
-0.999098, 241, 281, 368, 312
-0.999119, 281, 97, 296, 224
-0.999129, 193, 9, 448, 72
-0.99914, 387, 161, 402, 288
-0.999148, 71, 193, 86, 320
-0.999155, 317, 161, 332, 288
-0.999158, 305, 21, 432, 52
-0.999167, 1, 93, 128, 124
-0.999173, 175, 113, 190, 240
-0.999178, 161, 17, 288, 48
-0.999183, 189, 161, 204, 288
-0.999188, 157, 129, 172, 256
-0.999189, 65, 269, 192, 300
-0.999191, 289, 81, 304, 208
-0.999199, 51, 177, 66, 304
-0.999201, 181, 113, 196, 240
-0.999202, 1, 33, 128, 64
-0.999207, 169, 113, 184, 240
-0.999211, 155, 177, 170, 304
-0.999213, 397, 161, 412, 288
-0.999219, 225, 65, 256, 320
-0.999221, 427, 177, 442, 304
-0.999224, 97, 301, 224, 332
-0.999225, 209, 293, 336, 324
-0.999227, 39, 193, 54, 320
-0.999228, 349, 65, 380, 320
-0.999228, 59, 193, 74, 320
-0.99923, 145, 289, 272, 320
-0.999231, 305, 37, 432, 68
-0.999231, 113, 93, 240, 124
-0.999233, 189, 65, 220, 320
-0.999234, 271, 129, 286, 256
-0.999241, 189, 113, 204, 240
-0.999244, 53, 113, 68, 240
-0.999245, 435, 193, 450, 320
-0.99926, 273, 1, 400, 32
-0.99926, 49, 37, 176, 68
-0.999262, 163, 129, 178, 256
-0.999263, 41, 113, 56, 240
-0.999286, 95, 209, 110, 332
-0.999288, 257, 49, 384, 80
-0.9993, 415, 209, 430, 332
-0.999302, 143, 161, 158, 288
-0.99931, 389, 209, 404, 332
-0.999313, 1, 49, 500, 112
-0.999317, 101, 209, 116, 332
-0.999319, 61, 129, 76, 256
-0.999322, 369, 69, 496, 100
-0.999326, 65, 193, 80, 320
-0.99933, 161, 1, 288, 32
-0.99933, 341, 193, 356, 320
-0.999333, 311, 161, 326, 288
-0.999336, 201, 129, 216, 256
-0.99934, 69, 113, 84, 240
-0.99934, 275, 81, 290, 208
-0.999341, 45, 193, 60, 320
-0.999346, 31, 129, 46, 256
-0.999352, 25, 129, 40, 256
-0.999355, 33, 193, 48, 320
-0.999363, 309, 113, 324, 240
-0.999373, 47, 129, 62, 256
-0.999374, 349, 177, 364, 304
-0.999375, 179, 161, 194, 288
-0.999378, 483, 145, 498, 272
-0.999381, 323, 161, 338, 288
-0.999383, 337, 65, 368, 320
-0.999384, 197, 177, 212, 304
-0.999389, 109, 49, 140, 176
-0.99939, 355, 193, 370, 320
-0.999392, 299, 97, 314, 224
-0.999392, 149, 161, 164, 288
-0.999393, 77, 209, 92, 332
-0.999394, 263, 193, 278, 320
-0.999396, 15, 129, 30, 256
-0.999402, 167, 177, 182, 304
-0.999403, 89, 209, 104, 332
-0.999404, 75, 113, 90, 240
-0.999408, 407, 193, 422, 320
-0.999414, 397, 113, 412, 240
-0.999415, 195, 113, 210, 240
-0.999416, 129, 77, 256, 108
-0.999417, 383, 209, 398, 332
-0.999418, 207, 129, 222, 256
-0.999421, 161, 81, 176, 208
-0.999421, 263, 113, 278, 240
-0.999423, 209, 193, 224, 320
-0.999423, 271, 193, 286, 320
-0.999426, 277, 145, 292, 272
-0.999426, 333, 193, 348, 320
-0.999428, 257, 293, 384, 324
-0.999429, 127, 209, 142, 332
-0.999431, 305, 301, 432, 332
-0.999433, 97, 25, 352, 88
-0.999435, 147, 97, 162, 224
-0.99944, 257, 209, 272, 332
-0.999451, 341, 145, 356, 272
-0.999455, 117, 209, 132, 332
-0.99946, 441, 177, 456, 304
-0.999463, 7, 193, 22, 320
-0.999464, 283, 49, 298, 176
-0.999464, 27, 177, 42, 304
-0.999469, 391, 113, 406, 240
-0.999475, 9, 113, 24, 240
-0.999475, 203, 193, 218, 320
-0.999477, 381, 129, 396, 256
-0.999482, 135, 209, 150, 332
-0.999486, 367, 209, 382, 332
-0.999487, 269, 81, 284, 208
-0.999492, 283, 145, 298, 272
-0.999496, 251, 209, 266, 332
-0.999497, 3, 113, 18, 240
-0.999497, 215, 209, 230, 332
-0.999498, 173, 161, 188, 288
-0.9995, 481, 97, 496, 224
-0.999503, 1, 193, 16, 320
-0.999504, 161, 193, 176, 320
-0.999504, 315, 97, 330, 224
-0.999505, 281, 209, 296, 332
-0.999508, 289, 145, 304, 272
-0.999524, 243, 209, 258, 332
-0.999525, 107, 209, 122, 332
-0.999525, 329, 145, 344, 272
-0.999526, 463, 161, 478, 288
-0.999527, 457, 177, 472, 304
-0.999527, 405, 129, 420, 256
-0.99953, 421, 209, 436, 332
-0.999533, 137, 161, 152, 288
-0.999534, 83, 193, 98, 320
-0.999534, 335, 145, 350, 272
-0.99954, 363, 161, 378, 288
-0.999545, 321, 113, 336, 240
-0.999545, 475, 97, 490, 224
-0.999547, 345, 235, 360, 250
-0.999547, 389, 289, 404, 304
-0.999547, 275, 243, 290, 258
-0.999547, 305, 161, 320, 288
-0.999548, 281, 243, 296, 258
-0.999548, 293, 33, 308, 160
-0.999548, 217, 291, 232, 306
-0.999549, 169, 239, 184, 254
-0.999549, 377, 209, 392, 332
-0.99955, 163, 167, 178, 182
-0.99955, 151, 173, 166, 188
-0.99955, 161, 129, 176, 144
-0.999551, 221, 273, 236, 288
-0.999551, 263, 281, 278, 296
-0.999551, 251, 151, 266, 166
-0.999552, 249, 259, 264, 274
-0.999552, 473, 189, 488, 204
-0.999553, 239, 149, 254, 164
-0.999553, 143, 173, 158, 188
-0.999553, 391, 279, 406, 294
-0.999554, 299, 177, 314, 304
-0.999554, 451, 161, 466, 288
-0.999554, 327, 209, 342, 332
-0.999555, 305, 65, 320, 192
-0.999555, 179, 239, 194, 254
-0.999556, 325, 165, 340, 180
-0.999556, 53, 213, 68, 228
-0.999556, 377, 163, 392, 178
-0.999556, 479, 191, 494, 206
-0.999557, 65, 213, 80, 228
-0.999558, 297, 239, 312, 254
-0.999558, 191, 181, 206, 196
-0.999558, 253, 265, 268, 280
-0.999559, 123, 205, 138, 220
-0.999559, 261, 175, 276, 190
-0.999559, 97, 243, 112, 258
-0.99956, 105, 205, 120, 220
-0.99956, 357, 243, 372, 258
-0.99956, 65, 207, 80, 222
-0.999561, 229, 113, 244, 240
-0.999562, 113, 205, 128, 220
-0.999562, 83, 113, 98, 240
-0.999562, 397, 183, 412, 198
-0.999562, 185, 239, 200, 254
-0.999563, 135, 205, 150, 220
-0.999564, 159, 141, 174, 156
-0.999564, 43, 209, 58, 224
-0.999564, 99, 205, 114, 220
-0.999565, 115, 243, 130, 258
-0.999565, 263, 163, 278, 178
-0.999565, 383, 291, 398, 306
-0.999565, 301, 175, 316, 190
-0.999566, 437, 229, 452, 244
-0.999566, 203, 199, 218, 214
-0.999567, 199, 131, 214, 146
-0.999567, 133, 211, 148, 226
-0.999567, 207, 239, 222, 254
-0.999568, 443, 229, 458, 244
-0.999568, 15, 193, 30, 320
-0.999568, 233, 193, 248, 320
-0.999568, 21, 257, 36, 272
-0.999568, 187, 205, 202, 220
-0.999569, 281, 235, 296, 250
-0.999569, 259, 275, 274, 290
-0.999569, 141, 241, 156, 256
-0.99957, 301, 107, 316, 122
-0.999571, 37, 213, 52, 228
-0.999571, 389, 173, 404, 188
-0.999571, 265, 157, 280, 172
-0.999572, 273, 99, 288, 114
-0.999572, 219, 239, 234, 254
-0.999572, 467, 231, 482, 246
-0.999572, 163, 179, 178, 194
-0.999573, 147, 209, 162, 332
-0.999573, 187, 127, 202, 142
-0.999573, 375, 113, 390, 240
-0.999573, 271, 139, 286, 154
-0.999574, 473, 195, 488, 210
-0.999575, 261, 147, 276, 162
-0.999575, 173, 181, 188, 196
-0.999575, 269, 83, 284, 98
-0.999576, 385, 161, 400, 176
-0.999576, 87, 243, 102, 258
-0.999576, 151, 239, 166, 254
-0.999577, 227, 193, 242, 320
-0.999577, 217, 281, 232, 296
-0.99958, 265, 265, 280, 280
-0.999581, 151, 179, 166, 194
-0.999584, 473, 145, 488, 272
-0.999584, 281, 145, 296, 160
-0.999585, 457, 191, 472, 206
-0.999586, 309, 157, 324, 172
-0.999586, 243, 255, 258, 270
-0.999587, 197, 203, 212, 218
-0.999587, 355, 145, 370, 272
-0.999587, 315, 157, 330, 172
-0.999587, 131, 243, 146, 258
-0.999587, 271, 89, 286, 104
-0.999588, 161, 135, 176, 150
-0.999588, 197, 185, 212, 200
-0.999589, 307, 95, 322, 110
-0.999589, 467, 191, 482, 206
-0.999591, 271, 153, 286, 168
-0.999592, 71, 213, 86, 228
-0.999594, 293, 103, 308, 118
-0.999595, 161, 241, 176, 256
-0.999596, 189, 175, 204, 190
-0.999596, 269, 273, 284, 288
-0.999597, 59, 213, 74, 228
-0.999597, 361, 209, 376, 332
-0.999598, 21, 177, 36, 304
-0.999598, 277, 105, 292, 120
-0.999599, 143, 179, 158, 194
-0.999599, 157, 183, 172, 198
-0.9996, 375, 161, 390, 288
-0.999601, 301, 169, 316, 184
-0.999604, 421, 161, 436, 288
-0.999604, 315, 171, 330, 186
-0.999604, 269, 145, 284, 160
-0.999604, 213, 239, 228, 254
-0.999605, 309, 173, 324, 188
-0.999606, 159, 173, 174, 188
-0.999607, 301, 95, 316, 110
-0.999607, 47, 49, 62, 176
-0.999608, 281, 99, 296, 114
-0.99961, 369, 129, 384, 256
-0.999613, 285, 93, 300, 108
-0.999615, 351, 241, 366, 256
-0.999616, 175, 127, 190, 142
-0.999617, 185, 169, 200, 184
-0.999619, 185, 65, 200, 192
-0.99962, 179, 169, 194, 184
-0.999621, 379, 285, 394, 300
-0.999621, 141, 209, 156, 332
-0.999621, 175, 65, 190, 192
-0.999626, 393, 273, 408, 288
-0.999629, 393, 263, 408, 278
-0.999634, 277, 89, 292, 104
-0.999634, 395, 171, 410, 186
-0.999636, 271, 279, 286, 294
-0.999636, 263, 169, 278, 184
-0.999637, 269, 167, 284, 182
-0.999639, 283, 87, 298, 102
-0.999642, 181, 127, 196, 142
-0.999644, 397, 177, 412, 192
-0.999649, 173, 33, 204, 160
-0.99965, 293, 91, 308, 106
-0.999654, 383, 167, 398, 182
-0.999656, 169, 175, 184, 190
-0.999669, 301, 101, 316, 116
-0.999677, 389, 167, 404, 182
-0.999688, 381, 17, 412, 144
-0.9997, 287, 99, 302, 114
-0.999715, 283, 105, 298, 120
-0.999727, 469, 65, 500, 320
-0.999731, 295, 97, 310, 112
-0.999736, 417, 65, 448, 320
-0.999746, 315, 163, 330, 178
-0.999773, 307, 167, 322, 182
-0.99979, 369, 65, 400, 192
-0.999865, 341, 1, 372, 128
-0.999915, 97, 49, 128, 176
-0.999933, 1, 1, 500, 64
-0.999947, 85, 49, 116, 176
-0.999974, 361, 65, 392, 320
-1.00001, 337, 49, 368, 176
-1.00005, 433, 65, 464, 320
-1.00012, 185, 1, 216, 128
-1.00027, 109, 145, 140, 272
-1.00031, 65, 1, 128, 128
-1.00033, 217, 1, 248, 128
-1.00043, 449, 65, 480, 320
-1.00045, 421, 97, 452, 224
-1.00074, 353, 1, 384, 128
-1.00087, 53, 1, 84, 128
-1.00095, 329, 49, 392, 176
-1.00137, 1, 25, 500, 88
-1.00369, 409, 33, 472, 160
-1.00437, 113, 1, 176, 128
