1975
-0.251524, 1, 1, 375, 500
-0.319371, 129, 1, 375, 500
-0.385797, 1, 257, 375, 500
-0.428165, 1, 97, 375, 352
-0.48082, 1, 1, 256, 500
-0.487429, 1, 1, 375, 256
-0.507391, 129, 257, 375, 500
-0.530867, 1, 161, 256, 416
-0.57106, 1, 257, 256, 500
-0.583694, 129, 33, 375, 288
-0.642367, 129, 161, 375, 416
-0.69332, 1, 33, 256, 288
-0.823865, 113, 161, 240, 416
-0.83409, 1, 1, 128, 500
-0.840671, 177, 225, 304, 480
-0.841643, 161, 1, 288, 500
-0.843834, 129, 257, 256, 500
-0.857068, 1, 257, 128, 500
-0.863834, 65, 161, 192, 416
-0.866984, 1, 209, 375, 336
-0.868179, 225, 161, 352, 416
-0.868314, 1, 273, 375, 400
-0.870261, 225, 257, 352, 500
-0.871132, 241, 1, 368, 500
-0.872806, 177, 33, 304, 288
-0.872931, 113, 1, 240, 500
-0.873345, 161, 129, 288, 384
-0.87795, 1, 33, 128, 288
-0.887315, 17, 161, 144, 416
-0.887347, 129, 273, 375, 400
-0.888258, 49, 1, 176, 500
-0.889185, 49, 1, 176, 256
-0.893927, 241, 33, 368, 288
-0.897046, 49, 257, 176, 500
-0.900773, 33, 209, 288, 336
-0.906245, 1, 65, 375, 192
-0.906371, 129, 33, 256, 288
-0.907269, 1, 321, 375, 448
-0.909189, 1, 17, 375, 144
-0.909198, 1, 257, 256, 384
-0.911524, 129, 225, 375, 352
-0.913452, 1, 161, 375, 288
-0.915652, 1, 161, 256, 288
-0.916615, 177, 241, 240, 368
-0.918319, 129, 145, 375, 272
-0.918423, 129, 321, 375, 448
-0.92053, 1, 369, 375, 496
-0.922712, 209, 225, 336, 352
-0.925804, 161, 273, 288, 400
-0.926228, 33, 1, 288, 128
-0.926394, 1, 241, 64, 368
-0.928944, 1, 49, 256, 176
-0.929909, 113, 257, 240, 384
-0.931828, 161, 225, 288, 352
-0.932563, 1, 337, 256, 464
-0.935429, 129, 49, 375, 176
-0.935485, 97, 209, 224, 336
-0.935752, 209, 289, 336, 416
-0.936399, 1, 257, 128, 384
-0.937953, 297, 273, 360, 400
-0.938129, 1, 113, 375, 240
-0.938867, 1, 177, 128, 304
-0.940575, 145, 289, 208, 416
-0.940614, 1, 97, 256, 224
-0.940964, 1, 321, 64, 448
-0.941494, 49, 241, 176, 368
-0.94152, 1, 65, 128, 192
-0.941707, 177, 241, 240, 304
-0.942261, 281, 321, 344, 448
-0.942772, 273, 241, 336, 368
-0.943246, 137, 209, 200, 336
-0.943342, 129, 97, 375, 224
-0.943516, 25, 17, 88, 144
-0.94369, 145, 177, 272, 304
-0.94392, 153, 129, 216, 256
-0.944936, 177, 49, 304, 176
-0.945262, 185, 265, 248, 328
-0.945362, 313, 321, 375, 448
-0.946079, 9, 297, 72, 360
-0.946109, 17, 17, 144, 144
-0.946169, 185, 193, 248, 320
-0.946519, 225, 209, 288, 336
-0.94709, 25, 65, 88, 192
-0.947198, 25, 177, 88, 304
-0.947854, 1, 305, 128, 432
-0.948095, 129, 129, 256, 256
-0.948355, 161, 177, 224, 304
-0.950138, 169, 289, 232, 352
-0.950657, 113, 305, 240, 432
-0.951481, 273, 193, 336, 320
-0.951736, 1, 265, 64, 328
-0.952556, 1, 65, 64, 192
-0.953005, 49, 145, 176, 272
-0.953036, 225, 353, 352, 480
-0.953197, 25, 289, 88, 416
-0.953242, 257, 337, 320, 464
-0.953622, 241, 113, 368, 240
-0.953887, 129, 369, 375, 496
-0.953951, 129, 1, 375, 128
-0.954219, 9, 401, 72, 464
-0.954294, 33, 81, 96, 144
-0.954382, 289, 393, 352, 456
-0.95459, 305, 113, 368, 240
-0.95529, 305, 209, 368, 336
-0.955348, 225, 33, 288, 160
-0.955561, 257, 217, 320, 280
-0.955883, 217, 241, 280, 304
-0.955887, 185, 305, 248, 432
-0.956003, 49, 65, 176, 192
-0.956171, 145, 289, 208, 352
-0.956601, 41, 241, 104, 368
-0.956913, 185, 145, 248, 272
-0.957039, 9, 369, 72, 496
-0.957076, 145, 209, 208, 272
-0.957086, 1, 65, 64, 128
-0.957095, 305, 369, 368, 496
-0.957425, 25, 177, 88, 240
-0.957632, 137, 249, 200, 312
-0.957746, 249, 209, 312, 336
-0.958107, 209, 177, 336, 304
-0.958236, 1, 177, 64, 304
-0.95842, 129, 161, 192, 288
-0.958642, 233, 257, 296, 384
-0.958772, 297, 289, 360, 352
-0.959008, 121, 289, 184, 416
-0.959283, 25, 273, 88, 336
-0.95945, 1, 433, 64, 496
-0.959542, 313, 161, 375, 288
-0.959766, 49, 33, 112, 160
-0.95978, 185, 225, 248, 480
-0.959871, 225, 217, 288, 280
-0.960179, 25, 241, 88, 304
-0.960189, 313, 321, 375, 384
-0.960804, 1, 185, 64, 248
-0.960981, 289, 425, 352, 488
-0.961173, 177, 113, 304, 240
-0.961367, 281, 209, 344, 272
-0.961558, 201, 241, 264, 368
-0.961572, 65, 1, 192, 128
-0.961712, 49, 1, 112, 64
-0.961738, 129, 17, 256, 144
-0.962034, 49, 193, 176, 320
-0.962204, 1, 377, 64, 440
-0.962226, 161, 321, 288, 448
-0.96232, 193, 289, 256, 352
-0.962366, 1, 337, 64, 400
-0.962742, 153, 169, 216, 232
-0.962984, 153, 137, 216, 200
-0.963139, 97, 225, 160, 352
-0.963282, 1, 113, 64, 240
-0.963481, 169, 217, 232, 280
-0.963733, 177, 249, 208, 312
-0.963911, 153, 129, 216, 384
-0.96392, 201, 217, 264, 280
-0.964033, 9, 89, 72, 152
-0.964101, 49, 145, 112, 272
-0.964122, 281, 145, 344, 272
-0.964386, 309, 393, 340, 456
-0.964827, 273, 297, 336, 360
-0.964944, 185, 193, 248, 256
-0.965216, 33, 49, 96, 112
-0.965274, 1, 225, 64, 288
-0.96568, 33, 153, 96, 216
-0.965683, 313, 129, 375, 192
-0.965716, 177, 289, 208, 352
-0.965729, 25, 217, 88, 280
-0.965764, 209, 305, 272, 432
-0.965774, 193, 321, 256, 384
-0.965855, 205, 257, 236, 384
-0.965862, 161, 313, 224, 376
-0.965923, 49, 289, 176, 416
-0.966004, 5, 297, 36, 360
-0.966139, 205, 249, 236, 312
-0.966543, 49, 97, 112, 224
-0.966792, 177, 241, 208, 368
-0.966821, 225, 289, 288, 352
-0.966917, 225, 17, 288, 80
-0.967022, 113, 313, 176, 376
-0.967025, 321, 257, 352, 384
-0.967279, 273, 353, 336, 416
-0.967481, 97, 65, 224, 192
-0.967518, 121, 1, 184, 128
-0.96756, 273, 329, 336, 392
-0.967623, 193, 241, 224, 368
-0.967753, 293, 393, 324, 456
-0.967772, 25, 273, 56, 336
-0.967926, 129, 281, 256, 344
-0.968036, 49, 273, 112, 336
-0.96825, 97, 313, 224, 376
-0.96857, 17, 257, 48, 384
-0.968623, 1, 257, 64, 500
-0.968743, 225, 265, 288, 328
-0.968778, 209, 1, 336, 128
-0.9688, 273, 241, 336, 304
-0.968836, 145, 81, 208, 208
-0.968898, 1, 369, 128, 496
-0.968992, 193, 49, 256, 176
-0.968997, 1, 153, 64, 216
-0.969058, 161, 265, 224, 328
-0.96925, 25, 425, 88, 488
-0.969323, 197, 273, 228, 336
-0.969333, 73, 33, 136, 160
-0.969334, 213, 281, 244, 344
-0.969464, 161, 249, 288, 312
-0.969639, 181, 193, 212, 320
-0.969897, 225, 49, 352, 176
-0.97014, 161, 257, 224, 500
-0.970408, 81, 177, 144, 304
-0.970518, 1, 305, 32, 432
-0.970648, 341, 289, 372, 416
-0.970659, 13, 305, 44, 432
-0.970718, 1, 425, 32, 488
-0.970769, 309, 257, 340, 384
-0.970949, 25, 329, 88, 392
-0.971267, 65, 73, 128, 136
-0.971388, 217, 49, 280, 112
-0.971442, 297, 185, 360, 248
-0.971641, 33, 73, 64, 136
-0.971675, 129, 161, 192, 416
-0.971729, 173, 289, 204, 416
-0.971742, 177, 217, 304, 280
-0.971807, 5, 225, 36, 352
-0.97181, 233, 369, 296, 496
-0.971816, 25, 65, 88, 320
-0.971908, 49, 193, 112, 320
-0.972322, 317, 209, 348, 336
-0.972344, 313, 265, 375, 328
-0.972402, 193, 145, 256, 208
-0.97262, 169, 81, 232, 208
-0.972647, 305, 337, 336, 464
-0.972671, 281, 65, 344, 192
-0.972679, 113, 209, 240, 272
-0.972691, 177, 281, 304, 344
-0.972713, 49, 433, 112, 496
-0.97279, 9, 361, 40, 424
-0.972823, 317, 257, 348, 320
-0.972837, 257, 289, 320, 416
-0.972937, 225, 225, 288, 480
-0.973008, 297, 233, 360, 296
-0.973017, 1, 129, 128, 256
-0.973072, 21, 401, 52, 464
-0.973073, 289, 193, 352, 448
-0.973105, 225, 241, 352, 304
-0.973149, 1, 369, 32, 496
-0.973184, 121, 177, 184, 240
-0.973219, 1, 401, 32, 464
-0.973238, 277, 433, 308, 496
-0.973282, 1, 65, 128, 128
-0.973296, 281, 369, 344, 496
-0.973485, 249, 49, 312, 176
-0.973654, 317, 217, 348, 280
-0.973681, 65, 49, 128, 112
-0.973744, 5, 337, 36, 400
-0.973767, 97, 353, 224, 480
-0.973953, 49, 249, 112, 312
-0.974077, 313, 393, 375, 456
-0.974166, 161, 193, 288, 256
-0.974222, 257, 217, 288, 280
-0.974355, 217, 257, 248, 320
-0.974391, 45, 17, 76, 144
-0.974501, 33, 281, 160, 344
-0.974507, 293, 289, 324, 416
-0.974513, 137, 313, 200, 376
-0.974537, 281, 409, 312, 472
-0.974568, 1, 17, 64, 144
-0.974691, 225, 289, 352, 352
-0.974692, 297, 417, 328, 480
-0.974782, 29, 257, 60, 384
-0.974796, 193, 249, 224, 312
-0.974799, 113, 257, 240, 320
-0.974801, 113, 153, 176, 216
-0.97486, 13, 249, 44, 312
-0.97487, 249, 209, 280, 336
-0.974914, 37, 289, 68, 352
-0.974962, 65, 273, 128, 400
-0.974964, 333, 177, 364, 304
-0.975001, 33, 297, 96, 360
-0.975079, 21, 65, 52, 128
-0.975112, 301, 329, 332, 392
-0.975116, 313, 193, 375, 448
-0.975172, 265, 393, 328, 456
-0.975199, 317, 321, 348, 448
-0.9752, 217, 225, 248, 352
-0.975331, 25, 25, 88, 88
-0.975354, 313, 153, 375, 216
-0.975464, 193, 97, 256, 352
-0.975513, 97, 169, 224, 232
-0.975519, 29, 65, 60, 192
-0.975634, 49, 41, 176, 104
-0.975652, 5, 81, 36, 144
-0.975818, 305, 209, 368, 272
-0.975843, 33, 401, 64, 464
-0.975883, 25, 257, 88, 500
-0.975889, 337, 129, 368, 256
-0.975919, 17, 425, 48, 488
-0.975965, 193, 313, 320, 376
-0.976003, 161, 289, 192, 416
-0.976062, 1, 217, 128, 280
-0.976084, 285, 337, 316, 464
-0.976105, 249, 1, 312, 128
-0.976198, 105, 49, 168, 176
-0.97628, 165, 225, 196, 352
-0.976297, 241, 177, 368, 240
-0.976316, 329, 297, 360, 360
-0.976386, 173, 129, 204, 256
-0.976401, 145, 33, 208, 160
-0.976416, 25, 233, 56, 296
-0.976466, 185, 1, 248, 128
-0.976516, 289, 297, 320, 360
-0.976539, 9, 193, 40, 256
-0.97657, 105, 345, 168, 408
-0.976584, 313, 369, 375, 432
-0.976606, 249, 161, 312, 288
-0.976748, 329, 321, 360, 448
-0.976787, 61, 257, 92, 384
-0.976953, 17, 321, 144, 384
-0.976961, 121, 289, 184, 352
-0.977015, 241, 113, 304, 240
-0.977033, 105, 145, 168, 272
-0.977076, 221, 273, 252, 400
-0.977159, 181, 137, 212, 200
-0.977159, 1, 65, 64, 320
-0.977188, 1, 161, 64, 416
-0.977191, 1, 425, 128, 488
-0.977216, 165, 289, 196, 352
-0.977235, 197, 313, 228, 376
-0.97725, 45, 257, 76, 320
-0.977268, 49, 177, 112, 240
-0.977304, 273, 209, 304, 336
-0.977364, 185, 433, 248, 496
-0.977463, 225, 161, 288, 288
-0.977463, 225, 129, 288, 384
-0.977498, 277, 209, 308, 272
-0.977546, 193, 409, 320, 472
-0.977572, 9, 1, 72, 500
-0.977699, 341, 321, 372, 384
-0.977747, 241, 241, 304, 304
-0.977891, 241, 217, 368, 280
-0.97792, 1, 217, 32, 280
-0.977935, 49, 1, 112, 256
-0.978002, 41, 193, 72, 320
-0.97804, 177, 209, 208, 272
-0.978078, 121, 25, 184, 88
-0.978229, 289, 137, 352, 200
-0.978245, 257, 265, 320, 328
-0.978261, 309, 305, 340, 368
-0.978268, 65, 145, 192, 208
-0.978323, 257, 193, 320, 256
-0.978346, 249, 289, 312, 352
-0.978366, 5, 273, 36, 336
-0.978376, 1, 257, 128, 320
-0.97838, 21, 177, 52, 304
-0.978442, 25, 129, 88, 256
-0.978494, 33, 401, 96, 464
-0.978592, 161, 337, 224, 464
-0.978603, 249, 369, 312, 432
-0.978633, 185, 289, 216, 416
-0.978648, 73, 225, 136, 352
-0.978782, 189, 225, 220, 288
-0.978807, 129, 129, 192, 192
-0.978911, 333, 177, 364, 240
-0.978918, 129, 137, 256, 200
-0.979049, 205, 425, 236, 488
-0.979069, 313, 425, 375, 488
-0.979182, 29, 337, 60, 464
-0.979193, 265, 417, 328, 480
-0.979268, 121, 1, 184, 64
-0.97931, 341, 297, 372, 360
-0.979361, 9, 113, 72, 176
-0.979384, 81, 289, 208, 352
-0.979395, 177, 369, 304, 496
-0.97945, 49, 217, 112, 280
-0.979485, 17, 329, 48, 392
-0.979489, 241, 265, 368, 328
-0.979503, 81, 17, 144, 80
-0.979517, 261, 193, 292, 320
-0.979546, 121, 209, 184, 272
-0.979587, 1, 177, 128, 240
-0.979624, 345, 137, 375, 200
-0.979627, 97, 1, 160, 128
-0.979712, 237, 225, 268, 352
-0.979716, 25, 161, 88, 416
-0.979735, 241, 41, 304, 104
-0.979915, 321, 113, 352, 240
-0.979925, 49, 337, 176, 464
-0.979935, 41, 153, 72, 216
-0.979952, 177, 313, 208, 376
-0.979962, 257, 257, 320, 500
-0.980026, 165, 249, 196, 312
-0.980043, 317, 281, 348, 344
-0.980076, 241, 425, 368, 488
-0.980109, 61, 209, 92, 336
-0.980176, 185, 169, 248, 232
-0.980182, 17, 369, 48, 496
-0.980217, 329, 257, 360, 320
-0.980219, 49, 65, 176, 128
-0.980238, 45, 241, 76, 368
-0.980248, 169, 129, 200, 192
-0.980273, 49, 169, 176, 232
-0.980307, 193, 41, 256, 104
-0.980395, 225, 1, 288, 256
-0.980398, 65, 281, 96, 344
-0.980439, 41, 289, 72, 416
-0.980492, 1, 41, 128, 104
-0.980524, 1, 161, 32, 288
-0.980533, 29, 177, 60, 240
-0.980547, 345, 177, 375, 240
-0.980575, 97, 233, 224, 296
-0.980619, 225, 281, 256, 344
-0.980655, 233, 193, 296, 256
-0.980656, 273, 105, 336, 168
-0.980667, 61, 161, 92, 224
-0.980732, 221, 233, 252, 296
-0.980758, 329, 201, 360, 264
-0.980922, 217, 1, 280, 500
-0.98093, 145, 305, 272, 368
-0.980963, 105, 57, 168, 120
-0.980969, 105, 193, 168, 448
-0.981, 53, 81, 84, 208
-0.981035, 37, 425, 68, 488
-0.98105, 321, 409, 352, 472
-0.981102, 313, 65, 375, 192
-0.981145, 197, 145, 228, 208
-0.981193, 193, 193, 224, 320
-0.981206, 57, 153, 120, 216
-0.981222, 65, 257, 192, 320
-0.981283, 153, 113, 216, 176
-0.98134, 13, 225, 44, 288
-0.981438, 177, 145, 304, 208
-0.981471, 221, 409, 252, 472
-0.98148, 333, 241, 364, 368
-0.981517, 21, 377, 52, 440
-0.981524, 33, 369, 96, 496
-0.981531, 29, 329, 60, 392
-0.981558, 45, 89, 76, 152
-0.981559, 33, 17, 160, 80
-0.981564, 217, 305, 248, 368
-0.981599, 165, 217, 196, 280
-0.981627, 333, 153, 364, 216
-0.981643, 297, 241, 328, 368
-0.981658, 1, 89, 128, 152
-0.981677, 233, 393, 296, 456
-0.981679, 37, 233, 68, 296
-0.981684, 157, 129, 188, 192
-0.981696, 33, 1, 96, 500
-0.98172, 129, 17, 256, 80
-0.981725, 45, 49, 76, 112
-0.98176, 313, 97, 375, 352
-0.9818, 225, 385, 352, 448
-0.981834, 249, 313, 312, 376
-0.981923, 41, 81, 72, 208
-0.981942, 97, 185, 160, 248
-0.981966, 153, 33, 216, 288
-0.981986, 185, 353, 248, 480
-0.982081, 17, 297, 48, 360
-0.982086, 309, 417, 340, 480
-0.982133, 145, 209, 176, 336
-0.982159, 73, 289, 136, 352
-0.982205, 313, 329, 344, 392
-0.982287, 177, 185, 208, 248
-0.982315, 125, 289, 156, 416
-0.982394, 137, 257, 200, 500
-0.9824, 153, 1, 216, 500
-0.982432, 49, 193, 176, 256
-0.982457, 21, 153, 52, 216
-0.982516, 113, 337, 144, 400
-0.982648, 161, 321, 192, 384
-0.98268, 249, 33, 280, 160
-0.982688, 229, 33, 260, 160
-0.982768, 289, 209, 320, 272
-0.982789, 281, 265, 344, 328
-0.982847, 265, 161, 328, 416
-0.982849, 113, 337, 176, 464
-0.982854, 161, 169, 288, 232
-0.982951, 177, 433, 304, 496
-0.983008, 305, 281, 336, 344
-0.983075, 81, 193, 144, 448
-0.983113, 161, 129, 192, 256
-0.983118, 5, 49, 36, 176
-0.983247, 233, 121, 296, 184
-0.983253, 33, 145, 64, 272
-0.983262, 249, 17, 312, 80
-0.983362, 345, 337, 375, 464
-0.983372, 49, 225, 112, 480
-0.983388, 241, 153, 368, 216
-0.983424, 129, 41, 256, 104
-0.983462, 329, 121, 360, 184
-0.983462, 73, 433, 104, 496
-0.983474, 121, 97, 184, 224
-0.983491, 65, 249, 96, 312
-0.983503, 41, 25, 72, 88
-0.983503, 129, 1, 192, 256
-0.983538, 301, 241, 332, 304
-0.983546, 189, 201, 220, 264
-0.983584, 217, 113, 280, 240
-0.983599, 145, 129, 176, 256
-0.983645, 1, 153, 128, 216
-0.983658, 73, 329, 136, 392
-0.983684, 281, 337, 312, 400
-0.983726, 97, 225, 160, 288
-0.983768, 241, 241, 272, 304
-0.983794, 185, 17, 248, 80
-0.983868, 1, 401, 128, 464
-0.983945, 241, 361, 368, 424
-0.983984, 73, 1, 136, 256
-0.984005, 241, 217, 272, 280
-0.984015, 81, 353, 144, 416
-0.98405, 73, 225, 104, 352
-0.984113, 177, 49, 304, 112
-0.984122, 17, 81, 48, 208
-0.984159, 17, 1, 80, 64
-0.984193, 1, 241, 32, 304
-0.984205, 241, 329, 368, 392
-0.984277, 281, 65, 344, 320
-0.984302, 1, 153, 32, 216
-0.98434, 113, 313, 144, 376
-0.984436, 145, 137, 176, 200
-0.984438, 17, 89, 48, 152
-0.984442, 305, 345, 368, 408
-0.984452, 153, 289, 184, 352
-0.984454, 265, 289, 296, 416
-0.98449, 209, 121, 272, 184
-0.984496, 245, 17, 276, 80
-0.984519, 81, 129, 144, 256
-0.984533, 41, 113, 104, 176
-0.984569, 325, 329, 356, 392
-0.984591, 177, 1, 304, 64
-0.984595, 81, 129, 144, 192
-0.984672, 241, 121, 368, 184
-0.984713, 205, 209, 236, 336
-0.984727, 45, 145, 76, 272
-0.984738, 21, 201, 52, 264
-0.984771, 41, 177, 72, 240
-0.984791, 173, 81, 204, 208
-0.984853, 17, 345, 144, 408
-0.984888, 281, 161, 344, 224
-0.984891, 165, 177, 196, 304
-0.984908, 241, 425, 304, 488
-0.984921, 329, 233, 360, 296
-0.984927, 193, 97, 256, 224
-0.984928, 57, 33, 88, 160
-0.98498, 9, 57, 40, 120
-0.985039, 229, 257, 260, 320
-0.985073, 97, 337, 224, 400
-0.985083, 129, 49, 192, 112
-0.985086, 65, 81, 96, 144
-0.985093, 217, 313, 280, 376
-0.985132, 57, 1, 88, 64
-0.985199, 145, 193, 176, 256
-0.985225, 273, 337, 304, 464
-0.985241, 73, 177, 136, 240
-0.985312, 321, 161, 352, 288
-0.98534, 233, 33, 264, 96
-0.985373, 33, 121, 160, 184
-0.985374, 161, 161, 192, 224
-0.985431, 65, 49, 96, 112
-0.985468, 209, 25, 336, 88
-0.985512, 177, 89, 240, 152
-0.985597, 105, 361, 136, 424
-0.985622, 309, 369, 340, 432
-0.985683, 177, 113, 240, 176
-0.985713, 105, 1, 168, 256
-0.98572, 97, 273, 160, 336
-0.985737, 137, 305, 168, 432
-0.985762, 265, 193, 296, 256
-0.985775, 265, 289, 296, 352
-0.985817, 65, 81, 96, 208
-0.985823, 329, 369, 360, 496
-0.985842, 105, 369, 168, 432
-0.985933, 73, 241, 136, 304
-0.985961, 153, 17, 216, 80
-0.986133, 161, 89, 288, 152
-0.986137, 261, 241, 292, 368
-0.986138, 277, 161, 308, 288
-0.986275, 65, 89, 192, 152
-0.986301, 205, 225, 236, 288
-0.986347, 65, 1, 128, 500
-0.986379, 25, 353, 56, 416
-0.986394, 137, 89, 200, 152
-0.986412, 197, 305, 228, 432
-0.986419, 113, 105, 176, 168
-0.986513, 57, 145, 88, 272
-0.986535, 69, 161, 100, 288
-0.986539, 189, 145, 220, 272
-0.986561, 49, 97, 112, 352
-0.986561, 49, 225, 176, 288
-0.986603, 53, 281, 84, 344
-0.986669, 341, 81, 372, 208
-0.986678, 265, 249, 296, 312
-0.986681, 153, 81, 184, 208
-0.986755, 193, 81, 224, 208
-0.986765, 285, 209, 316, 336
-0.986834, 69, 33, 100, 160
-0.986914, 193, 121, 320, 184
-0.98692, 281, 1, 344, 500
-0.986936, 313, 1, 375, 500
-0.987036, 249, 49, 280, 112
-0.987059, 185, 161, 216, 224
-0.987094, 293, 353, 324, 416
-0.987142, 73, 209, 104, 272
-0.987167, 237, 289, 268, 352
-0.987188, 133, 17, 164, 80
-0.987248, 193, 1, 256, 500
-0.987431, 1, 97, 32, 224
-0.987455, 149, 305, 180, 432
-0.987582, 193, 1, 256, 256
-0.987589, 345, 177, 375, 304
-0.987644, 161, 337, 288, 400
-0.987693, 265, 433, 296, 496
-0.987759, 53, 217, 84, 280
-0.987779, 241, 1, 304, 500
-0.987877, 169, 261, 232, 292
-0.987993, 233, 305, 296, 432
-0.987996, 113, 113, 240, 176
-0.988057, 97, 65, 224, 128
-0.988105, 149, 257, 180, 384
-0.988127, 185, 273, 248, 304
-0.988199, 225, 97, 352, 160
-0.988203, 81, 433, 208, 496
-0.988278, 297, 193, 328, 320
-0.988292, 209, 305, 240, 432
-0.988358, 289, 405, 352, 436
-0.988397, 73, 273, 104, 400
-0.988408, 85, 241, 116, 368
-0.988475, 73, 81, 136, 208
-0.988506, 129, 257, 375, 320
-0.988508, 177, 385, 304, 448
-0.988517, 177, 249, 240, 280
-0.988618, 21, 129, 52, 256
-0.988652, 33, 85, 96, 116
-0.988656, 97, 313, 352, 376
-0.988667, 129, 281, 375, 344
-0.98868, 217, 177, 248, 304
-0.988753, 1, 77, 64, 108
-0.988771, 169, 317, 232, 348
-0.988813, 21, 17, 52, 144
-0.988827, 1, 281, 64, 312
-0.988841, 289, 417, 352, 448
-0.98893, 257, 237, 320, 268
-0.989026, 89, 97, 152, 352
-0.989115, 249, 33, 312, 288
-0.989127, 185, 301, 248, 332
-0.989246, 257, 221, 320, 252
-0.98925, 17, 181, 80, 212
-0.989267, 169, 289, 232, 320
-0.989274, 81, 361, 208, 424
-0.989381, 317, 369, 348, 496
-0.989402, 273, 429, 336, 460
-0.989473, 309, 145, 340, 272
-0.989503, 9, 293, 72, 324
-0.989503, 177, 237, 240, 268
-0.989526, 9, 89, 72, 120
-0.989526, 225, 49, 352, 112
-0.98958, 1, 321, 64, 352
-0.98959, 297, 333, 360, 364
-0.989597, 233, 289, 264, 416
-0.989599, 145, 361, 272, 424
-0.98962, 225, 289, 288, 320
-0.989626, 233, 245, 296, 276
-0.989629, 193, 321, 256, 352
-0.98963, 97, 289, 160, 416
-0.98965, 137, 301, 200, 332
-0.989694, 121, 1, 184, 500
-0.989719, 25, 69, 88, 100
-0.989724, 225, 37, 288, 68
-0.989767, 41, 177, 104, 208
-0.989776, 205, 145, 236, 272
-0.989781, 1, 341, 64, 372
-0.989785, 281, 289, 312, 416
-0.989817, 193, 261, 256, 292
-0.989839, 33, 249, 288, 312
-0.989851, 193, 285, 256, 316
-0.989853, 229, 177, 260, 304
-0.98986, 33, 369, 160, 432
-0.989889, 9, 413, 72, 444
-0.989899, 217, 257, 280, 288
-0.989899, 185, 445, 248, 476
-0.9899, 225, 221, 288, 252
-0.989906, 57, 461, 120, 492
-0.989908, 137, 281, 200, 312
-0.989915, 33, 1, 64, 128
-0.989925, 145, 217, 208, 248
-0.990004, 1, 225, 64, 256
-0.990014, 33, 273, 96, 304
-0.990049, 1, 281, 256, 344
-0.990056, 17, 245, 80, 276
-0.990092, 137, 353, 200, 480
-0.990133, 85, 177, 116, 304
-0.990135, 289, 289, 352, 320
-0.990181, 1, 469, 64, 500
-0.990206, 305, 429, 368, 460
-0.990211, 145, 257, 208, 288
-0.990242, 9, 437, 72, 468
-0.990257, 161, 301, 224, 332
-0.990313, 217, 49, 248, 176
-0.990324, 9, 305, 72, 336
-0.990337, 233, 233, 296, 264
-0.990358, 153, 181, 216, 212
-0.990391, 89, 1, 152, 500
-0.990392, 125, 145, 156, 272
-0.990392, 41, 289, 104, 320
-0.990404, 161, 273, 224, 304
-0.990407, 153, 33, 184, 160
-0.990408, 1, 257, 64, 288
-0.990418, 153, 329, 216, 360
-0.990424, 289, 393, 352, 424
-0.990437, 9, 401, 72, 432
-0.990442, 137, 313, 200, 344
-0.990485, 1, 177, 256, 240
-0.990485, 65, 77, 128, 108
-0.990523, 113, 321, 176, 352
-0.99053, 145, 201, 208, 232
-0.990532, 153, 137, 216, 168
-0.990561, 137, 269, 200, 300
-0.990596, 97, 217, 352, 280
-0.9906, 9, 457, 72, 488
-0.990622, 281, 225, 344, 256
-0.990623, 201, 241, 264, 272
-0.990631, 281, 213, 344, 244
-0.990642, 25, 165, 88, 196
-0.99067, 89, 353, 152, 480
-0.990681, 185, 201, 248, 232
-0.990692, 113, 305, 144, 432
-0.990706, 1, 313, 256, 376
-0.990716, 313, 1, 375, 256
-0.990725, 273, 253, 336, 284
-0.990734, 281, 461, 344, 492
-0.990753, 49, 1, 112, 32
-0.99077, 281, 313, 344, 344
-0.990779, 53, 305, 84, 432
-0.990789, 1, 169, 64, 200
-0.990823, 25, 261, 88, 292
-0.990845, 225, 1, 288, 32
-0.990849, 253, 369, 284, 496
-0.990855, 153, 169, 216, 200
-0.990864, 325, 65, 356, 192
-0.990868, 33, 457, 96, 488
-0.990879, 137, 149, 200, 180
-0.990902, 41, 369, 72, 496
-0.99091, 217, 273, 280, 304
-0.990911, 1, 269, 64, 300
-0.990916, 125, 241, 156, 368
-0.990967, 273, 361, 336, 392
-0.990982, 1, 65, 64, 96
-0.990984, 141, 81, 172, 208
-0.990985, 33, 17, 288, 80
-0.990992, 1, 313, 375, 376
-0.991005, 25, 337, 88, 368
-0.991008, 33, 97, 96, 128
-0.991021, 225, 313, 288, 344
-0.99103, 9, 425, 72, 456
-0.991036, 125, 81, 156, 208
-0.991086, 265, 297, 328, 328
-0.991097, 313, 153, 375, 184
-0.991103, 81, 17, 208, 80
-0.991104, 281, 241, 344, 272
-0.991105, 161, 149, 224, 180
-0.991123, 193, 225, 256, 256
-0.991125, 313, 125, 375, 156
-0.991128, 41, 57, 104, 88
-0.991144, 185, 333, 248, 364
-0.991145, 121, 1, 152, 128
-0.991162, 313, 417, 375, 448
-0.991173, 153, 245, 216, 276
-0.99123, 225, 49, 288, 80
-0.99123, 313, 285, 375, 316
-0.991232, 225, 209, 288, 240
-0.991242, 345, 241, 375, 368
-0.991258, 257, 341, 320, 372
-0.991279, 265, 145, 296, 272
-0.991291, 313, 469, 375, 500
-0.991303, 65, 65, 128, 96
-0.991321, 249, 209, 312, 240
-0.991355, 33, 221, 96, 252
-0.991368, 313, 137, 375, 168
-0.991396, 49, 165, 112, 196
-0.991413, 193, 189, 256, 220
-0.991413, 81, 41, 144, 72
-0.991429, 121, 197, 184, 228
-0.991433, 265, 417, 328, 448
-0.991435, 105, 357, 168, 388
-0.991448, 9, 377, 72, 408
-0.991476, 1, 209, 256, 272
-0.991498, 305, 197, 368, 228
-0.991506, 25, 233, 88, 264
-0.991506, 185, 213, 248, 244
-0.991508, 1, 389, 64, 420
-0.99151, 313, 165, 375, 196
-0.991531, 305, 233, 368, 264
-0.991555, 313, 385, 375, 416
-0.991558, 1, 201, 64, 232
-0.991562, 93, 1, 124, 128
-0.99157, 225, 25, 288, 56
-0.991577, 1, 241, 375, 304
-0.991586, 257, 461, 320, 492
-0.991606, 49, 321, 112, 448
-0.991613, 185, 149, 248, 180
-0.991616, 1, 353, 64, 384
-0.991626, 289, 441, 352, 472
-0.991635, 17, 33, 80, 64
-0.991638, 225, 461, 288, 492
-0.991649, 57, 449, 120, 480
-0.991653, 121, 209, 184, 240
-0.991674, 121, 41, 184, 72
-0.991679, 313, 401, 375, 432
-0.991707, 305, 397, 336, 428
-0.991708, 225, 1, 352, 64
-0.99174, 129, 337, 375, 400
-0.99177, 1, 153, 256, 216
-0.991829, 97, 185, 352, 248
-0.991859, 169, 289, 200, 320
-0.991877, 325, 393, 340, 456
-0.991901, 201, 269, 232, 300
-0.991967, 1, 281, 375, 344
-0.991977, 25, 77, 56, 108
-0.991999, 309, 417, 340, 448
-0.992012, 5, 81, 36, 112
-0.992079, 197, 317, 228, 348
-0.992111, 45, 177, 76, 208
-0.992198, 1, 417, 256, 480
-0.99222, 173, 281, 188, 344
-0.992225, 185, 257, 216, 288
-0.992229, 297, 409, 328, 440
-0.992244, 201, 253, 232, 284
-0.992245, 21, 277, 52, 308
-0.992269, 9, 345, 40, 376
-0.992273, 301, 433, 332, 464
-0.992277, 181, 273, 212, 304
-0.992281, 81, 461, 112, 492
-0.992286, 293, 421, 324, 452
-0.992296, 261, 221, 292, 252
-0.992308, 181, 313, 212, 344
-0.992313, 9, 317, 40, 348
-0.992318, 321, 257, 352, 288
-0.992327, 205, 437, 236, 468
-0.992331, 257, 233, 288, 264
-0.992332, 145, 277, 272, 308
-0.992332, 9, 93, 40, 124
-0.99235, 213, 321, 244, 352
-0.992381, 273, 457, 304, 488
-0.992383, 169, 313, 200, 344
-0.992388, 5, 433, 36, 464
-0.992391, 305, 65, 336, 192
-0.992401, 17, 229, 48, 260
-0.992408, 173, 257, 204, 288
-0.992409, 1, 57, 256, 120
-0.992423, 303, 393, 318, 456
-0.992434, 33, 181, 64, 212
-0.992436, 21, 241, 52, 272
-0.992436, 213, 305, 244, 336
-0.99244, 1, 445, 32, 476
-0.992471, 185, 237, 216, 268
-0.992471, 321, 269, 352, 300
-0.992473, 337, 173, 368, 204
-0.992485, 217, 285, 248, 316
-0.992505, 13, 257, 44, 288
-0.992507, 217, 257, 248, 288
-0.992509, 21, 437, 52, 468
-0.99251, 249, 213, 280, 244
-0.992515, 317, 289, 348, 320
-0.992522, 73, 449, 104, 480
-0.992527, 177, 301, 208, 332
-0.992533, 341, 329, 372, 360
-0.992544, 221, 321, 252, 448
-0.992556, 97, 321, 224, 352
-0.992557, 187, 289, 202, 352
-0.992564, 45, 273, 76, 304
-0.992568, 193, 285, 224, 316
-0.992574, 273, 217, 304, 248
-0.992579, 169, 277, 200, 308
-0.992585, 225, 317, 256, 348
-0.992596, 5, 305, 36, 336
-0.992609, 261, 461, 292, 492
-0.992612, 193, 361, 320, 424
-0.992613, 217, 269, 248, 300
-0.992616, 5, 457, 36, 488
-0.992617, 25, 261, 56, 292
-0.992621, 61, 169, 92, 200
-0.992621, 189, 145, 220, 176
-0.992642, 25, 289, 56, 320
-0.992652, 281, 425, 312, 456
-0.992659, 21, 65, 52, 96
-0.992665, 21, 185, 52, 216
-0.992666, 181, 209, 212, 240
-0.992675, 321, 245, 352, 276
-0.992684, 305, 293, 336, 324
-0.992687, 345, 153, 375, 184
-0.992691, 5, 389, 36, 420
-0.992692, 41, 297, 72, 328
-0.992695, 29, 89, 60, 120
-0.992699, 201, 241, 232, 272
-0.992702, 1, 413, 32, 444
-0.992709, 213, 449, 244, 480
-0.992712, 5, 221, 36, 252
-0.992715, 241, 225, 272, 256
-0.992718, 197, 329, 228, 360
-0.992722, 177, 325, 208, 356
-0.992726, 109, 1, 140, 128
-0.992729, 37, 165, 68, 196
-0.992733, 25, 409, 56, 440
-0.992733, 177, 133, 208, 164
-0.992753, 181, 285, 212, 316
-0.992754, 17, 449, 48, 480
-0.992754, 257, 245, 288, 276
-0.992756, 241, 245, 272, 276
-0.992757, 273, 445, 304, 476
-0.992759, 13, 329, 44, 360
-0.992764, 313, 429, 344, 460
-0.992768, 37, 65, 52, 128
-0.992768, 69, 461, 100, 492
-0.992773, 277, 241, 308, 272
-0.992773, 301, 337, 332, 368
-0.992785, 277, 469, 308, 500
-0.992788, 3, 313, 18, 376
-0.99279, 57, 457, 88, 488
-0.992791, 9, 365, 40, 396
-0.992792, 157, 273, 188, 304
-0.992795, 309, 249, 340, 280
-0.992797, 53, 289, 84, 320
-0.992816, 157, 137, 188, 168
-0.992818, 333, 189, 364, 220
-0.992822, 169, 245, 200, 276
-0.992828, 207, 241, 222, 304
-0.99283, 65, 281, 96, 312
-0.992834, 333, 209, 364, 240
-0.992842, 293, 297, 324, 328
-0.992845, 261, 17, 292, 144
-0.992847, 113, 357, 144, 388
-0.992853, 145, 205, 176, 236
-0.992854, 345, 189, 375, 220
-0.992862, 261, 209, 292, 240
-0.992864, 217, 425, 248, 456
-0.992869, 33, 273, 64, 304
-0.992873, 221, 245, 252, 276
-0.992873, 21, 425, 52, 456
-0.992874, 205, 281, 236, 312
-0.992879, 189, 301, 220, 332
-0.992888, 137, 145, 168, 176
-0.992888, 157, 313, 188, 344
-0.992888, 1, 193, 32, 224
-0.992889, 21, 169, 52, 200
-0.992895, 317, 405, 348, 436
-0.992904, 37, 409, 68, 440
-0.992909, 285, 349, 316, 380
-0.992911, 49, 77, 80, 108
-0.992912, 225, 301, 256, 332
-0.992913, 1, 285, 32, 316
-0.992913, 9, 377, 40, 408
-0.99292, 49, 165, 80, 196
-0.992921, 1, 401, 32, 432
-0.992921, 33, 249, 64, 280
-0.992925, 113, 89, 240, 152
-0.992929, 225, 457, 256, 488
-0.992931, 33, 341, 64, 372
-0.992933, 229, 41, 260, 72
-0.992934, 245, 41, 276, 72
-0.992936, 237, 297, 268, 328
-0.992978, 199, 241, 214, 304
-0.992993, 1, 217, 375, 280
-0.993094, 331, 241, 346, 304
-0.993124, 177, 337, 208, 464
-0.993147, 199, 281, 214, 344
-0.993149, 181, 33, 212, 160
-0.993153, 129, 301, 256, 332
-0.993204, 181, 289, 196, 352
-0.993206, 129, 145, 375, 208
-0.993228, 121, 193, 152, 320
-0.993245, 15, 409, 30, 472
-0.993361, 109, 225, 140, 352
-0.993411, 209, 369, 272, 496
-0.993428, 3, 289, 18, 352
-0.993483, 33, 265, 48, 328
-0.993483, 161, 253, 288, 284
-0.993495, 97, 41, 352, 104
-0.99352, 227, 281, 242, 344
-0.993566, 315, 385, 330, 448
-0.993576, 11, 297, 26, 360
-0.993579, 181, 249, 196, 312
-0.993602, 1, 49, 375, 112
-0.993603, 193, 249, 208, 312
-0.9937, 249, 161, 280, 288
-0.993704, 161, 289, 288, 320
-0.993712, 129, 433, 256, 496
-0.993715, 23, 233, 38, 296
-0.99372, 1, 361, 256, 424
-0.993731, 109, 161, 140, 288
-0.993733, 209, 297, 336, 328
-0.993735, 7, 337, 22, 400
-0.993773, 137, 33, 168, 160
-0.993789, 9, 1, 40, 128
-0.993818, 25, 425, 40, 488
-0.993822, 19, 337, 34, 400
-0.993829, 129, 121, 375, 184
-0.993843, 165, 33, 196, 160
-0.993852, 313, 1, 375, 128
-0.993921, 301, 425, 316, 488
-0.993942, 1, 337, 256, 400
-0.99397, 97, 225, 128, 352
-0.993978, 1, 121, 256, 184
-0.99406, 1, 385, 16, 448
-0.99406, 193, 297, 208, 360
-0.994101, 1, 461, 128, 492
-0.994102, 171, 257, 186, 320
-0.994125, 1, 81, 128, 112
-0.994181, 23, 401, 38, 464
-0.994186, 323, 265, 338, 328
-0.994204, 185, 209, 200, 272
-0.994218, 145, 265, 272, 296
-0.994218, 267, 209, 282, 272
-0.994224, 177, 221, 304, 252
-0.994245, 161, 209, 288, 240
-0.994247, 161, 241, 288, 272
-0.994254, 217, 241, 232, 304
-0.994292, 339, 161, 354, 224
-0.9943, 9, 401, 24, 464
-0.994303, 1, 241, 128, 272
-0.994306, 23, 265, 38, 328
-0.994313, 241, 253, 368, 284
-0.994329, 233, 281, 248, 344
-0.99435, 29, 225, 44, 288
-0.994352, 57, 369, 120, 496
-0.994358, 19, 369, 34, 432
-0.994375, 1, 65, 128, 96
-0.994398, 13, 273, 28, 336
-0.994412, 129, 433, 375, 496
-0.994414, 273, 209, 288, 272
-0.994438, 29, 401, 44, 464
-0.994462, 293, 409, 308, 472
-0.994469, 11, 81, 26, 144
-0.994497, 197, 217, 212, 280
-0.99451, 49, 41, 176, 72
-0.994533, 21, 73, 36, 136
-0.994557, 9, 361, 24, 424
-0.99456, 339, 209, 354, 272
-0.994564, 205, 265, 220, 328
-0.994571, 161, 317, 288, 348
-0.994585, 1, 185, 375, 248
-0.994592, 97, 213, 224, 244
-0.994594, 209, 317, 336, 348
-0.994617, 17, 329, 144, 360
-0.994646, 129, 197, 256, 228
-0.99465, 331, 217, 346, 280
-0.994663, 31, 321, 46, 384
-0.994692, 1, 93, 128, 124
-0.994701, 353, 297, 368, 360
-0.99471, 191, 209, 206, 272
-0.994726, 1, 425, 16, 488
-0.994732, 9, 425, 24, 488
-0.994736, 27, 73, 42, 136
-0.994755, 345, 193, 360, 256
-0.99476, 1, 337, 16, 400
-0.994764, 221, 417, 236, 480
-0.99478, 217, 265, 232, 328
-0.994791, 313, 289, 328, 352
-0.994793, 1, 393, 256, 456
-0.994805, 223, 249, 238, 312
-0.994823, 97, 409, 224, 472
-0.994833, 305, 329, 320, 392
-0.994843, 331, 289, 346, 352
-0.994845, 187, 233, 202, 296
-0.994858, 309, 393, 324, 456
-0.994873, 81, 285, 208, 316
-0.994895, 21, 313, 36, 376
-0.994935, 33, 181, 160, 212
-0.994936, 209, 237, 336, 268
-0.994953, 113, 145, 240, 176
-0.994954, 341, 297, 356, 360
-0.994958, 47, 401, 62, 464
-0.99496, 319, 409, 334, 472
-0.994964, 283, 209, 298, 272
-0.994966, 31, 297, 46, 360
-0.99497, 1, 153, 375, 216
-0.994972, 215, 297, 230, 360
-0.994975, 305, 297, 320, 360
-0.994992, 3, 73, 18, 136
-0.994996, 43, 73, 58, 136
-0.994997, 349, 153, 364, 216
-0.995002, 39, 265, 54, 328
-0.995004, 275, 433, 290, 496
-0.995007, 33, 433, 48, 496
-0.995008, 1, 337, 375, 400
-0.995018, 113, 185, 240, 216
-0.995021, 179, 217, 194, 280
-0.995023, 325, 217, 340, 280
-0.995023, 187, 257, 202, 320
-0.995034, 225, 73, 352, 136
-0.995049, 37, 241, 52, 304
-0.995054, 209, 421, 336, 452
-0.995066, 1, 17, 375, 80
-0.995077, 193, 273, 208, 336
-0.995099, 1, 229, 128, 260
-0.995125, 175, 305, 190, 368
-0.995127, 215, 425, 230, 488
-0.995142, 49, 393, 176, 456
-0.995146, 1, 289, 128, 320
-0.995164, 299, 329, 314, 392
-0.9952, 289, 313, 304, 376
-0.995202, 41, 401, 56, 464
-0.99521, 35, 401, 50, 464
-0.995228, 193, 225, 224, 480
-0.995237, 281, 433, 296, 496
-0.995239, 7, 265, 22, 328
-0.995247, 261, 217, 276, 280
-0.995252, 41, 177, 56, 240
-0.995254, 81, 309, 208, 340
-0.99526, 191, 177, 206, 240
-0.995263, 231, 257, 246, 320
-0.995304, 321, 193, 352, 448
-0.995308, 11, 217, 26, 280
-0.995319, 241, 209, 368, 240
-0.995341, 1, 361, 375, 424
-0.995344, 97, 169, 224, 200
-0.995347, 1, 169, 128, 200
-0.995349, 17, 249, 32, 312
-0.99536, 191, 321, 206, 384
-0.99536, 65, 281, 80, 344
-0.995363, 187, 129, 202, 192
-0.995377, 81, 201, 208, 232
-0.995377, 41, 289, 56, 352
-0.995388, 197, 137, 212, 200
-0.995389, 113, 249, 240, 280
-0.99539, 97, 261, 224, 292
-0.995394, 25, 369, 40, 432
-0.995394, 25, 289, 40, 352
-0.995399, 353, 321, 368, 384
-0.995399, 19, 433, 34, 496
-0.995404, 289, 209, 304, 272
-0.995405, 241, 221, 368, 252
-0.995415, 33, 97, 288, 160
-0.995428, 145, 409, 272, 472
-0.995429, 49, 77, 176, 108
-0.995432, 1, 361, 16, 424
-0.995435, 347, 297, 362, 360
-0.995439, 115, 321, 130, 384
-0.995454, 1, 193, 16, 256
-0.995455, 225, 273, 352, 304
-0.995456, 335, 185, 350, 248
-0.995458, 49, 61, 176, 92
-0.995474, 1, 317, 128, 348
-0.995484, 177, 129, 208, 384
-0.995488, 129, 361, 375, 424
-0.99551, 65, 273, 192, 304
-0.995526, 13, 329, 28, 392
-0.995526, 241, 185, 368, 216
-0.995529, 361, 337, 375, 400
-0.995552, 167, 297, 182, 360
-0.995552, 315, 329, 330, 392
-0.99559, 325, 297, 340, 360
-0.99562, 31, 169, 46, 232
-0.995621, 211, 265, 226, 328
-0.995624, 329, 417, 344, 480
-0.995632, 177, 197, 304, 228
-0.995637, 209, 313, 224, 376
-0.995654, 217, 225, 248, 480
-0.99566, 57, 1, 72, 64
-0.995665, 21, 185, 36, 248
-0.995665, 1, 393, 375, 456
-0.995685, 1, 81, 375, 144
-0.99571, 67, 161, 82, 224
-0.995734, 129, 401, 375, 464
-0.995735, 193, 329, 320, 360
-0.995742, 267, 249, 282, 312
-0.995767, 43, 225, 58, 288
-0.995768, 325, 241, 340, 304
-0.995768, 225, 445, 352, 476
-0.995771, 239, 289, 254, 352
-0.995773, 35, 217, 50, 280
-0.995788, 241, 285, 368, 316
-0.995788, 13, 225, 44, 480
-0.99581, 1, 265, 128, 296
-0.995813, 1, 425, 375, 488
-0.995822, 225, 397, 352, 428
-0.995828, 177, 433, 304, 464
-0.995836, 241, 465, 368, 496
-0.995836, 241, 197, 368, 228
-0.995839, 17, 277, 144, 308
-0.995846, 129, 1, 375, 64
-0.995864, 129, 49, 256, 80
-0.995892, 17, 217, 144, 248
-0.99591, 97, 225, 224, 256
-0.99591, 17, 341, 144, 372
-0.995945, 81, 297, 208, 328
-0.995957, 1, 253, 128, 284
-0.995969, 309, 257, 340, 500
-0.995972, 241, 333, 368, 364
-0.996041, 49, 165, 176, 196
-0.996074, 65, 237, 192, 268
-0.996079, 97, 349, 224, 380
-0.996096, 33, 25, 160, 56
-0.996112, 33, 305, 160, 336
-0.996144, 33, 257, 64, 500
-0.996202, 129, 89, 375, 152
-0.996217, 1, 449, 128, 480
-0.99624, 241, 433, 368, 464
-0.996255, 65, 249, 192, 280
-0.996274, 177, 453, 304, 484
-0.996295, 205, 257, 236, 500
-0.9963, 341, 161, 372, 416
-0.996337, 33, 1, 160, 32
-0.996382, 97, 333, 224, 364
-0.996413, 1, 45, 128, 76
-0.996422, 65, 153, 192, 184
-0.996428, 113, 385, 240, 448
-0.996443, 177, 257, 208, 500
-0.99646, 45, 1, 76, 256
-0.996466, 129, 37, 256, 68
-0.996467, 1, 65, 32, 320
-0.996509, 177, 181, 304, 212
-0.996523, 17, 361, 144, 392
-0.996535, 29, 65, 60, 320
-0.996539, 209, 41, 336, 72
-0.996542, 165, 129, 196, 384
-0.996562, 321, 421, 336, 452
-0.996576, 201, 257, 216, 288
-0.996581, 209, 409, 336, 440
-0.996601, 1, 425, 128, 456
-0.996604, 33, 13, 160, 44
-0.996627, 21, 81, 36, 112
-0.996641, 145, 161, 176, 416
-0.996736, 3, 85, 18, 116
-0.996795, 35, 65, 50, 96
-0.996814, 241, 157, 368, 188
-0.99682, 177, 169, 304, 200
-0.996833, 325, 405, 340, 436
-0.996847, 303, 405, 318, 436
-0.996849, 113, 237, 240, 268
-0.996861, 221, 265, 236, 296
-0.996865, 177, 57, 304, 88
-0.996871, 113, 133, 240, 164
-0.996872, 113, 157, 240, 188
-0.996883, 177, 1, 304, 32
-0.996896, 45, 177, 60, 208
-0.996902, 25, 253, 40, 284
-0.996905, 203, 269, 218, 300
-0.996915, 267, 217, 282, 248
-0.996922, 35, 265, 50, 296
-0.996932, 145, 329, 272, 360
-0.996938, 241, 361, 368, 392
-0.996941, 311, 425, 326, 456
-0.99696, 197, 321, 212, 352
-0.996981, 177, 89, 304, 120
-0.996985, 35, 277, 50, 308
-0.996988, 295, 421, 310, 452
-0.99699, 315, 401, 330, 432
-0.996999, 15, 81, 30, 112
-0.997024, 241, 173, 368, 204
-0.997027, 177, 149, 304, 180
-0.99703, 49, 89, 176, 120
-0.997031, 3, 313, 18, 344
-0.997033, 331, 253, 346, 284
-0.997039, 303, 433, 318, 464
-0.997041, 13, 65, 44, 320
-0.997054, 265, 225, 296, 480
-0.997066, 195, 277, 210, 308
-0.99708, 1, 437, 128, 468
-0.997085, 173, 289, 188, 320
-0.997095, 203, 241, 218, 272
-0.997107, 17, 433, 32, 464
-0.997127, 65, 465, 192, 496
-0.997134, 189, 289, 204, 320
-0.997142, 51, 177, 66, 208
-0.997168, 27, 85, 42, 116
-0.997169, 275, 461, 290, 492
-0.997174, 179, 289, 194, 320
-0.997174, 27, 437, 42, 468
-0.997179, 1, 129, 375, 192
-0.997179, 37, 77, 52, 108
-0.997179, 211, 269, 226, 300
-0.997188, 5, 297, 20, 328
-0.99719, 57, 33, 88, 288
-0.99719, 191, 317, 206, 348
-0.99719, 215, 321, 230, 352
-0.997198, 21, 93, 36, 124
-0.997211, 303, 417, 318, 448
-0.997221, 165, 257, 196, 500
-0.997225, 207, 317, 222, 348
-0.997225, 41, 285, 56, 316
-0.997234, 229, 257, 260, 500
-0.997235, 237, 293, 252, 324
-0.997236, 229, 317, 244, 348
-0.997249, 333, 257, 364, 500
-0.997253, 129, 65, 375, 128
-0.997256, 59, 173, 74, 204
-0.997258, 353, 329, 368, 360
-0.997262, 193, 133, 320, 164
-0.997267, 19, 373, 34, 404
-0.997271, 3, 325, 18, 356
-0.997276, 33, 161, 64, 416
-0.997277, 1, 193, 128, 224
-0.997287, 95, 461, 110, 492
-0.997288, 1, 225, 32, 480
-0.997292, 13, 305, 28, 336
-0.997296, 215, 433, 230, 464
-0.997305, 317, 97, 348, 352
-0.997312, 195, 253, 210, 284
-0.997332, 43, 81, 58, 112
-0.997339, 189, 129, 220, 384
-0.997349, 189, 301, 204, 332
-0.99736, 217, 129, 248, 384
-0.997362, 3, 341, 18, 372
-0.997379, 339, 169, 354, 200
-0.997389, 13, 381, 28, 412
-0.997391, 1, 413, 128, 444
-0.997403, 241, 373, 368, 404
-0.997408, 205, 161, 236, 416
-0.997421, 235, 309, 250, 340
-0.997428, 9, 85, 24, 116
-0.997432, 209, 249, 224, 280
-0.997438, 209, 29, 336, 60
-0.99744, 29, 277, 44, 308
-0.997445, 181, 309, 196, 340
-0.997445, 171, 273, 186, 304
-0.997445, 39, 181, 54, 212
-0.99745, 29, 229, 44, 260
-0.997458, 273, 217, 288, 248
-0.99747, 299, 341, 314, 372
-0.997471, 23, 425, 38, 456
-0.997479, 9, 433, 24, 464
-0.997479, 259, 213, 274, 244
-0.997487, 189, 257, 204, 288
-0.997503, 197, 289, 212, 320
-0.997504, 1, 105, 375, 168
-0.997512, 9, 397, 24, 428
-0.997513, 15, 93, 30, 124
-0.99752, 173, 257, 188, 288
-0.997522, 343, 209, 358, 240
-0.997527, 19, 237, 34, 268
-0.997529, 289, 425, 304, 456
-0.997535, 45, 225, 76, 480
-0.997536, 227, 285, 242, 316
-0.997536, 259, 225, 274, 256
-0.997537, 187, 241, 202, 272
-0.997539, 217, 309, 232, 340
-0.997542, 265, 241, 280, 272
-0.997543, 209, 385, 336, 416
-0.997549, 333, 213, 348, 244
-0.997553, 33, 137, 160, 168
-0.997554, 125, 193, 156, 448
-0.997559, 49, 261, 176, 292
-0.997563, 219, 445, 234, 476
-0.997572, 1, 401, 128, 432
-0.997583, 1, 389, 16, 420
-0.997585, 307, 293, 322, 324
-0.997589, 277, 193, 308, 448
-0.997589, 33, 205, 160, 236
-0.997592, 47, 405, 62, 436
-0.997592, 329, 97, 360, 352
-0.997595, 181, 277, 196, 308
-0.997597, 323, 269, 338, 300
-0.997603, 33, 177, 48, 208
-0.997604, 29, 97, 44, 128
-0.997607, 331, 265, 346, 296
-0.997615, 241, 137, 368, 168
-0.997621, 305, 393, 320, 424
-0.997633, 221, 429, 236, 460
-0.997634, 11, 365, 26, 396
-0.997635, 289, 225, 320, 480
-0.997636, 191, 209, 206, 240
-0.997636, 191, 329, 206, 360
-0.99764, 187, 129, 202, 160
-0.997646, 1, 117, 128, 148
-0.997653, 327, 417, 342, 448
-0.997662, 337, 201, 352, 232
-0.997669, 209, 345, 336, 376
-0.997673, 17, 417, 32, 448
-0.997676, 129, 25, 256, 56
-0.99768, 227, 305, 242, 336
-0.997701, 19, 453, 34, 484
-0.997705, 293, 461, 308, 492
-0.997706, 347, 197, 362, 228
-0.997713, 333, 289, 348, 320
-0.997715, 175, 313, 190, 344
-0.997715, 267, 229, 282, 260
-0.99773, 259, 237, 274, 268
-0.997731, 3, 433, 18, 464
-0.997732, 9, 341, 24, 372
-0.997733, 97, 97, 224, 128
-0.997734, 179, 257, 194, 288
-0.997735, 225, 121, 352, 152
-0.997747, 221, 321, 236, 352
-0.997748, 225, 253, 240, 284
-0.997748, 73, 453, 88, 484
-0.997751, 41, 165, 56, 196
-0.997751, 29, 265, 44, 296
-0.997757, 19, 397, 34, 428
-0.997758, 51, 165, 66, 196
-0.99776, 227, 269, 242, 300
-0.997761, 275, 233, 290, 264
-0.997762, 339, 221, 354, 252
-0.997762, 279, 213, 294, 244
-0.997776, 3, 217, 18, 248
-0.997778, 311, 389, 326, 420
-0.99778, 9, 221, 24, 252
-0.997781, 97, 369, 224, 400
-0.997782, 317, 433, 332, 464
-0.997785, 35, 229, 50, 260
-0.997785, 61, 225, 92, 480
-0.997787, 65, 289, 80, 320
-0.99779, 157, 1, 188, 256
-0.99779, 327, 429, 342, 460
-0.997828, 45, 97, 76, 352
-0.99784, 97, 77, 224, 108
-0.997851, 245, 1, 276, 256
-0.997864, 65, 125, 192, 156
-0.997878, 161, 361, 288, 392
-0.997879, 81, 453, 208, 484
-0.997918, 161, 121, 288, 152
-0.997987, 305, 161, 336, 416
-0.998041, 241, 225, 272, 480
-0.998091, 129, 437, 256, 468
-0.998097, 233, 1, 264, 256
-0.998098, 225, 53, 352, 84
-0.998111, 129, 453, 256, 484
-0.998116, 161, 465, 288, 496
-0.99814, 253, 225, 284, 480
-0.998146, 61, 129, 92, 384
-0.998158, 1, 157, 128, 188
-0.998177, 153, 257, 184, 500
-0.9982, 345, 257, 375, 500
-0.998242, 145, 1, 176, 256
-0.998252, 341, 65, 372, 320
-0.998271, 1, 377, 128, 408
-0.998272, 65, 109, 192, 140
-0.998291, 257, 33, 288, 288
-0.998365, 177, 13, 304, 44
-0.998366, 177, 321, 240, 336
-0.998372, 201, 65, 232, 320
-0.998377, 9, 89, 72, 104
-0.998383, 177, 279, 240, 294
-0.998392, 33, 87, 96, 102
-0.998398, 211, 241, 226, 368
-0.998414, 289, 423, 352, 438
-0.998418, 169, 261, 232, 276
-0.998432, 313, 333, 375, 348
-0.998435, 33, 93, 96, 108
-0.998437, 193, 257, 256, 272
-0.99844, 177, 249, 240, 264
-0.998441, 81, 25, 208, 56
-0.998444, 169, 273, 232, 288
-0.998447, 161, 303, 224, 318
-0.998447, 289, 403, 352, 418
-0.998449, 333, 241, 348, 368
-0.99845, 1, 79, 64, 94
-0.998452, 41, 179, 104, 194
-0.998458, 193, 271, 256, 286
-0.998458, 49, 91, 80, 106
-0.998458, 85, 461, 116, 476
-0.998459, 229, 129, 260, 384
-0.998459, 1, 289, 64, 304
-0.99846, 21, 71, 52, 86
-0.998461, 9, 95, 72, 110
-0.998461, 9, 197, 40, 212
-0.998462, 333, 193, 364, 208
-0.998463, 169, 327, 232, 342
-0.998463, 257, 247, 288, 262
-0.998463, 1, 77, 32, 92
-0.998465, 5, 231, 36, 246
-0.998467, 313, 309, 344, 324
-0.998467, 9, 295, 40, 310
-0.998469, 273, 223, 304, 238
-0.99847, 13, 273, 44, 288
-0.99847, 173, 131, 204, 146
-0.998471, 33, 263, 64, 278
-0.998472, 73, 225, 104, 480
-0.998472, 25, 403, 56, 418
-0.998472, 17, 181, 80, 196
-0.998472, 1, 341, 64, 356
-0.998473, 5, 465, 36, 480
-0.998473, 193, 263, 256, 278
-0.998473, 237, 249, 268, 264
-0.998473, 297, 429, 328, 444
-0.998474, 21, 93, 52, 108
-0.998474, 21, 339, 52, 354
-0.998474, 1, 409, 64, 424
-0.998475, 289, 415, 352, 430
-0.998476, 289, 429, 352, 444
-0.998477, 193, 327, 256, 342
-0.998477, 17, 187, 80, 202
-0.998477, 65, 291, 96, 306
-0.998478, 137, 313, 200, 328
-0.998478, 189, 271, 220, 286
-0.998478, 25, 189, 56, 204
-0.998479, 33, 275, 64, 290
-0.998479, 21, 243, 52, 258
-0.998481, 201, 285, 232, 300
-0.998482, 21, 259, 52, 274
-0.998485, 185, 213, 216, 228
-0.998486, 1, 287, 32, 302
-0.998486, 169, 325, 200, 340
-0.998486, 289, 409, 352, 424
-0.998487, 265, 237, 296, 252
-0.998487, 221, 459, 252, 474
-0.998488, 253, 215, 284, 230
-0.998489, 217, 267, 248, 282
-0.998489, 73, 279, 104, 294
-0.99849, 173, 137, 204, 152
-0.99849, 341, 171, 372, 186
-0.998491, 189, 289, 220, 304
-0.998491, 181, 313, 212, 328
-0.998491, 1, 301, 32, 316
-0.998492, 185, 309, 248, 324
-0.998492, 221, 259, 252, 274
-0.998492, 169, 285, 200, 300
-0.998492, 195, 257, 210, 384
-0.998493, 57, 181, 88, 196
-0.998494, 253, 229, 284, 244
-0.998494, 73, 473, 104, 488
-0.998495, 225, 321, 256, 336
-0.998495, 333, 187, 364, 202
-0.998495, 205, 441, 236, 456
-0.998495, 233, 465, 264, 480
-0.998495, 85, 467, 116, 482
-0.998496, 97, 61, 224, 92
-0.998497, 41, 289, 104, 304
-0.998497, 317, 289, 348, 304
-0.998499, 213, 273, 244, 288
-0.9985, 225, 51, 288, 66
-0.998501, 273, 437, 336, 452
-0.998503, 181, 331, 212, 346
-0.998504, 137, 293, 200, 308
-0.998504, 17, 83, 48, 98
-0.998505, 25, 73, 88, 88
-0.998506, 145, 219, 208, 234
-0.998506, 225, 229, 288, 244
-0.998506, 5, 345, 36, 360
-0.998506, 9, 307, 72, 322
-0.998506, 1, 385, 32, 400
-0.998507, 185, 303, 248, 318
-0.998507, 273, 471, 304, 486
-0.998508, 161, 297, 224, 312
-0.998508, 249, 219, 312, 234
-0.998509, 249, 467, 280, 482
-0.99851, 25, 409, 56, 424
-0.998511, 185, 289, 248, 304
-0.998511, 33, 81, 96, 96
-0.998512, 13, 237, 44, 252
-0.998512, 73, 453, 104, 468
-0.998514, 193, 279, 224, 294
-0.998515, 161, 255, 224, 270
-0.998515, 173, 303, 204, 318
-0.998517, 177, 243, 240, 258
-0.998518, 181, 147, 212, 162
-0.998518, 201, 259, 232, 274
-0.998519, 1, 99, 32, 114
-0.998519, 265, 225, 328, 240
-0.998521, 169, 267, 232, 282
-0.998522, 41, 287, 72, 302
-0.998522, 185, 301, 216, 316
-0.998523, 161, 333, 224, 348
-0.998524, 257, 237, 320, 252
-0.998524, 3, 305, 18, 432
-0.998525, 201, 331, 232, 346
-0.998525, 281, 463, 312, 478
-0.998525, 1, 227, 64, 242
-0.998526, 293, 409, 324, 424
-0.998526, 25, 283, 88, 298
-0.998526, 5, 435, 36, 450
-0.998528, 185, 295, 248, 310
-0.998528, 9, 241, 72, 256
-0.998528, 321, 271, 352, 286
-0.998529, 1, 335, 64, 350
-0.998529, 25, 285, 56, 300
-0.99853, 37, 187, 68, 202
-0.99853, 241, 463, 304, 478
-0.998532, 33, 93, 64, 108
-0.998533, 201, 265, 232, 280
-0.998533, 289, 397, 352, 412
-0.998533, 145, 287, 208, 302
-0.998535, 25, 291, 56, 306
-0.998535, 169, 261, 200, 276
-0.998537, 273, 457, 304, 472
-0.998537, 185, 253, 216, 268
-0.998537, 225, 293, 288, 308
-0.998538, 121, 321, 184, 336
-0.998538, 169, 315, 232, 330
-0.998538, 145, 325, 208, 340
-0.998538, 145, 319, 208, 334
-0.99854, 313, 413, 344, 428
-0.99854, 65, 285, 96, 300
-0.99854, 17, 263, 80, 278
-0.998541, 313, 257, 328, 384
-0.998541, 257, 221, 288, 236
-0.998542, 25, 269, 56, 284
-0.998542, 217, 303, 248, 318
-0.998544, 145, 213, 208, 228
-0.998544, 17, 173, 80, 188
-0.998545, 317, 253, 348, 268
-0.998545, 9, 329, 72, 344
-0.998545, 145, 145, 208, 160
-0.998545, 1, 73, 64, 88
-0.998545, 297, 435, 328, 450
-0.998546, 169, 311, 200, 326
-0.998546, 21, 279, 52, 294
-0.998546, 265, 427, 328, 442
-0.998546, 137, 299, 200, 314
-0.998546, 185, 241, 200, 368
-0.998547, 49, 463, 112, 478
-0.998547, 29, 181, 60, 196
-0.998549, 217, 273, 280, 288
-0.998549, 73, 459, 104, 474
-0.99855, 257, 231, 320, 246
-0.99855, 201, 251, 264, 266
-0.99855, 9, 295, 72, 310
-0.99855, 125, 1, 156, 256
-0.998551, 137, 271, 200, 286
-0.998551, 9, 467, 72, 482
-0.998551, 1, 473, 64, 488
-0.998552, 17, 317, 80, 332
-0.998553, 217, 287, 248, 302
-0.998554, 1, 315, 32, 330
-0.998554, 297, 339, 360, 354
-0.998554, 17, 301, 80, 316
-0.998555, 341, 331, 372, 346
-0.998556, 9, 439, 72, 454
-0.998557, 257, 243, 320, 258
-0.998557, 1, 403, 64, 418
-0.998558, 313, 485, 375, 500
-0.998558, 225, 45, 288, 60
-0.998558, 305, 435, 368, 450
-0.998561, 49, 455, 112, 470
-0.998561, 321, 277, 352, 292
-0.998561, 185, 451, 248, 466
-0.998563, 169, 151, 232, 166
-0.998563, 145, 207, 208, 222
-0.998563, 137, 277, 200, 292
-0.998563, 281, 467, 344, 482
-0.998563, 193, 237, 256, 252
-0.998563, 225, 217, 288, 232
-0.998564, 25, 67, 88, 82
-0.998564, 49, 295, 112, 310
-0.998564, 321, 265, 352, 280
-0.998564, 313, 141, 375, 156
-0.998564, 23, 241, 38, 368
-0.998564, 197, 319, 228, 334
-0.998566, 233, 249, 296, 264
-0.998567, 185, 213, 248, 228
-0.998567, 217, 267, 280, 282
-0.998567, 273, 257, 336, 272
-0.998569, 181, 277, 212, 292
-0.99857, 297, 297, 360, 312
-0.998571, 65, 471, 128, 486
-0.998571, 293, 415, 324, 430
-0.998571, 1, 479, 64, 494
-0.998571, 225, 39, 288, 54
-0.998572, 145, 161, 208, 176
-0.998573, 1, 347, 64, 362
-0.998573, 1, 273, 64, 288
-0.998573, 337, 177, 368, 192
-0.998573, 265, 215, 296, 230
-0.998573, 209, 321, 272, 336
-0.998574, 1, 323, 64, 338
-0.998575, 217, 327, 248, 342
-0.998576, 181, 325, 212, 340
-0.998576, 217, 243, 280, 258
-0.998576, 217, 257, 280, 272
-0.998577, 65, 81, 128, 96
-0.998577, 153, 185, 216, 200
-0.998578, 169, 297, 200, 312
-0.998578, 297, 235, 360, 250
-0.998579, 185, 319, 216, 334
-0.998579, 137, 307, 200, 322
-0.99858, 177, 33, 208, 288
-0.99858, 321, 259, 352, 274
-0.99858, 185, 333, 248, 348
-0.998581, 113, 13, 240, 44
-0.998581, 313, 431, 344, 446
-0.998582, 153, 139, 216, 154
-0.998583, 9, 323, 40, 338
-0.998583, 273, 363, 336, 378
-0.998583, 69, 1, 100, 256
-0.998583, 217, 279, 280, 294
-0.998584, 197, 253, 228, 268
-0.998584, 225, 223, 288, 238
-0.998585, 309, 425, 340, 440
-0.998586, 41, 221, 104, 236
-0.998589, 161, 309, 224, 324
-0.998589, 35, 257, 50, 384
-0.998589, 17, 251, 80, 266
-0.998591, 41, 185, 104, 200
-0.998591, 281, 213, 344, 228
-0.998592, 201, 461, 264, 476
-0.998594, 273, 251, 336, 266
-0.998595, 1, 357, 64, 372
-0.998598, 293, 421, 324, 436
-0.998609, 269, 465, 300, 480
-0.998611, 45, 181, 76, 196
-0.998617, 241, 81, 368, 112
-0.99862, 173, 319, 204, 334
-0.998622, 185, 259, 216, 274
-0.998623, 313, 419, 344, 434
-0.998627, 213, 321, 244, 336
-0.998627, 181, 283, 212, 298
-0.99863, 351, 289, 366, 416
-0.99863, 5, 83, 36, 98
-0.998634, 9, 321, 24, 448
-0.998637, 217, 257, 232, 384
-0.99865, 201, 271, 232, 286
-0.998656, 225, 257, 240, 384
-0.998656, 309, 405, 340, 420
-0.998662, 29, 87, 60, 102
-0.998667, 285, 429, 316, 444
-0.998674, 169, 291, 200, 306
-0.998677, 25, 77, 56, 92
-0.998687, 345, 289, 360, 416
-0.99869, 109, 193, 140, 448
-0.998691, 15, 289, 30, 416
-0.998694, 9, 93, 40, 108
-0.9987, 185, 193, 200, 320
-0.998701, 85, 129, 116, 384
-0.998705, 305, 399, 336, 414
-0.998706, 321, 321, 336, 448
-0.998712, 191, 209, 206, 336
-0.998713, 205, 279, 236, 294
-0.998714, 205, 241, 220, 368
-0.998718, 335, 177, 350, 304
-0.99872, 357, 289, 372, 416
-0.998724, 179, 225, 194, 352
-0.998724, 323, 257, 338, 384
-0.998734, 327, 321, 342, 448
-0.998735, 201, 325, 232, 340
-0.998744, 293, 337, 308, 464
-0.998748, 307, 289, 322, 416
-0.998751, 253, 129, 284, 384
-0.998756, 97, 193, 128, 448
-0.99876, 57, 33, 72, 160
-0.998761, 73, 129, 104, 384
-0.998762, 187, 289, 202, 416
-0.99877, 175, 273, 190, 400
-0.998785, 17, 241, 32, 368
-0.998798, 137, 257, 168, 500
-0.998821, 15, 369, 30, 496
-0.998831, 337, 113, 352, 240
-0.998848, 173, 209, 188, 336
-0.998851, 309, 337, 324, 464
-0.998859, 169, 289, 184, 416
-0.998863, 41, 65, 56, 192
-0.998866, 343, 113, 358, 240
-0.998869, 339, 273, 354, 400
-0.998871, 9, 273, 24, 400
-0.998873, 49, 145, 64, 272
-0.998881, 11, 225, 26, 352
-0.998888, 333, 321, 348, 448
-0.998888, 29, 257, 44, 384
-0.998891, 323, 369, 338, 496
-0.998897, 351, 129, 366, 256
-0.998899, 105, 65, 136, 320
-0.998906, 23, 369, 38, 496
-0.998907, 3, 353, 18, 480
-0.998908, 197, 209, 212, 336
-0.998912, 217, 33, 248, 288
-0.998921, 277, 209, 292, 336
-0.998922, 233, 241, 248, 368
-0.998931, 121, 97, 152, 352
-0.998933, 263, 209, 278, 336
-0.998935, 41, 273, 56, 400
-0.998939, 357, 337, 372, 464
-0.998945, 21, 305, 36, 432
-0.998945, 315, 321, 330, 448
-0.998947, 301, 289, 316, 416
-0.998949, 191, 129, 206, 256
-0.99895, 9, 369, 24, 496
-0.998952, 299, 337, 314, 464
-0.998971, 341, 177, 356, 304
-0.998975, 31, 321, 46, 448
-0.99898, 185, 113, 200, 240
-0.998984, 307, 241, 322, 368
-0.998988, 27, 193, 42, 320
-0.998989, 201, 289, 216, 416
-0.999006, 321, 209, 336, 336
-0.999009, 53, 81, 68, 208
-0.999011, 33, 193, 48, 320
-0.999012, 51, 17, 66, 144
-0.999012, 43, 145, 58, 272
-0.999013, 85, 225, 116, 480
-0.999015, 25, 81, 40, 208
-0.999023, 287, 337, 302, 464
-0.999023, 33, 49, 48, 176
-0.999027, 65, 257, 80, 384
-0.99903, 39, 193, 54, 320
-0.999032, 63, 33, 78, 160
-0.99904, 305, 65, 336, 320
-0.999046, 331, 129, 346, 256
-0.999055, 57, 241, 72, 368
-0.999056, 195, 305, 210, 432
-0.999057, 59, 81, 74, 208
-0.999058, 313, 209, 328, 336
-0.999063, 79, 257, 94, 384
-0.999063, 241, 129, 272, 384
-0.999064, 89, 1, 120, 256
-0.999065, 49, 193, 64, 320
-0.999066, 3, 257, 18, 384
-0.999068, 35, 369, 50, 496
-0.99907, 169, 129, 184, 256
-0.999074, 181, 305, 196, 432
-0.999083, 249, 33, 264, 160
-0.999084, 47, 81, 62, 208
-0.999084, 339, 321, 354, 448
-0.999099, 329, 193, 344, 320
-0.999099, 47, 289, 62, 416
-0.999108, 175, 161, 190, 288
-0.999111, 67, 209, 82, 336
-0.999126, 5, 209, 20, 336
-0.999129, 271, 209, 286, 336
-0.999131, 233, 289, 248, 416
-0.999138, 41, 337, 56, 464
-0.999143, 239, 17, 254, 144
-0.999144, 85, 225, 100, 352
-0.999144, 155, 129, 170, 256
-0.999144, 325, 1, 356, 256
-0.999147, 203, 193, 218, 320
-0.999149, 1, 81, 16, 208
-0.999151, 359, 145, 374, 272
-0.999151, 167, 225, 182, 352
-0.999155, 73, 209, 88, 336
-0.99916, 283, 209, 298, 336
-0.999162, 9, 65, 24, 192
-0.999167, 277, 65, 308, 320
-0.999167, 295, 289, 310, 416
-0.999175, 227, 209, 242, 336
-0.999179, 239, 241, 254, 368
-0.999181, 51, 241, 66, 368
-0.999181, 283, 161, 298, 288
-0.999181, 233, 49, 248, 176
-0.999183, 29, 369, 44, 496
-0.999183, 221, 209, 236, 336
-0.999185, 259, 33, 274, 160
-0.999188, 163, 161, 178, 288
-0.999191, 13, 161, 28, 288
-0.999198, 329, 369, 344, 496
-0.9992, 17, 65, 32, 192
-0.999209, 257, 209, 272, 336
-0.99921, 179, 113, 194, 240
-0.99922, 55, 161, 70, 288
-0.99924, 127, 1, 142, 128
-0.999248, 35, 145, 50, 272
-0.999249, 149, 129, 164, 256
-0.99925, 53, 289, 68, 416
-0.999258, 347, 177, 362, 304
-0.999261, 65, 81, 80, 208
-0.999262, 221, 305, 236, 432
-0.999286, 265, 129, 296, 384
-0.999305, 293, 65, 324, 320
-0.999547, 189, 33, 220, 288
-0.999587, 133, 97, 164, 352
-0.999657, 43, 409, 58, 424
-0.999657, 55, 185, 70, 200
-0.999659, 21, 79, 36, 94
-0.99966, 63, 291, 78, 306
-0.999661, 25, 443, 40, 458
-0.999662, 303, 401, 318, 416
-0.999662, 315, 435, 330, 450
-0.999664, 191, 287, 206, 302
-0.999664, 171, 277, 186, 292
-0.999666, 201, 335, 216, 350
-0.999666, 191, 209, 206, 224
-0.999666, 181, 317, 196, 332
-0.999666, 337, 209, 352, 224
-0.999667, 199, 303, 214, 318
-0.999667, 31, 179, 46, 194
-0.999668, 5, 315, 20, 330
-0.999668, 307, 309, 322, 324
-0.999669, 203, 283, 218, 298
-0.99967, 25, 259, 40, 274
-0.999671, 271, 219, 286, 234
-0.999671, 49, 407, 64, 422
-0.999671, 275, 473, 290, 488
-0.999672, 315, 421, 330, 436
-0.999672, 175, 317, 190, 332
-0.999673, 325, 411, 340, 426
-0.999674, 203, 317, 218, 332
-0.999675, 333, 219, 348, 234
-0.999675, 35, 79, 50, 94
-0.999676, 209, 269, 224, 284
-0.999676, 215, 269, 230, 284
-0.999677, 189, 309, 204, 324
-0.999679, 91, 455, 106, 470
-0.999679, 273, 461, 288, 476
-0.999679, 15, 313, 30, 328
-0.999681, 235, 459, 250, 474
-0.999683, 287, 463, 302, 478
-0.999684, 225, 269, 240, 284
-0.999684, 293, 461, 308, 476
-0.999685, 23, 253, 38, 268
-0.999686, 23, 437, 38, 452
-0.999687, 265, 221, 280, 236
-0.999687, 281, 467, 296, 482
-0.999688, 237, 295, 252, 310
-0.999688, 245, 465, 260, 480
-0.999689, 309, 433, 324, 448
-0.999689, 215, 437, 230, 452
-0.999691, 17, 437, 32, 452
-0.999691, 299, 417, 314, 432
-0.999692, 39, 183, 54, 198
-0.999692, 199, 277, 214, 292
-0.999694, 323, 257, 338, 272
-0.999694, 195, 321, 210, 336
-0.999694, 327, 419, 342, 434
-0.999695, 183, 291, 198, 306
-0.999695, 9, 305, 24, 320
-0.999695, 225, 453, 240, 468
-0.999695, 187, 135, 202, 150
-0.999695, 219, 431, 234, 446
-0.999696, 275, 213, 290, 228
-0.999697, 35, 269, 50, 284
-0.999698, 229, 459, 244, 474
-0.9997, 223, 327, 238, 342
-0.999701, 341, 171, 356, 186
-0.999701, 73, 455, 88, 470
-0.999703, 39, 283, 54, 298
-0.999703, 317, 401, 332, 416
-0.999704, 237, 315, 252, 330
-0.999704, 191, 327, 206, 342
-0.999704, 197, 285, 212, 300
-0.999705, 3, 97, 18, 112
-0.999705, 309, 395, 324, 410
-0.999706, 225, 279, 240, 294
-0.999706, 285, 431, 300, 446
-0.999707, 325, 429, 340, 444
-0.999707, 319, 429, 334, 444
-0.999707, 3, 299, 18, 314
-0.999708, 189, 303, 204, 318
-0.999708, 331, 255, 346, 270
-0.999708, 1, 343, 16, 358
-0.999709, 3, 325, 18, 340
-0.999709, 43, 89, 58, 104
-0.99971, 305, 423, 320, 438
-0.99971, 203, 245, 218, 260
-0.999714, 193, 257, 208, 272
-0.999715, 33, 91, 48, 106
-0.999716, 35, 67, 50, 82
-0.999718, 301, 409, 316, 424
-0.999727, 321, 435, 336, 450
-0.999728, 61, 181, 76, 196
-0.999732, 41, 83, 56, 98
-0.999732, 195, 263, 210, 278
-0.999734, 201, 261, 216, 276
-0.999735, 175, 291, 190, 306
-0.999736, 231, 319, 246, 334
-0.999736, 325, 405, 340, 420
-0.999737, 217, 329, 232, 344
-0.999737, 321, 423, 336, 438
-0.999738, 9, 383, 24, 398
-0.999738, 209, 321, 224, 336
-0.99974, 27, 93, 42, 108
-0.999741, 193, 279, 208, 294
-0.999741, 353, 331, 368, 346
-0.999744, 315, 395, 330, 410
-0.999749, 217, 323, 232, 338
-0.99975, 15, 95, 30, 110
-0.99975, 211, 327, 226, 342
-0.999752, 223, 321, 238, 336
-0.999752, 35, 277, 50, 292
-0.999753, 303, 433, 318, 448
-0.999755, 21, 85, 36, 100
-0.999756, 55, 179, 70, 194
-0.999757, 27, 83, 42, 98
-0.999759, 201, 329, 216, 344
-0.999764, 3, 83, 18, 98
-0.999766, 219, 281, 234, 296
-0.999768, 273, 467, 288, 482
-0.999774, 181, 283, 196, 298
-0.999781, 215, 275, 230, 290
-0.999783, 313, 427, 328, 442
-0.999788, 201, 323, 216, 338
-0.999789, 45, 181, 60, 196
-0.99979, 11, 87, 26, 102
-0.999791, 269, 213, 284, 228
-0.999796, 37, 73, 52, 88
-0.999799, 3, 91, 18, 106
-0.999822, 209, 277, 224, 292
-0.999834, 199, 255, 214, 270
-0.999842, 293, 425, 308, 440
-0.999852, 21, 93, 36, 108
-0.999868, 201, 271, 216, 286
-1.00065, 281, 17, 344, 144
