1878
-0.425009, 1, 65, 500, 320
-0.440816, 1, 1, 500, 333
-0.443184, 129, 1, 384, 333
-0.512051, 97, 65, 352, 320
-0.571333, 33, 1, 288, 333
-0.625189, 257, 1, 500, 333
-0.660701, 193, 65, 448, 320
-0.740333, 1, 33, 256, 288
-0.842162, 177, 33, 304, 288
-0.859423, 225, 65, 352, 320
-0.86335, 193, 1, 320, 333
-0.879679, 129, 33, 256, 288
-0.880739, 129, 1, 256, 333
-0.884178, 1, 113, 500, 240
-0.889781, 1, 1, 128, 333
-0.890761, 81, 1, 208, 333
-0.891172, 1, 193, 500, 320
-0.891613, 129, 97, 384, 224
-0.894588, 17, 33, 144, 288
-0.896336, 273, 1, 400, 333
-0.897425, 273, 65, 400, 320
-0.898347, 81, 33, 208, 288
-0.915048, 97, 177, 352, 304
-0.915315, 1, 65, 500, 192
-0.922922, 97, 49, 352, 176
-0.923984, 321, 1, 448, 333
-0.926029, 369, 1, 496, 333
-0.926399, 161, 129, 288, 256
-0.926425, 225, 129, 352, 256
-0.92735, 193, 145, 448, 272
-0.929965, 129, 81, 256, 208
-0.932843, 225, 81, 352, 208
-0.934419, 161, 97, 224, 224
-0.936513, 137, 97, 200, 224
-0.937877, 33, 113, 288, 240
-0.938515, 225, 129, 288, 256
-0.938921, 1, 1, 500, 128
-0.938982, 321, 65, 448, 320
-0.939872, 225, 97, 480, 224
-0.941689, 113, 129, 240, 256
-0.942028, 273, 129, 336, 256
-0.943015, 193, 113, 256, 240
-0.944799, 249, 81, 312, 208
-0.946038, 257, 177, 384, 304
-0.946127, 201, 49, 264, 176
-0.9464, 177, 65, 304, 192
-0.946838, 113, 129, 176, 256
-0.948096, 249, 129, 312, 256
-0.949079, 1, 49, 256, 176
-0.950167, 161, 177, 288, 304
-0.950711, 305, 129, 368, 256
-0.952083, 273, 129, 400, 256
-0.952138, 169, 49, 232, 176
-0.952199, 273, 81, 336, 208
-0.952225, 145, 49, 208, 176
-0.953225, 193, 49, 448, 176
-0.953354, 305, 177, 368, 304
-0.954493, 257, 185, 320, 248
-0.954534, 137, 145, 200, 272
-0.954576, 193, 209, 448, 333
-0.955158, 369, 33, 496, 288
-0.955194, 273, 193, 336, 320
-0.955576, 1, 1, 256, 128
-0.956974, 225, 65, 288, 192
-0.957286, 129, 33, 256, 160
-0.957336, 241, 73, 304, 136
-0.957382, 169, 145, 232, 208
-0.958234, 161, 145, 224, 272
-0.958558, 217, 185, 280, 248
-0.959143, 217, 193, 280, 320
-0.959843, 209, 193, 336, 320
-0.960024, 97, 177, 224, 304
-0.960186, 209, 145, 272, 208
-0.960384, 105, 177, 168, 304
-0.96107, 297, 177, 360, 240
-0.96119, 193, 1, 448, 128
-0.962402, 249, 193, 312, 320
-0.962707, 1, 177, 256, 304
-0.96331, 49, 49, 176, 176
-0.96387, 185, 161, 248, 288
-0.963955, 273, 161, 336, 224
-0.964023, 273, 113, 336, 176
-0.964108, 65, 129, 192, 256
-0.964532, 113, 137, 176, 200
-0.965337, 137, 145, 200, 208
-0.966087, 249, 145, 312, 208
-0.967075, 105, 177, 168, 240
-0.967145, 281, 137, 344, 200
-0.967516, 305, 81, 432, 208
-0.968076, 137, 105, 200, 168
-0.968658, 177, 17, 304, 144
-0.968694, 321, 145, 448, 272
-0.969303, 313, 153, 376, 216
-0.969786, 217, 73, 280, 136
-0.970149, 233, 33, 296, 288
-0.97024, 265, 89, 328, 152
-0.970319, 201, 33, 264, 288
-0.970334, 177, 185, 240, 248
-0.970346, 265, 65, 328, 320
-0.970435, 185, 73, 248, 136
-0.970927, 305, 209, 432, 333
-0.970953, 81, 1, 208, 128
-0.971146, 209, 121, 272, 184
-0.971147, 225, 129, 352, 192
-0.97132, 249, 33, 312, 160
-0.971636, 177, 145, 304, 208
-0.972132, 225, 49, 288, 112
-0.972176, 225, 177, 352, 240
-0.972448, 129, 177, 192, 240
-0.972461, 297, 81, 360, 208
-0.972817, 209, 73, 336, 136
-0.972825, 177, 185, 304, 248
-0.972888, 105, 49, 168, 176
-0.973222, 209, 113, 240, 240
-0.973239, 145, 97, 176, 224
-0.973252, 1, 33, 64, 160
-0.973441, 145, 81, 208, 144
-0.973752, 145, 81, 272, 144
-0.973812, 1, 49, 128, 176
-0.974352, 189, 97, 220, 224
-0.974359, 49, 177, 176, 304
-0.974766, 233, 129, 264, 256
-0.974987, 213, 145, 244, 208
-0.975063, 201, 49, 264, 112
-0.975087, 241, 97, 304, 160
-0.975097, 153, 177, 216, 240
-0.975132, 269, 65, 300, 192
-0.97528, 261, 129, 292, 256
-0.975294, 221, 129, 252, 256
-0.975351, 145, 145, 176, 272
-0.975422, 197, 145, 228, 208
-0.975436, 165, 97, 196, 224
-0.975445, 317, 129, 348, 256
-0.975843, 313, 201, 376, 264
-0.975875, 209, 105, 336, 168
-0.97601, 105, 33, 168, 288
-0.976085, 225, 145, 256, 208
-0.97619, 245, 129, 276, 256
-0.976251, 185, 113, 248, 176
-0.976319, 97, 145, 224, 208
-0.976423, 161, 105, 224, 168
-0.976462, 289, 105, 320, 168
-0.976465, 225, 33, 352, 160
-0.97662, 281, 129, 312, 256
-0.97666, 245, 185, 276, 248
-0.976661, 233, 121, 296, 184
-0.976844, 257, 185, 288, 248
-0.976882, 281, 201, 344, 264
-0.977019, 97, 1, 352, 128
-0.97708, 97, 177, 224, 240
-0.977254, 265, 73, 296, 136
-0.977431, 17, 1, 144, 128
-0.977465, 89, 129, 152, 256
-0.977522, 269, 185, 300, 248
-0.977572, 329, 129, 392, 256
-0.977621, 321, 145, 352, 208
-0.977631, 1, 41, 64, 104
-0.977698, 225, 17, 288, 144
-0.977729, 293, 97, 324, 224
-0.977943, 233, 185, 264, 248
-0.978043, 113, 113, 176, 176
-0.978227, 249, 81, 280, 208
-0.978354, 1, 209, 128, 333
-0.978401, 145, 33, 208, 288
-0.978607, 89, 145, 152, 208
-0.978872, 313, 177, 344, 240
-0.978918, 301, 121, 332, 184
-0.97893, 281, 81, 312, 208
-0.979063, 285, 185, 316, 248
-0.979072, 225, 153, 352, 216
-0.979142, 273, 17, 400, 144
-0.979301, 177, 145, 208, 208
-0.979322, 245, 73, 276, 136
-0.979359, 261, 145, 292, 208
-0.979389, 177, 97, 208, 224
-0.979485, 133, 113, 164, 240
-0.979554, 257, 201, 384, 264
-0.979557, 249, 145, 280, 208
-0.979646, 181, 49, 212, 176
-0.979652, 297, 241, 360, 304
-0.979735, 153, 1, 216, 128
-0.979754, 129, 113, 256, 176
-0.9799, 305, 129, 336, 256
-0.980068, 273, 161, 400, 224
-0.98013, 177, 33, 240, 288
-0.980217, 161, 57, 224, 120
-0.980264, 33, 1, 96, 128
-0.980288, 217, 185, 248, 248
-0.980406, 289, 65, 352, 320
-0.980431, 221, 81, 252, 208
-0.980453, 201, 65, 232, 192
-0.980507, 145, 105, 176, 168
-0.980737, 337, 1, 464, 128
-0.98075, 65, 33, 128, 288
-0.980966, 185, 1, 248, 128
-0.980986, 209, 97, 272, 160
-0.981036, 261, 209, 292, 333
-0.981099, 329, 193, 392, 320
-0.981141, 321, 81, 384, 208
-0.981265, 25, 49, 88, 176
-0.981635, 161, 57, 288, 120
-0.981849, 305, 89, 368, 152
-0.981939, 281, 81, 312, 144
-0.981965, 121, 129, 152, 256
-0.982048, 329, 249, 392, 312
-0.982313, 165, 145, 196, 272
-0.982432, 297, 185, 328, 248
-0.982624, 237, 153, 268, 216
-0.982628, 265, 57, 328, 120
-0.982813, 153, 145, 184, 208
-0.982827, 233, 49, 264, 176
-0.98293, 129, 1, 192, 128
-0.982953, 321, 161, 448, 224
-0.982986, 241, 193, 272, 320
-0.983, 73, 49, 136, 176
-0.983099, 129, 137, 160, 200
-0.983182, 281, 193, 312, 320
-0.98321, 213, 33, 244, 160
-0.983246, 157, 49, 188, 176
-0.983336, 353, 161, 416, 288
-0.983461, 297, 273, 360, 333
-0.983462, 301, 97, 332, 160
-0.983562, 321, 177, 384, 240
-0.98359, 257, 209, 320, 272
-0.983663, 293, 145, 324, 272
-0.983737, 309, 81, 340, 208
-0.98375, 145, 185, 176, 248
-0.983816, 313, 65, 376, 320
-0.983853, 309, 193, 340, 320
-0.983939, 329, 145, 360, 272
-0.983953, 289, 89, 416, 152
-0.983957, 193, 177, 224, 240
-0.984019, 341, 201, 372, 264
-0.984035, 289, 65, 352, 128
-0.984212, 177, 1, 240, 333
-0.984245, 185, 145, 216, 272
-0.984268, 181, 177, 212, 240
-0.984301, 129, 57, 192, 120
-0.984326, 233, 209, 296, 272
-0.984413, 169, 49, 200, 176
-0.9845, 153, 201, 216, 264
-0.984541, 205, 177, 236, 240
-0.984568, 49, 49, 112, 176
-0.984616, 237, 129, 268, 192
-0.984635, 1, 1, 64, 256
-0.984911, 233, 73, 264, 136
-0.984944, 345, 225, 408, 288
-0.98503, 385, 1, 448, 128
-0.985049, 273, 33, 336, 160
-0.985072, 165, 177, 196, 240
-0.985113, 165, 145, 196, 208
-0.985256, 409, 1, 472, 128
-0.985349, 1, 129, 128, 256
-0.985467, 273, 137, 400, 200
-0.985488, 117, 145, 148, 208
-0.985561, 285, 161, 316, 224
-0.985582, 197, 145, 228, 272
-0.985584, 113, 177, 144, 240
-0.985668, 265, 273, 328, 333
-0.985695, 273, 145, 304, 208
-0.985804, 73, 1, 136, 128
-0.986001, 297, 209, 328, 333
-0.986078, 273, 65, 400, 128
-0.986089, 33, 57, 96, 120
-0.986094, 133, 177, 164, 240
-0.986104, 105, 201, 168, 264
-0.986123, 329, 169, 360, 232
-0.986161, 209, 1, 272, 333
-0.986193, 141, 145, 172, 208
-0.986217, 81, 201, 208, 264
-0.986247, 369, 161, 496, 288
-0.986359, 165, 73, 196, 136
-0.986367, 337, 193, 368, 320
-0.98639, 229, 177, 260, 304
-0.986436, 153, 81, 184, 144
-0.986459, 337, 153, 400, 216
-0.986567, 65, 1, 128, 333
-0.986667, 209, 209, 336, 272
-0.986851, 305, 129, 368, 192
-0.987065, 109, 145, 140, 272
-0.987102, 65, 57, 192, 120
-0.987132, 81, 177, 144, 304
-0.987192, 129, 193, 192, 320
-0.987207, 33, 25, 96, 88
-0.987287, 145, 49, 176, 176
-0.987309, 297, 33, 360, 160
-0.98737, 257, 265, 384, 328
-0.987403, 129, 201, 192, 264
-0.987485, 301, 161, 332, 224
-0.987557, 241, 273, 304, 333
-0.987719, 241, 49, 272, 112
-0.98783, 113, 57, 240, 120
-0.987932, 185, 65, 216, 128
-0.987945, 121, 1, 184, 333
-0.988006, 209, 177, 240, 304
-0.988081, 153, 1, 216, 333
-0.988093, 209, 49, 336, 112
-0.988132, 133, 161, 164, 288
-0.988365, 273, 113, 400, 176
-0.988407, 321, 233, 448, 296
-0.988412, 9, 1, 72, 333
-0.988414, 129, 113, 384, 176
-0.988417, 377, 161, 440, 224
-0.988562, 249, 1, 312, 333
-0.988633, 125, 65, 156, 192
-0.988645, 49, 177, 176, 240
-0.988751, 305, 193, 432, 256
-0.988824, 225, 85, 288, 116
-0.988877, 417, 161, 480, 224
-0.988889, 25, 33, 88, 288
-0.988917, 337, 201, 400, 264
-0.988947, 313, 121, 344, 184
-0.988951, 81, 121, 208, 184
-0.98898, 133, 113, 164, 176
-0.988992, 17, 209, 144, 272
-0.989016, 161, 137, 416, 200
-0.989024, 249, 81, 312, 112
-0.98907, 17, 17, 144, 80
-0.989126, 273, 1, 336, 333
-0.989137, 193, 273, 320, 333
-0.989156, 309, 201, 340, 264
-0.989159, 161, 81, 224, 112
-0.989171, 225, 185, 288, 216
-0.989174, 105, 73, 168, 136
-0.989218, 185, 81, 248, 112
-0.989241, 21, 33, 52, 160
-0.989244, 257, 201, 320, 232
-0.989275, 321, 225, 384, 288
-0.989294, 97, 1, 160, 333
-0.989313, 401, 145, 464, 272
-0.989313, 73, 41, 136, 104
-0.989316, 21, 41, 52, 104
-0.989322, 201, 273, 264, 333
-0.989368, 89, 273, 152, 333
-0.989376, 369, 81, 496, 208
-0.989397, 273, 181, 336, 212
-0.989418, 361, 1, 424, 128
-0.989428, 201, 17, 232, 144
-0.98945, 233, 141, 296, 172
-0.989489, 145, 33, 272, 96
-0.989506, 241, 241, 368, 304
-0.989578, 305, 1, 368, 333
-0.989618, 81, 257, 208, 320
-0.989635, 65, 209, 128, 272
-0.989641, 173, 105, 204, 168
-0.989703, 221, 49, 252, 112
-0.989719, 185, 181, 248, 212
-0.989724, 433, 65, 496, 128
-0.989786, 249, 113, 280, 176
-0.989794, 1, 265, 128, 328
-0.989818, 145, 97, 208, 128
-0.98988, 281, 141, 344, 172
-0.989892, 253, 49, 284, 112
-0.989957, 161, 173, 224, 204
-0.990054, 297, 49, 328, 176
-0.990061, 129, 81, 384, 144
-0.99008, 189, 121, 220, 184
-0.990121, 305, 197, 368, 228
-0.990147, 329, 129, 392, 192
-0.990165, 217, 173, 280, 204
-0.990274, 225, 73, 288, 104
-0.990277, 209, 141, 272, 172
-0.990312, 161, 145, 224, 176
-0.990323, 297, 209, 328, 272
-0.990325, 257, 97, 320, 128
-0.990327, 273, 125, 336, 156
-0.990342, 209, 209, 272, 272
-0.990343, 325, 193, 356, 320
-0.99036, 113, 137, 176, 168
-0.990371, 297, 177, 360, 208
-0.990427, 177, 217, 240, 280
-0.990438, 129, 217, 256, 280
-0.990438, 201, 93, 264, 124
-0.990439, 341, 145, 372, 272
-0.990445, 81, 185, 144, 248
-0.990476, 193, 169, 256, 200
-0.990487, 233, 197, 296, 228
-0.990523, 169, 93, 232, 124
-0.990551, 341, 249, 372, 312
-0.990557, 321, 129, 448, 192
-0.990557, 281, 209, 344, 240
-0.990602, 249, 169, 312, 200
-0.990617, 249, 185, 312, 216
-0.990696, 277, 105, 308, 168
-0.990703, 121, 181, 184, 212
-0.990739, 209, 197, 272, 228
-0.990789, 225, 113, 256, 176
-0.990824, 41, 265, 104, 328
-0.990832, 157, 105, 188, 168
-0.990838, 185, 145, 248, 176
-0.990857, 1, 49, 128, 112
-0.990892, 97, 1, 160, 128
-0.990927, 121, 149, 184, 180
-0.990961, 221, 73, 252, 136
-0.990976, 433, 161, 496, 288
-0.991, 273, 169, 336, 200
-0.991048, 265, 113, 328, 144
-0.991075, 97, 185, 352, 248
-0.991076, 329, 97, 360, 224
-0.991086, 245, 33, 276, 160
-0.991166, 305, 209, 368, 240
-0.991202, 233, 213, 296, 244
-0.991209, 257, 213, 320, 244
-0.991219, 201, 69, 264, 100
-0.991252, 165, 201, 196, 264
-0.991264, 329, 241, 360, 304
-0.991278, 137, 169, 200, 200
-0.99129, 289, 93, 352, 124
-0.991303, 81, 225, 208, 288
-0.991305, 209, 73, 240, 136
-0.991312, 49, 145, 176, 208
-0.991375, 257, 157, 320, 188
-0.991437, 201, 157, 264, 188
-0.991466, 49, 209, 112, 333
-0.99148, 197, 81, 228, 144
-0.991546, 137, 85, 200, 116
-0.991554, 137, 133, 200, 164
-0.991586, 289, 153, 352, 184
-0.991611, 257, 141, 320, 172
-0.991632, 17, 233, 144, 296
-0.991634, 305, 257, 432, 320
-0.991665, 241, 129, 304, 160
-0.991671, 393, 65, 456, 192
-0.991675, 209, 129, 272, 160
-0.99169, 169, 161, 232, 192
-0.99172, 377, 145, 440, 272
-0.99177, 105, 49, 168, 112
-0.991805, 113, 169, 176, 200
-0.991814, 297, 165, 360, 196
-0.991821, 341, 161, 372, 224
-0.991826, 281, 193, 344, 224
-0.99186, 1, 9, 64, 72
-0.99188, 285, 129, 316, 192
-0.991895, 105, 193, 168, 224
-0.991931, 321, 177, 384, 208
-0.991937, 65, 129, 128, 256
-0.99194, 185, 193, 248, 224
-0.99194, 97, 149, 160, 180
-0.991966, 205, 121, 236, 184
-0.991992, 225, 157, 288, 188
-0.991997, 261, 113, 292, 176
-0.992, 201, 105, 264, 136
-0.992011, 289, 105, 352, 136
-0.992017, 273, 77, 336, 108
-0.99202, 169, 105, 232, 136
-0.992056, 137, 113, 200, 144
-0.992065, 297, 129, 360, 160
-0.992095, 161, 185, 224, 216
-0.992112, 1, 45, 64, 76
-0.992148, 313, 153, 376, 184
-0.992168, 321, 133, 384, 164
-0.992182, 105, 209, 168, 240
-0.99219, 249, 69, 312, 100
-0.992193, 129, 209, 192, 240
-0.992198, 161, 161, 416, 224
-0.99223, 297, 273, 360, 304
-0.992252, 353, 209, 480, 333
-0.992257, 121, 97, 184, 128
-0.992273, 161, 69, 224, 100
-0.992291, 81, 81, 208, 144
-0.992313, 277, 85, 308, 116
-0.992326, 337, 261, 400, 292
-0.992327, 297, 117, 360, 148
-0.992379, 321, 165, 384, 196
-0.992388, 177, 289, 240, 320
-0.992425, 265, 81, 296, 112
-0.992439, 97, 181, 160, 212
-0.992441, 225, 61, 288, 92
-0.992446, 217, 281, 280, 312
-0.992449, 161, 133, 224, 164
-0.99245, 313, 221, 376, 252
-0.992463, 337, 201, 400, 232
-0.992464, 337, 249, 400, 280
-0.992489, 57, 301, 120, 332
-0.992492, 233, 173, 264, 204
-0.992499, 197, 173, 228, 204
-0.992504, 301, 121, 332, 152
-0.992508, 165, 85, 196, 116
-0.992514, 241, 109, 304, 140
-0.992524, 257, 277, 320, 308
-0.992525, 297, 209, 328, 240
-0.992541, 321, 273, 384, 333
-0.992544, 261, 201, 292, 232
-0.992545, 185, 133, 248, 164
-0.992553, 289, 105, 320, 136
-0.992555, 433, 1, 496, 128
-0.992558, 261, 185, 292, 216
-0.992573, 397, 1, 428, 128
-0.992587, 97, 225, 160, 288
-0.992589, 33, 1, 96, 333
-0.992592, 241, 185, 272, 216
-0.992604, 313, 233, 376, 264
-0.992624, 65, 145, 320, 208
-0.992627, 401, 1, 464, 333
-0.99263, 65, 233, 128, 296
-0.992631, 241, 81, 272, 112
-0.992643, 241, 141, 272, 172
-0.992648, 433, 1, 496, 32
-0.992655, 277, 197, 308, 228
-0.992658, 145, 197, 208, 228
-0.992669, 273, 65, 336, 96
-0.992672, 153, 89, 184, 120
-0.992675, 329, 189, 392, 220
-0.992678, 209, 181, 240, 212
-0.992683, 221, 173, 252, 204
-0.992687, 233, 97, 296, 128
-0.992688, 1, 33, 32, 96
-0.992696, 305, 133, 336, 164
-0.992706, 209, 209, 272, 240
-0.992713, 253, 81, 284, 112
-0.992716, 125, 137, 156, 168
-0.992723, 249, 197, 280, 228
-0.992723, 309, 173, 340, 204
-0.99274, 113, 125, 176, 156
-0.992754, 213, 81, 244, 112
-0.992769, 277, 185, 308, 216
-0.992772, 153, 193, 216, 320
-0.992772, 33, 41, 96, 72
-0.992774, 245, 173, 276, 204
-0.992777, 181, 165, 212, 196
-0.992781, 197, 145, 228, 176
-0.992787, 297, 81, 360, 112
-0.992788, 113, 301, 176, 332
-0.992788, 193, 185, 448, 248
-0.992788, 261, 141, 292, 172
-0.99279, 293, 73, 324, 136
-0.992794, 137, 301, 200, 332
-0.992796, 297, 185, 328, 216
-0.992796, 177, 177, 304, 208
-0.992798, 209, 169, 240, 200
-0.992799, 89, 137, 152, 168
-0.992813, 217, 145, 248, 176
-0.992818, 153, 193, 184, 320
-0.99282, 349, 209, 380, 333
-0.992823, 309, 201, 340, 232
-0.992828, 173, 1, 204, 128
-0.992829, 229, 185, 260, 216
-0.992838, 225, 81, 256, 112
-0.992842, 229, 141, 260, 172
-0.992846, 337, 149, 400, 180
-0.992852, 185, 81, 216, 112
-0.992853, 277, 273, 308, 333
-0.992872, 185, 181, 216, 212
-0.992887, 261, 173, 292, 204
-0.992895, 33, 53, 96, 84
-0.992904, 313, 89, 344, 152
-0.992924, 173, 97, 204, 128
-0.992929, 301, 109, 332, 140
-0.992929, 265, 69, 296, 100
-0.992932, 305, 245, 368, 276
-0.992939, 145, 185, 176, 216
-0.99294, 289, 93, 320, 124
-0.992948, 105, 113, 168, 144
-0.992949, 285, 173, 316, 204
-0.99295, 149, 101, 180, 132
-0.992954, 321, 153, 352, 184
-0.992956, 161, 209, 224, 240
-0.99297, 213, 157, 244, 188
-0.992974, 173, 181, 204, 212
-0.992974, 237, 105, 268, 168
-0.992976, 313, 257, 376, 288
-0.992977, 161, 181, 192, 212
-0.992999, 9, 301, 72, 332
-0.993, 89, 169, 152, 200
-0.993, 273, 141, 304, 172
-0.993, 393, 69, 456, 100
-0.993002, 261, 157, 292, 188
-0.993003, 249, 129, 280, 160
-0.993009, 277, 97, 308, 128
-0.99301, 325, 185, 356, 216
-0.993011, 197, 85, 228, 116
-0.993011, 345, 229, 408, 260
-0.993025, 321, 173, 352, 204
-0.993026, 229, 93, 260, 124
-0.993026, 161, 169, 192, 200
-0.993029, 377, 161, 440, 192
-0.993035, 253, 213, 284, 244
-0.993043, 169, 145, 200, 176
-0.993046, 345, 217, 408, 248
-0.99305, 341, 201, 372, 232
-0.993054, 81, 293, 144, 324
-0.993054, 105, 221, 168, 252
-0.993054, 369, 57, 496, 120
-0.993057, 433, 61, 496, 92
-0.993073, 225, 137, 352, 168
-0.993077, 313, 121, 344, 152
-0.993078, 145, 157, 208, 188
-0.993078, 301, 97, 332, 128
-0.993079, 197, 161, 228, 192
-0.993083, 1, 185, 128, 248
-0.993085, 309, 185, 340, 216
-0.993086, 433, 165, 496, 196
-0.993093, 297, 197, 328, 228
-0.993094, 289, 225, 352, 256
-0.993098, 237, 69, 268, 100
-0.993109, 289, 125, 320, 156
-0.993113, 133, 181, 164, 212
-0.993116, 145, 129, 176, 160
-0.993119, 273, 173, 304, 204
-0.993122, 65, 33, 192, 96
-0.993124, 1, 17, 32, 144
-0.993129, 277, 161, 308, 192
-0.993133, 185, 145, 216, 176
-0.993135, 357, 233, 388, 296
-0.993137, 193, 81, 320, 112
-0.993138, 285, 145, 316, 176
-0.993138, 401, 1, 464, 32
-0.993152, 121, 73, 184, 104
-0.993156, 317, 133, 348, 164
-0.993159, 253, 69, 284, 100
-0.993159, 297, 173, 328, 204
-0.993163, 113, 85, 176, 116
-0.993164, 33, 49, 64, 112
-0.993167, 285, 209, 316, 240
-0.993169, 233, 201, 264, 232
-0.993169, 321, 197, 352, 228
-0.993173, 157, 149, 188, 180
-0.993186, 261, 209, 292, 272
-0.993187, 21, 45, 52, 76
-0.993188, 161, 221, 224, 252
-0.993191, 265, 213, 296, 244
-0.993195, 81, 201, 144, 232
-0.993198, 249, 93, 280, 124
-0.993206, 65, 233, 128, 264
-0.993207, 81, 281, 144, 312
-0.993222, 337, 189, 368, 220
-0.993226, 233, 157, 264, 188
-0.993232, 1, 57, 64, 88
-0.993235, 141, 113, 172, 144
-0.993238, 145, 149, 176, 180
-0.993245, 265, 17, 296, 144
-0.993245, 261, 129, 292, 160
-0.993248, 245, 161, 276, 192
-0.993255, 197, 57, 228, 120
-0.993258, 321, 273, 384, 304
-0.993259, 145, 173, 176, 204
-0.993261, 197, 189, 228, 220
-0.993264, 261, 97, 292, 128
-0.993268, 309, 145, 340, 176
-0.99327, 217, 97, 248, 128
-0.993272, 345, 161, 408, 192
-0.993274, 297, 161, 328, 192
-0.993276, 237, 129, 268, 160
-0.993277, 161, 101, 192, 132
-0.99328, 113, 173, 144, 204
-0.993293, 125, 149, 156, 180
-0.993293, 217, 133, 248, 164
-0.993295, 345, 177, 408, 240
-0.993295, 369, 65, 432, 192
-0.993296, 193, 49, 256, 80
-0.993311, 125, 169, 156, 200
-0.993317, 185, 97, 216, 128
-0.993319, 337, 233, 368, 264
-0.993323, 73, 121, 136, 184
-0.993325, 109, 145, 140, 176
-0.993329, 329, 129, 360, 160
-0.993339, 173, 201, 204, 232
-0.993339, 213, 69, 244, 100
-0.993342, 105, 145, 136, 208
-0.993342, 153, 197, 184, 228
-0.99335, 301, 85, 332, 116
-0.993354, 333, 161, 364, 192
-0.993365, 309, 213, 340, 244
-0.993371, 113, 189, 144, 220
-0.993374, 225, 105, 480, 168
-0.993382, 341, 213, 372, 244
-0.993383, 1, 225, 500, 288
-0.993386, 241, 213, 272, 244
-0.993386, 169, 73, 200, 104
-0.993393, 329, 209, 360, 240
-0.993395, 285, 73, 316, 104
-0.993396, 337, 173, 368, 204
-0.993398, 217, 193, 248, 224
-0.9934, 33, 49, 64, 176
-0.993414, 333, 265, 364, 296
-0.993419, 353, 249, 384, 280
-0.993424, 1, 185, 500, 248
-0.993424, 9, 37, 40, 68
-0.993428, 321, 201, 352, 264
-0.99343, 145, 209, 176, 240
-0.993441, 133, 125, 164, 156
-0.993458, 337, 253, 368, 284
-0.993459, 465, 1, 496, 32
-0.993463, 357, 237, 388, 268
-0.993465, 417, 1, 480, 64
-0.99347, 321, 273, 352, 304
-0.993471, 189, 133, 220, 164
-0.993492, 177, 33, 240, 96
-0.993497, 353, 201, 480, 264
-0.993556, 189, 1, 220, 128
-0.993563, 193, 249, 320, 312
-0.993602, 257, 181, 384, 212
-0.993641, 145, 89, 272, 120
-0.993654, 369, 89, 432, 152
-0.993683, 157, 1, 188, 128
-0.993694, 393, 65, 456, 128
-0.993815, 297, 1, 360, 64
-0.993816, 257, 161, 500, 224
-0.993818, 145, 49, 176, 112
-0.993835, 281, 33, 312, 160
-0.993837, 353, 161, 384, 224
-0.993853, 225, 125, 352, 156
-0.993868, 1, 1, 32, 64
-0.993871, 433, 1, 496, 256
-0.993876, 303, 97, 318, 160
-0.993894, 433, 41, 496, 104
-0.993927, 337, 1, 400, 128
-0.993938, 361, 161, 392, 288
-0.993975, 225, 73, 480, 136
-0.993979, 209, 97, 336, 128
-0.993987, 209, 249, 272, 312
-0.994028, 329, 273, 360, 333
-0.994071, 263, 185, 278, 248
-0.994087, 233, 249, 296, 312
-0.994111, 1, 137, 500, 200
-0.994167, 257, 33, 384, 96
-0.99417, 257, 241, 320, 304
-0.99423, 425, 1, 488, 333
-0.994241, 89, 249, 152, 312
-0.994312, 33, 105, 160, 168
-0.994325, 1, 177, 256, 240
-0.994335, 57, 49, 88, 176
-0.994352, 121, 177, 152, 304
-0.994363, 317, 241, 348, 304
-0.994371, 369, 97, 496, 160
-0.994389, 269, 185, 284, 248
-0.994394, 225, 193, 352, 224
-0.994419, 93, 17, 124, 144
-0.994424, 329, 1, 392, 333
-0.994442, 345, 225, 376, 288
-0.994543, 309, 113, 324, 176
-0.994543, 173, 49, 204, 112
-0.994604, 177, 201, 208, 264
-0.994606, 353, 209, 416, 333
-0.99462, 257, 185, 272, 248
-0.994652, 209, 145, 224, 208
-0.994666, 1, 57, 256, 120
-0.994693, 203, 145, 218, 208
-0.994717, 277, 185, 292, 248
-0.994718, 109, 201, 140, 264
-0.994731, 241, 209, 368, 240
-0.994742, 121, 113, 152, 176
-0.99476, 177, 189, 304, 220
-0.994774, 377, 1, 440, 333
-0.994786, 113, 169, 240, 200
-0.994834, 121, 145, 136, 208
-0.994841, 129, 57, 384, 120
-0.994872, 369, 161, 496, 224
-0.994878, 241, 157, 368, 188
-0.994941, 265, 49, 296, 112
-0.994944, 1, 161, 128, 224
-0.994944, 33, 113, 288, 176
-0.994945, 225, 113, 352, 144
-0.994954, 353, 65, 416, 320
-0.994979, 45, 1, 76, 128
-0.994984, 97, 181, 224, 212
-0.994986, 255, 145, 270, 208
-0.994991, 177, 165, 304, 196
-0.994996, 241, 145, 256, 208
-0.995011, 393, 89, 456, 152
-0.995049, 193, 209, 256, 333
-0.995058, 57, 65, 120, 128
-0.99506, 65, 257, 320, 320
-0.995067, 177, 145, 304, 176
-0.995097, 321, 1, 448, 64
-0.995127, 283, 177, 298, 240
-0.995135, 229, 145, 244, 208
-0.995146, 1, 249, 500, 312
-0.995155, 153, 33, 216, 96
-0.995175, 1, 209, 64, 333
-0.995205, 33, 81, 288, 144
-0.995205, 241, 1, 368, 64
-0.995223, 9, 273, 72, 333
-0.995226, 297, 89, 312, 152
-0.995261, 239, 185, 254, 248
-0.995269, 263, 145, 278, 208
-0.995281, 193, 1, 320, 64
-0.995289, 249, 185, 264, 248
-0.99529, 345, 73, 408, 136
-0.995322, 69, 49, 100, 176
-0.995355, 433, 113, 496, 240
-0.995364, 315, 169, 330, 232
-0.995419, 189, 145, 204, 208
-0.995437, 277, 145, 292, 208
-0.995443, 241, 169, 368, 200
-0.995465, 25, 1, 88, 64
-0.995467, 353, 113, 416, 240
-0.995472, 209, 49, 240, 112
-0.995485, 197, 145, 212, 208
-0.995487, 41, 241, 104, 304
-0.995493, 161, 273, 416, 333
-0.995534, 223, 145, 238, 208
-0.995539, 331, 153, 346, 216
-0.995564, 305, 177, 320, 240
-0.995571, 271, 65, 286, 128
-0.995574, 277, 73, 292, 136
-0.995584, 261, 65, 276, 128
-0.995585, 225, 185, 240, 248
-0.995619, 309, 273, 340, 333
-0.995658, 45, 49, 76, 176
-0.99567, 353, 1, 416, 333
-0.99568, 33, 1, 64, 128
-0.995688, 233, 185, 248, 248
-0.995692, 17, 9, 48, 72
-0.995697, 257, 257, 500, 320
-0.995704, 235, 145, 250, 208
-0.995723, 193, 209, 448, 272
-0.995749, 199, 177, 214, 240
-0.995758, 127, 145, 142, 208
-0.995763, 1, 17, 256, 80
-0.995772, 145, 77, 272, 108
-0.995776, 145, 145, 160, 208
-0.995776, 147, 113, 162, 176
-0.995779, 269, 145, 284, 208
-0.995792, 247, 73, 262, 136
-0.995793, 217, 145, 232, 208
-0.995798, 287, 145, 302, 208
-0.995799, 249, 209, 280, 272
-0.995836, 183, 145, 198, 208
-0.995838, 323, 137, 338, 200
-0.995847, 97, 1, 224, 64
-0.995852, 45, 33, 76, 96
-0.995859, 247, 145, 262, 208
-0.995862, 297, 65, 328, 320
-0.995863, 315, 113, 330, 176
-0.995869, 145, 101, 272, 132
-0.995888, 113, 145, 240, 176
-0.995922, 65, 161, 128, 224
-0.995929, 81, 49, 112, 176
-0.995931, 193, 177, 208, 240
-0.995931, 287, 81, 302, 144
-0.995932, 157, 185, 172, 248
-0.995933, 1, 161, 500, 224
-0.995934, 299, 185, 314, 248
-0.995945, 257, 89, 384, 120
-0.995952, 273, 197, 400, 228
-0.995976, 321, 177, 336, 240
-0.995978, 321, 65, 448, 128
-0.996025, 393, 1, 456, 64
-0.996032, 417, 17, 448, 144
-0.996037, 65, 217, 320, 280
-0.996038, 261, 33, 292, 288
-0.996053, 145, 225, 208, 288
-0.99607, 1, 81, 500, 144
-0.996073, 1, 273, 500, 333
-0.996081, 1, 113, 500, 176
-0.996087, 165, 193, 196, 320
-0.996096, 265, 273, 296, 333
-0.996121, 353, 1, 416, 64
-0.996156, 291, 185, 306, 248
-0.996181, 219, 185, 234, 248
-0.996183, 277, 65, 308, 320
-0.996198, 241, 65, 256, 128
-0.996206, 129, 201, 160, 264
-0.996208, 177, 133, 304, 164
-0.996222, 157, 145, 172, 208
-0.996234, 337, 25, 464, 88
-0.996237, 437, 1, 468, 128
-0.996246, 167, 145, 182, 208
-0.996251, 65, 257, 128, 320
-0.996254, 289, 273, 320, 333
-0.996307, 163, 185, 178, 248
-0.996316, 73, 1, 104, 128
-0.996329, 193, 69, 320, 100
-0.996343, 145, 273, 272, 333
-0.996354, 113, 49, 144, 176
-0.996358, 129, 33, 192, 96
-0.996361, 177, 201, 304, 232
-0.996375, 341, 161, 356, 224
-0.996376, 321, 161, 448, 192
-0.996394, 327, 177, 342, 240
-0.996403, 101, 65, 132, 192
-0.996415, 357, 209, 388, 272
-0.996415, 257, 129, 500, 192
-0.996455, 105, 1, 136, 128
-0.996457, 97, 41, 128, 104
-0.996487, 173, 177, 188, 240
-0.996489, 105, 193, 136, 320
-0.996492, 151, 145, 166, 208
-0.996507, 255, 89, 270, 152
-0.996514, 129, 129, 256, 160
-0.996534, 229, 33, 260, 288
-0.996537, 175, 145, 190, 208
-0.996552, 201, 217, 232, 280
-0.996565, 273, 141, 400, 172
-0.996578, 297, 161, 312, 224
-0.996597, 277, 57, 308, 120
-0.996603, 69, 265, 100, 328
-0.996609, 157, 49, 188, 112
-0.996609, 311, 193, 326, 256
-0.996615, 97, 25, 160, 88
-0.996626, 245, 33, 276, 288
-0.996641, 385, 161, 416, 224
-0.996648, 303, 121, 318, 184
-0.996652, 309, 89, 324, 152
-0.996675, 141, 121, 156, 184
-0.996684, 169, 73, 184, 136
-0.996697, 353, 201, 368, 264
-0.996721, 329, 1, 392, 64
-0.99673, 133, 17, 164, 144
-0.996731, 151, 185, 166, 248
-0.996735, 369, 137, 496, 200
-0.996741, 129, 193, 256, 224
-0.996743, 141, 177, 156, 240
-0.996744, 285, 209, 316, 272
-0.996749, 297, 113, 312, 176
-0.996764, 225, 49, 480, 112
-0.996782, 377, 137, 440, 200
-0.996782, 305, 173, 432, 204
-0.99679, 247, 121, 262, 184
-0.996792, 1, 73, 128, 136
-0.996802, 205, 177, 220, 240
-0.996825, 449, 161, 480, 288
-0.996867, 193, 213, 320, 244
-0.996872, 183, 177, 198, 240
-0.996875, 369, 65, 432, 128
-0.996878, 235, 57, 250, 120
-0.99688, 81, 209, 208, 240
-0.996881, 209, 33, 240, 288
-0.996891, 89, 273, 120, 333
-0.996936, 57, 185, 120, 248
-0.99694, 117, 169, 132, 232
-0.996948, 53, 57, 84, 120
-0.996953, 153, 105, 168, 168
-0.99696, 361, 185, 392, 248
-0.996969, 265, 89, 280, 152
-0.996971, 289, 117, 416, 148
-0.996982, 135, 169, 150, 232
-0.996983, 345, 97, 376, 224
-0.996985, 189, 113, 204, 176
-0.996999, 213, 185, 228, 248
-0.997, 81, 197, 208, 228
-0.997022, 289, 209, 416, 240
-0.997024, 201, 173, 216, 204
-0.997026, 305, 205, 320, 236
-0.997036, 353, 249, 416, 312
-0.997036, 237, 89, 252, 152
-0.997048, 253, 113, 268, 176
-0.997051, 303, 153, 318, 216
-0.997061, 139, 145, 154, 208
-0.997062, 197, 73, 212, 136
-0.997069, 289, 105, 416, 136
-0.99707, 179, 73, 194, 136
-0.997089, 121, 225, 184, 288
-0.997096, 129, 117, 256, 148
-0.997129, 9, 241, 72, 304
-0.997138, 189, 73, 204, 136
-0.997147, 309, 145, 324, 208
-0.997151, 425, 161, 456, 224
-0.997153, 169, 113, 184, 176
-0.997154, 241, 273, 368, 304
-0.99716, 177, 281, 304, 312
-0.997179, 185, 97, 216, 160
-0.997184, 405, 161, 436, 224
-0.997205, 355, 241, 370, 304
-0.997213, 309, 113, 324, 144
-0.997218, 227, 181, 242, 212
-0.997238, 369, 1, 496, 64
-0.997246, 425, 137, 488, 200
-0.997257, 385, 1, 416, 128
-0.997261, 121, 33, 152, 288
-0.997268, 159, 89, 174, 152
-0.997281, 249, 273, 280, 333
-0.997293, 433, 89, 496, 152
-0.997297, 161, 233, 416, 296
-0.997306, 233, 181, 248, 212
-0.997307, 287, 85, 302, 116
-0.997307, 37, 49, 52, 112
-0.997314, 291, 105, 306, 168
-0.997314, 303, 109, 318, 140
-0.99733, 255, 57, 270, 120
-0.997331, 169, 201, 184, 264
-0.99735, 315, 89, 330, 152
-0.997359, 293, 137, 308, 200
-0.997366, 373, 161, 404, 224
-0.997368, 153, 217, 184, 280
-0.997371, 263, 113, 278, 176
-0.997381, 265, 33, 328, 96
-0.997391, 31, 41, 46, 104
-0.997395, 167, 85, 182, 116
-0.997397, 133, 137, 148, 200
-0.997397, 49, 181, 176, 212
-0.997399, 265, 189, 280, 220
-0.997399, 309, 65, 340, 320
-0.997414, 303, 73, 318, 136
-0.997437, 297, 93, 312, 124
-0.99745, 273, 129, 400, 160
-0.997464, 239, 121, 254, 184
-0.997465, 177, 273, 240, 333
-0.997475, 129, 177, 144, 240
-0.997476, 273, 185, 288, 216
-0.997491, 317, 137, 332, 200
-0.997497, 269, 201, 284, 232
-0.997499, 275, 197, 290, 228
-0.997501, 273, 209, 304, 272
-0.997506, 349, 257, 364, 320
-0.99751, 243, 97, 258, 160
-0.997518, 337, 241, 352, 304
-0.997523, 13, 1, 44, 256
-0.997523, 279, 81, 294, 112
-0.997527, 341, 137, 372, 200
-0.997528, 141, 33, 172, 288
-0.997531, 115, 137, 130, 200
-0.997542, 335, 185, 350, 248
-0.997548, 243, 185, 258, 216
-0.997548, 363, 217, 378, 280
-0.997552, 197, 33, 228, 288
-0.997556, 207, 121, 222, 184
-0.997566, 345, 233, 360, 296
-0.997577, 233, 121, 248, 184
-0.997578, 283, 185, 298, 216
-0.997589, 261, 77, 276, 108
-0.997589, 25, 201, 88, 264
-0.99759, 259, 177, 274, 208
-0.997593, 229, 49, 244, 112
-0.997593, 219, 121, 234, 184
-0.997593, 263, 201, 278, 232
-0.997595, 163, 57, 178, 120
-0.997616, 257, 69, 384, 100
-0.997618, 311, 205, 326, 236
-0.997622, 17, 145, 80, 272
-0.997626, 97, 81, 224, 112
-0.997626, 347, 169, 362, 232
-0.997626, 1, 289, 128, 320
-0.997645, 185, 41, 216, 104
-0.997651, 315, 121, 330, 152
-0.997653, 273, 225, 400, 256
-0.997654, 429, 161, 460, 288
-0.997661, 69, 57, 100, 120
-0.997668, 267, 81, 282, 112
-0.997672, 303, 97, 318, 128
-0.997675, 303, 121, 318, 152
-0.997679, 329, 129, 344, 192
-0.99768, 343, 265, 358, 328
-0.997681, 253, 177, 268, 208
-0.997689, 321, 133, 336, 164
-0.997701, 249, 49, 264, 112
-0.997702, 213, 209, 244, 272
-0.99771, 17, 53, 144, 84
-0.997712, 369, 257, 496, 320
-0.997716, 259, 189, 274, 220
-0.997716, 199, 161, 214, 192
-0.997721, 337, 209, 352, 272
-0.997724, 121, 141, 136, 172
-0.997727, 193, 181, 208, 212
-0.997729, 255, 141, 270, 172
-0.997731, 247, 173, 262, 204
-0.997743, 123, 177, 138, 240
-0.997761, 223, 73, 238, 136
-0.997772, 161, 85, 176, 116
-0.997779, 231, 193, 246, 224
-0.99778, 305, 209, 320, 272
-0.997783, 193, 25, 320, 88
-0.997786, 97, 93, 224, 124
-0.997796, 145, 273, 208, 333
-0.997798, 219, 181, 234, 212
-0.9978, 393, 233, 456, 296
-0.997801, 209, 57, 224, 120
-0.997807, 213, 273, 244, 333
-0.997811, 401, 65, 464, 320
-0.997823, 13, 33, 28, 96
-0.997823, 195, 113, 210, 176
-0.997825, 109, 33, 140, 288
-0.99783, 209, 169, 224, 200
-0.99783, 65, 285, 192, 316
-0.99784, 337, 265, 352, 328
-0.997845, 343, 209, 358, 272
-0.997846, 203, 57, 218, 120
-0.997848, 173, 85, 188, 116
-0.99785, 7, 33, 22, 96
-0.997856, 209, 145, 224, 176
-0.997859, 297, 185, 312, 216
-0.99786, 179, 89, 194, 120
-0.997862, 209, 89, 224, 120
-0.997864, 219, 141, 234, 172
-0.997865, 241, 173, 256, 204
-0.997873, 299, 205, 314, 236
-0.997879, 313, 185, 328, 216
-0.99788, 321, 193, 448, 224
-0.997886, 145, 65, 272, 96
-0.997889, 97, 157, 224, 188
-0.997891, 189, 165, 204, 196
-0.997894, 273, 81, 288, 112
-0.997898, 201, 25, 264, 88
-0.9979, 253, 81, 268, 112
-0.997905, 321, 261, 448, 292
-0.997911, 257, 201, 272, 232
-0.997912, 253, 165, 268, 196
-0.99792, 257, 249, 384, 280
-0.997921, 229, 145, 244, 176
-0.997923, 337, 249, 464, 280
-0.997924, 245, 137, 260, 168
-0.997935, 369, 225, 496, 288
-0.997936, 401, 137, 464, 200
-0.997938, 201, 81, 216, 112
-0.997954, 17, 37, 144, 68
-0.997958, 97, 1, 128, 256
-0.99796, 303, 193, 318, 224
-0.997963, 271, 141, 286, 172
-0.997966, 321, 173, 336, 204
-0.997972, 129, 241, 256, 304
-0.997975, 281, 161, 296, 192
-0.997986, 165, 33, 196, 288
-0.99799, 61, 1, 92, 128
-0.997992, 97, 69, 224, 100
-0.997997, 325, 121, 356, 184
-0.998003, 113, 297, 240, 328
-0.998003, 189, 89, 204, 120
-0.998004, 161, 189, 176, 220
-0.998012, 195, 81, 210, 112
-0.998012, 369, 61, 496, 92
-0.998013, 257, 1, 320, 64
-0.998019, 281, 173, 296, 204
-0.998025, 81, 133, 208, 164
-0.998026, 287, 157, 302, 188
-0.998034, 317, 205, 332, 236
-0.998036, 343, 185, 358, 216
-0.998037, 231, 85, 246, 116
-0.998041, 253, 189, 268, 220
-0.998042, 17, 301, 144, 332
-0.998043, 235, 145, 250, 176
-0.998053, 265, 137, 280, 168
-0.998057, 233, 169, 248, 200
-0.998064, 309, 125, 324, 156
-0.998069, 287, 173, 302, 204
-0.998072, 153, 33, 184, 288
-0.998073, 155, 97, 170, 128
-0.998074, 321, 141, 448, 172
-0.998077, 185, 65, 216, 320
-0.998096, 223, 169, 238, 200
-0.998099, 181, 169, 196, 200
-0.998101, 1, 33, 500, 96
-0.998103, 199, 97, 214, 128
-0.998108, 469, 65, 500, 128
-0.998114, 237, 273, 268, 333
-0.998115, 257, 233, 500, 296
-0.998115, 241, 81, 256, 112
-0.998116, 409, 145, 440, 272
-0.998116, 145, 9, 272, 72
-0.998118, 237, 193, 252, 224
-0.998122, 327, 177, 342, 208
-0.998125, 297, 109, 312, 140
-0.998125, 189, 101, 204, 132
-0.998127, 267, 177, 282, 208
-0.998141, 93, 209, 124, 333
-0.998141, 285, 249, 316, 312
-0.998143, 93, 129, 124, 256
-0.998163, 173, 181, 188, 212
-0.998164, 337, 193, 352, 224
-0.998177, 81, 221, 208, 252
-0.998181, 329, 133, 344, 164
-0.998184, 1, 1, 32, 256
-0.998185, 279, 141, 294, 172
-0.998188, 285, 141, 300, 172
-0.998195, 123, 157, 138, 188
-0.998198, 207, 181, 222, 212
-0.998205, 65, 169, 192, 200
-0.998206, 315, 173, 330, 204
-0.998209, 17, 217, 144, 248
-0.998212, 1, 25, 128, 56
-0.998217, 225, 1, 480, 64
-0.998219, 139, 129, 154, 160
-0.998221, 145, 213, 272, 244
-0.998224, 293, 173, 308, 204
-0.998241, 275, 157, 290, 188
-0.998241, 321, 233, 448, 264
-0.998244, 33, 201, 160, 232
-0.998251, 193, 57, 320, 88
-0.998254, 1, 261, 128, 292
-0.998254, 201, 145, 216, 176
-0.998257, 161, 97, 176, 128
-0.998258, 261, 213, 276, 244
-0.998267, 217, 77, 232, 108
-0.998275, 293, 141, 308, 172
-0.998276, 287, 97, 302, 128
-0.998281, 271, 69, 286, 100
-0.998282, 169, 101, 184, 132
-0.998286, 257, 237, 384, 268
-0.998294, 339, 157, 354, 188
-0.998294, 219, 157, 234, 188
-0.998295, 449, 161, 480, 224
-0.998299, 321, 65, 352, 320
-0.998301, 331, 149, 346, 180
-0.998302, 65, 301, 192, 332
-0.998309, 293, 197, 308, 228
-0.99831, 253, 129, 268, 160
-0.998311, 17, 229, 144, 260
-0.998315, 167, 177, 182, 208
-0.998318, 153, 185, 168, 216
-0.998319, 145, 149, 160, 180
-0.99832, 233, 1, 264, 128
-0.998325, 25, 1, 56, 256
-0.998329, 247, 81, 262, 112
-0.998338, 181, 145, 196, 176
-0.998338, 201, 83, 264, 98
-0.998341, 309, 173, 324, 204
-0.998346, 197, 33, 228, 96
-0.998346, 195, 145, 210, 176
-0.99835, 219, 93, 234, 124
-0.998358, 149, 189, 180, 204
-0.998359, 325, 157, 356, 172
-0.99836, 281, 85, 312, 100
-0.998362, 341, 233, 372, 248
-0.998362, 177, 183, 208, 198
-0.998363, 109, 145, 140, 160
-0.998364, 189, 199, 220, 214
-0.998364, 201, 99, 232, 114
-0.998366, 337, 185, 368, 200
-0.998366, 193, 147, 224, 162
-0.998368, 189, 101, 220, 116
-0.998368, 285, 157, 316, 172
-0.99837, 469, 161, 500, 288
-0.99837, 181, 147, 212, 162
-0.998371, 253, 203, 284, 218
-0.998371, 169, 145, 200, 160
-0.998371, 265, 155, 296, 170
-0.998372, 303, 181, 318, 212
-0.998373, 241, 75, 272, 90
-0.998373, 289, 145, 320, 160
-0.998374, 173, 167, 204, 182
-0.998374, 241, 87, 304, 102
-0.998374, 269, 205, 300, 220
-0.998374, 145, 53, 272, 84
-0.998375, 161, 181, 192, 196
-0.998375, 233, 175, 264, 190
-0.998378, 281, 111, 312, 126
-0.998378, 401, 185, 464, 248
-0.998379, 275, 169, 290, 200
-0.998379, 165, 187, 196, 202
-0.99838, 291, 185, 306, 216
-0.998381, 189, 79, 220, 94
-0.998383, 267, 213, 282, 244
-0.998384, 325, 177, 356, 192
-0.998385, 233, 137, 264, 152
-0.998385, 201, 199, 232, 214
-0.998386, 265, 161, 296, 176
-0.99839, 189, 185, 220, 200
-0.99839, 129, 137, 144, 168
-0.998392, 289, 133, 320, 148
-0.998393, 281, 197, 296, 228
-0.998393, 317, 203, 348, 218
-0.998394, 305, 101, 336, 116
-0.998395, 309, 173, 340, 188
-0.998397, 329, 209, 360, 224
-0.998397, 225, 81, 288, 96
-0.998398, 213, 77, 244, 92
-0.998399, 317, 151, 348, 166
-0.9984, 185, 165, 216, 180
-0.9984, 337, 239, 368, 254
-0.998404, 137, 183, 168, 198
-0.998405, 167, 201, 182, 232
-0.998406, 221, 175, 252, 190
-0.998408, 201, 89, 264, 104
-0.998408, 277, 181, 308, 196
-0.998409, 317, 209, 348, 224
-0.998409, 149, 103, 180, 118
-0.998411, 35, 49, 50, 80
-0.998412, 301, 213, 332, 228
-0.998413, 253, 163, 284, 178
-0.998414, 177, 117, 304, 148
-0.998415, 121, 149, 152, 164
-0.998415, 261, 93, 276, 124
-0.998416, 81, 241, 208, 272
-0.998417, 273, 97, 304, 112
-0.998417, 169, 73, 184, 104
-0.998417, 281, 215, 312, 230
-0.99842, 257, 93, 288, 108
-0.99842, 173, 197, 204, 212
-0.998422, 257, 209, 320, 224
-0.998425, 277, 193, 308, 208
-0.998426, 201, 215, 232, 230
-0.998426, 293, 179, 324, 194
-0.998428, 173, 83, 204, 98
-0.998428, 329, 191, 360, 206
-0.998428, 169, 95, 232, 110
-0.998431, 265, 179, 296, 194
-0.998431, 289, 93, 320, 108
-0.998432, 265, 165, 280, 196
-0.998433, 353, 217, 480, 248
-0.998434, 313, 127, 344, 142
-0.998434, 139, 181, 154, 212
-0.998435, 145, 129, 160, 160
-0.998435, 225, 143, 256, 158
-0.998435, 245, 177, 276, 192
-0.998437, 251, 201, 266, 232
-0.998438, 205, 147, 236, 162
-0.998438, 289, 183, 352, 198
-0.998439, 145, 95, 208, 110
-0.998439, 221, 89, 252, 104
-0.998439, 225, 81, 256, 96
-0.99844, 233, 213, 264, 228
-0.998441, 201, 87, 232, 102
-0.998442, 285, 73, 300, 104
-0.998442, 341, 207, 372, 222
-0.998447, 221, 153, 252, 168
-0.998447, 233, 197, 264, 212
-0.998447, 209, 181, 272, 196
-0.998448, 265, 77, 296, 92
-0.99845, 181, 177, 212, 192
-0.998451, 205, 175, 236, 190
-0.998452, 189, 145, 204, 176
-0.998452, 187, 181, 202, 212
-0.998452, 201, 81, 232, 96
-0.998453, 65, 145, 192, 176
-0.998453, 249, 93, 312, 108
-0.998454, 281, 209, 344, 224
-0.998454, 229, 99, 260, 114
-0.998455, 285, 187, 316, 202
-0.998456, 225, 181, 256, 196
-0.99846, 245, 97, 276, 112
-0.998461, 369, 1, 496, 32
-0.998462, 209, 191, 272, 206
-0.998462, 169, 101, 200, 116
-0.998464, 297, 185, 328, 200
-0.998465, 217, 97, 248, 112
-0.998466, 213, 215, 244, 230
-0.998467, 121, 143, 152, 158
-0.998467, 293, 109, 324, 124
-0.998468, 209, 193, 240, 208
-0.99847, 201, 93, 232, 108
-0.998471, 241, 185, 272, 200
-0.998471, 249, 191, 280, 206
-0.998473, 257, 141, 288, 156
-0.998473, 257, 261, 384, 292
-0.998476, 233, 87, 264, 102
-0.998476, 225, 213, 288, 228
-0.998477, 261, 195, 292, 210
-0.998477, 161, 83, 224, 98
-0.998478, 257, 211, 288, 226
-0.998479, 269, 141, 300, 156
-0.99848, 289, 99, 320, 114
-0.99848, 209, 197, 272, 212
-0.998481, 293, 115, 324, 130
-0.998484, 305, 141, 336, 156
-0.998489, 161, 85, 192, 100
-0.998489, 189, 193, 220, 208
-0.99849, 245, 137, 276, 152
-0.998491, 317, 183, 348, 198
-0.998492, 237, 143, 268, 158
-0.998494, 193, 175, 224, 190
-0.998494, 309, 133, 340, 148
-0.998497, 261, 185, 292, 200
-0.998498, 225, 95, 288, 110
-0.998499, 245, 197, 276, 212
-0.9985, 249, 185, 312, 200
-0.998501, 245, 213, 276, 228
-0.998505, 1, 273, 128, 304
-0.998507, 193, 99, 256, 114
-0.998508, 221, 197, 252, 212
-0.99851, 301, 121, 332, 136
-0.998511, 165, 95, 196, 110
-0.998512, 189, 201, 220, 264
-0.998513, 177, 193, 240, 208
-0.998518, 145, 101, 208, 116
-0.998519, 213, 181, 244, 196
-0.998519, 233, 191, 296, 206
-0.99852, 281, 137, 344, 152
-0.998521, 233, 197, 296, 212
-0.998521, 241, 141, 304, 156
-0.998521, 305, 179, 336, 194
-0.998522, 249, 81, 280, 96
-0.998525, 245, 91, 276, 106
-0.998528, 121, 149, 184, 164
-0.998528, 153, 181, 216, 196
-0.998532, 305, 209, 368, 224
-0.998533, 281, 143, 344, 158
-0.998535, 161, 89, 224, 104
-0.998537, 169, 175, 232, 190
-0.998538, 269, 211, 300, 226
-0.99854, 237, 191, 268, 206
-0.998543, 201, 215, 264, 230
-0.998545, 201, 183, 232, 198
-0.998546, 105, 183, 168, 198
-0.998547, 257, 215, 320, 230
-0.998547, 189, 95, 220, 110
-0.998547, 289, 189, 352, 204
-0.998548, 177, 181, 240, 196
-0.998548, 277, 91, 308, 106
-0.998549, 281, 177, 344, 192
-0.998549, 281, 131, 344, 146
-0.998551, 189, 85, 220, 100
-0.998552, 249, 81, 312, 96
-0.998555, 153, 97, 184, 112
-0.998556, 273, 187, 304, 202
-0.998556, 301, 127, 332, 142
-0.998557, 65, 261, 192, 292
-0.998559, 305, 207, 336, 222
-0.998562, 377, 145, 408, 272
-0.998562, 217, 141, 280, 156
-0.998562, 113, 143, 176, 158
-0.998568, 233, 209, 264, 272
-0.998568, 169, 101, 232, 116
-0.998569, 137, 187, 200, 202
-0.99857, 257, 195, 320, 210
-0.998571, 185, 199, 248, 214
-0.998573, 221, 191, 252, 206
-0.998573, 289, 101, 352, 116
-0.998575, 97, 33, 352, 96
-0.998575, 233, 93, 264, 108
-0.998575, 193, 175, 256, 190
-0.998576, 177, 147, 240, 162
-0.998576, 249, 99, 312, 114
-0.998578, 233, 179, 296, 194
-0.998578, 281, 215, 344, 230
-0.998579, 177, 95, 208, 110
-0.998585, 113, 189, 176, 204
-0.998587, 153, 167, 216, 182
-0.998589, 257, 179, 320, 194
-0.998589, 177, 187, 240, 202
-0.998589, 313, 203, 376, 218
-0.99859, 193, 77, 256, 92
-0.99859, 201, 159, 264, 174
-0.998592, 153, 197, 216, 212
-0.998597, 265, 111, 328, 126
-0.998602, 305, 133, 368, 148
-0.998604, 145, 147, 208, 162
-0.998605, 217, 153, 280, 168
-0.998605, 313, 177, 376, 192
-0.998611, 217, 147, 280, 162
-0.998611, 289, 153, 352, 168
-0.998611, 213, 83, 244, 98
-0.998611, 257, 159, 320, 174
-0.998612, 265, 87, 328, 102
-0.998612, 257, 87, 288, 102
-0.998613, 145, 175, 208, 190
-0.998613, 273, 95, 336, 110
-0.998617, 257, 105, 320, 120
-0.998623, 217, 207, 280, 222
-0.998623, 289, 209, 320, 224
-0.998623, 129, 213, 192, 228
-0.998624, 203, 97, 218, 224
-0.998625, 177, 215, 240, 230
-0.998625, 233, 75, 296, 90
-0.998627, 269, 83, 300, 98
-0.998627, 265, 117, 328, 132
-0.99863, 337, 73, 464, 104
-0.998632, 297, 161, 360, 176
-0.998634, 153, 215, 216, 230
-0.998634, 137, 107, 200, 122
-0.998636, 257, 203, 320, 218
-0.998636, 281, 203, 344, 218
-0.998636, 281, 125, 344, 140
-0.998636, 129, 181, 192, 196
-0.998636, 313, 189, 376, 204
-0.998639, 241, 135, 304, 150
-0.998641, 313, 183, 376, 198
-0.998641, 137, 115, 200, 130
-0.998642, 169, 77, 232, 92
-0.998643, 313, 65, 376, 128
-0.998643, 121, 99, 184, 114
-0.998644, 237, 81, 268, 96
-0.998645, 225, 171, 288, 186
-0.998649, 193, 105, 256, 120
-0.998651, 81, 145, 144, 160
-0.998652, 225, 101, 288, 116
-0.998655, 49, 105, 176, 136
-0.998656, 289, 119, 352, 134
-0.998656, 185, 165, 248, 180
-0.998656, 241, 147, 304, 162
-0.998657, 313, 215, 376, 230
-0.998658, 25, 193, 88, 320
-0.998658, 193, 139, 256, 154
-0.998658, 305, 273, 368, 288
-0.998658, 129, 137, 192, 152
-0.998659, 289, 273, 416, 304
-0.998659, 337, 201, 400, 216
-0.99866, 273, 81, 336, 96
-0.998661, 17, 241, 144, 272
-0.998662, 225, 161, 288, 176
-0.998667, 105, 177, 168, 192
-0.998667, 129, 169, 192, 184
-0.998668, 305, 139, 368, 154
-0.99867, 329, 209, 392, 224
-0.99867, 105, 205, 168, 220
-0.998671, 257, 173, 320, 188
-0.998673, 329, 155, 392, 170
-0.998673, 105, 211, 168, 226
-0.998674, 201, 285, 264, 300
-0.998675, 161, 161, 224, 176
-0.998675, 105, 217, 168, 232
-0.998676, 297, 107, 360, 122
-0.998679, 265, 279, 328, 294
-0.99868, 313, 197, 376, 212
-0.99868, 313, 171, 376, 186
-0.998681, 257, 165, 320, 180
-0.998682, 329, 269, 392, 284
-0.998682, 337, 161, 400, 176
-0.998682, 313, 243, 376, 258
-0.998684, 289, 89, 352, 104
-0.998685, 345, 255, 408, 270
-0.998686, 313, 221, 376, 236
-0.998686, 97, 151, 160, 166
-0.998689, 297, 95, 360, 110
-0.99869, 161, 107, 224, 122
-0.99869, 185, 153, 248, 168
-0.99869, 233, 281, 296, 296
-0.998691, 313, 227, 376, 242
-0.998714, 153, 9, 216, 72
-0.998718, 225, 113, 240, 240
-0.998745, 151, 97, 166, 224
-0.998749, 197, 97, 212, 224
-0.998758, 211, 97, 226, 224
-0.998758, 239, 113, 254, 240
-0.998764, 233, 129, 248, 256
-0.998791, 53, 33, 84, 288
-0.998799, 37, 33, 68, 288
-0.99881, 113, 1, 176, 64
-0.998823, 193, 49, 208, 176
-0.998823, 1, 189, 128, 220
-0.99885, 321, 1, 448, 32
-0.998857, 409, 25, 472, 88
-0.998881, 191, 97, 206, 224
-0.998881, 201, 49, 216, 176
-0.998882, 265, 129, 280, 256
-0.998884, 85, 33, 116, 288
-0.998885, 257, 81, 272, 208
-0.998888, 9, 65, 72, 128
-0.998892, 145, 113, 160, 240
-0.9989, 49, 117, 176, 148
-0.998904, 321, 129, 336, 256
-0.998906, 295, 97, 310, 224
-0.998912, 217, 113, 232, 240
-0.998921, 177, 1, 304, 32
-0.998926, 161, 293, 288, 324
-0.998926, 173, 97, 188, 224
-0.998926, 151, 145, 166, 272
-0.998929, 165, 97, 180, 224
-0.998933, 183, 97, 198, 224
-0.998934, 157, 129, 172, 256
-0.998942, 245, 113, 260, 240
-0.998942, 97, 105, 224, 136
-0.998945, 145, 41, 272, 72
-0.998946, 129, 1, 384, 64
-0.998956, 259, 129, 274, 256
-0.998959, 273, 209, 288, 333
-0.998967, 65, 49, 192, 80
-0.998972, 193, 193, 224, 320
-0.998982, 305, 97, 320, 224
-0.998986, 263, 81, 278, 208
-0.998991, 251, 129, 266, 256
-0.998998, 65, 273, 192, 304
-0.999001, 327, 129, 342, 256
-0.999006, 353, 89, 480, 120
-0.999021, 231, 49, 246, 176
-0.999022, 17, 65, 144, 96
-0.999022, 73, 33, 104, 288
-0.999024, 321, 57, 448, 88
-0.999027, 141, 209, 172, 333
-0.999028, 285, 65, 300, 192
-0.999033, 273, 65, 288, 192
-0.999039, 397, 145, 428, 272
-0.99904, 33, 129, 160, 160
-0.999043, 271, 129, 286, 256
-0.999073, 337, 101, 464, 132
-0.999074, 283, 129, 298, 256
-0.999077, 267, 209, 282, 333
-0.999079, 315, 129, 330, 256
-0.999082, 333, 65, 364, 320
-0.999084, 17, 169, 144, 200
-0.999089, 1, 217, 64, 280
-0.999089, 121, 129, 136, 256
-0.999091, 179, 49, 194, 176
-0.999093, 1, 57, 500, 120
-0.999095, 237, 65, 252, 192
-0.999096, 413, 65, 444, 192
-0.999101, 209, 49, 224, 176
-0.999102, 201, 145, 216, 272
-0.999103, 353, 205, 480, 236
-0.999108, 219, 49, 234, 176
-0.999119, 49, 77, 176, 108
-0.999124, 257, 193, 272, 320
-0.999128, 165, 145, 180, 272
-0.999133, 231, 177, 246, 304
-0.999137, 139, 129, 154, 256
-0.999143, 321, 129, 448, 160
-0.999146, 277, 129, 292, 256
-0.999148, 187, 49, 202, 176
-0.999149, 225, 1, 352, 32
-0.999165, 211, 145, 226, 272
-0.999165, 157, 65, 172, 192
-0.999178, 173, 145, 188, 272
-0.999179, 457, 1, 488, 256
-0.999181, 279, 65, 294, 192
-0.999184, 279, 209, 294, 333
-0.999186, 237, 177, 252, 304
-0.999188, 307, 161, 322, 288
-0.999188, 319, 177, 334, 304
-0.999189, 191, 145, 206, 272
-0.999191, 305, 85, 432, 116
-0.999202, 311, 81, 326, 208
-0.999204, 193, 25, 448, 88
-0.999207, 243, 49, 258, 176
-0.999217, 223, 177, 238, 304
-0.999218, 289, 129, 304, 256
-0.999222, 317, 81, 332, 208
-0.999222, 249, 65, 264, 192
-0.999223, 301, 145, 316, 272
-0.999228, 145, 161, 160, 288
-0.999228, 337, 25, 400, 88
-0.999234, 169, 49, 184, 176
-0.999237, 185, 145, 200, 272
-0.999251, 225, 49, 240, 176
-0.999252, 313, 209, 328, 333
-0.999256, 251, 193, 266, 320
-0.999257, 81, 1, 208, 32
-0.999262, 243, 161, 258, 288
-0.999273, 351, 193, 366, 320
-0.999275, 369, 161, 496, 192
-0.99929, 339, 145, 354, 272
-0.999291, 297, 209, 312, 333
-0.999296, 295, 145, 310, 272
-0.999299, 179, 145, 194, 272
-0.999301, 257, 53, 384, 84
-0.999305, 217, 177, 232, 304
-0.99931, 307, 209, 322, 333
-0.999311, 177, 9, 240, 72
-0.999327, 373, 1, 404, 128
-0.99933, 285, 177, 300, 304
-0.999339, 333, 129, 348, 256
-0.999342, 345, 1, 376, 128
-0.999342, 361, 209, 392, 333
-0.999343, 325, 177, 340, 304
-0.999344, 303, 49, 318, 176
-0.999345, 409, 257, 472, 320
-0.999357, 149, 49, 164, 176
-0.999362, 157, 177, 172, 304
-0.999367, 17, 209, 48, 333
-0.999368, 163, 49, 178, 176
-0.999375, 129, 129, 144, 256
-0.999376, 325, 81, 340, 208
-0.999384, 345, 177, 360, 304
-0.999386, 293, 49, 308, 176
-0.999388, 17, 1, 144, 32
-0.999396, 1, 137, 128, 200
-0.999398, 369, 13, 496, 44
-0.999403, 111, 177, 126, 304
-0.999416, 291, 209, 306, 333
-0.999417, 357, 209, 372, 333
-0.999419, 35, 33, 50, 160
-0.999438, 259, 33, 274, 160
-0.99944, 143, 49, 158, 176
-0.999458, 225, 25, 288, 88
-0.99946, 137, 177, 152, 304
-0.999469, 49, 89, 176, 120
-0.999479, 351, 145, 366, 272
-0.999481, 357, 113, 388, 240
-0.999489, 81, 37, 208, 68
-0.999491, 469, 1, 500, 256
-0.999505, 333, 177, 348, 304
-0.999514, 7, 17, 22, 144
-0.999517, 115, 129, 130, 256
-0.999518, 113, 273, 240, 304
-0.999536, 185, 1, 200, 128
-0.999536, 331, 81, 346, 208
-0.999539, 267, 33, 282, 160
-0.999548, 165, 1, 180, 128
-0.99955, 201, 1, 216, 128
-0.999551, 163, 193, 178, 320
-0.999561, 29, 33, 44, 160
-0.999561, 209, 261, 336, 292
-0.999566, 363, 161, 378, 288
-0.999567, 41, 49, 56, 176
-0.999569, 129, 177, 144, 304
-0.999577, 177, 193, 208, 320
-0.999579, 337, 33, 464, 64
-0.999579, 397, 1, 412, 128
-0.999586, 21, 33, 36, 160
-0.999586, 169, 193, 184, 320
-0.999588, 339, 209, 354, 333
-0.999594, 59, 49, 74, 176
-0.999596, 197, 79, 212, 94
-0.999596, 317, 135, 332, 150
-0.999597, 277, 141, 292, 156
-0.999598, 315, 185, 330, 200
-0.999599, 209, 193, 224, 208
-0.999599, 197, 181, 212, 196
-0.9996, 145, 1, 176, 128
-0.999601, 257, 163, 272, 178
-0.999601, 15, 33, 30, 160
-0.999602, 253, 179, 268, 194
-0.999602, 123, 177, 138, 304
-0.999602, 215, 177, 230, 192
-0.999602, 231, 147, 246, 162
-0.999603, 1, 17, 16, 144
-0.999603, 167, 103, 182, 118
-0.999604, 293, 97, 308, 112
-0.999604, 231, 1, 246, 128
-0.999605, 223, 83, 238, 98
-0.999605, 251, 185, 266, 200
-0.999606, 221, 77, 236, 92
-0.999606, 181, 101, 196, 116
-0.999607, 5, 209, 36, 333
-0.999607, 75, 49, 90, 176
-0.999607, 211, 81, 226, 96
-0.999608, 263, 163, 278, 178
-0.999609, 221, 215, 236, 230
-0.99961, 233, 175, 248, 190
-0.99961, 137, 49, 152, 176
-0.999612, 245, 211, 260, 226
-0.999613, 217, 193, 232, 208
-0.999613, 247, 179, 262, 194
-0.999614, 281, 187, 296, 202
-0.999614, 265, 79, 280, 94
-0.999614, 231, 215, 246, 230
-0.999614, 283, 141, 298, 156
-0.999615, 117, 177, 132, 304
-0.999615, 259, 177, 274, 192
-0.999615, 237, 17, 252, 144
-0.999616, 49, 157, 176, 188
-0.999616, 251, 143, 266, 158
-0.999617, 221, 155, 236, 170
-0.999617, 211, 1, 226, 128
-0.999618, 129, 49, 144, 176
-0.999618, 225, 197, 240, 212
-0.999618, 277, 17, 292, 144
-0.999618, 285, 93, 300, 108
-0.999619, 163, 87, 178, 102
-0.999619, 69, 49, 84, 176
-0.99962, 261, 141, 276, 156
-0.999622, 269, 185, 284, 200
-0.999622, 319, 205, 334, 220
-0.999623, 281, 179, 296, 194
-0.999623, 193, 85, 208, 100
-0.999624, 53, 49, 68, 176
-0.999624, 297, 115, 312, 130
-0.999624, 203, 193, 218, 208
-0.999626, 429, 1, 444, 128
-0.999626, 217, 147, 232, 162
-0.999627, 243, 197, 258, 212
-0.999627, 193, 175, 208, 190
-0.999628, 243, 185, 258, 200
-0.999629, 235, 87, 250, 102
-0.999629, 261, 191, 276, 206
-0.999629, 263, 185, 278, 200
-0.99963, 159, 189, 174, 204
-0.99963, 337, 187, 352, 202
-0.99963, 299, 185, 314, 200
-0.999632, 227, 77, 242, 92
-0.999632, 189, 101, 204, 116
-0.999633, 295, 107, 310, 122
-0.999634, 219, 99, 234, 114
-0.999635, 209, 45, 336, 76
-0.999636, 275, 209, 290, 224
-0.999637, 215, 215, 230, 230
-0.999638, 261, 211, 276, 226
-0.999638, 189, 193, 204, 208
-0.999639, 327, 133, 342, 148
-0.999639, 197, 193, 212, 208
-0.999639, 443, 1, 458, 128
-0.999639, 211, 99, 226, 114
-0.99964, 309, 179, 324, 194
-0.99964, 285, 17, 300, 144
-0.999641, 319, 175, 334, 190
-0.999641, 225, 99, 240, 114
-0.999641, 251, 211, 266, 226
-0.999641, 217, 83, 232, 98
-0.999641, 289, 185, 304, 200
-0.999642, 321, 13, 448, 44
-0.999643, 185, 95, 200, 110
-0.999644, 231, 183, 246, 198
-0.999644, 281, 83, 296, 98
-0.999644, 267, 211, 282, 226
-0.999645, 255, 191, 270, 206
-0.999645, 241, 89, 256, 104
-0.999646, 211, 87, 226, 102
-0.999647, 217, 183, 232, 198
-0.999648, 227, 153, 242, 168
-0.999649, 297, 1, 328, 128
-0.999651, 249, 195, 264, 210
-0.999651, 271, 81, 286, 96
-0.999652, 257, 185, 272, 200
-0.999654, 271, 141, 286, 156
-0.999659, 285, 209, 300, 224
-0.999661, 237, 197, 252, 212
-0.999661, 287, 87, 302, 102
-0.999661, 209, 179, 224, 194
-0.999661, 273, 1, 400, 32
-0.999662, 249, 83, 264, 98
-0.999665, 237, 181, 252, 196
-0.999668, 259, 79, 274, 94
-0.999671, 297, 209, 312, 224
-0.999671, 253, 95, 268, 110
-0.999672, 265, 91, 280, 106
-0.999674, 231, 99, 246, 114
-0.999674, 271, 193, 286, 208
-0.999675, 245, 141, 260, 156
-0.999675, 209, 93, 224, 108
-0.999684, 275, 187, 290, 202
-0.999685, 231, 197, 246, 212
-0.999686, 201, 85, 216, 100
-0.999687, 305, 125, 320, 140
-0.999687, 253, 89, 268, 104
-0.999687, 303, 209, 318, 224
-0.999689, 299, 99, 314, 114
-0.99969, 259, 91, 274, 106
-0.999691, 229, 83, 244, 98
-0.999691, 163, 97, 178, 112
-0.999691, 197, 93, 212, 108
-0.999692, 293, 91, 308, 106
-0.999694, 291, 209, 306, 224
-0.999695, 239, 81, 254, 96
-0.999696, 223, 181, 238, 196
-0.999699, 223, 191, 238, 206
-0.9997, 235, 93, 250, 108
-0.9997, 157, 97, 172, 112
-0.999705, 313, 129, 328, 144
-0.999713, 169, 97, 184, 112
-0.999714, 199, 175, 214, 190
-0.999714, 179, 95, 194, 110
-0.99972, 313, 207, 328, 222
-0.999722, 243, 191, 258, 206
-0.999722, 203, 181, 218, 196
-0.999724, 311, 123, 326, 138
-0.999726, 203, 95, 218, 110
-0.999734, 121, 145, 136, 160
-0.999734, 303, 109, 318, 124
-0.999735, 247, 93, 262, 108
-0.999743, 307, 115, 322, 130
-0.999745, 241, 95, 256, 110
-0.999752, 345, 33, 376, 288
-0.999753, 337, 45, 464, 76
-0.999754, 237, 191, 252, 206
-0.999769, 369, 149, 496, 180
-0.999771, 191, 95, 206, 110
-0.999772, 353, 177, 480, 208
-0.999794, 129, 29, 256, 60
-0.999805, 161, 269, 288, 300
-0.999814, 261, 85, 276, 100
-0.999822, 229, 191, 244, 206
-0.999824, 225, 301, 352, 332
-0.999824, 329, 49, 360, 176
-0.999852, 369, 229, 496, 260
-0.999903, 129, 225, 256, 256
-0.999905, 113, 285, 240, 316
-0.999912, 225, 225, 352, 256
-0.999942, 357, 65, 388, 320
-0.999975, 377, 33, 440, 288
-1.00001, 313, 33, 344, 160
-1.00007, 381, 65, 412, 192
-1.00007, 117, 1, 148, 128
-1.00027, 417, 65, 448, 320
-1.00027, 385, 33, 416, 288
-1.00028, 369, 65, 400, 320
-1.00033, 397, 33, 428, 288
-1.00034, 445, 1, 476, 256
-1.00038, 461, 113, 492, 240
-1.00044, 465, 1, 496, 128
-1.00048, 429, 33, 460, 288
-1.00057, 13, 145, 44, 272
-1.0006, 401, 81, 432, 208
-1.00065, 369, 97, 400, 224
-1.00069, 425, 65, 488, 192
-1.00071, 1, 9, 500, 72
-1.00083, 449, 113, 480, 240
-1.00135, 77, 193, 108, 320
-1.00145, 429, 113, 460, 240
-1.00155, 29, 209, 60, 333
-1.00159, 37, 161, 68, 288
-1.00162, 449, 1, 480, 128
-1.00163, 425, 65, 456, 192
-1.00205, 361, 1, 392, 128
-1.00208, 1, 145, 32, 272
-1.00209, 345, 65, 408, 192
-1.00238, 41, 209, 72, 333
-1.00267, 25, 145, 56, 272
-1.00277, 449, 209, 480, 333
-1.00288, 61, 209, 92, 333
-1.00294, 469, 209, 500, 333
-1.00308, 425, 209, 488, 333
-1.00328, 437, 209, 468, 333
-1.00331, 329, 1, 360, 128
-1.00358, 53, 145, 84, 272
-1.00374, 357, 65, 388, 192
-1.00422, 401, 193, 464, 320
-1.00515, 41, 145, 104, 272
-1.00545, 377, 193, 440, 320
-1.00561, 1, 81, 64, 208
-1.00811, 41, 97, 104, 224
