1873
-0.462752, 1, 65, 500, 320
-0.569665, 1, 1, 500, 332
-0.576717, 33, 1, 288, 332
-0.589266, 161, 65, 416, 320
-0.597449, 33, 33, 288, 288
-0.646813, 161, 1, 416, 332
-0.862608, 257, 1, 500, 332
-0.873464, 177, 33, 304, 288
-0.879414, 97, 33, 224, 288
-0.880504, 17, 1, 144, 256
-0.883866, 97, 1, 224, 332
-0.891075, 1, 177, 500, 304
-0.894444, 161, 1, 288, 332
-0.899834, 225, 65, 352, 320
-0.904729, 17, 1, 144, 332
-0.905922, 209, 1, 336, 332
-0.912841, 1, 129, 500, 256
-0.914169, 65, 65, 320, 192
-0.917972, 257, 1, 384, 332
-0.920015, 273, 65, 400, 320
-0.925818, 193, 145, 448, 272
-0.928443, 161, 49, 288, 176
-0.92986, 33, 129, 288, 256
-0.934466, 193, 193, 448, 320
-0.935625, 353, 65, 480, 320
-0.935928, 161, 97, 416, 224
-0.936032, 1, 81, 500, 208
-0.937322, 1, 17, 256, 144
-0.940734, 17, 1, 144, 128
-0.942336, 193, 97, 256, 224
-0.942544, 169, 49, 232, 176
-0.943396, 33, 177, 288, 304
-0.945882, 81, 1, 144, 128
-0.946724, 209, 49, 272, 176
-0.946817, 353, 1, 480, 332
-0.947075, 209, 113, 336, 240
-0.947795, 1, 33, 500, 160
-0.954303, 233, 81, 296, 208
-0.955274, 97, 97, 224, 224
-0.956324, 145, 129, 272, 256
-0.957046, 33, 1, 96, 128
-0.957935, 9, 1, 72, 128
-0.958898, 97, 49, 224, 176
-0.959468, 161, 49, 416, 176
-0.962484, 193, 121, 256, 184
-0.963958, 33, 49, 96, 176
-0.964441, 145, 209, 272, 332
-0.964889, 153, 113, 216, 240
-0.965136, 169, 89, 232, 152
-0.965359, 305, 1, 432, 332
-0.965618, 49, 161, 176, 288
-0.965635, 257, 113, 384, 240
-0.965848, 57, 1, 120, 128
-0.965974, 257, 97, 320, 224
-0.966293, 209, 57, 272, 120
-0.966453, 33, 65, 160, 192
-0.966974, 185, 193, 248, 320
-0.967043, 169, 57, 232, 120
-0.967236, 217, 145, 280, 272
-0.967542, 241, 97, 304, 160
-0.967916, 377, 233, 440, 296
-0.968475, 353, 209, 480, 332
-0.968501, 193, 193, 320, 320
-0.969041, 121, 33, 184, 160
-0.969735, 209, 65, 336, 192
-0.970457, 257, 65, 500, 320
-0.970458, 273, 177, 400, 304
-0.971222, 369, 209, 432, 332
-0.971363, 217, 89, 280, 152
-0.971388, 329, 145, 392, 272
-0.972381, 73, 1, 136, 256
-0.972597, 33, 65, 96, 128
-0.972717, 97, 1, 224, 128
-0.973294, 97, 177, 224, 304
-0.973606, 33, 113, 160, 240
-0.97383, 89, 161, 152, 288
-0.973877, 65, 161, 128, 288
-0.974597, 249, 121, 312, 184
-0.974696, 209, 193, 272, 320
-0.9749, 249, 257, 312, 320
-0.975222, 217, 121, 280, 184
-0.97548, 337, 193, 400, 320
-0.975545, 161, 65, 288, 128
-0.975651, 169, 1, 232, 256
-0.975764, 177, 105, 304, 168
-0.975825, 89, 169, 152, 232
-0.976369, 193, 33, 256, 288
-0.976375, 73, 97, 136, 224
-0.976406, 329, 265, 392, 328
-0.976662, 185, 145, 248, 272
-0.976676, 145, 49, 208, 176
-0.977385, 169, 113, 232, 176
-0.977621, 81, 17, 144, 80
-0.977684, 241, 129, 368, 192
-0.977732, 185, 201, 248, 264
-0.977747, 161, 161, 224, 288
-0.977805, 233, 65, 296, 320
-0.977902, 185, 241, 248, 304
-0.9781, 193, 97, 256, 160
-0.978325, 49, 209, 176, 332
-0.978328, 297, 129, 360, 256
-0.978418, 217, 225, 280, 288
-0.978746, 201, 161, 264, 224
-0.978895, 97, 121, 224, 184
-0.979003, 249, 81, 280, 208
-0.97913, 305, 137, 368, 200
-0.97938, 353, 233, 416, 296
-0.979873, 109, 1, 140, 128
-0.980005, 181, 49, 212, 176
-0.980188, 237, 49, 268, 176
-0.980563, 233, 49, 264, 112
-0.980848, 65, 169, 128, 232
-0.980859, 57, 209, 120, 332
-0.980875, 97, 97, 224, 160
-0.980902, 257, 49, 500, 176
-0.980908, 281, 129, 344, 192
-0.980997, 201, 97, 232, 224
-0.981014, 369, 241, 496, 304
-0.981073, 9, 49, 72, 176
-0.981195, 113, 177, 176, 304
-0.981228, 121, 73, 184, 136
-0.981277, 121, 81, 184, 208
-0.98137, 185, 33, 248, 96
-0.981436, 1, 161, 128, 288
-0.981463, 233, 33, 296, 160
-0.98162, 161, 177, 224, 240
-0.98177, 233, 145, 296, 208
-0.981781, 121, 49, 184, 112
-0.981842, 193, 97, 224, 160
-0.981906, 73, 49, 136, 176
-0.981919, 1, 1, 64, 64
-0.982004, 53, 1, 84, 128
-0.982027, 113, 145, 240, 208
-0.982041, 213, 49, 244, 176
-0.98212, 217, 129, 248, 256
-0.982449, 73, 89, 136, 152
-0.982451, 225, 49, 256, 176
-0.982455, 25, 1, 56, 128
-0.982463, 185, 57, 216, 120
-0.982697, 433, 241, 496, 304
-0.982769, 217, 273, 280, 332
-0.982872, 385, 233, 416, 296
-0.982967, 193, 49, 224, 176
-0.982986, 365, 177, 396, 304
-0.983012, 1, 209, 128, 332
-0.983087, 401, 233, 464, 296
-0.983155, 209, 265, 336, 328
-0.983331, 37, 1, 68, 128
-0.98336, 225, 105, 352, 168
-0.983451, 65, 233, 128, 296
-0.983497, 173, 49, 204, 112
-0.983538, 145, 177, 272, 240
-0.983733, 13, 1, 44, 128
-0.983771, 177, 129, 304, 192
-0.983859, 209, 1, 272, 332
-0.983928, 241, 113, 272, 176
-0.98404, 237, 97, 268, 224
-0.984232, 353, 161, 480, 288
-0.984358, 129, 193, 192, 256
-0.984389, 97, 73, 224, 136
-0.984456, 25, 33, 88, 288
-0.984573, 121, 25, 184, 88
-0.984773, 97, 49, 224, 112
-0.984904, 253, 97, 284, 160
-0.984908, 17, 9, 144, 72
-0.984933, 209, 209, 240, 332
-0.985082, 321, 257, 448, 320
-0.985122, 173, 73, 204, 136
-0.985279, 369, 257, 432, 320
-0.985296, 49, 169, 176, 232
-0.985313, 265, 105, 296, 168
-0.985368, 33, 97, 96, 160
-0.985368, 329, 153, 392, 216
-0.98543, 121, 97, 184, 160
-0.985505, 145, 33, 208, 288
-0.985521, 321, 233, 448, 296
-0.98559, 81, 65, 144, 128
-0.98564, 169, 1, 232, 332
-0.985655, 65, 137, 128, 200
-0.985675, 265, 97, 296, 224
-0.985735, 73, 1, 104, 128
-0.985972, 205, 97, 236, 160
-0.986042, 109, 17, 140, 80
-0.986079, 9, 57, 72, 120
-0.986125, 209, 185, 272, 248
-0.986146, 161, 41, 288, 104
-0.986197, 145, 49, 208, 112
-0.986211, 49, 73, 176, 136
-0.986213, 377, 161, 440, 288
-0.986293, 113, 201, 240, 264
-0.986314, 337, 193, 400, 256
-0.986382, 57, 209, 120, 272
-0.986383, 265, 49, 328, 176
-0.986421, 229, 121, 260, 184
-0.986436, 241, 145, 272, 272
-0.986547, 221, 209, 252, 332
-0.986548, 185, 1, 248, 128
-0.986608, 233, 41, 296, 104
-0.986679, 289, 249, 352, 312
-0.986709, 257, 65, 384, 192
-0.986793, 145, 105, 208, 168
-0.986815, 113, 153, 176, 216
-0.986815, 161, 153, 224, 216
-0.986943, 97, 25, 224, 88
-0.987012, 177, 153, 304, 216
-0.987022, 205, 209, 236, 272
-0.987083, 73, 113, 136, 176
-0.987106, 113, 129, 176, 256
-0.987214, 57, 9, 120, 72
-0.987347, 193, 265, 256, 328
-0.987352, 33, 97, 160, 160
-0.98739, 377, 209, 440, 272
-0.987436, 129, 241, 256, 304
-0.987448, 381, 209, 412, 332
-0.987489, 273, 273, 336, 332
-0.987498, 25, 193, 88, 320
-0.987528, 33, 97, 96, 224
-0.98771, 33, 129, 160, 192
-0.987768, 397, 233, 428, 296
-0.987833, 373, 233, 404, 296
-0.987847, 241, 153, 272, 216
-0.987853, 181, 97, 212, 160
-0.987878, 225, 249, 288, 312
-0.987966, 257, 97, 500, 224
-0.987976, 137, 177, 200, 304
-0.988019, 341, 265, 372, 328
-0.988041, 337, 97, 464, 224
-0.988209, 221, 217, 252, 280
-0.988225, 305, 273, 368, 332
-0.988305, 49, 1, 112, 256
-0.988408, 209, 65, 240, 128
-0.988433, 169, 49, 200, 176
-0.988464, 161, 265, 288, 328
-0.988477, 241, 273, 272, 332
-0.988673, 221, 193, 252, 256
-0.988698, 369, 217, 496, 280
-0.988824, 25, 1, 88, 64
-0.988835, 201, 121, 232, 184
-0.988837, 53, 65, 84, 192
-0.988901, 233, 209, 264, 332
-0.988914, 209, 249, 240, 312
-0.988933, 225, 1, 352, 128
-0.989022, 97, 1, 160, 256
-0.989051, 261, 257, 292, 320
-0.989071, 81, 41, 144, 104
-0.989123, 33, 41, 160, 104
-0.989233, 273, 265, 400, 328
-0.989254, 197, 177, 228, 304
-0.989257, 161, 1, 288, 128
-0.989328, 65, 273, 128, 332
-0.989344, 193, 209, 320, 272
-0.989367, 193, 1, 448, 128
-0.989376, 469, 241, 500, 304
-0.989388, 221, 57, 252, 120
-0.989442, 49, 233, 176, 296
-0.98953, 401, 209, 464, 332
-0.989613, 349, 153, 380, 216
-0.98963, 25, 145, 88, 272
-0.989658, 97, 1, 352, 128
-0.989786, 85, 1, 116, 128
-0.989821, 1, 1, 32, 128
-0.989945, 1, 233, 128, 296
-0.990001, 297, 209, 360, 332
-0.99001, 181, 137, 212, 200
-0.990031, 33, 121, 96, 184
-0.990083, 97, 169, 224, 232
-0.99009, 49, 193, 176, 256
-0.990158, 273, 153, 400, 216
-0.99016, 185, 97, 216, 224
-0.99029, 457, 241, 488, 304
-0.990349, 233, 209, 296, 332
-0.990369, 185, 117, 248, 148
-0.990374, 233, 169, 296, 232
-0.990396, 81, 1, 144, 332
-0.990433, 145, 1, 208, 332
-0.990494, 169, 101, 232, 132
-0.990513, 145, 129, 208, 192
-0.990516, 121, 33, 184, 288
-0.990612, 193, 241, 320, 304
-0.990621, 241, 89, 272, 152
-0.990632, 193, 177, 320, 240
-0.990644, 57, 65, 88, 128
-0.990732, 377, 237, 440, 268
-0.990745, 241, 145, 304, 272
-0.990748, 217, 121, 280, 152
-0.990757, 273, 233, 400, 296
-0.990784, 185, 145, 216, 272
-0.990912, 41, 49, 72, 176
-0.990983, 97, 1, 128, 128
-0.990986, 221, 273, 252, 332
-0.991011, 65, 97, 320, 160
-0.99103, 369, 257, 432, 288
-0.991094, 49, 257, 176, 320
-0.991131, 233, 1, 296, 332
-0.991145, 241, 109, 304, 140
-0.991154, 1, 65, 128, 128
-0.991204, 249, 265, 312, 296
-0.991209, 1, 153, 128, 216
-0.991217, 145, 81, 208, 144
-0.991223, 257, 121, 320, 152
-0.991242, 297, 65, 360, 320
-0.99128, 225, 153, 352, 216
-0.991295, 277, 113, 308, 176
-0.991297, 193, 105, 256, 136
-0.991312, 25, 1, 88, 332
-0.991313, 337, 265, 400, 296
-0.991314, 161, 121, 416, 184
-0.991322, 73, 113, 104, 240
-0.991343, 185, 65, 248, 96
-0.991353, 217, 97, 248, 160
-0.991402, 81, 17, 144, 48
-0.991402, 81, 173, 144, 204
-0.99141, 209, 53, 272, 84
-0.991429, 73, 177, 104, 304
-0.991456, 89, 193, 152, 256
-0.991465, 169, 89, 232, 120
-0.991492, 281, 97, 344, 160
-0.991531, 209, 85, 272, 116
-0.991539, 161, 57, 224, 88
-0.991705, 173, 113, 204, 240
-0.991712, 409, 233, 440, 296
-0.99176, 193, 165, 256, 196
-0.991762, 21, 1, 52, 64
-0.991767, 289, 193, 416, 256
-0.991788, 93, 169, 124, 232
-0.9918, 209, 49, 336, 112
-0.991808, 65, 121, 320, 184
-0.99182, 313, 81, 376, 208
-0.991823, 433, 209, 496, 332
-0.991827, 281, 129, 344, 160
-0.991844, 217, 97, 280, 128
-0.991867, 185, 41, 248, 72
-0.991889, 329, 129, 360, 256
-0.99191, 193, 153, 256, 184
-0.991939, 229, 161, 260, 288
-0.991996, 193, 217, 448, 280
-0.992027, 201, 133, 264, 164
-0.992039, 193, 177, 256, 208
-0.992045, 33, 57, 288, 120
-0.992047, 145, 45, 208, 76
-0.992053, 209, 273, 272, 304
-0.992056, 121, 77, 184, 108
-0.992058, 305, 141, 368, 172
-0.992085, 401, 237, 464, 268
-0.992122, 33, 65, 96, 96
-0.992142, 217, 249, 280, 280
-0.992145, 169, 205, 232, 236
-0.992158, 185, 217, 248, 248
-0.992166, 433, 265, 496, 328
-0.99217, 297, 285, 360, 316
-0.992181, 49, 13, 112, 44
-0.992207, 161, 77, 224, 108
-0.992218, 433, 241, 496, 272
-0.99229, 17, 9, 80, 40
-0.992294, 233, 49, 296, 80
-0.992299, 113, 129, 176, 192
-0.992325, 377, 225, 440, 256
-0.992326, 393, 257, 456, 288
-0.992329, 73, 89, 136, 120
-0.992344, 1, 61, 64, 92
-0.992348, 177, 237, 240, 268
-0.992359, 81, 73, 144, 104
-0.992366, 217, 261, 280, 292
-0.992377, 65, 229, 128, 260
-0.992379, 121, 45, 184, 76
-0.99238, 305, 269, 368, 300
-0.992383, 209, 65, 272, 96
-0.992406, 169, 113, 200, 176
-0.992418, 161, 185, 224, 216
-0.992439, 185, 53, 248, 84
-0.992441, 121, 89, 184, 120
-0.992444, 121, 65, 184, 96
-0.992447, 353, 193, 480, 256
-0.992448, 33, 97, 96, 128
-0.992454, 73, 101, 136, 132
-0.992461, 153, 133, 216, 164
-0.992463, 353, 245, 416, 276
-0.992464, 193, 189, 256, 220
-0.992468, 361, 169, 392, 232
-0.992473, 121, 33, 184, 64
-0.992474, 233, 157, 296, 188
-0.992483, 121, 101, 184, 132
-0.992485, 161, 113, 224, 144
-0.992491, 33, 193, 96, 256
-0.992502, 93, 161, 124, 288
-0.992516, 253, 129, 284, 192
-0.992516, 361, 145, 424, 208
-0.992518, 209, 205, 272, 236
-0.992531, 121, 189, 184, 220
-0.992533, 177, 129, 240, 160
-0.992546, 57, 169, 120, 200
-0.992592, 73, 129, 136, 160
-0.992596, 217, 233, 280, 264
-0.992603, 257, 65, 320, 320
-0.992611, 65, 253, 128, 284
-0.992645, 81, 61, 144, 92
-0.992672, 105, 145, 136, 272
-0.992676, 65, 157, 128, 188
-0.992677, 321, 157, 384, 188
-0.992678, 161, 145, 416, 208
-0.99268, 73, 117, 136, 148
-0.9927, 57, 217, 120, 248
-0.992701, 237, 49, 268, 80
-0.992715, 209, 81, 336, 144
-0.992726, 125, 113, 156, 240
-0.992734, 337, 225, 400, 256
-0.992738, 169, 49, 200, 80
-0.992739, 297, 257, 360, 288
-0.992755, 241, 145, 304, 176
-0.992772, 65, 145, 320, 208
-0.992783, 337, 145, 368, 208
-0.992786, 385, 237, 416, 268
-0.992799, 273, 277, 336, 308
-0.992813, 433, 253, 496, 284
-0.992819, 217, 109, 280, 140
-0.992828, 65, 241, 128, 272
-0.992829, 201, 97, 232, 128
-0.992844, 297, 113, 328, 240
-0.992853, 121, 113, 184, 144
-0.992855, 241, 97, 304, 128
-0.992859, 161, 173, 224, 204
-0.99286, 201, 109, 232, 140
-0.992876, 73, 141, 136, 172
-0.992896, 241, 121, 272, 152
-0.992909, 25, 145, 88, 208
-0.992916, 57, 181, 120, 212
-0.992917, 257, 101, 288, 132
-0.99292, 161, 145, 224, 176
-0.992926, 425, 265, 488, 296
-0.992932, 33, 121, 96, 152
-0.992952, 217, 221, 280, 252
-0.992961, 89, 185, 152, 216
-0.992966, 65, 197, 128, 228
-0.992974, 65, 269, 128, 300
-0.992978, 113, 161, 176, 192
-0.992985, 381, 257, 412, 288
-0.992992, 257, 133, 320, 164
-0.993005, 329, 169, 392, 200
-0.993006, 365, 209, 396, 272
-0.993008, 329, 277, 392, 308
-0.993009, 213, 121, 244, 184
-0.993013, 185, 257, 248, 288
-0.993021, 33, 133, 96, 164
-0.993021, 37, 57, 68, 120
-0.993025, 89, 233, 120, 296
-0.993034, 33, 109, 96, 140
-0.993042, 185, 61, 216, 92
-0.993046, 225, 169, 288, 200
-0.993054, 381, 257, 412, 320
-0.993071, 249, 77, 312, 108
-0.993075, 329, 181, 392, 212
-0.993077, 109, 17, 140, 48
-0.993081, 233, 277, 296, 308
-0.993083, 345, 265, 376, 296
-0.993086, 225, 133, 288, 164
-0.99309, 237, 273, 268, 304
-0.993102, 337, 193, 400, 224
-0.993102, 149, 185, 180, 248
-0.993109, 273, 89, 400, 152
-0.993123, 369, 265, 496, 328
-0.993127, 177, 105, 208, 136
-0.993128, 401, 257, 432, 288
-0.993136, 189, 93, 220, 124
-0.993137, 9, 1, 40, 64
-0.993147, 421, 233, 452, 296
-0.993156, 89, 161, 152, 192
-0.993159, 33, 41, 96, 104
-0.99316, 145, 101, 208, 132
-0.993169, 361, 173, 424, 204
-0.99317, 397, 237, 428, 268
-0.99318, 193, 125, 224, 156
-0.993188, 213, 101, 244, 132
-0.993191, 337, 145, 368, 176
-0.993199, 225, 57, 256, 88
-0.993202, 89, 145, 152, 208
-0.993207, 269, 113, 300, 144
-0.993208, 193, 289, 256, 320
-0.99321, 221, 213, 252, 244
-0.993219, 173, 93, 204, 124
-0.993223, 193, 193, 448, 256
-0.993227, 229, 81, 260, 144
-0.993228, 369, 65, 432, 320
-0.993231, 301, 129, 332, 192
-0.993232, 213, 121, 244, 152
-0.993239, 145, 289, 208, 320
-0.993245, 369, 193, 432, 224
-0.993246, 217, 273, 248, 304
-0.99325, 217, 193, 248, 224
-0.993258, 213, 61, 244, 92
-0.993263, 177, 137, 208, 168
-0.993277, 257, 253, 320, 284
-0.99328, 225, 229, 256, 260
-0.993284, 337, 205, 400, 236
-0.993291, 113, 129, 176, 160
-0.993291, 409, 237, 440, 268
-0.993292, 413, 257, 444, 288
-0.993306, 345, 145, 376, 272
-0.993307, 325, 137, 356, 200
-0.993309, 33, 85, 96, 116
-0.993309, 345, 137, 408, 168
-0.993309, 185, 273, 248, 304
-0.993312, 469, 241, 500, 272
-0.993313, 149, 189, 180, 220
-0.993316, 369, 257, 400, 288
-0.993318, 241, 157, 272, 188
-0.993326, 189, 105, 220, 136
-0.993326, 261, 257, 292, 288
-0.993328, 89, 29, 152, 60
-0.993331, 293, 129, 324, 160
-0.993334, 385, 225, 416, 256
-0.993336, 325, 141, 356, 172
-0.993344, 373, 245, 404, 276
-0.993348, 105, 173, 168, 204
-0.993348, 105, 173, 136, 204
-0.993349, 81, 5, 144, 36
-0.993357, 25, 157, 88, 188
-0.993369, 113, 141, 176, 172
-0.99337, 433, 277, 496, 308
-0.99338, 433, 289, 496, 320
-0.99338, 173, 73, 204, 104
-0.99338, 205, 241, 236, 272
-0.993384, 329, 245, 392, 276
-0.993385, 349, 157, 380, 188
-0.993386, 249, 269, 280, 300
-0.993393, 129, 201, 192, 232
-0.993394, 305, 133, 336, 164
-0.993395, 33, 53, 96, 84
-0.993397, 177, 125, 208, 156
-0.993398, 225, 109, 256, 140
-0.993403, 173, 61, 204, 92
-0.993403, 209, 221, 240, 252
-0.993405, 273, 97, 336, 128
-0.99341, 53, 65, 84, 96
-0.99341, 421, 237, 452, 268
-0.993413, 93, 169, 124, 200
-0.993415, 237, 65, 268, 96
-0.993418, 181, 49, 212, 80
-0.99342, 205, 85, 236, 116
-0.99343, 105, 169, 136, 232
-0.993441, 249, 145, 280, 176
-0.993441, 281, 121, 312, 152
-0.993444, 145, 217, 208, 280
-0.993447, 41, 9, 72, 40
-0.993454, 73, 13, 104, 44
-0.993454, 9, 5, 40, 36
-0.993455, 425, 257, 456, 288
-0.993459, 337, 129, 464, 192
-0.993459, 353, 169, 480, 232
-0.993461, 205, 209, 236, 240
-0.993462, 321, 289, 352, 320
-0.993463, 325, 273, 356, 304
-0.993465, 197, 65, 228, 96
-0.993469, 165, 121, 196, 152
-0.993469, 245, 109, 276, 140
-0.993472, 73, 177, 104, 208
-0.993473, 229, 261, 260, 292
-0.993473, 469, 261, 500, 292
-0.993475, 1, 273, 128, 332
-0.993485, 237, 85, 268, 116
-0.993489, 309, 285, 340, 316
-0.99349, 229, 125, 260, 156
-0.993492, 257, 133, 288, 164
-0.993497, 249, 33, 280, 160
-0.993504, 73, 193, 104, 224
-0.993511, 353, 169, 384, 200
-0.993513, 117, 185, 148, 216
-0.993514, 97, 17, 128, 48
-0.993518, 453, 241, 484, 272
-0.993519, 249, 89, 280, 120
-0.993522, 105, 157, 136, 188
-0.993524, 61, 13, 92, 44
-0.993525, 25, 9, 56, 40
-0.993526, 357, 265, 388, 296
-0.99353, 209, 261, 240, 292
-0.993532, 365, 225, 396, 256
-0.993532, 29, 61, 60, 92
-0.993533, 201, 197, 232, 228
-0.993547, 1, 233, 500, 296
-0.993549, 85, 13, 116, 44
-0.993551, 73, 161, 104, 192
-0.993563, 169, 37, 200, 68
-0.993564, 65, 65, 96, 96
-0.993566, 433, 237, 464, 268
-0.993574, 185, 149, 216, 180
-0.993579, 69, 217, 100, 248
-0.993581, 237, 169, 268, 200
-0.993581, 469, 277, 500, 308
-0.993588, 361, 189, 392, 220
-0.993589, 285, 269, 316, 300
-0.993593, 217, 181, 248, 212
-0.9936, 289, 65, 352, 192
-0.993605, 121, 161, 152, 192
-0.993608, 365, 205, 396, 236
-0.993611, 193, 49, 224, 80
-0.993614, 17, 61, 48, 92
-0.993617, 297, 277, 328, 308
-0.993619, 225, 45, 256, 76
-0.99362, 337, 281, 368, 312
-0.993621, 157, 109, 188, 140
-0.993622, 193, 185, 224, 216
-0.993623, 225, 241, 256, 272
-0.99363, 129, 25, 160, 56
-0.993631, 61, 97, 92, 128
-0.993636, 85, 229, 116, 260
-0.993646, 125, 133, 156, 164
-0.993648, 237, 185, 268, 216
-0.993649, 293, 113, 324, 144
-0.99365, 197, 137, 228, 168
-0.99365, 89, 213, 120, 244
-0.993663, 437, 261, 468, 292
-0.993665, 1, 57, 32, 88
-0.993665, 125, 117, 156, 148
-0.993665, 273, 265, 304, 296
-0.993667, 129, 37, 160, 68
-0.993679, 125, 77, 156, 108
-0.993679, 125, 105, 156, 136
-0.99368, 97, 257, 128, 288
-0.993685, 469, 289, 500, 320
-0.993686, 133, 193, 164, 224
-0.993747, 401, 257, 464, 320
-0.993859, 197, 57, 228, 120
-0.993897, 225, 241, 256, 304
-0.993929, 57, 65, 120, 128
-0.993942, 97, 1, 224, 64
-0.993978, 113, 1, 176, 332
-0.994018, 361, 265, 392, 328
-0.994037, 25, 225, 88, 288
-0.994041, 257, 257, 500, 320
-0.994079, 1, 145, 500, 208
-0.994088, 329, 225, 392, 288
-0.99413, 369, 169, 432, 232
-0.994133, 97, 257, 160, 320
-0.99417, 345, 121, 408, 184
-0.994202, 329, 65, 392, 320
-0.994209, 149, 177, 180, 304
-0.994225, 1, 1, 64, 332
-0.994231, 193, 169, 448, 232
-0.994244, 29, 49, 60, 176
-0.994256, 197, 185, 228, 248
-0.994259, 1, 201, 128, 264
-0.994287, 469, 265, 500, 328
-0.994318, 1, 33, 64, 288
-0.994339, 117, 177, 148, 240
-0.99439, 41, 249, 104, 312
-0.994395, 173, 1, 204, 128
-0.994479, 25, 169, 88, 232
-0.994554, 285, 113, 316, 240
-0.994569, 281, 265, 312, 328
-0.994584, 33, 241, 288, 304
-0.994613, 209, 1, 272, 128
-0.994668, 381, 209, 412, 272
-0.994682, 313, 129, 344, 256
-0.994801, 1, 193, 500, 256
-0.994808, 445, 241, 476, 304
-0.994815, 33, 1, 64, 64
-0.994851, 89, 9, 120, 72
-0.994893, 161, 209, 224, 332
-0.994939, 161, 97, 416, 160
-0.994952, 25, 57, 56, 120
-0.995019, 289, 121, 320, 184
-0.995042, 225, 129, 352, 160
-0.995051, 89, 233, 152, 296
-0.995106, 161, 125, 288, 156
-0.995141, 313, 129, 344, 192
-0.995143, 5, 57, 36, 120
-0.995167, 117, 153, 148, 216
-0.995176, 161, 65, 288, 96
-0.995212, 33, 185, 288, 248
-0.995227, 121, 1, 184, 64
-0.995227, 73, 169, 104, 232
-0.995255, 387, 233, 402, 296
-0.995261, 177, 105, 304, 136
-0.995275, 1, 169, 500, 232
-0.995293, 217, 169, 248, 232
-0.995311, 329, 273, 360, 332
-0.995326, 41, 273, 104, 332
-0.995327, 105, 145, 136, 208
-0.995331, 253, 73, 284, 136
-0.995379, 9, 33, 72, 96
-0.995415, 1, 121, 500, 184
-0.995426, 245, 41, 276, 104
-0.995455, 207, 89, 222, 152
-0.995475, 1, 177, 128, 240
-0.995485, 121, 161, 152, 288
-0.995503, 97, 125, 224, 156
-0.995517, 97, 105, 224, 136
-0.995526, 129, 65, 384, 128
-0.995531, 369, 237, 496, 268
-0.995537, 81, 209, 144, 332
-0.995551, 17, 49, 48, 176
-0.995555, 49, 1, 112, 332
-0.995569, 73, 137, 104, 200
-0.995634, 209, 1, 240, 128
-0.995666, 209, 33, 272, 96
-0.995704, 73, 193, 104, 256
-0.995762, 189, 1, 220, 128
-0.995784, 297, 1, 360, 332
-0.995819, 225, 25, 352, 88
-0.995823, 61, 97, 92, 160
-0.995838, 265, 1, 328, 332
-0.995853, 1, 33, 256, 96
-0.995897, 433, 233, 464, 296
-0.995903, 173, 25, 204, 88
-0.995974, 161, 249, 416, 312
-0.995988, 245, 41, 260, 104
-0.995988, 237, 249, 268, 312
-0.995997, 425, 217, 488, 280
-0.996003, 257, 209, 320, 332
-0.996041, 241, 141, 368, 172
-0.996047, 97, 93, 224, 124
-0.996051, 385, 161, 416, 288
-0.996053, 157, 89, 188, 152
-0.996055, 125, 65, 156, 192
-0.996059, 361, 113, 424, 240
-0.996093, 177, 137, 304, 168
-0.996107, 157, 65, 188, 192
-0.996147, 209, 269, 336, 300
-0.996179, 337, 257, 464, 288
-0.996191, 97, 137, 224, 168
-0.996191, 129, 33, 160, 96
-0.996198, 243, 121, 258, 184
-0.99622, 33, 209, 288, 272
-0.996235, 255, 89, 270, 152
-0.996238, 161, 77, 288, 108
-0.99626, 109, 97, 140, 224
-0.996301, 17, 13, 144, 44
-0.996303, 97, 53, 224, 84
-0.996327, 65, 265, 320, 328
-0.99633, 161, 49, 192, 112
-0.99636, 187, 49, 202, 112
-0.996361, 125, 129, 156, 192
-0.996374, 253, 113, 268, 176
-0.99639, 175, 41, 190, 104
-0.996419, 189, 33, 220, 96
-0.996433, 161, 17, 288, 80
-0.996437, 161, 1, 224, 128
-0.996452, 239, 49, 254, 112
-0.996461, 305, 113, 368, 176
-0.996483, 237, 185, 268, 248
-0.996493, 219, 217, 234, 280
-0.996503, 209, 117, 336, 148
-0.99651, 393, 233, 408, 296
-0.996514, 61, 9, 92, 72
-0.996535, 229, 225, 244, 288
-0.996536, 65, 65, 96, 192
-0.996547, 161, 273, 416, 332
-0.996549, 161, 93, 288, 124
-0.996564, 125, 17, 156, 144
-0.996579, 317, 265, 348, 328
-0.996592, 399, 233, 414, 296
-0.996608, 197, 57, 212, 120
-0.996622, 121, 17, 136, 80
-0.996639, 321, 269, 448, 300
-0.996647, 161, 113, 192, 240
-0.996666, 145, 185, 272, 216
-0.996675, 217, 65, 248, 320
-0.996684, 293, 273, 324, 332
-0.996688, 261, 97, 276, 160
-0.996691, 97, 77, 224, 108
-0.996719, 247, 273, 262, 332
-0.996722, 381, 233, 396, 296
-0.996723, 105, 1, 136, 256
-0.996736, 145, 201, 272, 232
-0.996761, 145, 273, 208, 332
-0.996783, 269, 97, 284, 160
-0.996799, 321, 1, 384, 332
-0.996819, 201, 33, 232, 288
-0.996837, 265, 49, 296, 176
-0.99685, 221, 249, 236, 312
-0.996878, 213, 65, 228, 128
-0.996888, 113, 149, 240, 180
-0.996897, 393, 209, 424, 332
-0.99691, 173, 1, 204, 256
-0.996925, 181, 41, 196, 104
-0.996946, 113, 65, 240, 96
-0.996985, 199, 113, 214, 176
-0.99699, 245, 153, 260, 216
-0.997014, 229, 57, 244, 120
-0.997018, 345, 265, 360, 328
-0.99703, 405, 233, 420, 296
-0.997038, 119, 169, 134, 232
-0.997041, 189, 161, 220, 224
-0.997092, 193, 121, 208, 184
-0.997095, 237, 1, 268, 128
-0.997111, 73, 65, 88, 128
-0.997119, 213, 201, 228, 264
-0.997137, 233, 33, 264, 288
-0.997163, 125, 73, 156, 136
-0.997171, 481, 241, 496, 304
-0.997178, 177, 149, 304, 180
-0.997187, 237, 129, 252, 192
-0.997194, 125, 105, 156, 168
-0.997203, 17, 97, 144, 128
-0.997211, 411, 233, 426, 296
-0.997215, 371, 177, 386, 240
-0.997241, 257, 265, 272, 328
-0.997243, 49, 77, 176, 108
-0.997245, 215, 113, 230, 176
-0.997259, 177, 73, 192, 136
-0.997268, 249, 65, 312, 128
-0.997282, 229, 273, 244, 332
-0.997283, 33, 117, 160, 148
-0.997286, 377, 193, 392, 256
-0.997306, 33, 53, 160, 84
-0.997315, 473, 241, 488, 304
-0.997316, 113, 161, 240, 192
-0.997318, 97, 41, 224, 72
-0.997327, 481, 273, 496, 332
-0.997331, 145, 173, 272, 204
-0.997339, 223, 97, 238, 160
-0.997343, 363, 161, 378, 224
-0.997384, 187, 105, 202, 168
-0.997389, 249, 81, 264, 144
-0.99739, 77, 1, 108, 256
-0.997395, 275, 105, 290, 168
-0.997398, 33, 137, 160, 168
-0.997401, 231, 193, 246, 256
-0.99741, 195, 145, 210, 208
-0.997411, 65, 65, 192, 96
-0.997417, 241, 257, 368, 288
-0.997418, 261, 121, 276, 184
-0.997483, 5, 49, 36, 176
-0.997504, 177, 161, 304, 192
-0.997506, 203, 65, 218, 128
-0.997509, 67, 65, 82, 128
-0.99751, 113, 265, 240, 328
-0.997518, 145, 49, 272, 80
-0.997538, 85, 209, 116, 332
-0.997541, 263, 257, 278, 320
-0.997546, 285, 89, 316, 152
-0.997552, 417, 233, 432, 296
-0.997559, 29, 1, 44, 64
-0.997567, 129, 225, 256, 256
-0.997576, 289, 257, 416, 288
-0.997601, 185, 33, 216, 288
-0.997605, 239, 169, 254, 232
-0.997651, 235, 273, 250, 332
-0.997659, 49, 193, 176, 224
-0.997669, 201, 89, 216, 152
-0.99768, 35, 1, 50, 64
-0.997694, 205, 93, 220, 124
-0.997694, 421, 209, 452, 332
-0.997698, 361, 1, 424, 332
-0.997708, 283, 113, 298, 176
-0.997714, 205, 145, 236, 208
-0.997725, 129, 213, 256, 244
-0.997728, 161, 241, 224, 304
-0.997729, 33, 149, 160, 180
-0.997736, 217, 89, 232, 152
-0.99774, 317, 81, 348, 208
-0.997741, 467, 241, 482, 304
-0.997743, 221, 33, 252, 96
-0.997744, 357, 153, 372, 216
-0.997749, 49, 173, 176, 204
-0.997753, 23, 1, 38, 64
-0.997767, 207, 193, 222, 256
-0.997771, 387, 237, 402, 268
-0.99778, 251, 145, 266, 208
-0.997782, 305, 237, 432, 268
-0.997785, 73, 9, 104, 72
-0.997787, 49, 269, 176, 300
-0.997788, 249, 65, 280, 320
-0.99779, 437, 209, 468, 332
-0.997793, 361, 233, 392, 296
-0.997805, 249, 233, 312, 296
-0.997808, 17, 1, 32, 64
-0.997813, 193, 257, 320, 288
-0.997841, 317, 129, 332, 192
-0.99785, 349, 145, 364, 208
-0.997854, 223, 57, 238, 120
-0.997867, 17, 65, 144, 96
-0.997868, 193, 97, 208, 160
-0.997887, 221, 121, 236, 184
-0.997895, 175, 113, 190, 176
-0.997905, 9, 1, 24, 64
-0.997907, 201, 33, 232, 96
-0.997907, 257, 273, 384, 304
-0.997916, 369, 225, 496, 256
-0.997918, 461, 241, 476, 304
-0.997925, 77, 89, 92, 152
-0.997925, 109, 193, 140, 320
-0.99793, 205, 105, 220, 136
-0.997931, 387, 257, 402, 320
-0.997931, 177, 45, 192, 76
-0.997934, 409, 209, 440, 332
-0.997952, 81, 217, 208, 248
-0.997953, 341, 137, 356, 200
-0.997953, 203, 169, 218, 232
-0.997955, 17, 161, 144, 192
-0.997959, 129, 237, 256, 268
-0.99796, 289, 121, 304, 184
-0.997963, 453, 209, 484, 332
-0.997981, 351, 265, 366, 328
-0.997981, 49, 237, 176, 268
-0.997986, 125, 153, 140, 216
-0.997986, 101, 233, 116, 296
-0.997988, 301, 105, 332, 168
-0.998005, 295, 121, 310, 184
-0.99801, 249, 249, 280, 312
-0.998017, 109, 65, 140, 128
-0.99802, 97, 173, 224, 204
-0.998021, 93, 1, 124, 256
-0.998027, 457, 265, 488, 328
-0.998028, 289, 129, 416, 192
-0.998028, 289, 225, 416, 256
-0.998031, 89, 265, 120, 328
-0.998032, 3, 1, 18, 64
-0.998035, 359, 265, 374, 328
-0.998038, 225, 157, 352, 188
-0.998042, 97, 185, 224, 216
-0.998052, 39, 57, 54, 120
-0.998056, 349, 97, 380, 224
-0.998065, 273, 73, 336, 136
-0.998069, 161, 193, 192, 320
-0.998077, 209, 53, 336, 84
-0.998081, 193, 221, 320, 252
-0.998083, 185, 49, 200, 80
-0.998093, 145, 25, 208, 88
-0.998093, 53, 33, 84, 288
-0.998094, 205, 113, 220, 176
-0.998097, 387, 257, 402, 288
-0.998099, 339, 273, 354, 332
-0.998108, 425, 233, 440, 296
-0.998108, 387, 209, 402, 272
-0.998109, 251, 49, 266, 112
-0.99811, 241, 273, 256, 332
-0.998114, 243, 45, 258, 76
-0.99812, 321, 105, 448, 168
-0.998129, 229, 249, 244, 312
-0.99813, 193, 181, 320, 212
-0.998134, 73, 161, 88, 224
-0.998143, 75, 121, 90, 184
-0.998147, 163, 185, 178, 248
-0.998151, 335, 137, 350, 200
-0.998152, 289, 65, 320, 192
-0.99816, 257, 285, 384, 316
-0.99817, 301, 129, 316, 192
-0.998175, 231, 105, 246, 168
-0.998176, 233, 25, 264, 88
-0.998182, 455, 241, 470, 304
-0.998184, 369, 269, 496, 300
-0.998194, 161, 269, 288, 300
-0.998205, 369, 265, 384, 328
-0.998206, 81, 205, 208, 236
-0.998207, 59, 57, 74, 120
-0.998208, 47, 57, 62, 120
-0.998211, 187, 129, 202, 192
-0.998216, 269, 249, 284, 312
-0.998218, 377, 265, 392, 328
-0.998226, 53, 57, 68, 120
-0.998235, 431, 233, 446, 296
-0.998236, 225, 73, 480, 136
-0.998256, 193, 57, 208, 88
-0.998257, 111, 169, 126, 232
-0.998262, 469, 311, 500, 326
-0.998263, 345, 157, 376, 172
-0.998263, 209, 251, 240, 266
-0.998263, 177, 111, 208, 126
-0.998264, 365, 233, 396, 248
-0.998265, 181, 121, 196, 184
-0.998266, 241, 165, 272, 180
-0.998266, 205, 239, 236, 254
-0.998266, 197, 143, 228, 158
-0.998266, 189, 57, 220, 72
-0.998266, 201, 67, 232, 82
-0.998266, 325, 289, 356, 304
-0.998266, 205, 219, 236, 234
-0.998267, 89, 233, 120, 248
-0.998269, 95, 169, 110, 232
-0.99827, 399, 237, 414, 268
-0.99827, 265, 111, 296, 126
-0.99827, 381, 245, 412, 260
-0.99827, 357, 267, 388, 282
-0.998271, 73, 189, 104, 204
-0.998271, 73, 203, 104, 218
-0.998271, 241, 159, 272, 174
-0.998273, 409, 251, 440, 266
-0.998274, 265, 81, 296, 144
-0.998276, 205, 59, 236, 74
-0.998277, 181, 149, 212, 164
-0.998277, 349, 163, 380, 178
-0.998278, 233, 77, 264, 92
-0.998279, 253, 271, 284, 286
-0.99828, 341, 273, 372, 288
-0.998281, 313, 289, 344, 304
-0.998281, 173, 79, 204, 94
-0.998281, 173, 105, 204, 120
-0.998282, 369, 267, 400, 282
-0.998282, 325, 281, 356, 296
-0.998282, 241, 47, 272, 62
-0.998282, 469, 271, 500, 286
-0.998283, 469, 303, 500, 318
-0.998283, 73, 181, 104, 196
-0.998283, 261, 257, 292, 272
-0.998284, 385, 233, 416, 248
-0.998284, 173, 137, 204, 152
-0.998284, 245, 119, 276, 134
-0.998285, 217, 127, 248, 142
-0.998285, 311, 129, 326, 192
-0.998285, 105, 167, 136, 182
-0.998285, 325, 137, 340, 200
-0.998286, 97, 29, 224, 60
-0.998287, 445, 253, 476, 268
-0.998287, 189, 131, 220, 146
-0.998288, 169, 71, 200, 86
-0.998288, 235, 53, 250, 84
-0.998289, 33, 11, 64, 26
-0.99829, 233, 125, 264, 140
-0.99829, 149, 195, 180, 210
-0.998291, 469, 279, 500, 294
-0.998291, 217, 195, 248, 210
-0.998293, 73, 175, 104, 190
-0.998294, 1, 7, 32, 22
-0.998294, 233, 71, 264, 86
-0.998296, 49, 13, 80, 28
-0.998296, 173, 93, 204, 108
-0.998296, 401, 257, 432, 272
-0.998297, 25, 65, 40, 128
-0.998298, 429, 257, 460, 272
-0.998298, 17, 9, 48, 24
-0.998298, 97, 19, 128, 34
-0.998298, 221, 59, 252, 74
-0.9983, 313, 137, 344, 152
-0.9983, 65, 67, 96, 82
-0.9983, 205, 245, 236, 260
-0.9983, 453, 259, 484, 274
-0.998301, 225, 231, 256, 246
-0.998302, 461, 253, 492, 268
-0.998302, 337, 151, 368, 166
-0.998303, 441, 259, 472, 274
-0.998304, 217, 201, 248, 216
-0.998304, 181, 143, 212, 158
-0.998304, 417, 257, 448, 272
-0.998304, 85, 17, 116, 32
-0.998305, 233, 269, 264, 284
-0.998307, 65, 15, 96, 30
-0.998308, 105, 175, 136, 190
-0.998309, 1, 59, 32, 74
-0.998311, 369, 261, 400, 276
-0.998312, 261, 263, 292, 278
-0.998313, 233, 281, 264, 296
-0.998316, 181, 125, 212, 140
-0.998317, 169, 65, 200, 80
-0.998317, 157, 185, 172, 248
-0.99832, 181, 117, 212, 132
-0.998321, 33, 253, 160, 284
-0.998321, 273, 123, 304, 138
-0.998321, 49, 9, 80, 72
-0.998321, 37, 63, 68, 78
-0.998322, 93, 173, 124, 188
-0.998323, 149, 189, 180, 204
-0.998325, 237, 65, 268, 80
-0.998327, 269, 117, 300, 132
-0.998327, 257, 65, 272, 128
-0.998331, 389, 257, 420, 272
-0.998332, 17, 61, 48, 76
-0.998333, 429, 263, 460, 278
-0.998334, 221, 121, 252, 136
-0.998335, 289, 129, 320, 144
-0.998337, 469, 259, 500, 274
-0.998339, 31, 65, 46, 128
-0.99834, 205, 95, 236, 110
-0.998341, 185, 105, 216, 120
-0.998341, 71, 201, 86, 264
-0.998343, 449, 241, 464, 304
-0.998343, 213, 107, 244, 122
-0.998345, 325, 113, 356, 176
-0.998346, 217, 65, 248, 80
-0.998347, 217, 207, 248, 222
-0.998348, 221, 213, 252, 228
-0.99835, 417, 263, 448, 278
-0.99835, 445, 265, 476, 280
-0.998351, 325, 141, 356, 156
-0.998351, 53, 65, 84, 80
-0.998352, 221, 275, 252, 290
-0.998352, 377, 161, 408, 224
-0.998353, 241, 275, 272, 290
-0.998358, 221, 219, 252, 234
-0.998359, 301, 133, 332, 148
-0.99836, 13, 57, 28, 120
-0.99836, 345, 267, 376, 282
-0.998361, 257, 105, 288, 120
-0.998361, 95, 9, 110, 72
-0.998365, 189, 63, 220, 78
-0.998367, 69, 217, 100, 280
-0.998368, 119, 145, 134, 208
-0.998368, 405, 257, 420, 288
-0.99837, 401, 263, 432, 278
-0.998372, 385, 251, 416, 266
-0.998373, 221, 225, 252, 240
-0.998374, 173, 99, 204, 114
-0.998374, 197, 121, 212, 152
-0.998376, 115, 17, 130, 80
-0.998377, 193, 93, 224, 108
-0.998377, 127, 129, 142, 192
-0.998378, 253, 99, 284, 114
-0.99838, 201, 121, 232, 136
-0.998381, 209, 281, 336, 312
-0.998383, 201, 109, 232, 124
-0.998384, 225, 105, 352, 136
-0.998384, 109, 21, 140, 36
-0.998387, 1, 233, 128, 264
-0.99839, 209, 93, 336, 124
-0.998391, 385, 239, 416, 254
-0.998391, 5, 57, 20, 120
-0.998392, 273, 153, 400, 184
-0.998394, 245, 125, 276, 140
-0.998395, 193, 193, 320, 224
-0.998398, 461, 265, 492, 280
-0.998399, 381, 263, 412, 278
-0.998399, 41, 1, 56, 64
-0.9984, 69, 249, 100, 312
-0.9984, 221, 101, 236, 132
-0.998404, 177, 59, 208, 74
-0.998405, 129, 89, 144, 152
-0.998405, 229, 273, 244, 304
-0.998405, 395, 257, 410, 320
-0.998406, 233, 59, 264, 74
-0.998406, 89, 9, 104, 72
-0.998415, 123, 21, 138, 52
-0.998417, 197, 97, 212, 128
-0.998421, 257, 97, 500, 160
-0.998423, 273, 169, 400, 200
-0.998429, 411, 257, 426, 288
-0.998429, 393, 257, 408, 288
-0.998433, 281, 113, 296, 144
-0.998433, 399, 249, 414, 280
-0.998433, 193, 241, 224, 304
-0.998436, 409, 237, 424, 268
-0.99844, 213, 113, 228, 144
-0.998444, 227, 61, 242, 92
-0.998445, 365, 165, 380, 196
-0.998448, 265, 65, 296, 320
-0.998449, 193, 99, 224, 114
-0.998453, 169, 49, 200, 64
-0.998459, 237, 53, 268, 68
-0.99846, 227, 221, 242, 252
-0.998463, 205, 101, 236, 116
-0.998464, 393, 237, 408, 268
-0.998466, 417, 257, 432, 288
-0.998473, 193, 233, 320, 264
-0.998489, 233, 193, 296, 256
-0.998492, 201, 115, 232, 130
-0.998493, 129, 257, 256, 288
-0.998505, 255, 269, 270, 300
-0.998507, 245, 157, 260, 188
-0.998514, 481, 289, 496, 320
-0.998515, 345, 269, 360, 300
-0.998519, 275, 105, 290, 136
-0.998524, 249, 113, 264, 144
-0.998524, 209, 209, 336, 240
-0.998526, 289, 181, 416, 212
-0.998526, 53, 161, 84, 288
-0.998533, 225, 77, 352, 108
-0.998541, 191, 141, 206, 172
-0.998542, 485, 241, 500, 272
-0.998552, 243, 121, 258, 152
-0.998553, 169, 117, 232, 132
-0.998556, 169, 103, 232, 118
-0.998557, 215, 101, 230, 132
-0.998557, 379, 245, 394, 276
-0.99856, 381, 257, 396, 288
-0.998561, 193, 121, 256, 136
-0.998576, 415, 237, 430, 268
-0.998579, 353, 165, 480, 196
-0.998582, 217, 125, 280, 140
-0.998582, 137, 193, 168, 320
-0.998587, 185, 65, 248, 80
-0.998587, 257, 129, 320, 144
-0.998588, 169, 97, 232, 112
-0.998588, 161, 281, 288, 312
-0.998591, 369, 263, 432, 278
-0.998592, 377, 253, 440, 268
-0.998596, 359, 157, 374, 188
-0.998602, 169, 109, 232, 124
-0.998604, 353, 185, 480, 216
-0.998605, 377, 239, 440, 254
-0.998606, 249, 273, 264, 304
-0.998608, 249, 121, 312, 136
-0.998608, 257, 97, 272, 128
-0.998609, 351, 149, 366, 180
-0.998612, 193, 115, 256, 130
-0.998614, 81, 19, 144, 34
-0.998615, 469, 209, 500, 332
-0.998618, 337, 267, 400, 282
-0.998622, 189, 129, 204, 160
-0.998622, 177, 127, 240, 142
-0.998628, 305, 49, 432, 176
-0.998628, 209, 95, 272, 110
-0.998633, 193, 171, 256, 186
-0.998633, 81, 173, 144, 188
-0.998634, 33, 65, 96, 80
-0.998636, 211, 201, 226, 232
-0.998639, 401, 263, 464, 278
-0.99864, 185, 55, 248, 70
-0.998641, 161, 61, 224, 76
-0.998642, 9, 63, 72, 78
-0.998643, 33, 25, 160, 56
-0.998644, 129, 9, 160, 72
-0.998646, 297, 277, 360, 292
-0.998648, 249, 271, 312, 286
-0.998648, 193, 165, 256, 180
-0.998648, 417, 257, 480, 272
-0.998649, 209, 61, 272, 76
-0.998649, 1, 257, 500, 320
-0.99865, 193, 177, 256, 192
-0.998654, 269, 101, 284, 132
-0.998654, 209, 89, 272, 104
-0.998654, 193, 109, 256, 124
-0.998655, 33, 13, 96, 28
-0.998655, 191, 105, 206, 136
-0.998655, 1, 9, 64, 24
-0.998655, 433, 265, 496, 280
-0.998656, 217, 131, 280, 146
-0.998657, 297, 271, 360, 286
-0.998658, 57, 15, 120, 30
-0.998663, 117, 173, 132, 204
-0.998663, 129, 43, 192, 58
-0.998663, 393, 257, 424, 320
-0.998664, 169, 91, 232, 106
-0.998664, 217, 263, 280, 278
-0.998666, 273, 113, 400, 144
-0.998667, 199, 109, 214, 140
-0.998667, 225, 101, 288, 116
-0.998668, 193, 187, 256, 202
-0.998669, 261, 209, 292, 332
-0.998669, 225, 55, 288, 70
-0.99867, 121, 77, 184, 92
-0.99867, 241, 115, 304, 130
-0.99867, 193, 103, 256, 118
-0.998672, 121, 87, 184, 102
-0.998675, 1, 57, 500, 120
-0.998676, 81, 79, 144, 94
-0.998677, 281, 133, 344, 148
-0.998678, 193, 159, 256, 174
-0.998679, 121, 49, 184, 64
-0.99868, 65, 233, 128, 248
-0.998682, 81, 87, 144, 102
-0.998682, 121, 93, 184, 108
-0.998683, 81, 71, 144, 86
-0.998683, 201, 153, 264, 168
-0.998684, 369, 247, 432, 262
-0.998684, 387, 225, 402, 256
-0.998685, 193, 193, 256, 208
-0.998685, 161, 191, 224, 206
-0.998685, 209, 275, 272, 290
-0.998686, 249, 265, 312, 280
-0.998687, 337, 261, 400, 276
-0.998687, 297, 289, 360, 304
-0.998688, 217, 119, 280, 134
-0.998688, 105, 121, 136, 184
-0.998688, 81, 179, 144, 194
-0.998688, 73, 93, 136, 108
-0.99869, 121, 101, 184, 116
-0.998691, 57, 171, 120, 186
-0.998691, 73, 105, 136, 120
-0.998692, 121, 107, 184, 122
-0.998692, 161, 67, 224, 82
-0.998692, 483, 277, 498, 308
-0.998693, 217, 257, 280, 272
-0.998693, 431, 257, 446, 288
-0.998694, 177, 225, 240, 240
-0.998696, 209, 83, 272, 98
-0.998696, 185, 245, 248, 260
-0.998696, 247, 73, 262, 104
-0.998696, 161, 1, 192, 256
-0.998696, 297, 141, 360, 156
-0.998697, 297, 283, 360, 298
-0.998697, 185, 239, 248, 254
-0.998698, 49, 285, 176, 316
-0.998698, 121, 65, 184, 80
-0.998698, 193, 213, 256, 228
-0.998698, 145, 49, 208, 64
-0.998699, 145, 55, 208, 70
-0.9987, 185, 233, 248, 248
-0.9987, 121, 113, 184, 128
-0.9987, 337, 153, 464, 184
-0.998701, 41, 71, 104, 86
-0.998701, 73, 111, 136, 126
-0.998702, 161, 85, 224, 100
-0.998702, 121, 189, 184, 204
-0.998703, 121, 71, 184, 86
-0.998703, 217, 251, 280, 266
-0.998703, 73, 99, 136, 114
-0.998704, 177, 133, 240, 148
-0.998705, 193, 207, 256, 222
-0.998705, 121, 195, 184, 210
-0.998706, 81, 167, 144, 182
-0.998707, 369, 233, 432, 248
-0.998708, 291, 125, 306, 156
-0.998709, 73, 133, 136, 148
-0.998709, 217, 269, 280, 284
-0.99871, 65, 257, 128, 272
-0.998711, 161, 77, 224, 92
-0.998711, 233, 49, 296, 64
-0.998711, 169, 213, 232, 228
-0.998712, 73, 141, 136, 156
-0.998712, 249, 45, 264, 76
-0.998712, 217, 241, 280, 256
-0.998712, 209, 67, 272, 82
-0.998712, 161, 185, 224, 200
-0.998713, 121, 55, 184, 70
-0.998713, 337, 245, 400, 260
-0.998713, 241, 109, 304, 124
-0.998714, 337, 233, 400, 248
-0.998714, 305, 147, 368, 162
-0.998714, 81, 65, 144, 80
-0.998714, 89, 187, 152, 202
-0.998714, 153, 125, 216, 140
-0.998714, 65, 239, 128, 254
-0.998715, 73, 117, 136, 132
-0.998715, 313, 153, 376, 168
-0.998716, 353, 205, 480, 236
-0.998716, 233, 161, 296, 176
-0.998716, 209, 219, 272, 234
-0.998717, 477, 241, 492, 272
-0.998717, 261, 261, 276, 292
-0.998718, 161, 197, 224, 212
-0.998718, 193, 199, 256, 214
-0.998719, 401, 251, 464, 266
-0.998719, 169, 207, 232, 222
-0.99872, 109, 49, 140, 176
-0.99872, 73, 147, 136, 162
-0.998721, 33, 99, 96, 114
-0.998722, 57, 191, 120, 206
-0.998722, 89, 25, 152, 40
-0.998722, 73, 127, 136, 142
-0.998722, 217, 213, 232, 244
-0.998724, 185, 139, 248, 154
-0.998725, 213, 89, 228, 120
-0.99873, 157, 113, 188, 176
-0.998731, 73, 65, 88, 96
-0.998737, 253, 129, 284, 256
-0.998739, 67, 65, 82, 96
-0.998748, 219, 249, 234, 280
-0.998752, 421, 237, 436, 268
-0.998756, 33, 41, 160, 72
-0.998758, 427, 237, 442, 268
-0.998759, 251, 149, 266, 180
-0.99877, 321, 129, 448, 160
-0.99877, 233, 209, 248, 240
-0.998773, 109, 41, 140, 104
-0.998779, 481, 301, 496, 332
-0.998781, 351, 265, 366, 296
-0.998782, 225, 65, 352, 96
-0.998789, 183, 125, 198, 156
-0.99879, 229, 161, 260, 224
-0.998791, 177, 121, 192, 152
-0.998797, 237, 281, 252, 312
-0.998802, 485, 261, 500, 292
-0.998807, 175, 77, 190, 108
-0.998808, 243, 277, 258, 308
-0.998811, 237, 129, 252, 160
-0.998814, 65, 1, 320, 64
-0.998818, 289, 205, 416, 236
-0.998821, 423, 261, 438, 292
-0.998822, 219, 233, 234, 264
-0.998824, 177, 57, 192, 88
-0.998826, 339, 141, 354, 172
-0.998827, 97, 13, 224, 44
-0.998833, 205, 189, 220, 220
-0.998837, 371, 185, 386, 216
-0.998843, 269, 249, 284, 280
-0.998844, 221, 261, 236, 292
-0.998845, 345, 145, 360, 176
-0.998847, 263, 97, 278, 128
-0.998851, 77, 89, 92, 120
-0.998851, 219, 121, 234, 152
-0.998856, 115, 17, 130, 48
-0.998859, 471, 241, 486, 272
-0.99886, 289, 193, 416, 224
-0.998871, 193, 245, 320, 276
-0.998875, 317, 133, 332, 164
-0.998877, 187, 61, 202, 92
-0.998879, 73, 73, 104, 136
-0.998882, 81, 13, 96, 44
-0.998883, 257, 121, 272, 152
-0.998883, 133, 193, 164, 256
-0.998885, 261, 137, 276, 168
-0.998885, 47, 9, 62, 40
-0.99889, 371, 265, 386, 296
-0.998892, 203, 65, 218, 96
-0.998897, 399, 261, 414, 292
-0.998904, 161, 185, 176, 216
-0.998908, 193, 41, 448, 104
-0.998911, 437, 261, 452, 292
-0.998912, 325, 137, 340, 168
-0.998913, 97, 25, 352, 88
-0.998915, 305, 129, 320, 160
-0.998924, 53, 9, 68, 40
-0.998924, 109, 17, 124, 48
-0.998933, 247, 57, 262, 88
-0.998937, 111, 261, 126, 292
-0.998938, 329, 289, 344, 320
-0.998938, 335, 289, 350, 320
-0.998939, 15, 5, 30, 36
-0.99894, 49, 209, 80, 332
-0.998942, 199, 85, 214, 116
-0.998943, 117, 161, 132, 192
-0.998945, 17, 221, 144, 252
-0.998952, 201, 177, 216, 208
-0.998955, 263, 125, 278, 156
-0.998956, 87, 13, 102, 44
-0.998961, 241, 57, 256, 88
-0.998964, 247, 85, 262, 116
-0.998964, 41, 9, 56, 40
-0.998967, 197, 145, 212, 176
-0.998968, 401, 209, 464, 272
-0.998969, 357, 265, 372, 296
-0.998974, 121, 1, 136, 128
-0.998976, 219, 65, 234, 96
-0.998978, 465, 241, 480, 272
-0.998978, 21, 5, 36, 36
-0.99898, 337, 97, 400, 224
-0.998981, 75, 13, 90, 44
-0.998984, 103, 17, 118, 48
-0.998986, 1, 173, 128, 204
-0.998987, 155, 185, 170, 216
-0.99899, 477, 277, 492, 308
-0.99899, 475, 261, 490, 292
-0.998991, 123, 177, 138, 208
-0.998991, 323, 285, 338, 316
-0.998996, 357, 65, 388, 320
-0.999012, 337, 141, 464, 172
-0.999013, 377, 193, 392, 320
-0.999026, 249, 65, 264, 192
-0.999032, 161, 37, 288, 68
-0.999038, 177, 293, 304, 324
-0.999041, 289, 141, 416, 172
-0.999055, 257, 145, 500, 208
-0.999067, 37, 1, 52, 128
-0.999069, 73, 1, 88, 128
-0.999079, 225, 169, 352, 200
-0.999084, 17, 1, 144, 32
-0.999084, 257, 93, 384, 124
-0.999087, 277, 65, 308, 320
-0.999095, 257, 65, 384, 128
-0.999101, 223, 49, 238, 176
-0.999105, 345, 209, 376, 332
-0.999107, 49, 1, 64, 128
-0.99911, 243, 113, 258, 240
-0.999114, 205, 81, 220, 208
-0.999115, 109, 89, 140, 152
-0.999117, 1, 269, 128, 300
-0.999122, 43, 1, 58, 128
-0.999128, 117, 1, 148, 256
-0.999132, 55, 1, 70, 128
-0.999135, 97, 209, 128, 332
-0.999138, 31, 1, 46, 128
-0.999139, 67, 1, 82, 128
-0.999142, 1, 97, 500, 160
-0.99915, 65, 65, 96, 320
-0.999151, 61, 1, 76, 128
-0.999165, 193, 49, 208, 176
-0.999167, 21, 1, 36, 128
-0.99917, 217, 49, 232, 176
-0.999189, 233, 113, 248, 240
-0.999195, 257, 121, 500, 184
-0.999196, 65, 161, 192, 192
-0.999204, 231, 49, 246, 176
-0.99921, 243, 33, 258, 160
-0.99921, 211, 49, 226, 176
-0.999215, 227, 209, 242, 332
-0.999216, 221, 209, 236, 332
-0.999217, 83, 1, 98, 128
-0.999221, 255, 65, 270, 192
-0.999222, 21, 33, 52, 288
-0.999243, 15, 1, 30, 128
-0.999264, 93, 201, 124, 264
-0.999268, 1, 85, 128, 116
-0.999285, 209, 273, 240, 332
-0.999286, 37, 33, 68, 288
-0.999288, 371, 177, 386, 304
-0.999292, 249, 113, 264, 240
-0.999293, 261, 81, 276, 208
-0.999295, 277, 49, 308, 176
-0.999295, 49, 297, 176, 328
-0.999297, 237, 65, 252, 192
-0.999305, 177, 33, 192, 160
-0.999309, 199, 49, 214, 176
-0.999314, 215, 193, 230, 320
-0.999317, 305, 281, 432, 312
-0.999343, 49, 225, 80, 288
-0.999343, 113, 233, 144, 296
-0.999343, 73, 49, 88, 176
-0.999352, 199, 97, 214, 224
-0.999355, 183, 33, 198, 160
-0.999377, 97, 269, 224, 300
-0.999389, 233, 209, 248, 332
-0.999391, 349, 241, 380, 304
-0.999392, 213, 97, 228, 224
-0.999403, 385, 209, 400, 332
-0.999404, 65, 1, 192, 32
-0.999404, 1, 293, 128, 324
-0.999404, 205, 33, 220, 160
-0.99941, 1, 281, 128, 312
-0.999422, 67, 65, 82, 192
-0.999438, 267, 81, 282, 208
-0.999438, 9, 33, 40, 288
-0.999438, 341, 121, 372, 184
-0.999444, 329, 65, 360, 320
-0.999445, 203, 177, 218, 304
-0.999451, 113, 1, 128, 128
-0.999457, 105, 1, 120, 128
-0.99946, 273, 129, 400, 160
-0.999466, 99, 1, 114, 128
-0.999469, 93, 1, 108, 128
-0.999475, 75, 113, 90, 240
-0.99948, 129, 293, 256, 324
-0.999484, 9, 1, 24, 128
-0.999489, 109, 19, 124, 34
-0.999489, 211, 205, 226, 220
-0.999489, 195, 107, 210, 122
-0.999489, 115, 19, 130, 34
-0.99949, 117, 197, 132, 212
-0.99949, 207, 197, 222, 212
-0.99949, 219, 215, 234, 230
-0.99949, 247, 75, 262, 90
-0.99949, 83, 15, 98, 30
-0.99949, 209, 177, 224, 304
-0.99949, 273, 109, 288, 124
-0.999491, 77, 93, 92, 108
-0.999492, 481, 317, 496, 332
-0.999492, 25, 61, 40, 76
-0.999493, 253, 113, 268, 128
-0.999493, 415, 257, 430, 272
-0.999493, 269, 255, 284, 270
-0.999493, 479, 279, 494, 294
-0.999493, 69, 67, 84, 82
-0.999494, 61, 13, 76, 28
-0.999494, 235, 131, 250, 146
-0.999494, 387, 233, 402, 248
-0.999494, 437, 257, 452, 272
-0.999495, 363, 167, 378, 182
-0.999495, 175, 51, 190, 66
-0.999496, 77, 15, 92, 30
-0.999496, 219, 245, 234, 260
-0.999497, 3, 59, 18, 74
-0.999497, 93, 17, 108, 32
-0.999498, 45, 63, 60, 78
-0.999498, 183, 129, 198, 144
-0.999498, 189, 131, 204, 146
-0.999498, 325, 139, 340, 154
-0.999499, 39, 63, 54, 78
-0.999499, 61, 65, 76, 80
-0.999499, 241, 161, 256, 288
-0.999499, 311, 133, 326, 148
-0.999499, 303, 131, 318, 146
-0.999499, 237, 275, 252, 290
-0.9995, 373, 267, 388, 282
-0.9995, 317, 135, 332, 150
-0.9995, 19, 61, 34, 76
-0.999501, 45, 49, 60, 176
-0.999502, 245, 159, 260, 174
-0.999502, 471, 259, 486, 274
-0.999502, 175, 75, 190, 90
-0.999502, 175, 113, 190, 240
-0.999502, 239, 281, 254, 296
-0.999503, 117, 169, 132, 184
-0.999504, 97, 233, 112, 248
-0.999504, 345, 147, 360, 162
-0.999504, 481, 271, 496, 286
-0.999506, 427, 257, 442, 272
-0.999506, 409, 257, 424, 272
-0.999506, 263, 263, 278, 278
-0.999507, 449, 257, 464, 272
-0.999507, 189, 137, 204, 152
-0.999507, 421, 257, 436, 272
-0.999508, 213, 97, 228, 112
-0.999508, 465, 259, 480, 274
-0.99951, 223, 65, 238, 80
-0.99951, 279, 97, 294, 224
-0.999511, 265, 101, 280, 116
-0.999511, 283, 119, 298, 134
-0.999512, 293, 127, 308, 142
-0.999513, 481, 259, 496, 274
-0.999513, 219, 251, 234, 266
-0.999516, 443, 263, 458, 278
-0.999516, 217, 109, 232, 124
-0.999517, 225, 221, 240, 236
-0.999519, 359, 161, 374, 176
-0.999519, 233, 219, 248, 234
-0.99952, 197, 145, 212, 272
-0.99952, 459, 259, 474, 274
-0.999521, 247, 55, 262, 70
-0.999521, 339, 143, 354, 158
-0.999521, 399, 257, 414, 272
-0.999521, 195, 149, 210, 164
-0.999523, 191, 143, 206, 158
-0.999524, 75, 67, 90, 82
-0.999525, 223, 129, 238, 256
-0.999525, 355, 267, 370, 282
-0.999525, 255, 97, 270, 112
-0.999525, 381, 261, 396, 276
-0.999526, 189, 61, 204, 76
-0.999526, 127, 113, 142, 240
-0.999527, 203, 115, 218, 130
-0.999527, 247, 277, 262, 292
-0.999528, 241, 127, 256, 142
-0.999528, 485, 265, 500, 280
-0.999531, 273, 97, 288, 224
-0.999532, 193, 125, 208, 140
-0.999532, 117, 177, 132, 192
-0.999533, 119, 145, 134, 272
-0.999534, 191, 97, 206, 112
-0.999535, 279, 113, 294, 128
-0.999536, 389, 257, 404, 272
-0.999537, 271, 103, 286, 118
-0.999537, 227, 227, 242, 242
-0.999538, 199, 95, 214, 110
-0.999538, 415, 263, 430, 278
-0.99954, 213, 117, 228, 132
-0.99954, 431, 263, 446, 278
-0.999541, 345, 269, 360, 284
-0.999542, 351, 151, 366, 166
-0.999543, 235, 57, 250, 72
-0.999543, 239, 209, 254, 332
-0.999543, 481, 289, 496, 304
-0.999547, 401, 263, 416, 278
-0.999547, 475, 265, 490, 280
-0.999548, 221, 101, 236, 116
-0.999549, 449, 265, 464, 280
-0.999549, 255, 273, 270, 288
-0.99955, 387, 251, 402, 266
-0.999551, 249, 119, 264, 134
-0.999551, 437, 263, 452, 278
-0.999552, 229, 275, 244, 290
-0.999552, 199, 121, 214, 136
-0.999556, 183, 49, 198, 64
-0.999558, 51, 49, 66, 176
-0.999559, 421, 263, 436, 278
-0.999559, 195, 63, 210, 78
-0.999559, 481, 311, 496, 326
-0.999559, 229, 61, 244, 76
-0.99956, 481, 301, 496, 316
-0.99956, 459, 265, 474, 280
-0.99956, 123, 21, 138, 36
-0.999561, 465, 265, 480, 280
-0.999563, 37, 49, 52, 176
-0.999564, 71, 193, 86, 320
-0.999564, 343, 129, 358, 256
-0.999568, 239, 51, 254, 66
-0.999571, 187, 55, 202, 70
-0.999572, 171, 49, 186, 176
-0.999573, 485, 279, 500, 294
-0.999573, 207, 103, 222, 118
-0.999573, 307, 113, 322, 240
-0.999574, 395, 263, 410, 278
-0.999575, 387, 263, 402, 278
-0.999575, 365, 161, 380, 288
-0.999581, 387, 239, 402, 254
-0.999584, 409, 263, 424, 278
-0.999584, 215, 103, 230, 118
-0.999585, 197, 101, 212, 116
-0.999598, 231, 161, 246, 288
-0.999601, 79, 65, 94, 192
-0.999606, 181, 81, 196, 208
-0.999611, 205, 109, 220, 124
-0.999612, 205, 95, 220, 110
-0.999613, 287, 113, 302, 240
-0.999616, 337, 129, 352, 256
-0.999622, 301, 113, 316, 240
-0.999623, 245, 49, 260, 64
-0.999623, 1, 189, 128, 220
-0.999627, 99, 161, 114, 288
-0.999633, 105, 161, 120, 288
-0.999635, 67, 145, 82, 272
-0.999635, 381, 65, 412, 320
-0.999635, 331, 129, 346, 256
-0.999637, 129, 65, 144, 192
-0.999641, 65, 193, 80, 320
-0.999642, 295, 113, 310, 240
-0.999642, 1, 205, 128, 236
-0.999643, 57, 49, 72, 176
-0.999643, 359, 145, 374, 272
-0.999643, 325, 129, 340, 256
-0.999644, 315, 129, 330, 256
-0.999647, 177, 45, 192, 60
-0.999648, 255, 113, 270, 240
-0.999649, 93, 177, 108, 304
-0.999654, 249, 17, 264, 144
-0.999654, 31, 49, 46, 176
-0.999654, 185, 129, 200, 256
-0.999657, 199, 1, 214, 128
-0.99966, 191, 97, 206, 224
-0.999665, 213, 1, 228, 128
-0.999668, 257, 301, 384, 332
-0.999669, 255, 17, 270, 144
-0.999673, 111, 145, 126, 272
-0.999683, 97, 281, 224, 312
-0.999686, 115, 193, 130, 320
-0.999692, 163, 177, 178, 304
-0.999692, 349, 129, 364, 256
-0.999698, 289, 65, 320, 320
-0.9997, 391, 209, 406, 332
-0.999702, 129, 17, 144, 144
-0.999709, 407, 209, 422, 332
-0.999709, 481, 209, 496, 332
-0.99971, 237, 17, 252, 144
-0.99971, 125, 161, 140, 288
-0.99971, 25, 49, 40, 176
-0.999712, 3, 1, 18, 128
-0.999713, 387, 161, 402, 288
-0.99972, 169, 217, 200, 280
-0.999727, 81, 257, 208, 288
-0.99973, 57, 169, 88, 232
-0.999732, 121, 97, 136, 224
-0.999735, 169, 97, 184, 224
-0.999735, 153, 177, 168, 304
-0.999737, 417, 209, 432, 332
-0.999738, 19, 49, 34, 176
-0.999738, 401, 209, 416, 332
-0.999743, 13, 49, 28, 176
-0.999744, 467, 209, 482, 332
-0.999744, 99, 209, 114, 332
-0.999752, 3, 49, 18, 176
-0.999756, 217, 145, 232, 272
-0.999761, 423, 209, 438, 332
-0.999765, 435, 209, 450, 332
-0.999766, 273, 49, 288, 176
-0.999767, 289, 65, 304, 192
-0.999767, 231, 1, 246, 128
-0.999767, 449, 209, 464, 332
-0.999774, 345, 65, 376, 320
-0.999776, 441, 209, 456, 332
-0.999776, 193, 1, 208, 128
-0.999783, 371, 113, 386, 240
-0.999786, 321, 209, 352, 332
-0.999794, 459, 209, 474, 332
-0.999798, 361, 209, 376, 332
-0.999799, 475, 209, 490, 332
-0.999801, 105, 209, 120, 332
-0.999882, 225, 41, 352, 72
-0.999915, 129, 33, 160, 288
-0.999932, 301, 65, 332, 320
-0.999949, 97, 89, 160, 152
-0.999953, 1, 17, 500, 80
-0.999985, 17, 273, 80, 332
-0.999988, 113, 233, 176, 296
-1.00002, 369, 65, 400, 320
-1.00008, 77, 49, 108, 176
-1.00008, 257, 245, 384, 276
-1.00013, 1, 233, 64, 296
-1.00019, 305, 293, 432, 324
-1.00023, 97, 49, 160, 176
-1.00024, 313, 65, 344, 320
-1.00032, 329, 81, 360, 208
-1.00036, 369, 289, 496, 320
-1.00048, 401, 161, 464, 288
-1.00057, 161, 25, 288, 56
-1.00062, 61, 113, 92, 240
-1.00065, 209, 29, 336, 60
-1.00068, 321, 117, 448, 148
-1.0007, 173, 209, 204, 332
-1.00074, 445, 65, 476, 320
-1.00074, 393, 65, 424, 320
-1.00074, 413, 65, 444, 320
-1.00075, 369, 301, 496, 332
-1.00076, 433, 65, 464, 320
-1.00076, 469, 65, 500, 320
-1.00078, 113, 1, 240, 32
-1.00088, 225, 1, 256, 128
-1.00089, 93, 113, 124, 240
-1.0009, 141, 65, 172, 320
-1.00092, 305, 65, 336, 192
-1.00093, 457, 65, 488, 320
-1.00093, 153, 17, 184, 144
-1.00096, 241, 197, 368, 228
-1.00096, 1, 97, 64, 160
-1.00097, 241, 233, 368, 264
-1.00103, 361, 129, 392, 256
-1.00103, 225, 17, 352, 48
-1.00103, 1, 145, 64, 272
-1.00119, 281, 209, 312, 332
-1.00122, 301, 209, 332, 332
-1.00131, 57, 33, 120, 96
-1.00138, 433, 161, 496, 288
-1.00143, 401, 1, 464, 332
-1.00152, 1, 161, 64, 224
-1.00156, 433, 1, 496, 332
-1.00165, 245, 209, 276, 332
-1.00168, 193, 17, 448, 80
-1.00175, 333, 209, 364, 332
-1.00182, 209, 1, 336, 64
-1.00197, 241, 17, 304, 80
-1.00201, 273, 225, 336, 288
-1.00223, 121, 265, 184, 328
-1.00237, 413, 161, 444, 288
-1.00241, 61, 209, 92, 332
-1.00243, 425, 161, 456, 288
-1.00246, 373, 129, 404, 256
-1.0025, 141, 129, 172, 256
-1.00258, 401, 161, 432, 288
-1.00259, 437, 161, 468, 288
-1.00272, 241, 193, 368, 256
-1.00276, 289, 1, 416, 64
-1.00291, 369, 17, 496, 80
-1.00291, 273, 33, 400, 96
-1.00291, 321, 41, 448, 104
-1.00291, 369, 41, 496, 104
-1.00291, 321, 65, 448, 128
-1.00291, 369, 65, 496, 128
-1.00291, 369, 89, 496, 152
-1.00296, 137, 169, 200, 232
-1.00322, 401, 65, 464, 320
-1.00325, 449, 161, 480, 288
-1.00333, 169, 265, 232, 328
-1.00334, 305, 89, 368, 152
-1.00338, 1, 121, 64, 184
-1.0034, 21, 97, 52, 224
-1.0035, 465, 161, 496, 288
-1.00367, 9, 97, 72, 224
-1.00371, 329, 97, 392, 160
-1.00371, 433, 65, 496, 320
-1.00384, 1, 177, 32, 304
-1.00387, 21, 145, 52, 272
-1.00402, 185, 209, 216, 332
-1.00421, 41, 97, 72, 224
-1.00423, 137, 241, 200, 304
-1.00433, 125, 209, 156, 332
-1.00434, 369, 81, 400, 208
-1.00435, 173, 161, 204, 288
-1.00439, 177, 9, 240, 72
-1.00513, 1, 209, 64, 272
-1.00532, 1, 209, 64, 332
-1.00548, 33, 145, 64, 272
-1.00615, 9, 97, 40, 224
-1.00653, 13, 209, 44, 332
-1.00694, 209, 9, 272, 72
-1.00694, 297, 225, 360, 288
-1.00701, 37, 209, 68, 332
-1.00712, 337, 49, 400, 176
-1.00712, 25, 209, 56, 332
-1.00744, 257, 145, 320, 208
-1.00756, 349, 49, 380, 176
-1.00762, 1, 185, 64, 248
-1.00779, 433, 193, 496, 256
-1.00843, 257, 201, 320, 264
-1.00854, 153, 1, 216, 64
-1.00862, 137, 1, 168, 128
-1.00867, 317, 33, 348, 160
-1.00868, 93, 65, 124, 192
-1.0087, 257, 1, 320, 128
-1.00887, 269, 161, 300, 288
-1.00899, 265, 1, 296, 128
-1.00903, 281, 1, 344, 64
-1.00917, 281, 161, 312, 288
-1.00929, 281, 177, 344, 240
-1.00929, 305, 177, 368, 240
-1.00929, 305, 201, 368, 264
-1.00956, 421, 97, 452, 224
-1.00956, 433, 97, 464, 224
-1.00956, 445, 97, 476, 224
-1.00956, 457, 97, 488, 224
-1.00956, 469, 97, 500, 224
-1.01038, 321, 1, 448, 128
-1.01038, 369, 33, 496, 160
-1.01216, 361, 65, 424, 192
-1.01229, 313, 33, 376, 160
-1.01427, 273, 161, 336, 288
-1.01432, 273, 1, 400, 128
-1.01478, 337, 1, 400, 128
-1.01478, 409, 1, 472, 128
-1.01478, 433, 1, 496, 128
-1.01478, 361, 17, 424, 144
-1.01478, 385, 17, 448, 144
-1.01478, 409, 49, 472, 176
-1.01478, 433, 49, 496, 176
-1.01478, 385, 65, 448, 192
-1.01478, 409, 97, 472, 224
-1.01478, 433, 97, 496, 224
-1.01644, 289, 17, 352, 144
-1.02096, 385, 113, 448, 240
