1875
-0.38674, 1, 33, 500, 288
-0.421002, 193, 1, 448, 329
-0.429234, 1, 1, 256, 329
-0.430843, 1, 1, 500, 329
-0.534658, 97, 1, 352, 329
-0.550595, 161, 1, 416, 256
-0.569426, 65, 1, 320, 256
-0.679884, 257, 33, 500, 288
-0.830534, 241, 33, 368, 288
-0.831602, 193, 1, 320, 256
-0.84785, 225, 1, 352, 329
-0.859564, 337, 65, 464, 320
-0.86167, 113, 1, 240, 329
-0.863732, 273, 1, 400, 329
-0.86789, 177, 1, 304, 329
-0.869155, 337, 1, 464, 329
-0.876763, 289, 1, 416, 256
-0.877473, 145, 1, 272, 256
-0.879639, 97, 1, 224, 256
-0.882221, 1, 161, 500, 288
-0.885226, 1, 1, 500, 128
-0.889364, 1, 81, 500, 208
-0.89211, 1, 1, 128, 329
-0.893626, 193, 97, 448, 224
-0.899253, 193, 49, 448, 176
-0.900169, 161, 1, 416, 128
-0.909495, 65, 33, 320, 160
-0.910736, 193, 145, 448, 272
-0.91705, 33, 1, 160, 256
-0.920068, 65, 1, 192, 329
-0.921105, 225, 97, 352, 224
-0.922996, 193, 17, 320, 144
-0.926777, 65, 81, 320, 208
-0.927245, 329, 129, 392, 256
-0.92727, 273, 129, 400, 256
-0.92822, 193, 145, 320, 272
-0.93206, 201, 113, 264, 240
-0.932799, 257, 1, 500, 128
-0.933103, 233, 97, 296, 224
-0.933796, 273, 97, 336, 224
-0.933935, 1, 209, 500, 329
-0.934307, 241, 49, 368, 176
-0.935524, 225, 145, 288, 272
-0.935821, 65, 161, 320, 288
-0.935975, 289, 1, 416, 128
-0.93643, 201, 17, 264, 144
-0.940524, 193, 145, 256, 208
-0.941125, 225, 17, 288, 144
-0.942374, 233, 145, 296, 208
-0.942429, 297, 161, 360, 288
-0.942522, 177, 97, 304, 224
-0.942623, 337, 129, 464, 256
-0.943209, 241, 1, 368, 128
-0.943808, 249, 17, 312, 144
-0.944321, 289, 49, 416, 176
-0.944461, 353, 129, 416, 256
-0.945702, 289, 1, 352, 128
-0.946388, 113, 1, 240, 128
-0.946484, 337, 49, 400, 176
-0.946624, 273, 145, 336, 272
-0.946908, 201, 161, 264, 288
-0.948246, 321, 145, 384, 208
-0.948317, 337, 1, 400, 128
-0.948343, 249, 145, 312, 272
-0.950111, 313, 1, 376, 128
-0.950347, 273, 177, 400, 304
-0.950932, 193, 65, 256, 192
-0.951174, 257, 81, 320, 144
-0.951225, 145, 49, 272, 176
-0.95142, 313, 49, 376, 176
-0.951548, 177, 1, 240, 128
-0.952002, 193, 209, 448, 329
-0.952301, 145, 145, 272, 272
-0.952488, 273, 105, 336, 168
-0.952567, 233, 121, 296, 184
-0.953144, 297, 113, 360, 240
-0.95316, 337, 1, 464, 128
-0.953778, 369, 81, 432, 208
-0.95463, 177, 145, 240, 272
-0.955626, 377, 1, 440, 128
-0.955672, 273, 49, 336, 176
-0.955883, 273, 145, 336, 208
-0.956405, 401, 97, 464, 224
-0.956869, 217, 169, 280, 232
-0.956872, 225, 33, 288, 96
-0.957361, 353, 81, 480, 208
-0.957715, 129, 97, 256, 224
-0.958703, 345, 161, 408, 224
-0.959075, 217, 1, 280, 256
-0.959715, 209, 113, 272, 176
-0.960376, 233, 73, 296, 136
-0.960466, 321, 121, 384, 184
-0.960466, 153, 1, 216, 128
-0.96083, 185, 25, 248, 88
-0.961213, 361, 137, 424, 200
-0.961216, 305, 177, 368, 240
-0.961957, 329, 177, 392, 304
-0.962285, 337, 57, 400, 120
-0.962595, 265, 25, 328, 88
-0.962616, 385, 97, 448, 160
-0.96282, 201, 65, 264, 128
-0.963092, 297, 25, 360, 88
-0.96347, 193, 169, 256, 232
-0.963632, 113, 1, 176, 128
-0.964149, 281, 49, 344, 112
-0.964744, 241, 1, 304, 64
-0.964954, 377, 145, 440, 272
-0.965034, 217, 1, 280, 64
-0.965421, 209, 193, 336, 320
-0.965436, 225, 145, 256, 208
-0.965705, 65, 17, 192, 144
-0.965737, 209, 113, 240, 240
-0.965801, 257, 177, 320, 240
-0.965803, 161, 49, 224, 176
-0.965811, 193, 65, 320, 128
-0.965998, 305, 49, 368, 112
-0.966172, 297, 153, 360, 216
-0.966261, 161, 33, 224, 96
-0.966473, 169, 97, 232, 224
-0.96657, 297, 97, 360, 160
-0.966696, 233, 97, 296, 160
-0.966898, 289, 1, 352, 64
-0.967118, 265, 1, 328, 64
-0.967164, 213, 145, 244, 208
-0.967279, 353, 97, 416, 160
-0.967337, 329, 97, 392, 160
-0.967391, 193, 153, 320, 216
-0.967775, 289, 65, 416, 128
-0.96806, 265, 1, 328, 256
-0.968062, 225, 145, 256, 272
-0.968129, 281, 97, 312, 224
-0.968239, 1, 1, 128, 128
-0.96836, 257, 193, 320, 320
-0.968523, 57, 1, 120, 128
-0.968997, 365, 137, 396, 200
-0.969032, 337, 145, 368, 272
-0.969286, 273, 129, 400, 192
-0.969487, 205, 49, 236, 112
-0.969538, 321, 33, 384, 288
-0.969784, 193, 1, 256, 256
-0.969792, 241, 1, 304, 256
-0.969798, 289, 1, 352, 256
-0.969823, 361, 129, 392, 256
-0.969842, 177, 33, 304, 96
-0.970277, 261, 81, 292, 144
-0.970738, 401, 145, 464, 208
-0.970739, 409, 145, 472, 272
-0.97077, 257, 33, 384, 96
-0.971045, 193, 121, 320, 184
-0.97133, 321, 177, 448, 304
-0.971363, 205, 1, 236, 128
-0.971725, 241, 153, 368, 216
-0.971745, 89, 1, 152, 128
-0.971831, 245, 145, 276, 208
-0.971853, 321, 25, 384, 88
-0.971886, 241, 105, 368, 168
-0.971912, 217, 17, 248, 144
-0.972087, 257, 17, 288, 144
-0.972302, 225, 193, 288, 256
-0.972372, 265, 185, 296, 248
-0.972462, 209, 25, 240, 88
-0.972468, 265, 161, 296, 288
-0.972529, 353, 177, 416, 304
-0.972566, 169, 153, 232, 216
-0.972574, 401, 121, 464, 184
-0.972655, 65, 49, 128, 176
-0.972658, 229, 97, 260, 224
-0.972665, 329, 185, 392, 248
-0.972672, 201, 145, 232, 208
-0.972707, 289, 73, 352, 136
-0.972765, 353, 1, 384, 128
-0.972766, 193, 33, 224, 96
-0.972861, 281, 89, 312, 152
-0.972872, 257, 201, 320, 264
-0.972966, 245, 113, 276, 240
-0.973066, 369, 73, 432, 136
-0.973084, 225, 121, 256, 184
-0.973156, 281, 17, 312, 144
-0.973196, 229, 169, 260, 232
-0.97321, 185, 113, 248, 176
-0.973282, 193, 1, 256, 64
-0.97331, 161, 9, 224, 72
-0.973476, 241, 81, 368, 144
-0.973588, 313, 73, 376, 136
-0.973781, 281, 145, 312, 208
-0.973866, 209, 89, 272, 152
-0.973914, 261, 81, 292, 208
-0.973957, 177, 1, 304, 64
-0.973986, 193, 89, 320, 152
-0.973997, 369, 161, 432, 224
-0.974013, 349, 129, 380, 256
-0.974079, 257, 57, 320, 120
-0.974152, 237, 17, 268, 144
-0.974304, 321, 145, 448, 208
-0.974436, 249, 121, 280, 184
-0.974466, 281, 177, 344, 240
-0.974566, 137, 17, 200, 80
-0.974589, 217, 169, 248, 232
-0.974642, 269, 145, 300, 208
-0.974673, 353, 113, 480, 176
-0.975009, 281, 145, 312, 272
-0.975081, 17, 49, 144, 176
-0.975085, 193, 185, 320, 248
-0.975104, 273, 65, 304, 128
-0.975148, 273, 177, 400, 240
-0.975267, 129, 41, 256, 104
-0.975483, 297, 129, 360, 192
-0.975514, 241, 57, 368, 120
-0.975601, 345, 33, 408, 288
-0.975634, 289, 89, 416, 152
-0.975841, 353, 57, 384, 120
-0.975964, 425, 129, 488, 192
-0.975996, 385, 81, 416, 208
-0.976039, 241, 1, 368, 64
-0.976098, 217, 65, 248, 192
-0.976118, 329, 145, 360, 208
-0.97618, 293, 89, 324, 152
-0.976194, 313, 1, 376, 64
-0.976248, 333, 1, 364, 128
-0.97629, 233, 81, 264, 144
-0.976436, 113, 17, 176, 80
-0.976443, 233, 193, 296, 320
-0.976449, 209, 161, 240, 288
-0.976561, 161, 193, 288, 320
-0.97663, 361, 9, 424, 72
-0.976767, 249, 81, 280, 144
-0.977017, 153, 1, 216, 256
-0.97712, 293, 65, 324, 192
-0.97713, 337, 97, 368, 224
-0.97717, 325, 161, 356, 288
-0.977182, 73, 41, 136, 104
-0.977206, 373, 65, 404, 128
-0.97724, 221, 33, 252, 96
-0.977266, 329, 177, 360, 240
-0.97741, 337, 49, 368, 176
-0.977456, 269, 105, 300, 168
-0.977521, 17, 17, 80, 144
-0.977525, 257, 33, 288, 96
-0.977695, 197, 145, 228, 272
-0.977719, 361, 49, 424, 112
-0.977828, 305, 201, 368, 264
-0.977927, 313, 49, 344, 112
-0.977976, 97, 17, 224, 80
-0.978002, 337, 17, 464, 80
-0.978057, 349, 49, 380, 176
-0.97812, 349, 177, 380, 240
-0.978199, 197, 97, 228, 224
-0.978205, 205, 49, 236, 176
-0.978219, 145, 145, 272, 208
-0.978284, 369, 137, 496, 200
-0.978406, 193, 1, 224, 128
-0.978418, 241, 65, 272, 192
-0.978578, 65, 17, 128, 80
-0.978673, 257, 1, 288, 64
-0.978729, 389, 81, 420, 144
-0.978729, 433, 129, 464, 192
-0.978758, 189, 9, 220, 72
-0.97883, 365, 97, 396, 160
-0.9789, 337, 89, 464, 152
-0.979021, 217, 65, 248, 128
-0.97909, 373, 1, 404, 128
-0.979239, 277, 25, 308, 88
-0.979251, 145, 169, 272, 232
-0.979278, 353, 169, 480, 232
-0.979423, 269, 33, 300, 160
-0.979649, 245, 1, 276, 64
-0.979732, 177, 73, 240, 136
-0.979763, 277, 1, 308, 64
-0.97979, 337, 1, 400, 64
-0.979823, 277, 169, 308, 232
-0.979838, 81, 113, 208, 240
-0.979906, 297, 1, 328, 64
-0.979993, 257, 161, 288, 224
-0.98004, 237, 121, 268, 184
-0.98005, 385, 121, 416, 184
-0.980095, 297, 33, 328, 96
-0.980141, 1, 193, 128, 320
-0.980271, 401, 1, 464, 128
-0.980335, 361, 81, 392, 208
-0.980337, 369, 1, 432, 256
-0.980416, 341, 145, 372, 208
-0.980474, 281, 209, 344, 272
-0.980546, 433, 113, 464, 240
-0.980588, 305, 113, 336, 240
-0.980628, 393, 265, 456, 328
-0.980676, 225, 1, 288, 329
-0.980749, 393, 49, 456, 176
-0.980802, 237, 161, 268, 288
-0.980815, 373, 49, 404, 176
-0.980878, 353, 105, 384, 168
-0.981011, 309, 1, 340, 64
-0.981045, 289, 9, 416, 72
-0.981099, 301, 1, 332, 128
-0.981119, 377, 161, 408, 224
-0.981202, 181, 1, 212, 128
-0.981222, 301, 65, 332, 128
-0.981263, 233, 33, 264, 96
-0.981325, 317, 25, 348, 88
-0.981326, 253, 161, 284, 288
-0.981394, 337, 49, 368, 112
-0.981416, 97, 49, 160, 176
-0.981501, 317, 1, 348, 128
-0.981647, 437, 153, 468, 216
-0.981671, 261, 57, 292, 120
-0.981723, 353, 137, 384, 200
-0.981828, 373, 129, 404, 256
-0.981831, 305, 97, 336, 160
-0.981846, 225, 209, 352, 272
-0.98199, 305, 137, 336, 200
-0.982189, 181, 33, 212, 96
-0.982248, 145, 81, 272, 144
-0.982407, 329, 121, 360, 184
-0.982427, 153, 161, 216, 288
-0.982453, 297, 1, 360, 329
-0.982565, 317, 97, 348, 224
-0.982569, 233, 1, 264, 64
-0.982666, 17, 25, 80, 88
-0.982691, 417, 169, 480, 232
-0.98285, 145, 105, 272, 168
-0.982935, 317, 105, 348, 168
-0.983203, 361, 265, 424, 328
-0.983222, 357, 177, 388, 304
-0.983265, 177, 9, 208, 72
-0.983287, 213, 113, 244, 176
-0.983302, 377, 97, 408, 160
-0.98334, 205, 73, 236, 136
-0.983396, 393, 1, 424, 128
-0.983502, 201, 1, 264, 329
-0.983539, 401, 1, 464, 256
-0.983634, 289, 113, 320, 176
-0.983726, 385, 17, 448, 80
-0.983743, 349, 33, 380, 96
-0.983752, 97, 209, 352, 329
-0.983841, 337, 65, 464, 128
-0.983857, 205, 169, 236, 232
-0.983937, 365, 177, 396, 240
-0.983983, 369, 177, 496, 304
-0.984073, 97, 41, 160, 104
-0.984097, 329, 265, 392, 328
-0.984157, 249, 1, 312, 329
-0.98419, 273, 209, 400, 272
-0.984211, 213, 1, 244, 64
-0.984295, 333, 73, 364, 136
-0.984307, 1, 145, 128, 272
-0.984332, 401, 81, 432, 144
-0.984442, 41, 49, 104, 176
-0.984598, 97, 161, 160, 288
-0.984621, 285, 65, 316, 128
-0.984695, 189, 153, 220, 216
-0.98479, 297, 209, 360, 329
-0.984808, 417, 1, 480, 64
-0.984919, 325, 49, 356, 176
-0.985025, 409, 97, 440, 224
-0.985051, 433, 113, 496, 240
-0.98508, 193, 49, 224, 176
-0.985178, 253, 185, 284, 248
-0.985239, 201, 209, 264, 272
-0.985262, 429, 105, 460, 168
-0.985269, 41, 33, 104, 96
-0.985297, 169, 177, 232, 240
-0.985315, 409, 97, 472, 160
-0.985347, 225, 217, 288, 280
-0.985414, 317, 177, 348, 240
-0.985486, 97, 1, 160, 256
-0.985588, 277, 201, 308, 264
-0.98559, 89, 17, 152, 80
-0.985606, 17, 17, 144, 80
-0.985618, 369, 41, 400, 104
-0.985716, 1, 209, 64, 329
-0.985716, 329, 25, 360, 88
-0.985737, 341, 121, 372, 184
-0.985743, 321, 265, 448, 328
-0.985801, 33, 89, 96, 152
-0.985852, 305, 41, 432, 104
-0.9859, 177, 1, 240, 329
-0.986025, 325, 1, 356, 64
-0.986026, 17, 65, 80, 192
-0.986107, 137, 41, 200, 104
-0.986115, 121, 1, 152, 128
-0.98619, 241, 169, 272, 232
-0.986203, 245, 33, 276, 96
-0.986214, 321, 81, 352, 144
-0.986283, 385, 145, 416, 272
-0.986293, 353, 185, 416, 248
-0.986318, 329, 1, 392, 329
-0.986366, 261, 209, 292, 272
-0.986433, 397, 161, 428, 288
-0.986548, 393, 65, 456, 128
-0.986553, 73, 113, 136, 240
-0.986566, 33, 97, 160, 224
-0.986577, 297, 185, 328, 248
-0.986614, 293, 113, 324, 240
-0.986634, 413, 137, 444, 200
-0.986648, 229, 209, 260, 272
-0.986728, 49, 161, 176, 288
-0.986737, 433, 105, 496, 168
-0.986764, 109, 1, 140, 128
-0.986777, 25, 1, 88, 256
-0.986779, 105, 209, 168, 329
-0.986784, 169, 1, 200, 128
-0.98684, 81, 65, 144, 128
-0.986936, 161, 145, 416, 208
-0.986955, 325, 49, 356, 112
-0.986966, 445, 177, 476, 240
-0.986988, 385, 57, 416, 120
-0.987004, 9, 121, 72, 184
-0.987041, 165, 9, 196, 72
-0.98709, 417, 193, 480, 256
-0.987092, 353, 193, 480, 256
-0.987125, 405, 1, 436, 128
-0.987137, 97, 129, 224, 192
-0.987142, 421, 265, 452, 328
-0.987154, 41, 1, 104, 64
-0.987171, 329, 209, 392, 272
-0.98719, 445, 129, 476, 192
-0.987217, 353, 41, 480, 104
-0.987354, 17, 41, 144, 104
-0.987439, 161, 209, 288, 272
-0.987634, 249, 209, 280, 272
-0.98771, 433, 65, 496, 192
-0.987809, 193, 157, 256, 188
-0.987881, 153, 1, 216, 329
-0.98789, 217, 165, 280, 196
-0.987905, 397, 265, 428, 328
-0.987915, 41, 97, 104, 224
-0.987944, 193, 57, 224, 120
-0.988009, 73, 1, 136, 256
-0.988106, 329, 289, 392, 320
-0.988125, 337, 201, 368, 264
-0.988248, 229, 57, 260, 120
-0.98837, 365, 9, 396, 72
-0.988417, 325, 201, 356, 264
-0.988443, 265, 89, 328, 120
-0.988457, 81, 41, 208, 104
-0.988485, 425, 17, 488, 144
-0.988488, 273, 173, 336, 204
-0.988532, 305, 65, 336, 192
-0.988536, 353, 9, 384, 72
-0.988536, 233, 149, 296, 180
-0.988547, 273, 41, 336, 72
-0.988549, 81, 129, 144, 192
-0.988551, 413, 145, 444, 272
-0.988578, 17, 153, 80, 216
-0.988604, 193, 121, 448, 184
-0.988667, 337, 97, 368, 160
-0.98868, 273, 1, 336, 329
-0.988717, 353, 81, 384, 144
-0.988735, 97, 65, 224, 128
-0.988781, 321, 53, 384, 84
-0.988796, 193, 69, 256, 100
-0.988852, 93, 1, 124, 128
-0.988881, 329, 141, 392, 172
-0.988912, 97, 161, 224, 288
-0.988924, 105, 201, 168, 264
-0.98893, 241, 109, 304, 140
-0.989015, 97, 41, 128, 104
-0.989017, 49, 209, 176, 329
-0.989044, 385, 1, 448, 329
-0.989047, 241, 85, 304, 116
-0.989096, 193, 169, 256, 200
-0.989111, 293, 161, 324, 288
-0.989113, 257, 225, 320, 288
-0.989126, 273, 145, 336, 176
-0.989185, 457, 177, 488, 240
-0.989214, 1, 1, 64, 64
-0.989237, 241, 161, 304, 192
-0.989253, 1, 1, 64, 329
-0.989254, 97, 153, 224, 216
-0.989259, 393, 289, 456, 320
-0.989273, 433, 209, 496, 329
-0.989281, 169, 33, 200, 96
-0.989296, 345, 89, 408, 120
-0.989341, 225, 177, 288, 208
-0.989363, 245, 57, 276, 120
-0.989409, 193, 57, 448, 120
-0.989418, 265, 101, 328, 132
-0.989448, 73, 25, 104, 88
-0.989494, 297, 37, 360, 68
-0.989503, 225, 97, 288, 128
-0.989513, 433, 161, 496, 288
-0.989539, 297, 101, 360, 132
-0.989541, 177, 49, 240, 80
-0.989542, 145, 209, 208, 272
-0.98955, 369, 89, 432, 120
-0.989574, 345, 73, 408, 104
-0.989608, 177, 29, 240, 60
-0.989624, 353, 1, 416, 329
-0.989624, 369, 293, 432, 324
-0.989645, 289, 161, 352, 192
-0.989666, 317, 153, 348, 216
-0.989686, 145, 113, 208, 240
-0.989689, 265, 29, 328, 60
-0.989742, 201, 1, 232, 64
-0.989783, 193, 177, 224, 240
-0.989788, 273, 77, 336, 108
-0.989812, 393, 209, 456, 329
-0.98983, 209, 145, 272, 176
-0.989836, 201, 29, 264, 60
-0.989841, 153, 1, 184, 128
-0.989847, 1, 161, 64, 288
-0.989888, 1, 73, 128, 136
-0.989933, 1, 209, 256, 329
-0.989934, 221, 193, 252, 320
-0.989962, 337, 101, 400, 132
-0.989989, 297, 173, 360, 204
-0.990002, 409, 25, 472, 88
-0.990064, 33, 1, 96, 329
-0.99009, 273, 113, 336, 144
-0.990106, 377, 149, 440, 180
-0.990115, 89, 49, 120, 176
-0.990143, 217, 109, 280, 140
-0.990151, 397, 169, 428, 232
-0.990156, 97, 33, 352, 96
-0.990166, 161, 81, 416, 144
-0.990167, 321, 41, 384, 72
-0.990203, 233, 121, 296, 152
-0.990244, 49, 65, 176, 128
-0.990256, 445, 145, 476, 272
-0.990319, 241, 33, 304, 64
-0.990337, 297, 89, 360, 120
-0.990346, 281, 53, 344, 84
-0.990353, 321, 81, 384, 112
-0.990357, 133, 1, 164, 128
-0.990361, 313, 153, 376, 184
-0.990376, 321, 69, 384, 100
-0.990398, 337, 165, 400, 196
-0.990411, 369, 137, 432, 168
-0.990419, 185, 145, 248, 176
-0.990437, 345, 61, 408, 92
-0.990442, 233, 65, 296, 96
-0.990452, 321, 217, 448, 280
-0.990516, 49, 1, 112, 256
-0.990526, 293, 137, 324, 200
-0.990574, 217, 213, 280, 244
-0.990617, 265, 157, 328, 188
-0.99062, 73, 97, 136, 160
-0.990624, 1, 57, 64, 120
-0.990636, 313, 161, 344, 288
-0.99065, 233, 17, 296, 48
-0.990656, 345, 177, 408, 208
-0.99066, 201, 81, 264, 112
-0.990664, 41, 113, 104, 176
-0.990703, 145, 145, 208, 208
-0.990724, 249, 173, 312, 204
-0.990737, 153, 33, 216, 64
-0.990749, 177, 17, 240, 48
-0.990764, 337, 121, 400, 152
-0.990765, 273, 185, 336, 216
-0.990768, 321, 177, 384, 208
-0.990815, 313, 209, 376, 240
-0.990843, 193, 81, 224, 144
-0.990851, 297, 25, 360, 56
-0.990853, 369, 265, 496, 328
-0.990905, 77, 1, 108, 128
-0.99097, 57, 73, 120, 136
-0.990975, 297, 65, 360, 96
-0.991003, 409, 141, 472, 172
-0.991013, 369, 177, 400, 304
-0.991015, 297, 113, 360, 144
-0.991017, 337, 1, 368, 64
-0.991017, 305, 161, 336, 224
-0.991021, 369, 77, 432, 108
-0.991031, 241, 193, 304, 224
-0.991084, 233, 49, 296, 80
-0.991085, 9, 209, 40, 329
-0.991105, 297, 125, 360, 156
-0.99113, 273, 65, 336, 96
-0.991139, 193, 1, 448, 64
-0.991163, 193, 113, 256, 144
-0.991184, 185, 161, 216, 288
-0.991197, 393, 117, 456, 148
-0.991199, 1, 113, 128, 176
-0.991201, 201, 57, 264, 88
-0.991233, 201, 17, 264, 48
-0.991241, 421, 97, 452, 224
-0.991245, 193, 1, 256, 32
-0.991253, 377, 9, 408, 72
-0.991254, 169, 157, 232, 188
-0.991263, 1, 257, 64, 320
-0.991334, 225, 133, 288, 164
-0.991336, 97, 1, 160, 329
-0.991339, 257, 213, 320, 244
-0.99134, 337, 153, 400, 184
-0.991342, 377, 265, 408, 328
-0.991371, 305, 137, 368, 168
-0.991381, 281, 213, 344, 244
-0.991381, 277, 193, 308, 320
-0.991386, 297, 289, 360, 320
-0.991399, 49, 105, 176, 168
-0.991415, 193, 33, 448, 96
-0.991416, 153, 45, 216, 76
-0.991419, 257, 17, 320, 48
-0.991427, 145, 169, 208, 232
-0.991435, 369, 125, 432, 156
-0.991436, 309, 201, 340, 264
-0.991462, 433, 217, 496, 280
-0.991533, 117, 17, 148, 80
-0.991537, 389, 9, 420, 72
-0.991565, 169, 173, 232, 204
-0.991574, 201, 133, 264, 164
-0.991612, 369, 13, 432, 44
-0.991619, 129, 25, 192, 56
-0.991638, 1, 233, 64, 296
-0.991658, 401, 129, 464, 160
-0.991658, 129, 209, 160, 329
-0.991662, 409, 9, 440, 72
-0.991665, 193, 181, 256, 212
-0.991674, 369, 165, 432, 196
-0.991674, 409, 161, 472, 192
-0.991679, 401, 17, 464, 48
-0.991685, 361, 281, 424, 312
-0.99169, 145, 209, 208, 329
-0.991705, 73, 41, 136, 72
-0.991706, 393, 193, 456, 256
-0.991711, 257, 125, 320, 156
-0.991714, 297, 77, 360, 108
-0.991732, 169, 61, 232, 92
-0.991735, 377, 105, 440, 136
-0.991767, 433, 81, 496, 144
-0.991776, 1, 145, 500, 208
-0.991781, 433, 1, 496, 256
-0.991792, 73, 57, 136, 88
-0.991866, 433, 13, 496, 44
-0.991887, 225, 157, 256, 188
-0.991894, 201, 97, 264, 128
-0.991902, 61, 17, 92, 80
-0.991924, 177, 101, 240, 132
-0.991929, 257, 45, 384, 76
-0.991951, 417, 185, 480, 216
-0.991966, 153, 13, 216, 44
-0.991968, 433, 141, 496, 172
-0.99197, 273, 101, 304, 132
-0.99198, 257, 89, 288, 120
-0.991983, 417, 113, 448, 176
-0.991992, 317, 289, 348, 320
-0.992007, 313, 9, 376, 40
-0.992008, 89, 13, 152, 44
-0.992025, 25, 17, 56, 144
-0.992027, 41, 137, 104, 200
-0.992035, 193, 169, 448, 232
-0.992057, 141, 193, 172, 256
-0.992071, 269, 89, 300, 120
-0.992098, 217, 1, 280, 32
-0.992098, 345, 197, 408, 228
-0.992105, 317, 129, 348, 192
-0.992108, 105, 37, 168, 68
-0.992112, 281, 89, 312, 120
-0.992116, 217, 209, 248, 272
-0.992117, 177, 193, 240, 320
-0.99212, 321, 29, 384, 60
-0.992127, 433, 129, 496, 160
-0.992127, 33, 25, 96, 56
-0.992134, 297, 189, 360, 220
-0.992146, 393, 89, 456, 120
-0.992153, 65, 29, 128, 60
-0.992158, 257, 97, 500, 160
-0.992158, 121, 1, 184, 329
-0.992161, 245, 149, 276, 180
-0.992162, 161, 85, 224, 116
-0.992172, 213, 65, 244, 96
-0.992172, 433, 197, 496, 228
-0.992176, 257, 5, 320, 36
-0.99219, 345, 45, 408, 76
-0.99219, 201, 45, 264, 76
-0.992195, 337, 13, 400, 44
-0.992204, 265, 225, 328, 256
-0.992211, 9, 149, 72, 180
-0.992213, 337, 193, 368, 320
-0.992215, 289, 9, 352, 40
-0.992216, 341, 53, 372, 84
-0.992218, 169, 1, 232, 32
-0.992238, 265, 165, 296, 196
-0.992246, 1, 217, 64, 248
-0.992259, 397, 289, 428, 320
-0.992262, 185, 33, 216, 64
-0.992269, 277, 45, 308, 76
-0.992275, 229, 169, 260, 200
-0.992281, 113, 201, 240, 264
-0.992302, 201, 49, 232, 80
-0.992315, 257, 145, 500, 208
-0.992315, 265, 177, 296, 208
-0.992324, 417, 1, 448, 128
-0.992326, 365, 145, 396, 176
-0.992331, 357, 289, 388, 320
-0.992347, 293, 37, 324, 68
-0.992359, 205, 165, 236, 196
-0.992361, 361, 57, 392, 88
-0.992363, 357, 133, 388, 164
-0.99237, 253, 109, 284, 140
-0.992374, 277, 165, 308, 196
-0.992388, 285, 105, 316, 136
-0.992407, 265, 77, 296, 108
-0.992425, 409, 293, 440, 324
-0.992427, 69, 97, 100, 224
-0.99244, 273, 153, 288, 216
-0.99247, 341, 41, 372, 72
-0.992478, 329, 149, 360, 180
-0.992479, 381, 85, 412, 116
-0.992489, 409, 1, 472, 329
-0.99249, 421, 289, 452, 320
-0.992491, 265, 193, 296, 224
-0.9925, 201, 61, 232, 92
-0.992508, 217, 169, 248, 200
-0.992518, 189, 45, 220, 76
-0.99252, 213, 53, 244, 84
-0.992548, 337, 293, 368, 324
-0.992556, 197, 33, 228, 64
-0.992559, 321, 45, 352, 76
-0.992559, 9, 81, 72, 144
-0.992567, 305, 37, 336, 68
-0.992568, 227, 145, 242, 208
-0.99257, 365, 69, 396, 100
-0.992576, 57, 1, 120, 329
-0.992581, 241, 81, 272, 112
-0.992593, 353, 69, 384, 100
-0.992601, 177, 33, 304, 64
-0.992608, 345, 137, 376, 168
-0.992608, 185, 97, 216, 224
-0.992624, 265, 29, 296, 60
-0.992632, 281, 177, 312, 208
-0.992641, 293, 93, 324, 124
-0.992642, 277, 73, 308, 104
-0.992645, 357, 89, 388, 120
-0.992659, 361, 177, 392, 208
-0.992661, 245, 121, 276, 152
-0.992662, 105, 225, 168, 288
-0.992664, 369, 117, 400, 148
-0.992666, 337, 81, 368, 112
-0.99267, 213, 153, 244, 184
-0.99267, 277, 57, 308, 88
-0.99267, 213, 29, 244, 60
-0.992673, 277, 33, 308, 64
-0.992677, 341, 65, 372, 96
-0.992678, 397, 49, 428, 176
-0.992686, 173, 33, 204, 64
-0.992686, 241, 109, 272, 140
-0.992689, 233, 145, 248, 208
-0.992703, 277, 145, 308, 176
-0.992717, 177, 157, 304, 188
-0.992721, 225, 69, 256, 100
-0.992723, 309, 169, 340, 200
-0.992724, 33, 57, 288, 120
-0.992725, 377, 293, 408, 324
-0.992732, 265, 153, 296, 184
-0.992744, 245, 161, 276, 192
-0.992755, 381, 73, 412, 104
-0.992757, 429, 145, 460, 176
-0.992758, 393, 89, 424, 120
-0.992765, 253, 77, 284, 108
-0.992766, 97, 89, 224, 152
-0.992767, 253, 173, 284, 204
-0.992769, 113, 65, 176, 128
-0.992771, 329, 181, 360, 212
-0.992771, 225, 145, 256, 176
-0.992777, 317, 33, 348, 64
-0.992778, 337, 97, 368, 128
-0.992779, 297, 49, 328, 80
-0.992779, 1, 57, 500, 120
-0.992785, 309, 49, 340, 80
-0.992792, 301, 105, 332, 136
-0.992799, 181, 17, 212, 48
-0.9928, 369, 165, 400, 196
-0.99281, 385, 161, 416, 192
-0.99281, 317, 101, 348, 132
-0.992813, 325, 137, 356, 168
-0.992823, 229, 121, 260, 152
-0.992829, 253, 33, 284, 64
-0.992832, 273, 113, 304, 144
-0.992834, 201, 153, 232, 184
-0.992835, 357, 45, 388, 76
-0.992844, 305, 141, 336, 172
-0.992855, 245, 93, 276, 124
-0.992857, 369, 133, 400, 164
-0.992858, 329, 61, 360, 92
-0.992859, 393, 169, 456, 232
-0.992874, 433, 25, 496, 88
-0.992878, 225, 17, 256, 48
-0.9929, 229, 105, 260, 136
-0.992903, 285, 117, 316, 148
-0.992909, 265, 65, 296, 96
-0.99292, 385, 133, 416, 164
-0.992936, 225, 161, 352, 192
-0.992936, 197, 17, 228, 48
-0.992938, 217, 181, 248, 212
-0.992941, 349, 101, 380, 132
-0.992945, 249, 17, 280, 48
-0.99295, 217, 117, 248, 148
-0.992969, 229, 133, 260, 164
-0.992969, 257, 57, 384, 88
-0.992977, 237, 17, 268, 48
-0.992977, 301, 25, 332, 56
-0.992977, 193, 233, 320, 296
-0.992978, 321, 209, 352, 240
-0.992984, 329, 161, 360, 192
-0.992986, 369, 89, 400, 120
-0.99299, 433, 133, 464, 164
-0.992997, 309, 157, 340, 188
-0.993004, 373, 177, 404, 208
-0.993007, 329, 33, 360, 64
-0.993014, 425, 117, 456, 148
-0.993021, 341, 181, 372, 212
-0.993021, 209, 17, 240, 48
-0.993034, 209, 141, 240, 172
-0.993035, 329, 121, 360, 152
-0.993035, 337, 281, 368, 312
-0.993037, 365, 101, 396, 132
-0.993039, 265, 129, 296, 160
-0.993046, 177, 45, 208, 76
-0.993046, 161, 29, 192, 60
-0.993053, 209, 93, 336, 124
-0.993055, 265, 45, 296, 76
-0.993071, 245, 209, 276, 240
-0.993077, 101, 49, 132, 176
-0.993082, 381, 105, 412, 136
-0.993083, 341, 209, 372, 240
-0.993084, 205, 177, 236, 208
-0.993089, 345, 121, 376, 152
-0.993092, 205, 105, 236, 136
-0.993095, 229, 209, 260, 240
-0.993152, 65, 97, 320, 160
-0.993203, 273, 177, 288, 240
-0.993269, 41, 209, 104, 329
-0.99327, 221, 145, 236, 208
-0.993318, 305, 153, 432, 184
-0.993338, 129, 1, 192, 256
-0.993341, 225, 145, 352, 176
-0.99335, 41, 17, 72, 144
-0.993376, 231, 169, 246, 232
-0.993391, 193, 73, 320, 104
-0.993406, 81, 65, 208, 192
-0.99343, 17, 113, 80, 240
-0.993457, 193, 209, 448, 272
-0.99347, 1, 25, 256, 88
-0.993477, 273, 97, 400, 128
-0.993508, 97, 105, 160, 168
-0.993523, 425, 265, 488, 328
-0.99353, 97, 97, 160, 224
-0.993536, 77, 49, 108, 176
-0.993622, 353, 137, 480, 168
-0.993623, 207, 25, 222, 88
-0.993635, 367, 137, 382, 200
-0.993642, 273, 165, 400, 196
-0.993682, 213, 25, 228, 88
-0.993695, 209, 105, 336, 136
-0.993708, 267, 169, 282, 232
-0.993714, 1, 17, 500, 80
-0.993754, 239, 145, 254, 208
-0.993781, 225, 169, 240, 232
-0.993805, 33, 145, 288, 208
-0.993821, 65, 169, 320, 232
-0.993822, 181, 49, 212, 176
-0.993827, 121, 81, 184, 208
-0.993837, 53, 1, 84, 128
-0.993871, 193, 173, 320, 204
-0.993877, 177, 53, 304, 84
-0.993901, 413, 193, 444, 320
-0.993906, 49, 225, 176, 288
-0.993944, 1, 177, 64, 240
-0.993945, 383, 97, 398, 160
-0.993951, 1, 97, 500, 160
-0.993959, 33, 65, 96, 128
-0.993971, 433, 65, 464, 192
-0.994002, 337, 289, 464, 320
-0.994055, 213, 145, 228, 208
-0.994077, 113, 209, 240, 329
-0.994091, 1, 137, 128, 200
-0.994097, 353, 169, 480, 200
-0.994123, 367, 49, 382, 112
-0.994141, 401, 241, 464, 304
-0.994151, 153, 81, 216, 144
-0.994152, 377, 65, 392, 128
-0.994154, 97, 41, 224, 72
-0.994155, 375, 137, 390, 200
-0.99416, 349, 177, 364, 240
-0.994173, 97, 1, 352, 64
-0.994187, 273, 117, 400, 148
-0.994209, 273, 141, 400, 172
-0.994213, 385, 41, 448, 104
-0.994247, 295, 89, 310, 152
-0.994247, 251, 113, 266, 176
-0.994249, 325, 209, 356, 329
-0.994307, 65, 121, 320, 184
-0.994318, 25, 193, 56, 320
-0.994319, 265, 81, 280, 144
-0.994329, 333, 145, 348, 208
-0.994359, 203, 153, 218, 216
-0.994361, 225, 25, 240, 88
-0.994383, 89, 161, 152, 224
-0.994428, 1, 1, 64, 256
-0.994435, 339, 41, 354, 104
-0.994441, 251, 81, 266, 144
-0.994453, 219, 25, 234, 88
-0.99448, 273, 257, 400, 320
-0.9945, 1, 177, 128, 240
-0.994515, 257, 85, 384, 116
-0.994537, 191, 25, 206, 88
-0.994539, 33, 201, 160, 264
-0.994543, 217, 49, 232, 112
-0.994554, 335, 177, 350, 240
-0.994609, 209, 209, 336, 240
-0.99461, 241, 177, 368, 208
-0.994617, 211, 49, 226, 112
-0.994619, 279, 169, 294, 232
-0.99463, 233, 33, 248, 96
-0.994634, 377, 105, 392, 168
-0.994634, 241, 113, 256, 176
-0.994637, 25, 225, 88, 288
-0.994641, 237, 169, 252, 232
-0.994646, 305, 81, 432, 112
-0.994647, 177, 145, 304, 176
-0.994657, 245, 145, 260, 208
-0.994711, 453, 81, 484, 208
-0.994746, 307, 73, 322, 136
-0.994749, 1, 249, 128, 312
-0.994767, 53, 49, 84, 176
-0.994788, 231, 113, 246, 176
-0.99479, 225, 57, 240, 120
-0.994806, 343, 177, 358, 240
-0.994833, 469, 1, 500, 128
-0.994838, 273, 129, 288, 192
-0.994872, 353, 157, 480, 188
-0.994889, 241, 33, 368, 64
-0.994893, 277, 65, 292, 128
-0.994897, 1, 121, 500, 184
-0.994913, 257, 69, 384, 100
-0.994914, 261, 1, 276, 64
-0.994934, 353, 125, 480, 156
-0.994941, 283, 97, 298, 160
-0.994951, 145, 173, 272, 204
-0.994953, 273, 1, 288, 64
-0.994955, 305, 25, 320, 88
-0.99496, 267, 145, 282, 208
-0.994961, 283, 145, 298, 208
-0.99498, 41, 265, 104, 328
-0.994988, 199, 33, 214, 96
-0.994991, 311, 33, 326, 96
-0.995002, 259, 97, 274, 160
-0.995011, 369, 241, 496, 304
-0.995021, 357, 145, 372, 208
-0.995028, 267, 193, 282, 256
-0.995045, 433, 1, 496, 329
-0.995056, 433, 161, 464, 288
-0.99506, 385, 73, 400, 136
-0.995082, 355, 177, 370, 240
-0.995089, 41, 161, 104, 288
-0.995097, 177, 201, 240, 264
-0.995102, 231, 65, 246, 128
-0.99511, 209, 121, 336, 152
-0.995111, 143, 201, 158, 264
-0.99513, 289, 81, 304, 144
-0.995179, 129, 61, 256, 92
-0.99518, 417, 57, 480, 120
-0.995184, 307, 97, 322, 160
-0.995202, 333, 33, 348, 96
-0.995203, 275, 105, 290, 168
-0.995204, 37, 209, 68, 329
-0.995205, 301, 105, 316, 168
-0.995232, 1, 185, 500, 248
-0.995243, 357, 41, 372, 104
-0.995249, 289, 177, 416, 208
-0.995254, 49, 137, 176, 200
-0.995257, 251, 1, 266, 64
-0.995259, 439, 113, 454, 176
-0.995263, 245, 1, 276, 256
-0.995263, 161, 17, 288, 48
-0.995274, 379, 161, 394, 224
-0.995293, 389, 97, 404, 160
-0.995324, 381, 129, 396, 192
-0.995325, 393, 73, 408, 136
-0.995337, 313, 97, 328, 160
-0.995337, 65, 1, 96, 128
-0.995339, 449, 129, 464, 192
-0.99534, 219, 169, 234, 232
-0.995358, 345, 145, 360, 208
-0.99537, 257, 73, 272, 136
-0.995371, 289, 293, 416, 324
-0.995392, 337, 93, 464, 124
-0.995393, 279, 193, 294, 256
-0.995399, 205, 1, 236, 256
-0.995419, 197, 153, 212, 216
-0.995429, 137, 233, 200, 296
-0.995432, 321, 1, 336, 64
-0.995451, 329, 177, 344, 240
-0.995452, 313, 1, 328, 64
-0.995454, 301, 1, 316, 64
-0.995457, 225, 1, 256, 256
-0.995466, 33, 145, 64, 272
-0.99547, 363, 161, 378, 224
-0.99547, 263, 121, 278, 184
-0.995476, 257, 129, 384, 160
-0.99549, 305, 65, 432, 96
-0.995531, 339, 145, 354, 208
-0.995562, 289, 25, 416, 56
-0.995564, 13, 17, 44, 144
-0.995578, 241, 21, 368, 52
-0.995584, 273, 33, 288, 96
-0.995602, 317, 33, 332, 96
-0.995602, 371, 105, 386, 168
-0.995607, 81, 25, 208, 56
-0.995626, 251, 137, 266, 200
-0.99563, 145, 233, 272, 296
-0.995644, 351, 145, 366, 208
-0.995662, 305, 53, 432, 84
-0.995672, 301, 185, 316, 248
-0.995679, 369, 217, 496, 280
-0.995693, 369, 177, 384, 240
-0.995696, 261, 145, 276, 208
-0.99571, 201, 233, 264, 296
-0.995722, 297, 209, 328, 329
-0.995737, 33, 65, 64, 192
-0.995749, 239, 1, 254, 64
-0.995755, 321, 13, 448, 44
-0.995762, 161, 109, 288, 140
-0.995765, 293, 1, 308, 64
-0.995767, 367, 25, 382, 88
-0.995768, 345, 33, 360, 96
-0.99577, 283, 1, 298, 64
-0.995776, 245, 1, 260, 64
-0.99578, 65, 177, 192, 240
-0.995783, 341, 65, 356, 128
-0.995793, 335, 121, 350, 184
-0.995819, 185, 25, 200, 88
-0.995824, 295, 121, 310, 184
-0.995852, 377, 41, 392, 104
-0.99593, 199, 9, 214, 72
-0.995937, 203, 57, 218, 120
-0.995949, 349, 33, 380, 288
-0.995955, 225, 113, 240, 176
-0.995964, 267, 1, 282, 64
-0.995969, 301, 49, 316, 112
-0.995974, 367, 81, 382, 144
-0.995975, 387, 121, 402, 184
-0.995977, 241, 73, 256, 136
-0.995979, 291, 25, 306, 88
-0.995989, 397, 113, 428, 240
-0.99599, 33, 193, 288, 256
-0.995999, 321, 105, 448, 136
-0.996015, 141, 209, 172, 329
-0.996016, 289, 105, 304, 168
-0.99602, 283, 41, 298, 104
-0.996026, 249, 33, 264, 96
-0.996032, 113, 249, 176, 312
-0.996035, 337, 33, 368, 288
-0.996043, 257, 121, 272, 184
-0.996044, 293, 1, 324, 256
-0.99606, 331, 1, 346, 64
-0.99606, 307, 1, 322, 64
-0.996073, 177, 1, 304, 32
-0.996084, 351, 49, 366, 112
-0.996089, 295, 65, 310, 128
-0.996092, 129, 161, 256, 192
-0.996097, 281, 33, 312, 288
-0.9961, 361, 105, 376, 168
-0.996128, 273, 213, 400, 244
-0.996138, 405, 81, 420, 144
-0.996147, 273, 201, 288, 264
-0.996149, 359, 65, 374, 128
-0.996153, 239, 33, 254, 96
-0.996171, 209, 133, 336, 164
-0.996245, 9, 145, 40, 272
-0.996275, 17, 201, 80, 264
-0.996312, 57, 97, 88, 224
-0.996314, 17, 65, 48, 192
-0.996329, 457, 1, 488, 128
-0.996331, 231, 193, 246, 256
-0.996347, 353, 181, 480, 212
-0.996358, 257, 33, 288, 288
-0.996361, 431, 137, 446, 200
-0.996362, 321, 129, 336, 192
-0.996367, 283, 73, 298, 136
-0.996376, 193, 185, 320, 216
-0.99639, 145, 73, 272, 104
-0.996392, 299, 25, 314, 88
-0.996403, 305, 225, 368, 288
-0.996414, 229, 161, 244, 192
-0.996474, 273, 9, 400, 40
-0.996484, 113, 13, 240, 44
-0.996531, 269, 157, 284, 188
-0.996552, 321, 33, 352, 288
-0.996585, 273, 177, 288, 208
-0.996651, 269, 1, 300, 256
-0.996653, 161, 85, 288, 116
-0.996655, 283, 97, 298, 128
-0.996665, 153, 177, 184, 304
-0.996668, 161, 97, 288, 128
-0.996678, 397, 209, 428, 329
-0.996693, 205, 45, 220, 76
-0.996715, 275, 161, 290, 192
-0.996734, 421, 49, 452, 176
-0.996744, 1, 217, 500, 280
-0.996746, 221, 57, 236, 88
-0.996773, 113, 101, 240, 132
-0.996775, 129, 29, 256, 60
-0.996777, 309, 33, 340, 288
-0.996778, 305, 37, 432, 68
-0.996782, 381, 33, 412, 288
-0.99681, 305, 129, 432, 160
-0.99681, 65, 217, 320, 280
-0.996814, 263, 85, 278, 116
-0.996826, 361, 33, 392, 288
-0.996833, 241, 233, 368, 296
-0.996838, 1, 1, 256, 64
-0.99684, 201, 33, 216, 64
-0.996857, 277, 93, 292, 124
-0.996857, 129, 149, 256, 180
-0.996861, 269, 89, 284, 120
-0.996862, 241, 193, 368, 224
-0.996879, 17, 33, 144, 64
-0.996888, 257, 81, 272, 112
-0.99694, 161, 213, 288, 244
-0.996951, 17, 21, 144, 52
-0.996961, 331, 149, 346, 180
-0.996982, 283, 85, 298, 116
-0.996986, 229, 65, 244, 96
-0.997003, 17, 45, 144, 76
-0.997014, 225, 5, 352, 36
-0.997044, 213, 53, 228, 84
-0.99705, 49, 265, 176, 328
-0.99705, 377, 145, 392, 176
-0.997063, 279, 45, 294, 76
-0.997064, 457, 177, 488, 304
-0.99707, 309, 37, 324, 68
-0.997075, 269, 109, 284, 140
-0.997081, 411, 289, 426, 320
-0.997101, 333, 289, 348, 320
-0.997101, 187, 33, 202, 64
-0.997115, 321, 289, 336, 320
-0.997141, 129, 137, 256, 168
-0.997153, 369, 17, 496, 48
-0.997166, 351, 289, 366, 320
-0.997168, 349, 53, 364, 84
-0.997178, 129, 1, 256, 32
-0.997178, 337, 45, 352, 76
-0.997203, 239, 157, 254, 188
-0.997207, 223, 165, 238, 196
-0.997215, 287, 57, 302, 88
-0.997222, 263, 97, 278, 128
-0.997235, 393, 81, 408, 112
-0.997247, 113, 89, 240, 120
-0.997247, 229, 177, 244, 208
-0.997272, 259, 109, 274, 140
-0.997289, 353, 29, 480, 60
-0.997291, 209, 225, 336, 256
-0.997304, 369, 109, 496, 140
-0.997305, 365, 57, 380, 88
-0.997306, 343, 45, 358, 76
-0.997308, 389, 289, 404, 320
-0.997318, 385, 77, 400, 108
-0.997334, 65, 13, 192, 44
-0.997342, 419, 293, 434, 324
-0.997351, 195, 33, 210, 64
-0.997353, 433, 293, 448, 324
-0.997358, 251, 77, 266, 108
-0.997359, 357, 53, 372, 84
-0.99736, 361, 129, 376, 160
-0.99737, 211, 29, 226, 60
-0.997375, 295, 105, 310, 136
-0.99739, 371, 289, 386, 320
-0.997398, 367, 133, 382, 164
-0.997402, 277, 77, 292, 108
-0.997408, 293, 89, 308, 120
-0.997418, 181, 33, 196, 64
-0.997419, 185, 33, 216, 288
-0.997425, 285, 45, 300, 76
-0.997434, 267, 169, 282, 200
-0.997438, 227, 149, 242, 180
-0.997445, 371, 61, 386, 92
-0.997458, 401, 293, 416, 324
-0.997462, 145, 225, 272, 256
-0.99747, 379, 69, 394, 100
-0.997475, 285, 109, 300, 140
-0.997479, 279, 173, 294, 204
-0.99749, 281, 57, 296, 88
-0.997494, 295, 37, 310, 68
-0.997513, 235, 169, 250, 200
-0.997516, 197, 45, 212, 76
-0.997519, 277, 105, 292, 136
-0.997522, 353, 137, 368, 168
-0.997522, 305, 201, 432, 232
-0.997531, 341, 57, 356, 88
-0.997548, 369, 5, 496, 36
-0.997558, 237, 145, 252, 176
-0.997581, 425, 289, 440, 320
-0.997585, 369, 193, 496, 224
-0.997588, 379, 165, 394, 196
-0.997591, 341, 293, 356, 324
-0.997596, 225, 265, 352, 328
-0.997596, 283, 69, 298, 100
-0.997597, 331, 161, 346, 192
-0.997605, 121, 161, 152, 288
-0.997605, 223, 177, 238, 208
-0.997618, 327, 293, 342, 324
-0.99762, 161, 121, 288, 152
-0.997627, 373, 133, 388, 164
-0.99763, 441, 17, 472, 144
-0.99764, 253, 109, 268, 140
-0.997647, 353, 53, 480, 84
-0.997647, 21, 145, 52, 272
-0.997662, 251, 89, 266, 120
-0.997664, 317, 37, 332, 68
-0.997676, 301, 37, 316, 68
-0.997689, 307, 49, 322, 80
-0.997693, 269, 193, 284, 224
-0.997698, 245, 121, 260, 152
-0.997701, 353, 81, 480, 112
-0.997702, 337, 277, 464, 308
-0.997707, 207, 65, 222, 96
-0.997714, 449, 133, 464, 164
-0.997717, 365, 293, 380, 324
-0.997718, 337, 149, 352, 180
-0.997729, 379, 97, 394, 128
-0.997733, 173, 129, 204, 256
-0.997739, 371, 145, 386, 176
-0.997741, 293, 117, 308, 148
-0.99775, 401, 85, 416, 116
-0.997752, 453, 181, 468, 212
-0.997758, 355, 69, 370, 100
-0.997762, 331, 45, 346, 76
-0.997775, 365, 177, 380, 208
-0.997776, 359, 289, 374, 320
-0.997784, 231, 77, 246, 108
-0.997791, 217, 29, 232, 60
-0.997792, 429, 145, 444, 176
-0.997798, 277, 33, 292, 64
-0.997813, 381, 117, 396, 148
-0.997818, 247, 149, 262, 180
-0.997818, 363, 145, 378, 176
-0.997829, 245, 77, 260, 108
-0.997841, 97, 73, 224, 104
-0.997845, 301, 173, 316, 204
-0.997847, 353, 213, 480, 244
-0.997851, 365, 69, 380, 100
-0.997856, 301, 105, 316, 136
-0.997857, 259, 149, 274, 180
-0.997861, 257, 121, 272, 152
-0.997874, 345, 137, 360, 168
-0.997886, 333, 101, 348, 132
-0.997888, 285, 33, 300, 64
-0.997894, 275, 193, 290, 224
-0.9979, 377, 57, 392, 88
-0.997906, 229, 117, 244, 148
-0.997907, 385, 105, 400, 136
-0.997911, 351, 125, 366, 156
-0.997913, 381, 285, 396, 316
-0.997913, 191, 45, 206, 76
-0.99792, 267, 181, 282, 212
-0.997923, 225, 17, 240, 48
-0.997928, 323, 41, 338, 72
-0.997928, 385, 89, 400, 120
-0.997941, 391, 69, 406, 100
-0.997948, 221, 153, 236, 184
-0.997951, 275, 65, 290, 96
-0.997962, 207, 17, 222, 48
-0.997966, 97, 233, 224, 296
-0.997967, 217, 165, 232, 196
-0.997974, 17, 57, 144, 88
-0.997977, 251, 121, 266, 152
-0.997981, 339, 181, 354, 212
-0.997986, 175, 29, 190, 60
-0.998026, 81, 53, 208, 84
-0.998045, 289, 281, 416, 312
-0.998051, 1, 229, 128, 260
-0.998059, 369, 69, 496, 100
-0.998092, 257, 225, 384, 256
-0.998094, 1, 205, 128, 236
-0.998095, 97, 173, 224, 204
-0.998102, 393, 1, 424, 256
-0.998113, 405, 1, 436, 256
-0.998131, 113, 209, 240, 240
-0.998203, 1, 69, 128, 100
-0.998205, 461, 129, 492, 256
-0.998212, 145, 185, 272, 216
-0.998224, 353, 41, 480, 72
-0.998241, 17, 81, 144, 112
-0.998247, 1, 189, 128, 220
-0.998267, 161, 1, 192, 256
-0.998291, 1, 97, 128, 128
-0.99834, 193, 171, 256, 186
-0.998348, 173, 1, 204, 256
-0.998352, 329, 293, 392, 308
-0.998353, 193, 197, 320, 228
-0.998362, 217, 171, 280, 186
-0.998363, 1, 153, 128, 184
-0.998398, 321, 1, 448, 32
-0.998399, 241, 167, 304, 182
-0.9984, 193, 161, 256, 176
-0.998401, 265, 107, 328, 122
-0.998401, 281, 173, 344, 188
-0.998405, 113, 113, 240, 144
-0.998411, 417, 1, 448, 256
-0.998417, 101, 1, 132, 256
-0.998418, 225, 161, 288, 176
-0.998419, 337, 299, 400, 314
-0.998421, 169, 49, 200, 176
-0.998425, 1, 217, 128, 248
-0.998431, 377, 297, 440, 312
-0.998437, 281, 47, 344, 62
-0.998446, 229, 69, 260, 84
-0.998446, 325, 159, 356, 174
-0.998446, 225, 111, 288, 126
-0.998447, 1, 225, 128, 288
-0.998448, 289, 105, 352, 120
-0.998448, 253, 179, 284, 194
-0.998449, 89, 113, 120, 240
-0.99845, 225, 289, 352, 320
-0.99845, 81, 161, 208, 192
-0.99845, 337, 141, 368, 156
-0.99845, 309, 175, 340, 190
-0.998451, 273, 39, 336, 54
-0.998452, 349, 51, 380, 66
-0.998452, 265, 121, 296, 136
-0.998452, 249, 91, 312, 106
-0.998453, 273, 33, 304, 48
-0.998454, 321, 57, 384, 72
-0.998455, 209, 155, 240, 170
-0.998455, 333, 95, 364, 110
-0.998455, 189, 53, 220, 68
-0.998456, 353, 85, 416, 100
-0.998457, 193, 177, 256, 192
-0.998457, 281, 183, 312, 198
-0.998459, 349, 141, 380, 156
-0.99846, 337, 147, 400, 162
-0.99846, 333, 67, 364, 82
-0.99846, 273, 161, 336, 176
-0.998461, 313, 39, 344, 54
-0.998461, 329, 103, 392, 118
-0.998463, 365, 59, 396, 74
-0.998463, 241, 89, 272, 104
-0.998463, 325, 57, 356, 72
-0.998464, 249, 101, 312, 116
-0.998464, 257, 179, 320, 194
-0.998464, 233, 177, 296, 192
-0.998464, 193, 155, 256, 170
-0.998464, 369, 65, 400, 80
-0.998465, 285, 161, 316, 176
-0.998465, 381, 95, 412, 110
-0.998466, 337, 101, 368, 116
-0.998466, 337, 85, 368, 100
-0.998467, 221, 179, 252, 194
-0.998467, 253, 147, 284, 162
-0.998468, 301, 115, 332, 130
-0.998468, 321, 51, 384, 66
-0.998468, 313, 301, 376, 316
-0.998469, 361, 121, 392, 136
-0.998469, 253, 191, 284, 206
-0.998469, 353, 75, 384, 90
-0.99847, 385, 173, 416, 188
-0.99847, 33, 141, 160, 172
-0.998471, 361, 303, 424, 318
-0.998472, 177, 35, 240, 50
-0.998473, 249, 167, 280, 182
-0.998474, 381, 77, 412, 92
-0.998475, 265, 117, 328, 132
-0.998475, 197, 61, 228, 76
-0.998475, 289, 45, 320, 60
-0.998477, 385, 301, 416, 316
-0.99848, 305, 107, 336, 122
-0.998482, 293, 73, 324, 88
-0.998482, 365, 137, 396, 152
-0.998483, 257, 265, 500, 328
-0.998484, 409, 303, 440, 318
-0.998487, 205, 161, 236, 176
-0.998487, 221, 113, 236, 240
-0.998488, 249, 85, 312, 100
-0.998488, 225, 155, 288, 170
-0.998488, 253, 121, 284, 136
-0.998488, 341, 183, 372, 198
-0.998489, 321, 303, 352, 318
-0.998489, 193, 71, 256, 86
-0.998489, 357, 179, 388, 194
-0.99849, 373, 83, 404, 98
-0.99849, 17, 9, 144, 40
-0.998491, 205, 169, 236, 184
-0.998492, 353, 303, 384, 318
-0.998493, 317, 105, 348, 120
-0.998494, 241, 149, 272, 164
-0.998497, 341, 61, 372, 76
-0.998498, 285, 117, 316, 132
-0.998498, 249, 173, 280, 188
-0.998499, 321, 181, 384, 196
-0.9985, 249, 95, 280, 110
-0.9985, 233, 149, 296, 164
-0.998501, 273, 71, 336, 86
-0.998503, 209, 31, 240, 46
-0.998504, 277, 59, 308, 74
-0.998505, 193, 77, 256, 92
-0.998506, 201, 67, 232, 82
-0.998506, 181, 45, 212, 60
-0.998506, 353, 293, 416, 308
-0.998506, 237, 169, 268, 184
-0.998506, 265, 179, 296, 194
-0.998506, 177, 61, 240, 76
-0.998506, 429, 147, 460, 162
-0.998507, 273, 187, 336, 202
-0.998507, 209, 177, 240, 192
-0.998508, 397, 303, 428, 318
-0.998509, 369, 93, 432, 108
-0.998509, 233, 79, 296, 94
-0.99851, 289, 95, 352, 110
-0.99851, 217, 105, 280, 120
-0.998511, 397, 91, 428, 106
-0.998511, 353, 177, 416, 192
-0.998512, 277, 75, 308, 90
-0.998515, 393, 291, 456, 306
-0.998516, 369, 177, 400, 192
-0.998516, 365, 301, 396, 316
-0.998518, 297, 33, 328, 48
-0.998519, 349, 291, 380, 306
-0.998519, 273, 79, 336, 94
-0.99852, 253, 83, 284, 98
-0.99852, 177, 49, 240, 64
-0.998521, 365, 97, 396, 112
-0.998521, 225, 99, 288, 114
-0.998522, 257, 173, 320, 188
-0.998523, 337, 75, 400, 90
-0.998523, 353, 57, 384, 72
-0.998524, 385, 303, 448, 318
-0.998524, 377, 149, 440, 164
-0.998524, 289, 167, 352, 182
-0.998524, 241, 121, 304, 136
-0.998524, 281, 145, 344, 160
-0.998525, 313, 149, 376, 164
-0.998526, 305, 45, 368, 60
-0.998526, 229, 129, 244, 256
-0.998526, 353, 99, 416, 114
-0.998529, 365, 145, 396, 160
-0.998529, 249, 33, 312, 48
-0.998529, 289, 53, 352, 68
-0.99853, 401, 297, 464, 312
-0.998531, 297, 113, 360, 128
-0.998531, 217, 183, 280, 198
-0.998532, 329, 183, 360, 198
-0.998533, 229, 75, 260, 90
-0.998533, 289, 85, 352, 100
-0.998534, 225, 155, 256, 170
-0.998536, 337, 63, 400, 78
-0.998536, 289, 179, 352, 194
-0.998536, 329, 149, 360, 164
-0.998537, 329, 89, 392, 104
-0.998538, 365, 129, 396, 144
-0.998538, 317, 45, 348, 60
-0.998538, 385, 291, 416, 306
-0.998539, 297, 65, 360, 80
-0.99854, 269, 83, 300, 98
-0.998541, 353, 91, 384, 106
-0.998541, 273, 115, 304, 130
-0.998544, 277, 45, 308, 60
-0.998545, 297, 295, 360, 310
-0.998545, 329, 293, 360, 308
-0.998545, 337, 139, 400, 154
-0.998546, 261, 33, 292, 48
-0.998547, 217, 87, 280, 102
-0.998548, 297, 37, 360, 52
-0.998549, 329, 97, 392, 112
-0.998549, 345, 69, 408, 84
-0.998551, 345, 121, 408, 136
-0.998551, 261, 115, 292, 130
-0.998552, 313, 161, 376, 176
-0.998552, 321, 171, 384, 186
-0.998552, 337, 305, 400, 320
-0.998552, 285, 101, 316, 116
-0.998553, 337, 165, 400, 180
-0.998554, 317, 291, 348, 306
-0.998554, 201, 31, 264, 46
-0.998555, 257, 45, 320, 60
-0.998555, 217, 213, 280, 228
-0.998556, 241, 191, 304, 206
-0.998558, 261, 107, 292, 122
-0.998558, 313, 155, 376, 170
-0.998558, 377, 89, 408, 104
-0.998558, 353, 171, 416, 186
-0.99856, 177, 55, 240, 70
-0.998561, 369, 77, 400, 92
-0.998562, 225, 173, 256, 188
-0.998562, 277, 177, 308, 192
-0.998563, 337, 159, 400, 174
-0.998564, 235, 113, 250, 240
-0.998564, 233, 65, 296, 80
-0.998565, 397, 291, 428, 306
-0.998566, 421, 299, 452, 314
-0.998566, 333, 299, 364, 314
-0.998566, 321, 111, 384, 126
-0.998566, 281, 59, 344, 74
-0.998567, 113, 1, 144, 256
-0.998571, 277, 167, 308, 182
-0.998571, 153, 45, 216, 60
-0.998571, 369, 155, 432, 170
-0.998572, 285, 111, 316, 126
-0.998572, 329, 211, 392, 226
-0.998573, 217, 123, 280, 138
-0.998574, 265, 53, 328, 68
-0.998575, 209, 149, 272, 164
-0.998575, 225, 37, 288, 52
-0.998576, 365, 295, 396, 310
-0.998576, 201, 97, 264, 112
-0.998577, 393, 127, 456, 142
-0.998577, 281, 155, 344, 170
-0.998577, 185, 35, 216, 50
-0.998577, 217, 75, 248, 90
-0.998578, 193, 47, 224, 62
-0.998579, 273, 33, 336, 48
-0.99858, 211, 97, 226, 224
-0.998581, 285, 39, 316, 54
-0.998581, 193, 83, 256, 98
-0.998583, 313, 141, 376, 156
-0.998583, 357, 65, 388, 80
-0.998585, 265, 185, 296, 200
-0.998585, 369, 131, 432, 146
-0.998586, 339, 145, 354, 272
-0.998588, 369, 143, 432, 158
-0.998589, 389, 85, 420, 100
-0.99859, 297, 39, 328, 54
-0.998591, 209, 59, 240, 74
-0.998592, 345, 129, 408, 144
-0.998593, 273, 27, 336, 42
-0.998593, 81, 1, 208, 32
-0.998594, 257, 149, 320, 164
-0.998595, 225, 161, 256, 176
-0.998595, 273, 99, 304, 114
-0.998595, 49, 113, 176, 144
-0.998596, 137, 39, 200, 54
-0.998596, 169, 67, 232, 82
-0.998597, 425, 301, 488, 316
-0.998598, 321, 69, 384, 84
-0.998598, 297, 221, 360, 236
-0.998599, 249, 71, 312, 86
-0.9986, 321, 123, 384, 138
-0.9986, 169, 29, 232, 44
-0.9986, 297, 31, 360, 46
-0.9986, 337, 55, 368, 70
-0.998601, 281, 69, 312, 84
-0.998601, 353, 297, 384, 312
-0.998601, 369, 161, 432, 176
-0.998601, 305, 209, 368, 224
-0.998602, 409, 147, 472, 162
-0.998603, 329, 45, 392, 60
-0.998603, 393, 133, 456, 148
-0.998605, 185, 149, 248, 164
-0.998605, 201, 63, 264, 78
-0.998608, 265, 167, 328, 182
-0.99861, 257, 227, 320, 242
-0.998611, 169, 165, 232, 180
-0.998611, 217, 143, 280, 158
-0.998612, 281, 89, 312, 104
-0.998613, 249, 39, 312, 54
-0.998623, 369, 71, 400, 86
-0.998624, 313, 297, 344, 312
-0.998625, 265, 191, 296, 206
-0.998626, 265, 173, 296, 188
-0.998627, 289, 189, 416, 220
-0.998628, 333, 47, 364, 62
-0.998633, 161, 233, 416, 296
-0.998633, 217, 69, 248, 84
-0.998634, 271, 145, 286, 272
-0.998638, 201, 53, 232, 68
-0.998641, 241, 81, 272, 96
-0.998645, 417, 293, 448, 308
-0.998649, 429, 65, 460, 320
-0.998656, 257, 209, 288, 329
-0.998658, 207, 1, 222, 128
-0.998658, 401, 297, 432, 312
-0.998662, 321, 241, 448, 304
-0.998665, 211, 145, 226, 272
-0.99867, 273, 109, 304, 124
-0.998678, 225, 167, 256, 182
-0.99868, 241, 113, 256, 240
-0.998683, 349, 145, 364, 272
-0.998687, 1, 109, 128, 140
-0.998691, 333, 145, 348, 272
-0.998697, 49, 69, 176, 100
-0.9987, 261, 101, 292, 116
-0.998708, 361, 129, 376, 256
-0.998719, 253, 89, 284, 104
-0.998722, 261, 95, 292, 110
-0.998739, 231, 17, 246, 144
-0.998744, 377, 129, 392, 256
-0.998747, 265, 167, 296, 182
-0.99875, 65, 221, 192, 252
-0.998759, 259, 65, 274, 192
-0.99877, 29, 1, 60, 256
-0.998774, 81, 1, 112, 256
-0.998778, 219, 17, 234, 144
-0.99879, 371, 113, 386, 240
-0.998811, 1, 241, 500, 304
-0.998815, 223, 161, 238, 288
-0.99882, 263, 17, 278, 144
-0.998832, 113, 125, 240, 156
-0.998839, 285, 113, 300, 240
-0.998861, 113, 49, 144, 176
-0.998862, 49, 233, 176, 264
-0.99887, 235, 65, 250, 192
-0.998872, 277, 161, 292, 288
-0.998876, 277, 113, 292, 240
-0.99888, 355, 1, 370, 128
-0.99888, 341, 1, 356, 128
-0.998884, 295, 97, 310, 224
-0.998889, 269, 17, 284, 144
-0.998891, 329, 1, 344, 128
-0.998892, 213, 49, 228, 176
-0.998893, 355, 145, 370, 272
-0.998893, 351, 97, 366, 224
-0.998904, 245, 17, 260, 144
-0.998907, 81, 149, 208, 180
-0.998908, 231, 177, 246, 304
-0.998918, 379, 1, 394, 128
-0.998923, 45, 1, 76, 256
-0.998927, 205, 145, 220, 272
-0.998928, 205, 97, 220, 224
-0.998933, 253, 17, 268, 144
-0.998941, 33, 129, 160, 160
-0.998942, 261, 113, 276, 240
-0.998959, 283, 65, 298, 192
-0.998962, 237, 161, 252, 288
-0.998965, 369, 1, 384, 128
-0.998966, 379, 49, 394, 176
-0.998972, 197, 1, 212, 128
-0.998973, 373, 49, 388, 176
-0.998973, 409, 49, 440, 176
-0.998975, 225, 17, 240, 144
-0.998979, 265, 161, 280, 288
-0.998984, 57, 1, 88, 256
-0.998987, 279, 17, 294, 144
-0.999001, 343, 97, 358, 224
-0.999003, 191, 1, 206, 128
-0.999005, 1, 165, 128, 196
-0.999007, 213, 1, 228, 128
-0.999007, 271, 97, 286, 224
-0.999017, 253, 65, 268, 192
-0.999021, 129, 197, 256, 228
-0.999024, 335, 1, 350, 128
-0.999029, 219, 65, 234, 192
-0.999031, 385, 81, 400, 208
-0.999031, 289, 49, 304, 176
-0.99904, 49, 101, 176, 132
-0.999041, 385, 1, 400, 128
-0.999041, 333, 97, 348, 224
-0.999052, 351, 49, 366, 176
-0.999059, 243, 161, 258, 288
-0.999063, 357, 49, 372, 176
-0.999065, 225, 65, 240, 192
-0.999069, 361, 1, 376, 128
-0.999073, 247, 113, 262, 240
-0.999074, 303, 49, 318, 176
-0.99908, 301, 97, 316, 224
-0.999083, 317, 1, 332, 128
-0.999085, 239, 17, 254, 144
-0.999087, 295, 17, 310, 144
-0.999088, 347, 1, 362, 128
-0.99909, 327, 161, 342, 288
-0.999094, 301, 1, 316, 128
-0.999094, 181, 1, 196, 128
-0.999103, 241, 65, 256, 192
-0.999115, 113, 237, 240, 268
-0.999115, 209, 209, 272, 329
-0.999115, 141, 161, 172, 288
-0.999119, 1, 177, 128, 208
-0.999121, 391, 1, 406, 128
-0.99913, 255, 145, 270, 272
-0.999137, 217, 161, 232, 288
-0.999138, 437, 113, 452, 240
-0.999138, 65, 209, 192, 240
-0.999142, 295, 161, 310, 288
-0.999142, 307, 1, 322, 128
-0.999146, 301, 161, 316, 288
-0.999147, 1, 1, 32, 128
-0.999149, 325, 49, 340, 176
-0.999162, 409, 145, 424, 272
-0.999162, 207, 49, 222, 176
-0.999165, 383, 129, 398, 256
-0.999183, 277, 65, 292, 192
-0.999186, 1, 273, 128, 304
-0.999193, 323, 1, 338, 128
-0.999193, 65, 89, 192, 120
-0.999205, 363, 81, 378, 208
-0.999213, 401, 1, 416, 128
-0.999217, 361, 177, 376, 304
-0.999219, 367, 177, 382, 304
-0.99922, 69, 1, 100, 256
-0.999224, 449, 33, 480, 288
-0.999225, 311, 65, 326, 192
-0.999239, 449, 129, 464, 256
-0.999242, 199, 49, 214, 176
-0.999257, 395, 65, 410, 192
-0.999258, 199, 145, 214, 272
-0.999261, 325, 97, 340, 224
-0.999263, 33, 293, 160, 324
-0.999263, 317, 49, 332, 176
-0.999268, 289, 1, 304, 128
-0.999268, 175, 1, 190, 128
-0.99927, 265, 65, 280, 192
-0.99927, 249, 161, 264, 288
-0.999282, 321, 225, 448, 256
-0.999286, 283, 161, 298, 288
-0.999302, 271, 193, 286, 320
-0.999312, 123, 1, 138, 128
-0.999314, 199, 97, 214, 224
-0.999317, 411, 1, 426, 128
-0.999324, 145, 193, 160, 320
-0.999338, 105, 1, 120, 128
-0.999345, 333, 49, 348, 176
-0.999346, 137, 1, 152, 128
-0.999351, 419, 1, 434, 128
-0.999354, 403, 129, 418, 256
-0.999355, 443, 113, 458, 240
-0.999356, 431, 97, 446, 224
-0.999362, 95, 1, 110, 128
-0.999368, 319, 97, 334, 224
-0.999368, 1, 241, 128, 272
-0.999372, 115, 1, 130, 128
-0.999375, 309, 113, 324, 240
-0.999378, 377, 177, 392, 304
-0.99939, 17, 1, 48, 256
-0.999393, 247, 65, 262, 192
-0.999397, 289, 161, 304, 288
-0.999417, 345, 49, 360, 176
-0.999423, 101, 97, 132, 224
-0.999425, 407, 65, 422, 192
-0.999429, 337, 193, 352, 320
-0.99943, 101, 49, 116, 176
-0.999441, 401, 81, 416, 208
-0.999444, 131, 1, 146, 128
-0.999448, 389, 129, 404, 256
-0.999453, 151, 1, 166, 128
-0.999574, 145, 1, 176, 256
-0.999637, 129, 161, 192, 288
-0.99965, 325, 105, 340, 120
-0.99965, 197, 37, 212, 52
-0.999651, 259, 95, 274, 110
-0.999651, 331, 167, 346, 182
-0.999651, 371, 137, 386, 152
-0.999652, 373, 179, 388, 194
-0.999652, 195, 49, 210, 64
-0.999653, 383, 177, 398, 192
-0.999654, 259, 149, 274, 164
-0.999654, 377, 129, 392, 144
-0.999655, 247, 91, 262, 106
-0.999657, 377, 99, 392, 114
-0.999657, 361, 139, 376, 154
-0.99966, 369, 93, 384, 108
-0.99966, 329, 45, 344, 60
-0.99966, 383, 95, 398, 110
-0.99966, 207, 43, 222, 58
-0.999661, 233, 173, 248, 188
-0.999662, 239, 161, 254, 176
-0.999662, 395, 97, 410, 112
-0.999663, 327, 57, 342, 72
-0.999664, 397, 293, 412, 308
-0.999664, 267, 95, 282, 110
-0.999664, 373, 63, 388, 78
-0.999665, 263, 171, 278, 186
-0.999665, 233, 161, 248, 176
-0.999666, 233, 71, 248, 86
-0.999666, 409, 303, 424, 318
-0.999668, 219, 65, 234, 80
-0.999668, 343, 55, 358, 70
-0.999668, 187, 45, 202, 60
-0.999669, 333, 185, 348, 200
-0.999674, 287, 69, 302, 84
-0.999674, 427, 301, 442, 316
-0.999674, 209, 55, 224, 70
-0.999674, 125, 1, 156, 256
-0.999675, 359, 291, 374, 306
-0.999677, 271, 107, 286, 122
-0.999678, 379, 303, 394, 318
-0.999679, 223, 59, 238, 74
-0.99968, 309, 39, 324, 54
-0.999681, 393, 81, 408, 96
-0.999681, 429, 147, 444, 162
-0.999682, 279, 55, 294, 70
-0.999682, 339, 41, 354, 56
-0.999683, 233, 167, 248, 182
-0.999684, 361, 65, 376, 80
-0.999685, 287, 59, 302, 74
-0.999686, 429, 209, 460, 329
-0.999686, 241, 75, 256, 90
-0.99969, 273, 181, 288, 196
-0.999692, 289, 37, 304, 52
-0.999693, 379, 69, 394, 84
-0.999694, 263, 101, 278, 116
-0.999695, 277, 105, 292, 120
-0.999697, 387, 83, 402, 98
-0.999698, 433, 293, 448, 308
-0.999698, 225, 179, 240, 194
-0.999699, 297, 69, 312, 84
-0.999699, 357, 55, 372, 70
-0.9997, 215, 53, 230, 68
-0.9997, 339, 61, 354, 76
-0.999703, 277, 173, 292, 188
-0.999703, 301, 173, 316, 188
-0.999704, 427, 295, 442, 310
-0.999705, 247, 151, 262, 166
-0.999706, 229, 65, 244, 80
-0.999709, 347, 61, 362, 76
-0.99971, 365, 299, 380, 314
-0.99971, 331, 151, 346, 166
-0.999711, 421, 295, 436, 310
-0.999714, 269, 115, 284, 130
-0.999717, 417, 305, 432, 320
-0.999717, 181, 35, 196, 50
-0.999718, 387, 301, 402, 316
-0.999719, 341, 295, 356, 310
-0.999719, 413, 295, 428, 310
-0.99972, 253, 95, 268, 110
-0.999721, 319, 299, 334, 314
-0.999724, 217, 59, 232, 74
-0.999724, 371, 293, 386, 308
-0.999724, 259, 83, 274, 98
-0.999725, 263, 113, 278, 128
-0.999727, 335, 49, 350, 64
-0.999727, 343, 47, 358, 62
-0.999729, 299, 39, 314, 54
-0.999731, 385, 77, 400, 92
-0.999732, 283, 111, 298, 126
-0.999736, 275, 191, 290, 206
-0.999738, 407, 293, 422, 308
-0.99974, 377, 145, 392, 160
-0.999742, 391, 293, 406, 308
-0.999743, 227, 165, 242, 180
-0.999745, 349, 299, 364, 314
-0.999747, 247, 79, 262, 94
-0.999747, 403, 299, 418, 314
-0.999748, 373, 301, 388, 316
-0.999754, 367, 65, 382, 80
-0.999755, 267, 89, 282, 104
-0.999756, 269, 191, 284, 206
-0.999759, 393, 87, 408, 102
-0.99976, 327, 293, 342, 308
-0.999762, 201, 43, 216, 58
-0.999763, 435, 299, 450, 314
-0.999764, 403, 89, 418, 104
-0.999765, 271, 175, 286, 190
-0.999769, 295, 107, 310, 122
-0.99977, 351, 293, 366, 308
-0.999772, 365, 59, 380, 74
-0.999773, 379, 297, 394, 312
-0.999773, 359, 301, 374, 316
-0.999775, 337, 55, 352, 70
-0.999775, 465, 1, 496, 256
-0.999779, 237, 155, 252, 170
-0.999779, 349, 53, 364, 68
-0.99978, 365, 293, 380, 308
-0.999781, 271, 161, 286, 176
-0.999781, 333, 299, 348, 314
-0.999783, 377, 75, 392, 90
-0.999797, 275, 99, 290, 114
-0.999797, 273, 93, 288, 108
-0.999803, 253, 83, 268, 98
-0.999803, 285, 101, 300, 116
-0.999806, 445, 193, 476, 320
-0.99981, 339, 301, 354, 316
-0.999812, 261, 89, 276, 104
-0.999816, 373, 69, 388, 84
-0.999819, 327, 301, 342, 316
-0.999822, 207, 49, 222, 64
-0.999822, 319, 293, 334, 308
-0.999825, 333, 293, 348, 308
-0.999842, 277, 111, 292, 126
-0.999875, 1, 265, 500, 328
-0.999877, 275, 167, 290, 182
-0.999883, 5, 65, 36, 192
-0.999885, 257, 241, 500, 304
-0.999912, 269, 167, 284, 182
-0.99993, 125, 49, 156, 176
-0.999949, 141, 49, 172, 176
-1.00001, 1, 65, 32, 320
-1.00012, 97, 265, 352, 328
-1.00016, 45, 129, 76, 256
-1.00024, 97, 257, 224, 320
-1.00028, 65, 49, 96, 176
-1.00031, 1, 265, 256, 328
-1.00036, 65, 241, 320, 304
-1.00046, 469, 177, 500, 304
-1.00055, 429, 1, 460, 128
-1.00077, 65, 193, 128, 320
-1.00287, 145, 257, 272, 320
