1981
-0.531888, 1, 129, 500, 375
-0.628841, 1, 33, 500, 288
-0.710823, 1, 1, 500, 375
-0.730293, 1, 97, 256, 352
-0.754649, 65, 1, 320, 375
-0.813785, 193, 1, 448, 375
-0.844466, 193, 129, 448, 375
-0.870071, 65, 1, 320, 256
-0.898531, 1, 209, 500, 336
-0.902414, 49, 97, 176, 352
-0.90831, 97, 129, 352, 375
-0.916095, 1, 161, 500, 288
-0.918365, 273, 129, 400, 375
-0.924183, 1, 97, 128, 352
-0.927362, 1, 1, 128, 375
-0.928546, 97, 129, 224, 375
-0.931814, 193, 129, 320, 375
-0.934809, 145, 129, 272, 375
-0.9394, 161, 1, 288, 375
-0.941449, 113, 1, 240, 375
-0.942455, 241, 1, 368, 375
-0.942546, 1, 1, 128, 256
-0.943848, 321, 129, 448, 375
-0.94582, 321, 1, 448, 375
-0.945908, 161, 1, 416, 256
-0.94614, 1, 81, 500, 208
-0.946706, 65, 1, 192, 375
-0.946966, 97, 33, 224, 288
-0.949101, 241, 1, 368, 256
-0.951012, 1, 241, 256, 368
-0.953191, 1, 129, 256, 256
-0.954778, 193, 33, 320, 288
-0.955146, 129, 241, 384, 368
-0.955655, 1, 177, 256, 304
-0.959362, 369, 129, 496, 375
-0.959578, 49, 1, 176, 256
-0.959591, 353, 225, 416, 352
-0.959961, 257, 241, 500, 368
-0.960976, 145, 33, 272, 288
-0.961075, 377, 241, 440, 368
-0.961419, 321, 241, 448, 368
-0.96249, 33, 313, 96, 375
-0.962771, 17, 241, 144, 368
-0.963017, 65, 193, 192, 320
-0.964537, 161, 161, 416, 288
-0.966422, 73, 65, 136, 192
-0.967739, 33, 81, 288, 208
-0.967844, 1, 97, 128, 224
-0.967974, 377, 289, 440, 352
-0.96852, 49, 65, 176, 192
-0.9691, 353, 225, 416, 288
-0.969781, 1, 33, 500, 160
-0.970042, 329, 209, 392, 336
-0.970089, 65, 297, 128, 360
-0.970927, 49, 113, 176, 240
-0.972178, 369, 1, 496, 375
-0.972345, 1, 313, 64, 375
-0.973019, 113, 177, 240, 304
-0.97377, 1, 289, 64, 352
-0.973819, 97, 241, 224, 368
-0.974013, 65, 33, 320, 160
-0.974516, 89, 297, 152, 360
-0.974522, 289, 281, 352, 344
-0.974739, 161, 145, 288, 272
-0.974838, 33, 241, 96, 368
-0.974875, 145, 241, 272, 368
-0.975384, 81, 129, 144, 256
-0.975419, 161, 113, 416, 240
-0.976868, 73, 193, 136, 320
-0.976948, 1, 193, 128, 320
-0.976948, 273, 209, 400, 336
-0.977174, 305, 33, 432, 288
-0.977372, 81, 241, 144, 368
-0.977427, 193, 225, 320, 352
-0.977521, 57, 73, 120, 136
-0.977525, 361, 249, 424, 312
-0.977536, 25, 289, 88, 352
-0.978139, 73, 97, 136, 160
-0.978147, 1, 49, 128, 176
-0.978342, 209, 145, 336, 272
-0.978439, 385, 313, 448, 375
-0.978752, 369, 241, 496, 368
-0.978879, 97, 129, 224, 256
-0.978921, 417, 281, 480, 344
-0.979005, 1, 305, 128, 368
-0.979261, 113, 241, 176, 368
-0.979442, 113, 313, 176, 375
-0.979508, 57, 241, 120, 368
-0.979611, 273, 145, 400, 272
-0.979725, 57, 273, 120, 336
-0.979888, 353, 161, 416, 288
-0.980041, 257, 129, 500, 256
-0.980162, 97, 65, 224, 192
-0.980285, 321, 281, 384, 344
-0.980335, 417, 305, 480, 368
-0.980341, 161, 193, 224, 320
-0.980411, 321, 281, 448, 344
-0.980423, 9, 241, 72, 368
-0.980441, 313, 145, 376, 272
-0.980452, 313, 313, 376, 375
-0.980693, 257, 209, 320, 336
-0.980953, 321, 217, 384, 280
-0.981029, 113, 129, 176, 256
-0.981281, 129, 177, 192, 304
-0.981312, 305, 241, 368, 368
-0.981634, 73, 121, 136, 184
-0.981655, 33, 81, 160, 144
-0.981669, 353, 33, 480, 288
-0.981827, 389, 233, 420, 296
-0.982009, 81, 97, 144, 352
-0.982065, 209, 177, 272, 304
-0.982091, 137, 241, 200, 368
-0.982092, 273, 297, 400, 360
-0.982451, 41, 313, 72, 375
-0.982548, 81, 73, 144, 136
-0.982573, 265, 297, 328, 360
-0.982595, 81, 209, 144, 272
-0.982604, 49, 193, 112, 320
-0.98261, 329, 249, 392, 312
-0.982714, 353, 313, 480, 375
-0.982905, 389, 225, 420, 352
-0.982953, 297, 257, 360, 320
-0.98311, 233, 241, 296, 368
-0.983131, 281, 241, 344, 368
-0.983145, 353, 281, 416, 344
-0.983154, 57, 129, 120, 256
-0.983469, 81, 257, 144, 320
-0.983593, 193, 241, 256, 368
-0.983673, 177, 161, 240, 224
-0.983791, 353, 305, 416, 368
-0.98388, 97, 193, 160, 320
-0.983887, 137, 297, 200, 360
-0.984076, 169, 129, 232, 256
-0.984149, 57, 305, 88, 368
-0.984185, 49, 297, 176, 360
-0.984261, 289, 305, 352, 368
-0.984455, 73, 313, 104, 375
-0.984576, 1, 241, 32, 368
-0.984659, 257, 193, 500, 320
-0.984981, 169, 241, 232, 368
-0.985021, 1, 105, 128, 168
-0.985216, 233, 145, 296, 272
-0.985428, 1, 289, 32, 352
-0.985434, 305, 249, 432, 312
-0.985529, 385, 233, 448, 296
-0.985715, 97, 65, 128, 192
-0.985804, 57, 217, 120, 280
-0.985893, 249, 145, 312, 208
-0.985893, 241, 297, 304, 360
-0.985952, 69, 65, 100, 192
-0.986029, 97, 313, 224, 375
-0.986101, 17, 273, 144, 336
-0.986102, 161, 97, 288, 224
-0.986112, 417, 241, 480, 368
-0.986255, 65, 273, 96, 336
-0.98644, 217, 185, 280, 248
-0.98658, 77, 241, 108, 368
-0.986623, 401, 257, 464, 320
-0.986839, 53, 281, 84, 344
-0.986974, 401, 289, 432, 352
-0.986991, 257, 97, 384, 224
-0.987035, 81, 201, 208, 264
-0.987041, 97, 81, 160, 208
-0.987055, 33, 265, 96, 328
-0.98708, 113, 289, 176, 352
-0.987136, 129, 169, 192, 232
-0.987178, 305, 225, 432, 288
-0.987182, 105, 257, 168, 320
-0.987204, 1, 145, 128, 272
-0.987227, 321, 145, 448, 272
-0.987318, 225, 161, 288, 224
-0.987337, 49, 65, 112, 192
-0.987347, 97, 97, 160, 160
-0.987525, 29, 305, 60, 368
-0.987532, 209, 313, 272, 375
-0.987747, 97, 73, 128, 136
-0.987776, 389, 257, 420, 320
-0.987807, 161, 33, 416, 160
-0.987854, 169, 313, 232, 375
-0.987888, 257, 145, 384, 208
-0.987904, 353, 257, 480, 320
-0.987938, 317, 281, 348, 344
-0.988039, 153, 161, 216, 224
-0.988068, 113, 297, 144, 360
-0.98807, 369, 281, 496, 344
-0.988088, 1, 129, 128, 192
-0.988092, 145, 313, 272, 375
-0.988118, 77, 209, 108, 272
-0.988182, 97, 121, 160, 184
-0.988184, 257, 177, 384, 240
-0.988231, 137, 193, 200, 256
-0.988236, 193, 153, 320, 216
-0.988253, 85, 193, 116, 320
-0.988496, 273, 273, 400, 336
-0.988642, 313, 153, 376, 216
-0.988643, 1, 249, 128, 312
-0.988818, 265, 265, 328, 328
-0.988862, 305, 289, 336, 352
-0.988872, 225, 305, 352, 368
-0.988947, 217, 97, 280, 224
-0.988951, 129, 177, 256, 240
-0.988999, 77, 73, 108, 136
-0.98901, 185, 201, 248, 264
-0.989069, 9, 313, 40, 375
-0.989132, 1, 217, 128, 280
-0.989164, 185, 177, 248, 304
-0.989171, 257, 201, 320, 264
-0.989173, 65, 73, 96, 136
-0.989219, 49, 129, 176, 192
-0.989264, 313, 193, 376, 256
-0.989369, 137, 129, 200, 256
-0.989413, 225, 209, 352, 272
-0.989439, 89, 185, 152, 248
-0.989446, 101, 97, 132, 160
-0.989468, 49, 105, 176, 168
-0.989497, 77, 281, 108, 344
-0.989546, 305, 193, 368, 320
-0.98961, 273, 169, 336, 232
-0.989658, 329, 129, 392, 375
-0.98967, 89, 241, 120, 368
-0.989712, 89, 217, 120, 280
-0.989757, 225, 281, 352, 344
-0.989769, 81, 233, 208, 296
-0.989837, 373, 241, 404, 368
-0.989838, 113, 193, 176, 256
-0.989863, 185, 225, 248, 288
-0.989913, 113, 289, 240, 352
-0.989933, 353, 209, 384, 336
-0.989942, 409, 313, 440, 375
-0.989973, 89, 257, 120, 320
-0.989974, 161, 185, 224, 248
-0.990043, 289, 129, 352, 256
-0.990166, 177, 201, 304, 264
-0.990235, 81, 81, 208, 144
-0.990385, 77, 233, 108, 296
-0.99044, 81, 177, 208, 240
-0.990447, 97, 297, 128, 360
-0.990458, 125, 313, 156, 375
-0.990499, 65, 105, 96, 168
-0.990522, 225, 233, 352, 296
-0.990545, 81, 265, 208, 328
-0.990549, 241, 273, 304, 336
-0.990552, 57, 65, 120, 320
-0.990566, 321, 193, 448, 320
-0.990609, 301, 265, 332, 328
-0.990653, 401, 241, 432, 368
-0.990671, 33, 321, 96, 352
-0.990696, 281, 297, 344, 328
-0.990732, 129, 249, 192, 312
-0.990736, 257, 145, 320, 272
-0.990738, 297, 225, 360, 288
-0.990741, 41, 289, 72, 352
-0.990785, 377, 305, 440, 336
-0.990831, 81, 233, 144, 296
-0.990892, 273, 145, 336, 208
-0.990906, 161, 241, 288, 304
-0.990982, 421, 305, 452, 368
-0.991, 129, 201, 256, 264
-0.991009, 177, 273, 304, 336
-0.991038, 1, 341, 64, 372
-0.991058, 161, 129, 224, 375
-0.991091, 305, 289, 368, 320
-0.991102, 85, 65, 116, 192
-0.991107, 321, 305, 384, 336
-0.991131, 217, 225, 280, 288
-0.991167, 49, 97, 112, 160
-0.991171, 209, 289, 272, 352
-0.991179, 393, 193, 456, 320
-0.991234, 41, 301, 104, 332
-0.991285, 1, 309, 64, 340
-0.991289, 193, 129, 256, 256
-0.991293, 373, 313, 404, 375
-0.991314, 177, 177, 304, 240
-0.991315, 225, 129, 288, 375
-0.991328, 105, 241, 136, 368
-0.991332, 81, 301, 144, 332
-0.991384, 289, 297, 320, 360
-0.991396, 145, 273, 208, 336
-0.991396, 297, 309, 360, 340
-0.991424, 169, 289, 232, 352
-0.991434, 65, 213, 128, 244
-0.991436, 233, 193, 296, 320
-0.991444, 73, 125, 136, 156
-0.991481, 33, 345, 96, 375
-0.991517, 65, 77, 128, 108
-0.991519, 1, 329, 64, 360
-0.991538, 129, 153, 256, 216
-0.991541, 33, 333, 96, 364
-0.991601, 377, 293, 440, 324
-0.991602, 117, 241, 148, 368
-0.991618, 273, 201, 400, 264
-0.991621, 57, 329, 120, 360
-0.991631, 49, 241, 112, 304
-0.991682, 317, 257, 348, 320
-0.991686, 365, 273, 396, 336
-0.99169, 25, 65, 88, 192
-0.991697, 377, 317, 440, 348
-0.991702, 193, 129, 256, 192
-0.991715, 73, 193, 104, 320
-0.991716, 361, 257, 424, 288
-0.991722, 305, 277, 368, 308
-0.991734, 25, 105, 88, 168
-0.991748, 97, 205, 160, 236
-0.991768, 329, 221, 392, 252
-0.99178, 281, 121, 344, 184
-0.991781, 417, 293, 480, 324
-0.991782, 121, 325, 184, 356
-0.991783, 65, 289, 128, 320
-0.991799, 161, 225, 224, 288
-0.991828, 361, 245, 424, 276
-0.991856, 353, 229, 416, 260
-0.991856, 77, 257, 108, 320
-0.991908, 349, 297, 380, 360
-0.991924, 97, 313, 160, 344
-0.991925, 305, 129, 368, 375
-0.991937, 241, 97, 304, 224
-0.991939, 345, 301, 408, 332
-0.991951, 81, 337, 144, 368
-0.991977, 65, 225, 128, 256
-0.992001, 101, 113, 132, 240
-0.992009, 389, 289, 420, 352
-0.992018, 361, 329, 424, 360
-0.992027, 217, 137, 280, 200
-0.992028, 329, 273, 360, 336
-0.99203, 417, 309, 480, 340
-0.992033, 353, 277, 416, 308
-0.992052, 273, 233, 336, 296
-0.992061, 281, 285, 344, 316
-0.992061, 73, 313, 136, 344
-0.992089, 57, 93, 120, 124
-0.992109, 121, 297, 184, 328
-0.992159, 273, 309, 336, 340
-0.992167, 129, 289, 160, 352
-0.992172, 321, 317, 384, 348
-0.992183, 57, 113, 120, 144
-0.992224, 57, 341, 120, 372
-0.992228, 165, 161, 196, 288
-0.992256, 353, 193, 416, 256
-0.992269, 305, 265, 368, 296
-0.992327, 153, 249, 216, 312
-0.992332, 337, 249, 400, 280
-0.992337, 1, 297, 64, 328
-0.992359, 329, 289, 392, 320
-0.992364, 305, 153, 432, 216
-0.99237, 81, 93, 144, 124
-0.992376, 97, 285, 160, 316
-0.992379, 81, 325, 144, 356
-0.992386, 249, 129, 312, 375
-0.992392, 225, 257, 352, 320
-0.992395, 249, 177, 312, 240
-0.9924, 345, 313, 408, 344
-0.992411, 13, 241, 44, 368
-0.992413, 377, 225, 408, 288
-0.992421, 337, 261, 400, 292
-0.992426, 241, 145, 304, 176
-0.992434, 417, 321, 480, 352
-0.99244, 385, 329, 448, 360
-0.992442, 89, 97, 120, 160
-0.992444, 41, 285, 104, 316
-0.992478, 361, 341, 424, 372
-0.992507, 377, 277, 440, 308
-0.992517, 129, 197, 192, 228
-0.992527, 281, 273, 344, 304
-0.992541, 233, 177, 296, 208
-0.992541, 241, 225, 304, 288
-0.992549, 137, 313, 200, 344
-0.992549, 209, 197, 272, 228
-0.992551, 233, 189, 296, 220
-0.992554, 85, 305, 116, 368
-0.992577, 313, 209, 376, 240
-0.992586, 65, 241, 96, 368
-0.992594, 81, 113, 144, 144
-0.992597, 233, 161, 296, 192
-0.992616, 281, 157, 344, 188
-0.992619, 77, 113, 108, 240
-0.992621, 313, 153, 376, 184
-0.992629, 305, 249, 368, 280
-0.992637, 177, 297, 240, 328
-0.992643, 273, 181, 336, 212
-0.992643, 429, 281, 460, 344
-0.992645, 417, 337, 480, 368
-0.992657, 257, 285, 320, 316
-0.992663, 153, 197, 216, 228
-0.992664, 341, 273, 372, 336
-0.992671, 65, 269, 128, 300
-0.992681, 177, 177, 240, 208
-0.99269, 97, 221, 160, 252
-0.992712, 357, 217, 388, 280
-0.992718, 385, 345, 448, 375
-0.992737, 341, 129, 372, 256
-0.992745, 217, 333, 280, 364
-0.992757, 257, 165, 320, 196
-0.992782, 169, 213, 232, 244
-0.992792, 161, 253, 224, 284
-0.992808, 389, 253, 420, 284
-0.992812, 313, 165, 376, 196
-0.99282, 217, 193, 248, 256
-0.992825, 145, 285, 208, 316
-0.992826, 81, 141, 144, 172
-0.992838, 129, 181, 192, 212
-0.992846, 393, 265, 456, 296
-0.992854, 217, 149, 280, 180
-0.992859, 185, 257, 248, 320
-0.992869, 49, 121, 112, 184
-0.992869, 133, 161, 164, 288
-0.992871, 13, 289, 44, 352
-0.992872, 25, 341, 56, 372
-0.99289, 81, 241, 144, 272
-0.992894, 353, 289, 416, 320
-0.992901, 9, 325, 40, 356
-0.992906, 5, 341, 36, 372
-0.992908, 137, 241, 200, 272
-0.992911, 249, 309, 312, 340
-0.992911, 105, 337, 168, 368
-0.992919, 185, 201, 248, 232
-0.992922, 313, 181, 376, 212
-0.992922, 341, 241, 372, 368
-0.992926, 305, 221, 368, 252
-0.992927, 193, 317, 256, 348
-0.992942, 1, 249, 64, 312
-0.992947, 41, 221, 104, 252
-0.99295, 217, 285, 280, 316
-0.992959, 177, 189, 240, 220
-0.99297, 69, 329, 100, 360
-0.992971, 65, 253, 128, 284
-0.992972, 17, 285, 80, 316
-0.992972, 409, 309, 440, 340
-0.992973, 329, 345, 392, 375
-0.992978, 161, 309, 224, 340
-0.992979, 89, 81, 152, 112
-0.992987, 209, 185, 272, 216
-0.992988, 409, 281, 472, 312
-0.992994, 185, 161, 248, 192
-0.992997, 105, 129, 168, 375
-0.993003, 85, 213, 116, 244
-0.993004, 201, 137, 264, 168
-0.993004, 377, 229, 440, 260
-0.993004, 177, 269, 240, 300
-0.993004, 257, 297, 320, 328
-0.993015, 249, 273, 312, 304
-0.99302, 209, 261, 272, 292
-0.993021, 137, 213, 200, 244
-0.993022, 25, 281, 56, 344
-0.993023, 169, 229, 232, 260
-0.993023, 161, 321, 224, 352
-0.993029, 337, 165, 400, 196
-0.993031, 97, 261, 160, 292
-0.993039, 137, 253, 200, 284
-0.993048, 209, 173, 272, 204
-0.993048, 257, 257, 320, 288
-0.993059, 77, 121, 108, 184
-0.99306, 77, 97, 108, 160
-0.993069, 169, 241, 232, 272
-0.993083, 97, 105, 224, 168
-0.993083, 309, 293, 340, 324
-0.993087, 369, 309, 400, 340
-0.993096, 265, 145, 328, 176
-0.993099, 57, 137, 120, 168
-0.993103, 193, 149, 256, 180
-0.993103, 329, 237, 392, 268
-0.993104, 329, 301, 360, 332
-0.993104, 113, 133, 176, 164
-0.993106, 225, 209, 288, 240
-0.993116, 41, 345, 72, 375
-0.99312, 401, 293, 432, 324
-0.993147, 85, 289, 116, 320
-0.993163, 21, 329, 52, 360
-0.993165, 125, 317, 156, 348
-0.993182, 65, 125, 96, 156
-0.993186, 389, 273, 420, 304
-0.993193, 81, 325, 112, 356
-0.993196, 325, 289, 356, 320
-0.9932, 73, 213, 104, 244
-0.993204, 345, 297, 376, 328
-0.993211, 97, 81, 128, 112
-0.993212, 49, 305, 80, 336
-0.993213, 73, 285, 104, 316
-0.993215, 313, 273, 344, 304
-0.993219, 1, 305, 32, 336
-0.99323, 101, 125, 132, 156
-0.993233, 65, 77, 96, 108
-0.993245, 25, 309, 56, 340
-0.99325, 369, 261, 400, 292
-0.993257, 341, 309, 372, 340
-0.99327, 65, 301, 96, 332
-0.993278, 357, 301, 388, 332
-0.993279, 125, 293, 156, 324
-0.993282, 101, 301, 132, 332
-0.993284, 297, 297, 328, 328
-0.993289, 341, 213, 372, 244
-0.993293, 193, 129, 320, 192
-0.993296, 365, 341, 396, 372
-0.993299, 133, 185, 164, 216
-0.993308, 57, 317, 88, 348
-0.99331, 377, 321, 408, 352
-0.993316, 101, 97, 132, 128
-0.993326, 153, 177, 184, 304
-0.993327, 101, 205, 132, 236
-0.99333, 309, 309, 340, 340
-0.99333, 85, 229, 116, 260
-0.993337, 89, 125, 120, 156
-0.993339, 73, 313, 104, 344
-0.993346, 81, 261, 112, 292
-0.99335, 301, 273, 332, 304
-0.993351, 77, 133, 108, 164
-0.993356, 421, 313, 452, 344
-0.993361, 217, 201, 248, 232
-0.993362, 65, 109, 96, 140
-0.993362, 77, 245, 108, 276
-0.993363, 69, 345, 100, 375
-0.993365, 45, 293, 76, 324
-0.993367, 429, 325, 460, 356
-0.993368, 85, 77, 116, 108
-0.993374, 413, 325, 444, 356
-0.993378, 425, 293, 456, 324
-0.993384, 37, 313, 68, 344
-0.993387, 285, 301, 316, 332
-0.993391, 101, 113, 132, 144
-0.993395, 385, 229, 416, 260
-0.993397, 89, 277, 120, 308
-0.993401, 337, 285, 368, 316
-0.993402, 57, 329, 88, 360
-0.993407, 125, 197, 156, 228
-0.993408, 89, 93, 120, 124
-0.993409, 353, 221, 384, 252
-0.993411, 69, 225, 100, 256
-0.993411, 389, 285, 420, 316
-0.993412, 21, 293, 52, 324
-0.993415, 85, 341, 116, 372
-0.993417, 65, 97, 96, 128
-0.993425, 89, 301, 120, 332
-0.993427, 97, 289, 128, 320
-0.993429, 61, 281, 92, 312
-0.99343, 73, 273, 104, 304
-0.993432, 385, 241, 416, 272
-0.993433, 413, 297, 444, 328
-0.993435, 77, 97, 108, 128
-0.993437, 289, 285, 320, 316
-0.993437, 105, 337, 136, 368
-0.993438, 269, 173, 300, 204
-0.993447, 89, 113, 120, 144
-0.993448, 393, 305, 424, 336
-0.993449, 373, 225, 404, 256
-0.993449, 113, 309, 144, 340
-0.993455, 281, 185, 312, 216
-0.993457, 89, 241, 120, 272
-0.993459, 113, 297, 144, 328
-0.99346, 53, 345, 84, 375
-0.993461, 357, 325, 388, 356
-0.993462, 377, 273, 408, 304
-0.993463, 109, 285, 140, 316
-0.993465, 345, 161, 376, 192
-0.993471, 145, 321, 176, 352
-0.993481, 237, 153, 268, 184
-0.993482, 261, 193, 292, 224
-0.993484, 317, 149, 348, 180
-0.993485, 377, 297, 408, 328
-0.993491, 257, 181, 288, 212
-0.993491, 325, 257, 356, 288
-0.993491, 325, 129, 356, 256
-0.993492, 93, 325, 124, 356
-0.993493, 45, 333, 76, 364
-0.993493, 325, 277, 356, 308
-0.993495, 313, 261, 344, 292
-0.993496, 377, 333, 408, 364
-0.993503, 65, 137, 96, 168
-0.993503, 129, 333, 160, 364
-0.993506, 97, 221, 128, 252
-0.993511, 201, 201, 232, 232
-0.993511, 125, 305, 156, 336
-0.993511, 141, 305, 172, 336
-0.993514, 349, 149, 380, 180
-0.993514, 237, 289, 268, 320
-0.993515, 229, 333, 260, 364
-0.993516, 405, 273, 436, 304
-0.993517, 169, 193, 200, 224
-0.993518, 33, 285, 64, 316
-0.993519, 273, 305, 304, 336
-0.993527, 145, 181, 176, 212
-0.993528, 337, 261, 368, 292
-0.993528, 109, 81, 140, 112
-0.99353, 329, 149, 360, 180
-0.993534, 105, 141, 136, 172
-0.993535, 353, 277, 384, 308
-0.993535, 105, 325, 136, 356
-0.993536, 217, 345, 248, 375
-0.993548, 385, 209, 448, 272
-0.993595, 105, 121, 136, 184
-0.993601, 289, 265, 320, 328
-0.993684, 377, 249, 408, 312
-0.993684, 169, 305, 200, 368
-0.993711, 265, 129, 296, 256
-0.99378, 241, 249, 304, 312
-0.993788, 225, 1, 352, 128
-0.993796, 369, 193, 496, 320
-0.993802, 113, 217, 176, 280
-0.993887, 1, 193, 128, 256
-0.993906, 213, 193, 244, 320
-0.99397, 89, 121, 120, 184
-0.993972, 97, 17, 224, 144
-0.994005, 257, 121, 384, 184
-0.99404, 169, 185, 200, 248
-0.994043, 269, 297, 300, 360
-0.994048, 329, 249, 360, 312
-0.994066, 161, 241, 192, 368
-0.994072, 341, 193, 372, 320
-0.994117, 341, 209, 372, 272
-0.99417, 201, 161, 264, 224
-0.994174, 241, 25, 368, 88
-0.994194, 341, 153, 372, 216
-0.994222, 1, 257, 32, 320
-0.994225, 281, 129, 344, 375
-0.994276, 1, 297, 256, 360
-0.994295, 137, 129, 200, 375
-0.994395, 177, 161, 208, 224
-0.994452, 117, 273, 148, 336
-0.994459, 201, 113, 232, 240
-0.994461, 145, 241, 176, 368
-0.994509, 97, 313, 352, 375
-0.994517, 269, 145, 300, 208
-0.994521, 269, 193, 300, 256
-0.994521, 317, 305, 348, 368
-0.994538, 89, 129, 120, 256
-0.994544, 137, 225, 200, 288
-0.994567, 1, 209, 500, 272
-0.994578, 281, 193, 344, 320
-0.994594, 289, 17, 352, 80
-0.994604, 1, 325, 128, 356
-0.99461, 65, 209, 96, 272
-0.994622, 325, 225, 356, 288
-0.994643, 321, 145, 352, 208
-0.994655, 281, 201, 344, 264
-0.994741, 101, 193, 132, 320
-0.994749, 101, 265, 132, 328
-0.994797, 189, 169, 220, 232
-0.994818, 9, 193, 72, 320
-0.994829, 257, 225, 288, 352
-0.994839, 33, 57, 160, 120
-0.994841, 353, 129, 416, 375
-0.994868, 97, 129, 224, 192
-0.994871, 401, 265, 432, 328
-0.994893, 313, 241, 344, 368
-0.994894, 377, 129, 440, 375
-0.994897, 193, 313, 448, 375
-0.994913, 225, 289, 480, 352
-0.994927, 201, 193, 232, 320
-0.994965, 337, 145, 400, 208
-0.994972, 65, 129, 96, 256
-0.994981, 257, 169, 288, 232
-0.995005, 209, 105, 272, 168
-0.995027, 325, 209, 356, 336
-0.995045, 281, 177, 312, 240
-0.995062, 133, 185, 164, 248
-0.995087, 377, 193, 408, 320
-0.995147, 289, 241, 320, 368
-0.995177, 245, 241, 276, 368
-0.99529, 353, 145, 384, 272
-0.99533, 121, 193, 152, 320
-0.995336, 257, 25, 320, 88
-0.995407, 241, 49, 368, 176
-0.995409, 1, 193, 256, 256
-0.995446, 33, 129, 96, 256
-0.995465, 241, 121, 304, 184
-0.995475, 81, 57, 208, 120
-0.995481, 397, 225, 412, 288
-0.995522, 361, 313, 392, 375
-0.99553, 177, 145, 208, 272
-0.99553, 169, 137, 232, 200
-0.995543, 73, 145, 136, 208
-0.995555, 353, 233, 480, 296
-0.995584, 201, 313, 232, 375
-0.995624, 269, 209, 300, 336
-0.99563, 57, 65, 88, 192
-0.995641, 169, 1, 232, 375
-0.995654, 65, 249, 96, 312
-0.995665, 137, 313, 168, 375
-0.995677, 233, 193, 264, 256
-0.995677, 1, 217, 256, 280
-0.995684, 321, 309, 448, 340
-0.995735, 129, 265, 256, 328
-0.995737, 149, 129, 180, 256
-0.995746, 1, 273, 256, 336
-0.995756, 113, 81, 144, 208
-0.995762, 73, 49, 136, 112
-0.995765, 1, 81, 256, 144
-0.995773, 401, 193, 432, 320
-0.995794, 193, 97, 320, 160
-0.995843, 377, 281, 408, 344
-0.995854, 1, 169, 128, 232
-0.995909, 385, 313, 416, 375
-0.995954, 337, 177, 464, 240
-0.995963, 1, 81, 64, 208
-0.995975, 185, 97, 248, 352
-0.995995, 73, 1, 136, 375
-0.996, 221, 313, 252, 375
-0.996003, 309, 233, 340, 296
-0.996017, 33, 81, 160, 112
-0.996021, 329, 297, 360, 360
-0.996029, 225, 1, 288, 375
-0.996052, 321, 293, 448, 324
-0.996054, 289, 81, 352, 208
-0.996055, 113, 129, 144, 256
-0.996056, 1, 305, 500, 368
-0.996064, 65, 105, 320, 168
-0.99607, 33, 305, 160, 336
-0.996078, 113, 33, 176, 288
-0.996092, 273, 313, 400, 344
-0.996127, 357, 241, 388, 304
-0.996137, 101, 241, 132, 304
-0.996154, 217, 1, 280, 256
-0.996158, 149, 297, 180, 360
-0.996169, 25, 241, 88, 304
-0.996184, 61, 193, 92, 320
-0.996191, 17, 341, 144, 372
-0.996194, 129, 145, 192, 208
-0.996201, 25, 81, 88, 144
-0.996201, 145, 185, 176, 248
-0.996201, 101, 217, 132, 280
-0.99621, 97, 185, 352, 248
-0.996211, 421, 305, 436, 368
-0.996214, 145, 129, 272, 192
-0.996216, 65, 333, 192, 364
-0.996233, 25, 129, 88, 375
-0.996236, 365, 193, 396, 320
-0.996273, 129, 241, 160, 368
-0.996285, 71, 313, 86, 375
-0.99632, 265, 97, 328, 224
-0.996361, 221, 145, 252, 272
-0.996381, 69, 73, 84, 136
-0.996406, 233, 225, 264, 352
-0.996408, 33, 209, 96, 272
-0.996414, 305, 261, 432, 292
-0.996421, 373, 201, 404, 264
-0.996432, 193, 33, 320, 96
-0.996453, 177, 193, 208, 320
-0.996461, 225, 81, 288, 144
-0.996463, 113, 73, 128, 136
-0.996463, 33, 97, 160, 128
-0.996481, 337, 177, 368, 240
-0.996487, 285, 161, 316, 288
-0.996491, 33, 113, 160, 144
-0.9965, 245, 177, 276, 304
-0.9965, 189, 193, 220, 320
-0.9965, 461, 281, 492, 344
-0.996509, 399, 249, 414, 312
-0.996518, 49, 241, 80, 368
-0.996534, 257, 265, 500, 328
-0.996554, 225, 33, 288, 96
-0.996566, 65, 305, 80, 368
-0.99657, 43, 313, 58, 375
-0.996592, 1, 241, 256, 304
-0.996593, 121, 97, 184, 160
-0.996595, 65, 293, 192, 324
-0.996596, 5, 65, 36, 192
-0.996606, 245, 185, 276, 248
-0.996619, 1, 137, 256, 200
-0.996627, 81, 205, 208, 236
-0.99663, 161, 209, 416, 272
-0.996652, 17, 289, 144, 320
-0.996656, 353, 329, 480, 360
-0.996677, 77, 305, 92, 368
-0.996682, 129, 161, 384, 224
-0.996692, 189, 129, 220, 256
-0.996694, 321, 201, 448, 264
-0.99673, 49, 313, 64, 375
-0.99677, 1, 233, 500, 296
-0.99678, 121, 105, 152, 168
-0.996786, 209, 97, 336, 224
-0.996788, 289, 217, 320, 280
-0.996793, 113, 1, 176, 375
-0.996821, 157, 201, 188, 264
-0.996823, 49, 217, 176, 248
-0.996826, 33, 125, 160, 156
-0.996833, 413, 225, 444, 352
-0.996844, 1, 281, 500, 344
-0.996861, 75, 281, 90, 344
-0.99687, 81, 209, 96, 272
-0.996878, 25, 129, 88, 192
-0.996883, 315, 289, 330, 352
-0.996883, 229, 217, 260, 280
-0.996893, 1, 97, 64, 160
-0.996898, 353, 273, 384, 336
-0.996898, 1, 289, 16, 352
-0.996954, 89, 209, 104, 272
-0.99696, 137, 265, 168, 328
-0.996961, 79, 73, 94, 136
-0.996964, 301, 241, 332, 368
-0.996979, 59, 313, 74, 375
-0.996994, 59, 281, 74, 344
-0.997005, 157, 177, 188, 240
-0.997008, 237, 305, 268, 368
-0.997015, 49, 317, 176, 348
-0.997023, 177, 241, 208, 368
-0.99703, 313, 97, 376, 224
-0.997035, 49, 17, 176, 144
-0.997043, 369, 309, 496, 340
-0.997044, 305, 273, 432, 304
-0.997047, 65, 281, 80, 344
-0.997059, 257, 81, 500, 208
-0.997076, 393, 249, 408, 312
-0.997077, 113, 181, 240, 212
-0.99708, 1, 65, 32, 128
-0.997088, 113, 321, 240, 352
-0.99709, 113, 33, 176, 160
-0.9971, 305, 129, 368, 192
-0.997107, 65, 277, 192, 308
-0.997108, 161, 241, 416, 304
-0.997116, 129, 289, 384, 352
-0.997128, 109, 73, 140, 136
-0.997145, 257, 301, 384, 332
-0.997146, 265, 225, 296, 288
-0.99715, 41, 265, 72, 328
-0.99715, 193, 1, 256, 375
-0.997158, 307, 265, 322, 328
-0.997163, 13, 257, 44, 320
-0.997179, 321, 129, 448, 192
-0.997179, 7, 305, 22, 368
-0.997191, 257, 17, 500, 144
-0.997191, 89, 233, 104, 296
-0.997194, 165, 225, 196, 288
-0.997195, 145, 105, 272, 168
-0.997208, 309, 289, 324, 352
-0.997213, 35, 305, 50, 368
-0.997216, 177, 157, 304, 188
-0.997216, 113, 193, 240, 224
-0.997228, 319, 265, 334, 328
-0.997235, 113, 249, 144, 312
-0.997246, 1, 1, 64, 375
-0.99725, 401, 225, 432, 288
-0.99725, 353, 153, 480, 216
-0.997257, 1, 253, 128, 284
-0.997258, 113, 97, 128, 160
-0.997262, 129, 297, 144, 360
-0.997265, 121, 121, 184, 184
-0.997265, 209, 257, 272, 320
-0.997268, 113, 57, 176, 120
-0.997283, 95, 209, 110, 272
-0.997291, 137, 1, 200, 375
-0.997297, 53, 281, 68, 344
-0.997306, 81, 273, 96, 336
-0.997313, 369, 297, 496, 328
-0.997329, 429, 313, 444, 375
-0.997336, 83, 297, 98, 360
-0.997367, 1, 169, 256, 232
-0.997384, 257, 153, 384, 184
-0.997384, 123, 305, 138, 368
-0.997389, 99, 73, 114, 136
-0.997393, 217, 217, 248, 280
-0.997405, 89, 73, 104, 136
-0.99742, 391, 225, 406, 288
-0.997424, 249, 1, 312, 256
-0.997436, 281, 153, 312, 216
-0.99744, 1, 185, 500, 248
-0.997443, 25, 241, 56, 368
-0.997469, 331, 281, 346, 344
-0.99747, 181, 297, 212, 360
-0.997487, 1, 213, 128, 244
-0.997498, 165, 153, 196, 216
-0.997502, 241, 49, 368, 112
-0.997511, 431, 289, 446, 352
-0.997515, 297, 1, 360, 375
-0.997518, 1, 313, 16, 375
-0.997521, 337, 169, 400, 232
-0.99755, 49, 265, 176, 296
-0.997557, 265, 17, 328, 144
-0.997567, 205, 209, 236, 272
-0.997573, 161, 193, 288, 224
-0.997581, 1, 137, 128, 168
-0.997596, 387, 249, 402, 312
-0.997599, 79, 121, 94, 184
-0.997602, 15, 313, 30, 375
-0.997607, 17, 277, 144, 308
-0.997608, 257, 193, 288, 256
-0.997608, 281, 241, 312, 304
-0.997611, 105, 73, 120, 136
-0.997623, 273, 325, 400, 356
-0.997628, 189, 241, 220, 368
-0.997633, 69, 105, 84, 168
-0.997634, 273, 173, 400, 204
-0.997639, 1, 153, 64, 216
-0.997639, 229, 169, 260, 232
-0.99764, 273, 221, 400, 252
-0.997647, 217, 241, 248, 368
-0.997648, 313, 265, 328, 328
-0.997649, 49, 145, 112, 208
-0.997651, 323, 289, 338, 352
-0.997654, 97, 309, 224, 340
-0.997656, 111, 297, 126, 360
-0.997656, 189, 225, 220, 288
-0.997657, 289, 1, 352, 128
-0.997657, 369, 217, 384, 280
-0.997658, 53, 73, 84, 136
-0.997661, 225, 193, 240, 256
-0.997682, 81, 153, 208, 216
-0.997696, 391, 273, 406, 336
-0.997711, 253, 129, 284, 256
-0.997712, 89, 193, 120, 256
-0.997716, 345, 241, 376, 304
-0.997718, 225, 161, 480, 224
-0.997718, 257, 297, 288, 360
-0.997725, 209, 309, 336, 340
-0.997733, 241, 137, 272, 200
-0.997734, 193, 173, 320, 204
-0.997735, 41, 289, 56, 352
-0.997735, 97, 297, 112, 360
-0.997735, 185, 201, 216, 264
-0.997736, 89, 257, 104, 320
-0.997737, 409, 257, 424, 320
-0.99774, 89, 105, 104, 168
-0.997749, 103, 265, 118, 328
-0.997752, 245, 209, 276, 272
-0.997754, 1, 265, 16, 328
-0.997763, 325, 265, 340, 328
-0.997778, 305, 249, 432, 280
-0.997778, 385, 313, 400, 375
-0.99778, 99, 105, 114, 168
-0.997785, 371, 305, 386, 368
-0.997795, 25, 289, 40, 352
-0.9978, 7, 281, 22, 344
-0.997801, 65, 57, 320, 120
-0.997805, 273, 345, 400, 375
-0.997814, 353, 341, 480, 372
-0.997818, 281, 297, 296, 360
-0.997827, 401, 273, 416, 336
-0.997837, 117, 305, 132, 368
-0.99784, 161, 265, 416, 328
-0.997841, 353, 281, 480, 312
-0.997842, 429, 241, 460, 368
-0.997848, 193, 185, 448, 248
-0.99785, 337, 1, 400, 375
-0.997857, 47, 289, 62, 352
-0.997858, 161, 65, 288, 128
-0.997872, 49, 245, 176, 276
-0.997877, 83, 241, 98, 304
-0.997888, 385, 289, 400, 352
-0.997888, 201, 169, 232, 232
-0.997898, 27, 313, 42, 375
-0.997901, 49, 137, 176, 168
-0.997907, 453, 305, 484, 368
-0.997914, 21, 313, 36, 375
-0.997921, 313, 129, 344, 256
-0.99793, 377, 305, 392, 368
-0.997935, 161, 333, 288, 364
-0.997944, 145, 169, 272, 200
-0.997954, 79, 97, 94, 160
-0.997955, 129, 205, 256, 236
-0.997957, 105, 97, 120, 160
-0.997963, 1, 225, 32, 288
-0.997964, 361, 297, 376, 360
-0.997964, 423, 309, 438, 340
-0.997967, 225, 241, 256, 304
-0.997974, 135, 313, 150, 375
-0.997995, 233, 129, 264, 256
-0.997999, 241, 97, 368, 160
-0.998009, 409, 289, 424, 352
-0.998012, 97, 257, 112, 320
-0.998014, 359, 193, 374, 256
-0.998016, 283, 185, 298, 248
-0.998017, 7, 249, 22, 312
-0.998027, 19, 289, 34, 352
-0.998028, 335, 145, 350, 208
-0.998033, 1, 225, 128, 256
-0.998034, 363, 217, 378, 280
-0.998039, 353, 269, 480, 300
-0.998041, 165, 193, 180, 256
-0.998043, 415, 289, 430, 352
-0.998044, 421, 281, 436, 344
-0.998053, 257, 209, 384, 240
-0.998056, 295, 289, 310, 352
-0.998059, 177, 205, 304, 236
-0.998064, 249, 305, 264, 368
-0.998069, 105, 121, 120, 184
-0.998077, 1, 105, 16, 168
-0.998088, 347, 145, 362, 208
-0.998107, 237, 169, 252, 232
-0.998113, 225, 285, 352, 316
-0.998117, 1, 317, 16, 348
-0.998118, 39, 341, 54, 372
-0.998127, 241, 189, 368, 220
-0.998131, 403, 225, 418, 288
-0.998133, 105, 297, 120, 360
-0.998137, 391, 313, 406, 375
-0.99814, 13, 257, 28, 320
-0.998141, 343, 169, 358, 232
-0.998143, 101, 217, 116, 280
-0.998146, 189, 161, 204, 224
-0.998146, 273, 209, 288, 272
-0.998165, 141, 313, 156, 375
-0.99817, 297, 1, 360, 256
-0.998175, 289, 17, 416, 80
-0.998175, 225, 225, 352, 256
-0.998176, 369, 273, 384, 336
-0.998182, 1, 217, 64, 280
-0.998185, 381, 257, 396, 320
-0.998185, 135, 289, 150, 352
-0.998187, 257, 269, 384, 300
-0.99819, 77, 329, 92, 360
-0.998192, 317, 289, 332, 320
-0.998193, 105, 97, 136, 352
-0.998199, 173, 193, 188, 256
-0.998202, 1, 329, 16, 360
-0.998219, 49, 229, 176, 260
-0.998219, 257, 193, 272, 256
-0.99822, 257, 177, 288, 304
-0.99822, 273, 289, 400, 320
-0.99823, 31, 281, 46, 344
-0.998231, 397, 237, 412, 268
-0.998231, 243, 153, 258, 216
-0.998235, 301, 297, 316, 360
-0.998239, 1, 121, 64, 184
-0.998243, 9, 325, 24, 356
-0.998251, 31, 333, 46, 364
-0.998257, 209, 325, 336, 356
-0.998257, 17, 57, 80, 120
-0.99826, 145, 309, 272, 340
-0.998261, 217, 49, 280, 176
-0.998265, 89, 305, 104, 368
-0.998268, 355, 161, 370, 224
-0.998272, 33, 1, 96, 375
-0.998275, 369, 209, 496, 272
-0.998284, 333, 319, 364, 334
-0.998284, 1, 237, 128, 268
-0.998284, 225, 195, 256, 210
-0.998285, 89, 305, 120, 320
-0.998285, 245, 287, 276, 302
-0.998286, 287, 145, 302, 208
-0.998287, 1, 113, 500, 176
-0.998287, 321, 283, 352, 298
-0.998287, 77, 97, 108, 112
-0.998287, 37, 289, 68, 304
-0.998288, 357, 315, 388, 330
-0.998288, 81, 273, 112, 288
-0.998288, 97, 221, 128, 236
-0.998289, 25, 359, 56, 374
-0.998289, 173, 169, 188, 232
-0.998289, 357, 217, 372, 280
-0.998289, 421, 313, 452, 328
-0.99829, 73, 239, 104, 254
-0.998291, 369, 341, 400, 356
-0.998292, 309, 289, 340, 304
-0.998292, 217, 345, 248, 360
-0.998292, 65, 317, 96, 332
-0.998293, 413, 323, 444, 338
-0.998293, 361, 145, 376, 208
-0.998293, 101, 97, 132, 112
-0.998293, 117, 315, 148, 330
-0.998295, 225, 253, 352, 284
-0.998295, 231, 177, 246, 240
-0.998295, 49, 343, 80, 358
-0.998295, 101, 129, 132, 144
-0.998296, 101, 209, 132, 224
-0.998296, 101, 105, 132, 120
-0.998296, 65, 89, 96, 104
-0.998297, 177, 195, 208, 210
-0.998297, 341, 305, 372, 320
-0.998297, 241, 141, 368, 172
-0.998298, 89, 263, 120, 278
-0.998298, 345, 361, 376, 375
-0.998298, 89, 95, 120, 110
-0.998298, 429, 319, 460, 334
-0.998298, 129, 333, 160, 348
-0.998299, 65, 107, 96, 122
-0.998299, 373, 275, 404, 290
-0.9983, 101, 305, 132, 320
-0.9983, 305, 305, 336, 320
-0.9983, 125, 197, 156, 212
-0.998302, 397, 305, 412, 368
-0.998302, 425, 307, 456, 322
-0.998302, 429, 325, 460, 340
-0.998302, 89, 117, 120, 132
-0.998303, 81, 343, 112, 358
-0.998303, 33, 313, 64, 328
-0.998304, 377, 333, 408, 348
-0.998304, 57, 283, 88, 298
-0.998304, 385, 235, 416, 250
-0.998305, 61, 347, 92, 362
-0.998305, 33, 351, 64, 366
-0.998305, 53, 315, 84, 330
-0.998306, 65, 123, 96, 138
-0.998306, 65, 115, 96, 130
-0.998307, 277, 185, 292, 248
-0.998308, 369, 227, 400, 242
-0.998309, 357, 303, 388, 318
-0.99831, 1, 291, 32, 306
-0.99831, 305, 311, 336, 326
-0.998313, 369, 265, 400, 280
-0.998314, 69, 225, 100, 240
-0.998314, 109, 297, 140, 312
-0.998314, 133, 185, 148, 248
-0.998315, 309, 277, 340, 292
-0.998317, 69, 299, 100, 314
-0.998317, 341, 223, 372, 238
-0.998317, 377, 327, 408, 342
-0.998317, 353, 113, 416, 240
-0.998317, 29, 339, 60, 354
-0.998318, 73, 279, 104, 294
-0.998318, 113, 337, 144, 352
-0.99832, 389, 253, 420, 268
-0.99832, 69, 331, 100, 346
-0.998321, 21, 353, 52, 368
-0.998321, 409, 307, 440, 322
-0.998321, 101, 339, 132, 354
-0.998321, 9, 225, 24, 288
-0.998322, 77, 255, 108, 270
-0.998322, 65, 81, 96, 96
-0.998322, 69, 65, 100, 320
-0.998322, 257, 225, 500, 288
-0.998322, 65, 101, 96, 116
-0.998323, 21, 291, 52, 306
-0.998323, 355, 273, 370, 336
-0.998323, 277, 221, 308, 236
-0.998324, 389, 283, 420, 298
-0.998324, 393, 229, 424, 244
-0.998325, 69, 285, 100, 300
-0.998326, 85, 287, 116, 302
-0.998327, 373, 307, 404, 322
-0.998327, 425, 301, 456, 316
-0.998328, 289, 307, 320, 322
-0.998329, 345, 317, 376, 332
-0.998329, 341, 289, 356, 352
-0.99833, 85, 293, 116, 308
-0.99833, 129, 273, 144, 336
-0.99833, 33, 299, 64, 314
-0.99833, 101, 123, 132, 138
-0.998332, 389, 291, 420, 306
-0.998332, 365, 347, 396, 362
-0.998332, 85, 243, 116, 258
-0.998333, 97, 125, 224, 156
-0.998333, 217, 201, 248, 216
-0.998334, 369, 313, 400, 328
-0.998334, 101, 115, 132, 130
-0.998335, 95, 213, 110, 244
-0.998336, 77, 249, 108, 264
-0.998338, 113, 81, 128, 112
-0.998338, 41, 305, 72, 320
-0.998339, 21, 305, 52, 320
-0.998341, 305, 299, 336, 314
-0.998342, 353, 225, 384, 240
-0.998342, 73, 215, 104, 230
-0.998342, 373, 321, 404, 336
-0.998343, 97, 81, 128, 96
-0.998343, 405, 297, 436, 312
-0.998346, 5, 347, 36, 362
-0.998346, 129, 285, 256, 316
-0.998347, 21, 299, 52, 314
-0.998347, 1, 319, 32, 334
-0.998348, 389, 273, 420, 288
-0.998349, 65, 129, 96, 144
-0.998349, 161, 221, 288, 252
-0.998352, 321, 293, 352, 308
-0.998352, 81, 221, 112, 236
-0.998352, 73, 293, 104, 308
-0.998354, 37, 345, 68, 360
-0.998355, 93, 299, 124, 314
-0.998356, 251, 137, 266, 200
-0.998357, 321, 303, 352, 318
-0.998358, 381, 229, 412, 244
-0.998359, 235, 289, 250, 352
-0.998361, 45, 351, 76, 366
-0.998361, 69, 137, 100, 152
-0.998361, 331, 257, 346, 320
-0.998361, 375, 273, 390, 336
-0.998364, 1, 65, 16, 128
-0.998364, 9, 297, 40, 312
-0.998366, 61, 323, 92, 338
-0.998371, 9, 331, 40, 346
-0.998371, 71, 329, 86, 360
-0.998372, 409, 313, 440, 328
-0.998372, 161, 233, 288, 264
-0.998372, 341, 311, 372, 326
-0.998374, 73, 323, 104, 338
-0.998375, 353, 309, 384, 324
-0.998379, 341, 299, 372, 314
-0.998382, 297, 161, 328, 288
-0.998385, 77, 313, 92, 344
-0.998387, 5, 325, 36, 340
-0.998388, 17, 337, 48, 352
-0.998389, 389, 265, 420, 280
-0.998393, 311, 289, 326, 320
-0.998396, 1, 257, 500, 320
-0.9984, 5, 341, 36, 356
-0.998403, 225, 345, 352, 375
-0.998416, 313, 273, 328, 304
-0.998418, 85, 215, 116, 230
-0.998421, 25, 345, 56, 360
-0.998421, 389, 259, 420, 274
-0.998424, 329, 309, 360, 324
-0.998425, 161, 137, 416, 200
-0.99843, 9, 337, 24, 368
-0.99843, 1, 201, 128, 232
-0.998434, 273, 1, 336, 375
-0.998458, 87, 213, 102, 244
-0.99846, 193, 145, 320, 176
-0.998473, 113, 333, 240, 364
-0.998479, 97, 221, 224, 252
-0.998484, 1, 33, 128, 96
-0.998495, 69, 77, 84, 108
-0.998496, 1, 145, 500, 208
-0.998498, 79, 277, 94, 308
-0.998498, 373, 313, 388, 344
-0.998499, 397, 225, 412, 256
-0.998503, 85, 325, 100, 356
-0.998508, 113, 233, 240, 264
-0.99851, 307, 277, 322, 308
-0.998515, 49, 301, 64, 332
-0.998516, 25, 329, 40, 360
-0.998516, 61, 305, 76, 336
-0.99852, 161, 321, 288, 352
-0.998524, 333, 301, 348, 332
-0.998528, 79, 229, 94, 260
-0.998534, 177, 273, 304, 304
-0.998542, 97, 257, 224, 288
-0.998549, 129, 297, 256, 328
-0.998551, 27, 345, 42, 375
-0.998556, 389, 257, 404, 288
-0.998559, 345, 297, 360, 328
-0.998563, 97, 137, 224, 168
-0.998566, 161, 253, 288, 284
-0.998566, 81, 213, 96, 244
-0.998567, 399, 277, 414, 308
-0.99857, 201, 241, 232, 368
-0.998576, 421, 297, 436, 328
-0.998578, 81, 105, 208, 136
-0.998579, 377, 309, 440, 324
-0.99858, 339, 301, 354, 332
-0.99858, 143, 181, 158, 212
-0.998585, 81, 85, 208, 116
-0.998587, 19, 325, 34, 356
-0.998593, 1, 341, 64, 356
-0.998599, 85, 289, 100, 320
-0.9986, 47, 345, 62, 375
-0.998601, 297, 303, 360, 318
-0.998602, 137, 321, 152, 352
-0.998603, 385, 319, 448, 334
-0.998603, 321, 311, 384, 326
-0.998604, 369, 257, 496, 288
-0.998605, 361, 265, 424, 280
-0.998609, 429, 293, 444, 324
-0.998609, 97, 289, 112, 320
-0.99861, 65, 81, 128, 96
-0.998614, 127, 317, 142, 348
-0.998616, 177, 33, 304, 160
-0.998617, 221, 193, 236, 224
-0.998618, 345, 307, 408, 322
-0.998619, 361, 259, 424, 274
-0.998622, 89, 237, 104, 268
-0.998623, 209, 1, 336, 64
-0.998626, 377, 303, 440, 318
-0.998627, 353, 227, 416, 242
-0.998627, 75, 213, 90, 244
-0.99863, 345, 315, 408, 330
-0.998632, 297, 291, 360, 306
-0.998633, 33, 341, 96, 356
-0.998634, 321, 305, 384, 320
-0.998634, 65, 217, 128, 232
-0.998636, 385, 325, 448, 340
-0.998637, 33, 305, 96, 320
-0.998638, 19, 337, 34, 368
-0.998641, 81, 339, 144, 354
-0.998641, 41, 313, 104, 328
-0.998641, 1, 349, 64, 364
-0.998641, 25, 321, 88, 336
-0.998643, 297, 309, 360, 324
-0.998644, 25, 349, 88, 364
-0.998644, 345, 249, 408, 264
-0.998646, 265, 223, 328, 238
-0.998646, 353, 277, 416, 292
-0.998646, 1, 359, 64, 374
-0.998647, 1, 335, 64, 350
-0.998648, 377, 331, 440, 346
-0.998648, 361, 235, 424, 250
-0.998649, 401, 253, 416, 284
-0.998651, 321, 319, 384, 334
-0.998652, 321, 299, 384, 314
-0.998652, 369, 325, 384, 356
-0.998654, 57, 95, 120, 110
-0.998654, 65, 299, 128, 314
-0.998655, 105, 335, 168, 350
-0.998656, 73, 135, 136, 150
-0.998657, 1, 311, 64, 326
-0.998658, 81, 307, 144, 322
-0.998658, 417, 301, 480, 316
-0.998658, 417, 311, 480, 326
-0.998659, 41, 305, 56, 336
-0.99866, 57, 345, 120, 360
-0.99866, 329, 225, 392, 240
-0.998661, 409, 295, 472, 310
-0.998664, 57, 117, 120, 132
-0.998664, 41, 285, 104, 300
-0.998665, 385, 231, 448, 246
-0.998666, 81, 117, 144, 132
-0.998667, 273, 309, 336, 324
-0.998667, 81, 329, 144, 344
-0.998668, 65, 223, 128, 238
-0.998669, 253, 81, 284, 208
-0.998669, 69, 317, 84, 348
-0.998671, 377, 297, 440, 312
-0.998671, 81, 129, 144, 144
-0.998672, 25, 327, 88, 342
-0.998672, 65, 321, 128, 336
-0.998674, 353, 271, 416, 286
-0.998675, 297, 297, 360, 312
-0.998676, 345, 321, 408, 336
-0.998678, 57, 333, 120, 348
-0.998678, 289, 225, 352, 240
-0.998679, 1, 329, 64, 344
-0.998682, 345, 243, 408, 258
-0.998683, 321, 283, 384, 298
-0.998683, 137, 325, 200, 340
-0.998683, 71, 125, 86, 156
-0.998683, 337, 257, 400, 272
-0.998684, 351, 301, 366, 332
-0.998684, 121, 307, 184, 322
-0.998684, 81, 95, 144, 110
-0.998685, 57, 123, 120, 138
-0.998685, 65, 293, 128, 308
-0.998686, 1, 301, 64, 316
-0.998686, 361, 341, 424, 356
-0.998686, 273, 299, 336, 314
-0.998688, 105, 323, 168, 338
-0.998688, 225, 73, 352, 136
-0.998688, 313, 219, 376, 234
-0.998688, 113, 197, 176, 212
-0.998689, 57, 111, 120, 126
-0.998689, 97, 209, 160, 224
-0.998689, 73, 313, 136, 328
-0.99869, 33, 299, 96, 314
-0.99869, 345, 309, 360, 340
-0.998691, 417, 349, 480, 364
-0.998691, 97, 301, 160, 316
-0.998691, 169, 199, 232, 214
-0.998692, 81, 123, 144, 138
-0.998692, 209, 201, 272, 216
-0.998692, 103, 285, 118, 316
-0.998693, 345, 301, 408, 316
-0.998693, 9, 289, 72, 304
-0.998694, 129, 331, 192, 346
-0.998696, 353, 327, 416, 342
-0.998696, 129, 191, 192, 206
-0.998696, 137, 317, 200, 332
-0.998696, 281, 315, 344, 330
-0.998697, 81, 145, 144, 160
-0.998698, 417, 319, 480, 334
-0.998698, 337, 265, 400, 280
-0.998699, 113, 139, 176, 154
-0.998699, 105, 295, 168, 310
-0.998699, 81, 111, 144, 126
-0.9987, 81, 133, 96, 164
-0.998701, 241, 165, 304, 180
-0.998701, 57, 101, 120, 116
-0.998702, 417, 325, 480, 340
-0.998702, 113, 125, 128, 156
-0.998702, 97, 317, 160, 332
-0.998703, 91, 285, 106, 316
-0.998703, 233, 177, 296, 192
-0.998703, 233, 201, 296, 216
-0.998703, 297, 277, 360, 292
-0.998703, 353, 289, 416, 304
-0.998703, 241, 219, 304, 234
-0.998704, 1, 323, 64, 338
-0.998705, 95, 329, 110, 360
-0.998705, 209, 195, 272, 210
-0.998706, 169, 223, 232, 238
-0.998707, 353, 359, 416, 374
-0.998709, 177, 193, 240, 208
-0.998709, 65, 181, 192, 212
-0.998709, 385, 351, 448, 366
-0.99871, 57, 89, 120, 104
-0.99871, 185, 159, 248, 174
-0.99871, 97, 219, 160, 234
-0.99871, 281, 153, 344, 168
-0.99871, 233, 183, 296, 198
-0.998711, 401, 287, 464, 302
-0.998712, 313, 173, 376, 188
-0.998712, 145, 203, 208, 218
-0.998712, 305, 265, 368, 280
-0.998713, 305, 251, 368, 266
-0.998713, 225, 159, 288, 174
-0.998714, 57, 129, 120, 144
-0.998715, 65, 239, 128, 254
-0.998715, 273, 293, 336, 308
-0.998715, 393, 271, 456, 286
-0.998715, 337, 153, 464, 184
-0.998715, 1, 317, 64, 332
-0.998716, 355, 217, 370, 248
-0.998716, 65, 231, 128, 246
-0.998717, 169, 253, 232, 268
-0.998721, 431, 317, 446, 348
-0.998725, 65, 345, 192, 375
-0.998732, 33, 345, 48, 375
-0.998735, 323, 297, 338, 328
-0.998735, 317, 301, 332, 332
-0.998736, 109, 297, 124, 328
-0.998738, 389, 273, 404, 304
-0.998738, 31, 293, 46, 324
-0.998747, 317, 261, 332, 292
-0.998751, 365, 345, 380, 375
-0.998752, 89, 125, 104, 156
-0.998752, 65, 193, 192, 224
-0.998755, 37, 293, 52, 324
-0.998756, 81, 65, 112, 320
-0.998756, 365, 225, 380, 256
-0.99876, 383, 265, 398, 296
-0.99876, 377, 337, 392, 368
-0.998761, 241, 29, 368, 60
-0.998763, 319, 273, 334, 304
-0.998769, 101, 77, 116, 108
-0.998771, 241, 157, 256, 188
-0.998773, 115, 293, 130, 324
-0.998773, 351, 161, 366, 192
-0.998777, 87, 313, 102, 344
-0.998781, 115, 113, 130, 144
-0.998783, 79, 97, 94, 128
-0.998783, 55, 305, 70, 336
-0.998786, 103, 129, 118, 160
-0.998809, 91, 77, 106, 108
-0.998814, 97, 145, 160, 208
-0.998818, 237, 169, 252, 200
-0.998818, 1, 305, 16, 336
-0.998821, 101, 221, 116, 252
-0.998824, 309, 193, 340, 320
-0.998827, 397, 265, 412, 296
-0.998834, 413, 293, 428, 324
-0.998835, 1, 265, 128, 296
-0.998843, 227, 189, 242, 220
-0.998843, 67, 345, 82, 375
-0.998844, 89, 273, 104, 304
-0.998847, 383, 317, 398, 348
-0.998848, 309, 309, 324, 340
-0.99885, 131, 197, 146, 228
-0.998853, 127, 297, 142, 328
-0.998855, 7, 313, 22, 344
-0.998855, 363, 305, 378, 336
-0.998858, 83, 77, 98, 108
-0.99886, 121, 305, 136, 336
-0.998862, 389, 317, 404, 348
-0.998865, 225, 237, 352, 268
-0.998865, 113, 269, 240, 300
-0.998871, 57, 97, 88, 352
-0.998873, 323, 285, 338, 316
-0.998875, 69, 113, 84, 144
-0.998879, 181, 193, 196, 224
-0.99888, 361, 1, 424, 375
-0.99888, 79, 245, 94, 276
-0.998881, 1, 105, 16, 136
-0.998882, 213, 205, 228, 236
-0.998883, 209, 297, 336, 328
-0.998883, 61, 285, 76, 316
-0.998883, 177, 345, 304, 375
-0.998883, 301, 297, 316, 328
-0.998884, 355, 273, 370, 304
-0.998887, 115, 93, 130, 124
-0.998888, 93, 65, 124, 320
-0.998891, 107, 337, 122, 368
-0.998897, 113, 245, 240, 276
-0.9989, 67, 305, 82, 336
-0.998904, 475, 333, 490, 364
-0.99891, 121, 81, 184, 208
-0.998913, 107, 77, 122, 108
-0.998915, 91, 341, 106, 372
-0.998918, 107, 205, 122, 236
-0.998923, 369, 301, 384, 332
-0.998923, 409, 265, 424, 296
-0.998924, 149, 177, 164, 208
-0.998927, 233, 181, 248, 212
-0.998929, 85, 341, 100, 372
-0.998929, 329, 289, 344, 320
-0.99893, 323, 261, 338, 292
-0.998932, 47, 285, 62, 316
-0.998934, 433, 305, 448, 336
-0.998935, 99, 341, 114, 372
-0.998937, 353, 149, 368, 180
-0.998939, 321, 225, 448, 256
-0.998945, 425, 329, 440, 360
-0.998998, 249, 1, 312, 375
-0.99904, 37, 241, 68, 368
-0.999089, 97, 169, 224, 200
-0.9991, 161, 25, 416, 88
-0.999106, 305, 237, 432, 268
-0.999109, 395, 209, 410, 336
-0.999113, 145, 41, 272, 104
-0.999126, 113, 345, 240, 375
-0.999131, 173, 129, 204, 375
-0.999149, 113, 65, 128, 192
-0.999154, 321, 165, 448, 196
-0.999158, 289, 185, 416, 216
-0.999172, 321, 97, 448, 224
-0.999173, 341, 129, 372, 375
-0.999178, 41, 185, 104, 248
-0.999194, 337, 209, 464, 240
-0.999195, 129, 157, 256, 188
-0.999207, 69, 65, 84, 192
-0.999231, 369, 145, 432, 208
-0.999257, 97, 69, 224, 100
-0.999267, 313, 129, 344, 375
-0.999289, 401, 129, 464, 375
-0.99929, 97, 81, 352, 144
-0.999292, 193, 105, 320, 136
-0.999316, 7, 241, 22, 368
-0.99932, 265, 129, 296, 375
-0.999332, 403, 225, 418, 352
-0.999354, 1, 69, 128, 100
-0.999355, 83, 241, 98, 368
-0.999358, 1, 149, 128, 180
-0.999362, 79, 193, 94, 320
-0.999378, 89, 193, 104, 320
-0.99938, 145, 145, 272, 176
-0.999397, 365, 209, 380, 336
-0.999405, 389, 225, 404, 352
-0.999407, 1, 193, 64, 256
-0.999414, 79, 65, 94, 192
-0.999432, 253, 129, 284, 375
-0.999434, 13, 241, 28, 368
-0.999446, 1, 241, 16, 368
-0.999457, 169, 177, 184, 304
-0.999462, 97, 241, 112, 368
-0.999463, 389, 129, 420, 375
-0.999468, 107, 65, 122, 192
-0.999469, 289, 141, 416, 172
-0.99948, 95, 193, 110, 320
-0.999482, 369, 245, 496, 276
-0.999491, 359, 209, 374, 336
-0.999491, 177, 285, 304, 316
-0.999493, 89, 241, 104, 368
-0.999496, 221, 347, 236, 362
-0.999496, 9, 291, 24, 306
-0.999496, 125, 315, 140, 330
-0.999497, 331, 317, 346, 332
-0.999497, 317, 267, 332, 282
-0.999497, 381, 313, 396, 328
-0.999497, 383, 265, 398, 280
-0.999497, 31, 291, 46, 306
-0.999497, 109, 217, 124, 232
-0.999497, 91, 239, 106, 254
-0.999498, 19, 351, 34, 366
-0.999498, 77, 331, 92, 346
-0.999498, 87, 223, 102, 238
-0.999499, 433, 323, 448, 338
-0.999499, 395, 325, 410, 340
-0.999499, 391, 269, 406, 284
-0.999499, 13, 337, 28, 352
-0.999499, 139, 193, 154, 208
-0.999499, 429, 295, 444, 310
-0.9995, 277, 203, 292, 218
-0.9995, 105, 117, 120, 132
-0.999501, 89, 245, 104, 260
-0.999501, 335, 301, 350, 316
-0.999502, 79, 247, 94, 262
-0.999502, 25, 355, 40, 370
-0.999502, 217, 205, 232, 220
-0.999503, 373, 329, 388, 344
-0.999503, 327, 227, 342, 242
-0.999503, 385, 277, 400, 292
-0.999503, 309, 301, 324, 316
-0.999503, 323, 313, 338, 328
-0.999503, 321, 289, 336, 304
-0.999504, 417, 297, 432, 312
-0.999505, 103, 221, 118, 236
-0.999505, 407, 271, 422, 286
-0.999506, 77, 285, 92, 300
-0.999506, 389, 323, 404, 338
-0.999506, 47, 305, 62, 320
-0.999507, 97, 221, 112, 236
-0.999507, 399, 283, 414, 298
-0.999508, 375, 307, 390, 322
-0.999508, 29, 361, 44, 375
-0.999508, 309, 291, 324, 306
-0.999508, 75, 221, 90, 236
-0.999508, 115, 123, 130, 138
-0.999508, 147, 181, 162, 196
-0.999509, 21, 325, 36, 340
-0.99951, 133, 195, 148, 210
-0.999511, 337, 225, 352, 240
-0.999511, 391, 229, 406, 244
-0.999511, 103, 301, 118, 316
-0.999511, 279, 219, 294, 234
-0.999511, 363, 299, 378, 314
-0.999512, 421, 305, 436, 320
-0.999513, 115, 113, 130, 128
-0.999513, 371, 209, 386, 336
-0.999514, 217, 199, 232, 214
-0.999515, 387, 257, 402, 272
-0.999515, 365, 225, 380, 240
-0.999515, 367, 345, 382, 360
-0.999518, 71, 327, 86, 342
-0.999518, 353, 223, 368, 238
-0.999518, 115, 129, 130, 256
-0.999518, 97, 299, 112, 314
-0.999518, 377, 339, 392, 354
-0.99952, 333, 307, 348, 322
-0.999521, 363, 305, 378, 320
-0.999521, 95, 289, 110, 304
-0.999521, 43, 313, 58, 328
-0.999521, 389, 329, 404, 344
-0.999521, 83, 215, 98, 230
-0.999521, 141, 325, 156, 340
-0.999523, 383, 271, 398, 286
-0.999523, 31, 347, 46, 362
-0.999524, 213, 193, 228, 320
-0.999524, 15, 345, 30, 360
-0.999524, 77, 241, 92, 368
-0.999524, 27, 331, 42, 346
-0.999524, 399, 277, 414, 292
-0.999524, 1, 325, 16, 340
-0.999525, 353, 297, 368, 312
-0.999526, 83, 327, 98, 342
-0.999526, 81, 223, 96, 238
-0.999526, 397, 251, 412, 266
-0.999527, 313, 275, 328, 290
-0.999528, 397, 241, 412, 256
-0.999528, 353, 145, 368, 272
-0.999529, 315, 299, 330, 314
-0.999529, 121, 241, 136, 368
-0.999529, 145, 129, 176, 375
-0.999529, 85, 65, 100, 192
-0.99953, 337, 129, 352, 256
-0.999531, 91, 65, 106, 192
-0.999531, 69, 129, 84, 256
-0.999531, 343, 299, 358, 314
-0.999533, 7, 331, 22, 346
-0.999533, 427, 303, 442, 318
-0.999533, 223, 199, 238, 214
-0.999535, 101, 65, 116, 192
-0.999535, 351, 315, 366, 330
-0.999536, 423, 317, 438, 332
-0.999536, 379, 241, 394, 368
-0.999536, 69, 81, 84, 96
-0.999536, 393, 283, 408, 298
-0.999536, 315, 289, 330, 304
-0.999536, 369, 315, 384, 330
-0.999537, 87, 291, 102, 306
-0.999537, 43, 349, 58, 364
-0.999538, 9, 343, 24, 358
-0.999538, 77, 215, 92, 230
-0.999539, 89, 215, 104, 230
-0.999539, 21, 297, 36, 312
-0.99954, 365, 145, 396, 272
-0.999541, 113, 81, 128, 96
-0.999541, 349, 305, 364, 320
-0.999542, 339, 309, 354, 324
-0.999542, 37, 297, 52, 312
-0.999543, 397, 271, 412, 286
-0.999545, 223, 193, 238, 208
-0.999546, 393, 277, 408, 292
-0.999549, 97, 215, 112, 230
-0.99955, 399, 257, 414, 272
-0.99955, 31, 303, 46, 318
-0.999552, 355, 309, 370, 324
-0.999554, 221, 177, 236, 304
-0.999555, 107, 241, 122, 368
-0.999557, 33, 337, 48, 352
-0.999557, 401, 265, 416, 280
-0.999557, 363, 161, 378, 288
-0.999558, 359, 223, 374, 238
-0.999559, 345, 313, 360, 328
-0.99956, 161, 113, 416, 176
-0.999568, 389, 263, 404, 278
-0.99957, 275, 129, 290, 256
-0.999572, 397, 235, 412, 250
-0.999575, 3, 97, 18, 224
-0.999577, 159, 177, 174, 304
-0.999579, 39, 343, 54, 358
-0.999579, 325, 129, 356, 375
-0.999581, 393, 257, 408, 272
-0.999584, 39, 359, 54, 374
-0.999587, 241, 129, 368, 160
-0.999593, 369, 129, 400, 375
-0.999593, 89, 113, 104, 240
-0.999595, 13, 331, 28, 346
-0.999598, 7, 337, 22, 352
-0.999601, 285, 129, 316, 375
-0.999603, 1, 331, 16, 346
-0.999604, 19, 339, 34, 354
-0.999605, 83, 129, 98, 256
-0.999608, 7, 325, 22, 340
-0.999609, 117, 97, 148, 352
-0.99961, 77, 323, 92, 338
-0.99961, 23, 241, 38, 368
-0.999611, 33, 353, 48, 368
-0.999611, 421, 311, 436, 326
-0.999614, 71, 241, 86, 368
-0.999615, 165, 241, 180, 368
-0.999616, 97, 129, 112, 256
-0.999616, 175, 145, 190, 272
-0.999617, 25, 345, 40, 360
-0.999618, 133, 241, 148, 368
-0.999624, 409, 241, 424, 368
-0.999625, 315, 241, 330, 368
-0.999626, 243, 241, 258, 368
-0.999629, 1, 319, 16, 334
-0.999631, 347, 129, 362, 256
-0.999634, 161, 129, 192, 375
-0.999637, 147, 161, 162, 288
-0.999639, 73, 193, 88, 320
-0.999642, 249, 209, 264, 336
-0.999644, 383, 193, 398, 320
-0.999646, 5, 49, 20, 176
-0.99965, 325, 241, 340, 368
-0.999651, 269, 129, 284, 256
-0.999652, 159, 241, 174, 368
-0.999653, 421, 241, 436, 368
-0.999655, 259, 241, 274, 368
-0.999655, 75, 129, 90, 256
-0.999656, 257, 177, 272, 304
-0.999657, 329, 129, 344, 256
-0.999658, 177, 37, 304, 68
-0.999661, 397, 229, 412, 244
-0.999663, 101, 193, 116, 320
-0.999667, 161, 129, 288, 160
-0.999667, 115, 241, 130, 368
-0.999668, 203, 193, 218, 320
-0.999673, 283, 129, 298, 256
-0.999675, 353, 225, 368, 352
-0.999676, 247, 145, 262, 272
-0.999676, 237, 97, 268, 352
-0.999678, 265, 225, 280, 352
-0.999679, 213, 129, 228, 256
-0.999681, 129, 193, 144, 320
-0.999683, 347, 193, 362, 320
-0.999683, 279, 209, 294, 336
-0.999685, 347, 241, 362, 368
-0.999687, 11, 65, 26, 192
-0.99969, 119, 81, 134, 208
-0.999692, 103, 129, 118, 256
-0.999692, 309, 241, 324, 368
-0.999692, 49, 69, 176, 100
-0.999694, 193, 193, 208, 320
-0.999697, 255, 129, 270, 256
-0.999698, 57, 17, 120, 144
-0.9997, 1, 1, 128, 128
-0.999702, 221, 113, 236, 240
-0.999702, 109, 129, 124, 256
-0.999705, 277, 113, 308, 240
-0.999709, 263, 129, 278, 256
-0.99971, 189, 145, 204, 272
-0.999712, 197, 145, 212, 272
-0.999713, 123, 193, 138, 320
-0.999714, 297, 241, 312, 368
-0.999715, 289, 197, 416, 228
-0.999715, 173, 241, 188, 368
-0.999717, 35, 241, 50, 368
-0.999718, 139, 209, 154, 336
-0.999718, 183, 193, 198, 320
-0.999722, 49, 149, 176, 180
-0.999724, 183, 145, 198, 272
-0.999725, 193, 117, 320, 148
-0.999725, 141, 161, 156, 288
-0.999725, 63, 65, 78, 192
-0.999732, 337, 241, 352, 368
-0.999743, 285, 209, 300, 336
-0.999743, 127, 241, 142, 368
-0.999744, 395, 161, 410, 288
-0.999745, 415, 241, 430, 368
-0.999746, 249, 97, 264, 224
-0.999747, 225, 93, 352, 124
-0.999748, 9, 193, 24, 320
-0.999748, 117, 193, 132, 320
-0.999749, 49, 241, 64, 368
-0.999749, 1, 173, 128, 204
-0.999752, 271, 177, 286, 304
-0.999754, 305, 105, 432, 168
-0.999757, 121, 129, 136, 256
-0.999759, 231, 129, 246, 256
-0.999762, 331, 241, 346, 368
-0.999765, 153, 161, 168, 288
-0.999767, 237, 241, 252, 368
-0.999768, 203, 145, 218, 272
-0.999768, 135, 161, 150, 288
-0.999769, 313, 193, 328, 320
-0.999769, 195, 241, 210, 368
-0.99977, 201, 129, 232, 375
-0.999774, 353, 129, 384, 375
-0.999775, 289, 129, 304, 256
-0.999777, 369, 161, 384, 288
-0.999778, 431, 241, 446, 368
-0.99978, 339, 193, 354, 320
-0.999781, 167, 129, 182, 256
-0.999781, 147, 209, 162, 336
-0.999783, 335, 81, 350, 208
-0.999783, 111, 193, 126, 320
-0.999784, 1, 161, 128, 192
-0.999785, 385, 145, 448, 272
-0.999786, 241, 129, 256, 256
-0.999787, 203, 241, 218, 368
-0.999788, 129, 17, 256, 80
-0.999791, 271, 225, 286, 352
-0.999791, 257, 137, 500, 200
-0.999791, 333, 193, 348, 320
-0.999793, 303, 225, 318, 352
-0.999795, 253, 1, 284, 256
-0.999796, 291, 209, 306, 336
-0.999797, 1, 185, 128, 216
-0.999797, 405, 177, 420, 304
-0.999798, 225, 1, 256, 256
-0.999799, 29, 241, 44, 368
-0.999804, 211, 241, 226, 368
-0.999811, 177, 93, 304, 124
-0.999815, 185, 81, 248, 208
-0.999821, 221, 97, 252, 352
-0.999841, 377, 145, 408, 272
-0.999853, 53, 129, 84, 256
-0.999873, 49, 169, 176, 200
-0.9999, 305, 21, 432, 52
-0.9999, 369, 225, 496, 256
-0.999904, 409, 129, 440, 375
-0.999916, 185, 129, 216, 375
-0.999939, 249, 89, 312, 152
-0.999948, 241, 49, 368, 80
-0.999953, 1, 129, 32, 375
-0.999969, 337, 197, 464, 228
-0.999976, 193, 89, 448, 152
-0.999983, 145, 113, 272, 144
-0.999995, 337, 177, 464, 208
-1, 81, 1, 144, 256
-1.00001, 289, 113, 320, 240
-1.00001, 289, 129, 416, 160
-1.00002, 193, 1, 256, 256
-1.00003, 273, 1, 400, 128
-1.00004, 297, 129, 328, 375
-1.00004, 133, 129, 164, 375
-1.00005, 273, 1, 304, 256
-1.00007, 13, 193, 44, 320
-1.00008, 1, 33, 64, 288
-1.0001, 393, 1, 456, 375
-1.00013, 257, 25, 500, 88
-1.00016, 81, 33, 208, 96
-1.0002, 193, 49, 448, 112
-1.00022, 317, 1, 348, 256
-1.00025, 289, 41, 416, 104
-1.00025, 225, 1, 288, 128
-1.00026, 1, 129, 64, 256
-1.00026, 1, 177, 32, 304
-1.00027, 329, 33, 360, 288
-1.00028, 117, 1, 148, 256
-1.0003, 9, 1, 40, 256
-1.00033, 145, 121, 208, 184
-1.00033, 241, 1, 272, 256
-1.00034, 201, 33, 232, 288
-1.00035, 185, 105, 248, 168
-1.00036, 105, 1, 136, 256
-1.00036, 5, 113, 36, 240
-1.0004, 305, 105, 368, 168
-1.00041, 65, 33, 320, 96
-1.00042, 273, 1, 336, 256
-1.00042, 337, 121, 400, 184
-1.00043, 49, 1, 80, 256
-1.00043, 1, 57, 500, 120
-1.00047, 125, 113, 156, 240
-1.0005, 13, 97, 44, 352
-1.0005, 265, 1, 328, 64
-1.00052, 221, 97, 252, 224
-1.00054, 333, 81, 364, 208
-1.00055, 157, 33, 188, 288
-1.00056, 401, 145, 432, 272
-1.00056, 389, 177, 420, 304
-1.00057, 297, 1, 328, 256
-1.0006, 97, 1, 352, 64
-1.00064, 189, 33, 220, 288
-1.00065, 257, 113, 500, 176
-1.00068, 285, 1, 316, 256
-1.00071, 177, 33, 208, 288
-1.00072, 145, 33, 176, 288
-1.00081, 129, 33, 160, 288
-1.00082, 1, 17, 32, 144
-1.00082, 209, 57, 272, 120
-1.00082, 121, 33, 152, 160
-1.00083, 213, 1, 244, 256
-1.00085, 161, 113, 192, 240
-1.00087, 341, 33, 372, 288
-1.00088, 65, 185, 128, 248
-1.00089, 225, 9, 288, 72
-1.001, 421, 129, 452, 375
-1.00105, 309, 1, 340, 128
-1.00107, 1, 89, 500, 152
-1.00108, 81, 9, 208, 72
-1.00109, 25, 129, 56, 375
-1.00109, 273, 73, 400, 136
-1.00112, 249, 49, 312, 112
-1.00113, 465, 129, 496, 375
-1.00116, 397, 33, 428, 288
-1.00117, 437, 129, 468, 375
-1.00117, 85, 17, 116, 144
-1.00117, 313, 81, 344, 208
-1.00119, 369, 33, 400, 288
-1.00119, 257, 1, 500, 64
-1.00123, 45, 97, 76, 352
-1.00124, 353, 33, 384, 288
-1.00134, 25, 1, 56, 256
-1.0014, 265, 81, 296, 208
-1.00141, 453, 129, 484, 375
-1.00141, 65, 17, 96, 144
-1.00143, 381, 33, 412, 288
-1.00148, 25, 33, 88, 288
-1.00148, 1, 33, 64, 160
-1.00152, 321, 81, 448, 144
-1.00158, 409, 33, 440, 288
-1.00158, 233, 177, 264, 304
-1.00162, 429, 33, 460, 288
-1.0017, 241, 81, 272, 208
-1.00171, 369, 129, 496, 192
-1.00173, 301, 113, 332, 240
-1.00176, 33, 9, 160, 72
-1.00176, 37, 1, 68, 256
-1.00178, 137, 113, 168, 240
-1.00178, 145, 33, 208, 288
-1.00181, 469, 1, 500, 256
-1.00182, 449, 33, 480, 288
-1.00185, 1, 9, 256, 72
-1.00191, 321, 1, 352, 128
-1.00194, 221, 49, 252, 176
-1.00195, 173, 97, 204, 224
-1.00195, 337, 9, 464, 72
-1.00197, 369, 145, 496, 272
-1.00198, 453, 241, 484, 368
-1.00206, 417, 1, 480, 375
-1.00207, 337, 65, 400, 192
-1.0021, 45, 49, 76, 176
-1.00228, 345, 33, 408, 288
-1.00236, 25, 17, 88, 144
-1.00248, 1, 33, 500, 96
-1.00253, 1, 129, 64, 375
-1.00261, 337, 33, 464, 96
-1.00264, 345, 81, 376, 208
-1.00265, 369, 105, 496, 168
-1.0027, 101, 17, 132, 144
-1.0027, 265, 17, 296, 144
-1.00281, 1, 1, 500, 64
-1.00281, 241, 49, 304, 176
-1.00285, 353, 57, 480, 120
-1.00291, 369, 81, 496, 144
-1.00296, 253, 17, 284, 144
-1.00297, 153, 81, 216, 208
-1.00321, 233, 17, 264, 144
-1.00324, 81, 17, 144, 144
-1.00329, 389, 129, 420, 256
-1.00342, 277, 49, 308, 176
-1.00351, 305, 49, 432, 176
-1.00356, 209, 65, 240, 192
-1.00357, 277, 1, 308, 128
-1.00368, 469, 241, 500, 368
-1.00394, 49, 193, 80, 320
-1.00397, 169, 1, 232, 256
-1.0042, 297, 17, 328, 144
-1.00426, 29, 193, 60, 320
-1.00432, 185, 81, 216, 208
-1.00457, 313, 1, 376, 128
-1.0046, 257, 33, 500, 288
-1.00486, 361, 97, 392, 224
-1.00499, 17, 33, 48, 160
-1.0051, 149, 81, 180, 208
-1.0051, 429, 193, 460, 320
-1.00512, 377, 81, 408, 208
-1.00521, 301, 65, 332, 192
-1.00528, 441, 241, 472, 368
-1.0053, 17, 129, 48, 256
-1.00545, 177, 17, 240, 144
-1.00551, 321, 33, 384, 288
-1.00564, 197, 65, 228, 192
-1.00597, 321, 1, 448, 128
-1.00632, 313, 49, 376, 176
-1.00687, 393, 33, 456, 288
-1.00703, 433, 129, 496, 375
-1.00708, 369, 97, 496, 224
-1.00745, 417, 193, 480, 320
-1.00756, 369, 33, 432, 288
-1.00978, 137, 1, 200, 128
-1.00982, 353, 49, 480, 176
-1.00996, 425, 33, 488, 288
-1.01002, 201, 1, 264, 128
-1.01016, 337, 1, 400, 128
-1.01038, 369, 1, 496, 128
-1.01113, 361, 65, 424, 192
-1.01129, 409, 145, 472, 272
-1.01163, 393, 81, 456, 208
-1.01218, 417, 97, 480, 224
-1.0125, 433, 145, 496, 272
-1.01442, 385, 33, 448, 160
-1.01442, 409, 1, 472, 128
-1.01474, 417, 49, 480, 176
-1.01513, 361, 1, 424, 128
-1.01513, 433, 1, 496, 128
