1886
-0.504591, 1, 1, 500, 333
-0.519144, 1, 65, 500, 320
-0.611293, 161, 1, 416, 333
-0.66057, 65, 1, 320, 333
-0.688329, 257, 1, 500, 333
-0.760717, 193, 65, 448, 320
-0.81364, 33, 65, 288, 320
-0.86847, 1, 177, 500, 304
-0.899486, 129, 177, 384, 304
-0.900143, 161, 1, 288, 333
-0.909651, 209, 1, 336, 333
-0.910835, 241, 65, 368, 320
-0.911417, 257, 1, 384, 333
-0.912953, 113, 1, 240, 333
-0.912983, 289, 65, 416, 320
-0.91491, 161, 65, 288, 320
-0.915138, 305, 1, 432, 333
-0.91563, 33, 1, 160, 333
-0.915829, 209, 177, 336, 304
-0.917972, 353, 1, 480, 333
-0.918569, 113, 177, 240, 304
-0.91997, 337, 65, 464, 320
-0.922398, 249, 177, 312, 304
-0.922438, 145, 177, 208, 304
-0.923504, 225, 177, 480, 304
-0.926565, 113, 65, 240, 320
-0.927941, 33, 193, 288, 320
-0.928219, 33, 65, 160, 320
-0.9354, 161, 193, 288, 320
-0.936457, 225, 177, 288, 304
-0.940528, 121, 193, 184, 320
-0.940745, 1, 129, 500, 256
-0.943248, 233, 185, 296, 248
-0.945931, 169, 193, 232, 320
-0.948846, 137, 185, 200, 248
-0.948974, 257, 193, 320, 256
-0.951302, 161, 145, 288, 272
-0.952599, 273, 161, 400, 288
-0.95286, 65, 193, 192, 320
-0.953771, 193, 161, 256, 288
-0.954382, 273, 177, 336, 304
-0.956945, 161, 193, 224, 256
-0.957349, 281, 201, 344, 264
-0.957439, 1, 145, 256, 272
-0.957609, 209, 193, 272, 256
-0.958827, 129, 129, 384, 256
-0.962225, 113, 209, 176, 272
-0.96305, 249, 217, 312, 280
-0.963629, 337, 209, 464, 333
-0.963915, 193, 193, 320, 256
-0.96475, 129, 185, 256, 248
-0.964912, 257, 209, 384, 333
-0.965096, 285, 193, 316, 256
-0.965375, 185, 201, 248, 264
-0.965407, 297, 161, 360, 288
-0.965612, 193, 209, 256, 333
-0.966058, 233, 185, 264, 248
-0.966555, 233, 129, 296, 256
-0.96722, 277, 177, 308, 304
-0.967313, 257, 129, 500, 256
-0.96811, 141, 177, 172, 304
-0.968188, 169, 145, 232, 272
-0.968278, 237, 177, 268, 304
-0.968789, 177, 177, 208, 304
-0.968862, 145, 129, 208, 256
-0.969033, 261, 161, 292, 288
-0.969078, 1, 81, 500, 208
-0.96925, 153, 177, 184, 304
-0.969372, 97, 193, 160, 320
-0.969646, 369, 209, 432, 333
-0.970002, 345, 209, 408, 333
-0.970085, 33, 145, 160, 272
-0.970389, 165, 177, 196, 304
-0.970432, 321, 161, 448, 288
-0.970647, 145, 209, 272, 272
-0.970716, 393, 209, 456, 333
-0.971204, 433, 209, 496, 333
-0.971305, 145, 217, 208, 280
-0.972144, 321, 209, 384, 333
-0.972896, 249, 177, 280, 304
-0.973197, 1, 209, 128, 333
-0.973243, 89, 225, 152, 288
-0.973311, 41, 225, 104, 288
-0.973338, 369, 161, 496, 288
-0.973348, 225, 217, 288, 280
-0.97339, 297, 201, 328, 264
-0.973401, 105, 145, 168, 272
-0.973919, 261, 185, 292, 248
-0.974224, 193, 169, 256, 232
-0.974276, 145, 177, 176, 240
-0.97466, 273, 193, 304, 256
-0.974778, 73, 209, 136, 333
-0.97483, 245, 185, 276, 248
-0.974844, 329, 225, 392, 288
-0.974942, 193, 201, 224, 264
-0.974979, 177, 185, 208, 248
-0.975025, 289, 177, 320, 304
-0.975377, 425, 233, 488, 296
-0.975402, 361, 233, 424, 296
-0.975424, 385, 233, 448, 296
-0.976105, 297, 209, 360, 333
-0.976161, 273, 225, 336, 288
-0.976409, 1, 33, 500, 160
-0.976547, 305, 225, 368, 288
-0.976597, 225, 177, 256, 304
-0.976963, 353, 161, 416, 288
-0.977092, 209, 129, 336, 256
-0.97718, 49, 209, 112, 333
-0.977543, 97, 209, 224, 272
-0.977838, 49, 193, 176, 256
-0.978029, 17, 209, 80, 333
-0.978034, 329, 161, 392, 288
-0.978372, 209, 217, 336, 280
-0.978608, 193, 225, 256, 288
-0.978648, 257, 201, 384, 264
-0.978823, 141, 209, 172, 272
-0.978907, 189, 177, 220, 304
-0.979099, 129, 209, 160, 272
-0.979301, 377, 161, 440, 288
-0.9798, 257, 129, 320, 256
-0.979963, 217, 193, 248, 256
-0.980305, 153, 209, 184, 272
-0.98034, 257, 169, 320, 232
-0.980567, 401, 161, 464, 288
-0.98081, 113, 185, 176, 248
-0.98113, 353, 209, 416, 272
-0.981153, 165, 185, 196, 248
-0.981192, 129, 193, 160, 320
-0.981473, 17, 225, 80, 288
-0.981526, 377, 209, 440, 272
-0.981771, 89, 193, 152, 256
-0.981899, 425, 161, 488, 288
-0.982024, 193, 169, 320, 232
-0.982092, 65, 233, 128, 296
-0.982267, 233, 209, 264, 272
-0.982318, 113, 129, 240, 256
-0.982729, 337, 233, 464, 296
-0.982742, 145, 161, 208, 224
-0.982971, 33, 225, 160, 288
-0.982973, 277, 217, 308, 280
-0.983232, 409, 209, 472, 272
-0.983317, 301, 161, 332, 288
-0.98352, 245, 129, 276, 256
-0.983561, 289, 233, 416, 296
-0.983586, 305, 193, 368, 256
-0.983774, 121, 233, 184, 296
-0.983941, 113, 225, 144, 288
-0.984059, 253, 217, 284, 280
-0.984272, 161, 129, 192, 256
-0.984404, 129, 161, 256, 224
-0.984517, 165, 209, 196, 272
-0.984907, 149, 129, 180, 256
-0.98501, 433, 209, 496, 272
-0.985027, 257, 113, 384, 240
-0.985201, 329, 201, 392, 264
-0.985304, 273, 129, 304, 256
-0.985599, 309, 233, 340, 296
-0.985603, 65, 201, 128, 264
-0.985658, 221, 217, 252, 280
-0.985689, 185, 65, 248, 320
-0.985776, 337, 209, 464, 272
-0.985832, 81, 145, 144, 272
-0.986047, 413, 233, 444, 296
-0.986105, 49, 225, 80, 288
-0.98611, 201, 209, 232, 333
-0.986253, 289, 65, 352, 320
-0.986307, 97, 193, 352, 256
-0.986341, 401, 233, 432, 296
-0.986499, 209, 225, 240, 288
-0.986557, 457, 233, 488, 296
-0.986645, 265, 65, 328, 320
-0.986651, 213, 161, 244, 288
-0.986726, 369, 225, 400, 288
-0.986861, 225, 161, 288, 224
-0.986896, 389, 233, 420, 296
-0.986899, 445, 233, 476, 296
-0.98694, 61, 225, 92, 288
-0.986975, 425, 233, 456, 296
-0.987003, 333, 225, 364, 288
-0.98705, 193, 113, 256, 240
-0.987081, 169, 225, 232, 288
-0.987083, 349, 233, 380, 296
-0.987112, 321, 233, 352, 296
-0.987181, 281, 169, 312, 232
-0.987309, 5, 225, 36, 288
-0.987393, 289, 225, 320, 288
-0.987449, 17, 201, 80, 264
-0.987463, 321, 65, 384, 320
-0.987562, 217, 65, 280, 320
-0.987808, 469, 233, 500, 296
-0.987809, 265, 217, 296, 280
-0.987838, 345, 65, 408, 320
-0.987932, 413, 209, 444, 333
-0.987955, 129, 217, 192, 248
-0.988108, 353, 209, 384, 333
-0.988108, 401, 209, 432, 333
-0.988143, 193, 209, 256, 240
-0.988283, 373, 209, 404, 333
-0.988283, 385, 209, 416, 333
-0.988389, 145, 65, 208, 320
-0.988396, 81, 233, 208, 296
-0.988409, 309, 209, 340, 272
-0.988429, 57, 161, 120, 288
-0.988475, 137, 185, 200, 216
-0.988482, 377, 65, 440, 320
-0.988498, 241, 33, 304, 288
-0.988629, 89, 233, 120, 296
-0.988633, 341, 209, 372, 333
-0.988633, 425, 209, 456, 333
-0.988715, 301, 209, 332, 333
-0.988772, 249, 217, 312, 248
-0.988808, 441, 209, 472, 333
-0.988821, 17, 161, 80, 288
-0.988854, 273, 169, 400, 232
-0.988982, 217, 217, 280, 248
-0.988984, 313, 209, 344, 333
-0.988984, 325, 209, 356, 333
-0.989011, 133, 185, 164, 248
-0.989011, 169, 213, 232, 244
-0.989055, 201, 161, 232, 288
-0.989223, 453, 209, 484, 333
-0.989276, 225, 185, 288, 216
-0.989295, 101, 225, 132, 288
-0.989496, 177, 217, 208, 280
-0.989533, 261, 209, 292, 333
-0.989714, 73, 225, 104, 288
-0.989734, 465, 209, 496, 333
-0.98986, 193, 193, 256, 224
-0.989985, 81, 169, 208, 232
-0.989995, 177, 1, 240, 333
-0.990012, 273, 213, 336, 244
-0.990054, 201, 1, 264, 333
-0.990118, 193, 221, 256, 252
-0.990122, 401, 65, 464, 320
-0.990148, 105, 209, 136, 333
-0.990271, 37, 225, 68, 288
-0.990277, 225, 1, 288, 333
-0.990319, 1, 201, 128, 264
-0.990339, 225, 201, 480, 264
-0.990358, 257, 193, 320, 224
-0.990384, 1, 97, 256, 224
-0.990388, 93, 209, 124, 333
-0.990413, 129, 145, 160, 272
-0.990432, 289, 169, 352, 232
-0.990646, 161, 201, 224, 232
-0.990658, 105, 213, 168, 244
-0.990662, 105, 225, 168, 256
-0.990703, 233, 205, 296, 236
-0.990714, 161, 225, 224, 256
-0.990768, 185, 181, 248, 212
-0.990804, 257, 229, 320, 260
-0.990855, 313, 229, 376, 260
-0.990866, 177, 129, 208, 256
-0.99094, 401, 229, 464, 260
-0.990967, 299, 193, 314, 256
-0.990983, 97, 65, 160, 320
-0.990988, 161, 97, 288, 224
-0.991005, 121, 65, 184, 320
-0.991113, 129, 205, 192, 236
-0.991121, 41, 229, 104, 260
-0.991139, 105, 1, 168, 333
-0.991185, 81, 209, 112, 333
-0.991185, 137, 1, 200, 333
-0.991187, 57, 209, 88, 333
-0.991252, 369, 229, 432, 260
-0.991266, 345, 229, 408, 260
-0.991315, 177, 209, 304, 240
-0.991342, 249, 1, 312, 333
-0.991374, 389, 209, 420, 272
-0.991432, 129, 229, 192, 260
-0.991437, 425, 229, 488, 260
-0.991478, 361, 161, 392, 288
-0.991498, 349, 209, 380, 272
-0.991617, 233, 229, 296, 260
-0.991619, 313, 1, 376, 333
-0.991688, 21, 225, 52, 288
-0.991719, 281, 229, 344, 260
-0.99172, 209, 189, 336, 220
-0.991743, 289, 1, 352, 333
-0.991816, 291, 193, 306, 256
-0.991824, 405, 209, 436, 272
-0.991828, 349, 161, 380, 288
-0.991839, 69, 209, 100, 333
-0.99187, 425, 65, 488, 320
-0.991887, 97, 217, 352, 280
-0.99191, 17, 229, 80, 260
-0.991959, 81, 229, 144, 260
-0.991991, 353, 1, 416, 333
-0.992004, 337, 161, 368, 288
-0.992004, 373, 161, 404, 288
-0.992012, 41, 201, 104, 264
-0.992021, 213, 209, 244, 333
-0.992021, 153, 217, 184, 248
-0.99203, 257, 113, 288, 240
-0.992056, 129, 197, 256, 228
-0.992063, 45, 209, 76, 333
-0.992098, 141, 217, 172, 248
-0.992108, 117, 209, 148, 333
-0.992122, 233, 217, 264, 248
-0.992126, 1, 193, 500, 256
-0.992221, 377, 217, 440, 248
-0.992229, 233, 129, 264, 256
-0.992247, 281, 197, 344, 228
-0.992276, 277, 217, 308, 248
-0.992333, 173, 221, 204, 252
-0.992334, 245, 221, 276, 252
-0.992362, 257, 221, 288, 252
-0.992369, 105, 201, 168, 232
-0.992378, 337, 217, 400, 248
-0.992418, 325, 161, 356, 288
-0.992435, 193, 213, 224, 244
-0.992441, 121, 185, 152, 248
-0.992454, 73, 217, 136, 248
-0.992461, 221, 217, 252, 248
-0.992475, 145, 181, 176, 212
-0.992494, 161, 189, 224, 220
-0.992495, 13, 209, 44, 333
-0.992497, 293, 209, 324, 240
-0.992501, 433, 209, 464, 272
-0.992503, 1, 201, 256, 264
-0.992517, 213, 205, 244, 236
-0.992559, 237, 185, 268, 216
-0.992612, 129, 217, 256, 248
-0.992623, 281, 113, 344, 240
-0.992626, 129, 213, 160, 244
-0.992637, 205, 185, 236, 248
-0.992648, 289, 193, 320, 224
-0.99267, 1, 209, 32, 333
-0.992716, 305, 217, 368, 248
-0.992728, 1, 217, 64, 248
-0.992734, 401, 217, 464, 248
-0.992747, 237, 185, 252, 248
-0.992757, 97, 189, 160, 220
-0.992769, 313, 161, 344, 288
-0.992769, 389, 161, 420, 288
-0.992794, 145, 173, 208, 204
-0.992795, 25, 217, 88, 248
-0.992795, 321, 209, 352, 272
-0.992809, 433, 217, 496, 248
-0.992857, 141, 197, 172, 228
-0.992865, 233, 205, 264, 236
-0.992891, 253, 209, 284, 240
-0.992898, 289, 229, 320, 260
-0.992904, 333, 229, 364, 260
-0.992907, 33, 209, 64, 333
-0.992908, 401, 1, 464, 333
-0.992926, 173, 209, 204, 240
-0.992927, 377, 1, 440, 333
-0.99294, 277, 189, 308, 220
-0.992943, 157, 181, 188, 212
-0.992943, 283, 193, 298, 256
-0.992952, 249, 185, 280, 216
-0.992957, 193, 225, 224, 256
-0.992958, 361, 229, 392, 260
-0.992962, 345, 229, 376, 260
-0.992964, 161, 229, 192, 260
-0.992968, 377, 229, 408, 260
-0.992976, 181, 189, 212, 220
-0.992984, 113, 229, 144, 260
-0.993002, 437, 229, 468, 260
-0.993012, 149, 229, 180, 260
-0.993019, 321, 229, 352, 260
-0.993027, 189, 201, 220, 232
-0.99303, 129, 233, 256, 296
-0.993044, 389, 229, 420, 260
-0.99305, 277, 229, 308, 260
-0.993066, 169, 185, 200, 216
-0.993069, 129, 185, 256, 216
-0.993078, 265, 209, 296, 240
-0.993081, 209, 225, 240, 256
-0.993082, 257, 181, 320, 212
-0.993083, 49, 217, 112, 248
-0.993085, 305, 189, 368, 220
-0.993089, 65, 229, 96, 260
-0.99309, 233, 173, 296, 204
-0.99309, 309, 233, 340, 264
-0.993092, 417, 209, 448, 272
-0.993094, 413, 229, 444, 260
-0.993116, 129, 225, 160, 256
-0.993117, 457, 233, 488, 264
-0.993119, 117, 161, 148, 288
-0.99312, 33, 169, 160, 232
-0.99314, 49, 229, 80, 260
-0.993142, 401, 229, 432, 260
-0.993168, 97, 229, 128, 260
-0.993173, 261, 189, 292, 220
-0.993178, 469, 233, 500, 264
-0.9932, 453, 209, 484, 272
-0.993203, 1, 217, 500, 280
-0.993209, 81, 229, 112, 260
-0.993213, 97, 173, 160, 204
-0.993216, 5, 229, 36, 260
-0.993225, 425, 229, 456, 260
-0.993234, 37, 229, 68, 260
-0.993243, 21, 229, 52, 260
-0.99326, 469, 209, 500, 272
-0.993319, 189, 129, 220, 256
-0.993358, 409, 161, 440, 288
-0.993358, 357, 217, 388, 248
-0.993371, 97, 169, 352, 232
-0.993377, 253, 161, 284, 224
-0.993383, 229, 229, 260, 260
-0.993393, 305, 221, 336, 252
-0.9934, 169, 169, 232, 200
-0.993406, 89, 169, 152, 232
-0.99341, 121, 201, 152, 232
-0.993416, 145, 185, 160, 248
-0.993419, 381, 217, 412, 248
-0.993421, 469, 221, 500, 252
-0.993431, 153, 205, 184, 236
-0.993436, 301, 197, 332, 228
-0.993442, 453, 221, 484, 252
-0.993451, 205, 189, 236, 220
-0.993456, 193, 221, 320, 252
-0.993456, 425, 217, 456, 248
-0.993463, 409, 217, 440, 248
-0.993474, 341, 217, 372, 248
-0.993474, 209, 173, 272, 204
-0.993476, 225, 189, 256, 220
-0.993478, 397, 217, 428, 248
-0.993486, 369, 217, 400, 248
-0.993498, 261, 177, 292, 208
-0.9935, 273, 177, 304, 208
-0.993503, 77, 217, 108, 248
-0.993509, 329, 217, 360, 248
-0.99351, 105, 217, 136, 248
-0.993522, 93, 217, 124, 248
-0.993525, 165, 169, 196, 200
-0.99353, 317, 217, 348, 248
-0.993531, 53, 217, 84, 248
-0.99354, 241, 173, 272, 204
-0.993548, 153, 169, 184, 200
-0.993549, 25, 217, 56, 248
-0.993554, 85, 209, 116, 272
-0.993559, 65, 217, 96, 248
-0.99357, 37, 217, 68, 248
-0.993571, 117, 217, 148, 248
-0.993575, 1, 217, 32, 248
-0.993582, 281, 177, 344, 208
-0.993598, 433, 161, 464, 288
-0.993598, 441, 217, 472, 248
-0.993601, 13, 217, 44, 248
-0.993619, 125, 189, 156, 220
-0.993652, 245, 233, 276, 264
-0.993654, 305, 201, 320, 264
-0.993666, 153, 233, 184, 296
-0.993666, 193, 177, 224, 208
-0.993676, 281, 205, 312, 236
-0.993677, 257, 233, 288, 264
-0.993693, 125, 173, 156, 204
-0.993694, 217, 177, 248, 208
-0.993726, 177, 173, 208, 204
-0.993726, 289, 181, 320, 212
-0.993741, 305, 209, 336, 240
-0.993744, 141, 169, 172, 200
-0.993745, 177, 233, 208, 264
-0.993783, 169, 153, 232, 216
-0.993788, 309, 185, 340, 216
-0.993805, 421, 161, 452, 288
-0.993836, 229, 173, 260, 204
-0.993882, 121, 173, 184, 204
-0.993886, 133, 233, 164, 296
-0.993896, 313, 197, 344, 228
-0.993948, 193, 189, 224, 220
-0.993957, 209, 233, 272, 264
-0.993962, 185, 233, 248, 264
-0.993987, 425, 1, 488, 333
-0.994063, 257, 169, 320, 200
-0.994075, 301, 173, 332, 204
-0.994078, 201, 201, 232, 232
-0.994085, 253, 165, 284, 196
-0.994094, 245, 185, 260, 248
-0.994106, 129, 161, 160, 192
-0.994111, 277, 185, 292, 248
-0.994113, 169, 197, 200, 228
-0.994123, 453, 161, 484, 288
-0.994138, 265, 165, 296, 196
-0.994157, 145, 217, 160, 280
-0.994161, 177, 161, 208, 192
-0.994162, 285, 169, 316, 200
-0.994166, 305, 201, 368, 232
-0.994177, 161, 161, 192, 224
-0.994179, 189, 165, 220, 196
-0.994184, 453, 209, 484, 240
-0.994189, 73, 65, 136, 320
-0.994194, 133, 237, 164, 268
-0.994203, 269, 185, 284, 248
-0.994204, 181, 185, 196, 248
-0.994208, 361, 201, 392, 264
-0.994232, 365, 169, 396, 200
-0.99424, 113, 189, 144, 220
-0.994243, 255, 185, 270, 248
-0.994259, 349, 161, 380, 192
-0.994259, 345, 1, 376, 32
-0.994261, 217, 165, 248, 196
-0.994265, 465, 209, 496, 240
-0.994265, 389, 193, 420, 224
-0.994271, 381, 181, 412, 212
-0.994273, 241, 153, 272, 184
-0.994275, 337, 157, 368, 188
-0.994275, 205, 177, 236, 208
-0.994278, 297, 241, 328, 272
-0.994279, 389, 169, 420, 200
-0.994282, 349, 149, 380, 180
-0.994285, 373, 201, 404, 264
-0.994311, 261, 185, 276, 248
-0.994361, 81, 1, 144, 333
-0.994459, 233, 209, 248, 272
-0.994459, 113, 161, 176, 192
-0.994574, 233, 161, 264, 224
-0.994602, 65, 217, 192, 248
-0.994606, 369, 193, 432, 224
-0.994643, 337, 161, 400, 192
-0.994669, 337, 173, 400, 204
-0.994677, 361, 177, 424, 208
-0.994686, 57, 1, 120, 333
-0.994687, 345, 189, 408, 220
-0.994734, 145, 161, 208, 192
-0.994738, 189, 185, 204, 248
-0.994757, 233, 157, 296, 188
-0.994768, 361, 165, 424, 196
-0.99477, 101, 201, 132, 264
-0.994804, 313, 161, 376, 192
-0.994805, 225, 209, 352, 240
-0.994816, 155, 209, 170, 272
-0.994841, 465, 161, 496, 288
-0.994842, 163, 209, 178, 272
-0.994877, 209, 153, 272, 184
-0.99488, 393, 197, 456, 228
-0.994889, 189, 177, 220, 240
-0.994898, 329, 149, 392, 180
-0.994909, 289, 149, 352, 180
-0.994924, 393, 173, 456, 204
-0.994932, 361, 153, 424, 184
-0.994953, 393, 185, 456, 216
-0.994956, 49, 65, 112, 320
-0.994966, 305, 177, 368, 208
-0.994974, 297, 169, 328, 232
-0.994992, 393, 161, 456, 192
-0.994997, 289, 161, 352, 192
-0.994998, 337, 201, 368, 264
-0.995026, 9, 197, 72, 228
-0.995028, 185, 153, 248, 184
-0.995037, 173, 185, 188, 248
-0.995044, 233, 145, 296, 176
-0.995054, 209, 141, 272, 172
-0.995056, 345, 201, 408, 232
-0.995068, 265, 149, 328, 180
-0.995078, 289, 241, 352, 272
-0.995088, 369, 205, 432, 236
-0.995093, 313, 137, 376, 168
-0.995107, 329, 1, 392, 32
-0.995122, 241, 133, 304, 164
-0.995122, 417, 197, 480, 228
-0.995125, 289, 137, 352, 168
-0.995129, 285, 129, 316, 256
-0.995133, 385, 149, 448, 180
-0.995135, 433, 177, 496, 208
-0.995135, 313, 241, 376, 272
-0.995135, 337, 241, 400, 272
-0.995135, 377, 241, 440, 272
-0.995136, 195, 193, 210, 256
-0.995151, 361, 141, 424, 172
-0.995158, 1, 185, 64, 216
-0.995164, 305, 1, 368, 32
-0.995164, 409, 5, 472, 36
-0.995164, 433, 5, 496, 36
-0.995164, 265, 241, 328, 272
-0.995166, 209, 129, 272, 160
-0.995182, 265, 137, 328, 168
-0.995182, 169, 141, 232, 172
-0.995182, 409, 149, 472, 180
-0.995182, 433, 153, 496, 184
-0.995187, 433, 165, 496, 196
-0.995193, 409, 241, 472, 272
-0.9952, 289, 125, 352, 156
-0.9952, 313, 125, 376, 156
-0.9952, 41, 197, 104, 228
-0.995203, 337, 137, 400, 168
-0.995211, 169, 129, 232, 160
-0.995211, 409, 137, 472, 168
-0.995211, 129, 149, 192, 180
-0.995216, 353, 1, 416, 32
-0.995216, 193, 117, 256, 148
-0.995216, 217, 117, 280, 148
-0.995216, 249, 121, 312, 152
-0.995219, 225, 233, 480, 296
-0.995221, 169, 301, 232, 332
-0.995221, 193, 301, 256, 332
-0.995221, 217, 301, 280, 332
-0.995221, 241, 301, 304, 332
-0.995221, 265, 301, 328, 332
-0.995221, 289, 301, 352, 332
-0.995221, 313, 301, 376, 332
-0.995221, 337, 301, 400, 332
-0.995221, 361, 301, 424, 332
-0.995221, 385, 301, 448, 332
-0.995221, 409, 301, 472, 332
-0.995221, 433, 301, 496, 332
-0.995224, 25, 65, 88, 320
-0.995225, 273, 213, 400, 244
-0.995245, 151, 177, 166, 240
-0.995257, 293, 217, 308, 280
-0.995427, 165, 177, 180, 240
-0.995478, 1, 177, 256, 240
-0.995516, 139, 201, 154, 264
-0.995537, 257, 145, 384, 208
-0.995555, 113, 153, 176, 216
-0.99558, 49, 145, 176, 208
-0.99559, 255, 209, 270, 272
-0.9956, 173, 217, 188, 280
-0.995663, 227, 201, 242, 264
-0.995677, 181, 217, 196, 280
-0.995707, 1, 65, 64, 320
-0.995757, 33, 1, 96, 333
-0.99576, 257, 169, 500, 232
-0.995764, 265, 153, 296, 216
-0.995778, 201, 201, 216, 264
-0.995828, 81, 229, 208, 260
-0.995867, 275, 217, 290, 280
-0.995884, 265, 145, 328, 208
-0.995894, 177, 145, 304, 208
-0.9959, 9, 1, 72, 333
-0.995924, 1, 225, 256, 288
-0.99593, 73, 201, 104, 264
-0.995937, 299, 217, 314, 280
-0.99594, 321, 229, 448, 260
-0.995949, 57, 201, 88, 264
-0.996018, 283, 225, 298, 288
-0.996045, 193, 81, 448, 208
-0.996053, 297, 169, 312, 232
-0.996068, 261, 217, 276, 280
-0.996082, 33, 229, 160, 260
-0.996086, 157, 177, 172, 240
-0.9961, 119, 225, 134, 288
-0.996153, 375, 225, 390, 288
-0.996198, 177, 177, 304, 208
-0.996216, 221, 225, 236, 288
-0.996232, 317, 233, 332, 296
-0.996268, 25, 201, 56, 264
-0.996289, 311, 233, 326, 296
-0.996341, 331, 225, 346, 288
-0.996347, 137, 225, 152, 288
-0.996362, 431, 233, 446, 296
-0.996362, 463, 233, 478, 296
-0.996383, 131, 225, 146, 288
-0.996387, 425, 233, 440, 296
-0.996402, 457, 233, 472, 296
-0.996405, 365, 233, 380, 296
-0.996429, 323, 233, 338, 296
-0.996435, 407, 233, 422, 296
-0.996448, 173, 153, 204, 216
-0.99645, 349, 225, 364, 288
-0.996454, 305, 233, 320, 296
-0.996456, 469, 233, 484, 296
-0.996463, 145, 217, 160, 248
-0.996467, 145, 229, 272, 260
-0.996468, 445, 225, 460, 288
-0.996472, 215, 225, 230, 288
-0.996473, 247, 209, 262, 272
-0.996485, 241, 229, 368, 260
-0.996502, 419, 233, 434, 296
-0.996535, 269, 209, 284, 272
-0.996544, 125, 225, 140, 288
-0.996563, 413, 233, 428, 296
-0.996564, 37, 201, 68, 264
-0.996569, 401, 233, 416, 296
-0.996573, 113, 225, 128, 288
-0.996576, 81, 185, 208, 216
-0.996597, 239, 217, 254, 280
-0.996614, 359, 233, 374, 296
-0.996614, 395, 233, 410, 296
-0.996621, 475, 233, 490, 296
-0.996625, 207, 209, 222, 272
-0.996645, 387, 233, 402, 296
-0.996648, 437, 233, 452, 296
-0.996655, 189, 217, 204, 280
-0.996656, 129, 173, 256, 204
-0.996672, 485, 233, 500, 296
-0.996684, 97, 225, 112, 288
-0.996686, 311, 201, 326, 264
-0.996695, 77, 225, 92, 288
-0.996712, 341, 233, 356, 296
-0.996713, 369, 233, 496, 264
-0.996717, 55, 225, 70, 288
-0.996722, 163, 217, 178, 248
-0.996724, 451, 233, 466, 296
-0.996752, 235, 217, 250, 248
-0.996774, 153, 217, 168, 248
-0.996788, 291, 169, 306, 232
-0.996793, 65, 225, 80, 288
-0.996817, 71, 225, 86, 288
-0.996824, 169, 217, 184, 248
-0.996892, 49, 225, 64, 288
-0.9969, 89, 233, 104, 296
-0.996923, 309, 185, 340, 248
-0.996928, 107, 233, 122, 296
-0.99693, 253, 221, 268, 252
-0.996947, 283, 169, 298, 232
-0.996954, 197, 225, 228, 288
-0.996979, 261, 221, 276, 252
-0.996983, 1, 201, 32, 264
-0.997013, 283, 217, 298, 248
-0.997021, 381, 225, 396, 288
-0.997023, 289, 217, 304, 248
-0.997028, 49, 197, 176, 228
-0.997049, 227, 225, 242, 288
-0.997055, 369, 221, 496, 252
-0.997057, 299, 193, 314, 224
-0.997066, 13, 225, 28, 288
-0.997089, 101, 161, 132, 288
-0.997112, 165, 233, 196, 296
-0.997122, 1, 169, 500, 232
-0.997127, 189, 221, 204, 252
-0.997142, 5, 225, 20, 288
-0.997144, 275, 221, 290, 252
-0.997154, 89, 161, 120, 288
-0.997162, 267, 221, 282, 252
-0.997164, 175, 221, 190, 252
-0.997176, 181, 221, 196, 252
-0.997214, 21, 225, 36, 288
-0.997293, 241, 217, 256, 248
-0.997319, 149, 153, 180, 216
-0.997326, 273, 201, 400, 232
-0.99733, 205, 213, 220, 244
-0.997344, 27, 225, 42, 288
-0.997347, 83, 225, 98, 288
-0.997347, 43, 233, 58, 296
-0.997366, 321, 185, 448, 248
-0.997379, 215, 201, 230, 264
-0.997385, 133, 201, 148, 264
-0.997411, 97, 81, 352, 208
-0.997423, 37, 233, 52, 296
-0.997445, 13, 201, 44, 264
-0.997471, 247, 217, 262, 248
-0.997471, 295, 209, 310, 240
-0.997472, 77, 161, 108, 288
-0.997504, 303, 169, 318, 232
-0.997525, 321, 217, 448, 248
-0.997534, 241, 241, 368, 304
-0.997559, 229, 205, 244, 236
-0.997659, 355, 209, 370, 272
-0.997662, 407, 209, 422, 272
-0.997675, 293, 193, 308, 224
-0.997683, 65, 97, 192, 224
-0.997686, 415, 209, 430, 272
-0.99769, 161, 233, 176, 296
-0.997696, 365, 209, 380, 272
-0.997698, 337, 209, 352, 272
-0.997714, 301, 209, 316, 240
-0.997726, 393, 209, 408, 272
-0.997726, 195, 221, 210, 252
-0.99774, 149, 181, 164, 212
-0.997772, 1, 217, 128, 248
-0.997773, 201, 201, 216, 232
-0.997775, 65, 161, 96, 288
-0.997783, 387, 209, 402, 272
-0.997787, 425, 209, 440, 272
-0.997798, 273, 181, 400, 212
-0.997799, 319, 209, 334, 272
-0.997801, 139, 213, 154, 244
-0.997804, 275, 161, 290, 224
-0.997814, 229, 217, 244, 248
-0.997817, 399, 209, 414, 272
-0.997825, 21, 161, 52, 288
-0.997827, 377, 229, 392, 260
-0.997847, 433, 209, 448, 272
-0.997847, 451, 209, 466, 272
-0.997848, 237, 189, 252, 220
-0.997862, 343, 209, 358, 272
-0.997866, 457, 209, 472, 272
-0.997872, 45, 161, 76, 288
-0.997902, 127, 201, 142, 264
-0.997905, 465, 209, 480, 272
-0.997918, 255, 209, 270, 240
-0.997924, 473, 209, 488, 272
-0.997926, 103, 209, 118, 272
-0.99793, 293, 229, 308, 260
-0.997935, 325, 209, 340, 272
-0.99794, 333, 229, 348, 260
-0.99794, 261, 161, 276, 224
-0.997941, 439, 209, 454, 272
-0.997942, 481, 209, 496, 272
-0.997946, 255, 161, 270, 224
-0.997954, 349, 229, 364, 260
-0.997958, 243, 185, 258, 216
-0.997979, 255, 233, 270, 296
-0.997979, 201, 177, 216, 240
-0.998002, 221, 201, 236, 264
-0.998015, 445, 229, 460, 260
-0.998018, 89, 209, 104, 272
-0.998018, 245, 153, 260, 216
-0.998021, 181, 209, 196, 240
-0.998021, 151, 233, 166, 296
-0.998028, 321, 161, 448, 224
-0.998033, 195, 169, 210, 232
-0.998036, 1, 153, 256, 216
-0.998046, 271, 209, 286, 240
-0.998065, 169, 181, 184, 212
-0.998067, 167, 233, 182, 296
-0.998073, 269, 153, 284, 216
-0.998075, 261, 185, 276, 216
-0.998083, 161, 229, 176, 260
-0.998087, 237, 161, 252, 224
-0.998096, 235, 205, 250, 236
-0.998098, 277, 189, 292, 220
-0.998103, 305, 197, 320, 228
-0.998105, 115, 229, 130, 260
-0.998134, 299, 229, 314, 260
-0.998135, 287, 193, 302, 224
-0.998157, 225, 177, 352, 208
-0.998165, 95, 229, 110, 260
-0.998177, 393, 229, 408, 260
-0.998177, 181, 185, 196, 216
-0.998187, 245, 205, 260, 236
-0.998188, 261, 181, 292, 196
-0.998188, 301, 187, 332, 202
-0.998193, 225, 181, 256, 196
-0.998198, 261, 209, 276, 240
-0.998198, 237, 181, 268, 196
-0.998204, 193, 231, 224, 246
-0.998204, 145, 197, 160, 228
-0.998207, 317, 233, 332, 264
-0.998209, 191, 189, 206, 220
-0.998215, 173, 179, 204, 194
-0.998217, 181, 187, 212, 202
-0.998219, 245, 233, 276, 248
-0.998226, 185, 181, 216, 196
-0.998228, 417, 229, 432, 260
-0.998231, 371, 229, 386, 260
-0.998232, 197, 207, 228, 222
-0.998233, 165, 213, 196, 228
-0.998233, 139, 225, 154, 256
-0.998234, 213, 187, 244, 202
-0.998236, 163, 181, 178, 212
-0.998239, 53, 223, 84, 238
-0.998242, 41, 225, 72, 240
-0.998244, 125, 181, 156, 196
-0.998244, 277, 207, 308, 222
-0.99825, 155, 229, 170, 260
-0.99825, 255, 185, 270, 216
-0.998253, 249, 185, 264, 216
-0.998254, 363, 229, 378, 260
-0.998254, 289, 191, 320, 206
-0.998255, 157, 181, 172, 212
-0.998256, 149, 177, 180, 192
-0.998257, 311, 233, 326, 264
-0.998258, 189, 197, 220, 212
-0.998258, 13, 225, 44, 240
-0.998259, 459, 233, 474, 264
-0.998261, 137, 185, 168, 200
-0.998262, 249, 181, 280, 196
-0.998263, 1, 225, 32, 240
-0.998265, 373, 225, 404, 240
-0.998266, 361, 225, 392, 240
-0.998266, 229, 191, 260, 206
-0.998268, 77, 229, 92, 260
-0.998269, 293, 215, 324, 230
-0.998272, 65, 225, 96, 240
-0.998272, 193, 187, 224, 202
-0.998272, 217, 169, 248, 232
-0.998273, 147, 229, 162, 260
-0.998275, 129, 145, 384, 208
-0.998278, 29, 227, 60, 242
-0.998279, 343, 229, 358, 260
-0.998282, 469, 227, 500, 242
-0.998282, 305, 193, 336, 208
-0.998284, 101, 225, 132, 240
-0.998287, 201, 197, 232, 212
-0.998287, 113, 225, 144, 240
-0.998288, 325, 227, 356, 242
-0.998289, 441, 227, 472, 242
-0.998292, 285, 229, 300, 260
-0.998293, 123, 229, 138, 260
-0.998294, 125, 201, 156, 216
-0.998294, 297, 227, 328, 242
-0.998294, 133, 229, 148, 260
-0.998294, 305, 229, 320, 260
-0.998295, 383, 229, 398, 260
-0.998296, 273, 185, 304, 200
-0.998297, 77, 227, 108, 242
-0.998298, 101, 229, 116, 260
-0.9983, 399, 229, 414, 260
-0.998303, 385, 227, 416, 242
-0.998304, 327, 229, 342, 260
-0.998304, 357, 229, 372, 260
-0.998305, 471, 233, 486, 264
-0.998308, 429, 227, 460, 242
-0.998308, 217, 193, 248, 208
-0.998308, 337, 227, 368, 242
-0.99831, 129, 213, 160, 228
-0.998311, 465, 233, 480, 264
-0.998311, 125, 191, 156, 206
-0.998313, 397, 227, 428, 242
-0.998313, 349, 227, 380, 242
-0.998314, 29, 233, 60, 248
-0.998316, 457, 227, 488, 242
-0.998316, 305, 203, 336, 218
-0.998318, 89, 227, 120, 242
-0.998318, 153, 213, 184, 228
-0.998318, 129, 219, 192, 234
-0.998321, 149, 233, 180, 248
-0.998323, 17, 233, 48, 248
-0.998323, 417, 227, 448, 242
-0.998327, 309, 227, 340, 242
-0.998329, 175, 209, 190, 240
-0.998335, 245, 215, 276, 230
-0.998339, 233, 205, 264, 220
-0.99834, 231, 193, 246, 224
-0.99834, 289, 203, 320, 218
-0.998341, 141, 193, 172, 208
-0.998341, 215, 225, 230, 256
-0.998343, 161, 181, 192, 196
-0.998345, 405, 229, 420, 260
-0.998345, 121, 207, 152, 222
-0.998346, 177, 217, 208, 232
-0.998347, 51, 229, 66, 260
-0.998349, 221, 225, 236, 256
-0.998349, 439, 229, 454, 260
-0.998351, 81, 233, 112, 248
-0.998355, 41, 231, 72, 246
-0.998357, 453, 233, 484, 248
-0.998359, 427, 229, 442, 260
-0.99836, 305, 233, 336, 248
-0.998361, 213, 201, 244, 216
-0.998368, 209, 219, 272, 234
-0.998368, 233, 197, 264, 212
-0.998369, 185, 203, 216, 218
-0.998371, 177, 193, 208, 208
-0.998373, 281, 217, 312, 232
-0.998374, 265, 215, 296, 230
-0.998377, 129, 231, 160, 246
-0.99838, 109, 229, 124, 260
-0.99838, 129, 219, 160, 234
-0.998384, 469, 233, 500, 248
-0.998384, 477, 233, 492, 264
-0.998385, 169, 223, 232, 238
-0.998386, 93, 233, 124, 248
-0.998387, 141, 199, 172, 214
-0.998388, 241, 223, 304, 238
-0.998389, 5, 231, 36, 246
-0.998391, 129, 137, 256, 200
-0.998391, 233, 211, 264, 226
-0.998391, 361, 231, 392, 246
-0.998392, 65, 231, 96, 246
-0.998393, 233, 189, 296, 204
-0.998396, 265, 191, 296, 206
-0.998396, 209, 227, 240, 242
-0.998398, 213, 65, 244, 320
-0.998399, 53, 229, 84, 244
-0.9984, 317, 233, 348, 248
-0.998403, 281, 223, 312, 238
-0.998403, 285, 65, 316, 320
-0.998404, 213, 207, 244, 222
-0.998404, 193, 205, 256, 220
-0.998405, 265, 65, 296, 320
-0.998405, 229, 229, 260, 244
-0.998406, 253, 187, 284, 202
-0.998406, 417, 233, 448, 248
-0.998409, 345, 233, 376, 248
-0.998411, 293, 233, 324, 248
-0.998411, 389, 233, 420, 248
-0.998414, 451, 229, 466, 260
-0.998414, 373, 231, 404, 246
-0.998414, 169, 187, 200, 202
-0.998415, 271, 189, 286, 220
-0.998416, 297, 65, 328, 320
-0.998416, 143, 185, 158, 216
-0.998417, 485, 233, 500, 264
-0.99842, 437, 233, 468, 248
-0.998422, 405, 233, 436, 248
-0.998424, 181, 229, 212, 244
-0.998425, 137, 185, 200, 200
-0.998426, 57, 229, 72, 260
-0.998427, 277, 193, 308, 208
-0.998428, 161, 231, 192, 246
-0.998429, 225, 145, 480, 208
-0.99843, 213, 215, 244, 230
-0.99843, 249, 65, 280, 320
-0.998432, 369, 185, 496, 248
-0.998432, 145, 177, 160, 304
-0.998432, 141, 209, 172, 224
-0.998435, 329, 233, 360, 248
-0.998436, 281, 229, 312, 244
-0.998441, 163, 177, 178, 304
-0.998444, 189, 213, 220, 228
-0.998446, 19, 229, 34, 260
-0.998446, 67, 229, 82, 260
-0.998449, 161, 213, 224, 228
-0.99845, 193, 225, 256, 240
-0.998451, 49, 173, 176, 204
-0.998454, 265, 229, 296, 244
-0.998454, 145, 225, 208, 240
-0.998457, 113, 231, 144, 246
-0.998459, 193, 199, 256, 214
-0.998461, 289, 197, 320, 212
-0.998462, 129, 225, 160, 240
-0.998465, 259, 177, 274, 304
-0.99847, 275, 177, 290, 304
-0.998474, 191, 209, 206, 240
-0.998477, 167, 229, 182, 260
-0.998477, 165, 205, 180, 236
-0.998481, 245, 227, 276, 242
-0.998482, 43, 229, 58, 260
-0.998482, 27, 229, 42, 260
-0.998493, 291, 177, 306, 304
-0.998496, 297, 209, 328, 224
-0.998498, 193, 219, 224, 234
-0.9985, 193, 211, 256, 226
-0.998502, 411, 233, 426, 264
-0.998502, 433, 233, 448, 264
-0.998503, 251, 161, 266, 288
-0.998504, 193, 193, 256, 208
-0.998507, 241, 187, 272, 202
-0.998509, 149, 183, 180, 198
-0.998512, 85, 229, 100, 260
-0.998514, 215, 209, 230, 240
-0.998517, 141, 215, 172, 230
-0.998518, 277, 209, 292, 240
-0.998518, 105, 229, 168, 244
-0.998523, 35, 229, 50, 260
-0.998523, 151, 177, 166, 304
-0.998529, 217, 225, 280, 240
-0.99853, 345, 65, 376, 320
-0.998533, 13, 229, 28, 260
-0.998535, 283, 161, 298, 288
-0.998537, 329, 65, 360, 320
-0.998541, 185, 187, 248, 202
-0.998542, 175, 181, 190, 212
-0.998542, 177, 65, 208, 320
-0.998545, 269, 161, 284, 288
-0.998545, 213, 221, 244, 236
-0.998548, 161, 225, 192, 240
-0.998548, 257, 193, 320, 208
-0.998548, 239, 177, 254, 304
-0.998555, 129, 213, 192, 228
-0.998555, 173, 161, 188, 288
-0.998556, 233, 213, 296, 228
-0.99856, 233, 217, 264, 232
-0.998563, 41, 231, 104, 246
-0.998563, 401, 233, 464, 248
-0.998565, 183, 161, 198, 288
-0.998567, 313, 233, 376, 248
-0.998569, 249, 231, 312, 246
-0.998572, 233, 65, 264, 320
-0.998573, 33, 161, 64, 288
-0.998573, 357, 65, 388, 320
-0.998576, 201, 65, 232, 320
-0.998578, 169, 229, 232, 244
-0.998578, 193, 225, 224, 240
-0.998583, 141, 227, 172, 242
-0.998585, 105, 223, 168, 238
-0.998585, 361, 233, 424, 248
-0.998585, 137, 191, 200, 206
-0.998588, 309, 65, 340, 320
-0.998591, 189, 177, 204, 304
-0.998591, 151, 205, 166, 236
-0.998601, 185, 217, 248, 232
-0.998603, 425, 233, 488, 248
-0.998603, 105, 213, 168, 228
-0.998609, 337, 231, 400, 246
-0.998609, 145, 231, 208, 246
-0.998609, 265, 223, 328, 238
-0.998615, 281, 233, 344, 248
-0.998616, 5, 229, 20, 260
-0.998627, 129, 207, 192, 222
-0.998628, 257, 215, 320, 230
-0.998632, 281, 215, 344, 230
-0.998634, 225, 197, 288, 212
-0.998636, 225, 231, 288, 246
-0.998637, 225, 205, 288, 220
-0.998637, 161, 207, 224, 222
-0.998637, 135, 201, 150, 232
-0.998638, 289, 209, 352, 224
-0.99864, 153, 199, 216, 214
-0.99864, 33, 185, 160, 216
-0.998643, 269, 223, 300, 238
-0.998643, 237, 233, 268, 296
-0.998644, 369, 65, 400, 320
-0.998645, 361, 227, 424, 242
-0.998646, 73, 233, 136, 248
-0.998647, 265, 199, 328, 214
-0.99865, 73, 225, 136, 240
-0.998651, 129, 201, 192, 216
-0.998651, 223, 213, 238, 244
-0.998655, 393, 227, 456, 242
-0.998658, 157, 161, 172, 288
-0.998659, 97, 201, 160, 216
-0.998659, 257, 223, 288, 238
-0.998659, 157, 219, 188, 234
-0.998661, 97, 195, 160, 210
-0.998663, 297, 199, 360, 214
-0.998666, 141, 221, 172, 236
-0.998668, 17, 231, 80, 246
-0.99867, 313, 227, 376, 242
-0.99867, 239, 229, 254, 260
-0.998677, 97, 207, 160, 222
-0.998677, 381, 65, 412, 320
-0.998679, 9, 225, 72, 240
-0.99868, 289, 227, 352, 242
-0.998684, 417, 227, 480, 242
-0.998693, 229, 223, 260, 238
-0.998695, 225, 183, 288, 198
-0.998699, 177, 223, 208, 238
-0.9987, 145, 179, 208, 194
-0.998702, 245, 177, 260, 304
-0.998707, 33, 225, 96, 240
-0.99871, 337, 225, 400, 240
-0.998711, 161, 193, 224, 208
-0.99872, 97, 189, 160, 204
-0.998721, 297, 191, 360, 206
-0.99873, 265, 205, 328, 220
-0.99873, 165, 65, 196, 320
-0.998731, 185, 181, 248, 196
-0.998734, 245, 221, 276, 236
-0.998737, 265, 185, 328, 200
-0.998737, 97, 181, 160, 196
-0.998738, 161, 187, 224, 202
-0.998739, 201, 231, 264, 246
-0.998749, 247, 229, 262, 260
-0.99875, 311, 221, 326, 252
-0.998754, 209, 225, 224, 256
-0.998759, 307, 209, 322, 240
-0.998762, 341, 217, 356, 248
-0.998768, 369, 217, 384, 248
-0.99877, 317, 221, 332, 252
-0.998779, 485, 221, 500, 252
-0.99878, 9, 161, 40, 288
-0.998781, 121, 179, 184, 194
-0.998792, 267, 177, 282, 208
-0.998793, 283, 181, 298, 212
-0.998794, 401, 65, 432, 320
-0.998798, 433, 221, 448, 252
-0.9988, 227, 229, 242, 260
-0.998802, 355, 217, 370, 248
-0.998802, 297, 177, 312, 304
-0.998802, 249, 179, 312, 194
-0.998816, 289, 185, 352, 200
-0.998819, 381, 217, 396, 248
-0.99882, 169, 175, 232, 190
-0.99882, 457, 221, 472, 252
-0.99882, 465, 221, 480, 252
-0.998825, 113, 173, 176, 188
-0.998825, 121, 235, 184, 250
-0.998837, 369, 221, 432, 236
-0.998838, 193, 233, 320, 264
-0.998847, 369, 209, 432, 224
-0.998848, 209, 177, 272, 192
-0.998853, 361, 215, 424, 230
-0.998853, 377, 197, 440, 212
-0.998855, 337, 237, 400, 252
-0.998855, 361, 189, 424, 204
-0.998856, 385, 215, 448, 230
-0.998857, 189, 65, 220, 320
-0.99886, 369, 203, 432, 218
-0.998861, 137, 173, 200, 188
-0.998862, 9, 207, 72, 222
-0.998862, 337, 213, 400, 228
-0.998862, 153, 65, 184, 320
-0.998863, 361, 179, 424, 194
-0.998863, 97, 235, 160, 250
-0.998865, 401, 205, 464, 220
-0.998865, 385, 189, 448, 204
-0.998866, 337, 183, 400, 198
-0.998866, 353, 195, 416, 210
-0.998866, 297, 221, 360, 236
-0.998867, 353, 173, 416, 188
-0.998867, 289, 239, 352, 254
-0.998867, 345, 167, 408, 182
-0.998868, 1, 213, 64, 228
-0.998869, 409, 217, 472, 232
-0.998869, 249, 237, 312, 252
-0.998869, 377, 171, 440, 186
-0.99887, 345, 205, 408, 220
-0.99887, 401, 197, 464, 212
-0.99887, 337, 189, 400, 204
-0.998872, 201, 171, 264, 186
-0.998872, 169, 235, 232, 250
-0.998872, 409, 211, 472, 226
-0.998872, 225, 169, 288, 184
-0.998873, 313, 177, 376, 192
-0.998873, 385, 183, 448, 198
-0.998873, 329, 197, 392, 212
-0.998874, 361, 161, 424, 176
-0.998875, 81, 219, 144, 234
-0.998876, 329, 161, 392, 176
-0.998876, 385, 177, 448, 192
-0.998876, 385, 239, 448, 254
-0.998877, 321, 169, 384, 184
-0.998877, 9, 201, 72, 216
-0.998878, 185, 165, 248, 180
-0.998878, 17, 219, 80, 234
-0.998878, 145, 237, 208, 252
-0.998878, 329, 1, 392, 16
-0.998878, 17, 237, 80, 252
-0.998879, 321, 155, 384, 170
-0.998879, 401, 169, 464, 184
-0.998879, 225, 237, 288, 252
-0.99888, 297, 155, 360, 170
-0.99888, 49, 217, 112, 232
-0.998889, 195, 177, 210, 304
-0.998911, 413, 65, 444, 320
-0.998944, 233, 177, 248, 304
-0.99898, 337, 137, 464, 200
-0.999044, 121, 65, 152, 320
-0.999045, 321, 97, 448, 224
-0.999046, 369, 161, 496, 224
-0.999071, 429, 65, 460, 320
-0.999077, 205, 193, 220, 320
-0.99911, 139, 177, 154, 304
-0.99911, 303, 177, 318, 304
-0.999139, 141, 65, 172, 320
-0.999143, 275, 129, 290, 256
-0.99917, 259, 129, 274, 256
-0.99917, 445, 65, 476, 320
-0.999237, 289, 129, 304, 256
-0.999279, 163, 129, 178, 256
-0.99928, 241, 129, 256, 256
-0.999297, 227, 209, 242, 333
-0.999333, 221, 209, 236, 333
-0.999334, 211, 209, 226, 333
-0.999337, 175, 209, 190, 333
-0.999337, 357, 209, 372, 333
-0.999337, 423, 209, 438, 333
-0.999345, 363, 209, 378, 333
-0.999345, 369, 209, 384, 333
-0.999345, 375, 209, 390, 333
-0.999345, 381, 209, 396, 333
-0.999345, 387, 209, 402, 333
-0.999345, 393, 209, 408, 333
-0.999345, 399, 209, 414, 333
-0.999345, 405, 209, 420, 333
-0.999345, 411, 209, 426, 333
-0.999345, 417, 209, 432, 333
-0.999351, 465, 65, 496, 320
-0.999354, 431, 209, 446, 333
-0.99936, 351, 209, 366, 333
-0.999361, 439, 209, 454, 333
-0.999363, 227, 161, 242, 288
-0.999367, 317, 209, 332, 333
-0.999367, 453, 209, 468, 333
-0.999375, 325, 209, 340, 333
-0.999375, 331, 209, 346, 333
-0.999375, 337, 209, 352, 333
-0.999375, 343, 209, 358, 333
-0.999375, 447, 209, 462, 333
-0.999376, 311, 209, 326, 333
-0.999376, 459, 209, 474, 333
-0.999389, 123, 209, 138, 333
-0.999393, 265, 113, 280, 240
-0.999396, 129, 209, 144, 333
-0.999398, 151, 129, 166, 256
-0.9994, 465, 209, 480, 333
-0.999404, 477, 209, 492, 333
-0.999405, 117, 209, 132, 333
-0.999406, 181, 209, 196, 333
-0.999412, 281, 113, 296, 240
-0.999414, 485, 209, 500, 333
-0.999419, 471, 209, 486, 333
-0.999426, 189, 129, 204, 256
-0.999432, 111, 209, 126, 333
-0.999436, 103, 209, 118, 333
-0.99944, 109, 65, 140, 320
-0.999442, 251, 113, 266, 240
-0.999445, 97, 65, 128, 320
-0.999448, 309, 161, 324, 288
-0.999449, 265, 209, 280, 333
-0.999451, 215, 161, 230, 288
-0.999455, 281, 209, 296, 333
-0.999459, 97, 209, 112, 333
-0.999467, 13, 209, 28, 333
-0.999471, 61, 209, 76, 333
-0.999471, 67, 209, 82, 333
-0.999471, 209, 145, 224, 272
-0.999475, 197, 129, 212, 256
-0.999477, 91, 209, 106, 333
-0.999478, 295, 129, 310, 256
-0.999483, 365, 161, 380, 288
-0.999484, 145, 129, 160, 256
-0.999488, 85, 209, 100, 333
-0.999491, 359, 161, 374, 288
-0.999491, 79, 209, 94, 333
-0.999494, 369, 209, 496, 240
-0.999499, 371, 161, 386, 288
-0.9995, 85, 65, 116, 320
-0.999501, 73, 209, 88, 333
-0.999504, 55, 209, 70, 333
-0.999505, 179, 113, 194, 240
-0.999506, 349, 161, 364, 288
-0.999509, 19, 209, 34, 333
-0.999512, 133, 161, 148, 288
-0.999513, 169, 209, 184, 333
-0.999522, 331, 161, 346, 288
-0.999522, 337, 161, 352, 288
-0.999522, 343, 161, 358, 288
-0.999526, 169, 113, 184, 240
-0.999527, 49, 209, 64, 333
-0.999531, 325, 161, 340, 288
-0.999531, 379, 161, 394, 288
-0.999531, 69, 65, 100, 320
-0.999533, 7, 209, 22, 333
-0.999535, 135, 205, 150, 220
-0.999535, 221, 161, 236, 288
-0.999537, 43, 209, 58, 333
-0.999538, 15, 231, 30, 246
-0.999538, 319, 161, 334, 288
-0.999538, 147, 233, 162, 248
-0.999539, 237, 203, 252, 218
-0.99954, 251, 209, 266, 333
-0.999542, 43, 233, 58, 248
-0.999542, 279, 215, 294, 230
-0.999544, 9, 231, 24, 246
-0.999545, 29, 233, 44, 248
-0.999545, 201, 227, 216, 242
-0.999545, 463, 233, 478, 248
-0.999545, 145, 193, 160, 208
-0.999547, 295, 215, 310, 230
-0.999547, 37, 209, 52, 333
-0.999548, 223, 221, 238, 236
-0.999548, 25, 209, 40, 333
-0.999549, 389, 161, 404, 288
-0.99955, 31, 209, 46, 333
-0.999551, 457, 233, 472, 248
-0.999551, 227, 209, 242, 224
-0.999553, 475, 233, 490, 248
-0.999554, 247, 215, 262, 230
-0.999555, 265, 219, 280, 234
-0.999556, 235, 191, 250, 206
-0.999556, 399, 161, 414, 288
-0.999558, 269, 231, 284, 246
-0.999558, 137, 211, 152, 226
-0.999558, 469, 233, 484, 248
-0.999559, 203, 145, 218, 272
-0.999562, 163, 223, 178, 238
-0.999562, 93, 233, 108, 248
-0.999563, 145, 211, 160, 226
-0.999563, 195, 197, 210, 212
-0.999563, 63, 229, 78, 244
-0.999563, 85, 233, 100, 248
-0.999564, 407, 161, 422, 288
-0.999564, 413, 161, 428, 288
-0.999564, 419, 161, 434, 288
-0.999566, 107, 233, 122, 248
-0.999569, 381, 233, 396, 248
-0.99957, 179, 217, 194, 232
-0.999571, 281, 193, 296, 208
-0.999572, 1, 209, 16, 333
-0.999572, 429, 161, 444, 288
-0.999573, 189, 231, 204, 246
-0.999575, 183, 231, 198, 246
-0.999575, 257, 231, 272, 246
-0.999576, 143, 199, 158, 214
-0.999577, 57, 65, 88, 320
-0.999578, 125, 229, 140, 244
-0.999578, 69, 229, 84, 244
-0.999578, 337, 233, 352, 248
-0.999578, 349, 231, 364, 246
-0.999578, 259, 187, 274, 202
-0.999579, 481, 233, 496, 248
-0.999579, 77, 231, 92, 246
-0.999579, 215, 221, 230, 236
-0.999579, 173, 185, 188, 200
-0.999579, 53, 231, 68, 246
-0.99958, 275, 191, 290, 206
-0.999581, 287, 193, 302, 208
-0.999581, 163, 231, 178, 246
-0.999581, 315, 233, 330, 248
-0.999582, 135, 229, 150, 244
-0.999583, 157, 113, 172, 240
-0.999583, 435, 233, 450, 248
-0.999584, 155, 181, 170, 196
-0.999585, 301, 233, 316, 248
-0.999585, 451, 233, 466, 248
-0.999585, 343, 233, 358, 248
-0.999585, 387, 233, 402, 248
-0.999586, 401, 233, 416, 248
-0.999589, 425, 233, 440, 248
-0.999589, 213, 229, 228, 244
-0.999589, 355, 233, 370, 248
-0.999591, 99, 233, 114, 248
-0.999596, 113, 231, 128, 246
-0.999597, 445, 231, 460, 246
-0.999597, 265, 189, 280, 204
-0.999597, 321, 233, 336, 248
-0.999598, 157, 231, 172, 246
-0.9996, 219, 229, 234, 244
-0.999602, 205, 215, 220, 230
-0.999602, 449, 161, 464, 288
-0.999602, 157, 209, 172, 333
-0.999602, 367, 233, 382, 248
-0.999603, 443, 161, 458, 288
-0.999605, 407, 233, 422, 248
-0.999605, 459, 161, 474, 288
-0.999605, 253, 187, 268, 202
-0.999607, 361, 233, 376, 248
-0.999608, 435, 161, 450, 288
-0.999609, 393, 233, 408, 248
-0.999609, 287, 223, 302, 238
-0.99961, 247, 187, 262, 202
-0.99961, 291, 231, 306, 246
-0.99961, 225, 227, 240, 242
-0.999611, 165, 183, 180, 198
-0.999611, 183, 187, 198, 202
-0.999613, 305, 209, 320, 224
-0.999613, 199, 205, 214, 220
-0.999614, 233, 197, 248, 212
-0.999614, 417, 233, 432, 248
-0.999616, 331, 231, 346, 246
-0.99962, 307, 233, 322, 248
-0.99962, 119, 229, 134, 244
-0.999622, 189, 191, 204, 206
-0.999623, 155, 215, 170, 230
-0.999627, 241, 187, 256, 202
-0.999629, 465, 161, 480, 288
-0.999631, 375, 231, 390, 246
-0.999636, 289, 217, 304, 232
-0.999637, 235, 213, 250, 228
-0.999638, 303, 203, 318, 218
-0.999639, 275, 231, 290, 246
-0.99964, 149, 183, 164, 198
-0.999641, 281, 229, 296, 244
-0.999644, 293, 193, 308, 208
-0.999646, 1, 145, 500, 208
-0.999647, 175, 229, 190, 244
-0.999648, 45, 65, 76, 320
-0.99965, 263, 227, 278, 242
-0.999651, 139, 223, 154, 238
-0.999653, 241, 227, 256, 242
-0.999654, 169, 227, 184, 242
-0.999656, 205, 221, 220, 236
-0.999658, 33, 65, 64, 320
-0.999659, 229, 219, 244, 234
-0.999659, 301, 197, 316, 212
-0.999663, 235, 129, 250, 256
-0.999669, 471, 161, 486, 288
-0.999673, 299, 209, 314, 224
-0.999677, 321, 193, 448, 224
-0.999679, 17, 65, 48, 320
-0.99968, 157, 225, 172, 240
-0.999681, 477, 161, 492, 288
-0.999698, 485, 161, 500, 288
-0.999701, 251, 229, 266, 244
-0.999703, 231, 225, 246, 240
-0.999703, 123, 161, 138, 288
-0.999704, 229, 203, 244, 218
-0.999705, 141, 229, 156, 244
-0.999708, 167, 217, 182, 232
-0.99972, 161, 217, 176, 232
-0.999726, 195, 225, 210, 240
-0.999727, 151, 227, 166, 242
-0.999729, 281, 223, 296, 238
-0.999732, 5, 65, 36, 320
-0.999737, 145, 217, 160, 232
-0.999761, 269, 225, 284, 240
-0.999776, 247, 223, 262, 238
-0.99978, 193, 145, 256, 208
-0.9998, 177, 121, 304, 184
-0.999803, 259, 221, 274, 236
-0.999812, 181, 225, 196, 240
-0.999812, 145, 223, 160, 238
-0.999813, 253, 221, 268, 236
-0.999813, 321, 113, 448, 176
-0.999817, 235, 219, 250, 234
-0.999822, 175, 223, 190, 238
-0.999826, 241, 221, 256, 236
-0.999843, 189, 223, 204, 238
-0.999845, 275, 223, 290, 238
-0.999878, 161, 33, 416, 160
-0.999912, 151, 221, 166, 236
-0.999935, 225, 165, 352, 196
-0.999948, 221, 113, 252, 240
-0.999991, 113, 157, 240, 188
-1.00001, 49, 161, 176, 192
-1.00006, 273, 169, 400, 200
-1.00017, 297, 113, 328, 240
-1.00017, 369, 193, 496, 224
-1.00019, 369, 177, 496, 208
-1.0002, 353, 165, 480, 196
-1.00028, 113, 97, 176, 224
-1.0003, 321, 141, 448, 172
-1.00032, 337, 153, 464, 184
-1.00035, 129, 113, 256, 176
-1.00036, 145, 145, 272, 176
-1.00038, 161, 161, 288, 192
-1.00039, 1, 129, 256, 192
-1.00039, 257, 121, 384, 184
-1.00042, 81, 97, 208, 160
-1.00046, 241, 149, 368, 180
-1.00048, 65, 17, 320, 144
-1.00054, 193, 149, 320, 180
-1.00054, 289, 157, 416, 188
-1.00057, 129, 121, 384, 184
-1.00061, 133, 153, 164, 216
-1.00061, 145, 133, 272, 164
-1.00061, 97, 145, 224, 176
-1.00062, 65, 121, 192, 184
-1.00063, 193, 137, 320, 168
-1.00064, 241, 137, 368, 168
-1.00064, 369, 141, 496, 172
-1.00067, 369, 113, 496, 176
-1.00069, 209, 81, 336, 208
-1.00069, 305, 129, 432, 160
-1.00074, 321, 181, 448, 212
-1.00075, 353, 129, 480, 160
-1.00077, 97, 129, 224, 160
-1.00078, 169, 97, 232, 224
-1.00078, 225, 121, 480, 184
-1.00079, 49, 141, 176, 172
-1.00083, 209, 125, 336, 156
-1.00083, 1, 105, 256, 168
-1.00086, 1, 25, 256, 88
-1.00088, 1, 65, 256, 128
-1.00088, 1, 145, 128, 208
-1.00089, 1, 173, 128, 204
-1.00089, 1, 197, 128, 228
-1.00089, 289, 241, 416, 272
-1.00092, 145, 241, 208, 304
-1.00093, 49, 129, 176, 160
-1.00093, 1, 149, 128, 180
-1.00093, 289, 117, 416, 148
-1.00094, 17, 113, 144, 176
-1.00094, 161, 121, 288, 152
-1.00095, 113, 117, 240, 148
-1.00096, 161, 61, 288, 92
-1.00096, 241, 241, 368, 272
-1.00099, 81, 57, 208, 88
-1.00099, 49, 113, 176, 144
-1.00099, 337, 1, 464, 32
-1.00099, 113, 73, 240, 104
-1.001, 289, 1, 416, 32
-1.001, 65, 97, 192, 128
-1.00101, 337, 117, 464, 148
-1.00101, 145, 105, 272, 136
-1.00102, 177, 49, 304, 80
-1.00103, 161, 73, 288, 104
-1.00103, 33, 85, 160, 116
-1.00103, 225, 105, 352, 136
-1.00103, 97, 45, 224, 76
-1.00103, 113, 93, 240, 124
-1.00103, 1, 113, 128, 144
-1.00105, 1, 161, 128, 192
-1.00105, 289, 105, 416, 136
-1.00105, 369, 105, 496, 136
-1.00106, 17, 97, 144, 128
-1.00106, 97, 33, 224, 64
-1.00106, 145, 37, 272, 68
-1.00106, 193, 37, 320, 68
-1.00106, 65, 73, 192, 104
-1.00107, 97, 241, 224, 272
-1.00107, 145, 241, 272, 272
-1.00107, 33, 253, 160, 284
-1.00107, 81, 253, 208, 284
-1.00107, 129, 253, 256, 284
-1.00107, 177, 253, 304, 284
-1.00107, 225, 253, 352, 284
-1.00107, 273, 253, 400, 284
-1.00107, 321, 253, 448, 284
-1.00107, 369, 253, 496, 284
-1.00107, 33, 265, 160, 296
-1.00107, 81, 265, 208, 296
-1.00107, 129, 265, 256, 296
-1.00107, 177, 265, 304, 296
-1.00107, 225, 265, 352, 296
-1.00107, 273, 265, 400, 296
-1.00107, 321, 265, 448, 296
-1.00107, 369, 265, 496, 296
-1.00107, 33, 277, 160, 308
-1.00107, 81, 277, 208, 308
-1.00107, 129, 277, 256, 308
-1.00107, 177, 277, 304, 308
-1.00107, 225, 277, 352, 308
-1.00107, 273, 277, 400, 308
-1.00107, 321, 277, 448, 308
-1.00107, 369, 277, 496, 308
-1.00107, 33, 289, 160, 320
-1.00107, 81, 289, 208, 320
-1.00107, 129, 289, 256, 320
-1.00107, 177, 289, 304, 320
-1.00107, 225, 289, 352, 320
-1.00107, 273, 289, 400, 320
-1.00107, 321, 289, 448, 320
-1.00107, 369, 289, 496, 320
-1.00107, 33, 301, 160, 332
-1.00107, 81, 301, 208, 332
-1.00107, 129, 301, 256, 332
-1.00107, 177, 301, 304, 332
-1.00107, 225, 301, 352, 332
-1.00107, 273, 301, 400, 332
-1.00107, 321, 301, 448, 332
-1.00107, 369, 301, 496, 332
-1.00109, 337, 89, 464, 152
-1.00118, 129, 97, 384, 160
-1.00118, 225, 97, 480, 160
-1.00119, 189, 153, 220, 216
-1.00121, 257, 17, 500, 144
-1.00123, 193, 65, 448, 128
-1.00124, 145, 89, 272, 152
-1.00125, 1, 113, 500, 176
-1.00128, 97, 41, 352, 104
-1.00131, 241, 97, 368, 160
-1.00131, 129, 241, 384, 304
-1.00135, 201, 161, 232, 224
-1.00136, 193, 41, 448, 104
-1.00138, 377, 185, 440, 248
-1.00142, 97, 73, 352, 136
-1.00152, 65, 1, 320, 64
-1.00154, 33, 89, 160, 152
-1.00157, 81, 73, 208, 136
-1.0016, 161, 9, 416, 72
-1.00161, 133, 97, 164, 224
-1.00165, 257, 17, 500, 80
-1.00168, 161, 57, 288, 120
-1.0017, 1, 89, 500, 152
-1.00179, 221, 145, 252, 208
-1.00182, 193, 97, 320, 160
-1.00185, 369, 97, 496, 224
-1.0019, 49, 41, 176, 104
-1.00194, 369, 49, 496, 112
-1.00201, 121, 161, 152, 224
-1.00201, 1, 65, 500, 128
-1.00206, 257, 257, 500, 320
-1.00206, 1, 241, 500, 304
-1.00209, 1, 41, 500, 104
-1.00212, 33, 249, 288, 312
-1.00212, 65, 273, 320, 333
-1.00212, 161, 273, 416, 333
-1.00225, 129, 25, 256, 88
-1.00227, 1, 41, 128, 104
-1.00235, 277, 145, 308, 208
-1.00236, 113, 49, 240, 112
-1.00236, 321, 49, 448, 112
-1.00239, 49, 17, 176, 80
-1.00244, 289, 89, 416, 152
-1.00244, 353, 1, 480, 64
-1.00247, 201, 113, 232, 240
-1.00251, 193, 33, 320, 96
-1.00251, 1, 65, 128, 128
-1.00252, 241, 73, 368, 136
-1.00254, 1, 17, 500, 80
-1.00256, 337, 25, 464, 88
-1.00259, 289, 1, 416, 64
-1.00263, 113, 65, 240, 192
-1.0027, 113, 17, 240, 144
-1.0027, 177, 17, 304, 144
-1.00271, 1, 9, 128, 72
-1.00271, 209, 9, 336, 72
-1.00274, 305, 33, 432, 160
-1.00277, 145, 1, 272, 64
-1.00288, 241, 41, 368, 104
-1.00291, 289, 25, 416, 88
-1.00291, 33, 249, 160, 312
-1.00291, 193, 249, 320, 312
-1.00291, 33, 273, 160, 333
-1.00291, 81, 273, 208, 333
-1.00291, 129, 273, 256, 333
-1.00291, 177, 273, 304, 333
-1.00291, 225, 273, 352, 333
-1.00291, 273, 273, 400, 333
-1.00291, 321, 273, 448, 333
-1.00291, 369, 273, 496, 333
-1.003, 97, 1, 224, 64
-1.00306, 65, 49, 192, 176
-1.00313, 1, 97, 128, 224
-1.00339, 353, 49, 480, 176
-1.0034, 313, 161, 376, 224
-1.00352, 257, 33, 384, 160
-1.00355, 65, 1, 192, 128
-1.00387, 353, 161, 416, 224
-1.00387, 1, 273, 500, 333
-1.00391, 353, 1, 480, 128
-1.00398, 17, 33, 144, 160
-1.00405, 225, 137, 288, 200
-1.00411, 309, 161, 340, 224
-1.00411, 325, 97, 356, 224
-1.00417, 241, 241, 304, 304
-1.00431, 309, 97, 340, 224
-1.00432, 337, 97, 368, 224
-1.00432, 313, 97, 376, 224
-1.00444, 345, 97, 408, 224
-1.00447, 377, 161, 440, 224
-1.00454, 353, 97, 384, 224
-1.00467, 321, 137, 384, 200
-1.00485, 353, 185, 416, 248
-1.0049, 401, 161, 464, 224
-1.00503, 257, 81, 320, 208
-1.00506, 297, 145, 328, 208
-1.00506, 365, 97, 396, 224
-1.00506, 353, 137, 416, 200
-1.00516, 233, 81, 264, 208
-1.00527, 377, 97, 408, 224
-1.00527, 289, 129, 352, 192
-1.00543, 285, 81, 316, 208
-1.00555, 145, 137, 208, 200
-1.00569, 393, 97, 424, 224
-1.0057, 401, 185, 464, 248
-1.00574, 225, 81, 288, 208
-1.00575, 385, 185, 416, 248
-1.00581, 349, 153, 380, 216
-1.00581, 237, 17, 268, 144
-1.00587, 313, 137, 344, 200
-1.00591, 325, 49, 356, 176
-1.00596, 185, 33, 216, 160
-1.00596, 217, 33, 248, 160
-1.00596, 329, 145, 360, 208
-1.00599, 249, 17, 280, 144
-1.00604, 205, 65, 236, 192
-1.00605, 369, 169, 400, 232
-1.00605, 169, 49, 200, 176
-1.00608, 261, 49, 292, 176
-1.00612, 313, 49, 344, 176
-1.00621, 185, 81, 216, 208
-1.00623, 389, 49, 420, 176
-1.00626, 273, 49, 304, 176
-1.00626, 301, 49, 332, 176
-1.00631, 285, 33, 316, 160
-1.00633, 341, 17, 372, 144
-1.00638, 201, 121, 264, 184
-1.0064, 149, 49, 180, 176
-1.00642, 161, 137, 192, 200
-1.00643, 349, 185, 380, 248
-1.00647, 249, 121, 312, 184
-1.0065, 197, 1, 228, 128
-1.00652, 377, 49, 408, 176
-1.00652, 413, 97, 444, 224
-1.00653, 377, 1, 408, 128
-1.00655, 385, 97, 448, 224
-1.00656, 361, 49, 392, 176
-1.00656, 377, 137, 440, 200
-1.00658, 385, 161, 416, 224
-1.0066, 245, 81, 276, 208
-1.00664, 401, 49, 432, 176
-1.00672, 269, 241, 300, 304
-1.00679, 321, 1, 352, 128
-1.00679, 425, 97, 456, 224
-1.00685, 85, 185, 116, 248
-1.00686, 225, 113, 288, 176
-1.00692, 233, 137, 264, 200
-1.00693, 269, 1, 300, 128
-1.00701, 289, 17, 352, 144
-1.00701, 169, 1, 200, 128
-1.00707, 309, 1, 340, 128
-1.00711, 297, 1, 328, 128
-1.00712, 313, 113, 376, 176
-1.0072, 365, 1, 396, 128
-1.00721, 169, 1, 232, 128
-1.00721, 401, 137, 464, 200
-1.00723, 361, 145, 392, 208
-1.00723, 413, 49, 444, 176
-1.00725, 145, 1, 176, 128
-1.00726, 177, 113, 240, 176
-1.00727, 389, 1, 420, 128
-1.00737, 209, 33, 272, 160
-1.00738, 433, 185, 496, 248
-1.0074, 177, 241, 208, 304
-1.00743, 153, 49, 216, 176
-1.00744, 253, 137, 284, 200
-1.00746, 373, 145, 404, 208
-1.00746, 333, 169, 364, 232
-1.0075, 233, 17, 296, 144
-1.0075, 129, 49, 192, 176
-1.0075, 369, 49, 432, 176
-1.00756, 401, 49, 464, 176
-1.00757, 253, 241, 284, 304
-1.00758, 321, 169, 352, 232
-1.00759, 129, 33, 160, 160
-1.00765, 101, 33, 132, 160
-1.00766, 185, 49, 248, 176
-1.0077, 405, 1, 436, 128
-1.00771, 397, 169, 428, 232
-1.00771, 437, 97, 468, 224
-1.00776, 145, 1, 208, 128
-1.00776, 433, 65, 496, 192
-1.00779, 353, 113, 416, 176
-1.00781, 157, 1, 188, 128
-1.00781, 425, 161, 488, 224
-1.00786, 265, 1, 328, 128
-1.00786, 409, 97, 472, 224
-1.00789, 341, 129, 372, 192
-1.00792, 429, 49, 460, 176
-1.00792, 265, 121, 296, 184
-1.00792, 325, 121, 356, 184
-1.00793, 425, 185, 456, 248
-1.00799, 389, 137, 420, 200
-1.00802, 217, 241, 280, 304
-1.00803, 301, 121, 332, 184
-1.00805, 313, 49, 376, 176
-1.00812, 289, 121, 320, 184
-1.00816, 277, 121, 308, 184
-1.00816, 449, 97, 480, 224
-1.00818, 377, 1, 440, 128
-1.00821, 417, 1, 448, 128
-1.00825, 137, 113, 200, 176
-1.00827, 201, 97, 264, 160
-1.00829, 353, 1, 384, 128
-1.00829, 205, 137, 236, 200
-1.00831, 409, 161, 440, 224
-1.00838, 89, 33, 120, 160
-1.00841, 409, 185, 440, 248
-1.00841, 461, 97, 492, 224
-1.00843, 117, 33, 148, 160
-1.00843, 281, 105, 344, 168
-1.00853, 245, 113, 276, 176
-1.00853, 433, 1, 496, 64
-1.00855, 385, 105, 448, 168
-1.00855, 449, 185, 480, 248
-1.0086, 345, 49, 408, 176
-1.00864, 433, 137, 496, 200
-1.00867, 313, 113, 344, 176
-1.0087, 233, 113, 264, 176
-1.0087, 353, 121, 384, 184
-1.00873, 409, 1, 472, 64
-1.00873, 57, 65, 120, 128
-1.00873, 73, 89, 136, 152
-1.00873, 97, 89, 160, 152
-1.00878, 257, 97, 320, 160
-1.00878, 177, 33, 240, 96
-1.00878, 217, 49, 280, 112
-1.00878, 177, 57, 240, 120
-1.00878, 281, 249, 344, 312
-1.00878, 313, 249, 376, 312
-1.00878, 337, 249, 400, 312
-1.0088, 345, 81, 408, 144
-1.00887, 221, 121, 252, 184
-1.0089, 305, 81, 368, 144
-1.00894, 97, 65, 160, 128
-1.00896, 97, 49, 160, 176
-1.00901, 369, 121, 400, 184
-1.00902, 409, 137, 440, 200
-1.00903, 241, 25, 304, 88
-1.00903, 137, 41, 200, 104
-1.00903, 417, 49, 480, 112
-1.00903, 153, 65, 216, 128
-1.00903, 433, 73, 496, 136
-1.00903, 49, 105, 112, 168
-1.00903, 1, 129, 64, 192
-1.00908, 193, 9, 256, 72
-1.00908, 217, 25, 280, 88
-1.0091, 453, 1, 484, 64
-1.00912, 353, 1, 416, 128
-1.00912, 177, 89, 240, 152
-1.00915, 209, 73, 272, 136
-1.00915, 385, 81, 448, 144
-1.0092, 217, 1, 280, 64
-1.0092, 73, 41, 136, 104
-1.0092, 97, 41, 160, 104
-1.0092, 121, 89, 184, 152
-1.00921, 49, 169, 112, 232
-1.00924, 241, 1, 304, 64
-1.00924, 145, 17, 208, 80
-1.00924, 425, 25, 488, 88
-1.00924, 257, 73, 320, 136
-1.00924, 1, 105, 64, 168
-1.00924, 433, 105, 496, 168
-1.00924, 1, 161, 64, 224
-1.00929, 73, 33, 136, 160
-1.00929, 73, 273, 136, 333
-1.00929, 97, 273, 160, 333
-1.00929, 121, 273, 184, 333
-1.00929, 145, 273, 208, 333
-1.00929, 169, 273, 232, 333
-1.00929, 193, 273, 256, 333
-1.00929, 217, 273, 280, 333
-1.00929, 241, 273, 304, 333
-1.00929, 265, 273, 328, 333
-1.00929, 289, 273, 352, 333
-1.00929, 313, 273, 376, 333
-1.00929, 337, 273, 400, 333
-1.00929, 361, 273, 424, 333
-1.00929, 385, 273, 448, 333
-1.00929, 409, 273, 472, 333
-1.00929, 433, 273, 496, 333
-1.00948, 73, 81, 136, 208
-1.00971, 329, 1, 392, 128
-1.00974, 401, 1, 464, 128
-1.01028, 289, 65, 352, 192
-1.01059, 121, 1, 184, 128
-1.01075, 33, 97, 96, 224
-1.01149, 49, 49, 112, 176
-1.01179, 1, 97, 64, 224
-1.01185, 433, 17, 496, 144
-1.01201, 97, 1, 160, 128
-1.01299, 49, 1, 112, 128
-1.01358, 17, 1, 80, 128
-1.01367, 1, 49, 64, 176
-1.01396, 25, 49, 88, 176
-1.01758, 433, 113, 496, 240
