1878
-0.344466, 1, 65, 500, 320
-0.353742, 1, 1, 500, 333
-0.507511, 33, 1, 288, 333
-0.591068, 257, 1, 500, 333
-0.598672, 129, 1, 384, 333
-0.690341, 33, 33, 288, 288
-0.709973, 257, 65, 500, 320
-0.725601, 129, 65, 384, 320
-0.870827, 129, 1, 256, 333
-0.878216, 1, 81, 500, 208
-0.886018, 113, 1, 240, 256
-0.886873, 33, 65, 160, 320
-0.888703, 353, 1, 480, 333
-0.890486, 209, 33, 336, 288
-0.895696, 161, 33, 288, 288
-0.898272, 353, 65, 480, 320
-0.905132, 81, 1, 208, 333
-0.906817, 209, 1, 336, 333
-0.909066, 289, 1, 416, 333
-0.910257, 257, 65, 384, 320
-0.911735, 33, 1, 160, 333
-0.917256, 1, 33, 500, 160
-0.926949, 1, 129, 500, 256
-0.93308, 305, 65, 432, 320
-0.933446, 225, 81, 480, 208
-0.933519, 1, 81, 256, 208
-0.939357, 97, 65, 352, 192
-0.945551, 33, 17, 288, 144
-0.946505, 1, 177, 500, 304
-0.947054, 209, 65, 336, 192
-0.948642, 353, 81, 480, 208
-0.9496, 33, 161, 288, 288
-0.950288, 177, 65, 240, 192
-0.950875, 129, 17, 256, 144
-0.951413, 137, 1, 200, 128
-0.952817, 113, 81, 240, 208
-0.953006, 417, 81, 480, 208
-0.955212, 161, 81, 288, 208
-0.955649, 193, 113, 256, 240
-0.95659, 97, 113, 352, 240
-0.957378, 129, 17, 384, 144
-0.957384, 193, 129, 448, 256
-0.959325, 217, 65, 280, 192
-0.959894, 129, 209, 384, 333
-0.960054, 33, 97, 160, 224
-0.960196, 169, 17, 232, 144
-0.961797, 257, 33, 500, 160
-0.962374, 273, 81, 400, 208
-0.962719, 81, 17, 208, 144
-0.962747, 33, 209, 288, 333
-0.965367, 393, 81, 456, 208
-0.965489, 425, 177, 488, 304
-0.965691, 145, 161, 272, 288
-0.966121, 265, 65, 328, 192
-0.966307, 169, 161, 232, 288
-0.967915, 177, 17, 304, 144
-0.967987, 433, 33, 496, 160
-0.968072, 177, 73, 240, 136
-0.968708, 353, 129, 480, 256
-0.969212, 289, 81, 352, 208
-0.969281, 9, 65, 72, 192
-0.969664, 153, 97, 216, 224
-0.969759, 257, 209, 500, 333
-0.970676, 97, 161, 224, 288
-0.970699, 209, 129, 336, 256
-0.970726, 433, 129, 496, 256
-0.971208, 241, 65, 304, 192
-0.971369, 193, 161, 256, 288
-0.971514, 369, 81, 432, 208
-0.972011, 401, 209, 464, 333
-0.972241, 401, 89, 464, 152
-0.972715, 9, 1, 72, 128
-0.972715, 321, 81, 384, 208
-0.972748, 169, 97, 232, 160
-0.972981, 41, 97, 104, 224
-0.973014, 33, 33, 160, 160
-0.973326, 177, 1, 240, 64
-0.97363, 345, 81, 408, 208
-0.973645, 17, 193, 144, 320
-0.973868, 369, 209, 496, 333
-0.973968, 201, 17, 264, 144
-0.973982, 425, 89, 488, 152
-0.974148, 225, 113, 288, 240
-0.974446, 145, 161, 208, 288
-0.974565, 1, 113, 64, 240
-0.974652, 321, 209, 448, 333
-0.974751, 137, 9, 200, 72
-0.975175, 169, 153, 232, 216
-0.97529, 161, 209, 288, 333
-0.975351, 209, 81, 272, 144
-0.975586, 201, 137, 264, 200
-0.975906, 89, 97, 152, 224
-0.976154, 121, 65, 184, 192
-0.976901, 241, 209, 368, 333
-0.97694, 177, 33, 240, 96
-0.976984, 353, 33, 480, 160
-0.976998, 145, 49, 208, 176
-0.977115, 9, 161, 72, 288
-0.977294, 209, 33, 272, 288
-0.97741, 425, 177, 488, 240
-0.97743, 177, 33, 240, 288
-0.977679, 1, 113, 64, 176
-0.978139, 385, 129, 448, 256
-0.978286, 217, 161, 280, 288
-0.978391, 113, 1, 176, 128
-0.978514, 241, 73, 304, 136
-0.978607, 409, 113, 472, 176
-0.978638, 409, 33, 472, 160
-0.978643, 177, 121, 240, 184
-0.978914, 65, 209, 192, 333
-0.979014, 121, 177, 184, 304
-0.979023, 65, 97, 128, 224
-0.97912, 281, 81, 344, 144
-0.979225, 9, 73, 72, 136
-0.979392, 1, 209, 64, 333
-0.979435, 113, 209, 240, 333
-0.979503, 137, 81, 200, 144
-0.979683, 145, 209, 208, 333
-0.979763, 193, 161, 256, 224
-0.979898, 209, 73, 336, 136
-0.979982, 153, 33, 216, 96
-0.980063, 49, 193, 112, 320
-0.980066, 161, 65, 288, 128
-0.980127, 165, 1, 196, 128
-0.980159, 417, 265, 480, 328
-0.980171, 185, 209, 248, 333
-0.980678, 425, 57, 488, 120
-0.980838, 353, 89, 480, 152
-0.9809, 209, 113, 272, 176
-0.980958, 433, 81, 464, 208
-0.981074, 145, 89, 272, 152
-0.981104, 113, 1, 240, 64
-0.981234, 129, 113, 192, 240
-0.981345, 137, 57, 200, 120
-0.981359, 393, 265, 456, 328
-0.981373, 417, 65, 480, 320
-0.981427, 41, 105, 104, 168
-0.981451, 249, 257, 312, 320
-0.981517, 297, 209, 360, 333
-0.981825, 305, 129, 432, 256
-0.982036, 213, 113, 244, 240
-0.982048, 273, 257, 336, 320
-0.982051, 97, 161, 160, 288
-0.982161, 41, 33, 104, 160
-0.982182, 445, 81, 476, 208
-0.9822, 433, 89, 464, 152
-0.982478, 217, 209, 280, 333
-0.98253, 297, 257, 360, 320
-0.982713, 385, 33, 448, 160
-0.982763, 449, 81, 480, 144
-0.982769, 89, 209, 152, 333
-0.982838, 233, 33, 296, 288
-0.982879, 377, 209, 440, 333
-0.982883, 229, 81, 260, 208
-0.982919, 249, 113, 312, 240
-0.98301, 409, 129, 472, 256
-0.983131, 273, 209, 336, 333
-0.983247, 129, 105, 192, 168
-0.983334, 401, 161, 464, 224
-0.983348, 17, 145, 144, 272
-0.98341, 201, 57, 264, 120
-0.983494, 1, 137, 64, 200
-0.983566, 153, 129, 216, 192
-0.983589, 393, 65, 456, 320
-0.983626, 113, 25, 240, 88
-0.983646, 217, 65, 248, 192
-0.983752, 153, 33, 216, 288
-0.983769, 81, 65, 144, 320
-0.983791, 425, 145, 488, 208
-0.983806, 145, 113, 272, 176
-0.983831, 401, 65, 464, 128
-0.983859, 345, 209, 408, 333
-0.983918, 369, 265, 432, 328
-0.984232, 213, 113, 244, 176
-0.984247, 229, 81, 260, 144
-0.984288, 193, 137, 320, 200
-0.984325, 81, 89, 208, 152
-0.984419, 145, 249, 208, 312
-0.984465, 49, 65, 112, 320
-0.984493, 249, 209, 312, 333
-0.984508, 1, 105, 128, 168
-0.984508, 321, 257, 384, 320
-0.984589, 425, 17, 488, 80
-0.984619, 25, 209, 88, 333
-0.984644, 345, 257, 408, 320
-0.984752, 161, 161, 288, 224
-0.984786, 217, 73, 248, 136
-0.984879, 9, 9, 72, 72
-0.984886, 433, 201, 496, 264
-0.984926, 169, 249, 232, 312
-0.985004, 65, 249, 128, 312
-0.985045, 165, 9, 196, 72
-0.985093, 225, 153, 288, 216
-0.985265, 169, 97, 200, 160
-0.985282, 89, 33, 152, 160
-0.985418, 305, 89, 368, 152
-0.985483, 249, 145, 312, 208
-0.985538, 25, 65, 88, 320
-0.985548, 369, 265, 496, 328
-0.985557, 41, 249, 104, 312
-0.985597, 121, 249, 184, 312
-0.985748, 401, 225, 464, 288
-0.985761, 97, 249, 160, 312
-0.985832, 169, 177, 232, 240
-0.985946, 401, 185, 464, 248
-0.985987, 449, 129, 480, 256
-0.986019, 177, 1, 240, 333
-0.986093, 193, 113, 320, 176
-0.98617, 185, 33, 216, 160
-0.986231, 329, 129, 392, 256
-0.986242, 369, 113, 496, 176
-0.986269, 73, 161, 136, 288
-0.986293, 225, 257, 288, 320
-0.986363, 197, 153, 228, 216
-0.986377, 177, 81, 208, 208
-0.986378, 241, 257, 368, 320
-0.986387, 321, 209, 384, 333
-0.986406, 265, 65, 328, 320
-0.986441, 201, 97, 232, 224
-0.986493, 289, 257, 416, 320
-0.986493, 145, 161, 208, 224
-0.98652, 141, 1, 172, 128
-0.986534, 321, 145, 448, 208
-0.986642, 113, 81, 176, 144
-0.986657, 1, 33, 64, 288
-0.986662, 257, 129, 384, 256
-0.986697, 33, 73, 96, 136
-0.986745, 129, 1, 192, 256
-0.986792, 285, 65, 316, 192
-0.986932, 433, 113, 496, 176
-0.986962, 465, 65, 496, 192
-0.987009, 241, 65, 272, 192
-0.987029, 421, 81, 452, 208
-0.987056, 289, 33, 416, 160
-0.987088, 409, 1, 472, 333
-0.987182, 193, 249, 256, 312
-0.987194, 209, 145, 240, 208
-0.987215, 113, 49, 240, 112
-0.987226, 161, 41, 288, 104
-0.987411, 1, 209, 64, 272
-0.987432, 369, 169, 496, 232
-0.987467, 369, 89, 432, 152
-0.987473, 197, 161, 228, 288
-0.987563, 361, 129, 424, 256
-0.987579, 113, 17, 176, 80
-0.987623, 229, 105, 260, 168
-0.987722, 429, 209, 460, 333
-0.987747, 181, 81, 212, 144
-0.987762, 241, 161, 304, 288
-0.987767, 193, 257, 320, 320
-0.987813, 161, 97, 192, 224
-0.987817, 89, 105, 152, 168
-0.987878, 369, 145, 432, 208
-0.987978, 17, 249, 80, 312
-0.988008, 1, 41, 64, 104
-0.98808, 113, 153, 240, 216
-0.988157, 337, 89, 400, 152
-0.988247, 301, 81, 332, 208
-0.988264, 97, 129, 224, 192
-0.988331, 153, 1, 216, 333
-0.98845, 97, 249, 224, 312
-0.988573, 273, 89, 400, 152
-0.98865, 449, 17, 480, 144
-0.98867, 289, 65, 352, 320
-0.988673, 161, 1, 288, 64
-0.988683, 181, 161, 212, 288
-0.988721, 241, 73, 272, 136
-0.988794, 313, 65, 376, 320
-0.98882, 377, 81, 408, 208
-0.988821, 233, 1, 296, 333
-0.988881, 385, 1, 448, 333
-0.98889, 33, 249, 160, 312
-0.988924, 65, 105, 128, 168
-0.989063, 225, 17, 288, 144
-0.98907, 273, 65, 304, 192
-0.989228, 213, 161, 244, 288
-0.989292, 329, 153, 392, 216
-0.989324, 225, 161, 256, 288
-0.989373, 289, 129, 352, 256
-0.989384, 9, 1, 72, 333
-0.989395, 361, 81, 392, 208
-0.989445, 441, 177, 472, 304
-0.989479, 145, 249, 272, 312
-0.989543, 433, 1, 496, 333
-0.989553, 29, 1, 60, 128
-0.989568, 449, 57, 480, 120
-0.989732, 209, 161, 336, 224
-0.989756, 257, 65, 288, 192
-0.989762, 441, 265, 472, 328
-0.989807, 317, 81, 348, 208
-0.989809, 349, 81, 380, 208
-0.989817, 205, 65, 236, 128
-0.989836, 429, 177, 460, 240
-0.989839, 465, 113, 496, 240
-0.989853, 469, 265, 500, 328
-0.98986, 33, 73, 160, 136
-0.989921, 233, 105, 296, 168
-0.989929, 205, 89, 236, 152
-0.989959, 369, 233, 496, 296
-0.989967, 333, 81, 364, 208
-0.989981, 281, 137, 344, 200
-0.990003, 265, 161, 328, 288
-0.990061, 201, 33, 264, 96
-0.990068, 433, 81, 496, 112
-0.99025, 273, 153, 400, 216
-0.990367, 393, 81, 424, 208
-0.99038, 209, 17, 240, 144
-0.990399, 33, 65, 64, 192
-0.99041, 221, 145, 252, 208
-0.99041, 457, 265, 488, 328
-0.990446, 405, 81, 436, 208
-0.990451, 445, 105, 476, 168
-0.99046, 301, 81, 332, 144
-0.990466, 305, 153, 368, 216
-0.990495, 201, 1, 264, 333
-0.990495, 33, 41, 160, 104
-0.990534, 429, 265, 460, 328
-0.9907, 417, 209, 448, 333
-0.990729, 193, 81, 224, 144
-0.990808, 461, 73, 492, 136
-0.990846, 369, 65, 432, 320
-0.990853, 113, 1, 176, 333
-0.990877, 425, 233, 488, 296
-0.990909, 169, 89, 232, 120
-0.99091, 169, 105, 232, 136
-0.99092, 429, 33, 460, 160
-0.99099, 113, 177, 240, 240
-0.991028, 301, 257, 332, 320
-0.991056, 433, 93, 496, 124
-0.99106, 145, 217, 208, 280
-0.991075, 417, 265, 448, 328
-0.991111, 401, 89, 464, 120
-0.991115, 369, 57, 496, 120
-0.991129, 201, 73, 264, 104
-0.991166, 13, 193, 44, 320
-0.99118, 177, 29, 240, 60
-0.991202, 337, 65, 400, 320
-0.991218, 281, 1, 344, 333
-0.991221, 49, 17, 176, 80
-0.991241, 353, 193, 480, 256
-0.991263, 177, 121, 240, 152
-0.991308, 33, 1, 96, 333
-0.991323, 273, 161, 336, 224
-0.991349, 369, 145, 496, 208
-0.991446, 289, 257, 320, 320
-0.991451, 209, 169, 240, 232
-0.991458, 197, 49, 228, 176
-0.991463, 405, 265, 436, 328
-0.99147, 177, 77, 240, 108
-0.991484, 217, 233, 280, 296
-0.991511, 33, 81, 64, 144
-0.991569, 17, 145, 144, 208
-0.99163, 153, 165, 216, 196
-0.991634, 89, 73, 152, 136
-0.991643, 1, 129, 64, 160
-0.991662, 249, 81, 312, 112
-0.991666, 105, 65, 168, 320
-0.991675, 145, 109, 208, 140
-0.991676, 321, 257, 352, 320
-0.99171, 169, 1, 232, 32
-0.991742, 177, 157, 240, 188
-0.991746, 305, 33, 368, 160
-0.991762, 185, 225, 248, 288
-0.991773, 201, 89, 264, 120
-0.991783, 241, 17, 368, 144
-0.991784, 145, 185, 208, 248
-0.991791, 137, 17, 200, 48
-0.991817, 133, 1, 164, 64
-0.991848, 425, 181, 488, 212
-0.991848, 277, 257, 308, 320
-0.991863, 177, 17, 240, 48
-0.991873, 189, 97, 220, 224
-0.991876, 33, 109, 96, 140
-0.991885, 225, 77, 288, 108
-0.991887, 153, 29, 216, 60
-0.991889, 161, 65, 192, 128
-0.991892, 177, 65, 240, 96
-0.991917, 353, 1, 416, 333
-0.991926, 201, 149, 264, 180
-0.991938, 177, 41, 240, 72
-0.991938, 201, 113, 264, 144
-0.991961, 185, 173, 248, 204
-0.991962, 169, 161, 200, 288
-0.99198, 189, 41, 220, 104
-0.991985, 273, 85, 336, 116
-0.992013, 401, 101, 464, 132
-0.992025, 137, 89, 200, 120
-0.992026, 401, 181, 464, 212
-0.992037, 209, 101, 272, 132
-0.992038, 137, 5, 200, 36
-0.992042, 49, 97, 80, 224
-0.992047, 257, 1, 320, 333
-0.992094, 209, 165, 272, 196
-0.992102, 1, 89, 500, 152
-0.992122, 153, 33, 184, 160
-0.992155, 33, 225, 96, 288
-0.992188, 257, 89, 500, 152
-0.992216, 137, 69, 200, 100
-0.992231, 305, 1, 368, 333
-0.992236, 261, 257, 292, 320
-0.992243, 1, 117, 64, 148
-0.992279, 241, 129, 368, 192
-0.992289, 129, 173, 192, 204
-0.992297, 77, 97, 108, 224
-0.992302, 417, 113, 480, 144
-0.992302, 425, 161, 456, 288
-0.99232, 89, 1, 152, 333
-0.992346, 329, 1, 392, 333
-0.99235, 433, 201, 496, 232
-0.992356, 453, 169, 484, 232
-0.992362, 313, 65, 376, 128
-0.992383, 225, 113, 288, 144
-0.992393, 217, 137, 280, 168
-0.992422, 297, 89, 360, 120
-0.992429, 9, 105, 72, 136
-0.992441, 425, 169, 488, 200
-0.992463, 161, 53, 224, 84
-0.992484, 121, 29, 184, 60
-0.992487, 469, 209, 500, 333
-0.992491, 305, 129, 368, 192
-0.992495, 333, 257, 364, 320
-0.992504, 265, 233, 328, 296
-0.992511, 185, 153, 216, 216
-0.992513, 393, 265, 424, 328
-0.992523, 225, 89, 288, 120
-0.992544, 161, 177, 224, 208
-0.992559, 9, 89, 72, 120
-0.992591, 1, 225, 128, 288
-0.992602, 385, 261, 448, 292
-0.992634, 377, 233, 440, 296
-0.992636, 401, 77, 464, 108
-0.992642, 153, 41, 216, 72
-0.992655, 193, 233, 320, 296
-0.992669, 429, 233, 460, 296
-0.992672, 9, 77, 72, 108
-0.99268, 425, 69, 488, 100
-0.992683, 273, 257, 336, 288
-0.992695, 145, 121, 208, 152
-0.992706, 305, 257, 368, 288
-0.99272, 421, 81, 452, 144
-0.992722, 145, 225, 272, 288
-0.992724, 345, 257, 376, 320
-0.992728, 93, 97, 124, 224
-0.992745, 277, 73, 308, 136
-0.992746, 409, 265, 472, 296
-0.992751, 453, 193, 484, 320
-0.992755, 113, 105, 176, 136
-0.992757, 241, 157, 304, 188
-0.992758, 465, 81, 496, 112
-0.99276, 449, 93, 480, 124
-0.992769, 361, 261, 424, 292
-0.99277, 385, 169, 448, 200
-0.992781, 193, 209, 224, 333
-0.99279, 89, 109, 152, 140
-0.99279, 337, 261, 400, 292
-0.992793, 1, 141, 64, 172
-0.992794, 169, 249, 232, 280
-0.992802, 233, 253, 296, 284
-0.99281, 9, 61, 72, 92
-0.992817, 433, 85, 464, 116
-0.992826, 433, 265, 496, 296
-0.992836, 121, 41, 184, 72
-0.992837, 417, 149, 480, 180
-0.992841, 409, 193, 472, 224
-0.992848, 9, 49, 72, 80
-0.992856, 157, 161, 188, 288
-0.992859, 145, 249, 208, 280
-0.992872, 73, 225, 136, 288
-0.992875, 113, 249, 176, 280
-0.992878, 201, 253, 264, 284
-0.992885, 233, 101, 296, 132
-0.992886, 169, 109, 200, 140
-0.992912, 9, 177, 72, 240
-0.992919, 25, 245, 88, 276
-0.992926, 201, 61, 264, 92
-0.99294, 1, 121, 32, 184
-0.992945, 425, 21, 488, 52
-0.992962, 345, 93, 408, 124
-0.992963, 1, 113, 32, 240
-0.992968, 65, 193, 96, 320
-0.992975, 65, 225, 192, 288
-0.992979, 369, 145, 432, 176
-0.992983, 445, 81, 476, 112
-0.992987, 89, 249, 152, 280
-0.992994, 113, 17, 176, 48
-0.992995, 1, 245, 64, 276
-0.992996, 1, 173, 64, 204
-0.992998, 133, 65, 164, 192
-0.993, 9, 9, 72, 40
-0.993001, 225, 109, 256, 140
-0.993001, 25, 41, 88, 104
-0.99301, 49, 245, 112, 276
-0.993011, 105, 225, 168, 288
-0.993021, 57, 109, 120, 140
-0.993026, 369, 93, 432, 124
-0.993032, 53, 193, 84, 320
-0.993038, 377, 185, 440, 216
-0.993039, 425, 45, 488, 76
-0.993067, 17, 21, 80, 52
-0.993069, 121, 169, 184, 232
-0.993083, 105, 177, 168, 208
-0.993085, 157, 209, 188, 333
-0.993085, 9, 37, 72, 68
-0.993085, 97, 249, 128, 312
-0.993096, 337, 149, 400, 180
-0.993097, 289, 121, 416, 184
-0.993107, 213, 117, 244, 148
-0.993109, 233, 97, 264, 128
-0.993111, 321, 65, 448, 128
-0.993113, 181, 85, 212, 116
-0.993121, 401, 137, 464, 200
-0.993145, 129, 81, 384, 144
-0.993147, 241, 77, 272, 108
-0.993148, 425, 33, 488, 64
-0.993156, 273, 161, 336, 192
-0.993158, 25, 193, 56, 320
-0.993161, 201, 153, 232, 184
-0.993161, 49, 97, 112, 128
-0.993169, 213, 69, 244, 100
-0.99317, 165, 17, 196, 48
-0.993172, 273, 233, 400, 296
-0.993179, 181, 209, 212, 333
-0.993181, 433, 213, 496, 244
-0.993189, 193, 77, 224, 108
-0.993203, 321, 93, 384, 124
-0.993216, 353, 181, 416, 212
-0.99322, 1, 193, 32, 320
-0.99322, 213, 105, 244, 136
-0.993221, 409, 129, 472, 160
-0.993236, 433, 101, 464, 132
-0.993239, 121, 53, 184, 84
-0.993239, 281, 149, 344, 180
-0.993245, 137, 189, 200, 220
-0.993254, 85, 193, 116, 320
-0.993261, 213, 93, 244, 124
-0.993277, 437, 57, 468, 120
-0.993289, 189, 161, 220, 192
-0.993294, 249, 177, 312, 208
-0.993295, 177, 121, 208, 152
-0.993299, 257, 145, 320, 176
-0.993309, 313, 157, 376, 188
-0.993313, 329, 249, 392, 280
-0.993318, 105, 97, 136, 224
-0.99332, 301, 85, 332, 116
-0.993324, 165, 97, 196, 128
-0.993331, 169, 29, 200, 60
-0.993336, 209, 169, 240, 200
-0.993342, 433, 177, 464, 208
-0.993344, 353, 249, 416, 280
-0.993351, 229, 85, 260, 116
-0.993351, 225, 73, 256, 104
-0.993351, 201, 65, 232, 96
-0.993357, 313, 77, 376, 108
-0.993357, 257, 245, 320, 276
-0.99336, 433, 253, 496, 284
-0.993371, 181, 121, 212, 184
-0.993371, 421, 93, 452, 124
-0.993371, 385, 157, 448, 188
-0.993372, 1, 193, 64, 224
-0.993374, 161, 5, 192, 36
-0.993375, 401, 205, 464, 236
-0.993376, 1, 161, 64, 192
-0.993376, 157, 113, 188, 144
-0.993383, 409, 253, 472, 284
-0.993384, 437, 113, 468, 144
-0.993385, 217, 125, 280, 156
-0.993395, 157, 173, 188, 204
-0.993398, 281, 81, 312, 112
-0.9934, 169, 133, 232, 164
-0.993403, 73, 97, 136, 128
-0.993408, 453, 173, 484, 204
-0.993413, 197, 173, 228, 204
-0.993414, 145, 193, 176, 320
-0.993418, 5, 133, 36, 164
-0.993419, 177, 97, 208, 128
-0.99342, 221, 209, 252, 333
-0.993429, 41, 105, 72, 136
-0.993432, 213, 149, 244, 180
-0.993435, 157, 85, 188, 116
-0.993436, 229, 121, 260, 152
-0.993436, 469, 185, 500, 216
-0.993442, 417, 33, 448, 160
-0.993444, 317, 89, 348, 152
-0.993444, 65, 97, 96, 224
-0.993445, 41, 173, 104, 204
-0.993447, 241, 233, 304, 296
-0.993451, 449, 105, 480, 136
-0.993451, 173, 165, 204, 196
-0.993452, 425, 57, 488, 88
-0.993454, 465, 177, 496, 240
-0.993455, 461, 93, 492, 124
-0.993458, 321, 93, 352, 124
-0.993459, 213, 81, 244, 112
-0.993461, 449, 69, 480, 100
-0.993469, 193, 105, 224, 136
-0.993469, 185, 29, 216, 60
-0.993469, 221, 169, 252, 200
-0.993474, 449, 193, 480, 224
-0.993475, 261, 77, 292, 108
-0.993477, 201, 241, 264, 272
-0.99348, 129, 129, 192, 192
-0.993488, 245, 93, 276, 124
-0.993491, 185, 177, 216, 208
-0.993497, 197, 1, 228, 128
-0.993501, 17, 177, 144, 240
-0.993502, 273, 73, 336, 104
-0.993503, 297, 245, 360, 276
-0.993505, 145, 105, 176, 136
-0.993507, 165, 125, 196, 156
-0.993511, 225, 65, 288, 96
-0.993515, 433, 73, 464, 104
-0.993516, 81, 237, 144, 268
-0.993516, 441, 265, 472, 296
-0.993516, 145, 81, 176, 208
-0.993516, 321, 225, 448, 288
-0.993518, 377, 249, 440, 280
-0.993529, 417, 261, 448, 292
-0.993533, 109, 249, 140, 312
-0.993534, 453, 265, 484, 296
-0.993536, 169, 41, 200, 72
-0.993539, 309, 257, 340, 288
-0.99354, 133, 9, 164, 40
-0.993545, 333, 257, 364, 288
-0.993546, 161, 249, 192, 280
-0.993546, 469, 265, 500, 296
-0.993547, 389, 261, 420, 292
-0.993547, 361, 261, 392, 292
-0.993547, 265, 253, 296, 284
-0.993552, 193, 89, 224, 120
-0.993553, 297, 257, 328, 288
-0.993556, 237, 253, 268, 284
-0.993556, 73, 109, 104, 140
-0.993561, 9, 121, 40, 152
-0.993561, 237, 109, 268, 140
-0.993562, 393, 89, 424, 120
-0.993563, 405, 261, 436, 292
-0.993563, 433, 189, 464, 220
-0.993567, 449, 117, 480, 148
-0.993569, 213, 137, 244, 168
-0.993572, 377, 261, 408, 292
-0.993573, 429, 265, 460, 296
-0.993575, 89, 109, 120, 140
-0.993575, 189, 249, 220, 280
-0.993576, 173, 249, 204, 280
-0.993576, 177, 249, 208, 312
-0.993579, 349, 261, 380, 292
-0.993579, 469, 157, 500, 188
-0.993583, 161, 73, 192, 104
-0.993583, 249, 253, 280, 284
-0.993586, 321, 257, 352, 288
-0.993588, 361, 257, 392, 320
-0.993589, 285, 257, 316, 288
-0.993591, 249, 17, 312, 144
-0.993591, 37, 245, 68, 276
-0.993592, 49, 245, 80, 276
-0.993595, 229, 133, 260, 164
-0.993596, 465, 205, 496, 236
-0.993597, 141, 249, 172, 280
-0.993598, 125, 249, 156, 280
-0.9936, 17, 245, 48, 276
-0.9936, 53, 109, 84, 140
-0.993606, 161, 185, 192, 216
-0.993609, 209, 253, 240, 284
-0.99361, 233, 165, 264, 196
-0.993611, 145, 173, 176, 204
-0.993613, 225, 253, 256, 284
-0.993615, 181, 73, 212, 104
-0.993617, 233, 129, 264, 192
-0.993625, 77, 245, 108, 276
-0.993626, 445, 161, 476, 192
-0.993626, 149, 1, 180, 32
-0.993627, 117, 209, 148, 333
-0.993629, 181, 109, 212, 140
-0.993631, 353, 93, 384, 124
-0.993632, 61, 245, 92, 276
-0.993632, 133, 177, 164, 208
-0.993635, 5, 245, 36, 276
-0.993636, 181, 1, 212, 32
-0.993638, 109, 249, 140, 280
-0.993641, 265, 145, 296, 176
-0.993641, 129, 249, 160, 312
-0.993643, 189, 121, 220, 152
-0.993644, 341, 93, 372, 124
-0.993648, 101, 109, 132, 140
-0.99365, 89, 245, 120, 276
-0.993653, 465, 121, 496, 152
-0.993659, 365, 93, 396, 124
-0.99366, 225, 153, 256, 184
-0.993671, 37, 5, 68, 36
-0.993672, 381, 93, 412, 124
-0.993674, 421, 173, 452, 204
-0.993677, 245, 161, 276, 192
-0.993682, 449, 21, 480, 52
-0.993685, 417, 161, 448, 192
-0.993711, 377, 257, 408, 320
-0.993719, 261, 73, 292, 136
-0.993722, 289, 81, 320, 144
-0.993736, 221, 17, 252, 144
-0.993747, 313, 233, 376, 296
-0.993754, 1, 81, 256, 144
-0.993763, 45, 49, 76, 176
-0.993767, 141, 81, 172, 144
-0.993808, 57, 1, 120, 333
-0.99383, 377, 169, 440, 232
-0.993847, 169, 209, 200, 333
-0.993889, 77, 249, 108, 312
-0.993906, 461, 97, 492, 160
-0.993932, 289, 233, 352, 296
-0.993933, 305, 209, 336, 333
-0.993946, 105, 209, 136, 333
-0.993962, 189, 249, 220, 312
-0.993997, 249, 257, 280, 320
-0.994009, 377, 121, 440, 184
-0.994022, 337, 233, 400, 296
-0.994032, 133, 177, 164, 304
-0.994066, 29, 113, 60, 240
-0.994088, 141, 249, 172, 312
-0.994098, 233, 49, 296, 112
-0.994102, 345, 129, 408, 192
-0.994106, 165, 49, 196, 176
-0.994108, 57, 81, 120, 144
-0.994121, 209, 209, 240, 333
-0.99416, 437, 129, 468, 256
-0.994167, 37, 1, 68, 64
-0.994191, 161, 153, 416, 216
-0.994199, 273, 65, 400, 128
-0.99422, 209, 49, 336, 112
-0.994229, 77, 105, 108, 168
-0.99423, 121, 161, 152, 288
-0.994262, 237, 161, 268, 288
-0.994286, 317, 209, 348, 333
-0.994287, 165, 249, 196, 312
-0.994387, 41, 193, 72, 320
-0.994459, 161, 169, 192, 232
-0.994469, 173, 33, 204, 96
-0.994493, 205, 33, 236, 96
-0.994519, 433, 113, 464, 176
-0.994529, 449, 145, 480, 208
-0.994545, 121, 97, 152, 224
-0.994559, 5, 217, 36, 280
-0.994559, 257, 121, 320, 184
-0.994564, 45, 73, 76, 136
-0.994624, 1, 105, 256, 168
-0.994662, 65, 249, 96, 312
-0.994664, 49, 105, 80, 168
-0.994672, 201, 249, 232, 312
-0.994679, 157, 105, 188, 168
-0.994712, 225, 169, 256, 232
-0.99472, 377, 209, 408, 333
-0.994743, 233, 209, 264, 333
-0.994775, 253, 209, 284, 333
-0.994782, 153, 249, 184, 312
-0.994803, 449, 193, 480, 256
-0.99481, 161, 185, 288, 248
-0.994834, 281, 113, 344, 176
-0.994894, 1, 57, 256, 120
-0.994903, 269, 209, 300, 333
-0.994908, 201, 113, 232, 176
-0.994925, 49, 113, 176, 176
-0.994942, 37, 105, 68, 168
-0.994965, 25, 129, 88, 192
-0.994973, 193, 257, 448, 320
-0.994983, 33, 1, 96, 64
-0.995014, 461, 17, 492, 144
-0.995033, 49, 249, 80, 312
-0.995038, 389, 209, 420, 333
-0.995056, 321, 169, 448, 232
-0.995079, 173, 161, 204, 224
-0.995081, 129, 1, 160, 128
-0.995096, 289, 209, 320, 333
-0.995117, 345, 209, 376, 333
-0.995123, 369, 17, 496, 80
-0.995139, 165, 129, 196, 192
-0.995174, 65, 169, 192, 232
-0.995192, 13, 33, 44, 160
-0.995194, 65, 49, 128, 176
-0.99522, 233, 257, 264, 320
-0.99529, 405, 209, 436, 333
-0.995333, 377, 193, 440, 256
-0.995358, 37, 249, 68, 312
-0.995395, 225, 49, 256, 112
-0.995412, 189, 1, 220, 64
-0.995414, 213, 249, 244, 312
-0.995422, 257, 97, 320, 160
-0.995437, 193, 177, 224, 240
-0.995456, 177, 73, 304, 104
-0.995464, 449, 17, 480, 80
-0.995483, 333, 209, 364, 333
-0.995487, 121, 49, 152, 176
-0.995512, 33, 1, 288, 64
-0.995523, 1, 1, 128, 64
-0.995596, 365, 209, 396, 333
-0.995604, 281, 57, 344, 120
-0.995638, 17, 217, 48, 280
-0.995651, 417, 233, 448, 296
-0.995657, 129, 81, 160, 144
-0.995661, 241, 97, 272, 160
-0.995684, 261, 153, 292, 216
-0.995696, 33, 33, 288, 96
-0.995724, 443, 81, 458, 144
-0.995758, 409, 153, 440, 216
-0.995775, 21, 81, 52, 144
-0.995779, 33, 145, 96, 272
-0.995871, 101, 161, 132, 288
-0.995875, 353, 89, 480, 120
-0.995879, 161, 85, 288, 116
-0.995899, 89, 105, 120, 168
-0.995914, 281, 153, 312, 216
-0.995917, 33, 249, 288, 312
-0.995925, 209, 17, 336, 80
-0.99593, 145, 17, 176, 80
-0.995948, 1, 153, 256, 216
-0.995961, 329, 89, 360, 152
-0.995983, 257, 57, 500, 120
-0.996, 13, 241, 44, 304
-0.996006, 1, 113, 500, 176
-0.996008, 281, 113, 312, 240
-0.99603, 401, 41, 464, 104
-0.996033, 1, 65, 500, 128
-0.996039, 453, 81, 468, 144
-0.996043, 373, 129, 404, 256
-0.996068, 113, 41, 176, 104
-0.996072, 401, 17, 464, 80
-0.996085, 97, 129, 352, 192
-0.996095, 145, 97, 272, 128
-0.99611, 421, 57, 452, 120
-0.996114, 257, 153, 500, 216
-0.996139, 25, 241, 56, 304
-0.99616, 245, 153, 276, 216
-0.996195, 113, 33, 240, 64
-0.996208, 341, 89, 372, 152
-0.996238, 1, 257, 500, 320
-0.99624, 161, 105, 416, 168
-0.996258, 41, 1, 72, 128
-0.996268, 369, 89, 400, 152
-0.996268, 401, 89, 432, 152
-0.996282, 465, 121, 496, 184
-0.996294, 161, 113, 288, 144
-0.996314, 201, 1, 232, 64
-0.996329, 241, 113, 272, 240
-0.996346, 269, 113, 300, 240
-0.996403, 177, 97, 192, 160
-0.996459, 1, 177, 256, 240
-0.996461, 81, 105, 208, 136
-0.996479, 1, 241, 32, 304
-0.996488, 65, 105, 96, 168
-0.996514, 389, 89, 420, 152
-0.996539, 257, 113, 288, 240
-0.996539, 177, 57, 208, 120
-0.99655, 209, 9, 272, 72
-0.996554, 25, 153, 88, 216
-0.996562, 243, 65, 258, 128
-0.996583, 231, 97, 246, 160
-0.996612, 273, 17, 336, 144
-0.996614, 225, 81, 352, 112
-0.996649, 1, 129, 256, 192
-0.996672, 225, 113, 240, 176
-0.9967, 113, 21, 240, 52
-0.996701, 129, 57, 384, 120
-0.996703, 145, 105, 176, 168
-0.996729, 361, 129, 392, 256
-0.996756, 217, 65, 232, 128
-0.996782, 49, 41, 112, 104
-0.996786, 89, 41, 152, 104
-0.996797, 101, 105, 132, 168
-0.996797, 459, 89, 474, 152
-0.996798, 113, 5, 240, 36
-0.996808, 361, 33, 424, 160
-0.99683, 183, 89, 198, 152
-0.996831, 161, 169, 288, 200
-0.996834, 211, 153, 226, 216
-0.996846, 1, 145, 500, 208
-0.996901, 113, 65, 240, 96
-0.996925, 89, 153, 152, 216
-0.996933, 353, 89, 384, 152
-0.996963, 17, 201, 144, 264
-0.996963, 1, 109, 128, 140
-0.996967, 437, 81, 452, 144
-0.996972, 225, 73, 240, 136
-0.997013, 249, 73, 264, 136
-0.997023, 97, 177, 352, 240
-0.997026, 293, 137, 324, 200
-0.997039, 433, 1, 464, 64
-0.997043, 57, 33, 88, 160
-0.997069, 447, 105, 462, 168
-0.997075, 413, 129, 444, 256
-0.997093, 145, 273, 272, 333
-0.997096, 353, 101, 480, 132
-0.997107, 13, 81, 44, 208
-0.997115, 413, 129, 444, 192
-0.997162, 483, 265, 498, 328
-0.997166, 203, 153, 218, 216
-0.997168, 113, 157, 240, 188
-0.997169, 225, 129, 480, 192
-0.997179, 249, 161, 280, 288
-0.997196, 477, 265, 492, 328
-0.997202, 221, 145, 236, 208
-0.997217, 455, 265, 470, 328
-0.997217, 461, 265, 476, 328
-0.997223, 13, 41, 44, 104
-0.99723, 341, 153, 372, 216
-0.997236, 237, 73, 252, 136
-0.997244, 465, 73, 480, 136
-0.997246, 377, 65, 440, 128
-0.997247, 471, 265, 486, 328
-0.997279, 219, 113, 234, 176
-0.997284, 447, 265, 462, 328
-0.99729, 441, 265, 456, 328
-0.997302, 441, 233, 472, 296
-0.997307, 129, 125, 256, 156
-0.997318, 193, 145, 320, 176
-0.997319, 217, 33, 248, 288
-0.997324, 209, 81, 224, 144
-0.997341, 465, 153, 496, 216
-0.997341, 313, 257, 328, 320
-0.997345, 435, 265, 450, 328
-0.997369, 353, 181, 480, 212
-0.997384, 429, 265, 444, 328
-0.997386, 285, 161, 316, 288
-0.997387, 307, 257, 322, 320
-0.997388, 113, 177, 240, 208
-0.997391, 429, 65, 460, 320
-0.997405, 219, 89, 234, 152
-0.997407, 9, 97, 40, 160
-0.997414, 319, 257, 334, 320
-0.99743, 301, 257, 316, 320
-0.99743, 423, 265, 438, 328
-0.99743, 197, 153, 212, 216
-0.997432, 345, 65, 408, 128
-0.997455, 231, 121, 246, 184
-0.997467, 3, 137, 18, 200
-0.997482, 265, 161, 296, 288
-0.997489, 353, 169, 480, 200
-0.997491, 417, 265, 432, 328
-0.997491, 231, 73, 246, 136
-0.997498, 193, 157, 320, 188
-0.99751, 369, 113, 496, 144
-0.997524, 177, 185, 208, 248
-0.997538, 161, 17, 288, 48
-0.997545, 337, 261, 464, 292
-0.997546, 41, 81, 56, 144
-0.997563, 295, 257, 310, 320
-0.997582, 283, 257, 298, 320
-0.997586, 113, 45, 240, 76
-0.99759, 257, 257, 384, 288
-0.997603, 289, 257, 304, 320
-0.997606, 327, 257, 342, 320
-0.997623, 237, 97, 252, 160
-0.997628, 161, 1, 288, 32
-0.997639, 113, 77, 240, 108
-0.997644, 81, 117, 208, 148
-0.997645, 243, 89, 258, 152
-0.997649, 241, 17, 272, 144
-0.997652, 337, 33, 400, 160
-0.997654, 335, 257, 350, 320
-0.997655, 81, 93, 208, 124
-0.997655, 277, 257, 292, 320
-0.997655, 171, 105, 186, 168
-0.997656, 1, 169, 500, 232
-0.997659, 321, 153, 448, 184
-0.997661, 411, 265, 426, 328
-0.997667, 289, 93, 416, 124
-0.997686, 233, 33, 264, 288
-0.99769, 341, 257, 356, 320
-0.997691, 453, 113, 468, 176
-0.997693, 441, 33, 472, 288
-0.9977, 181, 17, 196, 80
-0.997709, 65, 225, 320, 288
-0.997722, 431, 89, 446, 152
-0.99773, 361, 257, 376, 320
-0.997744, 453, 57, 468, 120
-0.997748, 471, 73, 486, 136
-0.997752, 205, 65, 236, 320
-0.997758, 315, 81, 330, 144
-0.997766, 351, 257, 366, 320
-0.997767, 435, 233, 450, 296
-0.997767, 271, 257, 286, 320
-0.997789, 321, 89, 336, 152
-0.997798, 107, 249, 122, 312
-0.997803, 193, 253, 320, 284
-0.997807, 405, 265, 420, 328
-0.997807, 209, 101, 336, 132
-0.997821, 177, 29, 304, 60
-0.997828, 47, 81, 62, 144
-0.997839, 215, 41, 230, 104
-0.997842, 301, 129, 332, 256
-0.997842, 367, 257, 382, 320
-0.997855, 369, 77, 496, 108
-0.997862, 35, 81, 50, 144
-0.997864, 101, 249, 116, 312
-0.997867, 115, 249, 130, 312
-0.997873, 125, 249, 140, 312
-0.997886, 1, 121, 128, 152
-0.997903, 129, 1, 384, 64
-0.997903, 189, 249, 204, 312
-0.997906, 177, 61, 304, 92
-0.997916, 227, 145, 242, 208
-0.997919, 175, 9, 190, 72
-0.997919, 265, 257, 280, 320
-0.997936, 189, 81, 204, 144
-0.99794, 131, 249, 146, 312
-0.997944, 87, 249, 102, 312
-0.997945, 381, 257, 396, 320
-0.997955, 349, 129, 380, 256
-0.997957, 143, 81, 158, 144
-0.997965, 399, 265, 414, 328
-0.997968, 445, 85, 460, 116
-0.997979, 197, 249, 212, 312
-0.997981, 221, 169, 236, 232
-0.997983, 281, 73, 296, 136
-0.997991, 375, 257, 390, 320
-0.997998, 289, 73, 304, 136
-0.997998, 429, 233, 444, 296
-0.997999, 447, 57, 462, 120
-0.998016, 151, 249, 166, 312
-0.998018, 183, 249, 198, 312
-0.998023, 95, 249, 110, 312
-0.998028, 473, 81, 488, 112
-0.998034, 141, 249, 156, 312
-0.998038, 85, 105, 100, 168
-0.998044, 77, 249, 92, 312
-0.998046, 175, 249, 190, 312
-0.998047, 227, 109, 242, 140
-0.998052, 451, 97, 466, 128
-0.998055, 185, 113, 200, 176
-0.998062, 435, 169, 450, 232
-0.998062, 67, 249, 82, 312
-0.998066, 387, 257, 402, 320
-0.998069, 181, 33, 212, 288
-0.998073, 241, 157, 368, 188
-0.998073, 97, 249, 224, 280
-0.998075, 237, 129, 252, 192
-0.99808, 191, 153, 206, 216
-0.998081, 139, 1, 154, 64
-0.998089, 157, 249, 172, 312
-0.998097, 225, 233, 480, 296
-0.998098, 177, 41, 304, 72
-0.998099, 465, 97, 480, 160
-0.998105, 477, 185, 492, 248
-0.998111, 393, 265, 408, 328
-0.998111, 155, 81, 170, 144
-0.998113, 441, 233, 456, 296
-0.998118, 227, 169, 242, 232
-0.998121, 1, 245, 128, 276
-0.998123, 441, 177, 456, 240
-0.998133, 145, 249, 272, 280
-0.998134, 129, 25, 384, 88
-0.99815, 485, 185, 500, 248
-0.998153, 17, 177, 144, 208
-0.998156, 451, 85, 466, 116
-0.998159, 467, 81, 482, 112
-0.998161, 459, 113, 474, 176
-0.998166, 251, 257, 266, 320
-0.998166, 17, 217, 32, 280
-0.998168, 331, 89, 346, 152
-0.99817, 33, 29, 160, 60
-0.998172, 439, 89, 454, 120
-0.998176, 49, 249, 176, 280
-0.998177, 255, 73, 270, 136
-0.998178, 93, 105, 108, 168
-0.99818, 389, 129, 420, 256
-0.99818, 169, 249, 184, 312
-0.998183, 423, 89, 438, 152
-0.998186, 209, 249, 224, 312
-0.998199, 299, 81, 314, 144
-0.998202, 61, 249, 76, 312
-0.998202, 257, 257, 272, 320
-0.998203, 479, 81, 494, 112
-0.998204, 233, 153, 248, 216
-0.99821, 163, 249, 178, 312
-0.998218, 137, 81, 152, 144
-0.99822, 245, 257, 260, 320
-0.998223, 471, 177, 486, 240
-0.998226, 213, 113, 228, 176
-0.998227, 453, 1, 484, 256
-0.99823, 457, 81, 472, 112
-0.998236, 245, 161, 276, 176
-0.998237, 193, 253, 224, 268
-0.998238, 173, 117, 204, 132
-0.998238, 237, 255, 268, 270
-0.998238, 465, 79, 496, 94
-0.998238, 209, 127, 240, 142
-0.998239, 161, 181, 288, 212
-0.99824, 337, 261, 368, 276
-0.99824, 93, 113, 124, 128
-0.99824, 469, 161, 500, 176
-0.99824, 181, 105, 212, 120
-0.998241, 437, 97, 468, 112
-0.998241, 361, 261, 392, 276
-0.998241, 469, 199, 500, 214
-0.998242, 357, 95, 388, 110
-0.998242, 305, 185, 336, 200
-0.998242, 297, 259, 328, 274
-0.998242, 253, 255, 284, 270
-0.998243, 273, 257, 304, 272
-0.998244, 225, 169, 256, 184
-0.998244, 141, 109, 172, 124
-0.998245, 409, 263, 440, 278
-0.998245, 449, 265, 480, 280
-0.998245, 369, 149, 400, 164
-0.998245, 325, 259, 356, 274
-0.998245, 317, 185, 348, 200
-0.998246, 397, 263, 428, 278
-0.998246, 409, 185, 440, 200
-0.998246, 397, 93, 428, 108
-0.998246, 169, 47, 200, 62
-0.998246, 225, 141, 256, 156
-0.998247, 421, 85, 452, 100
-0.998248, 181, 251, 212, 266
-0.998248, 1, 93, 128, 124
-0.998249, 161, 129, 192, 144
-0.998249, 65, 111, 96, 126
-0.998249, 9, 125, 40, 140
-0.998249, 229, 135, 260, 150
-0.99825, 85, 65, 116, 320
-0.99825, 449, 175, 480, 190
-0.99825, 449, 195, 480, 210
-0.998251, 185, 37, 216, 52
-0.998251, 253, 99, 284, 114
-0.998251, 285, 257, 316, 272
-0.998252, 177, 183, 208, 198
-0.998252, 205, 81, 236, 96
-0.998253, 449, 121, 480, 136
-0.998253, 5, 139, 36, 154
-0.998253, 373, 263, 404, 278
-0.998253, 181, 81, 212, 96
-0.998254, 465, 193, 496, 208
-0.998254, 437, 265, 468, 280
-0.998254, 385, 263, 416, 278
-0.998254, 157, 9, 188, 24
-0.998256, 225, 89, 256, 104
-0.998256, 161, 187, 192, 202
-0.998256, 461, 267, 492, 282
-0.998256, 261, 79, 292, 94
-0.998256, 49, 273, 176, 333
-0.998257, 325, 95, 356, 110
-0.998258, 433, 189, 464, 204
-0.998258, 313, 259, 344, 274
-0.998258, 349, 261, 380, 276
-0.998259, 161, 83, 192, 98
-0.99826, 53, 109, 84, 124
-0.998261, 265, 157, 296, 172
-0.998261, 417, 191, 448, 206
-0.998262, 277, 81, 308, 96
-0.998263, 213, 175, 244, 190
-0.998264, 33, 65, 160, 96
-0.998264, 425, 265, 456, 280
-0.998264, 193, 85, 224, 100
-0.998264, 193, 73, 224, 88
-0.998266, 197, 119, 228, 134
-0.998268, 453, 181, 484, 196
-0.998268, 161, 123, 192, 138
-0.998271, 241, 83, 272, 98
-0.998271, 229, 129, 260, 144
-0.998272, 453, 77, 484, 92
-0.998275, 425, 177, 456, 192
-0.998276, 161, 15, 192, 30
-0.998276, 133, 113, 164, 240
-0.998281, 189, 161, 220, 176
-0.998283, 449, 113, 480, 128
-0.998284, 449, 201, 480, 216
-0.998284, 213, 99, 244, 114
-0.998284, 189, 181, 220, 196
-0.998285, 165, 21, 196, 36
-0.998285, 213, 91, 244, 106
-0.998285, 169, 111, 200, 126
-0.998286, 209, 169, 336, 200
-0.998288, 5, 133, 36, 148
-0.99829, 177, 129, 208, 144
-0.99829, 41, 107, 72, 122
-0.99829, 161, 97, 192, 112
-0.998291, 185, 31, 216, 46
-0.998294, 437, 117, 468, 132
-0.998295, 169, 41, 200, 56
-0.998295, 433, 111, 464, 126
-0.998296, 429, 103, 460, 118
-0.998298, 313, 91, 344, 106
-0.998299, 213, 149, 244, 164
-0.998301, 289, 83, 320, 98
-0.998302, 241, 89, 272, 104
-0.998303, 169, 29, 200, 44
-0.998308, 213, 105, 244, 120
-0.998308, 209, 75, 240, 90
-0.998312, 233, 109, 264, 124
-0.998313, 181, 93, 212, 108
-0.998314, 249, 77, 280, 92
-0.998315, 161, 117, 192, 132
-0.998317, 33, 41, 160, 72
-0.998318, 177, 99, 208, 114
-0.998321, 201, 177, 232, 192
-0.998321, 65, 65, 96, 320
-0.998325, 353, 193, 480, 224
-0.998326, 257, 177, 500, 240
-0.998326, 429, 183, 460, 198
-0.998327, 181, 87, 212, 102
-0.998327, 449, 103, 480, 118
-0.998329, 229, 75, 260, 90
-0.998329, 225, 121, 256, 136
-0.99833, 185, 123, 216, 138
-0.99833, 169, 35, 200, 50
-0.998334, 305, 193, 432, 256
-0.998337, 301, 87, 332, 102
-0.998338, 337, 129, 368, 256
-0.998343, 233, 103, 264, 118
-0.998347, 485, 81, 500, 112
-0.998348, 201, 155, 232, 170
-0.998356, 169, 105, 200, 120
-0.998357, 265, 33, 296, 288
-0.998359, 461, 93, 492, 108
-0.99836, 205, 69, 236, 84
-0.998373, 453, 83, 484, 98
-0.998374, 225, 115, 256, 130
-0.998374, 233, 95, 264, 110
-0.998374, 429, 91, 460, 106
-0.998379, 213, 121, 244, 136
-0.998379, 213, 111, 244, 126
-0.998382, 101, 65, 132, 320
-0.998383, 193, 79, 224, 94
-0.998384, 33, 53, 160, 84
-0.998385, 173, 123, 204, 138
-0.998402, 247, 77, 262, 108
-0.998408, 449, 97, 480, 112
-0.99841, 245, 33, 276, 288
-0.99841, 17, 149, 144, 180
-0.998414, 469, 85, 500, 100
-0.998428, 97, 273, 224, 333
-0.99843, 241, 73, 256, 104
-0.998445, 441, 87, 472, 102
-0.998455, 313, 161, 344, 288
-0.998458, 17, 165, 144, 196
-0.998463, 457, 93, 472, 124
-0.998463, 217, 69, 232, 100
-0.998464, 177, 101, 192, 132
-0.998476, 187, 121, 202, 152
-0.998479, 165, 113, 180, 144
-0.998484, 185, 109, 200, 140
-0.998491, 183, 85, 198, 116
-0.998496, 309, 33, 340, 160
-0.998508, 65, 173, 192, 204
-0.998514, 177, 273, 240, 333
-0.998514, 289, 73, 416, 104
-0.998519, 235, 101, 250, 132
-0.998527, 445, 101, 460, 132
-0.998527, 233, 113, 248, 144
-0.998534, 193, 65, 224, 320
-0.998539, 169, 1, 200, 256
-0.998544, 353, 141, 480, 172
-0.998553, 207, 153, 222, 184
-0.998562, 417, 33, 448, 288
-0.998562, 25, 201, 88, 264
-0.998567, 433, 85, 496, 100
-0.99857, 53, 65, 84, 320
-0.998583, 293, 65, 324, 320
-0.998584, 225, 121, 240, 152
-0.998585, 409, 89, 472, 104
-0.998589, 177, 33, 240, 48
-0.998589, 169, 105, 232, 120
-0.998592, 321, 249, 448, 280
-0.998597, 209, 113, 336, 144
-0.998602, 185, 121, 248, 136
-0.998604, 205, 77, 220, 108
-0.998606, 177, 39, 240, 54
-0.998609, 169, 91, 232, 106
-0.998615, 277, 33, 308, 288
-0.998616, 233, 89, 248, 120
-0.998621, 177, 85, 240, 100
-0.998624, 171, 109, 186, 140
-0.998629, 433, 95, 496, 110
-0.998632, 169, 7, 232, 22
-0.998632, 177, 27, 240, 42
-0.998632, 305, 181, 432, 212
-0.998633, 209, 117, 272, 132
-0.998633, 221, 109, 236, 140
-0.998634, 185, 115, 248, 130
-0.998642, 465, 161, 496, 288
-0.998643, 241, 181, 368, 212
-0.998644, 1, 131, 64, 146
-0.998646, 193, 73, 256, 88
-0.99865, 177, 127, 240, 142
-0.998652, 425, 185, 488, 200
-0.998652, 169, 99, 232, 114
-0.998656, 113, 65, 144, 320
-0.998657, 153, 31, 216, 46
-0.998658, 201, 153, 264, 168
-0.998658, 33, 109, 96, 124
-0.998658, 201, 157, 216, 188
-0.998659, 401, 185, 464, 200
-0.998659, 273, 85, 336, 100
-0.998661, 177, 67, 240, 82
-0.998661, 185, 177, 248, 192
-0.998662, 129, 9, 192, 24
-0.998664, 1, 137, 64, 152
-0.998664, 233, 79, 296, 94
-0.998664, 201, 91, 264, 106
-0.998666, 177, 45, 240, 60
-0.998668, 145, 37, 208, 52
-0.998668, 129, 107, 192, 122
-0.998668, 177, 21, 240, 36
-0.99867, 209, 111, 272, 126
-0.99867, 433, 101, 496, 116
-0.99867, 243, 89, 258, 120
-0.998671, 185, 79, 248, 94
-0.998671, 169, 13, 232, 28
-0.998674, 137, 15, 200, 30
-0.998674, 145, 25, 208, 40
-0.998676, 211, 65, 226, 96
-0.998676, 401, 111, 464, 126
-0.998676, 225, 99, 288, 114
-0.998676, 145, 121, 208, 136
-0.998676, 169, 167, 232, 182
-0.998676, 169, 1, 232, 16
-0.998677, 49, 17, 176, 48
-0.998677, 401, 95, 464, 110
-0.998678, 137, 101, 200, 116
-0.99868, 417, 193, 480, 208
-0.998681, 401, 103, 464, 118
-0.998681, 1, 121, 64, 136
-0.998683, 417, 179, 480, 194
-0.998686, 193, 159, 256, 174
-0.998687, 417, 203, 480, 218
-0.99869, 161, 79, 224, 94
-0.99869, 465, 65, 496, 320
-0.998692, 193, 101, 256, 116
-0.998692, 121, 35, 184, 50
-0.998693, 153, 175, 216, 190
-0.998693, 9, 107, 72, 122
-0.998693, 137, 77, 200, 92
-0.998695, 153, 69, 216, 84
-0.998695, 161, 111, 224, 126
-0.998697, 333, 65, 364, 320
-0.998697, 433, 107, 496, 122
-0.998697, 201, 85, 264, 100
-0.998697, 1, 143, 64, 158
-0.998698, 193, 133, 320, 164
-0.998698, 281, 91, 344, 106
-0.998699, 169, 155, 232, 170
-0.9987, 417, 119, 480, 134
-0.9987, 129, 3, 192, 18
-0.998701, 129, 177, 192, 192
-0.998701, 137, 87, 200, 102
-0.998702, 231, 129, 246, 160
-0.998703, 425, 173, 488, 188
-0.998703, 377, 185, 440, 200
-0.998703, 145, 43, 208, 58
-0.998705, 121, 29, 184, 44
-0.998706, 9, 69, 72, 84
-0.998706, 121, 41, 184, 56
-0.998706, 217, 147, 280, 162
-0.998706, 257, 245, 384, 276
-0.998708, 241, 159, 304, 174
-0.998708, 401, 265, 464, 280
-0.99871, 329, 261, 392, 276
-0.99871, 213, 153, 228, 184
-0.99871, 385, 191, 448, 206
-0.998711, 161, 61, 224, 76
-0.998712, 361, 149, 424, 164
-0.998712, 153, 183, 216, 198
-0.998713, 289, 259, 352, 274
-0.998713, 177, 51, 240, 66
-0.998714, 349, 65, 380, 320
-0.998715, 257, 257, 320, 272
-0.998715, 361, 93, 424, 108
-0.998715, 417, 167, 480, 182
-0.998717, 233, 93, 296, 108
-0.998717, 361, 263, 424, 278
-0.998717, 433, 267, 496, 282
-0.998718, 433, 209, 496, 224
-0.99872, 425, 79, 488, 94
-0.998721, 121, 47, 184, 62
-0.998721, 9, 81, 72, 96
-0.998721, 201, 67, 264, 82
-0.998721, 9, 63, 72, 78
-0.998722, 9, 53, 72, 68
-0.998722, 9, 75, 72, 90
-0.998722, 233, 255, 296, 270
-0.998722, 217, 105, 280, 120
-0.998722, 177, 183, 240, 198
-0.998722, 257, 79, 320, 94
-0.998724, 1, 171, 64, 186
-0.998726, 1, 115, 64, 130
-0.998726, 201, 171, 264, 186
-0.998726, 321, 97, 384, 112
-0.998726, 321, 87, 384, 102
-0.998726, 217, 73, 280, 88
-0.998727, 145, 93, 208, 108
-0.998727, 121, 23, 184, 38
-0.998727, 169, 251, 232, 266
-0.998728, 153, 127, 216, 142
-0.998729, 209, 123, 272, 138
-0.99873, 217, 135, 280, 150
-0.99873, 129, 189, 192, 204
-0.99873, 73, 113, 136, 128
-0.998732, 137, 251, 200, 266
-0.998732, 425, 47, 488, 62
-0.998732, 9, 181, 72, 196
-0.998733, 313, 183, 376, 198
-0.998733, 319, 89, 334, 120
-0.998734, 433, 113, 496, 128
-0.998734, 9, 45, 72, 60
-0.998734, 113, 183, 176, 198
-0.998734, 289, 185, 352, 200
-0.998735, 305, 65, 336, 320
-0.998735, 105, 109, 168, 124
-0.998735, 425, 53, 488, 68
-0.998735, 153, 189, 216, 204
-0.998736, 121, 53, 184, 68
-0.998737, 385, 85, 448, 100
-0.998738, 305, 141, 432, 172
-0.998754, 241, 145, 368, 176
-0.998783, 193, 241, 320, 272
-0.998791, 177, 89, 192, 120
-0.998793, 129, 145, 256, 176
-0.998797, 297, 81, 312, 112
-0.998807, 5, 133, 20, 164
-0.998809, 1, 273, 128, 333
-0.99881, 209, 185, 336, 248
-0.998825, 1, 133, 128, 164
-0.998825, 179, 121, 194, 152
-0.998843, 253, 77, 268, 108
-0.998852, 463, 93, 478, 124
-0.998858, 207, 169, 222, 200
-0.998876, 233, 73, 248, 104
-0.998878, 257, 177, 384, 240
-0.998878, 257, 49, 320, 112
-0.998878, 401, 129, 432, 256
-0.998886, 455, 189, 470, 220
-0.998892, 211, 81, 226, 112
-0.998896, 223, 169, 238, 200
-0.998898, 291, 81, 306, 112
-0.998907, 65, 237, 192, 268
-0.998908, 305, 85, 320, 116
-0.998911, 65, 81, 192, 112
-0.998916, 205, 65, 220, 96
-0.998918, 321, 65, 352, 320
-0.998918, 215, 173, 230, 204
-0.998927, 33, 5, 160, 36
-0.998928, 369, 157, 496, 188
-0.998938, 229, 169, 244, 200
-0.998938, 461, 265, 476, 296
-0.998939, 201, 177, 216, 208
-0.99894, 181, 21, 196, 52
-0.998941, 325, 93, 340, 124
-0.998947, 89, 109, 104, 140
-0.998953, 195, 161, 210, 192
-0.998954, 273, 169, 400, 200
-0.998955, 455, 265, 470, 296
-0.998957, 219, 121, 234, 152
-0.998957, 483, 265, 498, 296
-0.99896, 165, 173, 180, 204
-0.99896, 149, 1, 180, 256
-0.998961, 425, 261, 440, 292
-0.998961, 447, 73, 462, 104
-0.998962, 477, 265, 492, 296
-0.998966, 455, 117, 470, 148
-0.998971, 361, 65, 392, 320
-0.998973, 249, 101, 264, 132
-0.998974, 195, 177, 210, 208
-0.998974, 419, 261, 434, 292
-0.998975, 189, 81, 204, 112
-0.998978, 313, 85, 328, 116
-0.998981, 193, 121, 208, 152
-0.998982, 441, 177, 456, 208
-0.998982, 377, 261, 392, 292
-0.998983, 321, 257, 336, 288
-0.998984, 249, 89, 264, 120
-0.998984, 447, 113, 462, 144
-0.998985, 83, 109, 98, 140
-0.998985, 471, 265, 486, 296
-0.998986, 449, 265, 464, 296
-0.998988, 479, 189, 494, 220
-0.99899, 407, 261, 422, 292
-0.99899, 369, 205, 496, 236
-0.99899, 227, 73, 242, 104
-0.998994, 9, 33, 40, 288
-0.998996, 173, 249, 188, 280
-0.998996, 413, 261, 428, 292
-0.998996, 309, 257, 324, 288
-0.999001, 243, 101, 258, 132
-0.999001, 95, 109, 110, 140
-0.999003, 383, 261, 398, 292
-0.999008, 483, 93, 498, 124
-0.999008, 219, 149, 234, 180
-0.999009, 285, 81, 300, 112
-0.999012, 369, 249, 496, 280
-0.999012, 369, 261, 384, 292
-0.999014, 183, 249, 198, 280
-0.999014, 143, 249, 158, 280
-0.999017, 53, 105, 68, 136
-0.999018, 329, 257, 344, 288
-0.999019, 315, 257, 330, 288
-0.99902, 219, 97, 234, 128
-0.999026, 435, 169, 450, 200
-0.999026, 433, 261, 448, 292
-0.999026, 401, 261, 416, 292
-0.999027, 353, 169, 416, 232
-0.999028, 1, 225, 500, 288
-0.999028, 433, 89, 448, 120
-0.99903, 449, 185, 464, 216
-0.99903, 441, 265, 456, 296
-0.999031, 113, 237, 240, 268
-0.999031, 363, 261, 378, 292
-0.999043, 389, 261, 404, 292
-0.999043, 395, 261, 410, 292
-0.999044, 195, 73, 210, 104
-0.999045, 189, 249, 204, 280
-0.999047, 303, 257, 318, 288
-0.999049, 49, 245, 64, 276
-0.999052, 153, 249, 168, 280
-0.999054, 249, 253, 264, 284
-0.999058, 347, 257, 362, 288
-0.999058, 227, 97, 242, 128
-0.999063, 191, 109, 206, 140
-0.999064, 485, 193, 500, 224
-0.999065, 159, 113, 174, 144
-0.999065, 335, 257, 350, 288
-0.999065, 137, 249, 152, 280
-0.999066, 225, 137, 240, 168
-0.999066, 197, 249, 212, 280
-0.999066, 37, 245, 52, 276
-0.999066, 43, 245, 58, 276
-0.999066, 161, 249, 176, 280
-0.999066, 167, 249, 182, 280
-0.999067, 33, 177, 96, 240
-0.99907, 279, 253, 294, 284
-0.99907, 257, 253, 272, 284
-0.999071, 269, 253, 284, 284
-0.999074, 159, 173, 174, 204
-0.999074, 335, 93, 350, 124
-0.999111, 227, 113, 242, 240
-0.999118, 193, 297, 320, 328
-0.999124, 1, 77, 128, 108
-0.999137, 81, 49, 112, 176
-0.999138, 369, 129, 496, 160
-0.999138, 235, 81, 250, 208
-0.999149, 405, 65, 436, 320
-0.99916, 29, 65, 60, 320
-0.999168, 1, 233, 128, 264
-0.999178, 81, 189, 208, 220
-0.999194, 17, 189, 144, 220
-0.999195, 179, 1, 194, 128
-0.999195, 441, 81, 456, 208
-0.999202, 377, 65, 408, 320
-0.999219, 321, 301, 448, 332
-0.999222, 221, 113, 236, 240
-0.999247, 273, 41, 400, 104
-0.999248, 215, 97, 230, 224
-0.999259, 461, 81, 476, 208
-0.999262, 435, 81, 450, 208
-0.999264, 241, 297, 368, 328
-0.999283, 393, 65, 424, 320
-0.999284, 447, 81, 462, 208
-0.999285, 145, 293, 272, 324
-0.999286, 221, 65, 236, 192
-0.999297, 41, 65, 72, 320
-0.999298, 229, 65, 244, 192
-0.999329, 187, 33, 202, 160
-0.999331, 429, 81, 444, 208
-0.999338, 469, 49, 484, 176
-0.999339, 453, 49, 468, 176
-0.999344, 227, 161, 242, 288
-0.999347, 201, 161, 216, 288
-0.999349, 299, 65, 314, 192
-0.999356, 257, 1, 500, 64
-0.999362, 225, 65, 352, 96
-0.999367, 49, 145, 112, 208
-0.999371, 305, 81, 320, 208
-0.999376, 195, 161, 210, 288
-0.999378, 241, 65, 256, 192
-0.999382, 383, 81, 398, 208
-0.999383, 209, 97, 224, 224
-0.999384, 373, 81, 388, 208
-0.999385, 233, 161, 248, 288
-0.999385, 273, 65, 288, 192
-0.999388, 125, 65, 156, 320
-0.99939, 323, 81, 338, 208
-0.999391, 443, 209, 458, 333
-0.999394, 183, 81, 198, 208
-0.9994, 453, 113, 468, 240
-0.9994, 437, 209, 452, 333
-0.999401, 363, 81, 378, 208
-0.999415, 395, 81, 410, 208
-0.999421, 207, 161, 222, 288
-0.999423, 353, 81, 368, 208
-0.999424, 221, 161, 236, 288
-0.999426, 417, 81, 432, 208
-0.999426, 333, 81, 348, 208
-0.999427, 469, 97, 484, 224
-0.99943, 311, 81, 326, 208
-0.999434, 389, 81, 404, 208
-0.999435, 283, 65, 298, 192
-0.999438, 37, 1, 52, 128
-0.999438, 217, 177, 280, 240
-0.999438, 189, 161, 204, 288
-0.999439, 429, 209, 444, 333
-0.999444, 1, 41, 500, 104
-0.999444, 173, 1, 188, 128
-0.999446, 423, 81, 438, 208
-0.999446, 65, 161, 192, 192
-0.999447, 81, 145, 208, 176
-0.999449, 293, 65, 308, 192
-0.999455, 347, 81, 362, 208
-0.999455, 249, 89, 264, 104
-0.999455, 183, 25, 198, 40
-0.999455, 423, 265, 438, 280
-0.999455, 9, 127, 24, 142
-0.999455, 231, 135, 246, 150
-0.999455, 95, 113, 110, 128
-0.999456, 273, 257, 288, 272
-0.999456, 375, 263, 390, 278
-0.999456, 447, 117, 462, 132
-0.999456, 1, 133, 16, 148
-0.999456, 411, 263, 426, 278
-0.999456, 337, 259, 352, 274
-0.999456, 165, 109, 180, 124
-0.999457, 317, 259, 332, 274
-0.999457, 185, 251, 200, 266
-0.999457, 297, 257, 312, 272
-0.999457, 363, 95, 378, 110
-0.999457, 345, 261, 360, 276
-0.999457, 261, 255, 276, 270
-0.999458, 323, 259, 338, 274
-0.999458, 417, 263, 432, 278
-0.999459, 267, 255, 282, 270
-0.999459, 351, 261, 366, 276
-0.999459, 457, 197, 472, 212
-0.999459, 209, 89, 224, 104
-0.999459, 251, 101, 266, 116
-0.99946, 291, 257, 306, 272
-0.999461, 289, 81, 304, 96
-0.999461, 465, 267, 480, 282
-0.999461, 233, 99, 248, 114
-0.999461, 477, 93, 492, 108
-0.999461, 215, 85, 230, 100
-0.999461, 221, 109, 236, 124
-0.999461, 155, 1, 170, 128
-0.999461, 159, 115, 174, 130
-0.999461, 317, 81, 332, 208
-0.999461, 161, 121, 176, 136
-0.999462, 381, 263, 396, 278
-0.999463, 5, 141, 20, 156
-0.999463, 363, 261, 378, 276
-0.999463, 423, 191, 438, 206
-0.999463, 175, 13, 190, 28
-0.999463, 403, 263, 418, 278
-0.999464, 47, 107, 62, 122
-0.999464, 319, 185, 334, 200
-0.999464, 325, 185, 340, 200
-0.999464, 429, 265, 444, 280
-0.999465, 189, 129, 204, 144
-0.999465, 445, 265, 460, 280
-0.999466, 357, 261, 372, 276
-0.999466, 471, 267, 486, 282
-0.999466, 397, 263, 412, 278
-0.999466, 183, 35, 198, 50
-0.999466, 447, 185, 462, 200
-0.999466, 193, 77, 208, 92
-0.999467, 485, 267, 500, 282
-0.999467, 213, 161, 228, 288
-0.999467, 369, 17, 496, 48
-0.999467, 369, 301, 496, 332
-0.999467, 221, 149, 236, 164
-0.999467, 387, 263, 402, 278
-0.999468, 483, 95, 498, 110
-0.999468, 183, 127, 198, 142
-0.999469, 435, 173, 450, 188
-0.99947, 441, 179, 456, 194
-0.99947, 475, 97, 490, 224
-0.999471, 477, 267, 492, 282
-0.999471, 235, 129, 250, 144
-0.999471, 211, 75, 226, 90
-0.999472, 339, 81, 354, 208
-0.999472, 237, 73, 252, 88
-0.999472, 411, 81, 426, 208
-0.999473, 435, 265, 450, 280
-0.999473, 217, 69, 232, 84
-0.999474, 185, 113, 200, 128
-0.999474, 453, 117, 468, 132
-0.999474, 177, 99, 192, 114
-0.999475, 463, 129, 478, 256
-0.999476, 217, 175, 232, 190
-0.999477, 255, 77, 270, 92
-0.999478, 197, 181, 212, 196
-0.999478, 267, 65, 282, 192
-0.999479, 475, 49, 490, 176
-0.999479, 437, 161, 452, 288
-0.99948, 471, 91, 486, 106
-0.99948, 295, 83, 310, 98
-0.99948, 7, 133, 22, 148
-0.99948, 129, 193, 256, 224
-0.999481, 241, 101, 256, 116
-0.999481, 237, 89, 252, 104
-0.999481, 1, 127, 16, 142
-0.999483, 81, 293, 208, 324
-0.999485, 307, 87, 322, 102
-0.999486, 325, 93, 340, 108
-0.999487, 239, 109, 254, 124
-0.999489, 15, 209, 30, 333
-0.999489, 203, 179, 218, 194
-0.999489, 171, 109, 186, 124
-0.99949, 461, 85, 476, 100
-0.999491, 313, 89, 328, 104
-0.999491, 449, 177, 464, 304
-0.999491, 245, 95, 260, 110
-0.999491, 149, 1, 164, 128
-0.999492, 203, 157, 218, 172
-0.999492, 193, 123, 208, 138
-0.999493, 211, 1, 226, 128
-0.999493, 187, 83, 202, 98
-0.999493, 211, 177, 226, 192
-0.999493, 183, 95, 198, 110
-0.999493, 199, 77, 214, 92
-0.999494, 183, 101, 198, 116
-0.999495, 261, 65, 276, 192
-0.999495, 249, 77, 264, 92
-0.999496, 177, 81, 192, 208
-0.999497, 251, 65, 266, 192
-0.999497, 301, 85, 316, 100
-0.999499, 435, 91, 450, 106
-0.999499, 459, 1, 474, 128
-0.9995, 401, 81, 416, 208
-0.9995, 183, 89, 198, 104
-0.999501, 227, 107, 242, 122
-0.999501, 215, 49, 230, 176
-0.999505, 483, 65, 498, 192
-0.999506, 121, 193, 184, 256
-0.999506, 205, 75, 220, 90
-0.999507, 215, 151, 230, 166
-0.999508, 239, 161, 254, 288
-0.999508, 243, 85, 258, 100
-0.999508, 443, 105, 458, 120
-0.999509, 465, 93, 480, 108
-0.999509, 447, 33, 462, 160
-0.999511, 177, 125, 192, 140
-0.999511, 219, 117, 234, 132
-0.999513, 211, 67, 226, 82
-0.999514, 319, 91, 334, 106
-0.999517, 223, 123, 238, 138
-0.999517, 467, 83, 482, 98
-0.999518, 451, 103, 466, 118
-0.999519, 243, 75, 258, 90
-0.99952, 45, 65, 60, 192
-0.99952, 479, 209, 494, 333
-0.999521, 165, 97, 180, 224
-0.999521, 1, 113, 16, 240
-0.999525, 235, 115, 250, 130
-0.999527, 447, 111, 462, 126
-0.999528, 183, 161, 198, 288
-0.99953, 297, 33, 328, 160
-0.99953, 453, 85, 468, 100
-0.999532, 21, 209, 36, 333
-0.999533, 39, 65, 54, 192
-0.999534, 239, 95, 254, 110
-0.999534, 195, 209, 210, 333
-0.999539, 191, 113, 206, 240
-0.999539, 165, 33, 180, 160
-0.99954, 177, 105, 192, 120
-0.999541, 193, 33, 208, 160
-0.999541, 437, 33, 452, 160
-0.999543, 441, 89, 456, 104
-0.999544, 209, 155, 224, 170
-0.999548, 93, 97, 108, 224
-0.999548, 165, 115, 180, 130
-0.999549, 83, 97, 98, 224
-0.99955, 473, 85, 488, 100
-0.999553, 485, 209, 500, 333
-0.999559, 69, 193, 84, 320
-0.999559, 95, 193, 110, 320
-0.99956, 199, 113, 214, 240
-0.999561, 81, 193, 96, 320
-0.999562, 429, 33, 444, 160
-0.999562, 189, 209, 204, 333
-0.999564, 457, 95, 472, 110
-0.999565, 103, 97, 118, 224
-0.999567, 423, 209, 438, 333
-0.999568, 59, 193, 74, 320
-0.999568, 453, 1, 468, 128
-0.999569, 233, 105, 248, 120
-0.999571, 9, 193, 24, 320
-0.999571, 455, 177, 470, 304
-0.999572, 187, 121, 202, 136
-0.999572, 207, 81, 222, 96
-0.999572, 229, 119, 244, 134
-0.999572, 87, 193, 102, 320
-0.999573, 479, 85, 494, 100
-0.999573, 223, 209, 238, 333
-0.999574, 175, 209, 190, 333
-0.999575, 485, 85, 500, 100
-0.999575, 169, 209, 184, 333
-0.999576, 75, 193, 90, 320
-0.999577, 27, 193, 42, 320
-0.999579, 31, 1, 46, 128
-0.999579, 55, 97, 70, 224
-0.99958, 143, 1, 158, 128
-0.99958, 241, 133, 368, 164
-0.999581, 231, 209, 246, 333
-0.999584, 239, 209, 254, 333
-0.999585, 77, 97, 92, 224
-0.999586, 51, 209, 66, 333
-0.999588, 199, 33, 214, 160
-0.999588, 245, 161, 260, 288
-0.999589, 183, 209, 198, 333
-0.999591, 1, 289, 128, 320
-0.999593, 447, 87, 462, 102
-0.999594, 207, 49, 222, 176
-0.999595, 111, 209, 126, 333
-0.999595, 451, 97, 466, 112
-0.999596, 119, 209, 134, 333
-0.999596, 125, 209, 140, 333
-0.999597, 163, 209, 178, 333
-0.999597, 45, 209, 60, 333
-0.999598, 465, 1, 480, 128
-0.999598, 153, 209, 168, 333
-0.999598, 201, 209, 216, 333
-0.999599, 159, 161, 174, 288
-0.9996, 101, 209, 116, 333
-0.999601, 483, 113, 498, 240
-0.999602, 461, 209, 476, 333
-0.999604, 473, 209, 488, 333
-0.999607, 305, 193, 432, 224
-0.999607, 305, 209, 320, 333
-0.99961, 369, 29, 496, 60
-0.999621, 227, 113, 242, 128
-0.999624, 201, 273, 264, 333
-0.999632, 369, 41, 496, 72
-0.999633, 17, 201, 144, 232
-0.999641, 369, 61, 496, 92
-0.999643, 257, 17, 288, 144
-0.999657, 321, 129, 448, 160
-0.99966, 209, 13, 336, 44
-0.999664, 13, 145, 44, 272
-0.999686, 1, 65, 32, 192
-0.999695, 249, 169, 312, 232
-0.9997, 1, 17, 128, 48
-0.99971, 321, 289, 448, 320
-0.999734, 137, 1, 168, 256
-0.999739, 281, 17, 312, 144
-0.99976, 89, 17, 152, 80
-0.999763, 81, 133, 208, 164
-0.999776, 369, 289, 496, 320
-0.999847, 193, 285, 320, 316
-0.99987, 69, 49, 100, 176
-0.999898, 325, 129, 356, 256
-0.9999, 273, 109, 400, 140
-0.99991, 353, 217, 480, 248
-0.999919, 1, 1, 500, 64
-0.999925, 273, 285, 400, 316
-0.999929, 129, 281, 256, 312
-0.999944, 273, 121, 400, 152
-0.999944, 33, 273, 288, 333
-0.999945, 321, 205, 448, 236
-0.999998, 257, 33, 500, 96
-0.999998, 353, 5, 480, 36
-1.00001, 369, 229, 496, 260
-1.00004, 321, 25, 448, 88
-1.00004, 209, 1, 336, 32
-1.00008, 177, 193, 304, 224
-1.00008, 65, 281, 192, 312
-1.00009, 321, 113, 448, 144
-1.00015, 97, 201, 224, 264
-1.00016, 241, 193, 368, 224
-1.00017, 225, 53, 352, 84
-1.00017, 1, 201, 256, 264
-1.00023, 1, 277, 128, 308
-1.00027, 321, 49, 448, 80
-1.0003, 17, 213, 144, 244
-1.00035, 129, 209, 256, 240
-1.00036, 321, 25, 448, 56
-1.00036, 81, 205, 208, 236
-1.00046, 321, 37, 448, 68
-1.00051, 273, 61, 400, 92
-1.0007, 193, 209, 320, 272
-1.00106, 97, 201, 352, 264
-1.00113, 321, 1, 448, 64
-1.0012, 257, 1, 384, 64
-1.0013, 257, 209, 500, 272
-1.00181, 241, 209, 368, 272
-1.00196, 1, 193, 500, 256
-1.01341, 65, 1, 128, 128
