1871
-0.450961, 1, 1, 500, 330
-0.481873, 1, 1, 500, 256
-0.608653, 97, 1, 352, 330
-0.706088, 257, 1, 500, 330
-0.72217, 1, 1, 256, 330
-0.765458, 97, 1, 352, 256
-0.855851, 225, 33, 480, 288
-0.861023, 1, 65, 256, 320
-0.904628, 65, 65, 192, 320
-0.905385, 1, 81, 500, 208
-0.912435, 49, 1, 176, 330
-0.914689, 1, 161, 500, 288
-0.916941, 337, 1, 464, 330
-0.924378, 1, 33, 500, 160
-0.925502, 145, 65, 272, 320
-0.927659, 97, 1, 224, 330
-0.927935, 145, 1, 272, 330
-0.929488, 289, 1, 416, 330
-0.930943, 209, 1, 336, 330
-0.933032, 257, 65, 384, 320
-0.933927, 225, 161, 480, 288
-0.935143, 97, 193, 352, 320
-0.935864, 321, 65, 448, 320
-0.936643, 1, 209, 500, 330
-0.936843, 209, 65, 336, 320
-0.937182, 369, 1, 496, 256
-0.937315, 17, 1, 144, 256
-0.943532, 97, 113, 352, 240
-0.947617, 105, 113, 168, 240
-0.949085, 193, 177, 320, 304
-0.954153, 1, 161, 256, 288
-0.954457, 65, 129, 192, 256
-0.956063, 65, 17, 320, 144
-0.958483, 137, 193, 200, 320
-0.958982, 273, 161, 400, 288
-0.959613, 145, 209, 272, 330
-0.960305, 241, 177, 304, 304
-0.961994, 281, 177, 344, 304
-0.962834, 129, 161, 256, 288
-0.963457, 217, 177, 280, 304
-0.964016, 193, 209, 448, 330
-0.964283, 353, 145, 480, 272
-0.964341, 1, 1, 128, 330
-0.965378, 105, 129, 168, 192
-0.966256, 145, 193, 208, 256
-0.96628, 97, 65, 352, 192
-0.969335, 177, 177, 240, 240
-0.969918, 145, 113, 272, 240
-0.970016, 193, 193, 256, 320
-0.97091, 369, 145, 432, 272
-0.970912, 217, 185, 280, 248
-0.97126, 81, 177, 208, 304
-0.971283, 105, 65, 168, 192
-0.971307, 1, 113, 256, 240
-0.971325, 17, 49, 144, 176
-0.97185, 313, 161, 376, 288
-0.97255, 97, 33, 224, 160
-0.973151, 417, 129, 480, 256
-0.973317, 73, 65, 136, 192
-0.973481, 105, 17, 168, 144
-0.974425, 257, 249, 320, 312
-0.975374, 17, 1, 144, 128
-0.975874, 209, 185, 336, 248
-0.976014, 153, 129, 216, 256
-0.976282, 105, 105, 168, 168
-0.976446, 225, 129, 352, 256
-0.97676, 393, 145, 456, 272
-0.976893, 257, 113, 500, 240
-0.976916, 129, 145, 192, 272
-0.977042, 369, 145, 432, 208
-0.977229, 345, 145, 408, 272
-0.977334, 177, 145, 240, 272
-0.977811, 137, 129, 168, 256
-0.977942, 249, 185, 312, 248
-0.978313, 289, 169, 352, 232
-0.978317, 433, 129, 496, 192
-0.978361, 161, 193, 224, 320
-0.979206, 129, 177, 256, 240
-0.979498, 177, 209, 240, 272
-0.979542, 285, 233, 316, 296
-0.979556, 73, 89, 136, 152
-0.979791, 345, 153, 408, 216
-0.980366, 409, 137, 472, 200
-0.98049, 81, 81, 208, 208
-0.980612, 81, 113, 144, 240
-0.980699, 105, 73, 168, 136
-0.980801, 1, 209, 256, 330
-0.981069, 73, 1, 136, 128
-0.981113, 353, 145, 480, 208
-0.981607, 353, 81, 480, 208
-0.981664, 281, 233, 344, 296
-0.98172, 105, 49, 168, 112
-0.981889, 289, 161, 416, 224
-0.981947, 285, 177, 316, 304
-0.982001, 321, 161, 384, 224
-0.982054, 229, 185, 260, 248
-0.982298, 345, 265, 408, 328
-0.9823, 65, 129, 192, 192
-0.982403, 137, 129, 168, 192
-0.982705, 257, 209, 384, 330
-0.982805, 105, 25, 168, 88
-0.982871, 265, 177, 296, 304
-0.98288, 73, 65, 136, 128
-0.982939, 81, 177, 208, 240
-0.98339, 113, 161, 176, 224
-0.983394, 193, 185, 224, 248
-0.983411, 73, 41, 136, 104
-0.983501, 1, 65, 256, 192
-0.983501, 105, 65, 168, 320
-0.983705, 105, 1, 168, 64
-0.983767, 257, 65, 500, 192
-0.98397, 145, 153, 208, 216
-0.984054, 81, 113, 144, 176
-0.984115, 273, 113, 400, 240
-0.984311, 73, 17, 136, 80
-0.984565, 129, 153, 256, 216
-0.984695, 169, 193, 200, 256
-0.984801, 129, 209, 256, 272
-0.984935, 117, 97, 148, 160
-0.985277, 273, 129, 336, 256
-0.985323, 281, 257, 312, 320
-0.985347, 209, 177, 240, 240
-0.985374, 257, 249, 384, 312
-0.985541, 289, 257, 352, 320
-0.985565, 225, 177, 256, 304
-0.985849, 393, 97, 456, 224
-0.985885, 113, 129, 144, 256
-0.985992, 113, 49, 144, 176
-0.986002, 209, 265, 336, 328
-0.98605, 17, 97, 144, 224
-0.986075, 177, 209, 304, 272
-0.986292, 169, 193, 200, 320
-0.986465, 273, 209, 336, 272
-0.986649, 249, 129, 312, 256
-0.986652, 17, 73, 144, 136
-0.986845, 225, 129, 288, 256
-0.986874, 201, 209, 264, 272
-0.987252, 149, 193, 180, 320
-0.987282, 157, 145, 188, 272
-0.987467, 233, 249, 296, 312
-0.987538, 97, 89, 224, 152
-0.987582, 121, 185, 184, 248
-0.987623, 301, 177, 332, 304
-0.987636, 209, 209, 240, 272
-0.987855, 81, 41, 208, 104
-0.987884, 213, 209, 244, 330
-0.987963, 49, 105, 176, 168
-0.988086, 401, 113, 464, 176
-0.98811, 321, 265, 384, 328
-0.988342, 417, 81, 480, 208
-0.988372, 17, 41, 144, 104
-0.988478, 369, 97, 432, 224
-0.988478, 233, 161, 296, 224
-0.988661, 81, 17, 208, 80
-0.988677, 97, 49, 128, 176
-0.988689, 321, 265, 448, 328
-0.988786, 153, 185, 184, 248
-0.98881, 17, 17, 144, 80
-0.988955, 157, 161, 188, 224
-0.989095, 97, 65, 224, 128
-0.989111, 65, 153, 192, 216
-0.989139, 249, 225, 312, 288
-0.989432, 273, 185, 304, 248
-0.989451, 97, 89, 128, 152
-0.989505, 105, 1, 168, 330
-0.989575, 125, 129, 156, 256
-0.98961, 177, 193, 240, 224
-0.989688, 369, 121, 496, 184
-0.98979, 273, 225, 400, 288
-0.989931, 377, 121, 440, 184
-0.989963, 389, 145, 420, 208
-0.990036, 381, 145, 412, 272
-0.990066, 321, 113, 384, 240
-0.990098, 321, 161, 352, 288
-0.990193, 137, 197, 200, 228
-0.990282, 189, 217, 220, 280
-0.990288, 81, 201, 208, 264
-0.990364, 181, 209, 212, 330
-0.990373, 109, 129, 140, 192
-0.990492, 241, 161, 368, 224
-0.990574, 345, 241, 408, 304
-0.990582, 249, 177, 280, 304
-0.990621, 193, 177, 224, 304
-0.990719, 97, 65, 128, 128
-0.990726, 201, 129, 264, 256
-0.990741, 273, 237, 336, 268
-0.990784, 105, 133, 168, 164
-0.990788, 369, 265, 432, 328
-0.990792, 73, 1, 136, 256
-0.990831, 449, 129, 480, 192
-0.990972, 377, 153, 408, 216
-0.990978, 273, 233, 304, 296
-0.990986, 113, 113, 176, 144
-0.990998, 129, 265, 256, 328
-0.991063, 145, 113, 208, 176
-0.991063, 181, 193, 212, 256
-0.991096, 337, 209, 464, 330
-0.99111, 225, 193, 288, 224
-0.991186, 445, 129, 476, 256
-0.991218, 145, 185, 208, 216
-0.991408, 113, 57, 144, 120
-0.991418, 369, 145, 400, 272
-0.991496, 253, 185, 284, 248
-0.991511, 265, 65, 328, 320
-0.991527, 113, 1, 144, 128
-0.991564, 97, 1, 128, 128
-0.991608, 185, 205, 248, 236
-0.991632, 401, 145, 432, 272
-0.991665, 377, 153, 440, 184
-0.991691, 285, 177, 316, 240
-0.991745, 237, 177, 268, 304
-0.991752, 337, 129, 400, 192
-0.99176, 285, 209, 316, 272
-0.991773, 153, 33, 216, 288
-0.991791, 73, 113, 136, 144
-0.991798, 113, 33, 144, 96
-0.991834, 345, 161, 408, 192
-0.991835, 105, 101, 168, 132
-0.991847, 257, 253, 320, 284
-0.991853, 125, 129, 156, 192
-0.991863, 257, 161, 320, 224
-0.991889, 413, 145, 444, 272
-0.991938, 73, 101, 136, 132
-0.991944, 457, 113, 488, 240
-0.991987, 365, 153, 396, 216
-0.992001, 461, 121, 492, 184
-0.992018, 113, 181, 176, 212
-0.99204, 257, 185, 384, 248
-0.992041, 249, 237, 312, 268
-0.992062, 105, 81, 168, 112
-0.992102, 257, 273, 320, 304
-0.992116, 177, 217, 240, 248
-0.992117, 281, 177, 344, 208
-0.992125, 105, 69, 168, 100
-0.99214, 105, 53, 168, 84
-0.992151, 433, 133, 496, 164
-0.992151, 433, 129, 464, 256
-0.992169, 105, 41, 168, 72
-0.99217, 145, 209, 208, 240
-0.992186, 141, 161, 172, 224
-0.992188, 249, 189, 312, 220
-0.992193, 73, 77, 136, 108
-0.992196, 409, 145, 472, 176
-0.992215, 101, 97, 132, 224
-0.99224, 421, 145, 452, 208
-0.992258, 177, 181, 240, 212
-0.992261, 73, 57, 136, 88
-0.992266, 201, 189, 264, 220
-0.992276, 73, 45, 136, 76
-0.992281, 313, 241, 376, 304
-0.992294, 105, 29, 168, 60
-0.992296, 97, 41, 128, 104
-0.992337, 225, 181, 288, 212
-0.992349, 81, 125, 144, 156
-0.992354, 153, 173, 216, 204
-0.992356, 353, 265, 384, 328
-0.992372, 105, 17, 168, 48
-0.992377, 105, 5, 168, 36
-0.992386, 321, 169, 384, 200
-0.992394, 305, 137, 432, 200
-0.992396, 73, 33, 136, 64
-0.992403, 73, 89, 136, 120
-0.992445, 129, 129, 256, 192
-0.992464, 73, 21, 136, 52
-0.99248, 217, 205, 280, 236
-0.992498, 281, 237, 312, 268
-0.992503, 73, 9, 136, 40
-0.992531, 217, 281, 280, 312
-0.992536, 337, 161, 368, 288
-0.99254, 401, 33, 464, 288
-0.992562, 145, 145, 208, 176
-0.992571, 113, 9, 144, 72
-0.992607, 113, 193, 176, 224
-0.992616, 105, 161, 168, 288
-0.992621, 305, 169, 336, 232
-0.992647, 385, 141, 448, 172
-0.992676, 401, 1, 464, 330
-0.992677, 337, 273, 400, 304
-0.992687, 289, 293, 352, 324
-0.992688, 337, 241, 464, 304
-0.992688, 193, 177, 448, 240
-0.992698, 401, 145, 432, 208
-0.992779, 113, 145, 176, 176
-0.992799, 297, 281, 360, 312
-0.992817, 289, 249, 352, 280
-0.992832, 137, 137, 168, 168
-0.992841, 241, 185, 272, 248
-0.992844, 113, 165, 176, 196
-0.992854, 145, 157, 208, 188
-0.992899, 33, 177, 288, 240
-0.992901, 97, 9, 128, 72
-0.992902, 117, 113, 148, 144
-0.992916, 433, 65, 496, 320
-0.992921, 345, 97, 408, 224
-0.992964, 201, 217, 264, 248
-0.992973, 209, 189, 240, 220
-0.993001, 177, 161, 304, 224
-0.993022, 169, 197, 200, 228
-0.993024, 233, 193, 264, 224
-0.993026, 313, 137, 376, 200
-0.993047, 209, 161, 240, 288
-0.993051, 281, 257, 312, 288
-0.993051, 193, 201, 224, 232
-0.993059, 321, 157, 384, 188
-0.993066, 297, 249, 328, 312
-0.993069, 305, 209, 368, 330
-0.993089, 145, 1, 208, 330
-0.993092, 145, 133, 208, 164
-0.993096, 153, 193, 184, 224
-0.993099, 145, 81, 208, 208
-0.993128, 113, 101, 144, 132
-0.993142, 353, 149, 416, 180
-0.993144, 209, 217, 240, 248
-0.993147, 297, 165, 360, 196
-0.993168, 113, 133, 144, 164
-0.993174, 289, 225, 352, 256
-0.993185, 97, 153, 352, 216
-0.99319, 273, 189, 336, 220
-0.993192, 201, 177, 264, 208
-0.993212, 209, 241, 336, 304
-0.993213, 157, 181, 188, 212
-0.993214, 409, 133, 472, 164
-0.993215, 297, 265, 360, 296
-0.993235, 97, 81, 128, 112
-0.993245, 297, 209, 360, 272
-0.993255, 125, 133, 156, 164
-0.993269, 349, 161, 380, 288
-0.993278, 137, 121, 200, 152
-0.993281, 97, 101, 128, 132
-0.993283, 185, 65, 248, 320
-0.993285, 249, 285, 312, 316
-0.993292, 129, 65, 192, 320
-0.993295, 97, 117, 128, 148
-0.993312, 193, 221, 224, 252
-0.993312, 97, 69, 128, 100
-0.993312, 217, 293, 280, 324
-0.993321, 141, 189, 172, 220
-0.993322, 453, 133, 484, 164
-0.993322, 381, 153, 412, 184
-0.993322, 297, 237, 360, 268
-0.993323, 113, 65, 144, 96
-0.99333, 113, 89, 144, 120
-0.99333, 229, 181, 260, 212
-0.993331, 345, 1, 408, 330
-0.993338, 233, 225, 296, 256
-0.99334, 393, 149, 424, 180
-0.993342, 329, 65, 392, 320
-0.993349, 281, 269, 312, 300
-0.99335, 113, 53, 144, 84
-0.993358, 97, 57, 128, 88
-0.993366, 257, 177, 320, 208
-0.993366, 233, 249, 296, 280
-0.993368, 113, 41, 144, 72
-0.993375, 177, 209, 208, 240
-0.993383, 97, 45, 128, 76
-0.993384, 113, 77, 144, 108
-0.993386, 97, 33, 128, 64
-0.993388, 369, 161, 400, 192
-0.993389, 113, 29, 144, 60
-0.993396, 113, 17, 144, 48
-0.993401, 113, 5, 144, 36
-0.993403, 141, 177, 172, 208
-0.993408, 97, 21, 128, 52
-0.993409, 221, 205, 252, 236
-0.993413, 465, 129, 496, 160
-0.993429, 157, 145, 188, 176
-0.993432, 337, 293, 400, 324
-0.993436, 97, 9, 128, 40
-0.993437, 233, 269, 296, 300
-0.99345, 129, 201, 384, 264
-0.993451, 293, 253, 324, 284
-0.993458, 129, 105, 160, 168
-0.993459, 421, 149, 452, 180
-0.993463, 269, 253, 300, 284
-0.993464, 101, 129, 132, 160
-0.993469, 285, 185, 316, 216
-0.99347, 441, 141, 472, 172
-0.993476, 249, 297, 312, 328
-0.993476, 189, 189, 220, 220
-0.993487, 257, 189, 288, 220
-0.993489, 265, 241, 296, 272
-0.993497, 273, 189, 304, 220
-0.993503, 361, 33, 424, 288
-0.993504, 137, 125, 168, 156
-0.993514, 213, 177, 244, 208
-0.993517, 309, 173, 340, 204
-0.993529, 357, 165, 388, 196
-0.99354, 297, 177, 328, 208
-0.993551, 429, 137, 460, 168
-0.993561, 97, 209, 160, 330
-0.993563, 433, 145, 496, 176
-0.993564, 437, 137, 468, 200
-0.993564, 361, 269, 424, 300
-0.993571, 209, 201, 240, 232
-0.993578, 405, 141, 436, 172
-0.993584, 157, 133, 188, 164
-0.993584, 141, 149, 172, 180
-0.993584, 349, 273, 380, 304
-0.993585, 157, 157, 188, 188
-0.993587, 245, 189, 276, 220
-0.99359, 157, 169, 188, 200
-0.993607, 329, 169, 360, 200
-0.993615, 409, 153, 440, 184
-0.993616, 345, 165, 376, 196
-0.993618, 221, 285, 252, 316
-0.993618, 141, 165, 172, 196
-0.993628, 221, 193, 252, 224
-0.993636, 305, 245, 336, 276
-0.993638, 173, 185, 204, 216
-0.99364, 369, 149, 400, 180
-0.993648, 313, 297, 376, 328
-0.993658, 297, 289, 328, 320
-0.993659, 185, 293, 248, 324
-0.993665, 409, 121, 472, 152
-0.993668, 357, 153, 388, 184
-0.993669, 265, 273, 296, 304
-0.993672, 269, 177, 300, 208
-0.99368, 129, 281, 192, 312
-0.993683, 305, 233, 336, 264
-0.993691, 293, 237, 324, 268
-0.993698, 469, 113, 500, 240
-0.993702, 329, 281, 360, 312
-0.993705, 369, 1, 432, 330
-0.993708, 153, 121, 184, 152
-0.993718, 245, 177, 276, 208
-0.993719, 129, 185, 160, 216
-0.993727, 269, 265, 300, 328
-0.993735, 281, 225, 312, 256
-0.993736, 465, 117, 496, 148
-0.993749, 417, 137, 448, 168
-0.993753, 441, 129, 472, 160
-0.993753, 257, 177, 288, 208
-0.993756, 361, 269, 392, 300
-0.993757, 233, 277, 264, 308
-0.993768, 285, 173, 316, 204
-0.993772, 245, 277, 276, 308
-0.993783, 369, 241, 432, 304
-0.993785, 333, 157, 364, 188
-0.993786, 317, 161, 348, 192
-0.993788, 341, 297, 372, 328
-0.993794, 345, 153, 376, 184
-0.993796, 181, 221, 212, 252
-0.993798, 353, 161, 384, 224
-0.9938, 381, 141, 412, 172
-0.993802, 285, 297, 316, 328
-0.993809, 133, 113, 164, 144
-0.993812, 293, 225, 324, 256
-0.993827, 261, 229, 292, 260
-0.993829, 201, 177, 232, 208
-0.993833, 393, 137, 424, 168
-0.993833, 373, 269, 404, 300
-0.993833, 357, 293, 388, 324
-0.993841, 97, 237, 160, 268
-0.993842, 137, 281, 168, 312
-0.993842, 301, 273, 332, 304
-0.993847, 453, 121, 484, 152
-0.993848, 285, 281, 316, 312
-0.993853, 433, 121, 496, 152
-0.993856, 185, 177, 216, 208
-0.99386, 141, 201, 172, 232
-0.99386, 129, 197, 160, 228
-0.993861, 217, 297, 248, 328
-0.993862, 137, 229, 200, 260
-0.99388, 333, 261, 364, 292
-0.993887, 293, 213, 324, 244
-0.993887, 257, 261, 288, 292
-0.993889, 145, 225, 176, 256
-0.993891, 329, 145, 392, 176
-0.993892, 297, 189, 328, 220
-0.993897, 137, 269, 168, 300
-0.993903, 341, 285, 372, 316
-0.993904, 385, 269, 416, 300
-0.993906, 305, 161, 336, 192
-0.993911, 177, 273, 240, 304
-0.993914, 125, 229, 156, 260
-0.993928, 301, 209, 332, 272
-0.993931, 221, 217, 252, 248
-0.993932, 117, 297, 148, 328
-0.993941, 289, 145, 352, 208
-0.993942, 89, 285, 152, 316
-0.993945, 89, 185, 152, 216
-0.99395, 337, 249, 400, 280
-0.993953, 385, 273, 448, 304
-0.993981, 89, 269, 152, 300
-0.993991, 369, 289, 432, 320
-0.994004, 337, 261, 400, 292
-0.994033, 129, 269, 192, 300
-0.994062, 289, 201, 352, 232
-0.994088, 97, 213, 160, 244
-0.994098, 225, 65, 288, 320
-0.994106, 313, 253, 376, 284
-0.994108, 273, 165, 336, 196
-0.994108, 257, 225, 320, 256
-0.994112, 361, 257, 424, 288
-0.994118, 353, 137, 416, 168
-0.994121, 81, 1, 144, 330
-0.994137, 97, 225, 160, 256
-0.994143, 409, 273, 472, 304
-0.994167, 121, 293, 184, 324
-0.994183, 273, 213, 336, 244
-0.994198, 89, 297, 152, 328
-0.994218, 345, 237, 408, 268
-0.994229, 137, 241, 200, 272
-0.994232, 369, 165, 432, 196
-0.994241, 209, 269, 272, 300
-0.994263, 97, 249, 160, 280
-0.994263, 433, 289, 496, 320
-0.994266, 297, 153, 360, 184
-0.994304, 1, 113, 500, 176
-0.994318, 385, 129, 448, 160
-0.994346, 345, 173, 408, 204
-0.994356, 129, 257, 192, 288
-0.994357, 409, 285, 472, 316
-0.994364, 257, 1, 320, 330
-0.994375, 401, 157, 464, 188
-0.99438, 129, 101, 192, 132
-0.994386, 225, 237, 288, 268
-0.994387, 233, 129, 264, 256
-0.994387, 317, 169, 348, 232
-0.994393, 369, 229, 432, 260
-0.994397, 313, 225, 376, 256
-0.994398, 265, 201, 328, 232
-0.994409, 313, 197, 376, 228
-0.994466, 433, 277, 496, 308
-0.994476, 313, 1, 376, 330
-0.994477, 249, 165, 312, 196
-0.994484, 369, 265, 496, 328
-0.994484, 385, 257, 448, 288
-0.994489, 401, 229, 464, 260
-0.994509, 97, 113, 128, 176
-0.994515, 305, 181, 368, 212
-0.994519, 249, 213, 312, 244
-0.994541, 433, 105, 496, 168
-0.994557, 257, 153, 500, 216
-0.994564, 329, 161, 360, 224
-0.9947, 289, 65, 352, 320
-0.994716, 209, 265, 272, 328
-0.994813, 141, 185, 172, 248
-0.994932, 129, 197, 256, 228
-0.99495, 261, 241, 292, 304
-0.994983, 1, 161, 500, 224
-0.99504, 129, 185, 256, 216
-0.995098, 425, 1, 488, 330
-0.995257, 289, 1, 352, 330
-0.995262, 157, 97, 188, 224
-0.995294, 341, 161, 372, 224
-0.995304, 177, 197, 304, 228
-0.995341, 291, 225, 306, 288
-0.995414, 341, 265, 372, 328
-0.995554, 65, 57, 320, 120
-0.995565, 285, 233, 300, 296
-0.995701, 193, 249, 448, 312
-0.995772, 297, 113, 360, 240
-0.995785, 65, 33, 320, 96
-0.995821, 181, 161, 212, 288
-0.995868, 369, 97, 496, 160
-0.995892, 225, 193, 352, 224
-0.996037, 65, 81, 320, 144
-0.996081, 257, 137, 384, 200
-0.996092, 125, 81, 156, 208
-0.996141, 353, 149, 480, 180
-0.996163, 65, 9, 320, 72
-0.996172, 231, 185, 246, 248
-0.996175, 365, 265, 396, 328
-0.996185, 157, 129, 188, 192
-0.996244, 1, 89, 500, 152
-0.996253, 149, 129, 164, 192
-0.996275, 177, 265, 240, 328
-0.996279, 81, 193, 208, 224
-0.996281, 1, 49, 500, 112
-0.996285, 81, 241, 208, 304
-0.996299, 169, 145, 200, 272
-0.996319, 421, 97, 452, 224
-0.996325, 33, 201, 288, 264
-0.996358, 65, 133, 192, 164
-0.996386, 137, 81, 168, 208
-0.996388, 233, 161, 264, 224
-0.996414, 1, 137, 500, 200
-0.996414, 337, 217, 464, 280
-0.996436, 345, 241, 376, 304
-0.996468, 209, 281, 336, 312
-0.996479, 401, 97, 432, 224
-0.996545, 289, 169, 416, 200
-0.996549, 1, 25, 500, 88
-0.996562, 273, 161, 304, 224
-0.996566, 119, 97, 134, 160
-0.996615, 185, 193, 200, 256
-0.996641, 169, 1, 232, 330
-0.996645, 281, 129, 312, 256
-0.996647, 269, 129, 300, 256
-0.996666, 97, 209, 224, 240
-0.996681, 233, 1, 296, 330
-0.996696, 193, 1, 256, 330
-0.996707, 297, 129, 328, 256
-0.996709, 97, 113, 224, 144
-0.996746, 161, 209, 288, 240
-0.996751, 203, 193, 218, 256
-0.996754, 137, 177, 168, 304
-0.996754, 201, 161, 264, 224
-0.996767, 297, 233, 312, 296
-0.996786, 33, 209, 160, 330
-0.996795, 245, 129, 276, 256
-0.996804, 97, 105, 352, 168
-0.996809, 433, 113, 464, 176
-0.996841, 97, 129, 352, 192
-0.996843, 209, 181, 336, 212
-0.996872, 217, 209, 232, 272
-0.996884, 129, 173, 256, 204
-0.996898, 169, 169, 200, 232
-0.996921, 223, 177, 238, 240
-0.996945, 357, 241, 388, 304
-0.996983, 129, 225, 384, 288
-0.996993, 1, 1, 500, 64
-0.997001, 337, 169, 464, 232
-0.99701, 279, 241, 294, 304
-0.997035, 225, 201, 240, 264
-0.997039, 97, 201, 160, 264
-0.997078, 33, 201, 160, 264
-0.997097, 143, 129, 158, 192
-0.997145, 159, 153, 174, 216
-0.997172, 49, 265, 176, 328
-0.997175, 433, 81, 464, 208
-0.997179, 1, 97, 128, 160
-0.997186, 109, 89, 124, 152
-0.997203, 153, 217, 216, 280
-0.997216, 193, 293, 320, 324
-0.997223, 17, 81, 144, 112
-0.997256, 193, 217, 208, 280
-0.997275, 157, 185, 172, 248
-0.997287, 211, 209, 226, 272
-0.997312, 285, 185, 300, 248
-0.997314, 393, 265, 456, 328
-0.997322, 117, 129, 132, 192
-0.997328, 131, 121, 146, 184
-0.997332, 297, 257, 312, 320
-0.997337, 197, 193, 212, 256
-0.997352, 261, 161, 292, 224
-0.997396, 209, 185, 224, 248
-0.9974, 321, 113, 448, 176
-0.9974, 97, 93, 224, 124
-0.997436, 179, 193, 194, 256
-0.997449, 137, 129, 152, 192
-0.997455, 237, 185, 252, 248
-0.997461, 123, 129, 138, 192
-0.997464, 221, 209, 252, 272
-0.997469, 129, 241, 256, 304
-0.997477, 17, 129, 144, 192
-0.997479, 265, 185, 280, 248
-0.997484, 17, 101, 144, 132
-0.99749, 109, 65, 124, 128
-0.997507, 209, 209, 336, 240
-0.997507, 249, 161, 280, 224
-0.997531, 201, 217, 216, 280
-0.997535, 17, 69, 144, 100
-0.997539, 33, 265, 288, 328
-0.997542, 1, 185, 500, 248
-0.997543, 337, 209, 400, 330
-0.997547, 65, 181, 192, 212
-0.997548, 65, 149, 192, 180
-0.997559, 257, 113, 500, 176
-0.99756, 81, 61, 208, 92
-0.997561, 337, 161, 464, 192
-0.997571, 173, 193, 188, 256
-0.997571, 129, 249, 192, 312
-0.997573, 81, 49, 208, 80
-0.997576, 145, 105, 272, 168
-0.997588, 1, 153, 256, 216
-0.997596, 17, 53, 144, 84
-0.997598, 405, 121, 436, 184
-0.997608, 285, 257, 300, 320
-0.997611, 303, 241, 318, 304
-0.997615, 65, 161, 192, 192
-0.997618, 17, 41, 144, 72
-0.997619, 259, 185, 274, 248
-0.99762, 297, 209, 312, 272
-0.997639, 81, 265, 144, 328
-0.997639, 273, 297, 400, 328
-0.99765, 137, 105, 152, 168
-0.997652, 399, 145, 414, 208
-0.997653, 17, 117, 144, 148
-0.997665, 81, 37, 208, 68
-0.997696, 257, 217, 500, 280
-0.997697, 273, 281, 400, 312
-0.997698, 427, 145, 442, 208
-0.997698, 163, 193, 178, 256
-0.997699, 117, 41, 132, 104
-0.997704, 257, 181, 384, 212
-0.997707, 17, 29, 144, 60
-0.997716, 381, 153, 396, 216
-0.997723, 305, 193, 432, 256
-0.997742, 321, 273, 448, 304
-0.997751, 225, 1, 480, 128
-0.997752, 377, 129, 408, 192
-0.997752, 389, 97, 420, 224
-0.99776, 81, 25, 208, 56
-0.997773, 455, 129, 470, 192
-0.997783, 245, 185, 260, 248
-0.997788, 151, 177, 166, 240
-0.997796, 17, 17, 144, 48
-0.997802, 81, 5, 208, 36
-0.997802, 279, 185, 294, 248
-0.997805, 97, 73, 224, 104
-0.997808, 129, 141, 256, 172
-0.997819, 421, 145, 436, 208
-0.997828, 253, 185, 268, 248
-0.997828, 291, 185, 306, 248
-0.997833, 393, 145, 408, 208
-0.997843, 369, 241, 400, 304
-0.997844, 191, 193, 206, 256
-0.997849, 111, 113, 126, 176
-0.997849, 405, 145, 420, 208
-0.99785, 387, 153, 402, 216
-0.997852, 357, 265, 372, 328
-0.997857, 17, 5, 144, 36
-0.997873, 373, 153, 388, 216
-0.997884, 291, 249, 306, 312
-0.997894, 433, 137, 448, 200
-0.997897, 117, 9, 132, 72
-0.997901, 271, 185, 286, 248
-0.997942, 129, 157, 256, 188
-0.99795, 297, 185, 312, 248
-0.997954, 321, 217, 384, 280
-0.997962, 461, 129, 476, 192
-0.997964, 129, 281, 256, 312
-0.997989, 449, 137, 464, 200
-0.99799, 257, 257, 384, 288
-0.997992, 415, 145, 430, 208
-0.998012, 117, 65, 132, 128
-0.998013, 225, 209, 352, 272
-0.998016, 109, 33, 124, 96
-0.998022, 153, 189, 168, 220
-0.998026, 257, 237, 384, 268
-0.998057, 285, 233, 300, 264
-0.998058, 279, 265, 294, 328
-0.998065, 143, 105, 158, 168
-0.998072, 151, 137, 166, 168
-0.998094, 369, 137, 496, 168
-0.998121, 131, 97, 146, 160
-0.998122, 305, 169, 320, 232
-0.998122, 181, 169, 196, 232
-0.998125, 351, 265, 366, 328
-0.998134, 367, 153, 382, 216
-0.998134, 119, 113, 134, 144
-0.998138, 363, 265, 378, 328
-0.998151, 217, 177, 232, 240
-0.998161, 285, 209, 300, 272
-0.998162, 1, 209, 500, 272
-0.998167, 97, 233, 160, 296
-0.998169, 129, 293, 256, 324
-0.998177, 109, 1, 124, 64
-0.998181, 357, 161, 372, 224
-0.998182, 233, 193, 248, 224
-0.998183, 467, 121, 482, 184
-0.99821, 303, 209, 318, 272
-0.99821, 413, 147, 444, 162
-0.998212, 221, 287, 252, 302
-0.998213, 265, 279, 296, 294
-0.998214, 365, 161, 396, 176
-0.998215, 281, 267, 312, 282
-0.998215, 301, 295, 332, 310
-0.998215, 241, 269, 368, 300
-0.998216, 223, 197, 238, 228
-0.998216, 281, 279, 312, 294
-0.998217, 341, 173, 372, 188
-0.998218, 353, 165, 384, 180
-0.998218, 437, 141, 468, 156
-0.998221, 323, 169, 338, 232
-0.998221, 349, 275, 380, 290
-0.998221, 245, 265, 276, 328
-0.998223, 261, 245, 292, 260
-0.998223, 269, 187, 300, 202
-0.998227, 325, 173, 356, 188
-0.998229, 381, 155, 412, 170
-0.998229, 241, 191, 272, 206
-0.998232, 449, 143, 480, 158
-0.998234, 153, 133, 184, 148
-0.998234, 443, 137, 458, 200
-0.998235, 401, 149, 432, 164
-0.998235, 313, 177, 344, 192
-0.998236, 413, 153, 444, 168
-0.998239, 273, 193, 304, 208
-0.998239, 257, 193, 288, 208
-0.99824, 353, 171, 384, 186
-0.998242, 201, 187, 232, 202
-0.998243, 141, 175, 172, 190
-0.998244, 301, 181, 332, 196
-0.998245, 145, 201, 176, 216
-0.998247, 269, 257, 300, 272
-0.998247, 141, 181, 172, 196
-0.998248, 141, 167, 172, 182
-0.998249, 437, 147, 468, 162
-0.998249, 197, 193, 228, 208
-0.998253, 285, 189, 316, 204
-0.998254, 305, 249, 336, 264
-0.998256, 141, 153, 172, 168
-0.998256, 453, 137, 484, 152
-0.998256, 157, 181, 188, 196
-0.998256, 365, 167, 396, 182
-0.998256, 425, 151, 456, 166
-0.998258, 185, 193, 216, 208
-0.998258, 157, 159, 188, 174
-0.998258, 157, 165, 188, 180
-0.998259, 141, 159, 172, 174
-0.998263, 293, 255, 324, 270
-0.998263, 157, 171, 188, 186
-0.998263, 173, 195, 204, 210
-0.998264, 421, 121, 452, 184
-0.998264, 209, 207, 240, 222
-0.998268, 281, 273, 312, 288
-0.998268, 479, 121, 494, 184
-0.998272, 157, 153, 188, 168
-0.998274, 473, 121, 488, 184
-0.998275, 225, 187, 256, 202
-0.998276, 141, 133, 172, 148
-0.998277, 225, 215, 256, 230
-0.998278, 137, 187, 168, 202
-0.99828, 311, 169, 326, 232
-0.998283, 333, 161, 348, 224
-0.998284, 157, 139, 188, 154
-0.998284, 101, 135, 132, 150
-0.998285, 377, 161, 408, 176
-0.998285, 173, 207, 204, 222
-0.998285, 141, 145, 172, 160
-0.998286, 151, 153, 166, 216
-0.998289, 157, 187, 188, 202
-0.99829, 213, 187, 244, 202
-0.998291, 229, 199, 260, 214
-0.998292, 465, 133, 496, 148
-0.998293, 213, 201, 244, 216
-0.998294, 265, 251, 296, 266
-0.998295, 97, 3, 128, 18
-0.998297, 97, 9, 128, 24
-0.998297, 97, 15, 128, 30
-0.998297, 97, 21, 128, 36
-0.998298, 97, 27, 128, 42
-0.998299, 157, 199, 188, 214
-0.9983, 393, 155, 424, 170
-0.998301, 189, 205, 220, 220
-0.998301, 213, 213, 244, 228
-0.998304, 281, 261, 312, 276
-0.998305, 97, 33, 128, 48
-0.998307, 113, 1, 144, 16
-0.998308, 113, 9, 144, 24
-0.998308, 113, 15, 144, 30
-0.998308, 113, 21, 144, 36
-0.998308, 113, 27, 144, 42
-0.998309, 281, 243, 312, 258
-0.998309, 113, 33, 144, 48
-0.998311, 97, 39, 128, 54
-0.998311, 97, 45, 128, 60
-0.998313, 113, 39, 144, 54
-0.998313, 113, 45, 144, 60
-0.998314, 181, 219, 212, 234
-0.998314, 97, 55, 128, 70
-0.998316, 173, 213, 204, 228
-0.998318, 113, 83, 144, 98
-0.998318, 113, 51, 144, 66
-0.998319, 229, 209, 260, 224
-0.99832, 97, 61, 128, 76
-0.99832, 113, 95, 144, 110
-0.998322, 1, 121, 256, 184
-0.998323, 97, 69, 128, 84
-0.998323, 141, 195, 172, 210
-0.998325, 169, 201, 200, 216
-0.998325, 113, 57, 144, 72
-0.998326, 349, 161, 364, 224
-0.998326, 97, 81, 128, 96
-0.998328, 97, 129, 128, 144
-0.998328, 113, 63, 144, 78
-0.998329, 113, 71, 144, 86
-0.99833, 113, 89, 144, 104
-0.99833, 113, 77, 144, 92
-0.998331, 97, 119, 128, 134
-0.998332, 157, 147, 188, 162
-0.998332, 97, 109, 128, 124
-0.998333, 189, 199, 220, 214
-0.998333, 97, 75, 128, 90
-0.998333, 309, 129, 340, 256
-0.998334, 97, 87, 128, 102
-0.998334, 97, 103, 128, 118
-0.998337, 97, 93, 128, 108
-0.998337, 113, 101, 144, 116
-0.998341, 129, 131, 160, 146
-0.998346, 113, 1, 144, 256
-0.99835, 141, 105, 172, 168
-0.998351, 317, 169, 332, 232
-0.998351, 281, 249, 312, 264
-0.998354, 193, 223, 224, 238
-0.998357, 357, 113, 388, 240
-0.998365, 127, 133, 142, 164
-0.998368, 229, 193, 260, 208
-0.998377, 159, 121, 174, 184
-0.998377, 339, 161, 354, 224
-0.998378, 113, 119, 144, 134
-0.998379, 113, 135, 144, 150
-0.998383, 125, 137, 156, 152
-0.998385, 153, 193, 184, 208
-0.998386, 113, 221, 240, 252
-0.998387, 117, 107, 148, 122
-0.998392, 297, 237, 312, 268
-0.998392, 193, 213, 224, 228
-0.998398, 117, 113, 148, 128
-0.998402, 117, 129, 132, 160
-0.998404, 213, 217, 228, 248
-0.998407, 159, 181, 174, 212
-0.998417, 209, 219, 240, 234
-0.998418, 117, 127, 148, 142
-0.998422, 225, 209, 240, 240
-0.998427, 281, 237, 312, 252
-0.998436, 137, 139, 168, 154
-0.998439, 369, 265, 384, 328
-0.99844, 209, 193, 240, 208
-0.998443, 289, 157, 416, 188
-0.998448, 377, 265, 408, 328
-0.998451, 183, 197, 198, 228
-0.998454, 125, 105, 140, 168
-0.998458, 285, 257, 300, 288
-0.998464, 453, 65, 484, 192
-0.998487, 237, 161, 252, 224
-0.998493, 119, 101, 134, 132
-0.998505, 367, 241, 382, 304
-0.998517, 193, 201, 208, 232
-0.998527, 111, 117, 126, 148
-0.998531, 485, 129, 500, 192
-0.998535, 393, 241, 456, 304
-0.998536, 177, 209, 240, 224
-0.998538, 185, 199, 248, 214
-0.998539, 171, 169, 186, 232
-0.998547, 257, 129, 288, 256
-0.998549, 295, 257, 310, 288
-0.998564, 105, 119, 168, 134
-0.998572, 105, 137, 168, 152
-0.998575, 357, 241, 372, 304
-0.99858, 137, 199, 200, 214
-0.998586, 105, 113, 168, 128
-0.998588, 109, 81, 124, 112
-0.998592, 133, 133, 148, 164
-0.998594, 165, 169, 180, 232
-0.998597, 377, 97, 408, 224
-0.998601, 145, 193, 208, 208
-0.998602, 185, 215, 248, 230
-0.998604, 191, 217, 206, 248
-0.998605, 105, 129, 168, 144
-0.998621, 257, 161, 272, 224
-0.998622, 177, 193, 240, 208
-0.998624, 145, 205, 208, 220
-0.998626, 273, 243, 336, 258
-0.998627, 267, 161, 282, 224
-0.998628, 141, 65, 172, 320
-0.998629, 217, 195, 280, 210
-0.99863, 273, 161, 288, 224
-0.998632, 365, 129, 396, 192
-0.998636, 375, 265, 390, 328
-0.998643, 105, 107, 168, 122
-0.998644, 145, 215, 208, 230
-0.998644, 73, 127, 136, 142
-0.998646, 73, 113, 136, 128
-0.998648, 283, 161, 298, 224
-0.99865, 151, 105, 166, 168
-0.998652, 105, 99, 168, 114
-0.998655, 73, 107, 136, 122
-0.998657, 105, 93, 168, 108
-0.998659, 177, 221, 240, 236
-0.998662, 73, 119, 136, 134
-0.998662, 385, 155, 448, 170
-0.998663, 73, 99, 136, 114
-0.998663, 81, 133, 144, 148
-0.998664, 105, 87, 168, 102
-0.998664, 153, 187, 216, 202
-0.998666, 353, 137, 384, 200
-0.998666, 105, 45, 168, 60
-0.998666, 105, 51, 168, 66
-0.998666, 105, 57, 168, 72
-0.998666, 105, 63, 168, 78
-0.998666, 105, 69, 168, 84
-0.998666, 105, 75, 168, 90
-0.998666, 105, 81, 168, 96
-0.998666, 199, 221, 214, 252
-0.998667, 73, 83, 136, 98
-0.99867, 73, 93, 136, 108
-0.998672, 73, 77, 136, 92
-0.998672, 217, 189, 280, 204
-0.998673, 105, 39, 168, 54
-0.998673, 113, 193, 176, 208
-0.998674, 273, 237, 336, 252
-0.998674, 145, 143, 208, 158
-0.998674, 159, 193, 174, 224
-0.998675, 73, 69, 136, 84
-0.998675, 381, 249, 396, 312
-0.998676, 73, 63, 136, 78
-0.998676, 73, 45, 136, 60
-0.998676, 73, 51, 136, 66
-0.998676, 73, 57, 136, 72
-0.998676, 273, 251, 336, 266
-0.998678, 105, 33, 168, 48
-0.998679, 217, 211, 280, 226
-0.998679, 129, 129, 256, 160
-0.998681, 105, 27, 168, 42
-0.998682, 209, 217, 272, 232
-0.998683, 105, 21, 168, 36
-0.998683, 73, 39, 136, 54
-0.998683, 105, 3, 168, 18
-0.998683, 105, 9, 168, 24
-0.998683, 105, 15, 168, 30
-0.998686, 109, 97, 124, 128
-0.998689, 153, 177, 168, 208
-0.99869, 73, 33, 136, 48
-0.998691, 375, 241, 390, 304
-0.998692, 73, 23, 136, 38
-0.998692, 73, 5, 136, 20
-0.998692, 73, 11, 136, 26
-0.998692, 73, 17, 136, 32
-0.998693, 217, 203, 280, 218
-0.998697, 219, 217, 234, 248
-0.998698, 249, 251, 312, 266
-0.998698, 369, 161, 432, 176
-0.998699, 273, 257, 336, 272
-0.9987, 141, 137, 156, 168
-0.9987, 251, 161, 266, 224
-0.9987, 257, 279, 320, 294
-0.998701, 113, 187, 176, 202
-0.998701, 113, 181, 176, 196
-0.998702, 119, 89, 134, 120
-0.998703, 321, 173, 384, 188
-0.998705, 345, 167, 408, 182
-0.998706, 417, 149, 480, 164
-0.998707, 145, 149, 208, 164
-0.998708, 113, 143, 176, 158
-0.998708, 291, 161, 306, 224
-0.998709, 145, 181, 208, 196
-0.99871, 113, 151, 176, 166
-0.998711, 113, 169, 176, 184
-0.998711, 145, 165, 208, 180
-0.998711, 297, 179, 360, 194
-0.998712, 353, 125, 480, 156
-0.998713, 223, 185, 238, 216
-0.998713, 145, 135, 208, 150
-0.998713, 207, 217, 222, 248
-0.998713, 297, 251, 360, 266
-0.998714, 145, 159, 208, 174
-0.998714, 145, 171, 208, 186
-0.998719, 113, 175, 176, 190
-0.998719, 249, 191, 312, 206
-0.998721, 309, 225, 324, 288
-0.998721, 113, 161, 176, 176
-0.998725, 113, 199, 176, 214
-0.998725, 297, 283, 360, 298
-0.998727, 257, 273, 320, 288
-0.998727, 217, 287, 280, 302
-0.998727, 249, 237, 312, 252
-0.998727, 433, 135, 496, 150
-0.998728, 153, 221, 216, 236
-0.998728, 385, 149, 448, 164
-0.998731, 233, 281, 296, 296
-0.998731, 281, 185, 344, 200
-0.998732, 361, 155, 424, 170
-0.998733, 417, 143, 480, 158
-0.998733, 289, 297, 352, 312
-0.998735, 321, 289, 448, 320
-0.998735, 109, 69, 124, 100
-0.998737, 233, 245, 296, 260
-0.998737, 249, 259, 312, 274
-0.998739, 161, 199, 224, 214
-0.998739, 297, 277, 360, 292
-0.99874, 257, 285, 320, 300
-0.99874, 289, 145, 416, 176
-0.998742, 193, 187, 256, 202
-0.998745, 289, 303, 352, 318
-0.998746, 387, 129, 402, 192
-0.998747, 345, 161, 408, 176
-0.998748, 337, 277, 400, 292
-0.998748, 273, 191, 336, 206
-0.998748, 217, 293, 280, 308
-0.998753, 289, 291, 352, 306
-0.998754, 409, 137, 472, 152
-0.998756, 289, 231, 352, 246
-0.998758, 209, 237, 336, 268
-0.998758, 321, 163, 384, 178
-0.998758, 345, 315, 408, 330
-0.998761, 297, 173, 360, 188
-0.998761, 257, 291, 320, 306
-0.998763, 129, 129, 192, 144
-0.998764, 117, 49, 132, 80
-0.998767, 241, 185, 304, 200
-0.998768, 337, 155, 400, 170
-0.998769, 209, 301, 272, 316
-0.998769, 233, 275, 296, 290
-0.998769, 409, 155, 472, 170
-0.998769, 249, 303, 312, 318
-0.99877, 241, 197, 304, 212
-0.99877, 409, 131, 472, 146
-0.998771, 337, 283, 400, 298
-0.998773, 301, 253, 316, 284
-0.998773, 297, 245, 360, 260
-0.998775, 433, 129, 496, 144
-0.998775, 351, 241, 366, 304
-0.998775, 257, 297, 320, 312
-0.998782, 117, 65, 132, 96
-0.998783, 279, 253, 294, 284
-0.998785, 233, 181, 248, 212
-0.998785, 245, 161, 260, 224
-0.998788, 135, 117, 150, 148
-0.998803, 193, 169, 320, 200
-0.998804, 117, 37, 132, 68
-0.998808, 345, 265, 360, 328
-0.99881, 421, 121, 436, 184
-0.99881, 427, 121, 442, 184
-0.998812, 145, 125, 160, 156
-0.998823, 297, 161, 312, 224
-0.998834, 109, 57, 124, 88
-0.998834, 231, 205, 246, 236
-0.998838, 209, 137, 336, 200
-0.998846, 415, 121, 430, 184
-0.998847, 231, 161, 246, 224
-0.998849, 129, 269, 256, 300
-0.998849, 117, 25, 132, 56
-0.998852, 289, 225, 416, 256
-0.998853, 117, 77, 132, 108
-0.998861, 449, 113, 464, 176
-0.998865, 185, 209, 200, 240
-0.998867, 169, 193, 184, 224
-0.998869, 161, 145, 176, 176
-0.998877, 193, 269, 320, 300
-0.998878, 109, 45, 124, 76
-0.998888, 177, 221, 304, 252
-0.998896, 193, 169, 208, 232
-0.998896, 461, 133, 476, 164
-0.998898, 455, 137, 470, 168
-0.9989, 125, 65, 156, 320
-0.9989, 175, 193, 190, 224
-0.9989, 159, 125, 174, 156
-0.99891, 405, 121, 420, 184
-0.998911, 117, 13, 132, 44
-0.998913, 381, 129, 396, 192
-0.998915, 427, 149, 442, 180
-0.998921, 109, 33, 124, 64
-0.998927, 393, 121, 424, 184
-0.998927, 399, 149, 414, 180
-0.998927, 111, 129, 126, 160
-0.99893, 325, 113, 356, 240
-0.998931, 381, 157, 396, 188
-0.998931, 267, 189, 282, 220
-0.998935, 393, 153, 408, 184
-0.998935, 125, 121, 140, 152
-0.998942, 291, 233, 306, 264
-0.998945, 117, 1, 132, 32
-0.998951, 201, 209, 216, 240
-0.998955, 387, 249, 402, 312
-0.998956, 97, 1, 128, 256
-0.99896, 289, 177, 304, 304
-0.998968, 157, 65, 188, 320
-0.998971, 433, 145, 448, 176
-0.998971, 261, 189, 276, 220
-0.998975, 151, 129, 166, 256
-0.998975, 291, 185, 306, 216
-0.998976, 441, 113, 456, 176
-0.998978, 109, 21, 124, 52
-0.998978, 277, 241, 292, 272
-0.998979, 193, 189, 208, 220
-0.998979, 393, 121, 408, 184
-0.99898, 151, 201, 166, 232
-0.998983, 303, 265, 318, 328
-0.998984, 375, 161, 390, 192
-0.998993, 33, 225, 160, 288
-0.998994, 459, 105, 474, 168
-0.998997, 387, 153, 402, 184
-0.999, 253, 189, 268, 220
-0.999, 109, 9, 124, 40
-0.999004, 399, 121, 414, 184
-0.999006, 285, 189, 300, 220
-0.99901, 147, 209, 162, 272
-0.999032, 245, 189, 260, 220
-0.999032, 277, 189, 292, 220
-0.99905, 239, 189, 254, 220
-0.999055, 217, 205, 232, 236
-0.999061, 405, 149, 420, 180
-0.999066, 151, 125, 166, 156
-0.999066, 421, 149, 436, 180
-0.999075, 305, 241, 320, 272
-0.999076, 449, 141, 464, 172
-0.99908, 281, 269, 296, 300
-0.999087, 295, 177, 310, 304
-0.99909, 467, 129, 482, 160
-0.999096, 183, 185, 198, 216
-0.999108, 369, 165, 384, 196
-0.999109, 479, 129, 494, 160
-0.999115, 297, 181, 312, 212
-0.999116, 145, 189, 160, 220
-0.999119, 159, 169, 174, 200
-0.99912, 469, 65, 500, 192
-0.999123, 17, 129, 144, 160
-0.999128, 443, 141, 458, 172
-0.999128, 415, 145, 430, 176
-0.999132, 361, 165, 376, 196
-0.999138, 151, 149, 166, 180
-0.99914, 215, 181, 230, 212
-0.999151, 369, 285, 496, 316
-0.999169, 151, 165, 166, 196
-0.999173, 279, 177, 294, 304
-0.999173, 257, 65, 288, 320
-0.999174, 209, 257, 336, 288
-0.99918, 355, 165, 370, 196
-0.99918, 291, 245, 306, 276
-0.999189, 207, 205, 222, 236
-0.999198, 161, 157, 176, 188
-0.999203, 349, 169, 364, 200
-0.999203, 323, 173, 338, 204
-0.999206, 329, 169, 344, 200
-0.999207, 221, 129, 252, 256
-0.999207, 17, 177, 144, 240
-0.99922, 423, 137, 438, 168
-0.999221, 345, 217, 408, 280
-0.999221, 209, 189, 224, 220
-0.999225, 473, 125, 488, 156
-0.999229, 199, 185, 214, 216
-0.99923, 369, 273, 496, 304
-0.99923, 303, 177, 318, 208
-0.999233, 369, 153, 384, 184
-0.999233, 275, 177, 290, 208
-0.999236, 337, 113, 368, 240
-0.99924, 343, 169, 358, 200
-0.999242, 33, 241, 288, 304
-0.999246, 449, 65, 480, 320
-0.99925, 375, 149, 390, 180
-0.99925, 265, 177, 280, 208
-0.99925, 275, 273, 290, 304
-0.999252, 393, 141, 408, 172
-0.999258, 161, 145, 176, 272
-0.999259, 335, 165, 350, 196
-0.999264, 313, 173, 328, 204
-0.999264, 265, 209, 296, 272
-0.999268, 381, 145, 396, 176
-0.999268, 181, 193, 196, 320
-0.999281, 285, 177, 300, 208
-0.999285, 285, 245, 300, 276
-0.999289, 485, 133, 500, 164
-0.999294, 361, 269, 376, 300
-0.999297, 117, 129, 132, 256
-0.999297, 299, 293, 314, 324
-0.999297, 127, 129, 142, 256
-0.999297, 241, 157, 368, 188
-0.9993, 141, 129, 156, 256
-0.9993, 171, 181, 186, 212
-0.999301, 309, 229, 324, 260
-0.999302, 257, 177, 272, 208
-0.999305, 403, 137, 418, 168
-0.999308, 165, 181, 180, 212
-0.999311, 49, 281, 176, 312
-0.99932, 303, 177, 318, 304
-0.999328, 213, 209, 228, 330
-0.999335, 341, 65, 372, 320
-0.999339, 129, 225, 192, 288
-0.999343, 157, 193, 172, 320
-0.999345, 229, 177, 244, 304
-0.999346, 219, 209, 234, 330
-0.999365, 229, 265, 260, 328
-0.999378, 109, 49, 124, 176
-0.999384, 165, 193, 180, 320
-0.999385, 433, 33, 464, 288
-0.999398, 175, 193, 190, 320
-0.999398, 235, 177, 250, 304
-0.999399, 285, 65, 316, 320
-0.999404, 273, 177, 288, 304
-0.999404, 135, 129, 150, 256
-0.999414, 119, 49, 134, 176
-0.999419, 203, 177, 218, 304
-0.999435, 267, 177, 282, 304
-0.999442, 187, 193, 202, 320
-0.999444, 277, 191, 292, 206
-0.999444, 313, 65, 344, 320
-0.999445, 289, 191, 304, 206
-0.999445, 373, 165, 388, 180
-0.999446, 253, 191, 268, 206
-0.999447, 193, 209, 208, 330
-0.999447, 233, 199, 248, 214
-0.999448, 451, 147, 466, 162
-0.999449, 271, 191, 286, 206
-0.99945, 221, 209, 236, 224
-0.999451, 259, 191, 274, 206
-0.999453, 161, 159, 176, 174
-0.999454, 261, 177, 276, 304
-0.999455, 207, 215, 222, 230
-0.999455, 325, 161, 340, 288
-0.999455, 159, 165, 174, 180
-0.999456, 387, 159, 402, 174
-0.999457, 151, 167, 166, 182
-0.999457, 395, 155, 410, 170
-0.999458, 425, 153, 440, 168
-0.999458, 213, 187, 228, 202
-0.999459, 281, 239, 296, 254
-0.999459, 151, 155, 166, 170
-0.999459, 151, 173, 166, 188
-0.999459, 195, 215, 210, 230
-0.999459, 463, 135, 478, 150
-0.99946, 205, 197, 220, 212
-0.99946, 457, 141, 472, 156
-0.999461, 401, 153, 416, 168
-0.999461, 379, 163, 394, 178
-0.999461, 291, 253, 306, 268
-0.999461, 265, 193, 280, 208
-0.999462, 159, 177, 174, 192
-0.999462, 151, 161, 166, 176
-0.999463, 159, 199, 174, 214
-0.999464, 111, 135, 126, 150
-0.999464, 159, 171, 174, 186
-0.999464, 183, 215, 198, 230
-0.999465, 143, 191, 158, 206
-0.999466, 151, 147, 166, 162
-0.999466, 151, 179, 166, 194
-0.999467, 153, 201, 168, 216
-0.999467, 307, 251, 322, 266
-0.999468, 165, 199, 180, 214
-0.999468, 431, 151, 446, 166
-0.999472, 125, 129, 140, 144
-0.999472, 173, 197, 188, 212
-0.999474, 161, 153, 176, 168
-0.999474, 109, 1, 124, 16
-0.999477, 299, 239, 314, 254
-0.999477, 275, 249, 290, 264
-0.999477, 109, 15, 124, 30
-0.999478, 253, 177, 268, 304
-0.999479, 109, 7, 124, 22
-0.99948, 215, 213, 230, 228
-0.999481, 365, 33, 396, 288
-0.999482, 159, 185, 174, 200
-0.999483, 201, 191, 216, 206
-0.999483, 383, 145, 398, 272
-0.999484, 109, 25, 124, 40
-0.999484, 223, 161, 238, 288
-0.999486, 109, 31, 124, 46
-0.999486, 109, 41, 124, 56
-0.999489, 117, 1, 132, 16
-0.999489, 109, 47, 124, 62
-0.99949, 301, 255, 316, 270
-0.999491, 227, 189, 242, 204
-0.999492, 151, 185, 166, 200
-0.999492, 117, 9, 132, 24
-0.999493, 279, 255, 294, 270
-0.999493, 193, 201, 208, 216
-0.999494, 461, 1, 492, 256
-0.999495, 109, 53, 124, 68
-0.999495, 117, 19, 132, 34
-0.999496, 49, 229, 176, 260
-0.999498, 233, 205, 248, 220
-0.999498, 117, 33, 132, 48
-0.999499, 391, 145, 406, 272
-0.999499, 109, 61, 124, 76
-0.999499, 247, 177, 262, 304
-0.9995, 117, 1, 132, 128
-0.9995, 109, 67, 124, 82
-0.9995, 117, 25, 132, 40
-0.9995, 201, 217, 216, 232
-0.999501, 117, 83, 132, 98
-0.999503, 117, 41, 132, 56
-0.999504, 117, 89, 132, 104
-0.999504, 289, 261, 304, 276
-0.999504, 451, 129, 466, 256
-0.999504, 283, 245, 298, 260
-0.999505, 117, 47, 132, 62
-0.999505, 219, 191, 234, 206
-0.999506, 109, 117, 124, 132
-0.999506, 159, 137, 174, 152
-0.999506, 295, 259, 310, 274
-0.999506, 109, 91, 124, 106
-0.999506, 241, 169, 368, 200
-0.999508, 189, 65, 220, 320
-0.999509, 293, 235, 308, 250
-0.999509, 117, 59, 132, 74
-0.999509, 109, 73, 124, 88
-0.99951, 147, 197, 162, 212
-0.99951, 17, 161, 144, 288
-0.99951, 211, 193, 226, 208
-0.999511, 117, 53, 132, 68
-0.999511, 331, 161, 346, 288
-0.999512, 407, 145, 422, 272
-0.999513, 117, 65, 132, 80
-0.999513, 117, 77, 132, 92
-0.999513, 119, 119, 134, 134
-0.999514, 117, 71, 132, 86
-0.999514, 183, 209, 198, 224
-0.999516, 151, 133, 166, 148
-0.999516, 183, 199, 198, 214
-0.999516, 109, 123, 124, 138
-0.999517, 137, 131, 152, 146
-0.999517, 109, 97, 124, 112
-0.999518, 225, 203, 240, 218
-0.999519, 131, 131, 146, 146
-0.999521, 109, 79, 124, 94
-0.999522, 109, 85, 124, 100
-0.999522, 109, 109, 124, 124
-0.999526, 111, 97, 126, 224
-0.999527, 143, 131, 158, 146
-0.999527, 427, 145, 442, 272
-0.999529, 401, 145, 416, 272
-0.999529, 231, 211, 246, 226
-0.999529, 319, 161, 334, 288
-0.99953, 241, 177, 256, 304
-0.99953, 203, 223, 218, 238
-0.999531, 377, 145, 392, 272
-0.999531, 109, 103, 124, 118
-0.999531, 193, 207, 208, 222
-0.999532, 119, 101, 134, 116
-0.999532, 161, 147, 176, 162
-0.999532, 413, 145, 428, 272
-0.999535, 151, 177, 166, 304
-0.999535, 419, 145, 434, 272
-0.999536, 111, 129, 126, 144
-0.999536, 119, 95, 134, 110
-0.999537, 195, 223, 210, 238
-0.999538, 417, 33, 448, 288
-0.999538, 189, 219, 204, 234
-0.99954, 143, 139, 158, 154
-0.999542, 133, 137, 148, 152
-0.999544, 457, 129, 472, 256
-0.999544, 337, 161, 352, 288
-0.999545, 347, 161, 362, 288
-0.999545, 369, 297, 496, 328
-0.999548, 287, 237, 302, 252
-0.999551, 233, 193, 248, 208
-0.999552, 209, 221, 224, 236
-0.999555, 119, 113, 134, 128
-0.999555, 371, 145, 386, 272
-0.999557, 225, 215, 240, 230
-0.999558, 127, 137, 142, 152
-0.99956, 159, 191, 174, 206
-0.999562, 225, 197, 240, 212
-0.999563, 445, 129, 460, 256
-0.999563, 117, 135, 132, 150
-0.999564, 321, 261, 448, 292
-0.999568, 385, 33, 416, 288
-0.999571, 329, 257, 360, 320
-0.999574, 109, 1, 124, 128
-0.999575, 313, 161, 328, 288
-0.999575, 119, 107, 134, 122
-0.999581, 435, 129, 450, 256
-0.999581, 401, 33, 432, 288
-0.999581, 357, 161, 372, 288
-0.999582, 119, 125, 134, 140
-0.999583, 131, 81, 146, 208
-0.999583, 215, 219, 230, 234
-0.999585, 337, 241, 464, 272
-0.999594, 365, 145, 380, 272
-0.999604, 475, 113, 490, 240
-0.999609, 151, 141, 166, 156
-0.999611, 193, 161, 208, 288
-0.99962, 153, 195, 168, 210
-0.999622, 467, 113, 482, 240
-0.999623, 167, 145, 182, 272
-0.999623, 49, 241, 176, 272
-0.999635, 481, 113, 496, 240
-0.999636, 273, 201, 400, 232
-0.999639, 337, 229, 464, 260
-0.999646, 235, 129, 250, 256
-0.999655, 49, 269, 176, 300
-0.999655, 209, 65, 240, 320
-0.999656, 173, 65, 204, 320
-0.999664, 143, 81, 158, 208
-0.999666, 193, 129, 224, 256
-0.99967, 353, 65, 384, 320
-0.999673, 125, 81, 140, 208
-0.999676, 179, 145, 194, 272
-0.999678, 209, 161, 224, 288
-0.999678, 49, 209, 176, 240
-0.99969, 65, 297, 192, 328
-0.999692, 161, 97, 176, 224
-0.999694, 215, 145, 230, 272
-0.999694, 1, 265, 128, 328
-0.999696, 269, 65, 300, 320
-0.999699, 245, 65, 276, 320
-0.999703, 293, 129, 308, 256
-0.999706, 173, 145, 188, 272
-0.999708, 137, 81, 152, 208
-0.999712, 449, 105, 480, 168
-0.999713, 257, 129, 272, 256
-0.999715, 419, 97, 434, 224
-0.999716, 269, 129, 284, 256
-0.999717, 279, 129, 294, 256
-0.999718, 325, 65, 356, 320
-0.999718, 413, 97, 428, 224
-0.999718, 145, 209, 176, 272
-0.99972, 285, 129, 300, 256
-0.999722, 187, 145, 202, 272
-0.999725, 263, 129, 278, 256
-0.999726, 427, 97, 442, 224
-0.999728, 251, 129, 266, 256
-0.99974, 245, 129, 260, 256
-0.999743, 299, 129, 314, 256
-0.999743, 403, 97, 418, 224
-0.999746, 229, 129, 244, 256
-0.999748, 151, 81, 166, 208
-0.999751, 257, 265, 288, 328
-0.999757, 1, 257, 500, 320
-0.999758, 307, 129, 322, 256
-0.999758, 397, 97, 412, 224
-0.999762, 297, 65, 328, 320
-0.99977, 143, 209, 158, 330
-0.999772, 353, 193, 480, 256
-0.999772, 233, 65, 264, 320
-0.99978, 391, 97, 406, 224
-0.999781, 461, 81, 476, 208
-0.999788, 447, 81, 462, 208
-0.999797, 385, 97, 400, 224
-0.999801, 81, 257, 208, 288
-0.999805, 455, 81, 470, 208
-0.99981, 359, 113, 374, 240
-0.999816, 435, 81, 450, 208
-0.999818, 333, 113, 348, 240
-0.999819, 441, 81, 456, 208
-0.99982, 379, 97, 394, 224
-0.999825, 353, 113, 368, 240
-0.999827, 483, 65, 498, 192
-0.999828, 475, 65, 490, 192
-0.999828, 319, 113, 334, 240
-0.999829, 373, 97, 388, 224
-0.99983, 469, 65, 484, 192
-0.999833, 345, 113, 360, 240
-0.999845, 339, 113, 354, 240
-0.999846, 203, 129, 218, 256
-0.999852, 325, 113, 340, 240
-0.999856, 137, 177, 152, 304
-0.99986, 309, 209, 324, 330
-0.999864, 365, 97, 380, 224
-0.999871, 273, 113, 400, 176
-0.999873, 313, 113, 328, 240
-0.999912, 221, 65, 252, 320
-0.999916, 349, 209, 364, 330
-0.999916, 359, 209, 374, 330
-0.999917, 341, 137, 372, 200
-0.999927, 369, 209, 384, 330
-0.999928, 305, 65, 432, 192
-0.999938, 321, 209, 336, 330
-0.999941, 315, 209, 330, 330
-0.999952, 181, 169, 212, 232
-0.999954, 375, 209, 390, 330
-0.999963, 327, 209, 342, 330
-0.999966, 343, 209, 358, 330
-0.999969, 99, 129, 114, 256
-0.999974, 335, 209, 350, 330
-0.999983, 131, 193, 146, 320
-0.999994, 381, 209, 396, 330
-1, 17, 293, 144, 324
-1.00001, 289, 213, 416, 244
-1.00002, 305, 133, 432, 164
-1.00003, 387, 209, 402, 330
-1.00003, 241, 225, 368, 256
-1.00003, 93, 129, 108, 256
-1.00004, 105, 129, 120, 256
-1.00004, 111, 145, 126, 272
-1.00004, 399, 209, 414, 330
-1.00004, 369, 113, 496, 144
-1.00004, 17, 185, 144, 216
-1.00005, 293, 153, 324, 216
-1.00005, 97, 245, 224, 276
-1.00006, 17, 153, 144, 216
-1.00007, 465, 97, 496, 160
-1.00007, 381, 241, 412, 304
-1.00008, 177, 153, 240, 216
-1.00009, 305, 181, 432, 212
-1.0001, 113, 233, 240, 264
-1.00013, 125, 185, 156, 248
-1.00013, 137, 249, 168, 312
-1.00023, 129, 89, 192, 152
-1.00023, 321, 193, 448, 224
-1.00026, 33, 197, 160, 228
-1.00027, 337, 217, 464, 248
-1.0003, 161, 257, 288, 288
-1.00032, 161, 233, 288, 264
-1.00032, 369, 261, 496, 292
-1.00036, 393, 265, 424, 328
-1.00037, 361, 209, 424, 330
-1.00042, 1, 237, 128, 268
-1.00042, 17, 257, 144, 288
-1.00043, 17, 157, 144, 188
-1.00043, 1, 269, 128, 300
-1.00045, 1, 145, 128, 176
-1.0005, 353, 181, 480, 212
-1.00052, 1, 221, 128, 252
-1.00053, 1, 281, 128, 312
-1.00053, 17, 173, 144, 204
-1.00053, 353, 205, 480, 236
-1.00055, 329, 137, 360, 200
-1.00055, 121, 193, 152, 320
-1.00056, 1, 209, 128, 240
-1.00057, 369, 17, 496, 80
-1.00057, 177, 217, 208, 280
-1.00062, 145, 245, 272, 276
-1.00065, 369, 49, 496, 80
-1.00072, 369, 61, 496, 92
-1.00073, 369, 193, 496, 224
-1.00074, 145, 117, 272, 148
-1.00074, 369, 49, 496, 112
-1.00076, 369, 21, 496, 52
-1.00078, 369, 85, 496, 116
-1.00079, 369, 33, 496, 64
-1.0008, 313, 185, 376, 248
-1.0008, 369, 9, 496, 40
-1.0008, 369, 97, 496, 128
-1.00082, 425, 265, 488, 328
-1.00083, 193, 157, 320, 188
-1.00086, 369, 73, 496, 104
-1.00087, 309, 249, 340, 312
-1.00088, 353, 209, 384, 330
-1.0009, 1, 233, 500, 296
-1.00094, 241, 145, 368, 176
-1.00096, 305, 9, 432, 40
-1.00096, 321, 33, 448, 64
-1.00098, 321, 81, 448, 112
-1.00098, 145, 105, 272, 136
-1.00099, 321, 53, 448, 84
-1.00099, 153, 105, 184, 168
-1.001, 305, 21, 432, 52
-1.00101, 145, 93, 272, 124
-1.00102, 321, 69, 448, 100
-1.00102, 177, 137, 304, 168
-1.00103, 193, 105, 320, 136
-1.00104, 129, 25, 256, 56
-1.00106, 145, 81, 272, 112
-1.00106, 193, 93, 320, 124
-1.0011, 225, 225, 288, 288
-1.00111, 257, 25, 500, 88
-1.00111, 313, 209, 344, 330
-1.00118, 313, 145, 344, 208
-1.00119, 105, 265, 168, 328
-1.00124, 213, 153, 244, 216
-1.00128, 257, 49, 500, 112
-1.00129, 257, 89, 500, 152
-1.00129, 313, 201, 344, 264
-1.00131, 81, 137, 144, 200
-1.0014, 257, 1, 500, 64
-1.00144, 85, 1, 116, 256
-1.00145, 333, 233, 364, 296
-1.00146, 413, 265, 444, 328
-1.00151, 393, 241, 424, 304
-1.00153, 321, 25, 448, 88
-1.00154, 325, 209, 356, 330
-1.00156, 73, 1, 104, 256
-1.00166, 161, 9, 416, 72
-1.00168, 61, 65, 92, 320
-1.00172, 369, 1, 496, 128
-1.00175, 161, 41, 416, 104
-1.00178, 49, 1, 80, 256
-1.00179, 313, 225, 344, 288
-1.00181, 37, 1, 68, 256
-1.00182, 305, 1, 432, 64
-1.00184, 1, 65, 32, 320
-1.00184, 13, 65, 44, 320
-1.00184, 25, 65, 56, 320
-1.00194, 321, 49, 448, 112
-1.00208, 161, 65, 416, 128
-1.00218, 225, 81, 352, 208
-1.00222, 201, 241, 264, 304
-1.00232, 369, 73, 496, 136
-1.00234, 369, 201, 432, 264
-1.0024, 41, 1, 104, 330
-1.00243, 321, 73, 448, 136
-1.00243, 405, 241, 436, 304
-1.00252, 217, 265, 248, 328
-1.00276, 417, 233, 480, 296
-1.00276, 365, 209, 396, 330
-1.00277, 129, 17, 256, 80
-1.00279, 341, 209, 372, 330
-1.00283, 209, 113, 240, 240
-1.00287, 321, 1, 448, 128
-1.00288, 273, 41, 400, 104
-1.0029, 425, 265, 456, 328
-1.00291, 241, 1, 368, 64
-1.00291, 177, 17, 304, 80
-1.00291, 225, 25, 352, 88
-1.00291, 177, 41, 304, 104
-1.00291, 225, 49, 352, 112
-1.00291, 161, 65, 288, 128
-1.00291, 209, 73, 336, 136
-1.00291, 257, 81, 384, 144
-1.00291, 209, 97, 336, 160
-1.00291, 125, 233, 156, 296
-1.00295, 17, 1, 80, 330
-1.00296, 361, 217, 392, 280
-1.00322, 401, 209, 464, 272
-1.00322, 81, 177, 144, 240
-1.00322, 265, 137, 328, 200
-1.0033, 113, 265, 144, 328
-1.00332, 201, 265, 232, 328
-1.00333, 401, 209, 464, 330
-1.00342, 129, 41, 256, 104
-1.00347, 249, 241, 280, 304
-1.00358, 349, 217, 380, 280
-1.00361, 153, 265, 216, 328
-1.00362, 377, 209, 408, 330
-1.0037, 369, 177, 432, 240
-1.00376, 129, 209, 160, 272
-1.0039, 85, 129, 116, 256
-1.00397, 429, 241, 460, 304
-1.00403, 401, 161, 464, 224
-1.00412, 417, 241, 448, 304
-1.00435, 337, 193, 400, 256
-1.00437, 389, 209, 420, 330
-1.00438, 129, 161, 160, 224
-1.00444, 237, 241, 268, 304
-1.00449, 325, 209, 356, 272
-1.00452, 101, 145, 132, 272
-1.00459, 437, 265, 468, 328
-1.00459, 181, 113, 212, 240
-1.0046, 57, 265, 120, 328
-1.00476, 125, 265, 156, 328
-1.00481, 153, 241, 216, 304
-1.00484, 73, 201, 136, 264
-1.00484, 373, 217, 404, 280
-1.00485, 177, 241, 240, 304
-1.00488, 401, 209, 432, 330
-1.0049, 417, 209, 448, 330
-1.00501, 109, 177, 140, 240
-1.00506, 73, 225, 136, 288
-1.00513, 313, 81, 344, 208
-1.00522, 149, 49, 180, 176
-1.00523, 433, 201, 496, 264
-1.00525, 57, 137, 120, 200
-1.00525, 153, 249, 184, 312
-1.00535, 273, 1, 400, 128
-1.00536, 441, 241, 472, 304
-1.00543, 73, 161, 136, 288
-1.00551, 385, 217, 416, 280
-1.00557, 433, 209, 496, 330
-1.0056, 353, 105, 416, 168
-1.00575, 337, 209, 368, 272
-1.0058, 57, 161, 120, 224
-1.00586, 409, 89, 472, 152
-1.00592, 217, 241, 248, 304
-1.00593, 365, 65, 396, 192
-1.00595, 109, 209, 140, 330
-1.00607, 433, 209, 464, 330
-1.00607, 137, 81, 168, 144
-1.00608, 425, 25, 488, 88
-1.0061, 393, 185, 456, 248
-1.00623, 97, 177, 128, 240
-1.00638, 461, 265, 492, 328
-1.00638, 49, 201, 112, 264
-1.00643, 433, 57, 496, 120
-1.00644, 365, 193, 396, 256
-1.00645, 413, 1, 444, 128
-1.00646, 181, 265, 212, 328
-1.00648, 73, 209, 136, 330
-1.00649, 429, 1, 460, 128
-1.0065, 329, 185, 360, 248
-1.00656, 201, 153, 232, 216
-1.00664, 401, 33, 464, 96
-1.00667, 397, 217, 428, 280
-1.00673, 169, 265, 200, 328
-1.0068, 49, 113, 112, 176
-1.00684, 445, 1, 476, 128
-1.00687, 73, 129, 104, 256
-1.00688, 393, 49, 456, 176
-1.0069, 401, 1, 432, 128
-1.00692, 81, 81, 112, 208
-1.00692, 225, 1, 352, 128
-1.00699, 469, 1, 500, 128
-1.00701, 433, 1, 496, 128
-1.00704, 389, 17, 420, 144
-1.00705, 425, 1, 488, 64
-1.00705, 49, 233, 112, 296
-1.00712, 457, 1, 488, 128
-1.00726, 145, 65, 272, 192
-1.0073, 421, 49, 452, 176
-1.00733, 433, 153, 496, 216
-1.00733, 301, 81, 332, 208
-1.00735, 369, 17, 400, 144
-1.00739, 89, 177, 120, 304
-1.0074, 33, 265, 96, 328
-1.0074, 393, 1, 456, 128
-1.00751, 393, 9, 456, 72
-1.00754, 377, 41, 440, 104
-1.0076, 405, 49, 436, 176
-1.00763, 33, 177, 96, 240
-1.00767, 401, 57, 464, 120
-1.00781, 337, 33, 368, 160
-1.00781, 349, 65, 380, 192
-1.00782, 469, 209, 500, 330
-1.00786, 49, 89, 112, 152
-1.00787, 357, 17, 388, 144
-1.00789, 445, 193, 476, 320
-1.00793, 433, 81, 496, 144
-1.00797, 177, 17, 304, 144
-1.00803, 289, 121, 352, 184
-1.00808, 321, 33, 352, 160
-1.00811, 241, 137, 304, 200
-1.0082, 33, 153, 96, 216
-1.00821, 61, 129, 92, 256
-1.00822, 49, 129, 112, 256
-1.00826, 309, 33, 340, 160
-1.00846, 129, 65, 192, 128
-1.00846, 297, 33, 328, 160
-1.00848, 73, 177, 104, 304
-1.00848, 361, 17, 424, 80
-1.00848, 169, 113, 232, 176
-1.00854, 125, 33, 156, 160
-1.00856, 281, 33, 312, 160
-1.00856, 61, 81, 92, 208
-1.00859, 457, 209, 488, 330
-1.00864, 433, 177, 496, 240
-1.00864, 361, 1, 424, 128
-1.00864, 25, 129, 88, 192
-1.00865, 249, 33, 280, 160
-1.00869, 353, 41, 416, 104
-1.00877, 269, 33, 300, 160
-1.0088, 61, 193, 92, 320
-1.0088, 25, 105, 88, 168
-1.00883, 41, 57, 104, 120
-1.00889, 289, 81, 320, 208
-1.0089, 25, 241, 88, 304
-1.00895, 201, 137, 264, 200
-1.00899, 377, 65, 440, 128
-1.00901, 229, 33, 260, 160
-1.00902, 469, 161, 500, 288
-1.00903, 185, 89, 248, 152
-1.00903, 9, 177, 72, 240
-1.00915, 77, 33, 108, 160
-1.00918, 49, 65, 112, 320
-1.00918, 185, 1, 216, 128
-1.00918, 49, 65, 80, 192
-1.0092, 41, 33, 104, 96
-1.0092, 25, 217, 88, 280
-1.00921, 49, 161, 80, 288
-1.00924, 129, 41, 192, 104
-1.00924, 161, 65, 224, 128
-1.00924, 185, 65, 248, 128
-1.00924, 9, 153, 72, 216
-1.00926, 61, 1, 92, 128
-1.00929, 1, 129, 64, 192
-1.00929, 1, 217, 64, 280
-1.00929, 1, 241, 64, 304
-1.00929, 9, 265, 72, 328
-1.00934, 141, 1, 172, 128
-1.00936, 205, 1, 236, 128
-1.00936, 49, 17, 80, 144
-1.00936, 185, 49, 216, 176
-1.00936, 209, 49, 240, 176
-1.00937, 169, 33, 200, 160
-1.00939, 153, 1, 184, 128
-1.00939, 29, 33, 60, 160
-1.00939, 37, 81, 68, 208
-1.0095, 49, 209, 80, 330
-1.00956, 197, 65, 228, 192
-1.00956, 1, 209, 32, 330
-1.00956, 13, 209, 44, 330
-1.00956, 25, 209, 56, 330
-1.00956, 37, 209, 68, 330
-1.00997, 25, 1, 88, 256
-1.01007, 129, 33, 192, 160
-1.0102, 337, 17, 400, 144
-1.01042, 273, 81, 336, 208
-1.01062, 49, 81, 112, 208
-1.01086, 1, 65, 64, 320
-1.01117, 49, 193, 112, 320
-1.0114, 313, 33, 376, 160
-1.01176, 289, 33, 352, 160
-1.01267, 265, 33, 328, 160
-1.0128, 241, 33, 304, 160
-1.01292, 369, 49, 432, 176
-1.01296, 25, 129, 88, 256
-1.01302, 25, 81, 88, 208
-1.01364, 201, 33, 264, 160
-1.0139, 25, 193, 88, 320
-1.01406, 169, 1, 232, 128
-1.01429, 33, 17, 96, 144
-1.01442, 9, 33, 72, 160
-1.01471, 169, 49, 232, 176
-1.01478, 1, 113, 64, 240
-1.01478, 1, 161, 64, 288
-1.01478, 1, 209, 64, 330
-1.01513, 249, 81, 312, 208
-1.0154, 209, 81, 272, 208
-1.01682, 177, 97, 240, 224
