2053
-0.313222, 1, 1, 434, 500
-0.449079, 1, 97, 434, 352
-0.467621, 65, 1, 320, 500
-0.468861, 1, 225, 434, 480
-0.503961, 1, 1, 434, 256
-0.551772, 193, 1, 434, 500
-0.600764, 65, 97, 320, 352
-0.708628, 65, 1, 320, 256
-0.721902, 161, 129, 416, 384
-0.744224, 33, 193, 288, 448
-0.766835, 161, 33, 416, 288
-0.789301, 193, 225, 434, 480
-0.871225, 305, 1, 432, 500
-0.871434, 17, 161, 144, 416
-0.874985, 97, 1, 224, 500
-0.878051, 33, 257, 160, 500
-0.88883, 17, 1, 144, 500
-0.88963, 1, 33, 128, 288
-0.894715, 145, 1, 272, 500
-0.896044, 209, 97, 336, 352
-0.897482, 65, 129, 192, 384
-0.900541, 193, 1, 320, 500
-0.901749, 1, 97, 434, 224
-0.903155, 305, 225, 432, 480
-0.904192, 161, 97, 288, 352
-0.907112, 113, 97, 240, 352
-0.907871, 257, 1, 384, 256
-0.90791, 305, 33, 432, 288
-0.912045, 1, 209, 434, 336
-0.912101, 145, 1, 272, 256
-0.915195, 1, 161, 434, 288
-0.915515, 97, 225, 224, 480
-0.916618, 65, 33, 192, 288
-0.919898, 257, 1, 384, 500
-0.920482, 257, 129, 384, 384
-0.92392, 1, 17, 434, 144
-0.924655, 1, 257, 434, 384
-0.926599, 65, 81, 320, 208
-0.931197, 193, 1, 320, 256
-0.933345, 257, 225, 384, 480
-0.933577, 33, 241, 160, 368
-0.937488, 65, 225, 320, 352
-0.939334, 81, 241, 144, 368
-0.940548, 209, 193, 336, 448
-0.940611, 97, 129, 352, 256
-0.940694, 305, 129, 432, 384
-0.942203, 1, 369, 434, 496
-0.942894, 1, 321, 434, 448
-0.944893, 145, 257, 272, 500
-0.947708, 1, 289, 256, 416
-0.948536, 65, 177, 320, 304
-0.948662, 65, 33, 320, 160
-0.949637, 193, 81, 320, 208
-0.949698, 233, 81, 296, 208
-0.950074, 193, 33, 434, 160
-0.950531, 193, 177, 434, 304
-0.95077, 17, 161, 144, 288
-0.950985, 89, 257, 152, 320
-0.951647, 1, 369, 256, 496
-0.951904, 129, 369, 384, 496
-0.952222, 41, 257, 104, 384
-0.955379, 1, 97, 128, 224
-0.955965, 97, 225, 224, 352
-0.956271, 193, 97, 434, 224
-0.957087, 49, 289, 176, 416
-0.957119, 73, 177, 136, 304
-0.957808, 81, 233, 144, 296
-0.958279, 249, 89, 312, 152
-0.958475, 193, 225, 434, 352
-0.958721, 257, 81, 320, 208
-0.959848, 1, 129, 256, 256
-0.961021, 97, 97, 224, 224
-0.961581, 65, 113, 128, 240
-0.961898, 17, 81, 80, 208
-0.961958, 89, 281, 152, 344
-0.96244, 193, 129, 320, 256
-0.962632, 305, 225, 432, 352
-0.962656, 345, 177, 408, 304
-0.962754, 257, 33, 384, 160
-0.964199, 241, 97, 368, 224
-0.964687, 49, 257, 112, 320
-0.965323, 97, 177, 224, 304
-0.965363, 49, 177, 112, 304
-0.965425, 369, 209, 432, 336
-0.966019, 177, 33, 304, 160
-0.96665, 49, 97, 176, 224
-0.967415, 97, 369, 224, 496
-0.967418, 137, 409, 200, 472
-0.967825, 97, 273, 352, 400
-0.968096, 121, 209, 184, 336
-0.968211, 105, 273, 168, 400
-0.9687, 225, 89, 288, 152
-0.968794, 241, 129, 304, 256
-0.969107, 41, 97, 104, 224
-0.969184, 289, 177, 416, 304
-0.969589, 17, 257, 80, 384
-0.969886, 209, 65, 272, 192
-0.970102, 225, 113, 288, 176
-0.970167, 345, 201, 408, 264
-0.970387, 145, 369, 272, 496
-0.970528, 97, 321, 352, 448
-0.970545, 33, 257, 160, 320
-0.970745, 121, 265, 184, 328
-0.971217, 41, 281, 104, 344
-0.972226, 57, 417, 120, 480
-0.972363, 217, 129, 280, 256
-0.972398, 113, 409, 176, 472
-0.972479, 49, 305, 112, 368
-0.97248, 145, 81, 272, 208
-0.972953, 113, 369, 176, 496
-0.973106, 305, 273, 432, 400
-0.973189, 57, 369, 120, 496
-0.973295, 121, 233, 184, 296
-0.973777, 105, 129, 168, 256
-0.973858, 257, 113, 320, 176
-0.97387, 9, 145, 72, 272
-0.974108, 49, 369, 176, 496
-0.974195, 1, 49, 128, 176
-0.974261, 97, 409, 224, 472
-0.974288, 241, 193, 368, 320
-0.974547, 65, 65, 128, 192
-0.974699, 193, 369, 320, 496
-0.974852, 65, 289, 128, 416
-0.974908, 97, 193, 160, 320
-0.97501, 249, 65, 312, 128
-0.975015, 1, 289, 128, 416
-0.97507, 193, 273, 434, 400
-0.975131, 225, 65, 288, 128
-0.975152, 81, 129, 144, 384
-0.975248, 89, 401, 152, 464
-0.975419, 369, 185, 432, 248
-0.975518, 33, 417, 96, 480
-0.975785, 17, 153, 80, 216
-0.975993, 321, 225, 384, 352
-0.97607, 49, 161, 112, 416
-0.97608, 161, 401, 224, 464
-0.976148, 161, 177, 288, 304
-0.976341, 33, 281, 160, 344
-0.976354, 273, 129, 336, 256
-0.976765, 257, 369, 384, 496
-0.976831, 129, 33, 256, 160
-0.977137, 57, 233, 120, 296
-0.977321, 305, 49, 432, 176
-0.977425, 185, 393, 248, 456
-0.977772, 105, 249, 136, 312
-0.97779, 261, 73, 292, 136
-0.9778, 73, 185, 136, 248
-0.977833, 1, 33, 64, 160
-0.977863, 193, 97, 320, 160
-0.977882, 273, 193, 336, 320
-0.977978, 97, 273, 224, 400
-0.978103, 65, 281, 128, 344
-0.9783, 345, 225, 408, 352
-0.978456, 109, 241, 140, 368
-0.978502, 49, 169, 112, 232
-0.978603, 161, 433, 224, 496
-0.978607, 73, 153, 136, 216
-0.978617, 41, 49, 104, 176
-0.978622, 193, 113, 256, 240
-0.978774, 353, 225, 416, 288
-0.978783, 361, 273, 424, 400
-0.978808, 105, 81, 168, 208
-0.978888, 305, 353, 432, 480
-0.978901, 89, 257, 152, 500
-0.979348, 81, 49, 208, 176
-0.97935, 305, 1, 368, 128
-0.979407, 17, 273, 80, 336
-0.979443, 233, 33, 296, 160
-0.979506, 305, 369, 368, 496
-0.979524, 49, 257, 80, 384
-0.979562, 129, 257, 192, 384
-0.979647, 57, 65, 120, 320
-0.979747, 65, 129, 128, 192
-0.979797, 65, 233, 192, 296
-0.979844, 369, 161, 432, 288
-0.97987, 137, 369, 200, 496
-0.979998, 361, 353, 424, 480
-0.980099, 241, 65, 304, 320
-0.980336, 369, 81, 432, 208
-0.980424, 81, 257, 208, 320
-0.980488, 33, 305, 160, 368
-0.980551, 145, 129, 272, 256
-0.980698, 17, 233, 144, 296
-0.980704, 253, 81, 284, 208
-0.980832, 9, 417, 72, 480
-0.980959, 297, 161, 360, 288
-0.981067, 105, 193, 136, 320
-0.981084, 265, 65, 296, 192
-0.981196, 81, 153, 208, 216
-0.981237, 369, 193, 432, 448
-0.981272, 257, 33, 320, 160
-0.981272, 281, 81, 344, 208
-0.981321, 185, 177, 248, 304
-0.981324, 113, 153, 176, 216
-0.981398, 201, 129, 264, 192
-0.981405, 93, 177, 124, 304
-0.981509, 49, 409, 176, 472
-0.981511, 61, 257, 92, 384
-0.981609, 305, 129, 432, 256
-0.981624, 169, 369, 232, 496
-0.981665, 9, 1, 72, 256
-0.981694, 17, 121, 144, 184
-0.981694, 241, 145, 368, 272
-0.981794, 25, 129, 88, 384
-0.981808, 217, 33, 280, 288
-0.98198, 241, 137, 304, 200
-0.982107, 93, 257, 124, 320
-0.982186, 129, 433, 256, 496
-0.982277, 209, 17, 272, 144
-0.982422, 41, 305, 104, 432
-0.982536, 261, 97, 292, 160
-0.982572, 81, 209, 144, 272
-0.982588, 65, 393, 128, 456
-0.982643, 153, 177, 216, 304
-0.982645, 65, 257, 128, 500
-0.982673, 121, 289, 184, 352
-0.982765, 277, 89, 308, 152
-0.982818, 73, 273, 104, 336
-0.983012, 53, 265, 84, 328
-0.983024, 329, 33, 392, 160
-0.983171, 337, 369, 400, 496
-0.983222, 81, 353, 144, 480
-0.983229, 209, 121, 336, 184
-0.983278, 113, 321, 176, 448
-0.98332, 217, 41, 280, 104
-0.983349, 273, 89, 336, 152
-0.9834, 245, 89, 276, 152
-0.983405, 313, 241, 376, 304
-0.983418, 93, 233, 124, 296
-0.983488, 97, 433, 160, 496
-0.983566, 289, 161, 352, 224
-0.98371, 161, 401, 288, 464
-0.983801, 369, 81, 432, 144
-0.983808, 73, 225, 104, 352
-0.983856, 121, 209, 184, 272
-0.98394, 89, 305, 152, 368
-0.983952, 313, 177, 376, 240
-0.983957, 257, 241, 384, 368
-0.984001, 105, 121, 168, 184
-0.984035, 81, 177, 112, 304
-0.984041, 345, 177, 408, 240
-0.984053, 81, 281, 208, 344
-0.98422, 241, 193, 304, 320
-0.984231, 1, 417, 128, 480
-0.984283, 249, 409, 312, 472
-0.984326, 281, 113, 344, 176
-0.984363, 25, 209, 88, 336
-0.984452, 37, 257, 68, 384
-0.98446, 97, 321, 224, 448
-0.98446, 193, 321, 434, 448
-0.984533, 185, 65, 248, 192
-0.984582, 177, 73, 304, 136
-0.984623, 185, 417, 248, 480
-0.984654, 65, 1, 128, 500
-0.984694, 281, 369, 344, 496
-0.984694, 77, 249, 108, 312
-0.984712, 121, 377, 184, 440
-0.984719, 273, 401, 336, 464
-0.98478, 249, 57, 280, 120
-0.984782, 33, 33, 96, 288
-0.984794, 377, 185, 408, 248
-0.984894, 241, 65, 272, 192
-0.985026, 145, 409, 176, 472
-0.985072, 193, 369, 256, 496
-0.985168, 113, 273, 144, 336
-0.985183, 369, 361, 432, 424
-0.985218, 305, 201, 432, 264
-0.985222, 93, 257, 124, 384
-0.985238, 321, 161, 384, 288
-0.985241, 33, 233, 96, 296
-0.985354, 49, 385, 176, 448
-0.985447, 337, 321, 400, 448
-0.98545, 305, 225, 432, 288
-0.985454, 33, 177, 160, 240
-0.985517, 161, 401, 192, 464
-0.985538, 257, 369, 320, 496
-0.985567, 129, 409, 160, 472
-0.985633, 105, 65, 168, 320
-0.985668, 1, 369, 128, 496
-0.985668, 125, 249, 156, 312
-0.985726, 161, 225, 288, 352
-0.985728, 289, 377, 416, 440
-0.985738, 45, 81, 76, 208
-0.985754, 229, 121, 260, 184
-0.985801, 49, 57, 112, 120
-0.985817, 281, 81, 312, 208
-0.985872, 337, 377, 400, 440
-0.985911, 105, 193, 136, 256
-0.985969, 113, 225, 144, 288
-0.986064, 113, 225, 240, 288
-0.986071, 17, 1, 80, 500
-0.986126, 17, 305, 80, 432
-0.986152, 217, 177, 280, 304
-0.986187, 129, 81, 192, 208
-0.98623, 53, 297, 84, 360
-0.986323, 161, 377, 224, 440
-0.986333, 209, 409, 272, 472
-0.986372, 105, 97, 168, 160
-0.986375, 121, 161, 184, 416
-0.986434, 129, 161, 192, 288
-0.986491, 241, 97, 368, 160
-0.986496, 61, 417, 92, 480
-0.986507, 209, 145, 336, 208
-0.986513, 153, 97, 216, 224
-0.986545, 1, 129, 64, 384
-0.986566, 121, 257, 184, 500
-0.986593, 345, 65, 408, 128
-0.986639, 369, 17, 432, 144
-0.986742, 353, 1, 416, 500
-0.986803, 209, 417, 336, 480
-0.986815, 17, 297, 80, 360
-0.98684, 389, 185, 420, 248
-0.986848, 201, 73, 264, 136
-0.986877, 353, 65, 416, 320
-0.986888, 121, 273, 152, 400
-0.986896, 85, 97, 116, 224
-0.986921, 101, 161, 132, 224
-0.986935, 265, 113, 296, 240
-0.986957, 353, 265, 416, 328
-0.986982, 265, 201, 328, 264
-0.987046, 125, 209, 156, 336
-0.987065, 397, 209, 428, 336
-0.987087, 193, 33, 256, 288
-0.987133, 41, 1, 104, 500
-0.987274, 1, 153, 128, 216
-0.987276, 153, 225, 216, 352
-0.9873, 113, 177, 176, 240
-0.987364, 73, 297, 104, 360
-0.987393, 305, 81, 432, 144
-0.987433, 321, 201, 384, 264
-0.987468, 185, 225, 248, 352
-0.987506, 273, 129, 336, 384
-0.987595, 305, 265, 432, 328
-0.987635, 45, 425, 76, 488
-0.987679, 129, 121, 256, 184
-0.987708, 137, 433, 200, 496
-0.987717, 313, 1, 376, 256
-0.987747, 289, 97, 320, 160
-0.987777, 77, 273, 108, 400
-0.98778, 73, 417, 104, 480
-0.987781, 41, 257, 104, 500
-0.987784, 97, 377, 224, 440
-0.987822, 33, 369, 96, 496
-0.98783, 177, 169, 304, 232
-0.987865, 41, 385, 104, 448
-0.987878, 1, 57, 128, 120
-0.987878, 57, 97, 120, 160
-0.987896, 329, 1, 392, 500
-0.987903, 161, 177, 224, 240
-0.987921, 85, 281, 116, 344
-0.987946, 297, 393, 360, 456
-0.988001, 369, 161, 432, 224
-0.988006, 65, 129, 96, 256
-0.988021, 321, 33, 384, 96
-0.988045, 185, 129, 248, 384
-0.988051, 49, 73, 176, 136
-0.988054, 41, 137, 104, 200
-0.988101, 97, 177, 224, 240
-0.988107, 209, 241, 336, 368
-0.98815, 81, 433, 208, 496
-0.988189, 241, 73, 368, 136
-0.988296, 9, 33, 72, 96
-0.988303, 161, 33, 224, 160
-0.988338, 365, 201, 396, 264
-0.988342, 185, 153, 248, 216
-0.988348, 125, 225, 156, 288
-0.988429, 345, 225, 408, 480
-0.988467, 369, 177, 400, 304
-0.988496, 289, 177, 416, 240
-0.988535, 161, 49, 288, 112
-0.988585, 217, 369, 280, 496
-0.988736, 233, 113, 264, 240
-0.988738, 297, 9, 360, 72
-0.988738, 25, 329, 88, 392
-0.988747, 233, 385, 296, 448
-0.988748, 105, 401, 136, 464
-0.988751, 105, 1, 168, 500
-0.988774, 41, 281, 72, 344
-0.9888, 209, 433, 272, 496
-0.988926, 169, 33, 232, 288
-0.989085, 81, 265, 144, 296
-0.98917, 25, 81, 56, 208
-0.989264, 73, 73, 136, 136
-0.989283, 117, 297, 148, 360
-0.989297, 257, 121, 384, 184
-0.989325, 241, 1, 304, 500
-0.989344, 129, 145, 256, 208
-0.989349, 57, 209, 88, 336
-0.989362, 217, 129, 280, 384
-0.989469, 297, 209, 360, 336
-0.989471, 217, 1, 280, 500
-0.989506, 49, 97, 176, 160
-0.98952, 369, 289, 432, 352
-0.989529, 25, 113, 88, 176
-0.989529, 97, 377, 160, 440
-0.989539, 25, 57, 88, 120
-0.989561, 249, 113, 280, 176
-0.989599, 89, 245, 152, 276
-0.9896, 49, 161, 80, 288
-0.989606, 185, 97, 248, 160
-0.989606, 265, 137, 328, 200
-0.989608, 209, 385, 336, 448
-0.989616, 257, 241, 384, 304
-0.989636, 129, 81, 256, 144
-0.989656, 241, 433, 304, 496
-0.989672, 257, 41, 384, 104
-0.989689, 105, 145, 136, 272
-0.989712, 89, 185, 120, 248
-0.989738, 133, 273, 164, 336
-0.989756, 281, 1, 344, 128
-0.989778, 193, 1, 256, 500
-0.989838, 305, 1, 432, 128
-0.989842, 145, 265, 208, 328
-0.989861, 57, 169, 88, 232
-0.989878, 41, 161, 72, 224
-0.989928, 69, 177, 100, 304
-0.989965, 393, 217, 424, 280
-0.989974, 89, 297, 152, 328
-0.989982, 37, 145, 68, 272
-0.990034, 25, 153, 56, 216
-0.990061, 121, 353, 152, 480
-0.990064, 281, 129, 312, 256
-0.990103, 153, 1, 216, 500
-0.990135, 369, 337, 432, 400
-0.99016, 137, 161, 200, 224
-0.990162, 89, 285, 152, 316
-0.990204, 389, 273, 420, 400
-0.99021, 217, 161, 280, 224
-0.990232, 257, 105, 320, 136
-0.990232, 13, 145, 44, 208
-0.990249, 361, 313, 424, 376
-0.990257, 249, 93, 312, 124
-0.990281, 89, 369, 120, 496
-0.990309, 257, 201, 384, 264
-0.990379, 313, 321, 376, 448
-0.990438, 305, 361, 368, 424
-0.990458, 129, 273, 256, 336
-0.990471, 229, 65, 260, 192
-0.990477, 65, 209, 192, 272
-0.990508, 357, 177, 388, 304
-0.990509, 117, 433, 148, 496
-0.990511, 145, 33, 208, 288
-0.990517, 5, 129, 36, 256
-0.990525, 65, 253, 128, 284
-0.990577, 145, 81, 208, 144
-0.990604, 401, 273, 432, 400
-0.99064, 281, 121, 312, 184
-0.990663, 73, 177, 104, 240
-0.990671, 249, 81, 312, 112
-0.99071, 49, 277, 112, 308
-0.990711, 1, 65, 32, 192
-0.990718, 145, 413, 208, 444
-0.99072, 273, 241, 336, 304
-0.990727, 145, 377, 272, 440
-0.990732, 385, 209, 416, 336
-0.990743, 117, 409, 148, 472
-0.990763, 1, 1, 128, 128
-0.990764, 113, 417, 176, 448
-0.990806, 193, 401, 224, 464
-0.990827, 241, 17, 368, 80
-0.990942, 265, 377, 328, 440
-0.990963, 369, 193, 432, 224
-0.991024, 57, 81, 88, 208
-0.991062, 217, 89, 280, 120
-0.99108, 289, 401, 416, 464
-0.991082, 113, 257, 176, 288
-0.991114, 185, 425, 216, 488
-0.991151, 241, 117, 304, 148
-0.991152, 105, 65, 168, 128
-0.99122, 305, 321, 432, 384
-0.991227, 185, 177, 248, 240
-0.991236, 49, 401, 80, 464
-0.99125, 1, 137, 32, 200
-0.991251, 13, 65, 44, 192
-0.991257, 1, 97, 128, 160
-0.991262, 361, 205, 424, 236
-0.991272, 25, 425, 56, 488
-0.991295, 121, 269, 184, 300
-0.991306, 57, 265, 120, 296
-0.991353, 85, 417, 116, 480
-0.991401, 121, 289, 184, 320
-0.991409, 49, 329, 176, 392
-0.991413, 41, 289, 104, 320
-0.991416, 277, 177, 308, 304
-0.99145, 33, 429, 96, 460
-0.99149, 257, 321, 384, 448
-0.991497, 89, 405, 152, 436
-0.991499, 369, 41, 432, 104
-0.991502, 265, 433, 328, 496
-0.991513, 89, 233, 152, 264
-0.991528, 225, 129, 288, 160
-0.99154, 53, 353, 84, 480
-0.991545, 329, 353, 392, 416
-0.991545, 73, 165, 136, 196
-0.991559, 209, 225, 272, 352
-0.991591, 137, 257, 168, 384
-0.991602, 113, 201, 240, 264
-0.991612, 357, 177, 388, 240
-0.991626, 389, 353, 420, 480
-0.991645, 29, 289, 60, 352
-0.991666, 225, 101, 288, 132
-0.991715, 129, 1, 192, 500
-0.991715, 49, 301, 112, 332
-0.991724, 57, 425, 120, 456
-0.991764, 113, 237, 176, 268
-0.991778, 313, 1, 344, 128
-0.991779, 25, 165, 88, 196
-0.991779, 49, 177, 112, 208
-0.991783, 337, 193, 400, 224
-0.991822, 101, 353, 132, 480
-0.991826, 1, 153, 64, 184
-0.991891, 289, 201, 352, 264
-0.991913, 245, 137, 276, 200
-0.991936, 217, 77, 280, 108
-0.991949, 369, 181, 432, 212
-0.991959, 145, 113, 208, 176
-0.991966, 169, 437, 232, 468
-0.991971, 25, 445, 88, 476
-0.991986, 345, 181, 408, 212
-0.991988, 177, 425, 240, 456
-0.991991, 49, 313, 112, 344
-0.992, 89, 309, 152, 340
-0.992002, 273, 125, 336, 156
-0.992002, 137, 33, 200, 160
-0.992021, 329, 385, 392, 416
-0.992022, 173, 401, 204, 464
-0.992028, 145, 437, 208, 468
-0.99203, 349, 201, 380, 264
-0.992043, 73, 393, 104, 456
-0.992049, 21, 145, 52, 272
-0.992053, 137, 425, 200, 456
-0.992055, 225, 141, 288, 172
-0.992074, 89, 417, 152, 448
-0.992096, 25, 301, 88, 332
-0.992098, 257, 425, 384, 488
-0.992105, 41, 241, 104, 272
-0.992113, 177, 121, 240, 184
-0.992119, 401, 97, 432, 224
-0.99212, 89, 177, 152, 208
-0.99212, 73, 189, 136, 220
-0.992122, 169, 409, 232, 440
-0.992124, 249, 133, 312, 164
-0.992149, 273, 1, 336, 500
-0.992159, 293, 97, 324, 224
-0.992166, 69, 49, 100, 176
-0.992186, 89, 393, 120, 456
-0.99219, 145, 129, 208, 384
-0.992191, 65, 237, 128, 268
-0.992191, 9, 241, 72, 304
-0.992194, 161, 241, 224, 304
-0.992218, 105, 149, 168, 180
-0.992239, 25, 277, 88, 308
-0.99226, 345, 237, 408, 268
-0.99227, 97, 449, 160, 480
-0.992291, 201, 137, 264, 168
-0.992292, 369, 217, 432, 248
-0.992294, 209, 81, 240, 208
-0.992295, 121, 441, 184, 472
-0.992322, 41, 409, 104, 440
-0.992323, 353, 381, 416, 412
-0.992323, 217, 117, 280, 148
-0.992341, 73, 453, 136, 484
-0.992352, 1, 121, 64, 184
-0.992354, 337, 153, 400, 216
-0.992363, 121, 225, 184, 256
-0.992364, 273, 65, 336, 128
-0.992367, 25, 57, 88, 88
-0.99238, 185, 17, 248, 144
-0.992383, 345, 249, 408, 280
-0.992392, 237, 57, 268, 120
-0.992398, 113, 161, 176, 192
-0.9924, 49, 1, 176, 128
-0.992411, 253, 33, 284, 160
-0.992424, 105, 137, 168, 168
-0.992426, 165, 433, 196, 496
-0.992432, 121, 465, 184, 496
-0.992434, 193, 405, 256, 436
-0.992447, 345, 217, 408, 248
-0.992457, 369, 369, 432, 400
-0.992461, 49, 325, 112, 356
-0.992461, 261, 81, 292, 112
-0.992473, 81, 121, 208, 184
-0.992476, 209, 417, 240, 480
-0.99249, 233, 65, 296, 96
-0.992497, 1, 45, 64, 76
-0.992502, 65, 81, 128, 112
-0.992514, 337, 205, 400, 236
-0.992518, 169, 449, 232, 480
-0.992524, 97, 461, 160, 492
-0.992538, 129, 453, 192, 484
-0.992539, 97, 89, 352, 152
-0.992541, 89, 33, 152, 160
-0.992553, 225, 169, 352, 232
-0.992559, 137, 57, 200, 120
-0.992562, 1, 457, 64, 488
-0.992562, 257, 425, 320, 456
-0.992568, 41, 253, 104, 284
-0.992573, 97, 49, 224, 112
-0.992578, 1, 393, 128, 456
-0.992599, 121, 301, 184, 332
-0.992617, 209, 393, 240, 456
-0.99263, 361, 89, 424, 120
-0.992641, 105, 425, 136, 488
-0.992648, 105, 125, 168, 156
-0.992661, 17, 289, 80, 320
-0.992679, 49, 69, 112, 100
-0.99268, 121, 401, 184, 432
-0.992687, 305, 249, 368, 280
-0.992695, 177, 265, 304, 328
-0.992696, 25, 333, 88, 364
-0.992698, 1, 129, 256, 192
-0.992702, 65, 289, 128, 320
-0.992702, 113, 169, 144, 232
-0.992721, 113, 189, 176, 220
-0.992725, 105, 253, 136, 284
-0.992731, 177, 233, 304, 296
-0.992734, 65, 369, 96, 496
-0.992741, 177, 177, 240, 208
-0.992744, 65, 129, 128, 160
-0.99275, 305, 393, 368, 424
-0.992764, 89, 437, 152, 468
-0.992766, 369, 409, 432, 472
-0.992769, 33, 89, 96, 152
-0.992773, 297, 433, 360, 496
-0.992805, 385, 361, 416, 424
-0.992806, 141, 369, 172, 496
-0.992807, 369, 289, 432, 320
-0.992811, 265, 33, 328, 288
-0.992812, 233, 417, 296, 448
-0.992819, 209, 421, 272, 452
-0.99282, 229, 145, 260, 208
-0.992822, 1, 33, 64, 64
-0.992827, 169, 461, 232, 492
-0.99283, 41, 209, 72, 336
-0.992833, 365, 197, 396, 228
-0.992836, 289, 201, 352, 232
-0.99284, 113, 177, 176, 208
-0.992849, 257, 97, 288, 128
-0.992852, 253, 129, 284, 256
-0.992853, 1, 445, 64, 476
-0.992856, 65, 441, 128, 472
-0.992862, 77, 253, 108, 284
-0.992866, 25, 461, 88, 492
-0.992869, 249, 145, 312, 176
-0.992874, 89, 89, 152, 120
-0.992875, 305, 189, 368, 220
-0.992878, 369, 101, 432, 132
-0.99288, 281, 113, 344, 144
-0.992882, 289, 177, 320, 304
-0.992882, 201, 149, 264, 180
-0.992889, 109, 273, 140, 304
-0.992889, 149, 413, 180, 444
-0.992894, 193, 265, 256, 328
-0.992895, 65, 393, 128, 424
-0.992895, 209, 385, 272, 448
-0.992903, 289, 173, 352, 204
-0.992908, 377, 193, 408, 224
-0.992923, 305, 237, 368, 268
-0.992924, 9, 433, 72, 464
-0.992927, 185, 125, 248, 156
-0.992927, 369, 229, 432, 260
-0.992927, 57, 329, 120, 392
-0.992927, 133, 417, 164, 448
-0.992928, 293, 121, 324, 184
-0.992933, 97, 241, 128, 272
-0.992937, 9, 421, 72, 452
-0.992944, 25, 313, 88, 344
-0.992966, 49, 277, 80, 308
-0.992969, 345, 77, 408, 108
-0.992978, 45, 305, 76, 432
-0.992978, 305, 297, 432, 360
-0.992984, 305, 1, 368, 500
-0.992984, 97, 269, 128, 300
-0.992987, 1, 417, 256, 480
-0.992988, 273, 89, 336, 120
-0.993006, 1, 469, 64, 500
-0.993007, 25, 265, 88, 296
-0.993019, 25, 137, 88, 168
-0.993023, 129, 281, 160, 312
-0.99304, 117, 249, 148, 280
-0.993047, 329, 65, 392, 96
-0.993051, 65, 113, 128, 144
-0.993072, 241, 85, 272, 116
-0.993083, 229, 137, 260, 168
-0.993086, 377, 205, 408, 236
-0.993091, 73, 49, 136, 112
-0.993094, 161, 409, 192, 440
-0.993098, 77, 277, 108, 308
-0.993101, 117, 261, 148, 292
-0.993107, 129, 249, 256, 312
-0.99311, 41, 165, 72, 196
-0.993112, 49, 429, 80, 460
-0.993117, 389, 189, 420, 220
-0.993133, 21, 153, 52, 184
-0.993137, 81, 185, 112, 216
-0.993142, 109, 441, 140, 472
-0.993143, 253, 65, 284, 96
-0.993151, 377, 181, 408, 212
-0.993155, 121, 417, 152, 448
-0.993156, 281, 105, 312, 136
-0.993163, 65, 177, 96, 208
-0.993164, 121, 237, 152, 268
-0.993166, 273, 89, 304, 120
-0.993166, 5, 145, 36, 176
-0.993173, 73, 301, 104, 332
-0.993176, 129, 453, 160, 484
-0.993194, 113, 293, 144, 324
-0.993195, 245, 97, 276, 128
-0.993195, 293, 113, 324, 144
-0.993201, 33, 437, 64, 468
-0.993204, 65, 257, 96, 288
-0.993212, 53, 169, 84, 200
-0.99323, 177, 57, 240, 120
-0.993234, 145, 257, 208, 500
-0.993236, 85, 265, 116, 296
-0.993241, 241, 73, 272, 104
-0.993244, 229, 125, 260, 156
-0.993246, 129, 437, 160, 468
-0.993256, 353, 205, 384, 236
-0.993259, 105, 229, 136, 260
-0.993266, 93, 253, 124, 284
-0.993267, 85, 241, 116, 272
-0.99327, 269, 101, 300, 132
-0.993272, 169, 369, 200, 496
-0.993274, 101, 177, 132, 208
-0.993279, 389, 221, 420, 252
-0.993282, 325, 161, 356, 288
-0.993282, 365, 185, 396, 216
-0.993287, 241, 265, 368, 328
-0.993289, 117, 457, 148, 488
-0.993294, 133, 293, 164, 324
-0.993301, 181, 433, 212, 464
-0.993302, 401, 293, 432, 324
-0.993303, 401, 289, 432, 352
-0.993303, 81, 425, 112, 456
-0.993303, 129, 269, 160, 300
-0.993305, 173, 405, 204, 436
-0.993306, 89, 449, 120, 480
-0.993313, 289, 125, 320, 156
-0.993315, 401, 361, 432, 392
-0.993316, 265, 177, 328, 240
-0.993335, 313, 225, 376, 480
-0.993339, 41, 417, 72, 448
-0.99334, 117, 305, 148, 336
-0.993341, 229, 149, 260, 180
-0.993342, 97, 425, 128, 456
-0.993344, 93, 189, 124, 220
-0.993346, 365, 377, 396, 440
-0.993354, 61, 297, 92, 328
-0.993363, 49, 289, 80, 320
-0.993368, 33, 449, 64, 480
-0.993377, 61, 269, 92, 300
-0.993378, 17, 209, 144, 272
-0.993384, 105, 405, 136, 436
-0.993384, 157, 453, 188, 484
-0.993386, 141, 469, 172, 500
-0.993387, 381, 89, 412, 120
-0.993389, 277, 133, 308, 164
-0.99339, 381, 161, 412, 288
-0.993391, 365, 213, 396, 244
-0.993392, 81, 33, 144, 288
-0.993392, 197, 417, 228, 448
-0.993397, 245, 145, 276, 176
-0.993398, 49, 265, 80, 296
-0.993398, 353, 185, 384, 216
-0.9934, 73, 289, 104, 320
-0.993402, 401, 217, 432, 248
-0.993405, 289, 1, 352, 256
-0.993408, 105, 197, 136, 228
-0.993409, 161, 145, 224, 208
-0.993413, 49, 321, 80, 352
-0.993416, 65, 429, 96, 460
-0.993418, 121, 225, 152, 256
-0.993423, 141, 457, 172, 488
-0.993424, 73, 453, 104, 484
-0.993434, 245, 129, 276, 160
-0.993436, 37, 277, 68, 308
-0.993439, 181, 421, 212, 452
-0.993441, 5, 29, 36, 60
-0.993442, 249, 109, 280, 140
-0.993444, 37, 49, 68, 80
-0.993446, 209, 429, 240, 460
-0.993448, 29, 289, 60, 320
-0.993448, 385, 369, 416, 400
-0.993449, 73, 237, 104, 268
-0.993451, 49, 337, 80, 368
-0.993456, 85, 301, 116, 332
-0.993458, 393, 97, 424, 128
-0.993459, 241, 61, 272, 92
-0.993461, 65, 413, 96, 444
-0.993461, 353, 385, 384, 416
-0.993464, 29, 425, 60, 456
-0.993468, 49, 309, 80, 340
-0.993469, 129, 409, 384, 472
-0.993471, 137, 405, 168, 436
-0.99348, 261, 49, 292, 112
-0.99348, 21, 457, 52, 488
-0.993487, 69, 73, 100, 104
-0.993488, 89, 281, 120, 312
-0.993488, 97, 461, 128, 492
-0.99349, 65, 265, 320, 328
-0.993493, 241, 49, 272, 80
-0.993495, 197, 433, 228, 464
-0.993496, 113, 469, 144, 500
-0.9935, 61, 309, 92, 340
-0.993502, 65, 153, 320, 216
-0.993505, 25, 41, 56, 72
-0.993506, 129, 257, 160, 288
-0.993507, 9, 441, 40, 472
-0.993507, 129, 465, 160, 496
-0.993509, 21, 469, 52, 500
-0.99351, 169, 429, 200, 460
-0.99351, 373, 377, 404, 408
-0.993512, 213, 133, 244, 164
-0.993513, 141, 437, 172, 468
-0.993515, 321, 57, 384, 120
-0.993515, 393, 177, 424, 208
-0.993516, 41, 465, 72, 496
-0.993521, 253, 421, 284, 452
-0.993527, 297, 89, 360, 152
-0.993564, 41, 305, 72, 368
-0.993638, 41, 49, 72, 112
-0.993648, 209, 233, 272, 296
-0.993694, 209, 201, 336, 264
-0.993698, 401, 353, 432, 416
-0.993739, 65, 241, 96, 304
-0.993748, 349, 241, 380, 368
-0.99376, 221, 113, 252, 240
-0.993767, 333, 25, 364, 88
-0.993782, 49, 41, 176, 104
-0.993783, 329, 265, 392, 328
-0.993807, 193, 177, 224, 304
-0.993831, 129, 129, 384, 192
-0.993838, 1, 97, 64, 160
-0.993839, 177, 177, 208, 304
-0.993874, 41, 33, 72, 160
-0.993889, 1, 241, 256, 304
-0.993907, 1, 289, 256, 352
-0.993944, 241, 361, 368, 424
-0.99395, 153, 353, 184, 480
-0.993967, 81, 225, 112, 288
-0.993972, 33, 277, 160, 308
-0.993986, 161, 193, 288, 256
-0.994009, 125, 385, 156, 448
-0.994011, 213, 137, 244, 200
-0.994023, 289, 257, 352, 384
-0.994086, 389, 281, 420, 344
-0.994089, 177, 321, 304, 448
-0.994091, 25, 241, 56, 368
-0.994126, 389, 89, 420, 152
-0.994181, 133, 321, 164, 448
-0.994196, 129, 297, 160, 360
-0.994227, 97, 281, 128, 344
-0.994231, 33, 257, 160, 288
-0.99427, 197, 425, 228, 488
-0.994275, 333, 241, 364, 304
-0.994292, 129, 433, 160, 496
-0.99431, 349, 49, 380, 112
-0.994312, 305, 1, 432, 64
-0.994317, 81, 305, 208, 368
-0.994318, 269, 409, 300, 472
-0.994333, 345, 177, 376, 304
-0.994336, 289, 153, 416, 216
-0.994382, 329, 225, 360, 352
-0.994392, 305, 353, 432, 416
-0.994397, 61, 321, 92, 384
-0.994409, 261, 121, 292, 184
-0.994414, 385, 81, 416, 208
-0.99444, 1, 265, 434, 328
-0.994473, 57, 137, 88, 200
-0.994493, 309, 369, 340, 496
-0.994493, 233, 81, 264, 144
-0.994522, 1, 33, 128, 96
-0.994581, 53, 57, 84, 120
-0.994596, 1, 25, 32, 88
-0.994611, 97, 225, 352, 288
-0.994651, 77, 369, 108, 496
-0.994654, 5, 17, 36, 144
-0.994673, 145, 273, 272, 400
-0.994674, 401, 185, 432, 248
-0.994681, 65, 97, 96, 160
-0.994681, 213, 33, 244, 160
-0.994728, 93, 137, 124, 200
-0.99473, 313, 161, 344, 288
-0.994733, 57, 305, 88, 432
-0.994752, 301, 193, 332, 320
-0.994768, 373, 233, 404, 296
-0.994768, 249, 417, 280, 480
-0.994784, 265, 193, 296, 320
-0.994802, 33, 289, 160, 320
-0.994812, 393, 145, 424, 272
-0.994813, 73, 65, 104, 128
-0.994847, 345, 177, 376, 240
-0.994885, 381, 209, 412, 272
-0.994908, 261, 369, 292, 496
-0.994935, 17, 257, 80, 500
-0.994987, 209, 49, 336, 112
-0.995025, 117, 145, 148, 272
-0.99504, 373, 81, 404, 144
-0.99505, 249, 161, 312, 416
-0.99506, 309, 161, 340, 224
-0.995062, 93, 81, 124, 144
-0.995074, 65, 245, 192, 276
-0.995079, 113, 97, 144, 224
-0.995141, 349, 49, 380, 176
-0.995158, 161, 25, 288, 88
-0.995189, 265, 73, 280, 136
-0.995193, 1, 337, 128, 400
-0.995203, 45, 329, 76, 392
-0.995209, 193, 57, 434, 120
-0.995259, 241, 241, 304, 368
-0.995264, 1, 393, 256, 456
-0.995267, 329, 17, 360, 144
-0.995268, 209, 109, 336, 140
-0.995299, 361, 65, 392, 128
-0.995328, 305, 433, 432, 496
-0.995333, 97, 65, 128, 192
-0.99534, 165, 193, 196, 320
-0.995341, 305, 113, 368, 240
-0.995348, 161, 385, 416, 448
-0.99538, 121, 249, 136, 312
-0.995381, 305, 57, 432, 120
-0.995445, 309, 393, 340, 456
-0.995513, 97, 417, 224, 448
-0.99553, 193, 65, 224, 192
-0.99553, 313, 129, 376, 384
-0.995547, 313, 9, 344, 72
-0.99556, 65, 177, 320, 240
-0.995579, 369, 369, 400, 496
-0.995589, 1, 105, 434, 168
-0.995599, 1, 105, 256, 168
-0.995611, 161, 161, 416, 224
-0.995613, 29, 257, 60, 320
-0.995617, 325, 177, 356, 240
-0.995621, 145, 433, 176, 496
-0.995625, 1, 433, 32, 496
-0.995644, 33, 301, 160, 332
-0.995658, 329, 369, 360, 496
-0.995666, 193, 81, 434, 144
-0.995698, 65, 65, 320, 128
-0.995708, 229, 401, 260, 464
-0.995735, 109, 289, 140, 416
-0.995764, 209, 369, 240, 496
-0.995773, 241, 17, 272, 144
-0.995796, 257, 57, 272, 120
-0.995796, 117, 225, 132, 288
-0.995807, 193, 369, 224, 496
-0.995815, 1, 369, 128, 432
-0.995832, 97, 437, 224, 468
-0.995833, 89, 249, 104, 312
-0.995845, 137, 321, 200, 448
-0.995845, 17, 245, 144, 276
-0.99585, 253, 193, 284, 320
-0.995854, 129, 433, 384, 496
-0.995857, 145, 409, 272, 440
-0.995868, 81, 105, 112, 168
-0.99591, 233, 369, 264, 496
-0.995919, 13, 433, 44, 496
-0.995922, 1, 65, 434, 128
-0.995929, 349, 369, 380, 496
-0.995948, 81, 269, 208, 300
-0.995961, 373, 225, 404, 352
-0.995972, 29, 41, 60, 104
-0.995988, 273, 193, 304, 256
-0.996005, 69, 145, 100, 208
-0.99601, 169, 321, 232, 448
-0.996019, 41, 1, 104, 128
-0.996023, 205, 193, 236, 320
-0.996046, 173, 377, 204, 440
-0.996056, 161, 425, 288, 456
-0.996059, 345, 81, 408, 208
-0.996072, 17, 429, 144, 460
-0.996092, 99, 257, 114, 320
-0.996094, 37, 401, 68, 464
-0.996113, 353, 257, 384, 320
-0.996117, 401, 105, 432, 168
-0.996118, 273, 73, 288, 136
-0.996123, 97, 257, 224, 288
-0.996143, 177, 225, 208, 352
-0.996144, 1, 241, 434, 304
-0.996172, 13, 113, 44, 176
-0.996174, 273, 65, 304, 128
-0.996178, 41, 257, 72, 320
-0.996194, 209, 97, 336, 128
-0.996194, 229, 17, 260, 144
-0.996219, 147, 409, 162, 472
-0.996233, 1, 313, 256, 376
-0.996246, 129, 305, 256, 368
-0.99625, 317, 225, 348, 352
-0.996257, 89, 273, 104, 336
-0.996264, 397, 161, 428, 224
-0.996302, 193, 201, 434, 264
-0.996346, 337, 273, 400, 400
-0.996356, 159, 409, 174, 472
-0.99636, 81, 289, 208, 320
-0.996373, 337, 201, 368, 264
-0.996375, 97, 233, 112, 296
-0.996385, 125, 273, 140, 336
-0.996388, 17, 141, 144, 172
-0.996395, 365, 65, 396, 192
-0.996405, 127, 233, 142, 296
-0.99641, 193, 121, 320, 152
-0.996417, 279, 81, 294, 144
-0.996421, 153, 161, 184, 288
-0.996431, 1, 105, 32, 168
-0.996435, 177, 85, 304, 116
-0.996435, 259, 89, 274, 152
-0.996438, 29, 33, 60, 160
-0.996438, 141, 65, 172, 192
-0.996442, 115, 161, 130, 224
-0.996445, 305, 209, 432, 240
-0.996455, 381, 57, 412, 120
-0.996455, 305, 33, 432, 96
-0.996459, 141, 409, 156, 472
-0.996477, 33, 233, 160, 264
-0.996502, 81, 353, 208, 416
-0.996506, 97, 201, 352, 264
-0.996525, 49, 157, 176, 188
-0.996533, 73, 417, 88, 480
-0.996559, 85, 49, 116, 176
-0.996572, 1, 393, 434, 456
-0.996572, 55, 265, 70, 328
-0.996575, 77, 273, 92, 336
-0.99659, 1, 161, 434, 224
-0.996602, 291, 97, 306, 160
-0.996613, 297, 353, 328, 480
-0.996629, 265, 97, 280, 160
-0.996634, 193, 137, 320, 168
-0.99664, 131, 409, 146, 472
-0.996643, 81, 173, 208, 204
-0.99665, 167, 401, 182, 464
-0.996655, 137, 209, 168, 336
-0.996754, 161, 437, 288, 468
-0.996758, 369, 321, 400, 448
-0.996775, 61, 265, 76, 328
-0.996776, 1, 129, 128, 160
-0.996778, 69, 281, 84, 344
-0.996785, 393, 185, 408, 248
-0.996797, 97, 233, 224, 264
-0.996799, 131, 297, 146, 360
-0.996818, 57, 33, 88, 160
-0.996824, 33, 313, 160, 344
-0.996828, 41, 369, 72, 496
-0.996848, 285, 81, 300, 144
-0.996848, 273, 97, 288, 160
-0.996848, 49, 425, 64, 488
-0.996885, 117, 193, 132, 256
-0.996904, 241, 85, 368, 116
-0.996906, 57, 425, 72, 488
-0.996911, 63, 417, 78, 480
-0.996913, 49, 17, 176, 80
-0.996917, 153, 65, 184, 192
-0.996917, 201, 129, 232, 256
-0.996922, 107, 233, 122, 296
-0.996923, 305, 385, 432, 416
-0.996942, 97, 405, 224, 436
-0.996975, 49, 405, 176, 436
-0.996983, 149, 225, 180, 352
-0.997022, 133, 257, 148, 320
-0.99703, 181, 33, 212, 160
-0.997039, 153, 409, 168, 472
-0.997057, 285, 353, 316, 480
-0.997059, 83, 273, 98, 336
-0.997063, 93, 129, 124, 384
-0.997074, 301, 105, 316, 168
-0.997077, 69, 305, 84, 368
-0.99708, 93, 417, 108, 480
-0.997083, 73, 161, 104, 416
-0.997083, 43, 289, 58, 352
-0.997083, 285, 105, 300, 168
-0.997093, 41, 417, 56, 480
-0.997095, 75, 297, 90, 360
-0.997117, 289, 237, 416, 268
-0.997119, 1, 417, 434, 480
-0.997125, 105, 257, 120, 320
-0.997133, 49, 281, 64, 344
-0.997133, 55, 297, 70, 360
-0.997137, 193, 33, 434, 96
-0.997141, 161, 97, 288, 128
-0.997142, 193, 241, 434, 304
-0.997149, 119, 401, 134, 464
-0.997149, 253, 89, 268, 152
-0.997149, 383, 193, 398, 256
-0.997155, 1, 209, 64, 336
-0.997168, 169, 97, 200, 224
-0.997178, 125, 409, 140, 472
-0.997184, 97, 449, 224, 480
-0.997203, 217, 177, 248, 304
-0.997216, 1, 369, 64, 496
-0.997229, 177, 401, 192, 464
-0.997243, 121, 433, 136, 496
-0.997245, 81, 301, 208, 332
-0.997247, 113, 245, 240, 276
-0.997258, 83, 249, 98, 312
-0.997268, 263, 49, 278, 112
-0.997272, 169, 33, 200, 160
-0.997275, 193, 273, 434, 336
-0.997284, 279, 105, 294, 168
-0.997289, 193, 225, 224, 352
-0.997294, 49, 417, 176, 448
-0.997305, 97, 185, 224, 216
-0.997308, 87, 417, 102, 480
-0.997321, 49, 109, 176, 140
-0.997335, 1, 33, 434, 96
-0.997337, 53, 161, 84, 416
-0.997347, 81, 417, 96, 480
-0.997359, 257, 117, 384, 148
-0.997363, 377, 201, 392, 264
-0.997376, 1, 177, 128, 208
-0.997387, 1, 217, 434, 280
-0.997394, 145, 149, 272, 180
-0.997396, 293, 121, 308, 184
-0.9974, 225, 225, 288, 480
-0.997402, 161, 9, 416, 72
-0.99741, 369, 273, 400, 400
-0.997416, 61, 297, 76, 360
-0.997428, 305, 225, 432, 256
-0.99743, 249, 65, 280, 320
-0.997431, 109, 153, 124, 216
-0.997433, 345, 129, 408, 256
-0.997436, 397, 217, 412, 280
-0.997451, 33, 449, 160, 480
-0.997455, 305, 113, 336, 240
-0.997463, 257, 97, 384, 128
-0.997475, 193, 417, 208, 480
-0.997475, 95, 281, 110, 344
-0.997494, 111, 265, 126, 328
-0.997511, 193, 105, 434, 168
-0.997513, 127, 433, 142, 496
-0.997537, 57, 161, 72, 224
-0.997539, 91, 393, 106, 456
-0.997542, 265, 17, 296, 144
-0.997543, 257, 289, 384, 352
-0.997546, 71, 169, 86, 232
-0.997546, 23, 145, 38, 208
-0.997547, 97, 161, 224, 192
-0.997551, 209, 425, 336, 456
-0.997558, 9, 137, 24, 200
-0.997567, 99, 417, 114, 480
-0.997569, 97, 289, 352, 352
-0.997575, 235, 121, 250, 184
-0.99758, 33, 325, 160, 356
-0.99758, 39, 153, 54, 216
-0.997591, 97, 465, 224, 496
-0.997595, 51, 161, 66, 224
-0.997603, 41, 65, 72, 320
-0.997603, 65, 41, 320, 104
-0.997617, 121, 257, 152, 500
-0.99763, 51, 401, 66, 464
-0.997636, 365, 177, 380, 240
-0.997651, 105, 193, 136, 448
-0.997652, 91, 225, 106, 288
-0.997653, 1, 129, 434, 192
-0.997655, 105, 417, 120, 480
-0.997657, 265, 241, 328, 368
-0.997661, 401, 177, 416, 240
-0.997666, 1, 361, 434, 424
-0.997694, 29, 145, 44, 208
-0.997706, 305, 249, 432, 280
-0.997707, 177, 173, 304, 204
-0.997712, 129, 133, 256, 164
-0.997713, 111, 193, 126, 256
-0.997714, 251, 65, 266, 128
-0.997715, 13, 1, 44, 256
-0.997719, 1, 1, 128, 64
-0.99772, 145, 161, 272, 192
-0.997726, 57, 401, 72, 464
-0.997727, 73, 65, 104, 320
-0.99773, 161, 109, 288, 140
-0.997743, 201, 17, 232, 144
-0.997755, 285, 129, 300, 192
-0.997759, 289, 225, 352, 480
-0.99776, 35, 425, 50, 488
-0.997766, 3, 137, 18, 200
-0.997775, 105, 185, 120, 248
-0.997776, 97, 149, 224, 180
-0.997776, 273, 197, 400, 228
-0.997785, 97, 185, 112, 248
-0.997793, 393, 193, 424, 448
-0.997797, 81, 297, 96, 360
-0.997804, 65, 17, 128, 144
-0.997811, 209, 405, 336, 436
-0.997823, 371, 185, 386, 248
-0.997825, 149, 433, 164, 496
-0.997827, 17, 145, 32, 208
-0.997827, 305, 285, 432, 316
-0.997831, 407, 209, 422, 272
-0.997837, 265, 81, 280, 112
-0.997839, 61, 65, 92, 320
-0.997841, 257, 393, 384, 424
-0.997849, 45, 153, 60, 216
-0.997857, 401, 33, 432, 160
-0.997858, 119, 257, 134, 288
-0.997864, 87, 177, 102, 240
-0.997869, 123, 177, 138, 240
-0.997871, 289, 181, 416, 212
-0.997875, 129, 121, 256, 152
-0.997908, 161, 397, 288, 428
-0.99791, 49, 85, 176, 116
-0.997912, 187, 425, 202, 488
-0.997921, 269, 49, 284, 112
-0.997928, 137, 305, 152, 368
-0.997943, 49, 469, 176, 500
-0.997951, 187, 393, 202, 456
-0.997955, 363, 201, 378, 264
-0.997956, 97, 393, 224, 424
-0.997956, 305, 93, 432, 124
-0.997958, 233, 209, 264, 336
-0.997963, 63, 169, 78, 232
-0.997965, 399, 361, 414, 424
-0.997968, 397, 281, 412, 344
-0.997969, 81, 177, 96, 240
-0.997977, 233, 33, 264, 288
-0.997984, 65, 361, 320, 424
-0.997989, 275, 409, 290, 472
-0.997989, 151, 417, 166, 448
-0.998, 273, 369, 304, 496
-0.998001, 1, 33, 32, 288
-0.998003, 261, 33, 292, 288
-0.99801, 275, 81, 290, 112
-0.998015, 113, 329, 240, 392
-0.998017, 117, 237, 132, 268
-0.998019, 377, 369, 392, 432
-0.998021, 71, 233, 86, 296
-0.998027, 199, 425, 214, 488
-0.998041, 259, 113, 274, 176
-0.998042, 209, 161, 336, 192
-0.998044, 241, 129, 368, 160
-0.998052, 111, 425, 126, 488
-0.998053, 67, 257, 82, 320
-0.998056, 409, 337, 424, 400
-0.998057, 33, 189, 160, 220
-0.99807, 81, 257, 96, 288
-0.998071, 85, 225, 100, 288
-0.998075, 127, 209, 142, 272
-0.998076, 1, 185, 434, 248
-0.998076, 163, 413, 178, 444
-0.998077, 97, 221, 224, 252
-0.998085, 49, 337, 176, 368
-0.998088, 289, 265, 416, 296
-0.998089, 305, 397, 432, 428
-0.998089, 67, 137, 82, 200
-0.998089, 391, 217, 406, 280
-0.998091, 261, 97, 276, 128
-0.998096, 141, 421, 156, 452
-0.998098, 25, 1, 56, 256
-0.998113, 247, 121, 262, 184
-0.998116, 65, 329, 80, 392
-0.998125, 99, 393, 114, 456
-0.998127, 139, 265, 154, 328
-0.998127, 49, 121, 176, 152
-0.998128, 203, 401, 218, 464
-0.998135, 1, 209, 256, 272
-0.998136, 49, 97, 176, 128
-0.998141, 1, 165, 128, 196
-0.99815, 285, 193, 300, 256
-0.998152, 307, 105, 322, 168
-0.998156, 81, 385, 96, 448
-0.998157, 413, 209, 428, 272
-0.998158, 121, 269, 136, 300
-0.998159, 221, 409, 236, 472
-0.998162, 185, 257, 248, 500
-0.998163, 29, 129, 60, 384
-0.998165, 1, 73, 128, 104
-0.998167, 273, 69, 400, 100
-0.998186, 53, 257, 84, 500
-0.998188, 209, 441, 336, 472
-0.998207, 241, 261, 368, 292
-0.998216, 127, 237, 142, 268
-0.998217, 1, 337, 256, 400
-0.998218, 383, 193, 398, 224
-0.998218, 391, 189, 406, 220
-0.998219, 81, 137, 208, 168
-0.998251, 1, 53, 128, 84
-0.998259, 373, 201, 388, 232
-0.99826, 193, 149, 320, 180
-0.998262, 91, 249, 106, 280
-0.998281, 281, 85, 296, 116
-0.998286, 97, 69, 224, 100
-0.998288, 261, 65, 276, 96
-0.998289, 129, 485, 160, 500
-0.998289, 377, 213, 408, 228
-0.998289, 209, 423, 240, 438
-0.99829, 281, 103, 312, 118
-0.99829, 41, 161, 72, 416
-0.99829, 125, 453, 156, 468
-0.99829, 161, 73, 288, 104
-0.998291, 189, 429, 220, 444
-0.998291, 93, 87, 124, 102
-0.998291, 153, 483, 184, 498
-0.998291, 401, 365, 432, 380
-0.998291, 69, 445, 100, 460
-0.998292, 157, 413, 172, 444
-0.998292, 373, 389, 404, 404
-0.998293, 109, 245, 140, 260
-0.998293, 101, 233, 132, 248
-0.998293, 133, 413, 164, 428
-0.998293, 61, 181, 92, 196
-0.998294, 5, 151, 36, 166
-0.998294, 117, 473, 148, 488
-0.998294, 49, 485, 80, 500
-0.998294, 29, 283, 60, 298
-0.998294, 65, 71, 96, 86
-0.998295, 45, 449, 76, 464
-0.998296, 45, 435, 76, 450
-0.998296, 377, 377, 408, 392
-0.998296, 49, 289, 80, 304
-0.998297, 73, 295, 104, 310
-0.998297, 85, 453, 116, 468
-0.998298, 285, 111, 316, 126
-0.998298, 297, 127, 328, 142
-0.998299, 29, 291, 60, 306
-0.9983, 245, 61, 276, 76
-0.998301, 181, 441, 212, 456
-0.998303, 121, 479, 152, 494
-0.998304, 73, 455, 104, 470
-0.998305, 269, 93, 300, 108
-0.998305, 245, 135, 276, 150
-0.998305, 397, 187, 428, 202
-0.998305, 257, 105, 288, 120
-0.998305, 269, 101, 300, 116
-0.998307, 349, 389, 380, 404
-0.998307, 285, 131, 316, 146
-0.998307, 117, 309, 148, 324
-0.998307, 241, 101, 272, 116
-0.998308, 81, 263, 112, 278
-0.998308, 89, 423, 120, 438
-0.998308, 137, 455, 168, 470
-0.998309, 109, 283, 140, 298
-0.998309, 133, 435, 164, 450
-0.99831, 377, 201, 408, 216
-0.99831, 73, 301, 104, 316
-0.998311, 105, 467, 136, 482
-0.998312, 337, 391, 368, 406
-0.998313, 93, 193, 124, 208
-0.998313, 177, 407, 208, 422
-0.998313, 259, 81, 274, 112
-0.998315, 125, 267, 156, 282
-0.998316, 125, 251, 156, 266
-0.998317, 401, 295, 432, 310
-0.998319, 113, 441, 144, 456
-0.998319, 17, 485, 48, 500
-0.998321, 193, 437, 224, 452
-0.998322, 133, 303, 164, 318
-0.998322, 81, 281, 112, 296
-0.998324, 257, 249, 384, 280
-0.998325, 293, 117, 324, 132
-0.998325, 229, 155, 260, 170
-0.998325, 113, 291, 144, 306
-0.998326, 77, 427, 108, 442
-0.998326, 121, 417, 152, 432
-0.998327, 345, 203, 376, 218
-0.998327, 93, 257, 124, 272
-0.998327, 113, 233, 144, 248
-0.998329, 57, 271, 88, 286
-0.998331, 229, 129, 260, 144
-0.998332, 181, 435, 212, 450
-0.998332, 69, 257, 100, 272
-0.998333, 357, 207, 388, 222
-0.998334, 81, 189, 112, 204
-0.998334, 229, 149, 260, 164
-0.998334, 37, 481, 68, 496
-0.998335, 81, 251, 112, 266
-0.998335, 121, 257, 152, 272
-0.998335, 125, 273, 156, 288
-0.998336, 385, 187, 416, 202
-0.998337, 49, 283, 80, 298
-0.998337, 101, 461, 132, 476
-0.998337, 105, 189, 136, 204
-0.998337, 69, 277, 100, 292
-0.998339, 125, 447, 156, 462
-0.998341, 121, 239, 152, 254
-0.998341, 129, 301, 144, 332
-0.998345, 57, 431, 88, 446
-0.998345, 145, 449, 272, 480
-0.998346, 135, 417, 150, 448
-0.998346, 361, 385, 392, 400
-0.998346, 93, 267, 124, 282
-0.998348, 389, 193, 420, 208
-0.998349, 145, 461, 272, 492
-0.99835, 165, 411, 196, 426
-0.998351, 33, 449, 64, 464
-0.998352, 73, 183, 104, 198
-0.998352, 257, 79, 288, 94
-0.998352, 29, 161, 60, 176
-0.998355, 97, 245, 128, 260
-0.998355, 85, 33, 116, 288
-0.998356, 17, 155, 48, 170
-0.998356, 145, 45, 272, 76
-0.998356, 127, 253, 142, 284
-0.998356, 113, 303, 144, 318
-0.998356, 121, 463, 152, 478
-0.998357, 57, 175, 88, 190
-0.998359, 129, 173, 256, 204
-0.998359, 97, 245, 112, 276
-0.998361, 41, 167, 72, 182
-0.998362, 113, 297, 144, 312
-0.998363, 1, 145, 32, 160
-0.998365, 229, 143, 260, 158
-0.998369, 113, 453, 144, 468
-0.998369, 137, 257, 168, 500
-0.998371, 121, 245, 152, 260
-0.998373, 109, 273, 140, 288
-0.998373, 113, 251, 144, 266
-0.998377, 111, 257, 126, 288
-0.998381, 241, 89, 272, 104
-0.998384, 229, 135, 260, 150
-0.998385, 49, 277, 80, 292
-0.998387, 1, 413, 128, 444
-0.998388, 133, 421, 164, 436
-0.998392, 37, 437, 52, 468
-0.998394, 257, 91, 288, 106
-0.998395, 245, 79, 276, 94
-0.998398, 81, 257, 112, 272
-0.998401, 129, 297, 160, 312
-0.998402, 241, 95, 272, 110
-0.998403, 129, 283, 160, 298
-0.998407, 113, 265, 144, 280
-0.998409, 129, 289, 160, 304
-0.998409, 365, 195, 396, 210
-0.998422, 257, 99, 288, 114
-0.998423, 381, 193, 412, 448
-0.998425, 153, 415, 184, 430
-0.998428, 93, 251, 124, 266
-0.998429, 225, 173, 352, 204
-0.998434, 81, 253, 144, 268
-0.998435, 257, 49, 384, 80
-0.998451, 105, 239, 136, 254
-0.998456, 105, 259, 136, 274
-0.998458, 305, 305, 432, 336
-0.998459, 377, 195, 408, 210
-0.998467, 257, 413, 384, 444
-0.998468, 81, 257, 112, 500
-0.998473, 133, 453, 148, 484
-0.998483, 171, 409, 186, 440
-0.998483, 365, 201, 396, 216
-0.998483, 399, 181, 414, 212
-0.998483, 93, 281, 108, 312
-0.99849, 329, 1, 360, 256
-0.998492, 101, 265, 116, 296
-0.998493, 305, 1, 432, 32
-0.998493, 51, 433, 66, 464
-0.998494, 261, 85, 292, 100
-0.998494, 123, 441, 138, 472
-0.998495, 255, 93, 270, 124
-0.998497, 125, 289, 140, 320
-0.998499, 93, 425, 108, 456
-0.998503, 85, 241, 100, 272
-0.998504, 113, 449, 128, 480
-0.998505, 177, 185, 304, 216
-0.998511, 161, 273, 224, 400
-0.998518, 257, 209, 384, 240
-0.99852, 145, 453, 160, 484
-0.998523, 89, 299, 152, 314
-0.998524, 17, 393, 144, 424
-0.998527, 129, 277, 256, 308
-0.998529, 51, 277, 66, 308
-0.998533, 89, 277, 152, 292
-0.998534, 133, 281, 148, 312
-0.998539, 129, 353, 256, 416
-0.998548, 81, 259, 144, 274
-0.998549, 89, 247, 152, 262
-0.99855, 81, 271, 144, 286
-0.998551, 249, 99, 312, 114
-0.998552, 253, 77, 268, 108
-0.998553, 267, 69, 282, 100
-0.998556, 89, 285, 152, 300
-0.998558, 89, 305, 152, 320
-0.998558, 117, 177, 132, 208
-0.998558, 89, 291, 152, 306
-0.998567, 209, 393, 336, 424
-0.998568, 153, 413, 216, 428
-0.998572, 257, 105, 320, 120
-0.998574, 33, 221, 160, 252
-0.998576, 249, 85, 312, 100
-0.998577, 249, 93, 312, 108
-0.998579, 81, 265, 144, 280
-0.998583, 289, 81, 416, 112
-0.998585, 89, 241, 152, 256
-0.998586, 303, 109, 318, 140
-0.998588, 1, 97, 128, 128
-0.998592, 105, 261, 168, 276
-0.998592, 121, 269, 184, 284
-0.998593, 129, 419, 192, 434
-0.998595, 91, 261, 106, 292
-0.998596, 49, 259, 112, 274
-0.998597, 1, 153, 128, 184
-0.998597, 241, 229, 368, 260
-0.998597, 105, 97, 136, 352
-0.998599, 209, 273, 336, 304
-0.998604, 121, 287, 184, 302
-0.998608, 49, 303, 112, 318
-0.998608, 49, 277, 112, 292
-0.998608, 75, 301, 90, 332
-0.99861, 257, 111, 320, 126
-0.998611, 297, 113, 312, 144
-0.998613, 135, 437, 150, 468
-0.998613, 381, 205, 396, 236
-0.998614, 225, 133, 288, 148
-0.998615, 241, 127, 304, 142
-0.998618, 369, 195, 432, 210
-0.99862, 217, 93, 280, 108
-0.998622, 121, 293, 184, 308
-0.998624, 345, 201, 408, 216
-0.998627, 121, 453, 136, 484
-0.998628, 161, 407, 224, 422
-0.998629, 59, 269, 74, 300
-0.99863, 121, 281, 184, 296
-0.998632, 25, 451, 88, 466
-0.998632, 113, 241, 176, 256
-0.998632, 257, 117, 320, 132
-0.998632, 287, 89, 302, 120
-0.998637, 73, 427, 136, 442
-0.998638, 121, 299, 184, 314
-0.998638, 129, 85, 256, 116
-0.998639, 105, 423, 168, 438
-0.998641, 73, 175, 136, 190
-0.998642, 233, 79, 296, 94
-0.998642, 241, 381, 368, 412
-0.998643, 49, 283, 112, 298
-0.998644, 193, 337, 434, 400
-0.998645, 89, 311, 152, 326
-0.998646, 49, 297, 112, 312
-0.998647, 113, 249, 176, 264
-0.998647, 57, 265, 120, 280
-0.998647, 217, 99, 280, 114
-0.998647, 225, 141, 288, 156
-0.998648, 129, 417, 144, 448
-0.998651, 345, 195, 408, 210
-0.998652, 113, 235, 176, 250
-0.998652, 169, 439, 232, 454
-0.998652, 225, 85, 288, 100
-0.998652, 145, 427, 208, 442
-0.998654, 145, 437, 208, 452
-0.998655, 361, 213, 424, 228
-0.998656, 3, 141, 18, 172
-0.998656, 217, 105, 280, 120
-0.998657, 81, 181, 144, 196
-0.998658, 329, 389, 392, 404
-0.998658, 49, 309, 112, 324
-0.998659, 121, 275, 184, 290
-0.99866, 369, 189, 432, 204
-0.998662, 65, 429, 80, 460
-0.998662, 89, 235, 152, 250
-0.998662, 345, 245, 408, 260
-0.998662, 1, 469, 128, 500
-0.998663, 153, 445, 216, 460
-0.998663, 27, 153, 42, 184
-0.998664, 201, 139, 264, 154
-0.998664, 121, 405, 184, 420
-0.998665, 161, 361, 416, 424
-0.998665, 49, 429, 112, 444
-0.998666, 113, 255, 176, 270
-0.998666, 113, 109, 240, 140
-0.998667, 121, 449, 184, 464
-0.998668, 137, 461, 200, 476
-0.998668, 41, 181, 104, 196
-0.998669, 105, 151, 168, 166
-0.99867, 65, 453, 128, 468
-0.99867, 267, 97, 282, 128
-0.99867, 129, 413, 192, 428
-0.998671, 49, 315, 112, 330
-0.998671, 97, 465, 160, 480
-0.998671, 201, 129, 264, 144
-0.998672, 41, 445, 104, 460
-0.998672, 41, 271, 104, 286
-0.998672, 105, 455, 168, 470
-0.998673, 273, 97, 304, 352
-0.998674, 25, 435, 88, 450
-0.998676, 225, 111, 288, 126
-0.998676, 169, 433, 232, 448
-0.998676, 9, 163, 72, 178
-0.998677, 65, 257, 96, 500
-0.998677, 121, 435, 184, 450
-0.998677, 105, 189, 168, 204
-0.99868, 173, 97, 204, 352
-0.998681, 363, 201, 378, 232
-0.998681, 1, 157, 64, 172
-0.998682, 25, 171, 88, 186
-0.998683, 225, 121, 288, 136
-0.998683, 87, 429, 102, 460
-0.998683, 273, 321, 336, 448
-0.998684, 25, 483, 88, 498
-0.998684, 35, 157, 50, 188
-0.998685, 97, 415, 160, 430
-0.998686, 49, 239, 112, 254
-0.998686, 57, 187, 120, 202
-0.998687, 1, 471, 64, 486
-0.998688, 43, 437, 58, 468
-0.998688, 337, 207, 400, 222
-0.998689, 369, 183, 432, 198
-0.998689, 273, 131, 336, 146
-0.998689, 41, 425, 56, 456
-0.99869, 105, 157, 168, 172
-0.998691, 345, 237, 408, 252
-0.998692, 49, 289, 112, 304
-0.998692, 41, 457, 104, 472
-0.998692, 97, 449, 160, 464
-0.998692, 369, 207, 432, 222
-0.998692, 127, 453, 142, 484
-0.998693, 73, 447, 136, 462
-0.998693, 25, 291, 88, 306
-0.998693, 225, 147, 288, 162
-0.998693, 305, 247, 368, 262
-0.998693, 25, 283, 88, 298
-0.998694, 105, 137, 168, 152
-0.998695, 113, 169, 176, 184
-0.998695, 369, 201, 432, 216
-0.998695, 105, 145, 168, 160
-0.998695, 361, 381, 424, 396
-0.998695, 121, 471, 184, 486
-0.998696, 377, 189, 392, 220
-0.998697, 345, 187, 408, 202
-0.998697, 1, 457, 64, 472
-0.998697, 265, 123, 328, 138
-0.998697, 109, 269, 124, 300
-0.998697, 121, 305, 184, 320
-0.998698, 353, 387, 416, 402
-0.998698, 257, 437, 320, 452
-0.998698, 1, 485, 64, 500
-0.998699, 193, 415, 256, 430
-0.998699, 49, 253, 112, 268
-0.998699, 225, 153, 288, 168
-0.998699, 49, 73, 176, 104
-0.9987, 19, 149, 34, 180
-0.9987, 369, 293, 432, 308
-0.998702, 25, 425, 88, 440
-0.998702, 97, 443, 160, 458
-0.998702, 177, 61, 304, 92
-0.998702, 97, 129, 160, 144
-0.998702, 121, 229, 184, 244
-0.998703, 25, 277, 88, 292
-0.998703, 35, 449, 50, 480
-0.998703, 321, 395, 384, 410
-0.998715, 257, 33, 384, 64
-0.998716, 75, 257, 90, 288
-0.998718, 305, 317, 432, 348
-0.998719, 43, 161, 58, 192
-0.998719, 89, 185, 104, 216
-0.998719, 79, 181, 94, 212
-0.998726, 279, 101, 294, 132
-0.998734, 365, 65, 396, 320
-0.998736, 11, 145, 26, 176
-0.998737, 57, 169, 72, 200
-0.998738, 131, 269, 146, 300
-0.99874, 73, 177, 88, 208
-0.998742, 411, 353, 426, 384
-0.998742, 51, 165, 66, 196
-0.998744, 367, 185, 382, 216
-0.998746, 87, 277, 102, 308
-0.99875, 49, 57, 176, 88
-0.99875, 97, 197, 224, 228
-0.998752, 97, 25, 224, 88
-0.998753, 293, 93, 308, 124
-0.998765, 111, 237, 126, 268
-0.998767, 65, 173, 80, 204
-0.998769, 397, 65, 428, 320
-0.998773, 97, 189, 112, 220
-0.998777, 285, 133, 300, 164
-0.998778, 397, 193, 412, 224
-0.998781, 291, 129, 306, 160
-0.998782, 273, 97, 288, 128
-0.998788, 113, 209, 240, 240
-0.998789, 27, 453, 42, 484
-0.998789, 1, 9, 434, 72
-0.998791, 121, 409, 136, 440
-0.998793, 93, 257, 124, 500
-0.998795, 177, 405, 192, 436
-0.998796, 137, 293, 152, 324
-0.9988, 267, 425, 282, 456
-0.998804, 385, 65, 416, 320
-0.998807, 401, 361, 416, 392
-0.998811, 75, 273, 90, 304
-0.998812, 59, 429, 74, 460
-0.998817, 65, 337, 80, 368
-0.998819, 141, 437, 156, 468
-0.99882, 197, 33, 228, 288
-0.998822, 129, 437, 144, 468
-0.998829, 385, 181, 400, 212
-0.99883, 127, 225, 142, 256
-0.998831, 193, 429, 208, 460
-0.998831, 285, 101, 300, 132
-0.998831, 117, 193, 132, 224
-0.998834, 1, 297, 434, 360
-0.998838, 117, 225, 132, 256
-0.998839, 185, 429, 200, 460
-0.998841, 69, 289, 84, 320
-0.998842, 199, 433, 214, 464
-0.998845, 107, 453, 122, 484
-0.998847, 255, 65, 270, 96
-0.998847, 91, 301, 106, 332
-0.998848, 87, 417, 102, 448
-0.998849, 241, 313, 368, 376
-0.998852, 395, 225, 410, 256
-0.998854, 1, 17, 256, 80
-0.998854, 15, 469, 30, 500
-0.998862, 81, 297, 96, 328
-0.998868, 177, 353, 304, 416
-0.998869, 177, 197, 304, 228
-0.998871, 105, 193, 120, 224
-0.998872, 299, 125, 314, 156
-0.998876, 69, 309, 84, 340
-0.998878, 151, 457, 166, 488
-0.998878, 147, 469, 162, 500
-0.99888, 365, 193, 396, 448
-0.998881, 289, 169, 416, 200
-0.998885, 291, 109, 306, 140
-0.998888, 407, 217, 422, 248
-0.998889, 305, 341, 432, 372
-0.998891, 117, 469, 132, 500
-0.9989, 391, 177, 406, 208
-0.998901, 9, 129, 40, 384
-0.998901, 289, 97, 320, 352
-0.998903, 161, 253, 288, 284
-0.998903, 401, 221, 416, 252
-0.998907, 257, 429, 384, 460
-0.99891, 45, 413, 60, 444
-0.99891, 75, 429, 90, 460
-0.998912, 47, 293, 62, 324
-0.998914, 27, 441, 42, 472
-0.998919, 157, 469, 172, 500
-0.998921, 273, 369, 400, 400
-0.998928, 1, 85, 128, 116
-0.99893, 237, 129, 268, 384
-0.998995, 185, 33, 216, 288
-0.998997, 1, 337, 434, 400
-0.999016, 61, 257, 76, 384
-0.999018, 241, 13, 368, 44
-0.999024, 51, 257, 66, 384
-0.999028, 257, 441, 384, 472
-0.999028, 221, 33, 252, 288
-0.999043, 353, 33, 384, 288
-0.999051, 209, 1, 240, 256
-0.999058, 157, 65, 188, 320
-0.999063, 121, 225, 136, 352
-0.999073, 225, 1, 352, 32
-0.999082, 81, 313, 208, 344
-0.999106, 125, 161, 156, 416
-0.99911, 193, 313, 434, 376
-0.999111, 267, 65, 282, 192
-0.999114, 353, 161, 384, 416
-0.999114, 37, 257, 68, 500
-0.999121, 259, 65, 274, 192
-0.999132, 127, 257, 142, 384
-0.999135, 109, 177, 124, 304
-0.999139, 153, 257, 184, 500
-0.999158, 153, 161, 184, 416
-0.999164, 117, 177, 132, 304
-0.999166, 213, 129, 244, 384
-0.999171, 99, 177, 114, 304
-0.999183, 333, 161, 364, 416
-0.999187, 67, 273, 82, 400
-0.999201, 317, 1, 348, 256
-0.999216, 79, 257, 94, 384
-0.999234, 275, 65, 290, 192
-0.999234, 89, 177, 104, 304
-0.999245, 261, 129, 292, 384
-0.999261, 73, 225, 88, 352
-0.999266, 169, 1, 200, 256
-0.999276, 253, 65, 268, 192
-0.999277, 141, 65, 172, 320
-0.999292, 133, 225, 148, 352
-0.999295, 283, 113, 298, 240
-0.999303, 83, 177, 98, 304
-0.999308, 289, 81, 304, 208
-0.999317, 59, 81, 74, 208
-0.999326, 281, 65, 296, 192
-0.99933, 45, 257, 60, 384
-0.999333, 305, 129, 336, 384
-0.999334, 67, 225, 82, 352
-0.999338, 89, 225, 104, 352
-0.999339, 53, 81, 68, 208
-0.999351, 101, 257, 116, 384
-0.999356, 341, 33, 372, 288
-0.999357, 225, 129, 256, 384
-0.99936, 105, 129, 120, 256
-0.999376, 113, 225, 128, 352
-0.999381, 107, 257, 122, 384
-0.999392, 47, 81, 62, 208
-0.999393, 91, 97, 106, 224
-0.9994, 197, 129, 228, 384
-0.999402, 73, 273, 88, 400
-0.999409, 67, 113, 82, 240
-0.999415, 59, 209, 74, 336
-0.999416, 133, 289, 148, 416
-0.999417, 405, 209, 420, 336
-0.999422, 77, 161, 92, 288
-0.999423, 49, 145, 64, 272
-0.999425, 273, 193, 304, 448
-0.999427, 1, 81, 16, 208
-0.999434, 29, 65, 44, 192
-0.999436, 83, 97, 98, 224
-0.999443, 249, 161, 280, 416
-0.999447, 71, 161, 86, 288
-0.999448, 289, 129, 304, 256
-0.999454, 127, 209, 142, 336
-0.999457, 95, 241, 110, 368
-0.999458, 117, 369, 132, 496
-0.999459, 399, 209, 414, 336
-0.999459, 139, 369, 154, 496
-0.999462, 9, 81, 24, 208
-0.999463, 23, 81, 38, 208
-0.999464, 419, 97, 434, 224
-0.999467, 43, 145, 58, 272
-0.999467, 411, 273, 426, 400
-0.999468, 185, 129, 216, 384
-0.999472, 51, 209, 66, 336
-0.999473, 65, 161, 80, 288
-0.999474, 77, 97, 92, 224
-0.99948, 141, 161, 172, 416
-0.999482, 15, 129, 30, 256
-0.999484, 277, 113, 292, 240
-0.999485, 129, 353, 144, 480
-0.999488, 123, 353, 138, 480
-0.99949, 111, 129, 126, 256
-0.999492, 15, 81, 30, 208
-0.999492, 285, 177, 300, 304
-0.999492, 367, 177, 382, 304
-0.999493, 97, 245, 112, 260
-0.999493, 89, 277, 104, 292
-0.999493, 123, 479, 138, 494
-0.999493, 27, 455, 42, 470
-0.999493, 41, 81, 56, 208
-0.999494, 85, 453, 100, 468
-0.999494, 47, 459, 62, 474
-0.999495, 381, 177, 396, 304
-0.999495, 141, 459, 156, 474
-0.999496, 253, 85, 268, 100
-0.999496, 395, 93, 410, 108
-0.999496, 289, 97, 304, 112
-0.999496, 101, 193, 116, 208
-0.999497, 307, 119, 322, 134
-0.999497, 141, 453, 156, 468
-0.999497, 143, 483, 158, 498
-0.999498, 83, 73, 98, 88
-0.999498, 99, 83, 114, 98
-0.999498, 385, 387, 400, 402
-0.9995, 57, 433, 72, 448
-0.999501, 147, 469, 162, 484
-0.999501, 105, 267, 120, 282
-0.999501, 187, 431, 202, 446
-0.999502, 107, 87, 122, 102
-0.999502, 117, 443, 132, 458
-0.999503, 95, 283, 110, 298
-0.999503, 151, 459, 166, 474
-0.999503, 391, 187, 406, 202
-0.999503, 131, 275, 146, 290
-0.999504, 111, 271, 126, 286
-0.999504, 33, 449, 48, 464
-0.999504, 143, 415, 158, 430
-0.999504, 317, 193, 348, 448
-0.999505, 117, 455, 132, 470
-0.999506, 63, 173, 78, 188
-0.999507, 137, 447, 152, 462
-0.999508, 247, 81, 262, 208
-0.999508, 261, 103, 276, 118
-0.999509, 127, 259, 142, 274
-0.999509, 95, 189, 110, 204
-0.999509, 73, 445, 88, 460
-0.999509, 109, 237, 124, 252
-0.99951, 359, 389, 374, 404
-0.99951, 93, 427, 108, 442
-0.99951, 123, 285, 138, 300
-0.99951, 255, 61, 270, 76
-0.99951, 369, 385, 384, 400
-0.999511, 33, 485, 48, 500
-0.999511, 69, 431, 84, 446
-0.999513, 127, 233, 142, 248
-0.999513, 375, 195, 390, 210
-0.999513, 409, 361, 424, 376
-0.999513, 399, 185, 414, 200
-0.999515, 55, 161, 70, 288
-0.999515, 397, 195, 412, 210
-0.999515, 261, 67, 276, 82
-0.999516, 97, 97, 112, 224
-0.999516, 103, 241, 118, 256
-0.999516, 377, 383, 392, 398
-0.999516, 69, 177, 84, 192
-0.999517, 115, 449, 130, 464
-0.999517, 113, 265, 128, 280
-0.999518, 195, 435, 210, 450
-0.999518, 45, 323, 60, 338
-0.999518, 7, 145, 22, 160
-0.999518, 49, 167, 64, 182
-0.999519, 375, 193, 390, 320
-0.999519, 113, 461, 128, 476
-0.999519, 77, 181, 92, 196
-0.99952, 55, 169, 70, 184
-0.99952, 35, 145, 50, 272
-0.999522, 141, 421, 156, 436
-0.999522, 123, 463, 138, 478
-0.999523, 85, 185, 100, 200
-0.999523, 13, 147, 28, 162
-0.999524, 411, 355, 426, 370
-0.999524, 83, 251, 98, 266
-0.999524, 147, 435, 162, 450
-0.999524, 131, 483, 146, 498
-0.999525, 125, 439, 140, 454
-0.999527, 39, 483, 54, 498
-0.999528, 233, 113, 248, 240
-0.999528, 1, 141, 16, 156
-0.999528, 29, 155, 44, 170
-0.999529, 137, 303, 152, 318
-0.999529, 21, 151, 36, 166
-0.999529, 257, 79, 272, 94
-0.99953, 93, 257, 108, 272
-0.99953, 295, 97, 310, 224
-0.99953, 61, 271, 76, 286
-0.999531, 61, 485, 76, 500
-0.999531, 39, 161, 54, 176
-0.999532, 117, 469, 132, 484
-0.999533, 131, 457, 146, 472
-0.999533, 241, 65, 256, 192
-0.999533, 131, 281, 146, 296
-0.999535, 133, 287, 148, 302
-0.999535, 135, 297, 150, 312
-0.999535, 133, 417, 148, 432
-0.999535, 257, 97, 272, 112
-0.999536, 127, 239, 142, 254
-0.999536, 125, 295, 140, 310
-0.999536, 389, 199, 404, 214
-0.999537, 271, 75, 286, 90
-0.999537, 125, 449, 140, 464
-0.999537, 71, 273, 86, 288
-0.999537, 129, 307, 144, 322
-0.999537, 87, 273, 102, 400
-0.999537, 121, 65, 152, 320
-0.999538, 363, 203, 378, 218
-0.999539, 391, 353, 406, 480
-0.999539, 299, 177, 314, 304
-0.99954, 129, 267, 144, 282
-0.999541, 47, 449, 62, 464
-0.999542, 21, 129, 36, 256
-0.999544, 175, 369, 190, 496
-0.999547, 3, 129, 18, 256
-0.999548, 35, 81, 50, 208
-0.999548, 277, 83, 292, 98
-0.999549, 127, 253, 142, 268
-0.999549, 61, 353, 76, 480
-0.999551, 93, 251, 108, 266
-0.999551, 127, 301, 142, 316
-0.999553, 265, 79, 280, 94
-0.999554, 387, 177, 402, 304
-0.999556, 125, 455, 140, 470
-0.999556, 153, 353, 168, 480
-0.999558, 379, 203, 394, 218
-0.999559, 399, 273, 414, 400
-0.99956, 271, 113, 286, 240
-0.999561, 41, 449, 56, 464
-0.999563, 27, 145, 42, 272
-0.999563, 127, 245, 142, 260
-0.999563, 263, 97, 278, 112
-0.999566, 373, 201, 388, 216
-0.999566, 327, 1, 342, 128
-0.999566, 9, 129, 24, 256
-0.999567, 255, 91, 270, 106
-0.999567, 405, 273, 420, 400
-0.999569, 411, 209, 426, 336
-0.999572, 121, 275, 136, 290
-0.999572, 265, 113, 280, 240
-0.999573, 263, 91, 278, 106
-0.999578, 39, 225, 54, 352
-0.999578, 113, 273, 128, 400
-0.999578, 119, 261, 134, 276
-0.999578, 147, 421, 162, 436
-0.999579, 165, 353, 180, 480
-0.99958, 119, 251, 134, 266
-0.999581, 131, 447, 146, 462
-0.999581, 117, 233, 132, 248
-0.999582, 291, 177, 306, 304
-0.999583, 391, 193, 406, 208
-0.999583, 385, 369, 400, 496
-0.999584, 139, 241, 154, 368
-0.999586, 393, 209, 408, 336
-0.999588, 119, 267, 134, 282
-0.999588, 161, 415, 176, 430
-0.999589, 165, 193, 196, 448
-0.99959, 67, 353, 82, 480
-0.999591, 197, 177, 212, 304
-0.999592, 381, 193, 396, 208
-0.999593, 271, 81, 286, 96
-0.999596, 117, 241, 132, 256
-0.999597, 263, 85, 278, 100
-0.999598, 177, 407, 192, 422
-0.999599, 153, 417, 168, 432
-0.999603, 257, 17, 272, 144
-0.999605, 81, 257, 96, 272
-0.999605, 223, 81, 238, 208
-0.999608, 105, 369, 120, 496
-0.99961, 105, 65, 120, 192
-0.99961, 277, 193, 292, 320
-0.999611, 147, 353, 162, 480
-0.999611, 169, 411, 184, 426
-0.999612, 55, 305, 70, 432
-0.999612, 345, 257, 376, 500
-0.999613, 251, 129, 266, 256
-0.999614, 335, 161, 350, 288
-0.999615, 289, 193, 320, 448
-0.999617, 45, 209, 60, 336
-0.999621, 117, 129, 132, 256
-0.999622, 419, 289, 434, 416
-0.999623, 239, 113, 254, 240
-0.999624, 141, 321, 156, 448
-0.999627, 245, 129, 260, 256
-0.999627, 93, 289, 108, 416
-0.999629, 311, 193, 326, 320
-0.99963, 341, 161, 356, 288
-0.99963, 413, 97, 428, 224
-0.999631, 87, 257, 102, 272
-0.999632, 173, 193, 188, 320
-0.999633, 39, 273, 54, 400
-0.999636, 235, 65, 250, 192
-0.999636, 257, 129, 272, 256
-0.999636, 301, 97, 316, 224
-0.999638, 121, 273, 136, 400
-0.999647, 353, 241, 368, 368
-0.999648, 417, 193, 432, 320
-0.99965, 97, 369, 112, 496
-0.999651, 361, 177, 376, 304
-0.999811, 97, 313, 352, 376
-0.999835, 25, 257, 56, 500
-0.99985, 273, 1, 304, 256
-0.999862, 97, 1, 128, 256
-0.99992, 261, 225, 292, 480
-0.999924, 113, 33, 176, 160
-0.999939, 333, 257, 364, 500
-0.999949, 185, 257, 216, 500
-1, 317, 97, 348, 352
-1.00007, 233, 225, 264, 480
-1.00008, 197, 257, 228, 500
-1.00015, 217, 257, 248, 500
-1.00015, 301, 33, 332, 288
-1.00019, 301, 225, 332, 480
-1.0002, 109, 1, 140, 256
-1.00023, 257, 337, 384, 400
-1.00028, 285, 1, 316, 256
-1.00032, 245, 257, 276, 500
-1.00044, 305, 105, 432, 168
-1.00061, 249, 257, 312, 500
-1.0007, 313, 273, 376, 400
-1.00071, 161, 329, 288, 392
-1.00075, 97, 337, 352, 400
-1.00086, 305, 129, 432, 192
-1.00087, 177, 305, 304, 368
-1.00105, 13, 257, 44, 500
-1.00109, 161, 1, 288, 64
-1.0012, 185, 273, 248, 400
-1.00152, 113, 1, 240, 64
-1.00152, 1, 257, 32, 500
-1.002, 209, 321, 272, 448
-1.00235, 249, 321, 312, 448
-1.00356, 305, 49, 368, 176
-1.0049, 209, 273, 272, 400
