1914
-0.225174, 1, 1, 480, 360
-0.35636, 1, 1, 480, 256
-0.431909, 1, 1, 256, 360
-0.472184, 225, 1, 480, 360
-0.493492, 97, 1, 352, 360
-0.511001, 1, 97, 480, 352
-0.619531, 65, 1, 320, 256
-0.691605, 161, 65, 416, 320
-0.720493, 33, 97, 288, 352
-0.839513, 353, 1, 480, 360
-0.844748, 145, 1, 272, 360
-0.852739, 1, 17, 480, 144
-0.861874, 17, 1, 144, 360
-0.866206, 81, 1, 208, 360
-0.866574, 113, 1, 240, 256
-0.869435, 193, 1, 320, 360
-0.870724, 49, 33, 176, 288
-0.873777, 193, 65, 320, 320
-0.880363, 273, 1, 400, 256
-0.881496, 353, 97, 480, 352
-0.881634, 241, 1, 368, 360
-0.883671, 1, 1, 128, 256
-0.883975, 321, 1, 448, 256
-0.88922, 1, 97, 128, 352
-0.891302, 145, 97, 272, 352
-0.894546, 305, 1, 432, 360
-0.903984, 241, 97, 368, 352
-0.904562, 97, 97, 224, 352
-0.90559, 305, 97, 432, 352
-0.910937, 1, 65, 480, 192
-0.912425, 65, 1, 320, 128
-0.912873, 1, 161, 480, 288
-0.921901, 161, 1, 416, 128
-0.925309, 217, 1, 280, 128
-0.926724, 1, 225, 480, 352
-0.928604, 113, 1, 240, 128
-0.93018, 121, 1, 184, 128
-0.931185, 161, 1, 224, 128
-0.931337, 65, 49, 320, 176
-0.931551, 161, 1, 288, 128
-0.933121, 97, 161, 352, 288
-0.933691, 225, 209, 480, 336
-0.938426, 217, 65, 280, 192
-0.938518, 1, 97, 256, 224
-0.93947, 273, 1, 400, 128
-0.939535, 1, 113, 480, 240
-0.940305, 81, 145, 208, 272
-0.941023, 353, 33, 480, 160
-0.94126, 177, 177, 304, 304
-0.941557, 121, 49, 184, 176
-0.942051, 161, 113, 416, 240
-0.942364, 241, 49, 304, 176
-0.943129, 385, 33, 448, 160
-0.943656, 185, 1, 248, 128
-0.944291, 225, 129, 288, 256
-0.944929, 225, 49, 480, 176
-0.945447, 225, 161, 480, 288
-0.94814, 241, 1, 304, 128
-0.949183, 1, 161, 256, 288
-0.949627, 337, 161, 464, 288
-0.949702, 113, 49, 240, 176
-0.950162, 33, 129, 160, 256
-0.950272, 257, 193, 384, 320
-0.950275, 113, 97, 240, 224
-0.950289, 161, 49, 288, 176
-0.950354, 185, 145, 248, 272
-0.950442, 97, 33, 160, 160
-0.950582, 89, 145, 152, 272
-0.95361, 65, 33, 192, 160
-0.953876, 129, 145, 192, 272
-0.954424, 417, 1, 480, 128
-0.954791, 217, 49, 280, 112
-0.9549, 353, 161, 416, 288
-0.95536, 193, 129, 320, 256
-0.95539, 121, 97, 184, 224
-0.955626, 97, 81, 160, 208
-0.956165, 249, 145, 312, 272
-0.956374, 17, 177, 144, 304
-0.95646, 225, 1, 352, 128
-0.956463, 33, 81, 160, 208
-0.9565, 177, 49, 240, 176
-0.9565, 417, 177, 480, 304
-0.957019, 241, 129, 368, 256
-0.957264, 129, 209, 384, 336
-0.95744, 169, 193, 232, 256
-0.957851, 1, 1, 128, 128
-0.957954, 217, 73, 280, 136
-0.957995, 241, 57, 304, 120
-0.958208, 161, 97, 224, 224
-0.95836, 81, 193, 208, 320
-0.958364, 17, 1, 80, 128
-0.959107, 217, 121, 280, 184
-0.959496, 121, 49, 184, 112
-0.959689, 321, 1, 384, 128
-0.959747, 353, 97, 480, 224
-0.960153, 361, 33, 424, 160
-0.961157, 129, 145, 256, 272
-0.96145, 33, 209, 288, 336
-0.96184, 185, 97, 248, 224
-0.961884, 169, 217, 232, 280
-0.961914, 121, 25, 184, 88
-0.961963, 217, 97, 280, 160
-0.96224, 161, 49, 224, 112
-0.962257, 217, 25, 280, 88
-0.962398, 97, 57, 160, 120
-0.962419, 105, 1, 168, 64
-0.962587, 169, 193, 232, 320
-0.962827, 233, 153, 296, 216
-0.96309, 241, 89, 304, 152
-0.963276, 241, 113, 304, 176
-0.963501, 289, 193, 352, 320
-0.963734, 73, 33, 136, 160
-0.963793, 209, 177, 272, 304
-0.963859, 121, 73, 184, 136
-0.963976, 305, 209, 432, 336
-0.964117, 209, 225, 336, 352
-0.964611, 217, 225, 280, 352
-0.964633, 241, 33, 304, 96
-0.96476, 129, 209, 256, 336
-0.964873, 393, 113, 456, 240
-0.965204, 177, 121, 240, 184
-0.9653, 129, 201, 192, 264
-0.965311, 1, 97, 64, 224
-0.965377, 305, 49, 432, 176
-0.965423, 369, 97, 432, 224
-0.965519, 185, 161, 248, 224
-0.965549, 249, 97, 312, 224
-0.965708, 89, 153, 152, 216
-0.965761, 89, 177, 152, 240
-0.966314, 417, 225, 480, 352
-0.966487, 129, 169, 192, 232
-0.96663, 217, 65, 280, 320
-0.966632, 369, 49, 432, 112
-0.966699, 161, 145, 224, 272
-0.966874, 361, 177, 424, 240
-0.966886, 233, 1, 296, 64
-0.966985, 97, 81, 160, 144
-0.967108, 121, 97, 184, 160
-0.967371, 161, 25, 224, 88
-0.967558, 409, 49, 472, 176
-0.967807, 73, 97, 136, 224
-0.967931, 33, 97, 96, 224
-0.968358, 249, 193, 312, 320
-0.968465, 217, 185, 280, 248
-0.968537, 385, 177, 448, 304
-0.968859, 145, 193, 208, 320
-0.96895, 121, 121, 184, 184
-0.968964, 97, 33, 160, 96
-0.969174, 185, 49, 248, 112
-0.969177, 97, 129, 160, 192
-0.969342, 329, 177, 392, 304
-0.969356, 193, 225, 256, 352
-0.969378, 17, 81, 80, 144
-0.969547, 241, 49, 368, 176
-0.96956, 149, 1, 180, 128
-0.969563, 409, 249, 472, 312
-0.969801, 401, 1, 464, 256
-0.969994, 217, 1, 248, 128
-0.97007, 393, 25, 456, 88
-0.970198, 193, 217, 256, 280
-0.970225, 393, 73, 456, 136
-0.970395, 97, 105, 160, 168
-0.970495, 321, 185, 384, 248
-0.970615, 305, 97, 432, 224
-0.970831, 121, 1, 184, 256
-0.970899, 193, 185, 256, 248
-0.970985, 185, 9, 248, 72
-0.972031, 161, 145, 224, 208
-0.972095, 209, 153, 272, 216
-0.972498, 41, 177, 104, 304
-0.97256, 229, 1, 260, 128
-0.972765, 197, 1, 228, 128
-0.973056, 73, 65, 136, 128
-0.973242, 65, 177, 128, 304
-0.97328, 153, 49, 216, 176
-0.973305, 345, 73, 408, 136
-0.973464, 1, 49, 64, 176
-0.973476, 345, 81, 408, 208
-0.97352, 153, 1, 216, 64
-0.973552, 377, 1, 440, 256
-0.973845, 265, 169, 328, 232
-0.973898, 165, 1, 196, 128
-0.97396, 177, 1, 208, 128
-0.974075, 1, 169, 64, 232
-0.974178, 133, 1, 164, 128
-0.974319, 281, 209, 344, 272
-0.974692, 129, 1, 192, 64
-0.975078, 313, 129, 376, 256
-0.975114, 97, 65, 160, 320
-0.975122, 417, 17, 480, 80
-0.975162, 353, 57, 480, 120
-0.97535, 181, 209, 212, 272
-0.97548, 1, 161, 64, 288
-0.975823, 153, 121, 216, 184
-0.975931, 121, 145, 184, 208
-0.975955, 169, 193, 200, 256
-0.975973, 353, 225, 480, 352
-0.976151, 417, 73, 480, 136
-0.97619, 257, 193, 384, 256
-0.976243, 337, 185, 464, 248
-0.976302, 193, 97, 256, 160
-0.976319, 437, 1, 468, 128
-0.976331, 417, 97, 480, 224
-0.976371, 369, 97, 432, 352
-0.976804, 249, 217, 312, 280
-0.976879, 449, 1, 480, 128
-0.976935, 409, 97, 472, 160
-0.976979, 129, 49, 256, 112
-0.97703, 177, 161, 208, 288
-0.97711, 33, 81, 160, 144
-0.977239, 193, 185, 320, 248
-0.97725, 125, 49, 156, 112
-0.977344, 17, 57, 80, 120
-0.977352, 9, 1, 72, 256
-0.977371, 49, 193, 112, 256
-0.977458, 377, 33, 408, 160
-0.977473, 161, 9, 288, 72
-0.977531, 41, 89, 104, 152
-0.977686, 241, 1, 272, 128
-0.97775, 237, 145, 268, 272
-0.977815, 241, 65, 304, 320
-0.977878, 369, 57, 400, 120
-0.978049, 81, 185, 208, 248
-0.978197, 73, 41, 136, 104
-0.978245, 113, 25, 240, 88
-0.978408, 73, 89, 136, 152
-0.978503, 241, 49, 272, 112
-0.978572, 161, 217, 288, 280
-0.97873, 409, 97, 472, 352
-0.97876, 65, 33, 128, 288
-0.978792, 217, 241, 280, 304
-0.978808, 265, 49, 328, 176
-0.978816, 113, 121, 240, 184
-0.978925, 257, 137, 320, 200
-0.97896, 217, 81, 248, 208
-0.97904, 353, 1, 384, 128
-0.979068, 169, 217, 200, 280
-0.979112, 397, 33, 428, 160
-0.979173, 385, 185, 448, 248
-0.97937, 33, 1, 96, 256
-0.979371, 25, 49, 88, 176
-0.979377, 113, 1, 240, 64
-0.979395, 177, 1, 240, 256
-0.979398, 217, 33, 248, 96
-0.979444, 229, 33, 260, 96
-0.979462, 121, 1, 152, 128
-0.97953, 177, 33, 304, 96
-0.979547, 149, 25, 180, 88
-0.979584, 97, 201, 160, 264
-0.979632, 73, 113, 136, 176
-0.979643, 261, 9, 292, 72
-0.979779, 281, 129, 344, 256
-0.979933, 177, 153, 304, 216
-0.979979, 97, 209, 224, 272
-0.98002, 369, 81, 432, 144
-0.980081, 353, 9, 416, 72
-0.980084, 353, 81, 480, 144
-0.980098, 217, 1, 280, 360
-0.98013, 185, 97, 248, 352
-0.980212, 17, 9, 80, 72
-0.980293, 113, 161, 240, 224
-0.980307, 217, 209, 280, 272
-0.980372, 161, 121, 288, 184
-0.980409, 273, 1, 336, 64
-0.980443, 249, 145, 280, 272
-0.980477, 249, 169, 280, 232
-0.980544, 209, 1, 272, 64
-0.980556, 445, 177, 476, 304
-0.980597, 49, 57, 176, 120
-0.980623, 261, 33, 292, 96
-0.980638, 161, 97, 224, 160
-0.980699, 81, 9, 144, 72
-0.980739, 161, 169, 224, 232
-0.980782, 197, 9, 228, 72
-0.980826, 289, 145, 416, 272
-0.980836, 129, 97, 192, 352
-0.980883, 273, 217, 400, 280
-0.980891, 113, 97, 240, 160
-0.980898, 105, 1, 136, 128
-0.980924, 225, 129, 256, 256
-0.980945, 33, 185, 160, 248
-0.981062, 1, 97, 64, 352
-0.9811, 49, 1, 176, 64
-0.981109, 241, 1, 368, 64
-0.981137, 337, 33, 464, 96
-0.981212, 345, 1, 408, 256
-0.981302, 241, 185, 304, 248
-0.981392, 121, 1, 184, 360
-0.981421, 33, 153, 160, 216
-0.981497, 209, 209, 336, 272
-0.981534, 257, 249, 320, 312
-0.981555, 185, 9, 216, 72
-0.981562, 109, 25, 140, 88
-0.981562, 217, 57, 248, 120
-0.981658, 169, 169, 200, 232
-0.98172, 321, 1, 384, 256
-0.981773, 145, 225, 208, 288
-0.981811, 265, 1, 296, 128
-0.981813, 25, 97, 88, 352
-0.981863, 173, 25, 204, 88
-0.981978, 217, 121, 248, 184
-0.981986, 417, 257, 448, 320
-0.982094, 401, 297, 464, 360
-0.982135, 241, 1, 304, 360
-0.982189, 109, 145, 140, 272
-0.982205, 177, 1, 240, 360
-0.98221, 217, 81, 248, 144
-0.982225, 193, 97, 320, 160
-0.982239, 217, 153, 248, 216
-0.98234, 149, 81, 180, 208
-0.982436, 89, 193, 152, 320
-0.98246, 153, 1, 216, 256
-0.982485, 365, 161, 396, 288
-0.982553, 393, 49, 456, 112
-0.982573, 165, 49, 196, 112
-0.982617, 197, 33, 228, 96
-0.982634, 33, 105, 160, 168
-0.982649, 209, 9, 240, 72
-0.982698, 381, 57, 412, 120
-0.982721, 345, 49, 408, 112
-0.982722, 113, 169, 144, 232
-0.98278, 89, 1, 152, 360
-0.982793, 273, 65, 400, 128
-0.982795, 185, 73, 248, 136
-0.982808, 377, 81, 408, 144
-0.982835, 369, 1, 432, 360
-0.982855, 265, 33, 328, 288
-0.98287, 65, 153, 128, 216
-0.982901, 417, 193, 480, 256
-0.982923, 133, 161, 164, 224
-0.982931, 417, 273, 480, 336
-0.982939, 417, 49, 480, 112
-0.98297, 265, 145, 296, 272
-0.982983, 237, 153, 268, 216
-0.982986, 261, 209, 292, 336
-0.983003, 145, 129, 176, 256
-0.98305, 33, 33, 160, 96
-0.983086, 129, 25, 160, 88
-0.983103, 125, 49, 156, 176
-0.983133, 241, 49, 272, 176
-0.983143, 365, 177, 396, 240
-0.983146, 241, 25, 272, 88
-0.983194, 225, 9, 256, 72
-0.983217, 261, 145, 292, 208
-0.983266, 165, 49, 196, 176
-0.983372, 181, 113, 212, 240
-0.983411, 197, 161, 228, 288
-0.983458, 209, 241, 336, 304
-0.983479, 241, 41, 368, 104
-0.983518, 381, 81, 412, 208
-0.983555, 1, 57, 128, 120
-0.983599, 1, 9, 128, 72
-0.98364, 393, 1, 456, 360
-0.983648, 413, 289, 444, 352
-0.983669, 305, 1, 432, 64
-0.983704, 25, 1, 56, 128
-0.983727, 149, 73, 180, 136
-0.983776, 225, 281, 288, 344
-0.983905, 265, 113, 328, 176
-0.983923, 257, 161, 384, 224
-0.984063, 265, 41, 328, 104
-0.984084, 133, 145, 164, 272
-0.984129, 73, 201, 136, 264
-0.984173, 249, 1, 280, 64
-0.98422, 161, 25, 192, 88
-0.98439, 121, 145, 152, 208
-0.984399, 197, 225, 228, 288
-0.984419, 329, 17, 392, 80
-0.984469, 321, 209, 384, 272
-0.98449, 225, 193, 256, 320
-0.984515, 193, 241, 256, 304
-0.984581, 397, 33, 428, 96
-0.984682, 177, 137, 208, 200
-0.984728, 109, 1, 140, 64
-0.984747, 213, 201, 244, 264
-0.98478, 265, 65, 328, 128
-0.984781, 193, 57, 320, 120
-0.984788, 337, 265, 464, 328
-0.984807, 145, 193, 272, 256
-0.984813, 261, 97, 292, 224
-0.984842, 229, 57, 260, 120
-0.984844, 209, 265, 336, 328
-0.984849, 45, 97, 76, 160
-0.984914, 181, 185, 212, 248
-0.98496, 201, 193, 232, 256
-0.984995, 149, 153, 180, 216
-0.985007, 437, 49, 468, 176
-0.985034, 401, 113, 432, 240
-0.985074, 41, 1, 72, 128
-0.985178, 229, 65, 260, 192
-0.98518, 153, 49, 184, 112
-0.985189, 89, 225, 152, 288
-0.985247, 21, 97, 52, 224
-0.985262, 297, 185, 360, 248
-0.985269, 161, 73, 224, 136
-0.985424, 429, 249, 460, 312
-0.98547, 121, 1, 152, 64
-0.985488, 165, 177, 196, 304
-0.985541, 265, 89, 328, 152
-0.985598, 149, 97, 180, 160
-0.985614, 197, 49, 228, 176
-0.985618, 169, 241, 232, 304
-0.985671, 193, 169, 224, 232
-0.985684, 9, 81, 40, 144
-0.985815, 169, 113, 200, 240
-0.985816, 185, 33, 216, 96
-0.985834, 49, 65, 112, 128
-0.985839, 113, 193, 144, 256
-0.985871, 273, 209, 304, 336
-0.985905, 433, 73, 464, 136
-0.985905, 201, 225, 232, 352
-0.985933, 113, 73, 240, 136
-0.985969, 241, 225, 272, 352
-0.986008, 149, 121, 180, 184
-0.986029, 365, 1, 396, 128
-0.986039, 25, 177, 88, 240
-0.98606, 137, 1, 168, 64
-0.986068, 353, 297, 480, 360
-0.986097, 33, 153, 96, 216
-0.986104, 109, 145, 140, 208
-0.986128, 417, 1, 480, 360
-0.986137, 65, 1, 128, 360
-0.986173, 265, 1, 328, 128
-0.986211, 161, 1, 192, 64
-0.986244, 313, 193, 344, 256
-0.986244, 49, 97, 80, 224
-0.98634, 213, 225, 244, 288
-0.986373, 105, 81, 136, 208
-0.986378, 357, 57, 388, 120
-0.986383, 449, 225, 480, 352
-0.986394, 161, 97, 224, 352
-0.986409, 41, 1, 104, 128
-0.986482, 173, 1, 204, 64
-0.986485, 385, 113, 448, 176
-0.986624, 241, 121, 368, 184
-0.986627, 209, 145, 240, 272
-0.986634, 245, 241, 276, 304
-0.986663, 433, 177, 464, 304
-0.986753, 17, 105, 80, 168
-0.986792, 425, 1, 456, 128
-0.986829, 449, 73, 480, 136
-0.986866, 417, 177, 448, 304
-0.986922, 121, 113, 152, 240
-0.986927, 265, 193, 296, 256
-0.987075, 33, 113, 64, 240
-0.987106, 237, 1, 268, 64
-0.987121, 429, 297, 460, 360
-0.987133, 81, 233, 208, 296
-0.987146, 313, 225, 376, 352
-0.98715, 193, 113, 224, 240
-0.987202, 413, 33, 444, 160
-0.987277, 313, 193, 344, 320
-0.987277, 189, 209, 220, 336
-0.987297, 197, 121, 228, 184
-0.98737, 337, 1, 400, 360
-0.987379, 241, 89, 368, 152
-0.987414, 153, 1, 216, 360
-0.987422, 441, 249, 472, 312
-0.98754, 369, 81, 400, 208
-0.987592, 29, 81, 60, 144
-0.98761, 33, 129, 160, 192
-0.987621, 229, 121, 260, 184
-0.987674, 421, 225, 452, 352
-0.987698, 297, 1, 360, 128
-0.987716, 417, 225, 480, 288
-0.987733, 157, 185, 188, 248
-0.987746, 385, 257, 448, 320
-0.987829, 449, 289, 480, 352
-0.987884, 121, 161, 152, 288
-0.98789, 101, 185, 132, 248
-0.987941, 121, 193, 184, 320
-0.987954, 241, 97, 272, 224
-0.987956, 449, 49, 480, 176
-0.987981, 105, 65, 136, 128
-0.988043, 49, 209, 176, 272
-0.988088, 17, 1, 80, 360
-0.98809, 433, 49, 464, 112
-0.988091, 425, 65, 456, 192
-0.988168, 245, 265, 276, 328
-0.988174, 305, 89, 432, 152
-0.988181, 9, 97, 40, 224
-0.988185, 297, 1, 360, 64
-0.988188, 341, 1, 372, 128
-0.988197, 449, 9, 480, 72
-0.988213, 201, 297, 264, 360
-0.988231, 433, 225, 464, 352
-0.988261, 313, 161, 376, 224
-0.988262, 93, 145, 124, 272
-0.988312, 217, 177, 248, 240
-0.988375, 149, 1, 180, 64
-0.988398, 265, 73, 296, 136
-0.988472, 109, 105, 140, 168
-0.988485, 265, 225, 296, 288
-0.988493, 381, 161, 412, 288
-0.988537, 265, 97, 296, 160
-0.988576, 93, 161, 124, 224
-0.988636, 353, 105, 480, 168
-0.988663, 257, 257, 384, 320
-0.988681, 401, 177, 432, 304
-0.988703, 33, 225, 160, 352
-0.988709, 253, 1, 284, 128
-0.988709, 429, 17, 460, 80
-0.988742, 441, 97, 472, 160
-0.988752, 229, 89, 260, 152
-0.988814, 321, 1, 352, 128
-0.988818, 301, 177, 332, 304
-0.988828, 369, 225, 432, 352
-0.988862, 265, 49, 296, 176
-0.988877, 217, 57, 280, 88
-0.988908, 345, 185, 376, 248
-0.988939, 321, 41, 384, 104
-0.989033, 209, 289, 336, 352
-0.989059, 161, 241, 288, 304
-0.989061, 261, 265, 292, 328
-0.989067, 217, 69, 280, 100
-0.989088, 265, 1, 328, 360
-0.98916, 353, 161, 384, 288
-0.989162, 29, 57, 60, 120
-0.989166, 41, 1, 104, 360
-0.989212, 41, 73, 72, 136
-0.989214, 225, 265, 256, 328
-0.989241, 181, 113, 212, 176
-0.989277, 213, 209, 244, 336
-0.989279, 229, 241, 260, 304
-0.989286, 189, 145, 220, 208
-0.989354, 373, 33, 404, 96
-0.989355, 161, 97, 192, 160
-0.989431, 217, 81, 280, 112
-0.989452, 313, 1, 376, 360
-0.989461, 265, 121, 296, 184
-0.989499, 241, 57, 304, 88
-0.989513, 413, 25, 444, 88
-0.989517, 29, 169, 60, 232
-0.989559, 321, 225, 448, 288
-0.989583, 141, 49, 172, 112
-0.989613, 361, 105, 424, 168
-0.98964, 121, 53, 184, 84
-0.989655, 217, 93, 280, 124
-0.989657, 165, 129, 196, 192
-0.989694, 217, 145, 280, 176
-0.989759, 241, 69, 304, 100
-0.989778, 17, 1, 48, 64
-0.989784, 277, 209, 308, 272
-0.989819, 121, 65, 184, 96
-0.989837, 217, 133, 280, 164
-0.989845, 249, 273, 312, 336
-0.989903, 429, 97, 460, 160
-0.989923, 413, 113, 444, 240
-0.989935, 97, 65, 160, 96
-0.989952, 217, 113, 280, 144
-0.989967, 81, 201, 112, 264
-0.989987, 197, 97, 228, 160
-0.990005, 169, 225, 232, 256
-0.990028, 289, 25, 416, 88
-0.990042, 241, 85, 304, 116
-0.990049, 57, 81, 88, 144
-0.990049, 229, 193, 260, 256
-0.990059, 121, 85, 184, 116
-0.990068, 241, 97, 304, 128
-0.99007, 41, 1, 104, 64
-0.990078, 265, 169, 296, 232
-0.990089, 241, 133, 304, 164
-0.990092, 241, 145, 304, 176
-0.990106, 13, 1, 44, 128
-0.990106, 133, 97, 164, 224
-0.990123, 177, 49, 208, 176
-0.990125, 393, 225, 456, 352
-0.990125, 241, 117, 304, 148
-0.990157, 421, 73, 452, 136
-0.990168, 161, 53, 224, 84
-0.990178, 273, 265, 304, 328
-0.990178, 353, 181, 416, 212
-0.990202, 177, 209, 208, 336
-0.990208, 217, 157, 280, 188
-0.990242, 97, 77, 160, 108
-0.990258, 97, 53, 160, 84
-0.990298, 249, 145, 280, 208
-0.990313, 177, 189, 240, 220
-0.99032, 65, 177, 96, 304
-0.990351, 233, 1, 296, 32
-0.99036, 25, 93, 88, 124
-0.990377, 289, 265, 352, 328
-0.99038, 337, 161, 368, 288
-0.990381, 389, 81, 420, 144
-0.990417, 321, 65, 384, 128
-0.99043, 105, 1, 168, 32
-0.990433, 45, 177, 76, 304
-0.990445, 97, 89, 160, 120
-0.990461, 29, 161, 60, 288
-0.990491, 17, 49, 48, 176
-0.990508, 49, 1, 80, 64
-0.990541, 353, 1, 480, 64
-0.990544, 301, 193, 332, 256
-0.990559, 277, 233, 308, 296
-0.990575, 177, 125, 240, 156
-0.990586, 97, 105, 160, 136
-0.990591, 49, 49, 112, 176
-0.990593, 169, 209, 232, 240
-0.99065, 121, 97, 184, 128
-0.990654, 405, 265, 436, 328
-0.990671, 217, 185, 280, 216
-0.990695, 89, 185, 152, 216
-0.990697, 129, 205, 192, 236
-0.990703, 193, 229, 256, 260
-0.990712, 121, 121, 184, 152
-0.990726, 1, 57, 480, 120
-0.990735, 409, 253, 472, 284
-0.990745, 241, 157, 304, 188
-0.990763, 185, 53, 248, 84
-0.990771, 361, 61, 424, 92
-0.990774, 97, 117, 160, 148
-0.990774, 429, 273, 460, 336
-0.990829, 357, 1, 388, 64
-0.99086, 381, 177, 412, 240
-0.990882, 449, 193, 480, 256
-0.990891, 89, 161, 152, 192
-0.990902, 113, 225, 176, 288
-0.99092, 121, 133, 184, 164
-0.990935, 1, 173, 64, 204
-0.990937, 233, 169, 296, 200
-0.990942, 129, 217, 192, 248
-0.990945, 289, 233, 352, 296
-0.99097, 197, 57, 228, 120
-0.99099, 133, 129, 164, 192
-0.991004, 121, 149, 184, 180
-0.991024, 321, 185, 384, 216
-0.991038, 1, 145, 64, 208
-0.991044, 241, 37, 304, 68
-0.991058, 161, 137, 224, 168
-0.991066, 121, 109, 184, 140
-0.991066, 73, 81, 136, 112
-0.991078, 281, 213, 344, 244
-0.991086, 97, 129, 160, 160
-0.991115, 29, 49, 60, 176
-0.991116, 169, 177, 232, 208
-0.991117, 265, 197, 328, 228
-0.991159, 65, 41, 320, 104
-0.991162, 313, 97, 376, 352
-0.99117, 129, 189, 192, 220
-0.991176, 209, 37, 272, 68
-0.991224, 353, 217, 416, 280
-0.991242, 217, 229, 280, 260
-0.99126, 77, 177, 108, 304
-0.991276, 193, 241, 256, 272
-0.991296, 97, 37, 160, 68
-0.991297, 321, 161, 448, 224
-0.99133, 97, 141, 160, 172
-0.991333, 345, 77, 408, 108
-0.99134, 385, 85, 448, 116
-0.991357, 1, 89, 64, 120
-0.991372, 393, 29, 456, 60
-0.991377, 441, 97, 472, 224
-0.99138, 409, 265, 472, 296
-0.991381, 345, 97, 408, 352
-0.991384, 129, 169, 192, 200
-0.991385, 257, 289, 384, 352
-0.991409, 153, 193, 216, 224
-0.991409, 321, 197, 384, 228
-0.991451, 105, 21, 168, 52
-0.991451, 393, 97, 456, 128
-0.991468, 425, 113, 456, 240
-0.991471, 57, 93, 120, 124
-0.991471, 417, 85, 480, 116
-0.991493, 233, 25, 296, 56
-0.991521, 225, 1, 480, 64
-0.991525, 249, 245, 312, 276
-0.991541, 193, 217, 256, 248
-0.991547, 49, 193, 112, 224
-0.991554, 193, 201, 256, 232
-0.991581, 153, 177, 184, 304
-0.991605, 121, 37, 184, 68
-0.991609, 217, 241, 280, 272
-0.991611, 249, 217, 312, 248
-0.991641, 273, 5, 336, 36
-0.991658, 89, 209, 152, 240
-0.991678, 161, 149, 224, 180
-0.991695, 161, 37, 224, 68
-0.991698, 285, 193, 316, 320
-0.991704, 73, 61, 136, 92
-0.991772, 153, 125, 216, 156
-0.991789, 137, 49, 168, 176
-0.991804, 89, 197, 152, 228
-0.991813, 321, 209, 384, 240
-0.991814, 185, 137, 248, 168
-0.991816, 65, 113, 96, 240
-0.991829, 193, 113, 256, 144
-0.991846, 65, 1, 128, 32
-0.991847, 393, 189, 456, 220
-0.991857, 105, 173, 168, 204
-0.991867, 153, 237, 216, 268
-0.991876, 129, 13, 192, 44
-0.991877, 153, 9, 216, 40
-0.991889, 369, 49, 432, 80
-0.991893, 409, 65, 472, 96
-0.991896, 97, 221, 160, 252
-0.991906, 393, 53, 456, 84
-0.99191, 73, 105, 136, 136
-0.991913, 1, 77, 64, 108
-0.991921, 193, 177, 256, 208
-0.991926, 257, 233, 320, 264
-0.991961, 401, 325, 464, 356
-0.991965, 401, 313, 464, 344
-0.991973, 417, 21, 480, 52
-0.991975, 233, 13, 296, 44
-0.991984, 201, 265, 264, 328
-0.992018, 417, 101, 480, 132
-0.992032, 153, 21, 216, 52
-0.992063, 185, 165, 248, 196
-0.992064, 185, 5, 248, 36
-0.992103, 385, 69, 448, 100
-0.992104, 225, 201, 288, 232
-0.99211, 417, 197, 480, 228
-0.992122, 185, 149, 248, 180
-0.992127, 185, 37, 248, 68
-0.992192, 409, 277, 472, 308
-0.992194, 321, 225, 384, 256
-0.992198, 325, 161, 356, 288
-0.992204, 73, 117, 136, 148
-0.992209, 33, 5, 96, 36
-0.992209, 225, 297, 288, 328
-0.992209, 225, 217, 288, 248
-0.992226, 209, 21, 272, 52
-0.992237, 41, 81, 104, 112
-0.992239, 353, 89, 416, 120
-0.992249, 409, 225, 440, 352
-0.992384, 177, 213, 208, 244
-0.992438, 305, 289, 432, 352
-0.99252, 241, 53, 272, 84
-0.992549, 1, 81, 480, 144
-0.992575, 169, 189, 200, 220
-0.992599, 169, 201, 200, 232
-0.992603, 169, 225, 200, 256
-0.992606, 205, 97, 236, 224
-0.992608, 277, 145, 308, 272
-0.992609, 377, 297, 440, 360
-0.992639, 181, 225, 212, 256
-0.992662, 369, 61, 400, 92
-0.99267, 33, 129, 96, 192
-0.992677, 125, 53, 156, 84
-0.992692, 41, 49, 72, 176
-0.992713, 97, 9, 352, 72
-0.992718, 33, 169, 288, 232
-0.992726, 409, 169, 472, 232
-0.992746, 109, 1, 140, 32
-0.992748, 165, 213, 196, 244
-0.992761, 161, 217, 416, 280
-0.992806, 217, 57, 248, 88
-0.992826, 217, 145, 248, 176
-0.992826, 217, 181, 248, 212
-0.992844, 413, 257, 444, 288
-0.992853, 261, 37, 292, 68
-0.992855, 261, 5, 292, 36
-0.992855, 365, 177, 396, 208
-0.992859, 229, 53, 260, 84
-0.992862, 217, 89, 248, 120
-0.992895, 225, 177, 480, 240
-0.992896, 413, 317, 444, 348
-0.992899, 217, 73, 248, 104
-0.992905, 93, 97, 124, 224
-0.992909, 377, 77, 408, 108
-0.992909, 165, 53, 196, 84
-0.99294, 197, 53, 228, 84
-0.992944, 245, 169, 276, 200
-0.992945, 261, 161, 292, 192
-0.99295, 413, 273, 444, 304
-0.992955, 217, 101, 248, 132
-0.992957, 49, 89, 80, 120
-0.99296, 149, 73, 180, 104
-0.992961, 229, 69, 260, 100
-0.992962, 229, 161, 260, 192
-0.992965, 149, 85, 180, 116
-0.99297, 105, 161, 136, 192
-0.99297, 125, 1, 156, 32
-0.992975, 153, 53, 184, 84
-0.992976, 33, 89, 64, 120
-0.992988, 413, 297, 444, 328
-0.993014, 429, 273, 460, 304
-0.993018, 197, 233, 228, 264
-0.99302, 449, 277, 480, 308
-0.993026, 217, 133, 248, 164
-0.993032, 141, 161, 172, 192
-0.993032, 217, 121, 248, 152
-0.993048, 197, 221, 228, 252
-0.993053, 265, 57, 296, 88
-0.993056, 449, 329, 480, 360
-0.993059, 345, 185, 376, 216
-0.993062, 149, 97, 180, 128
-0.993066, 65, 193, 96, 224
-0.993074, 433, 81, 464, 112
-0.99308, 265, 217, 296, 248
-0.993084, 425, 261, 456, 292
-0.993085, 225, 37, 256, 68
-0.993091, 265, 137, 296, 168
-0.993092, 433, 301, 464, 332
-0.993093, 401, 33, 432, 64
-0.993095, 313, 193, 344, 224
-0.993095, 181, 125, 212, 156
-0.993095, 113, 181, 144, 212
-0.993097, 149, 133, 180, 164
-0.993099, 105, 65, 136, 96
-0.9931, 413, 285, 444, 316
-0.993101, 149, 149, 180, 180
-0.993102, 261, 173, 292, 204
-0.993103, 209, 237, 240, 268
-0.993104, 265, 121, 296, 152
-0.993109, 149, 113, 180, 144
-0.993113, 105, 77, 136, 108
-0.993115, 109, 33, 140, 64
-0.993115, 125, 173, 156, 204
-0.993116, 281, 217, 312, 248
-0.993118, 305, 209, 336, 240
-0.99312, 245, 265, 276, 296
-0.993122, 433, 101, 464, 132
-0.993122, 25, 173, 56, 204
-0.993123, 229, 81, 260, 112
-0.993124, 229, 145, 260, 176
-0.993128, 109, 53, 140, 84
-0.993129, 125, 13, 156, 44
-0.993131, 245, 37, 276, 68
-0.993136, 357, 65, 388, 96
-0.993138, 109, 137, 140, 168
-0.99314, 197, 37, 228, 68
-0.993144, 445, 85, 476, 116
-0.993148, 265, 73, 296, 104
-0.993148, 265, 249, 296, 280
-0.993148, 449, 257, 480, 288
-0.993149, 217, 221, 248, 252
-0.993159, 245, 245, 276, 276
-0.99316, 229, 133, 260, 164
-0.993167, 253, 53, 284, 84
-0.993167, 113, 193, 144, 224
-0.993173, 137, 13, 168, 44
-0.993175, 225, 41, 480, 104
-0.993175, 185, 37, 216, 68
-0.993175, 109, 21, 140, 52
-0.993179, 261, 17, 292, 48
-0.99318, 361, 153, 424, 216
-0.993182, 381, 61, 412, 92
-0.993182, 413, 329, 444, 360
-0.993183, 181, 201, 212, 232
-0.993189, 209, 37, 240, 68
-0.993191, 105, 109, 136, 140
-0.993191, 265, 109, 296, 140
-0.993192, 449, 289, 480, 320
-0.993195, 105, 149, 136, 180
-0.993195, 217, 161, 248, 192
-0.993195, 229, 93, 260, 124
-0.9932, 241, 69, 272, 100
-0.993201, 105, 89, 136, 120
-0.993203, 437, 261, 468, 292
-0.993206, 173, 37, 204, 68
-0.993207, 265, 97, 296, 128
-0.993209, 149, 9, 180, 40
-0.99321, 265, 149, 296, 180
-0.99321, 269, 197, 300, 228
-0.993211, 141, 53, 172, 84
-0.993213, 229, 105, 260, 136
-0.993216, 241, 21, 272, 52
-0.993216, 109, 121, 140, 152
-0.993217, 121, 153, 152, 184
-0.99322, 365, 77, 396, 108
-0.993222, 145, 37, 176, 68
-0.993226, 265, 85, 296, 116
-0.993227, 161, 129, 192, 160
-0.993229, 261, 265, 292, 296
-0.99323, 53, 1, 84, 128
-0.993231, 45, 101, 76, 132
-0.993237, 177, 53, 208, 84
-0.993241, 249, 153, 280, 184
-0.993242, 249, 5, 280, 36
-0.993252, 169, 9, 200, 40
-0.993308, 1, 1, 480, 64
-0.993348, 177, 281, 240, 344
-0.993408, 5, 49, 36, 176
-0.993421, 161, 153, 416, 216
-0.993438, 1, 33, 480, 96
-0.993449, 165, 225, 196, 352
-0.993472, 249, 297, 312, 360
-0.993507, 225, 73, 480, 136
-0.993544, 157, 129, 188, 256
-0.993555, 17, 161, 48, 288
-0.993795, 5, 161, 36, 288
-0.993805, 357, 49, 388, 176
-0.993859, 65, 65, 320, 128
-0.993868, 161, 265, 288, 328
-0.993923, 173, 201, 188, 264
-0.994058, 337, 225, 400, 352
-0.994148, 65, 89, 320, 152
-0.994168, 253, 49, 284, 176
-0.994195, 225, 257, 480, 320
-0.994368, 1, 1, 256, 64
-0.994383, 185, 193, 200, 256
-0.994457, 243, 49, 258, 112
-0.994466, 345, 209, 376, 336
-0.994475, 165, 49, 180, 112
-0.994532, 325, 209, 356, 336
-0.994536, 337, 185, 464, 216
-0.994573, 161, 297, 288, 360
-0.99461, 143, 49, 158, 112
-0.994676, 257, 193, 384, 224
-0.994689, 129, 193, 384, 256
-0.994787, 373, 57, 388, 120
-0.994787, 223, 49, 238, 112
-0.99483, 353, 81, 480, 112
-0.994835, 33, 1, 160, 32
-0.994844, 127, 49, 142, 112
-0.994898, 353, 65, 480, 96
-0.994923, 33, 89, 160, 120
-0.994934, 233, 33, 248, 96
-0.994947, 65, 145, 320, 208
-0.99496, 113, 217, 240, 248
-0.995013, 129, 53, 256, 84
-0.995043, 65, 113, 320, 176
-0.995057, 261, 49, 276, 112
-0.99507, 1, 209, 128, 272
-0.995072, 113, 129, 240, 160
-0.995127, 179, 193, 194, 256
-0.995144, 217, 25, 232, 88
-0.995172, 81, 205, 208, 236
-0.995181, 33, 233, 288, 296
-0.99519, 249, 33, 264, 96
-0.995233, 33, 209, 288, 272
-0.995249, 243, 25, 258, 88
-0.995277, 127, 25, 142, 88
-0.995295, 109, 193, 140, 320
-0.995301, 317, 185, 332, 248
-0.995303, 161, 125, 288, 156
-0.995319, 255, 25, 270, 88
-0.995322, 165, 25, 180, 88
-0.995344, 89, 193, 120, 320
-0.995362, 177, 201, 304, 232
-0.995371, 143, 25, 158, 88
-0.995371, 175, 225, 190, 288
-0.995372, 53, 49, 84, 176
-0.995375, 153, 33, 168, 96
-0.995382, 171, 25, 186, 88
-0.995391, 191, 9, 206, 72
-0.995391, 199, 9, 214, 72
-0.995396, 417, 249, 432, 312
-0.995399, 417, 297, 432, 360
-0.995417, 193, 209, 208, 272
-0.99542, 353, 53, 480, 84
-0.995448, 137, 25, 152, 88
-0.995458, 205, 9, 220, 72
-0.995458, 1, 273, 128, 336
-0.995459, 401, 1, 432, 256
-0.995463, 225, 281, 480, 344
-0.995478, 241, 217, 368, 248
-0.995495, 81, 129, 112, 256
-0.995503, 381, 57, 396, 120
-0.995516, 185, 9, 200, 72
-0.995528, 49, 77, 176, 108
-0.99553, 241, 5, 368, 36
-0.995556, 173, 177, 188, 240
-0.995557, 223, 25, 238, 88
-0.99557, 211, 9, 226, 72
-0.995584, 427, 273, 442, 336
-0.995585, 161, 221, 288, 252
-0.995586, 177, 37, 304, 68
-0.995627, 261, 25, 276, 88
-0.995645, 127, 137, 142, 200
-0.995709, 257, 205, 384, 236
-0.995729, 145, 153, 160, 216
-0.995766, 259, 1, 274, 64
-0.995772, 265, 1, 280, 64
-0.995774, 389, 57, 404, 120
-0.995787, 175, 49, 190, 112
-0.995806, 97, 37, 224, 68
-0.995813, 133, 49, 148, 112
-0.995819, 181, 217, 196, 280
-0.995819, 183, 169, 198, 232
-0.995831, 177, 185, 304, 216
-0.995835, 179, 9, 194, 72
-0.995846, 249, 9, 264, 72
-0.995853, 113, 117, 240, 148
-0.995855, 243, 129, 258, 192
-0.995874, 65, 185, 192, 216
-0.995875, 225, 97, 480, 160
-0.995886, 127, 169, 142, 232
-0.995894, 123, 1, 138, 64
-0.99591, 191, 185, 206, 248
-0.995918, 161, 137, 288, 168
-0.995933, 217, 201, 232, 264
-0.995934, 243, 73, 258, 136
-0.99594, 53, 81, 68, 144
-0.995946, 33, 101, 160, 132
-0.995975, 213, 49, 228, 112
-0.996018, 431, 249, 446, 312
-0.996023, 137, 169, 152, 232
-0.996025, 193, 161, 320, 192
-0.996046, 81, 53, 208, 84
-0.996048, 33, 233, 160, 296
-0.996065, 431, 297, 446, 360
-0.996127, 259, 129, 274, 192
-0.996137, 255, 49, 270, 112
-0.99614, 273, 69, 400, 100
-0.996142, 305, 113, 432, 176
-0.996143, 193, 113, 320, 144
-0.996162, 1, 177, 480, 240
-0.996171, 125, 1, 156, 256
-0.996173, 129, 241, 384, 304
-0.99619, 177, 5, 304, 36
-0.996198, 113, 9, 240, 40
-0.996211, 243, 97, 258, 160
-0.996218, 161, 233, 288, 264
-0.996223, 49, 257, 176, 320
-0.99623, 227, 1, 242, 64
-0.996234, 33, 257, 288, 320
-0.99624, 161, 1, 176, 64
-0.99624, 193, 137, 208, 200
-0.996243, 209, 249, 336, 280
-0.996247, 117, 25, 132, 88
-0.996247, 353, 97, 480, 128
-0.996249, 269, 25, 284, 88
-0.996251, 391, 81, 406, 144
-0.996259, 113, 141, 240, 172
-0.99626, 1, 173, 128, 204
-0.996261, 437, 73, 452, 136
-0.996262, 219, 241, 234, 304
-0.99627, 449, 97, 464, 160
-0.996278, 193, 53, 320, 84
-0.99628, 93, 17, 124, 144
-0.996296, 353, 273, 480, 304
-0.996299, 253, 153, 268, 216
-0.9963, 137, 1, 152, 64
-0.996314, 127, 113, 142, 176
-0.996326, 195, 33, 210, 96
-0.996329, 207, 33, 222, 96
-0.996331, 169, 225, 184, 288
-0.996333, 33, 1, 64, 256
-0.996345, 129, 1, 144, 64
-0.996346, 367, 57, 382, 120
-0.996347, 445, 73, 460, 136
-0.996372, 239, 153, 254, 216
-0.996374, 221, 177, 236, 240
-0.996378, 81, 229, 208, 260
-0.996385, 223, 73, 238, 136
-0.996387, 201, 33, 216, 96
-0.996399, 165, 73, 180, 136
-0.996401, 261, 177, 276, 240
-0.996418, 97, 21, 224, 52
-0.99643, 245, 1, 276, 256
-0.996439, 189, 33, 204, 96
-0.996446, 149, 1, 164, 64
-0.996447, 389, 1, 420, 256
-0.996448, 181, 33, 196, 96
-0.996451, 113, 101, 240, 132
-0.996455, 233, 65, 248, 128
-0.996469, 165, 97, 180, 160
-0.996469, 133, 145, 148, 208
-0.996481, 223, 217, 238, 280
-0.996484, 63, 81, 78, 144
-0.99651, 191, 113, 206, 176
-0.996513, 239, 1, 254, 64
-0.996518, 113, 181, 240, 212
-0.99653, 353, 1, 480, 32
-0.996532, 439, 257, 454, 320
-0.996537, 143, 1, 158, 64
-0.996539, 45, 81, 60, 144
-0.996542, 171, 1, 186, 64
-0.996558, 127, 193, 142, 256
-0.996563, 275, 1, 290, 64
-0.996566, 145, 129, 160, 192
-0.996587, 155, 121, 170, 184
-0.996594, 261, 73, 276, 136
-0.996617, 227, 161, 242, 224
-0.996618, 367, 177, 382, 240
-0.996628, 187, 137, 202, 200
-0.99664, 401, 33, 416, 96
-0.996641, 33, 61, 160, 92
-0.996643, 465, 1, 480, 64
-0.996647, 281, 1, 312, 128
-0.996648, 1, 77, 128, 108
-0.996648, 113, 193, 240, 224
-0.996649, 161, 129, 416, 192
-0.99669, 119, 153, 134, 216
-0.996691, 233, 9, 248, 72
-0.996695, 209, 261, 336, 292
-0.996702, 155, 65, 170, 128
-0.996704, 465, 89, 480, 152
-0.996714, 217, 1, 232, 64
-0.996716, 33, 113, 160, 144
-0.996726, 257, 177, 384, 208
-0.996727, 165, 121, 180, 184
-0.996729, 233, 89, 248, 152
-0.996732, 193, 173, 320, 204
-0.996744, 241, 57, 368, 88
-0.996755, 207, 225, 222, 288
-0.996759, 193, 149, 320, 180
-0.99676, 209, 237, 336, 268
-0.996763, 127, 89, 142, 152
-0.996763, 421, 273, 436, 336
-0.996766, 17, 189, 144, 220
-0.996779, 353, 317, 480, 348
-0.996783, 233, 113, 248, 176
-0.996787, 413, 1, 444, 256
-0.996787, 113, 1, 128, 64
-0.996792, 221, 153, 236, 216
-0.996801, 21, 81, 36, 144
-0.996804, 213, 225, 228, 288
-0.996805, 23, 1, 38, 64
-0.996814, 81, 161, 208, 192
-0.996818, 271, 193, 286, 256
-0.996824, 451, 249, 466, 312
-0.996833, 345, 113, 376, 240
-0.99684, 225, 281, 240, 344
-0.996841, 435, 97, 450, 160
-0.996854, 283, 209, 298, 272
-0.996866, 1, 241, 480, 304
-0.996893, 225, 65, 256, 320
-0.996901, 81, 89, 208, 120
-0.996933, 193, 21, 320, 52
-0.996942, 193, 101, 320, 132
-0.996955, 33, 129, 160, 160
-0.99703, 353, 285, 480, 316
-0.997042, 421, 97, 452, 352
-0.997044, 353, 329, 480, 360
-0.997075, 313, 145, 344, 272
-0.997119, 397, 97, 428, 352
-0.997124, 321, 13, 448, 44
-0.997137, 209, 285, 336, 316
-0.99714, 145, 21, 272, 52
-0.997165, 297, 1, 360, 256
-0.997185, 265, 97, 296, 352
-0.997187, 241, 85, 368, 116
-0.997188, 65, 217, 192, 248
-0.997196, 433, 1, 464, 256
-0.997221, 273, 45, 400, 76
-0.997221, 353, 301, 480, 332
-0.997235, 241, 105, 368, 136
-0.997239, 137, 1, 168, 256
-0.997243, 181, 209, 196, 240
-0.997245, 193, 89, 320, 120
-0.997251, 209, 273, 336, 304
-0.997269, 33, 45, 160, 76
-0.99728, 353, 197, 480, 228
-0.99728, 225, 41, 352, 72
-0.997285, 1, 153, 480, 216
-0.997297, 145, 165, 272, 196
-0.997307, 273, 165, 400, 196
-0.997309, 81, 65, 208, 96
-0.99731, 289, 1, 352, 360
-0.997316, 65, 49, 96, 176
-0.997345, 129, 205, 256, 236
-0.997346, 45, 1, 76, 256
-0.997346, 241, 129, 368, 160
-0.997356, 33, 157, 160, 188
-0.997362, 33, 201, 160, 232
-0.997388, 353, 33, 480, 64
-0.997393, 449, 65, 480, 320
-0.997393, 377, 1, 408, 256
-0.997394, 289, 217, 416, 248
-0.997399, 397, 225, 428, 352
-0.997417, 241, 117, 368, 148
-0.997428, 289, 81, 416, 112
-0.997434, 243, 57, 258, 88
-0.997438, 241, 145, 368, 176
-0.997445, 205, 1, 236, 256
-0.997476, 321, 109, 448, 140
-0.997481, 153, 1, 184, 256
-0.997502, 175, 217, 190, 248
-0.99751, 193, 65, 320, 96
-0.997522, 165, 53, 180, 84
-0.997529, 127, 1, 142, 32
-0.997541, 257, 17, 384, 48
-0.997542, 193, 77, 320, 108
-0.99755, 237, 97, 268, 352
-0.997551, 189, 209, 204, 240
-0.997558, 297, 225, 328, 352
-0.997562, 113, 77, 240, 108
-0.997575, 165, 1, 196, 256
-0.997578, 143, 53, 158, 84
-0.997585, 113, 33, 144, 288
-0.997589, 223, 53, 238, 84
-0.997591, 409, 97, 440, 352
-0.9976, 259, 53, 274, 84
-0.997604, 337, 261, 464, 292
-0.997611, 261, 1, 292, 256
-0.99762, 17, 17, 144, 48
-0.997626, 33, 145, 160, 176
-0.997631, 371, 61, 386, 92
-0.997635, 357, 209, 388, 336
-0.997658, 273, 229, 400, 260
-0.99767, 209, 297, 336, 328
-0.997687, 127, 53, 142, 84
-0.997691, 49, 173, 176, 204
-0.997702, 49, 97, 80, 352
-0.997715, 305, 205, 432, 236
-0.997721, 141, 97, 172, 352
-0.997732, 65, 225, 128, 352
-0.997737, 243, 69, 258, 100
-0.997786, 185, 193, 200, 224
-0.997804, 249, 53, 264, 84
-0.997814, 161, 245, 288, 276
-0.997814, 173, 185, 188, 216
-0.997824, 29, 97, 60, 352
-0.997833, 173, 205, 188, 236
-0.997843, 173, 229, 188, 260
-0.997857, 417, 257, 432, 288
-0.99786, 21, 1, 52, 256
-0.997865, 219, 237, 234, 268
-0.997869, 81, 241, 208, 272
-0.997885, 317, 189, 332, 220
-0.997895, 113, 257, 240, 320
-0.997906, 433, 97, 464, 352
-0.997945, 345, 1, 376, 256
-0.997962, 261, 69, 276, 100
-0.997966, 129, 289, 384, 352
-0.997966, 127, 161, 142, 192
-0.997982, 427, 273, 442, 304
-0.997992, 145, 153, 272, 184
-0.997996, 257, 249, 384, 280
-0.998017, 243, 85, 258, 116
-0.998021, 223, 69, 238, 100
-0.998023, 53, 89, 68, 120
-0.998046, 181, 225, 196, 256
-0.998047, 259, 1, 274, 32
-0.998047, 447, 285, 462, 316
-0.998048, 437, 281, 452, 312
-0.998056, 305, 93, 432, 124
-0.998062, 179, 189, 194, 220
-0.998064, 213, 233, 228, 264
-0.998069, 175, 53, 190, 84
-0.998069, 165, 73, 180, 104
-0.99807, 257, 285, 384, 316
-0.998073, 257, 269, 384, 300
-0.998078, 145, 165, 160, 196
-0.998093, 145, 149, 160, 180
-0.998097, 213, 53, 228, 84
-0.998099, 185, 65, 216, 320
-0.998099, 137, 53, 152, 84
-0.998109, 417, 317, 432, 348
-0.998126, 273, 5, 288, 36
-0.998131, 385, 97, 416, 352
-0.998132, 127, 141, 142, 172
-0.998136, 101, 1, 132, 256
-0.99814, 249, 97, 280, 352
-0.998141, 243, 145, 258, 176
-0.998147, 243, 97, 258, 128
-0.998149, 113, 1, 128, 32
-0.998149, 289, 137, 416, 200
-0.998153, 447, 273, 462, 304
-0.99816, 243, 109, 258, 140
-0.998164, 425, 309, 440, 340
-0.998181, 259, 153, 274, 184
-0.998185, 47, 89, 62, 120
-0.998187, 243, 121, 258, 152
-0.998188, 449, 81, 464, 112
-0.998189, 401, 37, 416, 68
-0.998196, 223, 81, 238, 112
-0.998197, 243, 133, 258, 164
-0.998201, 209, 97, 240, 352
-0.998203, 233, 73, 248, 104
-0.998203, 427, 285, 442, 316
-0.998213, 259, 37, 274, 68
-0.998214, 249, 37, 264, 68
-0.998224, 155, 149, 170, 180
-0.998224, 417, 269, 432, 300
-0.998227, 281, 49, 312, 176
-0.998228, 417, 305, 432, 336
-0.998232, 321, 173, 448, 204
-0.998237, 127, 129, 142, 160
-0.998241, 219, 185, 234, 216
-0.998242, 233, 145, 248, 176
-0.998243, 191, 221, 206, 252
-0.998246, 133, 173, 148, 204
-0.998248, 165, 85, 180, 116
-0.998248, 197, 229, 212, 260
-0.99825, 219, 221, 234, 252
-0.998254, 233, 57, 248, 88
-0.998257, 61, 97, 92, 352
-0.998259, 233, 109, 248, 140
-0.998263, 255, 169, 270, 200
-0.998269, 155, 61, 170, 92
-0.998275, 197, 97, 228, 352
-0.998283, 61, 89, 76, 120
-0.998294, 223, 93, 238, 124
-0.998302, 261, 85, 276, 116
-0.998304, 367, 177, 382, 208
-0.998305, 285, 217, 300, 248
-0.998311, 155, 81, 170, 112
-0.998323, 357, 185, 372, 216
-0.998324, 233, 85, 248, 116
-0.998324, 123, 181, 138, 212
-0.998327, 129, 265, 384, 328
-0.998331, 165, 133, 180, 164
-0.998332, 121, 1, 136, 32
-0.998336, 305, 297, 432, 328
-0.998339, 383, 57, 398, 88
-0.998342, 425, 297, 440, 328
-0.998342, 155, 137, 170, 168
-0.998342, 127, 117, 142, 148
-0.998344, 221, 37, 236, 68
-0.998345, 417, 289, 432, 320
-0.998349, 133, 1, 148, 32
-0.99835, 127, 13, 142, 44
-0.998358, 133, 157, 148, 188
-0.998359, 127, 65, 142, 96
-0.998362, 169, 255, 200, 270
-0.998362, 265, 81, 296, 96
-0.998362, 265, 107, 296, 122
-0.998364, 149, 121, 180, 136
-0.998364, 189, 195, 220, 210
-0.998364, 213, 193, 244, 208
-0.998365, 437, 257, 468, 272
-0.998365, 229, 149, 260, 164
-0.998365, 265, 115, 296, 130
-0.998365, 133, 13, 148, 44
-0.998366, 439, 101, 454, 132
-0.998366, 165, 17, 196, 32
-0.998367, 105, 81, 136, 96
-0.998367, 229, 93, 260, 108
-0.998367, 205, 237, 220, 268
-0.998368, 149, 113, 180, 128
-0.998368, 449, 259, 480, 274
-0.998369, 391, 81, 406, 112
-0.998369, 105, 87, 136, 102
-0.998369, 181, 211, 212, 226
-0.99837, 259, 133, 274, 164
-0.99837, 413, 279, 444, 294
-0.99837, 161, 61, 192, 76
-0.998371, 229, 143, 260, 158
-0.998371, 445, 89, 476, 104
-0.998372, 265, 133, 296, 148
-0.998372, 149, 153, 180, 168
-0.998372, 243, 37, 258, 68
-0.998373, 125, 179, 156, 194
-0.998373, 133, 65, 164, 80
-0.998373, 265, 145, 296, 160
-0.998373, 449, 293, 480, 308
-0.998374, 305, 217, 336, 232
-0.998374, 413, 323, 444, 338
-0.998374, 413, 287, 444, 302
-0.998374, 109, 9, 140, 24
-0.998375, 265, 139, 296, 154
-0.998375, 165, 149, 180, 180
-0.998375, 109, 1, 140, 16
-0.998375, 121, 61, 152, 76
-0.998375, 245, 263, 276, 278
-0.998376, 449, 331, 480, 346
-0.998376, 277, 247, 308, 262
-0.998377, 265, 67, 296, 82
-0.998377, 229, 81, 260, 96
-0.998378, 261, 7, 292, 22
-0.998378, 377, 79, 408, 94
-0.998378, 149, 53, 180, 68
-0.998379, 169, 217, 184, 248
-0.998379, 137, 55, 168, 70
-0.998379, 241, 177, 272, 192
-0.998379, 165, 221, 196, 236
-0.998379, 121, 165, 152, 180
-0.998379, 109, 37, 140, 52
-0.99838, 243, 161, 258, 192
-0.99838, 265, 127, 296, 142
-0.99838, 149, 133, 180, 148
-0.998382, 229, 87, 260, 102
-0.998383, 413, 305, 444, 320
-0.998384, 105, 75, 136, 90
-0.998384, 447, 301, 462, 332
-0.998384, 145, 133, 160, 164
-0.998384, 105, 69, 136, 84
-0.998384, 169, 233, 200, 248
-0.998385, 149, 161, 180, 176
-0.998385, 165, 215, 196, 230
-0.998386, 229, 161, 260, 176
-0.998386, 217, 139, 248, 154
-0.998386, 25, 173, 56, 188
-0.998386, 201, 233, 232, 248
-0.998387, 265, 121, 296, 136
-0.998387, 265, 155, 296, 170
-0.998387, 229, 73, 260, 88
-0.998388, 305, 249, 432, 280
-0.998389, 233, 97, 248, 128
-0.998389, 149, 127, 180, 142
-0.998389, 217, 133, 248, 148
-0.998391, 113, 191, 144, 206
-0.998391, 113, 21, 128, 52
-0.998392, 149, 105, 180, 120
-0.998393, 169, 185, 200, 200
-0.998393, 431, 305, 446, 336
-0.998394, 217, 127, 248, 142
-0.998394, 317, 189, 348, 204
-0.998394, 205, 37, 220, 68
-0.998395, 261, 15, 292, 30
-0.998395, 113, 183, 144, 198
-0.998395, 141, 169, 172, 184
-0.998396, 253, 57, 284, 72
-0.998398, 197, 53, 212, 84
-0.998398, 145, 89, 272, 120
-0.9984, 109, 15, 140, 30
-0.9984, 425, 273, 456, 288
-0.998401, 149, 85, 180, 100
-0.998401, 105, 163, 136, 178
-0.998402, 149, 99, 180, 114
-0.998404, 217, 103, 248, 118
-0.998406, 217, 121, 248, 136
-0.998408, 29, 93, 60, 108
-0.998408, 413, 259, 444, 274
-0.998408, 149, 75, 180, 90
-0.998409, 257, 1, 288, 16
-0.998411, 273, 33, 400, 64
-0.998411, 149, 91, 180, 106
-0.998411, 369, 65, 400, 80
-0.998411, 289, 1, 416, 32
-0.998412, 217, 113, 248, 128
-0.998412, 217, 145, 248, 160
-0.998412, 233, 121, 248, 152
-0.998412, 353, 121, 480, 152
-0.998413, 265, 61, 296, 76
-0.998414, 413, 313, 444, 328
-0.998415, 105, 173, 136, 188
-0.998416, 127, 105, 142, 136
-0.998417, 261, 179, 292, 194
-0.998418, 181, 231, 212, 246
-0.998419, 125, 173, 156, 188
-0.998419, 453, 277, 468, 308
-0.998419, 197, 37, 212, 68
-0.998419, 241, 67, 272, 82
-0.99842, 143, 65, 158, 96
-0.99842, 61, 1, 92, 256
-0.99842, 149, 69, 180, 84
-0.998421, 413, 273, 444, 288
-0.998421, 177, 55, 208, 70
-0.998422, 265, 57, 280, 88
-0.998424, 345, 189, 376, 204
-0.998425, 225, 305, 240, 336
-0.998427, 365, 65, 396, 320
-0.998427, 217, 83, 248, 98
-0.998427, 249, 171, 280, 186
-0.998428, 275, 25, 290, 56
-0.998428, 261, 97, 276, 128
-0.998428, 261, 265, 276, 296
-0.998428, 263, 17, 278, 48
-0.998429, 365, 179, 396, 194
-0.998429, 413, 265, 444, 280
-0.99843, 261, 167, 292, 182
-0.99843, 265, 5, 280, 36
-0.998431, 217, 57, 280, 72
-0.998432, 217, 151, 248, 166
-0.998434, 109, 55, 140, 70
-0.998434, 217, 89, 248, 104
-0.998434, 425, 321, 440, 352
-0.998435, 229, 67, 260, 82
-0.998435, 155, 125, 170, 156
-0.998436, 259, 121, 274, 152
-0.998436, 377, 57, 392, 88
-0.998436, 217, 95, 248, 110
-0.998437, 213, 37, 228, 68
-0.998438, 161, 9, 176, 40
-0.998438, 217, 77, 248, 92
-0.998439, 217, 159, 248, 174
-0.998441, 191, 37, 206, 68
-0.998443, 221, 183, 252, 198
-0.998443, 317, 201, 332, 232
-0.998444, 433, 91, 464, 106
-0.998446, 217, 67, 248, 82
-0.998449, 217, 67, 280, 82
-0.998454, 261, 173, 292, 188
-0.998455, 121, 55, 184, 70
-0.998471, 209, 55, 240, 70
-0.998472, 197, 55, 228, 70
-0.998473, 169, 227, 200, 242
-0.998474, 217, 61, 248, 76
-0.998475, 217, 87, 280, 102
-0.998479, 241, 57, 304, 72
-0.998481, 217, 73, 280, 88
-0.998482, 305, 57, 432, 88
-0.998482, 241, 67, 304, 82
-0.998484, 169, 209, 200, 224
-0.998485, 217, 79, 280, 94
-0.998485, 161, 55, 224, 70
-0.998485, 217, 159, 280, 174
-0.998487, 165, 55, 196, 70
-0.998488, 149, 59, 180, 74
-0.998488, 49, 33, 176, 64
-0.998489, 217, 149, 280, 164
-0.998494, 241, 57, 272, 72
-0.998494, 217, 93, 280, 108
-0.998499, 121, 65, 184, 80
-0.998499, 229, 57, 260, 72
-0.998502, 217, 143, 280, 158
-0.998504, 169, 201, 200, 216
-0.998505, 305, 273, 432, 304
-0.998506, 121, 71, 184, 86
-0.998506, 97, 55, 160, 70
-0.998508, 97, 65, 160, 80
-0.998509, 241, 135, 304, 150
-0.998512, 217, 119, 280, 134
-0.998513, 241, 95, 304, 110
-0.998514, 217, 113, 280, 128
-0.998514, 121, 81, 184, 96
-0.998514, 217, 137, 280, 152
-0.998515, 97, 73, 160, 88
-0.998516, 217, 127, 280, 142
-0.998516, 177, 217, 208, 232
-0.998518, 241, 125, 304, 140
-0.998519, 241, 89, 304, 104
-0.998519, 241, 149, 304, 164
-0.99852, 217, 107, 280, 122
-0.99852, 353, 183, 416, 198
-0.99852, 241, 105, 304, 120
-0.99852, 121, 89, 184, 104
-0.998521, 241, 73, 304, 88
-0.998521, 241, 117, 304, 132
-0.998522, 125, 55, 156, 70
-0.998522, 257, 297, 384, 328
-0.998523, 241, 111, 304, 126
-0.998524, 241, 141, 304, 156
-0.998524, 241, 79, 304, 94
-0.998525, 97, 79, 160, 94
-0.998526, 169, 195, 232, 210
-0.998528, 217, 99, 280, 114
-0.998531, 121, 95, 184, 110
-0.998532, 241, 159, 304, 174
-0.998533, 305, 285, 432, 316
-0.998536, 169, 191, 200, 206
-0.998537, 97, 85, 160, 100
-0.998542, 45, 91, 76, 106
-0.998542, 97, 91, 160, 106
-0.998546, 97, 97, 160, 112
-0.998548, 233, 1, 248, 128
-0.998549, 169, 225, 232, 240
-0.998549, 185, 55, 248, 70
-0.998552, 17, 91, 80, 106
-0.998553, 97, 107, 160, 122
-0.998554, 121, 101, 184, 116
-0.998555, 97, 115, 160, 130
-0.998558, 181, 225, 212, 240
-0.99856, 165, 1, 180, 128
-0.998562, 321, 49, 384, 176
-0.998562, 97, 121, 160, 136
-0.998564, 41, 91, 104, 106
-0.998565, 129, 195, 192, 210
-0.998568, 1, 175, 64, 190
-0.99857, 241, 165, 304, 180
-0.998575, 97, 131, 160, 146
-0.998576, 193, 223, 256, 238
-0.998579, 313, 189, 376, 204
-0.998581, 193, 229, 256, 244
-0.998581, 177, 133, 240, 148
-0.998582, 169, 201, 232, 216
-0.998582, 121, 121, 184, 136
-0.998582, 121, 111, 184, 126
-0.998582, 121, 153, 184, 168
-0.998582, 129, 221, 192, 236
-0.998583, 121, 137, 184, 152
-0.998583, 129, 207, 192, 222
-0.998586, 121, 159, 184, 174
-0.998587, 121, 143, 184, 158
-0.998587, 233, 179, 296, 194
-0.998589, 169, 231, 232, 246
-0.998589, 221, 1, 236, 128
-0.99859, 145, 201, 208, 216
-0.99859, 217, 165, 280, 180
-0.99859, 121, 131, 184, 146
-0.998591, 321, 195, 384, 210
-0.998591, 161, 61, 224, 76
-0.998592, 281, 219, 344, 234
-0.998594, 97, 137, 160, 152
-0.998595, 233, 17, 296, 32
-0.998596, 81, 191, 144, 206
-0.998596, 393, 95, 456, 110
-0.998596, 105, 15, 168, 30
-0.998597, 177, 127, 240, 142
-0.998598, 417, 261, 480, 276
-0.9986, 177, 139, 240, 154
-0.998601, 89, 163, 152, 178
-0.998603, 185, 61, 248, 76
-0.998604, 89, 173, 152, 188
-0.998604, 409, 255, 472, 270
-0.998605, 89, 199, 152, 214
-0.998606, 25, 97, 88, 112
-0.998606, 97, 143, 160, 158
-0.998606, 155, 1, 170, 128
-0.998607, 161, 257, 288, 288
-0.99861, 73, 87, 136, 102
-0.99861, 169, 217, 232, 232
-0.99861, 169, 187, 232, 202
-0.998611, 193, 183, 256, 198
-0.998614, 121, 209, 152, 336
-0.998614, 57, 97, 120, 112
-0.998614, 153, 209, 216, 224
-0.998615, 393, 87, 456, 102
-0.998616, 249, 247, 312, 262
-0.998617, 361, 67, 424, 82
-0.998619, 233, 9, 296, 24
-0.998621, 97, 9, 160, 24
-0.998622, 97, 157, 160, 172
-0.998623, 121, 185, 184, 200
-0.998624, 1, 265, 480, 328
-0.998625, 169, 237, 232, 252
-0.998625, 193, 189, 256, 204
-0.998625, 97, 149, 160, 164
-0.998626, 89, 221, 152, 236
-0.998626, 105, 1, 168, 16
-0.998626, 105, 37, 168, 52
-0.998626, 73, 79, 136, 94
-0.998627, 161, 17, 224, 32
-0.998627, 337, 217, 464, 248
-0.998628, 217, 51, 280, 66
-0.99863, 305, 321, 432, 352
-0.998632, 409, 273, 472, 288
-0.998632, 233, 185, 296, 200
-0.998632, 121, 49, 184, 64
-0.998635, 321, 215, 384, 230
-0.998635, 129, 215, 192, 230
-0.998636, 73, 103, 136, 118
-0.998636, 129, 231, 192, 246
-0.998638, 193, 235, 256, 250
-0.998639, 65, 1, 128, 16
-0.998639, 417, 91, 480, 106
-0.998639, 129, 169, 192, 184
-0.998639, 17, 97, 48, 352
-0.998639, 33, 229, 160, 260
-0.99864, 129, 65, 256, 96
-0.99864, 217, 245, 280, 260
-0.998641, 233, 191, 296, 206
-0.998641, 233, 39, 296, 54
-0.998641, 193, 247, 256, 262
-0.998645, 243, 1, 258, 128
-0.99866, 143, 1, 158, 128
-0.998684, 171, 1, 186, 128
-0.998708, 213, 1, 228, 128
-0.99871, 249, 1, 264, 128
-0.998747, 205, 1, 220, 128
-0.998778, 195, 1, 210, 128
-0.998782, 17, 217, 144, 248
-0.998791, 5, 97, 36, 352
-0.998806, 183, 1, 198, 128
-0.998809, 1, 33, 128, 64
-0.998817, 101, 97, 132, 352
-0.998829, 259, 1, 274, 128
-0.998834, 177, 1, 192, 128
-0.998837, 189, 1, 204, 128
-0.998838, 133, 1, 148, 128
-0.998843, 127, 1, 142, 128
-0.998851, 173, 97, 204, 352
-0.998867, 439, 1, 454, 128
-0.998881, 447, 1, 462, 128
-0.998883, 1, 289, 480, 352
-0.998889, 353, 249, 480, 280
-0.998891, 459, 1, 474, 128
-0.998895, 165, 49, 180, 176
-0.998901, 89, 1, 120, 256
-0.998914, 73, 33, 104, 288
-0.998918, 305, 309, 432, 340
-0.998926, 243, 49, 258, 176
-0.998929, 153, 97, 184, 352
-0.998931, 325, 113, 356, 240
-0.998938, 181, 161, 196, 288
-0.998939, 175, 177, 190, 304
-0.998941, 9, 1, 40, 256
-0.998964, 389, 33, 404, 160
-0.99897, 337, 237, 464, 268
-0.998984, 127, 49, 142, 176
-0.998989, 227, 1, 242, 128
-0.999003, 383, 33, 398, 160
-0.999011, 161, 277, 288, 308
-0.999023, 253, 145, 268, 272
-0.999027, 243, 97, 258, 224
-0.999028, 191, 161, 206, 288
-0.999034, 161, 289, 288, 320
-0.999038, 329, 1, 360, 256
-0.99904, 401, 33, 416, 160
-0.999041, 149, 1, 164, 128
-0.999042, 143, 49, 158, 176
-0.999043, 367, 1, 382, 128
-0.999056, 461, 177, 476, 304
-0.999058, 453, 1, 468, 128
-0.999059, 465, 1, 480, 128
-0.999069, 223, 49, 238, 176
-0.999092, 239, 145, 254, 272
-0.999116, 125, 97, 156, 352
-0.999117, 259, 81, 274, 208
-0.99912, 417, 225, 432, 352
-0.999129, 395, 33, 410, 160
-0.999131, 361, 1, 376, 128
-0.999134, 189, 113, 204, 240
-0.999137, 127, 129, 142, 256
-0.999142, 31, 1, 46, 128
-0.99915, 451, 177, 466, 304
-0.99915, 281, 65, 312, 320
-0.999164, 377, 33, 392, 160
-0.999165, 391, 81, 406, 208
-0.999168, 231, 145, 246, 272
-0.999171, 233, 65, 248, 192
-0.999177, 259, 145, 274, 272
-0.999183, 37, 1, 52, 128
-0.999198, 169, 177, 184, 304
-0.999205, 367, 161, 382, 288
-0.999217, 253, 49, 268, 176
-0.999219, 155, 65, 170, 192
-0.999219, 35, 97, 50, 224
-0.999221, 265, 209, 280, 336
-0.999225, 181, 113, 196, 240
-0.999228, 247, 145, 262, 272
-0.999231, 401, 113, 416, 240
-0.999235, 439, 49, 454, 176
-0.999241, 225, 145, 240, 272
-0.999243, 145, 129, 160, 256
-0.999244, 407, 113, 422, 240
-0.999262, 205, 161, 220, 288
-0.999265, 325, 97, 356, 352
-0.999266, 217, 209, 232, 336
-0.999268, 133, 145, 148, 272
-0.999269, 259, 209, 274, 336
-0.999274, 175, 49, 190, 176
-0.999274, 193, 209, 208, 336
-0.999276, 449, 49, 464, 176
-0.999276, 429, 225, 444, 352
-0.999276, 25, 1, 40, 128
-0.999278, 417, 177, 432, 304
-0.99928, 443, 177, 458, 304
-0.999289, 43, 1, 58, 128
-0.999289, 55, 1, 70, 128
-0.99929, 1, 105, 480, 168
-0.999293, 267, 161, 282, 288
-0.999294, 425, 177, 440, 304
-0.999295, 119, 1, 134, 128
-0.999295, 433, 177, 448, 304
-0.999296, 277, 209, 292, 336
-0.9993, 287, 209, 302, 336
-0.999303, 353, 1, 368, 128
-0.999305, 197, 161, 212, 288
-0.999306, 119, 145, 134, 272
-0.999306, 41, 97, 56, 224
-0.999308, 197, 113, 212, 240
-0.999309, 463, 225, 478, 352
-0.999313, 231, 193, 246, 320
-0.999316, 165, 97, 180, 224
-0.999318, 29, 97, 44, 224
-0.999327, 163, 161, 178, 288
-0.999327, 319, 177, 334, 304
-0.999327, 373, 81, 388, 208
-0.999329, 217, 145, 232, 272
-0.99933, 251, 225, 266, 352
-0.999331, 223, 97, 238, 224
-0.999335, 175, 129, 190, 256
-0.999338, 105, 129, 120, 256
-0.999339, 49, 1, 64, 128
-0.999341, 413, 113, 428, 240
-0.999342, 47, 97, 62, 224
-0.999347, 433, 1, 448, 128
-0.999347, 15, 97, 30, 224
-0.999348, 437, 225, 452, 352
-0.999352, 249, 97, 264, 224
-0.999352, 55, 97, 70, 224
-0.999358, 465, 49, 480, 176
-0.999362, 23, 97, 38, 224
-0.999364, 271, 209, 286, 336
-0.999366, 433, 49, 448, 176
-0.999371, 241, 225, 256, 352
-0.999375, 113, 1, 128, 128
-0.999378, 379, 81, 394, 208
-0.999387, 385, 81, 400, 208
-0.999388, 447, 225, 462, 352
-0.999396, 137, 49, 152, 176
-0.999397, 181, 225, 196, 352
-0.999398, 139, 145, 154, 272
-0.9994, 49, 177, 64, 304
-0.999404, 225, 193, 240, 320
-0.999405, 9, 97, 24, 224
-0.999416, 425, 113, 440, 240
-0.999418, 63, 177, 78, 304
-0.999421, 455, 49, 470, 176
-0.999422, 61, 113, 76, 240
-0.999447, 341, 97, 372, 352
-0.999565, 233, 127, 248, 142
-0.999565, 209, 241, 224, 256
-0.999566, 165, 95, 180, 110
-0.999566, 233, 93, 248, 108
-0.999567, 127, 123, 142, 138
-0.999567, 155, 141, 170, 156
-0.999567, 187, 17, 202, 32
-0.999568, 249, 65, 264, 80
-0.999568, 155, 91, 170, 106
-0.999568, 169, 227, 184, 242
-0.999569, 155, 85, 170, 100
-0.99957, 145, 133, 160, 148
-0.99957, 173, 197, 188, 212
-0.99957, 145, 151, 160, 166
-0.99957, 155, 59, 170, 74
-0.99957, 221, 239, 236, 254
-0.99957, 371, 65, 386, 80
-0.999571, 439, 93, 454, 108
-0.999571, 233, 109, 248, 124
-0.999571, 449, 87, 464, 102
-0.999571, 427, 287, 442, 302
-0.999571, 445, 93, 460, 108
-0.999571, 257, 1, 272, 16
-0.999573, 177, 219, 192, 234
-0.999574, 155, 77, 170, 92
-0.999574, 261, 93, 276, 108
-0.999574, 127, 129, 142, 144
-0.999574, 401, 39, 416, 54
-0.999574, 165, 159, 180, 174
-0.999574, 417, 263, 432, 278
-0.999575, 259, 133, 274, 148
-0.999575, 233, 115, 248, 130
-0.999576, 259, 151, 274, 166
-0.999576, 417, 321, 432, 336
-0.999577, 155, 135, 170, 150
-0.999577, 165, 135, 180, 150
-0.999577, 127, 153, 142, 168
-0.999578, 259, 173, 274, 188
-0.999579, 181, 193, 196, 208
-0.999579, 217, 61, 232, 76
-0.999579, 155, 69, 170, 84
-0.999579, 243, 117, 258, 132
-0.99958, 223, 91, 238, 106
-0.999581, 447, 289, 462, 304
-0.999582, 51, 91, 66, 106
-0.999582, 129, 1, 144, 16
-0.999583, 127, 145, 142, 160
-0.999584, 233, 87, 248, 102
-0.999585, 243, 125, 258, 140
-0.999586, 417, 275, 432, 290
-0.999586, 261, 73, 276, 88
-0.999587, 447, 303, 462, 318
-0.999587, 243, 143, 258, 158
-0.999587, 233, 79, 248, 94
-0.999587, 233, 159, 248, 174
-0.999588, 425, 321, 440, 336
-0.999588, 133, 179, 148, 194
-0.999588, 127, 135, 142, 150
-0.999588, 165, 83, 180, 98
-0.999589, 233, 71, 248, 86
-0.999589, 145, 157, 160, 172
-0.999589, 179, 181, 194, 196
-0.999589, 427, 273, 442, 288
-0.999592, 165, 89, 180, 104
-0.999592, 425, 315, 440, 330
-0.999593, 145, 169, 160, 184
-0.999593, 155, 159, 170, 174
-0.999594, 243, 111, 258, 126
-0.999594, 223, 85, 238, 100
-0.999595, 203, 55, 218, 70
-0.999597, 223, 73, 238, 88
-0.999597, 243, 99, 258, 114
-0.999597, 243, 105, 258, 120
-0.999598, 233, 61, 248, 76
-0.999599, 191, 215, 206, 230
-0.999599, 165, 77, 180, 92
-0.9996, 259, 161, 274, 176
-0.9996, 127, 179, 142, 194
-0.999601, 191, 55, 206, 70
-0.999601, 243, 133, 258, 148
-0.999601, 223, 79, 238, 94
-0.999601, 127, 159, 142, 174
-0.999601, 175, 233, 190, 248
-0.999602, 181, 227, 196, 242
-0.999603, 243, 153, 258, 168
-0.999603, 127, 61, 142, 76
-0.999603, 145, 163, 160, 178
-0.999603, 437, 283, 452, 298
-0.999604, 243, 159, 258, 174
-0.999605, 317, 191, 332, 206
-0.999606, 175, 191, 190, 206
-0.999607, 357, 189, 372, 204
-0.999607, 165, 71, 180, 86
-0.999608, 143, 61, 158, 76
-0.999612, 171, 219, 186, 234
-0.999616, 243, 93, 258, 108
-0.999617, 253, 169, 268, 184
-0.999617, 173, 203, 188, 218
-0.999619, 185, 55, 200, 70
-0.999621, 171, 209, 186, 224
-0.999622, 197, 55, 212, 70
-0.999624, 179, 213, 194, 228
-0.999625, 243, 87, 258, 102
-0.999625, 127, 165, 142, 180
-0.999626, 255, 57, 270, 72
-0.999627, 243, 75, 258, 90
-0.999628, 183, 201, 198, 216
-0.999632, 243, 81, 258, 96
-0.999635, 173, 185, 188, 200
-0.999636, 215, 237, 230, 252
-0.999637, 191, 221, 206, 236
-0.99964, 261, 67, 276, 82
-0.99964, 223, 67, 238, 82
-0.999641, 165, 65, 180, 80
-0.999644, 213, 55, 228, 70
-0.999645, 185, 187, 200, 202
-0.999647, 175, 55, 190, 70
-0.99965, 133, 173, 148, 188
-0.999654, 137, 55, 152, 70
-0.999662, 127, 173, 142, 188
-0.999665, 249, 57, 264, 72
-0.999681, 243, 67, 258, 82
-0.999681, 261, 57, 276, 72
-0.999683, 223, 57, 238, 72
-0.999688, 185, 209, 200, 224
-0.99969, 243, 57, 258, 72
-0.999699, 127, 55, 142, 70
-0.999702, 175, 225, 190, 240
-0.999705, 113, 281, 240, 344
-0.999705, 165, 55, 180, 70
-0.999707, 143, 55, 158, 70
-0.999757, 89, 97, 120, 352
-0.999779, 317, 1, 348, 256
-0.999838, 353, 97, 384, 352
-0.999844, 33, 281, 288, 344
-0.999976, 301, 97, 332, 352
-0.999992, 313, 97, 344, 352
-1.00001, 1, 209, 480, 272
-1.00018, 289, 97, 352, 352
-1.00069, 297, 1, 328, 256
-1.00101, 353, 129, 480, 192
-1.00151, 1, 129, 480, 192
-1.00155, 49, 281, 176, 344
-1.00208, 17, 209, 80, 336
-1.00291, 1, 297, 128, 360
-1.00318, 41, 225, 104, 352
-1.00458, 297, 49, 360, 176
