1766
-0.777832, 1, 1, 500, 254
-0.990288, 273, 1, 400, 254
-0.990885, 321, 209, 384, 240
-0.991852, 1, 129, 500, 254
-0.992216, 297, 205, 360, 236
-0.99273, 345, 213, 408, 244
-0.992882, 353, 1, 480, 254
-0.99299, 329, 205, 360, 236
-0.993022, 345, 201, 408, 232
-0.993182, 345, 209, 376, 240
-0.993184, 321, 193, 384, 254
-0.993238, 305, 221, 368, 252
-0.993334, 369, 213, 432, 244
-0.99337, 369, 209, 400, 240
-0.993416, 357, 209, 388, 240
-0.993488, 337, 225, 400, 254
-0.993554, 317, 201, 348, 232
-0.993648, 373, 221, 404, 252
-0.993653, 325, 217, 356, 248
-0.993674, 341, 221, 372, 252
-0.9937, 361, 221, 392, 252
-0.99375, 309, 213, 340, 244
-0.993807, 341, 197, 372, 228
-0.993828, 321, 197, 384, 228
-0.993859, 353, 197, 384, 228
-0.993889, 281, 217, 344, 248
-0.993891, 305, 201, 336, 232
-0.993891, 389, 209, 420, 240
-0.993996, 289, 193, 352, 224
-0.994008, 329, 189, 360, 220
-0.99401, 369, 197, 400, 228
-0.994035, 389, 197, 420, 228
-0.994039, 297, 213, 328, 244
-0.99406, 317, 189, 348, 220
-0.994081, 385, 221, 416, 252
-0.994133, 401, 209, 432, 240
-0.994146, 341, 185, 372, 216
-0.994155, 293, 201, 324, 232
-0.994182, 413, 201, 444, 232
-0.994226, 305, 189, 336, 220
-0.994242, 281, 197, 312, 228
-0.994259, 313, 225, 344, 254
-0.994268, 285, 213, 316, 244
-0.994273, 413, 213, 444, 244
-0.994281, 329, 177, 360, 208
-0.994282, 413, 189, 444, 220
-0.994287, 469, 61, 500, 92
-0.994298, 365, 181, 396, 212
-0.994299, 401, 197, 432, 228
-0.994304, 377, 185, 408, 216
-0.994304, 465, 49, 496, 80
-0.994306, 369, 1, 400, 32
-0.994306, 381, 1, 412, 32
-0.994306, 149, 57, 180, 88
-0.994306, 81, 85, 112, 116
-0.994306, 301, 225, 332, 254
-0.99431, 1, 181, 32, 212
-0.994312, 345, 173, 376, 204
-0.994312, 469, 177, 500, 208
-0.994313, 293, 189, 324, 220
-0.994314, 469, 5, 500, 36
-0.994314, 1, 13, 32, 44
-0.994314, 149, 45, 180, 76
-0.994314, 81, 73, 112, 104
-0.994314, 365, 169, 396, 200
-0.994315, 65, 1, 96, 32
-0.994315, 77, 1, 108, 32
-0.994315, 161, 1, 192, 32
-0.994315, 173, 1, 204, 32
-0.994315, 205, 1, 236, 32
-0.994315, 217, 1, 248, 32
-0.994315, 417, 25, 448, 56
-0.994315, 441, 25, 472, 56
-0.994315, 425, 37, 456, 68
-0.994315, 437, 37, 468, 68
-0.994315, 1, 45, 32, 76
-0.994315, 173, 45, 204, 76
-0.994315, 353, 53, 384, 84
-0.994315, 377, 53, 408, 84
-0.994315, 169, 57, 200, 88
-0.994315, 129, 61, 160, 92
-0.994315, 361, 65, 392, 96
-0.994315, 373, 65, 404, 96
-0.994315, 61, 73, 92, 104
-0.994315, 137, 73, 168, 104
-0.994315, 149, 73, 180, 104
-0.994315, 69, 85, 100, 116
-0.994315, 105, 89, 136, 120
-0.994315, 89, 101, 120, 132
-0.994315, 101, 101, 132, 132
-0.994315, 1, 105, 32, 136
-0.994315, 429, 117, 460, 148
-0.994315, 453, 117, 484, 148
-0.994315, 469, 117, 500, 148
-0.994315, 437, 129, 468, 160
-0.994315, 449, 129, 480, 160
-0.994315, 469, 141, 500, 172
-0.994315, 421, 169, 452, 200
-0.994315, 445, 169, 476, 200
-0.994315, 429, 181, 460, 212
-0.994315, 441, 181, 472, 212
-0.994315, 445, 205, 476, 236
-0.994315, 461, 205, 492, 236
-0.994315, 1, 209, 32, 240
-0.994315, 429, 217, 460, 248
-0.994315, 441, 217, 472, 248
-0.994315, 469, 217, 500, 248
-0.994315, 401, 221, 432, 252
-0.994315, 281, 225, 312, 254
-0.994316, 401, 181, 432, 212
-0.994317, 377, 201, 440, 232
-0.994319, 465, 37, 496, 68
-0.994319, 469, 165, 500, 196
-0.99432, 281, 185, 312, 216
-0.994321, 1, 1, 32, 32
-0.994321, 353, 161, 384, 192
-0.994323, 173, 33, 204, 64
-0.994323, 353, 41, 384, 72
-0.994323, 365, 41, 396, 72
-0.994323, 377, 41, 408, 72
-0.994323, 133, 49, 164, 80
-0.994323, 61, 61, 92, 92
-0.994323, 73, 61, 104, 92
-0.994323, 85, 61, 116, 92
-0.994323, 93, 77, 124, 108
-0.994323, 105, 77, 136, 108
-0.994323, 1, 93, 32, 124
-0.994323, 77, 97, 108, 128
-0.994323, 429, 105, 460, 136
-0.994323, 441, 105, 472, 136
-0.994323, 453, 105, 484, 136
-0.994323, 469, 105, 500, 136
-0.994323, 421, 157, 452, 188
-0.994323, 433, 157, 464, 188
-0.994323, 445, 157, 476, 188
-0.994323, 1, 161, 32, 192
-0.994323, 337, 161, 368, 192
-0.994323, 377, 173, 408, 204
-0.994323, 433, 193, 464, 224
-0.994323, 445, 193, 476, 224
-0.994323, 465, 193, 496, 224
-0.994323, 425, 205, 456, 236
-0.994323, 45, 225, 76, 254
-0.994323, 57, 225, 88, 254
-0.994323, 173, 225, 204, 254
-0.994323, 185, 225, 216, 254
-0.994396, 265, 201, 328, 232
-0.994421, 129, 1, 256, 254
-0.994659, 345, 189, 408, 220
-0.994675, 361, 225, 424, 254
-0.994915, 321, 181, 384, 212
-0.994966, 401, 205, 464, 236
-0.994981, 257, 213, 320, 244
-0.995039, 49, 1, 176, 254
-0.995072, 297, 177, 360, 208
-0.995088, 265, 189, 328, 220
-0.995091, 417, 53, 480, 84
-0.99513, 385, 65, 448, 96
-0.99513, 17, 225, 80, 254
-0.995133, 241, 189, 304, 220
-0.995135, 273, 69, 336, 100
-0.995135, 249, 177, 312, 208
-0.995135, 241, 201, 304, 232
-0.995138, 273, 169, 336, 200
-0.995143, 409, 193, 472, 224
-0.995148, 385, 45, 448, 76
-0.995153, 433, 41, 496, 72
-0.995153, 425, 65, 488, 96
-0.995153, 57, 225, 120, 254
-0.995156, 393, 217, 456, 248
-0.995159, 297, 57, 360, 88
-0.995159, 137, 81, 200, 112
-0.995159, 153, 173, 216, 204
-0.995164, 57, 1, 120, 32
-0.995164, 169, 33, 232, 64
-0.995164, 129, 45, 192, 76
-0.995164, 153, 45, 216, 76
-0.995164, 145, 69, 208, 100
-0.995164, 417, 77, 480, 108
-0.995164, 185, 89, 248, 120
-0.995164, 121, 193, 184, 224
-0.995164, 145, 193, 208, 224
-0.995164, 425, 217, 488, 248
-0.995168, 369, 189, 432, 220
-0.995177, 1, 29, 64, 60
-0.995182, 1, 189, 64, 220
-0.995182, 57, 213, 120, 244
-0.995187, 129, 33, 192, 64
-0.995187, 385, 33, 448, 64
-0.995187, 257, 57, 320, 88
-0.995187, 249, 69, 312, 100
-0.995187, 297, 73, 360, 104
-0.995187, 185, 77, 248, 108
-0.995187, 425, 89, 488, 120
-0.995187, 433, 109, 496, 140
-0.995187, 321, 169, 384, 200
-0.995187, 121, 181, 184, 212
-0.995187, 9, 213, 72, 244
-0.995193, 25, 1, 88, 32
-0.995193, 81, 1, 144, 32
-0.995193, 433, 1, 496, 32
-0.995193, 361, 53, 424, 84
-0.995193, 1, 65, 64, 96
-0.995193, 105, 69, 168, 100
-0.995193, 321, 69, 384, 100
-0.995193, 393, 77, 456, 108
-0.995193, 113, 81, 176, 112
-0.995193, 273, 81, 336, 112
-0.995193, 1, 85, 64, 116
-0.995193, 153, 101, 216, 132
-0.995193, 177, 101, 240, 132
-0.995193, 409, 101, 472, 132
-0.995193, 1, 113, 64, 144
-0.995193, 49, 113, 112, 144
-0.995193, 17, 125, 80, 156
-0.995193, 41, 125, 104, 156
-0.995193, 17, 153, 80, 184
-0.995193, 65, 153, 128, 184
-0.995193, 433, 157, 496, 188
-0.995193, 137, 161, 200, 192
-0.995193, 185, 161, 248, 192
-0.995193, 33, 165, 96, 196
-0.995193, 57, 165, 120, 196
-0.995193, 177, 173, 240, 204
-0.995193, 9, 177, 72, 208
-0.995193, 369, 177, 432, 208
-0.995193, 409, 177, 472, 208
-0.995193, 169, 185, 232, 216
-0.995193, 193, 189, 256, 220
-0.995193, 193, 201, 256, 232
-0.995193, 217, 201, 280, 232
-0.995193, 169, 225, 232, 254
-0.995193, 209, 225, 272, 254
-0.995198, 161, 89, 224, 120
-0.995205, 1, 17, 64, 48
-0.995205, 409, 37, 472, 68
-0.995205, 297, 161, 360, 192
-0.995211, 145, 21, 208, 52
-0.995211, 169, 21, 232, 52
-0.995211, 433, 29, 496, 60
-0.995211, 273, 45, 336, 76
-0.995211, 297, 45, 360, 76
-0.995211, 433, 201, 496, 232
-0.995211, 33, 205, 96, 236
-0.995216, 145, 57, 208, 88
-0.995216, 321, 57, 384, 88
-0.995216, 169, 65, 232, 96
-0.995216, 193, 65, 256, 96
-0.995216, 129, 97, 192, 128
-0.995216, 1, 101, 64, 132
-0.995216, 25, 101, 88, 132
-0.995216, 49, 101, 112, 132
-0.995216, 17, 141, 80, 172
-0.995216, 41, 141, 104, 172
-0.995216, 65, 141, 128, 172
-0.995216, 433, 145, 496, 176
-0.995216, 137, 149, 200, 180
-0.995216, 161, 149, 224, 180
-0.995216, 185, 149, 248, 180
-0.995216, 273, 157, 336, 188
-0.995216, 329, 157, 392, 188
-0.995216, 249, 165, 312, 196
-0.995216, 105, 169, 168, 200
-0.995216, 201, 177, 264, 208
-0.995216, 225, 177, 288, 208
-0.995216, 433, 185, 496, 216
-0.995216, 9, 201, 72, 232
-0.995759, 321, 193, 448, 254
-0.996265, 177, 1, 304, 254
-0.996407, 329, 193, 360, 254
-0.996569, 1, 1, 128, 254
-0.997089, 341, 185, 372, 248
-0.9972, 297, 185, 360, 248
-0.997287, 1, 17, 500, 144
-0.997544, 241, 185, 368, 248
-0.997978, 369, 193, 496, 254
-0.997982, 345, 193, 408, 254
-0.998066, 61, 239, 92, 254
-0.998066, 73, 239, 104, 254
-0.998066, 85, 239, 116, 254
-0.998066, 97, 239, 128, 254
-0.998066, 109, 239, 140, 254
-0.998066, 121, 239, 152, 254
-0.998066, 133, 239, 164, 254
-0.998066, 145, 239, 176, 254
-0.998066, 157, 239, 188, 254
-0.998066, 201, 239, 232, 254
-0.998066, 213, 239, 244, 254
-0.998066, 225, 239, 256, 254
-0.998066, 273, 239, 304, 254
-0.998066, 285, 239, 316, 254
-0.998066, 297, 239, 328, 254
-0.998066, 309, 239, 340, 254
-0.998066, 321, 239, 352, 254
-0.998066, 333, 239, 364, 254
-0.998066, 345, 239, 376, 254
-0.998066, 357, 239, 388, 254
-0.998066, 369, 239, 400, 254
-0.998066, 381, 239, 412, 254
-0.998066, 393, 239, 424, 254
-0.998066, 405, 239, 436, 254
-0.998066, 417, 239, 448, 254
-0.998066, 429, 239, 460, 254
-0.998066, 441, 239, 472, 254
-0.998066, 453, 239, 484, 254
-0.998066, 465, 239, 496, 254
-0.998066, 413, 7, 444, 22
-0.998066, 425, 7, 456, 22
-0.998066, 437, 7, 468, 22
-0.998066, 1, 11, 32, 26
-0.998066, 469, 57, 500, 72
-0.998066, 469, 85, 500, 100
-0.998066, 1, 105, 32, 120
-0.998066, 469, 107, 500, 122
-0.998066, 1, 199, 32, 214
-0.998066, 433, 199, 464, 214
-0.998066, 445, 199, 476, 214
-0.998066, 425, 205, 456, 220
-0.998066, 117, 207, 148, 222
-0.998066, 129, 207, 160, 222
-0.998066, 141, 207, 172, 222
-0.998066, 469, 207, 500, 222
-0.998066, 173, 239, 204, 254
-0.998066, 185, 239, 216, 254
-0.998066, 241, 239, 272, 254
-0.998066, 253, 239, 284, 254
-0.998067, 469, 71, 500, 86
-0.998067, 469, 161, 500, 176
-0.998067, 469, 175, 500, 190
-0.998067, 385, 195, 416, 210
-0.998067, 317, 189, 348, 204
-0.998067, 469, 225, 500, 240
-0.998068, 285, 199, 316, 214
-0.998068, 405, 197, 436, 212
-0.998068, 329, 1, 360, 16
-0.998068, 341, 1, 372, 16
-0.998068, 389, 1, 420, 16
-0.998068, 401, 1, 432, 16
-0.998068, 413, 13, 444, 28
-0.998068, 437, 13, 468, 28
-0.998068, 1, 17, 32, 32
-0.998068, 421, 19, 452, 34
-0.998068, 433, 19, 464, 34
-0.998068, 469, 77, 500, 92
-0.998068, 469, 91, 500, 106
-0.998068, 1, 111, 32, 126
-0.998068, 469, 113, 500, 128
-0.998068, 469, 123, 500, 138
-0.998068, 1, 205, 32, 220
-0.998068, 445, 205, 476, 220
-0.998068, 429, 211, 460, 226
-0.998068, 441, 211, 472, 226
-0.998068, 117, 213, 148, 228
-0.998068, 141, 213, 172, 228
-0.998068, 469, 213, 500, 228
-0.998068, 405, 217, 436, 232
-0.998068, 125, 219, 156, 234
-0.998068, 137, 219, 168, 234
-0.998068, 385, 225, 416, 240
-0.998069, 469, 63, 500, 78
-0.998069, 469, 167, 500, 182
-0.998069, 469, 181, 500, 196
-0.998069, 469, 231, 500, 246
-0.99807, 369, 195, 400, 210
-0.998071, 161, 1, 192, 16
-0.998071, 173, 1, 204, 16
-0.998073, 341, 227, 372, 242
-0.998073, 305, 195, 336, 210
-0.998078, 365, 227, 396, 242
-0.998081, 329, 191, 360, 206
-0.998089, 413, 203, 444, 218
-0.99809, 281, 205, 312, 220
-0.998094, 401, 205, 432, 220
-0.998099, 285, 213, 316, 228
-0.998106, 377, 201, 408, 216
-0.998107, 343, 193, 358, 254
-0.998111, 353, 199, 384, 214
-0.998112, 413, 209, 444, 224
-0.998114, 353, 227, 384, 242
-0.998115, 305, 201, 336, 216
-0.998119, 329, 223, 360, 238
-0.998121, 293, 207, 324, 222
-0.998126, 317, 195, 348, 210
-0.99813, 305, 205, 432, 236
-0.998131, 385, 219, 416, 234
-0.998133, 301, 219, 332, 234
-0.998141, 341, 197, 372, 212
-0.998161, 389, 207, 420, 222
-0.998162, 305, 207, 336, 222
-0.998167, 401, 211, 432, 226
-0.99818, 329, 199, 360, 214
-0.998208, 341, 203, 372, 218
-0.998209, 369, 207, 400, 222
-0.998211, 313, 219, 344, 234
-0.998219, 297, 213, 328, 228
-0.998228, 357, 205, 388, 220
-0.998229, 341, 215, 372, 230
-0.998238, 361, 221, 392, 236
-0.998245, 341, 221, 372, 236
-0.99825, 389, 213, 420, 228
-0.998254, 317, 203, 348, 218
-0.998261, 325, 217, 356, 232
-0.998261, 309, 213, 340, 228
-0.998277, 373, 219, 404, 234
-0.998306, 369, 213, 400, 228
-0.998329, 321, 211, 352, 226
-0.998331, 333, 201, 348, 232
-0.99834, 353, 213, 384, 228
-0.998355, 329, 205, 360, 220
-0.998362, 333, 193, 348, 254
-0.998367, 341, 209, 372, 224
-0.998461, 349, 209, 364, 240
-0.998516, 1, 65, 500, 192
-0.998562, 341, 205, 356, 236
-0.998631, 329, 213, 392, 228
-0.998638, 305, 209, 368, 224
-0.998652, 357, 213, 372, 244
-0.998698, 321, 217, 448, 248
-0.998707, 361, 215, 424, 230
-0.998708, 305, 203, 368, 218
-0.99871, 297, 215, 360, 230
-0.998733, 329, 207, 392, 222
-0.998744, 337, 223, 400, 238
-0.998749, 363, 213, 378, 244
-0.998757, 313, 221, 376, 236
-0.99877, 273, 213, 336, 228
-0.998771, 353, 207, 416, 222
-0.998785, 361, 221, 424, 236
-0.99879, 385, 213, 448, 228
-0.998794, 281, 203, 344, 218
-0.998795, 375, 209, 390, 240
-0.998795, 337, 201, 400, 216
-0.998808, 349, 193, 364, 254
-0.998831, 289, 197, 352, 212
-0.998837, 385, 207, 448, 222
-0.998839, 257, 207, 320, 222
-0.998846, 321, 195, 384, 210
-0.998848, 289, 221, 352, 236
-0.998853, 369, 209, 384, 240
-0.998869, 409, 209, 472, 224
-0.99887, 249, 213, 312, 228
-0.998876, 385, 219, 448, 234
-0.998877, 265, 219, 328, 234
-0.998878, 313, 227, 376, 242
-0.998881, 297, 191, 360, 206
-0.998881, 409, 203, 472, 218
-0.998882, 257, 201, 320, 216
-0.998882, 257, 63, 320, 78
-0.998882, 281, 63, 344, 78
-0.998882, 9, 81, 72, 96
-0.998882, 249, 235, 312, 250
-0.998882, 297, 237, 360, 252
-0.998883, 433, 213, 496, 228
-0.998884, 361, 201, 424, 216
-0.998884, 249, 57, 312, 72
-0.998884, 289, 57, 352, 72
-0.998884, 9, 75, 72, 90
-0.998884, 33, 167, 96, 182
-0.998884, 57, 167, 120, 182
-0.998884, 433, 175, 496, 190
-0.998884, 417, 219, 480, 234
-0.998884, 257, 227, 320, 242
-0.998884, 281, 227, 344, 242
-0.998884, 273, 239, 336, 254
-0.998884, 1, 1, 64, 16
-0.998884, 57, 1, 120, 16
-0.998884, 81, 1, 144, 16
-0.998884, 433, 3, 496, 18
-0.998884, 25, 39, 88, 54
-0.998884, 17, 45, 80, 60
-0.998884, 433, 77, 496, 92
-0.998884, 57, 81, 120, 96
-0.998884, 25, 87, 88, 102
-0.998884, 49, 87, 112, 102
-0.998884, 137, 97, 200, 112
-0.998884, 185, 97, 248, 112
-0.998884, 153, 103, 216, 118
-0.998884, 177, 103, 240, 118
-0.998884, 433, 115, 496, 130
-0.998884, 1, 119, 64, 134
-0.998884, 49, 119, 112, 134
-0.998884, 17, 125, 80, 140
-0.998884, 41, 125, 104, 140
-0.998884, 17, 161, 80, 176
-0.998884, 65, 161, 128, 176
-0.998884, 433, 163, 496, 178
-0.998884, 9, 173, 72, 188
-0.998884, 57, 173, 120, 188
-0.998884, 25, 179, 88, 194
-0.998884, 49, 179, 112, 194
-0.998884, 433, 185, 496, 200
-0.998884, 153, 205, 216, 220
-0.998884, 201, 205, 264, 220
-0.998884, 169, 211, 232, 226
-0.998884, 193, 211, 256, 226
-0.998884, 241, 221, 304, 236
-0.998884, 377, 227, 440, 242
-0.998884, 425, 227, 488, 242
-0.998884, 57, 233, 120, 248
-0.998884, 393, 233, 456, 248
-0.998884, 417, 233, 480, 248
-0.998884, 17, 237, 80, 252
-0.998884, 57, 239, 120, 254
-0.998885, 385, 197, 448, 212
-0.998885, 355, 185, 370, 248
-0.998886, 265, 51, 328, 66
-0.998886, 289, 51, 352, 66
-0.998886, 433, 109, 496, 124
-0.998886, 1, 33, 64, 48
-0.998886, 25, 33, 88, 48
-0.998886, 241, 51, 304, 66
-0.998886, 9, 69, 72, 84
-0.998886, 433, 71, 496, 86
-0.998886, 33, 75, 96, 90
-0.998886, 57, 75, 120, 90
-0.998886, 137, 91, 200, 106
-0.998886, 161, 91, 224, 106
-0.998886, 185, 91, 248, 106
-0.998886, 433, 103, 496, 118
-0.998886, 1, 113, 64, 128
-0.998886, 25, 113, 88, 128
-0.998886, 49, 113, 112, 128
-0.998886, 17, 155, 80, 170
-0.998886, 41, 155, 104, 170
-0.998886, 65, 155, 128, 170
-0.998886, 433, 157, 496, 172
-0.998886, 1, 167, 64, 182
-0.998886, 321, 187, 384, 202
-0.998886, 257, 195, 320, 210
-0.998886, 153, 199, 216, 214
-0.998886, 177, 199, 240, 214
-0.998886, 201, 199, 264, 214
-0.998886, 25, 231, 88, 246
-0.998886, 177, 233, 240, 248
-0.998886, 201, 233, 264, 248
-0.998886, 225, 233, 288, 248
-0.998886, 273, 233, 336, 248
-0.998886, 337, 233, 400, 248
-0.998886, 361, 233, 424, 248
-0.998886, 81, 239, 144, 254
-0.998886, 105, 239, 168, 254
-0.998886, 129, 239, 192, 254
-0.998886, 153, 239, 216, 254
-0.998886, 177, 239, 240, 254
-0.998886, 201, 239, 264, 254
-0.998886, 225, 239, 288, 254
-0.998886, 337, 239, 400, 254
-0.998886, 361, 239, 424, 254
-0.998886, 385, 239, 448, 254
-0.998886, 409, 239, 472, 254
-0.998886, 433, 239, 496, 254
-0.998949, 257, 213, 384, 244
-0.999035, 327, 201, 342, 232
-0.999096, 317, 185, 348, 248
-0.999105, 381, 209, 396, 240
-0.999149, 331, 217, 346, 248
-0.99915, 367, 185, 382, 248
-0.99917, 351, 221, 366, 252
-0.99917, 369, 221, 384, 252
-0.999174, 319, 209, 334, 240
-0.999227, 387, 217, 402, 248
-0.999235, 325, 213, 340, 244
-0.999262, 337, 217, 352, 248
-0.9993, 353, 185, 384, 248
-0.999312, 369, 213, 496, 244
-0.999313, 375, 221, 390, 252
-0.999315, 309, 233, 324, 248
-0.999315, 45, 239, 60, 254
-0.999315, 51, 239, 66, 254
-0.999315, 67, 239, 82, 254
-0.999315, 73, 239, 88, 254
-0.999315, 157, 239, 172, 254
-0.999315, 163, 239, 178, 254
-0.999315, 323, 239, 338, 254
-0.999315, 329, 239, 344, 254
-0.999315, 367, 239, 382, 254
-0.999315, 373, 239, 388, 254
-0.999315, 421, 239, 436, 254
-0.999315, 427, 239, 442, 254
-0.999316, 1, 173, 16, 188
-0.999316, 295, 233, 310, 248
-0.999316, 301, 235, 316, 250
-0.999316, 411, 197, 426, 212
-0.999316, 305, 197, 320, 212
-0.999317, 373, 189, 388, 204
-0.999317, 309, 1, 324, 16
-0.999317, 315, 1, 330, 16
-0.999317, 379, 1, 394, 16
-0.999317, 385, 1, 400, 16
-0.999317, 433, 1, 448, 16
-0.999317, 439, 1, 454, 16
-0.999317, 447, 1, 462, 16
-0.999317, 453, 1, 468, 16
-0.999317, 1, 19, 16, 34
-0.999317, 1, 37, 16, 52
-0.999317, 1, 67, 16, 82
-0.999317, 61, 81, 76, 96
-0.999317, 41, 85, 56, 100
-0.999317, 59, 87, 74, 102
-0.999317, 223, 87, 238, 102
-0.999317, 235, 87, 250, 102
-0.999317, 45, 91, 60, 106
-0.999317, 227, 93, 242, 108
-0.999317, 233, 93, 248, 108
-0.999317, 421, 191, 436, 206
-0.999317, 433, 191, 448, 206
-0.999317, 359, 193, 374, 208
-0.999317, 425, 197, 440, 212
-0.999317, 431, 197, 446, 212
-0.999317, 485, 199, 500, 214
-0.999317, 1, 205, 16, 220
-0.999317, 479, 211, 494, 226
-0.999317, 409, 217, 424, 232
-0.999317, 479, 217, 494, 232
-0.999317, 485, 217, 500, 232
-0.999317, 383, 225, 398, 240
-0.999317, 345, 227, 360, 242
-0.999317, 51, 81, 66, 96
-0.999317, 423, 205, 438, 220
-0.999317, 307, 239, 322, 254
-0.999318, 1, 179, 16, 194
-0.999318, 387, 201, 402, 216
-0.999318, 397, 219, 412, 234
-0.999318, 327, 191, 342, 206
-0.999318, 333, 187, 348, 202
-0.999319, 51, 87, 66, 102
-0.999319, 295, 239, 310, 254
-0.999321, 367, 229, 382, 244
-0.999321, 297, 199, 312, 214
-0.999321, 417, 199, 432, 214
-0.999323, 319, 201, 334, 216
-0.999323, 401, 201, 416, 216
-0.999324, 419, 211, 434, 226
-0.99933, 297, 213, 312, 228
-0.99933, 375, 225, 390, 240
-0.999332, 379, 195, 394, 210
-0.999334, 339, 193, 354, 208
-0.999337, 403, 217, 418, 232
-0.999338, 369, 195, 384, 210
-0.999338, 343, 217, 358, 248
-0.999341, 297, 205, 312, 220
-0.999344, 345, 195, 360, 210
-0.999346, 359, 201, 374, 216
-0.999348, 417, 205, 432, 220
-0.999357, 369, 201, 384, 216
-0.999361, 407, 205, 422, 220
-0.999361, 353, 201, 368, 216
-0.999363, 413, 211, 428, 226
-0.999364, 307, 205, 322, 220
-0.999365, 361, 225, 376, 254
-0.999366, 359, 201, 374, 232
-0.999367, 391, 221, 406, 236
-0.999369, 307, 217, 322, 232
-0.99937, 379, 201, 394, 216
-0.999371, 325, 197, 340, 212
-0.999382, 381, 207, 396, 222
-0.999383, 319, 219, 334, 234
-0.999384, 303, 211, 318, 226
-0.999385, 407, 211, 422, 226
-0.999386, 397, 207, 412, 222
-0.99939, 361, 185, 376, 248
-0.999391, 321, 207, 336, 222
-0.999392, 353, 225, 368, 240
-0.999394, 333, 197, 348, 212
-0.999398, 313, 219, 328, 234
-0.999407, 387, 207, 402, 222
-0.999408, 315, 207, 330, 222
-0.999414, 325, 219, 340, 234
-0.999415, 347, 201, 362, 216
-0.999415, 353, 207, 368, 222
-0.999415, 361, 207, 376, 222
-0.999422, 369, 201, 496, 232
-0.999426, 339, 199, 354, 214
-0.99943, 359, 225, 374, 240
-0.999433, 309, 211, 324, 226
-0.999434, 339, 189, 354, 220
-0.999435, 385, 219, 400, 234
-0.999439, 397, 213, 412, 228
-0.99944, 347, 215, 362, 230
-0.999441, 327, 203, 342, 218
-0.999441, 343, 221, 358, 236
-0.999444, 369, 207, 384, 222
-0.999444, 393, 209, 408, 240
-0.99945, 331, 219, 346, 234
-0.999453, 369, 223, 384, 238
-0.999453, 375, 219, 390, 234
-0.999454, 353, 219, 368, 234
-0.999454, 391, 215, 406, 230
-0.999456, 375, 207, 390, 222
-0.999458, 347, 197, 362, 228
-0.99946, 315, 213, 330, 228
-0.99947, 341, 213, 356, 228
-0.999473, 337, 219, 352, 234
-0.999478, 377, 185, 392, 248
-0.999489, 369, 213, 384, 228
-0.999492, 357, 213, 372, 228
-0.999496, 321, 213, 336, 228
-0.9995, 385, 213, 400, 228
-0.999514, 363, 215, 378, 230
-0.999516, 379, 213, 394, 228
-0.999518, 329, 209, 344, 224
-0.999518, 347, 209, 362, 224
-0.999531, 341, 205, 356, 220
-0.999547, 333, 203, 348, 218
-0.999553, 335, 211, 350, 226
-0.999563, 381, 221, 396, 252
-0.999584, 321, 169, 448, 232
-0.99959, 369, 197, 384, 228
-0.999594, 321, 185, 336, 248
-0.999599, 387, 201, 402, 232
-0.999612, 353, 197, 368, 228
-0.999621, 313, 209, 328, 240
-0.999622, 307, 209, 322, 240
-0.999625, 381, 197, 396, 228
-0.99968, 331, 189, 346, 220
-0.999707, 375, 197, 390, 228
-0.999751, 321, 197, 336, 228
-0.999813, 315, 197, 330, 228
-0.999824, 393, 221, 408, 252
-0.99983, 327, 185, 342, 248
-0.999845, 383, 185, 398, 248
-0.99985, 309, 197, 324, 228
-0.999869, 317, 221, 332, 252
-0.999874, 409, 209, 424, 240
-0.999905, 393, 197, 408, 228
-0.999908, 257, 201, 384, 232
-0.999916, 301, 209, 316, 240
-0.999922, 343, 169, 358, 232
-0.999923, 399, 209, 414, 240
-0.999942, 311, 221, 326, 252
-0.999956, 333, 169, 348, 232
-0.999967, 415, 209, 430, 240
-0.999971, 405, 197, 420, 228
-0.999971, 325, 225, 340, 254
-1, 417, 197, 432, 228
-1.00001, 325, 185, 340, 216
-1.00002, 399, 197, 414, 228
-1.00004, 297, 197, 312, 228
-1.00004, 359, 189, 374, 220
-1.00008, 303, 197, 318, 228
-1.00008, 349, 129, 364, 254
-1.00009, 363, 129, 378, 254
-1.00009, 337, 129, 352, 254
-1.0001, 355, 129, 370, 254
-1.00011, 369, 181, 384, 212
-1.00011, 347, 185, 362, 216
-1.00012, 343, 129, 358, 254
-1.00012, 379, 185, 394, 216
-1.00012, 411, 189, 426, 220
-1.00013, 387, 189, 402, 220
-1.00013, 219, 181, 234, 212
-1.00013, 305, 193, 432, 224
-1.00013, 377, 129, 392, 254
-1.00014, 3, 53, 18, 84
-1.00014, 429, 197, 444, 228
-1.00014, 401, 129, 416, 254
-1.00014, 167, 1, 182, 32
-1.00014, 425, 53, 440, 84
-1.00014, 415, 61, 430, 92
-1.00014, 425, 65, 440, 96
-1.00014, 437, 65, 452, 96
-1.00014, 441, 77, 456, 108
-1.00014, 447, 77, 462, 108
-1.00014, 115, 205, 130, 236
-1.00014, 429, 213, 444, 244
-1.00014, 115, 217, 130, 248
-1.00014, 403, 221, 418, 252
-1.00014, 213, 181, 228, 212
-1.00015, 419, 185, 434, 216
-1.00015, 213, 165, 228, 196
-1.00015, 423, 197, 438, 228
-1.00015, 295, 213, 310, 244
-1.00015, 395, 129, 410, 254
-1.00015, 333, 173, 348, 204
-1.00015, 3, 41, 18, 72
-1.00015, 415, 49, 430, 80
-1.00015, 1, 65, 16, 96
-1.00015, 449, 65, 464, 96
-1.00015, 221, 169, 236, 200
-1.00015, 325, 169, 340, 200
-1.00015, 1, 177, 16, 208
-1.00015, 207, 177, 222, 208
-1.00015, 485, 193, 500, 224
-1.00015, 423, 213, 438, 244
-1.00016, 471, 61, 486, 92
-1.00016, 477, 61, 492, 92
-1.00016, 9, 69, 24, 100
-1.00016, 71, 69, 86, 100
-1.00016, 83, 69, 98, 100
-1.00016, 155, 73, 170, 104
-1.00016, 167, 73, 182, 104
-1.00016, 419, 73, 434, 104
-1.00016, 1, 81, 16, 112
-1.00016, 7, 81, 22, 112
-1.00016, 75, 81, 90, 112
-1.00016, 81, 81, 96, 112
-1.00016, 159, 85, 174, 116
-1.00016, 165, 85, 180, 116
-1.00016, 473, 85, 488, 116
-1.00016, 485, 85, 500, 116
-1.00016, 477, 97, 492, 128
-1.00016, 483, 97, 498, 128
-1.00016, 139, 101, 154, 132
-1.00016, 151, 101, 166, 132
-1.00016, 143, 113, 158, 144
-1.00016, 149, 113, 164, 144
-1.00016, 365, 169, 380, 200
-1.00016, 315, 173, 330, 204
-1.00016, 355, 173, 370, 204
-1.00016, 273, 185, 288, 216
-1.00016, 285, 185, 300, 216
-1.00016, 433, 185, 448, 216
-1.00016, 211, 193, 226, 224
-1.00016, 217, 193, 232, 224
-1.00016, 277, 197, 292, 228
-1.00016, 283, 197, 298, 228
-1.00016, 105, 205, 120, 236
-1.00016, 127, 205, 142, 236
-1.00016, 437, 205, 452, 236
-1.00016, 473, 205, 488, 236
-1.00016, 483, 205, 498, 236
-1.00016, 1, 213, 16, 244
-1.00016, 109, 217, 124, 248
-1.00016, 125, 217, 140, 248
-1.00016, 435, 217, 450, 248
-1.00016, 477, 217, 492, 248
-1.00016, 483, 217, 498, 248
-1.00016, 303, 221, 318, 252
-1.00016, 317, 129, 332, 254
-1.00018, 329, 129, 344, 254
-1.00018, 305, 129, 320, 254
-1.00019, 371, 129, 386, 254
-1.00019, 323, 129, 338, 254
-1.00019, 389, 129, 404, 254
-1.00019, 409, 129, 424, 254
-1.0002, 311, 129, 326, 254
-1.00021, 383, 129, 398, 254
-1.00024, 41, 1, 56, 128
-1.00024, 83, 1, 98, 128
-1.00024, 383, 1, 398, 128
-1.00024, 485, 1, 500, 128
-1.00024, 463, 49, 478, 176
-1.00024, 463, 97, 478, 224
-1.00024, 31, 113, 46, 240
-1.00024, 415, 129, 430, 254
-1.00025, 41, 129, 56, 254
-1.00025, 173, 129, 188, 254
-1.00025, 295, 129, 310, 254
-1.00025, 25, 65, 40, 192
-1.00025, 185, 81, 200, 208
-1.00025, 183, 129, 198, 254
-1.00025, 35, 1, 50, 128
-1.00025, 51, 1, 66, 128
-1.00025, 61, 1, 76, 128
-1.00025, 67, 1, 82, 128
-1.00025, 77, 1, 92, 128
-1.00025, 93, 1, 108, 128
-1.00025, 229, 1, 244, 128
-1.00025, 235, 1, 250, 128
-1.00025, 377, 1, 392, 128
-1.00025, 393, 1, 408, 128
-1.00025, 403, 1, 418, 128
-1.00025, 409, 1, 424, 128
-1.00025, 419, 1, 434, 128
-1.00025, 425, 1, 440, 128
-1.00025, 15, 17, 30, 144
-1.00025, 27, 17, 42, 144
-1.00025, 313, 17, 328, 144
-1.00025, 325, 17, 340, 144
-1.00025, 183, 33, 198, 160
-1.00025, 195, 33, 210, 160
-1.00025, 279, 33, 294, 160
-1.00025, 291, 33, 306, 160
-1.00025, 355, 33, 370, 160
-1.00025, 361, 33, 376, 160
-1.00025, 439, 33, 454, 160
-1.00025, 445, 33, 460, 160
-1.00025, 475, 49, 490, 176
-1.00025, 19, 65, 34, 192
-1.00025, 317, 65, 332, 192
-1.00025, 323, 65, 338, 192
-1.00025, 453, 65, 468, 192
-1.00025, 193, 81, 208, 208
-1.00025, 283, 81, 298, 208
-1.00025, 289, 81, 304, 208
-1.00025, 473, 97, 488, 224
-1.00025, 129, 113, 144, 240
-1.00025, 219, 113, 234, 240
-1.00025, 457, 113, 472, 240
-1.00025, 25, 129, 40, 254
-1.00025, 139, 129, 154, 254
-1.00025, 209, 129, 224, 254
-1.00025, 481, 129, 496, 254
-1.00025, 37, 81, 52, 208
-1.00025, 463, 1, 478, 128
-1.00025, 31, 65, 46, 192
-1.00025, 71, 129, 86, 254
-1.00025, 81, 129, 96, 254
-1.00025, 121, 129, 136, 254
-1.00025, 253, 129, 268, 254
-1.00025, 263, 129, 278, 254
-1.00025, 423, 129, 438, 254
-1.00025, 441, 129, 456, 254
-1.00026, 469, 1, 484, 128
-1.00026, 475, 1, 490, 128
-1.00026, 349, 17, 364, 144
-1.00026, 433, 17, 448, 144
-1.00026, 455, 17, 470, 144
-1.00026, 387, 65, 402, 192
-1.00026, 393, 65, 408, 192
-1.00026, 45, 81, 60, 208
-1.00026, 139, 81, 154, 208
-1.00026, 173, 81, 188, 208
-1.00026, 179, 81, 194, 208
-1.00026, 213, 81, 228, 208
-1.00026, 11, 129, 26, 254
-1.00026, 17, 129, 32, 254
-1.00026, 61, 129, 76, 254
-1.00026, 115, 129, 130, 254
-1.00026, 147, 129, 162, 254
-1.00026, 153, 129, 168, 254
-1.00026, 227, 129, 242, 254
-1.00026, 269, 129, 284, 254
-1.00026, 275, 129, 290, 254
-1.00026, 281, 129, 296, 254
-1.00026, 287, 129, 302, 254
-1.00026, 433, 129, 448, 254
-1.00026, 447, 129, 462, 254
-1.00026, 417, 81, 432, 208
-1.00026, 423, 81, 438, 208
-1.00026, 429, 81, 444, 208
-1.00026, 435, 81, 450, 208
-1.00026, 441, 81, 456, 208
-1.00026, 447, 81, 462, 208
-1.00026, 485, 81, 500, 208
-1.00026, 3, 129, 18, 254
-1.00026, 49, 129, 64, 254
-1.00026, 55, 129, 70, 254
-1.00026, 91, 129, 106, 254
-1.00026, 97, 129, 112, 254
-1.00026, 103, 129, 118, 254
-1.00026, 109, 129, 124, 254
-1.00026, 159, 129, 174, 254
-1.00026, 165, 129, 180, 254
-1.00026, 191, 129, 206, 254
-1.00026, 197, 129, 212, 254
-1.00026, 203, 129, 218, 254
-1.00026, 233, 129, 248, 254
-1.00026, 239, 129, 254, 254
-1.00026, 245, 129, 260, 254
-1.00027, 307, 185, 322, 248
-1.00031, 395, 185, 410, 248
-1.00032, 349, 169, 364, 232
-1.00036, 209, 201, 336, 232
-1.0004, 273, 225, 400, 254
-1.00047, 315, 193, 330, 254
-1.00047, 389, 193, 404, 254
-1.00055, 241, 189, 368, 220
-1.00066, 367, 161, 382, 224
-1.0007, 353, 189, 480, 220
-1.00076, 313, 169, 328, 232
-1.00076, 377, 161, 392, 224
-1.00078, 389, 169, 404, 232
-1.0008, 355, 161, 370, 224
-1.00081, 361, 161, 376, 224
-1.00082, 327, 161, 342, 224
-1.00083, 297, 185, 312, 248
-1.0009, 307, 161, 322, 224
-1.00092, 417, 193, 432, 254
-1.00092, 209, 217, 336, 248
-1.00093, 321, 177, 448, 208
-1.00094, 483, 193, 498, 254
-1.00095, 407, 193, 422, 254
-1.00095, 297, 161, 312, 224
-1.00095, 471, 193, 486, 254
-1.00096, 175, 1, 190, 64
-1.00096, 185, 1, 200, 64
-1.00096, 241, 1, 256, 64
-1.00096, 247, 1, 262, 64
-1.00096, 407, 1, 422, 64
-1.00096, 449, 25, 464, 88
-1.00096, 439, 49, 454, 112
-1.00096, 445, 49, 460, 112
-1.00096, 423, 185, 438, 248
-1.00097, 129, 185, 384, 248
-1.00098, 395, 161, 410, 224
-1.00098, 407, 169, 422, 232
-1.00098, 417, 169, 432, 232
-1.00098, 401, 193, 416, 254
-1.00098, 443, 1, 458, 64
-1.00098, 449, 1, 464, 64
-1.00099, 225, 1, 240, 64
-1.00099, 439, 25, 454, 88
-1.00099, 1, 49, 16, 112
-1.00099, 1, 185, 16, 248
-1.00099, 155, 1, 170, 64
-1.00099, 161, 1, 176, 64
-1.00099, 169, 1, 184, 64
-1.00099, 219, 1, 234, 64
-1.00099, 267, 1, 282, 64
-1.00099, 273, 1, 288, 64
-1.00099, 419, 9, 434, 72
-1.00099, 225, 25, 240, 88
-1.00099, 237, 25, 252, 88
-1.00099, 461, 25, 476, 88
-1.00099, 473, 25, 488, 88
-1.00099, 411, 33, 426, 96
-1.00099, 417, 33, 432, 96
-1.00099, 229, 49, 244, 112
-1.00099, 235, 49, 250, 112
-1.00099, 465, 49, 480, 112
-1.00099, 471, 49, 486, 112
-1.00099, 485, 89, 500, 152
-1.00099, 311, 137, 326, 200
-1.00099, 321, 137, 336, 200
-1.00099, 419, 145, 434, 208
-1.00099, 259, 161, 274, 224
-1.00099, 271, 161, 286, 224
-1.00099, 289, 161, 304, 224
-1.00099, 431, 161, 446, 224
-1.00099, 175, 169, 190, 232
-1.00099, 163, 177, 178, 240
-1.00099, 263, 185, 278, 248
-1.00099, 269, 185, 284, 248
-1.00099, 291, 185, 306, 248
-1.00099, 429, 185, 444, 248
-1.00099, 169, 193, 184, 254
-1.00099, 175, 193, 190, 254
-1.00099, 443, 193, 458, 254
-1.00099, 455, 193, 470, 254
-1.00099, 461, 193, 476, 254
-1.001, 49, 57, 176, 88
-1.001, 353, 65, 480, 96
-1.001, 81, 69, 208, 100
-1.001, 129, 69, 256, 100
-1.001, 321, 125, 448, 156
-1.001, 413, 1, 428, 64
-1.001, 321, 161, 336, 224
-1.00101, 1, 25, 16, 88
-1.00101, 483, 169, 498, 232
-1.00101, 1, 177, 128, 208
-1.00102, 1, 161, 16, 224
-1.00102, 401, 169, 416, 232
-1.00102, 473, 169, 488, 232
-1.00102, 85, 193, 100, 254
-1.00102, 369, 25, 496, 56
-1.00102, 369, 45, 496, 76
-1.00102, 1, 49, 128, 80
-1.00102, 369, 149, 496, 180
-1.00102, 49, 193, 176, 224
-1.00102, 405, 25, 420, 88
-1.00102, 451, 49, 466, 112
-1.00102, 485, 65, 500, 128
-1.00102, 259, 137, 274, 200
-1.00102, 265, 137, 280, 200
-1.00102, 271, 137, 286, 200
-1.00102, 289, 137, 304, 200
-1.00102, 295, 137, 310, 200
-1.00102, 301, 137, 316, 200
-1.00102, 329, 137, 344, 200
-1.00102, 335, 137, 350, 200
-1.00102, 363, 137, 378, 200
-1.00102, 369, 137, 384, 200
-1.00102, 425, 137, 440, 200
-1.00102, 431, 137, 446, 200
-1.00102, 169, 145, 184, 208
-1.00102, 175, 145, 190, 208
-1.00102, 163, 153, 178, 216
-1.00102, 169, 169, 184, 232
-1.00102, 443, 169, 458, 232
-1.00102, 449, 169, 464, 232
-1.00102, 455, 169, 470, 232
-1.00102, 461, 169, 476, 232
-1.00102, 467, 169, 482, 232
-1.00102, 43, 193, 58, 254
-1.00102, 49, 193, 64, 254
-1.00102, 61, 193, 76, 254
-1.00102, 73, 193, 88, 254
-1.00102, 117, 193, 132, 254
-1.00102, 123, 193, 138, 254
-1.00102, 133, 193, 148, 254
-1.00102, 139, 193, 154, 254
-1.00102, 229, 193, 244, 254
-1.00102, 235, 193, 250, 254
-1.00102, 243, 193, 258, 254
-1.00102, 249, 193, 264, 254
-1.00103, 1, 13, 128, 44
-1.00103, 369, 13, 496, 44
-1.00103, 145, 57, 272, 88
-1.00103, 369, 85, 496, 116
-1.00103, 257, 109, 384, 140
-1.00103, 257, 121, 384, 152
-1.00103, 321, 165, 448, 196
-1.00103, 49, 205, 176, 236
-1.00103, 273, 177, 400, 208
-1.00103, 97, 1, 224, 32
-1.00103, 145, 1, 272, 32
-1.00103, 225, 1, 352, 32
-1.00103, 273, 1, 400, 32
-1.00103, 321, 49, 448, 80
-1.00103, 193, 61, 320, 92
-1.00103, 289, 61, 416, 92
-1.00103, 225, 73, 352, 104
-1.00103, 273, 73, 400, 104
-1.00103, 337, 105, 464, 136
-1.00103, 369, 117, 496, 148
-1.00103, 49, 125, 176, 156
-1.00103, 209, 125, 336, 156
-1.00103, 33, 137, 160, 168
-1.00103, 257, 137, 384, 168
-1.00103, 305, 137, 432, 168
-1.00103, 225, 173, 352, 204
-1.00103, 65, 181, 192, 212
-1.00103, 161, 201, 288, 232
-1.00103, 97, 213, 224, 244
-1.00103, 145, 213, 272, 244
-1.00103, 33, 217, 160, 248
-1.00104, 1, 201, 128, 232
-1.00104, 1, 189, 128, 220
-1.00105, 369, 137, 496, 168
-1.00106, 49, 45, 176, 76
-1.00106, 97, 49, 224, 80
-1.00106, 369, 169, 496, 200
-1.00106, 321, 37, 448, 68
-1.00106, 161, 45, 288, 76
-1.00106, 209, 49, 336, 80
-1.00106, 273, 49, 400, 80
-1.00106, 33, 69, 160, 100
-1.00106, 289, 97, 416, 128
-1.00106, 1, 113, 128, 144
-1.00106, 49, 113, 176, 144
-1.00106, 209, 113, 336, 144
-1.00106, 225, 161, 352, 192
-1.00106, 17, 165, 144, 196
-1.00106, 273, 165, 400, 196
-1.00106, 65, 169, 192, 200
-1.00106, 113, 185, 240, 216
-1.00106, 161, 189, 288, 220
-1.00106, 97, 197, 224, 228
-1.00106, 113, 225, 240, 254
-1.00106, 161, 225, 288, 254
-1.00107, 321, 1, 448, 32
-1.00107, 369, 1, 496, 32
-1.00107, 49, 9, 176, 40
-1.00107, 129, 13, 256, 44
-1.00107, 225, 13, 352, 44
-1.00107, 273, 13, 400, 44
-1.00107, 321, 13, 448, 44
-1.00107, 81, 21, 208, 52
-1.00107, 177, 21, 304, 52
-1.00107, 129, 25, 256, 56
-1.00107, 225, 25, 352, 56
-1.00107, 273, 25, 400, 56
-1.00107, 321, 25, 448, 56
-1.00107, 17, 33, 144, 64
-1.00107, 65, 33, 192, 64
-1.00107, 177, 33, 304, 64
-1.00107, 113, 37, 240, 68
-1.00107, 225, 37, 352, 68
-1.00107, 273, 37, 400, 68
-1.00107, 177, 77, 304, 108
-1.00107, 321, 85, 448, 116
-1.00107, 1, 89, 128, 120
-1.00107, 49, 89, 176, 120
-1.00107, 97, 89, 224, 120
-1.00107, 145, 89, 272, 120
-1.00107, 193, 89, 320, 120
-1.00107, 241, 89, 368, 120
-1.00107, 17, 101, 144, 132
-1.00107, 65, 101, 192, 132
-1.00107, 113, 101, 240, 132
-1.00107, 161, 101, 288, 132
-1.00107, 209, 101, 336, 132
-1.00107, 113, 113, 240, 144
-1.00107, 161, 113, 288, 144
-1.00107, 113, 125, 240, 156
-1.00107, 161, 125, 288, 156
-1.00107, 129, 137, 256, 168
-1.00107, 177, 141, 304, 172
-1.00107, 81, 145, 208, 176
-1.00107, 129, 149, 256, 180
-1.00107, 225, 149, 352, 180
-1.00107, 33, 153, 160, 184
-1.00107, 177, 153, 304, 184
-1.00107, 273, 153, 400, 184
-1.00107, 321, 153, 448, 184
-1.00107, 81, 157, 208, 188
-1.00107, 129, 161, 256, 192
-1.00107, 177, 165, 304, 196
-1.00107, 129, 173, 256, 204
-1.00107, 177, 177, 304, 208
-1.00108, 1, 125, 128, 156
-1.00111, 369, 169, 496, 232
-1.00132, 241, 161, 368, 224
-1.00146, 321, 1, 352, 254
-1.00152, 257, 193, 500, 254
-1.00158, 333, 1, 364, 254
-1.00169, 21, 1, 52, 254
-1.0017, 389, 1, 420, 254
-1.00173, 225, 1, 256, 254
-1.00173, 373, 1, 404, 254
-1.00174, 297, 1, 328, 254
-1.00175, 445, 1, 476, 254
-1.00175, 361, 1, 392, 254
-1.00176, 405, 1, 436, 254
-1.00177, 201, 1, 232, 254
-1.00177, 425, 1, 456, 254
-1.00178, 457, 1, 488, 254
-1.00178, 9, 1, 40, 254
-1.00178, 61, 1, 92, 254
-1.00178, 253, 1, 284, 254
-1.0018, 285, 1, 316, 254
-1.0018, 225, 169, 480, 232
-1.00181, 81, 1, 112, 254
-1.00181, 213, 1, 244, 254
-1.00182, 269, 1, 300, 254
-1.00182, 137, 1, 168, 254
-1.00183, 45, 1, 76, 254
-1.00183, 157, 1, 188, 254
-1.00183, 189, 1, 220, 254
-1.00183, 349, 1, 380, 254
-1.00183, 109, 1, 140, 254
-1.00184, 97, 1, 128, 254
-1.00184, 169, 1, 200, 254
-1.00184, 125, 1, 156, 254
-1.00184, 241, 1, 272, 254
-1.00186, 33, 1, 64, 254
-1.00188, 469, 1, 500, 254
-1.00193, 257, 41, 500, 104
-1.00194, 309, 1, 340, 254
-1.00204, 1, 89, 256, 152
-1.00205, 1, 25, 256, 88
-1.00205, 33, 193, 288, 254
-1.00206, 257, 1, 500, 64
-1.00206, 129, 33, 384, 96
-1.00206, 97, 57, 352, 120
-1.00206, 257, 65, 500, 128
-1.00206, 257, 105, 500, 168
-1.00206, 129, 121, 384, 184
-1.00206, 1, 145, 256, 208
-1.00206, 97, 145, 352, 208
-1.00208, 369, 193, 400, 254
-1.0021, 1, 1, 256, 64
-1.00211, 129, 9, 384, 72
-1.00211, 1, 65, 256, 128
-1.00211, 129, 97, 384, 160
-1.00211, 1, 113, 256, 176
-1.00211, 225, 145, 480, 208
-1.00211, 33, 169, 288, 232
-1.00245, 337, 169, 400, 232
-1.00247, 321, 145, 448, 208
-1.00248, 1, 137, 128, 200
-1.00262, 49, 57, 176, 120
-1.00262, 305, 65, 432, 128
-1.00262, 353, 105, 480, 168
-1.00262, 33, 113, 160, 176
-1.00262, 49, 177, 176, 240
-1.00274, 353, 57, 480, 120
-1.00274, 17, 81, 144, 144
-1.00274, 65, 153, 192, 216
-1.00274, 1, 193, 128, 254
-1.00274, 193, 193, 320, 254
-1.00276, 353, 1, 480, 64
-1.00276, 305, 41, 432, 104
-1.00276, 161, 57, 288, 120
-1.00276, 97, 81, 224, 144
-1.00276, 145, 81, 272, 144
-1.00276, 305, 105, 432, 168
-1.00276, 369, 137, 496, 200
-1.00277, 1, 161, 128, 224
-1.0028, 369, 33, 496, 96
-1.0028, 1, 177, 500, 240
-1.00285, 49, 33, 176, 96
-1.00288, 305, 17, 432, 80
-1.00288, 113, 25, 240, 88
-1.00288, 1, 33, 128, 96
-1.00288, 161, 33, 288, 96
-1.00288, 97, 49, 224, 112
-1.00288, 369, 81, 496, 144
-1.00288, 257, 137, 384, 200
-1.00288, 193, 169, 320, 232
-1.00291, 113, 1, 240, 64
-1.00291, 209, 1, 336, 64
-1.00291, 17, 9, 144, 72
-1.00291, 65, 9, 192, 72
-1.00291, 161, 9, 288, 72
-1.00291, 257, 17, 384, 80
-1.00291, 209, 25, 336, 88
-1.00291, 257, 41, 384, 104
-1.00291, 209, 49, 336, 112
-1.00291, 257, 65, 384, 128
-1.00291, 209, 73, 336, 136
-1.00291, 257, 89, 384, 152
-1.00291, 209, 97, 336, 160
-1.00291, 113, 105, 240, 168
-1.00291, 257, 113, 384, 176
-1.00291, 161, 121, 288, 184
-1.00291, 209, 121, 336, 184
-1.00291, 97, 129, 224, 192
-1.00291, 145, 145, 272, 208
-1.00291, 193, 145, 320, 208
-1.00291, 145, 169, 272, 232
-1.00291, 97, 193, 224, 254
-1.00291, 145, 193, 272, 254
-1.00293, 1, 57, 128, 120
-1.00333, 273, 185, 336, 248
-1.00342, 337, 129, 464, 254
-1.0037, 1, 41, 500, 104
-1.00371, 1, 121, 500, 184
-1.00376, 1, 97, 500, 160
-1.00378, 1, 17, 500, 80
-1.00383, 1, 73, 500, 136
-1.00384, 1, 153, 500, 216
-1.00384, 369, 185, 432, 248
-1.00393, 225, 1, 352, 254
-1.00404, 257, 129, 384, 254
-1.00466, 329, 169, 360, 232
-1.00498, 297, 161, 360, 224
-1.00509, 129, 129, 384, 254
-1.00511, 349, 129, 380, 254
-1.00605, 337, 129, 368, 254
-1.00623, 381, 185, 412, 248
-1.00624, 373, 129, 404, 254
-1.0063, 305, 193, 336, 254
-1.00647, 293, 185, 324, 248
-1.00653, 317, 129, 348, 254
-1.00674, 361, 129, 392, 254
-1.00692, 393, 185, 424, 248
-1.00707, 297, 129, 360, 254
-1.00739, 369, 169, 400, 232
-1.00747, 397, 129, 428, 254
-1.00752, 385, 129, 416, 254
-1.00767, 393, 193, 456, 254
-1.00787, 293, 129, 324, 254
-1.00788, 345, 129, 408, 254
-1.00796, 341, 161, 372, 224
-1.00798, 225, 113, 480, 240
-1.00802, 353, 161, 384, 224
-1.00809, 289, 1, 352, 254
-1.00839, 249, 193, 312, 254
-1.00843, 305, 169, 336, 232
-1.00845, 409, 129, 440, 254
-1.00848, 305, 129, 336, 254
-1.00853, 377, 49, 440, 112
-1.00853, 417, 49, 480, 112
-1.00858, 209, 129, 336, 254
-1.00869, 377, 1, 440, 64
-1.00869, 401, 1, 464, 64
-1.0087, 361, 161, 424, 224
-1.00873, 377, 25, 440, 88
-1.00873, 417, 25, 480, 88
-1.00873, 121, 169, 184, 232
-1.00873, 145, 185, 208, 248
-1.00878, 161, 73, 224, 136
-1.00878, 217, 73, 280, 136
-1.00878, 161, 161, 224, 224
-1.0088, 249, 169, 312, 232
-1.00887, 393, 169, 456, 232
-1.00888, 381, 161, 412, 224
-1.00894, 129, 145, 192, 208
-1.00896, 321, 145, 384, 208
-1.00898, 33, 49, 288, 176
-1.00899, 193, 49, 256, 112
-1.00899, 417, 169, 480, 232
-1.00899, 1, 177, 64, 240
-1.00899, 25, 177, 88, 240
-1.00899, 433, 193, 496, 254
-1.00902, 321, 1, 384, 254
-1.00903, 273, 1, 336, 64
-1.00903, 297, 1, 360, 64
-1.00903, 241, 49, 304, 112
-1.00903, 1, 57, 64, 120
-1.00903, 113, 73, 176, 136
-1.00903, 385, 73, 448, 136
-1.00903, 409, 73, 472, 136
-1.00903, 433, 81, 496, 144
-1.00903, 129, 97, 192, 160
-1.00903, 153, 97, 216, 160
-1.00903, 185, 97, 248, 160
-1.00903, 209, 97, 272, 160
-1.00903, 81, 145, 144, 208
-1.00903, 41, 153, 104, 216
-1.00903, 97, 169, 160, 232
-1.00904, 441, 1, 472, 128
-1.00904, 417, 193, 448, 254
-1.00906, 161, 1, 416, 128
-1.00908, 193, 73, 256, 136
-1.00908, 121, 193, 184, 254
-1.0091, 173, 1, 204, 64
-1.00915, 433, 137, 496, 200
-1.00918, 429, 1, 460, 128
-1.00918, 53, 129, 84, 254
-1.0092, 161, 49, 224, 112
-1.0092, 161, 137, 224, 200
-1.0092, 185, 193, 248, 254
-1.0092, 317, 161, 348, 224
-1.00921, 193, 1, 224, 128
-1.00921, 453, 97, 484, 224
-1.00921, 137, 113, 168, 240
-1.00924, 445, 185, 476, 248
-1.00924, 193, 25, 256, 88
-1.00924, 217, 25, 280, 88
-1.00924, 241, 25, 304, 88
-1.00924, 1, 33, 64, 96
-1.00924, 113, 49, 176, 112
-1.00924, 137, 49, 200, 112
-1.00924, 433, 113, 496, 176
-1.00924, 81, 121, 144, 184
-1.00924, 105, 121, 168, 184
-1.00924, 129, 121, 192, 184
-1.00924, 17, 129, 80, 192
-1.00924, 41, 129, 104, 192
-1.00924, 257, 145, 320, 208
-1.00924, 1, 153, 64, 216
-1.00924, 65, 193, 128, 254
-1.00924, 225, 193, 288, 254
-1.00924, 33, 81, 64, 208
-1.00924, 53, 81, 84, 208
-1.00924, 465, 81, 496, 208
-1.00927, 153, 1, 184, 64
-1.00927, 225, 1, 256, 64
-1.00927, 237, 1, 268, 64
-1.00927, 285, 1, 316, 64
-1.00929, 433, 1, 496, 64
-1.00929, 1, 9, 64, 72
-1.00929, 25, 9, 88, 72
-1.00929, 49, 9, 112, 72
-1.00929, 73, 9, 136, 72
-1.00929, 97, 9, 160, 72
-1.00929, 329, 17, 392, 80
-1.00929, 121, 25, 184, 88
-1.00929, 145, 25, 208, 88
-1.00929, 169, 25, 232, 88
-1.00929, 281, 25, 344, 88
-1.00929, 305, 25, 368, 88
-1.00929, 353, 25, 416, 88
-1.00929, 41, 33, 104, 96
-1.00929, 65, 33, 128, 96
-1.00929, 89, 33, 152, 96
-1.00929, 329, 41, 392, 104
-1.00929, 217, 49, 280, 112
-1.00929, 265, 49, 328, 112
-1.00929, 289, 49, 352, 112
-1.00929, 353, 49, 416, 112
-1.00929, 41, 57, 104, 120
-1.00929, 65, 57, 128, 120
-1.00929, 89, 57, 152, 120
-1.00929, 313, 65, 376, 128
-1.00929, 265, 73, 328, 136
-1.00929, 289, 73, 352, 136
-1.00929, 337, 73, 400, 136
-1.00929, 25, 81, 88, 144
-1.00929, 49, 81, 112, 144
-1.00929, 73, 81, 136, 144
-1.00929, 313, 89, 376, 152
-1.00929, 361, 89, 424, 152
-1.00929, 97, 97, 160, 160
-1.00929, 241, 97, 304, 160
-1.00929, 265, 97, 328, 160
-1.00929, 289, 97, 352, 160
-1.00929, 337, 97, 400, 160
-1.00929, 385, 97, 448, 160
-1.00929, 409, 97, 472, 160
-1.00929, 9, 105, 72, 168
-1.00929, 33, 105, 96, 168
-1.00929, 57, 105, 120, 168
-1.00929, 313, 113, 376, 176
-1.00929, 361, 113, 424, 176
-1.00929, 201, 121, 264, 184
-1.00929, 225, 121, 288, 184
-1.00929, 249, 121, 312, 184
-1.00929, 273, 121, 336, 184
-1.00929, 337, 121, 400, 184
-1.00929, 385, 121, 448, 184
-1.00929, 409, 121, 472, 184
-1.00929, 297, 137, 360, 200
-1.00929, 361, 137, 424, 200
-1.00929, 105, 145, 168, 208
-1.00929, 185, 145, 248, 208
-1.00929, 209, 145, 272, 208
-1.00929, 233, 145, 296, 208
-1.00929, 385, 145, 448, 208
-1.00929, 409, 145, 472, 208
-1.00929, 65, 169, 128, 232
-1.00929, 201, 169, 264, 232
-1.00929, 225, 169, 288, 232
-1.00929, 41, 129, 72, 254
-1.00931, 353, 1, 480, 128
-1.00932, 429, 177, 460, 240
-1.00935, 469, 169, 500, 232
-1.00936, 53, 33, 84, 160
-1.00936, 453, 49, 484, 176
-1.00936, 125, 65, 156, 192
-1.00936, 137, 65, 168, 192
-1.00936, 85, 81, 116, 208
-1.00936, 65, 113, 96, 240
-1.00936, 117, 129, 148, 254
-1.00939, 181, 1, 212, 128
-1.00939, 69, 17, 100, 144
-1.00939, 125, 17, 156, 144
-1.00939, 149, 17, 180, 144
-1.00939, 217, 17, 248, 144
-1.00939, 269, 17, 300, 144
-1.00939, 293, 17, 324, 144
-1.00939, 33, 33, 64, 160
-1.00939, 93, 33, 124, 160
-1.00939, 345, 33, 376, 160
-1.00939, 357, 33, 388, 160
-1.00939, 73, 65, 104, 192
-1.00939, 201, 65, 232, 192
-1.00939, 213, 65, 244, 192
-1.00939, 277, 65, 308, 192
-1.00939, 289, 65, 320, 192
-1.00939, 17, 129, 48, 254
-1.00939, 85, 129, 116, 254
-1.00941, 269, 1, 300, 64
-1.00941, 469, 57, 500, 120
-1.00941, 281, 169, 312, 232
-1.00941, 281, 193, 312, 254
-1.00943, 469, 129, 500, 254
-1.00944, 141, 1, 172, 64
-1.00944, 305, 1, 336, 64
-1.00944, 249, 33, 280, 96
-1.00944, 273, 33, 304, 96
-1.00944, 257, 57, 288, 120
-1.00944, 269, 57, 300, 120
-1.00944, 469, 121, 500, 184
-1.00944, 77, 145, 108, 208
-1.00944, 101, 145, 132, 208
-1.00944, 173, 161, 204, 224
-1.00944, 197, 161, 228, 224
-1.00944, 85, 169, 116, 232
-1.00944, 97, 169, 128, 232
-1.00944, 1, 185, 32, 248
-1.00944, 181, 185, 212, 248
-1.00944, 193, 185, 224, 248
-1.00944, 457, 193, 488, 254
-1.00947, 469, 17, 500, 144
-1.00947, 1, 1, 128, 128
-1.00947, 469, 193, 500, 254
-1.00949, 365, 145, 396, 208
-1.0095, 281, 113, 312, 240
-1.0095, 421, 129, 452, 254
-1.00952, 329, 145, 360, 208
-1.00952, 445, 161, 476, 224
-1.00952, 417, 169, 448, 232
-1.00952, 41, 193, 72, 254
-1.00953, 457, 1, 488, 128
-1.00953, 333, 17, 364, 144
-1.00953, 417, 17, 448, 144
-1.00953, 189, 49, 220, 176
-1.00953, 1, 81, 32, 208
-1.00953, 17, 81, 48, 208
-1.00953, 109, 81, 140, 208
-1.00953, 5, 129, 36, 254
-1.00953, 165, 129, 196, 254
-1.00953, 177, 129, 208, 254
-1.00953, 245, 129, 276, 254
-1.00953, 257, 129, 288, 254
-1.00953, 65, 1, 320, 128
-1.00953, 1, 97, 128, 224
-1.00955, 305, 81, 336, 208
-1.00955, 393, 81, 424, 208
-1.00955, 469, 33, 500, 96
-1.00955, 429, 153, 460, 216
-1.00955, 405, 161, 436, 224
-1.00955, 61, 193, 92, 254
-1.00955, 117, 193, 148, 254
-1.00956, 321, 17, 352, 144
-1.00956, 369, 17, 400, 144
-1.00956, 381, 17, 412, 144
-1.00956, 405, 17, 436, 144
-1.00956, 9, 33, 40, 160
-1.00956, 21, 33, 52, 160
-1.00956, 113, 33, 144, 160
-1.00956, 169, 33, 200, 160
-1.00956, 233, 33, 264, 160
-1.00956, 245, 33, 276, 160
-1.00956, 257, 33, 288, 160
-1.00956, 309, 33, 340, 160
-1.00956, 393, 33, 424, 160
-1.00956, 321, 65, 352, 192
-1.00956, 333, 65, 364, 192
-1.00956, 369, 65, 400, 192
-1.00956, 381, 65, 412, 192
-1.00956, 405, 65, 436, 192
-1.00956, 97, 81, 128, 208
-1.00956, 153, 81, 184, 208
-1.00956, 165, 81, 196, 208
-1.00956, 177, 81, 208, 208
-1.00956, 229, 81, 260, 208
-1.00956, 241, 81, 272, 208
-1.00956, 253, 81, 284, 208
-1.00956, 265, 81, 296, 208
-1.00956, 417, 81, 448, 208
-1.00956, 429, 81, 460, 208
-1.00956, 441, 81, 472, 208
-1.00956, 29, 129, 60, 254
-1.00956, 105, 129, 136, 254
-1.00956, 149, 129, 180, 254
-1.00956, 193, 129, 224, 254
-1.00956, 205, 129, 236, 254
-1.00956, 217, 129, 248, 254
-1.00956, 229, 129, 260, 254
-1.00956, 269, 129, 300, 254
-1.00956, 433, 129, 464, 254
-1.00958, 253, 9, 284, 72
-1.00958, 469, 97, 500, 160
-1.00958, 77, 121, 108, 184
-1.00958, 89, 121, 120, 184
-1.00958, 101, 121, 132, 184
-1.00958, 173, 137, 204, 200
-1.00958, 185, 137, 216, 200
-1.00958, 197, 137, 228, 200
-1.00958, 1, 161, 32, 224
-1.00958, 457, 169, 488, 232
-1.00958, 405, 185, 436, 248
-1.00958, 21, 193, 52, 254
-1.0096, 81, 17, 112, 144
-1.0096, 137, 17, 168, 144
-1.0096, 205, 17, 236, 144
-1.0096, 281, 17, 312, 144
-1.00961, 393, 121, 424, 184
-1.00961, 417, 121, 448, 184
-1.00961, 341, 129, 372, 192
-1.00961, 429, 129, 460, 192
-1.00961, 5, 137, 36, 200
-1.00961, 137, 137, 168, 200
-1.00961, 317, 137, 348, 200
-1.00961, 353, 137, 384, 200
-1.00961, 381, 137, 412, 200
-1.00961, 405, 137, 436, 200
-1.00961, 441, 137, 472, 200
-1.00961, 453, 137, 484, 200
-1.00961, 17, 145, 48, 208
-1.00961, 29, 145, 60, 208
-1.00961, 41, 145, 72, 208
-1.00961, 53, 145, 84, 208
-1.00961, 65, 145, 96, 208
-1.00961, 113, 145, 144, 208
-1.00961, 125, 145, 156, 208
-1.00961, 149, 145, 180, 208
-1.00961, 161, 145, 192, 208
-1.00961, 217, 145, 248, 208
-1.00961, 229, 145, 260, 208
-1.00961, 241, 145, 272, 208
-1.00961, 253, 145, 284, 208
-1.00961, 265, 145, 296, 208
-1.00961, 277, 145, 308, 208
-1.00961, 289, 145, 320, 208
-1.00961, 301, 145, 332, 208
-1.00961, 393, 145, 424, 208
-1.00961, 417, 145, 448, 208
-1.00961, 465, 145, 496, 208
-1.00961, 137, 161, 168, 224
-1.00961, 13, 169, 44, 232
-1.00961, 25, 169, 56, 232
-1.00961, 37, 169, 68, 232
-1.00961, 49, 169, 80, 232
-1.00961, 61, 169, 92, 232
-1.00961, 109, 169, 140, 232
-1.00961, 121, 169, 152, 232
-1.00961, 149, 169, 180, 232
-1.00961, 161, 169, 192, 232
-1.00961, 209, 169, 240, 232
-1.00961, 221, 169, 252, 232
-1.00961, 233, 169, 264, 232
-1.00961, 245, 169, 276, 232
-1.00961, 257, 169, 288, 232
-1.00961, 269, 169, 300, 232
-1.00961, 73, 185, 104, 248
-1.00961, 133, 185, 164, 248
-1.00961, 85, 193, 116, 254
-1.00961, 97, 193, 128, 254
-1.00961, 145, 193, 176, 254
-1.00961, 157, 193, 188, 254
-1.00961, 169, 193, 200, 254
-1.00961, 209, 193, 240, 254
-1.00961, 221, 193, 252, 254
-1.00961, 233, 193, 264, 254
-1.00961, 245, 193, 276, 254
-1.00961, 257, 193, 288, 254
-1.00961, 269, 193, 300, 254
-1.00966, 1, 129, 256, 254
-1.00984, 393, 1, 456, 254
-1.00986, 265, 1, 328, 254
-1.00989, 241, 65, 368, 192
-1.00991, 257, 33, 500, 160
-1.00991, 129, 49, 384, 176
-1.00993, 201, 1, 264, 254
-1.00995, 305, 81, 432, 208
-1.00996, 177, 1, 304, 128
-1.00996, 289, 1, 416, 128
-1.01002, 129, 1, 256, 128
-1.01002, 81, 49, 208, 176
-1.01002, 193, 65, 320, 192
-1.01002, 65, 97, 192, 224
-1.01007, 345, 81, 376, 208
-1.01013, 1, 1, 64, 254
-1.01019, 369, 49, 496, 176
-1.01025, 161, 1, 224, 254
-1.01032, 65, 1, 192, 128
-1.01032, 225, 1, 352, 128
-1.01036, 241, 1, 304, 254
-1.01038, 145, 81, 272, 208
-1.01038, 113, 129, 240, 254
-1.01038, 161, 129, 288, 254
-1.01039, 345, 1, 408, 254
-1.01039, 129, 1, 192, 254
-1.01043, 97, 1, 160, 254
-1.01045, 33, 49, 160, 176
-1.01048, 433, 1, 496, 254
-1.01059, 57, 1, 120, 254
-1.01065, 321, 129, 384, 254
-1.01066, 33, 1, 96, 254
-1.01066, 369, 1, 432, 254
-1.01082, 357, 81, 388, 208
-1.01133, 393, 129, 456, 254
-1.01136, 257, 129, 320, 254
-1.0124, 369, 129, 432, 254
-1.01322, 401, 1, 464, 128
-1.01364, 57, 1, 120, 128
-1.01364, 425, 65, 488, 192
-1.01371, 377, 33, 440, 160
-1.01371, 185, 81, 248, 208
-1.01393, 177, 1, 240, 128
-1.01393, 33, 129, 96, 254
-1.014, 33, 1, 96, 128
-1.014, 425, 17, 488, 144
-1.01406, 161, 81, 224, 208
-1.01416, 417, 113, 480, 240
-1.01422, 1, 113, 64, 240
-1.01429, 153, 1, 216, 128
-1.01435, 209, 33, 272, 160
-1.01435, 17, 49, 80, 176
-1.01435, 273, 65, 336, 192
-1.01435, 297, 65, 360, 192
-1.01435, 129, 113, 192, 240
-1.01442, 345, 1, 408, 128
-1.01442, 105, 17, 168, 144
-1.01442, 265, 17, 328, 144
-1.01442, 313, 17, 376, 144
-1.01442, 353, 49, 416, 176
-1.01442, 73, 65, 136, 192
-1.01442, 97, 65, 160, 192
-1.01442, 401, 65, 464, 192
-1.01442, 217, 81, 280, 208
-1.01442, 89, 113, 152, 240
-1.01458, 153, 129, 216, 254
-1.01471, 137, 65, 200, 192
-1.01471, 41, 81, 104, 208
-1.01471, 201, 129, 264, 254
-1.01471, 225, 129, 288, 254
-1.01478, 81, 17, 144, 144
-1.01478, 129, 17, 192, 144
-1.01478, 241, 33, 304, 160
-1.01478, 329, 65, 392, 192
-1.01478, 241, 81, 304, 208
-1.01478, 65, 113, 128, 240
-1.01484, 1, 1, 64, 128
-1.01484, 289, 17, 352, 144
-1.01494, 177, 129, 240, 254
-1.0151, 377, 81, 440, 208
-1.08689, 161, 1, 416, 254
-1.08844, 257, 1, 500, 254
-1.09224, 33, 1, 288, 254
