1868
-0.226472, 1, 1, 500, 330
-0.309244, 1, 33, 500, 288
-0.366707, 33, 1, 288, 330
-0.417418, 129, 1, 384, 330
-0.422767, 257, 1, 500, 330
-0.463291, 97, 33, 352, 288
-0.513139, 193, 65, 448, 320
-0.633238, 1, 65, 256, 320
-0.825775, 209, 33, 336, 288
-0.836591, 129, 33, 256, 288
-0.845483, 129, 1, 256, 330
-0.850698, 177, 1, 304, 330
-0.851368, 65, 1, 192, 330
-0.859651, 241, 1, 368, 330
-0.860517, 321, 1, 448, 256
-0.862387, 305, 1, 432, 330
-0.865876, 65, 1, 192, 256
-0.867352, 353, 1, 480, 330
-0.868307, 257, 65, 384, 320
-0.872777, 1, 129, 500, 256
-0.879584, 17, 1, 144, 330
-0.881503, 33, 113, 288, 240
-0.885532, 17, 1, 144, 256
-0.889694, 1, 65, 500, 192
-0.898628, 1, 17, 500, 144
-0.89922, 369, 1, 496, 256
-0.900718, 129, 161, 384, 288
-0.910242, 1, 209, 500, 330
-0.916363, 193, 81, 448, 208
-0.922402, 65, 129, 192, 256
-0.922698, 65, 65, 320, 192
-0.924375, 161, 161, 288, 288
-0.925109, 49, 113, 112, 240
-0.925961, 17, 113, 144, 240
-0.927089, 145, 113, 272, 240
-0.92792, 33, 161, 288, 288
-0.933901, 161, 97, 224, 224
-0.934429, 193, 209, 448, 330
-0.935088, 1, 209, 256, 330
-0.936926, 81, 113, 144, 240
-0.937195, 193, 97, 256, 224
-0.937476, 177, 65, 304, 192
-0.938667, 121, 129, 184, 256
-0.939495, 33, 17, 288, 144
-0.939843, 129, 65, 256, 192
-0.940387, 225, 129, 480, 256
-0.94061, 353, 65, 480, 192
-0.942558, 297, 193, 360, 256
-0.942808, 209, 145, 336, 272
-0.942968, 161, 145, 224, 272
-0.944086, 193, 17, 448, 144
-0.944461, 17, 113, 80, 240
-0.944957, 273, 81, 400, 208
-0.945907, 297, 177, 360, 304
-0.945935, 225, 161, 288, 288
-0.946142, 81, 81, 208, 208
-0.948716, 137, 65, 200, 192
-0.948762, 241, 193, 368, 320
-0.948982, 9, 65, 72, 192
-0.950876, 113, 81, 176, 208
-0.952045, 81, 161, 144, 288
-0.952753, 161, 97, 224, 160
-0.952963, 337, 145, 464, 272
-0.953048, 201, 145, 264, 272
-0.95335, 81, 33, 208, 160
-0.953467, 289, 193, 416, 320
-0.954115, 9, 129, 72, 192
-0.954654, 193, 121, 256, 184
-0.95473, 177, 193, 240, 320
-0.955076, 33, 65, 160, 192
-0.955236, 161, 49, 224, 176
-0.955405, 113, 161, 240, 288
-0.955544, 57, 161, 120, 288
-0.955749, 153, 121, 216, 184
-0.956097, 17, 161, 80, 288
-0.956181, 185, 49, 248, 176
-0.956239, 73, 65, 136, 192
-0.956408, 161, 153, 224, 216
-0.95661, 369, 49, 432, 176
-0.95673, 225, 65, 352, 192
-0.956874, 233, 65, 296, 192
-0.956884, 201, 145, 264, 208
-0.956907, 209, 169, 272, 232
-0.95731, 249, 161, 312, 288
-0.957336, 41, 153, 104, 216
-0.957506, 225, 145, 288, 208
-0.958446, 321, 193, 384, 256
-0.958983, 33, 121, 96, 184
-0.959064, 185, 65, 248, 128
-0.95911, 17, 153, 80, 216
-0.959421, 329, 97, 392, 224
-0.95954, 57, 121, 120, 184
-0.959549, 97, 121, 160, 184
-0.960011, 113, 33, 176, 160
-0.960155, 17, 161, 144, 288
-0.960561, 321, 17, 448, 144
-0.960831, 97, 209, 352, 330
-0.961042, 129, 17, 256, 144
-0.961127, 361, 89, 424, 152
-0.961246, 97, 209, 224, 330
-0.963221, 273, 129, 400, 256
-0.963408, 129, 137, 192, 200
-0.963695, 273, 33, 400, 160
-0.963958, 273, 193, 336, 320
-0.964223, 337, 65, 400, 128
-0.964315, 129, 177, 192, 304
-0.96461, 385, 65, 448, 128
-0.964623, 73, 89, 136, 152
-0.965131, 185, 97, 248, 160
-0.965275, 153, 33, 216, 288
-0.96534, 41, 97, 104, 160
-0.965381, 201, 193, 264, 320
-0.965711, 217, 65, 280, 128
-0.966266, 273, 209, 336, 272
-0.966447, 361, 97, 424, 224
-0.967266, 273, 17, 336, 144
-0.967275, 65, 161, 128, 224
-0.967304, 337, 169, 400, 232
-0.967408, 65, 113, 96, 240
-0.967427, 33, 121, 160, 184
-0.967678, 329, 193, 360, 256
-0.967788, 209, 17, 336, 144
-0.967865, 237, 145, 268, 208
-0.967908, 137, 97, 200, 160
-0.967949, 105, 177, 168, 304
-0.968218, 297, 33, 360, 288
-0.968241, 393, 49, 456, 176
-0.968281, 425, 81, 488, 144
-0.968418, 233, 113, 296, 240
-0.968462, 193, 33, 256, 288
-0.968502, 189, 97, 220, 224
-0.968518, 41, 145, 72, 208
-0.968521, 361, 49, 424, 112
-0.968523, 337, 145, 400, 272
-0.968598, 345, 49, 408, 176
-0.968614, 105, 57, 168, 120
-0.968747, 137, 57, 200, 120
-0.968759, 337, 209, 400, 330
-0.968845, 305, 193, 336, 256
-0.968936, 257, 113, 320, 240
-0.968974, 209, 49, 272, 176
-0.969011, 425, 49, 488, 176
-0.969114, 137, 17, 200, 144
-0.96917, 113, 1, 176, 256
-0.969192, 109, 113, 140, 240
-0.969196, 209, 89, 272, 152
-0.969419, 385, 97, 448, 224
-0.969566, 49, 65, 112, 192
-0.96981, 185, 169, 248, 232
-0.969908, 145, 145, 272, 208
-0.970036, 417, 57, 480, 120
-0.970061, 425, 113, 488, 240
-0.970164, 193, 209, 320, 330
-0.970181, 241, 33, 304, 288
-0.970198, 57, 113, 88, 176
-0.970369, 217, 33, 280, 288
-0.970391, 77, 113, 108, 240
-0.970394, 297, 129, 360, 256
-0.970515, 161, 65, 224, 128
-0.97076, 257, 153, 320, 216
-0.970887, 33, 1, 160, 128
-0.971025, 369, 17, 496, 144
-0.971035, 249, 177, 312, 240
-0.971213, 53, 113, 84, 240
-0.971431, 153, 185, 216, 248
-0.971628, 97, 161, 160, 224
-0.971696, 177, 225, 240, 288
-0.971726, 89, 1, 152, 128
-0.971844, 317, 193, 348, 256
-0.971957, 81, 129, 208, 192
-0.971999, 145, 209, 272, 330
-0.972087, 141, 129, 172, 256
-0.972139, 93, 113, 124, 240
-0.972195, 297, 217, 360, 280
-0.972436, 121, 129, 152, 256
-0.972552, 241, 121, 304, 184
-0.972577, 129, 161, 192, 224
-0.972603, 189, 145, 220, 208
-0.972643, 209, 65, 240, 192
-0.972734, 401, 177, 464, 304
-0.972741, 385, 89, 448, 152
-0.972875, 169, 153, 200, 216
-0.972947, 1, 105, 64, 168
-0.973048, 305, 81, 368, 144
-0.973163, 305, 81, 368, 208
-0.973215, 241, 161, 272, 288
-0.973373, 361, 1, 424, 256
-0.973374, 273, 1, 336, 256
-0.973397, 41, 113, 72, 240
-0.973611, 153, 193, 216, 320
-0.973682, 193, 177, 320, 240
-0.973937, 273, 201, 400, 264
-0.974115, 145, 121, 272, 184
-0.974176, 273, 73, 336, 136
-0.974419, 157, 113, 188, 176
-0.974446, 153, 65, 184, 192
-0.974543, 165, 97, 196, 224
-0.97462, 145, 137, 176, 200
-0.974766, 281, 65, 344, 192
-0.974768, 321, 33, 384, 160
-0.974834, 161, 65, 288, 128
-0.974875, 329, 65, 392, 320
-0.97489, 245, 169, 276, 232
-0.974947, 321, 217, 384, 280
-0.975043, 229, 113, 260, 240
-0.975313, 49, 209, 176, 330
-0.975421, 225, 161, 256, 224
-0.975521, 41, 121, 72, 184
-0.97554, 33, 145, 160, 208
-0.975587, 181, 121, 212, 184
-0.975675, 169, 145, 200, 272
-0.97576, 161, 1, 224, 128
-0.975911, 201, 161, 232, 224
-0.976019, 137, 33, 200, 96
-0.976164, 129, 217, 192, 280
-0.976247, 361, 25, 424, 88
-0.976318, 329, 105, 392, 168
-0.976426, 233, 89, 296, 152
-0.976474, 169, 97, 200, 160
-0.976553, 369, 1, 432, 128
-0.976609, 57, 153, 88, 216
-0.976611, 229, 161, 260, 288
-0.976728, 373, 81, 404, 144
-0.976773, 369, 49, 496, 112
-0.97681, 213, 65, 244, 128
-0.976828, 257, 65, 320, 192
-0.97689, 113, 89, 240, 152
-0.977003, 233, 233, 296, 296
-0.977017, 65, 65, 128, 320
-0.977073, 193, 105, 224, 168
-0.977135, 169, 121, 200, 184
-0.97722, 97, 169, 224, 232
-0.977235, 177, 265, 240, 328
-0.977253, 25, 177, 88, 240
-0.977372, 17, 73, 80, 136
-0.977378, 177, 97, 208, 224
-0.977709, 113, 97, 176, 160
-0.97774, 177, 97, 304, 160
-0.97801, 209, 153, 336, 216
-0.978039, 341, 193, 372, 256
-0.97812, 369, 81, 400, 208
-0.978224, 137, 81, 168, 208
-0.978264, 425, 105, 488, 168
-0.97836, 209, 65, 336, 128
-0.978364, 337, 73, 464, 136
-0.978396, 97, 185, 160, 248
-0.978485, 157, 137, 188, 200
-0.978536, 145, 169, 272, 232
-0.978617, 249, 209, 312, 330
-0.978741, 189, 49, 220, 176
-0.978751, 241, 65, 304, 128
-0.978771, 369, 193, 496, 320
-0.978799, 125, 81, 156, 208
-0.97888, 193, 73, 224, 136
-0.978959, 337, 105, 464, 168
-0.978961, 409, 65, 440, 128
-0.979024, 241, 113, 272, 240
-0.979055, 169, 49, 200, 176
-0.979059, 257, 233, 320, 296
-0.97912, 213, 113, 244, 240
-0.979144, 249, 17, 312, 144
-0.979237, 97, 57, 224, 120
-0.979241, 225, 65, 256, 128
-0.979262, 105, 121, 136, 184
-0.979324, 209, 241, 272, 304
-0.979354, 73, 65, 136, 128
-0.979381, 201, 113, 232, 240
-0.979452, 225, 209, 288, 330
-0.979506, 29, 129, 60, 192
-0.979538, 257, 1, 320, 330
-0.979546, 345, 193, 408, 256
-0.979598, 289, 169, 352, 232
-0.979608, 41, 161, 72, 288
-0.979624, 97, 1, 160, 64
-0.979659, 249, 145, 280, 208
-0.979735, 401, 33, 464, 96
-0.979739, 181, 97, 212, 160
-0.979748, 361, 1, 424, 330
-0.979765, 241, 177, 368, 240
-0.979789, 153, 129, 184, 256
-0.979815, 125, 121, 156, 184
-0.98004, 213, 89, 244, 152
-0.980043, 221, 65, 252, 192
-0.98018, 293, 209, 324, 272
-0.980283, 301, 177, 332, 304
-0.980369, 257, 145, 384, 208
-0.980409, 329, 177, 360, 304
-0.98043, 385, 73, 416, 136
-0.980495, 257, 81, 384, 144
-0.980622, 385, 33, 416, 160
-0.980631, 329, 129, 392, 192
-0.980727, 89, 121, 120, 184
-0.980761, 129, 185, 192, 248
-0.980795, 401, 1, 464, 256
-0.980806, 253, 161, 284, 288
-0.98082, 373, 57, 404, 120
-0.980821, 89, 65, 120, 192
-0.980842, 173, 73, 204, 136
-0.980931, 361, 145, 424, 208
-0.980966, 1, 65, 64, 320
-0.980969, 49, 193, 112, 256
-0.981099, 113, 33, 176, 96
-0.981135, 29, 145, 60, 272
-0.981145, 1, 113, 32, 240
-0.981162, 113, 1, 176, 330
-0.981187, 425, 1, 488, 256
-0.981212, 189, 169, 220, 232
-0.981237, 425, 1, 488, 128
-0.981284, 185, 1, 248, 128
-0.981313, 57, 161, 88, 288
-0.981357, 45, 169, 76, 232
-0.98143, 353, 113, 384, 240
-0.981431, 193, 121, 320, 184
-0.98145, 109, 161, 140, 288
-0.981473, 29, 153, 60, 216
-0.981552, 185, 1, 248, 330
-0.981593, 337, 169, 464, 232
-0.981649, 225, 201, 352, 264
-0.981713, 137, 113, 168, 176
-0.981723, 225, 137, 256, 200
-0.98175, 177, 41, 240, 104
-0.98181, 373, 33, 404, 160
-0.981811, 153, 1, 216, 330
-0.981855, 181, 161, 212, 288
-0.981859, 105, 65, 136, 192
-0.981863, 313, 177, 344, 304
-0.98191, 433, 81, 464, 144
-0.981934, 385, 113, 448, 176
-0.981962, 77, 113, 108, 176
-0.982035, 17, 81, 48, 208
-0.982056, 33, 97, 160, 160
-0.982162, 153, 249, 216, 312
-0.982186, 233, 65, 264, 192
-0.982277, 393, 1, 456, 128
-0.982356, 361, 161, 392, 224
-0.982372, 33, 169, 160, 232
-0.982395, 305, 49, 432, 112
-0.982535, 273, 225, 400, 288
-0.982599, 193, 241, 320, 304
-0.982683, 89, 1, 152, 256
-0.982701, 245, 65, 276, 192
-0.982722, 281, 1, 344, 330
-0.982875, 313, 169, 376, 232
-0.982959, 361, 113, 424, 176
-0.983023, 385, 1, 448, 330
-0.983046, 217, 1, 280, 330
-0.983082, 425, 1, 488, 330
-0.983118, 385, 49, 416, 112
-0.983135, 129, 33, 256, 96
-0.983136, 361, 161, 424, 288
-0.983136, 353, 113, 384, 176
-0.983147, 25, 65, 88, 320
-0.983182, 217, 177, 248, 304
-0.983247, 281, 121, 344, 184
-0.983277, 397, 49, 428, 176
-0.983375, 97, 161, 128, 288
-0.983451, 341, 97, 372, 224
-0.983498, 61, 65, 92, 192
-0.983527, 49, 201, 176, 264
-0.983597, 417, 97, 448, 160
-0.983598, 93, 81, 124, 144
-0.983612, 305, 105, 368, 168
-0.983688, 273, 113, 400, 176
-0.98371, 345, 1, 408, 128
-0.983752, 77, 65, 108, 192
-0.983798, 305, 1, 368, 330
-0.98381, 145, 217, 272, 280
-0.983826, 249, 209, 312, 272
-0.983828, 65, 1, 192, 64
-0.983878, 125, 33, 156, 160
-0.983968, 365, 161, 396, 288
-0.984129, 105, 209, 168, 272
-0.984157, 281, 1, 344, 64
-0.984222, 405, 89, 436, 152
-0.984223, 313, 57, 376, 120
-0.984254, 157, 177, 188, 304
-0.984291, 433, 33, 496, 96
-0.984315, 205, 137, 236, 200
-0.984319, 81, 25, 144, 88
-0.984342, 237, 97, 268, 160
-0.984428, 1, 129, 32, 192
-0.984508, 177, 193, 240, 256
-0.984713, 397, 57, 428, 120
-0.98473, 237, 73, 268, 136
-0.984757, 321, 193, 448, 256
-0.984759, 145, 73, 176, 136
-0.98478, 273, 33, 336, 96
-0.984794, 213, 177, 244, 240
-0.984845, 337, 1, 400, 330
-0.984886, 77, 161, 108, 288
-0.984904, 81, 89, 112, 152
-0.984928, 453, 81, 484, 144
-0.984935, 65, 25, 192, 88
-0.984993, 381, 81, 412, 208
-0.985108, 289, 193, 320, 320
-0.985155, 265, 153, 296, 216
-0.985161, 257, 65, 288, 192
-0.985282, 345, 225, 408, 288
-0.985312, 217, 41, 280, 104
-0.985477, 29, 65, 60, 192
-0.985488, 409, 49, 440, 176
-0.985557, 401, 169, 464, 232
-0.985604, 345, 209, 376, 330
-0.985621, 361, 73, 392, 136
-0.98576, 225, 241, 256, 304
-0.985782, 325, 169, 356, 232
-0.985826, 429, 57, 460, 120
-0.98594, 253, 73, 284, 136
-0.985941, 357, 33, 388, 160
-0.986064, 345, 169, 376, 232
-0.986065, 153, 177, 184, 240
-0.986082, 193, 177, 224, 304
-0.986144, 1, 153, 32, 216
-0.986187, 165, 185, 196, 248
-0.986209, 121, 177, 152, 304
-0.986309, 341, 97, 372, 160
-0.986311, 449, 57, 480, 120
-0.986367, 369, 25, 496, 88
-0.986381, 65, 17, 128, 144
-0.986391, 225, 193, 288, 256
-0.986486, 205, 17, 236, 144
-0.986492, 217, 121, 280, 184
-0.986503, 17, 145, 48, 272
-0.986558, 145, 17, 176, 144
-0.986651, 285, 1, 316, 128
-0.986665, 297, 17, 360, 144
-0.986765, 317, 217, 348, 280
-0.986777, 13, 121, 44, 184
-0.986786, 81, 1, 144, 330
-0.986794, 201, 185, 232, 248
-0.986895, 113, 249, 240, 312
-0.986941, 97, 161, 128, 224
-0.986964, 341, 217, 372, 280
-0.986968, 113, 193, 240, 256
-0.98703, 1, 209, 128, 330
-0.98707, 257, 177, 288, 240
-0.98709, 353, 137, 480, 200
-0.987094, 109, 161, 140, 224
-0.987239, 1, 105, 32, 168
-0.987283, 61, 177, 92, 240
-0.987347, 373, 105, 404, 168
-0.98735, 329, 217, 360, 280
-0.987396, 69, 145, 100, 208
-0.987444, 1, 129, 256, 192
-0.987465, 289, 169, 416, 232
-0.987562, 313, 169, 344, 232
-0.987579, 73, 193, 136, 256
-0.987587, 225, 105, 256, 168
-0.987621, 225, 17, 256, 144
-0.987638, 277, 161, 308, 288
-0.987653, 201, 265, 264, 328
-0.987717, 45, 97, 76, 160
-0.987726, 157, 73, 188, 136
-0.987728, 257, 1, 320, 64
-0.987791, 217, 169, 280, 200
-0.987815, 425, 49, 456, 176
-0.987815, 353, 161, 384, 288
-0.987853, 225, 1, 288, 128
-0.987872, 49, 65, 80, 192
-0.987897, 41, 1, 104, 128
-0.9879, 17, 153, 48, 216
-0.987978, 181, 209, 212, 330
-0.987999, 257, 57, 384, 120
-0.98811, 1, 193, 128, 256
-0.988141, 97, 177, 352, 240
-0.988218, 77, 169, 108, 232
-0.988258, 425, 161, 488, 288
-0.98826, 245, 121, 276, 184
-0.988264, 337, 25, 400, 88
-0.988335, 297, 197, 360, 228
-0.988369, 1, 73, 128, 136
-0.988446, 317, 81, 348, 144
-0.98845, 121, 177, 152, 240
-0.988457, 169, 165, 232, 196
-0.988489, 33, 153, 288, 216
-0.988501, 465, 73, 496, 136
-0.988539, 305, 217, 336, 280
-0.98854, 141, 177, 172, 240
-0.988613, 141, 177, 172, 304
-0.988623, 17, 97, 48, 160
-0.988796, 201, 209, 264, 272
-0.988839, 57, 1, 120, 330
-0.988912, 105, 1, 136, 128
-0.988918, 65, 89, 96, 152
-0.988974, 49, 73, 112, 136
-0.988984, 161, 101, 224, 132
-0.988991, 365, 129, 396, 192
-0.989025, 373, 33, 404, 96
-0.989055, 237, 241, 268, 304
-0.989065, 265, 161, 296, 288
-0.989084, 213, 257, 244, 320
-0.9891, 297, 217, 360, 248
-0.989118, 205, 161, 236, 288
-0.989119, 125, 97, 156, 160
-0.989119, 229, 209, 260, 330
-0.989119, 289, 25, 416, 88
-0.989148, 461, 49, 492, 112
-0.989215, 421, 97, 452, 224
-0.989236, 209, 41, 336, 104
-0.98925, 169, 177, 232, 208
-0.98932, 81, 225, 208, 288
-0.989349, 153, 153, 216, 184
-0.989375, 469, 33, 500, 160
-0.989376, 145, 165, 208, 196
-0.989411, 161, 137, 224, 168
-0.98943, 41, 117, 104, 148
-0.989434, 361, 209, 424, 330
-0.989462, 49, 193, 80, 256
-0.989482, 389, 97, 420, 160
-0.989556, 193, 169, 256, 200
-0.989557, 57, 41, 120, 104
-0.989571, 329, 89, 360, 152
-0.989576, 201, 153, 264, 184
-0.989606, 129, 9, 256, 72
-0.989611, 193, 181, 256, 212
-0.989613, 129, 241, 192, 304
-0.989633, 153, 225, 216, 288
-0.989702, 253, 233, 284, 296
-0.98972, 49, 153, 112, 184
-0.98973, 241, 153, 304, 184
-0.989734, 137, 141, 200, 172
-0.989741, 321, 81, 352, 208
-0.989765, 1, 161, 32, 288
-0.989783, 9, 157, 72, 188
-0.989801, 185, 105, 248, 136
-0.989805, 453, 33, 484, 160
-0.989809, 153, 217, 184, 280
-0.989815, 149, 49, 180, 112
-0.98982, 369, 93, 432, 124
-0.989832, 133, 145, 164, 208
-0.989842, 425, 169, 488, 232
-0.989855, 193, 73, 448, 136
-0.989856, 97, 125, 160, 156
-0.989864, 29, 105, 60, 168
-0.989878, 249, 33, 312, 96
-0.989896, 121, 9, 184, 72
-0.989916, 9, 117, 72, 148
-0.989932, 113, 1, 144, 64
-0.989946, 65, 121, 128, 152
-0.989988, 201, 77, 264, 108
-0.990048, 49, 73, 176, 136
-0.990058, 281, 209, 312, 272
-0.99007, 169, 69, 232, 100
-0.99007, 73, 1, 136, 64
-0.990119, 305, 129, 336, 256
-0.990123, 265, 113, 296, 240
-0.990141, 209, 113, 240, 176
-0.99016, 9, 129, 72, 160
-0.990165, 161, 113, 224, 144
-0.9902, 321, 213, 384, 244
-0.990215, 437, 33, 468, 160
-0.990223, 193, 121, 256, 152
-0.990229, 361, 53, 424, 84
-0.990237, 137, 125, 200, 156
-0.990241, 165, 49, 196, 112
-0.990242, 417, 97, 480, 128
-0.990243, 201, 137, 264, 168
-0.990271, 305, 65, 336, 192
-0.990274, 121, 161, 184, 192
-0.990287, 161, 89, 224, 120
-0.990331, 137, 33, 168, 96
-0.990333, 17, 145, 80, 176
-0.990351, 33, 165, 96, 196
-0.990367, 169, 193, 200, 320
-0.990389, 321, 217, 448, 280
-0.990405, 185, 89, 248, 120
-0.990414, 49, 141, 112, 172
-0.990444, 145, 69, 208, 100
-0.990458, 121, 173, 184, 204
-0.990462, 165, 1, 196, 128
-0.990499, 177, 153, 240, 184
-0.990503, 185, 265, 216, 328
-0.990521, 161, 125, 224, 156
-0.990525, 273, 221, 336, 252
-0.990548, 345, 93, 408, 124
-0.990549, 33, 49, 160, 112
-0.990564, 393, 97, 456, 128
-0.990592, 33, 41, 96, 104
-0.9906, 341, 145, 372, 272
-0.990626, 189, 241, 220, 304
-0.990639, 361, 169, 424, 232
-0.990672, 225, 89, 288, 120
-0.990681, 269, 209, 300, 330
-0.990687, 161, 265, 288, 328
-0.990706, 17, 17, 144, 80
-0.990708, 353, 105, 416, 136
-0.990723, 137, 209, 168, 272
-0.990739, 209, 109, 272, 140
-0.990747, 273, 65, 304, 192
-0.990752, 321, 197, 384, 228
-0.990778, 361, 69, 424, 100
-0.990783, 401, 61, 464, 92
-0.990786, 137, 113, 200, 144
-0.990824, 49, 181, 112, 212
-0.990835, 361, 81, 424, 112
-0.990839, 113, 137, 176, 168
-0.990872, 97, 105, 352, 168
-0.990913, 353, 193, 384, 256
-0.990914, 273, 97, 336, 160
-0.990924, 265, 233, 296, 296
-0.990959, 409, 25, 440, 88
-0.990971, 97, 73, 160, 104
-0.990982, 277, 153, 308, 216
-0.990986, 177, 253, 240, 284
-0.990999, 305, 73, 336, 136
-0.991014, 289, 145, 320, 272
-0.991025, 137, 81, 200, 112
-0.991025, 225, 185, 256, 248
-0.991039, 113, 149, 176, 180
-0.991068, 329, 81, 392, 112
-0.991107, 41, 209, 104, 330
-0.99111, 225, 185, 288, 216
-0.991112, 273, 73, 336, 104
-0.991119, 145, 177, 208, 208
-0.991127, 253, 113, 284, 240
-0.991133, 201, 265, 232, 328
-0.991136, 281, 145, 344, 208
-0.991153, 385, 81, 448, 112
-0.991159, 17, 1, 80, 330
-0.991166, 273, 205, 336, 236
-0.991186, 161, 153, 416, 216
-0.991193, 133, 65, 164, 128
-0.991205, 361, 157, 424, 188
-0.991243, 437, 113, 468, 240
-0.991264, 9, 105, 72, 136
-0.991294, 249, 73, 312, 104
-0.991294, 401, 109, 464, 140
-0.991299, 213, 233, 244, 296
-0.991302, 301, 169, 332, 232
-0.991321, 313, 33, 376, 96
-0.991324, 25, 181, 88, 212
-0.991335, 297, 1, 328, 128
-0.991344, 161, 189, 224, 220
-0.99135, 329, 165, 392, 196
-0.991366, 89, 157, 152, 188
-0.991379, 329, 129, 360, 256
-0.991409, 161, 217, 224, 248
-0.991421, 389, 25, 420, 88
-0.991424, 305, 129, 368, 192
-0.991478, 33, 129, 96, 160
-0.991486, 305, 101, 368, 132
-0.991498, 81, 209, 144, 330
-0.991533, 337, 181, 400, 212
-0.991546, 9, 169, 72, 200
-0.991553, 225, 73, 288, 104
-0.991579, 205, 209, 236, 330
-0.991585, 361, 41, 424, 72
-0.991607, 57, 165, 120, 196
-0.991632, 417, 85, 480, 116
-0.991675, 305, 185, 368, 216
-0.991702, 385, 145, 448, 208
-0.99171, 137, 97, 200, 128
-0.991715, 321, 69, 384, 100
-0.991725, 33, 193, 96, 224
-0.991733, 401, 177, 464, 208
-0.991734, 425, 57, 488, 88
-0.991747, 121, 69, 184, 100
-0.991759, 57, 93, 120, 124
-0.991768, 345, 193, 408, 224
-0.991768, 89, 145, 152, 176
-0.991776, 145, 57, 208, 88
-0.991784, 97, 21, 160, 52
-0.991787, 233, 241, 296, 272
-0.991792, 257, 233, 320, 264
-0.991805, 241, 133, 304, 164
-0.991808, 469, 81, 500, 208
-0.991814, 257, 185, 320, 216
-0.991815, 329, 105, 392, 136
-0.991828, 433, 109, 496, 140
-0.991837, 409, 73, 472, 104
-0.991843, 297, 89, 360, 120
-0.991854, 405, 1, 436, 128
-0.991901, 193, 265, 256, 296
-0.991907, 433, 69, 496, 100
-0.991956, 329, 225, 392, 256
-0.991975, 1, 65, 32, 192
-0.991996, 285, 65, 316, 192
-0.992014, 1, 49, 64, 112
-0.992015, 81, 9, 144, 40
-0.992023, 241, 173, 304, 204
-0.992032, 281, 233, 344, 264
-0.992057, 33, 105, 96, 136
-0.99206, 425, 177, 456, 304
-0.992087, 305, 137, 432, 200
-0.992089, 121, 221, 184, 252
-0.992091, 201, 65, 264, 96
-0.992096, 45, 157, 76, 188
-0.992111, 321, 117, 384, 148
-0.992119, 97, 61, 160, 92
-0.992124, 161, 169, 288, 200
-0.992126, 65, 109, 128, 140
-0.992131, 321, 145, 384, 176
-0.99216, 193, 105, 448, 168
-0.992176, 281, 21, 344, 52
-0.992181, 237, 17, 268, 144
-0.992181, 161, 201, 416, 264
-0.992183, 177, 237, 240, 268
-0.99219, 1, 169, 500, 232
-0.992222, 1, 89, 500, 152
-0.992228, 301, 201, 332, 232
-0.992239, 97, 113, 160, 144
-0.992251, 57, 73, 120, 104
-0.992271, 153, 257, 216, 288
-0.992316, 233, 101, 296, 132
-0.992322, 153, 205, 216, 236
-0.992343, 137, 189, 200, 220
-0.992348, 9, 93, 72, 124
-0.992356, 113, 205, 176, 236
-0.992357, 121, 57, 184, 88
-0.992358, 81, 169, 144, 200
-0.992364, 73, 185, 136, 216
-0.992368, 81, 201, 144, 232
-0.992369, 189, 149, 220, 180
-0.992385, 229, 169, 260, 200
-0.992385, 33, 121, 160, 152
-0.99239, 257, 13, 320, 44
-0.992403, 193, 109, 224, 140
-0.992407, 329, 193, 360, 224
-0.992441, 189, 165, 220, 196
-0.992451, 193, 93, 224, 124
-0.992451, 1, 81, 256, 144
-0.992473, 209, 169, 240, 200
-0.99251, 53, 113, 84, 144
-0.992514, 51, 153, 66, 216
-0.992528, 113, 125, 144, 156
-0.992531, 329, 213, 360, 244
-0.992537, 149, 145, 180, 176
-0.992559, 61, 145, 92, 176
-0.992564, 245, 173, 276, 204
-0.992565, 173, 165, 204, 196
-0.99257, 205, 89, 236, 120
-0.992577, 49, 145, 80, 176
-0.992581, 297, 221, 328, 252
-0.992588, 361, 165, 392, 196
-0.992596, 41, 133, 72, 164
-0.992598, 217, 181, 248, 212
-0.9926, 409, 93, 440, 124
-0.992629, 429, 97, 460, 128
-0.992631, 125, 129, 156, 160
-0.992631, 189, 177, 220, 208
-0.992633, 41, 117, 72, 148
-0.992635, 169, 97, 200, 128
-0.992637, 65, 117, 96, 148
-0.992648, 225, 77, 256, 108
-0.992652, 245, 149, 276, 180
-0.992666, 309, 217, 340, 248
-0.992693, 169, 145, 200, 176
-0.992711, 313, 201, 344, 232
-0.992717, 181, 101, 212, 132
-0.992719, 217, 105, 248, 136
-0.992719, 317, 129, 348, 256
-0.992723, 161, 165, 192, 196
-0.992723, 369, 201, 432, 264
-0.992725, 161, 129, 416, 192
-0.992729, 89, 121, 120, 152
-0.992735, 181, 133, 212, 164
-0.992736, 49, 177, 80, 208
-0.992745, 389, 85, 420, 116
-0.992748, 149, 129, 180, 160
-0.992759, 373, 85, 404, 116
-0.992761, 341, 205, 372, 236
-0.992764, 1, 133, 32, 164
-0.992779, 201, 73, 232, 104
-0.992779, 173, 73, 204, 104
-0.992783, 137, 157, 168, 188
-0.992785, 373, 69, 404, 100
-0.99279, 393, 97, 424, 224
-0.992805, 185, 69, 216, 100
-0.99282, 257, 177, 288, 208
-0.99282, 205, 157, 236, 188
-0.99282, 169, 133, 200, 164
-0.992845, 173, 177, 204, 208
-0.992848, 225, 157, 256, 188
-0.992864, 193, 121, 224, 152
-0.992865, 1, 121, 500, 184
-0.992871, 441, 57, 472, 88
-0.992873, 57, 129, 88, 160
-0.992881, 357, 97, 388, 128
-0.992883, 129, 145, 160, 176
-0.992885, 205, 185, 236, 216
-0.992886, 393, 57, 424, 88
-0.99289, 77, 121, 108, 152
-0.992897, 189, 81, 220, 112
-0.992898, 93, 81, 124, 112
-0.9929, 429, 57, 460, 88
-0.992903, 137, 133, 168, 164
-0.992908, 33, 173, 64, 204
-0.99291, 373, 57, 404, 88
-0.992912, 101, 125, 132, 156
-0.992913, 309, 77, 340, 108
-0.992916, 9, 157, 40, 188
-0.992928, 29, 149, 60, 180
-0.992929, 377, 129, 408, 256
-0.99294, 69, 105, 100, 136
-0.992947, 53, 101, 84, 132
-0.992958, 389, 73, 420, 104
-0.99296, 261, 157, 292, 188
-0.99296, 61, 177, 92, 208
-0.992966, 257, 73, 288, 104
-0.99297, 213, 117, 244, 148
-0.992971, 413, 105, 444, 136
-0.992975, 249, 85, 280, 116
-0.992977, 239, 161, 254, 224
-0.992982, 285, 217, 316, 248
-0.992984, 137, 121, 168, 152
-0.992984, 1, 101, 32, 132
-0.992987, 153, 65, 184, 96
-0.99299, 349, 117, 380, 148
-0.992991, 273, 17, 304, 144
-0.992991, 205, 101, 236, 132
-0.992992, 237, 73, 268, 104
-0.992994, 237, 85, 268, 116
-0.993, 165, 113, 196, 144
-0.993009, 149, 157, 180, 188
-0.993013, 405, 73, 436, 104
-0.993016, 193, 137, 224, 168
-0.993017, 445, 69, 476, 100
-0.993022, 21, 121, 52, 152
-0.993023, 373, 97, 404, 128
-0.993027, 325, 33, 356, 160
-0.993028, 89, 153, 120, 184
-0.993031, 61, 161, 92, 192
-0.993035, 149, 117, 180, 148
-0.993046, 237, 185, 268, 216
-0.993053, 149, 105, 180, 136
-0.993056, 213, 77, 244, 108
-0.993057, 29, 133, 60, 164
-0.993061, 177, 113, 208, 144
-0.993068, 105, 73, 136, 104
-0.993068, 293, 25, 324, 56
-0.993071, 321, 89, 352, 120
-0.993077, 29, 161, 60, 192
-0.993093, 249, 189, 280, 220
-0.993093, 217, 93, 248, 124
-0.993095, 353, 193, 384, 224
-0.993096, 197, 261, 228, 292
-0.9931, 393, 97, 424, 128
-0.993106, 169, 85, 200, 116
-0.993106, 289, 205, 320, 236
-0.993107, 249, 161, 280, 192
-0.993113, 369, 109, 400, 140
-0.993113, 145, 93, 176, 124
-0.993114, 373, 157, 404, 188
-0.993115, 337, 105, 368, 136
-0.993123, 45, 189, 76, 220
-0.993124, 453, 57, 484, 88
-0.993124, 341, 193, 372, 224
-0.993127, 269, 69, 300, 100
-0.993127, 149, 173, 180, 204
-0.993128, 429, 85, 460, 116
-0.993132, 445, 93, 476, 124
-0.993133, 429, 177, 460, 208
-0.993133, 113, 113, 144, 144
-0.993189, 331, 193, 346, 256
-0.993199, 1, 105, 256, 168
-0.993229, 161, 233, 416, 296
-0.993252, 319, 193, 334, 256
-0.993304, 339, 193, 354, 256
-0.993384, 1, 65, 500, 128
-0.993403, 93, 1, 124, 128
-0.993417, 245, 145, 260, 208
-0.993485, 257, 201, 500, 264
-0.993591, 277, 113, 308, 240
-0.993603, 345, 33, 376, 160
-0.993625, 1, 177, 256, 240
-0.993652, 1, 145, 500, 208
-0.993683, 325, 193, 340, 256
-0.993735, 257, 161, 500, 224
-0.993746, 61, 113, 76, 176
-0.993839, 257, 17, 288, 144
-0.993862, 113, 165, 240, 196
-0.99388, 369, 201, 496, 264
-0.993974, 1, 25, 500, 88
-0.994025, 273, 201, 400, 232
-0.994026, 97, 73, 352, 136
-0.994073, 129, 125, 256, 156
-0.994105, 305, 193, 320, 256
-0.994105, 345, 193, 360, 256
-0.994123, 425, 145, 488, 208
-0.994133, 193, 41, 448, 104
-0.994133, 353, 241, 480, 304
-0.994149, 81, 17, 112, 144
-0.994158, 357, 209, 388, 330
-0.99416, 151, 113, 166, 176
-0.994183, 161, 157, 288, 188
-0.994229, 51, 129, 66, 192
-0.99424, 313, 193, 328, 256
-0.994251, 57, 153, 72, 216
-0.994267, 201, 145, 216, 208
-0.994268, 161, 137, 176, 200
-0.994272, 209, 97, 224, 160
-0.994293, 209, 265, 336, 328
-0.994299, 193, 129, 208, 192
-0.994332, 379, 65, 394, 128
-0.99436, 1, 201, 500, 264
-0.994405, 171, 113, 186, 176
-0.994452, 63, 153, 78, 216
-0.99446, 193, 1, 224, 128
-0.994465, 207, 153, 222, 216
-0.994496, 371, 153, 386, 216
-0.994533, 193, 185, 320, 216
-0.994563, 353, 93, 480, 124
-0.994571, 193, 153, 208, 216
-0.994591, 237, 137, 252, 200
-0.994592, 273, 217, 400, 248
-0.994595, 33, 225, 288, 288
-0.99463, 249, 209, 280, 330
-0.994645, 251, 145, 266, 208
-0.994693, 1, 201, 256, 264
-0.994697, 33, 49, 288, 112
-0.994708, 181, 137, 196, 200
-0.994718, 137, 121, 152, 184
-0.994739, 165, 113, 180, 176
-0.994754, 209, 65, 224, 128
-0.994768, 177, 73, 304, 104
-0.994785, 231, 161, 246, 224
-0.994785, 17, 33, 48, 160
-0.994847, 173, 137, 188, 200
-0.994855, 177, 145, 304, 176
-0.994859, 405, 97, 436, 224
-0.994864, 187, 145, 202, 208
-0.994872, 369, 233, 432, 296
-0.994901, 121, 121, 136, 184
-0.994906, 77, 113, 92, 176
-0.994923, 41, 129, 56, 192
-0.99493, 259, 169, 274, 232
-0.994949, 113, 65, 240, 96
-0.994967, 223, 65, 238, 128
-0.994973, 145, 113, 160, 176
-0.994975, 353, 65, 480, 96
-0.995012, 97, 113, 224, 144
-0.995028, 115, 121, 130, 184
-0.99504, 365, 121, 380, 184
-0.995064, 353, 1, 480, 64
-0.995068, 199, 65, 214, 128
-0.995096, 1, 145, 128, 176
-0.995097, 353, 105, 480, 136
-0.995102, 41, 161, 56, 224
-0.995143, 257, 145, 272, 208
-0.995164, 215, 81, 230, 144
-0.995165, 199, 89, 214, 152
-0.995173, 257, 137, 500, 200
-0.995176, 257, 225, 500, 288
-0.99522, 33, 177, 160, 208
-0.995235, 167, 145, 182, 208
-0.995243, 97, 141, 224, 172
-0.995253, 245, 169, 260, 232
-0.995298, 229, 65, 244, 128
-0.995308, 87, 89, 102, 152
-0.995311, 151, 137, 166, 200
-0.995316, 393, 9, 456, 72
-0.995323, 353, 81, 480, 112
-0.995334, 103, 121, 118, 184
-0.995351, 177, 105, 304, 136
-0.995371, 49, 137, 176, 168
-0.995383, 199, 121, 214, 184
-0.995386, 97, 77, 224, 108
-0.99542, 17, 209, 80, 330
-0.995438, 109, 121, 124, 184
-0.995452, 305, 73, 432, 104
-0.995452, 181, 1, 212, 128
-0.995468, 299, 209, 314, 272
-0.995489, 97, 153, 224, 184
-0.995502, 361, 1, 424, 64
-0.99551, 201, 169, 216, 232
-0.995514, 71, 113, 86, 176
-0.995549, 387, 57, 402, 120
-0.995559, 189, 89, 204, 152
-0.995566, 145, 9, 208, 72
-0.995581, 457, 81, 488, 208
-0.995612, 253, 169, 268, 232
-0.995629, 179, 113, 194, 176
-0.995641, 263, 145, 278, 208
-0.995661, 157, 33, 188, 288
-0.995665, 49, 165, 176, 196
-0.995667, 209, 169, 336, 200
-0.995677, 301, 33, 332, 288
-0.995677, 145, 57, 160, 120
-0.995722, 177, 133, 304, 164
-0.995739, 145, 93, 272, 124
-0.995742, 155, 65, 170, 128
-0.995751, 177, 117, 304, 148
-0.995755, 387, 89, 402, 152
-0.995758, 83, 121, 98, 184
-0.995773, 141, 1, 172, 256
-0.995776, 237, 33, 268, 288
-0.99579, 393, 193, 456, 256
-0.995805, 241, 181, 368, 212
-0.995806, 177, 65, 208, 320
-0.995806, 187, 113, 202, 176
-0.995831, 351, 193, 366, 256
-0.995847, 305, 89, 432, 120
-0.995849, 1, 233, 128, 296
-0.995869, 159, 113, 174, 176
-0.995874, 209, 157, 336, 188
-0.995882, 221, 89, 236, 152
-0.995883, 209, 121, 224, 184
-0.995885, 337, 161, 464, 192
-0.995891, 65, 65, 192, 96
-0.995893, 427, 97, 442, 160
-0.995894, 151, 89, 166, 152
-0.99592, 189, 65, 204, 128
-0.995923, 89, 113, 104, 176
-0.995928, 173, 161, 188, 224
-0.995931, 93, 89, 108, 152
-0.995934, 399, 73, 414, 136
-0.995935, 321, 185, 448, 216
-0.995951, 235, 73, 250, 136
-0.995955, 1, 133, 128, 164
-0.99596, 321, 65, 352, 320
-0.995967, 339, 169, 354, 232
-0.996012, 249, 65, 264, 128
-0.996019, 55, 177, 70, 240
-0.996022, 49, 1, 112, 64
-0.996044, 1, 157, 128, 188
-0.996062, 55, 105, 70, 168
-0.996064, 299, 1, 314, 64
-0.996075, 265, 169, 280, 232
-0.996077, 213, 33, 244, 288
-0.996082, 57, 209, 88, 330
-0.996089, 61, 177, 76, 240
-0.996092, 47, 105, 62, 168
-0.996095, 113, 177, 240, 208
-0.996097, 17, 109, 144, 140
-0.996115, 11, 121, 26, 184
-0.996119, 1, 1, 500, 64
-0.99612, 337, 53, 464, 84
-0.99612, 387, 33, 402, 96
-0.99612, 209, 209, 336, 240
-0.996126, 375, 41, 390, 104
-0.996134, 131, 121, 146, 184
-0.996149, 451, 57, 466, 120
-0.996164, 225, 33, 256, 288
-0.996176, 409, 73, 424, 136
-0.996185, 1, 233, 500, 296
-0.996192, 215, 57, 230, 120
-0.9962, 181, 89, 196, 152
-0.99621, 373, 97, 388, 160
-0.996221, 351, 105, 366, 168
-0.99623, 99, 81, 114, 144
-0.996243, 17, 121, 32, 184
-0.996245, 437, 161, 468, 288
-0.996278, 321, 197, 448, 228
-0.996284, 65, 17, 192, 48
-0.996285, 329, 217, 344, 280
-0.996292, 145, 137, 160, 200
-0.996301, 273, 145, 400, 176
-0.996313, 113, 189, 240, 220
-0.996323, 257, 85, 384, 116
-0.996346, 373, 1, 404, 256
-0.996347, 49, 149, 176, 180
-0.996348, 241, 233, 368, 264
-0.996349, 337, 65, 368, 320
-0.996358, 105, 169, 120, 232
-0.996365, 241, 73, 256, 136
-0.996367, 357, 113, 372, 176
-0.996373, 425, 9, 488, 72
-0.996379, 173, 81, 188, 144
-0.996383, 371, 129, 386, 192
-0.996391, 429, 57, 444, 120
-0.996402, 33, 25, 288, 88
-0.996407, 145, 237, 272, 268
-0.996421, 81, 125, 208, 156
-0.996437, 305, 101, 432, 132
-0.996444, 333, 169, 348, 232
-0.996453, 421, 65, 436, 128
-0.996467, 343, 97, 358, 160
-0.996471, 11, 145, 26, 208
-0.996472, 325, 169, 340, 232
-0.996473, 5, 153, 20, 216
-0.996479, 399, 49, 414, 112
-0.996482, 259, 73, 274, 136
-0.996493, 417, 1, 448, 128
-0.996494, 231, 129, 246, 192
-0.996497, 319, 217, 334, 280
-0.996508, 81, 89, 96, 152
-0.996514, 273, 157, 400, 188
-0.996516, 183, 65, 198, 128
-0.996524, 113, 97, 128, 160
-0.996552, 17, 97, 32, 160
-0.996552, 161, 169, 176, 232
-0.996565, 231, 105, 246, 168
-0.996572, 169, 185, 184, 248
-0.996573, 33, 197, 160, 228
-0.996584, 289, 61, 416, 92
-0.996584, 365, 161, 380, 224
-0.996585, 181, 161, 196, 224
-0.99659, 1, 129, 16, 192
-0.9966, 305, 1, 432, 64
-0.996603, 225, 73, 352, 104
-0.996605, 35, 145, 50, 208
-0.996606, 245, 113, 260, 176
-0.996615, 329, 1, 392, 64
-0.996617, 257, 97, 384, 128
-0.996632, 195, 177, 210, 240
-0.996651, 129, 17, 384, 80
-0.996653, 249, 33, 280, 288
-0.996667, 1, 249, 256, 312
-0.996695, 65, 5, 192, 36
-0.996711, 261, 33, 292, 288
-0.99673, 65, 29, 192, 60
-0.996752, 225, 221, 352, 252
-0.996761, 97, 101, 224, 132
-0.99681, 257, 169, 384, 200
-0.996831, 285, 1, 316, 256
-0.996841, 193, 61, 320, 92
-0.996869, 385, 1, 416, 256
-0.996931, 201, 65, 232, 320
-0.996947, 93, 1, 124, 256
-0.996947, 121, 1, 152, 256
-0.996948, 321, 209, 448, 240
-0.996948, 225, 129, 352, 160
-0.996963, 273, 33, 304, 288
-0.996971, 17, 53, 144, 84
-0.996984, 49, 97, 176, 128
-0.996995, 113, 253, 240, 284
-0.996998, 177, 257, 304, 288
-0.997001, 343, 193, 358, 224
-0.997043, 369, 37, 496, 68
-0.997047, 65, 53, 192, 84
-0.997067, 1, 1, 256, 64
-0.997073, 49, 153, 64, 184
-0.997096, 337, 173, 464, 204
-0.997104, 189, 33, 220, 288
-0.997104, 207, 161, 222, 192
-0.997132, 37, 17, 68, 144
-0.997135, 303, 205, 318, 236
-0.997141, 109, 1, 140, 256
-0.997169, 353, 265, 480, 328
-0.997187, 145, 225, 272, 256
-0.997202, 367, 161, 382, 192
-0.997208, 373, 161, 388, 192
-0.997219, 147, 137, 162, 168
-0.997221, 353, 149, 480, 180
-0.997225, 377, 177, 408, 304
-0.997226, 273, 113, 400, 144
-0.997227, 1, 265, 500, 328
-0.997243, 129, 269, 256, 300
-0.99725, 129, 257, 384, 320
-0.997261, 129, 53, 256, 84
-0.997264, 229, 169, 244, 200
-0.997264, 17, 257, 144, 320
-0.997266, 97, 89, 224, 120
-0.997293, 9, 233, 72, 296
-0.997299, 57, 181, 72, 212
-0.997306, 225, 197, 352, 228
-0.99731, 239, 169, 254, 200
-0.997334, 201, 145, 216, 176
-0.997372, 141, 133, 156, 164
-0.997394, 201, 165, 216, 196
-0.997394, 369, 117, 496, 148
-0.99741, 209, 97, 224, 128
-0.997428, 209, 85, 336, 116
-0.997444, 185, 165, 200, 196
-0.997455, 349, 65, 380, 320
-0.997459, 147, 125, 162, 156
-0.99746, 1, 93, 128, 124
-0.997463, 241, 153, 256, 184
-0.997466, 425, 209, 488, 330
-0.997468, 193, 237, 320, 268
-0.997469, 261, 173, 276, 204
-0.997476, 49, 137, 64, 168
-0.997489, 199, 93, 214, 124
-0.997492, 311, 221, 326, 252
-0.997516, 65, 213, 192, 244
-0.997521, 323, 217, 338, 248
-0.997523, 413, 177, 444, 304
-0.997536, 179, 149, 194, 180
-0.99755, 193, 165, 208, 196
-0.997556, 191, 145, 206, 176
-0.997561, 1, 177, 64, 240
-0.997588, 41, 169, 56, 200
-0.99759, 175, 137, 190, 168
-0.997594, 217, 89, 232, 120
-0.997609, 55, 153, 70, 184
-0.997612, 49, 117, 64, 148
-0.997614, 129, 13, 256, 44
-0.997616, 61, 65, 92, 320
-0.997618, 409, 1, 440, 256
-0.997621, 331, 197, 346, 228
-0.997625, 165, 145, 180, 176
-0.997626, 153, 141, 168, 172
-0.997628, 433, 97, 448, 128
-0.99763, 289, 33, 416, 64
-0.997633, 433, 1, 464, 256
-0.997645, 289, 229, 416, 260
-0.997648, 55, 141, 70, 172
-0.997667, 245, 169, 260, 200
-0.997671, 361, 1, 392, 256
-0.997672, 135, 129, 150, 160
-0.997672, 223, 77, 238, 108
-0.997676, 1, 65, 32, 320
-0.997679, 67, 113, 82, 144
-0.997681, 17, 9, 144, 40
-0.997683, 427, 97, 442, 128
-0.99769, 129, 201, 256, 232
-0.997693, 55, 113, 70, 144
-0.997698, 189, 73, 204, 104
-0.997702, 175, 169, 190, 200
-0.997714, 373, 53, 388, 84
-0.997722, 297, 21, 312, 52
-0.997723, 255, 173, 270, 204
-0.997724, 379, 73, 394, 104
-0.997726, 43, 121, 58, 152
-0.99773, 207, 109, 222, 140
-0.99775, 63, 177, 78, 208
-0.997754, 343, 213, 358, 244
-0.997755, 143, 149, 158, 180
-0.997759, 191, 177, 206, 208
-0.997775, 51, 181, 66, 212
-0.997795, 313, 201, 328, 232
-0.997818, 177, 17, 304, 80
-0.997818, 115, 125, 130, 156
-0.997819, 73, 117, 88, 148
-0.997821, 227, 181, 242, 212
-0.997824, 305, 241, 368, 304
-0.997826, 1, 149, 16, 180
-0.997826, 45, 181, 60, 212
-0.997828, 173, 149, 188, 180
-0.997835, 337, 213, 352, 244
-0.99784, 251, 85, 266, 116
-0.997843, 195, 81, 210, 112
-0.997844, 63, 137, 78, 168
-0.997848, 105, 77, 120, 108
-0.997853, 201, 133, 216, 164
-0.99786, 177, 269, 304, 300
-0.997863, 63, 149, 78, 180
-0.997864, 225, 109, 352, 140
-0.997866, 1, 93, 16, 124
-0.997867, 127, 125, 142, 156
-0.997874, 299, 221, 314, 252
-0.997876, 211, 73, 226, 104
-0.997876, 207, 185, 222, 216
-0.997884, 319, 201, 334, 232
-0.997884, 85, 121, 100, 152
-0.997886, 209, 85, 224, 116
-0.997888, 337, 197, 352, 228
-0.99789, 181, 137, 196, 168
-0.99789, 189, 97, 204, 128
-0.99789, 197, 177, 212, 208
-0.997892, 417, 193, 480, 256
-0.997894, 107, 121, 122, 152
-0.997897, 129, 29, 256, 60
-0.997903, 305, 221, 320, 252
-0.997904, 383, 61, 398, 92
-0.99792, 387, 89, 402, 120
-0.997922, 45, 65, 76, 320
-0.997923, 321, 117, 448, 148
-0.997924, 79, 121, 94, 152
-0.997934, 325, 197, 340, 228
-0.997936, 191, 129, 206, 160
-0.997938, 185, 153, 200, 184
-0.997938, 443, 57, 458, 88
-0.997939, 393, 241, 456, 304
-0.997945, 171, 101, 186, 132
-0.997947, 155, 129, 170, 160
-0.997958, 151, 113, 166, 144
-0.997959, 397, 1, 428, 256
-0.997963, 13, 117, 28, 148
-0.997967, 63, 101, 78, 132
-0.997975, 199, 69, 214, 100
-0.997983, 251, 73, 266, 104
-0.997985, 95, 89, 110, 120
-0.997986, 273, 129, 400, 160
-0.997987, 61, 113, 76, 144
-0.997995, 159, 145, 174, 176
-0.997995, 199, 109, 214, 140
-0.998004, 49, 165, 64, 196
-0.998008, 209, 133, 224, 164
-0.998011, 59, 125, 74, 156
-0.998012, 235, 157, 250, 188
-0.998012, 453, 1, 484, 256
-0.998015, 1, 81, 128, 112
-0.998023, 317, 217, 332, 248
-0.998032, 263, 157, 278, 188
-0.998038, 13, 157, 28, 188
-0.998042, 41, 133, 56, 164
-0.998045, 185, 181, 200, 212
-0.998049, 11, 129, 26, 160
-0.998051, 121, 125, 136, 156
-0.998056, 79, 109, 94, 140
-0.998058, 217, 173, 232, 204
-0.998065, 163, 133, 178, 164
-0.998065, 17, 65, 144, 96
-0.998068, 151, 157, 166, 188
-0.998069, 169, 169, 184, 200
-0.998075, 217, 77, 232, 108
-0.998077, 329, 217, 344, 248
-0.998077, 33, 65, 48, 96
-0.998083, 49, 85, 176, 116
-0.998086, 207, 173, 222, 204
-0.99809, 169, 133, 184, 164
-0.998098, 313, 17, 344, 144
-0.998102, 289, 49, 416, 80
-0.998104, 351, 205, 366, 236
-0.998107, 267, 177, 282, 208
-0.998111, 157, 65, 172, 96
-0.998116, 425, 109, 440, 140
-0.998117, 401, 77, 416, 108
-0.998123, 233, 181, 248, 212
-0.998124, 243, 73, 258, 104
-0.998125, 379, 101, 394, 132
-0.998131, 225, 145, 352, 176
-0.998133, 13, 65, 44, 320
-0.998144, 141, 121, 156, 152
-0.998145, 81, 241, 208, 272
-0.998199, 289, 265, 416, 328
-0.998254, 65, 41, 192, 72
-0.998262, 81, 201, 208, 232
-0.998271, 421, 1, 452, 256
-0.998308, 17, 21, 144, 52
-0.99832, 25, 65, 56, 320
-0.998342, 177, 197, 304, 228
-0.998351, 369, 185, 496, 216
-0.998352, 321, 133, 448, 164
-0.99839, 193, 149, 224, 164
-0.99839, 373, 49, 404, 64
-0.99839, 121, 169, 152, 184
-0.998391, 309, 85, 340, 100
-0.998392, 1, 97, 32, 112
-0.998392, 41, 189, 72, 204
-0.998392, 253, 189, 284, 204
-0.998393, 149, 71, 180, 86
-0.998394, 373, 83, 404, 98
-0.998395, 349, 205, 380, 220
-0.998395, 257, 159, 288, 174
-0.998397, 281, 155, 312, 170
-0.998397, 257, 9, 500, 72
-0.998397, 157, 153, 188, 168
-0.998397, 201, 75, 232, 90
-0.998398, 41, 127, 72, 142
-0.998399, 409, 69, 440, 84
-0.998399, 213, 115, 244, 130
-0.998399, 1, 117, 32, 132
-0.998399, 349, 227, 380, 242
-0.998401, 13, 111, 44, 126
-0.998401, 149, 159, 180, 174
-0.998402, 369, 101, 400, 116
-0.998403, 181, 101, 212, 116
-0.998404, 145, 121, 176, 136
-0.998404, 205, 89, 236, 104
-0.998405, 393, 91, 424, 106
-0.998406, 201, 191, 232, 206
-0.998408, 129, 41, 256, 72
-0.99841, 293, 25, 324, 40
-0.998411, 237, 163, 268, 178
-0.998413, 9, 159, 72, 174
-0.998413, 429, 109, 460, 124
-0.998413, 61, 179, 92, 194
-0.998414, 245, 87, 276, 102
-0.998417, 253, 183, 284, 198
-0.998417, 233, 187, 264, 202
-0.998419, 417, 95, 448, 110
-0.99842, 373, 73, 404, 88
-0.99842, 373, 93, 404, 108
-0.998422, 241, 9, 368, 72
-0.998423, 245, 157, 276, 172
-0.998423, 161, 71, 192, 86
-0.998423, 145, 129, 176, 144
-0.998423, 345, 211, 376, 226
-0.998425, 129, 129, 160, 144
-0.998426, 45, 151, 76, 166
-0.998427, 53, 129, 84, 144
-0.998427, 29, 153, 60, 168
-0.998428, 429, 95, 460, 110
-0.998429, 1, 133, 32, 148
-0.998429, 169, 185, 200, 200
-0.99843, 61, 157, 92, 172
-0.998432, 305, 201, 368, 216
-0.998432, 29, 165, 60, 180
-0.998435, 49, 145, 80, 160
-0.998436, 309, 223, 340, 238
-0.998437, 65, 249, 192, 312
-0.998437, 169, 191, 200, 206
-0.998438, 213, 109, 244, 124
-0.998439, 241, 61, 368, 92
-0.998439, 357, 163, 388, 178
-0.99844, 137, 141, 168, 156
-0.99844, 177, 183, 240, 198
-0.998441, 81, 123, 112, 138
-0.998441, 113, 213, 240, 244
-0.998442, 129, 135, 160, 150
-0.998442, 385, 83, 416, 98
-0.998442, 45, 177, 76, 192
-0.998443, 425, 103, 456, 118
-0.998443, 181, 161, 212, 176
-0.998443, 297, 225, 328, 240
-0.998446, 217, 175, 280, 190
-0.998448, 193, 103, 224, 118
-0.998452, 137, 163, 168, 178
-0.998453, 85, 159, 116, 174
-0.998455, 17, 159, 48, 174
-0.998455, 205, 165, 236, 180
-0.998456, 301, 205, 332, 220
-0.998457, 205, 95, 236, 110
-0.998457, 301, 79, 332, 94
-0.998458, 197, 115, 228, 130
-0.998459, 169, 147, 200, 162
-0.998459, 41, 137, 72, 152
-0.99846, 297, 215, 328, 230
-0.99846, 197, 185, 228, 200
-0.99846, 321, 219, 352, 234
-0.99846, 193, 177, 224, 192
-0.998461, 189, 139, 220, 154
-0.998463, 169, 171, 200, 186
-0.998464, 161, 157, 224, 172
-0.998464, 217, 167, 248, 182
-0.998465, 137, 73, 168, 88
-0.998466, 357, 171, 388, 186
-0.998469, 193, 131, 224, 146
-0.99847, 149, 135, 180, 150
-0.998471, 145, 149, 208, 164
-0.998471, 93, 125, 124, 140
-0.998472, 201, 187, 264, 202
-0.998473, 209, 103, 240, 118
-0.998473, 69, 121, 100, 136
-0.998475, 153, 171, 184, 186
-0.998477, 73, 65, 104, 320
-0.998478, 169, 169, 232, 184
-0.998478, 161, 103, 224, 118
-0.998478, 117, 129, 148, 144
-0.998479, 53, 185, 84, 200
-0.998481, 161, 137, 224, 152
-0.998483, 249, 177, 280, 192
-0.998483, 29, 159, 60, 174
-0.998484, 169, 161, 200, 176
-0.998484, 137, 163, 200, 178
-0.998484, 137, 143, 200, 158
-0.998484, 113, 71, 144, 86
-0.998484, 169, 101, 200, 116
-0.998484, 193, 123, 224, 138
-0.998484, 237, 169, 268, 184
-0.998485, 245, 151, 276, 166
-0.998485, 409, 109, 440, 124
-0.998486, 1, 161, 32, 176
-0.998486, 369, 165, 400, 180
-0.998489, 41, 121, 72, 136
-0.99849, 409, 101, 440, 116
-0.998492, 209, 179, 240, 194
-0.998493, 41, 157, 104, 172
-0.998494, 149, 165, 180, 180
-0.998496, 333, 215, 364, 230
-0.998497, 297, 207, 360, 222
-0.998497, 41, 171, 72, 186
-0.998498, 81, 125, 144, 140
-0.9985, 181, 149, 212, 164
-0.998501, 425, 97, 488, 112
-0.998501, 41, 121, 104, 136
-0.998501, 297, 219, 360, 234
-0.998502, 169, 177, 200, 192
-0.998502, 405, 93, 436, 108
-0.998502, 169, 155, 200, 170
-0.998502, 197, 109, 228, 124
-0.998504, 225, 173, 256, 188
-0.998504, 57, 151, 88, 166
-0.998505, 161, 143, 224, 158
-0.998507, 17, 137, 80, 152
-0.998509, 137, 73, 200, 88
-0.998509, 189, 95, 220, 110
-0.998513, 53, 117, 84, 132
-0.998514, 201, 163, 264, 178
-0.998516, 177, 141, 208, 156
-0.998519, 113, 169, 176, 184
-0.99852, 17, 165, 80, 180
-0.998521, 153, 115, 216, 130
-0.998522, 201, 157, 264, 172
-0.998522, 225, 157, 288, 172
-0.998522, 137, 177, 200, 192
-0.998523, 225, 181, 288, 196
-0.998524, 161, 139, 192, 154
-0.998524, 169, 121, 232, 136
-0.998528, 129, 1, 256, 32
-0.998528, 149, 145, 180, 160
-0.99853, 269, 155, 300, 170
-0.998533, 177, 177, 240, 192
-0.998537, 321, 215, 384, 230
-0.998537, 189, 155, 220, 170
-0.998538, 369, 105, 432, 120
-0.998538, 385, 93, 448, 108
-0.998541, 201, 151, 264, 166
-0.998541, 137, 155, 200, 170
-0.998543, 137, 127, 200, 142
-0.998543, 41, 163, 104, 178
-0.998544, 193, 109, 256, 124
-0.998544, 41, 127, 104, 142
-0.998545, 217, 185, 248, 200
-0.998546, 161, 129, 224, 144
-0.998546, 209, 169, 272, 184
-0.998546, 105, 127, 136, 142
-0.998548, 205, 173, 236, 188
-0.998548, 97, 73, 160, 88
-0.99855, 241, 151, 304, 166
-0.998553, 239, 145, 254, 272
-0.998554, 185, 167, 216, 182
-0.998555, 257, 157, 320, 172
-0.998555, 385, 99, 448, 114
-0.998556, 137, 67, 200, 82
-0.998556, 217, 79, 280, 94
-0.998557, 185, 183, 216, 198
-0.998557, 41, 157, 72, 172
-0.998558, 185, 129, 248, 144
-0.998559, 289, 213, 352, 228
-0.998561, 79, 113, 94, 240
-0.998563, 137, 171, 200, 186
-0.998563, 17, 153, 80, 168
-0.998564, 49, 169, 112, 184
-0.998564, 333, 199, 364, 214
-0.998565, 97, 131, 160, 146
-0.998566, 161, 109, 224, 124
-0.998568, 361, 57, 424, 72
-0.998568, 361, 91, 424, 106
-0.998568, 193, 115, 256, 130
-0.998568, 113, 67, 176, 82
-0.99857, 137, 133, 200, 148
-0.998572, 81, 225, 208, 256
-0.998575, 225, 187, 288, 202
-0.998575, 67, 113, 82, 240
-0.998577, 169, 163, 232, 178
-0.998577, 177, 189, 240, 204
-0.998578, 273, 79, 336, 94
-0.998578, 121, 149, 184, 164
-0.998578, 49, 185, 112, 200
-0.99858, 177, 73, 240, 88
-0.998581, 9, 131, 72, 146
-0.998582, 161, 97, 224, 112
-0.998583, 153, 183, 216, 198
-0.998583, 105, 137, 168, 152
-0.998584, 113, 161, 176, 176
-0.998584, 41, 151, 104, 166
-0.998585, 81, 163, 144, 178
-0.998585, 169, 149, 232, 164
-0.998585, 361, 99, 424, 114
-0.998585, 193, 141, 256, 156
-0.998586, 33, 177, 96, 192
-0.998587, 177, 267, 240, 282
-0.998588, 1, 123, 64, 138
-0.998588, 185, 93, 248, 108
-0.99859, 337, 105, 400, 120
-0.99859, 153, 81, 216, 96
-0.99859, 209, 85, 272, 100
-0.99859, 409, 109, 472, 124
-0.998591, 361, 83, 424, 98
-0.998593, 185, 83, 248, 98
-0.998593, 241, 163, 304, 178
-0.998594, 281, 235, 344, 250
-0.998597, 337, 209, 400, 224
-0.998598, 49, 141, 112, 156
-0.9986, 185, 103, 248, 118
-0.9986, 41, 165, 72, 180
-0.998602, 417, 117, 480, 132
-0.998603, 393, 71, 456, 86
-0.998604, 9, 111, 72, 126
-0.998604, 425, 73, 488, 88
-0.998605, 177, 259, 240, 274
-0.998605, 193, 123, 256, 138
-0.998607, 305, 225, 368, 240
-0.998607, 265, 217, 328, 232
-0.998608, 409, 91, 472, 106
-0.99861, 161, 87, 224, 102
-0.99861, 65, 119, 128, 134
-0.99861, 265, 73, 328, 88
-0.998611, 97, 79, 160, 94
-0.998611, 361, 77, 424, 92
-0.998613, 201, 135, 264, 150
-0.998613, 385, 111, 448, 126
-0.998614, 201, 181, 264, 196
-0.998614, 409, 103, 472, 118
-0.998614, 121, 113, 136, 240
-0.998615, 153, 189, 216, 204
-0.998616, 97, 151, 160, 166
-0.998616, 329, 97, 392, 112
-0.998616, 65, 157, 128, 172
-0.998618, 369, 63, 432, 78
-0.998618, 97, 27, 160, 42
-0.998619, 257, 183, 320, 198
-0.998619, 41, 133, 104, 148
-0.99862, 33, 115, 96, 130
-0.99862, 353, 167, 416, 182
-0.998621, 337, 195, 400, 210
-0.998621, 233, 89, 296, 104
-0.998626, 225, 253, 352, 284
-0.998626, 9, 145, 72, 160
-0.998627, 105, 143, 168, 158
-0.998628, 321, 165, 384, 180
-0.998628, 329, 229, 392, 244
-0.998628, 241, 79, 304, 94
-0.998631, 345, 111, 408, 126
-0.998631, 17, 171, 80, 186
-0.998632, 161, 221, 224, 236
-0.998655, 59, 145, 74, 272
-0.998676, 59, 97, 74, 224
-0.998691, 95, 113, 110, 240
-0.9987, 161, 129, 176, 256
-0.998703, 111, 113, 126, 240
-0.998726, 469, 33, 500, 288
-0.998729, 233, 113, 248, 240
-0.998734, 135, 129, 150, 256
-0.998744, 171, 97, 186, 224
-0.998767, 49, 113, 64, 240
-0.998777, 73, 113, 88, 240
-0.998786, 151, 81, 166, 208
-0.998787, 101, 113, 116, 240
-0.998792, 369, 221, 496, 252
-0.998796, 177, 33, 304, 64
-0.998802, 157, 65, 172, 192
-0.998807, 85, 113, 100, 240
-0.998822, 199, 97, 214, 224
-0.998833, 129, 129, 144, 256
-0.998839, 377, 81, 392, 208
-0.99884, 163, 65, 178, 192
-0.998863, 245, 161, 260, 288
-0.998867, 155, 129, 170, 256
-0.998874, 181, 97, 196, 224
-0.998884, 205, 97, 220, 224
-0.998905, 143, 145, 158, 272
-0.998913, 191, 97, 206, 224
-0.998924, 369, 25, 496, 56
-0.998941, 173, 145, 188, 272
-0.998941, 229, 161, 244, 288
-0.99895, 167, 145, 182, 272
-0.998953, 235, 65, 250, 192
-0.998953, 245, 113, 260, 240
-0.99896, 401, 33, 416, 160
-0.998968, 145, 97, 160, 224
-0.998971, 257, 161, 272, 288
-0.998996, 321, 241, 448, 272
-0.999011, 251, 161, 266, 288
-0.999016, 235, 193, 250, 320
-0.999018, 119, 65, 134, 192
-0.999021, 305, 177, 320, 304
-0.999032, 223, 65, 238, 192
-0.999048, 103, 65, 118, 192
-0.999053, 229, 65, 244, 192
-0.999054, 127, 81, 142, 208
-0.999054, 11, 113, 26, 240
-0.999055, 243, 65, 258, 192
-0.999065, 339, 177, 354, 304
-0.99908, 211, 97, 226, 224
-0.999082, 185, 145, 200, 272
-0.999093, 139, 81, 154, 208
-0.999094, 375, 33, 390, 160
-0.999096, 199, 49, 214, 176
-0.999104, 179, 145, 194, 272
-0.999116, 329, 177, 344, 304
-0.999121, 209, 49, 224, 176
-0.999122, 161, 177, 176, 304
-0.999122, 313, 177, 328, 304
-0.999127, 53, 161, 68, 288
-0.999127, 369, 97, 384, 224
-0.999134, 133, 81, 148, 208
-0.999146, 299, 193, 314, 320
-0.99915, 411, 49, 426, 176
-0.999151, 263, 161, 278, 288
-0.999155, 253, 113, 268, 240
-0.999158, 17, 97, 32, 224
-0.999159, 161, 213, 288, 244
-0.999161, 33, 81, 48, 208
-0.999165, 319, 177, 334, 304
-0.99918, 375, 145, 390, 272
-0.999182, 97, 161, 112, 288
-0.999184, 227, 113, 242, 240
-0.999184, 87, 65, 102, 192
-0.999186, 261, 65, 276, 192
-0.999186, 113, 65, 128, 192
-0.999189, 111, 161, 126, 288
-0.999191, 257, 249, 500, 312
-0.999192, 105, 161, 120, 288
-0.999192, 5, 113, 20, 240
-0.999194, 345, 193, 360, 320
-0.999197, 255, 65, 270, 192
-0.999204, 69, 65, 84, 192
-0.999205, 41, 113, 56, 240
-0.999211, 193, 145, 208, 272
-0.999212, 181, 49, 196, 176
-0.999215, 67, 161, 82, 288
-0.999218, 97, 65, 112, 192
-0.999223, 75, 65, 90, 192
-0.999224, 217, 65, 232, 192
-0.999227, 189, 49, 204, 176
-0.999236, 383, 49, 398, 176
-0.999245, 297, 1, 312, 128
-0.999252, 27, 145, 42, 272
-0.999256, 35, 145, 50, 272
-0.999257, 363, 113, 378, 240
-0.999258, 249, 65, 264, 192
-0.999262, 145, 49, 160, 176
-0.999262, 17, 41, 144, 72
-0.999264, 351, 97, 366, 224
-0.999264, 127, 33, 142, 160
-0.999268, 41, 161, 56, 288
-0.999269, 91, 161, 106, 288
-0.999276, 133, 177, 148, 304
-0.999277, 223, 177, 238, 304
-0.999278, 199, 145, 214, 272
-0.999279, 21, 145, 36, 272
-0.999294, 47, 161, 62, 288
-0.999297, 123, 161, 138, 288
-0.999303, 73, 161, 88, 288
-0.999304, 85, 161, 100, 288
-0.999305, 1, 241, 128, 272
-0.999312, 175, 49, 190, 176
-0.999312, 395, 33, 410, 160
-0.99932, 259, 113, 274, 240
-0.999322, 369, 145, 384, 272
-0.999323, 149, 145, 164, 272
-0.999327, 369, 249, 496, 280
-0.999327, 267, 65, 282, 192
-0.99933, 117, 161, 132, 288
-0.99933, 207, 145, 222, 272
-0.999332, 81, 265, 208, 296
-0.999334, 369, 49, 384, 176
-0.999344, 169, 193, 184, 320
-0.999345, 219, 17, 234, 144
-0.999346, 231, 17, 246, 144
-0.999348, 157, 17, 172, 144
-0.999352, 269, 161, 284, 288
-0.999352, 353, 13, 480, 44
-0.999352, 177, 49, 304, 80
-0.999356, 405, 81, 420, 208
-0.99938, 15, 161, 30, 288
-0.99938, 357, 97, 372, 224
-0.999384, 357, 209, 372, 330
-0.999388, 195, 209, 210, 330
-0.99939, 289, 21, 416, 52
-0.999391, 79, 161, 94, 288
-0.999393, 133, 33, 148, 160
-0.999394, 183, 193, 198, 320
-0.999395, 169, 49, 184, 176
-0.999397, 319, 65, 334, 192
-0.999444, 65, 253, 192, 284
-0.999445, 241, 41, 368, 72
-0.999544, 241, 281, 368, 312
-0.999595, 251, 189, 266, 204
-0.999595, 375, 75, 390, 90
-0.999596, 101, 85, 116, 100
-0.999598, 369, 197, 496, 228
-0.999598, 145, 125, 160, 140
-0.999598, 239, 173, 254, 188
-0.999599, 1, 97, 16, 112
-0.9996, 143, 73, 158, 88
-0.9996, 241, 161, 256, 176
-0.999601, 153, 73, 168, 88
-0.999602, 153, 163, 168, 178
-0.999602, 239, 187, 254, 202
-0.999603, 389, 107, 404, 122
-0.999603, 209, 135, 224, 150
-0.999603, 41, 165, 56, 180
-0.999603, 265, 179, 280, 194
-0.999604, 107, 77, 122, 92
-0.999604, 45, 181, 60, 196
-0.999605, 267, 151, 282, 166
-0.999606, 383, 63, 398, 78
-0.999607, 1, 157, 16, 172
-0.999607, 53, 119, 68, 134
-0.999607, 179, 171, 194, 186
-0.999608, 297, 33, 312, 48
-0.999608, 17, 113, 32, 128
-0.999609, 375, 51, 390, 66
-0.999609, 373, 57, 388, 72
-0.999609, 77, 121, 92, 136
-0.999609, 187, 149, 202, 164
-0.99961, 193, 141, 208, 156
-0.99961, 41, 173, 56, 188
-0.999612, 219, 101, 234, 116
-0.999612, 93, 161, 108, 176
-0.999613, 303, 217, 318, 232
-0.999613, 89, 123, 104, 138
-0.999614, 203, 157, 218, 172
-0.999614, 305, 277, 432, 308
-0.999615, 201, 181, 216, 196
-0.999615, 153, 135, 168, 150
-0.999616, 59, 131, 74, 146
-0.999617, 95, 91, 110, 106
-0.999617, 215, 83, 230, 98
-0.999617, 245, 169, 260, 184
-0.999618, 233, 167, 248, 182
-0.999619, 203, 135, 218, 150
-0.999619, 363, 167, 378, 182
-0.999619, 191, 159, 206, 174
-0.99962, 139, 153, 154, 168
-0.99962, 375, 67, 390, 82
-0.999621, 173, 187, 188, 202
-0.999622, 71, 119, 86, 134
-0.999623, 185, 157, 200, 172
-0.999623, 175, 177, 190, 192
-0.999623, 213, 89, 228, 104
-0.999625, 345, 213, 360, 228
-0.999627, 429, 93, 444, 108
-0.999627, 141, 131, 156, 146
-0.999627, 173, 163, 188, 178
-0.999628, 421, 109, 436, 124
-0.999629, 103, 125, 118, 140
-0.999629, 369, 297, 496, 328
-0.999629, 47, 187, 62, 202
-0.999629, 375, 163, 390, 178
-0.999629, 303, 207, 318, 222
-0.999629, 159, 147, 174, 162
-0.999629, 127, 129, 142, 144
-0.99963, 311, 225, 326, 240
-0.99963, 59, 149, 74, 164
-0.999631, 213, 187, 228, 202
-0.999632, 201, 175, 216, 190
-0.999632, 143, 143, 158, 158
-0.999632, 207, 91, 222, 106
-0.999633, 173, 157, 188, 172
-0.999633, 297, 27, 312, 42
-0.999633, 9, 161, 24, 176
-0.999636, 193, 93, 208, 108
-0.999638, 167, 175, 182, 190
-0.999638, 437, 177, 452, 192
-0.999638, 163, 167, 178, 182
-0.999639, 217, 95, 232, 110
-0.999639, 193, 183, 208, 198
-0.999641, 317, 79, 332, 94
-0.999642, 159, 139, 174, 154
-0.999644, 251, 85, 266, 100
-0.999646, 141, 137, 156, 152
-0.999646, 111, 125, 126, 140
-0.999646, 151, 117, 166, 132
-0.999646, 49, 135, 64, 150
-0.999647, 169, 149, 184, 164
-0.999647, 427, 107, 442, 122
-0.999648, 15, 159, 30, 174
-0.99965, 11, 133, 26, 148
-0.999651, 229, 173, 244, 188
-0.999652, 181, 149, 196, 164
-0.999652, 201, 165, 216, 180
-0.999654, 53, 181, 68, 196
-0.999656, 65, 117, 80, 132
-0.999657, 303, 227, 318, 242
-0.999657, 199, 99, 214, 114
-0.999657, 279, 155, 294, 170
-0.999658, 55, 187, 70, 202
-0.999658, 145, 149, 160, 164
-0.999659, 175, 139, 190, 154
-0.999661, 353, 281, 480, 312
-0.999663, 187, 181, 202, 196
-0.999664, 183, 141, 198, 156
-0.999665, 151, 129, 166, 144
-0.999665, 175, 147, 190, 162
-0.999667, 165, 141, 180, 156
-0.999669, 207, 185, 222, 200
-0.999671, 179, 157, 194, 172
-0.999671, 287, 155, 302, 170
-0.999673, 209, 103, 224, 118
-0.999678, 227, 185, 242, 200
-0.999679, 267, 157, 282, 172
-0.99968, 209, 171, 224, 186
-0.999682, 273, 155, 288, 170
-0.999682, 343, 197, 358, 212
-0.999682, 117, 127, 132, 142
-0.999684, 199, 105, 214, 120
-0.999684, 239, 167, 254, 182
-0.999686, 147, 135, 162, 150
-0.999687, 427, 99, 442, 114
-0.999689, 207, 97, 222, 112
-0.99969, 199, 143, 214, 158
-0.999691, 371, 171, 386, 186
-0.999694, 151, 123, 166, 138
-0.999699, 173, 171, 188, 186
-0.999701, 297, 21, 312, 36
-0.99971, 397, 177, 428, 304
-0.999718, 207, 165, 222, 180
-0.999737, 33, 65, 48, 80
-0.999747, 369, 163, 384, 178
-0.999771, 149, 143, 164, 158
-0.999787, 51, 157, 66, 172
-1.00048, 17, 17, 80, 144
