1962
-0.269242, 1, 1, 500, 375
-0.323471, 1, 65, 500, 320
-0.429357, 1, 1, 256, 375
-0.583202, 257, 1, 500, 375
-0.585352, 97, 1, 352, 375
-0.631717, 1, 1, 256, 256
-0.63327, 1, 97, 256, 352
-0.665745, 257, 33, 500, 288
-0.685713, 97, 97, 352, 352
-0.689059, 193, 129, 448, 375
-0.770086, 97, 1, 352, 256
-0.833971, 49, 1, 176, 256
-0.835903, 1, 209, 500, 336
-0.846252, 65, 97, 192, 352
-0.848071, 49, 1, 176, 375
-0.852145, 1, 97, 128, 352
-0.853358, 321, 1, 448, 375
-0.854754, 97, 1, 224, 375
-0.860632, 305, 97, 432, 352
-0.861704, 369, 1, 496, 375
-0.861916, 1, 1, 128, 375
-0.869449, 369, 1, 496, 256
-0.880138, 369, 97, 496, 352
-0.88166, 241, 129, 368, 375
-0.881766, 1, 1, 128, 256
-0.882183, 1, 225, 256, 352
-0.882434, 161, 241, 416, 368
-0.883395, 1, 81, 500, 208
-0.883795, 321, 1, 448, 256
-0.886715, 129, 97, 256, 352
-0.886769, 1, 145, 500, 272
-0.897081, 1, 33, 500, 160
-0.903693, 177, 129, 304, 375
-0.905006, 129, 193, 384, 320
-0.907169, 97, 1, 224, 256
-0.911052, 145, 1, 272, 375
-0.915057, 273, 1, 400, 375
-0.915581, 257, 241, 384, 368
-0.916369, 193, 241, 320, 368
-0.918099, 209, 1, 336, 375
-0.919189, 97, 209, 224, 336
-0.923212, 273, 1, 400, 256
-0.923376, 41, 209, 104, 336
-0.923763, 145, 209, 272, 336
-0.924574, 257, 241, 500, 368
-0.925303, 33, 17, 288, 144
-0.925614, 49, 209, 176, 336
-0.925799, 305, 241, 368, 368
-0.925965, 49, 33, 176, 160
-0.926739, 185, 209, 248, 336
-0.927571, 1, 161, 256, 288
-0.929835, 209, 209, 272, 336
-0.930326, 257, 193, 384, 320
-0.930427, 121, 193, 184, 320
-0.930613, 1, 209, 128, 336
-0.931697, 297, 193, 360, 320
-0.932231, 81, 209, 144, 336
-0.932635, 225, 33, 352, 288
-0.932816, 161, 225, 224, 352
-0.933703, 257, 241, 320, 368
-0.934349, 65, 17, 128, 144
-0.934828, 305, 241, 432, 368
-0.936215, 337, 241, 400, 368
-0.936737, 257, 129, 500, 256
-0.937027, 89, 17, 152, 144
-0.937359, 321, 97, 448, 224
-0.937566, 145, 1, 272, 256
-0.938142, 369, 81, 496, 208
-0.938601, 9, 161, 72, 288
-0.939024, 17, 129, 144, 256
-0.93918, 1, 241, 64, 368
-0.939928, 129, 145, 384, 272
-0.94141, 329, 281, 392, 344
-0.94155, 345, 97, 408, 224
-0.941611, 65, 65, 128, 192
-0.941873, 257, 177, 500, 304
-0.942787, 193, 193, 320, 320
-0.943643, 369, 17, 496, 144
-0.943662, 65, 81, 192, 208
-0.943708, 225, 297, 288, 360
-0.943731, 233, 241, 296, 368
-0.944487, 297, 297, 360, 360
-0.945047, 361, 297, 424, 360
-0.946083, 297, 145, 360, 272
-0.946645, 281, 241, 344, 368
-0.946939, 1, 113, 256, 240
-0.947396, 369, 129, 496, 256
-0.947547, 113, 33, 176, 160
-0.947569, 297, 225, 360, 288
-0.947664, 65, 129, 128, 256
-0.947797, 257, 17, 500, 144
-0.948159, 97, 161, 224, 288
-0.948178, 1, 81, 128, 208
-0.948735, 257, 81, 500, 208
-0.948791, 337, 305, 400, 368
-0.948982, 137, 225, 200, 288
-0.949363, 81, 225, 144, 288
-0.949994, 417, 97, 480, 224
-0.950147, 249, 273, 312, 336
-0.950314, 305, 257, 368, 320
-0.950435, 273, 193, 336, 320
-0.950659, 89, 81, 152, 208
-0.950695, 201, 289, 264, 352
-0.95132, 113, 193, 176, 256
-0.953258, 305, 201, 368, 264
-0.953716, 65, 89, 128, 152
-0.95404, 89, 161, 152, 288
-0.954193, 377, 65, 440, 192
-0.954213, 249, 297, 312, 360
-0.95449, 25, 81, 88, 208
-0.954602, 137, 241, 200, 368
-0.954803, 177, 257, 240, 320
-0.955033, 1, 65, 256, 192
-0.955384, 185, 209, 248, 272
-0.955614, 393, 305, 456, 368
-0.956048, 113, 81, 176, 208
-0.956226, 185, 313, 248, 375
-0.957144, 225, 265, 288, 328
-0.957151, 321, 193, 384, 320
-0.957397, 265, 233, 328, 296
-0.957415, 273, 273, 336, 336
-0.957931, 97, 33, 224, 160
-0.958168, 105, 241, 168, 368
-0.959199, 345, 1, 408, 128
-0.959325, 417, 33, 480, 160
-0.959493, 145, 177, 208, 304
-0.959546, 49, 225, 112, 288
-0.959554, 289, 17, 416, 144
-0.959655, 1, 33, 128, 160
-0.960184, 345, 113, 408, 176
-0.960596, 305, 145, 432, 272
-0.960628, 209, 225, 272, 288
-0.960714, 273, 297, 336, 360
-0.961334, 113, 81, 176, 144
-0.961412, 145, 161, 272, 288
-0.961423, 161, 297, 224, 360
-0.96195, 97, 97, 352, 224
-0.962002, 41, 281, 104, 344
-0.962066, 161, 49, 416, 176
-0.96239, 273, 297, 400, 360
-0.962444, 1, 209, 64, 272
-0.962644, 73, 25, 136, 88
-0.962652, 41, 33, 104, 160
-0.962939, 345, 49, 408, 176
-0.96317, 257, 273, 384, 336
-0.96331, 241, 193, 304, 320
-0.963338, 321, 113, 384, 240
-0.963554, 369, 241, 496, 368
-0.963572, 41, 313, 104, 375
-0.963624, 113, 217, 176, 280
-0.963798, 241, 145, 368, 272
-0.964116, 357, 281, 388, 344
-0.964214, 329, 257, 392, 320
-0.964329, 345, 17, 408, 80
-0.964641, 1, 281, 64, 344
-0.964765, 153, 249, 216, 312
-0.964766, 97, 217, 224, 280
-0.964804, 373, 289, 404, 352
-0.964926, 9, 185, 72, 248
-0.965039, 229, 289, 260, 352
-0.965148, 417, 313, 480, 375
-0.965207, 297, 129, 360, 375
-0.965223, 89, 1, 152, 256
-0.965348, 305, 177, 368, 240
-0.965671, 105, 249, 168, 312
-0.965773, 17, 313, 80, 375
-0.965775, 1, 81, 64, 208
-0.965903, 17, 81, 80, 144
-0.965973, 213, 193, 244, 320
-0.966111, 345, 97, 408, 352
-0.966116, 137, 313, 200, 375
-0.966357, 409, 113, 472, 176
-0.966449, 353, 273, 416, 336
-0.966699, 377, 241, 440, 368
-0.966805, 233, 233, 296, 296
-0.966855, 321, 225, 384, 288
-0.966875, 193, 233, 320, 296
-0.966891, 57, 33, 120, 288
-0.966982, 433, 137, 496, 200
-0.967111, 209, 297, 336, 360
-0.967183, 341, 305, 372, 368
-0.967204, 173, 233, 204, 296
-0.967257, 49, 65, 112, 128
-0.967397, 257, 249, 384, 312
-0.967416, 273, 209, 336, 272
-0.967745, 329, 241, 360, 368
-0.968124, 89, 97, 152, 160
-0.968149, 337, 193, 464, 320
-0.968221, 345, 241, 376, 368
-0.96827, 121, 57, 184, 120
-0.968577, 177, 257, 304, 320
-0.968625, 49, 225, 176, 288
-0.96866, 81, 97, 144, 352
-0.968694, 25, 241, 88, 304
-0.968785, 337, 313, 464, 375
-0.969073, 201, 265, 264, 328
-0.969133, 49, 249, 112, 312
-0.969147, 129, 177, 160, 304
-0.969161, 305, 153, 368, 216
-0.9692, 361, 9, 392, 72
-0.969211, 89, 65, 152, 128
-0.96936, 385, 121, 448, 184
-0.969593, 277, 233, 308, 296
-0.969692, 169, 161, 232, 288
-0.969715, 257, 265, 288, 328
-0.96997, 245, 305, 276, 368
-0.970038, 57, 129, 120, 375
-0.970198, 189, 249, 220, 312
-0.970259, 433, 241, 496, 368
-0.970268, 137, 17, 200, 144
-0.970286, 161, 289, 288, 352
-0.97031, 41, 161, 104, 288
-0.970439, 361, 305, 392, 368
-0.970454, 257, 225, 384, 288
-0.97053, 433, 145, 496, 272
-0.970595, 33, 81, 160, 144
-0.97063, 417, 41, 480, 104
-0.970635, 93, 209, 124, 336
-0.970649, 81, 257, 144, 320
-0.97068, 65, 129, 128, 192
-0.97079, 65, 25, 192, 88
-0.970828, 321, 97, 384, 352
-0.970858, 9, 177, 40, 304
-0.970889, 129, 241, 256, 304
-0.970937, 333, 193, 364, 320
-0.971077, 25, 65, 88, 320
-0.971175, 113, 105, 176, 168
-0.97135, 185, 233, 248, 296
-0.971366, 321, 281, 448, 344
-0.971507, 277, 257, 308, 320
-0.971517, 317, 145, 348, 272
-0.971521, 113, 33, 176, 288
-0.971596, 197, 209, 228, 336
-0.971704, 329, 297, 360, 360
-0.971755, 385, 297, 416, 360
-0.971941, 121, 9, 184, 72
-0.971947, 145, 17, 272, 144
-0.971966, 137, 273, 200, 336
-0.972039, 1, 249, 64, 312
-0.972051, 173, 209, 204, 336
-0.972057, 105, 225, 136, 288
-0.972324, 289, 241, 320, 368
-0.972396, 209, 161, 272, 288
-0.972423, 377, 89, 440, 152
-0.972423, 9, 169, 40, 232
-0.972495, 21, 161, 52, 288
-0.972498, 385, 113, 448, 240
-0.972653, 433, 129, 496, 375
-0.972662, 337, 113, 464, 176
-0.972703, 305, 297, 336, 360
-0.972854, 277, 281, 308, 344
-0.972936, 69, 209, 100, 336
-0.973187, 417, 65, 480, 128
-0.973338, 121, 33, 184, 96
-0.973396, 137, 201, 200, 264
-0.973464, 321, 1, 384, 128
-0.97366, 17, 249, 144, 312
-0.97367, 317, 241, 348, 368
-0.973843, 129, 193, 160, 256
-0.973855, 161, 313, 288, 375
-0.973881, 117, 33, 148, 160
-0.974111, 233, 225, 264, 352
-0.974139, 429, 305, 460, 368
-0.974166, 25, 161, 88, 224
-0.974361, 417, 33, 480, 288
-0.974431, 213, 209, 244, 272
-0.974436, 129, 265, 256, 328
-0.974525, 69, 33, 100, 160
-0.974694, 261, 289, 292, 352
-0.974839, 337, 1, 400, 256
-0.974953, 341, 265, 372, 328
-0.975059, 433, 289, 496, 352
-0.975121, 185, 225, 216, 352
-0.975137, 1, 225, 128, 288
-0.975195, 185, 225, 216, 288
-0.975222, 161, 209, 224, 272
-0.975231, 161, 225, 192, 352
-0.975256, 89, 225, 120, 288
-0.975353, 81, 81, 112, 208
-0.975357, 113, 129, 176, 375
-0.97547, 141, 177, 172, 304
-0.975508, 113, 81, 240, 208
-0.975608, 329, 193, 392, 256
-0.975703, 81, 97, 208, 160
-0.975752, 301, 209, 332, 336
-0.975785, 321, 25, 384, 88
-0.975806, 49, 225, 80, 352
-0.975814, 213, 241, 244, 368
-0.97594, 369, 137, 496, 200
-0.976012, 393, 281, 456, 344
-0.976015, 137, 97, 200, 352
-0.976016, 161, 225, 192, 288
-0.976016, 369, 17, 432, 144
-0.976068, 277, 241, 308, 368
-0.976092, 97, 81, 128, 208
-0.976095, 261, 241, 292, 368
-0.976115, 117, 33, 148, 96
-0.976139, 81, 129, 112, 256
-0.976173, 145, 209, 272, 272
-0.976262, 17, 313, 144, 375
-0.976315, 289, 265, 320, 328
-0.976342, 249, 241, 280, 368
-0.976357, 129, 1, 384, 128
-0.976374, 9, 241, 40, 368
-0.976377, 309, 217, 340, 280
-0.976416, 325, 257, 356, 320
-0.976437, 317, 297, 348, 360
-0.976642, 329, 201, 360, 264
-0.976686, 129, 249, 192, 312
-0.976704, 273, 129, 336, 256
-0.976712, 257, 241, 288, 304
-0.976857, 117, 241, 148, 304
-0.976887, 29, 225, 60, 352
-0.976933, 401, 89, 464, 152
-0.976938, 57, 65, 88, 192
-0.977048, 89, 201, 152, 264
-0.977087, 345, 193, 408, 320
-0.977221, 29, 281, 60, 344
-0.977256, 81, 193, 208, 256
-0.977264, 121, 145, 184, 272
-0.977299, 93, 129, 124, 256
-0.977329, 185, 297, 216, 360
-0.977403, 369, 73, 496, 136
-0.977404, 369, 17, 432, 80
-0.97764, 305, 145, 432, 208
-0.977642, 321, 49, 384, 176
-0.977678, 317, 169, 348, 232
-0.9777, 33, 57, 160, 120
-0.977817, 113, 193, 144, 320
-0.977841, 281, 185, 344, 248
-0.977901, 193, 145, 320, 272
-0.977983, 117, 217, 148, 280
-0.978004, 9, 17, 72, 144
-0.978049, 65, 225, 96, 288
-0.978081, 105, 17, 136, 144
-0.978096, 65, 257, 192, 320
-0.9782, 209, 289, 240, 352
-0.9784, 121, 81, 152, 144
-0.978482, 293, 225, 324, 288
-0.978486, 97, 33, 160, 96
-0.978632, 365, 241, 396, 368
-0.978656, 93, 17, 124, 144
-0.978719, 329, 225, 360, 288
-0.978742, 1, 65, 64, 320
-0.978767, 353, 41, 416, 104
-0.978818, 97, 1, 160, 375
-0.978886, 353, 17, 480, 80
-0.97891, 445, 105, 476, 168
-0.979027, 41, 113, 104, 176
-0.979079, 293, 297, 324, 360
-0.97911, 81, 209, 112, 336
-0.979202, 313, 193, 344, 320
-0.979293, 313, 129, 376, 192
-0.979325, 329, 129, 360, 256
-0.979428, 349, 33, 380, 96
-0.979495, 145, 217, 176, 280
-0.979532, 385, 33, 448, 288
-0.979593, 173, 289, 204, 352
-0.97964, 469, 145, 500, 272
-0.979691, 145, 193, 176, 256
-0.979698, 197, 217, 228, 280
-0.979732, 25, 57, 88, 120
-0.979738, 1, 289, 128, 352
-0.979741, 57, 281, 88, 344
-0.979759, 33, 161, 64, 288
-0.979919, 361, 33, 392, 160
-0.979921, 425, 89, 488, 152
-0.979935, 309, 273, 340, 336
-0.979973, 77, 225, 108, 288
-0.980004, 105, 145, 136, 272
-0.980096, 369, 41, 496, 104
-0.980179, 209, 233, 240, 296
-0.980189, 245, 281, 276, 344
-0.980279, 129, 225, 160, 288
-0.980439, 41, 89, 104, 152
-0.980479, 345, 1, 408, 375
-0.980538, 393, 97, 424, 224
-0.980608, 1, 161, 64, 224
-0.980652, 65, 1, 192, 64
-0.980741, 161, 185, 224, 248
-0.980767, 9, 209, 40, 272
-0.980844, 81, 137, 112, 200
-0.980908, 365, 97, 396, 224
-0.98096, 1, 201, 128, 264
-0.980976, 65, 289, 192, 352
-0.980978, 401, 305, 432, 368
-0.981022, 341, 241, 372, 304
-0.98106, 349, 9, 380, 72
-0.981092, 433, 113, 496, 176
-0.981098, 49, 313, 80, 375
-0.981122, 33, 241, 64, 304
-0.981133, 341, 113, 372, 240
-0.981211, 177, 257, 208, 320
-0.981234, 121, 1, 184, 375
-0.981249, 69, 273, 100, 336
-0.981317, 445, 49, 476, 112
-0.981317, 13, 257, 44, 320
-0.981326, 97, 97, 128, 160
-0.981365, 113, 313, 240, 375
-0.98144, 257, 65, 384, 192
-0.981496, 129, 241, 160, 368
-0.981543, 373, 17, 404, 144
-0.981578, 57, 1, 120, 375
-0.981578, 33, 169, 64, 232
-0.981685, 353, 89, 416, 152
-0.981704, 445, 49, 476, 176
-0.98175, 369, 289, 496, 352
-0.981849, 257, 201, 384, 264
-0.981868, 321, 257, 448, 320
-0.981922, 301, 249, 332, 312
-0.981943, 153, 177, 184, 304
-0.98195, 233, 209, 296, 272
-0.98197, 417, 1, 480, 64
-0.981993, 61, 65, 92, 128
-0.982131, 329, 145, 360, 208
-0.982156, 321, 1, 384, 64
-0.982162, 361, 1, 424, 256
-0.982266, 61, 41, 92, 104
-0.982362, 61, 113, 92, 240
-0.982365, 149, 225, 180, 352
-0.982382, 137, 97, 200, 224
-0.982543, 237, 257, 268, 320
-0.982551, 17, 177, 144, 240
-0.982552, 137, 81, 200, 144
-0.98256, 117, 81, 148, 208
-0.982666, 289, 41, 416, 104
-0.98271, 49, 81, 80, 144
-0.98272, 217, 257, 248, 320
-0.982765, 209, 313, 240, 375
-0.982804, 345, 145, 408, 272
-0.98283, 369, 105, 400, 168
-0.982836, 41, 81, 72, 208
-0.982847, 153, 305, 184, 368
-0.9829, 289, 121, 416, 184
-0.982932, 209, 209, 336, 272
-0.982969, 273, 137, 336, 200
-0.983016, 457, 65, 488, 192
-0.983196, 445, 97, 476, 224
-0.983196, 229, 313, 260, 375
-0.983265, 281, 305, 312, 368
-0.983302, 137, 65, 168, 128
-0.983428, 45, 281, 76, 344
-0.983493, 49, 257, 80, 320
-0.983545, 465, 145, 496, 208
-0.983566, 349, 49, 380, 176
-0.983577, 25, 209, 88, 272
-0.983602, 277, 193, 308, 320
-0.983615, 273, 129, 336, 375
-0.983623, 401, 241, 464, 368
-0.983656, 313, 193, 344, 256
-0.98374, 141, 17, 172, 144
-0.983783, 165, 265, 196, 328
-0.983787, 89, 17, 120, 80
-0.983809, 433, 225, 496, 288
-0.983868, 81, 17, 112, 144
-0.983871, 385, 65, 448, 128
-0.98388, 49, 201, 112, 264
-0.983891, 129, 49, 160, 176
-0.983958, 465, 1, 496, 128
-0.983988, 353, 97, 384, 224
-0.983999, 105, 25, 136, 88
-0.984014, 449, 129, 480, 192
-0.98404, 73, 25, 104, 88
-0.984069, 101, 121, 132, 184
-0.984088, 49, 25, 112, 88
-0.984099, 173, 209, 204, 272
-0.98418, 345, 225, 408, 288
-0.984225, 113, 73, 240, 136
-0.984243, 65, 289, 128, 352
-0.98429, 233, 225, 264, 288
-0.984295, 425, 1, 488, 375
-0.984325, 17, 81, 48, 208
-0.984352, 77, 89, 108, 152
-0.984419, 409, 137, 472, 200
-0.98445, 89, 121, 152, 184
-0.984471, 417, 97, 448, 224
-0.984472, 113, 17, 240, 80
-0.984495, 33, 1, 96, 375
-0.984583, 129, 249, 160, 312
-0.984666, 129, 185, 256, 248
-0.984718, 369, 1, 432, 375
-0.984799, 409, 121, 440, 184
-0.984838, 261, 313, 292, 375
-0.984849, 349, 113, 380, 176
-0.984865, 329, 49, 392, 112
-0.984872, 313, 249, 344, 312
-0.98491, 449, 313, 480, 375
-0.984974, 245, 193, 276, 320
-0.984993, 61, 161, 92, 288
-0.984996, 1, 81, 32, 208
-0.98501, 1, 257, 32, 320
-0.985025, 353, 257, 384, 320
-0.985213, 373, 313, 404, 375
-0.985422, 17, 25, 144, 88
-0.985426, 113, 289, 240, 352
-0.985438, 425, 105, 456, 168
-0.985444, 393, 1, 456, 375
-0.985445, 313, 1, 376, 256
-0.985459, 369, 129, 432, 375
-0.98546, 341, 185, 372, 248
-0.985482, 165, 313, 196, 375
-0.985536, 89, 249, 120, 312
-0.985573, 337, 233, 464, 296
-0.985597, 385, 241, 416, 368
-0.985661, 25, 193, 56, 256
-0.985685, 457, 129, 488, 256
-0.98573, 17, 129, 144, 192
-0.985733, 113, 273, 176, 336
-0.985788, 21, 169, 52, 232
-0.985835, 297, 65, 360, 192
-0.985856, 65, 313, 192, 375
-0.985875, 289, 17, 416, 80
-0.98588, 69, 313, 100, 375
-0.985915, 337, 137, 400, 200
-0.986063, 69, 249, 100, 312
-0.986071, 385, 161, 448, 224
-0.986073, 289, 193, 320, 320
-0.986081, 193, 289, 448, 352
-0.9861, 377, 97, 408, 224
-0.98612, 265, 193, 296, 320
-0.98618, 197, 313, 228, 375
-0.986214, 197, 273, 228, 336
-0.986236, 117, 57, 148, 120
-0.986248, 373, 265, 404, 328
-0.986322, 161, 17, 224, 144
-0.986343, 141, 97, 172, 224
-0.986362, 49, 233, 80, 296
-0.986398, 469, 169, 500, 232
-0.986409, 209, 201, 272, 264
-0.986429, 433, 65, 464, 192
-0.98645, 149, 273, 180, 336
-0.986495, 161, 201, 192, 264
-0.986521, 209, 97, 336, 224
-0.986541, 137, 177, 200, 240
-0.986872, 457, 89, 488, 152
-0.986889, 385, 161, 448, 288
-0.986944, 433, 161, 496, 224
-0.986949, 345, 193, 376, 320
-0.987015, 225, 129, 288, 375
-0.987038, 21, 313, 52, 375
-0.987055, 49, 57, 80, 120
-0.987057, 1, 233, 256, 296
-0.98708, 349, 1, 380, 128
-0.987086, 161, 129, 224, 375
-0.987112, 409, 49, 440, 176
-0.98712, 45, 161, 76, 288
-0.987172, 1, 97, 32, 160
-0.987175, 389, 113, 420, 176
-0.987177, 193, 129, 256, 375
-0.987299, 33, 105, 160, 168
-0.987315, 385, 49, 416, 176
-0.987386, 445, 73, 476, 136
-0.987403, 289, 177, 416, 240
-0.987456, 181, 161, 212, 288
-0.987544, 461, 25, 492, 88
-0.987618, 297, 105, 360, 168
-0.987622, 113, 49, 240, 112
-0.987633, 313, 329, 376, 360
-0.987703, 225, 177, 256, 304
-0.987716, 353, 309, 416, 340
-0.987735, 329, 317, 392, 348
-0.987736, 89, 281, 152, 344
-0.98774, 57, 17, 88, 144
-0.987773, 137, 1, 200, 256
-0.987814, 61, 121, 92, 184
-0.987826, 133, 89, 164, 152
-0.987829, 1, 289, 32, 352
-0.987878, 393, 17, 456, 144
-0.987882, 369, 161, 496, 224
-0.98795, 409, 145, 472, 272
-0.988002, 81, 121, 208, 184
-0.988004, 97, 1, 160, 64
-0.988022, 193, 161, 224, 288
-0.988033, 321, 1, 384, 375
-0.988112, 81, 177, 144, 240
-0.988127, 29, 81, 60, 208
-0.988134, 401, 129, 464, 375
-0.98814, 145, 57, 208, 120
-0.988147, 161, 257, 416, 320
-0.988165, 329, 285, 392, 316
-0.988286, 153, 25, 216, 88
-0.988352, 145, 1, 208, 375
-0.988382, 345, 161, 408, 224
-0.988388, 405, 97, 436, 224
-0.988409, 169, 221, 232, 252
-0.988433, 129, 229, 192, 260
-0.98853, 433, 201, 496, 264
-0.988536, 217, 313, 280, 344
-0.988555, 129, 217, 384, 280
-0.988569, 301, 161, 332, 288
-0.988605, 297, 221, 360, 252
-0.988629, 217, 297, 280, 328
-0.988643, 305, 201, 432, 264
-0.988659, 305, 209, 368, 240
-0.98866, 453, 1, 484, 128
-0.988671, 225, 129, 352, 192
-0.988801, 433, 265, 496, 328
-0.988802, 5, 129, 36, 256
-0.988892, 469, 209, 500, 336
-0.988904, 289, 301, 352, 332
-0.988907, 225, 269, 288, 300
-0.988925, 241, 317, 304, 348
-0.988938, 209, 185, 336, 248
-0.989037, 73, 229, 136, 260
-0.989043, 1, 225, 500, 288
-0.989059, 289, 289, 352, 320
-0.989083, 1, 1, 64, 375
-0.98909, 33, 273, 288, 336
-0.989095, 249, 129, 312, 375
-0.989145, 433, 193, 496, 320
-0.989149, 281, 329, 344, 360
-0.989204, 185, 237, 248, 268
-0.98921, 249, 285, 312, 316
-0.989219, 249, 301, 312, 332
-0.989226, 169, 265, 232, 296
-0.989287, 265, 273, 328, 304
-0.989287, 185, 317, 248, 348
-0.989291, 121, 217, 184, 248
-0.98935, 105, 261, 168, 292
-0.98936, 113, 105, 176, 136
-0.989424, 369, 321, 432, 352
-0.989434, 289, 97, 416, 160
-0.989459, 81, 29, 144, 60
-0.989478, 249, 257, 312, 288
-0.989484, 33, 237, 96, 268
-0.989491, 361, 297, 424, 328
-0.989491, 161, 253, 224, 284
-0.989504, 401, 305, 464, 336
-0.989522, 337, 329, 400, 360
-0.989533, 137, 241, 200, 272
-0.989557, 313, 269, 376, 300
-0.989641, 361, 137, 424, 200
-0.989643, 49, 281, 112, 312
-0.989643, 297, 317, 360, 348
-0.989716, 161, 313, 416, 375
-0.989726, 305, 197, 368, 228
-0.989733, 17, 153, 144, 216
-0.989757, 345, 113, 408, 144
-0.989761, 65, 313, 128, 375
-0.989772, 337, 17, 400, 48
-0.989785, 185, 329, 248, 360
-0.989797, 105, 313, 168, 375
-0.989837, 257, 153, 384, 216
-0.989845, 185, 285, 248, 316
-0.989848, 137, 105, 200, 168
-0.989873, 17, 89, 80, 120
-0.989874, 217, 325, 280, 356
-0.989905, 297, 241, 360, 272
-0.989913, 1, 273, 500, 336
-0.98993, 113, 93, 176, 124
-0.989967, 257, 313, 500, 375
-0.989976, 337, 297, 400, 328
-0.989987, 121, 197, 184, 228
-0.989987, 25, 169, 88, 200
-0.990009, 185, 253, 248, 284
-0.990023, 297, 253, 360, 284
-0.990024, 313, 297, 376, 328
-0.990029, 273, 225, 336, 256
-0.990062, 121, 81, 184, 112
-0.99009, 249, 145, 312, 272
-0.990095, 1, 305, 256, 368
-0.9901, 41, 297, 104, 328
-0.990105, 345, 125, 408, 156
-0.990109, 273, 33, 336, 288
-0.990117, 377, 309, 440, 340
-0.990133, 9, 289, 72, 320
-0.990143, 81, 97, 144, 128
-0.990166, 165, 161, 196, 288
-0.990167, 281, 341, 344, 372
-0.990176, 257, 241, 320, 272
-0.99019, 345, 29, 408, 60
-0.990198, 49, 81, 112, 112
-0.990215, 89, 85, 152, 116
-0.990221, 121, 25, 184, 56
-0.990233, 137, 317, 200, 348
-0.990237, 225, 281, 288, 312
-0.990259, 41, 317, 104, 348
-0.990275, 65, 109, 128, 140
-0.990283, 153, 305, 216, 336
-0.990351, 321, 233, 384, 264
-0.990353, 225, 229, 288, 260
-0.990367, 425, 141, 488, 172
-0.990369, 193, 213, 256, 244
-0.990388, 241, 333, 304, 364
-0.990388, 225, 253, 288, 284
-0.990393, 57, 97, 120, 128
-0.990425, 433, 333, 496, 364
-0.990434, 145, 337, 208, 368
-0.990478, 305, 185, 368, 216
-0.990496, 321, 341, 384, 372
-0.990503, 137, 253, 200, 284
-0.990525, 201, 265, 264, 296
-0.990527, 161, 317, 224, 348
-0.990556, 81, 253, 144, 284
-0.990568, 1, 297, 500, 360
-0.990604, 121, 41, 184, 72
-0.990629, 49, 225, 112, 256
-0.99064, 409, 113, 472, 144
-0.990649, 41, 269, 104, 300
-0.990651, 409, 241, 440, 368
-0.990671, 273, 253, 336, 284
-0.990679, 193, 305, 256, 336
-0.990687, 289, 265, 352, 296
-0.990708, 97, 221, 160, 252
-0.990714, 1, 329, 64, 360
-0.990743, 81, 241, 144, 272
-0.990753, 81, 269, 144, 300
-0.990757, 241, 105, 368, 168
-0.990763, 417, 73, 480, 104
-0.990805, 301, 113, 332, 240
-0.990806, 1, 177, 64, 208
-0.990809, 321, 221, 384, 252
-0.99081, 121, 69, 184, 100
-0.990812, 161, 241, 224, 272
-0.990818, 73, 1, 136, 64
-0.990851, 353, 249, 416, 312
-0.990867, 153, 1, 216, 64
-0.990892, 321, 37, 384, 68
-0.99094, 201, 341, 264, 372
-0.99095, 1, 269, 64, 300
-0.990962, 401, 317, 464, 348
-0.990963, 353, 5, 416, 36
-0.991012, 9, 213, 72, 244
-0.991038, 425, 345, 488, 375
-0.991039, 17, 253, 80, 284
-0.991046, 433, 313, 496, 344
-0.991053, 41, 249, 104, 280
-0.991061, 57, 161, 120, 192
-0.99107, 377, 113, 440, 144
-0.991101, 409, 125, 472, 156
-0.991115, 417, 49, 480, 80
-0.991121, 129, 97, 160, 224
-0.991127, 145, 273, 208, 304
-0.991165, 337, 273, 400, 304
-0.991196, 369, 265, 496, 328
-0.991238, 377, 101, 440, 132
-0.99124, 1, 249, 500, 312
-0.991244, 241, 345, 304, 375
-0.991284, 129, 53, 192, 84
-0.991284, 273, 81, 336, 208
-0.991286, 329, 5, 392, 36
-0.991286, 417, 61, 480, 92
-0.991288, 1, 345, 64, 375
-0.991291, 429, 241, 460, 368
-0.991295, 73, 121, 136, 152
-0.991299, 313, 161, 376, 192
-0.991309, 57, 65, 120, 96
-0.991319, 273, 317, 336, 348
-0.991348, 313, 25, 376, 56
-0.99136, 89, 73, 152, 104
-0.99136, 1, 189, 64, 220
-0.991407, 289, 289, 416, 320
-0.991422, 241, 25, 368, 88
-0.991435, 241, 333, 368, 364
-0.991616, 49, 229, 176, 260
-0.991625, 1, 201, 500, 264
-0.991762, 273, 65, 400, 128
-0.991809, 1, 209, 256, 272
-0.991835, 329, 321, 360, 352
-0.991852, 1, 97, 500, 160
-0.991875, 373, 305, 404, 336
-0.992017, 157, 229, 188, 260
-0.992028, 349, 325, 380, 356
-0.992047, 329, 333, 360, 364
-0.99205, 365, 317, 396, 348
-0.992069, 317, 329, 348, 360
-0.9921, 385, 301, 416, 332
-0.992124, 349, 313, 380, 344
-0.992158, 169, 241, 200, 272
-0.992203, 129, 97, 256, 160
-0.992212, 241, 305, 368, 336
-0.992233, 277, 257, 308, 288
-0.992238, 397, 49, 428, 176
-0.992246, 373, 293, 404, 324
-0.992284, 409, 145, 440, 272
-0.992287, 181, 253, 212, 284
-0.992296, 309, 289, 340, 320
-0.992306, 361, 285, 392, 316
-0.992328, 357, 5, 388, 36
-0.992333, 245, 325, 276, 356
-0.992348, 265, 273, 296, 304
-0.992349, 253, 261, 284, 292
-0.992381, 169, 225, 200, 256
-0.992393, 257, 265, 500, 328
-0.992407, 353, 309, 480, 340
-0.992411, 289, 301, 416, 332
-0.992415, 189, 317, 220, 348
-0.992446, 229, 297, 260, 328
-0.992452, 1, 89, 256, 152
-0.992456, 337, 297, 368, 328
-0.992465, 361, 305, 392, 336
-0.992476, 361, 17, 392, 48
-0.992485, 277, 293, 308, 324
-0.992488, 213, 213, 244, 244
-0.992493, 421, 49, 452, 176
-0.992495, 257, 285, 288, 316
-0.992496, 245, 313, 276, 344
-0.992506, 337, 309, 368, 340
-0.992508, 353, 37, 384, 68
-0.99254, 205, 145, 236, 272
-0.992541, 45, 161, 76, 192
-0.992544, 13, 177, 44, 208
-0.992572, 397, 305, 428, 336
-0.992579, 229, 325, 260, 356
-0.992584, 293, 305, 324, 336
-0.992588, 65, 229, 96, 260
-0.992614, 265, 245, 296, 276
-0.992618, 209, 317, 240, 348
-0.992618, 97, 245, 224, 276
-0.992623, 369, 113, 400, 144
-0.992629, 33, 169, 64, 200
-0.992632, 129, 197, 160, 228
-0.992637, 65, 29, 192, 60
-0.992637, 281, 233, 312, 264
-0.992645, 185, 241, 216, 272
-0.992649, 193, 253, 224, 284
-0.992656, 325, 285, 356, 316
-0.992657, 297, 285, 328, 316
-0.992663, 341, 269, 372, 300
-0.992668, 121, 249, 152, 280
-0.992669, 329, 225, 360, 256
-0.992676, 333, 253, 364, 284
-0.992678, 349, 281, 380, 312
-0.992683, 309, 221, 340, 252
-0.992686, 97, 229, 128, 260
-0.992689, 249, 301, 280, 332
-0.992691, 273, 321, 400, 352
-0.9927, 281, 281, 312, 312
-0.992704, 49, 233, 80, 264
-0.992706, 265, 261, 296, 292
-0.992717, 117, 221, 148, 252
-0.992718, 329, 237, 360, 268
-0.992723, 385, 313, 416, 344
-0.992728, 189, 265, 220, 296
-0.992731, 449, 133, 480, 164
-0.992741, 229, 313, 260, 344
-0.992761, 257, 313, 288, 344
-0.992762, 293, 225, 324, 256
-0.992767, 269, 305, 300, 336
-0.992768, 29, 197, 60, 228
-0.992768, 325, 301, 356, 332
-0.992772, 329, 269, 360, 300
-0.992773, 269, 233, 300, 264
-0.992773, 117, 93, 148, 124
-0.992774, 401, 317, 432, 348
-0.992776, 209, 153, 336, 216
-0.992785, 217, 225, 248, 256
-0.992797, 281, 321, 312, 352
-0.992804, 245, 337, 276, 368
-0.992811, 145, 221, 176, 252
-0.992817, 113, 237, 144, 268
-0.992824, 293, 273, 324, 304
-0.992824, 185, 329, 216, 360
-0.992829, 329, 213, 360, 244
-0.992831, 61, 69, 92, 100
-0.992833, 85, 229, 116, 260
-0.992835, 17, 345, 48, 375
-0.992839, 25, 329, 56, 360
-0.992843, 49, 313, 80, 344
-0.992848, 309, 341, 340, 372
-0.992849, 101, 97, 132, 128
-0.992855, 317, 317, 348, 348
-0.992855, 89, 257, 120, 288
-0.992856, 133, 81, 164, 112
-0.992856, 37, 241, 68, 272
-0.992856, 345, 49, 376, 80
-0.992856, 317, 209, 348, 240
-0.992857, 253, 273, 284, 304
-0.992859, 165, 305, 196, 336
-0.992859, 157, 317, 188, 348
-0.992861, 25, 253, 56, 284
-0.992861, 61, 81, 92, 112
-0.992866, 305, 317, 336, 348
-0.992871, 13, 329, 44, 360
-0.992873, 257, 121, 500, 184
-0.992873, 177, 293, 208, 324
-0.992875, 177, 301, 304, 332
-0.992878, 349, 17, 380, 48
-0.99288, 177, 313, 208, 344
-0.992881, 33, 289, 64, 320
-0.992883, 201, 237, 232, 268
-0.992889, 377, 289, 392, 352
-0.992895, 313, 301, 344, 332
-0.992899, 349, 293, 380, 324
-0.992907, 181, 225, 212, 256
-0.992909, 89, 165, 120, 196
-0.992911, 357, 113, 388, 144
-0.992911, 253, 249, 284, 280
-0.992912, 209, 305, 240, 336
-0.992914, 9, 213, 40, 244
-0.992915, 1, 177, 32, 208
-0.992924, 337, 285, 368, 316
-0.992932, 337, 193, 368, 224
-0.992937, 41, 89, 72, 120
-0.992938, 277, 245, 308, 276
-0.99294, 213, 329, 244, 360
-0.992946, 229, 337, 260, 368
-0.99295, 57, 269, 88, 300
-0.992951, 1, 333, 32, 364
-0.992952, 205, 261, 236, 292
-0.992956, 429, 305, 460, 336
-0.992957, 213, 237, 244, 268
-0.992958, 289, 333, 320, 364
-0.992962, 133, 257, 164, 288
-0.992963, 89, 25, 120, 56
-0.992963, 69, 277, 100, 308
-0.992967, 177, 317, 304, 348
-0.992982, 129, 193, 384, 256
-0.992997, 241, 285, 368, 316
-0.993029, 117, 129, 148, 256
-0.993047, 193, 253, 320, 284
-0.993097, 321, 321, 448, 352
-0.993171, 241, 1, 368, 64
-0.993179, 117, 241, 148, 368
-0.99324, 1, 1, 128, 64
-0.99325, 161, 229, 288, 260
-0.993276, 153, 49, 184, 176
-0.993305, 337, 49, 368, 176
-0.993363, 177, 265, 304, 296
-0.993368, 387, 297, 402, 360
-0.993378, 225, 233, 480, 296
-0.993389, 359, 305, 374, 368
-0.993396, 251, 305, 266, 368
-0.993507, 363, 281, 378, 344
-0.993559, 33, 25, 288, 88
-0.993561, 257, 209, 500, 272
-0.993578, 257, 273, 384, 304
-0.993675, 183, 233, 198, 296
-0.993691, 257, 245, 384, 276
-0.993705, 33, 85, 160, 116
-0.993717, 49, 97, 176, 128
-0.993717, 1, 73, 500, 136
-0.993741, 433, 113, 464, 240
-0.993757, 175, 217, 190, 280
-0.993771, 277, 257, 292, 320
-0.993772, 279, 233, 294, 296
-0.993776, 321, 333, 448, 364
-0.993827, 351, 297, 366, 360
-0.993854, 371, 297, 386, 360
-0.993862, 161, 65, 224, 192
-0.993863, 369, 137, 496, 168
-0.993873, 363, 1, 378, 64
-0.993875, 97, 221, 224, 252
-0.993885, 97, 233, 224, 264
-0.993952, 191, 241, 206, 304
-0.993981, 193, 33, 320, 160
-0.993999, 273, 1, 336, 375
-0.994004, 331, 305, 346, 368
-0.994005, 253, 273, 268, 336
-0.994039, 257, 25, 500, 88
-0.99405, 303, 297, 318, 360
-0.994069, 145, 217, 272, 248
-0.99407, 257, 233, 384, 264
-0.994076, 225, 321, 352, 352
-0.994103, 271, 265, 286, 328
-0.994109, 257, 297, 272, 360
-0.994127, 241, 257, 368, 288
-0.994143, 337, 121, 464, 152
-0.994186, 129, 261, 256, 292
-0.99423, 17, 241, 144, 272
-0.994237, 177, 289, 304, 320
-0.99424, 457, 105, 472, 168
-0.994244, 209, 229, 336, 260
-0.994325, 129, 301, 256, 332
-0.994334, 231, 289, 246, 352
-0.994378, 161, 337, 288, 368
-0.994392, 265, 273, 280, 336
-0.994417, 1, 97, 128, 128
-0.994419, 337, 297, 352, 360
-0.994423, 321, 141, 448, 172
-0.994428, 177, 241, 304, 272
-0.994431, 119, 225, 134, 288
-0.994441, 65, 161, 192, 224
-0.994461, 271, 233, 286, 296
-0.994486, 127, 233, 142, 296
-0.994492, 45, 17, 76, 144
-0.994496, 369, 321, 496, 352
-0.9945, 209, 1, 272, 375
-0.994503, 199, 249, 214, 312
-0.99454, 345, 297, 360, 360
-0.994592, 365, 305, 380, 368
-0.994595, 23, 177, 38, 240
-0.994597, 91, 225, 106, 288
-0.994607, 393, 297, 408, 360
-0.994621, 105, 225, 120, 288
-0.994631, 1, 177, 500, 240
-0.994666, 1, 257, 128, 288
-0.994672, 341, 185, 356, 248
-0.99469, 241, 289, 256, 352
-0.99471, 321, 65, 448, 128
-0.99471, 257, 145, 500, 208
-0.994715, 297, 305, 312, 368
-0.994721, 323, 281, 338, 344
-0.994729, 11, 169, 26, 232
-0.99473, 355, 9, 370, 72
-0.994731, 69, 41, 84, 104
-0.994762, 131, 41, 146, 104
-0.994766, 369, 1, 384, 64
-0.994809, 167, 209, 182, 272
-0.994811, 289, 233, 304, 296
-0.994822, 209, 49, 336, 112
-0.994823, 393, 161, 424, 288
-0.994846, 129, 161, 256, 224
-0.994887, 441, 1, 472, 128
-0.994912, 257, 221, 384, 252
-0.994922, 99, 225, 114, 288
-0.994923, 169, 297, 184, 360
-0.994924, 369, 21, 496, 52
-0.994932, 289, 273, 304, 336
-0.994956, 97, 273, 224, 304
-0.994957, 165, 17, 196, 144
-0.994982, 325, 305, 340, 368
-0.994992, 81, 261, 208, 292
-0.994998, 77, 225, 92, 288
-0.995016, 129, 325, 256, 356
-0.995039, 189, 217, 204, 280
-0.995045, 129, 1, 384, 64
-0.995045, 65, 41, 192, 72
-0.995055, 113, 233, 128, 296
-0.995069, 377, 313, 392, 375
-0.995119, 161, 129, 416, 192
-0.99513, 305, 153, 432, 184
-0.995152, 397, 241, 428, 368
-0.995182, 259, 249, 274, 312
-0.995197, 283, 257, 298, 320
-0.995201, 421, 145, 452, 272
-0.99523, 49, 109, 176, 140
-0.995238, 241, 345, 368, 375
-0.995243, 485, 185, 500, 248
-0.995248, 295, 265, 310, 328
-0.995249, 299, 225, 314, 288
-0.995261, 319, 305, 334, 368
-0.995268, 219, 209, 234, 272
-0.995283, 305, 225, 320, 288
-0.995285, 129, 169, 384, 232
-0.995304, 203, 313, 218, 375
-0.995306, 129, 313, 256, 344
-0.995307, 353, 109, 480, 140
-0.995319, 353, 37, 480, 68
-0.995334, 1, 49, 256, 112
-0.995344, 33, 241, 48, 304
-0.995356, 311, 217, 326, 280
-0.995357, 161, 1, 224, 256
-0.995364, 355, 265, 370, 328
-0.995379, 209, 233, 224, 296
-0.995381, 341, 249, 356, 312
-0.995384, 175, 249, 190, 312
-0.995393, 361, 25, 376, 88
-0.995399, 33, 1, 288, 64
-0.995404, 257, 185, 500, 248
-0.995404, 83, 225, 98, 288
-0.995415, 17, 169, 144, 200
-0.995436, 1, 289, 128, 320
-0.995447, 355, 33, 370, 96
-0.995454, 333, 257, 348, 320
-0.995459, 309, 297, 324, 360
-0.995461, 401, 297, 416, 360
-0.995461, 257, 49, 500, 112
-0.995506, 331, 225, 346, 288
-0.995517, 331, 281, 346, 344
-0.995519, 209, 217, 336, 248
-0.995528, 369, 149, 496, 180
-0.995531, 317, 97, 348, 224
-0.995532, 337, 293, 464, 324
-0.995557, 137, 193, 152, 256
-0.995557, 1, 129, 500, 192
-0.995566, 159, 193, 174, 256
-0.995574, 199, 217, 214, 280
-0.995575, 369, 73, 496, 104
-0.995576, 369, 5, 496, 36
-0.995577, 315, 265, 330, 328
-0.995597, 65, 301, 192, 332
-0.995625, 63, 57, 78, 120
-0.995628, 1, 229, 128, 260
-0.99563, 451, 105, 466, 168
-0.995635, 131, 193, 146, 256
-0.995641, 339, 273, 354, 336
-0.995646, 153, 193, 168, 256
-0.995654, 485, 209, 500, 272
-0.995654, 73, 129, 104, 375
-0.995659, 1, 185, 256, 248
-0.995663, 459, 49, 474, 112
-0.995667, 1, 25, 500, 88
-0.995685, 29, 177, 44, 240
-0.995691, 17, 313, 144, 344
-0.995693, 183, 257, 198, 320
-0.9957, 65, 281, 80, 344
-0.995702, 97, 209, 224, 240
-0.995703, 17, 177, 32, 240
-0.995704, 369, 93, 496, 124
-0.995717, 369, 49, 496, 80
-0.995719, 143, 225, 158, 288
-0.995719, 479, 153, 494, 216
-0.995736, 71, 225, 86, 288
-0.995749, 357, 193, 388, 320
-0.995751, 67, 81, 82, 144
-0.995768, 181, 209, 196, 272
-0.995771, 133, 241, 148, 304
-0.995779, 327, 257, 342, 320
-0.99578, 73, 1, 104, 256
-0.995811, 169, 273, 184, 336
-0.995818, 41, 281, 56, 344
-0.995818, 377, 9, 392, 72
-0.995825, 167, 241, 182, 304
-0.995828, 33, 73, 160, 104
-0.99583, 269, 297, 284, 360
-0.995832, 265, 249, 280, 312
-0.995838, 119, 25, 134, 88
-0.995842, 83, 273, 98, 336
-0.995842, 291, 305, 306, 368
-0.995851, 161, 129, 288, 192
-0.995853, 369, 273, 384, 336
-0.995859, 61, 1, 92, 256
-0.995862, 263, 313, 278, 375
-0.99587, 33, 53, 160, 84
-0.995876, 169, 1, 232, 375
-0.995888, 97, 1, 128, 256
-0.995894, 229, 265, 244, 328
-0.995898, 193, 277, 320, 308
-0.995904, 301, 265, 316, 328
-0.995904, 49, 217, 176, 248
-0.995908, 197, 313, 212, 375
-0.995927, 349, 97, 380, 352
-0.995947, 37, 169, 52, 232
-0.995955, 25, 209, 40, 272
-0.99596, 257, 81, 500, 144
-0.995962, 463, 97, 478, 160
-0.995964, 347, 257, 362, 320
-0.995969, 111, 97, 126, 160
-0.995974, 147, 193, 162, 256
-0.995994, 93, 137, 108, 200
-0.995995, 339, 209, 354, 272
-0.996001, 485, 257, 500, 320
-0.996002, 17, 277, 144, 308
-0.996024, 275, 289, 290, 352
-0.996025, 135, 73, 150, 136
-0.996028, 65, 17, 192, 48
-0.996039, 219, 281, 234, 344
-0.996044, 289, 145, 320, 272
-0.996044, 325, 225, 340, 288
-0.996045, 1, 213, 128, 244
-0.996046, 55, 73, 70, 136
-0.996054, 247, 265, 262, 328
-0.996061, 361, 1, 392, 256
-0.996062, 97, 97, 224, 128
-0.996067, 289, 125, 416, 156
-0.996072, 289, 261, 416, 292
-0.996087, 125, 209, 140, 272
-0.996089, 205, 257, 220, 320
-0.996095, 425, 305, 440, 368
-0.996097, 41, 65, 72, 320
-0.996101, 465, 17, 480, 80
-0.996103, 177, 281, 192, 344
-0.996104, 141, 97, 172, 352
-0.996131, 217, 129, 248, 256
-0.996136, 145, 277, 272, 308
-0.996141, 1, 301, 128, 332
-0.996153, 129, 1, 160, 128
-0.996159, 305, 165, 432, 196
-0.996177, 117, 1, 148, 256
-0.996192, 321, 129, 352, 375
-0.996211, 233, 1, 296, 375
-0.996224, 17, 189, 144, 220
-0.996234, 97, 89, 352, 152
-0.996268, 369, 333, 496, 364
-0.996316, 17, 201, 144, 232
-0.996341, 33, 113, 288, 176
-0.996374, 85, 97, 116, 352
-0.996378, 1, 153, 500, 216
-0.99638, 469, 129, 500, 375
-0.996384, 1, 161, 256, 224
-0.996387, 81, 289, 208, 320
-0.996392, 241, 1, 368, 128
-0.996426, 113, 25, 240, 56
-0.996438, 321, 277, 448, 308
-0.996452, 85, 1, 116, 256
-0.996454, 169, 225, 184, 256
-0.996457, 381, 145, 412, 272
-0.996468, 49, 121, 176, 152
-0.996476, 449, 33, 480, 288
-0.996488, 161, 9, 288, 72
-0.996512, 81, 85, 208, 116
-0.996516, 331, 321, 346, 352
-0.996578, 177, 233, 192, 264
-0.99662, 65, 313, 192, 344
-0.996626, 113, 197, 240, 228
-0.996631, 97, 109, 224, 140
-0.996648, 321, 21, 448, 52
-0.996652, 341, 325, 356, 356
-0.996661, 97, 341, 224, 372
-0.996686, 113, 37, 240, 68
-0.996699, 369, 161, 496, 192
-0.996716, 195, 249, 210, 280
-0.996719, 377, 305, 392, 336
-0.996725, 449, 241, 480, 368
-0.996729, 257, 1, 500, 64
-0.99673, 9, 65, 40, 320
-0.996737, 369, 317, 384, 348
-0.996737, 351, 325, 366, 356
-0.996741, 333, 129, 364, 375
-0.996742, 369, 61, 496, 92
-0.996746, 129, 65, 160, 320
-0.996755, 273, 41, 400, 72
-0.996765, 461, 1, 492, 256
-0.996766, 361, 97, 392, 352
-0.996773, 387, 301, 402, 332
-0.996783, 33, 345, 160, 375
-0.996812, 379, 293, 394, 324
-0.996818, 17, 29, 144, 60
-0.996823, 349, 1, 380, 256
-0.99683, 161, 33, 288, 96
-0.996842, 393, 305, 408, 336
-0.996842, 129, 289, 256, 320
-0.996871, 297, 1, 360, 375
-0.996879, 185, 241, 200, 272
-0.996879, 309, 129, 340, 375
-0.996886, 289, 5, 416, 36
-0.996887, 241, 141, 368, 172
-0.99689, 29, 65, 60, 320
-0.99692, 361, 309, 376, 340
-0.996922, 359, 321, 374, 352
-0.996935, 325, 337, 340, 368
-0.996944, 369, 1, 384, 32
-0.996985, 205, 317, 220, 348
-0.996992, 289, 177, 416, 208
-0.996996, 305, 237, 432, 268
-0.996999, 333, 333, 348, 364
-0.997002, 177, 113, 240, 240
-0.997005, 289, 209, 416, 240
-0.997017, 257, 197, 384, 228
-0.997025, 383, 313, 398, 344
-0.997042, 61, 129, 92, 375
-0.997046, 47, 161, 62, 192
-0.997056, 357, 37, 372, 68
-0.997066, 65, 197, 192, 228
-0.997117, 209, 205, 336, 236
-0.997118, 65, 5, 192, 36
-0.997126, 277, 257, 292, 288
-0.997146, 343, 313, 358, 344
-0.99716, 97, 121, 224, 152
-0.997162, 225, 161, 352, 192
-0.997163, 33, 33, 64, 160
-0.997183, 271, 269, 286, 300
-0.997186, 185, 253, 200, 284
-0.997188, 153, 97, 184, 352
-0.997188, 289, 345, 416, 375
-0.997201, 399, 305, 414, 336
-0.997209, 305, 249, 432, 280
-0.997212, 97, 49, 352, 112
-0.997225, 373, 1, 404, 256
-0.997234, 57, 161, 72, 192
-0.997237, 349, 313, 364, 344
-0.997238, 385, 1, 416, 128
-0.99724, 129, 25, 384, 88
-0.997242, 5, 33, 36, 160
-0.997251, 371, 305, 386, 336
-0.997272, 221, 221, 236, 252
-0.997287, 323, 325, 338, 356
-0.997289, 311, 285, 326, 316
-0.997313, 129, 13, 256, 44
-0.997318, 289, 57, 416, 88
-0.997322, 373, 97, 404, 352
-0.997323, 113, 49, 240, 80
-0.997326, 31, 177, 46, 208
-0.997336, 305, 221, 432, 252
-0.997349, 175, 221, 190, 252
-0.997359, 129, 1, 256, 32
-0.997365, 145, 89, 272, 120
-0.997369, 393, 33, 424, 288
-0.997388, 375, 321, 390, 352
-0.997397, 409, 33, 440, 288
-0.99741, 81, 325, 208, 356
-0.997436, 219, 209, 234, 240
-0.997436, 1, 329, 128, 360
-0.997438, 255, 297, 270, 328
-0.99745, 163, 221, 178, 252
-0.997452, 295, 233, 310, 264
-0.997456, 113, 65, 240, 96
-0.997462, 129, 241, 144, 272
-0.997464, 1, 121, 128, 152
-0.997476, 9, 177, 24, 208
-0.997494, 201, 253, 216, 284
-0.997494, 353, 185, 480, 248
-0.997495, 325, 285, 340, 316
-0.997503, 317, 285, 332, 316
-0.997503, 109, 97, 140, 352
-0.997524, 273, 21, 400, 52
-0.997525, 251, 313, 266, 344
-0.997526, 373, 289, 388, 320
-0.997546, 363, 13, 378, 44
-0.997557, 265, 277, 280, 308
-0.997575, 35, 193, 50, 224
-0.997579, 365, 37, 380, 68
-0.997606, 153, 129, 184, 256
-0.997613, 369, 345, 496, 375
-0.997615, 259, 309, 274, 340
-0.997616, 405, 305, 420, 336
-0.997618, 63, 161, 78, 192
-0.997621, 277, 285, 292, 316
-0.997648, 339, 337, 354, 368
-0.997657, 285, 233, 300, 264
-0.997663, 229, 297, 244, 328
-0.997664, 97, 129, 128, 375
-0.997669, 261, 293, 276, 324
-0.997675, 225, 173, 352, 204
-0.997679, 153, 1, 184, 128
-0.997688, 351, 41, 366, 72
-0.997691, 1, 109, 128, 140
-0.997695, 297, 301, 312, 332
-0.997696, 129, 93, 144, 124
-0.997697, 77, 229, 92, 260
-0.997716, 343, 285, 358, 316
-0.997719, 277, 245, 292, 276
-0.997728, 171, 237, 186, 268
-0.997756, 305, 225, 320, 256
-0.997757, 341, 193, 356, 224
-0.997761, 191, 261, 206, 292
-0.997769, 105, 165, 120, 196
-0.997781, 131, 41, 146, 72
-0.997789, 385, 289, 400, 320
-0.997794, 277, 273, 292, 304
-0.997795, 25, 177, 40, 208
-0.997796, 1, 49, 500, 112
-0.997799, 249, 293, 264, 324
-0.997807, 241, 129, 368, 160
-0.997808, 337, 1, 368, 128
-0.99781, 285, 277, 300, 308
-0.997812, 265, 265, 280, 296
-0.997816, 485, 185, 500, 216
-0.997825, 269, 249, 284, 280
-0.997828, 177, 245, 192, 276
-0.99783, 305, 293, 320, 324
-0.997834, 333, 285, 348, 316
-0.997836, 119, 221, 134, 252
-0.997837, 319, 337, 334, 368
-0.997839, 183, 221, 198, 252
-0.997843, 349, 297, 364, 328
-0.997844, 243, 293, 258, 324
-0.997849, 279, 233, 294, 264
-0.997851, 145, 77, 272, 108
-0.997852, 341, 265, 356, 296
-0.997856, 53, 309, 68, 340
-0.997857, 213, 213, 228, 244
-0.997857, 251, 325, 266, 356
-0.99786, 341, 205, 356, 236
-0.997864, 289, 113, 416, 144
-0.997865, 143, 333, 158, 364
-0.997868, 335, 305, 350, 336
-0.99789, 315, 297, 330, 328
-0.997891, 411, 305, 426, 336
-0.997892, 203, 265, 218, 296
-0.997894, 115, 97, 130, 128
-0.997894, 455, 133, 470, 164
-0.997895, 457, 109, 472, 140
-0.997898, 421, 65, 452, 320
-0.997901, 361, 25, 376, 56
-0.997906, 43, 285, 58, 316
-0.997919, 197, 317, 212, 348
-0.997925, 291, 277, 306, 308
-0.997928, 377, 17, 392, 48
-0.99793, 355, 309, 370, 340
-0.997935, 341, 301, 356, 332
-0.997936, 69, 229, 84, 260
-0.997939, 287, 297, 302, 328
-0.997959, 367, 285, 382, 316
-0.997969, 143, 345, 158, 375
-0.997976, 323, 305, 338, 336
-0.997978, 43, 269, 58, 300
-0.99798, 97, 229, 112, 260
-0.997982, 389, 317, 404, 348
-0.997985, 287, 257, 302, 288
-0.997986, 353, 265, 368, 296
-0.997988, 301, 273, 316, 304
-0.997999, 271, 281, 286, 312
-0.998003, 163, 233, 178, 264
-0.998004, 355, 25, 370, 56
-0.998006, 27, 189, 42, 220
-0.998008, 353, 125, 368, 156
-0.998011, 443, 305, 458, 336
-0.998012, 131, 197, 146, 228
-0.998014, 313, 341, 328, 372
-0.998018, 69, 41, 84, 72
-0.998032, 359, 285, 374, 316
-0.998033, 293, 321, 308, 352
-0.998033, 255, 285, 270, 316
-0.998048, 49, 133, 176, 164
-0.99806, 81, 165, 208, 196
-0.998061, 161, 57, 288, 120
-0.998088, 209, 1, 272, 128
-0.998121, 469, 97, 500, 224
-0.998126, 437, 97, 468, 352
-0.998188, 105, 241, 136, 368
-0.99826, 149, 1, 180, 256
-0.998296, 433, 1, 464, 256
-0.998321, 345, 319, 408, 334
-0.998336, 321, 319, 384, 334
-0.998338, 353, 309, 416, 324
-0.99836, 329, 329, 392, 344
-0.998385, 305, 337, 368, 352
-0.998388, 49, 167, 112, 182
-0.998391, 339, 241, 354, 368
-0.998394, 297, 329, 360, 344
-0.998395, 129, 229, 192, 244
-0.998399, 297, 129, 328, 375
-0.998405, 65, 231, 128, 246
-0.998411, 289, 323, 352, 338
-0.99842, 305, 211, 368, 226
-0.998421, 225, 299, 288, 314
-0.998428, 209, 263, 240, 278
-0.998428, 297, 225, 360, 240
-0.998428, 49, 319, 80, 334
-0.998429, 305, 219, 368, 234
-0.99843, 281, 285, 312, 300
-0.998431, 341, 43, 372, 58
-0.998432, 269, 279, 300, 294
-0.998432, 329, 313, 392, 328
-0.998433, 245, 341, 276, 356
-0.998433, 217, 319, 280, 334
-0.998434, 113, 99, 144, 114
-0.998437, 337, 295, 400, 310
-0.998437, 153, 221, 184, 236
-0.998439, 333, 257, 364, 272
-0.998439, 81, 131, 112, 146
-0.998439, 165, 307, 196, 322
-0.99844, 369, 19, 400, 34
-0.998441, 133, 93, 164, 108
-0.998442, 337, 287, 400, 302
-0.998442, 41, 355, 72, 370
-0.998442, 189, 247, 220, 262
-0.998442, 305, 225, 336, 240
-0.998443, 17, 345, 48, 360
-0.998443, 285, 329, 316, 344
-0.998444, 165, 247, 196, 262
-0.998445, 445, 135, 476, 150
-0.998445, 305, 289, 368, 304
-0.998445, 1, 1, 500, 64
-0.998446, 369, 313, 400, 328
-0.998446, 133, 353, 164, 368
-0.998448, 109, 237, 140, 252
-0.998448, 457, 129, 488, 375
-0.998449, 253, 299, 284, 314
-0.998452, 145, 361, 176, 375
-0.998452, 317, 215, 348, 230
-0.998452, 213, 333, 244, 348
-0.998452, 229, 343, 260, 358
-0.998453, 49, 235, 80, 250
-0.998453, 41, 91, 72, 106
-0.998454, 289, 335, 320, 350
-0.998454, 293, 303, 324, 318
-0.998455, 213, 221, 244, 236
-0.998455, 161, 241, 192, 256
-0.998455, 209, 73, 336, 136
-0.998456, 201, 327, 264, 342
-0.998457, 225, 325, 288, 340
-0.998457, 85, 229, 116, 244
-0.998459, 293, 293, 324, 308
-0.998459, 241, 317, 304, 332
-0.99846, 121, 259, 152, 274
-0.99846, 249, 311, 280, 326
-0.99846, 65, 167, 96, 182
-0.998461, 73, 29, 136, 44
-0.998462, 329, 221, 360, 236
-0.998463, 5, 179, 36, 194
-0.998463, 333, 289, 364, 304
-0.998464, 361, 27, 392, 42
-0.998466, 357, 323, 388, 338
-0.998468, 345, 19, 408, 34
-0.998469, 273, 287, 336, 302
-0.998469, 329, 269, 360, 284
-0.998469, 129, 233, 160, 248
-0.99847, 329, 231, 360, 246
-0.998472, 353, 117, 416, 132
-0.998472, 265, 289, 296, 304
-0.998473, 357, 21, 388, 36
-0.998474, 113, 223, 176, 238
-0.998474, 169, 253, 200, 268
-0.998475, 357, 47, 388, 62
-0.998475, 225, 269, 288, 284
-0.998475, 309, 245, 340, 260
-0.998476, 21, 193, 52, 208
-0.998476, 281, 343, 344, 358
-0.998477, 217, 313, 280, 328
-0.998479, 317, 335, 348, 350
-0.998479, 201, 333, 264, 348
-0.998479, 353, 303, 416, 318
-0.99848, 153, 233, 184, 248
-0.998481, 201, 265, 264, 280
-0.998482, 33, 173, 64, 188
-0.998482, 305, 203, 368, 218
-0.998482, 213, 227, 244, 242
-0.998484, 161, 255, 224, 270
-0.998485, 281, 293, 344, 308
-0.998485, 209, 317, 240, 332
-0.998485, 41, 237, 104, 252
-0.998485, 277, 301, 308, 316
-0.998486, 313, 289, 344, 304
-0.998486, 133, 359, 164, 374
-0.998486, 125, 105, 156, 120
-0.998487, 261, 251, 292, 266
-0.998488, 289, 251, 352, 266
-0.998488, 357, 9, 388, 24
-0.998489, 257, 297, 320, 312
-0.998489, 169, 271, 232, 286
-0.99849, 189, 267, 220, 282
-0.99849, 113, 107, 176, 122
-0.99849, 137, 239, 200, 254
-0.99849, 225, 333, 288, 348
-0.998491, 153, 225, 216, 240
-0.998491, 65, 231, 96, 246
-0.998492, 33, 203, 64, 218
-0.998492, 221, 193, 236, 320
-0.998494, 365, 115, 396, 130
-0.998494, 353, 37, 384, 52
-0.998495, 449, 141, 480, 156
-0.998495, 229, 313, 260, 328
-0.998495, 369, 315, 432, 330
-0.998495, 129, 199, 160, 214
-0.998496, 349, 279, 380, 294
-0.998496, 269, 273, 300, 288
-0.998496, 341, 177, 356, 304
-0.998498, 269, 295, 300, 310
-0.998498, 113, 101, 176, 116
-0.998499, 277, 235, 308, 250
-0.9985, 9, 291, 72, 306
-0.998501, 369, 321, 432, 336
-0.998501, 329, 239, 360, 254
-0.998503, 105, 265, 168, 280
-0.998503, 17, 93, 80, 108
-0.998503, 241, 305, 304, 320
-0.998503, 241, 291, 304, 306
-0.998504, 305, 197, 368, 212
-0.998504, 313, 283, 376, 298
-0.998505, 113, 227, 144, 242
-0.998505, 265, 263, 328, 278
-0.998505, 121, 253, 152, 268
-0.998505, 121, 95, 184, 110
-0.998505, 265, 335, 328, 350
-0.998505, 121, 39, 184, 54
-0.998507, 393, 309, 456, 324
-0.998508, 289, 231, 352, 246
-0.998509, 89, 27, 120, 42
-0.998509, 105, 271, 168, 286
-0.998509, 105, 229, 168, 244
-0.99851, 297, 245, 360, 260
-0.998511, 137, 253, 200, 268
-0.998511, 377, 327, 440, 342
-0.998511, 337, 1, 368, 256
-0.998515, 153, 247, 216, 262
-0.998516, 273, 245, 336, 260
-0.998516, 233, 297, 264, 312
-0.998516, 169, 235, 232, 250
-0.998517, 397, 321, 428, 336
-0.998517, 89, 101, 152, 116
-0.998518, 213, 235, 244, 250
-0.998518, 177, 335, 240, 350
-0.998518, 121, 199, 184, 214
-0.998518, 277, 259, 308, 274
-0.998521, 229, 337, 260, 352
-0.998521, 297, 269, 360, 284
-0.998523, 273, 329, 336, 344
-0.998524, 249, 273, 312, 288
-0.998525, 77, 167, 108, 182
-0.998526, 17, 181, 48, 196
-0.998526, 273, 237, 336, 252
-0.998526, 193, 223, 256, 238
-0.998528, 257, 279, 288, 294
-0.998529, 189, 259, 220, 274
-0.998529, 225, 259, 288, 274
-0.99853, 345, 125, 408, 140
-0.99853, 213, 327, 244, 342
-0.99853, 49, 303, 112, 318
-0.998531, 241, 311, 304, 326
-0.998531, 381, 317, 412, 332
-0.998531, 49, 297, 112, 312
-0.998533, 193, 321, 256, 336
-0.998533, 201, 259, 264, 274
-0.998536, 177, 329, 240, 344
-0.998536, 249, 317, 280, 332
-0.998536, 217, 307, 280, 322
-0.998536, 313, 303, 376, 318
-0.998536, 121, 85, 184, 100
-0.998537, 345, 25, 408, 40
-0.998539, 425, 147, 488, 162
-0.99854, 249, 257, 312, 272
-0.99854, 89, 89, 152, 104
-0.998541, 229, 323, 260, 338
-0.998541, 245, 335, 276, 350
-0.998542, 369, 323, 400, 338
-0.998542, 101, 169, 132, 184
-0.998542, 253, 269, 284, 284
-0.998543, 121, 33, 184, 48
-0.998543, 245, 327, 276, 342
-0.998544, 305, 191, 368, 206
-0.998544, 305, 239, 368, 254
-0.998544, 305, 297, 336, 312
-0.998545, 401, 319, 464, 334
-0.998545, 97, 231, 128, 246
-0.998545, 41, 309, 104, 324
-0.998546, 145, 265, 208, 280
-0.998546, 193, 313, 256, 328
-0.998546, 97, 255, 160, 270
-0.998547, 281, 299, 344, 314
-0.998548, 253, 261, 284, 276
-0.998548, 209, 275, 272, 290
-0.998548, 193, 237, 256, 252
-0.998548, 241, 339, 304, 354
-0.998548, 49, 287, 112, 302
-0.998549, 193, 325, 224, 340
-0.998549, 309, 329, 340, 344
-0.99855, 425, 341, 488, 356
-0.99855, 329, 49, 392, 64
-0.998551, 249, 325, 312, 340
-0.998552, 353, 309, 384, 324
-0.998553, 201, 339, 264, 354
-0.998554, 257, 251, 320, 266
-0.998555, 185, 253, 248, 268
-0.998557, 41, 321, 104, 336
-0.998557, 185, 333, 216, 348
-0.998557, 25, 175, 88, 190
-0.998559, 65, 117, 128, 132
-0.998559, 121, 245, 184, 260
-0.99856, 25, 243, 88, 258
-0.998561, 433, 321, 496, 336
-0.998562, 177, 229, 240, 244
-0.998563, 105, 357, 168, 372
-0.998563, 345, 13, 408, 28
-0.998563, 65, 123, 128, 138
-0.998564, 121, 79, 184, 94
-0.998564, 233, 231, 296, 246
-0.998565, 169, 263, 232, 278
-0.998566, 1, 269, 64, 284
-0.998567, 313, 343, 376, 358
-0.998568, 121, 45, 184, 60
-0.998568, 53, 167, 84, 182
-0.998568, 409, 115, 472, 130
-0.998568, 177, 243, 240, 258
-0.998569, 121, 217, 184, 232
-0.998569, 177, 247, 208, 262
-0.998569, 329, 335, 392, 350
-0.998571, 393, 309, 424, 324
-0.998572, 377, 301, 408, 316
-0.998574, 229, 331, 260, 346
-0.998574, 213, 213, 244, 228
-0.998578, 149, 227, 180, 242
-0.998578, 89, 169, 120, 184
-0.998581, 317, 321, 348, 336
-0.998585, 349, 329, 380, 344
-0.99859, 357, 287, 388, 302
-0.998608, 341, 315, 372, 330
-0.99861, 173, 241, 204, 256
-0.998611, 19, 161, 34, 288
-0.998616, 329, 335, 360, 350
-0.99862, 227, 209, 242, 336
-0.99862, 189, 253, 220, 268
-0.99862, 329, 329, 360, 344
-0.998623, 165, 235, 196, 250
-0.998626, 25, 177, 40, 304
-0.998639, 385, 129, 416, 375
-0.998648, 357, 15, 388, 30
-0.99865, 351, 241, 366, 368
-0.998654, 41, 165, 72, 180
-0.998654, 161, 227, 192, 242
-0.998657, 165, 129, 196, 375
-0.998669, 185, 97, 216, 352
-0.99868, 357, 315, 388, 330
-0.998681, 345, 321, 376, 336
-0.998688, 175, 209, 190, 336
-0.998694, 93, 209, 108, 336
-0.998696, 329, 321, 360, 336
-0.9987, 317, 341, 348, 356
-0.998706, 131, 177, 146, 304
-0.998708, 215, 209, 230, 336
-0.998712, 191, 225, 206, 352
-0.99872, 331, 209, 346, 336
-0.998724, 103, 81, 118, 208
-0.998727, 13, 161, 28, 288
-0.998737, 373, 307, 404, 322
-0.998745, 69, 33, 84, 160
-0.998761, 409, 129, 440, 375
-0.998766, 107, 209, 122, 336
-0.998776, 139, 177, 154, 304
-0.998784, 397, 129, 428, 375
-0.998787, 233, 129, 264, 375
-0.998789, 99, 209, 114, 336
-0.998796, 297, 241, 312, 368
-0.998797, 345, 241, 360, 368
-0.998798, 341, 129, 356, 256
-0.99881, 277, 129, 308, 375
-0.998817, 467, 1, 482, 128
-0.998824, 97, 129, 112, 256
-0.998838, 17, 33, 48, 160
-0.99884, 93, 81, 108, 208
-0.998849, 83, 209, 98, 336
-0.998853, 183, 241, 198, 368
-0.998858, 41, 225, 56, 352
-0.998862, 213, 129, 244, 375
-0.998863, 63, 65, 78, 192
-0.998869, 233, 225, 248, 352
-0.99888, 165, 225, 180, 352
-0.99888, 131, 33, 146, 160
-0.998884, 317, 33, 348, 288
-0.998892, 53, 225, 68, 352
-0.998892, 109, 81, 124, 208
-0.998903, 265, 241, 280, 368
-0.998907, 103, 129, 118, 256
-0.99891, 111, 17, 126, 144
-0.998914, 291, 241, 306, 368
-0.998919, 147, 177, 162, 304
-0.998929, 81, 129, 96, 256
-0.998929, 67, 225, 82, 352
-0.998932, 71, 81, 86, 208
-0.998934, 203, 209, 218, 336
-0.998934, 461, 81, 476, 208
-0.998935, 271, 225, 286, 352
-0.998936, 283, 225, 298, 352
-0.99894, 85, 65, 100, 192
-0.998949, 19, 209, 34, 336
-0.99895, 209, 209, 224, 336
-0.998952, 157, 177, 172, 304
-0.99896, 197, 241, 212, 368
-0.998962, 313, 209, 328, 336
-0.998966, 193, 97, 320, 160
-0.998971, 31, 193, 46, 320
-0.998976, 321, 145, 336, 272
-0.998979, 119, 209, 134, 336
-0.998979, 303, 241, 318, 368
-0.998983, 329, 145, 344, 272
-0.998986, 119, 17, 134, 144
-0.998989, 59, 209, 74, 336
-0.998989, 77, 17, 92, 144
-0.998994, 253, 129, 284, 375
-0.999, 109, 129, 124, 256
-0.999, 13, 241, 28, 368
-0.999, 481, 161, 496, 288
-0.999003, 351, 113, 366, 240
-0.999011, 257, 225, 272, 352
-0.999011, 161, 1, 192, 256
-0.999017, 359, 241, 374, 368
-0.999024, 239, 209, 254, 336
-0.999027, 349, 193, 364, 320
-0.999036, 319, 241, 334, 368
-0.99904, 65, 137, 320, 200
-0.999041, 79, 65, 94, 192
-0.999045, 105, 17, 120, 144
-0.999045, 25, 241, 40, 368
-0.999054, 7, 161, 22, 288
-0.999055, 113, 209, 128, 336
-0.999057, 125, 193, 140, 320
-0.999057, 277, 241, 292, 368
-0.999059, 373, 17, 388, 144
-0.999061, 457, 17, 472, 144
-0.999065, 77, 209, 92, 336
-0.999067, 97, 17, 112, 144
-0.999069, 251, 225, 266, 352
-0.999071, 335, 129, 350, 256
-0.999072, 363, 1, 378, 128
-0.999074, 469, 49, 500, 176
-0.999078, 359, 49, 374, 176
-0.99909, 221, 241, 236, 368
-0.999095, 185, 193, 200, 320
-0.999096, 1, 161, 16, 288
-0.999104, 197, 129, 228, 375
-0.999107, 125, 17, 140, 144
-0.999111, 373, 241, 388, 368
-0.999113, 53, 81, 68, 208
-0.999114, 159, 225, 174, 352
-0.999118, 367, 49, 382, 176
-0.999121, 37, 161, 52, 288
-0.999127, 467, 65, 482, 192
-0.999132, 325, 209, 340, 336
-0.999135, 1, 209, 16, 336
-0.999138, 5, 97, 20, 224
-0.999146, 427, 97, 442, 224
-0.999146, 31, 241, 46, 368
-0.999163, 87, 161, 102, 288
-0.999166, 379, 241, 394, 368
-0.999174, 245, 209, 260, 336
-0.999176, 87, 17, 102, 144
-0.999178, 7, 241, 22, 368
-0.99918, 139, 97, 154, 224
-0.999182, 363, 97, 378, 224
-0.999184, 75, 129, 90, 256
-0.999185, 145, 97, 160, 224
-0.999188, 367, 241, 382, 368
-0.99919, 47, 209, 62, 336
-0.999204, 395, 97, 410, 224
-0.999215, 383, 81, 398, 208
-0.999217, 65, 113, 80, 240
-0.999222, 145, 241, 160, 368
-0.999223, 301, 193, 316, 320
-0.999228, 49, 145, 64, 272
-0.999231, 13, 81, 28, 208
-0.999234, 291, 193, 306, 320
-0.999239, 455, 81, 470, 208
-0.999239, 357, 97, 372, 224
-0.999241, 377, 97, 392, 224
-0.999241, 47, 81, 62, 208
-0.999243, 405, 97, 420, 224
-0.999245, 265, 193, 280, 320
-0.999251, 115, 81, 130, 208
-0.999251, 319, 193, 334, 320
-0.999253, 117, 161, 132, 288
-0.999263, 369, 97, 384, 224
-0.999269, 71, 177, 86, 304
-0.999269, 57, 161, 72, 288
-0.999304, 369, 209, 496, 272
-0.999313, 209, 113, 272, 240
-0.999393, 237, 145, 268, 272
-0.999452, 273, 145, 304, 272
-0.999613, 249, 33, 312, 288
-0.999618, 293, 325, 308, 340
-0.999618, 131, 197, 146, 212
-0.999618, 129, 103, 144, 118
-0.99962, 137, 257, 152, 272
-0.99962, 189, 255, 204, 270
-0.99962, 195, 331, 210, 346
-0.999621, 317, 297, 332, 312
-0.999621, 123, 35, 138, 50
-0.999622, 53, 313, 68, 328
-0.999622, 461, 79, 476, 94
-0.999623, 53, 357, 68, 372
-0.999623, 25, 213, 40, 228
-0.999623, 305, 297, 320, 312
-0.999623, 177, 229, 192, 244
-0.999623, 105, 229, 120, 244
-0.999624, 209, 219, 224, 234
-0.999624, 33, 185, 48, 200
-0.999624, 187, 335, 202, 350
-0.999626, 349, 287, 364, 302
-0.999627, 259, 259, 274, 274
-0.999628, 215, 227, 230, 242
-0.99963, 341, 203, 356, 218
-0.99963, 365, 49, 380, 64
-0.999631, 265, 281, 280, 296
-0.999631, 355, 33, 370, 48
-0.999631, 287, 237, 302, 252
-0.999632, 57, 171, 72, 186
-0.999633, 203, 267, 218, 282
-0.999633, 39, 173, 54, 188
-0.999633, 251, 319, 266, 334
-0.999634, 139, 355, 154, 370
-0.999634, 69, 231, 84, 246
-0.999635, 115, 229, 130, 244
-0.999637, 149, 223, 164, 238
-0.999638, 267, 261, 282, 276
-0.999639, 283, 295, 298, 310
-0.999639, 181, 235, 196, 250
-0.999644, 251, 327, 266, 342
-0.999644, 129, 233, 144, 248
-0.999644, 335, 337, 350, 352
-0.999646, 253, 307, 268, 322
-0.999648, 359, 329, 374, 344
-0.999649, 409, 319, 424, 334
-0.99965, 327, 341, 342, 356
-0.999651, 379, 321, 394, 336
-0.999651, 199, 257, 214, 272
-0.999653, 211, 235, 226, 250
-0.999654, 35, 193, 50, 208
-0.999654, 99, 229, 114, 244
-0.999656, 257, 299, 272, 314
-0.999656, 347, 313, 362, 328
-0.999656, 293, 235, 308, 250
-0.999658, 191, 263, 206, 278
-0.999658, 29, 193, 44, 208
-0.99966, 221, 229, 236, 244
-0.99966, 241, 337, 256, 352
-0.999661, 217, 235, 232, 250
-0.999662, 379, 311, 394, 326
-0.999663, 379, 21, 394, 36
-0.999664, 189, 249, 204, 264
-0.999664, 311, 297, 326, 312
-0.999665, 371, 11, 386, 26
-0.999665, 87, 169, 102, 184
-0.999667, 359, 57, 374, 72
-0.999668, 363, 9, 378, 24
-0.999669, 277, 261, 292, 276
-0.99967, 387, 317, 402, 332
-0.999671, 219, 211, 234, 226
-0.999671, 229, 235, 244, 250
-0.999672, 175, 241, 190, 256
-0.999674, 47, 169, 62, 184
-0.999676, 393, 307, 408, 322
-0.999677, 123, 235, 138, 250
-0.999678, 131, 247, 146, 262
-0.999678, 351, 319, 366, 334
-0.99968, 457, 135, 472, 150
-0.999681, 363, 285, 378, 300
-0.999681, 29, 179, 44, 194
-0.999683, 325, 329, 340, 344
-0.999684, 9, 179, 24, 194
-0.999684, 353, 47, 368, 62
-0.999685, 171, 225, 186, 240
-0.999686, 155, 227, 170, 242
-0.999689, 381, 299, 396, 314
-0.999691, 145, 359, 160, 374
-0.999691, 399, 309, 414, 324
-0.999691, 359, 39, 374, 54
-0.999692, 187, 243, 202, 258
-0.999692, 369, 325, 384, 340
-0.999693, 177, 247, 192, 262
-0.999697, 363, 15, 378, 30
-0.9997, 37, 199, 52, 214
-0.999702, 315, 287, 330, 302
-0.999703, 183, 253, 198, 268
-0.999706, 281, 237, 296, 252
-0.999707, 1, 225, 16, 240
-0.999712, 271, 275, 286, 290
-0.999712, 269, 269, 284, 284
-0.999712, 169, 231, 184, 246
-0.999713, 373, 313, 388, 328
-0.999714, 369, 5, 384, 20
-0.999715, 305, 33, 336, 288
-0.999716, 181, 241, 196, 256
-0.999719, 327, 323, 342, 338
-0.99972, 195, 251, 210, 266
-0.99972, 73, 167, 88, 182
-0.999723, 385, 309, 400, 324
-0.999725, 105, 169, 120, 184
-0.999726, 47, 163, 62, 178
-0.99973, 353, 313, 368, 328
-0.999734, 327, 335, 342, 350
-0.999734, 205, 321, 220, 336
-0.999735, 175, 235, 190, 250
-0.999748, 321, 341, 336, 356
-0.99975, 349, 325, 364, 340
-0.99975, 371, 305, 386, 320
-0.999762, 367, 315, 382, 330
-0.999764, 111, 169, 126, 184
-0.999767, 343, 319, 358, 334
-0.999767, 265, 129, 296, 375
-0.999767, 359, 313, 374, 328
-0.999769, 377, 305, 392, 320
-0.99977, 57, 165, 72, 180
-0.999775, 165, 225, 180, 240
-0.999777, 387, 303, 402, 318
-0.999777, 365, 307, 380, 322
-0.999779, 63, 165, 78, 180
-0.999786, 97, 167, 112, 182
-0.999803, 333, 321, 348, 336
-0.999814, 333, 331, 348, 346
-0.99982, 359, 321, 374, 336
-0.999848, 339, 329, 354, 344
-0.999959, 257, 33, 320, 160
-0.999965, 225, 1, 288, 256
-1.00007, 261, 1, 292, 256
-1.00014, 201, 33, 232, 288
-1.00018, 245, 33, 276, 288
-1.00024, 289, 33, 320, 288
-1.0004, 233, 33, 264, 288
-1.00049, 281, 1, 344, 128
-1.00062, 221, 33, 252, 288
-1.00069, 273, 33, 304, 288
-1.00079, 173, 33, 204, 288
-1.00096, 185, 33, 248, 288
-1.00098, 189, 1, 220, 256
-1.00191, 233, 49, 296, 176
-1.00196, 409, 193, 472, 320
-1.00392, 185, 33, 248, 160
-1.00552, 161, 97, 288, 224
-1.00594, 233, 1, 296, 128
-1.00727, 209, 49, 272, 176
-1.01125, 249, 97, 312, 224
