1978
-0.538879, 1, 1, 500, 375
-0.546597, 65, 1, 320, 375
-0.547421, 1, 1, 500, 256
-0.658008, 1, 97, 500, 352
-0.74804, 161, 1, 416, 375
-0.785249, 1, 33, 256, 288
-0.822864, 97, 1, 352, 256
-0.883323, 65, 1, 192, 375
-0.889975, 33, 129, 288, 375
-0.890061, 113, 1, 240, 375
-0.900995, 161, 1, 288, 375
-0.903876, 17, 1, 144, 375
-0.909198, 161, 1, 288, 256
-0.911157, 81, 33, 208, 288
-0.911937, 1, 33, 128, 288
-0.933664, 257, 1, 500, 375
-0.936883, 209, 1, 336, 375
-0.940901, 81, 129, 208, 375
-0.945444, 1, 33, 500, 160
-0.948989, 1, 33, 256, 160
-0.951723, 97, 1, 352, 128
-0.953756, 1, 177, 500, 304
-0.955767, 129, 129, 256, 375
-0.956953, 1, 129, 128, 375
-0.957911, 33, 177, 288, 304
-0.960264, 1, 225, 500, 352
-0.963384, 209, 1, 272, 128
-0.96392, 1, 129, 500, 256
-0.964178, 161, 1, 288, 128
-0.9665, 201, 1, 264, 64
-0.967347, 113, 17, 240, 144
-0.967493, 273, 1, 400, 375
-0.968444, 177, 97, 304, 352
-0.971369, 161, 129, 416, 375
-0.971819, 225, 1, 352, 256
-0.971825, 49, 49, 176, 176
-0.972176, 161, 17, 224, 144
-0.973535, 49, 161, 176, 288
-0.974405, 337, 1, 464, 375
-0.97635, 1, 81, 128, 208
-0.976355, 209, 1, 336, 128
-0.977141, 193, 1, 448, 128
-0.977828, 1, 81, 256, 208
-0.978666, 161, 25, 224, 88
-0.978692, 185, 1, 248, 128
-0.978814, 177, 1, 240, 64
-0.978964, 1, 81, 500, 208
-0.979492, 33, 241, 288, 368
-0.979506, 57, 177, 120, 304
-0.979812, 113, 177, 240, 304
-0.980535, 225, 129, 352, 375
-0.980987, 161, 1, 288, 64
-0.981498, 169, 1, 232, 256
-0.981622, 137, 17, 200, 144
-0.982397, 161, 209, 416, 336
-0.982873, 289, 1, 416, 256
-0.982929, 9, 97, 72, 160
-0.983032, 97, 49, 352, 176
-0.983209, 1, 33, 128, 160
-0.983346, 233, 1, 296, 128
-0.983746, 33, 129, 288, 256
-0.983933, 57, 185, 120, 248
-0.984089, 129, 225, 256, 352
-0.984342, 65, 1, 192, 128
-0.984517, 9, 33, 72, 160
-0.984536, 273, 97, 400, 352
-0.984703, 113, 33, 176, 160
-0.98493, 9, 81, 72, 208
-0.985008, 1, 177, 128, 304
-0.985387, 209, 1, 240, 64
-0.985835, 169, 209, 232, 336
-0.986201, 57, 33, 120, 160
-0.986299, 65, 209, 192, 336
-0.986544, 89, 161, 152, 288
-0.986561, 337, 65, 464, 320
-0.986566, 161, 33, 288, 96
-0.986816, 241, 1, 272, 128
-0.986979, 89, 1, 152, 375
-0.987127, 97, 129, 224, 256
-0.987253, 73, 33, 136, 288
-0.987423, 1, 89, 128, 152
-0.987523, 121, 1, 184, 375
-0.987564, 33, 89, 96, 152
-0.987632, 225, 1, 256, 128
-0.987771, 89, 201, 152, 264
-0.988051, 105, 225, 168, 352
-0.988321, 113, 25, 240, 88
-0.988373, 89, 33, 152, 160
-0.988384, 137, 33, 200, 288
-0.988498, 145, 1, 208, 375
-0.988583, 33, 193, 160, 256
-0.988639, 33, 33, 96, 160
-0.988689, 185, 33, 248, 96
-0.988692, 233, 17, 296, 80
-0.988851, 65, 1, 128, 375
-0.988856, 33, 81, 96, 208
-0.988881, 97, 33, 160, 288
-0.988891, 145, 177, 208, 304
-0.988981, 49, 33, 112, 288
-0.988995, 89, 281, 152, 344
-0.989167, 137, 17, 200, 80
-0.989243, 81, 225, 144, 352
-0.989293, 177, 1, 240, 375
-0.989305, 161, 129, 416, 256
-0.989588, 57, 209, 120, 272
-0.989724, 81, 177, 144, 240
-0.989738, 81, 49, 208, 112
-0.989755, 81, 177, 208, 240
-0.989906, 177, 209, 304, 336
-0.990034, 129, 49, 192, 112
-0.990143, 221, 1, 252, 64
-0.990436, 1, 1, 64, 256
-0.990733, 113, 1, 240, 64
-0.990738, 105, 241, 168, 304
-0.990909, 97, 49, 160, 112
-0.991038, 145, 185, 208, 248
-0.991039, 209, 17, 336, 80
-0.991078, 1, 73, 64, 136
-0.991193, 121, 177, 184, 304
-0.991263, 193, 225, 256, 352
-0.991316, 129, 265, 192, 328
-0.991342, 25, 65, 88, 320
-0.991408, 177, 17, 208, 144
-0.991424, 209, 1, 272, 375
-0.991427, 105, 169, 168, 232
-0.991452, 33, 217, 160, 280
-0.991456, 209, 25, 272, 88
-0.991598, 189, 17, 220, 144
-0.991621, 185, 25, 216, 88
-0.991623, 209, 49, 272, 112
-0.991663, 65, 273, 128, 336
-0.991664, 201, 49, 264, 176
-0.991722, 177, 1, 240, 32
-0.991736, 17, 225, 144, 352
-0.991738, 197, 1, 228, 64
-0.991739, 97, 201, 224, 264
-0.991832, 241, 9, 272, 72
-0.991889, 17, 1, 80, 375
-0.99198, 49, 73, 176, 136
-0.991982, 169, 37, 232, 68
-0.991988, 65, 17, 192, 80
-0.992047, 49, 225, 112, 352
-0.992116, 41, 1, 104, 375
-0.992119, 201, 9, 264, 40
-0.99213, 193, 49, 320, 176
-0.992173, 97, 25, 160, 88
-0.992287, 161, 217, 224, 280
-0.992355, 145, 241, 208, 368
-0.992454, 9, 109, 72, 140
-0.99252, 57, 201, 120, 232
-0.992706, 137, 41, 200, 72
-0.992731, 129, 241, 256, 304
-0.992756, 33, 101, 96, 132
-0.992803, 177, 145, 304, 272
-0.992812, 49, 241, 176, 304
-0.99284, 161, 25, 224, 56
-0.992887, 9, 97, 72, 128
-0.992903, 73, 185, 136, 216
-0.992982, 145, 269, 208, 300
-0.992992, 129, 225, 192, 256
-0.993012, 209, 37, 272, 68
-0.993064, 213, 1, 244, 128
-0.993072, 121, 273, 184, 304
-0.993073, 97, 193, 160, 224
-0.993083, 137, 29, 200, 60
-0.993099, 209, 49, 272, 80
-0.993122, 49, 89, 112, 120
-0.993127, 89, 205, 152, 236
-0.993127, 113, 37, 176, 68
-0.993159, 41, 65, 104, 128
-0.993177, 73, 277, 136, 308
-0.993181, 201, 25, 264, 56
-0.993195, 161, 281, 224, 312
-0.993216, 153, 221, 216, 252
-0.993252, 89, 217, 152, 248
-0.993258, 153, 1, 216, 32
-0.993284, 225, 13, 288, 44
-0.993287, 17, 25, 144, 88
-0.993289, 65, 281, 192, 344
-0.993294, 169, 49, 232, 80
-0.993314, 209, 1, 240, 32
-0.993325, 153, 209, 216, 240
-0.993338, 57, 213, 120, 244
-0.993363, 73, 241, 136, 304
-0.99337, 89, 37, 152, 68
-0.993392, 9, 85, 72, 116
-0.993393, 185, 29, 216, 60
-0.993397, 165, 17, 196, 144
-0.993399, 137, 53, 200, 84
-0.993403, 97, 173, 160, 204
-0.993423, 241, 13, 272, 44
-0.993424, 49, 189, 112, 220
-0.993437, 97, 277, 160, 308
-0.993481, 129, 181, 192, 212
-0.993482, 165, 41, 196, 72
-0.993484, 105, 229, 168, 260
-0.993497, 29, 105, 60, 136
-0.993499, 129, 265, 256, 328
-0.993504, 229, 9, 260, 40
-0.993505, 129, 285, 192, 316
-0.993525, 197, 1, 228, 32
-0.993538, 101, 201, 132, 232
-0.993559, 105, 49, 168, 80
-0.993562, 41, 97, 72, 128
-0.993565, 17, 29, 80, 60
-0.993573, 85, 185, 116, 216
-0.993576, 173, 29, 204, 60
-0.993585, 5, 113, 36, 144
-0.993595, 161, 29, 192, 60
-0.993595, 177, 1, 208, 32
-0.993597, 153, 41, 184, 72
-0.993597, 17, 109, 48, 140
-0.993611, 145, 197, 208, 228
-0.993614, 125, 237, 156, 268
-0.993619, 233, 25, 296, 56
-0.993619, 185, 277, 248, 308
-0.99363, 73, 265, 136, 296
-0.993633, 1, 101, 32, 132
-0.993634, 29, 89, 60, 120
-0.993638, 49, 229, 112, 260
-0.99364, 105, 241, 168, 272
-0.99365, 13, 97, 44, 128
-0.993651, 73, 129, 136, 375
-0.993679, 81, 229, 144, 260
-0.993682, 245, 25, 276, 56
-0.993684, 137, 229, 168, 260
-0.993692, 101, 277, 132, 308
-0.993695, 197, 37, 228, 68
-0.993698, 77, 197, 108, 228
-0.9937, 65, 33, 128, 64
-0.9937, 177, 221, 240, 252
-0.993703, 193, 49, 448, 176
-0.993703, 133, 37, 164, 68
-0.993708, 17, 49, 144, 112
-0.993709, 141, 49, 172, 80
-0.993716, 189, 217, 220, 248
-0.99372, 149, 269, 180, 300
-0.993726, 185, 261, 248, 292
-0.993731, 53, 89, 84, 120
-0.993734, 117, 225, 148, 256
-0.993734, 93, 213, 124, 244
-0.993737, 181, 205, 212, 236
-0.993739, 73, 289, 136, 320
-0.99374, 161, 273, 224, 336
-0.993745, 161, 281, 192, 312
-0.993745, 121, 37, 152, 68
-0.993745, 33, 169, 160, 232
-0.993758, 149, 29, 180, 60
-0.993765, 105, 289, 168, 320
-0.993769, 113, 193, 144, 224
-0.993775, 97, 177, 128, 208
-0.99378, 89, 201, 120, 232
-0.99378, 109, 37, 140, 68
-0.993784, 169, 269, 200, 300
-0.993786, 73, 309, 136, 340
-0.993791, 185, 281, 216, 312
-0.993794, 1, 13, 64, 44
-0.993794, 129, 49, 160, 80
-0.993797, 169, 17, 200, 48
-0.993798, 153, 53, 184, 84
-0.993802, 93, 33, 124, 64
-0.993802, 93, 309, 124, 340
-0.993807, 233, 53, 264, 84
-0.99381, 209, 45, 240, 76
-0.993813, 81, 249, 144, 280
-0.993819, 121, 261, 184, 292
-0.99382, 101, 189, 132, 220
-0.99382, 149, 221, 180, 252
-0.993824, 221, 41, 252, 72
-0.993825, 153, 13, 216, 44
-0.993828, 113, 285, 144, 316
-0.993831, 41, 249, 104, 280
-0.993833, 65, 201, 96, 232
-0.993834, 177, 41, 208, 72
-0.993836, 233, 45, 296, 76
-0.993846, 165, 1, 196, 32
-0.993846, 41, 33, 104, 64
-0.993849, 41, 85, 72, 116
-0.99385, 153, 297, 184, 328
-0.993851, 249, 5, 312, 36
-0.993851, 193, 229, 224, 260
-0.993851, 165, 53, 196, 84
-0.993853, 173, 281, 204, 312
-0.993858, 221, 273, 252, 304
-0.993858, 169, 197, 200, 228
-0.99386, 89, 281, 120, 312
-0.993865, 137, 269, 168, 300
-0.993866, 81, 269, 112, 300
-0.993869, 257, 21, 288, 52
-0.993871, 221, 53, 252, 84
-0.993874, 117, 49, 148, 80
-0.993875, 93, 297, 124, 328
-0.993876, 209, 249, 240, 280
-0.993879, 161, 221, 192, 252
-0.993885, 185, 249, 248, 280
-0.993886, 81, 33, 112, 64
-0.993887, 113, 237, 144, 268
-0.993888, 241, 41, 272, 72
-0.993889, 145, 281, 176, 312
-0.993897, 113, 25, 144, 56
-0.9939, 61, 213, 92, 244
-0.993902, 81, 305, 112, 336
-0.993905, 181, 17, 212, 48
-0.993906, 105, 49, 136, 80
-0.993914, 149, 233, 180, 264
-0.993916, 205, 273, 236, 304
-0.993917, 121, 269, 152, 300
-0.993917, 17, 1, 144, 64
-0.993918, 69, 33, 100, 64
-0.993919, 129, 173, 160, 204
-0.993922, 173, 301, 204, 332
-0.993923, 97, 17, 128, 48
-0.993924, 261, 9, 292, 40
-0.993924, 1, 13, 32, 44
-0.993924, 45, 29, 76, 60
-0.993924, 109, 5, 140, 36
-0.993924, 157, 13, 188, 44
-0.993926, 165, 185, 196, 216
-0.993927, 241, 1, 272, 32
-0.993927, 81, 293, 112, 324
-0.993928, 213, 261, 244, 292
-0.993928, 149, 257, 180, 288
-0.993929, 113, 25, 176, 56
-0.99393, 117, 181, 148, 212
-0.993932, 181, 269, 212, 300
-0.993934, 129, 213, 160, 244
-0.993935, 77, 209, 108, 240
-0.993935, 229, 285, 260, 316
-0.99394, 157, 313, 188, 344
-0.993942, 105, 225, 136, 256
-0.993942, 145, 181, 176, 212
-0.993945, 73, 185, 104, 216
-0.993947, 49, 77, 112, 108
-0.993947, 153, 325, 184, 356
-0.993948, 205, 21, 236, 52
-0.993949, 105, 213, 136, 244
-0.99395, 85, 257, 116, 288
-0.993951, 77, 317, 108, 348
-0.993952, 49, 17, 80, 48
-0.993953, 49, 217, 80, 248
-0.993954, 197, 241, 228, 272
-0.993956, 9, 33, 40, 64
-0.993957, 133, 25, 164, 56
-0.993957, 177, 217, 208, 248
-0.993957, 73, 173, 136, 204
-0.993957, 101, 265, 132, 296
-0.993959, 81, 45, 112, 76
-0.993959, 53, 101, 84, 132
-0.99396, 57, 185, 88, 216
-0.99396, 149, 125, 180, 156
-0.99396, 41, 109, 72, 140
-0.993962, 93, 45, 124, 76
-0.993963, 81, 21, 144, 52
-0.993964, 161, 145, 192, 176
-0.993966, 181, 1, 212, 64
-0.993966, 57, 29, 88, 60
-0.993967, 169, 321, 200, 352
-0.993968, 129, 13, 192, 44
-0.993969, 33, 29, 64, 60
-0.993969, 69, 245, 100, 276
-0.993984, 145, 321, 208, 352
-0.993986, 129, 1, 192, 32
-0.993999, 97, 265, 160, 296
-0.994, 201, 289, 264, 320
-0.994007, 49, 17, 112, 48
-0.994008, 49, 269, 112, 300
-0.994018, 137, 301, 200, 332
-0.99402, 65, 5, 128, 36
-0.994026, 105, 129, 168, 375
-0.994031, 57, 45, 120, 76
-0.994048, 225, 1, 288, 32
-0.994052, 73, 321, 136, 352
-0.994067, 41, 1, 104, 32
-0.994077, 129, 169, 192, 200
-0.994077, 97, 161, 160, 192
-0.994083, 81, 49, 144, 80
-0.994087, 153, 257, 216, 288
-0.994091, 97, 9, 160, 40
-0.994093, 225, 41, 352, 104
-0.994098, 137, 237, 200, 268
-0.994101, 105, 301, 168, 332
-0.994107, 89, 73, 152, 104
-0.994107, 33, 217, 96, 248
-0.994107, 105, 313, 168, 344
-0.99412, 41, 173, 104, 204
-0.994122, 177, 185, 240, 216
-0.994122, 169, 233, 232, 264
-0.994138, 49, 297, 112, 328
-0.994139, 129, 213, 192, 244
-0.994145, 33, 205, 96, 236
-0.994145, 273, 205, 336, 236
-0.994151, 25, 189, 88, 220
-0.994153, 193, 205, 256, 236
-0.994156, 161, 293, 224, 324
-0.994162, 289, 49, 352, 80
-0.994162, 17, 241, 80, 272
-0.994167, 49, 317, 112, 348
-0.994188, 1, 121, 64, 152
-0.994208, 49, 285, 112, 316
-0.994212, 81, 177, 112, 240
-0.994221, 129, 149, 192, 180
-0.994223, 121, 193, 184, 224
-0.994228, 153, 185, 216, 216
-0.994229, 97, 61, 160, 92
-0.994229, 1, 41, 64, 72
-0.994231, 169, 313, 232, 344
-0.994263, 201, 61, 264, 92
-0.994263, 73, 85, 136, 116
-0.994268, 145, 125, 208, 156
-0.994276, 209, 233, 272, 264
-0.994278, 209, 273, 272, 304
-0.994286, 25, 17, 88, 48
-0.994297, 249, 57, 312, 88
-0.994297, 121, 137, 184, 168
-0.994297, 17, 229, 80, 260
-0.994299, 17, 1, 80, 32
-0.994312, 161, 245, 224, 276
-0.994318, 193, 81, 256, 112
-0.994341, 33, 45, 96, 76
-0.994346, 169, 325, 232, 356
-0.994353, 57, 161, 120, 192
-0.994357, 121, 325, 184, 356
-0.994368, 193, 1, 256, 256
-0.994385, 161, 137, 224, 168
-0.994387, 21, 105, 52, 168
-0.994398, 257, 25, 320, 56
-0.994401, 121, 125, 184, 156
-0.994431, 145, 97, 272, 224
-0.994458, 185, 257, 248, 320
-0.994573, 173, 25, 204, 88
-0.994662, 97, 201, 128, 264
-0.994682, 97, 153, 224, 216
-0.994701, 129, 129, 192, 256
-0.994912, 25, 33, 56, 160
-0.994925, 25, 81, 56, 144
-0.99494, 69, 161, 100, 288
-0.994952, 1, 97, 64, 352
-0.994973, 37, 97, 68, 160
-0.994994, 233, 1, 296, 375
-0.99503, 65, 1, 320, 64
-0.995104, 49, 249, 112, 312
-0.995135, 181, 193, 212, 320
-0.995218, 73, 49, 136, 112
-0.995265, 9, 9, 72, 72
-0.995277, 157, 265, 188, 328
-0.995344, 49, 41, 112, 104
-0.995361, 205, 225, 236, 352
-0.995421, 5, 89, 36, 152
-0.995423, 1, 113, 32, 176
-0.995447, 73, 25, 136, 88
-0.995453, 13, 33, 44, 160
-0.995596, 145, 209, 272, 272
-0.995658, 145, 17, 176, 144
-0.995737, 81, 161, 112, 288
-0.995744, 113, 201, 176, 264
-0.995784, 193, 209, 320, 272
-0.995793, 233, 41, 296, 104
-0.995836, 161, 241, 224, 304
-0.995849, 177, 177, 304, 240
-0.995864, 33, 17, 96, 80
-0.995904, 129, 225, 192, 288
-0.995909, 169, 1, 200, 64
-0.995949, 37, 33, 68, 160
-0.995957, 65, 313, 192, 375
-0.996064, 201, 33, 232, 160
-0.996065, 81, 1, 144, 64
-0.996072, 73, 305, 136, 368
-0.996076, 1, 249, 128, 312
-0.996117, 1, 201, 256, 264
-0.996236, 153, 49, 216, 112
-0.996265, 133, 17, 164, 144
-0.996316, 253, 1, 284, 128
-0.996345, 93, 177, 124, 240
-0.996389, 97, 25, 352, 88
-0.996405, 81, 153, 144, 216
-0.996406, 21, 81, 52, 208
-0.996409, 1, 81, 256, 144
-0.9965, 197, 25, 228, 88
-0.996532, 185, 217, 248, 280
-0.996542, 33, 233, 288, 296
-0.996554, 137, 289, 200, 352
-0.996579, 113, 289, 176, 352
-0.99659, 209, 233, 336, 296
-0.996617, 33, 177, 96, 304
-0.996618, 129, 1, 256, 32
-0.996633, 97, 33, 128, 160
-0.996643, 113, 289, 240, 352
-0.996874, 77, 33, 108, 160
-0.996887, 193, 209, 224, 336
-0.996894, 145, 57, 272, 120
-0.996923, 9, 97, 40, 224
-0.996936, 113, 1, 176, 64
-0.996953, 49, 129, 112, 375
-0.996977, 65, 49, 320, 112
-0.996998, 211, 1, 226, 64
-0.997002, 57, 33, 88, 160
-0.997045, 93, 145, 124, 272
-0.99706, 161, 129, 224, 375
-0.997066, 145, 37, 272, 68
-0.997091, 161, 25, 192, 88
-0.997099, 49, 145, 176, 208
-0.997105, 17, 273, 144, 336
-0.99715, 57, 1, 120, 64
-0.997165, 57, 161, 120, 224
-0.997229, 219, 1, 234, 64
-0.997248, 1, 1, 32, 128
-0.997254, 37, 81, 68, 208
-0.997273, 185, 201, 216, 264
-0.99728, 161, 13, 288, 44
-0.99729, 145, 257, 176, 320
-0.997339, 185, 281, 248, 344
-0.997356, 129, 129, 256, 192
-0.997378, 177, 273, 208, 336
-0.997381, 1, 25, 256, 88
-0.99743, 121, 33, 152, 160
-0.997482, 73, 73, 136, 136
-0.997528, 1, 113, 128, 176
-0.997572, 225, 1, 240, 64
-0.997592, 145, 153, 272, 216
-0.997598, 93, 281, 124, 344
-0.997605, 65, 37, 192, 68
-0.997609, 205, 1, 220, 64
-0.997661, 177, 257, 304, 320
-0.99773, 251, 9, 266, 72
-0.997735, 33, 201, 96, 264
-0.997758, 33, 177, 288, 240
-0.997766, 149, 17, 180, 80
-0.997783, 69, 185, 100, 248
-0.997795, 77, 225, 108, 352
-0.997798, 1, 101, 128, 132
-0.997827, 109, 33, 140, 160
-0.997872, 225, 193, 352, 320
-0.997874, 169, 177, 200, 304
-0.99788, 153, 49, 184, 112
-0.997889, 137, 161, 200, 224
-0.997959, 209, 49, 240, 112
-0.997971, 33, 217, 160, 248
-0.997974, 145, 49, 272, 80
-0.997979, 57, 81, 120, 208
-0.998002, 193, 1, 208, 64
-0.998025, 17, 49, 80, 112
-0.998038, 199, 1, 214, 64
-0.998044, 161, 289, 288, 352
-0.998045, 187, 25, 202, 88
-0.998046, 245, 9, 260, 72
-0.998058, 257, 201, 384, 264
-0.998079, 133, 25, 164, 88
-0.998094, 117, 25, 148, 88
-0.998097, 161, 25, 288, 56
-0.998097, 231, 1, 246, 64
-0.99812, 181, 1, 212, 256
-0.998123, 225, 65, 352, 128
-0.99813, 81, 25, 208, 56
-0.998138, 17, 305, 144, 368
-0.998149, 17, 225, 80, 288
-0.998158, 125, 49, 156, 112
-0.998158, 173, 297, 204, 312
-0.998158, 165, 11, 196, 26
-0.998158, 153, 309, 184, 324
-0.998158, 233, 5, 264, 20
-0.998159, 189, 289, 220, 304
-0.998159, 137, 279, 168, 294
-0.998159, 229, 51, 260, 66
-0.99816, 201, 249, 232, 264
-0.998161, 157, 139, 188, 154
-0.998161, 97, 221, 128, 236
-0.998161, 41, 85, 72, 100
-0.998161, 165, 271, 196, 286
-0.998162, 81, 305, 112, 320
-0.998162, 145, 291, 176, 306
-0.998162, 189, 277, 220, 292
-0.998162, 217, 283, 248, 298
-0.998162, 113, 203, 144, 218
-0.998162, 229, 287, 260, 302
-0.998163, 53, 101, 84, 116
-0.998163, 9, 101, 40, 116
-0.998163, 169, 223, 200, 238
-0.998163, 117, 193, 148, 208
-0.998163, 177, 7, 208, 22
-0.998164, 221, 57, 252, 72
-0.998164, 237, 57, 268, 72
-0.998164, 161, 295, 192, 310
-0.998164, 153, 225, 184, 240
-0.998165, 101, 273, 132, 288
-0.998165, 239, 9, 254, 72
-0.998165, 97, 301, 128, 316
-0.998165, 81, 277, 112, 292
-0.998166, 145, 263, 176, 278
-0.998166, 261, 15, 292, 30
-0.998166, 205, 281, 236, 296
-0.998166, 161, 37, 192, 52
-0.998166, 241, 11, 272, 26
-0.998166, 89, 215, 120, 230
-0.998167, 97, 179, 128, 194
-0.998167, 173, 303, 204, 318
-0.998168, 117, 279, 148, 294
-0.998169, 217, 45, 248, 60
-0.99817, 157, 329, 188, 344
-0.99817, 57, 89, 88, 104
-0.998171, 21, 95, 52, 110
-0.998171, 137, 273, 168, 288
-0.998171, 81, 285, 112, 300
-0.998172, 153, 303, 184, 318
-0.998173, 113, 293, 144, 308
-0.998173, 177, 45, 208, 60
-0.998173, 145, 233, 176, 248
-0.998173, 141, 41, 172, 56
-0.998173, 165, 1, 196, 16
-0.998173, 121, 223, 152, 238
-0.998174, 173, 203, 204, 218
-0.998175, 165, 197, 196, 212
-0.998175, 173, 289, 204, 304
-0.998175, 29, 101, 60, 116
-0.998176, 109, 209, 140, 224
-0.998176, 77, 317, 108, 332
-0.998176, 133, 241, 164, 256
-0.998176, 153, 1, 184, 16
-0.998176, 117, 229, 148, 244
-0.998176, 201, 51, 232, 66
-0.998179, 197, 45, 228, 60
-0.99818, 257, 23, 288, 38
-0.99818, 101, 285, 132, 300
-0.99818, 105, 225, 136, 352
-0.99818, 69, 209, 100, 224
-0.998181, 161, 289, 192, 304
-0.998181, 185, 27, 216, 42
-0.998182, 109, 241, 140, 256
-0.998182, 13, 119, 44, 134
-0.998183, 93, 315, 124, 330
-0.998183, 97, 291, 128, 306
-0.998183, 241, 51, 272, 66
-0.998184, 117, 247, 148, 262
-0.998185, 33, 229, 160, 260
-0.998186, 17, 107, 48, 122
-0.998187, 141, 49, 172, 64
-0.998187, 113, 285, 144, 300
-0.998188, 89, 201, 120, 216
-0.99819, 189, 39, 220, 54
-0.99819, 189, 227, 220, 242
-0.998191, 149, 269, 180, 284
-0.998191, 173, 283, 204, 298
-0.998191, 217, 51, 248, 66
-0.998191, 101, 215, 132, 230
-0.998192, 173, 29, 204, 44
-0.998192, 29, 113, 60, 128
-0.998193, 153, 51, 184, 66
-0.998193, 181, 215, 212, 230
-0.998194, 93, 309, 124, 324
-0.998194, 77, 311, 108, 326
-0.998197, 33, 91, 64, 106
-0.998198, 105, 195, 136, 210
-0.998199, 5, 111, 36, 126
-0.9982, 81, 209, 112, 224
-0.998201, 141, 225, 172, 240
-0.998201, 41, 107, 72, 122
-0.998202, 245, 31, 276, 46
-0.998202, 149, 283, 180, 298
-0.998202, 189, 283, 220, 298
-0.998203, 89, 185, 120, 200
-0.998203, 73, 203, 104, 218
-0.998203, 133, 235, 164, 250
-0.998204, 153, 43, 184, 58
-0.998207, 149, 277, 180, 292
-0.998207, 117, 235, 148, 250
-0.998209, 97, 207, 128, 222
-0.998211, 101, 279, 132, 294
-0.998211, 169, 277, 200, 292
-0.998211, 129, 229, 160, 244
-0.998212, 161, 283, 192, 298
-0.998212, 217, 11, 248, 26
-0.998213, 49, 95, 80, 110
-0.998213, 165, 49, 196, 64
-0.998215, 221, 5, 252, 20
-0.998217, 185, 33, 216, 48
-0.998217, 81, 195, 112, 210
-0.998217, 177, 305, 240, 368
-0.998218, 193, 25, 208, 88
-0.99822, 129, 129, 192, 375
-0.998221, 17, 113, 48, 128
-0.998224, 41, 101, 72, 116
-0.998225, 189, 221, 220, 236
-0.998226, 177, 1, 208, 16
-0.998226, 121, 241, 152, 256
-0.998231, 1, 117, 32, 132
-0.998231, 101, 201, 132, 216
-0.998238, 29, 107, 60, 122
-0.998239, 245, 25, 276, 40
-0.998242, 113, 161, 144, 288
-0.998242, 145, 97, 272, 160
-0.998242, 197, 3, 228, 18
-0.998245, 37, 73, 68, 136
-0.998254, 187, 1, 202, 64
-0.99826, 33, 201, 160, 232
-0.998261, 165, 43, 196, 58
-0.998263, 201, 25, 216, 88
-0.998268, 229, 11, 260, 26
-0.998271, 241, 17, 272, 32
-0.99828, 173, 193, 204, 256
-0.998285, 17, 89, 32, 152
-0.998302, 97, 193, 224, 224
-0.998306, 81, 121, 208, 184
-0.998311, 209, 5, 240, 20
-0.998314, 65, 181, 192, 212
-0.998317, 161, 1, 416, 64
-0.998317, 33, 273, 288, 336
-0.998318, 35, 81, 50, 144
-0.998321, 109, 193, 140, 256
-0.998327, 113, 221, 240, 252
-0.998334, 97, 205, 224, 236
-0.998353, 141, 161, 172, 288
-0.998363, 179, 25, 194, 88
-0.998372, 27, 105, 42, 168
-0.998375, 5, 113, 20, 176
-0.998386, 49, 81, 80, 144
-0.998397, 45, 97, 60, 160
-0.998414, 181, 1, 196, 64
-0.998423, 95, 177, 110, 240
-0.998451, 33, 105, 48, 168
-0.998454, 97, 209, 352, 272
-0.998467, 113, 49, 144, 112
-0.998478, 193, 37, 320, 68
-0.998493, 129, 313, 256, 375
-0.998498, 137, 49, 168, 112
-0.998503, 11, 113, 26, 176
-0.998506, 29, 81, 44, 144
-0.998515, 159, 257, 174, 320
-0.998529, 221, 49, 252, 112
-0.998537, 17, 89, 144, 120
-0.998537, 173, 25, 188, 88
-0.998561, 97, 33, 128, 288
-0.998564, 193, 1, 224, 256
-0.998579, 1, 105, 256, 168
-0.998584, 257, 9, 272, 72
-0.998588, 103, 273, 118, 336
-0.998603, 253, 17, 284, 80
-0.998612, 11, 89, 26, 152
-0.998617, 169, 1, 200, 256
-0.998624, 43, 73, 58, 136
-0.998624, 125, 225, 156, 352
-0.998633, 165, 17, 180, 80
-0.998637, 157, 241, 188, 368
-0.998637, 39, 105, 54, 168
-0.998639, 5, 89, 20, 152
-0.99865, 169, 193, 232, 256
-0.998652, 17, 113, 32, 176
-0.998653, 177, 5, 240, 20
-0.998654, 89, 209, 120, 336
-0.998666, 101, 25, 132, 88
-0.998681, 97, 233, 224, 264
-0.998682, 241, 33, 272, 96
-0.99869, 169, 45, 232, 60
-0.9987, 201, 11, 264, 26
-0.998707, 169, 39, 232, 54
-0.998709, 131, 25, 146, 88
-0.998709, 17, 33, 144, 64
-0.99871, 137, 43, 200, 58
-0.99871, 217, 49, 232, 112
-0.998714, 65, 203, 128, 218
-0.998718, 89, 113, 152, 240
-0.998719, 161, 33, 224, 48
-0.998722, 97, 49, 224, 80
-0.998723, 201, 41, 264, 56
-0.998724, 73, 197, 136, 212
-0.998728, 1, 113, 64, 128
-0.998729, 209, 17, 272, 32
-0.99873, 57, 209, 120, 224
-0.99873, 9, 97, 72, 112
-0.998731, 73, 191, 136, 206
-0.998733, 33, 103, 96, 118
-0.998734, 113, 279, 176, 294
-0.998734, 73, 281, 136, 296
-0.998738, 201, 35, 264, 50
-0.998741, 81, 33, 112, 288
-0.998741, 209, 47, 272, 62
-0.998746, 25, 109, 88, 124
-0.998747, 1, 103, 64, 118
-0.998747, 129, 231, 192, 246
-0.998748, 99, 201, 114, 264
-0.998749, 169, 51, 232, 66
-0.998749, 153, 285, 216, 300
-0.99875, 209, 53, 272, 68
-0.99875, 89, 235, 152, 250
-0.99875, 41, 97, 104, 112
-0.998751, 73, 275, 136, 290
-0.998751, 121, 273, 184, 288
-0.998751, 201, 5, 264, 20
-0.998752, 161, 221, 224, 236
-0.998753, 145, 277, 208, 292
-0.998756, 97, 199, 160, 214
-0.998757, 107, 177, 122, 240
-0.998758, 213, 1, 228, 32
-0.998758, 137, 225, 200, 240
-0.998758, 145, 1, 208, 16
-0.99876, 113, 241, 176, 256
-0.998761, 73, 289, 136, 304
-0.998762, 145, 51, 208, 66
-0.998762, 57, 215, 120, 230
-0.998765, 89, 205, 152, 220
-0.998766, 49, 197, 112, 212
-0.998766, 155, 17, 170, 80
-0.998766, 89, 177, 104, 240
-0.998766, 25, 91, 88, 106
-0.998767, 169, 227, 232, 242
-0.998767, 137, 25, 152, 88
-0.998767, 49, 91, 112, 106
-0.998767, 113, 285, 176, 300
-0.998769, 1, 119, 64, 134
-0.99877, 101, 177, 116, 240
-0.998771, 145, 271, 208, 286
-0.998772, 201, 29, 264, 44
-0.998776, 225, 3, 288, 18
-0.998776, 177, 283, 240, 298
-0.998776, 145, 199, 208, 214
-0.998776, 113, 225, 176, 240
-0.998776, 81, 185, 144, 200
-0.998777, 89, 295, 152, 310
-0.998777, 217, 23, 280, 38
-0.998777, 129, 37, 192, 52
-0.99878, 233, 29, 296, 44
-0.99878, 89, 315, 152, 330
-0.998781, 113, 291, 176, 306
-0.998782, 137, 237, 200, 252
-0.998782, 161, 27, 224, 42
-0.998783, 97, 193, 160, 208
-0.998784, 57, 129, 120, 256
-0.998785, 57, 221, 120, 236
-0.998785, 97, 273, 160, 288
-0.998786, 153, 215, 216, 230
-0.998786, 89, 211, 152, 226
-0.998786, 89, 241, 152, 256
-0.998787, 97, 175, 160, 190
-0.998787, 129, 191, 192, 206
-0.998787, 73, 269, 136, 284
-0.998788, 249, 21, 312, 36
-0.998788, 89, 37, 152, 52
-0.998788, 49, 231, 112, 246
-0.998788, 133, 33, 164, 288
-0.998788, 207, 33, 222, 96
-0.998788, 153, 295, 216, 310
-0.998789, 145, 205, 208, 220
-0.99879, 65, 317, 128, 332
-0.99879, 89, 223, 152, 238
-0.99879, 233, 51, 296, 66
-0.998791, 41, 203, 104, 218
-0.998792, 169, 277, 232, 292
-0.998792, 49, 85, 112, 100
-0.998792, 57, 245, 120, 260
-0.998793, 89, 309, 152, 324
-0.998794, 249, 15, 312, 30
-0.998794, 129, 181, 192, 196
-0.998795, 129, 49, 144, 112
-0.998795, 49, 237, 112, 252
-0.998795, 89, 229, 152, 244
-0.998795, 9, 29, 72, 44
-0.998796, 57, 185, 120, 200
-0.998797, 241, 9, 304, 24
-0.998798, 81, 251, 144, 266
-0.998798, 121, 49, 184, 64
-0.998798, 65, 309, 128, 324
-0.998799, 73, 263, 136, 278
-0.998799, 49, 191, 112, 206
-0.9988, 193, 23, 256, 38
-0.998801, 121, 267, 184, 282
-0.998801, 105, 247, 168, 262
-0.998801, 201, 291, 264, 306
-0.998802, 129, 7, 192, 22
-0.998802, 193, 277, 256, 292
-0.998803, 89, 301, 152, 316
-0.998804, 137, 27, 200, 42
-0.998805, 57, 251, 120, 266
-0.998805, 185, 253, 248, 268
-0.998805, 65, 303, 128, 318
-0.998806, 113, 43, 176, 58
-0.998806, 145, 333, 208, 348
-0.998806, 185, 265, 248, 280
-0.998806, 233, 35, 296, 50
-0.998806, 97, 217, 160, 232
-0.998807, 193, 215, 256, 230
-0.998807, 209, 59, 272, 74
-0.998807, 177, 289, 240, 304
-0.998807, 65, 295, 128, 310
-0.998808, 185, 221, 248, 236
-0.998808, 233, 45, 296, 60
-0.998808, 145, 339, 208, 354
-0.998809, 169, 233, 232, 248
-0.998809, 169, 243, 232, 258
-0.998809, 65, 35, 128, 50
-0.99881, 41, 257, 104, 272
-0.99881, 145, 265, 208, 280
-0.99881, 249, 61, 312, 76
-0.99881, 169, 11, 232, 26
-0.99881, 113, 145, 176, 208
-0.99881, 201, 285, 264, 300
-0.99881, 49, 277, 112, 292
-0.998811, 105, 321, 168, 336
-0.998811, 121, 55, 184, 70
-0.998811, 25, 115, 88, 130
-0.998811, 253, 17, 268, 48
-0.998815, 23, 81, 38, 144
-0.998816, 51, 97, 66, 160
-0.998831, 145, 25, 160, 88
-0.998837, 225, 49, 352, 80
-0.998837, 137, 49, 152, 112
-0.998837, 1, 113, 128, 144
-0.99884, 167, 273, 182, 336
-0.998841, 165, 49, 180, 112
-0.998845, 105, 169, 136, 232
-0.998855, 187, 201, 202, 264
-0.998858, 235, 49, 250, 112
-0.998862, 155, 49, 170, 112
-0.998867, 121, 33, 152, 288
-0.998867, 119, 25, 134, 88
-0.998886, 57, 33, 88, 288
-0.998888, 219, 1, 234, 32
-0.998889, 125, 25, 140, 88
-0.9989, 101, 49, 132, 112
-0.9989, 113, 273, 128, 336
-0.998906, 137, 313, 200, 375
-0.998912, 247, 13, 262, 44
-0.998913, 5, 1, 36, 256
-0.998922, 193, 273, 208, 336
-0.998922, 123, 49, 138, 112
-0.998929, 129, 269, 256, 300
-0.99893, 289, 1, 352, 375
-0.998935, 149, 49, 164, 112
-0.99894, 195, 209, 210, 272
-0.998941, 223, 49, 238, 112
-0.998952, 49, 269, 176, 300
-0.998953, 83, 185, 98, 248
-0.998953, 225, 25, 480, 88
-0.998956, 177, 1, 304, 32
-0.998958, 113, 201, 128, 264
-0.99896, 153, 289, 184, 352
-0.998966, 145, 33, 176, 288
-0.99897, 49, 113, 176, 240
-0.998983, 101, 49, 116, 112
-0.998989, 143, 49, 158, 112
-0.999012, 173, 41, 188, 72
-0.999014, 109, 33, 140, 288
-0.999014, 115, 49, 130, 112
-0.999015, 49, 241, 176, 272
-0.999023, 107, 49, 122, 112
-0.999024, 273, 201, 336, 264
-0.999024, 175, 1, 190, 64
-0.999025, 229, 49, 244, 112
-0.999025, 241, 49, 256, 112
-0.999026, 167, 41, 182, 72
-0.999028, 129, 177, 256, 240
-0.999049, 161, 41, 176, 72
-0.999062, 1, 73, 500, 136
-0.999064, 225, 5, 240, 36
-0.999065, 111, 25, 126, 88
-0.999067, 187, 29, 202, 60
-0.999069, 49, 49, 176, 80
-0.999071, 49, 73, 64, 136
-0.999077, 177, 29, 192, 60
-0.999088, 1, 21, 128, 52
-0.999089, 225, 121, 352, 184
-0.999089, 69, 33, 100, 288
-0.999089, 47, 101, 62, 132
-0.999095, 17, 189, 144, 220
-0.999098, 105, 201, 120, 264
-0.999106, 207, 1, 222, 32
-0.999107, 225, 1, 352, 32
-0.999113, 1, 185, 500, 248
-0.999121, 129, 257, 384, 320
-0.999126, 105, 25, 120, 88
-0.999127, 129, 229, 144, 260
-0.999131, 37, 105, 52, 136
-0.999137, 23, 109, 38, 140
-0.999137, 259, 17, 274, 48
-0.999139, 17, 1, 48, 256
-0.99914, 1, 1, 500, 64
-0.999141, 201, 217, 216, 280
-0.999142, 49, 257, 176, 288
-0.999149, 155, 41, 170, 72
-0.999152, 171, 29, 186, 60
-0.999159, 103, 197, 118, 228
-0.999161, 31, 105, 46, 136
-0.999164, 225, 21, 352, 52
-0.999166, 179, 41, 194, 72
-0.99917, 7, 113, 22, 144
-0.999175, 49, 281, 176, 312
-0.999179, 159, 261, 174, 292
-0.999179, 97, 73, 224, 136
-0.999179, 241, 13, 256, 44
-0.999181, 157, 33, 188, 288
-0.999183, 77, 185, 92, 248
-0.999189, 117, 169, 132, 232
-0.999189, 63, 209, 78, 272
-0.999192, 1, 117, 16, 148
-0.999192, 53, 93, 68, 124
-0.999194, 97, 201, 112, 232
-0.999197, 199, 29, 214, 60
-0.999197, 13, 113, 28, 144
-0.999202, 95, 49, 110, 112
-0.999205, 125, 217, 140, 280
-0.999216, 257, 1, 384, 64
-0.999216, 1, 105, 16, 136
-0.99922, 57, 89, 72, 152
-0.999223, 9, 1, 24, 64
-0.999224, 187, 1, 202, 32
-0.999229, 13, 101, 28, 132
-0.999229, 109, 193, 124, 224
-0.999235, 3, 1, 18, 64
-0.999236, 231, 5, 246, 36
-0.999238, 161, 221, 288, 252
-0.999238, 95, 281, 110, 344
-0.999244, 207, 37, 222, 68
-0.999247, 129, 257, 256, 288
-0.99925, 163, 29, 178, 60
-0.99925, 25, 97, 40, 128
-0.999253, 7, 101, 22, 132
-0.999254, 171, 49, 186, 112
-0.999255, 135, 233, 150, 264
-0.99926, 35, 93, 50, 124
-0.999269, 177, 205, 304, 236
-0.999269, 177, 1, 192, 32
-0.999272, 257, 33, 272, 96
-0.999272, 213, 45, 228, 76
-0.999276, 201, 221, 216, 252
-0.999281, 81, 13, 208, 44
-0.99929, 41, 89, 56, 120
-0.99929, 45, 33, 76, 288
-0.999293, 83, 289, 98, 352
-0.999293, 193, 29, 208, 60
-0.999294, 89, 185, 104, 216
-0.999295, 153, 225, 168, 288
-0.999297, 77, 129, 108, 375
-0.999299, 143, 37, 158, 68
-0.999299, 149, 41, 164, 72
-0.999299, 221, 249, 236, 312
-0.999304, 195, 1, 210, 32
-0.999307, 173, 273, 188, 336
-0.999308, 127, 37, 142, 68
-0.99931, 137, 37, 152, 68
-0.99931, 57, 177, 88, 304
-0.99931, 89, 41, 104, 104
-0.999311, 141, 229, 156, 260
-0.999322, 109, 273, 124, 304
-0.999324, 29, 1, 60, 256
-0.999324, 113, 245, 240, 276
-0.999325, 165, 281, 180, 312
-0.999329, 199, 273, 214, 336
-0.999329, 231, 1, 246, 128
-0.99933, 19, 97, 34, 128
-0.999332, 159, 233, 174, 296
-0.999335, 193, 225, 448, 288
-0.999337, 195, 277, 210, 308
-0.999341, 181, 193, 196, 256
-0.999347, 15, 1, 30, 64
-0.99935, 121, 281, 136, 344
-0.999353, 195, 217, 210, 248
-0.999353, 125, 161, 140, 224
-0.999356, 123, 233, 138, 264
-0.999358, 189, 205, 204, 236
-0.999359, 99, 25, 114, 88
-0.999361, 237, 1, 252, 128
-0.999363, 159, 53, 174, 84
-0.999371, 131, 233, 146, 296
-0.999372, 99, 213, 114, 244
-0.999373, 121, 37, 136, 68
-0.999374, 143, 49, 158, 80
-0.999377, 165, 53, 180, 84
-0.999378, 97, 281, 224, 312
-0.999386, 103, 277, 118, 308
-0.999389, 163, 149, 178, 164
-0.999389, 255, 13, 270, 28
-0.999389, 93, 315, 108, 330
-0.999389, 185, 279, 200, 294
-0.999389, 1, 123, 16, 138
-0.999389, 115, 247, 130, 262
-0.99939, 157, 279, 172, 294
-0.99939, 25, 117, 40, 132
-0.99939, 73, 205, 88, 220
-0.99939, 153, 221, 168, 252
-0.999391, 171, 25, 186, 40
-0.999391, 249, 9, 264, 24
-0.999391, 81, 193, 96, 208
-0.999391, 171, 307, 186, 322
-0.999391, 83, 309, 98, 324
-0.999391, 173, 37, 188, 52
-0.999391, 243, 1, 258, 128
-0.999391, 113, 205, 128, 220
-0.999391, 31, 115, 46, 130
-0.999392, 201, 305, 216, 320
-0.999392, 179, 199, 194, 214
-0.999392, 193, 213, 208, 228
-0.999393, 239, 55, 254, 70
-0.999393, 151, 231, 166, 246
-0.999393, 113, 297, 128, 312
-0.999393, 49, 95, 64, 110
-0.999393, 165, 299, 180, 314
-0.999394, 219, 251, 234, 266
-0.999394, 161, 225, 176, 240
-0.999394, 83, 189, 98, 220
-0.999394, 143, 49, 158, 64
-0.999394, 231, 271, 246, 286
-0.999395, 123, 195, 138, 210
-0.999395, 113, 291, 128, 306
-0.999395, 199, 285, 214, 300
-0.999395, 163, 139, 178, 154
-0.999395, 19, 119, 34, 134
-0.999395, 149, 49, 164, 64
-0.999395, 13, 121, 28, 136
-0.999396, 233, 55, 248, 70
-0.999396, 229, 279, 244, 294
-0.999396, 163, 153, 178, 216
-0.999397, 181, 51, 196, 66
-0.999397, 153, 261, 168, 276
-0.999397, 233, 3, 248, 18
-0.999397, 135, 235, 150, 250
-0.999397, 195, 3, 210, 18
-0.999397, 261, 19, 276, 34
-0.999397, 47, 89, 62, 120
-0.999398, 77, 199, 92, 214
-0.999398, 151, 43, 166, 58
-0.999398, 83, 317, 98, 332
-0.999398, 107, 279, 122, 294
-0.999398, 185, 205, 200, 220
-0.999398, 43, 99, 58, 114
-0.999399, 171, 277, 186, 292
-0.999399, 169, 1, 184, 16
-0.999399, 153, 271, 168, 286
-0.9994, 223, 53, 238, 68
-0.9994, 123, 227, 138, 242
-0.9994, 227, 1, 242, 16
-0.9994, 215, 53, 230, 68
-0.999401, 169, 285, 184, 300
-0.999401, 187, 285, 202, 300
-0.999401, 175, 331, 190, 346
-0.999402, 123, 247, 138, 262
-0.999402, 169, 241, 200, 368
-0.999402, 121, 249, 136, 312
-0.999402, 157, 43, 172, 58
-0.999403, 35, 103, 50, 118
-0.999403, 95, 181, 110, 212
-0.999403, 171, 9, 186, 24
-0.999403, 177, 27, 192, 42
-0.999404, 159, 273, 174, 288
-0.999404, 205, 37, 220, 52
-0.999404, 117, 285, 132, 300
-0.999404, 219, 49, 234, 80
-0.999405, 47, 107, 62, 122
-0.999405, 157, 29, 172, 60
-0.999405, 115, 191, 130, 206
-0.999405, 239, 7, 254, 22
-0.999406, 249, 27, 264, 42
-0.999407, 101, 215, 116, 230
-0.999408, 87, 187, 102, 202
-0.999408, 95, 183, 110, 198
-0.999408, 155, 49, 170, 64
-0.999409, 143, 227, 158, 242
-0.99941, 211, 47, 226, 62
-0.999411, 201, 1, 216, 32
-0.999411, 113, 275, 128, 290
-0.999411, 161, 51, 176, 66
-0.999411, 37, 111, 52, 126
-0.999411, 203, 1, 218, 16
-0.999411, 107, 211, 122, 226
-0.999412, 117, 277, 132, 308
-0.999412, 183, 27, 198, 42
-0.999413, 155, 225, 170, 240
-0.999414, 193, 29, 208, 44
-0.999415, 177, 1, 192, 16
-0.999416, 183, 45, 198, 60
-0.999417, 55, 97, 70, 112
-0.999417, 143, 235, 158, 250
-0.999417, 151, 265, 166, 328
-0.999417, 93, 211, 108, 226
-0.999418, 65, 169, 192, 200
-0.999419, 7, 117, 22, 132
-0.999419, 49, 77, 176, 108
-0.999419, 249, 1, 264, 128
-0.999419, 195, 279, 210, 294
-0.999419, 175, 49, 190, 64
-0.999419, 129, 243, 144, 258
-0.99942, 105, 201, 120, 216
-0.999421, 227, 257, 242, 320
-0.999421, 195, 219, 210, 234
-0.999422, 161, 267, 176, 282
-0.999422, 147, 225, 162, 256
-0.999423, 13, 115, 28, 130
-0.999424, 259, 25, 274, 40
-0.999424, 163, 43, 178, 58
-0.999425, 121, 241, 136, 256
-0.999426, 183, 1, 198, 16
-0.999427, 19, 113, 34, 128
-0.999428, 199, 31, 214, 46
-0.999428, 135, 229, 150, 244
-0.999429, 167, 51, 182, 66
-0.999429, 129, 241, 144, 272
-0.999429, 161, 113, 176, 176
-0.999429, 109, 195, 124, 210
-0.99943, 31, 109, 46, 124
-0.99943, 135, 241, 150, 256
-0.999431, 201, 223, 216, 238
-0.999431, 189, 1, 204, 16
-0.999431, 149, 225, 164, 240
-0.999431, 25, 111, 40, 126
-0.999431, 171, 43, 186, 58
-0.999431, 135, 49, 150, 80
-0.999433, 41, 105, 56, 120
-0.999433, 153, 53, 168, 84
-0.999434, 1, 117, 16, 132
-0.999435, 49, 101, 64, 116
-0.999435, 115, 201, 130, 232
-0.999436, 171, 9, 186, 40
-0.999437, 189, 277, 204, 308
-0.999438, 163, 281, 178, 296
-0.999439, 243, 13, 258, 28
-0.999439, 1, 145, 128, 208
-0.999441, 233, 9, 248, 24
-0.999444, 111, 249, 126, 312
-0.999444, 107, 209, 122, 240
-0.999445, 81, 61, 208, 92
-0.999446, 231, 269, 246, 300
-0.999446, 99, 205, 114, 220
-0.999447, 179, 273, 194, 336
-0.999449, 255, 1, 270, 128
-0.99945, 177, 43, 192, 58
-0.99945, 209, 3, 224, 18
-0.999451, 121, 241, 152, 304
-0.999453, 249, 15, 264, 30
-0.999453, 119, 201, 134, 264
-0.999453, 253, 5, 268, 36
-0.999453, 229, 53, 244, 84
-0.999454, 93, 209, 108, 272
-0.999455, 129, 235, 144, 250
-0.999458, 105, 153, 120, 216
-0.999459, 75, 197, 90, 228
-0.99946, 25, 177, 88, 240
-0.999461, 177, 13, 192, 44
-0.999461, 119, 189, 134, 220
-0.999462, 213, 25, 228, 88
-0.999462, 155, 145, 170, 208
-0.999463, 227, 7, 242, 22
-0.999464, 253, 29, 268, 60
-0.999464, 115, 37, 130, 68
-0.999465, 155, 177, 170, 240
-0.999468, 159, 273, 174, 304
-0.999468, 107, 33, 122, 64
-0.999468, 215, 3, 230, 18
-0.999469, 97, 33, 112, 64
-0.99947, 49, 81, 80, 208
-0.999471, 209, 97, 336, 160
-0.999474, 193, 233, 320, 264
-0.999474, 119, 1, 134, 64
-0.999475, 221, 5, 236, 20
-0.999478, 83, 309, 98, 340
-0.999478, 213, 241, 228, 304
-0.99948, 255, 19, 270, 34
-0.999481, 207, 225, 222, 288
-0.999482, 131, 217, 146, 248
-0.999484, 89, 281, 104, 344
-0.999484, 83, 161, 98, 224
-0.999485, 177, 49, 192, 112
-0.999486, 129, 49, 144, 80
-0.999487, 59, 89, 74, 120
-0.99949, 47, 9, 62, 72
-0.999493, 93, 313, 108, 344
-0.999493, 113, 129, 144, 375
-0.999493, 49, 317, 176, 348
-0.999493, 123, 221, 138, 252
-0.999494, 247, 25, 262, 56
-0.999495, 1, 13, 16, 44
-0.999496, 39, 9, 54, 72
-0.999496, 61, 17, 76, 80
-0.999496, 221, 25, 236, 88
-0.999496, 233, 281, 248, 312
-0.999499, 91, 209, 106, 240
-0.9995, 185, 17, 200, 144
-0.999506, 171, 53, 186, 84
-0.999508, 91, 33, 106, 64
-0.99951, 237, 1, 252, 32
-0.999511, 1, 1, 128, 32
-0.999513, 117, 25, 132, 56
-0.999513, 171, 285, 186, 316
-0.999517, 183, 201, 198, 232
-0.999518, 91, 313, 106, 375
-0.999518, 239, 53, 254, 84
-0.999518, 185, 45, 200, 76
-0.999519, 175, 313, 190, 344
-0.99952, 169, 249, 184, 312
-0.999522, 85, 33, 100, 64
-0.999524, 251, 33, 266, 96
-0.999524, 175, 297, 190, 360
-0.999526, 159, 221, 174, 252
-0.999527, 225, 1, 240, 128
-0.999527, 241, 33, 368, 64
-0.999531, 193, 17, 208, 48
-0.999533, 137, 281, 152, 344
-0.999534, 183, 17, 198, 48
-0.999535, 89, 129, 120, 375
-0.999539, 127, 25, 142, 56
-0.99954, 151, 29, 166, 60
-0.99954, 101, 177, 116, 208
-0.999542, 191, 17, 206, 144
-0.999543, 17, 177, 144, 208
-0.999543, 101, 13, 116, 44
-0.999543, 129, 177, 384, 240
-0.999544, 125, 1, 140, 64
-0.999544, 121, 49, 136, 80
-0.999544, 69, 201, 84, 264
-0.999545, 151, 269, 166, 300
-0.999547, 225, 261, 240, 292
-0.999547, 195, 289, 210, 320
-0.999547, 181, 241, 212, 368
-0.99955, 179, 17, 194, 144
-0.999551, 243, 1, 258, 32
-0.999552, 165, 269, 180, 300
-0.999553, 109, 45, 124, 76
-0.999558, 225, 41, 240, 72
-0.99956, 175, 181, 190, 212
-0.999562, 7, 13, 22, 44
-0.999562, 177, 193, 304, 224
-0.999562, 123, 245, 138, 276
-0.999571, 241, 65, 368, 192
-0.999572, 193, 49, 448, 112
-0.999574, 199, 17, 214, 144
-0.999581, 225, 49, 288, 176
-0.999608, 205, 33, 236, 288
-0.999614, 217, 1, 280, 256
-0.999622, 173, 17, 188, 144
-0.999634, 31, 33, 46, 160
-0.999649, 205, 17, 220, 144
-0.999651, 81, 1, 208, 32
-0.999655, 161, 17, 176, 144
-0.999667, 23, 33, 38, 160
-0.999675, 167, 17, 182, 144
-0.999682, 213, 49, 244, 176
-0.999684, 99, 33, 114, 160
-0.999689, 39, 33, 54, 160
-0.999697, 143, 1, 158, 128
-0.999699, 45, 33, 60, 160
-0.999699, 17, 65, 32, 192
-0.999699, 87, 161, 102, 288
-0.999699, 197, 217, 228, 280
-0.999699, 105, 273, 136, 336
-0.9997, 155, 17, 170, 144
-0.999702, 1, 45, 128, 76
-0.999703, 65, 329, 192, 360
-0.999705, 105, 33, 120, 160
-0.999706, 191, 193, 206, 320
-0.999708, 137, 1, 152, 128
-0.999714, 201, 209, 216, 336
-0.999715, 149, 17, 164, 144
-0.999716, 181, 177, 196, 304
-0.999719, 11, 65, 26, 192
-0.99972, 211, 33, 226, 160
-0.999722, 261, 1, 276, 128
-0.999722, 23, 97, 38, 224
-0.999723, 93, 161, 108, 288
-0.999723, 5, 97, 36, 352
-0.999724, 89, 33, 104, 160
-0.999725, 115, 33, 130, 160
-0.99973, 211, 225, 226, 352
-0.999733, 217, 225, 232, 352
-0.999734, 37, 81, 52, 208
-0.999735, 79, 177, 94, 304
-0.999738, 81, 33, 96, 160
-0.999738, 29, 97, 44, 224
-0.999741, 113, 181, 240, 212
-0.999743, 163, 241, 178, 368
-0.999748, 219, 1, 234, 128
-0.999749, 21, 97, 52, 352
-0.999749, 5, 1, 20, 128
-0.999749, 121, 33, 136, 160
-0.999754, 129, 129, 256, 160
-0.999757, 75, 33, 90, 160
-0.999762, 17, 17, 32, 144
-0.999764, 51, 81, 66, 208
-0.999766, 127, 17, 142, 144
-0.999767, 11, 1, 26, 128
-0.999774, 65, 33, 80, 160
-0.999775, 5, 65, 20, 192
-0.999776, 273, 49, 400, 112
-0.999777, 73, 177, 88, 304
-0.999778, 57, 209, 88, 272
-0.999779, 1, 265, 128, 296
-0.999783, 43, 81, 58, 208
-0.999785, 191, 241, 206, 368
-0.999785, 155, 241, 170, 368
-0.999787, 99, 161, 114, 288
-0.999794, 103, 241, 118, 368
-0.999799, 129, 141, 256, 172
-0.999799, 257, 9, 320, 72
-0.999802, 135, 161, 150, 288
-0.999804, 135, 209, 150, 336
-0.999806, 51, 33, 66, 160
-0.999808, 115, 225, 130, 352
-0.999808, 59, 49, 74, 176
-0.999811, 105, 145, 120, 272
-0.999812, 121, 145, 136, 272
-0.999813, 91, 225, 106, 352
-0.999816, 65, 153, 320, 216
-0.999822, 173, 249, 204, 312
-0.999826, 67, 177, 82, 304
-0.999827, 273, 177, 400, 240
-0.999829, 81, 157, 208, 188
-0.999843, 145, 281, 272, 312
-0.999847, 5, 113, 20, 240
-0.999847, 111, 145, 126, 272
-0.999851, 183, 225, 198, 352
-0.999852, 13, 113, 28, 240
-0.999856, 59, 1, 74, 128
-0.999856, 145, 161, 160, 288
-0.99986, 105, 193, 120, 320
-0.999862, 177, 241, 192, 368
-0.999862, 177, 265, 304, 296
-0.999865, 127, 225, 142, 352
-0.999868, 17, 61, 144, 92
-0.999868, 141, 241, 156, 368
-0.999868, 223, 225, 238, 352
-0.999868, 97, 317, 224, 348
-0.99987, 127, 161, 142, 288
-0.99987, 171, 225, 186, 352
-0.999873, 153, 161, 168, 288
-0.999878, 133, 49, 148, 176
-0.99988, 235, 49, 250, 176
-0.999881, 1, 253, 128, 284
-0.999883, 217, 49, 232, 176
-0.999884, 161, 97, 176, 224
-0.999884, 65, 89, 192, 120
-0.999884, 209, 245, 336, 276
-0.999888, 81, 145, 208, 176
-0.99989, 61, 193, 76, 320
-0.999893, 145, 233, 272, 264
-0.999894, 175, 177, 190, 304
-0.999894, 97, 225, 112, 352
-0.9999, 49, 297, 176, 328
-0.9999, 223, 49, 238, 176
-0.999906, 97, 73, 224, 104
-0.99991, 229, 49, 244, 176
-0.999911, 77, 241, 92, 368
-0.999913, 95, 113, 110, 240
-0.999914, 109, 241, 124, 368
-0.999915, 139, 49, 154, 176
-0.999921, 1, 77, 128, 108
-0.999923, 81, 129, 208, 160
-0.999928, 85, 241, 100, 368
-0.999929, 159, 177, 174, 304
-0.999929, 257, 205, 384, 236
-0.999931, 89, 81, 104, 208
-0.999932, 101, 129, 132, 375
-0.999932, 229, 225, 244, 352
-0.999933, 121, 225, 136, 352
-0.999934, 83, 81, 98, 208
-0.999938, 155, 97, 170, 224
-0.999941, 207, 177, 222, 304
-0.999943, 147, 241, 162, 368
-0.999944, 49, 97, 176, 160
-0.999947, 177, 121, 304, 184
-0.999948, 121, 161, 152, 224
-0.99995, 165, 49, 196, 112
-0.999951, 169, 177, 184, 304
-0.999953, 241, 49, 256, 176
-0.999961, 81, 129, 96, 256
-0.999967, 71, 225, 86, 352
-0.99997, 193, 61, 320, 92
-0.99997, 241, 61, 368, 92
-0.999971, 213, 177, 228, 304
-0.999981, 157, 129, 188, 256
-0.999981, 89, 49, 120, 112
-0.999984, 77, 81, 92, 208
-0.999987, 167, 97, 182, 224
-0.999989, 201, 161, 216, 288
-0.999991, 55, 161, 70, 288
-0.999995, 65, 81, 80, 208
-0.999995, 221, 177, 236, 304
-0.999998, 235, 225, 250, 352
-1, 75, 129, 90, 256
-1.00001, 129, 61, 256, 92
-1.00001, 61, 145, 76, 272
-1.00001, 65, 241, 80, 368
-1.00002, 183, 113, 198, 240
-1.00002, 131, 113, 146, 240
-1.00002, 161, 245, 288, 276
-1.00002, 143, 113, 158, 240
-1.00002, 57, 97, 72, 224
-1.00002, 101, 81, 116, 208
-1.00002, 177, 129, 192, 256
-1.00003, 189, 145, 204, 272
-1.00003, 307, 33, 322, 160
-1.00003, 71, 81, 86, 208
-1.00003, 113, 169, 240, 200
-1.00003, 217, 33, 248, 288
-1.00003, 149, 97, 164, 224
-1.00004, 137, 113, 152, 240
-1.00004, 1, 165, 128, 196
-1.00007, 209, 241, 240, 304
-1.00007, 161, 181, 288, 212
-1.00007, 193, 201, 448, 264
-1.00007, 97, 305, 224, 336
-1.00008, 1, 277, 128, 308
-1.00008, 129, 153, 256, 184
-1.00008, 177, 313, 304, 375
-1.00008, 33, 97, 64, 352
-1.00008, 1, 241, 500, 304
-1.00008, 133, 225, 164, 288
-1.00009, 161, 325, 288, 356
-1.00012, 189, 273, 220, 336
-1.00012, 189, 129, 220, 375
-1.00014, 1, 313, 128, 344
-1.00014, 161, 129, 192, 375
-1.00015, 273, 137, 400, 200
-1.00015, 129, 117, 256, 148
-1.00016, 241, 225, 368, 256
-1.00016, 97, 293, 224, 324
-1.00016, 129, 105, 256, 136
-1.00016, 113, 329, 240, 360
-1.00017, 209, 281, 336, 344
-1.00019, 129, 105, 384, 168
-1.00019, 65, 129, 96, 375
-1.00021, 145, 293, 272, 324
-1.00021, 193, 193, 256, 256
-1.00022, 125, 129, 156, 375
-1.00022, 1, 241, 128, 272
-1.00022, 33, 313, 288, 375
-1.00023, 209, 125, 336, 156
-1.00024, 205, 129, 236, 375
-1.00024, 229, 33, 260, 288
-1.00025, 145, 89, 272, 120
-1.00026, 177, 129, 208, 375
-1.00026, 305, 113, 432, 176
-1.00027, 141, 241, 172, 368
-1.00027, 273, 49, 400, 80
-1.00027, 217, 225, 280, 288
-1.00027, 161, 337, 288, 368
-1.00028, 273, 225, 400, 288
-1.00028, 1, 49, 500, 112
-1.0003, 161, 81, 416, 144
-1.00031, 1, 25, 500, 88
-1.00031, 49, 341, 176, 372
-1.00032, 145, 313, 272, 344
-1.00033, 17, 329, 144, 360
-1.00034, 193, 73, 320, 104
-1.00035, 149, 129, 180, 375
-1.00035, 289, 193, 416, 224
-1.00037, 289, 129, 416, 160
-1.00038, 49, 101, 176, 132
-1.00038, 209, 277, 336, 308
-1.00038, 265, 49, 328, 112
-1.00039, 129, 281, 384, 344
-1.00039, 97, 129, 352, 192
-1.00039, 25, 225, 88, 352
-1.0004, 145, 77, 272, 108
-1.0004, 313, 1, 376, 375
-1.00041, 289, 225, 416, 256
-1.00041, 137, 129, 168, 375
-1.00042, 225, 257, 352, 288
-1.00042, 1, 297, 128, 328
-1.00043, 161, 169, 288, 200
-1.00043, 225, 113, 352, 144
-1.00044, 1, 129, 128, 256
-1.00044, 257, 129, 500, 256
-1.00045, 97, 97, 224, 160
-1.00047, 153, 153, 184, 216
-1.00048, 81, 117, 208, 148
-1.00048, 193, 89, 320, 120
-1.00048, 257, 1, 320, 375
-1.00049, 81, 281, 112, 344
-1.0005, 77, 41, 108, 104
-1.0005, 1, 49, 32, 176
-1.00051, 305, 205, 432, 236
-1.00052, 273, 237, 400, 268
-1.00052, 209, 137, 336, 168
-1.00053, 289, 109, 416, 140
-1.00054, 209, 317, 336, 348
-1.00057, 305, 61, 432, 92
-1.00058, 321, 49, 448, 80
-1.00058, 225, 101, 352, 132
-1.00058, 241, 81, 368, 112
-1.00058, 273, 141, 400, 172
-1.00058, 209, 293, 336, 324
-1.00058, 97, 341, 224, 372
-1.0006, 1, 1, 32, 64
-1.0006, 1, 341, 128, 372
-1.00061, 137, 137, 200, 200
-1.00062, 33, 141, 160, 172
-1.00063, 193, 305, 320, 336
-1.00064, 193, 177, 256, 304
-1.00065, 241, 1, 272, 256
-1.00065, 305, 37, 432, 68
-1.00065, 197, 241, 228, 304
-1.00066, 165, 305, 196, 368
-1.00066, 33, 153, 160, 184
-1.00067, 337, 173, 464, 204
-1.00068, 125, 145, 156, 272
-1.00068, 153, 105, 216, 168
-1.00068, 273, 13, 400, 44
-1.00068, 61, 241, 92, 368
-1.00069, 105, 313, 168, 375
-1.00072, 177, 101, 304, 132
-1.00073, 161, 153, 416, 216
-1.00073, 289, 73, 416, 104
-1.00073, 217, 241, 248, 368
-1.00076, 1, 209, 500, 272
-1.0008, 81, 313, 112, 375
-1.0008, 225, 257, 352, 320
-1.00081, 257, 1, 500, 64
-1.00083, 33, 9, 64, 72
-1.00085, 305, 201, 432, 264
-1.00086, 217, 129, 248, 375
-1.00087, 25, 249, 88, 312
-1.00091, 305, 25, 432, 88
-1.00092, 193, 129, 448, 192
-1.00093, 321, 137, 448, 200
-1.00093, 53, 129, 84, 375
-1.00093, 145, 233, 176, 296
-1.00097, 225, 25, 256, 88
-1.00098, 129, 193, 160, 256
-1.001, 89, 25, 120, 88
-1.001, 217, 225, 280, 352
-1.00107, 225, 249, 480, 312
-1.00108, 129, 313, 384, 375
-1.00109, 229, 129, 260, 375
-1.00109, 41, 273, 104, 336
-1.0011, 289, 73, 416, 136
-1.0011, 309, 33, 340, 288
-1.0011, 97, 65, 224, 192
-1.0011, 293, 97, 324, 352
-1.00112, 253, 1, 284, 256
-1.00113, 85, 209, 116, 272
-1.00113, 1, 129, 256, 192
-1.00114, 257, 129, 384, 256
-1.00114, 209, 281, 272, 344
-1.00115, 325, 65, 356, 320
-1.00116, 1, 161, 500, 224
-1.0012, 141, 177, 172, 240
-1.0012, 81, 257, 112, 320
-1.00121, 281, 65, 312, 320
-1.00122, 169, 161, 232, 288
-1.00122, 313, 129, 344, 375
-1.00124, 225, 105, 480, 168
-1.00124, 241, 305, 368, 368
-1.00126, 249, 209, 312, 272
-1.00127, 353, 161, 480, 224
-1.00128, 177, 169, 240, 232
-1.00129, 245, 97, 276, 352
-1.0013, 297, 1, 328, 256
-1.00131, 257, 177, 500, 240
-1.00134, 269, 65, 300, 320
-1.00134, 93, 305, 124, 368
-1.00135, 93, 153, 124, 216
-1.00135, 81, 113, 112, 240
-1.00135, 113, 121, 176, 184
-1.00135, 113, 1, 144, 64
-1.00135, 185, 57, 248, 120
-1.00136, 289, 41, 352, 104
-1.00136, 161, 233, 192, 296
-1.00137, 257, 97, 384, 160
-1.00141, 345, 97, 376, 352
-1.00141, 369, 33, 400, 288
-1.00143, 413, 1, 444, 256
-1.00144, 357, 65, 388, 320
-1.00144, 225, 313, 480, 375
-1.00145, 225, 145, 352, 208
-1.00146, 393, 33, 424, 288
-1.00147, 441, 1, 472, 256
-1.00149, 185, 129, 248, 375
-1.0015, 345, 1, 376, 256
-1.00151, 257, 97, 288, 352
-1.00151, 13, 1, 44, 64
-1.00151, 9, 201, 72, 264
-1.00151, 1, 265, 500, 328
-1.00152, 57, 57, 88, 120
-1.00152, 429, 1, 460, 256
-1.00152, 257, 81, 500, 144
-1.00153, 381, 65, 412, 320
-1.00154, 141, 145, 172, 208
-1.00157, 353, 1, 416, 375
-1.00157, 117, 217, 148, 280
-1.00157, 453, 65, 484, 320
-1.00158, 225, 49, 256, 176
-1.00158, 1, 97, 500, 160
-1.00159, 45, 17, 76, 80
-1.00161, 465, 65, 496, 320
-1.00161, 153, 113, 216, 240
-1.00162, 321, 49, 448, 112
-1.00164, 321, 225, 448, 288
-1.00166, 369, 129, 400, 375
-1.00166, 133, 273, 164, 336
-1.00167, 441, 97, 472, 352
-1.00167, 1, 289, 500, 352
-1.00167, 409, 129, 440, 375
-1.00168, 429, 129, 460, 375
-1.00168, 353, 193, 480, 256
-1.00169, 225, 289, 480, 352
-1.00171, 117, 281, 148, 344
-1.00171, 61, 81, 92, 208
-1.00172, 393, 129, 424, 375
-1.00174, 213, 25, 244, 88
-1.00178, 41, 41, 72, 104
-1.00179, 257, 153, 500, 216
-1.0018, 109, 249, 140, 312
-1.00189, 305, 1, 432, 64
-1.00195, 81, 153, 112, 216
-1.00196, 425, 1, 488, 375
-1.00199, 237, 49, 268, 176
-1.00201, 385, 1, 448, 375
-1.00202, 101, 1, 132, 64
-1.00202, 209, 257, 272, 320
-1.00202, 353, 113, 480, 176
-1.00202, 41, 297, 104, 360
-1.00204, 273, 249, 400, 312
-1.00211, 161, 137, 224, 200
-1.00211, 161, 177, 192, 240
-1.00211, 221, 265, 252, 328
-1.00211, 337, 89, 464, 152
-1.00212, 125, 1, 156, 64
-1.00216, 145, 97, 176, 224
-1.00217, 85, 1, 116, 64
-1.00218, 57, 17, 88, 80
-1.00222, 57, 249, 88, 312
-1.00225, 193, 81, 256, 144
-1.00227, 225, 169, 352, 232
-1.00228, 233, 65, 296, 128
-1.00231, 177, 297, 208, 360
-1.00235, 1, 313, 500, 375
-1.00241, 45, 217, 76, 280
-1.00241, 157, 193, 188, 320
-1.00245, 69, 289, 100, 352
-1.00247, 81, 233, 112, 296
-1.00247, 369, 137, 496, 200
-1.00251, 273, 177, 400, 304
-1.00252, 137, 1, 168, 64
-1.00253, 1, 129, 500, 192
-1.00256, 369, 217, 496, 280
-1.00258, 1, 121, 64, 184
-1.00258, 45, 193, 76, 320
-1.00259, 201, 161, 232, 288
-1.00266, 69, 1, 100, 64
-1.00266, 201, 265, 232, 328
-1.00267, 153, 209, 184, 272
-1.00267, 149, 121, 180, 184
-1.00272, 217, 177, 280, 304
-1.00273, 61, 81, 92, 144
-1.00274, 369, 241, 496, 304
-1.00274, 353, 305, 480, 368
-1.00274, 289, 49, 416, 176
-1.00276, 353, 1, 480, 64
-1.00276, 369, 41, 496, 104
-1.00276, 337, 281, 464, 344
-1.00279, 81, 73, 112, 136
-1.00281, 97, 249, 128, 312
-1.00283, 105, 113, 136, 240
-1.00286, 189, 305, 220, 368
-1.00288, 305, 305, 432, 368
-1.0029, 201, 313, 264, 375
-1.00291, 321, 249, 448, 312
-1.00291, 289, 281, 416, 344
-1.00292, 57, 169, 88, 232
-1.00296, 229, 225, 260, 352
-1.00298, 233, 57, 264, 120
-1.00304, 185, 129, 216, 256
-1.00306, 153, 313, 184, 375
-1.00306, 281, 225, 344, 288
-1.00308, 185, 225, 216, 288
-1.0031, 305, 1, 432, 128
-1.00315, 69, 233, 100, 296
-1.00317, 257, 177, 500, 304
-1.00319, 173, 169, 204, 232
-1.0032, 369, 65, 496, 128
-1.0032, 213, 177, 244, 304
-1.00322, 289, 65, 352, 128
-1.00327, 69, 161, 100, 224
-1.00327, 125, 305, 156, 368
-1.00332, 197, 49, 228, 112
-1.00333, 25, 33, 56, 96
-1.00336, 1, 25, 32, 88
-1.00337, 137, 297, 168, 360
-1.00343, 97, 73, 160, 136
-1.00345, 201, 105, 264, 168
-1.00347, 161, 81, 224, 144
-1.00351, 69, 209, 100, 272
-1.00353, 177, 113, 240, 240
-1.00356, 209, 129, 272, 375
-1.00357, 297, 49, 328, 112
-1.0036, 177, 49, 208, 112
-1.0036, 313, 49, 344, 176
-1.00367, 69, 265, 100, 328
-1.00371, 157, 81, 188, 208
-1.00372, 285, 201, 316, 264
-1.00373, 9, 161, 72, 288
-1.00378, 13, 33, 44, 96
-1.0038, 45, 185, 76, 248
-1.0038, 245, 57, 276, 120
-1.00382, 305, 105, 368, 168
-1.00386, 209, 217, 240, 280
-1.00395, 161, 129, 192, 192
-1.00399, 33, 129, 96, 256
-1.00402, 225, 289, 256, 352
-1.00402, 93, 81, 124, 208
-1.00403, 197, 185, 228, 248
-1.00403, 93, 73, 124, 136
-1.00406, 109, 305, 140, 368
-1.0041, 289, 49, 352, 176
-1.0042, 241, 1, 304, 256
-1.00422, 57, 129, 88, 256
-1.00426, 233, 89, 296, 152
-1.00427, 225, 241, 352, 368
-1.0043, 133, 97, 164, 224
-1.00439, 233, 249, 296, 312
-1.0044, 305, 209, 368, 272
-1.00441, 33, 153, 96, 216
-1.00453, 217, 201, 280, 264
-1.00454, 193, 129, 256, 192
-1.00456, 281, 105, 344, 168
-1.00467, 297, 33, 328, 160
-1.00468, 121, 97, 152, 224
-1.0047, 233, 273, 296, 336
-1.0047, 169, 129, 200, 256
-1.00472, 313, 185, 376, 248
-1.00473, 153, 65, 216, 192
-1.0048, 241, 225, 272, 352
-1.00485, 257, 1, 384, 128
-1.00488, 257, 233, 320, 296
-1.00498, 297, 129, 360, 192
-1.00499, 249, 49, 280, 176
-1.00511, 121, 73, 184, 136
-1.00513, 57, 137, 120, 200
-1.00523, 265, 49, 328, 176
-1.00525, 289, 17, 352, 80
-1.00528, 321, 41, 384, 104
-1.00529, 285, 49, 316, 176
-1.0053, 257, 177, 320, 304
-1.0053, 225, 177, 256, 304
-1.00532, 309, 1, 340, 128
-1.00536, 305, 177, 336, 304
-1.00536, 281, 97, 344, 352
-1.00537, 293, 177, 324, 304
-1.00538, 45, 145, 76, 272
-1.00541, 305, 233, 368, 296
-1.00542, 169, 65, 200, 192
-1.00551, 305, 129, 432, 256
-1.00553, 321, 137, 384, 200
-1.00558, 225, 113, 288, 176
-1.00566, 257, 209, 288, 336
-1.00569, 305, 129, 336, 256
-1.00569, 281, 177, 312, 304
-1.00571, 257, 73, 320, 136
-1.00575, 269, 193, 300, 320
-1.00578, 353, 129, 480, 256
-1.00582, 81, 129, 144, 192
-1.00583, 197, 113, 228, 240
-1.00585, 281, 177, 344, 240
-1.00588, 289, 225, 416, 352
-1.00591, 49, 241, 80, 368
-1.00597, 265, 17, 296, 144
-1.00597, 321, 177, 448, 304
-1.00598, 325, 49, 356, 176
-1.00599, 225, 97, 256, 224
-1.00603, 121, 97, 184, 160
-1.00604, 321, 65, 384, 128
-1.00604, 305, 33, 368, 288
-1.00608, 329, 113, 392, 176
-1.0061, 177, 105, 240, 168
-1.00624, 281, 1, 344, 256
-1.00626, 237, 177, 268, 304
-1.00629, 225, 313, 288, 375
-1.00634, 181, 81, 212, 208
-1.00636, 33, 193, 64, 320
-1.0064, 233, 97, 296, 352
-1.00641, 333, 97, 364, 224
-1.00642, 301, 81, 332, 208
-1.00654, 257, 105, 320, 168
-1.00654, 213, 129, 244, 256
-1.00664, 361, 161, 424, 224
-1.00666, 241, 177, 304, 240
-1.00666, 281, 177, 344, 304
-1.00666, 237, 97, 268, 224
-1.00666, 317, 145, 348, 272
-1.00668, 249, 305, 312, 368
-1.00669, 313, 145, 376, 272
-1.00673, 277, 1, 308, 128
-1.00673, 329, 225, 392, 288
-1.00684, 265, 145, 296, 272
-1.00686, 353, 129, 416, 192
-1.00687, 345, 201, 408, 264
-1.00696, 57, 97, 120, 160
-1.00696, 281, 249, 344, 312
-1.007, 321, 161, 384, 224
-1.00701, 393, 153, 456, 216
-1.00706, 321, 97, 352, 224
-1.00706, 357, 177, 388, 304
-1.00706, 113, 81, 176, 208
-1.0071, 273, 129, 336, 192
-1.00718, 257, 225, 500, 352
-1.00719, 217, 137, 280, 200
-1.00722, 325, 1, 356, 128
-1.00723, 293, 129, 324, 256
-1.00724, 217, 161, 280, 224
-1.00727, 177, 65, 240, 192
-1.00732, 321, 209, 352, 336
-1.00733, 313, 129, 376, 375
-1.00734, 337, 1, 400, 256
-1.00736, 345, 145, 376, 272
-1.00737, 281, 1, 344, 128
-1.00738, 13, 209, 44, 336
-1.00744, 337, 65, 464, 192
-1.00746, 193, 97, 320, 224
-1.00749, 33, 145, 64, 272
-1.00751, 297, 225, 328, 352
-1.00753, 281, 129, 344, 256
-1.00755, 265, 65, 296, 192
-1.00755, 257, 1, 320, 128
-1.00756, 385, 1, 448, 256
-1.00763, 357, 129, 388, 256
-1.0077, 1, 209, 32, 336
-1.00771, 337, 225, 368, 352
-1.00774, 345, 97, 376, 224
-1.00775, 201, 129, 264, 256
-1.00775, 345, 129, 408, 375
-1.00778, 345, 49, 376, 176
-1.00778, 249, 145, 280, 272
-1.00779, 257, 97, 320, 352
-1.00782, 277, 129, 308, 256
-1.00783, 309, 225, 340, 352
-1.00789, 357, 225, 388, 352
-1.00789, 241, 225, 304, 352
-1.0079, 17, 161, 48, 288
-1.00792, 461, 97, 492, 224
-1.00792, 285, 225, 316, 352
-1.00794, 1, 161, 32, 288
-1.00795, 449, 97, 480, 224
-1.00795, 369, 177, 400, 304
-1.00813, 329, 145, 360, 272
-1.00818, 369, 81, 400, 208
-1.00821, 305, 97, 368, 224
-1.00825, 417, 1, 480, 256
-1.00825, 361, 33, 424, 288
-1.00833, 369, 129, 400, 256
-1.00837, 369, 225, 400, 352
-1.00838, 337, 177, 400, 304
-1.00842, 437, 65, 468, 192
-1.00842, 417, 129, 448, 256
-1.00848, 397, 145, 428, 272
-1.00857, 249, 97, 280, 224
-1.00859, 437, 129, 468, 256
-1.00864, 357, 81, 388, 208
-1.00865, 377, 129, 440, 375
-1.00882, 337, 225, 464, 352
-1.00898, 369, 177, 496, 304
-1.00899, 313, 49, 376, 176
-1.00913, 225, 97, 288, 224
-1.00914, 401, 129, 464, 375
-1.0092, 425, 97, 488, 352
-1.00935, 313, 209, 376, 336
-1.00952, 305, 1, 368, 128
-1.01009, 353, 1, 480, 128
-1.01016, 1, 209, 64, 336
-1.01045, 257, 97, 320, 224
-1.01059, 281, 225, 344, 352
-1.01065, 337, 225, 400, 352
-1.01072, 361, 145, 424, 272
-1.01137, 433, 97, 496, 224
-1.01163, 345, 81, 408, 208
-1.01195, 361, 193, 424, 320
-1.01208, 385, 145, 448, 272
-1.01224, 393, 65, 456, 192
-1.01227, 329, 1, 392, 128
-1.0128, 353, 1, 416, 128
-1.0128, 409, 129, 472, 256
-1.01286, 433, 145, 496, 272
-1.01325, 433, 49, 496, 176
-1.01344, 393, 17, 456, 144
-1.01351, 433, 1, 496, 128
-1.01357, 337, 129, 400, 256
-1.01367, 369, 97, 432, 224
-1.01393, 385, 193, 448, 320
-1.01429, 433, 209, 496, 336
-1.01435, 377, 241, 440, 368
-1.01442, 409, 225, 472, 352
-1.01445, 369, 49, 432, 176
-1.0146, 193, 33, 448, 288
-1.01484, 409, 177, 472, 304
-1.05187, 257, 129, 500, 375
