1617
-0.439614, 1, 1, 370, 256
-0.457885, 1, 1, 370, 278
-0.471309, 97, 1, 352, 278
-0.500397, 1, 1, 256, 278
-0.541755, 97, 1, 352, 256
-0.60387, 1, 33, 256, 278
-0.858616, 97, 1, 224, 256
-0.859736, 49, 1, 176, 256
-0.868374, 49, 1, 176, 278
-0.876283, 97, 1, 224, 278
-0.879529, 1, 1, 128, 256
-0.880001, 177, 1, 304, 256
-0.882529, 241, 1, 368, 278
-0.888717, 241, 1, 368, 256
-0.892229, 177, 1, 304, 278
-0.896748, 1, 97, 370, 224
-0.899066, 1, 113, 256, 240
-0.90283, 1, 49, 370, 176
-0.910271, 1, 1, 128, 278
-0.92006, 1, 1, 370, 128
-0.922453, 33, 65, 288, 192
-0.927865, 1, 145, 370, 272
-0.931354, 65, 49, 128, 176
-0.931861, 97, 113, 352, 240
-0.934595, 65, 1, 320, 128
-0.935091, 33, 81, 160, 208
-0.936314, 129, 65, 370, 192
-0.937931, 97, 81, 224, 208
-0.938272, 65, 113, 128, 240
-0.940596, 41, 113, 104, 240
-0.941762, 177, 129, 304, 256
-0.942985, 97, 81, 160, 208
-0.944886, 17, 129, 144, 256
-0.946826, 81, 129, 208, 256
-0.947085, 129, 97, 192, 224
-0.950601, 97, 17, 160, 144
-0.950795, 49, 17, 176, 144
-0.950895, 217, 129, 280, 256
-0.951312, 193, 97, 256, 224
-0.951952, 9, 113, 72, 240
-0.954014, 41, 49, 104, 176
-0.954436, 161, 137, 224, 200
-0.954534, 145, 49, 208, 176
-0.954774, 209, 65, 336, 192
-0.955348, 161, 129, 224, 256
-0.955635, 241, 129, 304, 256
-0.955901, 65, 113, 128, 176
-0.956573, 225, 129, 352, 256
-0.956578, 145, 81, 272, 208
-0.956779, 129, 1, 256, 128
-0.957367, 41, 137, 104, 200
-0.957579, 153, 113, 216, 176
-0.957826, 129, 129, 256, 256
-0.957898, 49, 65, 112, 128
-0.958108, 89, 129, 152, 256
-0.9591, 105, 97, 168, 160
-0.95923, 121, 49, 184, 176
-0.959377, 73, 1, 136, 128
-0.959944, 257, 65, 320, 192
-0.960975, 193, 49, 256, 176
-0.961727, 97, 1, 160, 256
-0.961914, 41, 105, 104, 168
-0.9622, 257, 145, 320, 208
-0.962381, 73, 89, 136, 152
-0.962533, 169, 81, 232, 208
-0.962651, 65, 137, 128, 200
-0.962746, 193, 113, 256, 176
-0.962873, 281, 81, 344, 208
-0.962906, 25, 73, 88, 136
-0.96318, 129, 105, 192, 168
-0.963373, 113, 145, 176, 272
-0.964413, 1, 65, 64, 192
-0.964469, 233, 137, 296, 200
-0.964548, 73, 65, 136, 128
-0.964697, 1, 137, 64, 200
-0.964848, 57, 41, 120, 104
-0.964906, 17, 97, 80, 160
-0.965006, 1, 33, 128, 160
-0.965463, 273, 129, 336, 256
-0.965816, 129, 129, 192, 192
-0.965999, 281, 1, 344, 128
-0.966319, 233, 49, 296, 176
-0.966328, 153, 89, 216, 152
-0.966672, 105, 137, 168, 200
-0.966797, 177, 161, 240, 224
-0.967191, 249, 1, 312, 128
-0.967287, 177, 1, 240, 128
-0.967443, 185, 137, 248, 200
-0.967595, 305, 1, 368, 128
-0.96791, 97, 129, 224, 192
-0.96899, 217, 113, 280, 176
-0.969114, 209, 137, 272, 200
-0.969219, 121, 1, 184, 128
-0.969358, 105, 73, 168, 136
-0.969398, 185, 145, 248, 272
-0.969966, 177, 137, 304, 200
-0.970167, 65, 113, 96, 240
-0.970488, 177, 17, 304, 144
-0.970688, 189, 137, 220, 200
-0.971096, 209, 1, 272, 128
-0.971666, 73, 1, 136, 256
-0.971786, 77, 65, 108, 192
-0.971796, 305, 129, 368, 256
-0.97208, 17, 129, 144, 192
-0.972479, 65, 97, 192, 160
-0.972741, 129, 65, 192, 128
-0.972751, 25, 1, 88, 256
-0.973094, 209, 1, 272, 64
-0.973596, 241, 1, 368, 128
-0.973737, 153, 1, 216, 128
-0.97388, 89, 25, 152, 88
-0.974015, 141, 105, 172, 168
-0.97437, 185, 1, 248, 256
-0.974757, 73, 105, 104, 168
-0.974915, 17, 161, 80, 224
-0.975088, 1, 73, 128, 136
-0.975097, 81, 169, 144, 232
-0.975218, 153, 1, 216, 256
-0.97534, 101, 97, 132, 224
-0.975348, 49, 73, 176, 136
-0.975372, 153, 169, 216, 232
-0.975822, 81, 73, 112, 136
-0.975846, 41, 209, 104, 272
-0.975964, 285, 65, 316, 192
-0.975997, 129, 153, 192, 216
-0.976198, 241, 113, 304, 176
-0.976211, 273, 1, 336, 64
-0.976251, 121, 177, 184, 240
-0.976366, 209, 1, 272, 256
-0.976533, 265, 137, 296, 200
-0.976611, 53, 65, 84, 128
-0.976697, 49, 1, 112, 256
-0.976702, 153, 113, 184, 176
-0.976792, 209, 209, 272, 272
-0.976864, 25, 137, 56, 200
-0.977004, 121, 1, 184, 256
-0.977008, 281, 137, 344, 200
-0.977057, 49, 1, 112, 128
-0.97706, 129, 97, 256, 160
-0.977071, 177, 201, 240, 264
-0.977121, 81, 129, 112, 192
-0.97714, 177, 137, 208, 200
-0.97718, 137, 145, 200, 272
-0.977235, 89, 65, 120, 192
-0.97725, 305, 81, 368, 208
-0.977276, 89, 113, 120, 240
-0.977329, 285, 129, 316, 192
-0.977346, 45, 81, 76, 208
-0.977485, 113, 217, 176, 278
-0.977487, 1, 105, 128, 168
-0.977621, 49, 41, 80, 104
-0.977659, 77, 113, 108, 240
-0.977685, 209, 25, 272, 88
-0.977688, 113, 81, 144, 208
-0.977887, 305, 1, 368, 256
-0.977925, 165, 121, 196, 184
-0.977994, 41, 161, 104, 224
-0.978173, 105, 49, 168, 112
-0.978201, 193, 89, 256, 152
-0.978267, 97, 113, 128, 176
-0.978278, 253, 137, 284, 200
-0.978483, 149, 97, 180, 224
-0.978514, 249, 1, 312, 64
-0.978517, 97, 153, 224, 216
-0.978555, 105, 17, 136, 144
-0.978636, 61, 97, 92, 160
-0.978681, 137, 81, 168, 144
-0.978754, 17, 41, 80, 104
-0.978818, 17, 153, 144, 216
-0.978903, 305, 1, 368, 64
-0.979079, 185, 1, 248, 64
-0.979159, 61, 137, 92, 200
-0.979342, 57, 33, 88, 160
-0.979432, 337, 1, 368, 64
-0.979685, 305, 105, 368, 168
-0.979689, 249, 49, 312, 112
-0.979698, 85, 105, 116, 168
-0.97971, 73, 217, 136, 278
-0.979873, 97, 89, 128, 152
-0.979994, 125, 81, 156, 208
-0.98009, 177, 105, 304, 168
-0.980189, 1, 65, 64, 128
-0.980196, 201, 113, 232, 176
-0.980204, 49, 49, 176, 112
-0.980422, 241, 1, 304, 256
-0.980469, 45, 129, 76, 192
-0.980494, 29, 113, 60, 240
-0.980514, 289, 73, 352, 136
-0.98058, 97, 1, 160, 278
-0.980582, 201, 161, 264, 224
-0.980595, 245, 129, 276, 256
-0.980642, 1, 1, 64, 128
-0.9807, 229, 121, 260, 184
-0.980714, 181, 97, 212, 224
-0.980756, 137, 1, 200, 64
-0.980853, 257, 89, 320, 152
-0.980877, 297, 65, 328, 192
-0.98099, 225, 121, 352, 184
-0.981063, 193, 161, 320, 224
-0.981168, 137, 113, 168, 240
-0.981291, 197, 113, 228, 240
-0.981392, 129, 105, 160, 168
-0.981392, 273, 129, 304, 256
-0.981455, 153, 201, 216, 264
-0.981495, 77, 41, 108, 104
-0.981541, 233, 25, 296, 88
-0.981651, 1, 33, 64, 278
-0.981672, 145, 137, 176, 200
-0.981704, 97, 73, 224, 136
-0.981711, 269, 105, 300, 168
-0.982041, 65, 217, 192, 278
-0.98221, 9, 105, 40, 168
-0.982397, 201, 137, 232, 200
-0.982412, 281, 33, 344, 96
-0.982436, 97, 65, 128, 128
-0.982462, 293, 1, 324, 128
-0.982486, 197, 161, 228, 224
-0.98259, 45, 33, 76, 160
-0.982616, 305, 129, 368, 192
-0.982687, 225, 65, 288, 128
-0.982784, 253, 113, 284, 176
-0.982876, 93, 17, 124, 144
-0.982947, 217, 129, 248, 256
-0.982982, 285, 113, 316, 240
-0.982995, 285, 105, 316, 168
-0.983041, 273, 65, 304, 192
-0.983072, 93, 137, 124, 200
-0.983182, 189, 113, 220, 176
-0.983182, 105, 137, 136, 200
-0.983271, 153, 65, 216, 128
-0.983333, 177, 113, 208, 176
-0.98344, 145, 161, 272, 224
-0.983456, 25, 17, 88, 80
-0.983481, 73, 1, 136, 278
-0.983556, 265, 1, 328, 256
-0.983697, 241, 145, 368, 208
-0.983746, 193, 1, 320, 64
-0.983913, 53, 129, 84, 256
-0.983919, 25, 97, 56, 160
-0.983926, 61, 41, 92, 104
-0.983973, 161, 1, 224, 64
-0.983999, 229, 113, 260, 240
-0.984025, 1, 129, 32, 256
-0.984026, 185, 25, 248, 88
-0.984031, 117, 89, 148, 152
-0.984046, 65, 17, 128, 80
-0.984082, 257, 129, 288, 256
-0.98412, 165, 97, 196, 160
-0.984177, 213, 121, 244, 184
-0.984189, 265, 113, 328, 176
-0.984216, 45, 105, 76, 168
-0.984437, 233, 161, 296, 224
-0.984448, 13, 129, 44, 192
-0.984547, 153, 89, 184, 152
-0.98457, 129, 1, 256, 64
-0.984605, 225, 81, 352, 144
-0.984639, 81, 177, 208, 240
-0.984663, 305, 1, 368, 278
-0.98467, 173, 49, 204, 176
-0.984701, 297, 105, 328, 168
-0.984857, 241, 25, 368, 88
-0.984889, 305, 161, 368, 224
-0.98489, 29, 65, 60, 192
-0.984923, 241, 137, 272, 200
-0.98496, 161, 129, 192, 256
-0.984979, 281, 161, 344, 224
-0.985055, 17, 217, 80, 278
-0.985226, 81, 17, 112, 144
-0.985324, 209, 49, 240, 176
-0.985366, 209, 217, 336, 278
-0.985373, 9, 81, 40, 208
-0.985543, 1, 153, 32, 216
-0.985563, 1, 129, 32, 192
-0.985615, 193, 65, 256, 128
-0.985691, 129, 201, 256, 264
-0.985722, 241, 1, 368, 64
-0.985762, 129, 129, 160, 192
-0.985785, 337, 65, 368, 192
-0.985815, 161, 1, 224, 278
-0.985839, 273, 161, 304, 224
-0.98587, 117, 153, 148, 216
-0.98595, 41, 145, 72, 272
-0.986, 1, 217, 128, 278
-0.98601, 121, 129, 152, 256
-0.986087, 225, 89, 288, 152
-0.986156, 217, 145, 248, 208
-0.986237, 269, 1, 300, 64
-0.986278, 157, 153, 188, 216
-0.986321, 233, 1, 296, 278
-0.986326, 145, 49, 176, 176
-0.986436, 301, 129, 332, 192
-0.986535, 297, 129, 328, 256
-0.986647, 45, 161, 76, 224
-0.986651, 89, 193, 152, 256
-0.986714, 1, 137, 256, 200
-0.986737, 257, 25, 320, 88
-0.9868, 249, 9, 280, 72
-0.986812, 185, 161, 216, 224
-0.986841, 41, 65, 72, 128
-0.986865, 69, 17, 100, 144
-0.986922, 117, 129, 148, 192
-0.986933, 129, 153, 160, 216
-0.986942, 1, 49, 128, 112
-0.986943, 129, 33, 160, 160
-0.986981, 209, 1, 272, 278
-0.987031, 17, 129, 48, 256
-0.987093, 165, 1, 196, 128
-0.987169, 25, 1, 88, 128
-0.987185, 169, 161, 200, 224
-0.987234, 305, 1, 336, 128
-0.987482, 97, 25, 128, 88
-0.987518, 65, 73, 96, 136
-0.987573, 109, 65, 140, 128
-0.987631, 289, 81, 320, 144
-0.987636, 229, 65, 260, 192
-0.987702, 49, 1, 112, 278
-0.987731, 265, 1, 328, 278
-0.987759, 137, 177, 168, 240
-0.987762, 337, 129, 368, 256
-0.987826, 173, 145, 204, 272
-0.987833, 181, 1, 212, 128
-0.9879, 257, 169, 320, 232
-0.987909, 209, 1, 240, 128
-0.987919, 13, 153, 44, 216
-0.987994, 213, 1, 244, 64
-0.987997, 177, 81, 304, 144
-0.988025, 81, 1, 208, 64
-0.988087, 253, 1, 284, 128
-0.988146, 49, 25, 176, 88
-0.988166, 149, 177, 180, 240
-0.988225, 1, 185, 64, 248
-0.988326, 253, 81, 284, 208
-0.988365, 25, 161, 56, 224
-0.98842, 153, 65, 184, 128
-0.988455, 121, 1, 184, 278
-0.988529, 285, 1, 316, 64
-0.988631, 337, 1, 368, 128
-0.988676, 237, 1, 268, 64
-0.9887, 145, 133, 208, 164
-0.988783, 237, 25, 268, 88
-0.988882, 241, 113, 272, 176
-0.988898, 185, 1, 248, 278
-0.988917, 33, 177, 160, 240
-0.988937, 117, 17, 148, 144
-0.988973, 193, 1, 224, 128
-0.989025, 337, 121, 368, 184
-0.989032, 161, 25, 224, 88
-0.989078, 161, 81, 192, 208
-0.989105, 129, 41, 256, 104
-0.989154, 1, 1, 64, 278
-0.9892, 25, 33, 56, 96
-0.989202, 57, 169, 88, 232
-0.989225, 113, 25, 176, 88
-0.98924, 17, 1, 144, 64
-0.98924, 277, 1, 308, 128
-0.989299, 49, 61, 112, 92
-0.989328, 193, 57, 320, 120
-0.989358, 1, 25, 128, 88
-0.989359, 61, 17, 92, 80
-0.989378, 105, 1, 168, 64
-0.989395, 309, 145, 340, 272
-0.989475, 121, 177, 152, 240
-0.989546, 241, 141, 304, 172
-0.989547, 65, 125, 128, 156
-0.989597, 305, 25, 368, 88
-0.989612, 213, 97, 244, 160
-0.989624, 125, 65, 156, 128
-0.989643, 137, 121, 200, 152
-0.989649, 241, 169, 368, 232
-0.989663, 153, 105, 216, 136
-0.989671, 201, 185, 264, 248
-0.989701, 301, 73, 332, 136
-0.989706, 325, 129, 356, 256
-0.989723, 65, 73, 128, 104
-0.989729, 97, 129, 352, 192
-0.989758, 177, 89, 208, 152
-0.989767, 97, 93, 160, 124
-0.989771, 177, 25, 304, 88
-0.98979, 337, 89, 368, 152
-0.989823, 1, 113, 256, 176
-0.989883, 89, 129, 152, 160
-0.989974, 177, 117, 240, 148
-0.989979, 25, 137, 88, 168
-0.99001, 169, 157, 232, 188
-0.990037, 217, 129, 280, 160
-0.990147, 217, 153, 280, 184
-0.990159, 113, 117, 176, 148
-0.990164, 49, 105, 112, 136
-0.99018, 89, 161, 120, 224
-0.990181, 89, 109, 152, 140
-0.99019, 49, 85, 112, 116
-0.990213, 273, 81, 304, 144
-0.99022, 197, 89, 228, 152
-0.990286, 309, 105, 340, 168
-0.990307, 169, 145, 232, 176
-0.990324, 101, 145, 132, 272
-0.990356, 73, 93, 136, 124
-0.990363, 25, 101, 88, 132
-0.990473, 249, 217, 312, 278
-0.990482, 41, 125, 104, 156
-0.990505, 229, 97, 260, 160
-0.99053, 225, 109, 288, 140
-0.990552, 121, 217, 152, 278
-0.990553, 25, 1, 88, 278
-0.990561, 113, 129, 176, 160
-0.990592, 109, 25, 140, 88
-0.9906, 205, 209, 236, 272
-0.990601, 89, 161, 152, 192
-0.990624, 129, 105, 192, 136
-0.990628, 201, 141, 264, 172
-0.990652, 77, 161, 108, 224
-0.990657, 105, 141, 168, 172
-0.990673, 9, 25, 40, 88
-0.990688, 165, 1, 196, 64
-0.990695, 193, 9, 256, 40
-0.990696, 193, 129, 256, 160
-0.99076, 25, 185, 88, 248
-0.990769, 241, 161, 304, 192
-0.990786, 1, 141, 64, 172
-0.990792, 281, 153, 344, 184
-0.990824, 221, 25, 252, 88
-0.990836, 65, 169, 128, 200
-0.990868, 249, 125, 312, 156
-0.990875, 37, 17, 68, 80
-0.990907, 65, 49, 128, 80
-0.990928, 261, 161, 292, 224
-0.990967, 309, 81, 340, 208
-0.99097, 105, 65, 168, 96
-0.990973, 197, 65, 228, 192
-0.991025, 185, 1, 216, 64
-0.991028, 325, 1, 356, 64
-0.991057, 41, 161, 104, 192
-0.991063, 265, 1, 296, 128
-0.991096, 17, 121, 80, 152
-0.991119, 305, 1, 368, 32
-0.991121, 57, 185, 120, 248
-0.991124, 57, 145, 120, 176
-0.991143, 193, 157, 256, 188
-0.991158, 121, 85, 184, 116
-0.99116, 1, 165, 64, 196
-0.991192, 193, 105, 256, 136
-0.991209, 89, 81, 152, 112
-0.991241, 97, 161, 352, 224
-0.991256, 1, 153, 64, 184
-0.991284, 289, 133, 352, 164
-0.991291, 253, 33, 284, 96
-0.991292, 129, 161, 192, 192
-0.991313, 185, 49, 216, 176
-0.991323, 73, 249, 136, 278
-0.991335, 241, 81, 272, 208
-0.991341, 281, 69, 344, 100
-0.991433, 1, 229, 64, 260
-0.99145, 105, 225, 168, 256
-0.991452, 25, 17, 56, 144
-0.991461, 169, 129, 232, 160
-0.991491, 13, 33, 44, 160
-0.9915, 41, 173, 104, 204
-0.991539, 265, 165, 328, 196
-0.99154, 25, 81, 88, 112
-0.99156, 193, 217, 224, 278
-0.991562, 137, 1, 200, 32
-0.991575, 201, 29, 264, 60
-0.991589, 161, 201, 192, 264
-0.991653, 29, 65, 60, 128
-0.991654, 73, 61, 136, 92
-0.991654, 265, 141, 328, 172
-0.991656, 249, 113, 312, 144
-0.991657, 285, 153, 316, 216
-0.991667, 249, 61, 312, 92
-0.991674, 41, 217, 104, 248
-0.99168, 209, 213, 272, 244
-0.991688, 105, 237, 168, 268
-0.991712, 81, 141, 144, 172
-0.991714, 177, 173, 240, 204
-0.99172, 1, 109, 64, 140
-0.991726, 281, 9, 344, 40
-0.991734, 169, 13, 232, 44
-0.991765, 145, 69, 208, 100
-0.991771, 153, 93, 216, 124
-0.991774, 177, 193, 304, 256
-0.991794, 201, 117, 264, 148
-0.991819, 137, 225, 200, 256
-0.991834, 65, 157, 128, 188
-0.991858, 141, 217, 172, 278
-0.991859, 145, 145, 208, 176
-0.991862, 169, 229, 232, 260
-0.99188, 257, 1, 320, 32
-0.99188, 217, 165, 280, 196
-0.991886, 185, 145, 216, 272
-0.991893, 169, 245, 232, 276
-0.991908, 225, 13, 288, 44
-0.991912, 305, 113, 368, 144
-0.991942, 89, 49, 152, 80
-0.991952, 169, 1, 232, 32
-0.991983, 25, 65, 88, 96
-0.992078, 1, 145, 370, 208
-0.992103, 129, 173, 192, 204
-0.992126, 129, 97, 370, 160
-0.992151, 321, 17, 352, 144
-0.992162, 209, 53, 272, 84
-0.992163, 49, 37, 112, 68
-0.992164, 89, 25, 152, 56
-0.9922, 305, 77, 368, 108
-0.992222, 193, 93, 256, 124
-0.992223, 89, 173, 152, 204
-0.992242, 177, 201, 240, 232
-0.992243, 305, 165, 368, 196
-0.99225, 273, 21, 336, 52
-0.992259, 153, 173, 216, 204
-0.992264, 233, 1, 296, 32
-0.992276, 257, 73, 320, 104
-0.992285, 113, 249, 176, 278
-0.992294, 309, 153, 340, 216
-0.992295, 165, 125, 196, 156
-0.9923, 129, 1, 370, 64
-0.992319, 145, 237, 208, 268
-0.992326, 241, 1, 272, 128
-0.992369, 65, 17, 128, 48
-0.992374, 65, 225, 128, 256
-0.992378, 281, 121, 344, 152
-0.992382, 177, 25, 240, 56
-0.992392, 25, 149, 88, 180
-0.992433, 149, 121, 180, 152
-0.992445, 109, 217, 140, 278
-0.992452, 81, 237, 144, 268
-0.992465, 185, 141, 216, 172
-0.992487, 281, 85, 344, 116
-0.992502, 149, 109, 180, 140
-0.992506, 249, 221, 312, 252
-0.992509, 305, 13, 368, 44
-0.992511, 1, 81, 256, 144
-0.992527, 5, 81, 36, 144
-0.992538, 197, 9, 228, 72
-0.992541, 225, 25, 288, 56
-0.992543, 77, 129, 108, 160
-0.992568, 65, 121, 96, 152
-0.99257, 185, 53, 248, 84
-0.99257, 1, 85, 64, 116
-0.992575, 197, 157, 228, 188
-0.992581, 33, 49, 96, 80
-0.992592, 225, 97, 288, 128
-0.992597, 305, 153, 368, 184
-0.992611, 57, 85, 88, 116
-0.992616, 265, 141, 296, 172
-0.99262, 137, 13, 200, 44
-0.99262, 1, 97, 64, 128
-0.992622, 145, 57, 208, 88
-0.992628, 193, 233, 256, 264
-0.992628, 97, 109, 128, 140
-0.992634, 97, 1, 160, 32
-0.992638, 97, 129, 128, 160
-0.992639, 1, 17, 64, 80
-0.992644, 201, 109, 232, 140
-0.99265, 289, 125, 320, 156
-0.992656, 137, 109, 168, 140
-0.992662, 69, 109, 100, 140
-0.992664, 289, 109, 320, 140
-0.992706, 89, 57, 120, 88
-0.992723, 233, 49, 296, 80
-0.992727, 329, 145, 360, 208
-0.992731, 105, 93, 136, 124
-0.992737, 65, 57, 320, 120
-0.992739, 209, 41, 272, 72
-0.992741, 45, 65, 76, 96
-0.992753, 137, 41, 200, 104
-0.992755, 217, 209, 248, 272
-0.992757, 25, 241, 88, 272
-0.99276, 229, 125, 260, 156
-0.992763, 197, 145, 228, 176
-0.992763, 309, 117, 340, 148
-0.992777, 181, 121, 212, 152
-0.992781, 73, 57, 104, 88
-0.992789, 81, 105, 112, 136
-0.99279, 33, 17, 96, 48
-0.992794, 217, 157, 248, 188
-0.992802, 329, 1, 360, 32
-0.992803, 281, 109, 344, 140
-0.992803, 77, 89, 108, 120
-0.992809, 281, 57, 344, 88
-0.992833, 17, 133, 48, 164
-0.992835, 73, 37, 136, 68
-0.992835, 273, 109, 304, 140
-0.992842, 49, 125, 80, 156
-0.992847, 317, 129, 348, 192
-0.992847, 89, 169, 120, 200
-0.992852, 241, 173, 304, 204
-0.992855, 85, 77, 116, 108
-0.992865, 57, 41, 88, 72
-0.992873, 269, 161, 300, 192
-0.992875, 321, 65, 352, 192
-0.992878, 69, 161, 100, 192
-0.992885, 201, 201, 264, 232
-0.992894, 49, 173, 80, 204
-0.992904, 249, 129, 280, 160
-0.992905, 137, 97, 168, 128
-0.992908, 161, 109, 192, 140
-0.992912, 253, 141, 284, 172
-0.992915, 45, 53, 76, 84
-0.992917, 81, 117, 112, 148
-0.992925, 61, 97, 92, 128
-0.992928, 249, 13, 280, 44
-0.992928, 297, 153, 328, 216
-0.99293, 149, 133, 180, 164
-0.992942, 25, 101, 56, 132
-0.992943, 45, 97, 76, 128
-0.992945, 133, 121, 164, 152
-0.992946, 209, 141, 240, 172
-0.992947, 105, 141, 136, 172
-0.992949, 285, 149, 316, 180
-0.992949, 173, 137, 204, 168
-0.992953, 117, 89, 148, 120
-0.992959, 1, 1, 32, 128
-0.992965, 25, 153, 56, 184
-0.992983, 217, 113, 248, 144
-0.992985, 93, 97, 124, 128
-0.992986, 129, 141, 160, 172
-0.992998, 29, 165, 60, 196
-0.992998, 317, 133, 348, 164
-0.993007, 301, 133, 332, 164
-0.993012, 289, 65, 320, 96
-0.993013, 1, 141, 32, 172
-0.993014, 321, 105, 352, 168
-0.993016, 117, 141, 148, 172
-0.993016, 85, 145, 116, 176
-0.99302, 41, 137, 72, 168
-0.993021, 181, 201, 212, 264
-0.993031, 41, 81, 72, 112
-0.993032, 181, 101, 212, 132
-0.993034, 61, 69, 92, 100
-0.993046, 57, 53, 88, 84
-0.993049, 149, 161, 180, 192
-0.993062, 301, 105, 332, 136
-0.993064, 321, 121, 352, 152
-0.993065, 101, 161, 132, 192
-0.993071, 277, 129, 308, 160
-0.993072, 265, 1, 296, 32
-0.993085, 29, 137, 60, 168
-0.993085, 137, 161, 168, 192
-0.993096, 1, 161, 256, 224
-0.993097, 73, 45, 104, 76
-0.993098, 233, 145, 264, 176
-0.9931, 105, 77, 136, 108
-0.993104, 337, 109, 368, 140
-0.993111, 237, 17, 268, 48
-0.993114, 193, 121, 224, 152
-0.993115, 45, 161, 76, 192
-0.993118, 245, 113, 276, 144
-0.99312, 197, 225, 228, 256
-0.993123, 109, 129, 140, 160
-0.993125, 9, 113, 40, 144
-0.993127, 281, 161, 312, 192
-0.993129, 253, 161, 284, 192
-0.993134, 173, 1, 204, 32
-0.993135, 25, 121, 56, 152
-0.993141, 125, 101, 156, 132
-0.993142, 253, 25, 284, 56
-0.993152, 61, 141, 92, 172
-0.993154, 229, 109, 260, 140
-0.993155, 185, 157, 216, 188
-0.99316, 69, 201, 100, 264
-0.993161, 185, 1, 216, 32
-0.993167, 305, 49, 368, 112
-0.993168, 77, 173, 108, 204
-0.993171, 265, 125, 296, 156
-0.993174, 5, 101, 36, 132
-0.993174, 157, 97, 188, 128
-0.993183, 161, 137, 192, 168
-0.993185, 213, 17, 244, 48
-0.993186, 265, 25, 296, 88
-0.993187, 73, 141, 104, 172
-0.99319, 73, 73, 104, 104
-0.993193, 289, 89, 320, 120
-0.993196, 125, 161, 156, 192
-0.993198, 105, 229, 136, 260
-0.9932, 197, 133, 228, 164
-0.993203, 201, 173, 232, 204
-0.993206, 133, 69, 164, 100
-0.99321, 317, 17, 348, 48
-0.99321, 137, 81, 168, 112
-0.993214, 321, 109, 352, 140
-0.993222, 121, 129, 152, 160
-0.993223, 337, 121, 368, 152
-0.993225, 221, 29, 252, 60
-0.993227, 197, 9, 228, 40
-0.993229, 41, 37, 72, 68
-0.993242, 161, 161, 192, 192
-0.993254, 57, 109, 88, 140
-0.993265, 325, 81, 356, 144
-0.993272, 109, 105, 140, 136
-0.993272, 261, 13, 292, 44
-0.993272, 13, 145, 44, 176
-0.993273, 61, 173, 92, 204
-0.993273, 5, 125, 36, 156
-0.993283, 241, 157, 272, 188
-0.993287, 209, 5, 240, 36
-0.993321, 37, 41, 68, 104
-0.993383, 81, 129, 208, 160
-0.993394, 45, 209, 76, 272
-0.993402, 105, 161, 136, 224
-0.993406, 241, 49, 272, 112
-0.993412, 285, 57, 316, 120
-0.993705, 297, 1, 328, 64
-0.99371, 249, 89, 280, 152
-0.993852, 193, 157, 320, 188
-0.993881, 59, 41, 74, 104
-0.993882, 17, 129, 144, 160
-0.993916, 153, 1, 184, 128
-0.993931, 155, 105, 170, 168
-0.994006, 1, 105, 370, 168
-0.994017, 17, 149, 144, 180
-0.994051, 65, 117, 192, 148
-0.994174, 195, 137, 210, 200
-0.994182, 205, 137, 220, 200
-0.994183, 193, 145, 320, 176
-0.994187, 161, 125, 288, 156
-0.994226, 145, 113, 272, 144
-0.994341, 73, 97, 88, 160
-0.994354, 269, 137, 284, 200
-0.994498, 275, 137, 290, 200
-0.994504, 97, 141, 224, 172
-0.994531, 149, 145, 180, 272
-0.994541, 33, 65, 160, 96
-0.994547, 273, 217, 336, 278
-0.994692, 41, 137, 56, 200
-0.99472, 189, 137, 204, 200
-0.994734, 81, 161, 208, 192
-0.994735, 281, 137, 296, 200
-0.994804, 355, 1, 370, 64
-0.994863, 97, 145, 112, 208
-0.994875, 347, 1, 362, 64
-0.994987, 73, 137, 88, 200
-0.994994, 101, 73, 116, 136
-0.995018, 97, 201, 352, 264
-0.995026, 225, 125, 352, 156
-0.99503, 67, 65, 82, 128
-0.995036, 241, 57, 368, 120
-0.995097, 49, 57, 64, 120
-0.995137, 161, 113, 176, 176
-0.995228, 149, 105, 164, 168
-0.995232, 229, 17, 260, 144
-0.995259, 129, 161, 256, 192
-0.995262, 95, 121, 110, 184
-0.995266, 151, 81, 166, 144
-0.995341, 129, 101, 256, 132
-0.995363, 1, 17, 256, 80
-0.995391, 109, 1, 140, 256
-0.995425, 17, 169, 144, 200
-0.995452, 103, 105, 118, 168
-0.995508, 49, 93, 176, 124
-0.995509, 97, 233, 224, 264
-0.995531, 143, 97, 158, 160
-0.995538, 35, 137, 50, 200
-0.995657, 125, 1, 156, 256
-0.995662, 1, 97, 128, 128
-0.995663, 81, 105, 96, 168
-0.995695, 49, 1, 80, 256
-0.995698, 191, 113, 206, 176
-0.995702, 167, 105, 182, 168
-0.995708, 77, 1, 108, 256
-0.995718, 291, 121, 306, 184
-0.995761, 67, 137, 82, 200
-0.995768, 257, 137, 272, 200
-0.995769, 199, 113, 214, 176
-0.995775, 145, 141, 272, 172
-0.995793, 241, 153, 368, 184
-0.995821, 89, 105, 104, 168
-0.995853, 341, 1, 356, 64
-0.995916, 1, 81, 370, 144
-0.995934, 49, 105, 176, 136
-0.995937, 1, 193, 256, 256
-0.995951, 49, 81, 176, 112
-0.995971, 233, 121, 248, 184
-0.996015, 193, 169, 320, 200
-0.996017, 61, 65, 76, 128
-0.99604, 241, 141, 368, 172
-0.996061, 107, 137, 122, 200
-0.996085, 49, 81, 64, 144
-0.996088, 23, 105, 38, 168
-0.996092, 1, 1, 370, 64
-0.996093, 129, 173, 256, 204
-0.996109, 177, 129, 192, 192
-0.99611, 97, 85, 224, 116
-0.996132, 49, 129, 64, 192
-0.996134, 241, 1, 368, 32
-0.996139, 183, 129, 198, 192
-0.996152, 25, 129, 40, 192
-0.996159, 83, 137, 98, 200
-0.99616, 1, 57, 370, 120
-0.996161, 225, 113, 352, 144
-0.996187, 33, 225, 160, 256
-0.996192, 211, 137, 226, 200
-0.996208, 249, 129, 264, 192
-0.996235, 73, 73, 88, 136
-0.996237, 95, 73, 110, 136
-0.996259, 65, 41, 80, 104
-0.996264, 3, 129, 18, 192
-0.996265, 1, 105, 16, 168
-0.996288, 107, 73, 122, 136
-0.996292, 61, 105, 76, 168
-0.996295, 137, 105, 152, 168
-0.996297, 209, 161, 224, 224
-0.996298, 161, 137, 176, 200
-0.996299, 241, 193, 368, 256
-0.996341, 131, 105, 146, 168
-0.996341, 19, 145, 34, 208
-0.996347, 171, 153, 186, 216
-0.996362, 299, 97, 314, 160
-0.996365, 9, 129, 24, 192
-0.996385, 11, 153, 26, 216
-0.996385, 287, 145, 302, 208
-0.996386, 297, 185, 360, 248
-0.9964, 249, 193, 312, 256
-0.996406, 223, 113, 238, 176
-0.99641, 153, 137, 168, 200
-0.996415, 41, 161, 56, 224
-0.996457, 89, 137, 104, 200
-0.996473, 3, 153, 18, 216
-0.996498, 121, 129, 136, 192
-0.996521, 135, 153, 150, 216
-0.996534, 199, 161, 214, 224
-0.996536, 241, 121, 256, 184
-0.996547, 113, 129, 128, 192
-0.996551, 181, 1, 212, 256
-0.996554, 49, 105, 64, 168
-0.996558, 1, 77, 128, 108
-0.996559, 179, 161, 194, 224
-0.996583, 209, 217, 224, 278
-0.996602, 217, 153, 232, 216
-0.996605, 7, 105, 22, 168
-0.996619, 25, 33, 56, 278
-0.996635, 161, 161, 176, 224
-0.996647, 127, 153, 142, 216
-0.996652, 141, 73, 156, 136
-0.996665, 97, 1, 128, 256
-0.996672, 129, 5, 256, 36
-0.996672, 263, 137, 278, 200
-0.996674, 349, 121, 364, 184
-0.996689, 121, 153, 136, 216
-0.996692, 127, 129, 142, 192
-0.996703, 25, 153, 40, 216
-0.99673, 141, 153, 156, 216
-0.996735, 161, 89, 176, 152
-0.996748, 217, 121, 232, 184
-0.996752, 53, 33, 68, 96
-0.996752, 321, 1, 352, 256
-0.996759, 179, 105, 194, 168
-0.996779, 305, 217, 368, 278
-0.996786, 101, 49, 116, 112
-0.996792, 55, 65, 70, 128
-0.996805, 185, 161, 200, 224
-0.996805, 265, 113, 280, 176
-0.996809, 67, 105, 82, 168
-0.996815, 125, 105, 140, 168
-0.996815, 139, 177, 154, 240
-0.99682, 193, 1, 320, 32
-0.996825, 1, 117, 128, 148
-0.996827, 307, 113, 322, 176
-0.996827, 149, 177, 164, 240
-0.996832, 133, 129, 148, 192
-0.996833, 13, 105, 28, 168
-0.996843, 171, 129, 186, 192
-0.996853, 81, 173, 208, 204
-0.996865, 141, 33, 172, 278
-0.996866, 351, 89, 366, 152
-0.99687, 113, 17, 240, 48
-0.99687, 131, 73, 146, 136
-0.996875, 225, 185, 288, 248
-0.996878, 355, 121, 370, 184
-0.996894, 43, 65, 58, 128
-0.996896, 185, 97, 200, 160
-0.996906, 277, 161, 292, 224
-0.996922, 281, 1, 296, 64
-0.996922, 145, 129, 160, 192
-0.996929, 241, 169, 368, 200
-0.996941, 79, 81, 94, 144
-0.996945, 299, 129, 314, 192
-0.996957, 75, 49, 90, 112
-0.996957, 43, 97, 58, 160
-0.996958, 147, 153, 162, 216
-0.99696, 249, 1, 280, 256
-0.996964, 155, 177, 170, 240
-0.996964, 241, 29, 368, 60
-0.996979, 133, 177, 148, 240
-0.996981, 169, 1, 184, 64
-0.996989, 65, 17, 80, 80
-0.996991, 193, 101, 320, 132
-0.997001, 49, 53, 176, 84
-0.997017, 31, 113, 46, 176
-0.997017, 113, 105, 128, 168
-0.997027, 223, 137, 238, 200
-0.997033, 193, 161, 208, 224
-0.997035, 167, 177, 182, 240
-0.997058, 1, 217, 256, 278
-0.997063, 177, 25, 304, 56
-0.99707, 119, 89, 134, 152
-0.997083, 89, 161, 104, 224
-0.99711, 333, 1, 364, 256
-0.997114, 81, 1, 208, 32
-0.997117, 81, 177, 96, 240
-0.997139, 241, 13, 368, 44
-0.997143, 167, 81, 182, 144
-0.997168, 313, 129, 328, 192
-0.997168, 253, 1, 268, 64
-0.997187, 65, 249, 192, 278
-0.997286, 225, 89, 352, 120
-0.997286, 145, 233, 272, 264
-0.997309, 129, 245, 256, 276
-0.997325, 209, 217, 336, 248
-0.997342, 153, 109, 168, 140
-0.997371, 159, 113, 174, 144
-0.997375, 97, 221, 224, 252
-0.997388, 33, 213, 160, 244
-0.997411, 97, 25, 352, 88
-0.997419, 1, 177, 370, 240
-0.997427, 65, 1, 96, 256
-0.997461, 141, 1, 172, 128
-0.997475, 81, 69, 208, 100
-0.997512, 1, 17, 128, 48
-0.997518, 193, 13, 320, 44
-0.997525, 17, 241, 144, 272
-0.99754, 193, 1, 224, 256
-0.997559, 1, 201, 370, 264
-0.997563, 71, 85, 86, 116
-0.997592, 209, 1, 240, 256
-0.997623, 199, 141, 214, 172
-0.997648, 129, 69, 256, 100
-0.99765, 193, 137, 208, 168
-0.997668, 169, 33, 200, 278
-0.997668, 183, 129, 198, 160
-0.997677, 71, 105, 86, 136
-0.997695, 161, 217, 288, 248
-0.997712, 5, 1, 36, 256
-0.997718, 93, 61, 108, 92
-0.997725, 211, 161, 226, 192
-0.99773, 221, 1, 252, 256
-0.99773, 265, 1, 296, 256
-0.997732, 153, 33, 184, 278
-0.997733, 17, 181, 144, 212
-0.997768, 77, 89, 92, 120
-0.997775, 205, 145, 220, 176
-0.997794, 109, 89, 124, 120
-0.997795, 103, 97, 118, 128
-0.997826, 169, 121, 184, 152
-0.99783, 49, 65, 64, 96
-0.997831, 343, 1, 358, 32
-0.997835, 49, 25, 176, 56
-0.997839, 275, 161, 290, 192
-0.997847, 129, 57, 256, 88
-0.997851, 95, 129, 110, 160
-0.997855, 43, 137, 58, 168
-0.997859, 129, 205, 256, 236
-0.997873, 177, 89, 304, 120
-0.997874, 61, 121, 76, 152
-0.997874, 157, 125, 172, 156
-0.997889, 147, 117, 162, 148
-0.997892, 271, 141, 286, 172
-0.997899, 281, 141, 296, 172
-0.997907, 249, 129, 264, 160
-0.997911, 91, 169, 106, 200
-0.997915, 177, 125, 192, 156
-0.997928, 285, 161, 300, 192
-0.997935, 241, 125, 256, 156
-0.99794, 213, 145, 228, 176
-0.997941, 97, 145, 112, 176
-0.997952, 193, 57, 320, 88
-0.997964, 255, 141, 270, 172
-0.997971, 263, 129, 278, 160
-0.997989, 291, 125, 306, 156
-0.997993, 83, 129, 98, 160
-0.997999, 101, 109, 116, 140
-0.998021, 47, 93, 62, 124
-0.998031, 337, 1, 352, 32
-0.998033, 299, 113, 314, 144
-0.998035, 103, 77, 118, 108
-0.998036, 47, 77, 62, 108
-0.998043, 71, 121, 86, 152
-0.998045, 293, 1, 324, 256
-0.998047, 203, 157, 218, 188
-0.998048, 147, 105, 162, 136
-0.998049, 189, 121, 204, 152
-0.998054, 59, 169, 74, 200
-0.998056, 33, 133, 48, 164
-0.998057, 57, 81, 72, 112
-0.998057, 205, 105, 220, 136
-0.998078, 223, 113, 238, 144
-0.998099, 255, 125, 270, 156
-0.998101, 209, 73, 336, 104
-0.998103, 277, 1, 308, 256
-0.998118, 35, 145, 50, 176
-0.998121, 65, 193, 192, 224
-0.998125, 65, 85, 80, 116
-0.998145, 57, 53, 72, 84
-0.998147, 355, 5, 370, 36
-0.998148, 305, 1, 336, 256
-0.998156, 41, 165, 56, 196
-0.998166, 121, 141, 136, 172
-0.998167, 129, 141, 144, 172
-0.998174, 167, 109, 182, 140
-0.998179, 115, 93, 130, 124
-0.99818, 237, 1, 268, 256
-0.998185, 141, 97, 156, 128
-0.998185, 143, 141, 158, 172
-0.99819, 57, 65, 72, 96
-0.99819, 1, 141, 16, 172
-0.998192, 233, 113, 248, 144
-0.998206, 71, 141, 86, 172
-0.99821, 97, 169, 112, 200
-0.998212, 35, 121, 50, 152
-0.998218, 1, 29, 128, 60
-0.998219, 349, 1, 364, 32
-0.99823, 13, 141, 28, 172
-0.998239, 307, 125, 322, 156
-0.998243, 215, 109, 230, 140
-0.998246, 89, 133, 104, 164
-0.998248, 129, 33, 256, 64
-0.998259, 141, 113, 156, 144
-0.998264, 163, 125, 178, 156
-0.998268, 223, 145, 238, 176
-0.998273, 7, 141, 22, 172
-0.998274, 39, 101, 54, 132
-0.998274, 53, 121, 68, 152
-0.998275, 33, 5, 160, 36
-0.998277, 177, 245, 304, 276
-0.998282, 195, 121, 210, 152
-0.998288, 147, 161, 162, 192
-0.998291, 159, 101, 174, 132
-0.998292, 25, 141, 40, 172
-0.998292, 111, 141, 126, 172
-0.998297, 175, 113, 190, 144
-0.998298, 47, 121, 62, 152
-0.998298, 261, 145, 276, 176
-0.998306, 101, 125, 116, 156
-0.998314, 217, 165, 232, 196
-0.998315, 195, 101, 210, 132
-0.998315, 271, 1, 286, 32
-0.998316, 289, 149, 304, 180
-0.998331, 313, 117, 328, 148
-0.998337, 5, 113, 20, 144
-0.998339, 101, 57, 116, 88
-0.998341, 135, 141, 150, 172
-0.998341, 321, 133, 336, 164
-0.998343, 141, 161, 156, 192
-0.998351, 291, 109, 306, 140
-0.998356, 121, 89, 136, 120
-0.998358, 321, 119, 352, 134
-0.998358, 253, 129, 284, 144
-0.998358, 33, 139, 64, 154
-0.998359, 87, 57, 102, 88
-0.99836, 305, 133, 336, 148
-0.998361, 273, 125, 304, 140
-0.998361, 153, 97, 168, 128
-0.998361, 89, 75, 120, 90
-0.998361, 253, 109, 284, 124
-0.998361, 197, 263, 228, 278
-0.998361, 109, 245, 140, 260
-0.998362, 213, 7, 244, 22
-0.998363, 57, 61, 88, 76
-0.998363, 161, 161, 176, 192
-0.998364, 297, 125, 312, 156
-0.998364, 229, 155, 260, 170
-0.998365, 45, 81, 76, 96
-0.998366, 1, 143, 32, 158
-0.998367, 249, 19, 280, 34
-0.998367, 45, 39, 76, 54
-0.998368, 101, 147, 132, 162
-0.998368, 273, 169, 304, 184
-0.998368, 25, 107, 56, 122
-0.998369, 165, 1, 196, 16
-0.998369, 63, 65, 78, 96
-0.99837, 85, 73, 100, 104
-0.99837, 209, 107, 240, 122
-0.99837, 77, 137, 108, 152
-0.998371, 197, 157, 212, 188
-0.998371, 37, 175, 68, 190
-0.998372, 201, 149, 232, 164
-0.998372, 131, 129, 146, 160
-0.998375, 233, 117, 264, 132
-0.998375, 307, 109, 322, 140
-0.998376, 135, 93, 150, 124
-0.998378, 65, 115, 96, 130
-0.998379, 263, 13, 278, 44
-0.998379, 325, 1, 356, 16
-0.998379, 137, 139, 168, 154
-0.998379, 337, 113, 368, 128
-0.998379, 317, 135, 348, 150
-0.99838, 253, 167, 284, 182
-0.99838, 113, 85, 144, 100
-0.99838, 269, 157, 300, 172
-0.998381, 289, 85, 320, 100
-0.998381, 103, 149, 118, 180
-0.998382, 69, 67, 100, 82
-0.998383, 187, 141, 202, 172
-0.998383, 21, 149, 52, 164
-0.998383, 57, 139, 88, 154
-0.998385, 253, 143, 284, 158
-0.998385, 217, 27, 248, 42
-0.998385, 155, 161, 170, 192
-0.998386, 81, 115, 112, 130
-0.998386, 277, 163, 308, 178
-0.998387, 323, 121, 338, 152
-0.998388, 125, 99, 156, 114
-0.998389, 161, 107, 192, 122
-0.998389, 53, 55, 84, 70
-0.998389, 201, 161, 232, 176
-0.998389, 297, 109, 328, 124
-0.99839, 97, 107, 128, 122
-0.99839, 247, 113, 262, 144
-0.99839, 77, 143, 108, 158
-0.99839, 321, 113, 352, 128
-0.998391, 247, 141, 262, 172
-0.998391, 241, 61, 368, 92
-0.998392, 223, 157, 238, 188
-0.998393, 337, 5, 368, 20
-0.998393, 189, 113, 220, 128
-0.998393, 69, 65, 84, 96
-0.998394, 213, 113, 244, 128
-0.998394, 245, 157, 276, 172
-0.998395, 77, 129, 92, 160
-0.998395, 237, 139, 268, 154
-0.998398, 121, 141, 152, 156
-0.998398, 137, 121, 168, 136
-0.998398, 273, 111, 304, 126
-0.998398, 121, 91, 152, 106
-0.998399, 241, 101, 368, 132
-0.998399, 213, 155, 244, 170
-0.998399, 21, 135, 52, 150
-0.9984, 71, 161, 86, 192
-0.998403, 109, 101, 140, 116
-0.998404, 25, 101, 56, 116
-0.998404, 49, 123, 80, 138
-0.998404, 217, 167, 248, 182
-0.998406, 81, 107, 112, 122
-0.998406, 285, 109, 316, 124
-0.998409, 89, 61, 120, 76
-0.998411, 137, 111, 168, 126
-0.998411, 289, 129, 320, 144
-0.998412, 57, 41, 88, 56
-0.998415, 253, 25, 284, 40
-0.998416, 89, 129, 120, 144
-0.998417, 181, 123, 212, 138
-0.998418, 97, 115, 128, 130
-0.998418, 109, 77, 124, 108
-0.998419, 89, 121, 104, 152
-0.998419, 69, 107, 100, 122
-0.99842, 301, 115, 332, 130
-0.99842, 193, 107, 224, 122
-0.99842, 145, 133, 208, 148
-0.99842, 59, 37, 74, 68
-0.998421, 97, 101, 128, 116
-0.998421, 61, 97, 92, 112
-0.998422, 77, 131, 108, 146
-0.998422, 181, 105, 212, 120
-0.998423, 269, 119, 300, 134
-0.998424, 65, 133, 80, 164
-0.998424, 165, 135, 196, 150
-0.998425, 57, 47, 88, 62
-0.998425, 253, 13, 268, 44
-0.998427, 101, 165, 132, 180
-0.998427, 45, 137, 76, 152
-0.998428, 45, 97, 76, 112
-0.998429, 135, 161, 150, 192
-0.998431, 97, 123, 128, 138
-0.998431, 21, 141, 52, 156
-0.998432, 29, 167, 60, 182
-0.998433, 13, 113, 28, 144
-0.998433, 245, 123, 276, 138
-0.998434, 97, 139, 128, 154
-0.998434, 77, 53, 92, 84
-0.998435, 65, 49, 80, 80
-0.998437, 237, 27, 268, 42
-0.998439, 209, 119, 240, 134
-0.998439, 81, 101, 112, 116
-0.998441, 49, 131, 80, 146
-0.998443, 81, 91, 112, 106
-0.998446, 249, 137, 280, 152
-0.998448, 41, 67, 104, 82
-0.998448, 149, 121, 180, 136
-0.998448, 149, 135, 180, 150
-0.998451, 309, 121, 340, 136
-0.998452, 229, 131, 260, 146
-0.998457, 45, 165, 76, 180
-0.998458, 61, 87, 92, 102
-0.998461, 25, 137, 88, 152
-0.998462, 301, 127, 332, 142
-0.998466, 157, 101, 188, 116
-0.998466, 89, 67, 120, 82
-0.998467, 65, 123, 96, 138
-0.998471, 269, 141, 300, 156
-0.998472, 189, 143, 220, 158
-0.998473, 289, 117, 320, 132
-0.998474, 141, 105, 172, 120
-0.998474, 137, 99, 168, 114
-0.998475, 165, 123, 196, 138
-0.998484, 65, 129, 96, 144
-0.998487, 153, 103, 216, 118
-0.998488, 217, 159, 280, 174
-0.998491, 65, 129, 128, 144
-0.998491, 69, 167, 100, 182
-0.998491, 177, 137, 208, 152
-0.998493, 153, 129, 184, 144
-0.998495, 65, 61, 128, 76
-0.998496, 149, 113, 180, 128
-0.998498, 97, 95, 160, 110
-0.998498, 45, 67, 76, 82
-0.998499, 89, 169, 120, 184
-0.998504, 265, 163, 296, 178
-0.998504, 77, 59, 108, 74
-0.998505, 71, 113, 86, 240
-0.998506, 229, 123, 260, 138
-0.998515, 153, 139, 216, 154
-0.998519, 49, 123, 112, 138
-0.998521, 89, 139, 152, 154
-0.998532, 41, 165, 104, 180
-0.998534, 193, 115, 256, 130
-0.998537, 41, 97, 104, 112
-0.998538, 81, 121, 112, 136
-0.99854, 137, 127, 200, 142
-0.998542, 165, 129, 196, 144
-0.998543, 225, 119, 288, 134
-0.998543, 65, 169, 128, 184
-0.998545, 49, 171, 80, 186
-0.998548, 73, 123, 136, 138
-0.998549, 177, 123, 240, 138
-0.998549, 257, 163, 320, 178
-0.998552, 121, 99, 184, 114
-0.998554, 225, 125, 288, 140
-0.998554, 25, 103, 88, 118
-0.998554, 73, 97, 136, 112
-0.998557, 289, 123, 320, 138
-0.998557, 101, 93, 132, 108
-0.998557, 105, 121, 168, 136
-0.998566, 129, 139, 192, 154
-0.998567, 129, 121, 192, 136
-0.998567, 97, 103, 160, 118
-0.998571, 201, 113, 232, 128
-0.998571, 241, 155, 304, 170
-0.998575, 105, 131, 168, 146
-0.998576, 89, 165, 152, 180
-0.998577, 65, 107, 128, 122
-0.998577, 249, 125, 312, 140
-0.99858, 1, 25, 370, 88
-0.998582, 193, 37, 320, 68
-0.998584, 161, 145, 224, 160
-0.998584, 1, 167, 64, 182
-0.998587, 145, 113, 208, 128
-0.998589, 129, 105, 192, 120
-0.998589, 65, 67, 128, 82
-0.998592, 41, 171, 104, 186
-0.998592, 177, 137, 240, 152
-0.998593, 297, 1, 360, 16
-0.998594, 73, 89, 136, 104
-0.998595, 49, 117, 112, 132
-0.998598, 89, 67, 152, 82
-0.9986, 1, 143, 64, 158
-0.998601, 201, 153, 264, 168
-0.998602, 209, 29, 272, 44
-0.998603, 97, 45, 224, 76
-0.998603, 233, 165, 296, 180
-0.998603, 257, 143, 320, 158
-0.998605, 17, 97, 80, 112
-0.998605, 33, 143, 96, 158
-0.998605, 177, 159, 240, 174
-0.998605, 209, 165, 272, 180
-0.998609, 193, 11, 256, 26
-0.998609, 57, 143, 120, 158
-0.998611, 65, 135, 128, 150
-0.998612, 105, 111, 168, 126
-0.998612, 57, 75, 120, 90
-0.998614, 73, 247, 136, 262
-0.998616, 209, 109, 272, 124
-0.998616, 153, 121, 216, 136
-0.998617, 169, 233, 232, 248
-0.998617, 1, 135, 64, 150
-0.998617, 65, 175, 128, 190
-0.998618, 73, 115, 136, 130
-0.998618, 97, 89, 160, 104
-0.998618, 217, 171, 280, 186
-0.99862, 249, 119, 312, 134
-0.998621, 177, 175, 240, 190
-0.998622, 217, 139, 280, 154
-0.998623, 1, 229, 64, 244
-0.998626, 65, 161, 128, 176
-0.998627, 121, 91, 184, 106
-0.998629, 25, 123, 88, 138
-0.998629, 25, 131, 88, 146
-0.99863, 273, 157, 336, 172
-0.99863, 281, 67, 344, 82
-0.998633, 193, 129, 256, 144
-0.998633, 297, 85, 360, 100
-0.998633, 33, 85, 96, 100
-0.998633, 49, 91, 112, 106
-0.998634, 241, 171, 304, 186
-0.998635, 281, 73, 344, 88
-0.998635, 177, 105, 240, 120
-0.998636, 41, 61, 104, 76
-0.998636, 17, 79, 80, 94
-0.998637, 177, 151, 240, 166
-0.998639, 1, 151, 64, 166
-0.99864, 89, 171, 152, 186
-0.998641, 241, 149, 304, 164
-0.998641, 73, 83, 136, 98
-0.998644, 9, 113, 72, 128
-0.998644, 185, 29, 248, 44
-0.998647, 249, 65, 312, 80
-0.998648, 289, 119, 352, 134
-0.998649, 305, 133, 368, 148
-0.99865, 169, 131, 232, 146
-0.998652, 177, 205, 240, 220
-0.998652, 169, 5, 232, 20
-0.998654, 185, 143, 248, 158
-0.998654, 121, 235, 184, 250
-0.998655, 249, 113, 312, 128
-0.998656, 201, 123, 264, 138
-0.998658, 145, 67, 208, 82
-0.998658, 105, 245, 168, 260
-0.998658, 169, 113, 232, 128
-0.998658, 97, 147, 160, 162
-0.998659, 113, 83, 176, 98
-0.998659, 281, 79, 344, 94
-0.998659, 177, 169, 240, 184
-0.99866, 193, 17, 256, 32
-0.998662, 49, 37, 112, 52
-0.998663, 217, 131, 280, 146
-0.998663, 129, 173, 192, 188
-0.998663, 73, 21, 136, 36
-0.998664, 273, 169, 336, 184
-0.998664, 233, 27, 296, 42
-0.998665, 113, 251, 176, 266
-0.998665, 209, 103, 272, 118
-0.998666, 65, 55, 128, 70
-0.998666, 289, 125, 352, 140
-0.998668, 145, 73, 208, 88
-0.998668, 209, 147, 272, 162
-0.998669, 209, 23, 272, 38
-0.998671, 177, 199, 240, 214
-0.998671, 137, 3, 200, 18
-0.998672, 169, 23, 232, 38
-0.998672, 41, 221, 104, 236
-0.998673, 201, 35, 264, 50
-0.998673, 89, 61, 152, 76
-0.998706, 37, 1, 68, 256
-0.998718, 49, 41, 176, 72
-0.998722, 101, 81, 116, 208
-0.998834, 95, 81, 110, 208
-0.998859, 1, 53, 128, 84
-0.998867, 241, 41, 368, 72
-0.998878, 77, 113, 92, 240
-0.99892, 107, 81, 122, 208
-0.998929, 241, 229, 368, 260
-0.99894, 89, 65, 104, 192
-0.998961, 65, 113, 80, 240
-0.998962, 1, 41, 128, 72
-0.998999, 223, 129, 238, 256
-0.999, 83, 113, 98, 240
-0.999014, 121, 81, 136, 208
-0.999023, 127, 81, 142, 208
-0.999033, 297, 81, 312, 208
-0.99905, 111, 17, 126, 144
-0.999052, 79, 65, 94, 192
-0.999061, 49, 81, 64, 208
-0.99908, 71, 65, 86, 192
-0.999087, 291, 81, 306, 208
-0.999087, 135, 97, 150, 224
-0.999088, 229, 97, 244, 224
-0.999107, 59, 33, 74, 160
-0.999109, 311, 1, 326, 128
-0.999113, 99, 33, 114, 160
-0.999115, 5, 129, 20, 256
-0.999117, 115, 81, 130, 208
-0.999118, 281, 129, 296, 256
-0.99912, 275, 113, 290, 240
-0.999131, 149, 113, 164, 240
-0.999133, 141, 97, 156, 224
-0.999142, 255, 129, 270, 256
-0.999143, 195, 97, 210, 224
-0.999146, 89, 113, 104, 240
-0.999151, 303, 65, 318, 192
-0.999152, 267, 129, 282, 256
-0.999155, 97, 129, 112, 256
-0.999155, 155, 81, 170, 208
-0.999172, 245, 129, 260, 256
-0.999181, 349, 81, 364, 208
-0.999182, 57, 81, 72, 208
-0.999191, 43, 113, 58, 240
-0.999191, 303, 1, 318, 128
-0.999199, 211, 129, 226, 256
-0.9992, 35, 81, 50, 208
-0.999207, 183, 97, 198, 224
-0.999208, 11, 129, 26, 256
-0.999211, 261, 129, 276, 256
-0.999212, 205, 129, 220, 256
-0.999212, 105, 33, 120, 160
-0.999221, 355, 1, 370, 128
-0.999224, 175, 129, 190, 256
-0.999229, 43, 65, 58, 192
-0.999232, 297, 1, 312, 128
-0.999232, 111, 129, 126, 256
-0.999237, 169, 1, 184, 128
-0.999239, 51, 33, 66, 160
-0.999242, 65, 65, 80, 192
-0.999253, 341, 129, 356, 256
-0.999264, 125, 129, 140, 256
-0.999268, 355, 65, 370, 192
-0.99927, 189, 97, 204, 224
-0.999279, 129, 185, 256, 216
-0.999285, 287, 129, 302, 256
-0.999285, 235, 97, 250, 224
-0.999289, 187, 1, 202, 128
-0.999297, 93, 17, 108, 144
-0.999298, 285, 81, 300, 208
-0.999305, 301, 129, 316, 256
-0.99931, 311, 81, 326, 208
-0.999316, 105, 129, 120, 256
-0.999317, 119, 17, 134, 144
-0.999318, 181, 145, 196, 272
-0.99932, 125, 17, 140, 144
-0.999325, 117, 129, 132, 256
-0.999329, 59, 129, 74, 256
-0.999331, 49, 129, 64, 256
-0.999332, 3, 81, 18, 208
-0.999335, 315, 129, 330, 256
-0.999337, 353, 129, 368, 256
-0.999339, 349, 1, 364, 128
-0.99934, 17, 129, 32, 256
-0.999341, 217, 145, 232, 272
-0.999342, 169, 145, 184, 272
-0.999342, 141, 1, 156, 128
-0.999342, 35, 129, 50, 256
-0.999346, 347, 129, 362, 256
-0.999348, 343, 81, 358, 208
-0.999352, 165, 97, 180, 224
-0.999352, 213, 1, 228, 128
-0.999362, 219, 1, 234, 128
-0.999367, 131, 17, 146, 144
-0.999368, 81, 209, 208, 240
-0.999368, 307, 129, 322, 256
-0.999376, 291, 1, 306, 128
-0.999377, 27, 129, 42, 256
-0.99938, 193, 233, 320, 264
-0.999386, 223, 49, 238, 176
-0.999389, 295, 129, 310, 256
-0.999398, 193, 1, 208, 128
-0.9994, 23, 81, 38, 208
-0.999401, 79, 17, 94, 144
-0.999403, 335, 129, 350, 256
-0.999408, 187, 145, 202, 272
-0.999421, 87, 17, 102, 144
-0.999421, 327, 145, 342, 272
-0.999422, 159, 129, 174, 256
-0.999422, 9, 81, 24, 208
-0.999425, 239, 145, 254, 272
-0.999427, 187, 49, 202, 176
-0.99943, 229, 145, 244, 272
-0.999431, 255, 81, 270, 208
-0.999433, 141, 49, 156, 176
-0.999435, 321, 129, 336, 256
-0.99945, 341, 17, 356, 144
-0.999451, 201, 81, 216, 208
-0.999452, 177, 81, 192, 208
-0.999461, 131, 145, 146, 272
-0.999464, 171, 81, 186, 208
-0.999473, 3, 1, 18, 128
-0.999475, 149, 49, 164, 176
-0.999478, 267, 81, 282, 208
-0.999479, 245, 65, 260, 192
-0.99948, 213, 81, 228, 208
-0.999482, 283, 1, 298, 128
-0.999484, 17, 81, 32, 208
-0.999487, 143, 145, 158, 272
-0.999488, 267, 1, 282, 128
-0.9995, 257, 1, 272, 128
-0.999501, 73, 17, 88, 144
-0.999505, 275, 65, 290, 192
-0.999514, 193, 49, 208, 176
-0.999522, 9, 1, 24, 128
-0.999527, 235, 49, 250, 176
-0.999528, 273, 193, 336, 256
-0.999538, 321, 81, 336, 208
-0.999547, 335, 1, 350, 128
-0.999547, 25, 143, 40, 158
-0.999548, 163, 123, 178, 138
-0.999548, 99, 67, 114, 82
-0.999548, 313, 121, 328, 136
-0.999548, 103, 75, 118, 90
-0.999548, 265, 171, 280, 186
-0.999548, 261, 141, 276, 156
-0.999549, 307, 117, 322, 132
-0.99955, 341, 3, 356, 18
-0.99955, 75, 63, 90, 78
-0.999551, 133, 139, 148, 154
-0.999551, 229, 115, 244, 130
-0.999551, 213, 173, 228, 188
-0.999551, 97, 75, 112, 90
-0.999552, 113, 139, 128, 154
-0.999552, 355, 7, 370, 22
-0.999552, 37, 131, 52, 146
-0.999553, 347, 5, 362, 20
-0.999553, 147, 99, 162, 114
-0.999553, 181, 123, 196, 138
-0.999553, 127, 253, 142, 268
-0.999554, 13, 143, 28, 158
-0.999555, 163, 99, 178, 114
-0.999556, 321, 137, 336, 152
-0.999557, 323, 127, 338, 142
-0.999557, 37, 99, 52, 114
-0.999558, 281, 163, 296, 178
-0.999558, 95, 163, 110, 178
-0.999558, 141, 115, 156, 130
-0.999559, 223, 157, 238, 172
-0.999559, 263, 25, 278, 40
-0.99956, 87, 175, 102, 190
-0.99956, 147, 139, 162, 154
-0.999561, 233, 29, 248, 44
-0.999561, 291, 115, 306, 130
-0.999562, 291, 109, 306, 124
-0.999562, 111, 101, 126, 116
-0.999564, 99, 107, 114, 122
-0.999564, 353, 83, 368, 98
-0.999564, 129, 91, 144, 106
-0.999565, 173, 101, 188, 116
-0.999565, 71, 129, 86, 144
-0.999565, 73, 121, 88, 136
-0.999566, 205, 115, 220, 130
-0.999568, 61, 165, 76, 180
-0.999568, 113, 93, 128, 108
-0.999568, 313, 127, 328, 142
-0.999569, 91, 59, 106, 74
-0.99957, 297, 115, 312, 130
-0.99957, 205, 145, 220, 160
-0.999573, 263, 135, 278, 150
-0.999573, 281, 141, 296, 156
-0.999573, 71, 141, 86, 156
-0.999574, 175, 119, 190, 134
-0.999574, 247, 121, 262, 136
-0.999574, 47, 131, 62, 146
-0.999577, 213, 153, 228, 168
-0.999577, 53, 129, 68, 144
-0.999578, 121, 97, 136, 112
-0.999578, 85, 67, 100, 82
-0.999579, 47, 79, 62, 94
-0.999579, 271, 141, 286, 156
-0.99958, 33, 149, 48, 164
-0.999581, 59, 45, 74, 60
-0.999582, 43, 103, 58, 118
-0.999582, 167, 133, 182, 148
-0.999582, 255, 143, 270, 158
-0.999583, 99, 169, 114, 184
-0.999583, 199, 107, 214, 122
-0.999583, 53, 173, 68, 188
-0.999584, 299, 127, 314, 142
-0.999584, 307, 123, 322, 138
-0.999585, 199, 141, 214, 156
-0.999587, 157, 105, 172, 120
-0.999588, 93, 123, 108, 138
-0.999589, 291, 121, 306, 136
-0.99959, 153, 121, 168, 136
-0.99959, 87, 167, 102, 182
-0.999593, 65, 139, 80, 154
-0.999593, 175, 129, 190, 144
-0.999593, 107, 165, 122, 180
-0.999594, 77, 97, 92, 112
-0.999594, 227, 121, 242, 136
-0.999595, 213, 107, 228, 122
-0.999596, 333, 1, 348, 16
-0.999597, 51, 167, 66, 182
-0.999598, 49, 65, 64, 80
-0.9996, 141, 99, 156, 114
-0.999601, 283, 157, 298, 172
-0.999601, 255, 127, 270, 142
-0.999603, 161, 117, 176, 132
-0.999603, 193, 137, 208, 152
-0.999604, 43, 139, 58, 154
-0.999604, 63, 131, 78, 146
-0.999605, 147, 117, 162, 132
-0.999605, 169, 125, 184, 140
-0.999606, 71, 167, 86, 182
-0.999609, 209, 205, 336, 236
-0.999609, 213, 161, 228, 176
-0.999609, 59, 39, 74, 54
-0.99961, 93, 67, 108, 82
-0.999611, 33, 137, 48, 152
-0.999612, 187, 137, 202, 152
-0.999613, 183, 131, 198, 146
-0.999614, 95, 145, 110, 160
-0.999616, 41, 167, 56, 182
-0.999617, 299, 121, 314, 136
-0.999619, 61, 123, 76, 138
-0.99962, 73, 87, 88, 102
-0.999621, 241, 125, 256, 140
-0.999622, 71, 99, 86, 114
-0.999623, 157, 99, 172, 114
-0.999623, 73, 107, 88, 122
-0.999623, 157, 129, 172, 144
-0.999624, 105, 103, 120, 118
-0.999624, 241, 181, 368, 212
-0.999626, 163, 105, 178, 120
-0.999629, 149, 107, 164, 122
-0.999629, 217, 113, 232, 128
-0.999638, 269, 165, 284, 180
-0.999642, 233, 123, 248, 138
-0.999649, 177, 193, 304, 224
-0.999652, 251, 137, 266, 152
-0.999652, 45, 97, 60, 112
-0.999655, 99, 97, 114, 112
-0.999659, 107, 93, 122, 108
-0.999664, 93, 169, 108, 184
-0.999672, 205, 109, 220, 124
-0.999672, 223, 115, 238, 130
-0.999672, 245, 131, 260, 146
-0.999673, 155, 111, 170, 126
-0.999699, 275, 163, 290, 178
-0.999729, 61, 171, 76, 186
-0.999761, 145, 45, 272, 76
-0.999811, 241, 241, 368, 272
-0.999928, 177, 181, 304, 212
-1.00025, 17, 193, 144, 224
-1.00064, 225, 193, 352, 224
