1970
-0.284948, 1, 1, 500, 375
-0.318293, 1, 1, 500, 256
-0.375011, 1, 1, 256, 375
-0.408167, 1, 129, 500, 375
-0.42511, 97, 1, 352, 375
-0.447362, 225, 1, 480, 375
-0.466814, 97, 1, 352, 256
-0.519066, 257, 129, 500, 375
-0.575671, 1, 1, 256, 256
-0.58427, 33, 97, 288, 352
-0.641517, 193, 33, 448, 288
-0.684032, 161, 129, 416, 375
-0.839423, 65, 1, 192, 256
-0.841069, 1, 33, 500, 160
-0.846291, 273, 129, 400, 375
-0.849935, 17, 1, 144, 256
-0.85012, 17, 1, 144, 375
-0.850812, 97, 1, 224, 375
-0.856922, 129, 1, 256, 256
-0.863741, 353, 1, 480, 375
-0.865224, 369, 97, 496, 352
-0.867483, 305, 1, 432, 375
-0.867932, 81, 97, 208, 352
-0.872489, 321, 129, 448, 375
-0.8735, 241, 1, 368, 375
-0.873561, 225, 129, 352, 375
-0.873645, 273, 33, 400, 288
-0.876221, 177, 1, 304, 256
-0.876629, 1, 241, 500, 368
-0.877579, 145, 97, 272, 352
-0.886034, 145, 1, 272, 375
-0.886543, 33, 97, 160, 352
-0.889503, 353, 1, 480, 256
-0.892956, 225, 33, 352, 288
-0.896239, 193, 1, 320, 375
-0.897901, 1, 81, 500, 208
-0.89883, 97, 17, 352, 144
-0.901506, 129, 241, 384, 368
-0.901659, 257, 177, 500, 304
-0.903545, 1, 177, 500, 304
-0.906026, 1, 33, 256, 160
-0.910032, 129, 193, 384, 320
-0.912728, 1, 129, 500, 256
-0.914846, 257, 129, 500, 256
-0.915266, 129, 65, 384, 192
-0.915701, 225, 241, 480, 368
-0.915861, 33, 241, 288, 368
-0.918892, 145, 1, 208, 128
-0.921924, 49, 33, 176, 160
-0.922168, 1, 81, 256, 208
-0.925793, 129, 113, 384, 240
-0.927016, 257, 81, 500, 208
-0.927873, 97, 1, 224, 128
-0.929385, 41, 33, 104, 160
-0.929609, 265, 161, 328, 288
-0.929956, 153, 49, 216, 176
-0.930591, 289, 129, 416, 256
-0.931107, 161, 209, 288, 336
-0.931129, 273, 177, 400, 304
-0.932416, 113, 241, 240, 368
-0.932585, 105, 1, 168, 128
-0.932604, 33, 241, 160, 368
-0.932946, 113, 49, 240, 176
-0.934377, 225, 1, 480, 128
-0.934535, 225, 209, 352, 336
-0.935384, 161, 1, 288, 128
-0.936005, 1, 17, 128, 144
-0.936439, 297, 241, 360, 368
-0.936516, 25, 241, 88, 368
-0.937974, 17, 1, 80, 128
-0.9386, 369, 193, 496, 320
-0.939348, 345, 177, 408, 304
-0.939394, 305, 129, 368, 256
-0.939656, 225, 209, 288, 336
-0.940497, 273, 241, 400, 368
-0.941195, 385, 225, 448, 352
-0.941692, 305, 81, 432, 208
-0.941713, 145, 17, 208, 80
-0.941993, 1, 193, 256, 320
-0.942054, 113, 49, 176, 176
-0.942223, 33, 145, 288, 272
-0.942224, 105, 1, 168, 64
-0.942684, 225, 161, 352, 288
-0.943064, 249, 241, 312, 368
-0.944868, 353, 97, 480, 224
-0.945149, 65, 81, 192, 208
-0.946101, 337, 241, 400, 368
-0.946253, 65, 17, 128, 144
-0.946826, 289, 153, 352, 216
-0.94712, 161, 241, 224, 368
-0.947151, 81, 241, 144, 368
-0.947315, 345, 281, 408, 344
-0.947351, 273, 241, 336, 368
-0.94799, 241, 65, 368, 192
-0.948513, 121, 97, 184, 224
-0.949062, 353, 241, 480, 368
-0.949341, 361, 129, 424, 256
-0.949519, 289, 193, 352, 320
-0.949699, 145, 49, 208, 112
-0.949833, 265, 1, 328, 128
-0.949953, 113, 25, 176, 88
-0.95016, 321, 177, 448, 304
-0.950476, 257, 1, 384, 128
-0.951152, 217, 241, 280, 304
-0.951494, 305, 81, 368, 208
-0.952008, 1, 193, 128, 320
-0.952439, 185, 241, 248, 368
-0.952582, 57, 241, 120, 368
-0.952679, 369, 177, 432, 304
-0.953268, 321, 177, 384, 240
-0.953431, 1, 241, 64, 368
-0.953837, 265, 169, 328, 232
-0.953979, 65, 81, 128, 144
-0.95428, 137, 241, 200, 368
-0.95438, 113, 193, 240, 320
-0.954584, 113, 297, 176, 360
-0.954655, 337, 129, 400, 256
-0.954798, 33, 73, 96, 136
-0.955068, 281, 113, 344, 240
-0.955533, 25, 9, 88, 72
-0.955686, 161, 97, 224, 224
-0.955737, 65, 9, 128, 72
-0.956139, 281, 65, 344, 192
-0.956496, 113, 129, 240, 256
-0.956529, 81, 305, 144, 368
-0.956617, 433, 241, 496, 368
-0.956622, 49, 193, 112, 320
-0.956822, 241, 113, 368, 240
-0.956962, 161, 97, 288, 224
-0.957367, 385, 289, 448, 352
-0.957576, 329, 81, 392, 208
-0.957919, 401, 177, 464, 304
-0.957937, 185, 1, 248, 128
-0.957963, 425, 193, 488, 320
-0.958053, 33, 33, 96, 96
-0.958118, 313, 137, 376, 200
-0.958297, 129, 89, 192, 152
-0.958411, 321, 177, 384, 304
-0.958703, 321, 289, 384, 352
-0.958789, 153, 313, 216, 375
-0.959339, 153, 121, 216, 184
-0.959611, 217, 217, 280, 280
-0.959692, 57, 305, 120, 368
-0.959736, 73, 97, 136, 224
-0.959757, 9, 193, 72, 320
-0.959853, 129, 121, 192, 184
-0.959967, 241, 1, 304, 128
-0.960103, 425, 257, 488, 320
-0.960202, 353, 193, 416, 256
-0.960249, 433, 97, 496, 160
-0.960471, 385, 233, 448, 296
-0.960532, 377, 257, 440, 320
-0.960739, 161, 49, 288, 176
-0.96087, 353, 81, 416, 208
-0.960889, 1, 81, 128, 208
-0.960919, 185, 193, 248, 320
-0.960935, 393, 209, 456, 272
-0.960989, 25, 81, 88, 208
-0.961115, 257, 49, 320, 176
-0.961324, 257, 249, 320, 312
-0.961374, 89, 89, 152, 152
-0.961397, 361, 241, 424, 368
-0.96147, 249, 281, 312, 344
-0.961963, 121, 49, 184, 112
-0.962207, 145, 1, 208, 256
-0.962273, 65, 33, 128, 96
-0.962381, 305, 33, 432, 160
-0.962447, 1, 89, 64, 152
-0.962563, 385, 81, 448, 208
-0.962588, 81, 265, 144, 328
-0.962647, 1, 81, 64, 208
-0.962691, 1, 1, 64, 64
-0.962694, 9, 249, 72, 312
-0.962833, 185, 257, 248, 320
-0.962998, 161, 145, 288, 272
-0.963093, 33, 1, 160, 64
-0.963221, 369, 49, 496, 176
-0.963396, 89, 49, 152, 176
-0.96362, 105, 225, 168, 352
-0.963648, 409, 281, 472, 344
-0.963788, 153, 265, 216, 328
-0.964063, 49, 241, 112, 304
-0.964096, 425, 65, 488, 192
-0.964232, 49, 193, 176, 320
-0.964483, 353, 33, 416, 160
-0.964666, 305, 265, 368, 328
-0.964691, 241, 161, 304, 288
-0.964957, 161, 161, 224, 288
-0.964991, 249, 217, 312, 280
-0.965118, 297, 305, 360, 368
-0.965173, 361, 305, 424, 368
-0.965334, 105, 257, 168, 320
-0.965401, 425, 73, 488, 136
-0.965559, 281, 249, 344, 312
-0.965637, 149, 17, 180, 80
-0.96571, 25, 1, 88, 256
-0.966011, 177, 17, 240, 80
-0.966051, 265, 33, 328, 96
-0.966251, 289, 1, 352, 128
-0.966434, 81, 9, 208, 72
-0.966824, 45, 17, 76, 144
-0.966969, 409, 233, 472, 296
-0.967289, 113, 1, 144, 64
-0.967293, 209, 1, 336, 128
-0.96739, 225, 265, 288, 328
-0.9674, 409, 97, 472, 160
-0.967711, 329, 129, 392, 375
-0.967835, 161, 1, 192, 128
-0.967875, 401, 257, 464, 320
-0.967922, 377, 1, 440, 128
-0.968033, 241, 161, 304, 224
-0.968182, 289, 177, 352, 240
-0.968197, 41, 97, 104, 160
-0.968236, 81, 313, 208, 375
-0.968326, 133, 33, 164, 160
-0.968347, 265, 193, 328, 256
-0.968351, 89, 25, 152, 88
-0.968568, 129, 257, 192, 320
-0.968632, 105, 113, 168, 176
-0.968652, 369, 145, 496, 272
-0.968654, 105, 1, 168, 256
-0.968705, 409, 241, 472, 368
-0.968745, 49, 81, 112, 208
-0.96885, 97, 97, 160, 224
-0.968864, 385, 89, 448, 152
-0.9689, 113, 265, 240, 328
-0.968923, 241, 257, 368, 320
-0.968997, 165, 25, 196, 88
-0.969041, 185, 81, 248, 208
-0.969173, 33, 297, 160, 360
-0.969189, 353, 273, 384, 336
-0.969341, 409, 305, 472, 368
-0.969423, 345, 257, 408, 320
-0.969617, 181, 33, 212, 160
-0.96964, 161, 289, 224, 352
-0.969741, 69, 1, 100, 128
-0.969758, 65, 1, 128, 256
-0.969773, 369, 281, 400, 344
-0.969785, 401, 33, 464, 160
-0.969791, 353, 1, 480, 128
-0.969819, 409, 185, 472, 248
-0.969935, 65, 105, 128, 168
-0.969983, 321, 281, 448, 344
-0.970109, 169, 1, 232, 256
-0.97021, 241, 113, 304, 240
-0.970236, 153, 89, 216, 152
-0.970263, 261, 209, 292, 336
-0.970388, 305, 193, 432, 256
-0.97044, 133, 1, 164, 64
-0.970508, 281, 129, 344, 375
-0.970513, 17, 273, 80, 336
-0.970591, 385, 129, 448, 375
-0.970607, 313, 33, 376, 288
-0.970748, 377, 177, 408, 304
-0.970933, 293, 161, 324, 224
-0.971046, 433, 281, 496, 344
-0.97105, 265, 145, 328, 208
-0.97131, 193, 289, 256, 352
-0.971333, 257, 161, 384, 224
-0.971363, 145, 65, 176, 192
-0.971409, 177, 129, 240, 192
-0.971646, 49, 265, 112, 328
-0.971659, 153, 57, 184, 120
-0.971747, 353, 33, 416, 288
-0.971823, 281, 57, 344, 120
-0.971829, 369, 265, 496, 328
-0.971855, 241, 33, 304, 96
-0.971948, 129, 145, 192, 208
-0.971959, 129, 17, 256, 80
-0.971961, 337, 153, 400, 216
-0.971973, 65, 33, 192, 96
-0.971974, 73, 73, 104, 136
-0.972014, 177, 233, 240, 296
-0.972079, 257, 129, 320, 375
-0.972153, 185, 129, 248, 256
-0.97219, 97, 49, 160, 112
-0.972206, 281, 33, 344, 288
-0.972577, 133, 33, 164, 96
-0.972773, 321, 313, 384, 375
-0.972874, 137, 193, 200, 320
-0.972879, 289, 129, 352, 192
-0.972938, 101, 313, 132, 375
-0.972952, 49, 217, 112, 280
-0.972962, 89, 305, 120, 368
-0.97301, 145, 233, 208, 296
-0.973063, 281, 161, 312, 224
-0.973163, 145, 81, 176, 144
-0.973204, 177, 17, 208, 80
-0.973263, 385, 313, 448, 375
-0.973267, 345, 129, 408, 192
-0.973321, 41, 9, 72, 72
-0.973328, 137, 289, 200, 352
-0.973347, 193, 257, 320, 320
-0.973492, 65, 81, 192, 144
-0.973527, 73, 193, 136, 320
-0.973659, 33, 297, 96, 360
-0.973694, 369, 289, 496, 352
-0.973712, 361, 225, 424, 288
-0.973806, 385, 193, 416, 256
-0.973872, 425, 145, 488, 272
-0.973898, 353, 129, 416, 375
-0.973956, 369, 233, 496, 296
-0.973978, 289, 161, 320, 288
-0.974025, 305, 129, 368, 375
-0.97408, 273, 297, 336, 360
-0.974155, 65, 97, 128, 352
-0.974162, 149, 1, 180, 128
-0.974166, 333, 161, 364, 224
-0.974177, 117, 1, 148, 128
-0.974235, 125, 297, 156, 360
-0.974276, 177, 1, 304, 64
-0.97433, 137, 145, 200, 272
-0.974336, 113, 297, 144, 360
-0.974341, 37, 257, 68, 320
-0.974368, 425, 121, 488, 184
-0.974393, 361, 97, 424, 160
-0.974494, 145, 241, 272, 304
-0.974762, 177, 33, 304, 96
-0.974819, 361, 73, 424, 136
-0.974839, 33, 1, 64, 128
-0.974905, 113, 233, 176, 296
-0.974909, 337, 89, 400, 152
-0.974971, 241, 57, 304, 120
-0.975017, 37, 241, 68, 368
-0.975093, 241, 201, 368, 264
-0.975136, 345, 161, 376, 224
-0.975137, 1, 1, 64, 256
-0.975141, 353, 129, 384, 256
-0.975223, 9, 225, 72, 288
-0.975233, 281, 241, 312, 368
-0.97524, 377, 305, 408, 368
-0.975297, 337, 273, 368, 336
-0.975308, 169, 41, 232, 104
-0.975319, 241, 193, 304, 256
-0.975351, 305, 49, 368, 112
-0.975361, 81, 121, 208, 184
-0.975374, 145, 265, 176, 328
-0.97554, 153, 145, 216, 208
-0.975551, 241, 1, 304, 64
-0.975558, 413, 257, 444, 320
-0.975585, 377, 185, 440, 248
-0.975608, 357, 177, 388, 304
-0.975625, 113, 49, 240, 112
-0.975653, 57, 17, 88, 144
-0.975689, 317, 241, 348, 368
-0.975792, 277, 1, 308, 128
-0.975805, 65, 17, 96, 80
-0.975886, 41, 97, 104, 352
-0.975994, 17, 249, 144, 312
-0.976058, 313, 137, 344, 200
-0.976141, 241, 289, 368, 352
-0.976141, 357, 297, 388, 360
-0.976288, 69, 297, 100, 360
-0.976297, 177, 241, 208, 368
-0.976326, 337, 129, 368, 256
-0.976339, 425, 129, 488, 375
-0.976344, 329, 65, 360, 192
-0.976344, 309, 113, 340, 240
-0.976362, 65, 129, 192, 256
-0.976415, 433, 273, 464, 336
-0.976428, 57, 57, 120, 120
-0.976501, 89, 233, 152, 296
-0.976515, 305, 305, 432, 368
-0.976534, 65, 265, 192, 328
-0.976653, 217, 145, 280, 272
-0.976662, 101, 241, 132, 368
-0.976693, 305, 73, 368, 136
-0.976693, 137, 97, 200, 352
-0.976728, 365, 129, 396, 256
-0.976738, 53, 9, 84, 72
-0.976753, 161, 1, 192, 64
-0.976773, 21, 1, 52, 128
-0.976812, 89, 241, 120, 368
-0.976823, 425, 17, 488, 144
-0.976842, 385, 33, 448, 288
-0.976866, 17, 97, 80, 352
-0.976872, 1, 65, 64, 128
-0.976919, 321, 225, 448, 288
-0.97693, 309, 161, 340, 224
-0.976959, 277, 177, 308, 304
-0.976965, 289, 201, 352, 264
-0.976977, 353, 185, 384, 248
-0.976977, 289, 257, 416, 320
-0.977086, 325, 129, 356, 256
-0.977109, 261, 249, 292, 312
-0.97712, 385, 129, 448, 256
-0.977121, 369, 201, 496, 264
-0.977134, 169, 97, 232, 352
-0.977138, 465, 97, 496, 160
-0.977366, 249, 1, 312, 256
-0.977392, 397, 193, 428, 320
-0.977443, 161, 313, 192, 375
-0.977451, 217, 1, 280, 128
-0.977628, 101, 289, 132, 352
-0.977636, 433, 305, 496, 368
-0.97767, 109, 265, 140, 328
-0.977684, 337, 225, 400, 288
-0.977753, 97, 97, 160, 352
-0.977758, 53, 241, 84, 368
-0.977788, 397, 201, 428, 264
-0.977841, 293, 241, 324, 368
-0.97785, 97, 289, 224, 352
-0.977917, 421, 297, 452, 360
-0.97795, 329, 17, 392, 144
-0.97796, 169, 129, 200, 192
-0.978019, 165, 49, 196, 176
-0.978066, 1, 241, 32, 368
-0.978262, 369, 73, 496, 136
-0.978272, 449, 241, 480, 368
-0.978314, 305, 209, 336, 336
-0.978381, 181, 49, 212, 112
-0.978408, 433, 217, 496, 280
-0.978423, 301, 161, 332, 288
-0.978468, 257, 137, 384, 200
-0.978493, 145, 289, 272, 352
-0.978529, 69, 49, 100, 176
-0.97856, 105, 17, 136, 144
-0.978638, 209, 169, 336, 232
-0.978642, 133, 257, 164, 320
-0.978644, 17, 25, 144, 88
-0.978647, 45, 33, 76, 96
-0.978665, 305, 169, 432, 232
-0.978717, 233, 49, 296, 176
-0.978719, 101, 1, 132, 64
-0.978775, 97, 1, 160, 375
-0.978787, 321, 89, 448, 152
-0.978808, 457, 193, 488, 320
-0.978958, 313, 233, 376, 296
-0.979036, 177, 105, 240, 168
-0.979069, 373, 257, 404, 320
-0.979166, 269, 25, 300, 88
-0.97918, 409, 33, 472, 288
-0.979221, 317, 57, 348, 120
-0.979253, 277, 185, 308, 248
-0.979267, 121, 25, 152, 88
-0.979298, 265, 9, 328, 72
-0.979304, 385, 65, 448, 128
-0.979362, 113, 97, 240, 160
-0.979381, 17, 73, 144, 136
-0.979382, 185, 209, 248, 272
-0.979392, 17, 105, 144, 168
-0.979415, 153, 113, 184, 176
-0.979448, 209, 233, 336, 296
-0.979496, 345, 297, 376, 360
-0.979496, 129, 137, 256, 200
-0.979507, 377, 241, 408, 368
-0.979591, 137, 289, 168, 352
-0.979596, 337, 57, 400, 120
-0.979614, 413, 89, 444, 152
-0.979628, 357, 81, 388, 208
-0.97971, 73, 241, 104, 368
-0.979763, 385, 113, 448, 176
-0.979844, 205, 249, 236, 312
-0.979868, 201, 1, 232, 128
-0.979886, 17, 225, 144, 288
-0.979892, 85, 273, 116, 336
-0.979911, 201, 9, 264, 72
-0.979918, 121, 65, 152, 192
-0.980024, 333, 137, 364, 200
-0.980039, 265, 1, 296, 128
-0.980043, 177, 313, 240, 375
-0.980087, 257, 281, 288, 344
-0.980126, 325, 265, 356, 328
-0.980186, 305, 129, 432, 192
-0.980262, 393, 65, 424, 192
-0.980307, 353, 313, 480, 375
-0.980365, 89, 89, 120, 152
-0.980372, 189, 121, 220, 184
-0.980389, 345, 65, 376, 192
-0.980418, 221, 241, 252, 304
-0.980432, 409, 297, 440, 360
-0.980439, 441, 97, 472, 160
-0.980502, 117, 241, 148, 368
-0.980507, 161, 273, 192, 336
-0.980518, 81, 241, 208, 304
-0.980569, 193, 281, 320, 344
-0.980693, 33, 1, 96, 375
-0.980734, 325, 177, 356, 304
-0.980795, 237, 209, 268, 336
-0.980818, 217, 97, 280, 352
-0.980931, 437, 249, 468, 312
-0.980934, 1, 265, 32, 328
-0.980936, 265, 121, 328, 184
-0.980973, 389, 305, 420, 368
-0.980982, 441, 297, 472, 360
-0.981077, 137, 241, 168, 368
-0.981085, 113, 105, 144, 168
-0.981105, 133, 65, 164, 128
-0.98115, 257, 33, 288, 96
-0.981244, 257, 25, 384, 88
-0.981257, 153, 241, 184, 304
-0.981286, 149, 305, 180, 368
-0.981289, 241, 137, 304, 200
-0.98132, 17, 49, 144, 112
-0.981321, 201, 313, 264, 375
-0.981352, 165, 49, 196, 112
-0.981359, 1, 305, 64, 368
-0.981405, 437, 241, 468, 368
-0.981413, 189, 241, 220, 368
-0.981416, 269, 161, 300, 224
-0.981437, 225, 57, 352, 120
-0.981454, 369, 121, 496, 184
-0.981489, 389, 113, 420, 240
-0.98158, 201, 97, 232, 224
-0.981599, 9, 89, 40, 152
-0.981607, 189, 97, 220, 224
-0.981676, 157, 97, 188, 224
-0.981775, 69, 41, 100, 104
-0.981795, 389, 241, 420, 368
-0.98184, 13, 241, 44, 368
-0.981856, 453, 97, 484, 160
-0.98186, 129, 313, 256, 375
-0.981868, 193, 9, 224, 72
-0.981923, 25, 249, 56, 312
-0.981935, 277, 281, 308, 344
-0.98198, 425, 97, 456, 160
-0.982009, 393, 233, 424, 296
-0.982109, 193, 1, 256, 256
-0.982131, 161, 225, 192, 352
-0.98217, 345, 177, 376, 304
-0.982174, 433, 185, 496, 248
-0.982179, 369, 97, 496, 160
-0.982189, 49, 281, 80, 344
-0.982201, 25, 241, 56, 368
-0.98225, 133, 121, 164, 184
-0.982314, 433, 33, 496, 288
-0.982319, 285, 113, 316, 240
-0.98235, 177, 137, 304, 200
-0.982355, 157, 89, 188, 152
-0.982375, 305, 49, 336, 112
-0.982384, 9, 33, 72, 96
-0.982426, 93, 241, 124, 304
-0.982451, 49, 193, 80, 320
-0.98247, 361, 49, 424, 112
-0.982481, 289, 137, 320, 200
-0.982498, 381, 281, 412, 344
-0.982533, 361, 241, 392, 368
-0.98266, 29, 9, 60, 72
-0.982718, 257, 217, 288, 280
-0.98273, 85, 81, 116, 208
-0.982739, 209, 97, 272, 224
-0.982745, 377, 129, 408, 256
-0.98276, 329, 185, 360, 248
-0.982762, 157, 145, 188, 208
-0.982787, 297, 297, 328, 360
-0.982797, 409, 193, 440, 256
-0.982857, 69, 97, 100, 160
-0.982867, 121, 265, 152, 328
-0.982871, 197, 177, 228, 304
-0.982905, 129, 1, 192, 375
-0.982913, 161, 217, 288, 280
-0.982931, 177, 313, 208, 375
-0.983186, 133, 97, 164, 160
-0.983246, 241, 265, 272, 328
-0.983296, 369, 177, 496, 240
-0.983331, 297, 1, 360, 375
-0.983377, 149, 241, 180, 368
-0.983414, 373, 193, 404, 256
-0.983431, 457, 257, 488, 320
-0.983445, 29, 81, 60, 208
-0.983464, 65, 57, 192, 120
-0.983481, 453, 209, 484, 272
-0.983488, 381, 49, 412, 176
-0.983518, 325, 289, 356, 352
-0.98355, 309, 65, 340, 192
-0.98358, 321, 161, 352, 224
-0.983615, 409, 1, 472, 375
-0.983671, 273, 49, 400, 112
-0.983716, 97, 265, 128, 328
-0.983753, 1, 273, 128, 336
-0.983826, 269, 49, 300, 176
-0.983836, 201, 241, 232, 368
-0.983845, 145, 113, 176, 240
-0.983856, 29, 89, 60, 152
-0.983873, 33, 193, 64, 320
-0.983877, 329, 241, 360, 368
-0.983944, 405, 65, 436, 192
-0.98399, 461, 289, 492, 352
-0.984033, 9, 193, 40, 320
-0.984044, 273, 249, 304, 312
-0.984048, 289, 249, 320, 312
-0.984091, 393, 273, 424, 336
-0.984104, 345, 137, 376, 200
-0.984125, 425, 73, 456, 136
-0.984137, 177, 313, 304, 375
-0.984198, 289, 1, 320, 128
-0.984242, 249, 209, 280, 336
-0.984273, 437, 193, 468, 320
-0.984276, 369, 81, 400, 208
-0.98428, 153, 1, 216, 375
-0.984295, 57, 97, 88, 160
-0.98432, 321, 49, 448, 112
-0.98434, 273, 73, 400, 136
-0.984382, 109, 41, 140, 104
-0.9844, 357, 153, 388, 216
-0.984411, 329, 57, 360, 120
-0.984452, 301, 137, 332, 200
-0.984477, 313, 257, 344, 320
-0.984559, 241, 1, 368, 64
-0.984581, 273, 129, 304, 256
-0.984584, 213, 225, 244, 352
-0.984593, 177, 241, 208, 304
-0.984613, 189, 89, 220, 152
-0.984704, 173, 273, 204, 336
-0.984721, 53, 57, 84, 120
-0.984744, 425, 241, 456, 368
-0.98479, 257, 1, 288, 64
-0.984888, 273, 1, 336, 375
-0.984929, 401, 89, 432, 152
-0.984945, 285, 65, 316, 192
-0.985044, 45, 97, 76, 224
-0.985048, 145, 73, 272, 136
-0.985113, 1, 201, 128, 264
-0.985141, 193, 97, 256, 352
-0.985156, 193, 193, 320, 256
-0.985165, 241, 233, 272, 296
-0.985213, 377, 1, 440, 375
-0.985305, 97, 177, 160, 304
-0.985336, 409, 177, 440, 304
-0.985338, 193, 49, 224, 176
-0.985478, 133, 113, 164, 240
-0.985575, 353, 1, 416, 375
-0.985666, 73, 1, 136, 375
-0.985945, 185, 177, 216, 304
-0.986141, 297, 113, 328, 240
-0.98635, 109, 97, 140, 224
-0.98639, 465, 241, 496, 368
-0.986561, 177, 113, 304, 176
-0.986567, 465, 129, 496, 256
-0.986616, 81, 33, 112, 160
-0.98666, 353, 153, 480, 216
-0.986663, 325, 1, 356, 128
-0.986697, 1, 1, 64, 375
-0.986767, 241, 313, 368, 375
-0.986856, 249, 1, 312, 375
-0.986964, 313, 161, 344, 288
-0.987051, 57, 97, 88, 224
-0.987079, 257, 233, 384, 296
-0.987161, 261, 161, 292, 288
-0.987283, 341, 241, 372, 368
-0.98733, 145, 193, 272, 256
-0.987371, 1, 81, 32, 208
-0.987403, 137, 37, 200, 68
-0.987618, 105, 5, 168, 36
-0.987631, 81, 217, 208, 280
-0.987789, 369, 49, 496, 112
-0.987831, 225, 1, 288, 256
-0.98785, 97, 97, 128, 224
-0.98792, 137, 17, 200, 48
-0.987938, 113, 29, 176, 60
-0.987958, 145, 49, 208, 80
-0.988073, 69, 193, 100, 320
-0.98808, 93, 33, 124, 160
-0.988093, 21, 193, 52, 320
-0.988259, 97, 41, 352, 104
-0.98826, 13, 81, 44, 208
-0.988379, 113, 41, 176, 72
-0.988386, 173, 113, 204, 240
-0.988389, 1, 145, 128, 272
-0.988435, 465, 65, 496, 192
-0.988492, 409, 113, 440, 240
-0.988529, 165, 161, 196, 288
-0.988616, 145, 61, 208, 92
-0.988633, 257, 193, 500, 256
-0.988642, 345, 297, 408, 328
-0.988645, 329, 1, 392, 375
-0.988697, 413, 241, 444, 368
-0.98871, 385, 305, 448, 336
-0.988721, 225, 257, 480, 320
-0.988754, 113, 17, 176, 48
-0.988815, 81, 325, 144, 356
-0.988837, 65, 97, 128, 128
-0.988879, 249, 253, 312, 284
-0.988888, 305, 161, 368, 192
-0.988944, 313, 297, 376, 328
-0.988949, 33, 13, 96, 44
-0.988972, 369, 17, 496, 80
-0.988975, 41, 85, 104, 116
-0.989053, 65, 37, 128, 68
-0.98907, 225, 193, 256, 320
-0.989075, 209, 245, 272, 276
-0.989108, 369, 321, 432, 352
-0.989112, 453, 97, 484, 224
-0.989122, 281, 157, 344, 188
-0.989126, 225, 113, 352, 176
-0.989161, 33, 1, 96, 32
-0.989184, 161, 33, 224, 64
-0.989199, 1, 97, 64, 128
-0.989219, 1, 17, 256, 80
-0.989244, 65, 13, 128, 44
-0.989253, 329, 189, 392, 220
-0.989286, 41, 33, 104, 64
-0.989286, 281, 185, 344, 216
-0.989301, 161, 137, 224, 168
-0.989328, 253, 1, 284, 128
-0.98933, 161, 297, 416, 360
-0.989345, 129, 5, 192, 36
-0.989376, 305, 149, 368, 180
-0.989383, 369, 33, 400, 160
-0.989396, 469, 193, 500, 320
-0.989403, 425, 301, 488, 332
-0.989438, 345, 309, 408, 340
-0.989439, 361, 201, 424, 232
-0.989446, 113, 305, 176, 336
-0.989448, 65, 25, 128, 56
-0.98946, 357, 33, 388, 160
-0.989508, 265, 169, 328, 200
-0.989527, 137, 281, 200, 312
-0.989549, 345, 281, 408, 312
-0.989549, 249, 289, 312, 320
-0.989573, 57, 341, 120, 372
-0.989594, 97, 17, 352, 80
-0.989631, 161, 13, 224, 44
-0.989639, 409, 281, 472, 312
-0.989656, 89, 109, 152, 140
-0.989692, 313, 173, 376, 204
-0.989751, 289, 173, 352, 204
-0.989769, 161, 325, 224, 356
-0.98985, 385, 293, 448, 324
-0.989861, 137, 269, 200, 300
-0.989861, 105, 333, 168, 364
-0.989863, 225, 233, 288, 264
-0.989881, 25, 97, 88, 128
-0.989891, 257, 169, 500, 232
-0.989896, 121, 89, 184, 120
-0.989901, 217, 257, 280, 288
-0.989911, 209, 145, 240, 272
-0.989925, 9, 277, 72, 308
-0.989965, 409, 117, 472, 148
-0.989968, 177, 277, 240, 308
-0.990004, 433, 101, 496, 132
-0.990013, 161, 161, 288, 224
-0.99002, 1, 1, 64, 32
-0.990025, 433, 1, 496, 375
-0.990041, 393, 221, 456, 252
-0.990057, 65, 49, 128, 80
-0.990082, 129, 129, 192, 160
-0.990105, 177, 1, 240, 375
-0.990113, 41, 57, 104, 88
-0.990131, 385, 253, 448, 284
-0.990137, 265, 201, 328, 232
-0.990147, 257, 157, 320, 188
-0.990151, 313, 309, 376, 340
-0.990153, 9, 253, 72, 284
-0.990154, 89, 193, 120, 320
-0.990166, 121, 57, 184, 88
-0.990167, 101, 193, 132, 320
-0.990172, 89, 29, 152, 60
-0.990181, 241, 173, 304, 204
-0.990185, 1, 81, 500, 144
-0.990193, 305, 133, 368, 164
-0.990218, 249, 221, 312, 252
-0.990235, 33, 249, 288, 312
-0.990237, 81, 341, 144, 372
-0.990254, 385, 269, 448, 300
-0.990259, 425, 261, 488, 292
-0.990263, 153, 149, 216, 180
-0.990284, 433, 117, 496, 148
-0.990343, 121, 113, 184, 144
-0.990346, 113, 69, 176, 100
-0.990369, 217, 277, 280, 308
-0.990385, 417, 317, 480, 348
-0.990389, 401, 209, 464, 240
-0.99039, 73, 309, 136, 340
-0.990415, 257, 129, 500, 192
-0.99043, 81, 161, 208, 224
-0.990432, 153, 1, 216, 32
-0.990452, 337, 1, 368, 128
-0.990461, 313, 1, 344, 128
-0.990463, 65, 77, 128, 108
-0.990476, 73, 293, 136, 324
-0.99048, 129, 337, 192, 368
-0.990481, 41, 329, 104, 360
-0.990483, 33, 261, 96, 292
-0.990484, 105, 265, 168, 296
-0.990489, 409, 245, 472, 276
-0.990493, 153, 73, 216, 104
-0.990499, 169, 253, 232, 284
-0.990512, 345, 321, 408, 352
-0.990521, 385, 241, 448, 272
-0.990539, 281, 53, 344, 84
-0.990547, 5, 33, 36, 160
-0.990553, 433, 1, 464, 128
-0.990555, 177, 265, 240, 296
-0.990591, 353, 233, 416, 264
-0.990601, 201, 297, 264, 328
-0.990603, 137, 313, 200, 344
-0.990605, 169, 45, 232, 76
-0.990609, 297, 285, 360, 316
-0.990621, 417, 65, 448, 192
-0.990624, 433, 273, 496, 304
-0.990625, 381, 1, 412, 128
-0.990626, 289, 205, 352, 236
-0.990635, 153, 125, 216, 156
-0.990646, 249, 233, 312, 264
-0.990697, 49, 109, 112, 140
-0.990733, 9, 13, 72, 44
-0.99074, 113, 293, 176, 324
-0.99074, 161, 341, 224, 372
-0.990773, 49, 145, 112, 272
-0.990801, 129, 65, 384, 128
-0.990805, 297, 77, 360, 108
-0.990834, 49, 273, 112, 304
-0.99084, 297, 65, 328, 192
-0.99084, 393, 321, 456, 352
-0.990846, 305, 25, 432, 88
-0.990858, 1, 297, 256, 360
-0.990859, 89, 49, 152, 80
-0.990861, 89, 97, 152, 128
-0.990872, 409, 105, 472, 136
-0.990872, 41, 249, 104, 280
-0.990876, 289, 1, 416, 64
-0.990894, 273, 301, 336, 332
-0.990901, 1, 73, 256, 136
-0.990903, 17, 81, 80, 112
-0.990903, 185, 333, 248, 364
-0.990909, 321, 277, 384, 308
-0.990928, 9, 265, 72, 296
-0.990949, 161, 289, 224, 320
-0.99095, 281, 145, 344, 176
-0.990966, 249, 33, 312, 64
-0.990968, 121, 253, 184, 284
-0.991003, 41, 45, 104, 76
-0.991014, 153, 105, 216, 136
-0.991015, 113, 101, 176, 132
-0.99116, 209, 1, 272, 375
-0.991389, 1, 49, 256, 112
-0.9915, 129, 257, 384, 320
-0.991706, 273, 97, 400, 160
-0.991728, 193, 233, 448, 296
-0.9918, 1, 57, 500, 120
-0.991879, 153, 37, 184, 68
-0.99188, 49, 13, 176, 44
-0.991897, 177, 33, 208, 64
-0.991913, 137, 17, 168, 48
-0.991928, 257, 289, 500, 352
-0.991931, 165, 37, 196, 68
-0.992036, 149, 17, 180, 48
-0.992095, 153, 57, 184, 88
-0.992109, 113, 13, 144, 44
-0.992119, 169, 13, 200, 44
-0.992134, 121, 25, 152, 56
-0.992162, 25, 93, 56, 124
-0.992186, 133, 33, 164, 64
-0.992213, 161, 269, 192, 300
-0.992224, 1, 289, 500, 352
-0.992237, 273, 169, 304, 200
-0.992238, 377, 317, 408, 348
-0.992241, 125, 13, 156, 44
-0.992262, 389, 201, 420, 232
-0.992262, 225, 81, 480, 144
-0.992282, 165, 49, 196, 80
-0.992291, 93, 341, 124, 372
-0.992292, 117, 1, 148, 32
-0.992304, 93, 329, 124, 360
-0.992307, 1, 265, 500, 328
-0.992335, 173, 273, 204, 304
-0.992337, 161, 17, 176, 80
-0.992343, 181, 17, 212, 48
-0.992343, 177, 45, 208, 76
-0.992349, 129, 153, 384, 216
-0.992359, 161, 193, 416, 256
-0.99238, 69, 41, 100, 72
-0.992384, 77, 337, 108, 368
-0.992387, 33, 1, 64, 32
-0.992406, 109, 25, 140, 56
-0.992411, 33, 265, 64, 296
-0.992411, 101, 317, 132, 348
-0.992415, 209, 49, 272, 176
-0.992416, 109, 109, 140, 140
-0.99242, 137, 5, 168, 36
-0.992423, 333, 161, 364, 192
-0.992438, 161, 273, 288, 304
-0.992439, 357, 297, 388, 328
-0.992451, 349, 185, 380, 216
-0.992452, 161, 25, 192, 56
-0.992457, 357, 309, 388, 340
-0.992461, 333, 185, 364, 216
-0.99247, 149, 5, 180, 36
-0.992474, 89, 101, 120, 132
-0.992479, 97, 17, 224, 48
-0.992482, 109, 329, 140, 360
-0.992484, 37, 277, 68, 308
-0.992485, 329, 297, 360, 328
-0.992488, 53, 281, 84, 312
-0.992489, 257, 253, 288, 284
-0.99251, 57, 13, 88, 44
-0.992513, 149, 269, 180, 300
-0.99252, 277, 185, 308, 216
-0.992522, 133, 57, 164, 88
-0.992528, 97, 97, 352, 160
-0.992529, 155, 25, 170, 88
-0.992534, 149, 85, 180, 116
-0.992535, 345, 293, 376, 324
-0.992544, 121, 301, 152, 332
-0.992545, 185, 141, 216, 172
-0.992547, 5, 97, 36, 128
-0.992547, 121, 1, 136, 64
-0.992552, 189, 329, 220, 360
-0.992558, 9, 145, 72, 272
-0.992563, 61, 25, 92, 56
-0.992566, 297, 165, 328, 196
-0.99257, 341, 173, 372, 204
-0.992572, 277, 157, 308, 188
-0.992586, 97, 297, 128, 328
-0.992586, 377, 305, 408, 336
-0.992591, 73, 101, 104, 132
-0.992596, 389, 325, 420, 356
-0.992602, 49, 37, 80, 68
-0.992604, 341, 305, 372, 336
-0.992613, 373, 265, 404, 296
-0.99262, 53, 53, 84, 84
-0.99262, 289, 153, 320, 184
-0.99263, 101, 5, 132, 36
-0.99263, 161, 137, 192, 168
-0.992632, 417, 269, 448, 300
-0.992633, 421, 113, 452, 144
-0.99264, 121, 37, 152, 68
-0.99264, 177, 57, 208, 88
-0.992643, 135, 1, 150, 64
-0.992646, 153, 281, 184, 312
-0.992659, 49, 25, 176, 56
-0.992663, 257, 233, 288, 264
-0.992664, 277, 201, 308, 232
-0.992665, 433, 277, 464, 308
-0.992665, 133, 261, 164, 292
-0.992666, 469, 101, 500, 132
-0.992668, 141, 45, 172, 76
-0.992673, 373, 197, 404, 228
-0.992678, 325, 73, 356, 104
-0.99269, 45, 9, 76, 40
-0.992707, 41, 21, 72, 52
-0.992714, 77, 89, 108, 120
-0.992716, 153, 121, 184, 152
-0.992716, 193, 129, 224, 160
-0.992718, 173, 133, 204, 164
-0.99272, 177, 325, 208, 356
-0.99272, 161, 1, 192, 32
-0.992722, 257, 33, 288, 64
-0.992726, 193, 13, 224, 44
-0.99273, 421, 285, 452, 316
-0.992731, 341, 145, 372, 176
-0.992744, 309, 157, 340, 188
-0.992746, 401, 221, 432, 252
-0.992755, 109, 301, 140, 332
-0.992759, 265, 217, 296, 248
-0.99277, 393, 245, 424, 276
-0.992772, 285, 169, 316, 200
-0.992787, 433, 305, 464, 336
-0.992789, 261, 177, 292, 208
-0.992795, 345, 277, 376, 308
-0.9928, 257, 185, 384, 216
-0.992807, 313, 145, 344, 176
-0.99281, 57, 1, 88, 32
-0.992812, 313, 61, 344, 92
-0.992812, 137, 285, 168, 316
-0.992813, 137, 73, 168, 104
-0.992815, 433, 253, 464, 284
-0.992816, 49, 249, 80, 280
-0.992818, 333, 273, 364, 304
-0.992821, 1, 113, 256, 176
-0.992824, 241, 237, 272, 268
-0.992826, 289, 201, 320, 232
-0.99283, 389, 309, 420, 340
-0.992831, 181, 261, 212, 292
-0.992831, 361, 189, 392, 220
-0.992831, 221, 245, 252, 276
-0.992834, 1, 269, 32, 300
-0.992834, 113, 341, 144, 372
-0.992837, 65, 37, 192, 68
-0.99284, 53, 93, 84, 124
-0.99284, 413, 297, 444, 328
-0.992841, 361, 325, 392, 356
-0.992842, 461, 297, 492, 328
-0.992845, 301, 205, 332, 236
-0.992846, 317, 201, 348, 232
-0.992847, 73, 77, 104, 108
-0.992852, 197, 145, 228, 176
-0.992853, 449, 297, 480, 328
-0.992863, 457, 105, 488, 136
-0.992865, 257, 285, 288, 316
-0.992884, 241, 257, 368, 288
-0.992897, 97, 121, 352, 184
-0.99293, 1, 25, 500, 88
-0.993126, 225, 25, 480, 88
-0.993127, 369, 273, 384, 336
-0.993146, 161, 261, 288, 292
-0.993163, 113, 285, 240, 316
-0.993164, 209, 289, 336, 320
-0.993266, 161, 13, 288, 44
-0.993325, 53, 9, 68, 72
-0.993338, 321, 297, 448, 328
-0.993345, 285, 169, 300, 232
-0.993354, 257, 165, 384, 196
-0.993378, 273, 297, 400, 328
-0.993388, 33, 273, 288, 336
-0.993406, 161, 49, 176, 112
-0.99344, 337, 309, 464, 340
-0.99344, 195, 25, 210, 88
-0.99347, 167, 17, 182, 80
-0.993483, 115, 1, 130, 64
-0.993555, 295, 161, 310, 224
-0.993575, 305, 197, 432, 228
-0.993582, 349, 161, 364, 224
-0.993616, 49, 1, 176, 32
-0.993644, 193, 1, 448, 64
-0.993691, 113, 269, 240, 300
-0.993715, 161, 41, 288, 72
-0.993735, 97, 1, 224, 32
-0.993769, 127, 1, 142, 64
-0.993795, 257, 313, 500, 375
-0.993818, 149, 1, 164, 64
-0.99384, 47, 1, 62, 64
-0.993848, 155, 57, 170, 120
-0.993862, 97, 225, 352, 288
-0.993875, 81, 313, 208, 344
-0.993875, 91, 89, 106, 152
-0.993923, 361, 281, 376, 344
-0.993948, 161, 249, 288, 280
-0.993956, 225, 81, 352, 144
-0.993966, 289, 313, 416, 344
-0.994007, 433, 265, 448, 328
-0.994074, 177, 129, 192, 192
-0.994078, 305, 169, 320, 232
-0.994081, 387, 281, 402, 344
-0.994093, 403, 201, 418, 264
-0.994109, 355, 273, 370, 336
-0.994115, 189, 17, 204, 80
-0.994123, 201, 105, 216, 168
-0.994171, 113, 33, 240, 64
-0.994223, 1, 1, 500, 64
-0.994224, 397, 201, 412, 264
-0.994228, 171, 313, 186, 375
-0.994232, 65, 329, 192, 360
-0.994242, 95, 305, 110, 368
-0.994286, 381, 281, 396, 344
-0.994298, 1, 5, 128, 36
-0.994329, 59, 17, 74, 80
-0.994333, 337, 281, 464, 312
-0.994356, 369, 297, 384, 360
-0.994372, 65, 97, 192, 128
-0.994384, 65, 49, 192, 80
-0.994392, 475, 97, 490, 160
-0.994406, 115, 305, 130, 368
-0.994423, 483, 97, 498, 160
-0.994434, 103, 305, 118, 368
-0.994442, 1, 313, 500, 375
-0.994447, 123, 297, 138, 360
-0.994473, 33, 129, 160, 192
-0.994478, 263, 249, 278, 312
-0.994486, 183, 9, 198, 72
-0.994488, 131, 25, 146, 88
-0.994516, 391, 193, 406, 256
-0.994524, 375, 281, 390, 344
-0.994534, 165, 313, 180, 375
-0.994574, 49, 257, 64, 320
-0.994591, 173, 25, 188, 88
-0.994605, 115, 25, 130, 88
-0.994614, 141, 1, 156, 64
-0.994648, 173, 1, 188, 64
-0.994655, 257, 153, 384, 184
-0.99466, 1, 241, 500, 304
-0.994667, 345, 281, 360, 344
-0.994672, 49, 193, 176, 256
-0.994682, 1, 169, 500, 232
-0.994688, 1, 201, 500, 264
-0.994691, 369, 245, 496, 276
-0.994698, 409, 201, 424, 264
-0.9947, 1, 333, 128, 364
-0.994711, 1, 225, 256, 288
-0.994748, 65, 301, 192, 332
-0.99476, 141, 25, 156, 88
-0.994765, 397, 225, 412, 288
-0.99477, 153, 81, 168, 144
-0.994779, 167, 49, 182, 112
-0.994782, 355, 161, 370, 224
-0.994786, 65, 109, 192, 140
-0.994787, 111, 281, 126, 344
-0.994796, 81, 297, 96, 360
-0.99483, 161, 53, 288, 84
-0.994836, 149, 25, 164, 88
-0.994842, 97, 129, 224, 160
-0.994847, 33, 269, 160, 300
-0.994861, 113, 325, 240, 356
-0.994864, 469, 97, 484, 160
-0.994866, 1, 105, 500, 168
-0.994875, 123, 41, 138, 104
-0.99491, 49, 73, 176, 104
-0.99493, 433, 289, 448, 352
-0.994933, 341, 161, 356, 224
-0.994939, 159, 89, 174, 152
-0.994942, 177, 313, 192, 375
-0.994952, 155, 1, 170, 64
-0.994961, 297, 185, 312, 248
-0.994966, 161, 25, 288, 56
-0.994975, 339, 265, 354, 328
-0.994993, 369, 225, 496, 256
-0.994995, 17, 89, 144, 120
-0.99501, 225, 201, 352, 232
-0.995051, 253, 233, 268, 296
-0.995066, 353, 321, 480, 352
-0.995075, 73, 145, 136, 272
-0.995078, 335, 153, 350, 216
-0.995086, 171, 129, 186, 192
-0.995098, 369, 265, 496, 296
-0.995106, 329, 57, 344, 120
-0.995116, 113, 257, 240, 288
-0.995147, 133, 297, 148, 360
-0.995153, 321, 261, 448, 292
-0.995153, 277, 25, 292, 88
-0.995162, 89, 305, 104, 368
-0.995171, 311, 161, 326, 224
-0.995172, 187, 313, 202, 375
-0.995173, 367, 185, 382, 248
-0.99518, 259, 217, 274, 280
-0.995186, 65, 85, 192, 116
-0.995195, 161, 273, 176, 336
-0.995203, 73, 73, 88, 136
-0.995204, 77, 33, 92, 96
-0.995206, 57, 281, 72, 344
-0.995214, 69, 1, 84, 64
-0.995229, 319, 137, 334, 200
-0.99523, 113, 53, 240, 84
-0.995248, 279, 169, 294, 232
-0.995257, 353, 297, 368, 360
-0.995294, 97, 193, 224, 256
-0.995296, 161, 285, 288, 316
-0.995299, 29, 1, 60, 256
-0.995301, 1, 25, 128, 56
-0.995304, 273, 57, 400, 88
-0.995307, 33, 249, 48, 312
-0.995308, 289, 241, 416, 272
-0.995315, 391, 305, 406, 368
-0.995315, 145, 141, 272, 172
-0.995321, 289, 285, 416, 316
-0.995331, 55, 249, 70, 312
-0.995342, 241, 269, 368, 300
-0.995356, 63, 41, 78, 104
-0.995363, 355, 137, 370, 200
-0.995364, 165, 105, 180, 168
-0.995368, 305, 185, 432, 216
-0.995373, 81, 245, 208, 276
-0.995385, 139, 297, 154, 360
-0.995395, 221, 241, 236, 304
-0.995404, 363, 305, 378, 368
-0.995409, 65, 193, 320, 256
-0.995422, 73, 97, 88, 160
-0.995435, 147, 265, 162, 328
-0.99544, 25, 1, 40, 64
-0.99544, 133, 257, 148, 320
-0.995447, 369, 297, 496, 328
-0.995455, 241, 45, 368, 76
-0.99548, 333, 265, 348, 328
-0.995481, 291, 185, 306, 248
-0.995484, 73, 297, 88, 360
-0.995486, 193, 49, 208, 112
-0.995499, 457, 217, 472, 280
-0.9955, 41, 89, 56, 152
-0.995504, 145, 297, 272, 328
-0.995507, 439, 273, 454, 336
-0.995514, 185, 129, 200, 192
-0.99552, 203, 129, 218, 192
-0.995526, 269, 249, 284, 312
-0.995532, 277, 249, 292, 312
-0.995534, 197, 1, 212, 64
-0.99554, 43, 265, 58, 328
-0.99555, 45, 1, 76, 256
-0.995552, 199, 81, 214, 144
-0.995553, 151, 289, 166, 352
-0.995557, 257, 105, 500, 168
-0.99556, 85, 81, 100, 144
-0.995566, 435, 97, 450, 160
-0.995574, 335, 57, 350, 120
-0.995574, 375, 193, 390, 256
-0.995575, 349, 137, 364, 200
-0.995576, 105, 281, 120, 344
-0.995578, 49, 285, 176, 316
-0.99559, 109, 1, 140, 256
-0.995598, 425, 257, 440, 320
-0.995598, 377, 305, 392, 368
-0.995614, 149, 57, 164, 120
-0.995615, 277, 193, 292, 256
-0.995616, 369, 213, 496, 244
-0.99562, 257, 57, 500, 120
-0.995625, 259, 289, 274, 352
-0.995631, 291, 289, 306, 352
-0.995631, 153, 265, 168, 328
-0.995639, 177, 1, 208, 256
-0.995647, 193, 313, 208, 375
-0.995648, 385, 305, 400, 368
-0.995701, 81, 341, 208, 372
-0.995719, 305, 133, 432, 164
-0.995723, 353, 201, 480, 232
-0.995766, 157, 1, 188, 256
-0.995781, 161, 153, 288, 184
-0.995824, 241, 33, 368, 64
-0.995869, 209, 189, 336, 220
-0.995872, 1, 293, 128, 324
-0.995893, 177, 237, 304, 268
-0.995901, 17, 45, 144, 76
-0.99594, 161, 1, 288, 32
-0.995947, 257, 81, 384, 112
-0.996007, 357, 129, 388, 375
-0.996029, 49, 121, 176, 152
-0.996071, 325, 33, 356, 288
-0.996082, 353, 97, 480, 128
-0.996091, 337, 77, 464, 108
-0.996136, 321, 221, 448, 252
-0.996137, 177, 333, 304, 364
-0.996141, 97, 145, 224, 176
-0.996143, 189, 1, 220, 256
-0.996147, 179, 37, 194, 68
-0.996157, 145, 1, 176, 256
-0.996166, 193, 177, 320, 208
-0.996183, 33, 317, 160, 348
-0.996188, 257, 17, 384, 48
-0.996195, 241, 245, 368, 276
-0.996199, 369, 129, 496, 160
-0.996212, 191, 33, 206, 64
-0.996215, 241, 309, 368, 340
-0.996224, 129, 341, 256, 372
-0.996225, 113, 101, 240, 132
-0.996231, 17, 101, 144, 132
-0.996234, 45, 97, 76, 352
-0.996247, 17, 345, 144, 375
-0.996247, 77, 1, 108, 256
-0.99625, 97, 1, 128, 256
-0.996257, 1, 229, 128, 260
-0.996261, 1, 129, 500, 192
-0.996272, 157, 57, 172, 88
-0.996286, 113, 65, 240, 96
-0.996325, 113, 89, 240, 120
-0.996354, 305, 157, 432, 188
-0.996358, 369, 185, 496, 216
-0.996372, 137, 17, 152, 48
-0.996383, 225, 69, 352, 100
-0.996393, 373, 129, 404, 375
-0.996404, 337, 173, 464, 204
-0.996412, 113, 113, 240, 144
-0.996432, 65, 1, 96, 256
-0.996434, 17, 57, 144, 88
-0.996452, 369, 117, 496, 148
-0.996506, 225, 221, 352, 252
-0.996515, 289, 273, 416, 304
-0.996566, 321, 333, 448, 364
-0.996567, 131, 5, 146, 36
-0.996576, 209, 153, 336, 184
-0.996587, 33, 249, 160, 280
-0.996614, 1, 137, 256, 200
-0.996614, 169, 41, 184, 72
-0.996618, 163, 21, 178, 52
-0.996621, 155, 45, 170, 76
-0.996628, 145, 17, 160, 48
-0.996639, 161, 213, 288, 244
-0.996679, 1, 281, 128, 312
-0.996683, 241, 1, 368, 32
-0.996691, 175, 21, 190, 52
-0.996697, 97, 233, 224, 264
-0.996725, 151, 17, 166, 48
-0.996733, 187, 17, 202, 48
-0.99674, 77, 97, 108, 352
-0.996743, 185, 45, 200, 76
-0.996767, 177, 309, 304, 340
-0.996781, 125, 1, 156, 256
-0.996798, 181, 21, 196, 52
-0.996799, 129, 313, 256, 344
-0.996804, 225, 137, 352, 168
-0.996811, 113, 309, 128, 340
-0.996828, 65, 61, 192, 92
-0.996849, 321, 1, 448, 32
-0.996865, 123, 25, 138, 56
-0.996871, 57, 97, 88, 352
-0.996893, 163, 49, 178, 80
-0.996906, 225, 57, 352, 88
-0.996912, 393, 97, 424, 352
-0.996929, 33, 169, 160, 232
-0.996938, 151, 33, 166, 64
-0.996941, 161, 89, 176, 120
-0.996959, 465, 65, 496, 320
-0.99696, 305, 209, 432, 240
-0.996967, 173, 269, 188, 300
-0.996985, 125, 13, 140, 44
-0.996992, 429, 129, 460, 375
-0.996996, 257, 325, 384, 356
-0.997004, 273, 129, 304, 375
-0.997007, 157, 17, 172, 48
-0.997029, 371, 313, 386, 344
-0.99703, 345, 97, 376, 352
-0.997037, 1, 305, 128, 336
-0.997041, 179, 49, 194, 80
-0.997054, 49, 233, 176, 264
-0.997061, 161, 37, 176, 68
-0.997069, 321, 45, 448, 76
-0.997072, 309, 129, 340, 375
-0.997073, 131, 17, 146, 48
-0.997079, 145, 77, 272, 108
-0.99708, 1, 113, 128, 144
-0.997083, 119, 1, 134, 32
-0.997095, 169, 17, 184, 48
-0.997101, 193, 13, 208, 44
-0.997108, 43, 1, 58, 32
-0.997109, 137, 5, 152, 36
-0.99711, 321, 117, 448, 148
-0.997115, 453, 129, 484, 375
-0.997119, 285, 129, 316, 375
-0.997119, 193, 321, 320, 352
-0.997128, 331, 65, 346, 96
-0.997132, 1, 77, 128, 108
-0.99714, 93, 97, 124, 352
-0.997148, 169, 29, 184, 60
-0.997155, 153, 77, 168, 108
-0.997159, 403, 201, 418, 232
-0.997159, 329, 129, 360, 375
-0.997163, 113, 157, 240, 188
-0.997166, 347, 177, 362, 208
-0.997167, 369, 333, 496, 364
-0.997168, 377, 33, 408, 288
-0.997188, 59, 37, 74, 68
-0.997188, 105, 341, 120, 372
-0.997188, 347, 161, 362, 192
-0.9972, 55, 17, 70, 48
-0.997201, 337, 1, 368, 256
-0.997203, 177, 165, 304, 196
-0.997218, 17, 1, 48, 256
-0.997223, 369, 1, 496, 32
-0.997239, 261, 129, 292, 375
-0.99724, 145, 129, 272, 160
-0.997251, 37, 89, 52, 120
-0.997264, 85, 329, 100, 360
-0.997265, 203, 133, 218, 164
-0.997273, 45, 269, 60, 300
-0.997277, 357, 33, 388, 288
-0.997312, 105, 97, 136, 352
-0.997313, 363, 297, 378, 328
-0.997317, 167, 141, 182, 172
-0.99732, 449, 33, 480, 288
-0.997321, 155, 277, 170, 308
-0.997326, 353, 169, 368, 200
-0.997334, 91, 329, 106, 360
-0.997356, 145, 5, 160, 36
-0.997369, 191, 45, 206, 76
-0.997373, 361, 185, 376, 216
-0.997381, 159, 265, 174, 296
-0.997383, 109, 297, 124, 328
-0.997383, 27, 93, 42, 124
-0.997388, 287, 165, 302, 196
-0.997395, 287, 185, 302, 216
-0.997399, 171, 5, 186, 36
-0.997402, 277, 169, 292, 200
-0.99741, 293, 173, 308, 204
-0.997416, 253, 257, 268, 288
-0.997426, 179, 9, 194, 40
-0.997426, 281, 185, 296, 216
-0.997428, 165, 269, 180, 300
-0.997429, 133, 29, 148, 60
-0.997444, 101, 329, 116, 360
-0.997445, 163, 9, 178, 40
-0.997447, 153, 5, 168, 36
-0.99745, 339, 293, 354, 324
-0.997453, 55, 281, 70, 312
-0.997459, 121, 301, 136, 332
-0.99746, 1, 65, 32, 320
-0.997464, 305, 33, 336, 288
-0.997466, 285, 1, 316, 256
-0.99747, 353, 297, 368, 328
-0.997475, 421, 117, 436, 148
-0.997477, 91, 97, 106, 128
-0.997478, 121, 97, 152, 352
-0.99749, 415, 117, 430, 148
-0.997493, 145, 97, 176, 352
-0.997508, 49, 9, 64, 40
-0.997523, 355, 185, 370, 216
-0.997526, 157, 97, 188, 352
-0.997531, 185, 33, 200, 64
-0.997533, 347, 293, 362, 324
-0.997534, 37, 1, 52, 32
-0.997534, 483, 101, 498, 132
-0.997536, 33, 97, 64, 352
-0.997543, 355, 141, 370, 172
-0.997544, 147, 281, 162, 312
-0.997546, 201, 1, 232, 256
-0.99755, 159, 69, 174, 100
-0.99756, 201, 121, 216, 152
-0.997563, 197, 97, 228, 352
-0.997564, 193, 57, 208, 88
-0.997589, 341, 165, 356, 196
-0.99759, 149, 265, 164, 296
-0.997595, 109, 109, 124, 140
-0.997597, 149, 49, 164, 80
-0.997598, 303, 169, 318, 200
-0.997598, 295, 185, 310, 216
-0.997602, 381, 313, 396, 344
-0.997608, 113, 29, 128, 60
-0.997612, 181, 97, 212, 352
-0.997617, 363, 309, 378, 340
-0.997623, 179, 273, 194, 304
-0.997625, 255, 245, 270, 276
-0.997629, 95, 341, 110, 372
-0.997631, 121, 109, 136, 140
-0.997632, 145, 33, 160, 64
-0.997639, 65, 53, 80, 84
-0.997642, 169, 53, 184, 84
-0.997644, 271, 173, 286, 204
-0.997662, 293, 161, 308, 192
-0.997663, 449, 301, 464, 332
-0.997664, 433, 273, 448, 304
-0.997668, 261, 221, 276, 252
-0.997669, 417, 33, 448, 288
-0.997678, 133, 97, 164, 352
-0.997679, 325, 61, 340, 92
-0.997682, 115, 109, 130, 140
-0.997687, 297, 129, 328, 375
-0.997697, 355, 309, 370, 340
-0.997703, 177, 133, 192, 164
-0.997713, 129, 69, 144, 100
-0.997714, 197, 145, 212, 176
-0.997717, 111, 341, 126, 372
-0.997718, 427, 289, 442, 320
-0.997723, 171, 153, 186, 184
-0.997727, 203, 329, 218, 360
-0.997727, 143, 265, 158, 296
-0.997728, 191, 133, 206, 164
-0.997729, 397, 229, 412, 260
-0.99773, 85, 101, 100, 132
-0.997733, 259, 233, 274, 264
-0.99774, 391, 313, 406, 344
-0.997748, 261, 249, 276, 280
-0.997749, 433, 285, 448, 316
-0.997753, 113, 41, 128, 72
-0.997757, 405, 33, 436, 288
-0.997771, 347, 305, 362, 336
-0.997772, 293, 201, 308, 232
-0.997773, 67, 93, 82, 124
-0.997775, 477, 137, 492, 168
-0.997855, 33, 169, 288, 232
-0.997913, 169, 97, 200, 352
-0.998015, 273, 1, 304, 256
-0.998036, 241, 97, 272, 352
-0.998046, 257, 1, 288, 256
-0.998083, 213, 1, 244, 256
-0.998126, 209, 97, 240, 352
-0.998129, 441, 129, 472, 375
-0.998186, 417, 129, 448, 375
-0.9982, 405, 129, 436, 375
-0.998237, 429, 33, 460, 288
-0.998354, 1, 99, 64, 114
-0.998362, 105, 39, 168, 54
-0.998365, 145, 43, 208, 58
-0.998375, 145, 51, 208, 66
-0.998381, 145, 35, 208, 50
-0.998381, 389, 1, 420, 256
-0.998389, 33, 15, 96, 30
-0.998395, 21, 97, 52, 352
-0.998395, 305, 165, 368, 180
-0.998398, 105, 11, 168, 26
-0.998398, 113, 45, 176, 60
-0.998404, 345, 299, 408, 314
-0.998408, 129, 17, 192, 32
-0.998413, 113, 33, 176, 48
-0.998415, 105, 23, 168, 38
-0.998419, 321, 189, 384, 204
-0.99842, 229, 129, 260, 375
-0.998441, 145, 59, 208, 74
-0.998444, 145, 29, 208, 44
-0.998444, 145, 65, 208, 80
-0.998448, 281, 171, 344, 186
-0.99845, 105, 17, 168, 32
-0.998452, 159, 1, 174, 128
-0.998453, 41, 331, 104, 346
-0.998454, 249, 255, 312, 270
-0.998455, 25, 95, 88, 110
-0.998456, 33, 25, 96, 40
-0.998457, 153, 15, 216, 30
-0.998459, 129, 23, 192, 38
-0.998459, 153, 143, 216, 158
-0.99846, 369, 327, 432, 342
-0.998461, 49, 1, 80, 16
-0.998462, 81, 327, 144, 342
-0.998463, 133, 275, 164, 290
-0.998463, 357, 323, 388, 338
-0.998463, 165, 1, 180, 128
-0.998463, 161, 97, 192, 112
-0.998464, 373, 301, 404, 316
-0.998464, 41, 21, 72, 36
-0.998465, 413, 297, 444, 312
-0.998465, 109, 45, 140, 60
-0.998465, 157, 37, 188, 52
-0.998466, 333, 171, 364, 186
-0.998467, 69, 59, 100, 74
-0.998467, 413, 129, 444, 144
-0.998468, 297, 161, 328, 176
-0.998468, 305, 161, 320, 288
-0.998468, 153, 135, 184, 150
-0.998469, 281, 163, 344, 178
-0.99847, 173, 133, 204, 148
-0.99847, 97, 13, 128, 28
-0.998472, 73, 21, 136, 36
-0.998472, 313, 75, 344, 90
-0.998473, 65, 45, 128, 60
-0.998474, 105, 5, 168, 20
-0.998474, 145, 31, 176, 46
-0.998474, 73, 91, 104, 106
-0.998475, 385, 307, 448, 322
-0.998475, 69, 45, 100, 60
-0.998476, 109, 117, 140, 132
-0.998476, 137, 9, 168, 24
-0.998476, 189, 153, 220, 168
-0.998477, 121, 51, 184, 66
-0.998478, 89, 309, 120, 324
-0.998478, 81, 111, 144, 126
-0.998478, 73, 33, 136, 48
-0.998479, 101, 321, 132, 336
-0.998479, 361, 329, 392, 344
-0.998479, 133, 31, 164, 46
-0.99848, 29, 269, 60, 284
-0.99848, 101, 311, 132, 326
-0.998481, 309, 163, 340, 178
-0.998481, 69, 51, 100, 66
-0.998482, 157, 27, 188, 42
-0.998482, 153, 69, 184, 84
-0.998482, 105, 19, 136, 34
-0.998483, 321, 305, 384, 320
-0.998483, 425, 305, 456, 320
-0.998483, 257, 167, 320, 182
-0.998483, 121, 37, 152, 52
-0.998484, 465, 103, 496, 118
-0.998484, 5, 271, 36, 286
-0.998485, 385, 299, 448, 314
-0.998485, 453, 299, 484, 314
-0.998486, 41, 101, 104, 116
-0.998486, 97, 303, 160, 318
-0.998486, 425, 131, 456, 146
-0.998486, 313, 309, 344, 324
-0.998488, 353, 193, 384, 208
-0.998488, 65, 105, 128, 120
-0.998489, 345, 311, 408, 326
-0.99849, 253, 235, 284, 250
-0.99849, 153, 269, 184, 284
-0.998491, 421, 273, 452, 288
-0.998491, 77, 97, 108, 112
-0.998491, 53, 287, 84, 302
-0.998491, 105, 111, 168, 126
-0.998491, 85, 333, 116, 348
-0.998492, 329, 195, 392, 210
-0.998493, 81, 39, 144, 54
-0.998493, 153, 129, 184, 144
-0.998493, 53, 57, 84, 72
-0.998494, 33, 35, 96, 50
-0.998494, 357, 299, 388, 314
-0.998495, 109, 351, 140, 366
-0.998495, 133, 267, 164, 282
-0.998496, 209, 253, 272, 268
-0.998498, 137, 131, 200, 146
-0.998499, 145, 283, 208, 298
-0.9985, 69, 331, 100, 346
-0.998501, 181, 35, 212, 50
-0.998501, 93, 351, 124, 366
-0.998503, 369, 319, 432, 334
-0.998503, 305, 171, 368, 186
-0.998503, 61, 17, 76, 144
-0.998503, 265, 253, 296, 268
-0.998504, 49, 341, 112, 356
-0.998504, 305, 299, 368, 314
-0.998505, 73, 27, 136, 42
-0.998505, 49, 95, 112, 110
-0.998505, 389, 315, 420, 330
-0.998506, 149, 91, 180, 106
-0.998506, 17, 1, 80, 16
-0.998507, 33, 89, 96, 104
-0.998507, 25, 9, 88, 24
-0.998507, 101, 345, 132, 360
-0.998507, 409, 119, 472, 134
-0.998508, 249, 177, 312, 192
-0.998509, 313, 135, 376, 150
-0.998512, 141, 283, 172, 298
-0.998513, 281, 167, 312, 182
-0.998513, 37, 279, 68, 294
-0.998515, 161, 149, 224, 164
-0.998516, 101, 301, 132, 316
-0.998516, 217, 259, 280, 274
-0.998517, 269, 289, 300, 304
-0.998517, 153, 137, 216, 152
-0.998519, 125, 5, 156, 20
-0.998519, 81, 341, 144, 356
-0.998519, 153, 21, 216, 36
-0.998519, 265, 157, 328, 172
-0.998519, 69, 337, 100, 352
-0.998519, 385, 313, 448, 328
-0.99852, 149, 97, 180, 112
-0.998521, 109, 5, 140, 20
-0.998521, 273, 49, 304, 64
-0.998522, 257, 53, 320, 68
-0.998522, 241, 291, 304, 306
-0.998522, 273, 179, 304, 194
-0.998523, 195, 33, 210, 160
-0.998523, 65, 13, 128, 28
-0.998523, 129, 11, 192, 26
-0.998524, 425, 301, 488, 316
-0.998526, 169, 57, 232, 72
-0.998527, 73, 299, 136, 314
-0.998527, 129, 43, 160, 58
-0.998527, 65, 333, 128, 348
-0.998528, 121, 265, 184, 280
-0.998528, 329, 195, 360, 210
-0.998528, 121, 63, 184, 78
-0.998528, 41, 111, 104, 126
-0.99853, 89, 111, 120, 126
-0.99853, 381, 325, 412, 340
-0.998531, 281, 187, 312, 202
-0.998531, 329, 293, 392, 308
-0.998531, 121, 117, 184, 132
-0.998532, 257, 203, 320, 218
-0.998532, 153, 289, 216, 304
-0.998533, 361, 203, 424, 218
-0.998533, 385, 275, 448, 290
-0.998534, 345, 269, 408, 284
-0.998534, 121, 91, 184, 106
-0.998534, 41, 41, 104, 56
-0.998535, 217, 247, 280, 262
-0.998536, 65, 51, 128, 66
-0.998537, 89, 349, 152, 364
-0.998537, 293, 155, 324, 170
-0.998537, 173, 283, 204, 298
-0.998538, 305, 157, 368, 172
-0.998538, 133, 67, 164, 82
-0.998538, 89, 333, 152, 348
-0.998539, 305, 147, 368, 162
-0.998539, 151, 49, 166, 176
-0.998539, 401, 321, 464, 336
-0.99854, 61, 35, 92, 50
-0.99854, 41, 57, 104, 72
-0.99854, 425, 307, 488, 322
-0.99854, 161, 331, 224, 346
-0.998541, 337, 165, 368, 180
-0.998541, 385, 229, 448, 244
-0.998542, 313, 77, 376, 92
-0.998542, 217, 283, 280, 298
-0.998542, 281, 185, 344, 200
-0.998542, 177, 29, 208, 44
-0.998542, 297, 293, 360, 308
-0.998543, 29, 101, 60, 116
-0.998544, 57, 17, 88, 32
-0.998545, 377, 307, 408, 322
-0.998545, 145, 79, 208, 94
-0.998545, 193, 149, 256, 164
-0.998545, 145, 71, 208, 86
-0.998545, 77, 107, 108, 122
-0.998545, 121, 337, 184, 352
-0.998546, 289, 179, 352, 194
-0.998546, 425, 289, 488, 304
-0.998547, 9, 107, 72, 122
-0.998548, 149, 21, 180, 36
-0.998548, 377, 251, 440, 266
-0.998548, 73, 99, 136, 114
-0.998549, 113, 75, 176, 90
-0.998549, 361, 313, 392, 328
-0.99855, 389, 203, 420, 218
-0.99855, 109, 39, 140, 54
-0.99855, 121, 105, 184, 120
-0.998551, 345, 321, 408, 336
-0.998551, 165, 61, 196, 76
-0.998551, 1, 281, 64, 296
-0.998551, 273, 195, 336, 210
-0.998553, 409, 283, 472, 298
-0.998554, 377, 257, 440, 272
-0.998554, 169, 35, 232, 50
-0.998554, 273, 257, 336, 272
-0.998555, 369, 323, 400, 338
-0.998555, 105, 327, 136, 342
-0.998555, 341, 295, 372, 310
-0.998555, 121, 97, 184, 112
-0.998556, 401, 215, 464, 230
-0.998556, 41, 15, 72, 30
-0.998556, 313, 179, 376, 194
-0.998556, 73, 309, 136, 324
-0.998557, 401, 247, 464, 262
-0.998557, 225, 237, 288, 252
-0.998558, 161, 275, 192, 290
-0.998559, 37, 9, 68, 24
-0.998559, 305, 141, 368, 156
-0.99856, 425, 315, 488, 330
-0.998563, 149, 15, 180, 30
-0.998563, 109, 111, 140, 126
-0.998565, 153, 63, 184, 78
-0.998565, 89, 341, 120, 356
-0.998566, 125, 13, 156, 28
-0.998568, 181, 15, 212, 30
-0.99857, 325, 77, 356, 92
-0.998571, 121, 31, 152, 46
-0.998572, 201, 97, 216, 224
-0.998575, 269, 171, 300, 186
-0.998575, 133, 37, 164, 52
-0.998578, 345, 187, 376, 202
-0.998579, 149, 51, 180, 66
-0.99858, 173, 21, 204, 36
-0.998593, 181, 57, 212, 72
-0.998593, 153, 43, 184, 58
-0.998593, 9, 97, 40, 112
-0.998595, 153, 281, 184, 296
-0.998598, 165, 15, 196, 30
-0.998599, 377, 317, 408, 332
-0.998604, 177, 45, 208, 60
-0.998612, 169, 35, 200, 50
-0.998614, 145, 37, 176, 52
-0.998616, 137, 23, 168, 38
-0.998618, 117, 25, 148, 40
-0.998619, 153, 57, 184, 72
-0.998626, 177, 51, 208, 66
-0.998633, 113, 11, 144, 26
-0.998634, 157, 49, 172, 176
-0.998637, 29, 1, 60, 16
-0.998644, 153, 1, 168, 128
-0.998645, 165, 53, 196, 68
-0.998651, 187, 1, 202, 128
-0.998655, 351, 129, 366, 256
-0.998657, 117, 19, 148, 34
-0.998673, 165, 43, 196, 58
-0.99868, 35, 1, 50, 128
-0.998692, 137, 15, 168, 30
-0.998692, 25, 95, 56, 110
-0.998702, 299, 161, 314, 288
-0.998713, 171, 1, 186, 128
-0.998717, 127, 1, 142, 128
-0.998719, 291, 193, 306, 320
-0.99872, 265, 209, 280, 336
-0.998726, 285, 1, 300, 128
-0.998742, 387, 177, 402, 304
-0.998744, 361, 129, 376, 256
-0.998759, 55, 17, 70, 144
-0.998764, 177, 1, 192, 128
-0.998771, 71, 1, 86, 128
-0.998773, 309, 241, 324, 368
-0.998773, 277, 193, 292, 320
-0.998782, 43, 17, 58, 144
-0.99879, 163, 81, 178, 208
-0.998794, 49, 1, 64, 128
-0.998796, 201, 49, 216, 176
-0.998801, 323, 241, 338, 368
-0.998802, 299, 241, 314, 368
-0.998806, 279, 1, 294, 128
-0.998822, 195, 241, 210, 368
-0.998829, 367, 129, 382, 256
-0.998834, 347, 65, 362, 192
-0.998841, 289, 241, 304, 368
-0.998847, 81, 33, 96, 160
-0.998847, 147, 1, 162, 128
-0.998854, 455, 241, 470, 368
-0.998857, 281, 241, 296, 368
-0.998863, 355, 81, 370, 208
-0.998869, 397, 177, 412, 304
-0.998876, 47, 241, 62, 368
-0.998886, 375, 177, 390, 304
-0.998889, 271, 193, 286, 320
-0.998893, 367, 177, 382, 304
-0.9989, 65, 241, 80, 368
-0.998907, 325, 177, 340, 304
-0.998909, 205, 1, 220, 128
-0.99891, 375, 129, 390, 256
-0.998928, 317, 241, 332, 368
-0.998929, 29, 1, 44, 128
-0.99893, 319, 193, 334, 320
-0.998935, 187, 225, 202, 352
-0.998936, 329, 241, 344, 368
-0.998942, 61, 193, 76, 320
-0.998942, 121, 17, 136, 144
-0.998944, 381, 177, 396, 304
-0.998957, 457, 193, 472, 320
-0.998959, 311, 161, 326, 288
-0.998961, 275, 241, 290, 368
-0.998968, 383, 113, 398, 240
-0.998971, 67, 49, 82, 176
-0.998974, 407, 65, 422, 192
-0.998975, 137, 1, 152, 128
-0.99898, 21, 241, 36, 368
-0.998994, 397, 225, 412, 352
-0.998998, 47, 193, 62, 320
-0.999, 317, 129, 332, 256
-0.999014, 245, 1, 276, 256
-0.999015, 341, 65, 356, 192
-0.999015, 53, 241, 68, 368
-0.999016, 171, 49, 186, 176
-0.999025, 285, 193, 300, 320
-0.999029, 407, 177, 422, 304
-0.999031, 357, 177, 372, 304
-0.999037, 345, 113, 360, 240
-0.999037, 463, 193, 478, 320
-0.999041, 55, 193, 70, 320
-0.999042, 3, 241, 18, 368
-0.999044, 177, 241, 192, 368
-0.999052, 207, 113, 222, 240
-0.999056, 361, 81, 376, 208
-0.999057, 389, 241, 404, 368
-0.999057, 325, 113, 340, 240
-0.999059, 301, 113, 316, 240
-0.999062, 203, 225, 218, 352
-0.999067, 103, 241, 118, 368
-0.999068, 341, 241, 356, 368
-0.999068, 369, 81, 384, 208
-0.99907, 333, 65, 348, 192
-0.999071, 129, 65, 144, 192
-0.999077, 253, 209, 268, 336
-0.999091, 331, 193, 346, 320
-0.999093, 131, 241, 146, 368
-0.999096, 479, 65, 494, 192
-0.999096, 15, 241, 30, 368
-0.999097, 43, 81, 58, 208
-0.999101, 177, 49, 192, 176
-0.999101, 317, 65, 332, 192
-0.999103, 401, 129, 416, 256
-0.999104, 343, 177, 358, 304
-0.999105, 175, 113, 190, 240
-0.999107, 335, 241, 350, 368
-0.999111, 189, 49, 204, 176
-0.999112, 325, 49, 340, 176
-0.999114, 273, 1, 288, 128
-0.999118, 379, 241, 394, 368
-0.99912, 139, 241, 154, 368
-0.999122, 339, 113, 354, 240
-0.999123, 389, 113, 404, 240
-0.999123, 59, 241, 74, 368
-0.999124, 111, 225, 126, 352
-0.999125, 183, 49, 198, 176
-0.999125, 291, 1, 306, 128
-0.999128, 295, 113, 310, 240
-0.999132, 351, 177, 366, 304
-0.999135, 393, 65, 408, 192
-0.999137, 155, 97, 170, 224
-0.999137, 467, 241, 482, 368
-0.999141, 145, 49, 160, 176
-0.999144, 369, 241, 384, 368
-0.999147, 95, 225, 110, 352
-0.999151, 85, 241, 100, 368
-0.999152, 443, 241, 458, 368
-0.999153, 401, 65, 416, 192
-0.999157, 413, 65, 428, 192
-0.999159, 115, 33, 130, 160
-0.999163, 29, 241, 44, 368
-0.999168, 169, 113, 184, 240
-0.999168, 137, 65, 152, 192
-0.999559, 225, 1, 256, 256
-0.99966, 161, 83, 176, 98
-0.99966, 93, 101, 108, 116
-0.999661, 301, 173, 316, 188
-0.999662, 327, 79, 342, 94
-0.999662, 265, 55, 280, 70
-0.999663, 285, 185, 300, 200
-0.999663, 11, 99, 26, 114
-0.999666, 47, 7, 62, 22
-0.999667, 417, 119, 432, 134
-0.999667, 143, 281, 158, 296
-0.99967, 295, 183, 310, 198
-0.999671, 443, 305, 458, 320
-0.999672, 69, 331, 84, 346
-0.999672, 65, 55, 80, 70
-0.999672, 121, 307, 136, 322
-0.999673, 453, 301, 468, 316
-0.999673, 391, 317, 406, 332
-0.999673, 197, 55, 212, 70
-0.999674, 123, 45, 138, 60
-0.999674, 275, 171, 290, 186
-0.999674, 355, 189, 370, 204
-0.999675, 117, 9, 132, 24
-0.999675, 179, 27, 194, 42
-0.999676, 57, 293, 72, 308
-0.999676, 123, 109, 138, 124
-0.999676, 203, 135, 218, 150
-0.999676, 433, 273, 448, 288
-0.999676, 151, 29, 166, 44
-0.999677, 145, 23, 160, 38
-0.999678, 185, 59, 200, 74
-0.999678, 183, 21, 198, 36
-0.999679, 113, 37, 128, 52
-0.99968, 129, 29, 144, 44
-0.99968, 99, 351, 114, 366
-0.999681, 191, 39, 206, 54
-0.999682, 187, 51, 202, 66
-0.999682, 35, 1, 50, 16
-0.999682, 109, 303, 124, 318
-0.999682, 279, 179, 294, 194
-0.999683, 265, 253, 280, 268
-0.999683, 463, 299, 478, 314
-0.999684, 279, 197, 294, 212
-0.999684, 59, 41, 74, 56
-0.999685, 111, 45, 126, 60
-0.999685, 43, 281, 58, 296
-0.999686, 89, 341, 104, 356
-0.999686, 201, 147, 216, 162
-0.999687, 179, 35, 194, 50
-0.999689, 175, 21, 190, 36
-0.999689, 161, 283, 176, 298
-0.999689, 145, 15, 160, 30
-0.999691, 167, 283, 182, 298
-0.999691, 253, 265, 268, 280
-0.999692, 77, 337, 92, 352
-0.999692, 113, 321, 128, 336
-0.999697, 31, 97, 46, 112
-0.999697, 161, 15, 176, 30
-0.9997, 131, 69, 146, 84
-0.9997, 123, 27, 138, 42
-0.999701, 131, 7, 146, 22
-0.999701, 49, 281, 64, 296
-0.999702, 171, 159, 186, 174
-0.999702, 167, 51, 182, 66
-0.999704, 83, 331, 98, 346
-0.999704, 165, 29, 180, 44
-0.999704, 161, 61, 176, 76
-0.999704, 39, 93, 54, 108
-0.999706, 151, 47, 166, 62
-0.999706, 105, 345, 120, 360
-0.999707, 175, 273, 190, 288
-0.999708, 173, 15, 188, 30
-0.999709, 179, 15, 194, 30
-0.999709, 195, 27, 210, 42
-0.999709, 157, 29, 172, 44
-0.999711, 361, 187, 376, 202
-0.999711, 173, 45, 188, 60
-0.999711, 175, 285, 190, 300
-0.999712, 173, 61, 188, 76
-0.999714, 293, 169, 308, 184
-0.999717, 253, 259, 268, 274
-0.999717, 145, 29, 160, 44
-0.999718, 191, 59, 206, 74
-0.999718, 179, 57, 194, 72
-0.999719, 113, 113, 128, 128
-0.999719, 83, 337, 98, 352
-0.999721, 153, 23, 168, 38
-0.999721, 111, 311, 126, 326
-0.999722, 121, 19, 136, 34
-0.999722, 159, 99, 174, 114
-0.999725, 189, 27, 204, 42
-0.999727, 163, 93, 178, 108
-0.999728, 127, 1, 142, 16
-0.999731, 347, 187, 362, 202
-0.999733, 191, 45, 206, 60
-0.999733, 289, 179, 304, 194
-0.999734, 155, 279, 170, 294
-0.999735, 157, 91, 172, 106
-0.999738, 405, 203, 420, 218
-0.99974, 159, 35, 174, 50
-0.999741, 153, 15, 168, 30
-0.999745, 131, 23, 146, 38
-0.999746, 165, 39, 180, 54
-0.999747, 135, 31, 150, 46
-0.999748, 167, 15, 182, 30
-0.999751, 53, 287, 68, 302
-0.999751, 189, 21, 204, 36
-0.999752, 173, 35, 188, 50
-0.999752, 381, 317, 396, 332
-0.999755, 163, 21, 178, 36
-0.99976, 155, 63, 170, 78
-0.999762, 193, 15, 208, 30
-0.999764, 347, 163, 362, 178
-0.999765, 167, 57, 182, 72
-0.999768, 137, 23, 152, 38
-0.999768, 17, 97, 32, 112
-0.99977, 139, 15, 154, 30
-0.999772, 187, 15, 202, 30
-0.999773, 331, 71, 346, 86
-0.999774, 153, 53, 168, 68
-0.999776, 333, 77, 348, 92
-0.99978, 157, 45, 172, 60
-0.999781, 131, 17, 146, 32
-0.999785, 173, 55, 188, 70
-0.999785, 189, 33, 204, 48
-0.999792, 181, 43, 196, 58
-0.999793, 161, 55, 176, 70
-0.999793, 151, 35, 166, 50
-0.999794, 117, 43, 132, 58
-0.999796, 25, 97, 40, 112
-0.999799, 181, 51, 196, 66
