1974
-0.32343, 1, 129, 500, 375
-0.374965, 1, 1, 500, 375
-0.429123, 1, 33, 500, 288
-0.507057, 257, 1, 500, 375
-0.512563, 129, 1, 384, 375
-0.516055, 97, 129, 352, 375
-0.577048, 193, 129, 448, 375
-0.61727, 1, 1, 256, 375
-0.62299, 225, 33, 480, 288
-0.705153, 1, 97, 256, 352
-0.753144, 129, 1, 384, 256
-0.765186, 1, 1, 256, 256
-0.829125, 321, 1, 448, 375
-0.837908, 257, 1, 384, 375
-0.841964, 161, 129, 288, 375
-0.842559, 289, 65, 416, 320
-0.844194, 1, 209, 500, 336
-0.858289, 241, 129, 368, 375
-0.86183, 1, 161, 500, 288
-0.86663, 369, 1, 496, 375
-0.868408, 49, 1, 176, 375
-0.871051, 81, 129, 208, 375
-0.875916, 337, 65, 464, 320
-0.880883, 193, 1, 320, 375
-0.885584, 113, 1, 240, 375
-0.887866, 33, 97, 160, 352
-0.888607, 241, 1, 368, 256
-0.890562, 129, 161, 384, 288
-0.899794, 49, 1, 176, 256
-0.901423, 1, 225, 256, 352
-0.901737, 1, 113, 500, 240
-0.902447, 1, 1, 128, 375
-0.904475, 225, 145, 480, 272
-0.907169, 161, 209, 416, 336
-0.910001, 129, 33, 256, 288
-0.912205, 1, 177, 256, 304
-0.917713, 81, 193, 208, 320
-0.918594, 1, 1, 128, 256
-0.919694, 1, 17, 500, 144
-0.919741, 49, 225, 112, 352
-0.920866, 17, 225, 144, 352
-0.921903, 305, 161, 432, 288
-0.922934, 193, 97, 448, 224
-0.926371, 345, 193, 408, 320
-0.928512, 369, 209, 432, 336
-0.929541, 1, 65, 500, 192
-0.929965, 361, 145, 424, 272
-0.930401, 289, 113, 416, 240
-0.930465, 329, 113, 392, 240
-0.930619, 73, 241, 136, 368
-0.930675, 329, 65, 392, 192
-0.932182, 305, 145, 368, 272
-0.932245, 161, 145, 288, 272
-0.93316, 241, 145, 368, 272
-0.934405, 73, 193, 136, 320
-0.935385, 25, 225, 88, 352
-0.935639, 193, 1, 320, 256
-0.936029, 305, 209, 432, 336
-0.938076, 1, 81, 256, 208
-0.938363, 209, 145, 272, 272
-0.938471, 97, 193, 160, 320
-0.940029, 393, 193, 456, 320
-0.940339, 185, 161, 248, 288
-0.940453, 177, 193, 304, 320
-0.940703, 121, 177, 184, 304
-0.941571, 185, 209, 248, 336
-0.942098, 33, 273, 96, 336
-0.942409, 353, 193, 480, 320
-0.942536, 305, 65, 432, 192
-0.942688, 145, 145, 208, 272
-0.942835, 49, 233, 112, 296
-0.942947, 81, 241, 208, 368
-0.94326, 49, 81, 112, 208
-0.943364, 353, 201, 416, 264
-0.944032, 241, 161, 304, 288
-0.944827, 361, 177, 424, 240
-0.945341, 321, 193, 384, 320
-0.945781, 257, 193, 500, 320
-0.945884, 161, 241, 224, 368
-0.946831, 129, 209, 256, 336
-0.946948, 281, 161, 344, 288
-0.947101, 353, 145, 480, 272
-0.947167, 361, 65, 424, 192
-0.948273, 305, 65, 368, 192
-0.948278, 97, 241, 160, 368
-0.94844, 73, 225, 136, 288
-0.948917, 113, 145, 240, 272
-0.948974, 33, 129, 288, 256
-0.949211, 329, 73, 392, 136
-0.949278, 225, 193, 352, 320
-0.949875, 17, 129, 80, 256
-0.951089, 353, 65, 480, 192
-0.951156, 89, 265, 152, 328
-0.952485, 321, 153, 384, 216
-0.953001, 313, 209, 376, 272
-0.953381, 361, 225, 424, 288
-0.95366, 353, 241, 480, 368
-0.954662, 17, 177, 80, 304
-0.954907, 129, 17, 384, 144
-0.95515, 161, 193, 224, 320
-0.955331, 385, 193, 448, 256
-0.955361, 73, 297, 136, 360
-0.955369, 385, 257, 448, 320
-0.955416, 337, 17, 400, 144
-0.955926, 1, 145, 128, 272
-0.956008, 257, 49, 500, 176
-0.956235, 257, 65, 384, 192
-0.956307, 185, 217, 248, 280
-0.956819, 281, 177, 344, 240
-0.957144, 393, 241, 456, 368
-0.957265, 337, 97, 400, 160
-0.957649, 273, 209, 336, 272
-0.957807, 337, 1, 464, 128
-0.958325, 97, 201, 160, 264
-0.958389, 257, 1, 500, 128
-0.959081, 385, 145, 448, 272
-0.959114, 329, 241, 392, 304
-0.959172, 361, 97, 424, 160
-0.959552, 297, 1, 360, 128
-0.960109, 41, 105, 104, 168
-0.960119, 49, 177, 112, 304
-0.960232, 393, 217, 456, 280
-0.960358, 257, 185, 320, 248
-0.960406, 57, 273, 120, 336
-0.960464, 321, 121, 384, 184
-0.960482, 41, 1, 104, 128
-0.960704, 273, 113, 336, 240
-0.961074, 145, 169, 208, 232
-0.961806, 305, 185, 368, 248
-0.962066, 113, 257, 176, 320
-0.962131, 361, 249, 424, 312
-0.96228, 345, 121, 408, 184
-0.962356, 345, 241, 408, 368
-0.962456, 33, 297, 96, 360
-0.962754, 329, 97, 392, 352
-0.962762, 121, 177, 184, 240
-0.962953, 297, 209, 360, 336
-0.963559, 257, 241, 500, 368
-0.963597, 73, 73, 136, 136
-0.963873, 49, 129, 176, 256
-0.964008, 129, 281, 192, 344
-0.964327, 217, 193, 280, 320
-0.964328, 49, 209, 112, 272
-0.964474, 97, 289, 160, 352
-0.964805, 25, 201, 88, 264
-0.964813, 361, 153, 424, 216
-0.965139, 121, 241, 184, 368
-0.965406, 17, 241, 144, 304
-0.96541, 337, 177, 400, 240
-0.965421, 361, 273, 424, 336
-0.965424, 33, 81, 160, 208
-0.965499, 137, 129, 200, 375
-0.965818, 273, 17, 400, 144
-0.965875, 17, 145, 80, 208
-0.966021, 9, 297, 72, 360
-0.966231, 377, 177, 408, 240
-0.966315, 349, 113, 380, 240
-0.96643, 337, 49, 400, 112
-0.96645, 81, 201, 208, 264
-0.966517, 385, 169, 448, 232
-0.966652, 25, 249, 88, 312
-0.967251, 305, 89, 368, 152
-0.967361, 305, 129, 368, 375
-0.967496, 249, 209, 312, 272
-0.967516, 389, 177, 420, 240
-0.967565, 9, 113, 72, 176
-0.967578, 101, 193, 132, 320
-0.967688, 109, 249, 140, 312
-0.967704, 357, 65, 388, 192
-0.967748, 289, 193, 416, 256
-0.968045, 73, 33, 136, 160
-0.96805, 33, 97, 96, 352
-0.968074, 341, 73, 372, 136
-0.968119, 361, 73, 424, 136
-0.968171, 225, 129, 288, 375
-0.968184, 361, 193, 392, 256
-0.968202, 321, 217, 448, 280
-0.968318, 161, 257, 224, 320
-0.968489, 361, 193, 392, 320
-0.968543, 217, 161, 280, 224
-0.968554, 417, 1, 480, 128
-0.968565, 17, 273, 144, 336
-0.968588, 305, 1, 368, 256
-0.968634, 397, 209, 428, 336
-0.968675, 289, 169, 416, 232
-0.968787, 353, 105, 384, 168
-0.968895, 1, 1, 128, 128
-0.969311, 353, 81, 384, 144
-0.969327, 81, 273, 112, 336
-0.969394, 389, 209, 420, 272
-0.969758, 377, 209, 408, 272
-0.969782, 329, 145, 360, 272
-0.969841, 17, 17, 80, 144
-0.970011, 385, 225, 416, 352
-0.970024, 101, 209, 132, 272
-0.970221, 409, 161, 472, 224
-0.970343, 81, 241, 112, 368
-0.970375, 361, 97, 424, 352
-0.970415, 409, 129, 472, 256
-0.970478, 1, 273, 64, 336
-0.970526, 45, 233, 76, 296
-0.970568, 17, 217, 144, 280
-0.970738, 49, 81, 112, 144
-0.970875, 241, 1, 304, 128
-0.970891, 97, 257, 224, 320
-0.970909, 233, 185, 296, 248
-0.970912, 57, 225, 88, 352
-0.97096, 385, 161, 416, 288
-0.971017, 145, 225, 208, 288
-0.971036, 89, 193, 120, 320
-0.971066, 81, 217, 112, 280
-0.971067, 369, 185, 496, 248
-0.971138, 1, 241, 64, 368
-0.971368, 241, 145, 272, 272
-0.97144, 377, 265, 408, 328
-0.971446, 25, 225, 88, 288
-0.971475, 353, 129, 384, 192
-0.971542, 1, 1, 256, 128
-0.971553, 61, 225, 92, 288
-0.971733, 385, 233, 416, 296
-0.97181, 265, 1, 328, 128
-0.972286, 249, 113, 312, 240
-0.972299, 325, 81, 356, 208
-0.972367, 297, 121, 360, 184
-0.972388, 33, 257, 64, 320
-0.97245, 337, 49, 368, 176
-0.972627, 153, 281, 216, 344
-0.972638, 301, 185, 332, 248
-0.972691, 193, 209, 224, 336
-0.972699, 97, 241, 128, 368
-0.972755, 321, 241, 384, 368
-0.972762, 417, 225, 480, 352
-0.972771, 321, 73, 448, 136
-0.972831, 193, 169, 256, 232
-0.972834, 397, 241, 428, 304
-0.973153, 241, 177, 368, 240
-0.973177, 225, 209, 352, 272
-0.97318, 369, 241, 496, 304
-0.973212, 129, 169, 256, 232
-0.973237, 45, 209, 76, 336
-0.973245, 169, 169, 232, 232
-0.97327, 97, 233, 224, 296
-0.973273, 97, 1, 160, 128
-0.973275, 41, 129, 104, 256
-0.97328, 73, 201, 136, 264
-0.973341, 65, 281, 192, 344
-0.973403, 373, 145, 404, 272
-0.973449, 113, 193, 144, 320
-0.973455, 385, 1, 448, 128
-0.973515, 77, 313, 108, 375
-0.973558, 305, 1, 368, 64
-0.973562, 353, 265, 480, 328
-0.973581, 305, 65, 368, 128
-0.973687, 305, 241, 432, 304
-0.973748, 373, 209, 404, 336
-0.973752, 273, 153, 336, 216
-0.973838, 9, 177, 72, 240
-0.973934, 401, 137, 464, 200
-0.973962, 41, 49, 104, 112
-0.974026, 345, 217, 376, 280
-0.974054, 193, 161, 224, 288
-0.974059, 81, 65, 112, 128
-0.974143, 317, 145, 348, 272
-0.974178, 365, 217, 396, 280
-0.974246, 289, 145, 416, 208
-0.97428, 45, 97, 76, 224
-0.974284, 433, 217, 496, 280
-0.974314, 93, 273, 124, 336
-0.974392, 337, 97, 368, 160
-0.974507, 69, 89, 100, 152
-0.974516, 201, 129, 264, 375
-0.974527, 161, 217, 288, 280
-0.974708, 417, 177, 480, 304
-0.974773, 377, 49, 440, 112
-0.974794, 353, 137, 480, 200
-0.974837, 409, 241, 472, 304
-0.975067, 273, 209, 336, 336
-0.97508, 57, 33, 120, 288
-0.975104, 177, 113, 240, 240
-0.975142, 369, 129, 432, 192
-0.975199, 409, 185, 472, 248
-0.975212, 161, 129, 224, 375
-0.975297, 177, 225, 208, 352
-0.975299, 225, 1, 352, 128
-0.975341, 249, 129, 312, 375
-0.97535, 345, 1, 408, 256
-0.97537, 257, 161, 288, 288
-0.975422, 41, 113, 72, 176
-0.975424, 9, 129, 72, 375
-0.975467, 361, 241, 392, 304
-0.975553, 201, 1, 264, 64
-0.975614, 345, 1, 408, 64
-0.975625, 365, 169, 396, 232
-0.975651, 385, 281, 448, 344
-0.9757, 337, 113, 464, 176
-0.975761, 221, 145, 252, 272
-0.975769, 361, 17, 424, 144
-0.975806, 33, 225, 64, 352
-0.975813, 121, 113, 184, 240
-0.975822, 273, 129, 336, 375
-0.975888, 389, 265, 420, 328
-0.975925, 361, 57, 392, 120
-0.97606, 69, 193, 100, 320
-0.976128, 217, 217, 280, 280
-0.976214, 289, 233, 352, 296
-0.976261, 349, 193, 380, 320
-0.976267, 113, 201, 144, 264
-0.97633, 433, 121, 496, 184
-0.976336, 365, 97, 396, 160
-0.976501, 269, 161, 300, 288
-0.976539, 61, 81, 92, 208
-0.976561, 93, 233, 124, 296
-0.976571, 289, 185, 320, 248
-0.97662, 105, 273, 136, 336
-0.976623, 1, 297, 128, 360
-0.976638, 125, 177, 156, 304
-0.976691, 273, 185, 304, 248
-0.976718, 369, 209, 496, 272
-0.976805, 81, 1, 208, 128
-0.976846, 121, 257, 152, 320
-0.976927, 321, 161, 352, 224
-0.976943, 157, 169, 188, 232
-0.976976, 1, 217, 64, 280
-0.977072, 65, 249, 96, 312
-0.977105, 141, 185, 172, 248
-0.977168, 177, 169, 304, 232
-0.977203, 173, 161, 204, 288
-0.977252, 113, 129, 176, 375
-0.977255, 281, 161, 312, 288
-0.97728, 273, 121, 400, 184
-0.977296, 273, 81, 400, 144
-0.977311, 385, 129, 448, 375
-0.977311, 41, 129, 104, 192
-0.977484, 93, 297, 124, 360
-0.977522, 309, 209, 340, 272
-0.977533, 109, 241, 140, 368
-0.977542, 293, 161, 324, 288
-0.977747, 325, 89, 356, 152
-0.977772, 137, 281, 168, 344
-0.977819, 145, 97, 272, 224
-0.97785, 385, 65, 448, 192
-0.977959, 25, 65, 88, 192
-0.977982, 337, 273, 400, 336
-0.977998, 173, 265, 204, 328
-0.978126, 305, 41, 368, 104
-0.978164, 57, 105, 88, 168
-0.978222, 337, 97, 368, 224
-0.97826, 177, 193, 240, 256
-0.97827, 205, 161, 236, 288
-0.978286, 129, 281, 256, 344
-0.978305, 241, 209, 304, 336
-0.978346, 185, 249, 248, 312
-0.978371, 433, 145, 496, 208
-0.978417, 417, 49, 480, 176
-0.97845, 305, 161, 336, 288
-0.978467, 249, 1, 312, 64
-0.978487, 97, 65, 352, 192
-0.978563, 1, 193, 128, 256
-0.978585, 161, 145, 224, 208
-0.978665, 49, 25, 112, 88
-0.97876, 281, 49, 344, 176
-0.978962, 361, 113, 392, 240
-0.979075, 337, 193, 368, 320
-0.979092, 425, 297, 488, 360
-0.979151, 49, 81, 176, 144
-0.979166, 373, 73, 404, 136
-0.979243, 137, 201, 200, 264
-0.979248, 273, 217, 400, 280
-0.979295, 193, 217, 224, 280
-0.979312, 409, 241, 440, 304
-0.979359, 41, 145, 72, 272
-0.979383, 373, 241, 404, 304
-0.979453, 161, 161, 192, 288
-0.979548, 297, 209, 328, 272
-0.979577, 209, 145, 336, 208
-0.979616, 1, 241, 64, 304
-0.979679, 129, 313, 192, 375
-0.979682, 385, 73, 448, 136
-0.979687, 353, 25, 416, 88
-0.979845, 209, 81, 336, 208
-0.979856, 25, 1, 88, 64
-0.97992, 401, 193, 432, 256
-0.979921, 193, 145, 256, 208
-0.980096, 249, 145, 312, 208
-0.980123, 377, 153, 408, 216
-0.980131, 121, 1, 184, 64
-0.980156, 209, 193, 272, 256
-0.980189, 129, 1, 192, 128
-0.980198, 121, 289, 152, 352
-0.9802, 261, 177, 292, 240
-0.980215, 281, 33, 344, 288
-0.980219, 77, 65, 108, 192
-0.980258, 357, 17, 388, 144
-0.980313, 89, 49, 152, 112
-0.980498, 397, 161, 428, 288
-0.980719, 33, 297, 64, 360
-0.980765, 33, 1, 96, 256
-0.980768, 337, 1, 400, 375
-0.980782, 209, 1, 272, 128
-0.98081, 153, 281, 184, 344
-0.980886, 1, 105, 128, 168
-0.980887, 373, 81, 404, 208
-0.98091, 417, 17, 480, 80
-0.981002, 401, 105, 464, 168
-0.981022, 49, 185, 112, 248
-0.981052, 337, 121, 368, 184
-0.981054, 349, 241, 380, 304
-0.981092, 413, 161, 444, 288
-0.981183, 353, 161, 480, 224
-0.981232, 205, 209, 236, 336
-0.981258, 97, 145, 160, 272
-0.981384, 37, 153, 68, 216
-0.98141, 341, 49, 372, 112
-0.981551, 61, 201, 92, 264
-0.981585, 269, 209, 300, 272
-0.981599, 385, 1, 448, 64
-0.981618, 305, 1, 368, 375
-0.98162, 433, 169, 496, 232
-0.981679, 373, 121, 404, 184
-0.981729, 353, 49, 480, 112
-0.981935, 321, 209, 352, 272
-0.982104, 257, 41, 384, 104
-0.982107, 333, 153, 364, 216
-0.982147, 285, 209, 316, 272
-0.982167, 185, 249, 216, 312
-0.982222, 53, 257, 84, 320
-0.982246, 21, 273, 52, 336
-0.982338, 297, 153, 360, 216
-0.982347, 173, 233, 204, 296
-0.982428, 361, 241, 392, 368
-0.982447, 141, 193, 172, 320
-0.982462, 265, 1, 328, 375
-0.982471, 177, 193, 304, 256
-0.982499, 249, 33, 312, 288
-0.982554, 125, 185, 156, 248
-0.982562, 409, 209, 440, 336
-0.982563, 369, 1, 432, 256
-0.982643, 313, 185, 344, 248
-0.982669, 97, 9, 160, 72
-0.982784, 333, 217, 364, 280
-0.98283, 433, 97, 496, 224
-0.982936, 157, 241, 188, 368
-0.982952, 413, 169, 444, 232
-0.983001, 33, 97, 64, 224
-0.983034, 65, 57, 96, 120
-0.983074, 417, 73, 480, 136
-0.983116, 121, 241, 152, 368
-0.983337, 81, 313, 208, 375
-0.983347, 77, 241, 108, 304
-0.983356, 93, 49, 124, 112
-0.983369, 329, 65, 360, 128
-0.983404, 257, 209, 288, 272
-0.983426, 161, 241, 288, 304
-0.983479, 69, 241, 100, 368
-0.983479, 177, 241, 304, 368
-0.983541, 217, 137, 280, 200
-0.983595, 1, 81, 64, 208
-0.983662, 225, 1, 288, 64
-0.983731, 393, 153, 424, 216
-0.983766, 173, 169, 204, 232
-0.983791, 425, 41, 488, 104
-0.983856, 337, 241, 368, 304
-0.983938, 73, 145, 136, 272
-0.983998, 433, 273, 496, 336
-0.984021, 241, 161, 272, 224
-0.984054, 57, 1, 120, 375
-0.984094, 401, 305, 464, 368
-0.984116, 369, 81, 496, 144
-0.984134, 29, 129, 60, 192
-0.984138, 365, 281, 396, 344
-0.98419, 177, 1, 304, 128
-0.98419, 273, 25, 336, 88
-0.984228, 57, 81, 88, 144
-0.984274, 225, 81, 288, 208
-0.98434, 197, 169, 228, 232
-0.984355, 145, 1, 208, 375
-0.984378, 25, 73, 88, 136
-0.984379, 129, 25, 192, 88
-0.984379, 49, 209, 80, 272
-0.984423, 305, 273, 432, 336
-0.984472, 81, 177, 208, 240
-0.98458, 153, 97, 216, 224
-0.984588, 29, 145, 60, 272
-0.984678, 361, 1, 424, 375
-0.984684, 329, 25, 392, 88
-0.984802, 329, 185, 360, 248
-0.984887, 149, 145, 180, 272
-0.984898, 401, 41, 464, 104
-0.984904, 41, 153, 104, 216
-0.984937, 201, 97, 264, 224
-0.98496, 145, 161, 176, 224
-0.98502, 257, 241, 384, 368
-0.985061, 221, 209, 252, 336
-0.985126, 317, 233, 348, 296
-0.985139, 65, 1, 96, 128
-0.985216, 281, 49, 344, 112
-0.985244, 305, 25, 432, 88
-0.985251, 241, 1, 304, 375
-0.985345, 33, 161, 160, 224
-0.985379, 313, 81, 344, 208
-0.985396, 41, 49, 72, 176
-0.98546, 21, 241, 52, 368
-0.985464, 45, 281, 76, 344
-0.9855, 225, 217, 256, 280
-0.985561, 373, 49, 404, 112
-0.985583, 353, 289, 480, 352
-0.985596, 269, 113, 300, 240
-0.985602, 433, 241, 496, 304
-0.985612, 425, 97, 488, 160
-0.985621, 401, 217, 432, 280
-0.985627, 405, 265, 436, 328
-0.985812, 181, 209, 212, 272
-0.985849, 73, 177, 136, 240
-0.985865, 341, 1, 372, 128
-0.985883, 393, 1, 456, 375
-0.985948, 321, 193, 352, 320
-0.986096, 105, 297, 136, 360
-0.986135, 449, 169, 480, 232
-0.986171, 121, 1, 184, 256
-0.98629, 1, 209, 32, 272
-0.986319, 29, 217, 60, 280
-0.986338, 413, 113, 444, 240
-0.986342, 353, 1, 384, 64
-0.986405, 449, 1, 480, 128
-0.986408, 309, 161, 340, 224
-0.98649, 233, 209, 264, 336
-0.986541, 65, 49, 128, 112
-0.98659, 53, 33, 84, 160
-0.986616, 25, 153, 56, 216
-0.986629, 161, 305, 224, 368
-0.986645, 161, 145, 288, 208
-0.986674, 241, 217, 272, 280
-0.986681, 357, 33, 388, 96
-0.986722, 81, 129, 144, 375
-0.986727, 9, 1, 72, 375
-0.986728, 321, 1, 448, 64
-0.986776, 253, 113, 284, 240
-0.98682, 365, 145, 396, 208
-0.986866, 1, 89, 64, 152
-0.986875, 245, 193, 276, 320
-0.986888, 57, 129, 120, 375
-0.986889, 49, 185, 80, 248
-0.986962, 301, 113, 332, 240
-0.986974, 121, 233, 184, 296
-0.986987, 221, 153, 252, 216
-0.986998, 121, 1, 184, 375
-0.987033, 257, 241, 384, 304
-0.987038, 89, 17, 120, 144
-0.987047, 145, 1, 208, 64
-0.987099, 185, 1, 248, 375
-0.987111, 201, 297, 264, 360
-0.987122, 209, 241, 272, 368
-0.987157, 305, 49, 432, 112
-0.987227, 397, 113, 428, 240
-0.98727, 45, 89, 76, 152
-0.987293, 409, 65, 472, 320
-0.987351, 81, 1, 144, 375
-0.987401, 73, 33, 104, 96
-0.987413, 57, 177, 88, 304
-0.987584, 137, 145, 168, 272
-0.987589, 445, 49, 476, 176
-0.987597, 373, 33, 404, 160
-0.98761, 9, 1, 72, 256
-0.987621, 129, 177, 384, 240
-0.987816, 17, 1, 144, 64
-0.987842, 145, 241, 176, 368
-0.98785, 9, 177, 40, 240
-0.98786, 161, 209, 416, 272
-0.987869, 17, 129, 144, 192
-0.987943, 361, 193, 424, 224
-0.987947, 81, 1, 144, 256
-0.987956, 129, 193, 256, 256
-0.987989, 325, 121, 356, 184
-0.988035, 353, 205, 416, 236
-0.988168, 129, 305, 256, 368
-0.988203, 349, 153, 380, 216
-0.98834, 377, 213, 440, 244
-0.988371, 1, 233, 256, 296
-0.988431, 313, 217, 376, 248
-0.988434, 273, 1, 400, 64
-0.988442, 73, 241, 136, 272
-0.988455, 337, 69, 400, 100
-0.98846, 469, 1, 500, 128
-0.988466, 33, 269, 96, 300
-0.98851, 225, 33, 288, 288
-0.988589, 241, 193, 272, 256
-0.988603, 321, 85, 384, 116
-0.988619, 413, 193, 444, 256
-0.988635, 1, 185, 500, 248
-0.98868, 329, 1, 360, 128
-0.988711, 341, 241, 372, 368
-0.988712, 185, 169, 216, 232
-0.988722, 385, 257, 448, 288
-0.988725, 33, 289, 96, 320
-0.988734, 49, 225, 112, 256
-0.988758, 337, 109, 400, 140
-0.988772, 289, 161, 320, 224
-0.9888, 433, 1, 464, 128
-0.98881, 433, 137, 464, 200
-0.988819, 1, 217, 500, 280
-0.98894, 345, 97, 408, 128
-0.988948, 225, 121, 352, 184
-0.988952, 201, 33, 264, 288
-0.988964, 209, 1, 336, 64
-0.988978, 121, 313, 152, 375
-0.989045, 377, 269, 440, 300
-0.989049, 377, 289, 408, 352
-0.989052, 337, 25, 368, 88
-0.989066, 73, 281, 136, 312
-0.989093, 41, 257, 104, 288
-0.989097, 177, 113, 208, 240
-0.989104, 457, 65, 488, 192
-0.989109, 317, 57, 348, 120
-0.98911, 377, 97, 408, 160
-0.989111, 49, 105, 176, 168
-0.98914, 353, 25, 480, 88
-0.989151, 73, 193, 104, 256
-0.989159, 353, 233, 416, 264
-0.989159, 209, 217, 240, 280
-0.989185, 49, 33, 176, 96
-0.9892, 41, 245, 104, 276
-0.989206, 345, 145, 408, 176
-0.989207, 321, 161, 384, 192
-0.989369, 1, 57, 128, 120
-0.989428, 81, 1, 208, 64
-0.989455, 353, 221, 416, 252
-0.989467, 441, 113, 472, 240
-0.989498, 273, 217, 336, 248
-0.989507, 73, 333, 136, 364
-0.989522, 385, 241, 448, 272
-0.989523, 153, 1, 216, 256
-0.989524, 177, 217, 240, 248
-0.989555, 1, 81, 128, 144
-0.98961, 1, 209, 256, 272
-0.989612, 425, 81, 456, 208
-0.989625, 369, 281, 432, 312
-0.989646, 113, 289, 176, 320
-0.989648, 345, 85, 408, 116
-0.989673, 193, 153, 448, 216
-0.989678, 73, 221, 136, 252
-0.989702, 193, 313, 320, 375
-0.989732, 209, 165, 272, 196
-0.989744, 321, 125, 384, 156
-0.989745, 361, 181, 424, 212
-0.989754, 89, 269, 152, 300
-0.989762, 345, 265, 408, 296
-0.989769, 345, 129, 408, 160
-0.989776, 133, 241, 164, 368
-0.989777, 1, 257, 256, 320
-0.989832, 385, 189, 448, 220
-0.989836, 73, 293, 136, 324
-0.989843, 337, 249, 400, 280
-0.989861, 177, 1, 240, 128
-0.989867, 313, 105, 376, 136
-0.989873, 377, 225, 440, 256
-0.989876, 73, 321, 136, 352
-0.989878, 17, 241, 80, 272
-0.989953, 113, 205, 176, 236
-0.989982, 9, 225, 40, 352
-0.990002, 1, 285, 64, 316
-0.99001, 441, 193, 472, 320
-0.99001, 385, 201, 448, 232
-0.990017, 33, 301, 96, 332
-0.990025, 73, 345, 136, 375
-0.990046, 177, 265, 304, 328
-0.990048, 73, 209, 136, 240
-0.990079, 361, 249, 424, 280
-0.990124, 305, 73, 368, 104
-0.990136, 41, 109, 104, 140
-0.990147, 329, 205, 392, 236
-0.990203, 65, 89, 128, 120
-0.990215, 421, 225, 452, 352
-0.990221, 145, 173, 208, 204
-0.990225, 109, 145, 140, 272
-0.99023, 417, 1, 480, 375
-0.990243, 33, 209, 96, 240
-0.990251, 33, 129, 96, 160
-0.990252, 9, 273, 72, 304
-0.990284, 145, 277, 208, 308
-0.990292, 25, 229, 88, 260
-0.990312, 9, 253, 72, 284
-0.990326, 77, 17, 108, 144
-0.990403, 73, 305, 136, 336
-0.990409, 49, 329, 112, 360
-0.990409, 361, 109, 424, 140
-0.990414, 49, 341, 112, 372
-0.990414, 153, 1, 216, 128
-0.990427, 385, 1, 416, 128
-0.990497, 313, 229, 376, 260
-0.990514, 21, 193, 52, 320
-0.990547, 361, 73, 424, 104
-0.990558, 217, 1, 280, 375
-0.990575, 225, 177, 480, 240
-0.990588, 233, 217, 296, 248
-0.990592, 281, 173, 344, 204
-0.990602, 209, 25, 336, 88
-0.990607, 401, 149, 464, 180
-0.990615, 369, 149, 432, 180
-0.990625, 121, 193, 184, 224
-0.990667, 289, 113, 320, 240
-0.990685, 321, 149, 384, 180
-0.990694, 409, 241, 472, 272
-0.990708, 345, 277, 408, 308
-0.990765, 49, 317, 112, 348
-0.990771, 49, 41, 112, 72
-0.990774, 9, 133, 72, 164
-0.99079, 385, 165, 448, 196
-0.990812, 377, 89, 440, 120
-0.990816, 113, 25, 240, 88
-0.990864, 313, 185, 376, 216
-0.990874, 169, 273, 232, 304
-0.990885, 49, 57, 112, 88
-0.990896, 129, 1, 256, 64
-0.990951, 337, 193, 400, 224
-0.990979, 297, 209, 328, 336
-0.990984, 129, 321, 192, 352
-0.991011, 177, 289, 304, 352
-0.991018, 369, 129, 432, 160
-0.991045, 113, 273, 176, 304
-0.991048, 17, 105, 80, 136
-0.991053, 41, 97, 104, 128
-0.991066, 409, 193, 472, 224
-0.991082, 401, 213, 464, 244
-0.991087, 185, 173, 248, 204
-0.991089, 297, 241, 360, 272
-0.991097, 1, 305, 64, 336
-0.991109, 337, 173, 400, 204
-0.991124, 17, 149, 80, 180
-0.991131, 73, 73, 136, 104
-0.99115, 345, 289, 408, 320
-0.991155, 409, 253, 472, 284
-0.991174, 129, 333, 192, 364
-0.991179, 161, 241, 416, 304
-0.991186, 401, 229, 464, 260
-0.991202, 65, 57, 192, 120
-0.991206, 185, 253, 248, 284
-0.991208, 289, 185, 352, 216
-0.991212, 321, 137, 384, 168
-0.991215, 169, 285, 232, 316
-0.991217, 469, 49, 500, 176
-0.991227, 73, 253, 136, 284
-0.991228, 137, 289, 200, 320
-0.991233, 153, 161, 216, 192
-0.991235, 1, 241, 500, 304
-0.991236, 233, 169, 296, 200
-0.991239, 13, 129, 44, 256
-0.991245, 153, 217, 216, 248
-0.991246, 113, 261, 176, 292
-0.991287, 369, 313, 496, 375
-0.991299, 9, 217, 72, 248
-0.991301, 89, 53, 152, 84
-0.991313, 257, 165, 320, 196
-0.991314, 145, 237, 208, 268
-0.991362, 17, 117, 80, 148
-0.991414, 465, 129, 496, 256
-0.991429, 429, 145, 460, 272
-0.991435, 329, 57, 392, 88
-0.991453, 361, 161, 424, 192
-0.991463, 393, 177, 456, 208
-0.991495, 305, 57, 368, 88
-0.991527, 33, 85, 96, 116
-0.991528, 417, 161, 480, 192
-0.991553, 297, 205, 360, 236
-0.991558, 393, 281, 456, 312
-0.99156, 281, 229, 344, 260
-0.991577, 401, 269, 464, 300
-0.991583, 49, 29, 112, 60
-0.991597, 97, 217, 160, 248
-0.991608, 193, 129, 448, 192
-0.991614, 297, 89, 360, 120
-0.991618, 81, 1, 144, 32
-0.991625, 225, 65, 352, 128
-0.99167, 425, 149, 488, 180
-0.991737, 309, 209, 340, 336
-0.991749, 33, 1, 96, 375
-0.991856, 225, 89, 352, 152
-0.991856, 353, 105, 384, 136
-0.991871, 33, 281, 288, 344
-0.991873, 1, 177, 32, 304
-0.991895, 405, 1, 436, 128
-0.991923, 1, 161, 500, 224
-0.991966, 81, 81, 208, 208
-0.991994, 57, 229, 88, 260
-0.992002, 349, 85, 380, 116
-0.992003, 177, 33, 240, 288
-0.992009, 257, 209, 500, 272
-0.992012, 393, 193, 424, 224
-0.992027, 433, 1, 496, 256
-0.992063, 353, 121, 384, 152
-0.992095, 161, 97, 192, 224
-0.992111, 353, 141, 384, 172
-0.992145, 361, 73, 392, 104
-0.992173, 261, 209, 292, 336
-0.992183, 345, 65, 376, 96
-0.992184, 381, 181, 412, 212
-0.992215, 341, 105, 372, 136
-0.992237, 305, 225, 432, 256
-0.99224, 373, 217, 404, 248
-0.992243, 377, 265, 408, 296
-0.992257, 177, 65, 240, 192
-0.992269, 393, 241, 424, 272
-0.992287, 77, 337, 108, 368
-0.992291, 77, 225, 108, 256
-0.992311, 1, 289, 128, 320
-0.992311, 37, 269, 68, 300
-0.992325, 57, 129, 88, 256
-0.992328, 53, 101, 84, 132
-0.992329, 305, 213, 432, 244
-0.992363, 97, 297, 128, 328
-0.992374, 365, 197, 396, 228
-0.992391, 93, 237, 124, 268
-0.992401, 385, 253, 416, 284
-0.992404, 385, 205, 416, 236
-0.992405, 49, 241, 80, 272
-0.992423, 119, 249, 134, 312
-0.992438, 121, 289, 152, 320
-0.992441, 29, 281, 60, 312
-0.992441, 97, 213, 128, 244
-0.992445, 393, 217, 424, 248
-0.99245, 361, 93, 392, 124
-0.99245, 77, 321, 108, 352
-0.992463, 1, 25, 128, 88
-0.992465, 77, 305, 108, 336
-0.992472, 329, 97, 360, 128
-0.992483, 41, 113, 72, 144
-0.992488, 77, 289, 108, 320
-0.992489, 41, 253, 72, 284
-0.992491, 189, 217, 220, 248
-0.992507, 157, 177, 188, 208
-0.992518, 41, 133, 72, 164
-0.992521, 377, 229, 408, 260
-0.992532, 337, 85, 368, 116
-0.992546, 69, 245, 100, 276
-0.992548, 109, 253, 140, 284
-0.992561, 61, 89, 92, 120
-0.992567, 77, 77, 108, 108
-0.99258, 81, 277, 112, 308
-0.992586, 381, 281, 412, 312
-0.992607, 397, 205, 428, 236
-0.992608, 313, 169, 344, 200
-0.99261, 305, 213, 336, 244
-0.992616, 17, 277, 144, 308
-0.992616, 341, 117, 372, 148
-0.992619, 391, 177, 406, 240
-0.992633, 357, 229, 388, 260
-0.992644, 357, 209, 388, 240
-0.992663, 369, 249, 400, 280
-0.992664, 81, 237, 112, 268
-0.992664, 325, 165, 356, 196
-0.99267, 33, 297, 64, 328
-0.992677, 129, 1, 256, 128
-0.992686, 401, 261, 432, 292
-0.992689, 137, 189, 168, 220
-0.9927, 97, 273, 128, 304
-0.992707, 325, 113, 356, 144
-0.99271, 389, 265, 420, 296
-0.992722, 381, 177, 396, 240
-0.992734, 161, 281, 192, 312
-0.992738, 365, 273, 396, 304
-0.992742, 369, 113, 400, 144
-0.992742, 413, 201, 444, 232
-0.99275, 125, 193, 156, 224
-0.992753, 389, 229, 420, 260
-0.992754, 373, 153, 404, 184
-0.992757, 77, 89, 108, 120
-0.992762, 205, 113, 236, 240
-0.992764, 325, 85, 356, 116
-0.992765, 57, 273, 88, 304
-0.992772, 237, 165, 268, 196
-0.992774, 145, 173, 176, 204
-0.992776, 81, 209, 208, 240
-0.992777, 89, 225, 120, 256
-0.992784, 85, 213, 116, 244
-0.992786, 393, 181, 424, 212
-0.992787, 93, 309, 124, 340
-0.99279, 149, 285, 180, 316
-0.992793, 113, 201, 144, 232
-0.992808, 33, 241, 160, 272
-0.99281, 361, 61, 392, 92
-0.992819, 89, 69, 120, 100
-0.99282, 109, 269, 140, 300
-0.992824, 277, 217, 308, 248
-0.992826, 173, 277, 204, 308
-0.992827, 321, 225, 352, 256
-0.992829, 373, 93, 404, 124
-0.992835, 61, 261, 92, 292
-0.992837, 405, 249, 436, 280
-0.99284, 265, 217, 296, 248
-0.992845, 293, 217, 324, 248
-0.992848, 305, 169, 432, 200
-0.992854, 109, 289, 140, 320
-0.992856, 37, 153, 68, 184
-0.992857, 133, 289, 164, 320
-0.992863, 317, 213, 348, 244
-0.992864, 337, 157, 368, 188
-0.992867, 365, 285, 396, 316
-0.992876, 333, 73, 364, 104
-0.992878, 317, 241, 348, 272
-0.99288, 17, 253, 144, 284
-0.992881, 93, 329, 124, 360
-0.99289, 381, 81, 412, 112
-0.992893, 401, 273, 432, 304
-0.992895, 185, 265, 216, 296
-0.992896, 337, 129, 368, 160
-0.992904, 413, 229, 444, 260
-0.992907, 359, 201, 374, 264
-0.992915, 61, 217, 92, 248
-0.992936, 13, 289, 44, 320
-0.992939, 317, 17, 348, 144
-0.992945, 121, 261, 152, 292
-0.992945, 377, 193, 408, 224
-0.992951, 133, 321, 164, 352
-0.992953, 65, 101, 96, 132
-0.992953, 369, 177, 400, 208
-0.992957, 73, 65, 104, 96
-0.992957, 373, 141, 404, 172
-0.992958, 93, 345, 124, 375
-0.992961, 441, 241, 472, 368
-0.992967, 357, 249, 388, 280
-0.992968, 21, 305, 52, 336
-0.992971, 221, 165, 252, 196
-0.992974, 93, 285, 124, 316
-0.992987, 253, 217, 284, 248
-0.992988, 341, 245, 372, 276
-0.99299, 177, 165, 208, 196
-0.992994, 381, 65, 412, 96
-0.993005, 233, 217, 264, 248
-0.993007, 113, 137, 240, 200
-0.99301, 369, 129, 400, 160
-0.993014, 117, 325, 148, 356
-0.993014, 313, 181, 344, 212
-0.993017, 325, 181, 356, 212
-0.993025, 33, 229, 64, 260
-0.993029, 329, 205, 360, 236
-0.993041, 41, 217, 72, 248
-0.993043, 341, 221, 372, 252
-0.993074, 41, 265, 56, 328
-0.993092, 401, 185, 416, 248
-0.993108, 1, 185, 256, 248
-0.993186, 371, 73, 386, 136
-0.993272, 391, 249, 406, 312
-0.993321, 391, 209, 406, 272
-0.993339, 113, 249, 128, 312
-0.993356, 229, 81, 260, 208
-0.993366, 99, 209, 114, 272
-0.993402, 385, 113, 416, 240
-0.993407, 399, 217, 414, 280
-0.993428, 393, 65, 424, 192
-0.993437, 465, 193, 496, 320
-0.993484, 53, 233, 68, 296
-0.993503, 75, 225, 90, 288
-0.993514, 337, 197, 464, 228
-0.993528, 383, 201, 398, 264
-0.993554, 97, 265, 224, 296
-0.993585, 225, 217, 352, 248
-0.993587, 369, 193, 384, 256
-0.993589, 69, 217, 84, 280
-0.993593, 433, 97, 496, 352
-0.99363, 125, 129, 156, 256
-0.993633, 353, 213, 480, 244
-0.993644, 317, 185, 332, 248
-0.993645, 375, 169, 390, 232
-0.993647, 369, 1, 496, 64
-0.99366, 21, 81, 52, 208
-0.993671, 273, 209, 304, 336
-0.993682, 289, 297, 416, 360
-0.9937, 405, 209, 420, 272
-0.993713, 107, 273, 122, 336
-0.993736, 87, 217, 102, 280
-0.993762, 81, 145, 112, 272
-0.993769, 349, 89, 364, 152
-0.993778, 343, 65, 358, 128
-0.993797, 321, 109, 448, 140
-0.993807, 381, 257, 396, 320
-0.993836, 405, 233, 420, 296
-0.993842, 81, 221, 208, 252
-0.993848, 81, 289, 208, 320
-0.993862, 1, 265, 500, 328
-0.993873, 305, 181, 432, 212
-0.993875, 97, 297, 112, 360
-0.993886, 101, 273, 116, 336
-0.993899, 375, 193, 390, 256
-0.993911, 61, 217, 76, 280
-0.993937, 51, 105, 66, 168
-0.993941, 257, 233, 500, 296
-0.993941, 159, 169, 174, 232
-0.993946, 81, 217, 96, 280
-0.993994, 97, 153, 352, 216
-0.994012, 111, 209, 126, 272
-0.99403, 355, 65, 370, 128
-0.994039, 17, 229, 144, 260
-0.994068, 327, 161, 342, 224
-0.994069, 97, 253, 224, 284
-0.994086, 225, 273, 480, 336
-0.994095, 97, 145, 128, 272
-0.994111, 89, 57, 104, 120
-0.99412, 361, 225, 376, 288
-0.994124, 305, 157, 432, 188
-0.99415, 285, 209, 316, 336
-0.994176, 47, 257, 62, 320
-0.994181, 97, 237, 224, 268
-0.994216, 407, 185, 422, 248
-0.994219, 105, 209, 120, 272
-0.994235, 93, 217, 108, 280
-0.994245, 321, 81, 448, 112
-0.994266, 75, 89, 90, 152
-0.994268, 161, 169, 288, 200
-0.994282, 353, 217, 368, 280
-0.994283, 361, 105, 376, 168
-0.994305, 323, 209, 338, 272
-0.994315, 377, 217, 392, 280
-0.994345, 303, 185, 318, 248
-0.994346, 369, 185, 496, 216
-0.994352, 133, 1, 164, 128
-0.994372, 265, 1, 296, 128
-0.994388, 83, 65, 98, 128
-0.994389, 311, 185, 326, 248
-0.994396, 1, 301, 128, 332
-0.994399, 399, 241, 414, 304
-0.99441, 373, 97, 388, 160
-0.994426, 125, 257, 140, 320
-0.994429, 453, 193, 484, 320
-0.994435, 33, 281, 48, 344
-0.994438, 289, 185, 304, 248
-0.994451, 45, 121, 60, 184
-0.99446, 349, 113, 364, 176
-0.994465, 1, 145, 256, 208
-0.994488, 353, 161, 480, 192
-0.994512, 411, 241, 426, 304
-0.994521, 241, 161, 368, 192
-0.994523, 87, 273, 102, 336
-0.994545, 81, 277, 208, 308
-0.994555, 385, 153, 400, 216
-0.994561, 73, 81, 136, 208
-0.994576, 63, 97, 78, 160
-0.994581, 295, 185, 310, 248
-0.9946, 289, 201, 416, 232
-0.994609, 177, 217, 304, 248
-0.994624, 281, 1, 312, 128
-0.994629, 225, 289, 352, 352
-0.994658, 105, 233, 120, 296
-0.994683, 93, 273, 108, 336
-0.994697, 189, 249, 204, 312
-0.994711, 377, 73, 392, 136
-0.994714, 257, 185, 384, 216
-0.994715, 279, 185, 294, 248
-0.994718, 301, 1, 332, 128
-0.994726, 1, 313, 128, 344
-0.994735, 129, 41, 384, 104
-0.994753, 273, 121, 400, 152
-0.994758, 69, 89, 84, 152
-0.994781, 17, 265, 144, 296
-0.994788, 321, 69, 448, 100
-0.994809, 337, 237, 464, 268
-0.994821, 129, 265, 384, 328
-0.994825, 117, 209, 132, 272
-0.994851, 257, 65, 500, 128
-0.994865, 329, 129, 360, 375
-0.994868, 49, 301, 176, 332
-0.994881, 185, 225, 200, 288
-0.994937, 161, 25, 288, 88
-0.994948, 371, 217, 386, 280
-0.994967, 387, 273, 402, 336
-0.99498, 33, 217, 160, 248
-0.994989, 355, 89, 370, 152
-0.994989, 99, 233, 114, 296
-0.995, 195, 209, 210, 272
-0.995001, 361, 57, 376, 120
-0.995009, 89, 65, 120, 192
-0.99501, 193, 113, 224, 240
-0.995011, 317, 209, 332, 272
-0.995025, 169, 273, 184, 336
-0.995031, 321, 125, 448, 156
-0.99504, 341, 89, 356, 152
-0.995042, 143, 185, 158, 248
-0.995057, 369, 249, 496, 280
-0.995062, 341, 97, 372, 352
-0.995091, 365, 81, 380, 144
-0.995099, 145, 281, 160, 344
-0.995099, 369, 161, 384, 224
-0.995102, 155, 281, 170, 344
-0.995107, 383, 225, 398, 288
-0.995113, 453, 113, 484, 240
-0.995142, 353, 265, 480, 296
-0.995169, 253, 1, 284, 128
-0.995171, 225, 265, 352, 328
-0.995178, 351, 137, 366, 200
-0.995199, 333, 161, 348, 224
-0.995236, 401, 145, 416, 208
-0.995248, 311, 209, 326, 272
-0.995257, 175, 273, 190, 336
-0.995265, 367, 49, 382, 112
-0.995272, 41, 297, 56, 360
-0.995275, 349, 57, 364, 120
-0.995276, 271, 177, 286, 240
-0.99528, 343, 121, 358, 184
-0.995285, 1, 1, 256, 64
-0.995287, 361, 97, 392, 352
-0.995305, 273, 69, 400, 100
-0.995306, 289, 97, 416, 128
-0.995315, 339, 153, 354, 216
-0.995327, 263, 177, 278, 240
-0.995347, 127, 289, 142, 352
-0.995356, 369, 173, 496, 204
-0.995362, 83, 241, 98, 304
-0.995367, 41, 97, 72, 352
-0.995383, 69, 241, 84, 304
-0.995384, 119, 273, 134, 336
-0.995389, 321, 249, 448, 280
-0.995399, 43, 153, 58, 216
-0.995402, 153, 177, 168, 240
-0.995407, 57, 265, 72, 328
-0.99542, 375, 145, 390, 208
-0.995421, 161, 281, 176, 344
-0.995441, 33, 201, 160, 232
-0.995471, 129, 281, 256, 312
-0.995473, 353, 277, 480, 308
-0.995475, 113, 273, 128, 336
-0.995482, 127, 193, 142, 256
-0.995506, 183, 265, 198, 328
-0.99551, 305, 265, 432, 296
-0.995517, 285, 209, 300, 272
-0.995529, 323, 185, 338, 248
-0.995537, 229, 129, 260, 375
-0.99556, 337, 93, 464, 124
-0.995561, 161, 105, 416, 168
-0.995565, 375, 249, 390, 312
-0.995591, 401, 273, 416, 336
-0.995602, 61, 121, 76, 184
-0.995609, 353, 225, 480, 256
-0.995613, 241, 129, 272, 375
-0.995619, 49, 337, 176, 368
-0.995637, 97, 197, 224, 228
-0.995652, 273, 137, 400, 168
-0.995656, 81, 317, 208, 348
-0.995672, 57, 97, 72, 160
-0.995677, 333, 89, 348, 152
-0.995691, 81, 273, 96, 336
-0.995691, 1, 305, 256, 368
-0.995706, 49, 153, 64, 216
-0.995713, 391, 153, 406, 216
-0.995715, 225, 173, 352, 204
-0.995718, 321, 145, 448, 176
-0.995726, 291, 209, 306, 272
-0.995756, 277, 209, 292, 272
-0.99576, 167, 177, 182, 240
-0.995785, 369, 249, 384, 312
-0.995789, 137, 185, 152, 248
-0.99579, 301, 209, 316, 272
-0.995791, 395, 273, 410, 336
-0.995807, 379, 281, 394, 344
-0.995822, 195, 249, 210, 312
-0.995826, 81, 89, 96, 152
-0.995831, 97, 313, 352, 375
-0.995841, 51, 281, 66, 344
-0.995927, 169, 129, 200, 375
-0.995938, 1, 325, 128, 356
-0.99595, 257, 41, 500, 104
-0.995966, 257, 65, 320, 192
-0.996013, 129, 181, 256, 212
-0.996036, 369, 113, 496, 144
-0.996042, 193, 1, 448, 64
-0.996044, 257, 85, 384, 116
-0.996049, 65, 137, 192, 200
-0.996149, 1, 337, 128, 368
-0.996174, 161, 269, 288, 300
-0.996184, 17, 117, 144, 148
-0.99622, 369, 65, 496, 96
-0.996269, 141, 129, 172, 375
-0.996287, 1, 65, 500, 128
-0.996292, 357, 1, 388, 256
-0.996325, 153, 129, 184, 375
-0.996372, 57, 129, 88, 375
-0.996405, 49, 93, 176, 124
-0.996408, 317, 129, 348, 375
-0.996409, 113, 33, 240, 64
-0.996421, 1, 121, 256, 184
-0.996476, 1, 97, 256, 160
-0.996495, 257, 89, 500, 152
-0.996504, 273, 109, 400, 140
-0.99652, 193, 297, 448, 360
-0.99654, 273, 241, 400, 272
-0.996541, 33, 105, 160, 136
-0.996543, 241, 313, 368, 375
-0.996547, 1, 25, 256, 88
-0.996552, 161, 205, 288, 236
-0.996554, 161, 81, 416, 144
-0.996573, 161, 229, 288, 260
-0.996585, 253, 129, 284, 375
-0.996593, 241, 149, 368, 180
-0.996608, 161, 249, 288, 280
-0.996647, 321, 9, 448, 40
-0.996707, 17, 189, 144, 220
-0.996708, 113, 49, 240, 112
-0.996708, 77, 33, 108, 288
-0.996751, 57, 1, 88, 256
-0.996756, 377, 97, 408, 352
-0.996784, 281, 129, 312, 375
-0.996786, 329, 1, 360, 256
-0.996798, 325, 169, 340, 200
-0.996823, 301, 65, 332, 320
-0.996866, 97, 1, 352, 64
-0.996869, 257, 229, 384, 260
-0.996877, 373, 77, 388, 108
-0.996891, 33, 9, 160, 40
-0.996937, 377, 1, 408, 256
-0.996948, 341, 1, 372, 256
-0.997007, 403, 189, 418, 220
-0.997008, 351, 85, 366, 116
-0.997015, 289, 21, 416, 52
-0.997041, 129, 129, 160, 375
-0.997056, 363, 105, 378, 136
-0.997057, 385, 213, 400, 244
-0.997065, 177, 121, 304, 184
-0.997073, 209, 233, 336, 296
-0.997085, 1, 289, 500, 352
-0.997088, 347, 117, 362, 148
-0.997091, 369, 97, 384, 128
-0.997108, 1, 81, 128, 112
-0.99711, 355, 105, 370, 136
-0.997116, 81, 77, 96, 108
-0.997125, 369, 77, 496, 108
-0.99713, 1, 1, 500, 64
-0.997136, 29, 129, 60, 375
-0.997136, 337, 289, 464, 320
-0.997139, 49, 177, 176, 208
-0.997159, 87, 225, 102, 256
-0.99716, 321, 53, 448, 84
-0.997161, 273, 53, 400, 84
-0.997184, 129, 217, 256, 248
-0.997188, 357, 85, 372, 116
-0.997193, 97, 301, 112, 332
-0.997195, 49, 81, 176, 112
-0.997206, 399, 221, 414, 252
-0.997208, 193, 157, 320, 188
-0.997229, 189, 129, 220, 375
-0.997236, 1, 129, 500, 192
-0.997248, 355, 65, 370, 96
-0.997253, 357, 209, 372, 240
-0.997256, 159, 169, 174, 200
-0.997262, 369, 117, 384, 148
-0.997262, 69, 229, 84, 260
-0.997277, 349, 101, 364, 132
-0.997281, 265, 129, 296, 375
-0.997288, 383, 269, 398, 300
-0.997311, 145, 157, 272, 188
-0.997314, 55, 109, 70, 140
-0.997315, 91, 61, 106, 92
-0.997315, 177, 181, 304, 212
-0.997318, 387, 181, 402, 212
-0.997327, 349, 129, 364, 160
-0.997328, 177, 49, 304, 112
-0.997328, 341, 77, 356, 108
-0.997329, 321, 213, 336, 244
-0.997333, 81, 225, 96, 256
-0.997334, 369, 141, 496, 172
-0.997335, 77, 241, 92, 272
-0.997339, 97, 21, 224, 52
-0.997341, 375, 93, 390, 124
-0.997342, 395, 185, 410, 216
-0.997343, 225, 1, 352, 32
-0.99735, 393, 225, 408, 256
-0.997364, 97, 345, 224, 375
-0.997379, 121, 253, 136, 284
-0.997381, 17, 133, 144, 164
-0.997386, 69, 97, 84, 128
-0.997393, 63, 101, 78, 132
-0.997393, 93, 221, 108, 252
-0.997397, 331, 165, 346, 196
-0.997403, 33, 73, 288, 136
-0.997408, 241, 21, 368, 52
-0.997415, 353, 309, 480, 340
-0.997415, 61, 233, 76, 264
-0.997418, 361, 125, 376, 156
-0.997418, 405, 241, 420, 272
-0.997422, 319, 169, 334, 200
-0.997425, 225, 201, 352, 232
-0.997429, 367, 81, 382, 112
-0.997437, 395, 205, 410, 236
-0.997439, 343, 105, 358, 136
-0.997439, 177, 277, 192, 308
-0.99744, 213, 129, 244, 375
-0.997452, 75, 225, 90, 256
-0.997463, 145, 297, 272, 328
-0.997473, 305, 277, 432, 308
-0.997476, 113, 1, 240, 32
-0.997487, 167, 281, 182, 312
-0.997492, 389, 129, 420, 375
-0.997493, 379, 177, 394, 208
-0.997494, 369, 65, 384, 96
-0.997494, 355, 117, 370, 148
-0.997498, 385, 285, 400, 316
-0.997506, 405, 213, 420, 244
-0.997519, 361, 73, 376, 104
-0.997524, 49, 37, 176, 68
-0.997528, 101, 209, 116, 240
-0.997529, 97, 333, 224, 364
-0.997529, 369, 193, 384, 224
-0.997529, 369, 129, 496, 160
-0.99753, 305, 41, 432, 72
-0.997532, 285, 217, 300, 248
-0.997534, 33, 21, 160, 52
-0.997538, 111, 293, 126, 324
-0.997548, 17, 145, 144, 176
-0.99755, 369, 9, 496, 40
-0.997552, 55, 241, 70, 272
-0.997559, 145, 337, 272, 368
-0.997562, 375, 149, 390, 180
-0.997562, 75, 85, 90, 116
-0.997568, 275, 217, 290, 248
-0.997571, 349, 65, 364, 96
-0.997584, 405, 129, 436, 375
-0.997602, 35, 293, 50, 324
-0.997605, 191, 217, 206, 248
-0.99761, 153, 169, 168, 200
-0.997615, 379, 197, 394, 228
-0.997616, 399, 237, 414, 268
-0.997623, 407, 261, 422, 292
-0.99763, 139, 289, 154, 320
-0.997639, 63, 221, 78, 252
-0.997642, 125, 289, 140, 320
-0.997642, 321, 229, 336, 260
-0.997642, 129, 313, 256, 344
-0.99766, 379, 285, 394, 316
-0.997671, 41, 1, 72, 256
-0.997671, 157, 285, 172, 316
-0.997674, 389, 265, 404, 296
-0.997686, 389, 197, 404, 228
-0.997707, 83, 277, 98, 308
-0.997712, 113, 273, 128, 304
-0.997715, 105, 293, 120, 324
-0.997716, 379, 217, 394, 248
-0.997717, 135, 193, 150, 224
-0.997727, 399, 273, 414, 304
-0.99773, 241, 97, 368, 128
-0.997733, 37, 305, 52, 336
-0.997738, 145, 325, 272, 356
-0.997738, 393, 281, 408, 312
-0.997741, 127, 197, 142, 228
-0.997746, 189, 265, 204, 296
-0.997749, 121, 269, 136, 300
-0.997749, 373, 173, 388, 204
-0.997752, 363, 229, 378, 260
-0.997757, 177, 21, 304, 52
-0.99776, 327, 221, 342, 252
-0.997767, 237, 33, 268, 288
-0.99777, 385, 249, 400, 280
-0.997775, 85, 65, 100, 96
-0.997775, 315, 213, 330, 244
-0.99778, 43, 261, 58, 292
-0.997787, 121, 201, 136, 232
-0.997788, 45, 297, 60, 328
-0.997793, 145, 289, 160, 320
-0.997795, 85, 241, 100, 272
-0.997799, 101, 237, 116, 268
-0.997804, 347, 153, 362, 184
-0.997816, 371, 229, 386, 260
-0.997817, 397, 253, 412, 284
-0.997822, 1, 33, 500, 96
-0.997822, 313, 1, 344, 256
-0.997839, 145, 189, 160, 220
-0.997839, 351, 213, 366, 244
-0.997844, 391, 237, 406, 268
-0.997847, 71, 245, 86, 276
-0.997859, 183, 269, 198, 300
-0.997864, 273, 9, 400, 40
-0.997875, 91, 237, 106, 268
-0.997878, 355, 225, 370, 256
-0.997896, 21, 1, 52, 256
-0.997907, 379, 77, 394, 108
-0.997907, 339, 161, 354, 192
-0.997914, 113, 169, 240, 200
-0.997916, 411, 205, 426, 236
-0.997916, 345, 89, 360, 120
-0.997918, 417, 189, 432, 220
-0.997921, 33, 281, 48, 312
-0.997923, 237, 165, 252, 196
-0.997925, 383, 161, 398, 192
-0.997925, 51, 257, 66, 288
-0.997927, 103, 273, 118, 304
-0.997928, 333, 93, 348, 124
-0.997933, 115, 209, 130, 240
-0.997938, 383, 65, 398, 96
-0.997943, 365, 249, 380, 280
-0.997947, 351, 245, 366, 276
-0.997949, 71, 213, 86, 244
-0.99795, 127, 257, 142, 288
-0.997962, 381, 93, 396, 124
-0.997965, 225, 65, 352, 96
-0.997967, 131, 329, 146, 360
-0.997968, 363, 93, 378, 124
-0.997969, 107, 237, 122, 268
-0.99797, 89, 33, 120, 288
-0.997985, 113, 129, 144, 375
-0.998056, 177, 73, 304, 136
-0.998062, 1, 49, 256, 112
-0.9981, 273, 253, 400, 284
-0.998105, 257, 33, 384, 64
-0.998113, 337, 29, 464, 60
-0.998123, 369, 329, 496, 360
-0.998136, 417, 33, 448, 288
-0.998144, 49, 165, 176, 196
-0.99817, 209, 345, 336, 375
-0.998178, 1, 93, 128, 124
-0.998229, 289, 33, 320, 288
-0.998254, 129, 73, 256, 136
-0.99826, 369, 53, 496, 84
-0.998279, 209, 229, 336, 260
-0.99829, 97, 301, 224, 332
-0.998333, 225, 45, 352, 76
-0.998334, 97, 45, 224, 76
-0.998338, 201, 129, 232, 375
-0.998349, 249, 33, 280, 288
-0.998365, 345, 215, 408, 230
-0.998378, 177, 33, 304, 64
-0.998392, 321, 87, 384, 102
-0.998394, 1, 157, 128, 188
-0.998403, 177, 285, 304, 316
-0.998406, 103, 193, 118, 320
-0.998407, 33, 291, 96, 306
-0.998416, 281, 217, 344, 232
-0.99842, 329, 115, 392, 130
-0.998424, 65, 241, 128, 256
-0.998424, 33, 273, 96, 288
-0.998425, 353, 197, 416, 212
-0.998433, 33, 297, 96, 312
-0.998435, 329, 161, 392, 176
-0.998436, 377, 269, 440, 284
-0.998437, 49, 233, 112, 248
-0.998438, 321, 219, 384, 234
-0.99844, 329, 97, 392, 112
-0.99844, 353, 205, 416, 220
-0.998441, 345, 147, 408, 162
-0.998441, 345, 221, 408, 236
-0.998443, 337, 81, 400, 96
-0.998445, 273, 217, 304, 232
-0.998446, 25, 279, 88, 294
-0.998446, 325, 123, 356, 138
-0.998446, 369, 217, 432, 232
-0.998447, 409, 213, 440, 228
-0.998447, 69, 361, 100, 375
-0.998448, 373, 79, 404, 94
-0.99845, 357, 229, 388, 244
-0.99845, 389, 229, 420, 244
-0.998451, 109, 209, 140, 224
-0.998451, 377, 289, 408, 304
-0.998454, 377, 211, 440, 226
-0.998455, 185, 269, 216, 284
-0.998456, 49, 281, 112, 296
-0.998456, 413, 205, 444, 220
-0.998457, 373, 99, 404, 114
-0.998458, 93, 315, 124, 330
-0.998459, 345, 103, 408, 118
-0.998459, 353, 153, 384, 168
-0.998459, 321, 89, 352, 104
-0.998461, 145, 1, 176, 256
-0.998462, 81, 279, 112, 294
-0.998462, 97, 297, 128, 312
-0.998462, 145, 173, 176, 188
-0.998463, 73, 247, 136, 262
-0.998463, 41, 245, 104, 260
-0.998463, 397, 241, 428, 256
-0.998464, 45, 117, 76, 132
-0.998465, 381, 223, 412, 238
-0.998465, 413, 249, 444, 264
-0.998465, 373, 93, 404, 108
-0.998465, 121, 201, 152, 216
-0.998465, 313, 225, 376, 240
-0.998466, 369, 223, 432, 238
-0.998466, 209, 169, 272, 184
-0.998467, 361, 253, 424, 268
-0.998467, 337, 153, 400, 168
-0.998467, 409, 261, 440, 276
-0.998468, 337, 161, 368, 176
-0.998468, 365, 285, 396, 300
-0.998468, 381, 85, 412, 100
-0.998469, 381, 263, 412, 278
-0.99847, 361, 67, 392, 82
-0.99847, 145, 287, 176, 302
-0.998471, 385, 253, 448, 268
-0.998471, 337, 75, 400, 90
-0.998472, 381, 195, 412, 210
-0.998473, 369, 281, 432, 296
-0.998473, 393, 279, 424, 294
-0.998473, 85, 75, 116, 90
-0.998473, 25, 285, 88, 300
-0.998474, 369, 119, 400, 134
-0.998474, 29, 303, 60, 318
-0.998475, 285, 217, 316, 232
-0.998475, 109, 255, 140, 270
-0.998475, 137, 191, 168, 206
-0.998475, 333, 101, 364, 116
-0.998476, 357, 221, 388, 236
-0.998476, 407, 193, 422, 320
-0.998476, 345, 277, 408, 292
-0.998476, 393, 205, 456, 220
-0.998477, 57, 279, 88, 294
-0.998478, 353, 135, 384, 150
-0.998478, 89, 69, 120, 84
-0.998478, 77, 223, 108, 238
-0.998479, 393, 247, 424, 262
-0.99848, 405, 269, 436, 284
-0.998481, 385, 259, 448, 274
-0.998481, 345, 89, 408, 104
-0.998481, 169, 281, 200, 296
-0.998482, 41, 251, 104, 266
-0.998482, 9, 295, 72, 310
-0.998482, 341, 113, 372, 128
-0.998482, 373, 277, 404, 292
-0.998484, 397, 219, 428, 234
-0.998484, 393, 217, 456, 232
-0.998484, 321, 109, 384, 124
-0.998484, 305, 121, 368, 136
-0.998485, 321, 169, 384, 184
-0.998486, 337, 69, 400, 84
-0.998486, 1, 289, 64, 304
-0.998489, 77, 87, 108, 102
-0.998489, 45, 123, 76, 138
-0.998489, 373, 157, 404, 172
-0.998489, 369, 191, 432, 206
-0.998489, 73, 295, 136, 310
-0.99849, 125, 291, 156, 306
-0.99849, 333, 219, 364, 234
-0.99849, 369, 139, 400, 154
-0.998491, 109, 293, 140, 308
-0.998492, 73, 343, 136, 358
-0.998492, 41, 239, 104, 254
-0.998493, 111, 193, 126, 320
-0.998493, 33, 291, 64, 306
-0.998493, 145, 171, 208, 186
-0.998494, 345, 227, 408, 242
-0.998494, 385, 197, 448, 212
-0.998494, 81, 81, 112, 96
-0.998494, 73, 301, 136, 316
-0.998494, 41, 137, 72, 152
-0.998495, 345, 139, 408, 154
-0.998496, 77, 241, 108, 256
-0.998497, 345, 129, 408, 144
-0.9985, 397, 253, 428, 268
-0.998501, 229, 167, 260, 182
-0.998501, 41, 109, 104, 124
-0.998502, 33, 303, 96, 318
-0.998503, 17, 267, 80, 282
-0.998504, 325, 169, 356, 184
-0.998506, 17, 257, 80, 272
-0.998506, 97, 303, 128, 318
-0.998506, 337, 95, 368, 110
-0.998507, 185, 219, 216, 234
-0.998508, 341, 107, 372, 122
-0.998509, 45, 251, 76, 266
-0.998509, 65, 289, 128, 304
-0.998509, 353, 215, 384, 230
-0.99851, 365, 85, 396, 100
-0.99851, 77, 317, 108, 332
-0.99851, 41, 259, 104, 274
-0.998512, 73, 327, 136, 342
-0.998512, 73, 349, 136, 364
-0.998512, 17, 251, 80, 266
-0.998512, 153, 283, 216, 298
-0.998512, 361, 159, 424, 174
-0.998513, 349, 93, 380, 108
-0.998513, 113, 291, 176, 306
-0.998514, 157, 173, 188, 188
-0.998514, 329, 121, 392, 136
-0.998515, 73, 93, 104, 108
-0.998515, 65, 215, 128, 230
-0.998516, 361, 263, 424, 278
-0.998517, 337, 89, 368, 104
-0.998518, 41, 145, 72, 160
-0.998519, 393, 259, 424, 274
-0.99852, 41, 115, 104, 130
-0.99852, 381, 211, 412, 226
-0.99852, 1, 89, 500, 152
-0.998521, 369, 275, 432, 290
-0.998522, 73, 355, 104, 370
-0.998523, 73, 337, 136, 352
-0.998524, 345, 109, 408, 124
-0.998524, 341, 77, 372, 92
-0.998524, 177, 221, 240, 236
-0.998525, 45, 257, 76, 272
-0.998525, 77, 297, 108, 312
-0.998525, 61, 101, 92, 116
-0.998527, 49, 327, 112, 342
-0.998527, 369, 163, 400, 178
-0.998527, 385, 229, 448, 244
-0.998527, 49, 343, 112, 358
-0.998527, 9, 273, 72, 288
-0.998528, 321, 129, 384, 144
-0.998528, 353, 113, 384, 128
-0.99853, 49, 357, 112, 372
-0.99853, 77, 329, 108, 344
-0.998531, 73, 361, 136, 375
-0.998532, 17, 145, 80, 160
-0.998532, 61, 229, 92, 244
-0.998535, 73, 321, 136, 336
-0.998536, 401, 211, 464, 226
-0.998537, 49, 103, 112, 118
-0.998537, 353, 97, 416, 112
-0.998538, 321, 213, 384, 228
-0.998539, 33, 133, 96, 148
-0.99854, 77, 323, 108, 338
-0.99854, 381, 283, 412, 298
-0.998542, 49, 111, 80, 126
-0.998542, 1, 303, 64, 318
-0.998542, 77, 311, 108, 326
-0.998542, 17, 139, 80, 154
-0.998542, 393, 189, 424, 204
-0.998542, 33, 281, 64, 296
-0.998543, 313, 231, 376, 246
-0.998543, 57, 227, 120, 242
-0.998543, 383, 209, 398, 336
-0.998545, 33, 127, 96, 142
-0.998545, 65, 91, 128, 106
-0.998546, 297, 71, 360, 86
-0.998547, 353, 141, 384, 156
-0.998547, 169, 277, 232, 292
-0.998547, 9, 243, 72, 258
-0.998548, 361, 81, 424, 96
-0.998549, 49, 333, 112, 348
-0.998549, 89, 215, 152, 230
-0.998549, 369, 145, 432, 160
-0.998549, 33, 121, 96, 136
-0.99855, 369, 225, 400, 240
-0.99855, 361, 101, 392, 116
-0.99855, 73, 355, 136, 370
-0.99855, 313, 81, 376, 96
-0.99855, 361, 93, 392, 108
-0.998551, 309, 215, 340, 230
-0.998551, 65, 221, 128, 236
-0.998552, 353, 269, 416, 284
-0.998552, 345, 283, 408, 298
-0.998552, 41, 267, 72, 282
-0.998553, 25, 223, 88, 238
-0.998553, 393, 243, 456, 258
-0.998553, 353, 123, 384, 138
-0.998553, 97, 193, 112, 320
-0.998554, 341, 83, 372, 98
-0.998555, 41, 267, 104, 282
-0.998556, 353, 233, 416, 248
-0.998557, 153, 219, 216, 234
-0.998557, 43, 241, 58, 368
-0.998557, 41, 131, 72, 146
-0.998558, 361, 165, 424, 180
-0.998558, 377, 217, 408, 232
-0.998558, 73, 307, 136, 322
-0.99856, 409, 199, 472, 214
-0.99856, 393, 191, 456, 206
-0.998561, 33, 309, 96, 324
-0.998561, 185, 173, 248, 188
-0.998562, 321, 103, 384, 118
-0.998563, 1, 313, 500, 375
-0.998564, 297, 187, 360, 202
-0.998564, 233, 219, 296, 234
-0.998564, 377, 193, 392, 320
-0.998564, 369, 245, 432, 260
-0.998565, 49, 321, 112, 336
-0.998565, 61, 209, 76, 336
-0.998566, 9, 233, 72, 248
-0.998567, 257, 217, 320, 232
-0.998567, 29, 297, 60, 312
-0.998567, 81, 257, 144, 272
-0.998567, 393, 275, 456, 290
-0.998567, 73, 275, 136, 290
-0.998569, 157, 179, 188, 194
-0.998569, 157, 1, 188, 256
-0.998569, 381, 269, 412, 284
-0.99857, 349, 99, 380, 114
-0.998573, 77, 349, 108, 364
-0.998574, 393, 207, 424, 222
-0.998575, 349, 69, 380, 84
-0.998576, 401, 177, 416, 304
-0.998577, 57, 239, 88, 254
-0.998579, 393, 197, 424, 212
-0.998581, 77, 305, 108, 320
-0.998582, 117, 193, 132, 320
-0.998582, 321, 117, 352, 132
-0.998585, 81, 361, 112, 375
-0.998586, 77, 343, 108, 358
-0.998591, 343, 145, 358, 272
-0.998591, 89, 239, 120, 254
-0.998593, 341, 65, 356, 192
-0.998594, 97, 129, 352, 192
-0.998596, 77, 335, 108, 350
-0.998598, 365, 197, 396, 212
-0.998601, 353, 87, 384, 102
-0.998605, 341, 119, 372, 134
-0.998607, 389, 225, 404, 352
-0.998612, 97, 213, 128, 228
-0.998612, 37, 273, 68, 288
-0.998616, 361, 77, 392, 92
-0.998617, 53, 245, 84, 260
-0.998617, 353, 129, 384, 144
-0.998626, 47, 97, 62, 224
-0.99863, 129, 1, 160, 256
-0.998634, 49, 225, 64, 352
-0.998634, 101, 241, 116, 368
-0.998648, 357, 107, 388, 122
-0.998648, 395, 193, 410, 320
-0.998658, 353, 147, 384, 162
-0.998659, 261, 33, 292, 288
-0.99866, 55, 209, 70, 336
-0.998662, 369, 193, 384, 320
-0.998676, 197, 161, 212, 288
-0.99869, 89, 241, 104, 368
-0.998698, 355, 65, 370, 192
-0.9987, 347, 65, 362, 192
-0.998714, 273, 33, 304, 288
-0.998738, 371, 113, 386, 240
-0.998738, 257, 145, 272, 272
-0.998749, 335, 145, 350, 272
-0.998752, 59, 97, 74, 224
-0.998758, 95, 241, 110, 368
-0.998767, 87, 193, 102, 320
-0.998768, 361, 49, 376, 176
-0.998773, 393, 33, 424, 288
-0.998773, 355, 193, 370, 320
-0.998775, 251, 145, 266, 272
-0.998808, 327, 145, 342, 272
-0.998808, 363, 177, 378, 304
-0.998811, 361, 97, 376, 224
-0.998816, 373, 65, 388, 192
-0.99882, 189, 225, 204, 352
-0.998827, 241, 145, 256, 272
-0.998836, 397, 241, 412, 368
-0.998845, 123, 193, 138, 320
-0.998846, 271, 161, 286, 288
-0.998848, 461, 1, 492, 256
-0.998856, 355, 113, 370, 240
-0.998867, 37, 241, 52, 368
-0.99887, 437, 1, 468, 256
-0.998871, 263, 161, 278, 288
-0.998873, 109, 241, 124, 368
-0.998874, 377, 241, 392, 368
-0.998882, 309, 161, 324, 288
-0.998888, 75, 193, 90, 320
-0.998891, 349, 145, 364, 272
-0.998894, 187, 161, 202, 288
-0.998895, 335, 81, 350, 208
-0.998898, 367, 49, 382, 176
-0.998905, 231, 145, 246, 272
-0.998907, 205, 161, 220, 288
-0.998916, 123, 241, 138, 368
-0.998916, 319, 161, 334, 288
-0.998917, 83, 65, 98, 192
-0.998922, 377, 145, 392, 272
-0.998923, 83, 241, 98, 368
-0.998925, 405, 33, 436, 288
-0.998937, 349, 193, 364, 320
-0.99894, 385, 145, 400, 272
-0.998942, 87, 1, 102, 128
-0.998945, 67, 193, 82, 320
-0.99895, 277, 161, 292, 288
-0.998957, 213, 161, 228, 288
-0.99896, 81, 1, 96, 128
-0.998969, 403, 241, 418, 368
-0.998972, 171, 241, 186, 368
-0.998986, 329, 81, 344, 208
-0.998987, 129, 193, 144, 320
-0.998989, 81, 193, 96, 320
-0.998991, 285, 161, 300, 288
-0.998996, 91, 49, 106, 176
-0.998999, 195, 209, 210, 336
-0.999002, 407, 145, 422, 272
-0.999006, 391, 145, 406, 272
-0.999008, 67, 65, 82, 192
-0.999009, 225, 145, 240, 272
-0.99901, 409, 241, 424, 368
-0.999016, 115, 241, 130, 368
-0.999017, 303, 161, 318, 288
-0.999023, 85, 129, 116, 375
-0.999029, 43, 145, 58, 272
-0.999031, 157, 145, 172, 272
-0.999033, 69, 129, 100, 375
-0.999037, 293, 161, 308, 288
-0.999039, 183, 209, 198, 336
-0.999045, 429, 97, 460, 352
-0.999052, 53, 161, 68, 288
-0.999053, 413, 177, 428, 304
-0.999057, 181, 1, 212, 256
-0.999058, 353, 17, 368, 144
-0.999058, 165, 241, 180, 368
-0.99906, 343, 225, 358, 352
-0.999061, 449, 1, 480, 256
-0.99907, 379, 65, 394, 192
-0.999071, 219, 161, 234, 288
-0.999074, 53, 81, 68, 208
-0.999082, 225, 33, 256, 288
-0.999087, 177, 241, 192, 368
-0.99909, 361, 1, 376, 128
-0.999102, 163, 161, 178, 288
-0.999104, 101, 97, 132, 352
-0.999115, 77, 49, 92, 176
-0.999118, 413, 129, 428, 256
-0.999124, 317, 113, 332, 240
-0.999128, 201, 209, 216, 336
-0.999129, 135, 177, 150, 304
-0.999141, 169, 161, 184, 288
-0.99915, 73, 1, 88, 128
-0.999154, 1, 129, 32, 375
-0.999156, 335, 225, 350, 352
-0.999158, 141, 177, 156, 304
-0.999159, 401, 129, 416, 256
-0.999168, 147, 177, 162, 304
-0.999179, 323, 81, 338, 208
-0.999186, 345, 17, 360, 144
-0.999188, 463, 1, 478, 128
-0.999191, 217, 209, 232, 336
-0.999198, 257, 193, 272, 320
-0.999201, 267, 113, 282, 240
-0.999205, 177, 145, 192, 272
-0.999211, 231, 209, 246, 336
-0.99923, 177, 97, 304, 160
-0.999232, 369, 1, 384, 128
-0.999235, 41, 97, 56, 224
-0.999239, 59, 161, 74, 288
-0.999249, 207, 209, 222, 336
-0.999256, 485, 1, 500, 128
-0.999257, 69, 241, 84, 368
-0.999257, 121, 65, 184, 192
-0.999258, 43, 193, 58, 320
-0.999261, 31, 225, 46, 352
-0.999262, 9, 1, 40, 256
-0.99927, 247, 209, 262, 336
-0.999271, 59, 49, 74, 176
-0.999274, 67, 1, 82, 128
-0.999275, 95, 1, 110, 128
-0.999276, 77, 241, 92, 368
-0.999278, 361, 241, 376, 368
-0.99928, 169, 1, 200, 256
-0.999282, 133, 241, 148, 368
-0.999286, 417, 129, 448, 375
-0.999311, 109, 1, 140, 256
-0.999377, 129, 97, 256, 160
-0.999475, 465, 97, 496, 352
-0.999501, 17, 129, 48, 375
-0.999523, 209, 33, 240, 288
-0.999585, 441, 129, 472, 375
-0.999621, 113, 211, 128, 226
-0.999622, 403, 215, 418, 230
-0.999622, 145, 191, 160, 206
-0.999622, 385, 201, 400, 216
-0.999622, 127, 201, 142, 216
-0.999623, 345, 67, 360, 82
-0.999623, 37, 307, 52, 322
-0.999623, 79, 349, 94, 364
-0.999624, 375, 153, 390, 168
-0.999624, 53, 295, 68, 310
-0.999624, 389, 183, 404, 198
-0.999626, 105, 297, 120, 312
-0.999626, 191, 265, 206, 280
-0.999626, 75, 227, 90, 242
-0.999626, 75, 247, 90, 262
-0.999626, 415, 207, 430, 222
-0.999626, 391, 197, 406, 212
-0.999627, 91, 73, 106, 88
-0.999627, 389, 261, 404, 276
-0.999627, 149, 289, 164, 304
-0.999628, 379, 85, 394, 100
-0.999628, 363, 129, 378, 144
-0.999629, 65, 103, 80, 118
-0.999629, 347, 99, 362, 114
-0.99963, 139, 291, 154, 306
-0.99963, 287, 217, 302, 232
-0.999631, 345, 79, 360, 94
-0.999631, 363, 229, 378, 244
-0.999633, 409, 263, 424, 278
-0.999634, 369, 221, 384, 236
-0.999635, 81, 245, 96, 260
-0.999635, 375, 293, 390, 308
-0.999636, 129, 333, 144, 348
-0.999636, 91, 61, 106, 76
-0.999637, 353, 219, 368, 234
-0.999638, 399, 221, 414, 236
-0.999638, 83, 279, 98, 294
-0.999638, 407, 197, 422, 212
-0.999639, 159, 287, 174, 302
-0.999639, 391, 283, 406, 298
-0.999641, 331, 93, 346, 108
-0.999641, 61, 231, 76, 246
-0.999641, 93, 239, 108, 254
-0.999641, 331, 117, 346, 132
-0.999642, 87, 241, 102, 256
-0.999644, 341, 85, 356, 100
-0.999644, 55, 289, 70, 304
-0.999646, 341, 97, 356, 112
-0.999649, 75, 239, 90, 254
-0.999649, 355, 123, 370, 138
-0.999649, 347, 155, 362, 170
-0.99965, 373, 137, 388, 152
-0.999651, 397, 187, 412, 202
-0.999651, 89, 223, 104, 238
-0.999651, 137, 195, 152, 210
-0.999651, 131, 291, 146, 306
-0.999652, 123, 257, 138, 272
-0.999654, 379, 261, 394, 276
-0.999654, 363, 117, 378, 132
-0.999655, 167, 283, 182, 298
-0.999655, 337, 119, 352, 134
-0.999655, 377, 197, 392, 212
-0.999656, 97, 307, 112, 322
-0.999657, 355, 213, 370, 228
-0.999658, 341, 161, 356, 176
-0.99966, 321, 233, 336, 248
-0.99966, 181, 275, 196, 290
-0.999661, 359, 81, 374, 96
-0.999661, 33, 301, 48, 316
-0.999662, 153, 171, 168, 186
-0.999662, 347, 129, 362, 144
-0.999664, 275, 219, 290, 234
-0.999664, 87, 355, 102, 370
-0.999665, 387, 217, 402, 232
-0.999665, 327, 181, 342, 196
-0.999665, 383, 269, 398, 284
-0.999665, 353, 105, 368, 120
-0.999665, 401, 277, 416, 292
-0.999668, 407, 243, 422, 258
-0.999668, 385, 289, 400, 304
-0.999669, 33, 285, 48, 300
-0.999669, 173, 281, 188, 296
-0.999669, 117, 293, 132, 308
-0.99967, 57, 241, 72, 256
-0.99967, 85, 77, 100, 92
-0.999672, 409, 213, 424, 228
-0.999674, 101, 237, 116, 252
-0.999674, 367, 81, 382, 96
-0.999675, 101, 211, 116, 226
-0.999675, 111, 295, 126, 310
-0.999676, 365, 67, 380, 82
-0.999676, 355, 111, 370, 126
-0.999677, 77, 91, 92, 106
-0.999677, 375, 75, 390, 90
-0.99968, 73, 97, 88, 112
-0.999682, 361, 87, 376, 102
-0.999682, 99, 301, 114, 316
-0.999684, 349, 121, 364, 136
-0.999685, 371, 107, 386, 122
-0.999689, 125, 291, 140, 306
-0.999689, 377, 99, 392, 114
-0.999691, 405, 271, 420, 286
-0.999692, 373, 161, 388, 176
-0.999692, 359, 101, 374, 116
-0.999695, 377, 225, 392, 240
-0.999695, 369, 73, 384, 88
-0.999701, 367, 91, 382, 106
-0.999702, 365, 101, 380, 116
-0.999706, 371, 117, 386, 132
-0.999707, 365, 109, 380, 124
-0.999707, 341, 91, 356, 106
-0.999707, 405, 191, 420, 206
-0.999707, 393, 229, 408, 244
-0.999712, 81, 85, 96, 100
-0.999714, 323, 215, 338, 230
-0.999715, 161, 177, 176, 192
-0.999719, 373, 85, 388, 100
-0.99972, 159, 171, 174, 186
-0.99972, 381, 283, 396, 298
-0.99972, 355, 87, 370, 102
-0.999721, 349, 89, 364, 104
-0.999723, 353, 67, 368, 82
-0.999724, 327, 169, 342, 184
-0.999725, 325, 117, 340, 132
-0.999725, 343, 119, 358, 134
-0.999733, 369, 195, 384, 210
-0.999741, 91, 67, 106, 82
-0.999742, 83, 361, 98, 375
-0.999754, 371, 99, 386, 114
-0.999793, 375, 91, 390, 106
-0.999797, 453, 129, 484, 375
-0.999842, 193, 33, 224, 288
-1.00115, 129, 49, 256, 176
-1.00206, 97, 97, 160, 224
-1.00473, 97, 49, 160, 176
-1.00576, 153, 49, 216, 176
-1.00643, 201, 49, 264, 176
