1944
-0.27796, 1, 65, 500, 320
-0.310431, 1, 1, 500, 375
-0.441646, 193, 1, 448, 375
-0.476484, 33, 1, 288, 375
-0.504317, 193, 65, 448, 320
-0.538281, 97, 33, 352, 288
-0.618987, 97, 129, 352, 375
-0.6546, 1, 1, 256, 256
-0.698379, 1, 129, 256, 375
-0.828003, 209, 65, 336, 320
-0.834747, 305, 65, 432, 320
-0.844278, 209, 1, 336, 375
-0.844813, 1, 161, 500, 288
-0.851668, 257, 33, 384, 288
-0.857355, 273, 1, 400, 375
-0.858426, 129, 33, 256, 288
-0.862442, 1, 1, 128, 375
-0.866913, 369, 65, 496, 320
-0.867114, 65, 1, 192, 375
-0.869354, 369, 1, 496, 375
-0.870089, 145, 1, 272, 375
-0.874304, 1, 81, 500, 208
-0.87623, 257, 129, 384, 375
-0.876517, 321, 1, 448, 375
-0.879463, 145, 129, 272, 375
-0.884949, 1, 209, 500, 336
-0.886979, 81, 1, 208, 256
-0.889842, 1, 1, 128, 256
-0.890799, 17, 129, 144, 375
-0.89537, 257, 81, 500, 208
-0.897985, 1, 17, 500, 144
-0.900941, 81, 129, 208, 375
-0.901999, 193, 161, 448, 288
-0.905566, 161, 113, 416, 240
-0.915024, 1, 177, 256, 304
-0.916185, 161, 49, 416, 176
-0.918264, 241, 65, 368, 192
-0.918593, 305, 145, 432, 272
-0.921772, 129, 209, 384, 336
-0.922309, 305, 81, 432, 208
-0.923784, 289, 161, 352, 288
-0.924577, 193, 129, 320, 256
-0.926388, 97, 1, 352, 128
-0.929016, 329, 65, 392, 192
-0.929574, 257, 81, 320, 208
-0.930258, 65, 49, 320, 176
-0.930265, 65, 97, 320, 224
-0.93195, 97, 161, 352, 288
-0.933531, 1, 225, 256, 352
-0.933735, 281, 33, 344, 160
-0.93407, 257, 161, 384, 288
-0.934183, 9, 177, 72, 304
-0.934258, 233, 145, 296, 272
-0.93551, 241, 1, 368, 128
-0.936866, 209, 177, 336, 304
-0.937368, 257, 225, 500, 352
-0.937593, 329, 73, 392, 136
-0.9378, 289, 73, 352, 136
-0.93855, 57, 193, 120, 320
-0.939469, 401, 161, 464, 288
-0.939484, 241, 113, 368, 240
-0.939546, 313, 161, 376, 288
-0.939768, 1, 161, 128, 288
-0.940447, 233, 97, 296, 224
-0.94073, 353, 161, 480, 288
-0.941117, 209, 225, 336, 352
-0.941125, 305, 97, 368, 224
-0.941394, 161, 49, 288, 176
-0.94218, 353, 145, 416, 272
-0.942768, 1, 209, 128, 336
-0.943071, 81, 17, 208, 144
-0.943338, 49, 209, 176, 336
-0.943456, 217, 225, 280, 352
-0.943472, 353, 97, 480, 224
-0.943526, 129, 1, 256, 128
-0.943561, 129, 177, 256, 304
-0.944312, 329, 113, 392, 240
-0.944806, 1, 1, 256, 128
-0.94503, 81, 177, 144, 304
-0.945173, 401, 177, 464, 240
-0.945184, 9, 225, 72, 352
-0.94561, 193, 193, 256, 256
-0.945668, 289, 169, 352, 232
-0.94581, 201, 113, 264, 240
-0.946716, 257, 33, 500, 160
-0.946796, 281, 113, 344, 240
-0.947155, 193, 225, 256, 352
-0.947378, 145, 225, 272, 352
-0.947729, 353, 65, 416, 192
-0.947889, 177, 1, 304, 128
-0.948029, 265, 81, 328, 144
-0.948215, 305, 49, 368, 176
-0.948373, 265, 177, 328, 304
-0.948621, 305, 193, 432, 320
-0.948772, 297, 49, 360, 112
-0.949087, 289, 209, 352, 336
-0.949495, 257, 17, 320, 144
-0.949653, 345, 169, 408, 232
-0.949668, 169, 1, 232, 128
-0.949759, 113, 193, 176, 320
-0.949997, 257, 225, 320, 352
-0.950776, 137, 1, 200, 128
-0.951156, 265, 185, 328, 248
-0.95157, 313, 169, 376, 232
-0.951585, 225, 49, 288, 176
-0.951715, 257, 209, 384, 336
-0.951774, 105, 1, 168, 128
-0.952418, 377, 177, 440, 304
-0.952562, 289, 1, 416, 128
-0.953091, 153, 9, 216, 72
-0.953354, 193, 177, 256, 304
-0.953431, 33, 161, 96, 288
-0.954287, 33, 225, 96, 352
-0.954615, 9, 217, 72, 280
-0.95485, 233, 113, 296, 176
-0.955386, 353, 49, 480, 176
-0.955397, 241, 281, 304, 344
-0.955577, 433, 97, 496, 224
-0.95629, 273, 1, 336, 64
-0.957147, 361, 193, 424, 256
-0.957401, 97, 225, 224, 352
-0.957422, 97, 129, 224, 256
-0.957505, 233, 89, 296, 152
-0.95757, 49, 161, 176, 288
-0.957623, 257, 129, 320, 256
-0.957762, 1, 97, 64, 224
-0.957778, 57, 233, 120, 296
-0.957823, 385, 81, 448, 208
-0.957837, 1, 113, 128, 240
-0.958108, 265, 161, 328, 224
-0.958434, 265, 57, 328, 120
-0.958607, 113, 1, 176, 64
-0.958721, 153, 145, 216, 272
-0.958838, 185, 49, 248, 176
-0.958903, 17, 241, 80, 304
-0.959029, 385, 153, 448, 216
-0.959278, 425, 161, 488, 224
-0.959465, 57, 17, 120, 144
-0.959498, 33, 33, 160, 160
-0.959649, 361, 81, 424, 144
-0.959731, 89, 241, 152, 368
-0.959985, 89, 185, 152, 248
-0.960471, 425, 145, 488, 272
-0.960623, 241, 305, 304, 368
-0.960631, 33, 201, 96, 264
-0.960832, 153, 97, 216, 224
-0.961231, 209, 121, 272, 184
-0.961239, 305, 145, 368, 208
-0.961246, 289, 193, 352, 256
-0.96132, 273, 73, 400, 136
-0.961331, 241, 65, 304, 320
-0.96196, 233, 177, 296, 240
-0.962358, 233, 1, 296, 128
-0.962656, 265, 257, 328, 320
-0.962661, 305, 1, 368, 128
-0.962668, 281, 129, 344, 375
-0.962694, 89, 129, 152, 256
-0.96283, 241, 201, 304, 264
-0.963217, 289, 169, 416, 232
-0.963244, 209, 241, 272, 304
-0.963327, 145, 113, 272, 240
-0.963459, 209, 1, 272, 128
-0.963517, 313, 209, 376, 336
-0.963584, 265, 105, 328, 168
-0.963751, 377, 129, 440, 256
-0.963975, 353, 193, 416, 320
-0.964061, 121, 25, 184, 88
-0.964159, 57, 201, 120, 264
-0.964183, 305, 17, 336, 144
-0.964282, 317, 73, 348, 136
-0.964394, 289, 97, 352, 160
-0.964755, 233, 65, 296, 128
-0.964833, 265, 289, 328, 352
-0.965088, 273, 33, 336, 96
-0.965111, 1, 17, 64, 144
-0.965493, 33, 17, 96, 144
-0.965554, 425, 185, 488, 248
-0.965952, 177, 9, 240, 72
-0.965971, 25, 97, 88, 224
-0.966151, 281, 33, 344, 288
-0.96625, 217, 97, 280, 352
-0.966304, 217, 273, 280, 336
-0.966391, 321, 97, 384, 160
-0.966593, 153, 177, 216, 240
-0.966718, 225, 97, 352, 160
-0.96683, 313, 193, 376, 256
-0.966882, 313, 161, 344, 224
-0.967078, 353, 73, 384, 136
-0.967351, 329, 73, 360, 136
-0.967355, 297, 73, 328, 136
-0.967537, 297, 25, 360, 88
-0.967643, 17, 177, 80, 240
-0.967769, 337, 145, 400, 208
-0.967836, 337, 177, 464, 240
-0.967857, 225, 225, 256, 352
-0.967966, 129, 49, 192, 176
-0.96797, 341, 73, 372, 136
-0.968057, 81, 1, 144, 128
-0.968057, 209, 97, 272, 160
-0.968299, 201, 305, 264, 368
-0.968482, 293, 185, 324, 248
-0.968518, 297, 1, 360, 64
-0.968684, 153, 49, 216, 176
-0.968715, 49, 81, 176, 208
-0.968771, 337, 177, 368, 240
-0.968806, 285, 65, 316, 128
-0.968861, 337, 193, 400, 256
-0.968886, 313, 145, 344, 272
-0.96895, 57, 241, 120, 368
-0.969032, 393, 201, 456, 264
-0.969106, 369, 209, 496, 336
-0.969214, 305, 241, 432, 368
-0.96938, 13, 177, 44, 304
-0.969386, 265, 137, 328, 200
-0.969418, 273, 313, 336, 375
-0.969515, 169, 193, 232, 320
-0.969557, 57, 145, 120, 272
-0.969693, 209, 185, 336, 248
-0.969752, 225, 305, 352, 368
-0.969767, 97, 217, 160, 280
-0.969885, 81, 1, 144, 64
-0.969893, 297, 177, 328, 304
-0.969897, 153, 97, 216, 160
-0.969916, 281, 225, 344, 288
-0.969963, 321, 33, 384, 288
-0.96997, 381, 169, 412, 232
-0.970099, 113, 185, 176, 248
-0.970194, 177, 1, 208, 64
-0.970419, 353, 65, 384, 192
-0.970455, 329, 17, 392, 144
-0.970543, 185, 113, 248, 176
-0.970712, 321, 49, 384, 112
-0.970718, 241, 257, 304, 320
-0.970775, 317, 65, 348, 192
-0.970907, 281, 185, 312, 248
-0.971103, 193, 169, 256, 232
-0.971294, 261, 97, 292, 160
-0.971344, 261, 81, 292, 208
-0.971365, 233, 153, 296, 216
-0.971403, 57, 257, 120, 320
-0.971416, 113, 145, 176, 272
-0.971476, 273, 97, 400, 160
-0.97152, 13, 209, 44, 272
-0.97152, 361, 65, 424, 320
-0.971541, 273, 73, 304, 136
-0.971682, 417, 177, 448, 240
-0.971693, 321, 1, 352, 128
-0.971736, 129, 97, 192, 224
-0.97177, 241, 1, 304, 64
-0.97188, 377, 225, 440, 352
-0.971934, 217, 209, 280, 272
-0.971965, 121, 1, 184, 256
-0.971996, 209, 49, 272, 112
-0.97215, 249, 33, 312, 96
-0.972169, 325, 161, 356, 288
-0.972184, 201, 1, 264, 256
-0.972216, 401, 65, 464, 320
-0.972485, 245, 65, 276, 192
-0.972488, 1, 265, 64, 328
-0.97251, 301, 1, 332, 64
-0.972593, 301, 81, 332, 208
-0.972614, 245, 113, 276, 176
-0.97262, 177, 33, 240, 288
-0.97275, 321, 73, 448, 136
-0.972813, 297, 313, 360, 375
-0.972836, 361, 145, 424, 208
-0.972884, 97, 241, 160, 304
-0.972905, 289, 1, 320, 128
-0.972967, 433, 65, 496, 320
-0.973077, 289, 49, 320, 176
-0.973109, 345, 105, 408, 168
-0.973156, 333, 65, 364, 192
-0.973164, 193, 161, 320, 224
-0.973204, 261, 65, 292, 128
-0.973262, 301, 49, 332, 112
-0.973327, 409, 81, 472, 208
-0.973329, 25, 273, 88, 336
-0.973439, 209, 73, 272, 136
-0.973451, 193, 281, 320, 344
-0.973452, 225, 73, 352, 136
-0.973502, 153, 145, 216, 208
-0.973552, 289, 289, 352, 352
-0.973619, 357, 169, 388, 232
-0.973691, 1, 249, 128, 312
-0.9737, 121, 241, 184, 368
-0.973725, 185, 1, 216, 128
-0.973745, 317, 49, 348, 112
-0.973745, 301, 161, 332, 224
-0.97379, 273, 81, 304, 208
-0.973901, 257, 193, 384, 256
-0.974142, 145, 1, 272, 64
-0.974158, 241, 161, 368, 224
-0.974199, 313, 193, 344, 256
-0.974244, 1, 177, 32, 304
-0.974247, 177, 305, 240, 368
-0.974361, 57, 233, 88, 296
-0.97439, 185, 33, 248, 96
-0.974394, 301, 25, 332, 88
-0.974443, 221, 193, 252, 256
-0.974454, 325, 161, 356, 224
-0.974454, 177, 25, 304, 88
-0.97484, 209, 209, 336, 272
-0.97497, 201, 145, 264, 208
-0.974989, 397, 169, 428, 232
-0.974998, 365, 65, 396, 192
-0.975041, 241, 225, 304, 288
-0.975056, 185, 89, 248, 152
-0.975076, 393, 89, 456, 152
-0.975253, 177, 121, 304, 184
-0.975295, 177, 97, 240, 224
-0.975309, 13, 241, 44, 368
-0.975357, 21, 177, 52, 240
-0.975362, 33, 217, 160, 280
-0.975403, 221, 177, 252, 304
-0.975461, 129, 193, 256, 256
-0.975509, 313, 193, 344, 320
-0.975512, 125, 1, 156, 64
-0.975558, 145, 33, 208, 96
-0.975561, 285, 89, 316, 152
-0.975583, 33, 25, 96, 88
-0.97565, 425, 193, 488, 320
-0.975652, 397, 193, 428, 256
-0.975701, 305, 201, 432, 264
-0.975801, 417, 145, 448, 272
-0.97581, 205, 177, 236, 304
-0.97589, 13, 249, 44, 312
-0.975974, 337, 145, 368, 272
-0.976065, 201, 193, 232, 256
-0.976093, 177, 225, 240, 288
-0.976096, 65, 97, 128, 224
-0.976121, 305, 145, 432, 208
-0.976145, 57, 129, 120, 375
-0.976154, 113, 153, 176, 216
-0.976226, 97, 25, 160, 88
-0.976261, 113, 65, 240, 192
-0.976278, 65, 1, 192, 64
-0.976294, 257, 281, 384, 344
-0.976318, 285, 41, 316, 104
-0.976475, 241, 49, 368, 112
-0.97685, 325, 113, 356, 240
-0.976899, 105, 177, 136, 304
-0.976937, 241, 17, 368, 80
-0.976938, 97, 49, 160, 176
-0.977013, 37, 241, 68, 304
-0.977036, 129, 105, 192, 168
-0.97714, 57, 169, 120, 232
-0.977207, 37, 209, 68, 336
-0.977293, 417, 97, 480, 160
-0.97731, 253, 273, 284, 336
-0.977417, 129, 177, 160, 304
-0.977424, 197, 1, 228, 128
-0.977451, 137, 1, 168, 128
-0.977606, 1, 185, 32, 248
-0.977672, 281, 1, 312, 64
-0.977722, 153, 121, 216, 184
-0.977735, 57, 297, 120, 360
-0.977784, 273, 97, 304, 160
-0.977876, 269, 209, 300, 336
-0.977898, 277, 129, 308, 256
-0.977948, 141, 1, 172, 64
-0.978015, 25, 153, 88, 216
-0.978024, 117, 193, 148, 320
-0.978025, 1, 129, 64, 192
-0.978049, 365, 73, 396, 136
-0.978071, 369, 217, 432, 280
-0.978077, 237, 129, 268, 256
-0.978088, 353, 57, 416, 120
-0.978159, 273, 161, 304, 224
-0.978174, 401, 177, 432, 304
-0.9782, 337, 241, 400, 368
-0.978207, 169, 57, 232, 120
-0.978236, 369, 153, 496, 216
-0.978271, 81, 225, 112, 288
-0.978313, 173, 1, 204, 128
-0.978348, 97, 1, 160, 256
-0.978437, 329, 97, 360, 160
-0.97845, 177, 97, 304, 160
-0.978502, 241, 121, 368, 184
-0.978514, 221, 241, 252, 304
-0.978522, 313, 281, 376, 344
-0.978526, 197, 1, 228, 64
-0.97855, 153, 65, 216, 320
-0.978561, 137, 193, 200, 320
-0.978631, 237, 89, 268, 152
-0.978683, 101, 185, 132, 248
-0.978697, 1, 1, 64, 256
-0.978703, 337, 153, 368, 216
-0.97871, 97, 25, 224, 88
-0.978723, 81, 193, 112, 320
-0.978735, 389, 161, 420, 288
-0.978815, 385, 129, 448, 192
-0.97882, 425, 209, 488, 272
-0.978832, 1, 49, 64, 112
-0.978921, 57, 25, 120, 88
-0.97894, 1, 153, 64, 216
-0.978947, 265, 185, 296, 248
-0.978951, 321, 97, 448, 160
-0.978997, 129, 185, 160, 248
-0.979, 25, 209, 56, 272
-0.979014, 289, 249, 352, 312
-0.979017, 89, 265, 152, 328
-0.979048, 25, 225, 56, 352
-0.979051, 193, 241, 320, 304
-0.979061, 437, 177, 468, 240
-0.979069, 353, 201, 480, 264
-0.979152, 149, 17, 180, 144
-0.979168, 217, 25, 280, 88
-0.979169, 297, 289, 328, 352
-0.979169, 253, 129, 284, 256
-0.979211, 89, 161, 152, 224
-0.979224, 117, 185, 148, 248
-0.979296, 9, 25, 72, 88
-0.979306, 289, 97, 320, 224
-0.979307, 309, 97, 340, 160
-0.979384, 157, 17, 188, 80
-0.979386, 37, 217, 68, 280
-0.979413, 197, 25, 228, 88
-0.979536, 209, 1, 272, 64
-0.979628, 281, 225, 312, 352
-0.979648, 145, 297, 272, 360
-0.979684, 213, 97, 244, 160
-0.979743, 193, 281, 256, 344
-0.979798, 381, 193, 412, 256
-0.979808, 249, 89, 280, 152
-0.979915, 125, 129, 156, 256
-0.980001, 1, 193, 128, 256
-0.980003, 429, 161, 460, 288
-0.980058, 9, 129, 72, 375
-0.980089, 337, 193, 368, 320
-0.980097, 249, 241, 280, 368
-0.980115, 361, 17, 424, 144
-0.980131, 193, 129, 256, 375
-0.980138, 233, 113, 264, 176
-0.980157, 113, 1, 144, 64
-0.980158, 113, 217, 240, 280
-0.980167, 233, 49, 264, 176
-0.980182, 381, 65, 412, 192
-0.980199, 225, 113, 256, 240
-0.980255, 57, 209, 88, 336
-0.980307, 169, 201, 232, 264
-0.98031, 9, 97, 40, 224
-0.980335, 329, 49, 360, 112
-0.980347, 277, 17, 308, 144
-0.980376, 357, 145, 388, 272
-0.980413, 333, 17, 364, 144
-0.980473, 289, 161, 320, 224
-0.980571, 93, 177, 124, 304
-0.980592, 1, 25, 128, 88
-0.980607, 169, 241, 232, 368
-0.980649, 273, 49, 304, 112
-0.980729, 217, 25, 248, 88
-0.980808, 469, 177, 500, 240
-0.980913, 401, 65, 464, 128
-0.980927, 301, 129, 332, 256
-0.980937, 129, 105, 256, 168
-0.980969, 317, 9, 348, 72
-0.980973, 365, 145, 396, 208
-0.980999, 145, 73, 208, 136
-0.9811, 25, 249, 56, 312
-0.981147, 217, 1, 280, 375
-0.981153, 161, 33, 192, 160
-0.981158, 377, 145, 408, 272
-0.981234, 49, 1, 112, 256
-0.981354, 425, 137, 488, 200
-0.98137, 41, 81, 104, 144
-0.981452, 1, 1, 32, 128
-0.981456, 17, 73, 80, 136
-0.981488, 129, 209, 192, 272
-0.981503, 297, 121, 360, 184
-0.981585, 145, 193, 176, 256
-0.981591, 265, 33, 296, 160
-0.981678, 101, 249, 132, 312
-0.981701, 233, 177, 264, 304
-0.981715, 305, 129, 368, 375
-0.981726, 401, 225, 464, 288
-0.981736, 397, 81, 428, 208
-0.981944, 401, 209, 464, 336
-0.981955, 53, 209, 84, 272
-0.982007, 305, 313, 336, 375
-0.982051, 145, 169, 272, 232
-0.982055, 297, 97, 328, 160
-0.982078, 377, 57, 440, 120
-0.982119, 65, 257, 192, 320
-0.982134, 25, 161, 56, 288
-0.982181, 289, 121, 416, 184
-0.982214, 177, 65, 304, 128
-0.982277, 449, 185, 480, 248
-0.982364, 369, 89, 496, 152
-0.982421, 93, 217, 124, 280
-0.982429, 413, 153, 444, 216
-0.98243, 89, 97, 152, 352
-0.98248, 369, 105, 432, 168
-0.982492, 193, 1, 320, 64
-0.982535, 25, 121, 88, 184
-0.982537, 33, 129, 96, 375
-0.98254, 381, 81, 412, 144
-0.982562, 141, 161, 172, 288
-0.982659, 49, 193, 176, 256
-0.982668, 125, 1, 156, 128
-0.982751, 221, 121, 252, 184
-0.982777, 101, 225, 132, 352
-0.982778, 289, 49, 416, 112
-0.982835, 17, 1, 80, 375
-0.982836, 261, 41, 292, 104
-0.982843, 273, 1, 336, 375
-0.982871, 69, 225, 100, 288
-0.982875, 1, 225, 32, 352
-0.982892, 237, 313, 268, 375
-0.982897, 337, 201, 368, 264
-0.982909, 369, 169, 400, 232
-0.983041, 161, 217, 288, 280
-0.983075, 161, 1, 224, 375
-0.983115, 321, 25, 384, 88
-0.983137, 57, 145, 88, 272
-0.98324, 385, 145, 416, 208
-0.983244, 241, 1, 304, 375
-0.983259, 353, 129, 480, 192
-0.983299, 253, 137, 284, 200
-0.983305, 289, 241, 416, 304
-0.983315, 401, 217, 432, 280
-0.983377, 133, 25, 164, 88
-0.983435, 281, 265, 312, 328
-0.983464, 241, 201, 272, 264
-0.98349, 49, 1, 112, 375
-0.98353, 225, 289, 256, 352
-0.983543, 57, 145, 120, 208
-0.983562, 109, 225, 140, 288
-0.983569, 49, 25, 176, 88
-0.983577, 237, 49, 268, 112
-0.983582, 325, 185, 356, 248
-0.983588, 17, 169, 144, 232
-0.983749, 33, 97, 64, 224
-0.983752, 1, 217, 32, 280
-0.983804, 89, 193, 120, 256
-0.983877, 145, 241, 272, 304
-0.983885, 237, 225, 268, 288
-0.984003, 369, 193, 400, 320
-0.984015, 145, 273, 272, 336
-0.984071, 37, 161, 68, 288
-0.984086, 437, 201, 468, 264
-0.984088, 101, 17, 132, 80
-0.984151, 177, 49, 208, 176
-0.984173, 417, 201, 448, 264
-0.984204, 213, 225, 244, 352
-0.984249, 217, 49, 248, 112
-0.984275, 209, 1, 240, 128
-0.984321, 9, 161, 40, 224
-0.984347, 469, 97, 500, 224
-0.984351, 21, 113, 52, 240
-0.984431, 73, 1, 136, 375
-0.98448, 237, 1, 268, 128
-0.984517, 433, 81, 464, 208
-0.984537, 265, 161, 296, 288
-0.984567, 281, 177, 312, 304
-0.984591, 261, 161, 292, 224
-0.984646, 301, 225, 332, 352
-0.984649, 113, 129, 176, 375
-0.984668, 61, 257, 92, 320
-0.98467, 445, 97, 476, 224
-0.98467, 225, 217, 256, 280
-0.984691, 177, 25, 208, 88
-0.984821, 349, 193, 380, 256
-0.984833, 401, 1, 464, 375
-0.984857, 241, 153, 272, 216
-0.9849, 117, 153, 148, 216
-0.984935, 201, 169, 232, 232
-0.984955, 433, 153, 464, 216
-0.984976, 25, 1, 88, 256
-0.984998, 401, 129, 432, 256
-0.985026, 209, 1, 240, 64
-0.985057, 33, 17, 64, 144
-0.98508, 261, 17, 292, 80
-0.985092, 17, 273, 144, 336
-0.985106, 65, 17, 96, 144
-0.985185, 469, 153, 500, 216
-0.985194, 361, 193, 392, 256
-0.985201, 265, 281, 296, 344
-0.985255, 253, 17, 284, 144
-0.985313, 193, 49, 224, 176
-0.985389, 317, 137, 348, 200
-0.985413, 349, 49, 380, 112
-0.985435, 145, 25, 176, 88
-0.985518, 97, 169, 224, 232
-0.985585, 69, 209, 100, 336
-0.985625, 369, 1, 432, 375
-0.985657, 145, 145, 272, 208
-0.985733, 365, 97, 396, 160
-0.985745, 441, 161, 472, 288
-0.985757, 33, 105, 160, 168
-0.985813, 409, 81, 440, 208
-0.985909, 145, 241, 208, 368
-0.985911, 197, 121, 228, 184
-0.985936, 137, 113, 168, 240
-0.985963, 201, 225, 232, 352
-0.985963, 65, 201, 96, 264
-0.98599, 289, 305, 416, 368
-0.986027, 229, 25, 260, 88
-0.986044, 37, 177, 68, 240
-0.986078, 349, 193, 380, 320
-0.986097, 113, 129, 144, 256
-0.986109, 129, 49, 256, 112
-0.986133, 97, 129, 128, 256
-0.98617, 209, 305, 240, 368
-0.986373, 1, 81, 128, 144
-0.986392, 33, 145, 160, 208
-0.986417, 305, 1, 368, 375
-0.986444, 385, 33, 448, 160
-0.986507, 1, 1, 128, 64
-0.986563, 345, 17, 376, 144
-0.986581, 193, 1, 256, 375
-0.986644, 337, 225, 464, 288
-0.986699, 105, 1, 168, 375
-0.986845, 45, 97, 76, 224
-0.986977, 241, 257, 368, 320
-0.98703, 213, 97, 244, 224
-0.987048, 389, 209, 420, 336
-0.987095, 49, 81, 176, 144
-0.987122, 345, 1, 408, 375
-0.987247, 289, 81, 352, 112
-0.987335, 265, 89, 328, 120
-0.987421, 33, 297, 160, 360
-0.987576, 205, 49, 236, 176
-0.987582, 317, 241, 348, 368
-0.987606, 257, 169, 500, 232
-0.987618, 81, 281, 208, 344
-0.987646, 49, 17, 80, 144
-0.987704, 189, 145, 220, 272
-0.987733, 129, 1, 192, 375
-0.987759, 89, 1, 120, 128
-0.987804, 225, 193, 480, 256
-0.987813, 21, 17, 52, 144
-0.987849, 305, 281, 432, 344
-0.987881, 201, 97, 232, 224
-0.987888, 225, 1, 256, 128
-0.98792, 69, 161, 100, 288
-0.987977, 97, 145, 224, 208
-0.988041, 321, 93, 384, 124
-0.988043, 329, 77, 392, 108
-0.988076, 237, 225, 268, 352
-0.988082, 145, 209, 176, 336
-0.988088, 289, 25, 416, 88
-0.9881, 369, 177, 432, 208
-0.988121, 413, 193, 444, 320
-0.988146, 457, 97, 488, 224
-0.988207, 257, 217, 384, 280
-0.988225, 345, 177, 408, 208
-0.988228, 157, 97, 188, 224
-0.988271, 273, 189, 336, 220
-0.988339, 217, 49, 248, 176
-0.988472, 113, 241, 144, 368
-0.988477, 1, 193, 500, 256
-0.988479, 233, 97, 296, 128
-0.988495, 305, 181, 368, 212
-0.988524, 1, 49, 128, 112
-0.988615, 469, 161, 500, 288
-0.988623, 113, 1, 144, 128
-0.98864, 193, 197, 256, 228
-0.988657, 1, 185, 256, 248
-0.988694, 77, 17, 108, 144
-0.988736, 289, 97, 352, 128
-0.98888, 265, 101, 328, 132
-0.988931, 161, 161, 416, 224
-0.988934, 289, 69, 352, 100
-0.98901, 225, 81, 480, 144
-0.989024, 393, 189, 456, 220
-0.989027, 9, 221, 72, 252
-0.989066, 81, 105, 208, 168
-0.989136, 57, 97, 88, 224
-0.989163, 369, 65, 496, 128
-0.989229, 241, 301, 304, 332
-0.989244, 361, 193, 424, 224
-0.989255, 129, 81, 256, 144
-0.989298, 233, 193, 296, 224
-0.989302, 401, 177, 464, 208
-0.989309, 145, 13, 208, 44
-0.989338, 33, 241, 96, 272
-0.989347, 73, 1, 136, 256
-0.989356, 181, 97, 212, 224
-0.989386, 101, 1, 132, 128
-0.989465, 385, 165, 448, 196
-0.989481, 297, 169, 360, 200
-0.989489, 225, 121, 288, 152
-0.989532, 177, 41, 240, 72
-0.989541, 81, 49, 208, 112
-0.989548, 125, 49, 156, 176
-0.989559, 241, 85, 304, 116
-0.989573, 257, 69, 320, 100
-0.989641, 65, 249, 128, 280
-0.989668, 125, 241, 156, 368
-0.989686, 425, 1, 488, 375
-0.9897, 337, 189, 400, 220
-0.98972, 217, 133, 280, 164
-0.989749, 273, 33, 336, 64
-0.989756, 353, 77, 416, 108
-0.989768, 89, 249, 152, 280
-0.989789, 401, 201, 464, 232
-0.9898, 217, 305, 280, 336
-0.989824, 297, 29, 360, 60
-0.989829, 265, 313, 328, 344
-0.989845, 313, 61, 376, 92
-0.989857, 425, 177, 488, 208
-0.989876, 225, 109, 288, 140
-0.98989, 169, 29, 232, 60
-0.989899, 121, 9, 184, 40
-0.989911, 145, 25, 208, 56
-0.989925, 289, 53, 352, 84
-0.989949, 209, 93, 272, 124
-0.989994, 425, 161, 488, 192
-0.990009, 193, 309, 256, 340
-0.990054, 17, 185, 80, 216
-0.990069, 65, 217, 320, 280
-0.99014, 193, 209, 256, 240
-0.990158, 257, 113, 320, 144
-0.990233, 273, 297, 336, 328
-0.990251, 233, 205, 296, 236
-0.990253, 241, 289, 304, 320
-0.990256, 57, 237, 120, 268
-0.990279, 145, 41, 208, 72
-0.990294, 241, 313, 304, 344
-0.990302, 253, 193, 284, 320
-0.990309, 417, 33, 480, 160
-0.990311, 89, 25, 152, 56
-0.990356, 193, 125, 256, 156
-0.990358, 1, 233, 64, 264
-0.990358, 265, 13, 328, 44
-0.990379, 257, 45, 320, 76
-0.990387, 17, 201, 80, 232
-0.990401, 273, 169, 336, 200
-0.990439, 89, 197, 152, 228
-0.990472, 233, 73, 296, 104
-0.990477, 177, 9, 240, 40
-0.990489, 425, 193, 488, 224
-0.990492, 265, 201, 328, 232
-0.990511, 265, 285, 328, 316
-0.990517, 369, 209, 432, 240
-0.990536, 145, 1, 208, 32
-0.990545, 329, 109, 392, 140
-0.990553, 297, 41, 360, 72
-0.990566, 33, 213, 96, 244
-0.990567, 161, 57, 416, 120
-0.990572, 201, 41, 264, 72
-0.9906, 17, 253, 80, 284
-0.990611, 169, 97, 200, 224
-0.990631, 65, 225, 128, 256
-0.990647, 289, 205, 352, 236
-0.990656, 313, 193, 376, 224
-0.990695, 57, 265, 120, 296
-0.9907, 265, 57, 328, 88
-0.990703, 153, 185, 216, 216
-0.990743, 377, 85, 440, 116
-0.990769, 361, 165, 424, 196
-0.990778, 289, 13, 352, 44
-0.990794, 217, 149, 280, 180
-0.990796, 33, 29, 96, 60
-0.990803, 113, 21, 176, 52
-0.990803, 233, 217, 296, 248
-0.990813, 49, 197, 112, 228
-0.990817, 217, 317, 280, 348
-0.990841, 9, 25, 72, 56
-0.990857, 185, 53, 248, 84
-0.990857, 345, 89, 408, 120
-0.990859, 193, 221, 256, 252
-0.990867, 209, 245, 272, 276
-0.99089, 57, 33, 120, 64
-0.990916, 365, 17, 396, 144
-0.990921, 17, 265, 80, 296
-0.990925, 217, 273, 280, 304
-0.990926, 89, 217, 152, 248
-0.990931, 281, 241, 344, 272
-0.99095, 97, 185, 160, 216
-0.990988, 217, 21, 280, 52
-0.99099, 161, 17, 416, 80
-0.990992, 321, 169, 384, 200
-0.99102, 193, 137, 256, 168
-0.991022, 21, 65, 52, 192
-0.991023, 193, 109, 256, 140
-0.991037, 209, 293, 272, 324
-0.991073, 89, 13, 152, 44
-0.991094, 257, 273, 320, 304
-0.991107, 209, 233, 272, 264
-0.991123, 265, 157, 328, 188
-0.991135, 65, 161, 320, 224
-0.991143, 209, 81, 272, 112
-0.991148, 249, 257, 312, 288
-0.991173, 337, 1, 464, 128
-0.991175, 401, 93, 464, 124
-0.99118, 1, 173, 64, 204
-0.991184, 297, 317, 360, 348
-0.991194, 321, 157, 384, 188
-0.991195, 57, 301, 120, 332
-0.991196, 209, 261, 272, 292
-0.991201, 453, 161, 484, 288
-0.991245, 89, 41, 152, 72
-0.991248, 305, 117, 368, 148
-0.991257, 169, 101, 232, 132
-0.991259, 161, 137, 416, 200
-0.991261, 97, 185, 352, 248
-0.991275, 233, 229, 296, 260
-0.991311, 241, 145, 304, 176
-0.99132, 41, 185, 104, 216
-0.991325, 249, 181, 312, 212
-0.991331, 121, 33, 184, 64
-0.991355, 281, 1, 344, 32
-0.991358, 89, 1, 152, 32
-0.991361, 337, 201, 400, 232
-0.991449, 193, 105, 448, 168
-0.991516, 273, 181, 400, 212
-0.99174, 337, 129, 400, 375
-0.991765, 241, 81, 368, 112
-0.991765, 277, 89, 308, 120
-0.991788, 81, 305, 208, 368
-0.991818, 329, 77, 360, 108
-0.991874, 349, 73, 380, 104
-0.991898, 317, 81, 348, 112
-0.99192, 301, 85, 332, 116
-0.991926, 257, 93, 288, 124
-0.991967, 357, 177, 388, 208
-0.991974, 313, 169, 344, 200
-0.991975, 225, 233, 480, 296
-0.992011, 277, 189, 308, 220
-0.992034, 289, 85, 320, 116
-0.992076, 1, 73, 500, 136
-0.99212, 413, 173, 444, 204
-0.992127, 241, 101, 368, 132
-0.992144, 297, 73, 328, 104
-0.992152, 321, 97, 352, 128
-0.992191, 293, 189, 324, 220
-0.992213, 381, 177, 412, 208
-0.992217, 337, 181, 368, 212
-0.992266, 269, 105, 300, 136
-0.992269, 261, 81, 292, 112
-0.992274, 397, 193, 428, 224
-0.99228, 317, 61, 348, 92
-0.992352, 333, 73, 348, 136
-0.992371, 65, 105, 320, 168
-0.992379, 281, 73, 312, 104
-0.99238, 361, 81, 392, 112
-0.992419, 65, 241, 320, 304
-0.992424, 305, 33, 336, 64
-0.992426, 341, 73, 356, 136
-0.992433, 397, 181, 428, 212
-0.992459, 137, 13, 168, 44
-0.99246, 333, 93, 364, 124
-0.992467, 309, 97, 340, 128
-0.992469, 97, 249, 128, 280
-0.992471, 33, 1, 288, 64
-0.992472, 197, 1, 228, 32
-0.992479, 257, 105, 288, 136
-0.992489, 57, 241, 88, 272
-0.992497, 317, 189, 348, 220
-0.992502, 297, 97, 328, 128
-0.992505, 329, 65, 360, 96
-0.992508, 177, 9, 208, 40
-0.992509, 293, 13, 324, 44
-0.992521, 305, 57, 336, 88
-0.992529, 281, 61, 312, 92
-0.992532, 221, 197, 252, 228
-0.992541, 277, 73, 292, 136
-0.992559, 301, 173, 332, 204
-0.99256, 237, 117, 268, 148
-0.99256, 425, 165, 456, 196
-0.992567, 285, 101, 316, 132
-0.992569, 417, 193, 448, 224
-0.992571, 225, 309, 352, 340
-0.992584, 393, 169, 424, 200
-0.992584, 157, 33, 188, 64
-0.992586, 325, 177, 356, 208
-0.992591, 397, 213, 428, 244
-0.992595, 221, 245, 252, 276
-0.9926, 157, 17, 188, 48
-0.992608, 13, 213, 44, 244
-0.992609, 125, 25, 156, 56
-0.992611, 13, 177, 44, 208
-0.992616, 349, 85, 380, 116
-0.992621, 125, 1, 156, 32
-0.992632, 145, 29, 176, 60
-0.992633, 77, 253, 108, 284
-0.992635, 217, 93, 248, 124
-0.99265, 209, 33, 240, 64
-0.992652, 137, 201, 168, 232
-0.992654, 433, 177, 464, 208
-0.992655, 305, 189, 336, 220
-0.992658, 361, 189, 392, 220
-0.992668, 221, 233, 252, 264
-0.992674, 301, 313, 332, 344
-0.992678, 201, 45, 232, 76
-0.99268, 377, 193, 408, 224
-0.992702, 469, 193, 500, 224
-0.992704, 201, 197, 232, 228
-0.992711, 281, 17, 312, 48
-0.992716, 245, 93, 276, 124
-0.992718, 323, 73, 338, 136
-0.99272, 305, 13, 336, 44
-0.99272, 181, 21, 212, 52
-0.992723, 261, 189, 292, 220
-0.992724, 369, 177, 400, 208
-0.992724, 13, 253, 44, 284
-0.992726, 265, 69, 296, 100
-0.992729, 229, 329, 260, 360
-0.992731, 113, 245, 144, 276
-0.992731, 249, 81, 280, 112
-0.992731, 225, 309, 256, 340
-0.992733, 309, 1, 340, 32
-0.992734, 249, 117, 280, 148
-0.992735, 453, 197, 484, 228
-0.992736, 281, 5, 312, 36
-0.992738, 253, 273, 284, 304
-0.992739, 69, 197, 100, 228
-0.99274, 321, 49, 352, 80
-0.992741, 433, 201, 464, 232
-0.992742, 293, 37, 324, 68
-0.992743, 65, 129, 320, 192
-0.992746, 245, 133, 276, 164
-0.992755, 237, 105, 268, 136
-0.992756, 137, 1, 168, 32
-0.992757, 319, 161, 334, 224
-0.992759, 29, 245, 60, 276
-0.99276, 309, 325, 340, 356
-0.99276, 293, 1, 324, 32
-0.992761, 221, 133, 252, 164
-0.992762, 201, 21, 232, 52
-0.992765, 241, 321, 272, 352
-0.992767, 265, 201, 296, 232
-0.992767, 97, 193, 128, 224
-0.992783, 13, 225, 44, 256
-0.992786, 337, 177, 464, 208
-0.992792, 469, 177, 500, 208
-0.992794, 277, 201, 308, 232
-0.992801, 345, 97, 376, 128
-0.992801, 169, 21, 200, 52
-0.992808, 349, 189, 380, 220
-0.992809, 305, 45, 336, 76
-0.992817, 261, 57, 292, 88
-0.992817, 289, 317, 320, 348
-0.992817, 245, 305, 276, 336
-0.992821, 217, 109, 248, 140
-0.992826, 1, 189, 32, 220
-0.99283, 65, 261, 96, 292
-0.992831, 273, 305, 304, 336
-0.992832, 117, 177, 148, 208
-0.992839, 365, 69, 396, 100
-0.992839, 313, 157, 344, 188
-0.99284, 205, 305, 236, 336
-0.992845, 293, 49, 324, 80
-0.992849, 41, 241, 72, 272
-0.992855, 281, 33, 312, 64
-0.992862, 277, 49, 308, 80
-0.992867, 293, 61, 324, 92
-0.992878, 357, 109, 388, 140
-0.992882, 267, 89, 282, 152
-0.992899, 197, 33, 228, 64
-0.992904, 125, 193, 156, 224
-0.992906, 189, 45, 220, 76
-0.992907, 257, 145, 500, 208
-0.99291, 13, 265, 44, 296
-0.992915, 165, 5, 196, 36
-0.992971, 295, 73, 310, 136
-0.992986, 303, 65, 318, 128
-0.993, 289, 77, 416, 108
-0.993001, 33, 33, 288, 96
-0.993019, 305, 1, 432, 64
-0.99303, 225, 189, 352, 220
-0.993042, 1, 169, 500, 232
-0.993057, 331, 169, 346, 232
-0.993083, 97, 81, 352, 144
-0.993101, 161, 257, 416, 320
-0.993125, 337, 305, 464, 368
-0.993181, 279, 185, 294, 248
-0.993316, 289, 193, 416, 224
-0.99339, 313, 169, 328, 232
-0.993394, 309, 1, 324, 64
-0.993418, 313, 73, 328, 136
-0.993432, 339, 177, 354, 240
-0.993446, 259, 97, 274, 160
-0.993462, 367, 65, 382, 128
-0.993466, 347, 73, 362, 136
-0.993494, 293, 185, 308, 248
-0.993545, 145, 1, 160, 64
-0.993564, 325, 161, 340, 224
-0.993566, 135, 1, 150, 64
-0.993597, 209, 297, 336, 328
-0.993605, 193, 93, 320, 124
-0.993632, 257, 57, 500, 120
-0.993698, 337, 189, 464, 220
-0.993711, 289, 97, 416, 128
-0.993713, 113, 21, 240, 52
-0.993715, 209, 201, 336, 232
-0.993733, 177, 9, 192, 72
-0.993746, 287, 81, 302, 144
-0.993809, 373, 81, 388, 144
-0.993833, 161, 281, 416, 344
-0.993851, 409, 169, 424, 232
-0.993855, 369, 165, 496, 196
-0.99386, 189, 1, 204, 64
-0.993873, 307, 185, 322, 248
-0.993884, 287, 185, 302, 248
-0.993884, 231, 201, 246, 264
-0.993884, 1, 273, 256, 336
-0.993898, 145, 197, 272, 228
-0.99393, 351, 177, 366, 240
-0.993938, 261, 73, 276, 136
-0.993944, 271, 65, 286, 128
-0.993949, 301, 177, 316, 240
-0.993971, 285, 57, 300, 120
-0.99399, 1, 97, 500, 160
-0.994037, 257, 65, 384, 96
-0.994055, 225, 53, 352, 84
-0.99406, 19, 201, 34, 264
-0.994067, 1, 49, 500, 112
-0.994077, 69, 233, 84, 296
-0.994077, 1, 1, 500, 64
-0.99408, 65, 57, 320, 120
-0.994081, 345, 177, 360, 240
-0.994156, 205, 193, 220, 256
-0.994166, 361, 65, 376, 128
-0.994187, 307, 161, 322, 224
-0.994193, 1, 217, 500, 280
-0.9942, 1, 233, 128, 264
-0.994238, 403, 185, 418, 248
-0.994239, 353, 73, 368, 136
-0.994265, 303, 89, 318, 152
-0.994284, 1, 209, 128, 240
-0.994304, 273, 97, 288, 160
-0.994312, 57, 241, 72, 304
-0.994315, 1, 297, 256, 360
-0.994318, 319, 49, 334, 112
-0.994368, 161, 309, 288, 340
-0.994381, 369, 273, 496, 336
-0.994438, 393, 169, 408, 232
-0.994439, 305, 165, 432, 196
-0.994461, 161, 313, 416, 375
-0.994492, 409, 193, 424, 256
-0.994529, 357, 169, 372, 232
-0.994551, 383, 169, 398, 232
-0.994561, 297, 25, 312, 88
-0.994566, 337, 41, 464, 104
-0.99462, 321, 9, 336, 72
-0.994647, 113, 33, 240, 64
-0.994671, 313, 193, 328, 256
-0.994673, 97, 5, 224, 36
-0.994687, 225, 241, 240, 304
-0.994687, 315, 1, 330, 64
-0.994695, 177, 33, 304, 64
-0.994703, 301, 1, 316, 64
-0.994708, 279, 9, 294, 72
-0.994727, 331, 97, 346, 160
-0.994762, 1, 221, 128, 252
-0.99477, 9, 185, 24, 248
-0.994789, 337, 85, 464, 116
-0.994821, 237, 193, 252, 256
-0.994853, 169, 25, 184, 88
-0.994872, 309, 49, 324, 112
-0.994876, 1, 137, 500, 200
-0.994897, 1, 185, 128, 216
-0.994905, 161, 21, 288, 52
-0.994906, 159, 1, 174, 64
-0.994909, 145, 209, 272, 240
-0.994934, 17, 245, 144, 276
-0.994934, 31, 185, 46, 248
-0.994936, 485, 161, 500, 224
-0.994942, 177, 129, 304, 160
-0.994948, 285, 1, 300, 64
-0.994976, 283, 161, 298, 224
-0.994978, 403, 209, 418, 272
-0.994992, 337, 97, 352, 160
-0.995009, 241, 117, 368, 148
-0.99501, 197, 17, 212, 80
-0.995014, 209, 269, 336, 300
-0.995025, 65, 33, 192, 64
-0.995027, 9, 225, 24, 288
-0.995034, 321, 185, 336, 248
-0.995043, 17, 249, 32, 312
-0.995045, 225, 321, 352, 352
-0.995059, 311, 25, 326, 88
-0.995065, 321, 97, 336, 160
-0.995085, 23, 177, 38, 240
-0.995094, 209, 1, 224, 64
-0.995101, 403, 161, 418, 224
-0.995106, 257, 169, 384, 200
-0.995139, 49, 225, 176, 256
-0.995144, 275, 161, 290, 224
-0.995145, 253, 113, 268, 176
-0.995145, 1, 81, 256, 144
-0.995153, 341, 49, 356, 112
-0.995156, 193, 213, 320, 244
-0.99517, 279, 33, 294, 96
-0.995176, 277, 97, 308, 352
-0.995178, 151, 9, 166, 72
-0.995188, 279, 97, 294, 160
-0.995196, 375, 169, 390, 232
-0.995205, 369, 205, 496, 236
-0.995217, 129, 1, 144, 64
-0.995233, 65, 21, 192, 52
-0.995262, 131, 185, 146, 248
-0.995273, 209, 285, 336, 316
-0.995277, 415, 201, 430, 264
-0.995304, 193, 69, 320, 100
-0.995312, 431, 177, 446, 240
-0.995313, 297, 49, 312, 112
-0.995314, 477, 169, 492, 232
-0.995317, 325, 49, 340, 112
-0.995318, 363, 161, 378, 224
-0.99532, 225, 41, 352, 72
-0.995342, 225, 21, 352, 52
-0.995347, 243, 201, 258, 264
-0.99535, 237, 217, 252, 280
-0.995354, 209, 225, 336, 256
-0.995361, 63, 233, 78, 296
-0.995361, 145, 221, 272, 252
-0.995378, 321, 153, 448, 184
-0.995388, 395, 193, 410, 256
-0.995391, 65, 193, 192, 224
-0.995391, 257, 289, 384, 320
-0.995392, 177, 5, 304, 36
-0.995414, 49, 209, 64, 272
-0.995417, 33, 269, 160, 300
-0.995426, 303, 33, 318, 96
-0.995429, 273, 185, 288, 248
-0.99543, 379, 81, 394, 144
-0.995437, 129, 45, 256, 76
-0.995451, 367, 89, 382, 152
-0.995462, 291, 17, 306, 80
-0.995462, 117, 185, 132, 248
-0.995465, 265, 113, 280, 176
-0.995489, 327, 193, 342, 256
-0.995495, 253, 89, 268, 152
-0.9955, 445, 193, 460, 256
-0.9955, 437, 161, 452, 224
-0.995505, 37, 241, 52, 304
-0.995508, 333, 49, 348, 112
-0.995509, 203, 1, 218, 64
-0.995511, 1, 25, 500, 88
-0.995516, 27, 209, 42, 272
-0.99552, 17, 177, 32, 240
-0.995531, 79, 217, 94, 280
-0.995549, 353, 101, 480, 132
-0.995551, 29, 249, 44, 312
-0.995559, 241, 113, 256, 176
-0.99557, 339, 201, 354, 264
-0.995573, 257, 281, 500, 344
-0.995584, 269, 161, 284, 224
-0.995585, 273, 33, 288, 96
-0.995586, 137, 177, 152, 240
-0.995589, 289, 161, 304, 224
-0.995592, 177, 57, 304, 88
-0.995595, 183, 9, 198, 72
-0.995612, 257, 205, 384, 236
-0.995616, 193, 105, 320, 136
-0.995619, 345, 153, 360, 216
-0.995622, 369, 249, 496, 312
-0.995665, 303, 289, 318, 352
-0.995666, 205, 25, 220, 88
-0.995674, 193, 249, 320, 280
-0.995681, 193, 237, 320, 268
-0.995685, 123, 1, 138, 64
-0.995685, 15, 225, 30, 288
-0.995689, 217, 193, 232, 256
-0.995692, 251, 289, 266, 352
-0.995702, 161, 297, 288, 328
-0.995764, 241, 9, 368, 40
-0.99577, 81, 213, 208, 244
-0.995786, 273, 301, 400, 332
-0.995791, 177, 81, 304, 112
-0.995794, 217, 33, 248, 288
-0.995828, 113, 305, 240, 336
-0.995834, 129, 233, 256, 264
-0.995834, 17, 29, 144, 60
-0.995856, 1, 241, 500, 304
-0.995879, 81, 45, 208, 76
-0.995892, 81, 257, 208, 288
-0.995947, 233, 129, 264, 375
-0.995964, 1, 257, 128, 288
-0.995983, 313, 65, 344, 320
-0.995987, 177, 45, 304, 76
-0.996006, 261, 65, 292, 320
-0.99601, 289, 113, 416, 144
-0.996032, 301, 65, 332, 320
-0.996064, 145, 141, 272, 172
-0.996083, 17, 17, 144, 48
-0.996086, 1, 197, 128, 228
-0.996109, 289, 1, 320, 256
-0.996114, 1, 285, 128, 316
-0.996149, 257, 33, 500, 96
-0.996152, 149, 1, 180, 256
-0.996155, 337, 73, 464, 104
-0.996168, 49, 5, 176, 36
-0.996263, 113, 185, 240, 216
-0.996291, 129, 125, 256, 156
-0.996296, 1, 273, 500, 336
-0.996299, 225, 137, 352, 168
-0.996317, 273, 49, 400, 80
-0.996321, 145, 321, 272, 352
-0.996351, 273, 241, 400, 272
-0.996353, 81, 245, 208, 276
-0.99641, 277, 89, 292, 120
-0.996418, 273, 37, 400, 68
-0.996419, 177, 181, 304, 212
-0.996434, 335, 77, 350, 108
-0.996437, 273, 225, 400, 256
-0.99648, 1, 173, 128, 204
-0.996487, 189, 1, 220, 256
-0.996505, 285, 89, 300, 120
-0.996543, 297, 85, 312, 116
-0.99655, 317, 81, 332, 112
-0.996561, 321, 213, 448, 244
-0.996581, 129, 253, 256, 284
-0.996625, 273, 1, 304, 256
-0.996633, 209, 153, 336, 184
-0.996642, 205, 1, 236, 256
-0.996683, 381, 65, 412, 320
-0.996688, 307, 77, 322, 108
-0.99671, 263, 97, 278, 128
-0.996714, 323, 77, 338, 108
-0.996716, 369, 73, 384, 104
-0.996755, 305, 61, 432, 92
-0.996757, 257, 277, 384, 308
-0.996758, 311, 89, 326, 120
-0.996761, 33, 301, 160, 332
-0.996765, 341, 77, 356, 108
-0.996783, 433, 65, 464, 320
-0.996804, 209, 129, 240, 375
-0.996805, 271, 93, 286, 124
-0.996812, 225, 333, 352, 364
-0.996818, 393, 65, 424, 320
-0.996838, 413, 65, 444, 320
-0.996855, 189, 5, 204, 36
-0.99688, 161, 1, 192, 256
-0.996891, 333, 33, 364, 288
-0.996893, 249, 33, 280, 288
-0.996898, 237, 1, 268, 256
-0.996905, 289, 125, 416, 156
-0.996911, 353, 141, 480, 172
-0.996915, 291, 89, 306, 120
-0.996925, 177, 117, 304, 148
-0.996935, 329, 81, 344, 112
-0.996945, 265, 85, 280, 116
-0.996958, 303, 89, 318, 120
-0.996961, 275, 77, 290, 108
-0.996962, 289, 129, 320, 375
-0.996965, 351, 181, 366, 212
-0.996978, 33, 121, 160, 152
-0.997044, 299, 185, 314, 216
-0.99705, 257, 305, 500, 368
-0.997063, 129, 57, 256, 88
-0.997079, 65, 289, 192, 320
-0.997082, 33, 85, 160, 116
-0.99709, 129, 109, 256, 140
-0.997092, 221, 129, 252, 375
-0.997094, 129, 1, 160, 256
-0.997097, 1, 101, 128, 132
-0.997115, 257, 257, 500, 320
-0.997122, 353, 73, 368, 104
-0.997123, 445, 65, 476, 320
-0.997149, 33, 45, 160, 76
-0.997173, 279, 189, 294, 220
-0.997174, 273, 25, 400, 56
-0.997176, 145, 285, 272, 316
-0.997198, 323, 97, 338, 128
-0.997217, 177, 13, 192, 44
-0.997217, 329, 169, 344, 200
-0.997219, 295, 73, 310, 104
-0.997224, 257, 1, 500, 64
-0.997224, 5, 1, 36, 256
-0.997226, 301, 73, 316, 104
-0.997226, 363, 73, 378, 104
-0.997239, 313, 173, 328, 204
-0.997245, 321, 229, 448, 260
-0.997247, 129, 89, 256, 120
-0.99725, 129, 265, 256, 296
-0.997252, 325, 129, 356, 375
-0.997263, 181, 1, 196, 32
-0.997265, 289, 185, 304, 216
-0.997278, 345, 181, 360, 212
-0.997304, 385, 181, 400, 212
-0.997333, 329, 65, 344, 96
-0.997333, 201, 37, 216, 68
-0.997336, 353, 33, 384, 288
-0.99734, 373, 177, 388, 208
-0.997351, 173, 1, 204, 256
-0.997354, 347, 77, 362, 108
-0.997359, 1, 153, 128, 184
-0.997365, 369, 217, 496, 248
-0.997366, 193, 169, 320, 200
-0.997367, 139, 17, 154, 48
-0.997371, 19, 213, 34, 244
-0.997375, 363, 173, 378, 204
-0.997378, 149, 1, 164, 32
-0.997381, 131, 1, 146, 32
-0.997396, 257, 105, 272, 136
-0.99743, 369, 65, 400, 320
-0.997438, 271, 105, 286, 136
-0.997439, 373, 89, 388, 120
-0.997445, 33, 1, 64, 256
-0.997446, 315, 13, 330, 44
-0.997449, 209, 29, 224, 60
-0.997454, 235, 197, 250, 228
-0.99747, 317, 161, 332, 192
-0.997474, 307, 181, 322, 212
-0.997475, 339, 181, 354, 212
-0.997477, 257, 93, 272, 124
-0.997483, 393, 181, 408, 212
-0.997488, 435, 161, 450, 192
-0.997492, 97, 141, 224, 172
-0.997499, 409, 173, 424, 204
-0.997501, 409, 193, 424, 224
-0.997501, 231, 329, 246, 360
-0.997501, 177, 25, 192, 56
-0.997502, 221, 33, 236, 64
-0.997508, 201, 49, 216, 80
-0.997509, 321, 189, 336, 220
-0.997514, 145, 13, 160, 44
-0.997519, 289, 325, 416, 356
-0.997521, 167, 29, 182, 60
-0.997528, 289, 313, 416, 344
-0.997529, 313, 69, 328, 100
-0.997529, 65, 1, 96, 256
-0.99753, 281, 101, 296, 132
-0.997533, 329, 93, 344, 124
-0.997535, 49, 181, 176, 212
-0.997537, 303, 61, 318, 92
-0.997539, 171, 13, 186, 44
-0.99754, 33, 249, 48, 280
-0.997541, 333, 181, 348, 212
-0.997548, 13, 225, 28, 256
-0.997548, 341, 89, 356, 120
-0.997551, 315, 189, 330, 220
-0.997564, 17, 1, 48, 256
-0.997565, 257, 253, 384, 284
-0.997566, 401, 165, 416, 196
-0.997568, 257, 265, 272, 296
-0.997573, 285, 13, 300, 44
-0.997575, 157, 17, 172, 48
-0.997575, 1, 57, 128, 88
-0.997582, 319, 61, 334, 92
-0.997587, 307, 313, 322, 344
-0.997587, 281, 73, 296, 104
-0.997592, 369, 229, 496, 260
-0.997593, 425, 165, 440, 196
-0.997602, 273, 153, 400, 184
-0.997605, 261, 121, 276, 152
-0.997605, 357, 177, 372, 208
-0.997607, 327, 189, 342, 220
-0.997608, 287, 101, 302, 132
-0.99761, 17, 69, 144, 100
-0.997613, 309, 9, 324, 40
-0.997617, 69, 253, 84, 284
-0.997622, 139, 5, 154, 36
-0.997623, 149, 25, 164, 56
-0.997625, 401, 193, 416, 224
-0.997632, 379, 181, 394, 212
-0.997637, 399, 177, 414, 208
-0.997637, 285, 57, 300, 88
-0.997648, 245, 129, 276, 375
-0.997653, 239, 329, 254, 360
-0.997659, 33, 137, 160, 168
-0.997666, 401, 213, 416, 244
-0.997676, 249, 305, 264, 336
-0.99768, 299, 17, 314, 48
-0.997688, 15, 173, 30, 204
-0.99769, 225, 241, 240, 272
-0.997691, 19, 201, 34, 232
-0.997693, 289, 1, 416, 32
-0.997693, 135, 29, 150, 60
-0.997697, 297, 97, 312, 128
-0.997697, 309, 25, 324, 56
-0.997699, 9, 185, 24, 216
-0.997699, 335, 97, 350, 128
-0.997702, 57, 241, 72, 272
-0.997706, 297, 61, 312, 92
-0.997714, 133, 13, 148, 44
-0.997716, 65, 105, 192, 136
-0.997718, 367, 85, 382, 116
-0.997719, 307, 193, 322, 224
-0.997722, 37, 129, 68, 375
-0.997725, 485, 165, 500, 196
-0.997731, 323, 45, 338, 76
-0.997732, 269, 73, 284, 104
-0.997733, 301, 37, 316, 68
-0.997739, 105, 129, 136, 375
-0.997745, 303, 101, 318, 132
-0.997746, 347, 93, 362, 124
-0.997752, 277, 33, 292, 64
-0.997759, 29, 265, 44, 296
-0.997763, 225, 197, 240, 228
-0.997765, 293, 5, 308, 36
-0.99777, 19, 189, 34, 220
-0.997782, 337, 65, 352, 96
-0.997784, 315, 101, 330, 132
-0.997784, 323, 161, 338, 192
-0.997788, 475, 189, 490, 220
-0.997788, 69, 233, 84, 264
-0.997794, 193, 17, 208, 48
-0.997803, 245, 321, 260, 352
-0.997813, 129, 177, 144, 208
-0.997814, 177, 341, 304, 372
-0.997823, 275, 201, 290, 232
-0.997844, 13, 129, 44, 375
-0.997848, 273, 137, 400, 168
-0.997855, 337, 113, 464, 144
-0.997863, 1, 5, 128, 36
-0.997908, 457, 65, 488, 320
-0.997921, 117, 129, 148, 375
-0.997958, 113, 1, 144, 256
-0.997994, 53, 1, 84, 256
-0.998017, 469, 65, 500, 320
-0.998028, 129, 129, 160, 375
-0.998036, 1, 129, 32, 375
-0.998137, 25, 129, 56, 375
-0.998157, 93, 129, 124, 375
-0.998169, 81, 129, 112, 375
-0.9982, 93, 1, 124, 256
-0.998263, 53, 129, 84, 375
-0.998317, 329, 77, 392, 92
-0.998323, 265, 93, 328, 108
-0.998325, 289, 85, 352, 100
-0.998335, 1, 305, 500, 368
-0.998347, 257, 99, 320, 114
-0.998362, 77, 1, 108, 256
-0.998376, 305, 181, 368, 196
-0.998398, 329, 83, 392, 98
-0.998402, 257, 87, 320, 102
-0.998405, 197, 97, 228, 352
-0.998407, 329, 93, 392, 108
-0.998408, 265, 107, 328, 122
-0.998414, 337, 179, 400, 194
-0.998415, 369, 183, 432, 198
-0.998417, 297, 79, 360, 94
-0.998421, 145, 17, 208, 32
-0.998425, 311, 17, 326, 144
-0.998426, 241, 307, 304, 322
-0.998427, 385, 177, 448, 192
-0.998427, 323, 65, 338, 192
-0.99844, 289, 97, 352, 112
-0.998445, 97, 247, 160, 262
-0.998451, 241, 201, 304, 216
-0.998451, 297, 91, 360, 106
-0.998453, 323, 145, 338, 272
-0.998455, 305, 171, 368, 186
-0.998455, 393, 195, 456, 210
-0.998455, 345, 195, 408, 210
-0.998457, 225, 101, 288, 116
-0.998459, 145, 31, 208, 46
-0.99846, 265, 195, 328, 210
-0.998461, 241, 93, 304, 108
-0.998461, 369, 195, 432, 210
-0.998467, 289, 73, 352, 88
-0.998469, 145, 11, 208, 26
-0.99847, 353, 87, 416, 102
-0.998472, 13, 267, 44, 282
-0.998472, 297, 27, 360, 42
-0.998473, 145, 35, 176, 50
-0.998473, 125, 191, 156, 206
-0.998473, 289, 47, 320, 62
-0.998474, 241, 107, 304, 122
-0.998475, 377, 83, 408, 98
-0.998475, 225, 313, 256, 328
-0.998475, 13, 215, 44, 230
-0.998476, 89, 253, 152, 268
-0.998477, 273, 187, 336, 202
-0.998479, 433, 179, 464, 194
-0.998479, 97, 193, 160, 208
-0.998479, 377, 195, 408, 210
-0.99848, 13, 227, 44, 242
-0.998481, 345, 187, 408, 202
-0.998481, 185, 7, 216, 22
-0.998481, 273, 313, 304, 328
-0.998481, 265, 13, 328, 28
-0.998481, 109, 193, 140, 208
-0.998481, 321, 49, 352, 64
-0.998483, 313, 5, 344, 20
-0.998483, 197, 7, 228, 22
-0.998484, 241, 313, 304, 328
-0.998485, 277, 203, 308, 218
-0.998485, 325, 99, 356, 114
-0.998485, 185, 51, 216, 66
-0.998486, 397, 203, 428, 218
-0.998487, 265, 201, 328, 216
-0.998487, 121, 21, 184, 36
-0.998487, 413, 191, 444, 206
-0.998487, 61, 261, 92, 276
-0.998488, 201, 317, 264, 332
-0.99849, 13, 187, 44, 202
-0.998491, 313, 189, 376, 204
-0.998491, 57, 265, 120, 280
-0.998492, 157, 21, 188, 36
-0.998492, 217, 311, 280, 326
-0.998493, 317, 85, 348, 100
-0.998493, 281, 41, 344, 56
-0.998494, 225, 201, 256, 216
-0.998494, 297, 9, 360, 24
-0.998494, 217, 241, 248, 256
-0.998494, 249, 91, 280, 106
-0.998495, 225, 121, 288, 136
-0.998496, 169, 27, 200, 42
-0.998496, 289, 103, 352, 118
-0.998496, 285, 95, 316, 110
-0.998497, 309, 103, 340, 118
-0.998497, 253, 105, 284, 120
-0.998497, 425, 185, 488, 200
-0.9985, 285, 57, 316, 72
-0.9985, 85, 195, 116, 210
-0.9985, 465, 193, 496, 208
-0.9985, 161, 23, 224, 38
-0.9985, 317, 17, 348, 32
-0.9985, 245, 111, 276, 126
-0.998501, 397, 181, 428, 196
-0.998502, 385, 189, 448, 204
-0.998502, 261, 191, 292, 206
-0.998503, 77, 223, 108, 238
-0.998503, 265, 31, 328, 46
-0.998504, 217, 139, 280, 154
-0.998505, 357, 73, 388, 88
-0.998505, 137, 25, 168, 40
-0.998507, 169, 47, 232, 62
-0.998507, 289, 35, 352, 50
-0.998507, 177, 13, 208, 28
-0.998508, 157, 39, 188, 54
-0.998508, 297, 53, 328, 68
-0.998508, 57, 255, 120, 270
-0.998509, 341, 187, 372, 202
-0.998509, 289, 67, 352, 82
-0.998509, 417, 199, 448, 214
-0.99851, 361, 175, 424, 190
-0.99851, 361, 79, 424, 94
-0.998511, 293, 195, 324, 210
-0.998511, 249, 113, 312, 128
-0.998512, 289, 193, 352, 208
-0.998512, 117, 25, 148, 40
-0.998512, 9, 221, 72, 236
-0.998513, 413, 185, 444, 200
-0.998513, 209, 111, 272, 126
-0.998514, 225, 133, 288, 148
-0.998514, 429, 165, 460, 180
-0.998514, 229, 321, 260, 336
-0.998515, 365, 79, 396, 94
-0.998515, 89, 221, 120, 236
-0.998515, 273, 303, 336, 318
-0.998516, 273, 87, 304, 102
-0.998516, 297, 61, 328, 76
-0.998516, 133, 19, 164, 34
-0.998516, 289, 19, 352, 34
-0.998517, 193, 199, 256, 214
-0.998519, 309, 55, 340, 70
-0.998519, 225, 87, 288, 102
-0.99852, 233, 195, 296, 210
-0.99852, 361, 179, 392, 194
-0.998522, 241, 301, 304, 316
-0.998523, 17, 29, 80, 44
-0.998523, 433, 195, 496, 210
-0.998524, 377, 185, 408, 200
-0.998524, 257, 79, 320, 94
-0.998525, 249, 189, 312, 204
-0.998526, 313, 73, 344, 88
-0.998526, 169, 41, 232, 56
-0.998527, 365, 85, 396, 100
-0.998529, 105, 37, 168, 52
-0.998529, 257, 65, 320, 80
-0.99853, 205, 47, 236, 62
-0.99853, 265, 25, 328, 40
-0.99853, 333, 65, 348, 192
-0.99853, 257, 43, 320, 58
-0.998531, 245, 117, 276, 132
-0.998531, 65, 197, 128, 212
-0.998533, 277, 69, 308, 84
-0.998534, 97, 195, 128, 210
-0.998534, 297, 47, 360, 62
-0.998535, 121, 15, 184, 30
-0.998536, 281, 81, 312, 96
-0.998536, 385, 171, 448, 186
-0.998537, 145, 129, 176, 375
-0.998537, 309, 61, 340, 76
-0.998537, 301, 47, 332, 62
-0.998537, 377, 91, 440, 106
-0.998538, 281, 25, 312, 40
-0.998538, 409, 177, 472, 192
-0.998538, 193, 225, 256, 240
-0.998538, 177, 21, 208, 36
-0.998539, 293, 19, 324, 34
-0.998539, 189, 1, 220, 16
-0.998541, 9, 241, 72, 256
-0.998542, 73, 197, 104, 212
-0.998542, 401, 201, 464, 216
-0.998542, 25, 273, 88, 288
-0.998543, 273, 297, 336, 312
-0.998543, 273, 163, 336, 178
-0.998543, 15, 193, 30, 320
-0.998544, 77, 257, 108, 272
-0.998544, 1, 267, 64, 282
-0.998544, 217, 95, 280, 110
-0.998545, 257, 37, 320, 52
-0.998546, 145, 43, 208, 58
-0.998546, 153, 27, 184, 42
-0.998546, 225, 321, 288, 336
-0.998546, 361, 201, 424, 216
-0.998546, 169, 33, 232, 48
-0.998547, 9, 209, 72, 224
-0.998548, 121, 245, 184, 260
-0.998548, 57, 35, 120, 50
-0.998548, 201, 305, 264, 320
-0.998549, 169, 11, 232, 26
-0.998549, 121, 43, 184, 58
-0.998549, 313, 99, 376, 114
-0.998549, 89, 215, 152, 230
-0.998549, 329, 113, 344, 240
-0.998549, 193, 213, 256, 228
-0.998549, 197, 53, 228, 68
-0.998549, 13, 221, 44, 236
-0.998551, 329, 161, 344, 288
-0.998551, 281, 169, 344, 184
-0.998552, 193, 207, 256, 222
-0.998552, 349, 177, 380, 192
-0.998552, 317, 145, 332, 272
-0.998552, 241, 9, 304, 24
-0.998552, 233, 207, 296, 222
-0.998553, 425, 165, 488, 180
-0.998553, 313, 27, 344, 42
-0.998554, 281, 181, 344, 196
-0.998555, 49, 245, 112, 260
-0.998555, 361, 195, 392, 210
-0.998555, 257, 73, 320, 88
-0.998555, 193, 231, 256, 246
-0.998557, 413, 179, 444, 194
-0.998557, 17, 199, 80, 214
-0.998558, 9, 227, 72, 242
-0.998559, 25, 263, 88, 278
-0.99856, 289, 55, 352, 70
-0.99856, 233, 223, 296, 238
-0.99856, 153, 193, 216, 208
-0.99856, 193, 45, 256, 60
-0.99856, 225, 127, 288, 142
-0.99856, 393, 207, 456, 222
-0.998561, 145, 5, 208, 20
-0.998562, 273, 99, 304, 114
-0.998562, 397, 195, 428, 210
-0.998563, 265, 3, 328, 18
-0.998563, 193, 219, 256, 234
-0.998563, 401, 165, 464, 180
-0.998564, 333, 87, 364, 102
-0.998565, 233, 295, 296, 310
-0.998566, 373, 177, 404, 192
-0.998566, 329, 181, 360, 196
-0.998569, 227, 177, 242, 304
-0.998571, 301, 27, 332, 42
-0.998573, 261, 85, 292, 100
-0.998575, 305, 41, 336, 56
-0.998577, 293, 83, 324, 98
-0.99858, 361, 91, 392, 106
-0.998584, 367, 65, 382, 192
-0.998587, 345, 91, 376, 106
-0.998587, 393, 175, 424, 190
-0.998592, 309, 181, 340, 196
-0.998593, 297, 185, 328, 200
-0.998594, 285, 101, 316, 116
-0.998595, 353, 83, 384, 98
-0.998595, 265, 81, 280, 208
-0.998597, 277, 197, 308, 212
-0.998597, 253, 99, 284, 114
-0.998598, 281, 15, 312, 30
-0.998599, 361, 187, 392, 202
-0.9986, 109, 249, 140, 264
-0.9986, 261, 93, 292, 108
-0.998604, 121, 247, 152, 262
-0.998606, 301, 33, 332, 48
-0.998606, 317, 91, 348, 106
-0.998607, 297, 95, 328, 110
-0.998607, 329, 93, 360, 108
-0.998609, 305, 1, 320, 128
-0.99861, 297, 75, 328, 90
-0.998612, 293, 13, 324, 28
-0.998616, 317, 79, 348, 94
-0.998616, 313, 97, 344, 112
-0.998619, 305, 21, 336, 36
-0.998621, 227, 225, 242, 352
-0.998621, 297, 89, 328, 104
-0.998622, 413, 173, 444, 188
-0.998624, 257, 111, 288, 126
-0.998628, 297, 103, 328, 118
-0.998632, 277, 107, 308, 122
-0.998634, 313, 167, 344, 182
-0.998634, 277, 189, 308, 204
-0.998637, 305, 81, 336, 96
-0.998638, 305, 11, 336, 26
-0.998642, 339, 65, 354, 192
-0.998644, 285, 89, 316, 104
-0.998648, 317, 173, 348, 188
-0.998649, 273, 93, 304, 108
-0.99865, 345, 75, 376, 90
-0.998651, 311, 161, 326, 288
-0.998653, 329, 79, 360, 94
-0.998656, 93, 253, 124, 268
-0.998681, 277, 1, 292, 128
-0.998682, 265, 105, 296, 120
-0.998684, 361, 65, 376, 192
-0.998686, 319, 1, 334, 128
-0.998691, 335, 161, 350, 288
-0.998703, 233, 177, 248, 304
-0.99871, 317, 81, 332, 208
-0.998724, 349, 65, 364, 192
-0.998736, 303, 49, 318, 176
-0.998738, 157, 97, 188, 352
-0.998741, 269, 17, 284, 144
-0.99875, 277, 49, 292, 176
-0.998754, 259, 49, 274, 176
-0.998782, 271, 81, 286, 208
-0.998799, 411, 177, 426, 304
-0.998799, 65, 129, 96, 375
-0.998808, 257, 97, 272, 224
-0.998811, 111, 177, 126, 304
-0.998817, 355, 65, 370, 192
-0.998822, 175, 1, 190, 128
-0.998826, 295, 33, 310, 160
-0.998826, 405, 145, 420, 272
-0.998832, 373, 65, 388, 192
-0.998842, 53, 209, 68, 336
-0.998842, 17, 241, 32, 368
-0.998849, 9, 177, 24, 304
-0.998863, 253, 49, 268, 176
-0.998873, 305, 177, 320, 304
-0.998882, 245, 129, 260, 256
-0.998889, 27, 193, 42, 320
-0.99889, 221, 177, 236, 304
-0.998898, 343, 177, 358, 304
-0.998898, 247, 49, 262, 176
-0.998899, 321, 193, 336, 320
-0.9989, 327, 17, 342, 144
-0.998901, 381, 65, 396, 192
-0.998902, 117, 177, 132, 304
-0.99891, 311, 81, 326, 208
-0.998913, 21, 161, 36, 288
-0.998914, 289, 81, 304, 208
-0.998928, 337, 113, 352, 240
-0.998938, 237, 129, 252, 256
-0.998939, 141, 1, 156, 128
-0.998946, 281, 97, 296, 224
-0.998965, 297, 209, 312, 336
-0.998969, 165, 17, 180, 144
-0.998977, 399, 145, 414, 272
-0.998988, 349, 177, 364, 304
-0.998998, 59, 225, 74, 352
-0.998998, 293, 161, 308, 288
-0.999002, 253, 241, 268, 368
-0.999002, 283, 209, 298, 336
-0.999007, 193, 1, 208, 128
-0.999009, 233, 225, 248, 352
-0.99901, 215, 177, 230, 304
-0.999014, 285, 1, 300, 128
-0.999014, 153, 1, 168, 128
-0.999016, 105, 193, 120, 320
-0.999019, 431, 177, 446, 304
-0.999022, 289, 225, 304, 352
-0.999026, 139, 193, 154, 320
-0.999028, 183, 1, 198, 128
-0.999032, 47, 193, 62, 320
-0.999033, 9, 113, 24, 240
-0.99904, 185, 97, 216, 352
-0.999043, 211, 1, 226, 128
-0.999044, 305, 97, 320, 224
-0.999046, 335, 17, 350, 144
-0.999047, 9, 225, 24, 352
-0.99905, 131, 161, 146, 288
-0.999051, 79, 209, 94, 336
-0.999054, 249, 1, 264, 128
-0.999056, 399, 81, 414, 208
-0.999057, 393, 145, 408, 272
-0.999058, 343, 113, 358, 240
-0.999058, 355, 161, 370, 288
-0.999061, 169, 97, 200, 352
-0.999063, 341, 17, 356, 144
-0.999067, 241, 81, 256, 208
-0.999068, 277, 209, 292, 336
-0.999068, 133, 1, 148, 128
-0.99907, 251, 97, 266, 224
-0.99907, 423, 161, 438, 288
-0.999073, 483, 97, 498, 224
-0.999077, 33, 161, 48, 288
-0.999078, 199, 17, 214, 144
-0.999081, 381, 145, 396, 272
-0.999088, 15, 145, 30, 272
-0.999089, 299, 129, 314, 256
-0.99909, 147, 1, 162, 128
-0.999094, 35, 225, 50, 352
-0.999102, 373, 113, 388, 240
-0.999103, 271, 129, 286, 256
-0.999103, 399, 193, 414, 320
-0.999108, 25, 241, 40, 368
-0.999109, 123, 161, 138, 288
-0.999111, 209, 161, 224, 288
-0.999111, 3, 161, 18, 288
-0.999112, 85, 209, 100, 336
-0.999113, 91, 193, 106, 320
-0.999121, 3, 1, 18, 128
-0.999125, 279, 145, 294, 272
-0.999126, 437, 145, 452, 272
-0.999126, 41, 193, 56, 320
-0.999129, 283, 49, 298, 176
-0.99913, 123, 209, 138, 336
-0.999136, 25, 97, 40, 224
-0.999139, 241, 193, 256, 320
-0.999139, 69, 209, 84, 336
-0.99915, 375, 161, 390, 288
-0.999162, 387, 65, 402, 192
-0.999164, 217, 225, 232, 352
-0.999165, 69, 17, 84, 144
-0.999165, 409, 81, 424, 208
-0.999175, 387, 145, 402, 272
-0.999176, 37, 97, 52, 224
-0.999176, 203, 145, 218, 272
-0.999177, 57, 145, 72, 272
-0.999184, 287, 129, 302, 256
-0.999187, 417, 177, 432, 304
-0.999534, 345, 129, 376, 375
-0.99967, 183, 57, 198, 72
-0.99967, 265, 87, 280, 102
-0.99967, 271, 75, 286, 90
-0.999671, 295, 35, 310, 50
-0.999671, 209, 39, 224, 54
-0.999671, 85, 215, 100, 230
-0.999672, 89, 221, 104, 236
-0.999674, 29, 267, 44, 282
-0.999674, 321, 17, 336, 32
-0.999674, 147, 17, 162, 32
-0.999675, 297, 15, 312, 30
-0.999676, 325, 25, 340, 40
-0.999676, 139, 17, 154, 32
-0.999678, 73, 263, 88, 278
-0.999679, 323, 7, 338, 22
-0.99968, 307, 187, 322, 202
-0.99968, 337, 83, 352, 98
-0.999681, 285, 203, 300, 218
-0.999681, 293, 81, 308, 96
-0.999682, 229, 33, 244, 48
-0.999683, 69, 271, 84, 286
-0.999685, 135, 23, 150, 38
-0.999685, 375, 179, 390, 194
-0.999686, 293, 195, 308, 210
-0.999686, 319, 173, 334, 188
-0.999686, 395, 177, 410, 192
-0.999687, 313, 97, 328, 112
-0.999687, 19, 209, 34, 224
-0.999688, 317, 35, 332, 50
-0.999688, 317, 87, 332, 102
-0.999689, 233, 333, 248, 348
-0.999689, 323, 85, 338, 100
-0.999689, 17, 189, 32, 204
-0.999689, 305, 103, 320, 118
-0.99969, 283, 107, 298, 122
-0.999691, 295, 187, 310, 202
-0.999695, 303, 9, 318, 24
-0.999696, 325, 93, 340, 108
-0.999698, 193, 13, 208, 28
-0.999698, 425, 173, 440, 188
-0.999699, 301, 51, 316, 66
-0.999699, 279, 197, 294, 212
-0.9997, 309, 25, 324, 40
-0.999702, 311, 37, 326, 52
-0.999703, 257, 107, 272, 122
-0.999703, 285, 195, 300, 210
-0.999704, 297, 59, 312, 74
-0.999707, 163, 35, 178, 50
-0.999708, 331, 179, 346, 194
-0.999709, 319, 29, 334, 44
-0.999711, 309, 55, 324, 70
-0.999711, 387, 177, 402, 192
-0.999711, 311, 103, 326, 118
-0.999712, 267, 115, 282, 130
-0.999712, 373, 85, 388, 100
-0.999713, 313, 75, 328, 90
-0.999713, 259, 91, 274, 106
-0.999713, 301, 37, 316, 52
-0.999714, 299, 91, 314, 106
-0.999714, 383, 185, 398, 200
-0.999715, 329, 173, 344, 188
-0.999717, 299, 23, 314, 38
-0.999718, 315, 9, 330, 24
-0.999719, 89, 255, 104, 270
-0.99972, 145, 23, 160, 38
-0.99972, 307, 75, 322, 90
-0.99972, 331, 89, 346, 104
-0.999721, 303, 57, 318, 72
-0.999721, 177, 27, 192, 42
-0.999722, 319, 53, 334, 68
-0.999723, 133, 17, 148, 32
-0.999725, 307, 89, 322, 104
-0.999727, 305, 17, 320, 32
-0.999727, 115, 249, 130, 264
-0.999728, 167, 29, 182, 44
-0.999729, 317, 81, 332, 96
-0.999729, 347, 181, 362, 196
-0.999733, 315, 167, 330, 182
-0.999734, 309, 11, 324, 26
-0.999734, 299, 79, 314, 94
-0.999734, 301, 187, 316, 202
-0.999735, 271, 85, 286, 100
-0.999737, 281, 101, 296, 116
-0.999737, 301, 31, 316, 46
-0.999737, 95, 253, 110, 268
-0.999737, 381, 177, 396, 192
-0.999738, 289, 97, 304, 112
-0.999739, 179, 11, 194, 26
-0.99974, 107, 251, 122, 266
-0.99974, 337, 183, 352, 198
-0.999741, 337, 93, 352, 108
-0.999743, 277, 107, 292, 122
-0.999744, 279, 191, 294, 206
-0.999746, 331, 79, 346, 94
-0.999747, 187, 3, 202, 18
-0.999747, 287, 189, 302, 204
-0.999747, 311, 181, 326, 196
-0.999748, 315, 19, 330, 34
-0.999749, 367, 75, 382, 90
-0.99975, 203, 51, 218, 66
-0.99975, 319, 99, 334, 114
-0.999752, 325, 165, 340, 180
-0.999754, 347, 91, 362, 106
-0.999756, 19, 217, 34, 232
-0.999759, 187, 15, 202, 30
-0.99976, 309, 31, 324, 46
-0.999762, 259, 97, 274, 112
-0.999762, 133, 245, 148, 260
-0.999762, 67, 265, 82, 280
-0.999763, 187, 9, 202, 24
-0.999763, 171, 23, 186, 38
-0.999763, 341, 77, 356, 92
-0.999764, 261, 113, 276, 128
-0.999765, 325, 79, 340, 94
-0.999771, 123, 247, 138, 262
-0.999779, 293, 89, 308, 104
-0.999782, 331, 95, 346, 110
-0.999786, 301, 85, 316, 100
-0.999786, 299, 101, 314, 116
-0.999791, 285, 91, 300, 106
-0.999794, 289, 103, 304, 118
-0.999797, 269, 107, 284, 122
-0.999798, 311, 81, 326, 96
-0.9998, 307, 97, 322, 112
-0.999802, 269, 101, 284, 116
-0.99982, 367, 85, 382, 100
-0.999825, 177, 17, 192, 32
-0.999831, 263, 105, 278, 120
-0.999837, 267, 95, 282, 110
-0.999847, 275, 93, 290, 108
-1.00031, 357, 129, 388, 375
-1.00162, 353, 9, 480, 72
-1.0045, 425, 241, 488, 368
