1877
-0.310021, 1, 1, 500, 333
-0.330038, 1, 65, 500, 320
-0.376584, 193, 1, 448, 333
-0.486466, 1, 1, 256, 333
-0.525971, 97, 1, 352, 333
-0.559209, 161, 1, 416, 256
-0.673367, 257, 1, 500, 256
-0.695897, 1, 65, 256, 320
-0.814796, 193, 1, 320, 333
-0.81873, 193, 1, 320, 256
-0.839511, 241, 33, 368, 288
-0.851904, 1, 97, 500, 224
-0.855908, 17, 1, 144, 333
-0.859188, 353, 1, 480, 333
-0.864681, 337, 1, 464, 256
-0.86792, 241, 1, 368, 333
-0.883239, 17, 33, 144, 288
-0.886934, 1, 145, 500, 272
-0.88838, 1, 193, 500, 320
-0.889992, 289, 65, 416, 320
-0.892369, 1, 1, 500, 128
-0.893918, 145, 65, 272, 320
-0.895418, 1, 49, 500, 176
-0.899663, 305, 1, 432, 333
-0.901759, 113, 1, 240, 333
-0.907466, 193, 129, 448, 256
-0.907506, 33, 209, 288, 333
-0.911049, 257, 33, 500, 160
-0.916118, 161, 49, 416, 176
-0.916381, 161, 1, 416, 128
-0.91788, 97, 161, 352, 288
-0.91932, 193, 81, 320, 208
-0.923955, 193, 33, 320, 160
-0.924107, 193, 193, 448, 320
-0.925048, 65, 65, 192, 320
-0.925398, 1, 145, 256, 272
-0.929756, 241, 17, 304, 144
-0.929816, 17, 209, 80, 333
-0.93004, 241, 209, 304, 333
-0.930392, 1, 161, 64, 288
-0.931629, 201, 81, 264, 208
-0.931894, 65, 1, 192, 333
-0.932186, 65, 1, 320, 128
-0.932364, 97, 113, 352, 240
-0.932496, 65, 65, 320, 192
-0.934857, 217, 1, 280, 128
-0.935217, 257, 81, 500, 208
-0.936761, 233, 65, 296, 192
-0.938037, 241, 1, 368, 128
-0.938289, 273, 1, 336, 128
-0.938553, 17, 161, 144, 288
-0.939766, 257, 129, 384, 256
-0.941328, 49, 209, 176, 333
-0.941591, 193, 129, 320, 256
-0.942653, 241, 49, 368, 176
-0.943027, 201, 81, 264, 144
-0.943828, 353, 1, 480, 128
-0.945261, 33, 145, 96, 272
-0.945431, 193, 209, 320, 333
-0.947005, 129, 161, 256, 288
-0.948004, 1, 209, 128, 333
-0.948122, 249, 41, 312, 104
-0.948297, 241, 193, 368, 320
-0.948555, 1, 185, 64, 248
-0.948909, 321, 145, 448, 272
-0.949075, 257, 65, 320, 192
-0.949221, 233, 89, 296, 152
-0.949759, 417, 193, 480, 320
-0.95027, 1, 113, 64, 240
-0.950811, 241, 113, 304, 240
-0.950834, 281, 209, 344, 333
-0.951247, 353, 97, 416, 224
-0.951513, 321, 129, 384, 256
-0.952208, 281, 129, 344, 256
-0.952879, 289, 65, 416, 192
-0.952992, 217, 17, 280, 80
-0.953251, 353, 97, 480, 224
-0.953911, 385, 145, 448, 272
-0.953972, 33, 153, 96, 216
-0.954037, 57, 177, 120, 304
-0.954186, 17, 233, 80, 296
-0.95434, 281, 49, 344, 176
-0.954448, 9, 145, 72, 208
-0.954764, 353, 153, 416, 216
-0.954973, 377, 97, 440, 224
-0.955094, 329, 137, 392, 200
-0.95522, 217, 193, 280, 320
-0.955311, 241, 209, 304, 272
-0.955444, 233, 65, 296, 128
-0.95664, 353, 145, 416, 272
-0.956796, 33, 97, 160, 224
-0.95715, 241, 17, 304, 80
-0.957415, 401, 17, 464, 144
-0.95744, 209, 49, 272, 112
-0.957471, 369, 193, 496, 320
-0.957951, 113, 209, 176, 333
-0.958049, 353, 49, 480, 176
-0.95842, 409, 145, 472, 272
-0.958481, 33, 97, 96, 224
-0.958712, 201, 129, 264, 256
-0.958978, 241, 257, 304, 320
-0.959188, 377, 169, 440, 232
-0.959296, 201, 105, 264, 168
-0.9601, 233, 113, 296, 176
-0.960482, 241, 161, 304, 288
-0.960749, 113, 217, 176, 280
-0.960915, 113, 97, 240, 224
-0.961092, 249, 233, 312, 296
-0.961138, 265, 209, 328, 272
-0.961728, 409, 161, 472, 224
-0.962337, 193, 1, 256, 128
-0.962653, 257, 65, 320, 128
-0.962717, 377, 1, 440, 128
-0.962724, 129, 209, 256, 333
-0.963049, 273, 9, 336, 72
-0.96392, 209, 33, 272, 288
-0.96421, 297, 1, 360, 128
-0.964964, 145, 1, 272, 128
-0.965025, 1, 49, 128, 176
-0.965145, 257, 97, 320, 160
-0.965402, 369, 145, 496, 272
-0.965513, 305, 193, 432, 320
-0.965711, 417, 185, 480, 248
-0.96585, 329, 65, 392, 192
-0.965946, 201, 129, 264, 192
-0.966107, 321, 177, 384, 240
-0.966134, 177, 97, 304, 160
-0.966352, 393, 193, 456, 320
-0.966887, 257, 1, 320, 256
-0.966942, 245, 49, 276, 176
-0.967025, 217, 257, 280, 320
-0.967198, 253, 89, 284, 152
-0.96729, 233, 1, 296, 256
-0.967358, 217, 201, 280, 264
-0.967409, 9, 193, 40, 256
-0.967478, 81, 193, 144, 320
-0.967579, 1, 209, 64, 272
-0.967607, 245, 65, 276, 128
-0.967617, 305, 1, 432, 128
-0.967665, 305, 49, 368, 176
-0.967726, 1, 17, 64, 144
-0.968104, 1, 65, 64, 192
-0.96814, 25, 129, 56, 256
-0.968157, 273, 233, 336, 296
-0.968159, 225, 233, 288, 296
-0.968176, 321, 177, 384, 304
-0.968652, 89, 225, 152, 288
-0.968934, 361, 193, 424, 320
-0.968967, 385, 193, 448, 256
-0.969034, 49, 217, 176, 280
-0.969048, 249, 1, 280, 128
-0.969214, 65, 161, 192, 288
-0.969421, 245, 1, 276, 64
-0.969552, 137, 241, 200, 304
-0.969615, 377, 145, 440, 208
-0.969767, 257, 65, 288, 192
-0.969832, 9, 161, 40, 224
-0.970403, 261, 17, 292, 144
-0.970502, 5, 193, 36, 320
-0.970681, 89, 145, 152, 272
-0.970703, 41, 185, 104, 248
-0.971012, 1, 121, 64, 184
-0.971137, 193, 73, 320, 136
-0.971152, 265, 209, 296, 333
-0.971177, 233, 137, 296, 200
-0.971433, 241, 89, 272, 152
-0.971439, 193, 193, 256, 320
-0.971465, 401, 1, 464, 256
-0.971586, 129, 217, 160, 280
-0.971629, 193, 121, 320, 184
-0.971641, 265, 273, 328, 333
-0.971684, 169, 1, 232, 128
-0.971702, 5, 113, 36, 240
-0.971789, 281, 129, 344, 192
-0.971831, 57, 129, 120, 256
-0.971959, 225, 49, 352, 112
-0.972067, 193, 17, 320, 80
-0.97225, 277, 1, 308, 128
-0.972263, 201, 161, 264, 224
-0.972266, 261, 33, 292, 96
-0.97241, 273, 185, 336, 248
-0.972507, 17, 65, 80, 320
-0.972522, 417, 97, 480, 224
-0.97257, 25, 177, 56, 304
-0.972577, 369, 113, 432, 176
-0.972622, 37, 145, 68, 208
-0.972983, 417, 209, 480, 272
-0.973006, 273, 41, 336, 104
-0.973262, 361, 81, 424, 144
-0.973333, 365, 145, 396, 208
-0.97352, 177, 65, 240, 192
-0.973538, 253, 249, 284, 312
-0.973613, 113, 49, 240, 176
-0.973623, 257, 129, 320, 192
-0.973737, 305, 137, 368, 200
-0.973803, 273, 49, 304, 176
-0.973814, 269, 57, 300, 120
-0.973949, 33, 265, 96, 328
-0.974052, 21, 185, 52, 248
-0.974165, 209, 81, 240, 208
-0.974176, 17, 97, 80, 160
-0.974566, 237, 1, 268, 128
-0.974655, 241, 185, 304, 248
-0.974822, 37, 145, 68, 272
-0.974855, 1, 185, 128, 248
-0.974943, 273, 209, 304, 272
-0.97496, 261, 113, 292, 176
-0.975012, 353, 153, 480, 216
-0.975103, 445, 185, 476, 248
-0.975398, 193, 209, 320, 272
-0.975429, 361, 193, 424, 256
-0.97545, 113, 241, 176, 304
-0.975477, 329, 113, 392, 176
-0.975484, 289, 1, 320, 128
-0.97571, 385, 9, 448, 72
-0.975872, 25, 137, 56, 200
-0.97592, 257, 9, 288, 72
-0.975998, 9, 273, 40, 333
-0.976028, 265, 81, 296, 144
-0.976045, 25, 121, 88, 184
-0.976136, 401, 249, 464, 312
-0.976243, 129, 233, 256, 296
-0.976252, 353, 49, 416, 176
-0.976397, 321, 185, 448, 248
-0.976429, 209, 81, 240, 144
-0.976519, 277, 113, 308, 240
-0.976539, 161, 97, 224, 160
-0.976657, 113, 201, 240, 264
-0.976848, 257, 217, 384, 280
-0.97689, 329, 57, 392, 120
-0.976924, 241, 9, 368, 72
-0.976943, 305, 49, 368, 112
-0.977204, 21, 225, 52, 288
-0.977221, 201, 225, 264, 288
-0.977225, 121, 161, 184, 288
-0.977247, 277, 241, 308, 304
-0.977334, 301, 1, 332, 128
-0.977343, 277, 17, 308, 80
-0.977419, 57, 137, 120, 200
-0.977498, 369, 97, 400, 224
-0.977516, 169, 161, 232, 288
-0.977525, 1, 241, 32, 304
-0.977672, 97, 177, 160, 240
-0.97769, 1, 265, 64, 328
-0.977706, 237, 97, 268, 224
-0.977758, 401, 137, 464, 200
-0.977788, 337, 137, 368, 200
-0.977793, 257, 241, 384, 304
-0.977951, 281, 33, 344, 288
-0.977973, 249, 113, 280, 176
-0.97798, 257, 57, 288, 120
-0.977985, 57, 209, 120, 272
-0.977997, 229, 73, 260, 136
-0.978091, 449, 265, 480, 328
-0.978105, 253, 209, 284, 272
-0.978106, 241, 137, 368, 200
-0.978126, 433, 9, 496, 72
-0.978186, 49, 241, 176, 304
-0.978235, 57, 161, 120, 224
-0.978269, 253, 193, 284, 320
-0.978291, 129, 177, 160, 304
-0.978387, 281, 41, 312, 104
-0.978473, 1, 273, 128, 333
-0.978485, 21, 161, 52, 224
-0.978757, 449, 193, 480, 320
-0.978826, 193, 233, 320, 296
-0.978831, 385, 97, 416, 224
-0.978901, 145, 225, 176, 288
-0.978976, 1, 153, 128, 216
-0.97905, 209, 1, 272, 333
-0.979077, 177, 1, 240, 64
-0.979123, 377, 161, 408, 224
-0.979218, 297, 225, 360, 288
-0.979347, 25, 49, 88, 176
-0.979581, 417, 273, 480, 333
-0.979581, 249, 113, 280, 240
-0.979584, 37, 209, 68, 333
-0.979592, 177, 113, 240, 240
-0.979623, 73, 49, 136, 176
-0.979673, 117, 225, 148, 288
-0.979693, 217, 17, 248, 144
-0.97972, 425, 241, 488, 304
-0.979742, 193, 177, 320, 240
-0.979802, 289, 137, 416, 200
-0.979824, 409, 169, 440, 232
-0.979868, 281, 73, 344, 136
-0.979969, 313, 65, 376, 320
-0.979989, 425, 33, 488, 160
-0.980068, 265, 233, 296, 296
-0.980071, 137, 209, 200, 272
-0.980088, 269, 161, 300, 288
-0.980116, 369, 193, 496, 256
-0.980176, 305, 161, 432, 224
-0.980218, 241, 73, 368, 136
-0.980227, 201, 1, 232, 128
-0.980279, 377, 81, 408, 144
-0.980335, 1, 217, 32, 280
-0.980369, 209, 257, 336, 320
-0.980385, 281, 121, 312, 184
-0.980407, 257, 193, 384, 256
-0.980412, 313, 1, 344, 128
-0.980453, 233, 49, 264, 176
-0.980464, 381, 145, 412, 272
-0.98053, 361, 1, 424, 64
-0.980537, 41, 97, 72, 224
-0.980613, 409, 33, 472, 96
-0.98063, 245, 41, 276, 104
-0.980643, 33, 169, 64, 232
-0.98069, 249, 1, 312, 333
-0.980763, 233, 209, 264, 333
-0.980808, 261, 113, 292, 240
-0.980834, 261, 273, 292, 333
-0.980893, 177, 145, 304, 208
-0.98091, 257, 113, 384, 176
-0.981066, 233, 233, 264, 296
-0.981081, 81, 97, 144, 224
-0.981251, 305, 1, 432, 64
-0.981257, 205, 113, 236, 176
-0.98127, 237, 113, 268, 176
-0.981302, 257, 161, 320, 224
-0.981341, 361, 145, 392, 272
-0.981402, 221, 65, 252, 192
-0.981431, 389, 153, 420, 216
-0.981492, 433, 129, 464, 256
-0.981495, 273, 49, 400, 112
-0.981611, 5, 121, 36, 184
-0.981619, 1, 209, 128, 272
-0.981682, 137, 209, 200, 333
-0.981832, 277, 209, 308, 333
-0.981863, 177, 41, 304, 104
-0.981879, 1, 1, 64, 333
-0.981884, 177, 193, 240, 256
-0.981929, 353, 129, 480, 192
-0.981942, 289, 105, 352, 168
-0.982076, 433, 193, 464, 320
-0.982163, 57, 137, 88, 200
-0.982266, 113, 105, 240, 168
-0.98231, 265, 137, 296, 200
-0.982346, 1, 73, 64, 136
-0.982412, 41, 65, 104, 128
-0.98242, 409, 1, 472, 333
-0.982488, 289, 65, 320, 192
-0.982517, 33, 1, 160, 128
-0.98253, 201, 1, 232, 64
-0.982552, 297, 249, 360, 312
-0.982638, 353, 81, 480, 144
-0.98267, 49, 49, 176, 176
-0.982678, 289, 161, 352, 224
-0.982745, 1, 249, 128, 312
-0.982755, 361, 65, 424, 320
-0.982836, 357, 97, 388, 224
-0.982991, 141, 209, 172, 333
-0.983019, 49, 145, 80, 272
-0.983081, 37, 217, 68, 280
-0.983112, 345, 249, 408, 312
-0.98317, 81, 201, 144, 264
-0.983172, 129, 177, 256, 240
-0.983317, 25, 209, 88, 272
-0.983431, 369, 265, 496, 328
-0.983454, 145, 73, 272, 136
-0.983477, 341, 113, 372, 240
-0.983513, 297, 1, 360, 64
-0.983566, 321, 201, 384, 264
-0.983578, 437, 33, 468, 160
-0.983674, 5, 1, 36, 64
-0.983694, 429, 153, 460, 216
-0.983828, 361, 121, 392, 184
-0.983847, 353, 49, 480, 112
-0.98388, 393, 81, 456, 144
-0.983933, 409, 57, 472, 120
-0.983992, 113, 145, 240, 208
-0.984015, 33, 121, 160, 184
-0.984089, 273, 1, 336, 333
-0.984116, 409, 145, 440, 272
-0.984134, 193, 25, 256, 88
-0.984137, 193, 265, 256, 328
-0.984196, 393, 145, 424, 272
-0.98426, 289, 209, 320, 333
-0.984276, 73, 1, 136, 128
-0.984315, 61, 161, 92, 288
-0.984405, 289, 217, 320, 280
-0.98441, 373, 193, 404, 320
-0.98456, 233, 273, 264, 333
-0.984587, 133, 193, 164, 256
-0.984627, 349, 145, 380, 208
-0.984689, 321, 1, 384, 128
-0.984692, 233, 49, 264, 112
-0.984694, 353, 17, 480, 80
-0.984757, 449, 241, 480, 304
-0.984842, 217, 49, 248, 112
-0.984852, 273, 265, 304, 328
-0.984892, 337, 65, 400, 320
-0.984904, 73, 49, 136, 112
-0.984913, 353, 105, 480, 168
-0.984914, 281, 65, 312, 128
-0.984916, 209, 193, 240, 320
-0.984923, 1, 1, 64, 64
-0.984966, 289, 113, 320, 240
-0.984972, 161, 137, 224, 200
-0.985001, 229, 209, 260, 272
-0.985067, 433, 145, 496, 272
-0.98507, 1, 97, 128, 160
-0.985131, 25, 1, 88, 333
-0.985188, 13, 249, 44, 312
-0.985189, 137, 249, 168, 312
-0.985215, 185, 65, 248, 320
-0.985301, 409, 1, 440, 128
-0.98538, 65, 249, 128, 312
-0.985401, 41, 65, 104, 320
-0.985426, 297, 201, 360, 264
-0.985494, 33, 1, 96, 128
-0.985507, 297, 49, 328, 112
-0.985598, 381, 185, 412, 248
-0.985625, 49, 209, 80, 333
-0.985661, 129, 1, 256, 64
-0.985696, 17, 49, 80, 112
-0.98579, 397, 97, 428, 224
-0.985855, 433, 177, 464, 240
-0.985881, 353, 1, 416, 128
-0.986026, 81, 273, 144, 333
-0.986115, 353, 177, 384, 240
-0.986138, 49, 185, 176, 248
-0.986143, 281, 89, 312, 152
-0.986172, 305, 113, 432, 176
-0.98618, 417, 193, 448, 256
-0.986212, 281, 161, 312, 288
-0.986247, 49, 113, 80, 176
-0.986265, 161, 161, 224, 224
-0.986286, 221, 17, 252, 80
-0.986337, 337, 241, 464, 304
-0.986377, 121, 185, 184, 248
-0.986386, 293, 9, 324, 72
-0.986429, 249, 185, 280, 248
-0.986463, 289, 81, 416, 144
-0.986549, 49, 145, 176, 208
-0.986651, 377, 49, 440, 176
-0.986686, 257, 161, 384, 224
-0.986697, 49, 161, 80, 224
-0.986796, 177, 217, 240, 280
-0.986799, 329, 129, 360, 256
-0.986856, 21, 273, 52, 333
-0.986857, 157, 233, 188, 296
-0.986858, 425, 33, 488, 288
-0.986887, 49, 49, 112, 176
-0.986898, 185, 57, 248, 120
-0.986898, 225, 97, 256, 160
-0.987043, 81, 121, 144, 184
-0.987085, 117, 193, 148, 320
-0.987101, 313, 1, 344, 64
-0.98713, 277, 145, 308, 208
-0.987136, 353, 1, 416, 333
-0.987142, 421, 177, 452, 304
-0.987231, 365, 169, 396, 232
-0.987354, 429, 25, 460, 88
-0.987466, 353, 49, 384, 176
-0.987497, 369, 57, 432, 120
-0.987518, 381, 105, 412, 168
-0.987557, 425, 121, 488, 184
-0.987587, 89, 65, 152, 320
-0.987675, 49, 233, 80, 296
-0.987843, 65, 265, 192, 328
-0.987857, 189, 97, 220, 160
-0.987892, 5, 1, 36, 128
-0.987986, 377, 249, 440, 312
-0.987988, 17, 33, 144, 96
-0.98799, 33, 65, 160, 128
-0.987998, 65, 169, 96, 232
-0.988047, 273, 185, 304, 248
-0.988074, 385, 1, 448, 333
-0.988165, 233, 161, 296, 224
-0.988167, 5, 65, 36, 192
-0.988175, 337, 81, 400, 144
-0.988215, 365, 97, 396, 160
-0.988228, 429, 209, 460, 272
-0.988268, 305, 73, 368, 136
-0.988283, 369, 49, 400, 176
-0.98831, 1, 1, 128, 64
-0.988379, 293, 129, 324, 192
-0.988389, 81, 73, 144, 136
-0.988428, 29, 49, 60, 176
-0.988443, 37, 193, 68, 256
-0.988445, 1, 165, 64, 196
-0.988485, 209, 77, 272, 108
-0.988522, 205, 137, 236, 200
-0.988527, 81, 193, 112, 256
-0.988537, 205, 201, 236, 264
-0.988575, 113, 49, 240, 112
-0.988612, 49, 1, 112, 333
-0.988642, 429, 129, 460, 192
-0.988644, 49, 113, 112, 176
-0.988647, 305, 217, 432, 280
-0.988649, 317, 193, 348, 320
-0.988678, 449, 209, 480, 272
-0.98872, 377, 137, 408, 200
-0.988725, 33, 25, 96, 88
-0.988749, 221, 113, 252, 240
-0.988764, 357, 65, 388, 128
-0.988798, 393, 177, 424, 240
-0.988801, 305, 1, 368, 333
-0.988822, 233, 113, 296, 144
-0.98884, 393, 1, 424, 64
-0.988894, 233, 25, 264, 88
-0.988922, 89, 153, 152, 216
-0.988999, 253, 137, 284, 200
-0.989007, 97, 73, 224, 136
-0.989011, 201, 93, 264, 124
-0.989094, 221, 185, 252, 248
-0.989106, 329, 1, 392, 333
-0.989171, 225, 1, 480, 64
-0.989214, 413, 129, 444, 192
-0.98922, 329, 141, 392, 172
-0.989232, 397, 1, 428, 128
-0.989267, 17, 229, 80, 260
-0.989283, 233, 93, 296, 124
-0.989295, 101, 193, 132, 256
-0.989304, 241, 213, 304, 244
-0.989324, 421, 129, 452, 256
-0.989376, 369, 217, 496, 280
-0.989388, 81, 193, 112, 320
-0.989393, 241, 125, 304, 156
-0.989418, 257, 265, 384, 328
-0.989431, 129, 257, 256, 320
-0.989435, 205, 129, 236, 256
-0.989444, 217, 9, 280, 40
-0.989471, 25, 1, 88, 64
-0.989506, 409, 185, 472, 216
-0.989506, 393, 105, 424, 168
-0.989531, 241, 45, 304, 76
-0.989557, 361, 193, 392, 320
-0.989564, 201, 113, 264, 144
-0.989565, 417, 17, 448, 80
-0.98958, 325, 49, 356, 176
-0.989593, 25, 169, 88, 200
-0.989597, 225, 161, 256, 288
-0.989628, 433, 33, 496, 96
-0.989689, 301, 49, 332, 176
-0.989697, 33, 217, 288, 280
-0.989704, 449, 145, 480, 272
-0.989763, 209, 65, 272, 96
-0.989788, 313, 49, 344, 112
-0.989806, 249, 253, 312, 284
-0.989838, 437, 49, 468, 112
-0.98984, 17, 149, 80, 180
-0.989876, 401, 193, 432, 320
-0.989877, 233, 65, 296, 96
-0.989885, 417, 97, 480, 160
-0.989887, 121, 221, 184, 252
-0.989935, 421, 1, 452, 128
-0.989939, 345, 113, 376, 176
-0.989978, 241, 9, 304, 40
-0.989988, 449, 97, 480, 224
-0.990013, 385, 193, 448, 224
-0.990015, 361, 185, 424, 216
-0.990022, 249, 233, 312, 264
-0.990026, 241, 25, 304, 56
-0.990033, 249, 77, 312, 108
-0.990034, 217, 41, 280, 72
-0.990085, 73, 1, 136, 333
-0.990101, 201, 125, 264, 156
-0.990104, 297, 25, 360, 88
-0.990116, 341, 169, 372, 232
-0.990116, 225, 257, 288, 288
-0.99012, 41, 241, 104, 304
-0.990139, 265, 217, 328, 248
-0.990159, 425, 197, 488, 228
-0.990187, 17, 181, 80, 212
-0.990207, 1, 217, 64, 248
-0.990227, 137, 241, 200, 272
-0.990234, 297, 81, 328, 144
-0.990248, 217, 241, 280, 272
-0.990259, 353, 161, 416, 192
-0.990277, 353, 141, 416, 172
-0.990288, 241, 269, 304, 300
-0.990307, 217, 25, 280, 56
-0.990324, 321, 249, 384, 312
-0.990331, 345, 273, 408, 333
-0.990349, 97, 217, 160, 248
-0.990355, 461, 273, 492, 333
-0.990365, 257, 57, 320, 88
-0.990374, 225, 285, 288, 316
-0.990383, 161, 129, 416, 192
-0.990388, 141, 161, 172, 288
-0.990393, 225, 297, 288, 328
-0.990453, 209, 53, 272, 84
-0.990479, 113, 237, 176, 268
-0.990523, 309, 129, 340, 256
-0.990523, 37, 113, 68, 176
-0.990528, 121, 193, 152, 256
-0.990531, 293, 161, 324, 288
-0.990537, 329, 185, 392, 216
-0.990569, 241, 201, 304, 232
-0.990578, 289, 257, 320, 320
-0.990597, 369, 173, 432, 204
-0.9906, 217, 205, 280, 236
-0.990604, 233, 137, 296, 168
-0.990613, 189, 161, 220, 224
-0.990666, 201, 193, 264, 224
-0.990672, 17, 81, 48, 208
-0.990688, 345, 225, 408, 288
-0.990712, 265, 129, 328, 160
-0.990725, 1, 153, 256, 216
-0.990741, 389, 73, 420, 136
-0.990745, 289, 273, 352, 333
-0.990769, 265, 45, 328, 76
-0.99077, 433, 57, 496, 120
-0.99077, 17, 241, 80, 272
-0.990803, 209, 161, 240, 224
-0.990829, 61, 273, 92, 333
-0.990845, 273, 241, 336, 272
-0.99087, 457, 185, 488, 248
-0.990874, 265, 89, 328, 120
-0.990892, 65, 25, 128, 88
-0.990918, 337, 65, 368, 192
-0.99092, 401, 173, 464, 204
-0.990935, 21, 113, 52, 176
-0.990937, 17, 1, 48, 128
-0.990938, 329, 153, 392, 184
-0.99094, 41, 157, 104, 188
-0.99096, 145, 201, 176, 264
-0.990973, 285, 169, 316, 232
-0.990977, 1, 193, 64, 224
-0.990987, 161, 49, 416, 112
-0.990999, 201, 137, 264, 168
-0.991005, 265, 13, 328, 44
-0.991009, 145, 161, 208, 288
-0.991009, 217, 221, 280, 252
-0.991021, 185, 1, 248, 333
-0.991026, 17, 257, 80, 288
-0.991056, 17, 17, 48, 80
-0.991064, 345, 173, 408, 204
-0.991066, 377, 145, 440, 176
-0.991076, 257, 113, 320, 144
-0.991083, 97, 201, 160, 232
-0.991106, 313, 49, 344, 176
-0.99111, 9, 301, 72, 332
-0.991132, 129, 253, 192, 284
-0.991141, 121, 265, 184, 328
-0.991141, 401, 205, 464, 236
-0.991143, 361, 93, 424, 124
-0.991152, 329, 185, 360, 248
-0.991178, 97, 1, 224, 128
-0.991213, 25, 269, 88, 300
-0.99125, 433, 161, 496, 224
-0.991264, 321, 265, 448, 328
-0.991276, 273, 205, 336, 236
-0.991293, 361, 197, 424, 228
-0.991295, 97, 1, 160, 64
-0.991315, 1, 137, 64, 168
-0.991322, 273, 229, 336, 260
-0.991326, 161, 89, 416, 152
-0.991354, 1, 113, 500, 176
-0.99137, 217, 269, 280, 300
-0.991383, 1, 205, 64, 236
-0.991418, 321, 173, 384, 204
-0.991421, 265, 101, 328, 132
-0.991429, 65, 97, 96, 224
-0.991439, 17, 113, 80, 144
-0.991457, 1, 153, 500, 216
-0.991463, 273, 269, 336, 300
-0.991479, 273, 77, 336, 108
-0.991479, 433, 185, 496, 216
-0.991492, 409, 281, 472, 312
-0.991499, 401, 149, 464, 180
-0.991531, 41, 185, 104, 216
-0.991532, 193, 145, 224, 272
-0.991536, 241, 153, 304, 184
-0.99155, 377, 9, 440, 40
-0.991574, 349, 161, 380, 288
-0.991582, 65, 209, 96, 333
-0.991605, 361, 105, 424, 136
-0.991611, 49, 169, 112, 200
-0.991612, 161, 105, 224, 136
-0.991616, 25, 125, 88, 156
-0.991634, 97, 185, 352, 248
-0.991655, 97, 1, 160, 128
-0.991664, 273, 253, 336, 284
-0.991666, 193, 169, 256, 200
-0.991674, 433, 17, 496, 48
-0.991689, 193, 149, 256, 180
-0.991701, 129, 209, 192, 240
-0.991705, 129, 25, 256, 88
-0.99171, 57, 221, 120, 252
-0.991716, 433, 277, 496, 308
-0.991742, 169, 5, 232, 36
-0.991745, 265, 33, 328, 64
-0.991758, 105, 161, 136, 288
-0.991768, 289, 217, 352, 248
-0.991781, 281, 141, 344, 172
-0.991784, 249, 285, 312, 316
-0.991796, 89, 233, 152, 264
-0.991806, 377, 157, 440, 188
-0.991808, 33, 113, 288, 176
-0.991832, 245, 81, 276, 112
-0.991844, 9, 285, 72, 316
-0.99185, 321, 129, 384, 160
-0.991855, 417, 261, 480, 292
-0.991864, 33, 289, 96, 320
-0.991898, 305, 53, 368, 84
-0.991898, 297, 73, 360, 104
-0.991907, 41, 137, 104, 168
-0.991916, 257, 161, 500, 224
-0.991922, 289, 9, 352, 40
-0.99194, 289, 173, 352, 204
-0.991942, 253, 101, 284, 132
-0.991944, 49, 209, 112, 240
-0.991955, 201, 181, 264, 212
-0.991994, 361, 81, 424, 112
-0.992001, 257, 49, 288, 80
-0.992012, 65, 1, 320, 64
-0.992015, 409, 161, 472, 192
-0.992016, 433, 1, 496, 333
-0.992038, 337, 245, 400, 276
-0.992041, 297, 161, 360, 192
-0.992044, 9, 101, 72, 132
-0.992055, 257, 141, 320, 172
-0.99206, 41, 301, 104, 332
-0.992083, 273, 193, 336, 224
-0.9921, 433, 33, 496, 64
-0.992114, 297, 249, 360, 280
-0.992117, 185, 81, 248, 112
-0.992121, 33, 241, 288, 304
-0.992125, 321, 197, 384, 228
-0.99219, 9, 165, 40, 196
-0.992239, 237, 105, 268, 136
-0.992252, 97, 1, 128, 128
-0.992259, 409, 97, 440, 224
-0.992287, 13, 177, 44, 208
-0.992292, 41, 149, 72, 180
-0.992304, 241, 93, 272, 124
-0.992343, 1, 181, 32, 212
-0.992343, 129, 217, 160, 248
-0.992345, 381, 49, 412, 176
-0.992377, 1, 209, 32, 240
-0.992403, 1, 193, 32, 224
-0.992429, 257, 89, 288, 120
-0.992437, 257, 113, 288, 144
-0.99245, 29, 169, 60, 200
-0.992453, 445, 189, 476, 220
-0.992455, 229, 73, 260, 104
-0.99246, 257, 25, 500, 88
-0.992467, 249, 69, 280, 100
-0.992471, 161, 217, 416, 280
-0.992482, 9, 273, 40, 304
-0.992493, 21, 229, 52, 260
-0.992495, 449, 281, 480, 312
-0.992499, 369, 141, 400, 172
-0.992504, 241, 121, 272, 152
-0.992509, 449, 49, 480, 176
-0.992517, 273, 129, 304, 160
-0.992527, 161, 65, 224, 320
-0.992543, 249, 9, 280, 40
-0.992545, 141, 237, 172, 268
-0.992546, 277, 213, 308, 244
-0.992566, 9, 285, 40, 316
-0.9926, 37, 221, 68, 252
-0.992605, 257, 57, 500, 120
-0.992608, 1, 221, 32, 252
-0.992615, 13, 193, 44, 224
-0.992623, 197, 65, 228, 192
-0.992638, 261, 253, 292, 284
-0.992643, 417, 189, 448, 220
-0.992659, 261, 137, 292, 168
-0.992666, 377, 93, 408, 124
-0.992666, 249, 205, 280, 236
-0.992667, 269, 89, 300, 120
-0.992668, 1, 249, 32, 280
-0.992673, 381, 145, 412, 176
-0.992674, 21, 297, 52, 328
-0.99268, 341, 141, 372, 172
-0.992681, 261, 37, 292, 68
-0.992691, 277, 41, 308, 72
-0.992696, 245, 53, 276, 84
-0.9927, 5, 261, 36, 292
-0.992702, 153, 97, 216, 224
-0.992703, 245, 29, 276, 60
-0.992706, 269, 117, 300, 148
-0.992717, 357, 141, 388, 172
-0.992721, 121, 233, 152, 264
-0.992723, 261, 13, 292, 44
-0.992725, 261, 77, 292, 108
-0.992734, 365, 153, 396, 184
-0.992737, 113, 221, 144, 252
-0.992743, 389, 189, 420, 220
-0.992751, 29, 181, 60, 212
-0.992753, 265, 61, 296, 92
-0.992759, 449, 269, 480, 300
-0.992763, 41, 161, 72, 192
-0.992765, 1, 237, 32, 268
-0.992781, 273, 77, 304, 108
-0.992782, 1, 1, 32, 32
-0.992783, 285, 245, 316, 276
-0.992794, 177, 117, 304, 148
-0.992802, 97, 25, 352, 88
-0.992805, 265, 241, 296, 272
-0.992816, 449, 201, 480, 232
-0.992829, 25, 141, 56, 172
-0.99283, 285, 133, 316, 164
-0.992839, 209, 117, 240, 148
-0.992845, 213, 81, 244, 112
-0.992853, 269, 25, 300, 56
-0.99286, 247, 65, 262, 128
-0.992865, 273, 141, 304, 172
-0.992874, 229, 217, 260, 248
-0.992874, 237, 293, 268, 324
-0.992877, 257, 125, 288, 156
-0.992881, 369, 173, 400, 204
-0.992881, 5, 153, 36, 184
-0.992883, 429, 137, 460, 168
-0.992893, 425, 205, 456, 236
-0.9929, 65, 81, 320, 144
-0.992904, 1, 41, 500, 104
-0.992918, 237, 5, 268, 36
-0.992918, 21, 285, 52, 316
-0.992923, 57, 161, 88, 192
-0.992928, 257, 221, 288, 252
-0.99293, 141, 225, 172, 256
-0.992933, 277, 261, 308, 292
-0.992936, 57, 141, 88, 172
-0.992936, 5, 13, 36, 44
-0.992958, 13, 241, 44, 272
-0.99296, 229, 93, 260, 124
-0.992964, 433, 189, 464, 220
-0.992967, 1, 117, 32, 148
-0.992972, 221, 21, 252, 52
-0.992974, 153, 237, 184, 268
-0.992983, 205, 97, 236, 128
-0.992988, 25, 157, 56, 188
-0.992994, 261, 289, 292, 320
-0.992996, 257, 25, 288, 56
-0.993002, 269, 273, 300, 304
-0.993002, 1, 185, 256, 248
-0.993004, 133, 205, 164, 236
-0.993009, 197, 5, 228, 36
-0.993011, 189, 109, 220, 140
-0.993016, 9, 297, 40, 328
-0.993018, 141, 253, 172, 284
-0.99302, 45, 173, 76, 204
-0.993021, 397, 165, 428, 196
-0.993021, 381, 157, 412, 188
-0.993023, 293, 229, 324, 260
-0.993024, 277, 53, 308, 84
-0.993024, 301, 77, 332, 108
-0.993024, 101, 217, 132, 248
-0.993025, 433, 177, 464, 208
-0.993026, 125, 129, 156, 256
-0.993034, 233, 269, 264, 300
-0.993035, 377, 185, 408, 216
-0.993041, 289, 77, 320, 108
-0.993043, 21, 129, 52, 160
-0.993043, 269, 157, 300, 188
-0.993044, 449, 257, 480, 288
-0.993049, 241, 133, 272, 164
-0.993053, 381, 173, 412, 204
-0.99306, 1, 1, 500, 64
-0.993062, 357, 169, 388, 200
-0.993067, 65, 49, 320, 112
-0.993068, 373, 81, 404, 112
-0.993071, 293, 57, 324, 88
-0.993071, 265, 209, 296, 240
-0.993073, 233, 281, 264, 312
-0.993089, 409, 177, 440, 208
-0.993092, 245, 41, 276, 72
-0.993095, 17, 261, 48, 292
-0.993098, 281, 17, 312, 48
-0.993102, 413, 205, 444, 236
-0.993106, 417, 137, 448, 168
-0.993108, 241, 241, 272, 272
-0.99311, 45, 237, 76, 268
-0.993128, 177, 101, 304, 132
-0.993163, 193, 85, 320, 116
-0.993216, 257, 113, 500, 176
-0.993259, 257, 201, 500, 264
-0.993266, 161, 161, 416, 224
-0.993397, 325, 1, 356, 128
-0.993431, 241, 161, 272, 288
-0.993431, 289, 25, 416, 88
-0.993471, 257, 57, 272, 120
-0.993479, 1, 193, 500, 256
-0.993495, 257, 89, 272, 152
-0.993501, 193, 241, 448, 304
-0.993561, 377, 1, 408, 128
-0.993573, 19, 193, 34, 256
-0.993591, 193, 1, 320, 32
-0.993613, 21, 257, 36, 320
-0.99366, 93, 209, 124, 333
-0.993665, 267, 81, 282, 144
-0.993731, 305, 209, 336, 333
-0.993754, 1, 89, 500, 152
-0.993795, 385, 193, 416, 320
-0.993829, 329, 177, 360, 304
-0.993836, 243, 89, 258, 152
-0.993841, 257, 137, 500, 200
-0.993872, 1, 161, 16, 224
-0.993915, 31, 161, 46, 224
-0.993947, 193, 29, 320, 60
-0.993958, 251, 89, 266, 152
-0.993961, 53, 97, 84, 224
-0.993965, 13, 209, 28, 272
-0.99397, 153, 209, 184, 333
-0.993985, 209, 73, 336, 104
-0.994058, 193, 49, 320, 80
-0.99407, 49, 229, 176, 260
-0.994074, 135, 217, 150, 280
-0.994074, 271, 113, 286, 176
-0.994133, 255, 1, 270, 64
-0.9942, 193, 129, 320, 160
-0.994205, 257, 81, 500, 144
-0.994212, 273, 25, 288, 88
-0.994214, 97, 1, 160, 333
-0.994345, 193, 13, 320, 44
-0.994371, 279, 17, 294, 80
-0.994415, 211, 89, 226, 152
-0.994418, 381, 161, 396, 224
-0.994426, 265, 17, 280, 80
-0.994429, 21, 161, 36, 224
-0.994431, 7, 185, 22, 248
-0.994445, 49, 145, 64, 208
-0.994445, 17, 233, 32, 296
-0.994496, 1, 65, 500, 128
-0.994505, 279, 49, 294, 112
-0.994507, 257, 217, 384, 248
-0.994523, 145, 241, 160, 304
-0.994523, 1, 233, 500, 296
-0.99458, 461, 161, 492, 288
-0.994602, 271, 57, 286, 120
-0.994615, 241, 137, 368, 168
-0.994629, 39, 137, 54, 200
-0.994644, 429, 81, 460, 208
-0.994654, 209, 61, 336, 92
-0.994661, 25, 225, 40, 288
-0.994669, 281, 121, 296, 184
-0.994691, 29, 137, 44, 200
-0.994717, 25, 193, 40, 256
-0.994718, 285, 249, 300, 312
-0.994762, 1, 173, 128, 204
-0.994802, 1, 209, 128, 240
-0.994862, 377, 137, 392, 200
-0.994863, 263, 105, 278, 168
-0.994863, 105, 65, 136, 192
-0.994871, 193, 237, 320, 268
-0.994873, 321, 189, 448, 220
-0.994894, 129, 241, 256, 272
-0.994948, 337, 141, 464, 172
-0.994979, 387, 153, 402, 216
-0.99499, 275, 225, 290, 288
-0.995018, 49, 241, 176, 272
-0.995042, 353, 165, 480, 196
-0.995044, 397, 49, 428, 176
-0.995053, 241, 65, 256, 128
-0.995055, 209, 113, 224, 176
-0.995061, 129, 217, 144, 280
-0.995064, 1, 265, 500, 328
-0.995073, 285, 209, 300, 272
-0.995083, 453, 185, 468, 248
-0.995085, 65, 265, 320, 328
-0.995097, 49, 213, 176, 244
-0.995106, 193, 209, 320, 240
-0.995135, 241, 49, 368, 80
-0.995139, 197, 193, 228, 320
-0.995158, 153, 225, 168, 288
-0.995161, 55, 153, 70, 216
-0.995198, 285, 17, 300, 80
-0.995201, 81, 25, 208, 88
-0.995211, 1, 189, 128, 220
-0.995215, 13, 161, 28, 224
-0.995221, 145, 217, 160, 280
-0.995231, 371, 145, 386, 208
-0.995243, 213, 9, 228, 72
-0.995275, 193, 221, 320, 252
-0.995291, 153, 1, 216, 333
-0.995299, 279, 257, 294, 320
-0.995301, 269, 249, 284, 312
-0.995335, 363, 145, 378, 208
-0.99535, 259, 33, 274, 96
-0.99535, 1, 209, 16, 272
-0.995369, 217, 81, 232, 144
-0.995379, 177, 141, 304, 172
-0.995393, 249, 113, 264, 176
-0.995393, 273, 89, 288, 152
-0.995421, 305, 1, 432, 32
-0.995428, 459, 177, 474, 240
-0.995462, 285, 41, 300, 104
-0.995478, 265, 41, 280, 104
-0.995481, 1, 301, 128, 332
-0.995499, 257, 257, 272, 320
-0.995501, 257, 249, 384, 280
-0.995503, 209, 257, 336, 288
-0.995529, 113, 221, 240, 252
-0.995546, 159, 233, 174, 296
-0.995557, 289, 73, 416, 104
-0.995561, 177, 153, 304, 184
-0.995584, 241, 9, 368, 40
-0.99561, 3, 233, 18, 296
-0.99563, 13, 273, 28, 333
-0.995637, 49, 253, 176, 284
-0.995659, 355, 145, 370, 208
-0.995662, 17, 121, 32, 184
-0.995667, 257, 61, 384, 92
-0.9957, 85, 129, 116, 256
-0.995703, 23, 129, 38, 192
-0.995728, 279, 89, 294, 152
-0.995766, 453, 265, 468, 328
-0.995769, 39, 185, 54, 248
-0.995797, 461, 209, 492, 333
-0.9958, 393, 145, 408, 208
-0.995809, 1, 289, 128, 320
-0.995821, 247, 41, 262, 104
-0.995823, 49, 1, 176, 64
-0.995824, 241, 85, 368, 116
-0.995829, 463, 265, 478, 328
-0.995837, 193, 197, 320, 228
-0.995849, 293, 49, 308, 112
-0.995856, 225, 97, 352, 128
-0.99588, 457, 1, 488, 128
-0.995892, 17, 161, 144, 192
-0.995906, 337, 153, 464, 184
-0.995922, 241, 125, 368, 156
-0.99594, 221, 209, 252, 333
-0.995944, 289, 141, 416, 172
-0.995944, 241, 237, 368, 268
-0.995961, 123, 217, 138, 280
-0.995962, 49, 217, 64, 280
-0.995969, 249, 1, 264, 64
-0.99597, 233, 73, 248, 136
-0.99597, 273, 137, 288, 200
-0.995977, 255, 121, 270, 184
-0.995978, 287, 121, 302, 184
-0.995981, 121, 1, 184, 333
-0.995983, 43, 217, 58, 280
-0.995991, 377, 89, 392, 152
-0.996007, 1, 25, 256, 88
-0.996015, 17, 129, 144, 160
-0.996023, 459, 201, 474, 264
-0.996027, 253, 1, 284, 256
-0.996029, 177, 165, 304, 196
-0.996036, 13, 65, 44, 320
-0.996046, 237, 97, 252, 160
-0.99606, 265, 1, 296, 256
-0.996071, 1, 221, 128, 252
-0.996074, 303, 49, 318, 112
-0.996075, 353, 177, 480, 208
-0.996083, 265, 129, 280, 192
-0.996084, 257, 205, 384, 236
-0.996087, 201, 105, 216, 168
-0.996091, 263, 249, 278, 312
-0.996095, 387, 81, 402, 144
-0.996096, 59, 233, 74, 296
-0.996099, 113, 105, 240, 136
-0.996136, 427, 185, 442, 248
-0.996151, 129, 201, 256, 232
-0.996156, 339, 137, 354, 200
-0.996172, 219, 217, 234, 280
-0.996173, 49, 97, 176, 160
-0.996174, 1, 273, 128, 304
-0.996196, 9, 249, 24, 312
-0.996205, 415, 169, 430, 232
-0.996219, 277, 1, 308, 256
-0.996248, 221, 49, 236, 112
-0.996273, 113, 93, 240, 124
-0.996275, 253, 201, 268, 264
-0.996295, 43, 161, 58, 224
-0.996307, 365, 121, 380, 184
-0.996307, 305, 177, 432, 208
-0.996309, 337, 201, 464, 232
-0.996319, 253, 33, 268, 96
-0.99634, 31, 185, 46, 248
-0.996344, 37, 161, 52, 224
-0.996349, 273, 153, 400, 184
-0.996366, 369, 277, 496, 308
-0.996367, 225, 113, 352, 144
-0.996367, 377, 113, 392, 176
-0.99637, 27, 273, 42, 333
-0.996405, 247, 85, 262, 116
-0.996406, 429, 1, 460, 256
-0.99641, 291, 241, 306, 304
-0.996414, 73, 145, 104, 272
-0.996419, 1, 149, 128, 180
-0.996426, 295, 129, 310, 192
-0.996427, 321, 129, 448, 160
-0.996429, 113, 189, 240, 220
-0.99644, 35, 225, 50, 288
-0.99645, 377, 185, 392, 248
-0.996471, 375, 65, 390, 128
-0.996472, 203, 1, 218, 64
-0.996475, 447, 177, 462, 240
-0.996482, 137, 193, 152, 256
-0.996483, 269, 217, 284, 280
-0.996508, 433, 193, 448, 256
-0.996515, 451, 49, 466, 112
-0.996519, 213, 1, 244, 256
-0.996524, 371, 97, 386, 160
-0.996524, 257, 165, 384, 196
-0.996529, 297, 9, 312, 72
-0.996536, 347, 137, 362, 200
-0.996541, 145, 253, 272, 284
-0.996555, 69, 137, 84, 200
-0.996566, 275, 201, 290, 264
-0.996573, 209, 137, 224, 200
-0.996581, 9, 1, 24, 64
-0.996587, 243, 113, 258, 176
-0.996594, 45, 1, 76, 128
-0.996594, 193, 185, 320, 216
-0.996611, 247, 225, 262, 288
-0.996612, 139, 241, 154, 304
-0.996624, 257, 37, 384, 68
-0.996625, 145, 73, 272, 104
-0.996625, 7, 113, 22, 176
-0.996633, 271, 1, 286, 64
-0.996642, 17, 113, 144, 144
-0.996656, 113, 133, 240, 164
-0.996665, 353, 73, 480, 104
-0.996679, 21, 273, 36, 304
-0.996682, 429, 129, 444, 192
-0.996683, 383, 129, 398, 192
-0.996685, 241, 41, 256, 104
-0.996713, 209, 301, 336, 332
-0.996715, 153, 161, 184, 288
-0.996724, 257, 273, 500, 333
-0.996745, 1, 257, 128, 288
-0.996784, 37, 65, 68, 320
-0.996791, 257, 93, 272, 124
-0.996795, 353, 53, 480, 84
-0.996803, 337, 17, 464, 48
-0.996825, 241, 21, 368, 52
-0.996851, 145, 9, 272, 40
-0.996856, 113, 121, 240, 152
-0.996862, 353, 85, 480, 116
-0.996866, 263, 81, 278, 112
-0.996873, 129, 173, 256, 204
-0.996888, 113, 149, 240, 180
-0.99689, 279, 125, 294, 156
-0.996902, 267, 45, 282, 76
-0.996905, 1, 65, 32, 320
-0.996906, 249, 69, 264, 100
-0.996913, 241, 193, 368, 224
-0.996956, 257, 69, 272, 100
-0.99697, 209, 277, 336, 308
-0.996972, 257, 261, 384, 292
-0.996974, 249, 109, 264, 140
-0.996995, 29, 177, 44, 208
-0.996996, 113, 161, 240, 192
-0.997023, 273, 117, 288, 148
-0.997023, 65, 173, 192, 204
-0.997028, 65, 65, 128, 320
-0.997034, 1, 241, 128, 272
-0.997036, 253, 81, 268, 112
-0.997047, 241, 1, 272, 256
-0.997061, 369, 189, 496, 220
-0.997061, 257, 49, 272, 80
-0.997073, 259, 105, 274, 136
-0.997082, 129, 217, 144, 248
-0.997086, 353, 105, 480, 136
-0.997093, 45, 49, 76, 176
-0.997093, 255, 1, 270, 32
-0.99712, 19, 261, 34, 292
-0.997121, 65, 189, 192, 220
-0.997131, 369, 289, 496, 320
-0.997133, 273, 49, 288, 80
-0.997181, 17, 61, 144, 92
-0.997188, 265, 97, 280, 128
-0.9972, 145, 33, 272, 64
-0.997207, 273, 113, 400, 144
-0.997215, 357, 1, 388, 128
-0.997229, 229, 65, 260, 320
-0.997243, 35, 169, 50, 200
-0.997267, 377, 65, 408, 320
-0.997273, 25, 33, 56, 288
-0.997276, 257, 177, 384, 208
-0.997276, 247, 97, 262, 128
-0.997278, 23, 173, 38, 204
-0.997348, 23, 285, 38, 316
-0.997351, 273, 29, 288, 60
-0.997361, 1, 233, 16, 264
-0.997361, 289, 233, 416, 264
-0.997368, 305, 165, 432, 196
-0.997369, 49, 265, 176, 296
-0.997371, 369, 265, 496, 296
-0.997378, 23, 229, 38, 260
-0.997398, 367, 137, 382, 168
-0.997406, 417, 1, 448, 256
-0.997407, 381, 145, 396, 176
-0.997424, 459, 185, 474, 216
-0.997424, 49, 201, 176, 232
-0.997429, 145, 241, 160, 272
-0.997451, 129, 21, 256, 52
-0.997454, 9, 161, 24, 192
-0.997455, 1, 181, 16, 212
-0.997455, 289, 33, 320, 288
-0.997463, 27, 297, 42, 328
-0.997482, 51, 149, 66, 180
-0.997486, 289, 85, 416, 116
-0.997506, 263, 13, 278, 44
-0.997515, 285, 129, 300, 160
-0.997526, 21, 193, 36, 224
-0.997535, 267, 113, 282, 144
-0.99755, 11, 1, 26, 32
-0.997555, 261, 33, 276, 64
-0.997557, 7, 197, 22, 228
-0.997561, 137, 213, 152, 244
-0.997571, 15, 181, 30, 212
-0.997575, 241, 101, 256, 132
-0.997591, 409, 49, 440, 176
-0.997598, 337, 245, 464, 276
-0.997607, 247, 1, 262, 32
-0.997612, 241, 73, 256, 104
-0.997623, 433, 193, 448, 224
-0.997634, 253, 13, 268, 44
-0.997637, 277, 237, 292, 268
-0.997638, 49, 141, 176, 172
-0.997641, 41, 165, 56, 196
-0.997647, 367, 149, 382, 180
-0.99766, 209, 93, 224, 124
-0.997669, 459, 285, 474, 316
-0.997693, 15, 249, 30, 280
-0.9977, 65, 301, 192, 332
-0.997714, 263, 69, 278, 100
-0.997722, 13, 237, 28, 268
-0.997732, 209, 289, 336, 320
-0.99774, 161, 301, 288, 332
-0.997748, 453, 277, 468, 308
-0.997756, 143, 209, 158, 240
-0.997756, 17, 49, 144, 80
-0.997778, 373, 141, 388, 172
-0.997781, 203, 109, 218, 140
-0.997795, 241, 89, 256, 120
-0.997797, 1, 169, 16, 200
-0.997806, 465, 285, 480, 316
-0.997808, 123, 221, 138, 252
-0.997815, 305, 213, 432, 244
-0.997816, 305, 61, 432, 92
-0.997819, 279, 249, 294, 280
-0.997821, 49, 277, 176, 308
-0.997822, 213, 113, 228, 144
-0.997822, 43, 221, 58, 252
-0.997824, 273, 81, 288, 112
-0.997833, 113, 113, 144, 240
-0.997833, 249, 53, 264, 84
-0.997837, 281, 53, 296, 84
-0.997839, 1, 217, 16, 248
-0.997842, 337, 1, 368, 128
-0.997843, 369, 129, 496, 160
-0.997851, 59, 161, 74, 192
-0.997856, 269, 137, 284, 168
-0.99786, 283, 41, 298, 72
-0.997867, 287, 253, 302, 284
-0.997873, 255, 117, 270, 148
-0.997873, 355, 145, 370, 176
-0.997882, 17, 33, 144, 64
-0.997891, 15, 193, 30, 224
-0.997894, 373, 153, 388, 184
-0.997903, 263, 125, 278, 156
-0.997903, 161, 265, 416, 328
-0.997904, 353, 117, 480, 148
-0.997914, 25, 129, 40, 160
-0.997914, 267, 25, 282, 56
-0.997921, 105, 209, 136, 333
-0.997922, 145, 45, 272, 76
-0.997924, 393, 149, 408, 180
-0.997928, 29, 157, 44, 188
-0.997932, 279, 137, 294, 168
-0.997935, 149, 221, 164, 252
-0.997942, 135, 229, 150, 260
-0.997944, 257, 257, 272, 288
-0.997946, 47, 169, 62, 200
-0.997956, 243, 121, 258, 152
-0.997957, 431, 137, 446, 168
-0.997971, 155, 237, 170, 268
-0.997976, 273, 105, 288, 136
-0.997978, 255, 37, 270, 68
-0.997978, 145, 61, 272, 92
-0.997981, 117, 221, 132, 252
-0.997985, 13, 225, 28, 256
-0.997986, 279, 25, 294, 56
-0.997987, 33, 73, 160, 104
-0.997995, 253, 205, 268, 236
-0.998005, 453, 181, 468, 212
-0.998006, 317, 33, 348, 288
-0.998009, 21, 161, 36, 192
-0.998012, 17, 5, 32, 36
-0.998013, 453, 293, 468, 324
-0.99802, 307, 69, 322, 100
-0.99802, 439, 201, 454, 232
-0.998025, 11, 261, 26, 292
-0.998025, 213, 13, 228, 44
-0.998026, 301, 77, 316, 108
-0.998027, 361, 165, 376, 196
-0.998028, 279, 209, 294, 240
-0.998029, 445, 33, 476, 288
-0.99803, 225, 149, 352, 180
-0.998031, 369, 233, 496, 264
-0.998036, 427, 189, 442, 220
-0.998037, 329, 33, 360, 288
-0.998039, 97, 81, 224, 112
-0.998039, 291, 129, 306, 160
-0.998041, 449, 193, 464, 224
-0.998041, 305, 33, 336, 288
-0.998042, 247, 17, 262, 48
-0.998042, 185, 97, 216, 224
-0.998057, 271, 61, 286, 92
-0.998064, 59, 237, 74, 268
-0.998066, 49, 221, 64, 252
-0.998071, 369, 185, 384, 216
-0.998072, 459, 297, 474, 328
-0.998073, 255, 245, 270, 276
-0.998075, 283, 237, 298, 268
-0.998084, 35, 181, 50, 212
-0.998087, 11, 281, 26, 312
-0.998096, 1, 101, 128, 132
-0.998098, 377, 93, 392, 124
-0.998106, 353, 41, 480, 72
-0.998113, 1, 21, 128, 52
-0.998114, 369, 213, 496, 244
-0.998122, 41, 141, 56, 172
-0.998122, 263, 253, 278, 284
-0.998128, 139, 245, 154, 276
-0.998129, 379, 77, 394, 108
-0.99813, 65, 289, 192, 320
-0.998131, 201, 33, 232, 288
-0.998139, 235, 77, 250, 108
-0.998145, 361, 137, 376, 168
-0.998148, 257, 129, 272, 160
-0.998165, 137, 65, 200, 320
-0.998212, 17, 1, 144, 32
-0.998235, 353, 29, 480, 60
-0.998253, 349, 65, 380, 320
-0.998271, 109, 1, 140, 128
-0.998278, 361, 1, 392, 256
-0.998298, 289, 97, 416, 128
-0.998299, 61, 49, 92, 176
-0.998302, 65, 157, 192, 188
-0.998322, 153, 49, 216, 176
-0.998359, 273, 273, 400, 304
-0.99839, 257, 1, 272, 128
-0.998395, 241, 49, 304, 64
-0.998411, 377, 185, 408, 200
-0.998411, 397, 167, 428, 182
-0.998412, 257, 31, 288, 46
-0.998413, 5, 9, 36, 24
-0.998414, 449, 269, 480, 284
-0.998415, 277, 215, 308, 230
-0.998415, 209, 117, 240, 132
-0.998415, 61, 165, 92, 180
-0.998418, 17, 267, 48, 282
-0.998419, 445, 209, 476, 224
-0.99842, 257, 75, 288, 90
-0.998422, 237, 307, 268, 322
-0.998424, 441, 197, 472, 212
-0.998424, 209, 85, 272, 100
-0.998424, 337, 145, 368, 160
-0.998425, 265, 209, 296, 224
-0.998426, 13, 195, 44, 210
-0.998427, 233, 125, 296, 140
-0.998428, 253, 249, 284, 264
-0.998429, 269, 249, 300, 264
-0.998429, 265, 139, 296, 154
-0.99843, 241, 129, 272, 144
-0.99843, 13, 255, 44, 270
-0.998431, 169, 209, 232, 333
-0.998433, 281, 255, 312, 270
-0.998433, 245, 13, 276, 28
-0.998434, 245, 51, 276, 66
-0.998434, 241, 29, 272, 44
-0.998434, 1, 171, 64, 186
-0.998434, 265, 83, 296, 98
-0.998435, 1, 187, 32, 202
-0.998435, 257, 133, 288, 148
-0.998437, 265, 111, 296, 126
-0.998438, 425, 209, 456, 224
-0.998438, 21, 233, 52, 248
-0.99844, 57, 155, 88, 170
-0.99844, 1, 301, 32, 316
-0.998441, 365, 139, 396, 154
-0.998442, 221, 79, 252, 94
-0.998442, 265, 17, 296, 32
-0.998443, 449, 291, 480, 306
-0.998444, 233, 115, 296, 130
-0.998444, 209, 79, 272, 94
-0.998444, 425, 201, 456, 216
-0.998445, 1, 289, 32, 304
-0.998447, 377, 103, 408, 118
-0.998448, 137, 229, 168, 244
-0.99845, 37, 173, 68, 188
-0.99845, 449, 275, 480, 290
-0.998451, 269, 63, 300, 78
-0.998451, 253, 257, 284, 272
-0.998452, 9, 245, 40, 260
-0.998452, 249, 207, 280, 222
-0.998453, 301, 79, 332, 94
-0.998453, 329, 143, 392, 158
-0.998454, 269, 131, 300, 146
-0.998454, 241, 117, 272, 132
-0.998454, 1, 3, 32, 18
-0.998455, 29, 187, 60, 202
-0.998455, 249, 213, 280, 228
-0.998456, 17, 189, 48, 204
-0.998457, 409, 195, 472, 210
-0.998457, 5, 261, 36, 276
-0.998457, 17, 231, 80, 246
-0.998458, 257, 25, 288, 40
-0.998459, 277, 47, 308, 62
-0.99846, 193, 99, 256, 114
-0.998461, 37, 181, 68, 196
-0.998461, 241, 131, 304, 146
-0.998463, 269, 91, 300, 106
-0.998463, 449, 187, 480, 202
-0.998463, 413, 193, 444, 208
-0.998464, 17, 163, 80, 178
-0.998464, 249, 43, 280, 58
-0.998464, 5, 15, 36, 30
-0.998468, 105, 217, 136, 232
-0.99847, 201, 117, 264, 132
-0.998471, 217, 21, 280, 36
-0.998471, 233, 109, 296, 124
-0.998474, 201, 105, 264, 120
-0.998476, 1, 253, 32, 268
-0.998476, 105, 227, 136, 242
-0.998476, 449, 285, 480, 300
-0.998479, 365, 157, 396, 172
-0.998482, 25, 165, 56, 180
-0.998482, 5, 267, 36, 282
-0.998482, 389, 191, 420, 206
-0.998483, 9, 181, 72, 196
-0.998486, 105, 219, 168, 234
-0.998487, 201, 125, 264, 140
-0.998487, 9, 235, 40, 250
-0.998487, 441, 203, 472, 218
-0.998489, 25, 181, 56, 196
-0.99849, 245, 73, 276, 88
-0.998492, 217, 13, 280, 28
-0.998493, 149, 239, 180, 254
-0.998494, 141, 245, 172, 260
-0.998494, 353, 147, 384, 162
-0.998495, 1, 215, 32, 230
-0.998499, 241, 213, 304, 228
-0.998501, 13, 293, 44, 308
-0.998502, 257, 253, 320, 268
-0.998502, 37, 153, 68, 168
-0.998504, 353, 143, 416, 158
-0.998505, 241, 23, 272, 38
-0.998505, 245, 79, 276, 94
-0.998506, 25, 141, 56, 156
-0.998506, 245, 7, 276, 22
-0.998506, 249, 67, 280, 82
-0.998507, 201, 91, 264, 106
-0.998507, 5, 173, 36, 188
-0.998509, 241, 89, 304, 104
-0.99851, 249, 235, 312, 250
-0.998511, 9, 273, 40, 288
-0.998513, 265, 43, 296, 58
-0.998513, 13, 301, 44, 316
-0.998513, 417, 201, 480, 216
-0.998514, 1, 223, 64, 238
-0.998516, 233, 99, 296, 114
-0.998517, 25, 171, 88, 186
-0.998517, 369, 195, 432, 210
-0.998519, 233, 75, 296, 90
-0.99852, 21, 313, 52, 328
-0.99852, 209, 73, 272, 88
-0.99852, 9, 283, 40, 298
-0.99852, 241, 15, 304, 30
-0.99852, 217, 51, 280, 66
-0.998521, 249, 1, 280, 16
-0.998522, 45, 163, 76, 178
-0.998523, 201, 131, 264, 146
-0.998523, 373, 97, 404, 112
-0.998523, 249, 259, 312, 274
-0.998524, 5, 227, 36, 242
-0.998524, 237, 111, 268, 126
-0.998524, 201, 111, 264, 126
-0.998524, 41, 145, 56, 272
-0.998525, 377, 145, 440, 160
-0.998525, 381, 155, 412, 170
-0.998525, 217, 27, 280, 42
-0.998525, 241, 207, 304, 222
-0.998525, 217, 45, 280, 60
-0.998525, 361, 189, 424, 204
-0.998526, 281, 53, 312, 68
-0.998526, 353, 149, 416, 164
-0.998526, 281, 133, 312, 148
-0.998528, 209, 7, 272, 22
-0.998529, 353, 141, 384, 156
-0.998531, 265, 255, 296, 270
-0.998531, 17, 239, 80, 254
-0.998533, 217, 251, 280, 266
-0.998533, 265, 47, 328, 62
-0.998533, 267, 65, 282, 192
-0.998534, 241, 55, 304, 70
-0.998534, 253, 19, 284, 34
-0.998536, 401, 189, 464, 204
-0.998536, 121, 223, 152, 238
-0.998536, 21, 307, 52, 322
-0.998539, 249, 69, 312, 84
-0.998539, 33, 183, 96, 198
-0.998541, 377, 201, 440, 216
-0.998542, 241, 25, 304, 40
-0.998542, 365, 151, 396, 166
-0.998542, 225, 285, 288, 300
-0.998542, 405, 1, 436, 256
-0.998543, 1, 201, 32, 216
-0.998544, 209, 63, 272, 78
-0.998544, 249, 83, 312, 98
-0.998545, 257, 137, 320, 152
-0.998545, 1, 187, 64, 202
-0.998546, 129, 217, 160, 232
-0.998547, 9, 303, 72, 318
-0.998548, 369, 167, 432, 182
-0.99855, 253, 93, 284, 108
-0.998552, 89, 225, 152, 240
-0.998554, 225, 311, 288, 326
-0.998555, 33, 227, 64, 242
-0.998555, 265, 55, 328, 70
-0.998556, 263, 17, 278, 144
-0.998557, 261, 55, 292, 70
-0.998557, 15, 209, 30, 333
-0.998558, 113, 227, 176, 242
-0.998559, 257, 7, 320, 22
-0.998559, 273, 247, 336, 262
-0.998559, 265, 217, 328, 232
-0.998562, 329, 151, 392, 166
-0.998563, 233, 77, 264, 92
-0.998563, 241, 99, 272, 114
-0.998563, 241, 123, 272, 138
-0.998564, 241, 105, 272, 120
-0.998564, 241, 291, 304, 306
-0.998564, 129, 247, 192, 262
-0.998565, 329, 185, 392, 200
-0.998565, 25, 277, 88, 292
-0.998565, 265, 227, 328, 242
-0.998566, 9, 309, 72, 324
-0.998566, 25, 271, 88, 286
-0.998566, 257, 49, 272, 176
-0.998567, 225, 305, 288, 320
-0.998567, 33, 143, 96, 158
-0.998567, 201, 1, 264, 16
-0.998567, 257, 119, 288, 134
-0.998567, 241, 63, 304, 78
-0.998568, 257, 125, 320, 140
-0.998568, 273, 233, 336, 248
-0.998569, 217, 219, 280, 234
-0.998569, 241, 279, 304, 294
-0.99857, 377, 151, 440, 166
-0.998573, 241, 1, 304, 16
-0.998573, 249, 245, 312, 260
-0.998574, 201, 137, 264, 152
-0.998575, 25, 171, 56, 186
-0.998575, 17, 261, 80, 276
-0.998576, 265, 89, 328, 104
-0.998576, 209, 203, 272, 218
-0.998577, 217, 57, 280, 72
-0.998577, 209, 209, 272, 224
-0.99858, 9, 153, 72, 168
-0.99858, 1, 193, 32, 208
-0.99858, 257, 111, 320, 126
-0.99858, 241, 43, 304, 58
-0.998581, 265, 125, 296, 140
-0.998582, 233, 137, 296, 152
-0.998583, 241, 271, 304, 286
-0.998583, 241, 223, 304, 238
-0.998583, 1, 193, 64, 208
-0.998583, 393, 65, 424, 320
-0.998585, 225, 235, 288, 250
-0.998585, 129, 253, 192, 268
-0.998586, 377, 149, 408, 164
-0.998587, 425, 187, 488, 202
-0.998587, 249, 265, 312, 280
-0.998588, 217, 243, 280, 258
-0.998588, 345, 167, 408, 182
-0.998588, 137, 241, 200, 256
-0.99859, 353, 173, 416, 188
-0.99859, 17, 129, 80, 144
-0.99859, 353, 157, 416, 172
-0.99859, 273, 131, 336, 146
-0.998591, 209, 39, 272, 54
-0.998591, 17, 315, 80, 330
-0.998591, 253, 103, 284, 118
-0.998592, 289, 53, 352, 68
-0.998593, 217, 225, 280, 240
-0.998594, 1, 209, 32, 224
-0.998594, 97, 213, 160, 228
-0.998596, 241, 229, 304, 244
-0.998596, 217, 257, 280, 272
-0.998598, 401, 157, 464, 172
-0.998599, 233, 37, 296, 52
-0.998599, 361, 99, 424, 114
-0.9986, 9, 181, 40, 196
-0.998602, 17, 255, 80, 270
-0.998602, 409, 209, 472, 224
-0.998604, 369, 183, 432, 198
-0.998605, 281, 209, 344, 224
-0.998606, 41, 161, 104, 176
-0.998606, 329, 191, 392, 206
-0.998607, 225, 317, 288, 332
-0.998608, 33, 225, 96, 240
-0.998608, 233, 297, 296, 312
-0.998619, 1, 145, 16, 272
-0.99862, 211, 1, 226, 128
-0.998622, 241, 93, 272, 108
-0.998623, 113, 49, 176, 176
-0.998632, 253, 113, 284, 128
-0.998637, 365, 145, 396, 160
-0.998641, 251, 1, 266, 128
-0.998641, 21, 209, 36, 333
-0.998642, 5, 165, 36, 180
-0.998652, 253, 85, 284, 100
-0.998673, 241, 87, 272, 102
-0.998681, 49, 65, 80, 320
-0.998686, 257, 49, 288, 64
-0.998687, 33, 161, 48, 288
-0.99869, 1, 97, 16, 224
-0.998717, 27, 177, 42, 304
-0.998733, 251, 49, 266, 176
-0.998733, 211, 81, 226, 208
-0.998735, 85, 33, 116, 160
-0.998743, 291, 1, 306, 128
-0.998749, 9, 193, 24, 320
-0.998791, 47, 161, 62, 288
-0.998811, 113, 65, 176, 320
-0.998819, 275, 49, 290, 176
-0.998826, 245, 1, 260, 128
-0.998839, 269, 17, 284, 144
-0.998854, 243, 65, 258, 192
-0.998884, 281, 209, 296, 333
-0.998892, 303, 1, 318, 128
-0.998893, 7, 145, 22, 272
-0.998895, 275, 209, 290, 333
-0.998906, 21, 113, 36, 240
-0.998914, 27, 129, 42, 256
-0.998918, 121, 65, 152, 320
-0.998926, 261, 97, 276, 224
-0.998929, 289, 113, 304, 240
-0.998946, 217, 65, 232, 192
-0.998954, 321, 1, 336, 128
-0.998962, 1, 193, 16, 320
-0.998963, 315, 1, 330, 128
-0.998969, 255, 97, 270, 224
-0.998971, 283, 17, 298, 144
-0.998974, 395, 97, 410, 224
-0.99898, 13, 113, 28, 240
-0.998985, 145, 193, 160, 320
-0.99899, 455, 193, 470, 320
-0.998991, 57, 161, 72, 288
-0.998995, 279, 113, 294, 240
-0.999018, 461, 209, 476, 333
-0.999023, 369, 97, 384, 224
-0.999023, 271, 113, 286, 240
-0.999028, 267, 209, 282, 333
-0.999052, 309, 1, 324, 128
-0.999055, 257, 193, 272, 320
-0.99907, 379, 113, 394, 240
-0.999071, 33, 209, 48, 333
-0.999076, 135, 193, 150, 320
-0.99908, 21, 161, 36, 288
-0.999086, 289, 209, 304, 333
-0.999088, 297, 1, 312, 128
-0.999091, 275, 1, 290, 128
-0.9991, 221, 1, 236, 128
-0.999104, 449, 161, 464, 288
-0.999108, 15, 161, 30, 288
-0.999119, 151, 209, 166, 333
-0.999119, 7, 97, 22, 224
-0.999128, 285, 65, 300, 192
-0.999132, 271, 161, 286, 288
-0.999141, 77, 81, 108, 208
-0.999145, 209, 129, 224, 256
-0.999147, 357, 113, 372, 240
-0.99915, 129, 193, 144, 320
-0.999151, 451, 49, 466, 176
-0.999155, 295, 49, 310, 176
-0.999159, 49, 97, 64, 224
-0.999162, 233, 65, 248, 192
-0.999164, 45, 209, 60, 333
-0.999165, 249, 97, 264, 224
-0.999176, 367, 145, 382, 272
-0.999177, 285, 161, 300, 288
-0.999181, 403, 97, 418, 224
-0.999187, 389, 97, 404, 224
-0.999193, 65, 65, 96, 320
-0.999204, 105, 33, 136, 288
-0.999216, 227, 65, 242, 192
-0.999216, 395, 145, 410, 272
-0.999222, 423, 1, 438, 128
-0.999231, 33, 113, 48, 240
-0.99924, 239, 17, 254, 144
-0.999242, 57, 113, 72, 240
-0.999244, 385, 145, 400, 272
-0.999247, 295, 209, 310, 333
-0.999248, 39, 209, 54, 333
-0.99925, 457, 1, 488, 256
-0.999259, 375, 65, 390, 192
-0.999261, 219, 209, 234, 333
-0.999267, 43, 81, 58, 208
-0.999271, 247, 209, 262, 333
-0.999273, 379, 193, 394, 320
-0.999275, 429, 129, 444, 256
-0.999277, 279, 161, 294, 288
-0.999282, 211, 193, 226, 320
-0.999282, 295, 113, 310, 240
-0.999283, 339, 113, 354, 240
-0.999285, 61, 209, 76, 333
-0.99929, 363, 97, 378, 224
-0.999296, 445, 33, 460, 160
-0.999309, 401, 145, 416, 272
-0.999325, 157, 209, 172, 333
-0.999329, 333, 129, 348, 256
-0.999329, 327, 1, 342, 128
-0.999331, 51, 209, 66, 333
-0.999333, 409, 145, 424, 272
-0.999335, 445, 209, 460, 333
-0.999336, 429, 177, 444, 304
-0.999336, 385, 193, 400, 320
-0.999338, 233, 17, 248, 144
-0.99934, 301, 49, 316, 176
-0.999341, 443, 145, 458, 272
-0.999349, 351, 113, 366, 240
-0.99935, 369, 49, 384, 176
-0.999352, 373, 193, 388, 320
-0.999354, 423, 129, 438, 256
-0.999366, 265, 161, 280, 288
-0.999369, 129, 145, 144, 272
-0.999372, 435, 129, 450, 256
-0.999373, 345, 113, 360, 240
-0.999384, 291, 161, 306, 288
-0.999388, 63, 129, 78, 256
-0.999398, 449, 113, 464, 240
-0.999406, 205, 1, 220, 128
-0.999408, 21, 1, 36, 128
-0.999413, 17, 65, 32, 192
-0.999415, 417, 1, 432, 128
-0.999425, 71, 209, 86, 333
-0.999427, 429, 1, 444, 128
-0.999432, 409, 1, 424, 128
-0.999432, 331, 49, 346, 176
-0.999436, 123, 193, 138, 320
-0.999439, 203, 129, 218, 256
-0.999542, 77, 65, 108, 320
-0.999562, 189, 65, 220, 320
-0.999579, 141, 65, 172, 320
-0.99962, 383, 157, 398, 172
-0.99962, 269, 137, 284, 152
-0.999621, 279, 247, 294, 262
-0.999622, 3, 197, 18, 212
-0.999623, 141, 215, 156, 230
-0.999624, 23, 183, 38, 198
-0.999624, 259, 69, 274, 84
-0.999625, 303, 79, 318, 94
-0.999625, 251, 63, 266, 78
-0.999627, 269, 129, 284, 144
-0.999628, 249, 29, 264, 44
-0.999628, 251, 93, 266, 108
-0.999629, 1, 223, 16, 238
-0.999631, 263, 19, 278, 34
-0.999631, 357, 147, 372, 162
-0.999633, 273, 45, 288, 60
-0.999634, 117, 225, 132, 240
-0.999634, 255, 57, 270, 72
-0.999634, 285, 251, 300, 266
-0.999637, 283, 59, 298, 74
-0.999638, 377, 95, 392, 110
-0.999638, 215, 87, 230, 102
-0.999638, 1, 175, 16, 190
-0.999638, 7, 163, 22, 178
-0.999638, 259, 75, 274, 90
-0.999639, 13, 235, 28, 250
-0.999639, 437, 203, 452, 218
-0.99964, 257, 251, 272, 266
-0.999641, 253, 75, 268, 90
-0.999644, 21, 195, 36, 210
-0.999644, 37, 179, 52, 194
-0.999645, 389, 149, 404, 164
-0.999646, 7, 211, 22, 226
-0.999648, 39, 141, 54, 156
-0.999649, 253, 51, 268, 66
-0.999649, 207, 107, 222, 122
-0.999651, 265, 91, 280, 106
-0.999651, 263, 125, 278, 140
-0.999651, 367, 153, 382, 168
-0.999652, 279, 123, 294, 138
-0.999653, 59, 163, 74, 178
-0.999653, 263, 13, 278, 28
-0.999654, 239, 75, 254, 90
-0.999656, 361, 141, 376, 156
-0.999657, 251, 7, 266, 22
-0.999657, 265, 255, 280, 270
-0.999658, 23, 169, 38, 184
-0.999658, 15, 3, 30, 18
-0.999661, 205, 115, 220, 130
-0.999664, 257, 63, 272, 78
-0.999664, 267, 105, 282, 120
-0.999664, 293, 133, 308, 148
-0.999665, 29, 313, 44, 328
-0.999667, 15, 247, 30, 262
-0.999667, 463, 289, 478, 304
-0.999668, 39, 171, 54, 186
-0.99967, 257, 19, 272, 34
-0.999671, 51, 151, 66, 166
-0.999672, 461, 193, 476, 208
-0.999674, 23, 233, 38, 248
-0.999674, 11, 183, 26, 198
-0.999675, 275, 129, 290, 144
-0.999676, 241, 123, 256, 138
-0.999676, 17, 9, 32, 24
-0.999678, 279, 135, 294, 150
-0.999679, 373, 153, 388, 168
-0.99968, 249, 99, 264, 114
-0.999681, 453, 295, 468, 310
-0.999681, 5, 203, 20, 218
-0.999682, 27, 305, 42, 320
-0.999683, 279, 253, 294, 268
-0.999685, 381, 151, 396, 166
-0.999687, 9, 3, 24, 18
-0.999687, 13, 193, 28, 208
-0.999688, 25, 299, 40, 314
-0.999688, 1, 181, 16, 196
-0.999689, 1, 233, 16, 248
-0.99969, 31, 187, 46, 202
-0.999691, 3, 191, 18, 206
-0.999694, 243, 101, 258, 116
-0.999695, 45, 223, 60, 238
-0.999695, 257, 9, 272, 24
-0.999696, 367, 141, 382, 156
-0.999697, 15, 253, 30, 268
-0.999698, 23, 175, 38, 190
-0.9997, 13, 241, 28, 256
-0.9997, 277, 59, 292, 74
-0.9997, 261, 45, 276, 60
-0.999701, 259, 51, 274, 66
-0.999701, 255, 81, 270, 96
-0.999702, 373, 143, 388, 158
-0.999703, 253, 69, 268, 84
-0.999705, 261, 107, 276, 122
-0.999706, 269, 111, 284, 126
-0.999706, 265, 53, 280, 68
-0.999707, 21, 281, 36, 296
-0.999707, 367, 147, 382, 162
-0.999708, 263, 119, 278, 134
-0.99971, 253, 87, 268, 102
-0.999712, 459, 295, 474, 310
-0.999714, 249, 113, 264, 128
-0.999715, 257, 93, 272, 108
-0.999716, 455, 183, 470, 198
-0.999718, 247, 73, 262, 88
-0.999718, 257, 3, 272, 18
-0.99972, 287, 129, 302, 144
-0.999723, 249, 121, 264, 136
-0.999725, 255, 115, 270, 130
-0.999729, 127, 225, 142, 240
-0.999733, 277, 51, 292, 66
-0.999733, 23, 291, 38, 306
-0.999733, 265, 85, 280, 100
-0.999734, 379, 145, 394, 160
-0.999734, 245, 107, 260, 122
-0.999734, 261, 99, 276, 114
-0.999736, 31, 179, 46, 194
-0.999741, 281, 129, 296, 144
-0.999744, 245, 93, 260, 108
-0.999747, 255, 105, 270, 120
-0.99975, 29, 169, 44, 184
-0.99975, 271, 117, 286, 132
-0.999751, 249, 81, 264, 96
-0.999754, 469, 1, 500, 128
-0.999756, 17, 263, 32, 278
-0.99976, 255, 99, 270, 114
-0.999764, 261, 113, 276, 128
-0.999781, 247, 87, 262, 102
-0.999782, 19, 273, 34, 288
-0.999783, 251, 1, 266, 16
-0.999789, 267, 47, 282, 62
-0.999791, 273, 123, 288, 138
-0.999856, 33, 1, 64, 128
-1.00004, 93, 1, 124, 256
-1.00051, 469, 1, 500, 256
-1.00083, 153, 65, 184, 320
-1.00094, 165, 65, 196, 320
-1.00116, 177, 65, 208, 320
-1.00183, 113, 113, 176, 240
-1.00473, 121, 1, 184, 128
-1.01555, 145, 1, 208, 128
