1969
-0.10513, 1, 1, 500, 375
-0.280927, 1, 65, 500, 320
-0.368665, 225, 1, 480, 375
-0.397421, 33, 1, 288, 375
-0.502162, 129, 1, 384, 375
-0.550899, 225, 33, 480, 288
-0.559898, 65, 1, 320, 256
-0.643967, 33, 97, 288, 352
-0.6856, 129, 129, 384, 375
-0.772455, 257, 129, 500, 375
-0.835546, 33, 1, 160, 256
-0.838904, 1, 33, 500, 160
-0.849471, 81, 1, 208, 375
-0.857253, 113, 1, 240, 256
-0.858848, 305, 1, 432, 375
-0.859825, 177, 1, 304, 256
-0.86055, 145, 1, 272, 375
-0.862964, 1, 1, 128, 375
-0.865824, 353, 1, 480, 375
-0.867216, 193, 1, 320, 375
-0.874765, 81, 97, 208, 352
-0.875104, 241, 1, 368, 375
-0.87694, 353, 1, 480, 256
-0.878929, 305, 33, 432, 288
-0.884915, 209, 129, 336, 375
-0.884972, 33, 97, 160, 352
-0.887795, 145, 97, 272, 352
-0.893651, 1, 81, 500, 208
-0.894143, 369, 129, 496, 375
-0.895659, 1, 129, 500, 256
-0.897509, 257, 33, 384, 288
-0.900295, 33, 1, 288, 128
-0.905666, 1, 177, 500, 304
-0.917788, 257, 1, 500, 128
-0.919655, 33, 17, 96, 144
-0.923772, 1, 225, 500, 352
-0.926097, 161, 17, 416, 144
-0.928241, 1, 1, 128, 128
-0.929302, 97, 241, 352, 368
-0.931051, 257, 129, 384, 375
-0.931691, 321, 129, 448, 375
-0.932825, 9, 1, 72, 128
-0.933704, 49, 1, 176, 128
-0.933896, 1, 49, 256, 176
-0.934009, 113, 1, 240, 128
-0.934022, 401, 97, 464, 224
-0.934331, 257, 49, 500, 176
-0.934435, 385, 49, 448, 176
-0.934766, 409, 145, 472, 272
-0.935744, 1, 113, 256, 240
-0.936786, 193, 225, 448, 352
-0.937991, 257, 97, 500, 224
-0.938043, 65, 193, 320, 320
-0.938389, 145, 1, 208, 128
-0.939001, 353, 1, 480, 128
-0.939539, 345, 1, 408, 128
-0.939622, 305, 1, 432, 128
-0.941403, 321, 49, 448, 176
-0.941713, 385, 1, 448, 128
-0.942014, 57, 33, 120, 160
-0.942259, 89, 1, 152, 128
-0.94305, 409, 1, 472, 128
-0.943534, 1, 241, 256, 368
-0.943749, 161, 17, 288, 144
-0.944813, 201, 1, 264, 128
-0.945649, 369, 145, 496, 272
-0.94605, 153, 225, 216, 352
-0.946872, 257, 177, 500, 304
-0.94708, 209, 17, 336, 144
-0.947123, 145, 281, 208, 344
-0.947337, 9, 65, 72, 192
-0.947387, 161, 177, 416, 304
-0.948513, 33, 81, 96, 208
-0.948696, 33, 49, 160, 176
-0.948748, 369, 49, 496, 176
-0.949339, 113, 241, 240, 368
-0.950131, 113, 49, 240, 176
-0.950157, 33, 25, 96, 88
-0.950162, 169, 17, 232, 144
-0.950592, 401, 113, 464, 176
-0.950969, 129, 225, 192, 352
-0.951883, 409, 145, 472, 208
-0.952674, 353, 209, 480, 336
-0.952709, 273, 49, 400, 176
-0.953102, 385, 177, 448, 304
-0.953129, 353, 97, 480, 224
-0.953484, 377, 129, 440, 256
-0.954307, 1, 97, 128, 224
-0.954791, 393, 49, 456, 112
-0.955116, 129, 1, 192, 64
-0.955283, 177, 225, 304, 352
-0.955383, 17, 161, 80, 288
-0.955575, 169, 281, 232, 344
-0.9556, 129, 113, 384, 240
-0.955979, 1, 161, 128, 288
-0.956326, 361, 49, 424, 176
-0.956567, 121, 281, 184, 344
-0.956605, 225, 1, 288, 128
-0.956607, 89, 25, 152, 88
-0.956762, 121, 1, 184, 128
-0.957128, 41, 129, 104, 256
-0.957359, 81, 49, 144, 176
-0.957387, 25, 1, 88, 64
-0.958453, 57, 41, 120, 104
-0.958631, 33, 57, 96, 120
-0.958637, 9, 33, 72, 96
-0.958641, 201, 25, 264, 88
-0.958878, 177, 257, 240, 320
-0.959622, 249, 17, 312, 144
-0.96016, 257, 225, 384, 352
-0.9602, 105, 241, 168, 368
-0.960205, 433, 161, 496, 288
-0.960282, 33, 225, 160, 352
-0.960307, 129, 193, 256, 320
-0.960751, 417, 209, 480, 336
-0.9609, 393, 25, 456, 88
-0.961014, 177, 241, 240, 368
-0.961152, 65, 97, 192, 224
-0.961154, 57, 81, 120, 208
-0.961564, 393, 73, 456, 136
-0.961815, 129, 65, 384, 192
-0.961942, 377, 1, 440, 64
-0.961999, 177, 193, 240, 320
-0.962303, 49, 1, 112, 64
-0.962323, 225, 17, 288, 80
-0.962386, 177, 177, 304, 304
-0.962885, 161, 113, 288, 240
-0.962983, 281, 33, 344, 160
-0.963077, 417, 169, 480, 232
-0.963296, 201, 225, 264, 352
-0.963393, 385, 145, 448, 208
-0.964079, 81, 193, 208, 320
-0.964147, 97, 289, 160, 352
-0.964379, 153, 17, 216, 80
-0.964698, 249, 193, 312, 320
-0.964788, 121, 257, 184, 320
-0.964934, 105, 1, 168, 64
-0.965209, 409, 49, 472, 176
-0.965446, 289, 225, 352, 352
-0.965494, 257, 1, 384, 128
-0.965731, 241, 177, 368, 304
-0.96602, 57, 209, 120, 336
-0.966069, 305, 225, 432, 352
-0.966135, 105, 49, 168, 176
-0.966348, 193, 65, 320, 192
-0.966422, 369, 57, 432, 120
-0.966673, 425, 97, 488, 224
-0.966865, 161, 81, 224, 208
-0.967058, 177, 25, 240, 88
-0.967115, 1, 57, 64, 120
-0.96765, 249, 25, 312, 88
-0.967961, 433, 1, 496, 128
-0.968114, 121, 25, 184, 88
-0.968607, 361, 33, 424, 96
-0.968658, 81, 145, 208, 272
-0.96868, 17, 169, 80, 232
-0.968685, 57, 65, 120, 128
-0.968717, 305, 49, 368, 112
-0.968794, 361, 209, 424, 336
-0.968898, 173, 281, 204, 344
-0.968902, 409, 65, 472, 320
-0.969124, 361, 81, 424, 144
-0.969226, 145, 249, 208, 312
-0.969428, 377, 233, 440, 296
-0.969493, 57, 1, 120, 256
-0.969508, 321, 1, 384, 128
-0.969542, 401, 209, 464, 272
-0.969746, 433, 49, 496, 176
-0.969814, 97, 265, 160, 328
-0.969835, 209, 249, 272, 312
-0.970084, 137, 1, 200, 256
-0.970122, 157, 281, 188, 344
-0.970358, 17, 1, 80, 256
-0.970461, 113, 281, 240, 344
-0.970463, 401, 1, 432, 128
-0.970534, 225, 225, 288, 352
-0.970621, 401, 1, 464, 64
-0.970652, 281, 41, 344, 104
-0.970735, 193, 49, 256, 176
-0.970795, 129, 49, 192, 176
-0.970841, 17, 9, 144, 72
-0.971089, 209, 113, 336, 240
-0.971106, 377, 121, 440, 184
-0.971243, 249, 113, 312, 240
-0.97158, 145, 41, 208, 104
-0.971588, 41, 153, 104, 216
-0.97174, 337, 49, 400, 176
-0.971752, 161, 1, 224, 256
-0.971779, 413, 105, 444, 168
-0.972104, 289, 177, 416, 304
-0.972188, 421, 129, 452, 256
-0.972274, 425, 17, 488, 80
-0.972313, 129, 17, 256, 80
-0.972552, 417, 145, 448, 208
-0.972587, 345, 57, 408, 120
-0.972766, 417, 65, 480, 128
-0.972876, 81, 241, 144, 368
-0.973127, 65, 9, 192, 72
-0.973137, 193, 113, 256, 240
-0.973285, 225, 177, 288, 304
-0.973302, 433, 137, 464, 200
-0.973329, 33, 81, 96, 144
-0.973449, 385, 33, 448, 288
-0.973494, 217, 49, 280, 176
-0.973804, 337, 25, 464, 88
-0.973893, 413, 81, 444, 208
-0.973987, 137, 113, 200, 240
-0.974006, 353, 9, 416, 72
-0.974015, 17, 105, 80, 168
-0.974065, 417, 241, 480, 304
-0.974086, 41, 1, 72, 128
-0.974227, 305, 49, 368, 176
-0.974248, 177, 1, 208, 128
-0.974357, 193, 257, 224, 320
-0.974363, 389, 1, 420, 128
-0.974393, 57, 129, 120, 192
-0.974473, 113, 1, 144, 128
-0.974489, 433, 113, 464, 240
-0.9745, 193, 33, 320, 96
-0.974652, 113, 97, 240, 224
-0.974675, 313, 241, 376, 368
-0.97473, 61, 1, 92, 128
-0.974744, 425, 121, 488, 184
-0.974774, 1, 9, 64, 72
-0.974847, 41, 217, 104, 280
-0.975053, 73, 1, 136, 64
-0.975054, 17, 129, 80, 192
-0.975141, 1, 33, 128, 96
-0.975169, 57, 97, 120, 160
-0.975303, 81, 1, 144, 256
-0.975524, 125, 289, 156, 352
-0.975669, 25, 1, 56, 128
-0.975675, 233, 9, 264, 72
-0.975697, 73, 265, 136, 328
-0.975764, 49, 1, 80, 64
-0.975767, 81, 97, 144, 224
-0.975801, 337, 57, 464, 120
-0.975851, 425, 113, 456, 176
-0.975862, 65, 129, 96, 192
-0.975867, 385, 225, 448, 352
-0.975893, 49, 33, 176, 96
-0.975895, 153, 177, 216, 304
-0.975924, 161, 1, 192, 64
-0.975948, 141, 9, 172, 72
-0.975953, 237, 1, 268, 128
-0.975961, 41, 177, 104, 240
-0.975966, 93, 1, 124, 128
-0.976047, 225, 1, 256, 128
-0.976084, 397, 121, 428, 184
-0.9761, 425, 65, 456, 192
-0.976151, 129, 17, 160, 80
-0.976255, 445, 145, 476, 272
-0.976338, 169, 225, 200, 352
-0.976358, 81, 49, 144, 112
-0.976378, 145, 281, 176, 344
-0.976396, 105, 49, 168, 112
-0.976415, 273, 233, 336, 296
-0.976446, 193, 289, 256, 352
-0.976458, 113, 17, 144, 80
-0.976488, 201, 1, 264, 256
-0.976689, 157, 225, 188, 352
-0.976719, 113, 41, 240, 104
-0.976749, 113, 257, 240, 320
-0.976913, 121, 305, 184, 368
-0.976965, 133, 265, 164, 328
-0.977052, 241, 41, 368, 104
-0.977054, 249, 209, 312, 272
-0.977119, 417, 81, 448, 144
-0.977199, 337, 225, 400, 352
-0.977203, 249, 241, 312, 368
-0.977321, 61, 129, 92, 256
-0.977324, 401, 49, 432, 176
-0.977385, 273, 177, 336, 304
-0.97742, 169, 129, 232, 256
-0.977494, 37, 1, 68, 64
-0.977518, 409, 129, 440, 256
-0.977556, 417, 1, 448, 128
-0.977579, 433, 217, 496, 280
-0.977604, 113, 265, 144, 328
-0.977633, 73, 49, 104, 176
-0.977725, 417, 41, 480, 104
-0.977734, 33, 57, 160, 120
-0.977785, 185, 281, 216, 344
-0.977793, 433, 89, 496, 152
-0.977803, 13, 41, 44, 104
-0.977904, 393, 177, 456, 240
-0.978009, 429, 177, 460, 304
-0.978072, 65, 257, 192, 320
-0.978097, 49, 25, 80, 88
-0.978305, 149, 1, 180, 128
-0.97831, 161, 113, 224, 176
-0.978314, 205, 281, 236, 344
-0.97832, 113, 1, 176, 256
-0.978515, 305, 97, 432, 224
-0.978625, 369, 225, 496, 288
-0.978683, 177, 1, 240, 64
-0.978705, 225, 1, 288, 256
-0.978845, 257, 121, 320, 184
-0.978858, 1, 169, 128, 232
-0.97886, 169, 129, 232, 375
-0.978868, 393, 41, 424, 104
-0.978878, 29, 33, 60, 96
-0.97889, 13, 1, 44, 128
-0.978891, 113, 289, 144, 352
-0.978975, 425, 169, 456, 232
-0.979038, 61, 17, 92, 80
-0.979195, 313, 249, 376, 312
-0.979216, 145, 305, 208, 368
-0.979262, 337, 1, 464, 64
-0.979308, 1, 145, 128, 208
-0.979321, 217, 217, 280, 280
-0.979417, 353, 241, 416, 304
-0.979471, 429, 1, 460, 64
-0.979477, 365, 1, 396, 128
-0.979485, 213, 1, 244, 128
-0.979559, 161, 1, 192, 128
-0.979611, 353, 1, 416, 256
-0.979657, 393, 81, 424, 144
-0.979703, 377, 209, 440, 272
-0.979725, 201, 177, 264, 304
-0.979764, 41, 97, 104, 352
-0.97977, 201, 33, 232, 160
-0.979782, 433, 1, 464, 128
-0.979867, 213, 25, 244, 88
-0.979911, 433, 145, 496, 208
-0.979939, 1, 193, 64, 256
-0.979989, 385, 129, 448, 375
-0.980088, 405, 81, 436, 144
-0.980136, 81, 193, 144, 320
-0.980148, 189, 33, 220, 160
-0.980164, 61, 41, 92, 104
-0.980168, 417, 177, 448, 304
-0.980289, 137, 225, 168, 352
-0.980304, 181, 225, 212, 352
-0.980524, 177, 217, 240, 280
-0.98054, 393, 1, 424, 64
-0.980551, 373, 1, 404, 64
-0.980597, 177, 9, 304, 72
-0.98061, 41, 145, 72, 272
-0.980663, 49, 241, 112, 304
-0.980788, 289, 17, 416, 80
-0.980814, 265, 1, 328, 256
-0.98093, 193, 121, 320, 184
-0.981003, 125, 241, 156, 368
-0.981012, 409, 1, 472, 375
-0.981052, 377, 33, 408, 160
-0.981054, 445, 145, 476, 208
-0.981079, 353, 129, 480, 192
-0.981134, 13, 1, 44, 64
-0.981164, 193, 33, 224, 96
-0.981216, 73, 297, 136, 360
-0.981284, 169, 137, 232, 200
-0.981307, 173, 33, 204, 96
-0.981334, 81, 33, 112, 96
-0.981385, 413, 49, 444, 112
-0.981398, 193, 113, 256, 176
-0.981405, 77, 1, 108, 128
-0.981538, 165, 257, 196, 320
-0.981553, 65, 105, 96, 168
-0.981568, 241, 241, 368, 304
-0.981736, 249, 17, 280, 80
-0.981819, 101, 241, 132, 368
-0.981842, 65, 289, 192, 352
-0.981943, 433, 89, 464, 152
-0.98198, 169, 1, 232, 375
-0.982023, 289, 41, 416, 104
-0.982026, 417, 201, 448, 264
-0.982036, 1, 41, 32, 104
-0.982078, 249, 1, 312, 64
-0.9821, 429, 25, 460, 88
-0.982101, 29, 49, 60, 176
-0.982134, 101, 25, 132, 88
-0.982192, 385, 1, 448, 375
-0.982199, 193, 241, 224, 368
-0.982243, 369, 153, 496, 216
-0.982301, 181, 257, 212, 320
-0.982317, 133, 1, 164, 128
-0.982333, 41, 65, 72, 192
-0.982399, 281, 17, 344, 80
-0.982562, 205, 225, 236, 352
-0.982581, 161, 257, 288, 320
-0.982586, 17, 129, 80, 375
-0.982629, 429, 57, 460, 120
-0.982689, 321, 225, 448, 288
-0.982712, 133, 41, 164, 104
-0.982722, 101, 265, 132, 328
-0.982769, 217, 49, 280, 112
-0.982777, 81, 105, 208, 168
-0.982794, 25, 1, 56, 64
-0.982797, 161, 281, 288, 344
-0.982805, 241, 241, 304, 304
-0.982837, 269, 25, 300, 88
-0.982888, 9, 81, 72, 144
-0.9829, 353, 81, 480, 144
-0.982996, 397, 129, 428, 256
-0.983041, 417, 1, 448, 64
-0.983075, 433, 97, 496, 352
-0.983079, 41, 169, 72, 232
-0.98311, 17, 209, 80, 336
-0.98313, 145, 257, 176, 320
-0.983168, 65, 153, 96, 216
-0.983268, 457, 161, 488, 288
-0.983298, 249, 1, 280, 128
-0.983337, 169, 177, 232, 240
-0.983347, 225, 225, 256, 352
-0.983406, 389, 49, 420, 176
-0.983435, 73, 57, 104, 120
-0.983444, 289, 1, 352, 375
-0.983647, 93, 49, 124, 176
-0.983651, 49, 49, 80, 112
-0.983727, 101, 289, 132, 352
-0.98373, 161, 217, 288, 280
-0.983794, 373, 65, 404, 128
-0.983804, 61, 217, 92, 280
-0.983837, 65, 193, 96, 320
-0.983859, 81, 1, 144, 375
-0.98386, 81, 97, 144, 352
-0.983921, 369, 201, 496, 264
-0.98397, 257, 129, 320, 375
-0.984024, 313, 193, 376, 320
-0.98407, 193, 129, 256, 375
-0.984127, 417, 25, 448, 88
-0.984141, 217, 273, 280, 336
-0.984167, 353, 57, 384, 120
-0.984191, 209, 209, 336, 272
-0.984197, 393, 257, 456, 320
-0.9842, 353, 1, 384, 128
-0.984387, 305, 25, 368, 88
-0.984388, 377, 25, 408, 88
-0.984391, 57, 1, 120, 375
-0.984396, 33, 105, 160, 168
-0.984413, 53, 81, 84, 208
-0.984469, 9, 217, 72, 280
-0.984473, 289, 33, 320, 96
-0.984503, 201, 1, 264, 375
-0.984515, 145, 33, 176, 96
-0.984519, 1, 161, 32, 224
-0.984541, 273, 129, 304, 256
-0.984601, 129, 177, 192, 304
-0.984608, 1, 33, 32, 160
-0.984638, 329, 25, 392, 88
-0.98468, 9, 113, 72, 240
-0.984691, 37, 65, 68, 128
-0.984696, 129, 49, 160, 176
-0.984809, 113, 305, 240, 368
-0.984855, 289, 65, 416, 128
-0.984923, 333, 49, 364, 112
-0.984961, 145, 121, 272, 184
-0.985039, 9, 1, 72, 375
-0.985044, 257, 193, 288, 320
-0.9851, 321, 73, 384, 136
-0.985102, 145, 1, 208, 375
-0.985113, 445, 169, 476, 232
-0.985116, 405, 177, 436, 304
-0.985179, 65, 129, 192, 192
-0.985192, 217, 257, 248, 320
-0.985244, 81, 97, 144, 160
-0.985247, 361, 1, 424, 375
-0.985287, 113, 129, 176, 375
-0.985349, 433, 1, 496, 256
-0.985403, 217, 97, 280, 224
-0.985431, 405, 25, 436, 88
-0.98555, 13, 145, 44, 272
-0.98555, 49, 265, 112, 328
-0.985556, 201, 1, 264, 64
-0.985575, 65, 81, 96, 144
-0.985593, 193, 145, 320, 208
-0.985615, 105, 193, 168, 320
-0.985721, 241, 1, 304, 375
-0.985729, 129, 97, 192, 160
-0.985729, 273, 209, 336, 272
-0.985762, 293, 33, 324, 160
-0.985793, 65, 193, 96, 256
-0.985794, 1, 217, 128, 280
-0.985849, 313, 41, 344, 104
-0.98589, 21, 169, 52, 232
-0.985905, 429, 217, 460, 280
-0.985998, 305, 249, 432, 312
-0.986068, 429, 193, 460, 256
-0.986082, 137, 121, 200, 184
-0.986096, 105, 97, 168, 224
-0.98619, 249, 185, 312, 248
-0.98619, 305, 89, 432, 152
-0.9862, 193, 145, 256, 208
-0.986201, 173, 9, 204, 72
-0.986228, 257, 113, 384, 240
-0.986239, 29, 145, 60, 272
-0.986262, 33, 1, 96, 375
-0.986265, 289, 33, 352, 288
-0.986311, 265, 1, 328, 375
-0.98632, 453, 225, 484, 288
-0.986376, 153, 217, 216, 280
-0.986379, 169, 49, 232, 112
-0.986428, 157, 305, 188, 368
-0.986465, 81, 73, 144, 136
-0.986479, 1, 193, 128, 256
-0.986496, 49, 73, 80, 136
-0.986509, 73, 9, 104, 72
-0.98652, 17, 265, 144, 328
-0.986555, 369, 105, 496, 168
-0.986555, 193, 177, 320, 240
-0.98666, 137, 129, 200, 375
-0.98666, 109, 49, 140, 176
-0.986694, 177, 73, 240, 136
-0.986711, 85, 57, 116, 120
-0.986765, 437, 65, 468, 192
-0.986814, 97, 1, 128, 64
-0.986835, 49, 105, 80, 168
-0.986925, 217, 129, 280, 375
-0.986929, 377, 225, 408, 352
-0.98697, 33, 81, 160, 144
-0.987046, 469, 161, 500, 288
-0.987051, 81, 177, 208, 240
-0.98714, 53, 161, 84, 224
-0.987144, 401, 217, 432, 280
-0.987147, 245, 193, 276, 320
-0.987195, 289, 201, 416, 264
-0.987219, 121, 41, 152, 104
-0.987228, 441, 209, 472, 336
-0.987232, 369, 169, 432, 232
-0.987234, 281, 17, 312, 144
-0.987246, 145, 305, 176, 368
-0.987262, 305, 225, 336, 352
-0.987285, 361, 1, 392, 64
-0.987315, 329, 1, 392, 64
-0.987474, 193, 185, 256, 248
-0.987484, 205, 257, 236, 320
-0.987497, 153, 89, 216, 152
-0.987501, 433, 193, 496, 256
-0.987625, 321, 225, 384, 288
-0.987733, 441, 217, 472, 280
-0.987749, 301, 41, 332, 104
-0.987792, 169, 305, 232, 368
-0.987854, 345, 217, 408, 280
-0.987856, 113, 241, 144, 368
-0.987896, 209, 265, 336, 328
-0.987906, 121, 1, 184, 375
-0.98795, 249, 153, 312, 216
-0.987978, 329, 33, 360, 160
-0.987986, 69, 241, 100, 304
-0.988026, 73, 225, 136, 288
-0.988097, 281, 209, 312, 336
-0.988144, 145, 145, 272, 208
-0.988163, 177, 177, 208, 304
-0.988173, 241, 17, 368, 80
-0.988185, 465, 209, 496, 336
-0.988199, 81, 153, 208, 216
-0.988213, 25, 249, 88, 312
-0.988243, 217, 113, 280, 176
-0.98825, 413, 169, 444, 232
-0.988297, 269, 225, 300, 352
-0.988303, 313, 1, 376, 375
-0.988315, 145, 285, 208, 316
-0.988355, 393, 109, 456, 140
-0.988364, 193, 193, 224, 320
-0.988366, 113, 293, 176, 324
-0.988474, 293, 225, 324, 352
-0.988481, 337, 1, 400, 375
-0.988534, 365, 225, 396, 352
-0.988541, 273, 121, 304, 184
-0.988551, 157, 25, 188, 88
-0.988606, 113, 81, 240, 144
-0.98868, 257, 9, 500, 72
-0.988752, 253, 217, 284, 280
-0.988829, 429, 241, 460, 304
-0.988881, 217, 281, 248, 344
-0.988907, 361, 97, 424, 352
-0.988999, 445, 65, 476, 128
-0.989011, 433, 1, 496, 375
-0.989061, 9, 49, 72, 80
-0.989076, 393, 129, 456, 160
-0.989079, 205, 81, 236, 208
-0.989119, 349, 225, 380, 352
-0.989125, 233, 249, 264, 312
-0.989141, 393, 209, 424, 336
-0.98916, 1, 17, 32, 80
-0.98916, 325, 241, 356, 368
-0.989209, 85, 265, 116, 328
-0.989221, 377, 77, 440, 108
-0.989237, 161, 113, 192, 176
-0.989284, 353, 249, 480, 312
-0.989297, 289, 233, 320, 296
-0.989301, 401, 141, 464, 172
-0.989324, 265, 33, 296, 160
-0.989331, 465, 225, 496, 288
-0.98936, 381, 89, 412, 152
-0.989368, 393, 17, 456, 48
-0.989403, 225, 185, 288, 248
-0.989404, 353, 97, 416, 224
-0.989418, 369, 177, 496, 240
-0.989426, 161, 33, 416, 96
-0.989429, 145, 33, 208, 64
-0.989445, 81, 41, 144, 72
-0.989457, 77, 241, 108, 368
-0.98947, 17, 1, 80, 32
-0.989489, 353, 105, 416, 168
-0.989518, 1, 241, 128, 304
-0.989518, 1, 129, 32, 256
-0.989523, 193, 81, 224, 208
-0.989524, 25, 65, 88, 96
-0.989525, 385, 53, 448, 84
-0.989525, 41, 201, 72, 264
-0.989529, 377, 233, 408, 296
-0.989551, 205, 121, 236, 184
-0.989553, 161, 89, 288, 152
-0.989585, 297, 225, 360, 288
-0.989625, 353, 249, 384, 312
-0.989639, 33, 25, 96, 56
-0.989662, 261, 1, 292, 64
-0.989679, 409, 1, 472, 32
-0.9897, 241, 241, 272, 368
-0.989709, 121, 17, 184, 48
-0.989746, 169, 289, 232, 320
-0.989746, 369, 65, 432, 96
-0.989748, 57, 29, 120, 60
-0.989786, 409, 157, 472, 188
-0.989802, 33, 53, 96, 84
-0.989805, 337, 61, 400, 92
-0.989817, 181, 113, 212, 240
-0.989824, 257, 49, 320, 112
-0.98987, 81, 209, 208, 272
-0.989888, 385, 29, 448, 60
-0.989895, 105, 37, 168, 68
-0.989906, 141, 49, 172, 176
-0.989909, 89, 293, 152, 324
-0.989925, 9, 185, 40, 248
-0.989935, 145, 169, 272, 232
-0.989953, 73, 201, 136, 264
-0.989963, 33, 17, 288, 80
-0.989994, 257, 241, 288, 304
-0.990028, 401, 193, 432, 256
-0.990029, 9, 37, 72, 68
-0.990034, 365, 49, 396, 176
-0.990041, 341, 249, 372, 312
-0.990088, 405, 1, 436, 64
-0.990135, 309, 241, 340, 304
-0.990142, 81, 25, 144, 56
-0.990161, 389, 225, 420, 288
-0.990186, 57, 57, 120, 88
-0.990199, 169, 301, 232, 332
-0.990234, 49, 137, 80, 200
-0.990252, 217, 21, 280, 52
-0.990258, 337, 241, 368, 368
-0.990269, 97, 305, 160, 336
-0.990279, 209, 33, 272, 64
-0.990286, 161, 49, 192, 176
-0.990288, 17, 13, 80, 44
-0.990289, 165, 177, 196, 304
-0.99029, 341, 1, 372, 128
-0.990295, 53, 193, 84, 320
-0.990307, 1, 189, 64, 220
-0.990315, 229, 217, 260, 280
-0.990323, 185, 37, 248, 68
-0.990334, 1, 65, 500, 128
-0.990336, 385, 5, 448, 36
-0.990336, 393, 41, 456, 72
-0.990338, 57, 1, 120, 32
-0.990344, 145, 21, 208, 52
-0.990377, 25, 65, 56, 128
-0.990379, 177, 25, 240, 56
-0.990382, 17, 169, 80, 200
-0.990408, 1, 69, 64, 100
-0.990445, 189, 9, 220, 72
-0.990453, 305, 113, 432, 176
-0.990465, 353, 161, 416, 288
-0.99049, 81, 233, 208, 296
-0.990504, 41, 41, 104, 72
-0.990515, 1, 177, 32, 304
-0.990528, 217, 137, 280, 200
-0.990528, 409, 61, 472, 92
-0.990532, 73, 13, 136, 44
-0.990614, 393, 97, 456, 128
-0.990614, 17, 85, 80, 116
-0.990617, 73, 113, 104, 240
-0.990641, 41, 13, 104, 44
-0.99066, 341, 49, 372, 176
-0.990667, 401, 81, 464, 112
-0.990677, 249, 41, 312, 72
-0.990687, 73, 145, 136, 272
-0.990698, 41, 165, 104, 196
-0.990718, 17, 149, 80, 180
-0.990721, 449, 97, 480, 224
-0.990727, 305, 49, 368, 80
-0.990743, 121, 1, 184, 32
-0.990772, 445, 17, 476, 144
-0.990776, 377, 241, 440, 272
-0.990779, 453, 209, 484, 336
-0.990805, 233, 161, 264, 288
-0.990816, 241, 129, 368, 192
-0.990818, 417, 13, 480, 44
-0.990841, 29, 97, 60, 224
-0.990844, 425, 173, 488, 204
-0.990867, 193, 289, 256, 320
-0.990871, 33, 105, 96, 136
-0.990875, 417, 125, 480, 156
-0.990887, 393, 229, 456, 260
-0.99089, 409, 29, 472, 60
-0.990892, 385, 165, 448, 196
-0.990909, 273, 241, 336, 272
-0.990922, 273, 37, 336, 68
-0.990928, 1, 41, 500, 104
-0.990976, 317, 33, 348, 160
-0.990997, 41, 77, 104, 108
-0.991, 153, 121, 216, 152
-0.991031, 281, 49, 344, 80
-0.99107, 65, 313, 192, 375
-0.99107, 97, 9, 160, 40
-0.991071, 57, 113, 120, 144
-0.991094, 369, 129, 432, 160
-0.991104, 41, 153, 104, 184
-0.991144, 217, 253, 280, 284
-0.991159, 113, 289, 240, 320
-0.99117, 321, 161, 448, 224
-0.991184, 401, 217, 464, 248
-0.991195, 353, 77, 416, 108
-0.991199, 361, 1, 424, 32
-0.991209, 253, 113, 284, 240
-0.991219, 13, 65, 44, 192
-0.991225, 369, 17, 432, 48
-0.991248, 329, 73, 392, 104
-0.991273, 193, 49, 256, 112
-0.991284, 1, 49, 256, 112
-0.991295, 145, 305, 208, 336
-0.991317, 425, 145, 488, 176
-0.991325, 305, 61, 368, 92
-0.991336, 41, 197, 104, 228
-0.991354, 257, 41, 500, 104
-0.991365, 313, 33, 376, 288
-0.991367, 17, 289, 144, 352
-0.991391, 17, 205, 80, 236
-0.991404, 121, 309, 184, 340
-0.991414, 161, 45, 224, 76
-0.991424, 377, 145, 440, 176
-0.991425, 105, 53, 168, 84
-0.991445, 361, 53, 424, 84
-0.991445, 433, 113, 496, 144
-0.991471, 241, 245, 304, 276
-0.991491, 241, 29, 304, 60
-0.991502, 409, 245, 472, 276
-0.991529, 17, 137, 80, 168
-0.991559, 85, 97, 116, 224
-0.991564, 433, 97, 496, 128
-0.991564, 81, 53, 144, 84
-0.991567, 269, 177, 300, 304
-0.991571, 241, 153, 368, 216
-0.991599, 353, 41, 416, 72
-0.991604, 49, 253, 112, 284
-0.991618, 9, 25, 72, 56
-0.991683, 433, 1, 496, 32
-0.991698, 321, 253, 384, 284
-0.991704, 57, 129, 120, 160
-0.991747, 369, 89, 432, 120
-0.991766, 297, 245, 360, 276
-0.991797, 345, 249, 408, 280
-0.991803, 73, 305, 136, 336
-0.991816, 89, 241, 120, 368
-0.991823, 97, 281, 160, 312
-0.991825, 33, 121, 96, 152
-0.99187, 193, 301, 256, 332
-0.991889, 417, 205, 480, 236
-0.991898, 153, 133, 216, 164
-0.991906, 169, 277, 232, 308
-0.991915, 41, 209, 104, 240
-0.991919, 65, 69, 128, 100
-0.991928, 417, 41, 480, 72
-0.991932, 57, 141, 120, 172
-0.991934, 41, 185, 104, 216
-0.991953, 321, 1, 384, 32
-0.991956, 145, 249, 208, 280
-0.991957, 57, 101, 120, 132
-0.991985, 121, 293, 152, 324
-0.991998, 377, 81, 408, 208
-0.992034, 425, 73, 488, 104
-0.992048, 205, 289, 236, 320
-0.992054, 193, 121, 256, 152
-0.992092, 417, 185, 480, 216
-0.992097, 121, 281, 184, 312
-0.992128, 249, 65, 312, 192
-0.992129, 137, 45, 200, 76
-0.992131, 169, 205, 232, 236
-0.992133, 249, 121, 312, 152
-0.992133, 409, 257, 472, 288
-0.992146, 433, 225, 496, 256
-0.992163, 377, 253, 440, 284
-0.992164, 193, 57, 320, 120
-0.992168, 433, 29, 496, 60
-0.992184, 433, 145, 464, 176
-0.992212, 193, 289, 224, 320
-0.992272, 241, 185, 368, 248
-0.992291, 417, 109, 448, 140
-0.992307, 173, 49, 204, 176
-0.992324, 145, 289, 176, 320
-0.992357, 425, 133, 456, 164
-0.992387, 65, 113, 96, 144
-0.992419, 105, 41, 136, 72
-0.992429, 397, 125, 428, 156
-0.99249, 181, 285, 212, 316
-0.992506, 49, 1, 80, 32
-0.992507, 5, 185, 36, 216
-0.992508, 113, 25, 144, 56
-0.992512, 273, 81, 304, 208
-0.992513, 117, 37, 148, 68
-0.992521, 413, 133, 444, 164
-0.992524, 61, 45, 92, 76
-0.992527, 381, 1, 412, 32
-0.992551, 253, 241, 284, 368
-0.992552, 433, 1, 464, 32
-0.992555, 93, 49, 124, 80
-0.992571, 157, 285, 188, 316
-0.992585, 221, 49, 252, 176
-0.992586, 413, 1, 444, 32
-0.992589, 101, 293, 132, 324
-0.992589, 437, 157, 468, 188
-0.992594, 417, 165, 448, 196
-0.992597, 169, 285, 200, 316
-0.9926, 233, 17, 264, 48
-0.9926, 305, 33, 336, 160
-0.992601, 133, 297, 164, 328
-0.992603, 373, 65, 404, 96
-0.992605, 65, 129, 96, 160
-0.992609, 425, 89, 456, 120
-0.992617, 417, 149, 448, 180
-0.992642, 1, 53, 32, 84
-0.992643, 45, 13, 76, 44
-0.992651, 65, 9, 96, 40
-0.992662, 293, 177, 324, 304
-0.992668, 49, 57, 80, 88
-0.992672, 397, 25, 428, 56
-0.992675, 189, 29, 220, 60
-0.992676, 17, 73, 48, 104
-0.99268, 77, 41, 108, 72
-0.992684, 401, 113, 432, 144
-0.99269, 65, 21, 96, 52
-0.992691, 17, 37, 48, 68
-0.992701, 25, 21, 56, 52
-0.992704, 49, 109, 80, 140
-0.992708, 409, 45, 440, 76
-0.992713, 421, 61, 452, 92
-0.992715, 101, 29, 132, 60
-0.992723, 173, 33, 204, 64
-0.992724, 21, 1, 52, 32
-0.992751, 389, 41, 420, 72
-0.992752, 133, 13, 164, 44
-0.992756, 309, 45, 340, 76
-0.992756, 333, 53, 364, 84
-0.992757, 57, 33, 88, 64
-0.992762, 201, 25, 232, 56
-0.992764, 33, 57, 64, 88
-0.99277, 73, 53, 104, 84
-0.992784, 425, 73, 456, 104
-0.992786, 37, 1, 68, 32
-0.992792, 133, 25, 164, 56
-0.992793, 113, 13, 144, 44
-0.992794, 293, 37, 324, 68
-0.992797, 413, 77, 444, 108
-0.9928, 277, 33, 308, 64
-0.9928, 21, 193, 52, 224
-0.992808, 153, 9, 184, 40
-0.992815, 157, 21, 188, 52
-0.99282, 417, 205, 448, 236
-0.992821, 381, 29, 412, 60
-0.992823, 209, 301, 240, 332
-0.99283, 349, 61, 380, 92
-0.992831, 385, 13, 416, 44
-0.992832, 321, 49, 352, 80
-0.992845, 429, 13, 460, 44
-0.992846, 213, 21, 244, 52
-0.99287, 41, 73, 72, 104
-0.99287, 413, 33, 444, 64
-0.992873, 257, 25, 288, 56
-0.992874, 361, 65, 392, 96
-0.992874, 425, 25, 456, 56
-0.992879, 133, 41, 164, 72
-0.992884, 257, 121, 500, 184
-0.992887, 385, 73, 416, 104
-0.992888, 33, 41, 64, 72
-0.992892, 113, 53, 144, 84
-0.99291, 45, 205, 76, 236
-0.992914, 445, 145, 476, 176
-0.992915, 197, 301, 228, 332
-0.992917, 433, 101, 464, 132
-0.992918, 49, 85, 80, 116
-0.992923, 401, 1, 432, 32
-0.992923, 417, 121, 448, 152
-0.992929, 117, 305, 148, 336
-0.99293, 145, 33, 176, 64
-0.992944, 401, 65, 432, 96
-0.99295, 37, 29, 68, 60
-0.992959, 1, 173, 32, 204
-0.992963, 173, 301, 204, 332
-0.992964, 1, 65, 32, 96
-0.992966, 229, 29, 260, 60
-0.992969, 61, 221, 92, 252
-0.992969, 29, 93, 60, 124
-0.99297, 145, 301, 176, 332
-0.992974, 245, 21, 276, 52
-0.992977, 185, 301, 216, 332
-0.992978, 397, 93, 428, 124
-0.992985, 253, 37, 284, 68
-0.992988, 193, 41, 224, 72
-0.99299, 393, 53, 424, 84
-0.992991, 17, 173, 48, 204
-0.992991, 437, 133, 468, 164
-0.992991, 53, 69, 84, 100
-0.992991, 49, 45, 80, 76
-0.992992, 205, 37, 236, 68
-0.992996, 61, 205, 92, 236
-0.992997, 125, 281, 156, 312
-0.992997, 65, 153, 96, 184
-0.992998, 413, 13, 444, 44
-0.993002, 433, 177, 464, 208
-0.993003, 101, 17, 132, 48
-0.993004, 13, 21, 44, 52
-0.993009, 101, 305, 132, 336
-0.99301, 157, 97, 188, 224
-0.993014, 413, 89, 444, 120
-0.993025, 129, 309, 160, 340
-0.993031, 33, 193, 64, 224
-0.993031, 161, 305, 192, 336
-0.993033, 21, 57, 52, 88
-0.993036, 397, 77, 428, 108
-0.993037, 125, 1, 156, 32
-0.993053, 29, 69, 60, 100
-0.993071, 161, 281, 176, 344
-0.993155, 205, 177, 236, 304
-0.993156, 241, 65, 368, 128
-0.993183, 193, 33, 320, 64
-0.993203, 429, 225, 460, 352
-0.993258, 1, 37, 128, 68
-0.993263, 1, 17, 500, 80
-0.993274, 187, 281, 202, 344
-0.99328, 17, 49, 144, 80
-0.993308, 257, 209, 500, 272
-0.993314, 81, 193, 112, 320
-0.993352, 181, 281, 196, 344
-0.993436, 167, 281, 182, 344
-0.99346, 281, 129, 344, 375
-0.993492, 225, 233, 480, 296
-0.993506, 257, 65, 500, 128
-0.993554, 81, 29, 208, 60
-0.993556, 1, 13, 128, 44
-0.993581, 449, 137, 464, 200
-0.993585, 161, 57, 416, 120
-0.993602, 173, 281, 188, 344
-0.993733, 337, 65, 464, 96
-0.993741, 1, 97, 256, 160
-0.993776, 151, 289, 166, 352
-0.993802, 17, 25, 144, 56
-0.993827, 353, 49, 384, 176
-0.993871, 1, 89, 500, 152
-0.99396, 65, 289, 320, 352
-0.993964, 1, 173, 128, 204
-0.993967, 81, 17, 208, 48
-0.993981, 217, 281, 232, 344
-0.994004, 417, 105, 432, 168
-0.994019, 225, 97, 480, 160
-0.994021, 439, 113, 454, 176
-0.994029, 71, 1, 86, 64
-0.994066, 125, 289, 140, 352
-0.994126, 421, 25, 436, 88
-0.994151, 129, 241, 384, 304
-0.994156, 127, 265, 142, 328
-0.994234, 161, 305, 288, 368
-0.994273, 49, 5, 176, 36
-0.994279, 321, 53, 448, 84
-0.99429, 161, 21, 288, 52
-0.994293, 237, 49, 268, 176
-0.994301, 153, 1, 168, 64
-0.994313, 33, 1, 48, 64
-0.994335, 1, 217, 500, 280
-0.994342, 115, 17, 130, 80
-0.994348, 131, 289, 146, 352
-0.994374, 427, 153, 442, 216
-0.994376, 435, 65, 450, 128
-0.994395, 193, 129, 224, 256
-0.994419, 113, 41, 240, 72
-0.99443, 305, 137, 432, 200
-0.994438, 353, 273, 480, 336
-0.994448, 33, 257, 288, 320
-0.994479, 139, 9, 154, 72
-0.994498, 145, 193, 272, 256
-0.994519, 33, 217, 288, 280
-0.99452, 185, 257, 200, 320
-0.994521, 1, 41, 16, 104
-0.994524, 121, 193, 152, 320
-0.994588, 431, 33, 446, 96
-0.994595, 425, 65, 440, 128
-0.9946, 147, 1, 162, 64
-0.994617, 65, 17, 80, 80
-0.994635, 129, 9, 384, 72
-0.994646, 75, 41, 90, 104
-0.994672, 57, 1, 72, 64
-0.994684, 217, 257, 232, 320
-0.994687, 421, 129, 436, 192
-0.9947, 417, 1, 432, 64
-0.994715, 399, 9, 414, 72
-0.994717, 427, 129, 442, 192
-0.994725, 211, 281, 226, 344
-0.99473, 427, 1, 442, 64
-0.99473, 121, 265, 136, 328
-0.994774, 125, 17, 140, 80
-0.994785, 129, 121, 384, 184
-0.994815, 257, 145, 500, 208
-0.994831, 373, 177, 404, 304
-0.994835, 119, 289, 134, 352
-0.994845, 137, 265, 152, 328
-0.994853, 437, 25, 452, 88
-0.994872, 193, 281, 208, 344
-0.994878, 437, 137, 452, 200
-0.994887, 427, 105, 442, 168
-0.994899, 461, 113, 492, 240
-0.994906, 33, 177, 288, 240
-0.99491, 411, 121, 426, 184
-0.994913, 321, 1, 448, 32
-0.994914, 407, 81, 422, 144
-0.994925, 205, 129, 236, 256
-0.995001, 243, 9, 258, 72
-0.995002, 237, 9, 252, 72
-0.995015, 421, 161, 436, 224
-0.995023, 389, 1, 404, 64
-0.995043, 65, 293, 192, 324
-0.995048, 1, 121, 256, 184
-0.995049, 173, 9, 188, 72
-0.995061, 49, 1, 64, 64
-0.995073, 441, 57, 456, 120
-0.995078, 257, 241, 384, 272
-0.995083, 65, 241, 96, 368
-0.995092, 1, 121, 500, 184
-0.995104, 23, 41, 38, 104
-0.995114, 1, 1, 128, 32
-0.99513, 337, 41, 464, 72
-0.99513, 33, 61, 160, 92
-0.995141, 85, 33, 100, 96
-0.995145, 439, 89, 454, 152
-0.995169, 129, 209, 384, 272
-0.995181, 13, 49, 28, 112
-0.995181, 421, 201, 436, 264
-0.995195, 33, 73, 288, 136
-0.9952, 1, 145, 500, 208
-0.995209, 151, 265, 166, 328
-0.995211, 1, 161, 128, 192
-0.995218, 179, 257, 194, 320
-0.995224, 353, 77, 480, 108
-0.995227, 143, 289, 158, 352
-0.995228, 409, 241, 440, 368
-0.995233, 411, 49, 426, 112
-0.995251, 353, 17, 480, 48
-0.995255, 225, 45, 352, 76
-0.995271, 273, 113, 336, 240
-0.995291, 209, 289, 336, 352
-0.995325, 133, 17, 148, 80
-0.995336, 91, 33, 106, 96
-0.995343, 437, 169, 452, 232
-0.995344, 73, 113, 88, 176
-0.995344, 129, 265, 384, 328
-0.995354, 369, 53, 496, 84
-0.99538, 209, 97, 336, 160
-0.995404, 253, 49, 284, 176
-0.995441, 211, 257, 226, 320
-0.995452, 417, 65, 432, 128
-0.99546, 103, 17, 118, 80
-0.995464, 59, 25, 74, 88
-0.995482, 381, 1, 396, 64
-0.995484, 129, 145, 384, 208
-0.995505, 443, 1, 458, 64
-0.995521, 79, 121, 94, 184
-0.995522, 167, 1, 182, 64
-0.995525, 43, 65, 58, 128
-0.995542, 111, 265, 126, 328
-0.995601, 195, 257, 210, 320
-0.995601, 375, 1, 390, 64
-0.995622, 289, 65, 416, 96
-0.995622, 33, 49, 48, 112
-0.995628, 369, 1, 496, 32
-0.995632, 205, 257, 220, 320
-0.99565, 67, 105, 82, 168
-0.995657, 161, 17, 176, 80
-0.99567, 399, 89, 414, 152
-0.995674, 383, 57, 398, 120
-0.995688, 145, 33, 160, 96
-0.995703, 33, 145, 288, 208
-0.995704, 433, 105, 448, 168
-0.995709, 391, 33, 406, 96
-0.995712, 403, 49, 418, 112
-0.995724, 5, 161, 20, 224
-0.995727, 273, 53, 400, 84
-0.995729, 41, 1, 56, 64
-0.995733, 105, 41, 120, 104
-0.995745, 137, 289, 152, 352
-0.995749, 1, 73, 128, 104
-0.995753, 409, 25, 424, 88
-0.995774, 227, 25, 242, 88
-0.995777, 1, 149, 128, 180
-0.995805, 411, 1, 426, 64
-0.995816, 261, 1, 276, 64
-0.99582, 113, 301, 240, 332
-0.995838, 7, 49, 22, 112
-0.995839, 77, 17, 92, 80
-0.995849, 65, 41, 192, 72
-0.995866, 193, 125, 320, 156
-0.995872, 33, 25, 48, 88
-0.995877, 49, 65, 64, 128
-0.995888, 143, 265, 158, 328
-0.995891, 197, 25, 212, 88
-0.995892, 1, 189, 128, 220
-0.995903, 225, 185, 480, 248
-0.995925, 369, 153, 496, 184
-0.995948, 65, 41, 80, 104
-0.995955, 99, 41, 114, 104
-0.995957, 109, 9, 124, 72
-0.995972, 49, 41, 64, 104
-0.99598, 215, 17, 230, 80
-0.99599, 183, 25, 198, 88
-0.995995, 401, 113, 416, 176
-0.996014, 173, 257, 188, 320
-0.996028, 337, 129, 400, 375
-0.99603, 57, 161, 72, 224
-0.996035, 369, 225, 496, 256
-0.996051, 23, 9, 38, 72
-0.996053, 209, 33, 224, 96
-0.996054, 369, 29, 496, 60
-0.996057, 205, 281, 220, 344
-0.996059, 445, 97, 460, 160
-0.996072, 1, 193, 500, 256
-0.996077, 113, 289, 128, 352
-0.996096, 49, 305, 176, 336
-0.996097, 41, 25, 56, 88
-0.996101, 101, 1, 132, 256
-0.996105, 369, 237, 496, 268
-0.996117, 369, 141, 496, 172
-0.996156, 455, 145, 470, 208
-0.996163, 63, 65, 78, 128
-0.99618, 105, 265, 120, 328
-0.996185, 189, 33, 204, 96
-0.996189, 155, 25, 170, 88
-0.996197, 159, 257, 174, 320
-0.996209, 447, 25, 462, 88
-0.996232, 417, 1, 448, 256
-0.996233, 303, 33, 318, 96
-0.996235, 305, 29, 432, 60
-0.996237, 85, 1, 116, 256
-0.996244, 415, 193, 430, 256
-0.99627, 129, 169, 384, 232
-0.996294, 163, 305, 178, 368
-0.996294, 165, 257, 180, 320
-0.996304, 1, 289, 500, 352
-0.996306, 1, 205, 128, 236
-0.996313, 81, 53, 208, 84
-0.996315, 189, 1, 220, 256
-0.996319, 369, 165, 496, 196
-0.996326, 257, 265, 384, 328
-0.996347, 203, 33, 218, 96
-0.996354, 347, 49, 362, 112
-0.996395, 321, 237, 448, 268
-0.996401, 289, 41, 416, 72
-0.996449, 177, 249, 304, 280
-0.996477, 129, 257, 256, 288
-0.996491, 305, 129, 368, 375
-0.996505, 69, 1, 100, 256
-0.996522, 33, 109, 160, 140
-0.996524, 193, 137, 320, 168
-0.996558, 33, 1, 64, 256
-0.99656, 1, 137, 128, 168
-0.996609, 161, 297, 288, 328
-0.996636, 133, 1, 164, 256
-0.996639, 145, 9, 272, 40
-0.996639, 209, 1, 240, 256
-0.996656, 353, 249, 480, 280
-0.996662, 369, 97, 496, 128
-0.996696, 369, 125, 496, 156
-0.996779, 65, 129, 192, 160
-0.996781, 81, 205, 208, 236
-0.996782, 257, 105, 384, 168
-0.996787, 97, 5, 224, 36
-0.996801, 57, 1, 88, 256
-0.996814, 397, 1, 428, 256
-0.996829, 113, 129, 240, 160
-0.99683, 429, 65, 460, 320
-0.996837, 213, 293, 228, 324
-0.996842, 17, 85, 144, 116
-0.996843, 205, 289, 220, 320
-0.996847, 337, 109, 464, 140
-0.996856, 447, 141, 462, 172
-0.996857, 169, 1, 200, 256
-0.996872, 127, 289, 142, 320
-0.996891, 113, 277, 240, 308
-0.996894, 65, 265, 192, 296
-0.996921, 117, 1, 148, 256
-0.996983, 273, 313, 400, 375
-0.996986, 137, 297, 152, 328
-0.996991, 417, 129, 432, 160
-0.997001, 5, 33, 36, 288
-0.997006, 1, 241, 500, 304
-0.997043, 147, 293, 162, 324
-0.997069, 153, 1, 184, 256
-0.99707, 193, 149, 320, 180
-0.997072, 209, 21, 336, 52
-0.997088, 193, 285, 320, 316
-0.997089, 121, 293, 136, 324
-0.997093, 193, 205, 320, 236
-0.997111, 17, 293, 144, 324
-0.99712, 305, 77, 432, 108
-0.99713, 33, 97, 160, 128
-0.997157, 305, 225, 432, 256
-0.997162, 185, 285, 200, 316
-0.997181, 113, 113, 240, 144
-0.997185, 443, 1, 458, 32
-0.997185, 305, 249, 432, 280
-0.997186, 369, 213, 496, 244
-0.997201, 1, 169, 500, 232
-0.997201, 269, 1, 300, 256
-0.997201, 113, 141, 240, 172
-0.997228, 49, 141, 176, 172
-0.99724, 17, 33, 48, 288
-0.997251, 193, 289, 208, 320
-0.997266, 209, 57, 336, 88
-0.997267, 199, 293, 214, 324
-0.997267, 81, 169, 208, 200
-0.997289, 439, 101, 454, 132
-0.997297, 59, 1, 74, 32
-0.997312, 425, 133, 440, 164
-0.997314, 289, 289, 416, 352
-0.997332, 119, 41, 134, 72
-0.997337, 81, 157, 208, 188
-0.997347, 241, 13, 256, 44
-0.997356, 177, 45, 304, 76
-0.997363, 17, 65, 32, 96
-0.997365, 15, 181, 30, 212
-0.997367, 407, 113, 422, 144
-0.997372, 221, 1, 252, 256
-0.997383, 437, 17, 452, 48
-0.997389, 221, 289, 236, 320
-0.99739, 409, 29, 424, 60
-0.99739, 109, 41, 124, 72
-0.99739, 415, 41, 430, 72
-0.997395, 225, 313, 352, 375
-0.997404, 45, 1, 76, 256
-0.997404, 81, 253, 208, 284
-0.99741, 53, 53, 68, 84
-0.997432, 49, 73, 176, 104
-0.997436, 73, 117, 88, 148
-0.997458, 179, 285, 194, 316
-0.997464, 401, 41, 416, 72
-0.997465, 1, 125, 128, 156
-0.997467, 369, 177, 496, 208
-0.997472, 123, 25, 138, 56
-0.997475, 437, 1, 452, 32
-0.997478, 437, 89, 452, 120
-0.99749, 103, 41, 118, 72
-0.997492, 21, 185, 36, 216
-0.997512, 5, 49, 20, 80
-0.997534, 73, 49, 88, 80
-0.997538, 23, 69, 38, 100
-0.997543, 81, 117, 96, 148
-0.997548, 177, 113, 304, 144
-0.997552, 193, 193, 320, 224
-0.997567, 409, 125, 424, 156
-0.997573, 1, 217, 128, 248
-0.997578, 67, 13, 82, 44
-0.997585, 33, 1, 48, 32
-0.997592, 65, 97, 96, 352
-0.997595, 441, 1, 472, 256
-0.997611, 441, 141, 456, 172
-0.997617, 109, 293, 124, 324
-0.99762, 115, 29, 130, 60
-0.997621, 253, 1, 284, 256
-0.997623, 421, 33, 436, 64
-0.997627, 1, 245, 128, 276
-0.99763, 81, 181, 208, 212
-0.997645, 7, 181, 22, 212
-0.997649, 81, 193, 208, 224
-0.997649, 423, 149, 438, 180
-0.997651, 439, 121, 454, 152
-0.997652, 417, 65, 432, 96
-0.997654, 31, 65, 46, 96
-0.997654, 427, 1, 442, 32
-0.997669, 149, 37, 164, 68
-0.997671, 49, 277, 176, 308
-0.997674, 51, 1, 66, 32
-0.997688, 109, 53, 124, 84
-0.997689, 429, 21, 444, 52
-0.997689, 115, 53, 130, 84
-0.997695, 415, 1, 430, 32
-0.997697, 405, 97, 436, 352
-0.997705, 413, 113, 428, 144
-0.997705, 421, 49, 436, 80
-0.997706, 421, 201, 436, 232
-0.997708, 167, 285, 182, 316
-0.997711, 397, 29, 412, 60
-0.997711, 75, 37, 90, 68
-0.997724, 257, 21, 384, 52
-0.997728, 417, 97, 448, 352
-0.997739, 337, 305, 464, 368
-0.997742, 29, 17, 44, 48
-0.997742, 385, 65, 400, 96
-0.997746, 273, 97, 304, 352
-0.997748, 73, 25, 88, 56
-0.997749, 431, 133, 446, 164
-0.997759, 155, 29, 170, 60
-0.99776, 449, 1, 464, 32
-0.997761, 75, 9, 90, 40
-0.997763, 447, 17, 462, 48
-0.997765, 427, 77, 442, 108
-0.997768, 407, 41, 422, 72
-0.997768, 71, 105, 86, 136
-0.99777, 209, 97, 240, 352
-0.997778, 173, 285, 188, 316
-0.997783, 121, 13, 136, 44
-0.997786, 65, 113, 80, 144
-0.997787, 61, 65, 76, 96
-0.997791, 65, 1, 80, 32
-0.9978, 129, 97, 384, 160
-0.997801, 193, 181, 320, 212
-0.997801, 131, 17, 146, 48
-0.997807, 445, 101, 460, 132
-0.997812, 149, 13, 164, 44
-0.997812, 115, 297, 130, 328
-0.997815, 241, 33, 368, 64
-0.997817, 393, 1, 408, 32
-0.997826, 97, 313, 224, 344
-0.997833, 377, 1, 392, 32
-0.997835, 129, 245, 256, 276
-0.997839, 79, 49, 94, 80
-0.997844, 43, 53, 58, 84
-0.997849, 241, 253, 368, 284
-0.997852, 321, 121, 448, 152
-0.997854, 141, 1, 156, 32
-0.997856, 197, 29, 212, 60
-0.997861, 79, 21, 94, 52
-0.997864, 155, 1, 170, 32
-0.997865, 129, 53, 256, 84
-0.997867, 383, 1, 398, 32
-0.997871, 427, 161, 442, 192
-0.997871, 23, 5, 38, 36
-0.997886, 401, 113, 416, 144
-0.997894, 441, 65, 456, 96
-0.997897, 317, 45, 332, 76
-0.997901, 35, 49, 50, 80
-0.997905, 429, 109, 444, 140
-0.997906, 47, 205, 62, 236
-0.997912, 451, 157, 466, 188
-0.997914, 131, 1, 146, 32
-0.99792, 193, 217, 320, 248
-0.997925, 129, 37, 144, 68
-0.997928, 323, 45, 338, 76
-0.997929, 427, 89, 442, 120
-0.997932, 321, 133, 448, 164
-0.997934, 129, 213, 256, 244
-0.997936, 219, 21, 234, 52
-0.99794, 165, 9, 180, 40
-0.997941, 1, 181, 16, 212
-0.997944, 7, 193, 22, 224
-0.997947, 433, 149, 448, 180
-0.997947, 193, 129, 224, 375
-0.99795, 203, 29, 218, 60
-0.997951, 85, 45, 100, 76
-0.997957, 233, 17, 248, 48
-0.997963, 241, 1, 272, 256
-0.997964, 145, 129, 176, 375
-0.997964, 321, 89, 448, 120
-0.997966, 247, 17, 262, 48
-0.99797, 211, 281, 226, 312
-0.997971, 143, 13, 158, 44
-0.997972, 209, 25, 224, 56
-0.997973, 209, 237, 336, 268
-0.997982, 177, 273, 304, 304
-0.997988, 1, 61, 16, 92
-0.997995, 193, 169, 320, 200
-0.997996, 33, 37, 48, 68
-0.997997, 187, 33, 202, 64
-0.997997, 135, 33, 150, 64
-0.997997, 381, 13, 396, 44
-0.997999, 425, 65, 440, 96
-0.998009, 347, 57, 362, 88
-0.99801, 59, 161, 74, 192
-0.998015, 355, 57, 370, 88
-0.998017, 109, 21, 124, 52
-0.998017, 297, 1, 328, 256
-0.998019, 21, 25, 36, 56
-0.998023, 11, 57, 26, 88
-0.998026, 281, 29, 296, 60
-0.99804, 81, 97, 112, 352
-0.998054, 241, 125, 368, 156
-0.998114, 1, 233, 128, 264
-0.998114, 369, 201, 496, 232
-0.998149, 129, 77, 256, 108
-0.998222, 161, 289, 416, 352
-0.998222, 41, 129, 72, 375
-0.998227, 81, 101, 208, 132
-0.998232, 17, 257, 144, 288
-0.998234, 321, 149, 448, 180
-0.998266, 253, 129, 284, 375
-0.99827, 173, 129, 204, 375
-0.998302, 53, 97, 84, 352
-0.998316, 157, 97, 188, 352
-0.998342, 145, 173, 272, 204
-0.998364, 257, 1, 384, 32
-0.998372, 241, 213, 368, 244
-0.998386, 81, 241, 208, 272
-0.998387, 393, 131, 456, 146
-0.998387, 145, 153, 272, 184
-0.998407, 257, 201, 384, 232
-0.998433, 97, 43, 128, 58
-0.998434, 65, 213, 96, 228
-0.998434, 37, 49, 68, 64
-0.998434, 337, 59, 368, 74
-0.998434, 153, 289, 216, 304
-0.998435, 445, 129, 476, 375
-0.998437, 377, 1, 408, 16
-0.998437, 101, 307, 132, 322
-0.998438, 413, 131, 444, 146
-0.998438, 97, 297, 160, 312
-0.998438, 17, 33, 48, 48
-0.998439, 209, 27, 240, 42
-0.998439, 49, 43, 80, 58
-0.99844, 33, 65, 64, 80
-0.99844, 17, 39, 48, 54
-0.998441, 1, 77, 32, 92
-0.998441, 69, 37, 100, 52
-0.998442, 65, 135, 96, 150
-0.998442, 417, 35, 448, 50
-0.998442, 405, 113, 436, 128
-0.998442, 173, 39, 204, 54
-0.998442, 417, 123, 448, 138
-0.998444, 165, 31, 196, 46
-0.998444, 149, 37, 180, 52
-0.998444, 173, 289, 204, 304
-0.998445, 413, 85, 444, 100
-0.998446, 97, 301, 128, 316
-0.998447, 137, 299, 168, 314
-0.998447, 345, 1, 376, 16
-0.998448, 433, 3, 464, 18
-0.998448, 321, 53, 352, 68
-0.998449, 241, 137, 368, 168
-0.998449, 21, 45, 52, 60
-0.998449, 425, 85, 456, 100
-0.998449, 29, 13, 60, 28
-0.99845, 33, 49, 96, 64
-0.998451, 101, 19, 132, 34
-0.998451, 25, 33, 88, 48
-0.998452, 229, 33, 260, 48
-0.998454, 101, 55, 132, 70
-0.998455, 13, 71, 44, 86
-0.998456, 129, 47, 160, 62
-0.998456, 385, 29, 416, 44
-0.998458, 393, 15, 456, 30
-0.998459, 397, 123, 428, 138
-0.99846, 177, 27, 208, 42
-0.99846, 409, 1, 440, 16
-0.99846, 145, 185, 272, 216
-0.998461, 81, 39, 144, 54
-0.998462, 17, 17, 80, 32
-0.998462, 397, 139, 428, 154
-0.998462, 409, 143, 472, 158
-0.998464, 9, 75, 72, 90
-0.998465, 5, 193, 36, 208
-0.998466, 29, 7, 60, 22
-0.998466, 61, 51, 92, 66
-0.998466, 33, 209, 64, 224
-0.998467, 393, 39, 424, 54
-0.998467, 173, 305, 204, 320
-0.998467, 49, 111, 80, 126
-0.998468, 1, 51, 32, 66
-0.998468, 105, 35, 168, 50
-0.998468, 393, 137, 456, 152
-0.998469, 421, 63, 452, 78
-0.998469, 429, 25, 460, 40
-0.998471, 393, 115, 456, 130
-0.998473, 429, 93, 460, 108
-0.998473, 1, 59, 32, 74
-0.998473, 49, 71, 80, 86
-0.998473, 13, 79, 44, 94
-0.998474, 21, 1, 52, 16
-0.998474, 113, 293, 144, 308
-0.998474, 421, 143, 452, 158
-0.998474, 213, 297, 244, 312
-0.998474, 401, 145, 432, 160
-0.998475, 81, 55, 112, 70
-0.998476, 61, 45, 92, 60
-0.998476, 101, 37, 132, 52
-0.998477, 61, 71, 92, 86
-0.998477, 57, 31, 120, 46
-0.998478, 189, 35, 220, 50
-0.998478, 49, 21, 80, 36
-0.998478, 113, 305, 176, 320
-0.998479, 17, 27, 48, 42
-0.99848, 401, 109, 464, 124
-0.99848, 61, 65, 92, 80
-0.99848, 409, 47, 440, 62
-0.99848, 169, 33, 232, 48
-0.998481, 41, 89, 72, 104
-0.998482, 385, 67, 448, 82
-0.998482, 57, 27, 88, 42
-0.998484, 29, 23, 60, 38
-0.998484, 53, 83, 84, 98
-0.998485, 17, 25, 80, 40
-0.998485, 37, 81, 68, 96
-0.998486, 145, 89, 272, 120
-0.998486, 81, 27, 144, 42
-0.998487, 385, 33, 448, 48
-0.998487, 393, 21, 456, 36
-0.998487, 37, 55, 68, 70
-0.998488, 133, 97, 164, 352
-0.998488, 41, 7, 72, 22
-0.998489, 9, 51, 72, 66
-0.998491, 49, 63, 80, 78
-0.998491, 145, 9, 176, 24
-0.998493, 409, 167, 472, 182
-0.998493, 113, 291, 176, 306
-0.998494, 117, 35, 148, 50
-0.998495, 129, 29, 160, 44
-0.998495, 437, 155, 468, 170
-0.998495, 393, 83, 456, 98
-0.998496, 9, 65, 72, 80
-0.998496, 177, 291, 240, 306
-0.998496, 369, 77, 432, 92
-0.998496, 397, 31, 428, 46
-0.998497, 129, 35, 160, 50
-0.998498, 81, 33, 144, 48
-0.998498, 413, 29, 444, 44
-0.998498, 49, 55, 112, 70
-0.998498, 425, 151, 456, 166
-0.998499, 145, 43, 208, 58
-0.9985, 417, 165, 448, 180
-0.9985, 45, 13, 76, 28
-0.9985, 409, 149, 472, 164
-0.9985, 393, 125, 456, 140
-0.998501, 385, 63, 416, 78
-0.998501, 9, 1, 72, 16
-0.998502, 441, 161, 472, 176
-0.998502, 57, 5, 88, 20
-0.998502, 429, 101, 460, 116
-0.998503, 217, 33, 280, 48
-0.998503, 233, 17, 264, 32
-0.998507, 137, 31, 200, 46
-0.998507, 377, 27, 440, 42
-0.998507, 385, 55, 448, 70
-0.998508, 65, 19, 96, 34
-0.998508, 113, 27, 144, 42
-0.998508, 1, 265, 500, 328
-0.99851, 9, 185, 40, 200
-0.99851, 393, 45, 456, 60
-0.998511, 25, 9, 88, 24
-0.998511, 169, 305, 232, 320
-0.998512, 9, 59, 72, 74
-0.998514, 101, 295, 132, 310
-0.998514, 49, 41, 112, 56
-0.998514, 421, 129, 436, 256
-0.998514, 129, 41, 160, 56
-0.998515, 105, 45, 168, 60
-0.998516, 393, 1, 456, 16
-0.998516, 409, 159, 472, 174
-0.998516, 427, 65, 442, 192
-0.998517, 49, 63, 112, 78
-0.998517, 105, 27, 168, 42
-0.998518, 1, 193, 64, 208
-0.998518, 421, 7, 452, 22
-0.998519, 337, 65, 400, 80
-0.998519, 41, 21, 104, 36
-0.99852, 393, 1, 424, 16
-0.998521, 61, 113, 92, 128
-0.998521, 113, 51, 144, 66
-0.998521, 433, 9, 464, 24
-0.998521, 33, 313, 288, 375
-0.998522, 65, 13, 96, 28
-0.998523, 61, 129, 92, 144
-0.998523, 177, 297, 240, 312
-0.998523, 17, 43, 80, 58
-0.998524, 97, 49, 128, 64
-0.998525, 33, 69, 96, 84
-0.998526, 409, 29, 472, 44
-0.998527, 405, 9, 436, 24
-0.998527, 157, 287, 188, 302
-0.998527, 121, 15, 184, 30
-0.998527, 385, 147, 448, 162
-0.998527, 89, 307, 152, 322
-0.998527, 65, 15, 128, 30
-0.998527, 109, 43, 140, 58
-0.998527, 145, 305, 176, 320
-0.998528, 393, 97, 424, 352
-0.998529, 137, 25, 200, 40
-0.99853, 41, 1, 72, 16
-0.998532, 425, 77, 456, 92
-0.998533, 73, 57, 136, 72
-0.998534, 369, 1, 432, 16
-0.998535, 429, 19, 460, 34
-0.998535, 81, 47, 144, 62
-0.998537, 145, 201, 272, 232
-0.998537, 189, 293, 220, 308
-0.998537, 73, 65, 104, 80
-0.998537, 241, 69, 368, 100
-0.998539, 405, 39, 436, 54
-0.998539, 33, 1, 96, 16
-0.99854, 369, 61, 432, 76
-0.998541, 41, 115, 104, 130
-0.998542, 81, 47, 112, 62
-0.998542, 393, 39, 456, 54
-0.998542, 353, 71, 416, 86
-0.998543, 125, 309, 156, 324
-0.998543, 33, 85, 96, 100
-0.998546, 401, 73, 464, 88
-0.998548, 409, 7, 472, 22
-0.998551, 417, 109, 448, 124
-0.998551, 361, 11, 424, 26
-0.998554, 137, 293, 168, 308
-0.998554, 281, 43, 344, 58
-0.998557, 437, 149, 468, 164
-0.998557, 321, 59, 384, 74
-0.998559, 265, 37, 328, 52
-0.998559, 369, 19, 432, 34
-0.998561, 401, 129, 432, 144
-0.998561, 105, 21, 168, 36
-0.998562, 385, 9, 448, 24
-0.998562, 209, 23, 272, 38
-0.998563, 185, 27, 248, 42
-0.998563, 17, 107, 80, 122
-0.998565, 117, 299, 148, 314
-0.998566, 137, 37, 200, 52
-0.998566, 417, 137, 448, 152
-0.998568, 425, 179, 488, 194
-0.998568, 297, 49, 360, 64
-0.998569, 137, 307, 200, 322
-0.998571, 57, 9, 120, 24
-0.998572, 105, 9, 168, 24
-0.998573, 201, 297, 264, 312
-0.998573, 409, 63, 472, 78
-0.998574, 41, 165, 104, 180
-0.998575, 249, 31, 312, 46
-0.998579, 41, 171, 104, 186
-0.998582, 153, 125, 216, 140
-0.998582, 161, 21, 224, 36
-0.998583, 65, 119, 96, 134
-0.998584, 9, 177, 72, 192
-0.998584, 209, 255, 272, 270
-0.998586, 105, 51, 168, 66
-0.998587, 57, 49, 120, 64
-0.998588, 129, 65, 256, 96
-0.998591, 81, 21, 144, 36
-0.998592, 437, 97, 452, 224
-0.998593, 9, 81, 72, 96
-0.998593, 89, 291, 152, 306
-0.998595, 433, 123, 496, 138
-0.998595, 353, 25, 416, 40
-0.998596, 201, 291, 264, 306
-0.998596, 129, 299, 192, 314
-0.998596, 33, 75, 96, 90
-0.998597, 409, 173, 472, 188
-0.998597, 369, 129, 432, 144
-0.998598, 381, 65, 412, 320
-0.998599, 169, 43, 232, 58
-0.9986, 57, 77, 120, 92
-0.998601, 57, 71, 120, 86
-0.998603, 417, 1, 480, 16
-0.998604, 417, 135, 480, 150
-0.998606, 73, 301, 136, 316
-0.998606, 409, 51, 472, 66
-0.998607, 209, 291, 240, 306
-0.998608, 129, 1, 192, 16
-0.998609, 17, 183, 80, 198
-0.99861, 393, 231, 456, 246
-0.99861, 385, 165, 448, 180
-0.99861, 377, 249, 440, 264
-0.99861, 177, 261, 304, 292
-0.99861, 401, 89, 464, 104
-0.99861, 249, 119, 312, 134
-0.998611, 425, 15, 488, 30
-0.998612, 41, 109, 104, 124
-0.998613, 409, 57, 472, 72
-0.998614, 361, 123, 424, 138
-0.998615, 385, 155, 448, 170
-0.998616, 425, 129, 488, 144
-0.998616, 273, 241, 336, 256
-0.998617, 241, 177, 368, 208
-0.998619, 421, 1, 452, 16
-0.998632, 55, 1, 70, 128
-0.998635, 413, 15, 444, 30
-0.998636, 201, 299, 232, 314
-0.998642, 433, 143, 464, 158
-0.998645, 81, 217, 208, 248
-0.998648, 109, 1, 124, 128
-0.998661, 121, 1, 136, 128
-0.998669, 305, 13, 432, 44
-0.99867, 125, 293, 156, 308
-0.998693, 449, 129, 464, 256
-0.998701, 117, 97, 148, 352
-0.998725, 33, 1, 48, 128
-0.998726, 281, 1, 312, 256
-0.998739, 115, 1, 130, 128
-0.998741, 423, 1, 438, 128
-0.998749, 345, 1, 376, 256
-0.998754, 1, 129, 32, 375
-0.998756, 387, 1, 402, 128
-0.998763, 221, 129, 252, 375
-0.998777, 187, 1, 202, 128
-0.998778, 409, 1, 424, 128
-0.998785, 427, 129, 442, 256
-0.998786, 61, 1, 76, 128
-0.998789, 83, 49, 98, 176
-0.998793, 447, 81, 462, 208
-0.998796, 419, 49, 434, 176
-0.99881, 173, 1, 188, 128
-0.99881, 135, 1, 150, 128
-0.998822, 127, 1, 142, 128
-0.998835, 419, 177, 434, 304
-0.998837, 175, 225, 190, 352
-0.998837, 357, 1, 388, 256
-0.998845, 401, 33, 416, 160
-0.998848, 437, 49, 452, 176
-0.998858, 381, 17, 396, 144
-0.99886, 157, 225, 172, 352
-0.998864, 225, 1, 240, 128
-0.998867, 49, 1, 64, 128
-0.998884, 99, 1, 114, 128
-0.998886, 233, 97, 264, 352
-0.998888, 163, 225, 178, 352
-0.998897, 395, 1, 410, 128
-0.998899, 181, 225, 196, 352
-0.998901, 239, 1, 254, 128
-0.998904, 181, 1, 196, 128
-0.998909, 285, 129, 316, 375
-0.998915, 251, 1, 266, 128
-0.998921, 75, 33, 90, 160
-0.998921, 245, 1, 260, 128
-0.998927, 433, 1, 448, 128
-0.998934, 455, 145, 470, 272
-0.998947, 413, 81, 428, 208
-0.998956, 169, 225, 184, 352
-0.998957, 77, 113, 92, 240
-0.99896, 187, 225, 202, 352
-0.998964, 29, 129, 60, 375
-0.998971, 417, 1, 432, 128
-0.998978, 199, 33, 214, 160
-0.998979, 193, 1, 208, 128
-0.998982, 415, 129, 430, 256
-0.998992, 367, 1, 382, 128
-0.998993, 143, 1, 158, 128
-0.998999, 149, 1, 164, 128
-0.998999, 163, 1, 178, 128
-0.999002, 201, 225, 216, 352
-0.999005, 205, 33, 220, 160
-0.999007, 217, 17, 232, 144
-0.999008, 39, 17, 54, 144
-0.999022, 193, 225, 208, 352
-0.999023, 91, 33, 106, 160
-0.999031, 21, 1, 36, 128
-0.999036, 1, 33, 16, 160
-0.999038, 257, 1, 272, 128
-0.999046, 151, 225, 166, 352
-0.999047, 431, 177, 446, 304
-0.999048, 233, 1, 248, 128
-0.99906, 57, 145, 72, 272
-0.999069, 465, 65, 496, 320
-0.999072, 67, 17, 82, 144
-0.999074, 53, 49, 68, 176
-0.999078, 461, 161, 476, 288
-0.999079, 13, 129, 44, 375
-0.999081, 7, 33, 22, 160
-0.999082, 157, 1, 172, 128
-0.999083, 215, 225, 230, 352
-0.999089, 141, 225, 156, 352
-0.999093, 81, 1, 96, 128
-0.999104, 329, 1, 360, 256
-0.999105, 439, 145, 454, 272
-0.999108, 449, 17, 464, 144
-0.999108, 445, 177, 460, 304
-0.999115, 391, 65, 406, 192
-0.99912, 407, 65, 422, 192
-0.999123, 401, 81, 416, 208
-0.999124, 27, 1, 42, 128
-0.999125, 211, 17, 226, 144
-0.999141, 109, 49, 124, 176
-0.999143, 135, 49, 150, 176
-0.999148, 373, 1, 388, 128
-0.999152, 97, 97, 128, 352
-0.999153, 221, 241, 236, 368
-0.999157, 441, 1, 456, 128
-0.999164, 425, 193, 440, 320
-0.999188, 131, 241, 146, 368
-0.999194, 123, 241, 138, 368
-0.999195, 207, 209, 222, 336
-0.999196, 99, 49, 114, 176
-0.9992, 67, 193, 82, 320
-0.999201, 339, 1, 354, 128
-0.999209, 71, 81, 86, 208
-0.999214, 47, 65, 62, 192
-0.99922, 63, 97, 78, 224
-0.999242, 293, 209, 308, 336
-0.999243, 115, 49, 130, 176
-0.999249, 409, 129, 424, 256
-0.999251, 309, 33, 340, 288
-0.999256, 57, 97, 72, 224
-0.999257, 239, 225, 254, 352
-0.999257, 113, 241, 128, 368
-0.999258, 303, 33, 318, 160
-0.999261, 365, 225, 380, 352
-0.999262, 125, 49, 140, 176
-0.999264, 59, 49, 74, 176
-0.999265, 265, 193, 280, 320
-0.999273, 295, 17, 310, 144
-0.99928, 337, 225, 352, 352
-0.999281, 229, 225, 244, 352
-0.999284, 207, 81, 222, 208
-0.999291, 15, 1, 30, 128
-0.999291, 179, 177, 194, 304
-0.999297, 63, 145, 78, 272
-0.9993, 469, 177, 484, 304
-0.999308, 5, 113, 20, 240
-0.999309, 141, 49, 156, 176
-0.999311, 149, 49, 164, 176
-0.99932, 15, 145, 30, 272
-0.999326, 319, 225, 334, 352
-0.999328, 103, 241, 118, 368
-0.999331, 31, 81, 46, 208
-0.999331, 5, 161, 20, 288
-0.999333, 87, 97, 102, 224
-0.999334, 225, 257, 480, 320
-0.999336, 483, 161, 498, 288
-0.999342, 453, 1, 484, 256
-0.999346, 343, 49, 358, 176
-0.999356, 343, 225, 358, 352
-0.999356, 379, 225, 394, 352
-0.999357, 251, 209, 266, 336
-0.999357, 51, 161, 66, 288
-0.999491, 297, 129, 328, 375
-0.999529, 193, 313, 448, 375
-0.999539, 369, 1, 400, 256
-0.999544, 369, 129, 400, 375
-0.999644, 51, 47, 66, 62
-0.999644, 439, 141, 454, 156
-0.999645, 429, 107, 444, 122
-0.999646, 41, 85, 56, 100
-0.999646, 409, 33, 424, 48
-0.999647, 439, 133, 454, 148
-0.999647, 137, 293, 152, 308
-0.999647, 109, 59, 124, 74
-0.999648, 449, 1, 464, 16
-0.999648, 203, 299, 218, 314
-0.999649, 389, 63, 404, 78
-0.999649, 143, 41, 158, 56
-0.999649, 163, 287, 178, 302
-0.99965, 423, 41, 438, 56
-0.99965, 75, 27, 90, 42
-0.999651, 437, 63, 452, 78
-0.999651, 167, 11, 182, 26
-0.999651, 41, 3, 56, 18
-0.999651, 113, 27, 128, 42
-0.999651, 419, 203, 434, 218
-0.999651, 37, 11, 52, 26
-0.999652, 441, 153, 456, 168
-0.999652, 407, 53, 422, 68
-0.999652, 421, 9, 436, 24
-0.999652, 105, 45, 120, 60
-0.999653, 143, 305, 158, 320
-0.999653, 23, 61, 38, 76
-0.999653, 419, 63, 434, 78
-0.999653, 387, 25, 402, 40
-0.999653, 401, 131, 416, 146
-0.999653, 61, 67, 76, 82
-0.999654, 79, 125, 94, 140
-0.999654, 379, 3, 394, 18
-0.999655, 91, 49, 106, 64
-0.999655, 121, 19, 136, 34
-0.999655, 73, 13, 88, 28
-0.999656, 35, 1, 50, 16
-0.999657, 25, 25, 40, 40
-0.999657, 83, 45, 98, 60
-0.999657, 427, 1, 442, 16
-0.999657, 13, 63, 28, 78
-0.999657, 137, 31, 152, 46
-0.999658, 77, 1, 92, 16
-0.999659, 405, 39, 420, 54
-0.999659, 391, 31, 406, 46
-0.99966, 435, 3, 450, 18
-0.99966, 59, 23, 74, 38
-0.99966, 83, 51, 98, 66
-0.999661, 437, 147, 452, 162
-0.999661, 119, 31, 134, 46
-0.999661, 441, 1, 456, 16
-0.999661, 137, 305, 152, 320
-0.999662, 53, 7, 68, 22
-0.999662, 107, 39, 122, 54
-0.999662, 69, 113, 84, 128
-0.999664, 439, 17, 454, 32
-0.999665, 131, 23, 146, 38
-0.999665, 31, 21, 46, 36
-0.999665, 433, 29, 448, 44
-0.999666, 103, 51, 118, 66
-0.999666, 65, 31, 80, 46
-0.999666, 383, 67, 398, 82
-0.999666, 67, 17, 82, 32
-0.999667, 419, 57, 434, 72
-0.999667, 221, 299, 236, 314
-0.999668, 417, 145, 432, 160
-0.999669, 71, 35, 86, 50
-0.999669, 151, 47, 166, 62
-0.99967, 449, 155, 464, 170
-0.99967, 25, 75, 40, 90
-0.99967, 427, 81, 442, 96
-0.99967, 415, 49, 430, 64
-0.999672, 423, 135, 438, 150
-0.999672, 59, 15, 74, 30
-0.999673, 415, 13, 430, 28
-0.999673, 439, 29, 454, 44
-0.999674, 417, 33, 432, 48
-0.999675, 439, 111, 454, 126
-0.999676, 77, 7, 92, 22
-0.999677, 77, 63, 92, 78
-0.999678, 73, 49, 88, 64
-0.999678, 11, 183, 26, 198
-0.99968, 153, 11, 168, 26
-0.99968, 7, 73, 22, 88
-0.99968, 17, 69, 32, 84
-0.999681, 119, 303, 134, 318
-0.999682, 411, 39, 426, 54
-0.999684, 241, 17, 256, 32
-0.999686, 65, 11, 80, 26
-0.999687, 415, 7, 430, 22
-0.999687, 423, 29, 438, 44
-0.999688, 143, 17, 158, 32
-0.999688, 445, 25, 460, 40
-0.999688, 71, 121, 86, 136
-0.999689, 119, 41, 134, 56
-0.999689, 437, 35, 452, 50
-0.99969, 149, 293, 164, 308
-0.999691, 427, 73, 442, 88
-0.999691, 63, 111, 78, 126
-0.999693, 445, 33, 460, 48
-0.999694, 399, 121, 414, 136
-0.999699, 67, 67, 82, 82
-0.9997, 203, 293, 218, 308
-0.9997, 429, 21, 444, 36
-0.9997, 111, 51, 126, 66
-0.999706, 411, 1, 426, 16
-0.999707, 433, 15, 448, 30
-0.999709, 423, 15, 438, 30
-0.999711, 81, 119, 96, 134
-0.999711, 429, 9, 444, 24
-0.999713, 51, 1, 66, 16
-0.999713, 405, 125, 420, 140
-0.999715, 429, 137, 444, 152
-0.999716, 439, 103, 454, 118
-0.999717, 23, 187, 38, 202
-0.999721, 113, 35, 128, 50
-0.999726, 423, 35, 438, 50
-0.999728, 59, 5, 74, 20
-0.999729, 139, 299, 154, 314
-0.99973, 127, 291, 142, 306
-0.999732, 215, 299, 230, 314
-0.999737, 121, 25, 136, 40
-0.99974, 313, 129, 344, 375
-0.999741, 143, 293, 158, 308
-0.999755, 421, 3, 436, 18
-0.999768, 17, 185, 32, 200
-0.999769, 413, 129, 428, 144
-0.999771, 447, 143, 462, 158
-0.999781, 209, 297, 224, 312
-0.999826, 341, 97, 372, 352
-0.999826, 219, 293, 234, 308
-0.999848, 213, 291, 228, 306
-0.999877, 325, 129, 356, 375
-0.999992, 357, 129, 388, 375
-0.999997, 1, 313, 128, 375
-1.00026, 297, 145, 360, 272
-1.00071, 257, 289, 500, 352
-1.00092, 1, 313, 500, 375
-1.00376, 321, 145, 384, 272
-1.00691, 297, 97, 360, 224
-1.00997, 329, 97, 392, 224
-1.01043, 105, 145, 168, 272
