1948
-0.584245, 1, 1, 500, 375
-0.599755, 1, 129, 500, 375
-0.625821, 1, 33, 500, 288
-0.648752, 1, 1, 256, 375
-0.697313, 129, 1, 384, 375
-0.730683, 257, 1, 500, 375
-0.831351, 161, 1, 416, 256
-0.839774, 129, 97, 384, 352
-0.867028, 1, 1, 256, 256
-0.870583, 257, 129, 500, 375
-0.876411, 257, 33, 500, 288
-0.883698, 1, 129, 256, 375
-0.914959, 33, 1, 160, 375
-0.91868, 225, 1, 352, 375
-0.920703, 225, 65, 352, 320
-0.921091, 145, 65, 272, 320
-0.925308, 81, 1, 208, 375
-0.925877, 305, 1, 432, 375
-0.926573, 145, 1, 272, 375
-0.933067, 273, 65, 400, 320
-0.936119, 321, 33, 448, 288
-0.941148, 97, 1, 224, 256
-0.945616, 353, 1, 480, 375
-0.946556, 321, 129, 448, 375
-0.947309, 1, 241, 500, 368
-0.949018, 97, 129, 224, 375
-0.949026, 17, 1, 144, 256
-0.949317, 1, 129, 500, 256
-0.9509, 1, 1, 500, 128
-0.952335, 369, 129, 496, 375
-0.95286, 161, 97, 416, 224
-0.954182, 1, 193, 500, 320
-0.957132, 1, 81, 256, 208
-0.957549, 161, 33, 416, 160
-0.957734, 33, 97, 160, 352
-0.960594, 161, 113, 288, 240
-0.960995, 1, 49, 500, 176
-0.961867, 161, 145, 416, 272
-0.964733, 1, 225, 256, 352
-0.965468, 209, 97, 336, 224
-0.967981, 369, 33, 496, 288
-0.96857, 257, 129, 500, 256
-0.969683, 241, 49, 368, 176
-0.969771, 225, 241, 480, 368
-0.969815, 113, 81, 240, 208
-0.970347, 129, 193, 384, 320
-0.970365, 257, 65, 500, 192
-0.972367, 65, 33, 320, 160
-0.973252, 1, 177, 256, 304
-0.973516, 65, 129, 320, 256
-0.973793, 217, 113, 280, 176
-0.974431, 193, 49, 320, 176
-0.976633, 257, 1, 500, 128
-0.976924, 257, 177, 500, 304
-0.977624, 33, 241, 160, 368
-0.977882, 321, 145, 448, 272
-0.978621, 113, 33, 240, 160
-0.978622, 129, 241, 384, 368
-0.978653, 185, 129, 248, 192
-0.978797, 185, 113, 248, 240
-0.979803, 225, 145, 352, 272
-0.979812, 257, 225, 384, 352
-0.979843, 273, 1, 400, 128
-0.980159, 145, 81, 208, 208
-0.980855, 145, 201, 208, 264
-0.981002, 185, 97, 248, 160
-0.981222, 97, 177, 224, 304
-0.981445, 305, 225, 432, 352
-0.981622, 145, 193, 208, 320
-0.981642, 273, 97, 400, 224
-0.982163, 273, 177, 400, 304
-0.982296, 289, 113, 352, 240
-0.982355, 321, 49, 448, 176
-0.982392, 289, 177, 352, 304
-0.982754, 369, 193, 496, 320
-0.982871, 33, 193, 160, 320
-0.983693, 33, 241, 96, 368
-0.983854, 177, 49, 240, 176
-0.984103, 217, 113, 248, 176
-0.98415, 297, 249, 360, 312
-0.98423, 161, 161, 288, 288
-0.984381, 289, 33, 352, 160
-0.98464, 321, 97, 448, 224
-0.984694, 249, 89, 312, 152
-0.985034, 217, 89, 280, 152
-0.985204, 161, 121, 288, 184
-0.985262, 81, 241, 208, 368
-0.985319, 249, 113, 312, 176
-0.985367, 353, 1, 480, 128
-0.985647, 145, 97, 208, 160
-0.985723, 185, 73, 248, 136
-0.985804, 289, 121, 352, 184
-0.985935, 121, 193, 184, 320
-0.986592, 161, 1, 288, 128
-0.986624, 241, 105, 368, 168
-0.986674, 121, 113, 184, 240
-0.986679, 145, 33, 208, 160
-0.986714, 297, 225, 360, 352
-0.98675, 289, 153, 352, 216
-0.98695, 329, 49, 392, 176
-0.986957, 113, 97, 240, 160
-0.987143, 241, 129, 368, 192
-0.987192, 17, 17, 144, 144
-0.987295, 193, 97, 320, 160
-0.987507, 289, 201, 352, 264
-0.987546, 113, 129, 240, 256
-0.987693, 121, 201, 184, 264
-0.987922, 225, 1, 352, 128
-0.987955, 409, 145, 472, 272
-0.987971, 289, 97, 352, 160
-0.987981, 249, 97, 312, 224
-0.987993, 161, 121, 224, 184
-0.988081, 1, 241, 64, 368
-0.988203, 289, 177, 352, 240
-0.988578, 289, 1, 352, 256
-0.98879, 337, 1, 400, 128
-0.98882, 113, 121, 240, 184
-0.988921, 121, 97, 184, 160
-0.988921, 33, 65, 160, 192
-0.988931, 193, 97, 224, 224
-0.989083, 209, 193, 336, 320
-0.989128, 33, 257, 96, 320
-0.989196, 297, 225, 360, 288
-0.989313, 241, 153, 368, 216
-0.989343, 217, 97, 248, 224
-0.989348, 17, 241, 144, 304
-0.98936, 129, 233, 192, 296
-0.989408, 161, 129, 224, 256
-0.989544, 401, 193, 464, 320
-0.989565, 409, 97, 472, 224
-0.98963, 321, 225, 384, 352
-0.989722, 193, 129, 224, 192
-0.989732, 193, 145, 320, 208
-0.989734, 257, 241, 384, 304
-0.98992, 233, 89, 264, 152
-0.98994, 105, 241, 168, 368
-0.989943, 273, 17, 400, 80
-0.990002, 177, 153, 240, 216
-0.990077, 329, 81, 392, 144
-0.990141, 209, 33, 336, 96
-0.990148, 89, 193, 152, 320
-0.990183, 33, 193, 96, 320
-0.990225, 129, 225, 256, 352
-0.990231, 185, 49, 248, 112
-0.990324, 409, 161, 472, 224
-0.990356, 161, 1, 224, 256
-0.990448, 161, 1, 288, 64
-0.99047, 229, 113, 260, 240
-0.990532, 241, 81, 368, 144
-0.990549, 249, 49, 312, 176
-0.990738, 105, 233, 168, 296
-0.990806, 209, 65, 272, 192
-0.990906, 81, 49, 144, 176
-0.991029, 209, 1, 336, 64
-0.99104, 249, 1, 312, 256
-0.991093, 209, 1, 272, 256
-0.991137, 161, 169, 288, 232
-0.991164, 189, 105, 220, 168
-0.991238, 249, 1, 312, 375
-0.991264, 289, 217, 416, 280
-0.991354, 229, 65, 260, 192
-0.991489, 161, 33, 288, 96
-0.991505, 193, 49, 224, 176
-0.991664, 229, 113, 260, 176
-0.991711, 121, 65, 184, 192
-0.991734, 409, 65, 472, 320
-0.991752, 209, 241, 336, 368
-0.991781, 225, 109, 288, 140
-0.991857, 177, 137, 240, 168
-0.991866, 225, 25, 288, 88
-0.991915, 341, 57, 372, 120
-0.991938, 249, 57, 312, 120
-0.991943, 209, 121, 272, 152
-0.992042, 113, 73, 240, 136
-0.992074, 241, 185, 368, 248
-0.992082, 185, 109, 248, 140
-0.992082, 321, 161, 448, 224
-0.992107, 393, 1, 456, 128
-0.992108, 345, 249, 408, 312
-0.992116, 177, 73, 304, 136
-0.992145, 177, 25, 240, 88
-0.992148, 249, 105, 312, 136
-0.99215, 241, 217, 368, 280
-0.992173, 409, 209, 472, 272
-0.992175, 145, 205, 208, 236
-0.992203, 17, 265, 144, 328
-0.992215, 245, 113, 276, 176
-0.992231, 289, 1, 352, 375
-0.992256, 273, 57, 400, 120
-0.992285, 177, 157, 240, 188
-0.992355, 129, 97, 192, 352
-0.992366, 249, 93, 312, 124
-0.992389, 97, 193, 224, 256
-0.99241, 185, 121, 248, 152
-0.992469, 17, 297, 144, 360
-0.992562, 145, 101, 208, 132
-0.992573, 321, 81, 448, 144
-0.992575, 289, 233, 352, 264
-0.992587, 329, 57, 392, 120
-0.992599, 161, 125, 224, 156
-0.992605, 161, 73, 224, 136
-0.992607, 241, 113, 272, 240
-0.992617, 149, 193, 180, 320
-0.992626, 321, 129, 448, 192
-0.992628, 209, 97, 272, 128
-0.992677, 289, 133, 352, 164
-0.992691, 213, 89, 244, 152
-0.992692, 145, 217, 208, 248
-0.992705, 289, 157, 352, 188
-0.992716, 201, 141, 264, 172
-0.992743, 113, 145, 240, 208
-0.992744, 185, 97, 248, 128
-0.99276, 289, 201, 352, 232
-0.992766, 289, 65, 352, 128
-0.992772, 229, 109, 260, 140
-0.992789, 289, 189, 352, 220
-0.992817, 145, 193, 208, 224
-0.992821, 305, 241, 432, 304
-0.992823, 289, 213, 352, 244
-0.992826, 97, 257, 224, 320
-0.992832, 289, 121, 352, 152
-0.992836, 289, 177, 352, 208
-0.992842, 81, 1, 144, 375
-0.992843, 289, 145, 352, 176
-0.992847, 1, 193, 64, 320
-0.992849, 297, 253, 360, 284
-0.992859, 129, 241, 192, 272
-0.992861, 297, 341, 360, 372
-0.992869, 233, 281, 296, 344
-0.99288, 121, 205, 184, 236
-0.992886, 433, 209, 496, 336
-0.992908, 153, 137, 216, 168
-0.992908, 289, 101, 352, 132
-0.992911, 177, 25, 240, 56
-0.992915, 321, 185, 448, 248
-0.992921, 41, 17, 104, 144
-0.99293, 249, 1, 312, 64
-0.992945, 185, 81, 248, 112
-0.992961, 221, 121, 252, 152
-0.992971, 145, 229, 208, 260
-0.992984, 121, 101, 184, 132
-0.993002, 121, 225, 184, 256
-0.993002, 33, 261, 96, 292
-0.993006, 129, 1, 192, 375
-0.993017, 257, 193, 320, 320
-0.993017, 81, 241, 144, 368
-0.993044, 105, 237, 168, 268
-0.993047, 161, 193, 192, 320
-0.993053, 229, 97, 260, 128
-0.993083, 257, 117, 320, 148
-0.993087, 185, 97, 248, 352
-0.993093, 225, 57, 352, 120
-0.993109, 177, 69, 240, 100
-0.993122, 289, 89, 352, 120
-0.993168, 197, 133, 228, 164
-0.993223, 241, 81, 304, 112
-0.993223, 65, 129, 192, 256
-0.993226, 177, 13, 240, 44
-0.993232, 329, 89, 392, 120
-0.993237, 177, 37, 240, 68
-0.993239, 241, 109, 272, 140
-0.99328, 201, 145, 232, 176
-0.993287, 241, 93, 272, 124
-0.993287, 189, 153, 220, 184
-0.993301, 33, 281, 96, 344
-0.993304, 129, 121, 192, 152
-0.993313, 341, 69, 372, 100
-0.993315, 321, 341, 384, 372
-0.99332, 217, 33, 280, 64
-0.993323, 33, 273, 96, 304
-0.993324, 209, 109, 240, 140
-0.993325, 249, 13, 312, 44
-0.993343, 189, 121, 220, 152
-0.993343, 161, 89, 224, 120
-0.993344, 1, 257, 64, 288
-0.993367, 329, 77, 392, 108
-0.993367, 201, 157, 264, 188
-0.993377, 149, 201, 180, 264
-0.993382, 177, 49, 240, 80
-0.993385, 241, 41, 304, 72
-0.993397, 1, 257, 64, 320
-0.993403, 137, 21, 200, 52
-0.993403, 65, 233, 192, 296
-0.993409, 249, 65, 312, 96
-0.993413, 249, 121, 280, 152
-0.993421, 409, 165, 472, 196
-0.993436, 241, 33, 272, 64
-0.993438, 305, 21, 368, 52
-0.993442, 249, 29, 312, 60
-0.993443, 417, 133, 480, 164
-0.993447, 105, 249, 168, 280
-0.99345, 153, 101, 184, 132
-0.99345, 25, 249, 88, 280
-0.993455, 325, 337, 356, 368
-0.99346, 289, 77, 352, 108
-0.993465, 161, 113, 224, 144
-0.993471, 281, 21, 344, 52
-0.993475, 121, 189, 184, 220
-0.99348, 161, 197, 192, 228
-0.993483, 281, 121, 312, 152
-0.993489, 417, 109, 480, 140
-0.993494, 281, 9, 344, 40
-0.993495, 341, 53, 372, 84
-0.993496, 201, 17, 264, 48
-0.9935, 329, 177, 392, 304
-0.993501, 209, 133, 240, 164
-0.993502, 329, 249, 392, 280
-0.993502, 149, 205, 180, 236
-0.993504, 153, 97, 184, 160
-0.993505, 329, 233, 392, 264
-0.993509, 49, 241, 112, 272
-0.993513, 169, 237, 200, 268
-0.993518, 177, 169, 240, 200
-0.993518, 33, 293, 96, 324
-0.99352, 201, 49, 264, 80
-0.99352, 229, 29, 260, 60
-0.993521, 169, 197, 232, 228
-0.993521, 209, 85, 272, 116
-0.993522, 289, 65, 352, 96
-0.993527, 189, 17, 220, 48
-0.993531, 281, 113, 312, 176
-0.993536, 417, 221, 480, 252
-0.993538, 217, 97, 248, 128
-0.993539, 153, 149, 216, 180
-0.99354, 221, 17, 252, 48
-0.99354, 229, 81, 260, 112
-0.993554, 121, 89, 184, 120
-0.993554, 409, 153, 472, 184
-0.993559, 209, 121, 240, 152
-0.993559, 233, 121, 296, 152
-0.99356, 89, 57, 152, 88
-0.993572, 173, 97, 204, 128
-0.993572, 81, 229, 144, 260
-0.993575, 177, 185, 240, 216
-0.993578, 41, 257, 72, 288
-0.993591, 345, 13, 408, 44
-0.9936, 189, 29, 220, 60
-0.993603, 193, 85, 224, 116
-0.993609, 417, 121, 480, 152
-0.993612, 233, 121, 264, 152
-0.993612, 305, 269, 368, 300
-0.993612, 241, 21, 272, 52
-0.993615, 169, 225, 232, 256
-0.993616, 185, 141, 216, 172
-0.993617, 273, 241, 336, 368
-0.993619, 173, 225, 204, 256
-0.99362, 249, 81, 280, 112
-0.99362, 189, 69, 220, 100
-0.993622, 65, 17, 192, 144
-0.993623, 277, 61, 308, 92
-0.993623, 249, 33, 312, 96
-0.993624, 297, 329, 360, 360
-0.993636, 257, 133, 320, 164
-0.993637, 17, 253, 48, 284
-0.993643, 193, 165, 224, 196
-0.993645, 277, 45, 308, 76
-0.993648, 233, 133, 264, 164
-0.993648, 189, 53, 220, 84
-0.993648, 393, 73, 456, 104
-0.993649, 173, 129, 204, 160
-0.993655, 193, 105, 224, 136
-0.993656, 169, 1, 232, 375
-0.993657, 337, 81, 368, 112
-0.99366, 217, 145, 248, 176
-0.99366, 173, 197, 204, 228
-0.99366, 329, 65, 392, 96
-0.993663, 409, 189, 472, 220
-0.993667, 417, 93, 480, 124
-0.993669, 225, 273, 352, 336
-0.993669, 285, 133, 316, 164
-0.993678, 225, 45, 256, 76
-0.99368, 41, 333, 104, 364
-0.99368, 173, 213, 204, 244
-0.993681, 345, 329, 376, 360
-0.993682, 229, 1, 260, 32
-0.993684, 421, 69, 452, 100
-0.993687, 209, 69, 272, 100
-0.993688, 217, 85, 248, 116
-0.993688, 81, 277, 144, 308
-0.993691, 81, 225, 144, 288
-0.993695, 225, 1, 288, 32
-0.993696, 325, 249, 356, 280
-0.993698, 189, 41, 220, 72
-0.9937, 173, 185, 204, 216
-0.9937, 137, 229, 168, 260
-0.993701, 205, 157, 236, 188
-0.993701, 253, 105, 284, 136
-0.993702, 173, 109, 204, 140
-0.993702, 149, 229, 180, 260
-0.993702, 265, 65, 296, 96
-0.99371, 305, 253, 336, 284
-0.99371, 169, 21, 200, 52
-0.993712, 277, 13, 308, 44
-0.993715, 277, 81, 308, 112
-0.993716, 29, 241, 60, 272
-0.993717, 261, 33, 292, 64
-0.993718, 345, 29, 408, 60
-0.993719, 153, 245, 216, 276
-0.993721, 73, 253, 136, 284
-0.993722, 281, 33, 312, 64
-0.993725, 205, 65, 236, 96
-0.993727, 409, 57, 440, 88
-0.993728, 153, 113, 184, 144
-0.993731, 249, 53, 312, 84
-0.993731, 33, 305, 96, 336
-0.993734, 25, 229, 88, 260
-0.993735, 369, 209, 496, 272
-0.993735, 133, 209, 164, 240
-0.993736, 297, 21, 328, 52
-0.993736, 409, 69, 440, 100
-0.993736, 41, 321, 104, 352
-0.993736, 257, 345, 320, 375
-0.993737, 121, 133, 184, 164
-0.993738, 229, 69, 260, 100
-0.99374, 129, 253, 192, 284
-0.99374, 257, 241, 320, 272
-0.993745, 177, 249, 208, 280
-0.993745, 241, 157, 272, 188
-0.99375, 205, 17, 236, 48
-0.99375, 401, 177, 464, 208
-0.993753, 129, 253, 160, 284
-0.993754, 321, 237, 352, 268
-0.993755, 321, 9, 384, 40
-0.993756, 241, 45, 272, 76
-0.993757, 453, 221, 484, 252
-0.993758, 277, 105, 308, 136
-0.993759, 17, 241, 48, 272
-0.993762, 25, 225, 56, 256
-0.993764, 181, 237, 212, 268
-0.993766, 353, 241, 416, 368
-0.993767, 177, 9, 208, 40
-0.993767, 153, 9, 216, 40
-0.993769, 285, 145, 316, 176
-0.993771, 257, 161, 320, 192
-0.993772, 173, 85, 204, 116
-0.993773, 397, 13, 428, 44
-0.993773, 361, 1, 424, 32
-0.993773, 273, 253, 336, 284
-0.993775, 337, 329, 400, 360
-0.993776, 385, 13, 448, 44
-0.993778, 249, 1, 312, 32
-0.993779, 205, 1, 236, 32
-0.993779, 141, 105, 172, 136
-0.993779, 221, 133, 252, 164
-0.993779, 205, 29, 236, 60
-0.993779, 357, 69, 388, 100
-0.993781, 469, 233, 500, 264
-0.993782, 261, 45, 292, 76
-0.993782, 229, 157, 260, 188
-0.993782, 185, 1, 248, 128
-0.993784, 329, 49, 392, 80
-0.993786, 345, 261, 408, 292
-0.993787, 417, 129, 480, 192
-0.993787, 353, 53, 384, 84
-0.993791, 81, 241, 144, 272
-0.993791, 161, 209, 192, 240
-0.993792, 145, 33, 208, 64
-0.993792, 25, 57, 88, 88
-0.993793, 265, 85, 296, 116
-0.993794, 193, 301, 256, 332
-0.993796, 429, 213, 460, 244
-0.9938, 421, 57, 452, 88
-0.9938, 133, 121, 164, 152
-0.9938, 413, 25, 444, 56
-0.9938, 413, 89, 444, 120
-0.993801, 297, 1, 328, 32
-0.993802, 429, 105, 460, 136
-0.993802, 401, 61, 464, 92
-0.993804, 337, 249, 368, 280
-0.993805, 293, 33, 324, 64
-0.993805, 145, 177, 208, 240
-0.993808, 105, 281, 136, 312
-0.993808, 273, 137, 304, 168
-0.993809, 409, 209, 472, 240
-0.993809, 137, 241, 168, 272
-0.99381, 205, 77, 236, 108
-0.993813, 149, 245, 180, 276
-0.993814, 165, 249, 196, 280
-0.993815, 149, 217, 180, 248
-0.993818, 345, 345, 376, 375
-0.993818, 37, 269, 68, 300
-0.993818, 173, 145, 204, 176
-0.993819, 413, 165, 444, 196
-0.993819, 421, 45, 452, 76
-0.993821, 185, 225, 216, 256
-0.993822, 29, 257, 60, 288
-0.993823, 125, 237, 156, 268
-0.993824, 241, 65, 272, 96
-0.993825, 109, 245, 140, 276
-0.993829, 81, 169, 208, 232
-0.99383, 329, 225, 392, 288
-0.993855, 81, 257, 144, 320
-0.993894, 321, 105, 448, 168
-0.993991, 105, 257, 168, 320
-0.994012, 121, 1, 184, 256
-0.99403, 297, 313, 360, 375
-0.99404, 417, 81, 480, 144
-0.994066, 281, 97, 312, 224
-0.994073, 17, 217, 144, 280
-0.994076, 105, 1, 168, 375
-0.994086, 205, 113, 236, 240
-0.994107, 353, 17, 480, 80
-0.994108, 417, 105, 480, 168
-0.994119, 161, 201, 192, 264
-0.994123, 369, 1, 432, 128
-0.994158, 97, 17, 224, 80
-0.994176, 209, 137, 272, 200
-0.994179, 73, 1, 136, 128
-0.994199, 353, 49, 480, 112
-0.994218, 433, 145, 496, 272
-0.994222, 161, 313, 288, 375
-0.994262, 209, 137, 240, 200
-0.994282, 329, 65, 392, 320
-0.994291, 41, 249, 72, 312
-0.994294, 169, 193, 232, 256
-0.994299, 249, 97, 312, 352
-0.994317, 217, 65, 280, 128
-0.994334, 417, 185, 480, 248
-0.994335, 233, 241, 296, 368
-0.994393, 225, 305, 352, 368
-0.994405, 369, 241, 496, 368
-0.994433, 321, 249, 384, 312
-0.994504, 273, 249, 336, 312
-0.994522, 177, 1, 240, 64
-0.994538, 245, 65, 276, 192
-0.994558, 17, 145, 144, 272
-0.994594, 433, 225, 496, 288
-0.99464, 41, 305, 104, 368
-0.99468, 33, 233, 96, 296
-0.99469, 257, 137, 320, 200
-0.994733, 305, 9, 368, 72
-0.994817, 321, 313, 448, 375
-0.994819, 193, 1, 256, 375
-0.994854, 161, 97, 224, 352
-0.994896, 33, 57, 160, 120
-0.994923, 289, 97, 352, 352
-0.994925, 41, 1, 104, 375
-0.994988, 409, 49, 472, 176
-0.995014, 281, 33, 312, 96
-0.995027, 369, 145, 496, 272
-0.995028, 341, 33, 372, 160
-0.995033, 393, 17, 456, 80
-0.995054, 145, 17, 208, 80
-0.995059, 209, 33, 240, 160
-0.995094, 121, 177, 184, 240
-0.99515, 305, 265, 432, 328
-0.995164, 65, 281, 192, 344
-0.995164, 41, 241, 72, 368
-0.995258, 1, 233, 64, 296
-0.995265, 97, 49, 224, 112
-0.995268, 33, 97, 160, 160
-0.995304, 281, 17, 344, 80
-0.995359, 353, 241, 480, 304
-0.995394, 17, 1, 80, 375
-0.995401, 393, 81, 456, 144
-0.995418, 217, 1, 280, 375
-0.99542, 169, 193, 232, 320
-0.995421, 173, 49, 204, 176
-0.995444, 57, 233, 120, 296
-0.995459, 185, 1, 248, 256
-0.995481, 225, 1, 288, 128
-0.995558, 153, 225, 216, 288
-0.995576, 97, 193, 160, 256
-0.995592, 161, 121, 416, 184
-0.995624, 277, 49, 308, 176
-0.995722, 393, 233, 456, 296
-0.995746, 209, 113, 272, 240
-0.995773, 321, 1, 384, 375
-0.995854, 21, 233, 52, 296
-0.99586, 113, 225, 240, 288
-0.995867, 153, 81, 184, 208
-0.995885, 137, 193, 168, 320
-0.99589, 145, 289, 272, 352
-0.995911, 89, 97, 152, 160
-0.995929, 113, 73, 176, 136
-0.995936, 129, 241, 160, 368
-0.995968, 97, 305, 224, 368
-0.995972, 201, 25, 264, 88
-0.995975, 81, 49, 144, 112
-0.995979, 313, 273, 376, 336
-0.995985, 393, 1, 456, 375
-0.996021, 325, 225, 356, 352
-0.996029, 121, 17, 184, 144
-0.996086, 209, 129, 224, 192
-0.996096, 257, 161, 320, 224
-0.996113, 209, 249, 336, 312
-0.996136, 273, 313, 400, 375
-0.996138, 161, 153, 416, 216
-0.996161, 161, 93, 288, 124
-0.996164, 249, 1, 312, 128
-0.996204, 81, 281, 144, 344
-0.996211, 173, 97, 204, 224
-0.996264, 57, 209, 120, 336
-0.996275, 369, 97, 496, 224
-0.996281, 209, 97, 272, 352
-0.996283, 235, 105, 250, 168
-0.996336, 17, 161, 144, 224
-0.996343, 145, 145, 208, 208
-0.996376, 329, 241, 360, 304
-0.996393, 173, 193, 204, 320
-0.996405, 369, 185, 496, 248
-0.996416, 305, 289, 432, 352
-0.99644, 17, 209, 48, 336
-0.99645, 193, 73, 224, 136
-0.996498, 241, 33, 272, 96
-0.996528, 369, 49, 496, 176
-0.99654, 161, 73, 416, 136
-0.996551, 161, 41, 416, 104
-0.996563, 49, 9, 176, 72
-0.996563, 369, 313, 496, 375
-0.996587, 245, 89, 276, 152
-0.996618, 357, 1, 388, 128
-0.996621, 1, 137, 256, 200
-0.996622, 121, 121, 184, 184
-0.996652, 65, 89, 320, 152
-0.996655, 209, 109, 336, 140
-0.996667, 193, 209, 320, 272
-0.99669, 345, 33, 408, 96
-0.996712, 193, 145, 224, 272
-0.996736, 161, 121, 288, 152
-0.996736, 25, 209, 88, 272
-0.996749, 169, 225, 200, 288
-0.996764, 433, 129, 496, 375
-0.996788, 201, 97, 232, 160
-0.996792, 209, 93, 336, 124
-0.996801, 289, 41, 352, 104
-0.996802, 209, 105, 224, 168
-0.996835, 369, 249, 432, 312
-0.996873, 189, 41, 220, 104
-0.996873, 229, 137, 260, 200
-0.99688, 145, 257, 272, 320
-0.996892, 369, 153, 496, 216
-0.996908, 1, 257, 256, 320
-0.996928, 161, 97, 416, 160
-0.996943, 241, 121, 368, 152
-0.996951, 369, 1, 432, 375
-0.997006, 161, 17, 416, 80
-0.997008, 225, 25, 256, 88
-0.997016, 417, 1, 480, 375
-0.997018, 225, 133, 352, 164
-0.997025, 257, 81, 500, 144
-0.997052, 227, 105, 242, 168
-0.997107, 393, 49, 456, 112
-0.997114, 49, 193, 176, 256
-0.997115, 145, 193, 272, 256
-0.997117, 215, 129, 230, 192
-0.997136, 173, 201, 204, 264
-0.99718, 251, 105, 266, 168
-0.997211, 49, 121, 176, 184
-0.997239, 241, 81, 368, 112
-0.997285, 173, 97, 204, 160
-0.997299, 241, 129, 256, 192
-0.997304, 329, 313, 392, 375
-0.997306, 313, 249, 344, 312
-0.997311, 129, 109, 256, 140
-0.997312, 65, 113, 320, 176
-0.997339, 257, 209, 320, 272
-0.997341, 237, 81, 252, 144
-0.99735, 241, 1, 272, 64
-0.99737, 377, 225, 440, 352
-0.997382, 247, 129, 262, 192
-0.997407, 97, 177, 352, 240
-0.997443, 257, 105, 288, 168
-0.99745, 161, 49, 224, 112
-0.997472, 169, 145, 200, 272
-0.997487, 33, 33, 160, 96
-0.997512, 227, 81, 242, 144
-0.997517, 97, 145, 160, 272
-0.997524, 1, 185, 128, 248
-0.997531, 161, 133, 288, 164
-0.997542, 229, 17, 260, 144
-0.997543, 369, 105, 496, 168
-0.997553, 219, 105, 234, 168
-0.997569, 429, 65, 460, 128
-0.997571, 161, 225, 416, 288
-0.997582, 257, 105, 500, 168
-0.997601, 277, 57, 308, 120
-0.997611, 113, 133, 240, 164
-0.997649, 21, 161, 52, 288
-0.997665, 257, 17, 500, 80
-0.997673, 105, 97, 168, 352
-0.997687, 33, 217, 64, 280
-0.997688, 241, 145, 368, 176
-0.997689, 129, 265, 192, 328
-0.99769, 241, 17, 272, 144
-0.997692, 1, 161, 256, 224
-0.99771, 257, 185, 320, 248
-0.99773, 241, 161, 368, 192
-0.997733, 29, 241, 60, 368
-0.997744, 257, 185, 500, 248
-0.997755, 347, 57, 362, 120
-0.997759, 65, 65, 320, 128
-0.99778, 1, 1, 128, 64
-0.997824, 161, 17, 288, 48
-0.997834, 235, 129, 250, 192
-0.997844, 257, 161, 500, 224
-0.997844, 173, 241, 204, 368
-0.99785, 257, 129, 500, 192
-0.997859, 173, 177, 204, 240
-0.99786, 257, 249, 500, 312
-0.997886, 161, 145, 288, 176
-0.997888, 209, 13, 336, 44
-0.997892, 329, 105, 392, 168
-0.997904, 209, 37, 336, 68
-0.997917, 65, 33, 320, 96
-0.997917, 273, 273, 336, 336
-0.997925, 211, 133, 226, 164
-0.997926, 241, 137, 272, 200
-0.997929, 241, 249, 368, 280
-0.997936, 1, 129, 64, 375
-0.997942, 229, 65, 260, 128
-0.997949, 257, 145, 320, 272
-0.997953, 329, 97, 392, 224
-0.997954, 201, 105, 216, 168
-0.997969, 129, 249, 160, 312
-0.997972, 429, 65, 460, 192
-0.997979, 1, 233, 256, 296
-0.99799, 117, 241, 148, 368
-0.997996, 1, 193, 256, 256
-0.998007, 225, 273, 480, 336
-0.99801, 239, 105, 254, 136
-0.998016, 243, 33, 258, 96
-0.998017, 241, 105, 256, 168
-0.998026, 161, 165, 288, 196
-0.998028, 171, 193, 186, 256
-0.998039, 413, 145, 444, 272
-0.998041, 261, 17, 292, 80
-0.99806, 273, 33, 400, 64
-0.99806, 33, 249, 160, 280
-0.998068, 241, 153, 256, 216
-0.998071, 225, 1, 288, 64
-0.998073, 161, 29, 288, 60
-0.998078, 89, 73, 152, 136
-0.99808, 261, 97, 276, 160
-0.998081, 369, 289, 496, 352
-0.998081, 251, 81, 266, 144
-0.998082, 203, 129, 218, 192
-0.998087, 161, 81, 288, 112
-0.998089, 193, 297, 448, 360
-0.99813, 405, 1, 436, 128
-0.998132, 113, 89, 240, 120
-0.998134, 353, 265, 480, 328
-0.998141, 185, 209, 200, 272
-0.998141, 43, 249, 58, 312
-0.998143, 393, 105, 456, 168
-0.998143, 257, 49, 500, 112
-0.998146, 329, 153, 392, 216
-0.998148, 257, 209, 500, 272
-0.998149, 273, 81, 304, 144
-0.998149, 1, 281, 64, 344
-0.998166, 295, 113, 310, 176
-0.998172, 301, 249, 332, 312
-0.998177, 153, 129, 184, 256
-0.998189, 25, 57, 88, 120
-0.998189, 193, 113, 208, 176
-0.998193, 237, 117, 252, 148
-0.998197, 17, 277, 144, 308
-0.998199, 245, 109, 260, 140
-0.99821, 377, 177, 440, 304
-0.998212, 65, 281, 320, 344
-0.998214, 17, 49, 80, 176
-0.998216, 145, 225, 176, 288
-0.998216, 273, 69, 400, 100
-0.998217, 185, 231, 216, 246
-0.998217, 325, 255, 356, 270
-0.998217, 453, 229, 484, 244
-0.998218, 205, 107, 236, 122
-0.998218, 169, 25, 200, 40
-0.998218, 173, 221, 204, 236
-0.998219, 245, 137, 276, 152
-0.998219, 173, 129, 204, 144
-0.998219, 333, 89, 364, 104
-0.998219, 241, 81, 272, 96
-0.998221, 285, 149, 316, 164
-0.998221, 17, 229, 48, 244
-0.998221, 281, 33, 312, 48
-0.998221, 173, 191, 204, 206
-0.998221, 173, 227, 204, 242
-0.998222, 421, 63, 452, 78
-0.998222, 113, 145, 240, 176
-0.998222, 225, 31, 256, 46
-0.998222, 289, 341, 416, 372
-0.998223, 25, 249, 56, 264
-0.998223, 413, 35, 444, 50
-0.998223, 37, 265, 68, 280
-0.998223, 217, 91, 248, 106
-0.998223, 353, 81, 384, 96
-0.998223, 193, 97, 224, 112
-0.998223, 241, 99, 272, 114
-0.998223, 273, 139, 304, 154
-0.998223, 149, 211, 180, 226
-0.998224, 429, 85, 460, 100
-0.998224, 181, 247, 212, 262
-0.998224, 169, 15, 200, 30
-0.998226, 201, 41, 216, 104
-0.998226, 133, 103, 164, 118
-0.998226, 321, 247, 352, 262
-0.998227, 277, 77, 308, 92
-0.998228, 129, 257, 160, 272
-0.998228, 177, 9, 208, 24
-0.998228, 329, 353, 360, 368
-0.998229, 217, 15, 248, 30
-0.998229, 233, 129, 264, 144
-0.99823, 285, 133, 316, 148
-0.998232, 345, 337, 376, 352
-0.998233, 201, 155, 232, 170
-0.998233, 41, 259, 72, 274
-0.998233, 297, 19, 328, 34
-0.998233, 261, 37, 292, 52
-0.998234, 285, 9, 316, 24
-0.998234, 17, 257, 48, 272
-0.998235, 253, 107, 284, 122
-0.998235, 277, 69, 308, 84
-0.998235, 253, 113, 284, 128
-0.998235, 225, 37, 256, 52
-0.998236, 173, 213, 204, 228
-0.998236, 181, 239, 212, 254
-0.998236, 297, 9, 328, 24
-0.998236, 173, 117, 204, 132
-0.998238, 277, 17, 308, 32
-0.99824, 345, 343, 376, 358
-0.998241, 173, 135, 204, 150
-0.998241, 229, 159, 260, 174
-0.998241, 241, 159, 272, 174
-0.998241, 189, 51, 220, 66
-0.998242, 221, 137, 252, 152
-0.998242, 277, 39, 308, 54
-0.998242, 185, 137, 216, 152
-0.998243, 189, 45, 220, 60
-0.998244, 193, 119, 224, 134
-0.998245, 173, 109, 204, 124
-0.998245, 189, 73, 220, 88
-0.998246, 277, 61, 308, 76
-0.998246, 189, 57, 220, 72
-0.998246, 173, 197, 204, 212
-0.998246, 277, 53, 308, 68
-0.998247, 241, 45, 272, 60
-0.998247, 229, 83, 260, 98
-0.998248, 229, 15, 260, 30
-0.998249, 169, 247, 200, 262
-0.99825, 173, 97, 204, 112
-0.998251, 189, 17, 220, 32
-0.998252, 225, 43, 256, 58
-0.998253, 341, 55, 372, 70
-0.998255, 277, 47, 308, 62
-0.998256, 369, 129, 496, 192
-0.998259, 173, 207, 204, 222
-0.998259, 213, 101, 244, 116
-0.998259, 413, 193, 444, 320
-0.998261, 189, 37, 220, 52
-0.998263, 193, 109, 224, 124
-0.998263, 169, 239, 200, 254
-0.998264, 153, 107, 184, 122
-0.998265, 189, 67, 220, 82
-0.998267, 369, 73, 496, 136
-0.998267, 281, 127, 312, 142
-0.998268, 341, 63, 372, 78
-0.998269, 341, 73, 372, 88
-0.998269, 189, 29, 220, 44
-0.99827, 241, 105, 272, 120
-0.99827, 193, 103, 224, 118
-0.99827, 217, 85, 248, 100
-0.998271, 233, 167, 264, 182
-0.998271, 173, 233, 204, 248
-0.998272, 325, 359, 356, 374
-0.998272, 205, 115, 236, 130
-0.998274, 211, 145, 226, 176
-0.998277, 201, 149, 232, 164
-0.998279, 245, 131, 276, 146
-0.99828, 161, 203, 192, 218
-0.998281, 209, 65, 336, 96
-0.998282, 173, 103, 204, 118
-0.998283, 341, 83, 372, 98
-0.998284, 241, 39, 272, 54
-0.998289, 429, 1, 460, 128
-0.998289, 193, 167, 224, 182
-0.99829, 237, 33, 268, 48
-0.998291, 189, 159, 220, 174
-0.998291, 221, 131, 252, 146
-0.998293, 325, 339, 356, 354
-0.998297, 233, 139, 264, 154
-0.998299, 167, 97, 182, 160
-0.998302, 151, 201, 166, 264
-0.998302, 217, 123, 248, 138
-0.998303, 189, 149, 220, 164
-0.998308, 277, 1, 308, 256
-0.998313, 249, 87, 280, 102
-0.998314, 229, 95, 260, 110
-0.998314, 149, 205, 180, 220
-0.998316, 189, 129, 220, 144
-0.998321, 287, 25, 302, 88
-0.998326, 97, 201, 352, 264
-0.998327, 229, 105, 260, 120
-0.998333, 113, 121, 240, 152
-0.998334, 229, 89, 260, 104
-0.998336, 153, 101, 184, 116
-0.998339, 241, 93, 272, 108
-0.99834, 273, 93, 400, 124
-0.998341, 217, 111, 248, 126
-0.998344, 209, 143, 240, 158
-0.998344, 161, 201, 176, 264
-0.998346, 345, 9, 408, 72
-0.99835, 197, 137, 228, 152
-0.998352, 217, 117, 248, 132
-0.998352, 173, 73, 204, 136
-0.998353, 243, 81, 258, 144
-0.998353, 245, 1, 276, 256
-0.998354, 229, 123, 260, 138
-0.998363, 211, 153, 226, 216
-0.998364, 241, 119, 272, 134
-0.998365, 249, 1, 264, 64
-0.998367, 441, 193, 472, 320
-0.998369, 209, 137, 240, 152
-0.998373, 241, 111, 272, 126
-0.998383, 81, 65, 144, 320
-0.998384, 273, 53, 400, 84
-0.998385, 293, 1, 324, 128
-0.998388, 113, 161, 240, 192
-0.998394, 207, 81, 222, 144
-0.998397, 193, 145, 208, 208
-0.998398, 197, 143, 228, 158
-0.998415, 225, 1, 256, 64
-0.998415, 189, 153, 220, 216
-0.998416, 289, 233, 416, 264
-0.998416, 161, 345, 288, 375
-0.99842, 247, 89, 262, 120
-0.998421, 201, 313, 264, 375
-0.998462, 241, 221, 368, 252
-0.998463, 233, 105, 248, 136
-0.99847, 17, 261, 144, 292
-0.998472, 251, 109, 266, 140
-0.998481, 247, 153, 262, 216
-0.998491, 229, 121, 244, 152
-0.998492, 153, 249, 216, 312
-0.998493, 155, 97, 170, 160
-0.998496, 421, 41, 452, 104
-0.998497, 227, 109, 242, 140
-0.998498, 181, 145, 212, 272
-0.998498, 297, 225, 328, 352
-0.998501, 261, 73, 276, 136
-0.998505, 229, 117, 260, 132
-0.99851, 195, 73, 210, 136
-0.998519, 239, 93, 254, 124
-0.998523, 253, 97, 268, 128
-0.998524, 281, 33, 296, 96
-0.998525, 161, 41, 288, 72
-0.998526, 241, 185, 368, 216
-0.998526, 33, 9, 288, 72
-0.998527, 229, 111, 260, 126
-0.998532, 239, 1, 254, 64
-0.998535, 241, 205, 368, 236
-0.998541, 221, 1, 252, 256
-0.998544, 161, 97, 176, 160
-0.998552, 307, 249, 322, 312
-0.998558, 1, 313, 256, 375
-0.99856, 321, 205, 448, 236
-0.99856, 57, 273, 120, 336
-0.998569, 203, 141, 218, 172
-0.998575, 287, 49, 302, 112
-0.998579, 161, 249, 416, 312
-0.998582, 241, 237, 368, 268
-0.998582, 177, 143, 240, 158
-0.998582, 261, 41, 292, 104
-0.998588, 337, 337, 352, 368
-0.998592, 121, 193, 152, 320
-0.998618, 241, 173, 368, 204
-0.99862, 177, 137, 240, 152
-0.998629, 217, 111, 280, 126
-0.998637, 185, 119, 248, 134
-0.998641, 217, 117, 280, 132
-0.998641, 33, 193, 64, 320
-0.998645, 209, 25, 336, 56
-0.998646, 201, 139, 264, 154
-0.998651, 151, 225, 166, 288
-0.998656, 97, 245, 224, 276
-0.998656, 145, 205, 208, 220
-0.998657, 193, 111, 256, 126
-0.998659, 133, 209, 164, 272
-0.998661, 193, 125, 256, 140
-0.998661, 321, 169, 448, 200
-0.998664, 177, 149, 240, 164
-0.998666, 185, 185, 200, 248
-0.998667, 353, 65, 368, 128
-0.998668, 239, 57, 254, 120
-0.998669, 341, 241, 372, 368
-0.998671, 337, 13, 464, 44
-0.998671, 189, 1, 220, 128
-0.998674, 145, 101, 208, 116
-0.998677, 249, 113, 312, 128
-0.998678, 209, 1, 336, 32
-0.998688, 97, 225, 128, 352
-0.998691, 121, 103, 184, 118
-0.998692, 289, 127, 352, 142
-0.998693, 249, 121, 264, 152
-0.998697, 289, 133, 352, 148
-0.998698, 113, 77, 240, 108
-0.998699, 249, 107, 312, 122
-0.998702, 289, 245, 352, 260
-0.998703, 273, 17, 400, 48
-0.998703, 221, 129, 236, 192
-0.998703, 121, 205, 184, 220
-0.998703, 97, 181, 224, 212
-0.998704, 289, 153, 352, 168
-0.998706, 177, 131, 240, 146
-0.998707, 145, 107, 208, 122
-0.998708, 225, 123, 288, 138
-0.998709, 289, 147, 352, 162
-0.998709, 189, 17, 220, 80
-0.998711, 289, 159, 352, 174
-0.998712, 65, 233, 192, 264
-0.998713, 289, 141, 352, 156
-0.998713, 289, 173, 352, 188
-0.998714, 237, 25, 252, 88
-0.998715, 289, 203, 352, 218
-0.998715, 289, 195, 352, 210
-0.998715, 289, 209, 352, 224
-0.998715, 289, 225, 352, 240
-0.998715, 289, 233, 352, 248
-0.998715, 145, 239, 208, 254
-0.998715, 289, 215, 352, 230
-0.998716, 289, 179, 352, 194
-0.998717, 201, 145, 264, 160
-0.998717, 289, 109, 352, 124
-0.998717, 289, 189, 352, 204
-0.998717, 289, 121, 352, 136
-0.998717, 193, 105, 256, 120
-0.998717, 37, 217, 52, 280
-0.998718, 201, 133, 264, 148
-0.998718, 153, 139, 216, 154
-0.998718, 297, 353, 360, 368
-0.998719, 289, 165, 352, 180
-0.998721, 173, 1, 204, 256
-0.998721, 257, 105, 384, 136
-0.998722, 145, 213, 208, 228
-0.998722, 259, 109, 274, 140
-0.998723, 185, 89, 248, 104
-0.998723, 185, 37, 248, 52
-0.998723, 145, 233, 208, 248
-0.998724, 177, 167, 240, 182
-0.998724, 177, 157, 240, 172
-0.998724, 209, 93, 272, 108
-0.998725, 185, 99, 248, 114
-0.998726, 177, 29, 240, 44
-0.998727, 217, 105, 280, 120
-0.998727, 289, 1, 304, 64
-0.998727, 153, 115, 216, 130
-0.998727, 289, 239, 352, 254
-0.998727, 145, 199, 208, 214
-0.998729, 249, 101, 312, 116
-0.99873, 121, 109, 184, 124
-0.99873, 145, 227, 208, 242
-0.998732, 297, 339, 360, 354
-0.998732, 219, 129, 234, 160
-0.998733, 329, 89, 392, 104
-0.998734, 145, 219, 208, 234
-0.998735, 289, 115, 352, 130
-0.998735, 257, 119, 320, 134
-0.998736, 121, 231, 184, 246
-0.998736, 121, 243, 184, 258
-0.998736, 281, 9, 344, 24
-0.998737, 177, 43, 240, 58
-0.998738, 297, 255, 360, 270
-0.998738, 121, 217, 184, 232
-0.998739, 241, 39, 304, 54
-0.998739, 145, 133, 208, 148
-0.99874, 257, 125, 320, 140
-0.99874, 249, 15, 312, 30
-0.99874, 241, 95, 304, 110
-0.998741, 289, 93, 352, 108
-0.998741, 239, 29, 254, 60
-0.998741, 121, 211, 184, 226
-0.998742, 121, 97, 184, 112
-0.998742, 185, 67, 248, 82
-0.998742, 241, 89, 304, 104
-0.998743, 185, 75, 248, 90
-0.998743, 145, 95, 208, 110
-0.998743, 139, 249, 154, 312
-0.998743, 177, 9, 240, 24
-0.998744, 297, 361, 360, 375
-0.998746, 289, 103, 352, 118
-0.998746, 121, 237, 184, 252
-0.998746, 25, 259, 88, 274
-0.998747, 273, 15, 336, 30
-0.998747, 321, 185, 448, 216
-0.998748, 177, 53, 240, 68
-0.998748, 257, 133, 320, 148
-0.998749, 33, 275, 96, 290
-0.998749, 145, 245, 208, 260
-0.99875, 297, 345, 360, 360
-0.99875, 145, 127, 208, 142
-0.998751, 177, 17, 240, 32
-0.998751, 209, 43, 272, 58
-0.998751, 337, 345, 400, 360
-0.998752, 241, 33, 304, 48
-0.998752, 217, 37, 280, 52
-0.998754, 185, 83, 248, 98
-0.998754, 249, 51, 312, 66
-0.998755, 153, 27, 216, 42
-0.998755, 201, 163, 264, 178
-0.998755, 217, 99, 280, 114
-0.998755, 33, 265, 96, 280
-0.998756, 409, 167, 472, 182
-0.998756, 161, 121, 224, 136
-0.998756, 105, 225, 168, 240
-0.998756, 137, 5, 200, 20
-0.998757, 153, 145, 216, 160
-0.998757, 1, 265, 64, 280
-0.998757, 225, 13, 288, 28
-0.998758, 417, 107, 480, 122
-0.998758, 97, 201, 224, 232
-0.998758, 137, 19, 200, 34
-0.998758, 33, 1, 96, 256
-0.998758, 249, 65, 312, 80
-0.998759, 417, 133, 480, 148
-0.998759, 185, 59, 248, 74
-0.99876, 121, 137, 184, 152
-0.99876, 249, 45, 312, 60
-0.998761, 121, 119, 184, 134
-0.998761, 329, 83, 392, 98
-0.998761, 417, 127, 480, 142
-0.998762, 289, 67, 352, 82
-0.998762, 241, 337, 368, 368
-0.998763, 137, 241, 200, 368
-0.998763, 201, 157, 264, 172
-0.998763, 177, 173, 240, 188
-0.998763, 89, 241, 152, 256
-0.998763, 121, 125, 184, 140
-0.998764, 265, 355, 328, 370
-0.998764, 321, 93, 448, 124
-0.998764, 337, 5, 400, 20
-0.998765, 417, 161, 480, 176
-0.998766, 433, 33, 448, 96
-0.998767, 321, 329, 448, 360
-0.998768, 161, 233, 288, 296
-0.998769, 93, 265, 124, 328
-0.99877, 241, 137, 256, 168
-0.998771, 293, 17, 324, 80
-0.998773, 185, 217, 216, 280
-0.998783, 17, 301, 144, 332
-0.998792, 329, 129, 392, 192
-0.998798, 185, 249, 200, 312
-0.998811, 321, 157, 448, 188
-0.998814, 105, 281, 168, 344
-0.998818, 321, 137, 448, 168
-0.998818, 17, 313, 144, 344
-0.998824, 321, 245, 448, 276
-0.998824, 219, 117, 234, 148
-0.998825, 353, 45, 480, 76
-0.998828, 335, 233, 350, 296
-0.998829, 329, 201, 392, 264
-0.998834, 227, 97, 242, 128
-0.998838, 193, 289, 256, 352
-0.998838, 1, 313, 64, 375
-0.99885, 203, 153, 218, 184
-0.998851, 457, 209, 488, 336
-0.998856, 321, 113, 448, 144
-0.998858, 17, 1, 80, 128
-0.99886, 193, 153, 208, 184
-0.998864, 433, 65, 448, 128
-0.998865, 341, 65, 356, 128
-0.998869, 241, 153, 256, 184
-0.998872, 209, 49, 336, 80
-0.998875, 347, 49, 362, 80
-0.998879, 245, 29, 260, 60
-0.9989, 217, 141, 232, 172
-0.998903, 195, 1, 210, 64
-0.998904, 209, 121, 224, 152
-0.998905, 249, 25, 264, 88
-0.998907, 33, 289, 160, 320
-0.998913, 413, 65, 444, 192
-0.998913, 9, 161, 40, 288
-0.998919, 289, 1, 416, 32
-0.998923, 225, 277, 352, 308
-0.998923, 97, 261, 224, 292
-0.998924, 433, 81, 496, 208
-0.998926, 247, 153, 262, 184
-0.998928, 429, 193, 460, 320
-0.998928, 343, 69, 358, 100
-0.998941, 117, 249, 148, 312
-0.998948, 17, 57, 144, 88
-0.998949, 233, 1, 248, 64
-0.998953, 313, 249, 328, 312
-0.998955, 161, 97, 176, 128
-0.998956, 41, 1, 104, 64
-0.998956, 227, 57, 242, 120
-0.998968, 417, 57, 480, 120
-0.998971, 233, 313, 296, 375
-0.998974, 321, 125, 448, 156
-0.998975, 193, 65, 224, 320
-0.998976, 195, 49, 210, 112
-0.998976, 191, 121, 206, 152
-0.998978, 209, 49, 224, 112
-0.998978, 247, 133, 262, 164
-0.998982, 17, 237, 144, 268
-0.998984, 349, 69, 364, 100
-0.998986, 321, 217, 448, 248
-0.998989, 425, 209, 456, 272
-0.998989, 469, 209, 500, 336
-0.998991, 233, 93, 248, 124
-0.998996, 369, 9, 432, 72
-0.999001, 177, 209, 192, 272
-0.999001, 155, 101, 170, 132
-0.999003, 355, 69, 370, 100
-0.999003, 167, 101, 182, 132
-0.999005, 217, 81, 232, 144
-0.999009, 359, 49, 374, 112
-0.99901, 295, 121, 310, 152
-0.99901, 319, 249, 334, 312
-0.999016, 425, 65, 440, 128
-0.999019, 131, 225, 146, 288
-0.999019, 113, 265, 128, 328
-0.999021, 17, 325, 144, 356
-0.99903, 195, 89, 210, 120
-0.999031, 185, 229, 200, 260
-0.999031, 151, 205, 166, 236
-0.999032, 193, 141, 208, 172
-0.999034, 173, 1, 204, 128
-0.999034, 345, 249, 360, 312
-0.999039, 345, 81, 376, 144
-0.999041, 243, 41, 258, 72
-0.999042, 237, 17, 252, 48
-0.999042, 1, 137, 128, 200
-0.999049, 203, 69, 218, 100
-0.999051, 353, 249, 384, 312
-0.999052, 161, 69, 288, 100
-0.999053, 193, 17, 208, 48
-0.999054, 247, 17, 262, 48
-0.999054, 313, 1, 376, 128
-0.999058, 241, 325, 368, 356
-0.999061, 331, 337, 346, 368
-0.999065, 145, 233, 160, 296
-0.999067, 237, 77, 252, 108
-0.999067, 329, 177, 392, 240
-0.999068, 243, 1, 258, 32
-0.999071, 29, 233, 44, 296
-0.999071, 301, 241, 316, 304
-0.999071, 287, 69, 302, 100
-0.999072, 211, 157, 226, 188
-0.999072, 97, 61, 224, 92
-0.999073, 417, 161, 432, 224
-0.999074, 355, 249, 370, 312
-0.999075, 65, 221, 192, 252
-0.999076, 369, 217, 496, 248
-0.999078, 261, 97, 276, 128
-0.99908, 329, 233, 344, 296
-0.999083, 297, 17, 312, 80
-0.999085, 221, 105, 236, 136
-0.999088, 337, 345, 464, 375
-0.999088, 321, 317, 448, 348
-0.999089, 279, 1, 294, 64
-0.999089, 203, 129, 218, 160
-0.999092, 353, 57, 416, 120
-0.999093, 233, 1, 264, 256
-0.999098, 33, 257, 48, 320
-0.9991, 227, 17, 242, 48
-0.999101, 465, 225, 496, 288
-0.999101, 97, 21, 224, 52
-0.999105, 233, 29, 248, 60
-0.999107, 81, 105, 208, 136
-0.999107, 185, 17, 200, 80
-0.99911, 337, 33, 464, 64
-0.999112, 425, 41, 440, 104
-0.999117, 335, 245, 350, 276
-0.999117, 161, 185, 288, 216
-0.999118, 151, 245, 166, 276
-0.999119, 259, 33, 274, 96
-0.99913, 161, 1, 288, 32
-0.999138, 169, 193, 184, 224
-0.999146, 223, 1, 238, 64
-0.999149, 185, 217, 200, 248
-0.999149, 337, 89, 352, 152
-0.999153, 107, 265, 122, 328
-0.999156, 193, 169, 208, 232
-0.999156, 243, 165, 258, 196
-0.999156, 229, 97, 260, 352
-0.999161, 417, 65, 448, 128
-0.999164, 17, 225, 144, 256
-0.999168, 197, 105, 212, 136
-0.999168, 197, 117, 212, 148
-0.99917, 139, 257, 154, 288
-0.999171, 185, 201, 200, 232
-0.999171, 241, 281, 256, 344
-0.999172, 287, 45, 302, 76
-0.999172, 193, 165, 208, 196
-0.999173, 195, 25, 210, 88
-0.999175, 297, 137, 312, 200
-0.999177, 103, 289, 118, 352
-0.999184, 243, 121, 258, 152
-0.999188, 253, 85, 268, 116
-0.99919, 225, 305, 352, 336
-0.999193, 151, 233, 166, 264
-0.999201, 423, 73, 438, 104
-0.999203, 369, 249, 496, 280
-0.999203, 17, 337, 144, 368
-0.999203, 203, 53, 218, 84
-0.999204, 51, 241, 66, 304
-0.999205, 21, 225, 36, 288
-0.999206, 145, 289, 208, 352
-0.999208, 273, 129, 288, 192
-0.999208, 287, 33, 302, 64
-0.999208, 255, 37, 270, 68
-0.999212, 113, 9, 240, 40
-0.999215, 287, 57, 302, 88
-0.999215, 161, 109, 176, 140
-0.999216, 353, 73, 480, 104
-0.999216, 145, 313, 272, 344
-0.999216, 229, 25, 244, 88
-0.999219, 305, 301, 432, 332
-0.999224, 209, 65, 224, 96
-0.999225, 289, 81, 416, 112
-0.999229, 133, 249, 148, 312
-0.999229, 305, 177, 336, 304
-0.999229, 167, 113, 182, 144
-0.999231, 161, 53, 288, 84
-0.999231, 195, 77, 210, 108
-0.999232, 247, 77, 262, 108
-0.999235, 125, 257, 140, 320
-0.999235, 173, 121, 204, 184
-0.999237, 353, 9, 368, 72
-0.999238, 229, 81, 244, 112
-0.999243, 201, 37, 216, 68
-0.999244, 97, 273, 112, 336
-0.999245, 163, 241, 178, 272
-0.999247, 203, 113, 218, 144
-0.99925, 281, 113, 296, 176
-0.999251, 179, 245, 194, 276
-0.999253, 305, 253, 320, 284
-0.999259, 213, 113, 228, 240
-0.999259, 279, 65, 294, 96
-0.999261, 185, 253, 200, 284
-0.999261, 337, 313, 352, 375
-0.999261, 449, 129, 480, 256
-0.999262, 279, 81, 294, 112
-0.999263, 97, 249, 112, 280
-0.999264, 355, 45, 370, 76
-0.999264, 353, 57, 480, 88
-0.999264, 349, 81, 364, 112
-0.999267, 201, 65, 216, 128
-0.999272, 131, 245, 146, 276
-0.999272, 41, 257, 56, 288
-0.999273, 195, 37, 210, 68
-0.999281, 385, 249, 400, 312
-0.999282, 163, 201, 178, 232
-0.999283, 253, 129, 268, 192
-0.999283, 237, 41, 252, 72
-0.999285, 1, 137, 500, 200
-0.999286, 209, 89, 224, 120
-0.999286, 175, 197, 190, 228
-0.999286, 281, 53, 296, 84
-0.999289, 289, 257, 416, 288
-0.99929, 423, 57, 438, 88
-0.999293, 287, 81, 302, 112
-0.999293, 341, 249, 356, 280
-0.999293, 29, 225, 44, 256
-0.999293, 409, 17, 440, 80
-0.999295, 145, 209, 160, 272
-0.999296, 187, 129, 202, 192
-0.999296, 229, 129, 244, 192
-0.999298, 289, 13, 304, 44
-0.999301, 425, 45, 440, 76
-0.999301, 97, 49, 224, 80
-0.999305, 361, 249, 376, 312
-0.999307, 185, 21, 200, 52
-0.999308, 415, 201, 430, 264
-0.999308, 379, 249, 394, 312
-0.99931, 153, 1, 184, 256
-0.999311, 305, 137, 320, 200
-0.999313, 289, 73, 304, 136
-0.999313, 227, 33, 242, 64
-0.999313, 291, 105, 306, 136
-0.999314, 195, 209, 210, 272
-0.999314, 177, 233, 192, 296
-0.999314, 93, 313, 108, 375
-0.999316, 233, 1, 248, 32
-0.999319, 413, 9, 428, 72
-0.99932, 217, 153, 232, 216
-0.999323, 479, 225, 494, 288
-0.999323, 273, 133, 400, 164
-0.999324, 393, 249, 408, 312
-0.999324, 223, 77, 238, 108
-0.999324, 203, 81, 218, 112
-0.999324, 31, 257, 46, 288
-0.999324, 203, 25, 218, 56
-0.999326, 261, 1, 276, 64
-0.999326, 447, 217, 462, 280
-0.999326, 161, 333, 288, 364
-0.999328, 103, 261, 118, 292
-0.99933, 249, 57, 264, 120
-0.999331, 133, 105, 164, 168
-0.999332, 269, 105, 284, 168
-0.999333, 343, 341, 358, 372
-0.999334, 159, 121, 174, 152
-0.999334, 343, 81, 358, 112
-0.999337, 187, 97, 202, 128
-0.999338, 35, 281, 50, 344
-0.99934, 161, 261, 288, 292
-0.999341, 439, 209, 454, 272
-0.999342, 335, 89, 350, 120
-0.999343, 369, 313, 496, 344
-0.999343, 273, 69, 288, 100
-0.999344, 459, 217, 474, 280
-0.999344, 469, 225, 484, 288
-0.999345, 297, 13, 312, 44
-0.999346, 21, 237, 36, 268
-0.999347, 213, 109, 228, 140
-0.999347, 29, 177, 44, 240
-0.99935, 297, 25, 312, 56
-0.99935, 305, 133, 320, 164
-0.999351, 239, 113, 254, 240
-0.999355, 209, 53, 224, 84
-0.999355, 335, 21, 350, 52
-0.999356, 241, 97, 272, 352
-0.999366, 205, 65, 220, 192
-0.999374, 81, 345, 208, 375
-0.999376, 385, 49, 448, 176
-0.999378, 225, 293, 352, 324
-0.999378, 173, 249, 204, 312
-0.99939, 33, 101, 160, 132
-0.999391, 97, 321, 224, 352
-0.999423, 113, 49, 144, 176
-0.999429, 369, 181, 496, 212
-0.999437, 219, 97, 234, 224
-0.999443, 97, 305, 352, 368
-0.999446, 193, 139, 208, 154
-0.999446, 349, 71, 364, 86
-0.999446, 161, 109, 176, 124
-0.999446, 197, 65, 212, 80
-0.999446, 151, 235, 166, 250
-0.999447, 155, 109, 170, 124
-0.999447, 263, 111, 278, 126
-0.999447, 255, 39, 270, 54
-0.999447, 297, 121, 312, 136
-0.999447, 349, 89, 364, 104
-0.999448, 193, 145, 208, 160
-0.999448, 201, 51, 216, 66
-0.999449, 423, 83, 438, 98
-0.999449, 249, 25, 264, 40
-0.99945, 297, 9, 312, 24
-0.999451, 173, 207, 188, 222
-0.999452, 213, 113, 228, 128
-0.999452, 185, 223, 200, 238
-0.999452, 281, 47, 296, 62
-0.999453, 151, 245, 166, 260
-0.999453, 195, 93, 210, 108
-0.999454, 167, 109, 182, 124
-0.999455, 209, 67, 224, 82
-0.999455, 359, 73, 374, 88
-0.999455, 161, 101, 176, 116
-0.999455, 233, 13, 248, 28
-0.999455, 203, 111, 218, 126
-0.999455, 201, 57, 216, 72
-0.999456, 253, 93, 268, 108
-0.999456, 237, 163, 252, 178
-0.999456, 193, 159, 208, 174
-0.999457, 337, 353, 352, 368
-0.999457, 185, 211, 200, 226
-0.999458, 337, 261, 464, 292
-0.999458, 235, 43, 250, 58
-0.999459, 161, 205, 176, 220
-0.999459, 289, 29, 304, 44
-0.999459, 343, 73, 358, 88
-0.99946, 237, 137, 252, 152
-0.999462, 139, 257, 154, 272
-0.999462, 171, 199, 186, 214
-0.999462, 347, 63, 362, 78
-0.999462, 229, 89, 244, 104
-0.999463, 287, 77, 302, 92
-0.999464, 185, 241, 200, 256
-0.999465, 185, 233, 200, 248
-0.999465, 65, 145, 192, 208
-0.999466, 195, 25, 210, 40
-0.999466, 253, 121, 268, 136
-0.999466, 335, 247, 350, 262
-0.999466, 247, 113, 262, 240
-0.999467, 227, 17, 242, 32
-0.999467, 261, 101, 276, 116
-0.999468, 241, 47, 256, 62
-0.999469, 249, 137, 264, 152
-0.999469, 211, 163, 226, 178
-0.999469, 195, 37, 210, 52
-0.999469, 217, 119, 232, 134
-0.99947, 145, 245, 272, 276
-0.99947, 235, 27, 250, 42
-0.99947, 201, 37, 216, 52
-0.99947, 185, 217, 200, 232
-0.99947, 235, 37, 250, 52
-0.999471, 249, 43, 264, 58
-0.999471, 185, 205, 200, 220
-0.999472, 229, 97, 244, 112
-0.999472, 247, 31, 262, 46
-0.999472, 241, 83, 256, 98
-0.999473, 287, 45, 302, 60
-0.999474, 197, 109, 212, 124
-0.999476, 249, 163, 264, 178
-0.999476, 279, 37, 294, 52
-0.999476, 355, 81, 370, 96
-0.999476, 207, 113, 222, 240
-0.999477, 305, 281, 432, 312
-0.999478, 151, 205, 166, 220
-0.999479, 347, 53, 362, 68
-0.999479, 203, 73, 218, 88
-0.999481, 203, 65, 218, 80
-0.999482, 349, 83, 364, 98
-0.999482, 249, 65, 264, 192
-0.999483, 205, 135, 220, 150
-0.999483, 251, 101, 266, 116
-0.999484, 193, 151, 208, 166
-0.999485, 195, 119, 210, 134
-0.999485, 287, 35, 302, 50
-0.999488, 191, 127, 206, 142
-0.999488, 211, 157, 226, 172
-0.999488, 203, 29, 218, 44
-0.999489, 205, 167, 220, 182
-0.99949, 249, 157, 264, 172
-0.99949, 253, 87, 268, 102
-0.999491, 245, 107, 260, 122
-0.999491, 247, 37, 262, 52
-0.999492, 237, 123, 252, 138
-0.999493, 197, 103, 212, 118
-0.999495, 245, 97, 260, 112
-0.999495, 219, 145, 234, 160
-0.999496, 167, 101, 182, 116
-0.999497, 219, 131, 234, 146
-0.999497, 247, 85, 262, 100
-0.999498, 203, 149, 218, 164
-0.999498, 257, 115, 272, 130
-0.999498, 333, 81, 364, 144
-0.999502, 195, 31, 210, 46
-0.999502, 65, 277, 192, 308
-0.999503, 145, 313, 208, 375
-0.999505, 155, 101, 170, 116
-0.999505, 369, 169, 496, 200
-0.999506, 281, 97, 312, 352
-0.999506, 219, 139, 234, 154
-0.999507, 237, 65, 252, 192
-0.999507, 241, 41, 256, 56
-0.999509, 153, 97, 184, 352
-0.999512, 257, 107, 272, 122
-0.999514, 193, 233, 320, 264
-0.999514, 235, 89, 250, 104
-0.999515, 17, 69, 144, 100
-0.999516, 239, 95, 254, 110
-0.999517, 189, 193, 220, 320
-0.999519, 211, 151, 226, 166
-0.99952, 239, 131, 254, 146
-0.999521, 249, 131, 264, 146
-0.999524, 177, 217, 240, 280
-0.999525, 335, 339, 350, 354
-0.999529, 223, 113, 238, 128
-0.999531, 241, 31, 256, 46
-0.999531, 297, 127, 312, 142
-0.999534, 247, 119, 262, 134
-0.999536, 239, 103, 254, 118
-0.999537, 33, 85, 160, 116
-0.999541, 289, 269, 416, 300
-0.999543, 243, 157, 258, 172
-0.999544, 117, 217, 148, 280
-0.999546, 211, 133, 226, 148
-0.999547, 337, 1, 464, 32
-0.999548, 243, 167, 258, 182
-0.999549, 201, 1, 264, 64
-0.999556, 231, 119, 246, 134
-0.999558, 243, 139, 258, 154
-0.999558, 251, 107, 266, 122
-0.999561, 151, 193, 166, 320
-0.999563, 247, 91, 262, 106
-0.999563, 205, 143, 220, 158
-0.999567, 195, 97, 210, 224
-0.999568, 229, 125, 244, 140
-0.999569, 229, 107, 244, 122
-0.999569, 161, 197, 288, 228
-0.999575, 145, 301, 272, 332
-0.999578, 17, 213, 144, 244
-0.999578, 231, 113, 246, 128
-0.999585, 241, 89, 256, 104
-0.999588, 17, 181, 144, 212
-0.999595, 239, 109, 254, 124
-0.999596, 113, 9, 176, 72
-0.999601, 221, 49, 236, 176
-0.99961, 211, 145, 226, 160
-0.999611, 49, 157, 176, 188
-0.999612, 249, 113, 264, 128
-0.999613, 113, 229, 240, 260
-0.999616, 225, 119, 240, 134
-0.999617, 49, 193, 176, 224
-0.999623, 369, 193, 496, 224
-0.999629, 237, 117, 252, 132
-0.99963, 213, 65, 228, 192
-0.999631, 175, 193, 190, 320
-0.999633, 33, 13, 160, 44
-0.999636, 65, 301, 192, 332
-0.999637, 295, 97, 310, 224
-0.99965, 1, 313, 500, 375
-0.999652, 357, 1, 372, 128
-0.999652, 341, 313, 372, 375
-0.999658, 233, 161, 264, 224
-0.999663, 17, 145, 80, 272
-0.999665, 363, 1, 378, 128
-0.99967, 17, 169, 144, 200
-0.999672, 297, 1, 328, 256
-0.999673, 185, 161, 200, 288
-0.999674, 199, 33, 214, 160
-0.999677, 97, 33, 224, 64
-0.999679, 133, 1, 164, 256
-0.99968, 47, 241, 62, 368
-0.999685, 445, 217, 476, 280
-0.999685, 161, 193, 176, 320
-0.999686, 169, 97, 200, 352
-0.999688, 211, 139, 226, 154
-0.999692, 9, 185, 72, 248
-0.999703, 169, 113, 184, 240
-0.999705, 157, 65, 172, 192
-0.999712, 347, 33, 362, 160
-0.999718, 169, 193, 184, 320
-0.999719, 141, 241, 156, 368
-0.999721, 33, 209, 48, 336
-0.999722, 415, 1, 430, 128
-0.999725, 429, 1, 460, 256
-0.999725, 185, 241, 200, 368
-0.999726, 231, 33, 246, 160
-0.999727, 159, 113, 174, 240
-0.999729, 209, 17, 224, 144
-0.99973, 1, 9, 500, 72
-0.999735, 313, 241, 344, 368
-0.999735, 417, 145, 432, 272
-0.999736, 23, 161, 38, 288
-0.999737, 325, 241, 340, 368
-0.99974, 435, 1, 450, 128
-0.999741, 337, 65, 352, 192
-0.999742, 231, 97, 246, 224
-0.999746, 167, 65, 182, 192
-0.999754, 225, 97, 240, 224
-0.999763, 297, 1, 312, 128
-0.999764, 195, 145, 210, 272
-0.999766, 303, 225, 318, 352
-0.999766, 29, 257, 60, 320
-0.999769, 29, 161, 44, 288
-0.999773, 243, 49, 258, 176
-0.999778, 423, 65, 438, 192
-0.999779, 451, 129, 466, 256
-0.999782, 145, 193, 160, 320
-0.999783, 135, 241, 150, 368
-0.999783, 343, 241, 358, 368
-0.999784, 345, 1, 408, 375
-0.999785, 131, 193, 146, 320
-0.999786, 257, 17, 272, 144
-0.999798, 37, 161, 52, 288
-0.999798, 289, 33, 304, 160
-0.999802, 417, 193, 432, 320
-0.999803, 209, 161, 224, 288
-0.999804, 417, 17, 448, 144
-0.999806, 437, 145, 468, 272
-0.999808, 447, 209, 462, 336
-0.999808, 285, 193, 316, 320
-0.999809, 353, 49, 368, 176
-0.999815, 127, 49, 142, 176
-0.999815, 245, 161, 260, 288
-0.999819, 239, 1, 254, 128
-0.99982, 441, 193, 456, 320
-0.999821, 93, 1, 124, 128
-0.999821, 125, 241, 140, 368
-0.999822, 335, 1, 350, 128
-0.999822, 39, 241, 54, 368
-0.999825, 297, 193, 312, 320
-0.999826, 335, 177, 350, 304
-0.999827, 147, 241, 162, 368
-0.999828, 193, 193, 208, 320
-0.999829, 457, 209, 472, 336
-0.999829, 385, 65, 448, 320
-0.99983, 331, 241, 346, 368
-0.99983, 319, 241, 334, 368
-0.999834, 245, 1, 260, 128
-0.999836, 329, 129, 360, 375
-0.999837, 185, 1, 200, 128
-0.999839, 43, 193, 58, 320
-0.99984, 209, 97, 240, 352
-0.999844, 281, 65, 296, 192
-0.999846, 209, 65, 240, 128
-0.999847, 251, 17, 266, 144
-0.999848, 433, 193, 448, 320
-0.99985, 423, 145, 438, 272
-0.99985, 467, 209, 482, 336
-0.999852, 113, 1, 128, 128
-0.999853, 201, 113, 216, 240
-0.999853, 27, 209, 42, 336
-0.999853, 17, 177, 32, 304
-0.999855, 55, 17, 70, 144
-0.999856, 305, 177, 320, 304
-0.999859, 139, 193, 154, 320
-0.999859, 61, 17, 76, 144
-0.999861, 69, 17, 84, 144
-0.999863, 425, 193, 440, 320
-0.999863, 179, 241, 194, 368
-0.999865, 91, 225, 106, 352
-0.999865, 337, 241, 352, 368
-0.999871, 483, 209, 498, 336
-0.999872, 189, 113, 204, 240
-0.999873, 253, 113, 268, 240
-0.999874, 387, 1, 402, 128
-0.999874, 99, 241, 114, 368
-0.999875, 357, 241, 372, 368
-0.999876, 31, 49, 46, 176
-0.999877, 429, 17, 444, 144
-0.999879, 477, 209, 492, 336
-0.99988, 193, 49, 208, 176
-0.999881, 263, 33, 278, 160
-0.999882, 89, 17, 104, 144
-0.999882, 111, 225, 126, 352
-0.999883, 187, 49, 202, 176
-0.999885, 77, 17, 92, 144
-0.999885, 409, 1, 424, 128
-0.999886, 363, 49, 378, 176
-0.999889, 421, 17, 436, 144
-0.999889, 225, 1, 240, 128
-0.999893, 45, 1, 60, 128
-0.999893, 151, 113, 166, 240
-0.999893, 119, 17, 134, 144
-0.999894, 277, 9, 308, 72
-0.999895, 105, 209, 120, 336
-0.999895, 209, 1, 240, 256
-0.999897, 327, 193, 342, 320
-0.999898, 107, 1, 122, 128
-0.999899, 243, 241, 258, 368
-0.999899, 377, 185, 440, 248
-0.9999, 367, 241, 382, 368
-0.9999, 83, 17, 98, 144
-0.999901, 117, 241, 132, 368
-0.999902, 393, 225, 408, 352
-0.999905, 21, 129, 52, 375
-0.999906, 107, 49, 122, 176
-0.999906, 309, 241, 324, 368
-0.999906, 99, 17, 114, 144
-0.999908, 275, 33, 290, 160
-0.999909, 129, 145, 144, 272
-0.99991, 417, 65, 432, 192
-0.999911, 371, 1, 386, 128
-0.999911, 157, 241, 172, 368
-0.999912, 1, 33, 500, 96
-0.999917, 289, 241, 320, 304
-0.999917, 341, 249, 372, 312
-0.999924, 89, 313, 152, 375
-0.999924, 265, 1, 296, 256
-0.999933, 341, 1, 372, 256
-0.999946, 341, 9, 372, 72
-0.999948, 169, 17, 200, 80
-0.999951, 409, 1, 440, 256
-0.999966, 53, 17, 84, 144
-0.999971, 1, 273, 500, 336
-0.999981, 133, 97, 164, 352
-0.999993, 1, 225, 500, 288
-1.00002, 113, 65, 144, 320
-1.00007, 321, 217, 352, 280
-1.00009, 413, 129, 444, 375
-1.00009, 321, 1, 352, 128
-1.0001, 17, 177, 48, 240
-1.0001, 257, 129, 288, 192
-1.00011, 257, 81, 288, 208
-1.00011, 449, 129, 480, 375
-1.00013, 89, 9, 152, 72
-1.00013, 293, 129, 324, 375
-1.00014, 425, 97, 456, 352
-1.00015, 181, 97, 212, 352
-1.00016, 249, 65, 280, 128
-1.00016, 353, 49, 384, 112
-1.00018, 17, 97, 80, 160
-1.00018, 445, 193, 476, 256
-1.00019, 413, 201, 444, 264
-1.0002, 285, 145, 316, 208
-1.0002, 433, 153, 496, 216
-1.0002, 133, 97, 164, 224
-1.00021, 313, 1, 344, 256
-1.00022, 73, 17, 104, 144
-1.00022, 33, 129, 96, 375
-1.00024, 1, 201, 500, 264
-1.00025, 437, 97, 468, 352
-1.00026, 329, 57, 360, 120
-1.00028, 257, 97, 288, 352
-1.00029, 41, 1, 72, 256
-1.00029, 1, 145, 64, 208
-1.00029, 9, 129, 40, 375
-1.0003, 1, 57, 500, 120
-1.00031, 77, 281, 108, 344
-1.00032, 329, 33, 360, 288
-1.00034, 393, 65, 424, 320
-1.00034, 369, 81, 432, 144
-1.00035, 205, 33, 236, 96
-1.00036, 385, 209, 448, 272
-1.00038, 141, 241, 172, 368
-1.00039, 1, 249, 500, 312
-1.00041, 65, 1, 128, 64
-1.00042, 101, 1, 132, 256
-1.00042, 53, 1, 84, 256
-1.00043, 369, 33, 432, 96
-1.00044, 97, 241, 128, 304
-1.00045, 89, 121, 152, 184
-1.00048, 173, 153, 204, 216
-1.00048, 65, 1, 96, 256
-1.00048, 261, 81, 292, 144
-1.00049, 325, 177, 356, 304
-1.00049, 413, 161, 444, 224
-1.00049, 41, 129, 72, 375
-1.00049, 29, 49, 60, 176
-1.0005, 125, 185, 156, 248
-1.00051, 269, 129, 300, 375
-1.00053, 25, 33, 56, 288
-1.00054, 305, 129, 336, 375
-1.00055, 57, 57, 120, 120
-1.00055, 241, 281, 272, 344
-1.00055, 429, 97, 460, 160
-1.00055, 133, 33, 164, 160
-1.00058, 9, 225, 40, 288
-1.00059, 153, 33, 184, 160
-1.0006, 261, 33, 292, 160
-1.00063, 53, 241, 84, 304
-1.00063, 305, 225, 336, 288
-1.00067, 461, 65, 492, 320
-1.00067, 421, 17, 452, 80
-1.00067, 81, 1, 112, 256
-1.00071, 17, 97, 80, 224
-1.00072, 317, 97, 348, 352
-1.00073, 77, 209, 108, 336
-1.00073, 329, 49, 360, 176
-1.00076, 277, 1, 308, 128
-1.00078, 41, 17, 72, 144
-1.00078, 69, 129, 100, 375
-1.00079, 377, 1, 408, 128
-1.0008, 409, 41, 440, 104
-1.0008, 9, 1, 40, 256
-1.00082, 449, 33, 480, 288
-1.00086, 413, 225, 444, 288
-1.00088, 293, 121, 324, 184
-1.0009, 357, 33, 388, 288
-1.00091, 89, 129, 120, 375
-1.00092, 129, 145, 160, 272
-1.00096, 101, 97, 132, 352
-1.00097, 369, 249, 400, 312
-1.00097, 361, 49, 392, 176
-1.00099, 345, 97, 376, 352
-1.00099, 361, 65, 424, 320
-1.001, 109, 193, 140, 320
-1.001, 377, 129, 408, 375
-1.00101, 357, 129, 388, 375
-1.00101, 189, 177, 220, 240
-1.00103, 1, 97, 500, 160
-1.00103, 365, 241, 396, 368
-1.00106, 241, 241, 272, 368
-1.00109, 57, 129, 88, 375
-1.00118, 369, 33, 400, 288
-1.00118, 77, 233, 108, 296
-1.00118, 397, 1, 428, 64
-1.00123, 41, 273, 72, 336
-1.00123, 1, 161, 500, 224
-1.00126, 381, 249, 412, 312
-1.00127, 333, 209, 364, 272
-1.00128, 425, 113, 456, 240
-1.00129, 285, 145, 316, 272
-1.00134, 109, 273, 140, 336
-1.00134, 417, 89, 448, 152
-1.00135, 397, 225, 428, 352
-1.00136, 381, 1, 412, 256
-1.00138, 313, 305, 344, 368
-1.00139, 25, 297, 56, 360
-1.00141, 353, 241, 384, 368
-1.00142, 429, 241, 460, 304
-1.00145, 401, 233, 432, 296
-1.00146, 301, 145, 332, 208
-1.00148, 105, 1, 136, 128
-1.00162, 89, 217, 120, 280
-1.00162, 65, 265, 96, 328
-1.00163, 153, 249, 184, 312
-1.00174, 285, 209, 316, 272
-1.00175, 401, 177, 432, 304
-1.00176, 377, 225, 408, 352
-1.00179, 113, 57, 144, 120
-1.00181, 101, 49, 132, 176
-1.00186, 157, 241, 188, 368
-1.00187, 285, 169, 316, 232
-1.0019, 349, 81, 380, 208
-1.0019, 97, 1, 160, 128
-1.00191, 433, 33, 496, 288
-1.00194, 449, 241, 480, 304
-1.00196, 29, 1, 60, 128
-1.00197, 161, 177, 192, 240
-1.00197, 301, 201, 332, 264
-1.00197, 301, 129, 332, 256
-1.00197, 345, 273, 376, 336
-1.00199, 269, 137, 300, 200
-1.00202, 81, 305, 112, 368
-1.00205, 397, 41, 428, 104
-1.00207, 385, 17, 416, 80
-1.00207, 429, 121, 460, 184
-1.00208, 297, 49, 328, 176
-1.00212, 121, 1, 152, 128
-1.00213, 301, 169, 332, 232
-1.00213, 81, 257, 112, 320
-1.00213, 97, 289, 128, 352
-1.00216, 61, 225, 92, 352
-1.00217, 113, 97, 144, 224
-1.00217, 393, 33, 424, 160
-1.00224, 425, 1, 488, 128
-1.00242, 341, 193, 372, 320
-1.00243, 57, 1, 120, 256
-1.0025, 329, 97, 360, 224
-1.0025, 9, 33, 72, 288
-1.00256, 45, 193, 76, 320
-1.00262, 17, 113, 48, 240
-1.00267, 113, 145, 144, 272
-1.00282, 261, 129, 292, 256
-1.00282, 161, 241, 224, 368
-1.00285, 89, 49, 120, 176
-1.00292, 193, 161, 256, 288
-1.00298, 81, 97, 144, 224
-1.00307, 29, 97, 60, 224
-1.00308, 193, 225, 256, 352
-1.0032, 57, 97, 120, 352
-1.00323, 441, 65, 472, 192
-1.00326, 93, 177, 124, 304
-1.00328, 5, 209, 36, 336
-1.00334, 17, 65, 48, 192
-1.00334, 433, 241, 464, 368
-1.00344, 233, 161, 264, 288
-1.0035, 461, 161, 492, 288
-1.0036, 457, 81, 488, 208
-1.00362, 41, 65, 72, 192
-1.00371, 185, 241, 216, 368
-1.00378, 285, 241, 316, 368
-1.00394, 261, 241, 292, 368
-1.00401, 441, 17, 472, 144
-1.00403, 9, 17, 40, 144
-1.00404, 33, 145, 64, 272
-1.00416, 209, 161, 240, 288
-1.00441, 357, 193, 388, 320
-1.00444, 273, 241, 304, 368
-1.00444, 385, 97, 448, 224
-1.00446, 373, 49, 404, 176
-1.00459, 57, 177, 88, 304
-1.00471, 393, 97, 424, 224
-1.0048, 445, 241, 476, 368
-1.00487, 361, 49, 424, 176
-1.00513, 57, 65, 120, 192
-1.00529, 353, 193, 416, 320
-1.00594, 233, 193, 296, 320
-1.00646, 401, 241, 464, 368
-1.00674, 73, 145, 136, 272
-1.00674, 41, 145, 104, 272
-1.00779, 361, 97, 424, 224
-1.00805, 233, 145, 296, 272
-1.01271, 353, 145, 416, 272
