1960
-0.366289, 1, 1, 500, 375
-0.447466, 1, 1, 256, 375
-0.460311, 1, 129, 500, 375
-0.470439, 1, 1, 500, 256
-0.495642, 97, 1, 352, 375
-0.542892, 65, 33, 320, 288
-0.592135, 225, 1, 480, 375
-0.693607, 1, 129, 256, 375
-0.729492, 193, 129, 448, 375
-0.775498, 257, 33, 500, 288
-0.793912, 97, 129, 352, 375
-0.79686, 161, 1, 416, 256
-0.840663, 33, 1, 160, 256
-0.843102, 97, 1, 224, 256
-0.844201, 97, 1, 224, 375
-0.862663, 17, 1, 144, 375
-0.869754, 33, 97, 160, 352
-0.870042, 353, 1, 480, 375
-0.871183, 145, 1, 272, 375
-0.871615, 97, 97, 224, 352
-0.876247, 145, 33, 272, 288
-0.889526, 273, 1, 400, 375
-0.889987, 1, 113, 500, 240
-0.89214, 193, 1, 320, 375
-0.895572, 369, 129, 496, 375
-0.898801, 273, 97, 400, 352
-0.901313, 65, 49, 320, 176
-0.905292, 1, 33, 500, 160
-0.905855, 321, 65, 448, 320
-0.906556, 209, 97, 336, 352
-0.914126, 273, 1, 400, 256
-0.914488, 33, 1, 288, 128
-0.915621, 65, 113, 320, 240
-0.917063, 193, 1, 320, 256
-0.918149, 369, 1, 496, 256
-0.919754, 1, 161, 500, 288
-0.922686, 49, 1, 176, 128
-0.929931, 161, 129, 288, 375
-0.931103, 1, 241, 500, 368
-0.931654, 97, 33, 224, 160
-0.935367, 225, 97, 480, 224
-0.936847, 57, 65, 120, 192
-0.938217, 145, 65, 272, 192
-0.939463, 17, 81, 144, 208
-0.94107, 97, 81, 224, 208
-0.942546, 121, 33, 184, 160
-0.94354, 17, 33, 80, 160
-0.944727, 257, 49, 500, 176
-0.945494, 1, 1, 128, 128
-0.945637, 57, 73, 120, 136
-0.945922, 129, 1, 384, 128
-0.946302, 57, 1, 120, 128
-0.946463, 97, 17, 160, 144
-0.947966, 33, 161, 288, 288
-0.948014, 81, 113, 144, 240
-0.949189, 145, 1, 272, 128
-0.94929, 321, 81, 448, 208
-0.951012, 393, 97, 456, 224
-0.952477, 193, 161, 448, 288
-0.952558, 105, 113, 168, 240
-0.953475, 153, 65, 216, 192
-0.954251, 17, 145, 144, 272
-0.95545, 257, 225, 500, 352
-0.955541, 369, 241, 496, 368
-0.955813, 65, 129, 192, 256
-0.956545, 417, 97, 480, 224
-0.957148, 161, 49, 416, 176
-0.957711, 49, 113, 112, 240
-0.958778, 225, 1, 480, 128
-0.95916, 225, 97, 352, 224
-0.959365, 129, 97, 192, 224
-0.959665, 353, 129, 480, 256
-0.959831, 17, 41, 80, 104
-0.959874, 97, 65, 160, 192
-0.959878, 153, 1, 216, 128
-0.96037, 377, 49, 440, 176
-0.960544, 145, 113, 272, 240
-0.960692, 193, 49, 256, 176
-0.961068, 417, 161, 480, 288
-0.961154, 393, 145, 456, 272
-0.961586, 353, 177, 480, 304
-0.961642, 89, 113, 152, 176
-0.962278, 273, 97, 400, 224
-0.962286, 393, 225, 456, 352
-0.962815, 353, 33, 480, 160
-0.963016, 113, 1, 176, 256
-0.963958, 1, 17, 64, 80
-0.963958, 393, 153, 456, 216
-0.964152, 401, 121, 464, 184
-0.964216, 305, 33, 432, 160
-0.964312, 193, 49, 320, 176
-0.964849, 353, 97, 416, 224
-0.965908, 153, 113, 216, 240
-0.966449, 273, 161, 400, 288
-0.9668, 161, 81, 224, 144
-0.96683, 409, 49, 472, 176
-0.966865, 233, 113, 296, 240
-0.96703, 185, 113, 248, 240
-0.967623, 73, 161, 136, 288
-0.967632, 65, 97, 128, 160
-0.967705, 25, 145, 88, 272
-0.967793, 57, 1, 120, 256
-0.968276, 313, 97, 376, 224
-0.968388, 425, 241, 488, 368
-0.968794, 369, 81, 496, 208
-0.968854, 1, 1, 64, 256
-0.968955, 273, 97, 336, 224
-0.969032, 161, 209, 416, 336
-0.969307, 417, 161, 480, 224
-0.969317, 425, 185, 488, 248
-0.969664, 49, 161, 112, 288
-0.969684, 81, 1, 144, 64
-0.969946, 321, 241, 448, 368
-0.970451, 33, 177, 96, 240
-0.970534, 25, 97, 88, 224
-0.970553, 161, 41, 224, 104
-0.970926, 1, 161, 64, 288
-0.971123, 81, 161, 144, 224
-0.971174, 57, 121, 120, 184
-0.971817, 137, 113, 200, 176
-0.972102, 425, 289, 488, 352
-0.972835, 145, 89, 272, 152
-0.973131, 153, 17, 216, 80
-0.97318, 425, 89, 488, 152
-0.97332, 393, 265, 456, 328
-0.973408, 273, 145, 336, 272
-0.973512, 393, 305, 456, 368
-0.973545, 409, 57, 472, 120
-0.973625, 97, 129, 224, 192
-0.973662, 257, 49, 384, 176
-0.973858, 57, 169, 120, 232
-0.974009, 57, 145, 120, 208
-0.97404, 185, 145, 248, 208
-0.974107, 137, 33, 200, 288
-0.974122, 337, 209, 400, 336
-0.974138, 425, 121, 488, 184
-0.97432, 369, 161, 432, 288
-0.974403, 33, 1, 96, 256
-0.974433, 121, 41, 184, 104
-0.974516, 89, 1, 152, 256
-0.974591, 209, 113, 272, 240
-0.974599, 49, 25, 176, 88
-0.974634, 97, 97, 160, 352
-0.974652, 433, 49, 496, 176
-0.974701, 193, 73, 256, 136
-0.974717, 13, 1, 44, 128
-0.974766, 41, 33, 104, 96
-0.974812, 161, 105, 224, 168
-0.974851, 89, 65, 120, 192
-0.974859, 377, 81, 440, 144
-0.974973, 105, 89, 168, 152
-0.974976, 369, 153, 432, 216
-0.975037, 145, 65, 272, 128
-0.975104, 217, 121, 280, 184
-0.975326, 113, 121, 176, 184
-0.975523, 49, 81, 176, 144
-0.97563, 81, 49, 208, 112
-0.975637, 129, 161, 256, 288
-0.975687, 233, 65, 296, 192
-0.975697, 377, 121, 440, 184
-0.975929, 97, 73, 224, 136
-0.976015, 9, 153, 72, 216
-0.976263, 313, 145, 376, 272
-0.976368, 185, 121, 248, 184
-0.976443, 233, 169, 296, 232
-0.976458, 9, 65, 72, 128
-0.976589, 61, 73, 92, 136
-0.976724, 81, 105, 208, 168
-0.976763, 353, 49, 416, 176
-0.976789, 9, 185, 72, 248
-0.976965, 1, 81, 128, 144
-0.977061, 241, 129, 304, 192
-0.977081, 405, 49, 436, 176
-0.977243, 105, 17, 168, 80
-0.977847, 225, 145, 352, 272
-0.977989, 161, 145, 224, 208
-0.978004, 369, 209, 432, 336
-0.97815, 177, 121, 304, 184
-0.978267, 353, 265, 416, 328
-0.978301, 73, 97, 136, 352
-0.978614, 413, 97, 444, 224
-0.978731, 105, 161, 168, 288
-0.978739, 233, 97, 296, 160
-0.978789, 209, 145, 272, 208
-0.978878, 257, 105, 320, 168
-0.978993, 33, 153, 96, 216
-0.979133, 145, 25, 272, 88
-0.979154, 105, 97, 136, 224
-0.979231, 209, 193, 336, 320
-0.979332, 17, 193, 144, 320
-0.979432, 33, 73, 96, 136
-0.979432, 393, 185, 456, 248
-0.979458, 85, 1, 116, 128
-0.9795, 409, 233, 472, 296
-0.979527, 329, 33, 392, 160
-0.979539, 65, 49, 128, 112
-0.979564, 193, 49, 256, 112
-0.979622, 89, 73, 120, 136
-0.979661, 17, 113, 144, 176
-0.979685, 377, 217, 440, 280
-0.97971, 65, 17, 96, 144
-0.979713, 33, 113, 96, 176
-0.979736, 85, 113, 116, 240
-0.979738, 57, 9, 120, 72
-0.979769, 413, 121, 444, 184
-0.979814, 369, 1, 432, 128
-0.979914, 1, 113, 64, 240
-0.979929, 433, 65, 496, 128
-0.979958, 1, 25, 32, 88
-0.980114, 401, 89, 464, 152
-0.980215, 113, 1, 176, 375
-0.980248, 49, 1, 176, 64
-0.980259, 17, 161, 144, 224
-0.980296, 305, 89, 432, 152
-0.980307, 369, 193, 432, 256
-0.980327, 201, 1, 264, 128
-0.980459, 369, 265, 496, 328
-0.980703, 353, 113, 416, 176
-0.980782, 25, 1, 88, 64
-0.980823, 273, 209, 400, 336
-0.980885, 369, 49, 432, 112
-0.98092, 337, 161, 400, 288
-0.980946, 201, 97, 264, 160
-0.980947, 17, 17, 48, 80
-0.981022, 57, 97, 88, 224
-0.981027, 41, 33, 72, 160
-0.981039, 249, 177, 312, 304
-0.981145, 105, 113, 136, 176
-0.981158, 1, 57, 128, 120
-0.981165, 369, 57, 496, 120
-0.981353, 77, 49, 108, 176
-0.981415, 65, 177, 192, 304
-0.981521, 89, 137, 152, 200
-0.98162, 109, 1, 140, 128
-0.981744, 73, 73, 104, 136
-0.981756, 1, 129, 64, 375
-0.981799, 1, 225, 64, 352
-0.981876, 401, 97, 432, 224
-0.981926, 141, 33, 172, 160
-0.981945, 417, 313, 480, 375
-0.981963, 121, 65, 184, 128
-0.981988, 337, 113, 464, 176
-0.982014, 85, 153, 116, 216
-0.982015, 1, 25, 128, 88
-0.982017, 25, 129, 88, 375
-0.982109, 313, 153, 376, 216
-0.982246, 369, 81, 496, 144
-0.982272, 377, 129, 440, 375
-0.982325, 33, 185, 160, 248
-0.982344, 273, 161, 336, 224
-0.98239, 1, 1, 32, 128
-0.982399, 377, 241, 440, 304
-0.982548, 25, 1, 88, 375
-0.982554, 425, 113, 456, 240
-0.982554, 405, 145, 436, 208
-0.982559, 209, 1, 336, 128
-0.982572, 65, 161, 192, 224
-0.982627, 145, 145, 272, 208
-0.982718, 85, 113, 116, 176
-0.982755, 193, 25, 256, 88
-0.982818, 81, 73, 144, 136
-0.982821, 437, 241, 468, 368
-0.982895, 121, 113, 152, 240
-0.982915, 445, 161, 476, 224
-0.982997, 113, 1, 240, 64
-0.983034, 337, 233, 400, 296
-0.983302, 433, 265, 496, 328
-0.98338, 433, 217, 496, 280
-0.98342, 281, 105, 344, 168
-0.983684, 433, 289, 464, 352
-0.983708, 137, 153, 200, 216
-0.983762, 193, 97, 320, 160
-0.983798, 257, 105, 384, 168
-0.983887, 273, 97, 336, 352
-0.984008, 1, 209, 64, 272
-0.984024, 193, 161, 256, 288
-0.984034, 41, 41, 72, 104
-0.984055, 193, 81, 224, 208
-0.984129, 321, 49, 448, 112
-0.984155, 353, 153, 480, 216
-0.984207, 225, 97, 288, 352
-0.984258, 337, 81, 400, 144
-0.984295, 1, 177, 32, 240
-0.984343, 377, 241, 408, 368
-0.984395, 161, 1, 224, 256
-0.984412, 405, 89, 436, 152
-0.98442, 337, 1, 400, 256
-0.984463, 137, 1, 200, 375
-0.984512, 137, 161, 200, 288
-0.984545, 17, 137, 144, 200
-0.984605, 53, 17, 84, 144
-0.98461, 153, 49, 184, 176
-0.98475, 209, 201, 272, 264
-0.984757, 353, 217, 480, 280
-0.9848, 381, 113, 412, 240
-0.984821, 49, 97, 112, 352
-0.984886, 133, 113, 164, 240
-0.984894, 225, 137, 352, 200
-0.984901, 305, 113, 368, 176
-0.984919, 425, 161, 456, 224
-0.984931, 153, 97, 184, 224
-0.984946, 409, 1, 472, 128
-0.984976, 305, 33, 368, 160
-0.985019, 81, 177, 112, 240
-0.98504, 369, 297, 432, 360
-0.985083, 193, 1, 256, 64
-0.985111, 337, 17, 400, 80
-0.985115, 273, 185, 336, 248
-0.985155, 69, 113, 100, 240
-0.985166, 369, 289, 496, 352
-0.985219, 97, 41, 160, 104
-0.985313, 353, 241, 480, 304
-0.985385, 241, 121, 272, 184
-0.985474, 193, 121, 224, 184
-0.985481, 377, 33, 440, 288
-0.985507, 249, 129, 312, 375
-0.985513, 217, 161, 280, 288
-0.985543, 177, 1, 240, 128
-0.985555, 197, 145, 228, 208
-0.985648, 337, 177, 464, 240
-0.985669, 97, 1, 128, 128
-0.985698, 345, 145, 408, 208
-0.98572, 65, 209, 320, 336
-0.985727, 1, 1, 128, 64
-0.985731, 425, 113, 456, 176
-0.985743, 185, 1, 216, 128
-0.985769, 273, 137, 336, 200
-0.985828, 89, 1, 152, 375
-0.985832, 49, 1, 112, 375
-0.985837, 317, 97, 348, 224
-0.985875, 1, 177, 32, 304
-0.985879, 413, 225, 444, 352
-0.985915, 97, 25, 224, 88
-0.985931, 437, 49, 468, 176
-0.985941, 121, 17, 152, 144
-0.985987, 25, 33, 56, 160
-0.986021, 37, 177, 68, 240
-0.986071, 401, 209, 432, 336
-0.986075, 289, 193, 352, 320
-0.986132, 337, 41, 400, 104
-0.98615, 337, 177, 400, 240
-0.986157, 417, 33, 480, 288
-0.98629, 165, 81, 196, 208
-0.986298, 129, 89, 192, 152
-0.986311, 17, 41, 48, 104
-0.986328, 337, 97, 400, 352
-0.986378, 185, 145, 216, 208
-0.986423, 97, 161, 128, 224
-0.986517, 377, 257, 408, 320
-0.986535, 57, 25, 88, 88
-0.986549, 193, 33, 256, 288
-0.986571, 321, 25, 448, 88
-0.986645, 393, 137, 424, 200
-0.986654, 305, 273, 432, 336
-0.986725, 413, 145, 444, 272
-0.986739, 121, 129, 184, 375
-0.986757, 421, 281, 452, 344
-0.986763, 121, 121, 152, 184
-0.986794, 305, 137, 432, 200
-0.986852, 17, 185, 48, 248
-0.986861, 417, 313, 448, 375
-0.986918, 293, 97, 324, 224
-0.986998, 225, 177, 352, 240
-0.987004, 313, 65, 376, 320
-0.98705, 105, 169, 168, 232
-0.987139, 1, 1, 64, 375
-0.98714, 441, 113, 472, 240
-0.987158, 329, 105, 392, 168
-0.987182, 121, 17, 152, 80
-0.987192, 41, 201, 104, 264
-0.987195, 101, 49, 132, 176
-0.987275, 57, 113, 88, 176
-0.987371, 249, 193, 312, 256
-0.987451, 233, 73, 296, 136
-0.987477, 193, 65, 320, 128
-0.987511, 101, 89, 132, 152
-0.987591, 321, 297, 448, 360
-0.987627, 225, 145, 256, 208
-0.987666, 69, 49, 100, 112
-0.987685, 97, 137, 128, 200
-0.987729, 401, 209, 464, 272
-0.987788, 445, 137, 476, 200
-0.987791, 425, 65, 456, 192
-0.987829, 369, 25, 432, 88
-0.987838, 409, 57, 440, 120
-0.98785, 433, 33, 496, 96
-0.987855, 433, 185, 464, 248
-0.987857, 393, 33, 456, 96
-0.987865, 393, 113, 424, 176
-0.987962, 393, 1, 456, 375
-0.988001, 449, 241, 480, 368
-0.988056, 53, 161, 84, 224
-0.988185, 429, 313, 460, 375
-0.988185, 45, 161, 76, 288
-0.988206, 257, 1, 384, 128
-0.98823, 433, 241, 496, 304
-0.988317, 241, 113, 272, 240
-0.98834, 305, 249, 432, 312
-0.988357, 141, 41, 172, 104
-0.988387, 185, 1, 248, 375
-0.98839, 337, 113, 368, 240
-0.988396, 213, 145, 244, 208
-0.988408, 81, 161, 112, 288
-0.98841, 81, 185, 144, 248
-0.988411, 273, 193, 400, 256
-0.988441, 153, 113, 184, 176
-0.988487, 453, 65, 484, 128
-0.988535, 273, 65, 400, 128
-0.988553, 273, 161, 400, 224
-0.988554, 433, 177, 464, 304
-0.988565, 193, 33, 320, 96
-0.988566, 29, 161, 60, 288
-0.988578, 305, 1, 368, 64
-0.988643, 369, 313, 496, 375
-0.988725, 209, 169, 272, 232
-0.988736, 281, 97, 312, 224
-0.988757, 161, 97, 224, 352
-0.988798, 133, 121, 164, 184
-0.988822, 73, 113, 104, 176
-0.988822, 181, 113, 212, 240
-0.988827, 425, 137, 456, 200
-0.988858, 81, 49, 112, 112
-0.988895, 169, 161, 232, 288
-0.98891, 105, 1, 136, 64
-0.988914, 69, 177, 100, 240
-0.988952, 45, 81, 76, 208
-0.988968, 369, 1, 432, 375
-0.988984, 173, 137, 204, 200
-0.988988, 425, 129, 488, 375
-0.988994, 381, 209, 412, 272
-0.989013, 73, 153, 104, 216
-0.989018, 29, 41, 60, 104
-0.98903, 381, 113, 412, 176
-0.989036, 253, 129, 284, 192
-0.989044, 469, 65, 500, 128
-0.98915, 57, 77, 120, 108
-0.989151, 397, 145, 428, 272
-0.989229, 245, 89, 276, 152
-0.989329, 89, 1, 120, 64
-0.989417, 449, 297, 480, 360
-0.989427, 69, 161, 100, 288
-0.98943, 161, 1, 224, 375
-0.989494, 429, 65, 460, 128
-0.989571, 453, 185, 484, 248
-0.989659, 41, 153, 72, 216
-0.989699, 313, 177, 376, 240
-0.989728, 425, 225, 456, 352
-0.989744, 161, 209, 288, 336
-0.989747, 233, 17, 296, 144
-0.989784, 369, 233, 400, 296
-0.989819, 29, 17, 60, 80
-0.989903, 205, 129, 236, 256
-0.989923, 433, 241, 464, 304
-0.989987, 405, 169, 436, 232
-0.990008, 401, 305, 432, 368
-0.990039, 45, 89, 76, 152
-0.99007, 345, 201, 408, 264
-0.990089, 337, 1, 400, 375
-0.990095, 57, 97, 120, 128
-0.990108, 401, 145, 464, 176
-0.990183, 273, 49, 336, 176
-0.990185, 185, 169, 248, 232
-0.990239, 389, 193, 420, 320
-0.990252, 1, 29, 64, 60
-0.990284, 337, 113, 368, 176
-0.990289, 57, 121, 120, 152
-0.99035, 177, 1, 304, 64
-0.990366, 233, 1, 296, 375
-0.990375, 469, 297, 500, 360
-0.990385, 105, 121, 168, 152
-0.990409, 425, 1, 488, 375
-0.99044, 241, 1, 304, 256
-0.990444, 225, 129, 256, 256
-0.990458, 385, 277, 448, 308
-0.990459, 209, 1, 272, 375
-0.990468, 313, 113, 344, 176
-0.990475, 113, 145, 176, 208
-0.990512, 129, 169, 256, 232
-0.990516, 1, 57, 32, 120
-0.990524, 321, 1, 448, 64
-0.99053, 301, 145, 332, 272
-0.990568, 65, 109, 128, 140
-0.99057, 381, 49, 412, 176
-0.990601, 57, 157, 120, 188
-0.990623, 461, 153, 492, 216
-0.990641, 1, 209, 128, 272
-0.990648, 53, 49, 84, 112
-0.990674, 17, 45, 80, 76
-0.990681, 241, 169, 272, 232
-0.990684, 225, 209, 288, 336
-0.9907, 241, 145, 272, 208
-0.990704, 393, 169, 456, 200
-0.99071, 393, 125, 456, 156
-0.990722, 17, 193, 80, 224
-0.990739, 401, 265, 432, 328
-0.990856, 449, 161, 480, 288
-0.990893, 281, 145, 312, 272
-0.990896, 9, 89, 72, 152
-0.990944, 393, 113, 456, 144
-0.990947, 233, 101, 296, 132
-0.990955, 161, 57, 224, 88
-0.990961, 69, 9, 100, 72
-0.990975, 153, 65, 184, 128
-0.991006, 65, 73, 320, 136
-0.991013, 161, 69, 224, 100
-0.991038, 437, 97, 468, 160
-0.991082, 409, 181, 472, 212
-0.991102, 417, 161, 480, 192
-0.99113, 393, 49, 424, 176
-0.991142, 337, 33, 368, 160
-0.991144, 57, 181, 120, 212
-0.991158, 225, 189, 288, 220
-0.991158, 417, 125, 480, 156
-0.991181, 289, 225, 416, 288
-0.991182, 161, 85, 224, 116
-0.991198, 101, 145, 132, 272
-0.991218, 153, 113, 216, 144
-0.991227, 393, 57, 456, 88
-0.991243, 425, 329, 488, 360
-0.99128, 25, 33, 88, 64
-0.991282, 417, 257, 448, 320
-0.991309, 89, 165, 152, 196
-0.991337, 425, 309, 488, 340
-0.991346, 177, 169, 304, 232
-0.991354, 65, 113, 320, 176
-0.991355, 185, 149, 248, 180
-0.991362, 161, 101, 224, 132
-0.991364, 89, 109, 152, 140
-0.99139, 257, 133, 320, 164
-0.991398, 297, 161, 328, 224
-0.991407, 393, 157, 456, 188
-0.991413, 57, 65, 120, 96
-0.991414, 369, 121, 432, 152
-0.991433, 161, 45, 224, 76
-0.991439, 161, 149, 224, 180
-0.991444, 205, 65, 236, 192
-0.991444, 353, 65, 384, 192
-0.991446, 249, 117, 312, 148
-0.991448, 313, 1, 376, 375
-0.991454, 273, 113, 336, 144
-0.991473, 413, 193, 444, 256
-0.991482, 177, 137, 240, 168
-0.991494, 97, 133, 160, 164
-0.991496, 385, 265, 448, 296
-0.991497, 73, 9, 136, 40
-0.991536, 369, 33, 496, 96
-0.991568, 17, 17, 80, 48
-0.9916, 377, 253, 440, 284
-0.991612, 361, 153, 424, 184
-0.99162, 393, 313, 456, 344
-0.991621, 369, 105, 432, 136
-0.991624, 393, 161, 424, 224
-0.991664, 369, 53, 432, 84
-0.991675, 273, 25, 400, 88
-0.991682, 417, 193, 480, 224
-0.991686, 193, 85, 256, 116
-0.991691, 1, 201, 32, 264
-0.99171, 401, 289, 464, 320
-0.991712, 193, 101, 256, 132
-0.991719, 81, 121, 144, 152
-0.991725, 457, 129, 488, 192
-0.991751, 1, 173, 64, 204
-0.991751, 217, 129, 280, 160
-0.991763, 25, 65, 88, 96
-0.991765, 417, 69, 480, 100
-0.991777, 457, 89, 488, 152
-0.991786, 229, 81, 260, 208
-0.991789, 129, 1, 192, 64
-0.991803, 49, 185, 80, 248
-0.991839, 25, 161, 56, 224
-0.991847, 273, 1, 400, 64
-0.991849, 433, 177, 496, 208
-0.991858, 305, 97, 336, 224
-0.991863, 121, 105, 184, 136
-0.991867, 385, 209, 448, 240
-0.991867, 345, 261, 408, 292
-0.99188, 241, 149, 304, 180
-0.991895, 337, 105, 400, 136
-0.991898, 381, 281, 412, 344
-0.991905, 409, 249, 472, 280
-0.991906, 33, 9, 288, 72
-0.991909, 121, 49, 184, 80
-0.99191, 425, 93, 488, 124
-0.991922, 353, 17, 384, 144
-0.991931, 137, 125, 200, 156
-0.99194, 305, 117, 368, 148
-0.991942, 369, 221, 432, 252
-0.991947, 433, 149, 496, 180
-0.991949, 425, 105, 488, 136
-0.991982, 25, 85, 88, 116
-0.991988, 433, 277, 496, 308
-0.991998, 57, 145, 120, 176
-0.991999, 205, 121, 236, 184
-0.992002, 193, 57, 256, 88
-0.992021, 269, 81, 300, 208
-0.992029, 353, 289, 416, 320
-0.99203, 409, 265, 472, 296
-0.992057, 153, 33, 216, 64
-0.992059, 201, 73, 264, 104
-0.992073, 369, 165, 432, 196
-0.992085, 425, 297, 488, 328
-0.992103, 49, 169, 112, 200
-0.992104, 233, 201, 296, 232
-0.99211, 185, 125, 248, 156
-0.99211, 377, 241, 440, 272
-0.992112, 33, 49, 288, 112
-0.992113, 401, 129, 464, 375
-0.992119, 89, 145, 152, 176
-0.992133, 17, 101, 80, 132
-0.992137, 225, 213, 288, 244
-0.992138, 41, 65, 72, 128
-0.992141, 81, 85, 144, 116
-0.992153, 381, 185, 412, 248
-0.992169, 369, 133, 432, 164
-0.992172, 17, 209, 80, 240
-0.992179, 193, 21, 256, 52
-0.992181, 209, 117, 272, 148
-0.992182, 97, 73, 160, 104
-0.992187, 401, 101, 464, 132
-0.992191, 377, 301, 440, 332
-0.992203, 65, 133, 128, 164
-0.992215, 281, 133, 344, 164
-0.992215, 361, 161, 392, 288
-0.992218, 145, 137, 208, 168
-0.992224, 81, 177, 144, 208
-0.992231, 305, 73, 368, 136
-0.992235, 425, 89, 456, 152
-0.992242, 113, 37, 176, 68
-0.992258, 97, 25, 160, 56
-0.992262, 345, 117, 408, 148
-0.992272, 177, 209, 304, 272
-0.992272, 165, 113, 196, 176
-0.992275, 369, 93, 432, 124
-0.992298, 361, 209, 424, 240
-0.992299, 369, 69, 432, 100
-0.992304, 273, 165, 336, 196
-0.992306, 193, 33, 256, 64
-0.992306, 281, 153, 344, 184
-0.992308, 441, 65, 472, 128
-0.992316, 353, 273, 416, 304
-0.99232, 433, 1, 496, 128
-0.992338, 369, 81, 432, 112
-0.992359, 49, 29, 112, 60
-0.992383, 217, 149, 280, 180
-0.992399, 41, 109, 104, 140
-0.992411, 129, 77, 192, 108
-0.992424, 225, 113, 480, 176
-0.99243, 273, 193, 336, 224
-0.992433, 241, 65, 272, 192
-0.992455, 201, 201, 264, 232
-0.99246, 201, 45, 264, 76
-0.992474, 33, 181, 96, 212
-0.992475, 425, 137, 488, 168
-0.992502, 369, 41, 432, 72
-0.99252, 121, 61, 184, 92
-0.992521, 393, 345, 456, 375
-0.992528, 385, 181, 448, 212
-0.99253, 385, 197, 448, 228
-0.992537, 393, 85, 456, 116
-0.992538, 401, 201, 432, 264
-0.992541, 97, 113, 128, 144
-0.992544, 185, 1, 248, 32
-0.992545, 97, 97, 160, 128
-0.992556, 65, 137, 320, 200
-0.992612, 229, 113, 260, 176
-0.992613, 17, 161, 48, 288
-0.99263, 57, 161, 88, 288
-0.992648, 429, 165, 460, 196
-0.992652, 341, 1, 372, 64
-0.992664, 325, 113, 356, 176
-0.992675, 453, 65, 484, 192
-0.992689, 405, 113, 436, 144
-0.992772, 425, 117, 456, 148
-0.992782, 89, 81, 120, 112
-0.992784, 441, 177, 472, 208
-0.992788, 321, 209, 384, 272
-0.992799, 65, 161, 320, 224
-0.992801, 269, 121, 300, 184
-0.992813, 441, 165, 472, 196
-0.992824, 13, 17, 44, 48
-0.992829, 405, 169, 436, 200
-0.99284, 5, 33, 36, 64
-0.992857, 109, 121, 140, 152
-0.992869, 273, 1, 336, 375
-0.992886, 405, 149, 436, 180
-0.992911, 277, 185, 308, 248
-0.992921, 413, 129, 444, 160
-0.992927, 65, 77, 96, 108
-0.992963, 409, 97, 440, 128
-0.992975, 141, 97, 172, 160
-0.992984, 1, 189, 32, 220
-0.992985, 89, 157, 120, 188
-0.993009, 417, 173, 448, 204
-0.993024, 61, 89, 92, 120
-0.993025, 193, 129, 224, 256
-0.993029, 81, 181, 112, 212
-0.993034, 37, 45, 68, 76
-0.993034, 293, 193, 324, 320
-0.993049, 425, 153, 456, 184
-0.993055, 161, 137, 416, 200
-0.993055, 425, 129, 456, 160
-0.993058, 13, 189, 44, 220
-0.993063, 77, 61, 108, 92
-0.993068, 429, 181, 460, 212
-0.993072, 93, 173, 124, 204
-0.993072, 461, 209, 492, 336
-0.993077, 365, 97, 396, 224
-0.993079, 397, 281, 428, 312
-0.993082, 69, 185, 100, 216
-0.993093, 81, 121, 112, 152
-0.993094, 393, 149, 424, 180
-0.993096, 289, 109, 320, 140
-0.993101, 121, 121, 152, 152
-0.993106, 109, 105, 140, 136
-0.993106, 417, 313, 448, 344
-0.993109, 369, 1, 432, 64
-0.993121, 181, 145, 212, 176
-0.993126, 397, 53, 428, 84
-0.993129, 25, 193, 56, 224
-0.993131, 89, 69, 120, 100
-0.993142, 429, 105, 460, 136
-0.993146, 269, 125, 300, 156
-0.993153, 77, 77, 108, 108
-0.993161, 393, 113, 424, 144
-0.993161, 189, 133, 220, 164
-0.993165, 25, 45, 56, 76
-0.993166, 89, 93, 120, 124
-0.993166, 445, 149, 476, 180
-0.993172, 45, 189, 76, 220
-0.993173, 249, 133, 280, 164
-0.993182, 65, 101, 96, 132
-0.993188, 57, 33, 88, 64
-0.99319, 453, 169, 484, 200
-0.993195, 409, 53, 440, 84
-0.993196, 433, 325, 464, 356
-0.993197, 193, 149, 224, 180
-0.993198, 465, 129, 496, 256
-0.993202, 225, 149, 256, 180
-0.993204, 457, 329, 488, 360
-0.993204, 93, 145, 124, 176
-0.993207, 441, 69, 472, 100
-0.993214, 1, 45, 32, 76
-0.993218, 461, 181, 492, 212
-0.993222, 25, 33, 56, 64
-0.99323, 237, 121, 268, 152
-0.993232, 65, 61, 96, 92
-0.993236, 213, 149, 244, 180
-0.993237, 441, 313, 472, 344
-0.993242, 1, 177, 32, 208
-0.993244, 101, 133, 132, 164
-0.993252, 313, 145, 344, 272
-0.993252, 13, 45, 44, 76
-0.993255, 177, 65, 208, 192
-0.993264, 381, 289, 412, 320
-0.993268, 17, 57, 48, 88
-0.99327, 5, 201, 36, 232
-0.993271, 401, 133, 432, 164
-0.993272, 105, 165, 136, 196
-0.993273, 65, 121, 96, 152
-0.993275, 417, 301, 448, 332
-0.993275, 381, 213, 412, 244
-0.993277, 437, 125, 468, 156
-0.993279, 417, 277, 448, 308
-0.993283, 53, 113, 84, 144
-0.993284, 45, 61, 76, 92
-0.99329, 381, 273, 412, 304
-0.993298, 465, 141, 496, 172
-0.993299, 405, 85, 436, 116
-0.993304, 293, 133, 324, 164
-0.993305, 21, 209, 52, 272
-0.993307, 277, 109, 308, 140
-0.99331, 457, 305, 488, 336
-0.99331, 121, 25, 152, 56
-0.993311, 141, 113, 172, 144
-0.993313, 293, 153, 324, 184
-0.993319, 77, 165, 108, 196
-0.993324, 457, 73, 488, 104
-0.993329, 49, 169, 80, 200
-0.99333, 381, 121, 412, 152
-0.993333, 437, 289, 468, 320
-0.993334, 241, 93, 272, 124
-0.993334, 1, 229, 32, 260
-0.993337, 245, 193, 276, 224
-0.993338, 377, 225, 408, 256
-0.993339, 109, 93, 140, 124
-0.99334, 393, 161, 424, 192
-0.993343, 385, 245, 416, 276
-0.993345, 285, 121, 316, 152
-0.993346, 401, 293, 432, 324
-0.993346, 133, 125, 164, 156
-0.993348, 177, 133, 208, 164
-0.993348, 77, 101, 108, 132
-0.993349, 469, 153, 500, 184
-0.99335, 57, 185, 88, 216
-0.993352, 169, 145, 200, 176
-0.993353, 225, 197, 256, 228
-0.993358, 397, 209, 428, 240
-0.99336, 269, 141, 300, 172
-0.993361, 409, 261, 440, 292
-0.993363, 13, 49, 44, 176
-0.993364, 457, 157, 488, 188
-0.993364, 281, 153, 312, 184
-0.993367, 385, 137, 416, 168
-0.993367, 405, 309, 436, 340
-0.99337, 81, 141, 112, 172
-0.993373, 333, 117, 364, 148
-0.993376, 281, 133, 312, 164
-0.993382, 437, 301, 468, 332
-0.993385, 469, 317, 500, 348
-0.993388, 245, 205, 276, 236
-0.993393, 193, 97, 224, 160
-0.993398, 421, 61, 452, 92
-0.9934, 141, 49, 172, 80
-0.993401, 445, 189, 476, 220
-0.993403, 257, 213, 288, 244
-0.993407, 429, 193, 460, 224
-0.993407, 317, 113, 348, 144
-0.993442, 1, 49, 32, 176
-0.993514, 357, 89, 388, 152
-0.99353, 117, 177, 148, 304
-0.993533, 129, 33, 384, 96
-0.993537, 229, 201, 260, 264
-0.993568, 125, 65, 156, 192
-0.993574, 401, 1, 432, 128
-0.993588, 393, 233, 424, 296
-0.993608, 165, 33, 196, 160
-0.993622, 1, 241, 128, 368
-0.993655, 397, 33, 428, 96
-0.993669, 205, 65, 236, 128
-0.993693, 1, 145, 500, 208
-0.993711, 137, 17, 168, 80
-0.993714, 257, 153, 500, 216
-0.993718, 165, 145, 196, 272
-0.993732, 185, 17, 216, 80
-0.993747, 81, 185, 208, 248
-0.993758, 333, 89, 364, 152
-0.993767, 245, 193, 276, 320
-0.993796, 329, 1, 360, 64
-0.993827, 265, 177, 296, 304
-0.993914, 297, 105, 328, 168
-0.99392, 369, 113, 400, 176
-0.993978, 165, 81, 196, 144
-0.994012, 201, 129, 264, 375
-0.994015, 225, 201, 352, 264
-0.994029, 41, 9, 72, 72
-0.994059, 253, 129, 284, 256
-0.994078, 1, 233, 128, 296
-0.994091, 269, 129, 300, 256
-0.994119, 465, 185, 496, 248
-0.994181, 341, 33, 372, 96
-0.994191, 317, 137, 348, 200
-0.994198, 257, 201, 288, 264
-0.994226, 133, 161, 164, 288
-0.994256, 365, 209, 396, 336
-0.994266, 297, 137, 328, 200
-0.994267, 1, 185, 256, 248
-0.994285, 445, 265, 476, 328
-0.994291, 125, 97, 156, 160
-0.99432, 1, 113, 500, 176
-0.99441, 41, 209, 104, 336
-0.994416, 1, 181, 128, 212
-0.994445, 97, 77, 224, 108
-0.994452, 225, 185, 480, 248
-0.99448, 97, 209, 160, 336
-0.994532, 129, 9, 384, 72
-0.994577, 145, 85, 272, 116
-0.99459, 145, 117, 272, 148
-0.994656, 153, 145, 184, 272
-0.994669, 97, 105, 224, 136
-0.994733, 9, 233, 72, 296
-0.99476, 1, 77, 128, 108
-0.994768, 49, 29, 176, 60
-0.994796, 145, 97, 272, 128
-0.994894, 97, 129, 224, 160
-0.994922, 241, 217, 304, 280
-0.994935, 321, 117, 448, 148
-0.99495, 453, 113, 484, 240
-0.995004, 217, 81, 248, 208
-0.99501, 29, 113, 60, 240
-0.99501, 145, 57, 272, 88
-0.995029, 205, 1, 236, 128
-0.995068, 1, 169, 500, 232
-0.995113, 81, 65, 208, 96
-0.995194, 145, 73, 272, 104
-0.995204, 23, 9, 38, 72
-0.995204, 5, 129, 36, 256
-0.995219, 81, 89, 208, 120
-0.995259, 65, 225, 192, 352
-0.995262, 257, 65, 500, 128
-0.995271, 377, 193, 408, 320
-0.995317, 17, 117, 144, 148
-0.995331, 65, 73, 80, 136
-0.995357, 17, 89, 144, 120
-0.995357, 349, 161, 380, 288
-0.995357, 313, 25, 376, 88
-0.995367, 81, 117, 208, 148
-0.995375, 129, 29, 256, 60
-0.99541, 101, 73, 116, 136
-0.995418, 321, 105, 448, 136
-0.995445, 409, 145, 424, 208
-0.99545, 281, 241, 344, 304
-0.995455, 209, 101, 336, 132
-0.995512, 393, 1, 456, 64
-0.995523, 177, 137, 304, 168
-0.995539, 289, 1, 352, 256
-0.995541, 129, 41, 256, 72
-0.995543, 101, 153, 116, 216
-0.995544, 49, 17, 176, 48
-0.99556, 429, 105, 444, 168
-0.995561, 425, 17, 456, 144
-0.995565, 105, 105, 120, 168
-0.995583, 161, 177, 224, 240
-0.995586, 137, 1, 168, 256
-0.99559, 225, 9, 352, 72
-0.995612, 1, 57, 500, 120
-0.995621, 421, 121, 436, 184
-0.995636, 469, 49, 500, 176
-0.995645, 111, 105, 126, 168
-0.995654, 185, 193, 248, 256
-0.995657, 455, 153, 470, 216
-0.995697, 113, 17, 240, 48
-0.995708, 105, 129, 120, 192
-0.995746, 369, 117, 496, 148
-0.995746, 313, 193, 376, 320
-0.995796, 405, 113, 420, 176
-0.995812, 49, 233, 176, 296
-0.995836, 95, 113, 110, 176
-0.995861, 177, 149, 304, 180
-0.995886, 153, 1, 184, 128
-0.99589, 49, 101, 176, 132
-0.995914, 161, 89, 416, 152
-0.995916, 443, 169, 458, 232
-0.995918, 369, 69, 496, 100
-0.995927, 1, 281, 128, 344
-0.995933, 353, 165, 480, 196
-0.995947, 449, 161, 464, 224
-0.995957, 257, 81, 288, 208
-0.995985, 125, 1, 156, 256
-0.995992, 49, 77, 176, 108
-0.996006, 233, 177, 264, 304
-0.996014, 369, 289, 496, 320
-0.996018, 81, 73, 96, 136
-0.996052, 415, 145, 430, 208
-0.996059, 13, 25, 28, 88
-0.996074, 273, 105, 400, 136
-0.996077, 65, 49, 192, 80
-0.996083, 95, 153, 110, 216
-0.996085, 73, 73, 88, 136
-0.996114, 81, 141, 208, 172
-0.996115, 225, 41, 480, 104
-0.996172, 193, 209, 448, 272
-0.996174, 113, 225, 240, 352
-0.996186, 297, 201, 360, 264
-0.996188, 321, 81, 448, 112
-0.996189, 105, 225, 168, 288
-0.996195, 113, 217, 240, 280
-0.996209, 413, 1, 444, 128
-0.996217, 113, 1, 144, 256
-0.996229, 57, 49, 72, 112
-0.996229, 433, 281, 448, 344
-0.996232, 137, 217, 200, 280
-0.996235, 181, 161, 212, 288
-0.99626, 225, 33, 256, 160
-0.996278, 443, 137, 458, 200
-0.996279, 45, 1, 76, 256
-0.996283, 241, 117, 368, 148
-0.996327, 349, 113, 380, 240
-0.996339, 7, 25, 22, 88
-0.996358, 1, 297, 64, 360
-0.996365, 201, 209, 264, 336
-0.996367, 369, 129, 496, 160
-0.996388, 249, 121, 264, 184
-0.996388, 211, 145, 226, 208
-0.996439, 369, 269, 496, 300
-0.996439, 369, 249, 496, 280
-0.996439, 49, 225, 112, 288
-0.996455, 325, 145, 356, 272
-0.99646, 193, 137, 208, 200
-0.996467, 81, 157, 208, 188
-0.996474, 369, 153, 496, 184
-0.996482, 63, 33, 78, 96
-0.996487, 17, 149, 144, 180
-0.996487, 437, 145, 452, 208
-0.996491, 83, 177, 98, 240
-0.9965, 387, 257, 402, 320
-0.996503, 305, 157, 432, 188
-0.996512, 49, 169, 176, 200
-0.996521, 439, 289, 454, 352
-0.99653, 43, 177, 58, 240
-0.996553, 337, 161, 368, 288
-0.996575, 217, 1, 280, 256
-0.996593, 321, 93, 448, 124
-0.996607, 203, 145, 218, 208
-0.996619, 87, 73, 102, 136
-0.996642, 421, 97, 436, 160
-0.996642, 427, 305, 442, 368
-0.996648, 15, 185, 30, 248
-0.996656, 353, 177, 480, 208
-0.996667, 61, 1, 92, 256
-0.996668, 97, 5, 224, 36
-0.996668, 353, 57, 480, 88
-0.996677, 5, 225, 36, 352
-0.996679, 463, 161, 478, 224
-0.996688, 389, 241, 420, 368
-0.996693, 257, 89, 500, 152
-0.996698, 107, 81, 122, 144
-0.996706, 25, 33, 40, 96
-0.996707, 449, 137, 464, 200
-0.99671, 187, 137, 202, 200
-0.99671, 217, 145, 232, 208
-0.996713, 1, 161, 128, 192
-0.996726, 33, 1, 64, 256
-0.996733, 257, 289, 500, 352
-0.996762, 89, 177, 104, 240
-0.996762, 369, 105, 496, 136
-0.996789, 193, 233, 448, 296
-0.996793, 427, 273, 442, 336
-0.996805, 149, 1, 180, 256
-0.996806, 57, 161, 72, 224
-0.996809, 5, 177, 20, 240
-0.996816, 51, 161, 66, 224
-0.996817, 95, 177, 110, 240
-0.996821, 1, 193, 128, 224
-0.996829, 273, 93, 400, 124
-0.996831, 107, 153, 122, 216
-0.996843, 225, 225, 352, 288
-0.996851, 5, 1, 36, 256
-0.996867, 89, 153, 104, 216
-0.99688, 137, 121, 152, 184
-0.996882, 97, 185, 352, 248
-0.996885, 1, 41, 16, 104
-0.996899, 455, 129, 470, 192
-0.9969, 233, 33, 296, 96
-0.996925, 19, 41, 34, 104
-0.996925, 1, 41, 128, 72
-0.996937, 21, 185, 36, 248
-0.996943, 321, 69, 448, 100
-0.996943, 235, 145, 250, 208
-0.996945, 225, 257, 480, 320
-0.996953, 1, 101, 128, 132
-0.996957, 225, 185, 352, 216
-0.996967, 431, 145, 446, 208
-0.996967, 87, 49, 102, 112
-0.996984, 369, 93, 496, 124
-0.996985, 117, 113, 132, 176
-0.996992, 105, 97, 136, 352
-0.996992, 33, 185, 48, 248
-0.997002, 415, 121, 430, 184
-0.997004, 225, 145, 240, 208
-0.997006, 397, 113, 412, 176
-0.997009, 437, 169, 452, 232
-0.997029, 435, 313, 450, 375
-0.997031, 467, 65, 482, 128
-0.997032, 65, 113, 80, 176
-0.99704, 455, 185, 470, 248
-0.99705, 77, 177, 92, 240
-0.997053, 129, 149, 256, 180
-0.997058, 345, 25, 360, 88
-0.997062, 17, 65, 144, 96
-0.997062, 63, 177, 78, 240
-0.997068, 381, 1, 412, 128
-0.997068, 131, 17, 146, 80
-0.99707, 415, 169, 430, 232
-0.997102, 421, 265, 436, 328
-0.99711, 369, 141, 496, 172
-0.997114, 255, 129, 270, 192
-0.997115, 369, 81, 496, 112
-0.997124, 117, 97, 148, 352
-0.997138, 161, 161, 416, 224
-0.997143, 463, 297, 478, 360
-0.997149, 89, 113, 104, 176
-0.99715, 473, 305, 488, 368
-0.997168, 129, 177, 192, 240
-0.997181, 393, 265, 408, 328
-0.997181, 479, 289, 494, 352
-0.997181, 95, 73, 110, 136
-0.997199, 437, 113, 452, 176
-0.997204, 345, 1, 360, 64
-0.997212, 57, 89, 72, 152
-0.997214, 265, 129, 280, 192
-0.997215, 403, 153, 418, 216
-0.997215, 265, 1, 328, 256
-0.997219, 57, 25, 72, 88
-0.997227, 89, 65, 120, 320
-0.997232, 411, 273, 426, 336
-0.997233, 105, 1, 120, 64
-0.997241, 13, 49, 28, 112
-0.997252, 207, 121, 222, 184
-0.997258, 129, 97, 160, 352
-0.997262, 145, 129, 160, 192
-0.997264, 305, 49, 432, 80
-0.997268, 379, 241, 394, 304
-0.997271, 1, 89, 500, 152
-0.997274, 265, 225, 328, 352
-0.997277, 225, 137, 352, 168
-0.997277, 225, 153, 352, 184
-0.997281, 429, 81, 444, 144
-0.997286, 17, 137, 144, 168
-0.997287, 243, 121, 258, 184
-0.997292, 43, 153, 58, 216
-0.997305, 1, 53, 128, 84
-0.997318, 259, 185, 274, 248
-0.99733, 53, 185, 68, 248
-0.997343, 73, 113, 88, 176
-0.997347, 163, 113, 178, 176
-0.99735, 409, 89, 424, 152
-0.997359, 75, 49, 90, 112
-0.997364, 177, 217, 240, 280
-0.997367, 321, 257, 448, 288
-0.997368, 73, 153, 88, 216
-0.997375, 5, 209, 20, 272
-0.997376, 197, 113, 212, 176
-0.997376, 49, 185, 176, 216
-0.997379, 321, 269, 448, 300
-0.997384, 369, 309, 496, 340
-0.997386, 417, 49, 432, 112
-0.997389, 193, 89, 320, 120
-0.99739, 31, 25, 46, 88
-0.997391, 257, 81, 320, 144
-0.997391, 123, 121, 138, 184
-0.997396, 215, 121, 230, 184
-0.99741, 79, 113, 94, 176
-0.997417, 353, 233, 480, 264
-0.997424, 125, 17, 140, 80
-0.997433, 99, 1, 114, 64
-0.997437, 193, 117, 320, 148
-0.997444, 305, 145, 432, 176
-0.997448, 49, 41, 64, 104
-0.997449, 401, 265, 416, 328
-0.997453, 109, 113, 124, 144
-0.997454, 113, 81, 128, 144
-0.997455, 101, 1, 132, 256
-0.997467, 17, 1, 48, 256
-0.99747, 73, 1, 104, 256
-0.997474, 177, 33, 304, 64
-0.997475, 1, 29, 128, 60
-0.997478, 453, 65, 468, 128
-0.997481, 319, 113, 334, 176
-0.997483, 369, 221, 496, 252
-0.997487, 403, 297, 418, 360
-0.997493, 111, 1, 126, 64
-0.997497, 405, 193, 420, 256
-0.997499, 461, 65, 476, 128
-0.9975, 225, 17, 480, 80
-0.997501, 473, 65, 488, 128
-0.997502, 331, 113, 346, 176
-0.997511, 313, 137, 328, 200
-0.997515, 273, 177, 400, 208
-0.997518, 425, 121, 440, 152
-0.997529, 299, 153, 314, 216
-0.997529, 1, 1, 500, 64
-0.99753, 445, 281, 460, 344
-0.997539, 417, 305, 432, 368
-0.997544, 423, 57, 438, 120
-0.997624, 177, 21, 304, 52
-0.997628, 443, 165, 458, 196
-0.997633, 353, 193, 480, 224
-0.997643, 117, 117, 132, 148
-0.997645, 225, 241, 352, 368
-0.997653, 353, 321, 480, 352
-0.997653, 177, 1, 304, 32
-0.997655, 225, 165, 352, 196
-0.997657, 281, 81, 344, 144
-0.997658, 49, 129, 80, 375
-0.997707, 305, 193, 432, 224
-0.997711, 431, 117, 446, 148
-0.997714, 409, 145, 424, 176
-0.997775, 365, 1, 396, 128
-0.997782, 177, 45, 304, 76
-0.997785, 241, 201, 368, 232
-0.997791, 17, 5, 144, 36
-0.997792, 193, 57, 320, 88
-0.9978, 1, 33, 500, 96
-0.997809, 437, 169, 452, 200
-0.997818, 17, 113, 48, 240
-0.997872, 321, 129, 448, 160
-0.997888, 73, 209, 136, 336
-0.997893, 1, 17, 128, 48
-0.997893, 193, 77, 320, 108
-0.997897, 305, 37, 432, 68
-0.997901, 141, 97, 172, 352
-0.997941, 377, 97, 408, 352
-0.997949, 289, 237, 416, 268
-0.997952, 321, 301, 448, 332
-0.997955, 129, 169, 256, 200
-0.997955, 273, 61, 400, 92
-0.997956, 421, 169, 436, 200
-0.997958, 353, 205, 480, 236
-0.997962, 59, 61, 74, 92
-0.997962, 129, 193, 256, 256
-0.997963, 429, 105, 444, 136
-0.997968, 281, 49, 312, 176
-0.997973, 1, 281, 500, 344
-0.997992, 103, 109, 118, 140
-0.997993, 241, 81, 368, 112
-0.998004, 317, 193, 348, 320
-0.998012, 449, 177, 464, 208
-0.998021, 321, 285, 448, 316
-0.998041, 37, 129, 68, 375
-0.998042, 101, 161, 116, 192
-0.998047, 419, 129, 434, 160
-0.998054, 65, 209, 192, 272
-0.99806, 161, 33, 192, 288
-0.99806, 405, 117, 420, 148
-0.998062, 403, 149, 418, 180
-0.998071, 401, 129, 432, 375
-0.998073, 3, 181, 18, 212
-0.998096, 389, 97, 420, 352
-0.9981, 369, 1, 496, 64
-0.998117, 65, 69, 80, 100
-0.998118, 321, 21, 448, 52
-0.998124, 281, 97, 312, 352
-0.998128, 63, 89, 78, 120
-0.998133, 281, 193, 312, 320
-0.998133, 111, 129, 126, 160
-0.998133, 103, 137, 118, 168
-0.998135, 51, 41, 66, 72
-0.998146, 61, 129, 92, 375
-0.998157, 427, 173, 442, 204
-0.998165, 105, 193, 136, 320
-0.998175, 185, 1, 216, 256
-0.998182, 437, 325, 452, 356
-0.998183, 177, 165, 304, 196
-0.998186, 405, 133, 420, 164
-0.998186, 449, 165, 464, 196
-0.998187, 409, 161, 424, 192
-0.998214, 305, 241, 368, 368
-0.998215, 101, 73, 116, 104
-0.998219, 177, 205, 304, 236
-0.998221, 23, 13, 38, 44
-0.998237, 13, 189, 28, 220
-0.998252, 469, 1, 500, 128
-0.998255, 455, 169, 470, 200
-0.998263, 19, 193, 34, 224
-0.998267, 457, 17, 488, 144
-0.998268, 161, 65, 416, 128
-0.998272, 467, 329, 482, 360
-0.998289, 273, 133, 400, 164
-0.998292, 185, 145, 200, 176
-0.998295, 257, 265, 384, 328
-0.998302, 65, 117, 80, 148
-0.998308, 25, 209, 56, 336
-0.998314, 405, 33, 436, 288
-0.998314, 429, 313, 444, 344
-0.998314, 269, 65, 300, 320
-0.99832, 289, 225, 416, 256
-0.998321, 421, 323, 452, 338
-0.998321, 337, 119, 368, 134
-0.998322, 45, 111, 76, 126
-0.998323, 177, 143, 208, 158
-0.998323, 377, 229, 408, 244
-0.998324, 45, 189, 76, 204
-0.998325, 5, 55, 36, 70
-0.998325, 77, 183, 108, 198
-0.998325, 461, 149, 492, 164
-0.998326, 13, 49, 44, 64
-0.998326, 297, 157, 328, 172
-0.998326, 249, 209, 280, 224
-0.998327, 189, 141, 220, 156
-0.998328, 53, 117, 84, 132
-0.998329, 93, 89, 124, 104
-0.998329, 413, 279, 444, 294
-0.998329, 97, 141, 128, 156
-0.998329, 401, 73, 432, 88
-0.998329, 405, 137, 436, 152
-0.998329, 293, 165, 324, 180
-0.998329, 305, 113, 336, 128
-0.99833, 89, 95, 120, 110
-0.99833, 409, 95, 440, 110
-0.998331, 25, 49, 56, 64
-0.998331, 421, 115, 452, 130
-0.998331, 397, 55, 428, 70
-0.998332, 381, 123, 412, 138
-0.998333, 381, 251, 412, 266
-0.998333, 421, 109, 452, 124
-0.998333, 321, 1, 352, 128
-0.998334, 441, 159, 472, 174
-0.998335, 73, 115, 104, 130
-0.998336, 401, 309, 432, 324
-0.998336, 133, 129, 164, 144
-0.998336, 81, 121, 112, 136
-0.998336, 317, 115, 348, 130
-0.998337, 465, 165, 496, 180
-0.998337, 57, 91, 88, 106
-0.998337, 165, 153, 196, 168
-0.998337, 377, 277, 408, 292
-0.998337, 369, 333, 496, 364
-0.998337, 389, 155, 420, 170
-0.998337, 241, 95, 272, 110
-0.998337, 233, 211, 264, 226
-0.998338, 91, 181, 106, 212
-0.998338, 385, 113, 416, 128
-0.998338, 249, 219, 280, 234
-0.998339, 461, 143, 492, 158
-0.99834, 405, 299, 436, 314
-0.99834, 69, 71, 100, 86
-0.99834, 105, 129, 136, 144
-0.998341, 415, 165, 430, 196
-0.998341, 393, 163, 424, 178
-0.998341, 381, 211, 412, 226
-0.998341, 1, 179, 32, 194
-0.998342, 433, 311, 464, 326
-0.998343, 397, 279, 428, 294
-0.998343, 61, 105, 92, 120
-0.998343, 1, 231, 32, 246
-0.998345, 293, 135, 324, 150
-0.998345, 237, 125, 268, 140
-0.998347, 453, 171, 484, 186
-0.998348, 413, 61, 444, 76
-0.998349, 449, 325, 480, 340
-0.998349, 409, 101, 440, 116
-0.998349, 381, 217, 412, 232
-0.99835, 109, 105, 140, 120
-0.99835, 109, 115, 140, 130
-0.998351, 417, 145, 448, 160
-0.998351, 397, 287, 428, 302
-0.998351, 93, 123, 124, 138
-0.998352, 1, 193, 32, 208
-0.998353, 25, 41, 56, 56
-0.998353, 397, 207, 428, 222
-0.998353, 95, 65, 110, 96
-0.998354, 381, 285, 412, 300
-0.998354, 37, 47, 68, 62
-0.998357, 9, 29, 24, 60
-0.998357, 393, 121, 424, 136
-0.998357, 101, 135, 132, 150
-0.998359, 449, 337, 480, 352
-0.998359, 405, 159, 436, 174
-0.998362, 439, 125, 454, 156
-0.998363, 425, 183, 456, 198
-0.998364, 105, 125, 120, 156
-0.998365, 1, 225, 500, 288
-0.998366, 137, 125, 152, 156
-0.998366, 417, 317, 448, 332
-0.998368, 445, 147, 476, 162
-0.99837, 13, 189, 44, 204
-0.99837, 461, 155, 492, 170
-0.998372, 445, 187, 476, 202
-0.998374, 281, 133, 312, 148
-0.998374, 5, 201, 36, 216
-0.998374, 393, 149, 424, 164
-0.998376, 73, 79, 104, 94
-0.998376, 59, 37, 74, 68
-0.998376, 405, 145, 436, 160
-0.998376, 13, 21, 44, 36
-0.998376, 89, 167, 120, 182
-0.998377, 269, 131, 300, 146
-0.998377, 85, 73, 116, 88
-0.998377, 415, 149, 430, 180
-0.998377, 193, 129, 208, 160
-0.998379, 437, 317, 468, 332
-0.998381, 97, 111, 128, 126
-0.998381, 291, 109, 306, 140
-0.998382, 57, 97, 88, 112
-0.998384, 97, 117, 112, 148
-0.998386, 293, 111, 324, 126
-0.998387, 441, 181, 456, 212
-0.998387, 437, 171, 468, 186
-0.998387, 1, 47, 32, 62
-0.998388, 107, 165, 122, 196
-0.998388, 433, 127, 464, 142
-0.998389, 397, 115, 428, 130
-0.998391, 241, 65, 272, 320
-0.998393, 117, 127, 148, 142
-0.998393, 409, 55, 440, 70
-0.998395, 9, 33, 40, 48
-0.998395, 321, 1, 448, 32
-0.998395, 181, 149, 212, 164
-0.998397, 87, 77, 102, 108
-0.998399, 453, 161, 484, 176
-0.998399, 5, 39, 36, 54
-0.9984, 419, 113, 434, 144
-0.998404, 85, 79, 116, 94
-0.998405, 405, 165, 436, 180
-0.998411, 445, 125, 476, 140
-0.998412, 417, 129, 448, 375
-0.998412, 27, 193, 42, 224
-0.998413, 405, 131, 436, 146
-0.998414, 461, 187, 492, 202
-0.998414, 397, 293, 428, 308
-0.998415, 281, 117, 312, 132
-0.998417, 421, 131, 452, 146
-0.998417, 405, 121, 436, 136
-0.998418, 433, 1, 464, 256
-0.998419, 433, 115, 464, 130
-0.998424, 421, 163, 452, 178
-0.998426, 409, 109, 440, 124
-0.998428, 17, 17, 32, 48
-0.998429, 113, 121, 144, 136
-0.99843, 89, 161, 120, 176
-0.998431, 283, 117, 298, 148
-0.998434, 111, 101, 126, 132
-0.998437, 13, 27, 44, 42
-0.99844, 441, 165, 472, 180
-0.998442, 289, 213, 416, 244
-0.998442, 425, 133, 440, 164
-0.998444, 13, 195, 44, 210
-0.998447, 1, 169, 16, 200
-0.998447, 399, 117, 414, 148
-0.998454, 25, 45, 40, 76
-0.998457, 191, 149, 206, 180
-0.998457, 57, 81, 120, 96
-0.998458, 85, 181, 100, 212
-0.998463, 441, 181, 472, 196
-0.998468, 425, 173, 456, 188
-0.998469, 409, 105, 424, 136
-0.998471, 435, 105, 450, 136
-0.998476, 417, 125, 448, 140
-0.998477, 257, 97, 288, 352
-0.998479, 341, 1, 372, 256
-0.99848, 405, 151, 436, 166
-0.998485, 99, 177, 114, 208
-0.998485, 1, 37, 16, 68
-0.998488, 297, 97, 328, 352
-0.998488, 455, 69, 470, 100
-0.998489, 423, 101, 438, 132
-0.998489, 409, 115, 440, 130
-0.998496, 97, 217, 352, 280
-0.998497, 411, 293, 426, 324
-0.998497, 405, 171, 436, 186
-0.998507, 17, 53, 32, 84
-0.998507, 237, 189, 252, 220
-0.998511, 59, 109, 74, 140
-0.998517, 421, 33, 452, 288
-0.998522, 71, 121, 86, 152
-0.998523, 415, 53, 430, 84
-0.998523, 429, 121, 460, 136
-0.998527, 401, 289, 416, 320
-0.998527, 369, 345, 496, 375
-0.998527, 397, 145, 412, 176
-0.998532, 287, 161, 302, 192
-0.998533, 385, 119, 448, 134
-0.998539, 409, 187, 472, 202
-0.998539, 1, 33, 64, 48
-0.998541, 343, 1, 358, 32
-0.998546, 81, 77, 96, 108
-0.998546, 365, 97, 396, 352
-0.998546, 37, 193, 52, 224
-0.998547, 455, 181, 470, 212
-0.998548, 57, 87, 120, 102
-0.998548, 97, 117, 128, 132
-0.998549, 445, 141, 460, 172
-0.998551, 401, 157, 464, 172
-0.998552, 71, 77, 86, 108
-0.998555, 65, 113, 128, 128
-0.998555, 417, 181, 480, 196
-0.998558, 461, 157, 476, 188
-0.998559, 57, 107, 120, 122
-0.99856, 65, 123, 128, 138
-0.998561, 409, 163, 472, 178
-0.998562, 105, 125, 168, 140
-0.998564, 401, 151, 464, 166
-0.998566, 409, 121, 472, 136
-0.998568, 427, 161, 442, 192
-0.99857, 433, 187, 496, 202
-0.998571, 211, 149, 226, 180
-0.998573, 87, 61, 102, 92
-0.998573, 225, 149, 240, 180
-0.998574, 249, 131, 312, 146
-0.998574, 441, 153, 456, 184
-0.998576, 239, 201, 254, 232
-0.998576, 257, 313, 500, 375
-0.998577, 97, 131, 160, 146
-0.998577, 409, 171, 472, 186
-0.998577, 273, 117, 336, 132
-0.998578, 65, 163, 128, 178
-0.998581, 465, 73, 480, 104
-0.998582, 161, 73, 224, 88
-0.998582, 57, 49, 72, 80
-0.998583, 17, 39, 80, 54
-0.998586, 461, 185, 476, 216
-0.998587, 393, 181, 456, 196
-0.998588, 95, 157, 110, 188
-0.998588, 385, 277, 448, 292
-0.998588, 409, 145, 472, 160
-0.99859, 9, 195, 72, 210
-0.998592, 161, 79, 224, 94
-0.998592, 361, 151, 424, 166
-0.998593, 443, 325, 458, 356
-0.998594, 161, 65, 224, 80
-0.998594, 391, 269, 406, 300
-0.998596, 385, 287, 448, 302
-0.998597, 69, 185, 84, 216
-0.998598, 377, 265, 440, 280
-0.9986, 125, 117, 140, 148
-0.998603, 273, 135, 336, 150
-0.998603, 1, 45, 64, 60
-0.998605, 417, 193, 480, 208
-0.998605, 401, 127, 464, 142
-0.998606, 1, 305, 128, 368
-0.998607, 177, 151, 240, 166
-0.998608, 185, 97, 216, 352
-0.998608, 57, 101, 120, 116
-0.998608, 89, 117, 152, 132
-0.998608, 17, 205, 32, 236
-0.998609, 383, 225, 398, 256
-0.99861, 1, 193, 500, 256
-0.998611, 57, 185, 120, 200
-0.998613, 161, 59, 224, 74
-0.998615, 391, 245, 406, 276
-0.998616, 233, 99, 296, 114
-0.998616, 219, 149, 234, 180
-0.998617, 393, 65, 456, 80
-0.998619, 263, 137, 278, 168
-0.998619, 385, 59, 448, 74
-0.998619, 1, 185, 64, 200
-0.998619, 353, 41, 480, 72
-0.998619, 425, 335, 488, 350
-0.998621, 409, 61, 424, 92
-0.998621, 161, 87, 224, 102
-0.998621, 161, 101, 224, 116
-0.998622, 145, 127, 208, 142
-0.998623, 57, 75, 120, 90
-0.998625, 57, 93, 120, 108
-0.998625, 297, 117, 360, 132
-0.998626, 95, 141, 110, 172
-0.998626, 433, 285, 448, 316
-0.998627, 103, 97, 118, 128
-0.998627, 423, 301, 438, 332
-0.998628, 425, 127, 488, 142
-0.998628, 433, 165, 496, 180
-0.998629, 231, 149, 246, 180
-0.99863, 413, 121, 428, 152
-0.99863, 161, 53, 224, 68
-0.998631, 385, 165, 448, 180
-0.998631, 425, 113, 488, 128
-0.998633, 161, 95, 224, 110
-0.998634, 153, 117, 216, 132
-0.998634, 209, 213, 272, 228
-0.998635, 1, 205, 128, 236
-0.998635, 425, 315, 488, 330
-0.998635, 233, 203, 296, 218
-0.998635, 431, 133, 446, 164
-0.998636, 241, 117, 304, 132
-0.998636, 281, 111, 344, 126
-0.998636, 1, 257, 500, 320
-0.998636, 97, 173, 160, 188
-0.998637, 377, 259, 440, 274
-0.998638, 233, 111, 296, 126
-0.99864, 161, 107, 224, 122
-0.998641, 433, 73, 496, 88
-0.998641, 369, 113, 432, 128
-0.998642, 361, 157, 424, 172
-0.998644, 77, 101, 92, 132
-0.998644, 393, 133, 456, 148
-0.998644, 393, 193, 456, 208
-0.998645, 353, 273, 416, 288
-0.998645, 433, 147, 496, 162
-0.998645, 57, 157, 120, 172
-0.998646, 385, 175, 448, 190
-0.998647, 201, 93, 264, 108
-0.998647, 433, 159, 496, 174
-0.998648, 193, 107, 256, 122
-0.998648, 89, 179, 152, 194
-0.998649, 377, 251, 440, 266
-0.998649, 385, 271, 448, 286
-0.998649, 465, 173, 480, 204
-0.99865, 477, 317, 492, 348
-0.99865, 423, 269, 438, 300
-0.998651, 25, 33, 88, 48
-0.998651, 297, 153, 312, 184
-0.998652, 369, 195, 432, 210
-0.998652, 193, 113, 256, 128
-0.998652, 25, 115, 88, 130
-0.998653, 329, 113, 392, 128
-0.998653, 177, 143, 240, 158
-0.998654, 353, 185, 416, 200
-0.998654, 409, 257, 472, 272
-0.998655, 393, 105, 456, 120
-0.998655, 9, 57, 72, 72
-0.998655, 239, 149, 254, 180
-0.998656, 25, 27, 88, 42
-0.998656, 433, 325, 496, 340
-0.998657, 385, 293, 448, 308
-0.998657, 233, 125, 296, 140
-0.998658, 47, 189, 62, 220
-0.998658, 369, 53, 432, 68
-0.998658, 105, 167, 168, 182
-0.998659, 49, 63, 112, 78
-0.998659, 121, 117, 184, 132
-0.99866, 1, 175, 64, 190
-0.99866, 97, 77, 160, 92
-0.998661, 393, 111, 456, 126
-0.998661, 377, 125, 440, 140
-0.998662, 209, 123, 272, 138
-0.998662, 193, 101, 256, 116
-0.998662, 353, 121, 416, 136
-0.998663, 249, 121, 264, 152
-0.998663, 377, 87, 440, 102
-0.998663, 193, 69, 256, 84
-0.998663, 361, 163, 424, 178
-0.998664, 17, 77, 80, 92
-0.998664, 1, 27, 64, 42
-0.998664, 31, 41, 46, 72
-0.998664, 153, 47, 216, 62
-0.998665, 17, 51, 80, 66
-0.998665, 393, 121, 408, 152
-0.998665, 433, 171, 496, 186
-0.998666, 409, 271, 472, 286
-0.998666, 63, 185, 78, 216
-0.998667, 25, 207, 88, 222
-0.998667, 185, 131, 248, 146
-0.998669, 369, 243, 432, 258
-0.998669, 33, 179, 96, 194
-0.99867, 409, 139, 472, 154
-0.998671, 33, 189, 96, 204
-0.998671, 1, 201, 64, 216
-0.998671, 433, 153, 496, 168
-0.998671, 201, 63, 264, 78
-0.998672, 425, 107, 488, 122
-0.998672, 409, 97, 472, 112
-0.998672, 131, 125, 146, 156
-0.998672, 103, 85, 118, 116
-0.998672, 25, 21, 88, 36
-0.998673, 25, 95, 88, 110
-0.998673, 345, 267, 408, 282
-0.998675, 107, 149, 122, 180
-0.998677, 273, 25, 400, 56
-0.99868, 71, 105, 86, 136
-0.998682, 407, 213, 422, 244
-0.998682, 459, 321, 474, 352
-0.998683, 267, 213, 282, 244
-0.998684, 435, 153, 450, 184
-0.998698, 197, 33, 228, 288
-0.998709, 317, 49, 348, 176
-0.998714, 225, 97, 256, 352
-0.998714, 25, 129, 56, 375
-0.998728, 5, 129, 36, 375
-0.998732, 445, 33, 476, 288
-0.998741, 177, 189, 304, 220
-0.998744, 113, 181, 240, 212
-0.99875, 273, 13, 400, 44
-0.998754, 353, 65, 384, 320
-0.99877, 337, 97, 368, 352
-0.998818, 1, 209, 256, 272
-0.998818, 101, 65, 116, 192
-0.99882, 257, 37, 384, 68
-0.998834, 221, 193, 252, 320
-0.998846, 73, 129, 104, 375
-0.998859, 309, 97, 340, 352
-0.998873, 457, 33, 488, 288
-0.998884, 19, 1, 34, 128
-0.998884, 273, 1, 400, 32
-0.998893, 1, 221, 128, 252
-0.998911, 25, 1, 40, 128
-0.998921, 273, 257, 400, 288
-0.99896, 241, 49, 368, 80
-0.99896, 433, 129, 464, 375
-0.998963, 427, 97, 442, 224
-0.998968, 17, 245, 144, 276
-0.998976, 61, 17, 76, 144
-0.998993, 49, 197, 176, 228
-0.999005, 469, 65, 500, 320
-0.999009, 177, 217, 304, 248
-0.999011, 93, 1, 108, 128
-0.999017, 95, 65, 110, 192
-0.999045, 1, 305, 256, 368
-0.99905, 99, 1, 114, 128
-0.999059, 69, 17, 84, 144
-0.99906, 17, 257, 144, 320
-0.999064, 421, 97, 436, 224
-0.999065, 117, 97, 132, 224
-0.999078, 111, 97, 126, 224
-0.999092, 87, 65, 102, 192
-0.999104, 1, 233, 256, 296
-0.999122, 353, 209, 384, 336
-0.999126, 63, 65, 78, 192
-0.999138, 325, 97, 356, 352
-0.999154, 91, 113, 106, 240
-0.999157, 13, 1, 28, 128
-0.999159, 453, 113, 468, 240
-0.99916, 97, 113, 112, 240
-0.999161, 73, 113, 88, 240
-0.999162, 429, 49, 444, 176
-0.999162, 85, 113, 100, 240
-0.999181, 137, 113, 152, 240
-0.999185, 201, 81, 216, 208
-0.999186, 51, 33, 66, 160
-0.999188, 105, 113, 120, 240
-0.999189, 107, 49, 122, 176
-0.999191, 407, 113, 422, 240
-0.999195, 225, 21, 352, 52
-0.9992, 155, 33, 170, 160
-0.999206, 3, 161, 18, 288
-0.999214, 113, 1, 128, 128
-0.999215, 87, 1, 102, 128
-0.999224, 417, 49, 432, 176
-0.999226, 127, 113, 142, 240
-0.999228, 433, 97, 448, 224
-0.999229, 79, 1, 94, 128
-0.999229, 173, 97, 204, 352
-0.999231, 143, 113, 158, 240
-0.999241, 161, 33, 176, 160
-0.999245, 1, 305, 500, 368
-0.999247, 153, 129, 184, 375
-0.999249, 3, 17, 18, 144
-0.99925, 105, 1, 120, 128
-0.999257, 439, 225, 454, 352
-0.999259, 369, 1, 400, 256
-0.999261, 65, 233, 192, 264
-0.999262, 167, 81, 182, 208
-0.999272, 177, 177, 304, 208
-0.999273, 193, 249, 320, 312
-0.999277, 149, 33, 164, 160
-0.999278, 439, 113, 454, 240
-0.999288, 149, 113, 164, 240
-0.999289, 403, 49, 418, 176
-0.999292, 133, 17, 148, 144
-0.999292, 423, 49, 438, 176
-0.999293, 79, 113, 94, 240
-0.9993, 75, 65, 90, 192
-0.999304, 425, 225, 440, 352
-0.999309, 195, 113, 210, 240
-0.999309, 127, 1, 142, 128
-0.999312, 161, 97, 176, 224
-0.999321, 431, 225, 446, 352
-0.999321, 69, 65, 84, 192
-0.999328, 141, 33, 156, 160
-0.99933, 447, 113, 462, 240
-0.999334, 155, 113, 170, 240
-0.999337, 455, 65, 470, 192
-0.999353, 67, 113, 82, 240
-0.999354, 415, 129, 430, 256
-0.999358, 411, 33, 426, 160
-0.999359, 37, 129, 52, 256
-0.99936, 449, 241, 464, 368
-0.999362, 307, 113, 322, 240
-0.999363, 427, 145, 442, 272
-0.999372, 317, 97, 332, 224
-0.999378, 119, 1, 134, 128
-0.999379, 345, 1, 360, 128
-0.999381, 401, 113, 416, 240
-0.999381, 199, 17, 214, 144
-0.999382, 81, 65, 96, 192
-0.99939, 409, 161, 424, 288
-0.99939, 41, 33, 56, 160
-0.999393, 455, 161, 470, 288
-0.999402, 339, 97, 354, 224
-0.999403, 81, 161, 96, 288
-0.999405, 297, 97, 312, 224
-0.999406, 381, 1, 412, 256
-0.999407, 47, 161, 62, 288
-0.999409, 445, 129, 476, 375
-0.99941, 347, 97, 362, 224
-0.999411, 9, 161, 24, 288
-0.999411, 395, 113, 410, 240
-0.999412, 321, 341, 448, 372
-0.999413, 447, 49, 462, 176
-0.999416, 55, 161, 70, 288
-0.999418, 291, 97, 306, 224
-0.999418, 243, 97, 258, 224
-0.999418, 401, 209, 416, 336
-0.99942, 329, 97, 344, 224
-0.999422, 323, 97, 338, 224
-0.999427, 441, 177, 456, 304
-0.999428, 463, 129, 478, 256
-0.999429, 391, 241, 406, 368
-0.999429, 437, 49, 452, 176
-0.999429, 285, 97, 300, 224
-0.999431, 315, 145, 330, 272
-0.999434, 233, 129, 248, 256
-0.999438, 33, 33, 48, 160
-0.999438, 383, 241, 398, 368
-0.99944, 293, 145, 308, 272
-0.999445, 113, 225, 240, 256
-0.999445, 61, 161, 76, 288
-0.999448, 57, 81, 72, 208
-0.999449, 447, 193, 462, 320
-0.999457, 211, 129, 226, 256
-0.999462, 167, 33, 182, 160
-0.999469, 113, 49, 128, 176
-0.99947, 193, 1, 208, 128
-0.99948, 173, 65, 188, 192
-0.999485, 31, 161, 46, 288
-0.999486, 467, 241, 482, 368
-0.999494, 207, 81, 222, 208
-0.999502, 129, 193, 256, 224
-0.999502, 415, 209, 430, 336
-0.999505, 111, 145, 126, 272
-0.999512, 241, 213, 368, 244
-0.999512, 347, 49, 362, 176
-0.999513, 433, 161, 448, 288
-0.999518, 205, 33, 220, 160
-0.99952, 87, 161, 102, 288
-0.999527, 205, 129, 220, 256
-0.999529, 287, 145, 302, 272
-0.999529, 79, 99, 94, 114
-0.99953, 287, 195, 302, 210
-0.99953, 15, 25, 30, 40
-0.999531, 283, 131, 298, 146
-0.999531, 349, 269, 364, 284
-0.999531, 143, 131, 158, 146
-0.999532, 453, 141, 468, 156
-0.999532, 251, 129, 266, 256
-0.999532, 109, 139, 124, 154
-0.999532, 277, 205, 292, 220
-0.999532, 67, 161, 82, 288
-0.999532, 359, 275, 374, 290
-0.999532, 347, 1, 362, 16
-0.999532, 97, 179, 112, 194
-0.999532, 263, 217, 278, 232
-0.999533, 419, 191, 434, 206
-0.999533, 9, 33, 24, 48
-0.999533, 423, 179, 438, 194
-0.999533, 297, 193, 312, 208
-0.999534, 393, 287, 408, 302
-0.999534, 1, 233, 16, 248
-0.999534, 95, 119, 110, 134
-0.999534, 95, 69, 110, 84
-0.999535, 9, 203, 24, 218
-0.999536, 417, 163, 432, 178
-0.999536, 91, 79, 106, 94
-0.999537, 25, 49, 40, 64
-0.999537, 103, 175, 118, 190
-0.999537, 259, 211, 274, 226
-0.999537, 431, 173, 446, 188
-0.999538, 7, 183, 22, 198
-0.999538, 309, 113, 324, 128
-0.999538, 251, 127, 266, 142
-0.999539, 403, 149, 418, 164
-0.999539, 401, 293, 416, 308
-0.99954, 103, 81, 118, 96
-0.999541, 55, 53, 70, 68
-0.999541, 297, 133, 312, 148
-0.999542, 399, 123, 414, 138
-0.999542, 413, 305, 428, 320
-0.999542, 291, 115, 306, 130
-0.999543, 463, 187, 478, 202
-0.999543, 189, 113, 204, 240
-0.999543, 461, 155, 476, 170
-0.999543, 107, 107, 122, 122
-0.999543, 21, 195, 36, 210
-0.999544, 461, 145, 476, 160
-0.999545, 451, 173, 466, 188
-0.999545, 413, 193, 428, 208
-0.999545, 443, 129, 458, 144
-0.999546, 1, 185, 16, 200
-0.999547, 441, 169, 456, 184
-0.999547, 69, 79, 84, 94
-0.999547, 61, 115, 76, 130
-0.999548, 443, 329, 458, 344
-0.999548, 405, 161, 420, 176
-0.999548, 129, 125, 144, 140
-0.999548, 67, 119, 82, 134
-0.99955, 225, 129, 240, 256
-0.99955, 19, 19, 34, 34
-0.999551, 183, 145, 198, 160
-0.999551, 75, 161, 90, 288
-0.999551, 455, 241, 470, 368
-0.999551, 453, 187, 468, 202
-0.999552, 273, 277, 400, 308
-0.999553, 109, 127, 124, 142
-0.999553, 435, 323, 450, 338
-0.999553, 295, 109, 310, 124
-0.999554, 409, 241, 424, 368
-0.999554, 15, 189, 30, 204
-0.999554, 297, 115, 312, 130
-0.999555, 417, 121, 432, 136
-0.999555, 401, 111, 416, 126
-0.999555, 423, 165, 438, 180
-0.999556, 103, 135, 118, 150
-0.999556, 409, 109, 424, 124
-0.999556, 415, 157, 430, 172
-0.999557, 461, 171, 476, 186
-0.999557, 93, 161, 108, 288
-0.999557, 321, 145, 336, 272
-0.999559, 217, 113, 232, 240
-0.99956, 277, 119, 292, 134
-0.99956, 103, 165, 118, 180
-0.999561, 415, 147, 430, 162
-0.999561, 377, 193, 392, 320
-0.999562, 49, 45, 64, 60
-0.999562, 421, 131, 436, 146
-0.999563, 269, 213, 284, 228
-0.999563, 63, 71, 78, 86
-0.999563, 443, 181, 458, 196
-0.999564, 393, 295, 408, 310
-0.999565, 353, 97, 368, 224
-0.999565, 109, 133, 124, 148
-0.999567, 241, 207, 256, 222
-0.999567, 425, 103, 440, 118
-0.999568, 467, 331, 482, 346
-0.999568, 427, 109, 442, 124
-0.999569, 57, 59, 72, 74
-0.99957, 397, 149, 412, 164
-0.999571, 119, 123, 134, 138
-0.999572, 283, 117, 298, 132
-0.999573, 423, 115, 438, 130
-0.999574, 409, 121, 424, 136
-0.999574, 9, 197, 24, 212
-0.999574, 291, 133, 306, 148
-0.999575, 415, 55, 430, 70
-0.999578, 225, 1, 256, 256
-0.999578, 135, 127, 150, 142
-0.999579, 61, 65, 76, 80
-0.999581, 447, 187, 462, 202
-0.999584, 97, 157, 112, 172
-0.999584, 7, 189, 22, 204
-0.999586, 303, 111, 318, 126
-0.999586, 99, 75, 114, 90
-0.999587, 453, 163, 468, 178
-0.999589, 437, 175, 452, 190
-0.999589, 293, 1, 324, 256
-0.999592, 405, 143, 420, 158
-0.999592, 449, 123, 464, 138
-0.999593, 409, 115, 424, 130
-0.999595, 427, 313, 442, 328
-0.999595, 213, 97, 244, 352
-0.999597, 25, 15, 40, 30
-0.9996, 447, 167, 462, 182
-0.999601, 433, 109, 448, 124
-0.999603, 403, 155, 418, 170
-0.999607, 423, 123, 438, 138
-0.999607, 425, 173, 440, 188
-0.999608, 427, 129, 442, 144
-0.99961, 437, 127, 452, 142
-0.999611, 449, 179, 464, 194
-0.999619, 15, 195, 30, 210
-0.999623, 103, 141, 118, 156
-0.999623, 411, 165, 426, 180
-0.999625, 403, 117, 418, 132
-0.999629, 439, 119, 454, 134
-0.99963, 113, 115, 128, 130
-0.999636, 1, 179, 16, 194
-0.999641, 101, 117, 116, 132
-0.999644, 113, 121, 128, 136
-0.999646, 455, 181, 470, 196
-0.999658, 429, 117, 444, 132
-0.99966, 417, 169, 432, 184
-0.999678, 107, 113, 122, 128
-0.999688, 329, 1, 360, 256
-0.9997, 409, 149, 424, 164
-0.999706, 209, 1, 240, 256
-0.999707, 429, 123, 444, 138
-0.999721, 97, 241, 224, 304
-0.999744, 173, 1, 204, 256
-0.999773, 457, 129, 488, 375
-0.999804, 281, 1, 312, 256
-0.999948, 313, 1, 344, 256
-1.00007, 393, 1, 424, 256
-1.00013, 177, 209, 240, 336
-1.00025, 201, 129, 232, 375
-1.00029, 177, 273, 304, 336
-1.00029, 97, 289, 224, 352
-1.0003, 97, 265, 224, 328
-1.00032, 161, 281, 416, 344
-1.00041, 97, 241, 352, 304
-1.00046, 49, 297, 176, 360
-1.00046, 257, 1, 288, 256
-1.00056, 1, 257, 256, 320
-1.00068, 121, 209, 184, 336
-1.00068, 145, 209, 208, 336
-1.00071, 177, 297, 304, 360
-1.00073, 225, 297, 352, 360
-1.0008, 145, 249, 272, 312
-1.00107, 1, 281, 256, 344
-1.00143, 161, 313, 416, 375
-1.00201, 97, 313, 224, 375
-1.00207, 273, 305, 400, 368
-1.00816, 273, 1, 336, 128
