1988
-0.370276, 1, 193, 375, 448
-0.411135, 1, 1, 375, 500
-0.474444, 1, 97, 375, 352
-0.509678, 1, 1, 375, 256
-0.526128, 1, 1, 256, 500
-0.602621, 1, 97, 256, 352
-0.615351, 1, 225, 256, 480
-0.643282, 97, 1, 352, 500
-0.670981, 1, 1, 256, 256
-0.737339, 97, 257, 352, 500
-0.76019, 97, 129, 352, 384
-0.850842, 81, 1, 208, 500
-0.852939, 81, 193, 208, 448
-0.858541, 33, 161, 160, 416
-0.861227, 129, 193, 256, 448
-0.861955, 65, 65, 192, 320
-0.865651, 129, 33, 375, 288
-0.867588, 33, 257, 160, 500
-0.870139, 1, 1, 128, 500
-0.876352, 1, 289, 375, 416
-0.879529, 17, 65, 144, 320
-0.885457, 129, 1, 256, 500
-0.89312, 1, 177, 375, 304
-0.89372, 113, 97, 240, 352
-0.894871, 241, 225, 368, 480
-0.896419, 177, 257, 304, 500
-0.897563, 1, 241, 375, 368
-0.901038, 1, 81, 375, 208
-0.904814, 1, 337, 375, 464
-0.912692, 33, 241, 288, 368
-0.914239, 1, 1, 375, 128
-0.915775, 65, 289, 320, 416
-0.921313, 1, 129, 375, 256
-0.923295, 1, 81, 256, 208
-0.924185, 113, 241, 176, 368
-0.924542, 17, 225, 144, 352
-0.924718, 97, 257, 224, 384
-0.926067, 113, 1, 240, 256
-0.928542, 129, 225, 375, 352
-0.928984, 1, 193, 256, 320
-0.932125, 97, 337, 352, 464
-0.932445, 89, 225, 152, 352
-0.933004, 1, 145, 256, 272
-0.933479, 1, 33, 256, 160
-0.933678, 97, 1, 224, 128
-0.935622, 33, 97, 96, 224
-0.936561, 65, 81, 192, 208
-0.937166, 145, 305, 272, 432
-0.940056, 289, 433, 352, 496
-0.940213, 57, 241, 120, 368
-0.941469, 49, 273, 176, 400
-0.941541, 65, 193, 192, 320
-0.942216, 241, 129, 368, 384
-0.944042, 177, 161, 304, 416
-0.944179, 193, 273, 256, 400
-0.944592, 129, 289, 192, 416
-0.944725, 177, 1, 304, 500
-0.945109, 17, 1, 144, 128
-0.945583, 89, 273, 152, 400
-0.946053, 241, 1, 368, 500
-0.946306, 33, 225, 96, 352
-0.946379, 105, 297, 168, 360
-0.94675, 129, 1, 192, 128
-0.946903, 217, 289, 280, 416
-0.947342, 17, 65, 144, 192
-0.947656, 113, 1, 176, 64
-0.948012, 161, 65, 288, 320
-0.948205, 153, 1, 216, 128
-0.948304, 17, 145, 144, 272
-0.9487, 137, 241, 200, 368
-0.949031, 145, 225, 272, 352
-0.94909, 89, 241, 152, 304
-0.950256, 129, 297, 192, 360
-0.950414, 129, 193, 192, 320
-0.950634, 97, 65, 160, 192
-0.95075, 289, 409, 352, 472
-0.950806, 249, 369, 312, 496
-0.951072, 97, 305, 224, 432
-0.951133, 193, 289, 320, 416
-0.951312, 153, 289, 216, 416
-0.952067, 33, 105, 96, 168
-0.952252, 241, 369, 368, 496
-0.952342, 105, 265, 168, 328
-0.952381, 273, 369, 336, 496
-0.952848, 193, 353, 320, 480
-0.952976, 57, 97, 120, 224
-0.954269, 153, 297, 216, 360
-0.954338, 137, 81, 200, 208
-0.954976, 81, 145, 208, 272
-0.955571, 193, 241, 320, 368
-0.955928, 313, 417, 375, 480
-0.956047, 201, 313, 264, 376
-0.956407, 161, 225, 224, 352
-0.95668, 241, 1, 368, 256
-0.956771, 97, 1, 160, 128
-0.957084, 57, 145, 120, 272
-0.957177, 265, 433, 328, 496
-0.95825, 193, 289, 256, 352
-0.958467, 33, 49, 96, 176
-0.958495, 65, 289, 128, 416
-0.958893, 121, 217, 184, 280
-0.959393, 177, 321, 240, 448
-0.959393, 81, 177, 144, 304
-0.95941, 241, 305, 304, 368
-0.959577, 241, 321, 304, 448
-0.960149, 33, 225, 96, 288
-0.960301, 137, 145, 200, 272
-0.960582, 129, 241, 192, 304
-0.960753, 1, 273, 128, 400
-0.961045, 97, 113, 160, 240
-0.961218, 113, 65, 240, 192
-0.961448, 129, 177, 375, 304
-0.961455, 113, 321, 176, 384
-0.961469, 105, 177, 168, 304
-0.961579, 313, 369, 375, 496
-0.961614, 129, 273, 192, 336
-0.962106, 73, 281, 136, 344
-0.962777, 137, 321, 200, 384
-0.962824, 117, 257, 148, 384
-0.962925, 25, 145, 88, 272
-0.96307, 217, 289, 280, 352
-0.963322, 241, 289, 368, 416
-0.963571, 265, 409, 328, 472
-0.96401, 73, 217, 136, 280
-0.96402, 177, 313, 240, 376
-0.96403, 129, 81, 192, 144
-0.964392, 241, 241, 304, 368
-0.964805, 193, 209, 256, 336
-0.96501, 9, 17, 72, 144
-0.965292, 153, 265, 216, 328
-0.9653, 153, 1, 216, 64
-0.965322, 97, 97, 160, 160
-0.965457, 97, 297, 224, 360
-0.965908, 57, 257, 120, 320
-0.966167, 217, 241, 280, 368
-0.966228, 57, 49, 120, 176
-0.966476, 129, 81, 375, 208
-0.966786, 49, 321, 176, 448
-0.966883, 129, 41, 192, 104
-0.96708, 129, 257, 160, 384
-0.967175, 89, 321, 152, 448
-0.967233, 97, 193, 160, 448
-0.967548, 273, 209, 336, 336
-0.967618, 129, 193, 192, 448
-0.967663, 9, 97, 72, 224
-0.967733, 153, 225, 216, 288
-0.968023, 57, 105, 120, 168
-0.968361, 145, 177, 272, 304
-0.968531, 241, 353, 304, 416
-0.968638, 101, 225, 132, 352
-0.968656, 241, 425, 368, 488
-0.969085, 73, 305, 136, 368
-0.969167, 17, 289, 80, 416
-0.969472, 97, 209, 160, 272
-0.969515, 9, 209, 72, 336
-0.969573, 225, 329, 288, 392
-0.969595, 245, 305, 276, 368
-0.969805, 193, 217, 256, 280
-0.969911, 141, 241, 172, 368
-0.969956, 97, 121, 160, 184
-0.969968, 137, 113, 200, 176
-0.970006, 97, 57, 160, 120
-0.970016, 161, 297, 288, 360
-0.970375, 97, 1, 352, 128
-0.970613, 85, 241, 116, 304
-0.970798, 241, 209, 368, 336
-0.97091, 33, 161, 96, 416
-0.971133, 61, 97, 92, 224
-0.971298, 57, 145, 120, 208
-0.971299, 33, 1, 64, 128
-0.971347, 65, 249, 192, 312
-0.971439, 65, 217, 192, 280
-0.971444, 1, 369, 256, 496
-0.971513, 81, 273, 208, 336
-0.971614, 313, 193, 375, 320
-0.971755, 73, 225, 136, 480
-0.971863, 189, 297, 220, 360
-0.971866, 309, 409, 340, 472
-0.97202, 145, 321, 272, 384
-0.972026, 65, 97, 128, 352
-0.972095, 17, 225, 144, 288
-0.972108, 137, 145, 200, 208
-0.972175, 161, 1, 288, 128
-0.972325, 97, 65, 160, 320
-0.972527, 117, 297, 148, 360
-0.972672, 293, 409, 324, 472
-0.972852, 65, 121, 192, 184
-0.97286, 113, 337, 176, 464
-0.972888, 105, 265, 136, 328
-0.97292, 281, 433, 312, 496
-0.973024, 329, 433, 360, 496
-0.973098, 97, 25, 160, 88
-0.973152, 17, 113, 144, 176
-0.973177, 313, 225, 375, 288
-0.973311, 313, 433, 344, 496
-0.973371, 161, 145, 224, 272
-0.973596, 125, 257, 156, 320
-0.973602, 97, 1, 224, 64
-0.973707, 161, 65, 224, 192
-0.973809, 149, 289, 180, 352
-0.973854, 145, 129, 272, 256
-0.974014, 17, 265, 144, 328
-0.974068, 313, 305, 375, 432
-0.974079, 137, 273, 168, 336
-0.974296, 153, 201, 216, 264
-0.974396, 85, 241, 116, 368
-0.974428, 49, 97, 80, 224
-0.97447, 217, 337, 280, 464
-0.974533, 129, 129, 375, 256
-0.974598, 141, 1, 172, 64
-0.974624, 57, 1, 120, 128
-0.974631, 17, 297, 144, 360
-0.97464, 105, 241, 136, 304
-0.974663, 225, 305, 352, 368
-0.974765, 113, 1, 144, 64
-0.974788, 281, 377, 344, 440
-0.975063, 33, 249, 96, 312
-0.975233, 105, 297, 136, 360
-0.975321, 281, 321, 344, 448
-0.975472, 249, 385, 312, 448
-0.975475, 273, 225, 336, 288
-0.975612, 49, 1, 176, 64
-0.975651, 125, 209, 156, 336
-0.975716, 93, 281, 124, 344
-0.975928, 113, 305, 144, 432
-0.976128, 137, 297, 168, 360
-0.976131, 241, 433, 304, 496
-0.976212, 105, 1, 136, 128
-0.976224, 1, 369, 64, 496
-0.976227, 113, 185, 176, 248
-0.976232, 249, 329, 312, 392
-0.97627, 65, 97, 192, 160
-0.97642, 113, 209, 144, 336
-0.976448, 201, 289, 232, 352
-0.976925, 153, 57, 216, 120
-0.976967, 97, 57, 224, 120
-0.977112, 25, 65, 88, 320
-0.97716, 129, 1, 160, 128
-0.977228, 89, 329, 152, 392
-0.977279, 89, 1, 152, 64
-0.977333, 153, 241, 184, 368
-0.977349, 113, 345, 176, 408
-0.977352, 25, 145, 88, 208
-0.977378, 265, 353, 296, 480
-0.977508, 177, 297, 208, 360
-0.97752, 65, 193, 128, 256
-0.977535, 17, 25, 144, 88
-0.977584, 97, 273, 128, 400
-0.977596, 77, 265, 108, 328
-0.977662, 129, 273, 256, 336
-0.977676, 137, 241, 168, 304
-0.977728, 153, 81, 216, 144
-0.977745, 213, 273, 244, 400
-0.978075, 97, 153, 160, 216
-0.978085, 313, 393, 375, 456
-0.978095, 265, 273, 328, 400
-0.978106, 9, 113, 72, 176
-0.978107, 149, 249, 180, 312
-0.978133, 157, 313, 188, 376
-0.978155, 65, 105, 96, 168
-0.978208, 157, 289, 188, 416
-0.978309, 81, 193, 208, 256
-0.978313, 153, 193, 216, 448
-0.978342, 225, 289, 256, 416
-0.978356, 117, 233, 148, 296
-0.978421, 137, 169, 200, 232
-0.97845, 33, 113, 64, 176
-0.978517, 97, 321, 224, 384
-0.978529, 49, 281, 112, 344
-0.978532, 165, 105, 196, 168
-0.97864, 229, 313, 260, 376
-0.978709, 217, 321, 248, 384
-0.97872, 57, 193, 120, 320
-0.9788, 113, 225, 240, 288
-0.978829, 169, 321, 200, 384
-0.978962, 129, 305, 160, 432
-0.979003, 17, 17, 80, 80
-0.979035, 201, 273, 232, 400
-0.979123, 137, 337, 200, 464
-0.979129, 121, 97, 184, 352
-0.979147, 185, 257, 248, 320
-0.979332, 73, 233, 104, 296
-0.979357, 37, 49, 68, 176
-0.979374, 245, 289, 276, 416
-0.979413, 177, 345, 304, 408
-0.979526, 293, 433, 324, 496
-0.979528, 161, 105, 224, 168
-0.979601, 1, 321, 128, 448
-0.979652, 9, 217, 72, 280
-0.979667, 65, 81, 128, 144
-0.979704, 121, 1, 184, 500
-0.979716, 269, 361, 300, 424
-0.979744, 33, 1, 96, 128
-0.979902, 257, 313, 288, 376
-0.979924, 69, 145, 100, 272
-0.979935, 141, 193, 172, 320
-0.980023, 9, 297, 72, 360
-0.980063, 1, 145, 128, 208
-0.980082, 193, 193, 256, 448
-0.980136, 37, 97, 68, 224
-0.980206, 49, 321, 176, 384
-0.980486, 33, 9, 64, 72
-0.980592, 277, 369, 308, 496
-0.980674, 121, 1, 184, 256
-0.980786, 193, 193, 320, 320
-0.980826, 241, 161, 368, 288
-0.980911, 241, 401, 368, 464
-0.980974, 57, 1, 120, 64
-0.981132, 225, 193, 288, 320
-0.981168, 65, 161, 192, 224
-0.981321, 73, 225, 104, 352
-0.981361, 137, 321, 168, 384
-0.981469, 1, 257, 64, 500
-0.981522, 241, 329, 368, 392
-0.981552, 93, 305, 124, 368
-0.981557, 145, 1, 208, 256
-0.981703, 341, 417, 372, 480
-0.981725, 113, 249, 240, 312
-0.981839, 213, 289, 244, 352
-0.981908, 33, 33, 64, 96
-0.981917, 313, 201, 375, 264
-0.98194, 281, 409, 312, 472
-0.981984, 161, 289, 192, 352
-0.982026, 189, 305, 220, 432
-0.982156, 57, 33, 120, 96
-0.982171, 105, 25, 136, 88
-0.982209, 209, 241, 272, 304
-0.982212, 225, 241, 256, 368
-0.982264, 225, 257, 288, 500
-0.982266, 225, 289, 256, 352
-0.982322, 117, 321, 148, 384
-0.98233, 105, 217, 136, 280
-0.982338, 241, 217, 304, 280
-0.982375, 33, 193, 160, 256
-0.98239, 49, 105, 80, 168
-0.982473, 145, 1, 176, 128
-0.982526, 81, 25, 208, 88
-0.982573, 97, 1, 160, 500
-0.982578, 313, 241, 375, 368
-0.982667, 73, 1, 136, 256
-0.982708, 189, 257, 220, 384
-0.982759, 41, 209, 72, 336
-0.982798, 49, 73, 176, 136
-0.982852, 165, 81, 196, 144
-0.982856, 161, 1, 192, 128
-0.982861, 193, 385, 320, 448
-0.982909, 201, 321, 232, 384
-0.982945, 193, 433, 320, 496
-0.982952, 129, 1, 160, 64
-0.982957, 61, 233, 92, 296
-0.982981, 129, 81, 256, 144
-0.983009, 313, 1, 375, 256
-0.983047, 137, 217, 168, 280
-0.983072, 209, 225, 336, 288
-0.983074, 265, 297, 328, 360
-0.983122, 109, 49, 140, 176
-0.983142, 269, 433, 300, 496
-0.983151, 17, 273, 80, 336
-0.983176, 141, 289, 172, 416
-0.983249, 177, 321, 208, 448
-0.983336, 177, 1, 240, 128
-0.983404, 165, 65, 196, 192
-0.983408, 17, 409, 80, 472
-0.983424, 157, 193, 188, 320
-0.983435, 293, 369, 324, 496
-0.983457, 273, 225, 336, 480
-0.98347, 149, 225, 180, 288
-0.98351, 157, 113, 188, 240
-0.983662, 201, 337, 264, 400
-0.983665, 161, 337, 224, 400
-0.983689, 49, 49, 176, 112
-0.983777, 245, 329, 276, 392
-0.98382, 189, 1, 220, 64
-0.98382, 37, 217, 68, 280
-0.983829, 213, 225, 244, 352
-0.983858, 57, 145, 88, 272
-0.983911, 261, 305, 292, 432
-0.983943, 125, 25, 156, 88
-0.983988, 197, 217, 228, 280
-0.984058, 9, 41, 72, 104
-0.984082, 145, 201, 272, 264
-0.98409, 105, 321, 136, 384
-0.984154, 145, 49, 176, 176
-0.984172, 145, 97, 176, 224
-0.984174, 117, 1, 148, 128
-0.984183, 313, 145, 375, 272
-0.984223, 181, 17, 212, 144
-0.984512, 189, 321, 220, 384
-0.984601, 9, 369, 72, 432
-0.984614, 33, 41, 96, 104
-0.98462, 177, 81, 208, 144
-0.984721, 25, 49, 56, 176
-0.984748, 73, 1, 136, 500
-0.984863, 161, 65, 288, 192
-0.984909, 161, 177, 224, 240
-0.984948, 153, 1, 216, 500
-0.984983, 177, 241, 208, 368
-0.985044, 73, 97, 104, 224
-0.985076, 29, 257, 60, 384
-0.985143, 61, 145, 92, 208
-0.985244, 33, 289, 64, 352
-0.985262, 281, 209, 312, 336
-0.985294, 121, 345, 152, 408
-0.985319, 153, 25, 216, 88
-0.985349, 1, 369, 128, 496
-0.9855, 1, 129, 64, 384
-0.985503, 193, 257, 224, 320
-0.985512, 201, 321, 232, 448
-0.98555, 305, 305, 368, 368
-0.985553, 105, 57, 136, 120
-0.985564, 161, 97, 224, 352
-0.985604, 25, 353, 88, 480
-0.985609, 281, 353, 344, 416
-0.985651, 1, 57, 128, 120
-0.985758, 201, 1, 264, 128
-0.98589, 17, 65, 80, 128
-0.985934, 273, 385, 304, 448
-0.986, 161, 1, 192, 64
-0.986027, 153, 105, 184, 168
-0.986078, 321, 409, 352, 472
-0.986082, 17, 1, 80, 500
-0.986142, 241, 409, 304, 472
-0.986279, 249, 257, 312, 500
-0.986288, 149, 81, 180, 144
-0.986321, 101, 1, 132, 64
-0.986332, 113, 105, 240, 168
-0.986336, 133, 81, 164, 144
-0.986344, 149, 193, 180, 256
-0.986361, 165, 145, 196, 208
-0.986363, 97, 177, 128, 304
-0.986369, 161, 233, 288, 296
-0.986443, 145, 145, 176, 272
-0.98649, 217, 217, 280, 280
-0.986579, 233, 337, 264, 400
-0.986594, 257, 433, 288, 496
-0.986663, 89, 113, 120, 176
-0.986665, 145, 1, 272, 64
-0.986683, 93, 217, 124, 280
-0.986708, 237, 241, 268, 368
-0.986736, 289, 377, 320, 440
-0.986745, 17, 225, 48, 352
-0.986768, 97, 353, 224, 480
-0.986768, 41, 81, 104, 144
-0.986978, 125, 161, 156, 288
-0.986998, 301, 225, 332, 288
-0.987028, 161, 129, 224, 192
-0.98708, 125, 65, 156, 192
-0.9871, 61, 241, 92, 368
-0.987125, 37, 145, 68, 272
-0.987169, 169, 209, 200, 272
-0.987185, 261, 225, 292, 352
-0.987218, 289, 445, 352, 476
-0.987235, 1, 137, 64, 200
-0.98725, 49, 257, 112, 500
-0.987267, 305, 369, 336, 496
-0.987295, 145, 57, 176, 120
-0.98731, 161, 249, 192, 312
-0.987341, 1, 1, 64, 256
-0.987343, 53, 49, 84, 176
-0.987354, 297, 225, 328, 352
-0.987362, 145, 25, 176, 88
-0.987364, 177, 65, 208, 192
-0.987388, 41, 305, 104, 432
-0.987403, 177, 113, 208, 240
-0.987422, 169, 161, 200, 288
-0.987431, 49, 145, 80, 208
-0.98762, 329, 369, 360, 496
-0.987704, 257, 353, 288, 416
-0.987725, 65, 289, 320, 352
-0.987752, 65, 257, 96, 320
-0.987826, 49, 217, 80, 280
-0.987837, 213, 321, 244, 448
-0.987845, 65, 345, 192, 408
-0.987903, 85, 97, 116, 224
-0.988073, 161, 57, 192, 120
-0.988112, 245, 337, 276, 464
-0.988158, 57, 57, 120, 120
-0.988166, 117, 89, 148, 152
-0.988193, 217, 433, 280, 496
-0.988233, 33, 201, 96, 264
-0.988303, 113, 145, 240, 208
-0.988313, 241, 369, 368, 432
-0.988314, 137, 345, 200, 408
-0.988321, 205, 257, 236, 320
-0.988336, 201, 325, 264, 356
-0.98834, 281, 225, 312, 288
-0.988381, 105, 89, 136, 152
-0.988389, 281, 249, 344, 312
-0.988408, 1, 1, 128, 64
-0.988428, 249, 209, 280, 336
-0.988452, 345, 305, 375, 432
-0.988475, 65, 169, 128, 232
-0.988483, 177, 105, 208, 168
-0.988502, 273, 457, 336, 488
-0.988511, 113, 293, 176, 324
-0.988546, 25, 257, 88, 500
-0.988552, 125, 209, 156, 272
-0.988568, 313, 249, 375, 312
-0.988579, 165, 241, 196, 368
-0.988589, 149, 337, 180, 400
-0.988614, 109, 161, 140, 288
-0.988646, 289, 257, 352, 384
-0.98868, 81, 289, 112, 352
-0.988696, 41, 1, 104, 500
-0.988725, 1, 145, 64, 272
-0.988742, 133, 345, 164, 408
-0.988753, 313, 329, 375, 392
-0.988761, 29, 209, 60, 336
-0.988766, 145, 369, 272, 496
-0.988792, 129, 345, 256, 408
-0.988793, 145, 145, 176, 208
-0.98884, 81, 253, 144, 284
-0.988851, 241, 281, 304, 344
-0.988853, 313, 441, 375, 472
-0.988896, 177, 1, 240, 64
-0.988908, 101, 321, 132, 448
-0.988928, 177, 273, 304, 336
-0.988943, 165, 169, 196, 232
-0.98897, 213, 217, 244, 280
-0.98904, 25, 265, 56, 328
-0.989062, 249, 453, 312, 484
-0.989076, 129, 113, 160, 240
-0.98914, 113, 1, 176, 32
-0.989166, 53, 193, 84, 320
-0.989175, 193, 409, 320, 472
-0.98919, 225, 281, 352, 344
-0.989251, 289, 469, 352, 500
-0.989286, 129, 49, 160, 112
-0.989294, 313, 457, 375, 488
-0.989324, 41, 113, 104, 144
-0.989347, 289, 433, 352, 464
-0.989372, 169, 313, 232, 344
-0.989399, 105, 249, 168, 280
-0.989454, 69, 209, 100, 272
-0.989455, 89, 273, 152, 304
-0.989463, 225, 313, 288, 344
-0.989465, 269, 217, 300, 280
-0.989552, 181, 33, 212, 96
-0.989571, 121, 305, 184, 336
-0.989583, 129, 25, 256, 88
-0.989604, 113, 321, 176, 352
-0.989634, 49, 369, 176, 496
-0.989668, 85, 289, 116, 416
-0.989698, 249, 465, 312, 496
-0.989702, 281, 417, 344, 448
-0.989705, 97, 313, 352, 376
-0.989752, 145, 321, 208, 352
-0.989754, 121, 277, 184, 308
-0.989758, 81, 241, 144, 272
-0.98977, 89, 301, 152, 332
-0.98979, 113, 169, 240, 232
-0.98979, 13, 297, 44, 360
-0.989793, 113, 265, 176, 296
-0.989801, 117, 353, 148, 480
-0.989804, 145, 169, 176, 232
-0.989858, 121, 237, 184, 268
-0.989956, 241, 201, 368, 264
-0.990005, 25, 229, 88, 260
-0.99002, 313, 429, 375, 460
-0.990044, 109, 113, 140, 240
-0.990049, 89, 353, 152, 416
-0.990102, 233, 325, 296, 356
-0.990114, 49, 1, 112, 256
-0.990166, 177, 1, 240, 500
-0.990259, 341, 369, 372, 496
-0.990281, 137, 1, 200, 32
-0.990305, 161, 301, 224, 332
-0.990313, 81, 289, 144, 320
-0.990318, 173, 57, 204, 120
-0.990321, 313, 233, 344, 296
-0.990378, 129, 341, 192, 372
-0.990379, 129, 249, 192, 280
-0.990393, 77, 113, 108, 176
-0.990435, 269, 297, 300, 360
-0.990435, 1, 241, 64, 304
-0.990488, 25, 433, 88, 496
-0.99049, 113, 221, 176, 252
-0.990492, 249, 441, 312, 472
-0.990506, 153, 245, 216, 276
-0.990515, 193, 233, 256, 264
-0.990533, 121, 81, 184, 112
-0.990553, 1, 169, 128, 232
-0.990573, 317, 369, 348, 496
-0.990584, 73, 229, 136, 260
-0.990621, 17, 241, 48, 304
-0.990668, 237, 281, 268, 344
-0.990669, 265, 229, 328, 260
-0.990706, 113, 193, 144, 256
-0.990713, 33, 385, 96, 448
-0.990714, 177, 1, 208, 64
-0.99072, 57, 249, 120, 280
-0.990723, 193, 293, 256, 324
-0.990737, 1, 105, 256, 168
-0.99076, 21, 1, 52, 128
-0.99076, 185, 233, 216, 296
-0.990761, 137, 289, 200, 320
-0.990766, 65, 337, 320, 400
-0.990779, 89, 137, 120, 200
-0.990791, 121, 93, 184, 124
-0.990792, 33, 245, 96, 276
-0.990815, 1, 89, 128, 152
-0.990838, 57, 265, 120, 296
-0.990841, 97, 57, 160, 88
-0.990851, 169, 1, 232, 256
-0.990885, 261, 409, 292, 472
-0.99089, 25, 305, 56, 432
-0.990893, 57, 149, 120, 180
-0.990894, 225, 1, 288, 128
-0.990903, 129, 53, 192, 84
-0.990907, 1, 297, 375, 360
-0.990911, 97, 117, 160, 148
-0.990917, 97, 69, 160, 100
-0.990928, 121, 69, 184, 100
-0.99093, 161, 225, 224, 256
-0.990937, 105, 333, 168, 364
-0.990959, 125, 113, 156, 176
-0.990971, 97, 105, 160, 136
-0.990971, 281, 241, 344, 272
-0.991008, 21, 121, 52, 184
-0.991019, 301, 385, 332, 448
-0.991027, 113, 17, 176, 48
-0.991029, 145, 101, 208, 132
-0.991048, 313, 97, 375, 224
-0.991096, 169, 325, 232, 356
-0.991113, 1, 433, 64, 496
-0.991116, 65, 277, 128, 308
-0.991135, 97, 133, 160, 164
-0.991144, 97, 85, 160, 116
-0.991148, 257, 317, 320, 348
-0.991169, 153, 261, 216, 292
-0.991206, 129, 201, 192, 232
-0.991219, 153, 13, 216, 44
-0.991232, 145, 57, 272, 120
-0.991239, 225, 349, 288, 380
-0.991245, 281, 401, 344, 432
-0.991256, 33, 257, 96, 288
-0.99126, 137, 121, 200, 152
-0.991266, 89, 49, 120, 176
-0.991268, 153, 277, 216, 308
-0.991276, 241, 369, 304, 400
-0.991282, 193, 249, 256, 280
-0.991288, 233, 337, 296, 368
-0.99129, 137, 161, 200, 192
-0.991335, 281, 201, 344, 264
-0.991353, 113, 33, 176, 64
-0.991353, 73, 313, 136, 344
-0.991373, 257, 289, 288, 352
-0.991373, 305, 417, 368, 448
-0.991376, 249, 401, 312, 432
-0.991406, 273, 321, 304, 384
-0.991412, 89, 345, 152, 376
-0.991418, 193, 221, 256, 252
-0.991434, 313, 237, 375, 268
-0.991446, 281, 329, 344, 392
-0.991448, 17, 345, 144, 408
-0.991452, 89, 89, 120, 152
-0.991474, 97, 45, 160, 76
-0.991484, 281, 389, 344, 420
-0.991488, 241, 449, 368, 480
-0.991496, 225, 453, 288, 484
-0.991499, 217, 301, 280, 332
-0.991516, 17, 369, 48, 432
-0.991522, 153, 77, 216, 108
-0.991524, 105, 209, 168, 240
-0.991532, 193, 1, 224, 128
-0.991533, 145, 433, 272, 496
-0.991552, 97, 157, 160, 188
-0.991565, 193, 313, 256, 344
-0.991594, 65, 137, 128, 168
-0.991631, 45, 1, 76, 128
-0.991654, 153, 337, 216, 368
-0.991662, 17, 13, 80, 44
-0.991685, 9, 369, 40, 496
-0.991687, 97, 177, 160, 208
-0.99169, 137, 173, 200, 204
-0.991692, 65, 101, 128, 132
-0.991694, 97, 145, 160, 176
-0.991696, 17, 149, 80, 180
-0.991701, 225, 225, 288, 256
-0.991702, 137, 221, 200, 252
-0.991719, 137, 149, 200, 180
-0.991723, 129, 185, 192, 216
-0.99175, 57, 293, 120, 324
-0.991766, 249, 389, 312, 420
-0.991783, 57, 53, 120, 84
-0.991792, 313, 177, 375, 240
-0.991815, 65, 209, 320, 272
-0.991829, 113, 353, 176, 384
-0.991854, 273, 305, 304, 432
-0.991857, 257, 305, 320, 336
-0.991865, 121, 137, 184, 168
-0.991869, 97, 197, 160, 228
-0.991875, 161, 289, 224, 320
-0.991888, 17, 117, 80, 148
-0.991888, 225, 241, 288, 272
-0.991918, 33, 269, 96, 300
-0.991953, 1, 313, 256, 376
-0.991956, 89, 357, 152, 388
-0.991972, 313, 225, 375, 256
-0.991979, 209, 337, 272, 368
-0.991999, 161, 209, 224, 240
-0.992002, 313, 449, 344, 480
-0.992019, 33, 57, 96, 88
-0.992021, 65, 117, 128, 148
-0.992034, 305, 249, 368, 280
-0.992038, 65, 217, 128, 248
-0.99204, 293, 445, 324, 476
-0.992063, 161, 1, 224, 32
-0.992065, 153, 53, 216, 84
-0.992076, 313, 257, 375, 500
-0.992086, 17, 41, 80, 72
-0.992091, 185, 337, 248, 368
-0.992094, 277, 453, 308, 484
-0.992102, 345, 193, 375, 320
-0.992136, 29, 369, 60, 496
-0.992164, 125, 261, 156, 292
-0.992166, 153, 25, 216, 56
-0.992168, 209, 265, 272, 328
-0.992181, 153, 89, 216, 120
-0.992185, 193, 209, 224, 336
-0.992188, 73, 273, 104, 400
-0.992203, 185, 1, 248, 32
-0.992242, 9, 53, 72, 84
-0.992244, 85, 193, 116, 320
-0.992251, 141, 277, 172, 308
-0.992257, 309, 433, 340, 464
-0.992266, 109, 245, 140, 276
-0.992277, 209, 249, 336, 312
-0.992302, 49, 305, 112, 368
-0.992332, 329, 453, 360, 484
-0.992354, 233, 325, 264, 356
-0.992354, 41, 289, 72, 416
-0.992359, 333, 289, 364, 416
-0.992389, 249, 313, 280, 344
-0.99241, 277, 465, 308, 496
-0.992424, 113, 257, 144, 288
-0.992432, 305, 417, 336, 448
-0.992437, 141, 1, 172, 32
-0.992441, 277, 441, 308, 472
-0.992442, 313, 241, 344, 368
-0.992444, 241, 1, 368, 64
-0.992446, 89, 253, 120, 284
-0.992455, 109, 309, 140, 340
-0.992464, 261, 453, 292, 484
-0.992476, 77, 253, 108, 284
-0.992489, 113, 1, 144, 32
-0.9925, 293, 421, 324, 452
-0.992509, 13, 65, 44, 192
-0.992512, 25, 129, 56, 256
-0.992523, 249, 193, 312, 320
-0.99253, 1, 369, 128, 432
-0.99253, 1, 417, 128, 480
-0.992532, 97, 241, 352, 304
-0.992535, 137, 301, 168, 332
-0.992553, 129, 281, 160, 312
-0.99256, 101, 293, 132, 324
-0.992565, 145, 289, 176, 320
-0.992581, 321, 437, 352, 468
-0.992582, 297, 457, 328, 488
-0.99259, 217, 325, 248, 356
-0.992602, 93, 281, 124, 312
-0.992609, 149, 261, 180, 292
-0.992615, 157, 321, 188, 352
-0.992618, 161, 1, 192, 32
-0.992621, 65, 249, 96, 280
-0.992628, 133, 249, 164, 280
-0.99263, 125, 293, 156, 324
-0.992631, 101, 265, 132, 296
-0.992638, 73, 237, 104, 268
-0.992642, 137, 265, 168, 296
-0.992649, 249, 325, 280, 356
-0.992666, 269, 369, 300, 400
-0.992684, 1, 321, 128, 384
-0.992685, 109, 281, 140, 312
-0.992695, 133, 337, 164, 368
-0.992697, 85, 265, 116, 296
-0.992705, 157, 301, 188, 332
-0.992705, 145, 233, 176, 264
-0.992707, 293, 433, 324, 464
-0.992718, 33, 13, 64, 44
-0.99272, 17, 321, 80, 384
-0.992725, 113, 297, 144, 328
-0.99274, 289, 321, 320, 448
-0.992746, 193, 201, 320, 264
-0.992749, 341, 445, 372, 476
-0.99275, 165, 113, 196, 144
-0.992757, 97, 241, 128, 272
-0.992763, 141, 337, 172, 464
-0.992773, 185, 81, 248, 144
-0.992773, 249, 453, 280, 484
-0.992781, 313, 137, 375, 200
-0.992785, 117, 321, 148, 352
-0.992785, 81, 281, 112, 312
-0.992794, 261, 317, 292, 348
-0.992798, 313, 461, 344, 492
-0.992805, 121, 345, 152, 376
-0.992813, 125, 1, 156, 32
-0.992815, 323, 425, 338, 488
-0.992816, 41, 113, 72, 144
-0.992819, 33, 53, 64, 84
-0.992833, 173, 325, 204, 356
-0.992848, 13, 289, 44, 416
-0.992848, 261, 465, 292, 496
-0.992853, 201, 317, 232, 348
-0.992854, 93, 305, 124, 336
-0.992866, 121, 245, 152, 276
-0.99287, 281, 229, 312, 260
-0.992871, 57, 237, 88, 268
-0.992883, 333, 465, 364, 496
-0.992888, 149, 245, 180, 276
-0.992892, 101, 321, 132, 352
-0.992894, 89, 293, 120, 324
-0.9929, 197, 237, 228, 268
-0.992901, 221, 313, 252, 344
-0.992908, 145, 329, 176, 360
-0.992911, 37, 37, 68, 68
-0.992919, 113, 333, 144, 364
-0.992928, 245, 337, 276, 368
-0.99293, 97, 301, 224, 332
-0.992931, 113, 269, 144, 300
-0.992941, 65, 113, 96, 144
-0.992944, 233, 313, 264, 344
-0.992945, 105, 33, 136, 64
-0.992946, 297, 469, 328, 500
-0.992947, 121, 309, 152, 340
-0.992949, 73, 269, 104, 300
-0.99295, 345, 241, 375, 368
-0.992954, 201, 329, 232, 360
-0.992962, 173, 97, 204, 128
-0.992963, 105, 17, 136, 48
-0.992975, 33, 221, 64, 252
-0.99298, 85, 241, 116, 272
-0.992988, 105, 61, 136, 92
-0.992988, 269, 229, 300, 260
-0.992993, 201, 293, 232, 324
-0.992996, 113, 229, 144, 260
-0.993001, 125, 233, 156, 264
-0.993005, 129, 321, 160, 352
-0.993018, 89, 129, 120, 160
-0.993029, 1, 201, 375, 264
-0.993041, 269, 397, 300, 428
-0.993041, 181, 305, 212, 336
-0.993044, 265, 441, 296, 472
-0.99305, 89, 177, 152, 240
-0.993055, 105, 45, 136, 76
-0.993057, 161, 81, 192, 112
-0.993059, 165, 149, 196, 180
-0.993061, 241, 461, 368, 492
-0.993063, 293, 237, 324, 268
-0.993064, 133, 89, 164, 120
-0.993066, 169, 241, 200, 272
-0.993069, 25, 313, 56, 344
-0.99307, 1, 257, 256, 320
-0.993072, 105, 93, 136, 124
-0.993072, 213, 229, 244, 260
-0.993076, 165, 125, 196, 156
-0.993086, 145, 209, 176, 240
-0.993089, 145, 121, 176, 152
-0.993094, 133, 349, 164, 380
-0.993095, 181, 73, 212, 104
-0.993095, 161, 13, 192, 44
-0.993104, 289, 385, 320, 416
-0.993106, 105, 73, 136, 104
-0.993114, 129, 433, 375, 496
-0.993114, 157, 289, 188, 320
-0.993117, 145, 221, 176, 252
-0.993121, 37, 25, 68, 56
-0.993129, 29, 117, 60, 148
-0.993132, 145, 101, 176, 132
-0.993133, 65, 153, 96, 184
-0.993138, 145, 61, 176, 92
-0.993138, 125, 21, 156, 52
-0.993141, 141, 17, 172, 48
-0.993145, 129, 409, 375, 472
-0.993158, 89, 117, 120, 148
-0.993159, 193, 249, 224, 280
-0.993161, 213, 241, 244, 272
-0.993177, 161, 153, 224, 216
-0.993177, 53, 113, 84, 144
-0.993177, 345, 325, 375, 356
-0.993208, 225, 377, 288, 440
-0.993212, 225, 161, 288, 416
-0.993266, 1, 233, 256, 296
-0.993286, 265, 1, 328, 64
-0.993318, 295, 409, 310, 472
-0.993358, 145, 305, 272, 336
-0.993398, 49, 265, 176, 296
-0.993409, 1, 89, 64, 152
-0.993512, 65, 49, 96, 176
-0.993549, 97, 361, 352, 424
-0.993553, 193, 457, 320, 488
-0.993561, 97, 265, 352, 328
-0.993593, 313, 129, 375, 384
-0.993693, 241, 437, 368, 468
-0.993694, 1, 321, 375, 384
-0.993704, 101, 281, 116, 344
-0.993731, 161, 321, 288, 352
-0.993744, 113, 369, 176, 432
-0.993848, 65, 289, 192, 320
-0.993869, 249, 305, 264, 368
-0.993896, 17, 117, 144, 148
-0.993997, 41, 409, 104, 472
-0.993998, 261, 305, 276, 368
-0.994001, 83, 241, 98, 304
-0.994001, 113, 233, 128, 296
-0.994012, 153, 273, 168, 336
-0.994034, 193, 161, 256, 288
-0.994035, 95, 249, 110, 312
-0.994066, 311, 409, 326, 472
-0.994069, 255, 305, 270, 368
-0.994077, 1, 185, 256, 248
-0.994102, 81, 321, 208, 352
-0.99411, 81, 245, 208, 276
-0.994124, 121, 241, 136, 304
-0.99418, 129, 333, 256, 364
-0.994194, 287, 433, 302, 496
-0.994214, 329, 433, 344, 496
-0.994226, 161, 361, 224, 424
-0.994232, 1, 393, 128, 456
-0.994234, 161, 105, 288, 168
-0.994248, 107, 297, 122, 360
-0.994265, 157, 297, 172, 360
-0.994265, 1, 233, 375, 296
-0.99427, 203, 289, 218, 352
-0.994311, 119, 297, 134, 360
-0.994327, 241, 177, 368, 240
-0.994359, 317, 409, 332, 472
-0.994365, 113, 297, 128, 360
-0.994367, 93, 273, 108, 336
-0.9944, 109, 273, 124, 336
-0.994404, 17, 245, 144, 276
-0.994413, 237, 1, 268, 128
-0.994442, 1, 57, 256, 120
-0.994455, 129, 249, 144, 312
-0.994479, 121, 265, 136, 328
-0.994493, 1, 105, 375, 168
-0.994496, 233, 337, 264, 464
-0.994501, 49, 353, 112, 480
-0.994505, 243, 313, 258, 376
-0.994519, 33, 361, 96, 424
-0.994529, 129, 1, 144, 64
-0.994546, 115, 1, 130, 64
-0.994557, 121, 1, 136, 64
-0.994562, 9, 193, 72, 256
-0.994584, 89, 249, 104, 312
-0.99461, 177, 81, 304, 144
-0.994633, 1, 353, 375, 416
-0.994639, 193, 297, 208, 360
-0.994662, 137, 257, 152, 320
-0.994663, 145, 273, 160, 336
-0.994723, 129, 385, 375, 448
-0.99477, 65, 277, 192, 308
-0.994774, 101, 249, 116, 312
-0.994794, 129, 369, 256, 432
-0.994822, 273, 257, 304, 384
-0.994826, 171, 89, 186, 152
-0.994833, 195, 1, 210, 64
-0.994847, 17, 305, 144, 336
-0.994854, 143, 297, 158, 360
-0.994859, 49, 9, 176, 40
-0.994863, 209, 321, 336, 352
-0.994915, 301, 273, 332, 400
-0.994927, 189, 65, 220, 192
-0.994929, 125, 305, 140, 368
-0.994933, 77, 233, 92, 296
-0.994946, 1, 153, 256, 216
-0.994961, 81, 229, 208, 260
-0.994973, 199, 257, 214, 320
-0.994974, 97, 97, 128, 224
-0.995014, 65, 141, 192, 172
-0.995032, 33, 121, 48, 184
-0.995034, 47, 9, 62, 72
-0.995045, 65, 117, 192, 148
-0.995062, 1, 1, 256, 64
-0.995064, 81, 205, 208, 236
-0.995065, 1, 129, 256, 192
-0.995083, 97, 97, 224, 128
-0.995122, 137, 1, 152, 64
-0.995126, 145, 293, 272, 324
-0.99514, 65, 329, 128, 392
-0.995173, 1, 177, 375, 240
-0.995174, 17, 225, 144, 256
-0.995176, 81, 217, 208, 248
-0.995177, 17, 289, 144, 320
-0.995219, 49, 105, 176, 136
-0.995224, 129, 273, 144, 336
-0.995224, 299, 433, 314, 496
-0.995232, 97, 9, 224, 40
-0.995236, 273, 161, 336, 288
-0.995244, 173, 313, 188, 376
-0.995271, 361, 433, 375, 496
-0.995273, 133, 305, 148, 368
-0.995277, 169, 113, 184, 176
-0.995289, 163, 297, 178, 360
-0.995301, 129, 25, 144, 88
-0.995319, 209, 289, 224, 352
-0.995332, 115, 257, 130, 320
-0.995332, 145, 249, 272, 280
-0.995339, 17, 277, 144, 308
-0.995347, 163, 97, 178, 160
-0.995349, 49, 21, 176, 52
-0.995354, 151, 249, 166, 312
-0.995359, 163, 249, 178, 312
-0.995375, 181, 321, 196, 384
-0.995387, 1, 81, 256, 144
-0.995394, 281, 361, 296, 424
-0.995401, 301, 409, 316, 472
-0.995402, 1, 33, 256, 96
-0.995432, 169, 153, 184, 216
-0.995439, 65, 129, 192, 160
-0.995448, 41, 353, 72, 480
-0.995459, 81, 189, 208, 220
-0.995459, 289, 409, 304, 472
-0.995462, 225, 337, 352, 368
-0.995478, 323, 401, 338, 464
-0.995478, 209, 237, 336, 268
-0.995492, 33, 9, 48, 72
-0.995493, 129, 89, 375, 152
-0.995514, 133, 49, 148, 112
-0.995514, 65, 433, 192, 496
-0.995518, 1, 1, 375, 64
-0.995519, 43, 105, 58, 168
-0.995531, 75, 105, 90, 168
-0.995532, 345, 17, 375, 144
-0.995544, 1, 257, 128, 288
-0.995557, 49, 401, 176, 464
-0.995568, 199, 233, 214, 296
-0.995572, 107, 249, 122, 312
-0.995575, 1, 401, 375, 464
-0.99558, 159, 273, 174, 336
-0.995583, 139, 233, 154, 296
-0.995599, 97, 69, 224, 100
-0.995611, 151, 297, 166, 360
-0.995612, 335, 433, 350, 496
-0.995615, 169, 193, 184, 256
-0.99562, 355, 417, 370, 480
-0.995643, 41, 33, 56, 96
-0.995646, 225, 425, 352, 456
-0.99565, 97, 57, 224, 88
-0.995667, 167, 321, 182, 384
-0.995676, 113, 281, 240, 312
-0.995678, 97, 1, 352, 64
-0.995678, 17, 49, 144, 80
-0.995683, 285, 273, 316, 400
-0.995686, 267, 313, 282, 376
-0.995687, 225, 193, 288, 256
-0.99569, 181, 81, 196, 144
-0.995699, 97, 257, 224, 288
-0.995706, 237, 321, 252, 384
-0.995726, 133, 345, 148, 408
-0.995726, 241, 81, 368, 208
-0.995728, 65, 105, 80, 168
-0.995732, 17, 129, 144, 160
-0.995759, 255, 329, 270, 392
-0.995766, 1, 273, 375, 336
-0.99577, 145, 233, 272, 264
-0.995789, 145, 1, 160, 64
-0.995798, 217, 321, 232, 384
-0.995802, 223, 313, 238, 376
-0.995839, 127, 329, 142, 392
-0.995855, 193, 309, 320, 340
-0.995868, 59, 105, 74, 168
-0.995876, 69, 145, 84, 208
-0.995887, 135, 281, 150, 344
-0.995891, 185, 297, 200, 360
-0.995892, 139, 329, 154, 392
-0.995893, 133, 225, 164, 480
-0.995895, 157, 249, 172, 312
-0.995898, 267, 353, 282, 416
-0.995905, 341, 433, 356, 496
-0.995913, 209, 257, 224, 320
-0.995916, 161, 177, 288, 240
-0.995923, 51, 105, 66, 168
-0.995929, 81, 369, 208, 432
-0.995946, 173, 65, 188, 128
-0.995946, 155, 1, 170, 64
-0.995949, 107, 217, 122, 280
-0.995953, 249, 329, 264, 392
-0.995975, 139, 81, 154, 144
-0.995978, 177, 357, 304, 388
-0.995978, 201, 1, 264, 500
-0.995979, 235, 297, 250, 360
-0.995982, 71, 225, 86, 288
-0.995986, 115, 321, 130, 384
-0.995988, 203, 321, 218, 384
-0.995997, 177, 469, 304, 500
-0.996, 215, 289, 230, 352
-0.996, 1, 149, 128, 180
-0.996005, 313, 113, 375, 176
-0.996015, 1, 17, 128, 48
-0.996015, 121, 225, 152, 480
-0.996022, 37, 217, 52, 280
-0.996038, 265, 177, 296, 304
-0.99604, 33, 213, 160, 244
-0.996045, 211, 313, 226, 376
-0.996053, 135, 25, 150, 88
-0.996055, 317, 433, 332, 496
-0.996058, 49, 33, 176, 64
-0.996059, 33, 433, 288, 496
-0.996067, 347, 433, 362, 496
-0.996077, 175, 113, 190, 176
-0.996099, 81, 177, 208, 208
-0.996105, 17, 61, 144, 92
-0.996148, 1, 129, 375, 192
-0.996151, 131, 225, 146, 288
-0.996155, 193, 265, 208, 328
-0.996162, 145, 249, 160, 312
-0.996167, 271, 433, 286, 496
-0.996171, 241, 289, 256, 352
-0.996175, 35, 33, 50, 96
-0.996178, 161, 209, 176, 272
-0.996178, 97, 45, 224, 76
-0.996206, 17, 317, 144, 348
-0.996212, 145, 1, 272, 32
-0.996217, 1, 377, 375, 440
-0.996244, 113, 345, 240, 376
-0.996246, 161, 185, 176, 248
-0.996254, 281, 433, 296, 496
-0.996261, 209, 413, 336, 444
-0.996263, 81, 113, 96, 176
-0.996284, 47, 33, 62, 96
-0.99629, 37, 281, 52, 344
-0.996291, 177, 333, 304, 364
-0.996296, 145, 225, 160, 288
-0.996302, 241, 153, 368, 216
-0.99631, 229, 313, 244, 376
-0.996314, 225, 289, 240, 352
-0.996317, 111, 25, 126, 88
-0.996319, 37, 1, 68, 256
-0.996327, 121, 217, 136, 280
-0.99633, 1, 153, 375, 216
-0.996332, 101, 193, 132, 448
-0.996333, 249, 161, 312, 416
-0.99634, 209, 217, 224, 280
-0.996348, 81, 81, 208, 112
-0.996349, 153, 337, 184, 464
-0.996365, 159, 321, 174, 384
-0.996395, 65, 161, 192, 192
-0.996411, 209, 1, 336, 128
-0.996432, 145, 221, 272, 252
-0.996452, 145, 193, 176, 448
-0.996482, 193, 445, 320, 476
-0.996544, 49, 333, 176, 364
-0.996581, 241, 309, 368, 340
-0.996653, 161, 129, 288, 192
-0.996706, 109, 1, 140, 256
-0.996713, 1, 81, 375, 144
-0.996735, 129, 177, 375, 240
-0.996764, 241, 129, 368, 192
-0.996765, 209, 225, 336, 256
-0.996795, 323, 429, 338, 460
-0.99682, 1, 361, 256, 424
-0.99684, 297, 449, 312, 480
-0.996886, 145, 1, 176, 256
-0.996925, 1, 29, 128, 60
-0.996939, 77, 49, 108, 176
-0.996969, 49, 65, 80, 320
-0.996992, 229, 193, 260, 320
-0.996995, 165, 161, 196, 416
-0.997003, 129, 81, 256, 112
-0.997006, 193, 401, 320, 432
-0.997008, 41, 161, 72, 416
-0.997073, 319, 417, 334, 448
-0.997099, 327, 441, 342, 472
-0.997102, 345, 145, 375, 272
-0.997103, 129, 269, 256, 300
-0.997115, 121, 249, 136, 280
-0.997117, 113, 109, 240, 140
-0.997134, 297, 177, 328, 304
-0.997134, 145, 409, 272, 472
-0.997146, 79, 253, 94, 284
-0.99717, 33, 201, 160, 232
-0.99718, 177, 381, 304, 412
-0.997194, 49, 93, 176, 124
-0.9972, 33, 345, 160, 376
-0.99722, 133, 265, 148, 296
-0.997223, 85, 225, 116, 480
-0.997226, 69, 97, 100, 352
-0.997228, 177, 369, 304, 400
-0.997236, 319, 445, 334, 476
-0.997238, 129, 129, 160, 384
-0.997253, 241, 105, 368, 168
-0.997257, 97, 21, 224, 52
-0.997271, 177, 33, 304, 96
-0.997274, 73, 237, 88, 268
-0.997284, 89, 129, 120, 384
-0.997324, 97, 281, 112, 312
-0.997331, 295, 421, 310, 452
-0.997344, 93, 1, 124, 128
-0.99735, 109, 305, 124, 336
-0.997369, 193, 297, 320, 328
-0.997375, 291, 437, 306, 468
-0.997395, 213, 193, 244, 448
-0.997397, 145, 209, 272, 240
-0.997402, 111, 241, 126, 272
-0.997409, 129, 253, 144, 284
-0.997411, 137, 341, 152, 372
-0.997423, 257, 309, 272, 340
-0.997434, 21, 257, 52, 500
-0.997438, 313, 49, 375, 176
-0.997442, 249, 337, 264, 368
-0.997445, 241, 325, 256, 356
-0.997449, 143, 273, 158, 304
-0.997456, 145, 285, 160, 316
-0.997459, 153, 273, 168, 304
-0.997473, 87, 265, 102, 296
-0.997485, 241, 249, 368, 280
-0.997496, 165, 337, 196, 464
-0.9975, 117, 129, 148, 384
-0.997503, 139, 1, 154, 32
-0.997504, 175, 321, 190, 352
-0.997505, 263, 313, 278, 344
-0.997511, 57, 161, 88, 416
-0.997524, 97, 33, 224, 64
-0.997527, 315, 433, 330, 464
-0.99753, 113, 125, 240, 156
-0.997564, 93, 253, 108, 284
-0.997582, 197, 225, 228, 480
-0.997583, 169, 105, 184, 136
-0.997585, 261, 453, 276, 484
-0.997599, 147, 261, 162, 292
-0.997616, 85, 145, 116, 272
-0.997639, 121, 301, 136, 332
-0.997655, 251, 325, 266, 356
-0.997666, 129, 129, 375, 192
-0.997668, 1, 425, 375, 488
-0.997678, 17, 73, 144, 104
-0.99768, 313, 417, 328, 448
-0.99768, 281, 453, 296, 484
-0.997682, 333, 453, 348, 484
-0.997687, 113, 149, 240, 180
-0.997701, 157, 257, 188, 500
-0.997712, 1, 5, 128, 36
-0.997716, 175, 113, 190, 144
-0.997731, 115, 313, 130, 344
-0.997735, 119, 1, 134, 32
-0.997736, 127, 265, 142, 296
-0.997741, 133, 1, 148, 32
-0.997746, 103, 269, 118, 300
-0.997748, 193, 249, 320, 280
-0.997751, 199, 257, 214, 288
-0.997755, 103, 293, 118, 324
-0.997764, 333, 441, 348, 472
-0.997767, 325, 453, 340, 484
-0.997782, 165, 193, 180, 224
-0.997783, 209, 177, 240, 304
-0.997784, 155, 1, 170, 32
-0.99779, 153, 261, 168, 292
-0.997795, 1, 25, 375, 88
-0.997797, 271, 461, 286, 492
-0.997798, 353, 449, 368, 480
-0.997799, 49, 357, 176, 388
-0.997802, 215, 321, 230, 352
-0.997804, 161, 345, 288, 376
-0.997811, 1, 49, 375, 112
-0.997813, 129, 153, 375, 216
-0.997815, 129, 349, 144, 380
-0.997815, 305, 445, 320, 476
-0.99782, 85, 253, 100, 284
-0.997823, 257, 321, 272, 352
-0.997825, 339, 449, 354, 480
-0.997826, 361, 441, 375, 472
-0.99783, 125, 1, 140, 32
-0.997832, 241, 389, 368, 420
-0.997833, 273, 225, 304, 480
-0.997834, 141, 249, 156, 280
-0.997834, 127, 29, 142, 60
-0.997837, 269, 449, 284, 480
-0.997838, 251, 309, 266, 340
-0.997838, 313, 449, 328, 480
-0.99784, 185, 1, 200, 32
-0.997844, 133, 277, 148, 308
-0.99785, 159, 289, 174, 320
-0.997852, 33, 189, 160, 220
-0.997854, 241, 349, 368, 380
-0.997875, 113, 265, 128, 296
-0.997876, 147, 1, 162, 32
-0.997877, 307, 433, 322, 464
-0.997877, 129, 1, 160, 256
-0.997882, 111, 9, 126, 40
-0.997887, 345, 81, 375, 208
-0.997887, 29, 161, 60, 416
-0.997896, 199, 245, 214, 276
-0.997897, 113, 137, 240, 168
-0.997903, 109, 281, 124, 312
-0.997915, 115, 289, 130, 320
-0.997922, 291, 469, 306, 500
-0.997922, 169, 125, 184, 156
-0.997925, 69, 257, 100, 500
-0.997926, 33, 177, 160, 208
-0.997931, 17, 177, 48, 304
-0.997932, 129, 361, 144, 392
-0.997936, 171, 1, 186, 32
-0.997938, 285, 441, 300, 472
-0.997939, 167, 181, 182, 212
-0.997949, 241, 297, 368, 328
-0.99795, 135, 25, 150, 56
-0.997951, 209, 317, 224, 348
-0.997951, 107, 253, 122, 284
-0.997959, 113, 365, 240, 396
-0.99796, 135, 249, 150, 280
-0.997963, 171, 93, 186, 124
-0.997978, 183, 109, 198, 140
-0.997981, 173, 1, 204, 256
-0.997982, 307, 417, 322, 448
-0.99799, 5, 241, 36, 368
-0.997991, 223, 321, 238, 352
-0.997992, 67, 233, 82, 264
-0.997994, 149, 97, 180, 352
-0.997994, 241, 377, 368, 408
-0.997998, 141, 261, 156, 292
-0.998002, 101, 249, 116, 280
-0.998007, 285, 397, 300, 428
-0.998009, 287, 453, 302, 484
-0.99801, 301, 421, 316, 452
-0.998011, 43, 113, 58, 144
-0.998015, 233, 325, 248, 356
-0.998015, 153, 329, 168, 360
-0.998019, 79, 241, 94, 272
-0.998023, 149, 305, 164, 336
-0.998026, 91, 277, 106, 308
-0.998029, 147, 325, 162, 356
-0.998035, 127, 277, 142, 308
-0.998044, 129, 45, 144, 76
-0.998057, 285, 225, 300, 256
-0.99806, 283, 369, 298, 400
-0.998065, 137, 41, 152, 72
-0.998066, 145, 93, 272, 124
-0.998068, 87, 241, 102, 272
-0.998072, 113, 161, 240, 192
-0.998075, 325, 465, 340, 496
-0.99808, 35, 37, 50, 68
-0.998082, 151, 285, 166, 316
-0.998087, 161, 117, 176, 148
-0.99809, 89, 1, 120, 256
-0.998091, 33, 125, 48, 156
-0.998094, 145, 197, 272, 228
-0.998098, 159, 321, 174, 352
-0.998099, 163, 105, 178, 136
-0.998099, 167, 305, 182, 336
-0.998101, 165, 93, 180, 124
-0.998101, 133, 57, 148, 88
-0.998108, 169, 169, 184, 200
-0.998111, 35, 53, 50, 84
-0.998114, 155, 301, 170, 332
-0.998116, 35, 225, 50, 256
-0.998118, 47, 13, 62, 44
-0.998129, 123, 45, 138, 76
-0.99813, 269, 317, 284, 348
-0.99813, 121, 261, 136, 292
-0.998131, 41, 37, 56, 68
-0.998139, 165, 1, 180, 32
-0.998147, 295, 229, 310, 260
-0.99815, 127, 305, 142, 336
-0.998152, 173, 309, 188, 340
-0.998158, 25, 33, 56, 288
-0.998158, 249, 257, 280, 500
-0.998211, 341, 1, 372, 256
-0.998217, 145, 457, 272, 488
-0.998229, 261, 225, 292, 480
-0.998262, 241, 401, 368, 432
-0.998295, 1, 105, 128, 136
-0.998298, 233, 257, 264, 500
-0.998304, 129, 65, 375, 128
-0.998307, 33, 257, 64, 500
-0.998338, 185, 33, 216, 288
-0.998361, 285, 193, 316, 448
-0.998371, 289, 449, 352, 464
-0.998371, 249, 455, 312, 470
-0.998379, 185, 257, 216, 500
-0.998381, 273, 455, 336, 470
-0.99839, 241, 213, 368, 244
-0.99839, 145, 185, 272, 216
-0.998393, 1, 329, 128, 360
-0.998399, 105, 23, 136, 38
-0.998401, 105, 69, 136, 84
-0.998401, 89, 267, 120, 282
-0.998401, 165, 131, 196, 146
-0.998402, 145, 239, 176, 254
-0.998402, 145, 307, 176, 322
-0.998403, 145, 223, 176, 238
-0.998403, 225, 243, 256, 258
-0.998405, 149, 125, 180, 140
-0.998406, 261, 467, 292, 482
-0.998406, 309, 425, 340, 440
-0.998407, 105, 59, 136, 74
-0.998407, 109, 267, 140, 282
-0.998408, 201, 333, 232, 348
-0.998411, 165, 149, 196, 164
-0.998411, 301, 243, 332, 258
-0.998411, 261, 449, 292, 464
-0.998412, 297, 475, 328, 490
-0.998413, 205, 249, 236, 264
-0.998413, 157, 315, 188, 330
-0.998413, 85, 293, 116, 308
-0.998414, 273, 463, 336, 478
-0.998418, 341, 457, 372, 472
-0.998419, 153, 255, 184, 270
-0.998419, 269, 371, 300, 386
-0.99842, 145, 319, 176, 334
-0.99842, 281, 227, 312, 242
-0.99842, 125, 243, 156, 258
-0.998423, 61, 115, 92, 130
-0.998423, 165, 117, 196, 132
-0.998423, 97, 279, 128, 294
-0.998423, 37, 37, 68, 52
-0.998423, 89, 299, 120, 314
-0.998425, 289, 389, 320, 404
-0.998425, 269, 397, 300, 412
-0.998426, 117, 313, 148, 328
-0.998426, 69, 241, 100, 256
-0.998426, 97, 393, 224, 456
-0.998426, 161, 327, 192, 342
-0.998427, 265, 323, 296, 338
-0.998429, 329, 447, 360, 462
-0.998429, 209, 327, 272, 342
-0.99843, 313, 481, 344, 496
-0.998431, 33, 59, 64, 74
-0.998436, 73, 267, 104, 282
-0.998436, 269, 239, 300, 254
-0.998436, 193, 1, 224, 16
-0.998438, 33, 13, 64, 28
-0.998438, 225, 365, 352, 396
-0.998439, 113, 281, 144, 296
-0.99844, 97, 289, 160, 304
-0.99844, 149, 245, 180, 260
-0.998441, 193, 249, 224, 264
-0.998441, 121, 295, 184, 310
-0.998443, 281, 485, 312, 500
-0.998444, 109, 323, 140, 338
-0.998445, 37, 43, 68, 58
-0.998445, 37, 49, 68, 64
-0.998447, 273, 469, 336, 484
-0.998448, 105, 243, 136, 258
-0.998449, 113, 341, 144, 356
-0.998452, 97, 253, 128, 268
-0.998453, 301, 437, 332, 452
-0.998453, 241, 345, 272, 360
-0.998454, 25, 313, 56, 328
-0.998455, 169, 245, 200, 260
-0.998455, 153, 1, 184, 16
-0.998455, 141, 289, 172, 304
-0.998455, 309, 463, 340, 478
-0.998457, 41, 115, 72, 130
-0.998459, 113, 349, 144, 364
-0.99846, 289, 443, 352, 458
-0.99846, 249, 461, 312, 476
-0.998462, 173, 311, 204, 326
-0.998462, 101, 307, 132, 322
-0.998464, 281, 419, 344, 434
-0.998464, 105, 323, 168, 338
-0.998464, 185, 307, 216, 322
-0.998465, 137, 255, 168, 270
-0.998466, 41, 115, 104, 130
-0.998467, 109, 299, 140, 314
-0.998467, 157, 303, 188, 318
-0.998469, 141, 273, 172, 288
-0.998469, 81, 273, 112, 288
-0.998469, 69, 251, 100, 266
-0.998469, 297, 469, 328, 484
-0.998469, 233, 325, 296, 340
-0.99847, 293, 443, 324, 458
-0.99847, 285, 241, 316, 256
-0.998471, 313, 445, 375, 460
-0.998472, 113, 305, 144, 320
-0.998473, 253, 319, 284, 334
-0.998474, 105, 317, 136, 332
-0.998474, 333, 463, 364, 478
-0.998475, 341, 451, 372, 466
-0.998475, 121, 251, 184, 266
-0.998477, 293, 463, 324, 478
-0.998477, 117, 255, 148, 270
-0.998478, 89, 287, 120, 302
-0.998479, 119, 241, 134, 368
-0.99848, 105, 301, 168, 316
-0.998483, 129, 321, 192, 336
-0.998484, 145, 263, 176, 278
-0.998484, 33, 65, 64, 80
-0.998485, 273, 477, 336, 492
-0.998487, 141, 339, 172, 354
-0.998488, 105, 291, 136, 306
-0.998489, 81, 269, 144, 284
-0.99849, 145, 301, 176, 316
-0.99849, 133, 345, 164, 360
-0.998491, 97, 279, 160, 294
-0.998491, 313, 1, 375, 500
-0.998492, 125, 249, 156, 264
-0.998493, 281, 241, 344, 256
-0.998494, 89, 261, 120, 276
-0.998494, 129, 265, 160, 280
-0.998494, 233, 333, 264, 348
-0.998495, 81, 253, 144, 268
-0.998495, 73, 257, 104, 272
-0.998495, 81, 261, 144, 276
-0.998496, 309, 431, 340, 446
-0.998497, 277, 479, 308, 494
-0.998499, 313, 457, 344, 472
-0.998499, 85, 279, 116, 294
-0.9985, 293, 457, 324, 472
-0.9985, 289, 437, 352, 452
-0.9985, 113, 5, 176, 20
-0.998501, 113, 5, 144, 20
-0.998505, 121, 273, 184, 288
-0.998506, 161, 311, 224, 326
-0.998506, 121, 245, 184, 260
-0.998507, 201, 333, 264, 348
-0.998508, 249, 467, 312, 482
-0.998508, 153, 303, 216, 318
-0.998508, 109, 249, 140, 264
-0.998508, 153, 247, 216, 262
-0.998512, 329, 457, 360, 472
-0.998512, 249, 325, 280, 340
-0.998512, 121, 291, 152, 306
-0.998516, 101, 285, 132, 300
-0.998517, 97, 295, 160, 310
-0.998518, 293, 421, 324, 436
-0.998519, 113, 341, 176, 356
-0.99852, 97, 317, 160, 332
-0.998521, 249, 455, 280, 470
-0.998523, 121, 261, 184, 276
-0.998523, 281, 483, 344, 498
-0.998523, 313, 457, 375, 472
-0.998524, 225, 317, 288, 332
-0.998525, 313, 451, 375, 466
-0.998526, 137, 1, 200, 16
-0.998526, 125, 281, 156, 296
-0.998527, 1, 389, 128, 420
-0.998528, 177, 323, 240, 338
-0.998531, 261, 461, 292, 476
-0.998532, 125, 297, 156, 312
-0.998535, 141, 5, 172, 20
-0.998535, 97, 247, 160, 262
-0.998536, 145, 295, 176, 310
-0.998537, 1, 445, 128, 476
-0.998538, 133, 241, 148, 368
-0.998538, 73, 241, 136, 256
-0.99854, 313, 441, 344, 456
-0.998541, 257, 449, 320, 464
-0.998541, 313, 463, 375, 478
-0.998544, 281, 431, 344, 446
-0.998544, 281, 445, 312, 460
-0.998545, 277, 473, 308, 488
-0.998545, 113, 307, 176, 322
-0.998546, 85, 253, 116, 268
-0.998546, 225, 285, 352, 316
-0.998547, 117, 261, 148, 276
-0.998548, 121, 285, 184, 300
-0.998549, 121, 279, 184, 294
-0.998551, 193, 251, 256, 266
-0.998552, 25, 235, 88, 250
-0.998553, 113, 239, 176, 254
-0.998553, 169, 317, 232, 332
-0.998554, 237, 327, 268, 342
-0.998555, 249, 473, 312, 488
-0.998558, 257, 485, 320, 500
-0.998559, 141, 279, 172, 294
-0.998559, 25, 229, 88, 244
-0.998561, 317, 451, 348, 466
-0.998561, 113, 233, 176, 248
-0.998561, 121, 85, 184, 100
-0.998562, 121, 95, 184, 110
-0.998563, 161, 253, 224, 268
-0.998564, 249, 243, 312, 258
-0.998568, 129, 271, 160, 286
-0.998568, 145, 329, 208, 344
-0.99857, 217, 327, 248, 342
-0.998571, 193, 245, 256, 260
-0.998571, 217, 245, 280, 260
-0.998571, 1, 165, 128, 196
-0.998572, 137, 315, 200, 330
-0.998573, 297, 477, 360, 492
-0.998575, 313, 439, 375, 454
-0.998576, 277, 453, 308, 468
-0.998576, 113, 267, 176, 282
-0.998577, 161, 297, 224, 312
-0.998578, 129, 301, 192, 316
-0.99858, 65, 151, 128, 166
-0.99858, 97, 59, 160, 74
-0.998581, 73, 283, 136, 298
-0.998584, 281, 393, 344, 408
-0.998585, 257, 319, 320, 334
-0.998587, 57, 255, 120, 270
-0.998587, 73, 299, 136, 314
-0.998587, 169, 1, 232, 16
-0.998587, 97, 69, 160, 84
-0.998588, 121, 79, 184, 94
-0.998589, 1, 93, 128, 124
-0.99859, 89, 307, 152, 322
-0.99859, 153, 11, 216, 26
-0.99859, 73, 235, 136, 250
-0.998591, 309, 419, 340, 434
-0.998592, 97, 75, 160, 90
-0.998592, 297, 449, 328, 464
-0.998593, 73, 313, 136, 328
-0.998593, 113, 347, 176, 362
-0.998593, 305, 243, 368, 258
-0.998593, 157, 321, 188, 336
-0.998594, 273, 235, 336, 250
-0.998595, 105, 329, 168, 344
-0.998595, 113, 227, 176, 242
-0.998597, 241, 397, 304, 412
-0.998598, 305, 427, 368, 442
-0.998599, 145, 335, 208, 350
-0.998599, 97, 137, 160, 152
-0.998599, 105, 335, 168, 350
-0.9986, 1, 377, 128, 408
-0.9986, 97, 81, 160, 96
-0.9986, 73, 289, 136, 304
-0.998601, 113, 219, 176, 234
-0.998603, 97, 131, 160, 146
-0.998603, 97, 87, 160, 102
-0.998604, 313, 433, 375, 448
-0.998605, 277, 459, 308, 474
-0.998605, 121, 73, 184, 88
-0.998605, 277, 467, 308, 482
-0.998605, 73, 247, 136, 262
-0.998606, 161, 1, 192, 256
-0.998608, 137, 239, 200, 254
-0.998608, 145, 291, 208, 306
-0.998609, 313, 237, 375, 252
-0.998611, 129, 205, 192, 220
-0.998611, 97, 121, 160, 136
-0.998611, 193, 295, 256, 310
-0.998612, 113, 21, 176, 36
-0.998613, 97, 93, 160, 108
-0.998614, 305, 419, 368, 434
-0.998614, 265, 413, 328, 428
-0.998614, 73, 113, 136, 128
-0.998615, 281, 247, 344, 262
-0.998615, 125, 257, 140, 384
-0.998616, 161, 235, 224, 250
-0.998616, 17, 129, 48, 384
-0.998617, 249, 403, 312, 418
-0.998617, 241, 331, 304, 346
-0.998619, 177, 333, 240, 348
-0.998619, 201, 321, 264, 336
-0.998619, 129, 57, 192, 72
-0.99862, 153, 115, 216, 130
-0.99862, 241, 343, 304, 358
-0.998621, 261, 455, 292, 470
-0.998622, 297, 471, 360, 486
-0.998622, 121, 101, 184, 116
-0.998622, 129, 67, 192, 82
-0.998622, 97, 99, 160, 114
-0.998622, 25, 245, 88, 260
-0.998623, 145, 13, 272, 44
-0.998624, 301, 225, 332, 480
-0.998657, 75, 97, 90, 224
-0.998662, 241, 13, 368, 44
-0.998676, 97, 241, 112, 368
-0.998684, 109, 241, 124, 368
-0.998696, 145, 173, 272, 204
-0.998711, 69, 97, 84, 224
-0.998713, 345, 161, 375, 416
-0.998713, 209, 257, 224, 384
-0.998713, 105, 97, 136, 352
-0.998747, 47, 1, 62, 128
-0.998748, 139, 225, 154, 352
-0.998758, 139, 273, 154, 400
-0.998766, 59, 97, 74, 224
-0.998794, 131, 33, 146, 160
-0.998829, 169, 97, 184, 224
-0.99883, 129, 469, 256, 500
-0.998837, 47, 65, 62, 192
-0.998846, 1, 401, 128, 432
-0.998851, 163, 241, 178, 368
-0.998857, 61, 1, 92, 256
-0.998858, 145, 257, 160, 384
-0.998872, 177, 73, 304, 104
-0.998874, 87, 225, 102, 352
-0.998877, 117, 305, 132, 432
-0.998881, 125, 305, 140, 432
-0.998884, 169, 257, 200, 500
-0.998893, 137, 17, 152, 144
-0.998899, 237, 289, 252, 416
-0.998917, 177, 433, 304, 464
-0.998917, 1, 385, 256, 448
-0.998919, 283, 353, 298, 480
-0.998927, 193, 257, 208, 384
-0.998928, 111, 1, 126, 128
-0.998932, 69, 145, 84, 272
-0.998933, 145, 445, 272, 476
-0.998936, 35, 1, 50, 128
-0.99894, 123, 1, 138, 128
-0.998943, 233, 1, 296, 500
-0.998945, 53, 97, 68, 224
-0.998953, 131, 289, 146, 416
-0.998954, 107, 289, 122, 416
-0.998955, 145, 57, 272, 88
-0.998966, 103, 241, 118, 368
-0.998966, 145, 29, 272, 60
-0.998976, 5, 257, 36, 500
-0.998986, 203, 257, 218, 384
-0.99899, 177, 129, 208, 384
-0.998993, 151, 225, 166, 352
-0.998998, 169, 289, 184, 416
-0.999003, 157, 241, 172, 368
-0.999016, 13, 1, 44, 256
-0.999016, 181, 1, 196, 128
-0.999044, 39, 49, 54, 176
-0.999045, 221, 273, 236, 400
-0.999056, 41, 97, 56, 224
-0.999059, 33, 65, 48, 192
-0.999059, 81, 97, 96, 224
-0.999065, 177, 49, 192, 176
-0.999065, 143, 1, 158, 128
-0.999066, 203, 305, 218, 432
-0.999069, 231, 273, 246, 400
-0.999069, 241, 265, 368, 296
-0.999076, 125, 209, 140, 336
-0.999087, 33, 241, 48, 368
-0.999094, 113, 193, 128, 320
-0.999094, 251, 289, 266, 416
-0.999096, 179, 113, 194, 240
-0.999101, 175, 1, 190, 128
-0.999103, 1, 429, 128, 460
-0.999105, 145, 209, 160, 336
-0.999124, 215, 273, 230, 400
-0.999126, 241, 201, 368, 232
-0.999128, 175, 289, 190, 416
-0.999132, 171, 177, 186, 304
-0.999132, 209, 305, 224, 432
-0.999136, 183, 49, 198, 176
-0.999139, 139, 65, 154, 192
-0.999142, 243, 305, 258, 432
-0.999144, 59, 145, 74, 272
-0.999145, 191, 305, 206, 432
-0.999152, 193, 5, 320, 36
-0.999157, 161, 193, 176, 320
-0.99916, 53, 49, 68, 176
-0.999162, 129, 33, 375, 96
-0.999166, 257, 289, 272, 416
-0.99917, 1, 417, 128, 448
-0.999181, 105, 193, 120, 320
-0.999183, 1, 457, 128, 488
-0.999184, 183, 321, 198, 448
-0.999186, 197, 321, 212, 448
-0.999186, 161, 133, 288, 164
-0.999191, 193, 1, 320, 64
-0.999193, 231, 225, 246, 352
-0.999194, 139, 321, 154, 448
-0.999202, 45, 257, 76, 500
-0.999203, 299, 369, 314, 496
-0.999204, 187, 241, 202, 368
-0.999215, 151, 273, 166, 400
-0.999217, 131, 81, 146, 208
-0.999218, 241, 241, 256, 368
-0.999219, 133, 193, 148, 320
-0.99922, 119, 193, 134, 320
-0.99922, 321, 369, 336, 496
-0.999224, 189, 1, 204, 128
-0.999225, 199, 209, 214, 336
-0.999225, 203, 1, 218, 128
-0.999226, 313, 369, 328, 496
-0.99923, 193, 57, 320, 120
-0.999233, 79, 225, 94, 352
-0.999234, 41, 1, 56, 128
-0.999237, 265, 337, 280, 464
-0.999237, 41, 209, 56, 336
-0.999238, 307, 369, 322, 496
-0.999238, 161, 145, 176, 272
-0.999241, 159, 81, 174, 208
-0.999244, 293, 209, 308, 336
-0.999244, 319, 241, 334, 368
-0.999247, 139, 177, 154, 304
-0.999248, 361, 177, 375, 304
-0.99925, 161, 289, 176, 416
-0.999252, 215, 321, 230, 448
-0.999255, 117, 1, 132, 128
-0.999257, 149, 1, 164, 128
-0.99926, 75, 145, 90, 272
-0.999269, 353, 305, 368, 432
-0.999272, 147, 321, 162, 448
-0.999277, 147, 81, 162, 208
-0.99928, 39, 273, 54, 400
-0.999281, 169, 241, 184, 368
-0.999287, 57, 257, 88, 500
-0.999287, 289, 369, 304, 496
-0.999291, 345, 257, 375, 500
-0.999297, 265, 209, 280, 336
-0.999303, 277, 353, 292, 480
-0.999307, 157, 1, 172, 128
-0.999314, 123, 49, 138, 176
-0.999314, 247, 241, 262, 368
-0.999323, 279, 305, 294, 432
-0.999329, 53, 145, 68, 272
-0.999334, 131, 337, 146, 464
-0.999336, 101, 289, 116, 416
-0.999343, 227, 321, 242, 448
-0.999343, 361, 257, 375, 384
-0.999343, 355, 369, 370, 496
-0.999344, 313, 225, 328, 352
-0.999345, 165, 1, 180, 128
-0.999346, 329, 1, 360, 256
-0.999352, 169, 49, 184, 176
-0.999354, 259, 353, 274, 480
-0.999355, 331, 369, 346, 496
-0.999361, 225, 225, 240, 352
-0.999363, 29, 289, 44, 416
-0.999364, 197, 65, 212, 192
-0.99937, 263, 289, 278, 416
-0.999371, 215, 225, 230, 352
-0.999371, 221, 321, 236, 448
-0.999376, 69, 241, 84, 368
-0.999378, 91, 273, 106, 400
-0.99938, 153, 321, 168, 448
-0.999415, 1, 409, 256, 472
-0.999515, 313, 257, 344, 500
-0.999563, 229, 161, 260, 416
-0.999577, 185, 81, 248, 208
-0.999598, 157, 301, 172, 316
-0.999599, 295, 485, 310, 500
-0.999599, 205, 1, 220, 16
-0.9996, 257, 329, 272, 344
-0.999601, 271, 467, 286, 482
-0.999601, 185, 13, 200, 28
-0.999602, 43, 115, 58, 130
-0.999603, 197, 33, 228, 288
-0.999603, 63, 235, 78, 250
-0.999604, 285, 399, 300, 414
-0.999604, 69, 153, 84, 168
-0.999605, 97, 285, 112, 300
-0.999606, 267, 325, 282, 340
-0.999606, 175, 327, 190, 342
-0.999606, 147, 1, 162, 16
-0.999607, 139, 1, 154, 16
-0.999608, 225, 225, 240, 240
-0.999608, 83, 249, 98, 264
-0.999609, 313, 417, 328, 432
-0.999609, 169, 109, 184, 124
-0.99961, 119, 307, 134, 322
-0.999612, 313, 451, 328, 466
-0.999612, 325, 461, 340, 476
-0.999612, 193, 303, 208, 318
-0.999612, 189, 249, 204, 264
-0.999613, 179, 1, 194, 16
-0.999613, 111, 11, 126, 26
-0.999614, 281, 455, 296, 470
-0.999615, 143, 277, 158, 292
-0.999615, 133, 289, 148, 304
-0.999616, 121, 257, 136, 272
-0.999616, 165, 197, 180, 212
-0.999617, 127, 355, 142, 370
-0.999617, 289, 243, 304, 258
-0.999618, 33, 125, 48, 140
-0.999618, 361, 443, 375, 458
-0.999619, 111, 251, 126, 266
-0.999619, 151, 319, 166, 334
-0.99962, 137, 35, 152, 50
-0.99962, 151, 283, 166, 298
-0.99962, 169, 189, 184, 204
-0.999621, 127, 349, 142, 364
-0.999621, 185, 5, 200, 20
-0.999622, 303, 443, 318, 458
-0.999624, 125, 265, 140, 280
-0.999624, 115, 301, 130, 316
-0.999626, 329, 445, 344, 460
-0.999626, 131, 33, 146, 48
-0.999627, 283, 241, 298, 256
-0.999627, 113, 319, 128, 334
-0.999628, 205, 251, 220, 266
-0.999628, 313, 243, 328, 258
-0.999629, 131, 39, 146, 54
-0.99963, 297, 459, 312, 474
-0.999631, 341, 459, 356, 474
-0.999632, 221, 325, 236, 340
-0.999632, 353, 457, 368, 472
-0.999633, 169, 115, 184, 130
-0.999633, 129, 259, 144, 274
-0.999634, 289, 445, 304, 460
-0.999635, 109, 243, 124, 258
-0.999635, 29, 313, 44, 328
-0.999636, 101, 251, 116, 266
-0.999636, 311, 431, 326, 446
-0.999636, 131, 23, 146, 38
-0.999637, 307, 421, 322, 436
-0.999637, 133, 271, 148, 286
-0.999637, 313, 437, 328, 452
-0.99964, 195, 1, 210, 16
-0.99964, 101, 299, 116, 314
-0.99964, 143, 283, 158, 298
-0.999641, 333, 453, 348, 468
-0.999641, 143, 339, 158, 354
-0.999642, 137, 265, 152, 280
-0.999643, 125, 279, 140, 294
-0.999644, 125, 3, 140, 18
-0.999645, 111, 3, 126, 18
-0.999645, 291, 451, 306, 466
-0.999646, 69, 237, 84, 252
-0.999646, 171, 315, 186, 330
-0.999649, 85, 271, 100, 286
-0.999652, 123, 249, 138, 264
-0.999652, 245, 331, 260, 346
-0.999653, 159, 295, 174, 310
-0.999654, 109, 313, 124, 328
-0.999655, 233, 329, 248, 344
-0.999655, 247, 345, 262, 360
-0.999656, 165, 1, 180, 16
-0.999657, 307, 449, 322, 464
-0.999657, 97, 291, 112, 306
-0.999659, 145, 265, 160, 280
-0.999659, 143, 289, 158, 304
-0.999659, 73, 247, 88, 262
-0.99966, 105, 305, 120, 320
-0.99966, 91, 281, 106, 296
-0.99966, 271, 451, 286, 466
-0.999663, 83, 265, 98, 280
-0.999666, 101, 277, 116, 292
-0.999667, 149, 295, 164, 310
-0.999669, 133, 281, 148, 296
-0.99967, 299, 449, 314, 464
-0.99967, 131, 265, 146, 280
-0.999671, 139, 297, 154, 312
-0.999672, 323, 443, 338, 458
-0.999672, 267, 319, 282, 334
-0.999673, 315, 445, 330, 460
-0.999674, 133, 1, 148, 16
-0.999678, 89, 257, 104, 272
-0.999678, 227, 327, 242, 342
-0.99968, 199, 251, 214, 266
-0.999683, 261, 323, 276, 338
-0.999685, 137, 345, 152, 360
-0.999685, 199, 257, 214, 272
-0.999685, 295, 443, 310, 458
-0.999685, 155, 1, 170, 16
-0.999687, 271, 461, 286, 476
-0.999689, 107, 287, 122, 302
-0.999693, 171, 321, 186, 336
-0.999694, 77, 253, 92, 268
-0.999694, 251, 325, 266, 340
-0.999695, 139, 271, 154, 286
-0.999698, 295, 421, 310, 436
-0.999699, 323, 437, 338, 452
-0.999704, 79, 259, 94, 274
-0.999718, 117, 247, 132, 262
-0.999722, 149, 273, 164, 288
-0.999725, 323, 449, 338, 464
-0.999728, 319, 417, 334, 432
-0.999735, 321, 431, 336, 446
-0.999735, 261, 455, 276, 470
-0.999744, 241, 325, 256, 340
-0.999885, 161, 369, 224, 496
-0.999888, 329, 257, 360, 500
-0.99989, 245, 161, 276, 416
-0.999891, 269, 129, 300, 384
-0.99995, 161, 153, 288, 216
-0.999958, 297, 129, 328, 384
-0.999991, 241, 81, 368, 144
-1.00005, 77, 1, 108, 256
-1.0001, 193, 145, 320, 272
-1.00019, 89, 369, 152, 496
-1.00023, 313, 1, 375, 128
-1.00028, 1, 129, 32, 384
-1.00043, 317, 1, 348, 256
-1.0005, 193, 129, 224, 384
-1.0005, 285, 97, 316, 352
-1.00064, 257, 129, 288, 384
-1.00071, 333, 129, 364, 384
-1.00073, 317, 129, 348, 384
-1.00075, 225, 145, 288, 272
-1.00098, 209, 97, 240, 352
-1.00112, 1, 33, 32, 288
-1.00139, 257, 1, 320, 500
-1.00141, 265, 33, 296, 288
-1.00142, 209, 1, 240, 256
-1.00145, 281, 129, 344, 384
-1.00146, 249, 33, 280, 288
-1.00146, 229, 33, 260, 288
-1.00158, 301, 33, 332, 288
-1.00195, 281, 1, 312, 256
-1.00196, 193, 369, 256, 496
-1.00281, 281, 1, 344, 500
-1.00305, 225, 33, 352, 96
-1.00406, 201, 1, 264, 256
-1.00438, 241, 57, 368, 120
-1.00605, 249, 145, 312, 272
-1.0062, 185, 97, 248, 352
-1.00676, 225, 65, 288, 320
-1.00737, 289, 1, 352, 256
-1.00803, 249, 65, 312, 320
-1.01075, 249, 1, 312, 128
-1.01399, 209, 49, 272, 176
-1.01445, 281, 97, 344, 224
-1.01471, 233, 81, 296, 208
-1.01471, 257, 81, 320, 208
-1.01478, 273, 1, 336, 128
-1.01478, 289, 49, 352, 176
-1.01867, 209, 97, 272, 224
