1966
-0.560427, 1, 1, 500, 375
-0.580634, 1, 33, 500, 288
-0.596586, 1, 129, 500, 375
-0.614368, 193, 1, 448, 375
-0.621571, 1, 1, 256, 375
-0.750981, 65, 129, 320, 375
-0.788316, 97, 1, 352, 375
-0.814617, 161, 129, 416, 375
-0.870007, 1, 33, 256, 288
-0.891641, 193, 33, 448, 288
-0.895502, 161, 129, 288, 375
-0.896243, 97, 1, 224, 375
-0.904143, 81, 97, 208, 352
-0.905204, 145, 1, 272, 375
-0.906749, 49, 1, 176, 375
-0.911304, 257, 129, 500, 375
-0.919936, 97, 33, 352, 288
-0.923369, 337, 1, 464, 375
-0.924267, 81, 1, 208, 256
-0.925215, 17, 1, 144, 256
-0.928021, 129, 1, 256, 256
-0.928466, 337, 1, 464, 256
-0.929207, 33, 97, 160, 352
-0.929424, 193, 1, 320, 375
-0.932061, 241, 97, 368, 352
-0.93236, 1, 1, 128, 375
-0.933621, 241, 1, 368, 375
-0.93563, 1, 193, 500, 320
-0.940106, 1, 17, 500, 144
-0.942315, 1, 145, 500, 272
-0.943511, 289, 1, 416, 375
-0.946296, 65, 145, 320, 272
-0.946927, 1, 241, 500, 368
-0.947288, 209, 1, 336, 256
-0.950927, 369, 129, 496, 375
-0.950991, 65, 193, 320, 320
-0.951208, 161, 193, 416, 320
-0.953883, 289, 65, 416, 320
-0.954857, 1, 65, 500, 192
-0.955131, 1, 97, 256, 224
-0.955165, 225, 129, 480, 256
-0.955248, 161, 161, 288, 288
-0.962426, 217, 177, 280, 304
-0.962897, 129, 241, 384, 368
-0.966114, 105, 89, 168, 152
-0.967659, 129, 97, 384, 224
-0.967802, 81, 97, 208, 224
-0.967959, 81, 161, 208, 288
-0.96842, 1, 33, 256, 160
-0.96913, 225, 241, 480, 368
-0.969859, 49, 49, 176, 176
-0.970239, 129, 113, 256, 240
-0.970791, 161, 129, 224, 256
-0.971297, 257, 1, 500, 128
-0.971992, 185, 145, 248, 272
-0.97261, 121, 49, 184, 176
-0.973907, 121, 97, 184, 224
-0.974083, 137, 113, 200, 176
-0.974127, 97, 97, 160, 224
-0.97445, 257, 145, 384, 272
-0.974525, 209, 193, 336, 320
-0.975401, 209, 169, 272, 232
-0.975592, 33, 1, 160, 128
-0.975738, 129, 49, 384, 176
-0.975767, 249, 225, 312, 352
-0.976137, 161, 209, 224, 336
-0.976236, 129, 89, 192, 152
-0.976336, 1, 177, 128, 304
-0.976967, 369, 1, 496, 128
-0.977718, 1, 241, 256, 368
-0.977781, 81, 73, 144, 136
-0.978056, 177, 153, 240, 216
-0.978377, 145, 241, 272, 368
-0.978401, 105, 65, 168, 128
-0.978631, 137, 161, 200, 288
-0.978635, 81, 209, 208, 336
-0.978668, 257, 193, 500, 320
-0.979109, 89, 33, 152, 160
-0.979321, 225, 233, 288, 296
-0.979611, 33, 97, 160, 224
-0.97967, 153, 153, 216, 216
-0.979679, 225, 81, 480, 208
-0.979723, 353, 1, 416, 64
-0.980298, 49, 105, 176, 168
-0.980451, 225, 97, 352, 224
-0.980652, 1, 225, 128, 352
-0.980712, 409, 1, 472, 128
-0.980913, 81, 97, 144, 160
-0.981051, 225, 241, 352, 368
-0.981231, 145, 161, 272, 224
-0.981325, 25, 1, 88, 128
-0.981405, 257, 193, 384, 320
-0.981466, 161, 177, 224, 240
-0.981813, 9, 1, 72, 64
-0.981973, 209, 193, 272, 256
-0.982023, 377, 1, 440, 64
-0.98217, 245, 177, 276, 304
-0.982176, 177, 225, 304, 288
-0.982215, 185, 265, 248, 328
-0.982382, 145, 81, 208, 208
-0.982618, 185, 193, 248, 320
-0.982618, 225, 225, 288, 352
-0.982618, 369, 145, 496, 272
-0.982676, 97, 1, 352, 128
-0.982857, 49, 81, 176, 144
-0.982944, 145, 209, 208, 272
-0.983017, 257, 1, 384, 128
-0.983358, 313, 1, 376, 64
-0.983427, 241, 177, 304, 304
-0.98363, 257, 241, 320, 304
-0.983636, 153, 113, 184, 176
-0.98366, 337, 65, 464, 192
-0.983679, 169, 65, 232, 192
-0.983872, 65, 169, 128, 232
-0.984354, 177, 201, 304, 264
-0.984387, 1, 193, 64, 256
-0.984434, 201, 129, 264, 375
-0.98461, 157, 97, 188, 224
-0.984768, 153, 249, 216, 312
-0.984797, 109, 81, 140, 144
-0.984895, 377, 1, 440, 128
-0.985012, 97, 113, 224, 176
-0.985056, 1, 1, 64, 128
-0.98509, 257, 217, 320, 280
-0.985108, 169, 225, 232, 288
-0.985121, 353, 1, 416, 128
-0.985257, 257, 49, 384, 176
-0.985367, 97, 65, 160, 320
-0.985398, 305, 113, 432, 240
-0.985478, 313, 1, 376, 128
-0.98562, 209, 129, 272, 256
-0.985895, 257, 129, 320, 256
-0.98594, 417, 1, 480, 64
-0.986057, 169, 129, 232, 192
-0.986175, 105, 113, 168, 176
-0.986176, 161, 97, 224, 352
-0.986212, 337, 193, 464, 320
-0.986299, 321, 1, 448, 128
-0.986322, 1, 161, 64, 288
-0.986472, 233, 257, 296, 320
-0.986636, 9, 289, 72, 352
-0.986684, 133, 89, 164, 152
-0.986725, 9, 257, 72, 320
-0.986819, 129, 137, 256, 200
-0.986989, 409, 129, 472, 192
-0.987015, 169, 201, 232, 264
-0.987023, 49, 25, 176, 88
-0.987031, 25, 49, 88, 176
-0.987227, 65, 145, 128, 272
-0.987232, 201, 241, 264, 368
-0.987325, 297, 25, 360, 88
-0.987325, 113, 89, 240, 152
-0.987603, 305, 241, 432, 368
-0.987603, 393, 161, 456, 224
-0.987671, 209, 153, 240, 216
-0.987733, 269, 233, 300, 296
-0.98785, 57, 73, 120, 136
-0.9881, 229, 161, 260, 288
-0.988103, 65, 169, 192, 232
-0.988138, 129, 137, 192, 200
-0.988238, 225, 153, 352, 216
-0.988253, 425, 97, 488, 160
-0.988287, 1, 73, 128, 136
-0.988333, 49, 49, 112, 176
-0.988346, 209, 273, 272, 336
-0.9884, 81, 41, 144, 104
-0.988506, 233, 169, 264, 232
-0.988543, 41, 169, 104, 232
-0.988594, 273, 209, 336, 336
-0.988604, 425, 145, 488, 272
-0.988617, 33, 17, 96, 80
-0.988642, 49, 305, 112, 368
-0.98865, 337, 1, 464, 64
-0.98873, 137, 209, 200, 336
-0.988741, 145, 249, 272, 312
-0.988742, 257, 217, 384, 280
-0.988818, 169, 145, 200, 272
-0.988821, 49, 1, 112, 128
-0.988828, 345, 233, 408, 296
-0.988857, 113, 101, 176, 132
-0.98896, 65, 1, 128, 64
-0.989038, 9, 41, 72, 104
-0.989051, 385, 65, 448, 192
-0.98908, 81, 137, 208, 200
-0.989171, 145, 89, 176, 152
-0.98919, 241, 257, 368, 320
-0.989205, 265, 209, 296, 336
-0.989233, 97, 73, 128, 136
-0.989243, 289, 1, 352, 128
-0.989257, 49, 145, 112, 208
-0.989279, 145, 81, 176, 208
-0.9893, 249, 193, 312, 256
-0.989328, 9, 313, 72, 375
-0.989329, 121, 89, 152, 152
-0.989331, 121, 177, 184, 240
-0.98935, 105, 41, 168, 104
-0.989358, 1, 1, 128, 64
-0.989365, 49, 57, 176, 120
-0.989408, 97, 65, 224, 128
-0.989467, 249, 169, 312, 232
-0.989523, 249, 241, 280, 304
-0.989571, 265, 209, 296, 272
-0.989615, 129, 65, 256, 192
-0.989635, 1, 289, 128, 352
-0.98964, 129, 65, 192, 128
-0.989654, 253, 241, 284, 368
-0.989696, 65, 33, 128, 288
-0.989703, 257, 265, 320, 328
-0.98979, 89, 101, 152, 132
-0.989885, 241, 145, 304, 208
-0.989926, 393, 113, 456, 240
-0.989928, 161, 89, 224, 152
-0.989932, 113, 17, 240, 144
-0.989934, 253, 265, 284, 328
-0.989939, 1, 313, 128, 375
-0.989943, 1, 113, 64, 240
-0.989953, 385, 129, 448, 192
-0.990004, 169, 161, 200, 224
-0.990057, 193, 233, 256, 296
-0.990062, 313, 65, 376, 192
-0.990152, 81, 193, 208, 256
-0.990209, 1, 65, 64, 192
-0.990253, 33, 145, 96, 272
-0.990338, 209, 145, 336, 272
-0.990349, 337, 241, 400, 368
-0.990374, 209, 1, 272, 375
-0.990379, 233, 113, 296, 240
-0.990459, 121, 33, 152, 160
-0.99046, 97, 137, 160, 200
-0.990474, 433, 1, 496, 128
-0.990479, 33, 97, 96, 224
-0.990526, 337, 137, 464, 200
-0.990535, 1, 49, 128, 176
-0.990555, 137, 129, 200, 375
-0.990573, 1, 25, 128, 88
-0.990574, 289, 1, 352, 64
-0.990606, 33, 41, 96, 104
-0.990639, 113, 1, 176, 375
-0.990649, 129, 113, 192, 144
-0.99067, 321, 105, 384, 168
-0.99067, 49, 201, 112, 264
-0.99067, 9, 225, 72, 352
-0.990735, 297, 305, 360, 368
-0.990786, 241, 193, 368, 256
-0.990809, 353, 129, 416, 192
-0.990818, 177, 225, 208, 352
-0.990839, 89, 161, 120, 224
-0.990849, 1, 209, 128, 272
-0.990864, 1, 257, 128, 320
-0.990866, 345, 65, 408, 192
-0.990881, 425, 153, 488, 216
-0.990941, 145, 1, 208, 375
-0.990941, 169, 1, 232, 375
-0.990971, 313, 113, 376, 240
-0.991025, 245, 185, 276, 248
-0.991035, 1, 233, 64, 296
-0.991085, 121, 33, 184, 288
-0.991089, 209, 129, 336, 192
-0.991227, 385, 241, 448, 304
-0.991245, 1, 121, 64, 184
-0.991277, 153, 177, 184, 304
-0.991291, 37, 1, 68, 64
-0.991347, 97, 89, 160, 120
-0.991388, 9, 65, 72, 128
-0.991434, 33, 105, 96, 168
-0.991446, 81, 217, 208, 280
-0.991501, 1, 145, 128, 208
-0.991515, 53, 1, 84, 128
-0.991523, 353, 25, 416, 88
-0.991579, 137, 101, 200, 132
-0.991589, 377, 1, 440, 32
-0.991609, 245, 209, 276, 272
-0.99164, 393, 1, 456, 256
-0.991646, 385, 161, 448, 288
-0.99169, 177, 157, 240, 188
-0.991693, 185, 249, 216, 312
-0.991696, 201, 145, 264, 208
-0.991749, 133, 49, 164, 176
-0.99177, 1, 233, 128, 296
-0.991771, 225, 257, 288, 288
-0.991785, 353, 1, 416, 32
-0.991796, 257, 121, 384, 184
-0.991876, 273, 65, 336, 192
-0.991894, 221, 169, 252, 232
-0.99194, 209, 185, 272, 216
-0.991976, 133, 65, 164, 128
-0.991978, 97, 241, 224, 304
-0.991979, 81, 113, 144, 144
-0.991984, 89, 161, 152, 224
-0.991999, 137, 89, 200, 120
-0.992033, 9, 329, 72, 360
-0.992037, 401, 25, 464, 88
-0.992074, 97, 97, 128, 160
-0.992075, 201, 173, 264, 204
-0.992077, 393, 209, 456, 336
-0.992094, 73, 165, 136, 196
-0.9921, 105, 113, 168, 144
-0.992113, 121, 65, 152, 128
-0.992123, 377, 201, 440, 264
-0.992138, 297, 161, 360, 288
-0.992138, 33, 209, 96, 336
-0.992145, 153, 185, 184, 248
-0.99216, 289, 305, 416, 368
-0.992164, 193, 249, 320, 312
-0.992172, 105, 53, 168, 84
-0.992172, 153, 253, 216, 284
-0.992176, 417, 225, 480, 288
-0.99218, 129, 125, 192, 156
-0.992224, 217, 197, 280, 228
-0.992245, 353, 1, 416, 256
-0.992249, 241, 173, 304, 204
-0.992257, 65, 101, 128, 132
-0.992259, 177, 97, 304, 224
-0.99227, 81, 49, 144, 80
-0.992292, 201, 273, 264, 304
-0.992297, 105, 77, 168, 108
-0.992304, 409, 1, 472, 32
-0.992307, 225, 237, 288, 268
-0.992312, 137, 141, 200, 172
-0.992325, 425, 141, 488, 172
-0.992332, 49, 1, 176, 64
-0.992346, 1, 257, 64, 288
-0.992373, 213, 145, 244, 272
-0.992378, 193, 273, 320, 336
-0.992392, 433, 121, 496, 184
-0.992393, 105, 153, 168, 184
-0.992403, 145, 165, 208, 196
-0.992425, 57, 193, 120, 320
-0.992437, 9, 341, 72, 372
-0.992448, 141, 101, 172, 132
-0.992453, 1, 145, 32, 272
-0.992463, 377, 13, 440, 44
-0.992466, 385, 137, 448, 168
-0.992467, 273, 1, 400, 64
-0.992472, 353, 1, 416, 375
-0.992486, 257, 249, 320, 280
-0.9925, 353, 21, 416, 52
-0.992513, 161, 217, 224, 248
-0.992514, 189, 145, 220, 272
-0.992518, 321, 241, 448, 304
-0.992531, 121, 173, 184, 204
-0.992546, 265, 161, 296, 288
-0.992549, 393, 1, 456, 375
-0.99255, 193, 1, 320, 64
-0.992551, 1, 49, 128, 112
-0.992553, 177, 233, 240, 264
-0.992554, 217, 213, 280, 244
-0.992554, 129, 97, 160, 128
-0.99257, 313, 1, 376, 32
-0.992584, 385, 97, 448, 160
-0.992602, 57, 97, 120, 160
-0.992609, 9, 1, 72, 32
-0.992622, 305, 341, 368, 372
-0.992629, 1, 217, 64, 248
-0.992632, 37, 1, 68, 128
-0.992653, 425, 129, 488, 160
-0.99266, 117, 101, 148, 132
-0.992671, 57, 337, 120, 368
-0.992674, 409, 157, 472, 188
-0.992687, 97, 165, 160, 196
-0.992688, 1, 121, 128, 184
-0.992708, 313, 21, 376, 52
-0.992719, 257, 225, 320, 256
-0.992731, 1, 61, 64, 92
-0.992732, 249, 189, 312, 220
-0.992742, 153, 117, 216, 148
-0.992752, 377, 25, 440, 56
-0.99276, 33, 45, 96, 76
-0.992773, 169, 205, 232, 236
-0.992774, 57, 25, 88, 88
-0.992777, 433, 153, 496, 184
-0.992788, 9, 269, 72, 300
-0.992791, 305, 1, 336, 64
-0.992796, 289, 25, 352, 56
-0.992799, 425, 29, 488, 60
-0.992808, 185, 261, 248, 292
-0.992812, 353, 113, 416, 240
-0.992813, 185, 177, 248, 240
-0.992817, 257, 237, 320, 268
-0.992822, 417, 13, 480, 44
-0.992822, 161, 181, 224, 212
-0.992832, 41, 57, 104, 88
-0.992842, 169, 145, 232, 176
-0.992845, 217, 225, 280, 256
-0.992848, 137, 213, 200, 244
-0.992853, 65, 153, 128, 184
-0.992863, 161, 105, 224, 136
-0.992874, 109, 49, 140, 176
-0.992876, 129, 209, 256, 272
-0.992889, 73, 1, 104, 128
-0.992897, 149, 113, 180, 144
-0.992898, 297, 37, 360, 68
-0.992902, 129, 109, 160, 140
-0.992902, 153, 1, 216, 256
-0.992905, 201, 161, 264, 192
-0.992911, 9, 21, 72, 52
-0.992913, 49, 89, 112, 120
-0.992926, 73, 85, 136, 116
-0.992926, 321, 169, 384, 200
-0.99293, 101, 101, 132, 132
-0.992939, 89, 1, 152, 375
-0.992941, 305, 281, 432, 344
-0.992953, 9, 309, 72, 340
-0.992961, 41, 173, 104, 204
-0.992963, 49, 25, 112, 56
-0.992969, 409, 169, 472, 200
-0.99297, 273, 25, 400, 88
-0.99297, 145, 153, 208, 184
-0.992975, 49, 321, 112, 352
-0.992977, 345, 193, 408, 320
-0.992978, 73, 61, 136, 92
-0.992979, 385, 173, 448, 204
-0.992989, 393, 121, 456, 152
-0.993006, 165, 121, 196, 184
-0.993008, 401, 25, 464, 56
-0.993008, 141, 89, 172, 120
-0.993017, 257, 213, 320, 244
-0.993019, 1, 201, 64, 232
-0.993028, 257, 201, 320, 232
-0.993035, 1, 145, 64, 176
-0.993035, 425, 117, 488, 148
-0.993037, 377, 37, 440, 68
-0.993039, 9, 297, 72, 328
-0.993039, 273, 1, 336, 32
-0.993039, 121, 201, 184, 232
-0.993052, 281, 181, 344, 212
-0.99306, 273, 41, 336, 72
-0.993064, 233, 161, 296, 192
-0.99307, 25, 33, 88, 64
-0.993075, 33, 5, 96, 36
-0.993077, 137, 237, 200, 268
-0.993078, 345, 245, 408, 276
-0.993091, 153, 97, 184, 128
-0.993091, 105, 65, 168, 96
-0.993101, 385, 149, 448, 180
-0.993108, 345, 33, 408, 64
-0.993109, 361, 85, 424, 116
-0.993121, 1, 37, 64, 68
-0.993125, 33, 345, 96, 375
-0.993148, 25, 157, 88, 188
-0.993148, 129, 185, 256, 248
-0.99315, 33, 101, 96, 132
-0.993151, 305, 309, 368, 340
-0.993158, 109, 105, 140, 168
-0.993159, 329, 33, 392, 96
-0.993163, 1, 229, 64, 260
-0.993177, 265, 225, 296, 256
-0.993184, 273, 25, 336, 88
-0.993187, 225, 129, 288, 375
-0.993189, 185, 217, 248, 248
-0.993193, 193, 177, 320, 240
-0.993197, 145, 273, 272, 336
-0.993197, 353, 141, 416, 172
-0.993198, 417, 41, 480, 72
-0.993199, 185, 245, 248, 276
-0.993202, 49, 73, 112, 104
-0.993207, 429, 1, 460, 128
-0.993208, 353, 129, 416, 160
-0.99321, 161, 193, 224, 224
-0.99321, 161, 105, 288, 168
-0.993213, 217, 165, 248, 196
-0.993214, 145, 77, 208, 108
-0.99322, 49, 1, 80, 64
-0.993221, 33, 225, 96, 256
-0.993224, 305, 185, 368, 216
-0.993227, 161, 117, 192, 148
-0.993229, 89, 93, 120, 124
-0.993233, 241, 273, 304, 304
-0.993237, 81, 337, 144, 368
-0.993243, 89, 105, 120, 136
-0.993244, 337, 113, 464, 176
-0.993244, 129, 49, 192, 80
-0.993252, 25, 145, 88, 208
-0.993268, 41, 209, 104, 240
-0.993268, 265, 261, 328, 292
-0.993274, 237, 189, 268, 220
-0.993275, 253, 277, 284, 308
-0.993281, 33, 125, 96, 156
-0.993285, 385, 1, 416, 32
-0.993286, 281, 161, 344, 192
-0.993301, 93, 157, 124, 188
-0.993303, 249, 237, 280, 268
-0.993311, 113, 85, 144, 116
-0.993314, 305, 1, 336, 32
-0.993315, 21, 345, 52, 375
-0.993317, 33, 1, 64, 32
-0.993323, 169, 185, 200, 248
-0.993326, 353, 209, 480, 272
-0.993333, 429, 1, 460, 32
-0.993337, 173, 153, 204, 184
-0.993344, 133, 77, 164, 108
-0.993346, 73, 169, 104, 232
-0.993348, 153, 165, 184, 196
-0.993348, 437, 129, 468, 192
-0.993349, 177, 249, 208, 280
-0.993354, 401, 1, 432, 32
-0.993355, 73, 129, 136, 375
-0.99336, 265, 237, 296, 268
-0.993384, 73, 61, 104, 92
-0.993389, 237, 177, 268, 208
-0.993391, 205, 157, 236, 188
-0.993392, 101, 113, 132, 144
-0.993396, 417, 1, 448, 32
-0.993401, 225, 177, 256, 208
-0.993402, 117, 49, 148, 80
-0.993404, 93, 61, 124, 92
-0.993408, 265, 213, 296, 244
-0.993412, 101, 89, 132, 120
-0.993414, 1, 177, 128, 240
-0.993416, 153, 85, 184, 116
-0.993418, 53, 1, 84, 32
-0.99342, 113, 117, 144, 148
-0.993432, 165, 181, 196, 212
-0.993432, 433, 141, 464, 172
-0.993436, 445, 1, 476, 32
-0.993436, 173, 109, 204, 140
-0.99344, 57, 25, 88, 56
-0.993444, 249, 265, 280, 296
-0.993446, 41, 85, 72, 116
-0.993456, 45, 21, 76, 52
-0.993456, 329, 169, 360, 200
-0.993459, 89, 49, 120, 80
-0.99346, 189, 153, 220, 184
-0.993461, 169, 169, 200, 200
-0.993461, 245, 209, 276, 240
-0.993463, 149, 177, 180, 208
-0.993464, 173, 217, 204, 248
-0.993465, 173, 237, 204, 268
-0.993465, 253, 249, 284, 280
-0.99347, 129, 53, 160, 84
-0.993479, 157, 129, 188, 160
-0.99348, 337, 81, 400, 144
-0.993481, 133, 121, 164, 152
-0.993481, 5, 249, 36, 280
-0.993485, 205, 269, 236, 300
-0.993491, 61, 97, 92, 128
-0.993495, 417, 1, 480, 375
-0.993496, 1, 345, 32, 375
-0.993497, 57, 13, 88, 44
-0.993497, 65, 281, 192, 344
-0.993499, 337, 25, 464, 88
-0.9935, 77, 73, 108, 104
-0.993504, 97, 41, 224, 104
-0.993506, 45, 345, 76, 375
-0.993506, 197, 193, 228, 320
-0.993507, 57, 77, 88, 108
-0.993509, 461, 21, 492, 52
-0.993513, 269, 249, 300, 280
-0.993515, 253, 173, 284, 204
-0.993516, 189, 221, 220, 252
-0.99352, 237, 289, 268, 320
-0.993522, 37, 325, 68, 356
-0.993523, 321, 181, 352, 212
-0.993524, 401, 13, 432, 44
-0.993528, 81, 165, 112, 196
-0.993532, 301, 21, 332, 52
-0.993533, 73, 137, 104, 200
-0.993535, 93, 169, 124, 200
-0.993543, 233, 113, 264, 240
-0.993544, 317, 1, 348, 32
-0.993547, 13, 1, 44, 32
-0.99355, 133, 65, 164, 96
-0.993555, 173, 205, 204, 236
-0.993555, 377, 25, 440, 88
-0.993562, 301, 37, 332, 68
-0.993564, 1, 149, 32, 180
-0.993565, 249, 225, 280, 256
-0.993567, 21, 333, 52, 364
-0.993569, 165, 97, 196, 128
-0.993572, 437, 129, 468, 160
-0.993574, 333, 337, 364, 368
-0.993576, 1, 325, 32, 356
-0.993576, 89, 341, 120, 372
-0.993578, 161, 145, 192, 176
-0.99358, 397, 185, 428, 216
-0.993583, 125, 113, 156, 176
-0.993583, 197, 257, 228, 288
-0.993588, 449, 25, 480, 56
-0.993588, 233, 277, 264, 308
-0.993588, 113, 41, 144, 104
-0.993589, 269, 269, 300, 300
-0.993592, 5, 213, 36, 244
-0.993592, 57, 169, 88, 200
-0.993595, 121, 1, 152, 32
-0.993595, 169, 193, 200, 224
-0.993599, 117, 61, 148, 92
-0.9936, 185, 209, 216, 240
-0.993602, 149, 189, 180, 220
-0.993603, 65, 225, 96, 256
-0.993605, 69, 165, 100, 196
-0.993605, 345, 17, 376, 48
-0.993608, 253, 293, 284, 324
-0.993611, 77, 109, 108, 140
-0.993612, 165, 253, 196, 284
-0.993612, 397, 173, 428, 204
-0.993615, 177, 133, 208, 164
-0.993615, 237, 157, 268, 188
-0.993615, 417, 109, 448, 140
-0.993615, 29, 69, 60, 100
-0.993616, 89, 73, 120, 104
-0.993616, 273, 97, 400, 160
-0.993619, 1, 13, 32, 44
-0.993619, 21, 317, 52, 348
-0.993623, 445, 13, 476, 44
-0.993623, 249, 193, 280, 224
-0.993623, 105, 49, 136, 80
-0.993624, 73, 13, 104, 44
-0.993625, 413, 25, 444, 56
-0.993628, 77, 93, 108, 124
-0.99363, 421, 13, 452, 44
-0.993634, 429, 25, 460, 56
-0.993639, 105, 161, 136, 192
-0.993648, 257, 1, 320, 64
-0.99368, 369, 161, 496, 224
-0.993712, 281, 105, 344, 168
-0.993713, 1, 97, 128, 160
-0.993744, 161, 281, 224, 344
-0.993746, 173, 217, 204, 280
-0.9938, 289, 145, 416, 208
-0.9938, 49, 257, 176, 320
-0.993827, 425, 81, 488, 208
-0.993851, 65, 225, 128, 288
-0.993882, 273, 49, 400, 112
-0.993901, 25, 233, 88, 296
-0.993901, 65, 257, 128, 320
-0.993914, 189, 201, 220, 264
-0.993969, 33, 65, 96, 128
-0.994, 369, 281, 496, 344
-0.994007, 189, 145, 220, 208
-0.994034, 121, 201, 184, 264
-0.994075, 1, 1, 64, 375
-0.994101, 305, 73, 432, 136
-0.994104, 145, 33, 208, 160
-0.994105, 353, 89, 480, 152
-0.994135, 49, 109, 176, 140
-0.994161, 233, 281, 296, 344
-0.994183, 209, 1, 336, 128
-0.994199, 241, 305, 368, 368
-0.994211, 369, 257, 496, 320
-0.994244, 297, 241, 360, 368
-0.994279, 57, 241, 120, 368
-0.994316, 1, 129, 64, 375
-0.994356, 237, 281, 268, 344
-0.994397, 301, 25, 332, 88
-0.994426, 1, 177, 32, 240
-0.994471, 141, 113, 172, 176
-0.994526, 313, 145, 376, 208
-0.994557, 189, 281, 220, 344
-0.994567, 65, 169, 320, 232
-0.994588, 205, 265, 236, 328
-0.994599, 1, 113, 256, 176
-0.994612, 265, 257, 296, 320
-0.994668, 237, 241, 268, 368
-0.994683, 337, 209, 400, 272
-0.994708, 321, 241, 384, 304
-0.994722, 173, 241, 204, 304
-0.99473, 433, 25, 496, 88
-0.994757, 73, 81, 136, 208
-0.994768, 5, 1, 36, 64
-0.994791, 9, 169, 72, 232
-0.994794, 433, 193, 496, 256
-0.994801, 361, 57, 424, 120
-0.994819, 57, 121, 120, 184
-0.994868, 97, 1, 224, 64
-0.99489, 361, 169, 424, 232
-0.994898, 49, 313, 176, 375
-0.994933, 157, 153, 188, 216
-0.994961, 409, 185, 472, 248
-0.995001, 401, 73, 464, 136
-0.995046, 169, 97, 200, 224
-0.995053, 353, 241, 480, 368
-0.995054, 89, 249, 152, 312
-0.995056, 81, 161, 112, 288
-0.995058, 61, 137, 92, 200
-0.995097, 353, 65, 480, 128
-0.995098, 25, 1, 88, 375
-0.99511, 1, 233, 32, 296
-0.995114, 113, 145, 176, 272
-0.995117, 93, 17, 124, 144
-0.995145, 201, 145, 232, 272
-0.995151, 89, 137, 120, 200
-0.995153, 41, 65, 72, 128
-0.995182, 165, 209, 196, 336
-0.995194, 53, 49, 84, 176
-0.995261, 45, 145, 76, 272
-0.995263, 65, 1, 96, 64
-0.995266, 113, 1, 176, 128
-0.995273, 41, 65, 72, 192
-0.995276, 161, 209, 416, 272
-0.99528, 361, 81, 424, 144
-0.995296, 433, 33, 496, 288
-0.995323, 145, 161, 176, 224
-0.995334, 313, 1, 376, 256
-0.995379, 281, 233, 344, 296
-0.995401, 281, 129, 344, 192
-0.995425, 345, 257, 408, 320
-0.99544, 297, 81, 360, 144
-0.995453, 65, 193, 320, 256
-0.995455, 393, 1, 424, 128
-0.995511, 41, 1, 104, 256
-0.995512, 89, 305, 152, 368
-0.995563, 265, 185, 296, 248
-0.995566, 1, 1, 32, 128
-0.995601, 97, 97, 224, 128
-0.995617, 13, 257, 44, 320
-0.995645, 249, 129, 312, 375
-0.995659, 369, 233, 496, 296
-0.99566, 141, 129, 172, 256
-0.995665, 161, 233, 416, 296
-0.995672, 433, 49, 496, 112
-0.995691, 321, 313, 384, 375
-0.995694, 25, 209, 88, 272
-0.995696, 349, 1, 380, 64
-0.995742, 317, 1, 348, 64
-0.995754, 57, 89, 88, 152
-0.995768, 17, 1, 48, 64
-0.995803, 381, 1, 412, 128
-0.995847, 321, 169, 448, 232
-0.995867, 33, 217, 288, 280
-0.99587, 369, 121, 400, 184
-0.995886, 225, 81, 352, 144
-0.995887, 17, 1, 80, 256
-0.995893, 189, 225, 220, 288
-0.995929, 97, 305, 224, 368
-0.995943, 421, 1, 452, 64
-0.995952, 145, 33, 176, 160
-0.995957, 225, 145, 480, 208
-0.995962, 33, 137, 288, 200
-0.995969, 1, 145, 64, 208
-0.995971, 249, 1, 312, 375
-0.995979, 129, 97, 160, 224
-0.995988, 1, 289, 32, 352
-0.996003, 1, 89, 256, 152
-0.996005, 417, 97, 448, 160
-0.996012, 113, 1, 176, 64
-0.996017, 49, 97, 176, 128
-0.996019, 161, 193, 288, 224
-0.996026, 209, 241, 240, 368
-0.99604, 65, 145, 96, 272
-0.996046, 337, 313, 464, 375
-0.996053, 17, 289, 48, 352
-0.996053, 245, 113, 276, 240
-0.996065, 41, 265, 104, 328
-0.996158, 453, 1, 484, 64
-0.996158, 437, 97, 468, 160
-0.996169, 25, 97, 88, 352
-0.996187, 237, 249, 268, 312
-0.996201, 129, 145, 384, 208
-0.996204, 85, 73, 116, 136
-0.996216, 57, 33, 120, 96
-0.996226, 393, 97, 456, 352
-0.996276, 161, 205, 288, 236
-0.996295, 105, 225, 168, 352
-0.996325, 161, 177, 288, 208
-0.996361, 405, 1, 436, 64
-0.996368, 81, 193, 144, 256
-0.996373, 305, 209, 432, 272
-0.996399, 177, 237, 304, 268
-0.996411, 9, 89, 72, 152
-0.996433, 321, 1, 384, 375
-0.996449, 129, 157, 256, 188
-0.996452, 177, 129, 208, 192
-0.996453, 161, 73, 288, 136
-0.996455, 441, 1, 472, 128
-0.996484, 33, 241, 288, 304
-0.996487, 17, 65, 48, 192
-0.996495, 81, 241, 144, 368
-0.996512, 361, 1, 392, 64
-0.996513, 289, 33, 352, 288
-0.99654, 121, 73, 136, 136
-0.996543, 97, 113, 352, 176
-0.996587, 49, 1, 112, 375
-0.996595, 177, 225, 304, 256
-0.996597, 401, 265, 464, 328
-0.996608, 1, 57, 256, 120
-0.996617, 89, 145, 152, 272
-0.996618, 265, 81, 328, 144
-0.996628, 209, 193, 240, 320
-0.996646, 273, 153, 336, 216
-0.996665, 329, 57, 392, 120
-0.996668, 41, 185, 72, 248
-0.996696, 115, 73, 130, 136
-0.996718, 437, 161, 468, 224
-0.996726, 1, 225, 32, 352
-0.996736, 129, 25, 192, 88
-0.996742, 167, 113, 182, 176
-0.99676, 185, 209, 200, 272
-0.996772, 177, 49, 304, 176
-0.996776, 101, 25, 132, 88
-0.996776, 417, 1, 448, 128
-0.996778, 117, 97, 148, 224
-0.996809, 225, 265, 256, 328
-0.996814, 125, 41, 156, 104
-0.996827, 1, 313, 32, 375
-0.996828, 49, 81, 176, 112
-0.996837, 77, 65, 108, 192
-0.996844, 97, 89, 352, 152
-0.996869, 229, 145, 260, 208
-0.996898, 157, 89, 188, 152
-0.9969, 289, 49, 352, 112
-0.996907, 145, 1, 272, 64
-0.996929, 189, 177, 220, 240
-0.996956, 127, 97, 142, 160
-0.996965, 265, 313, 328, 375
-0.996967, 161, 105, 176, 168
-0.996981, 369, 185, 496, 248
-0.996989, 145, 137, 176, 200
-0.996999, 257, 121, 500, 184
-0.996999, 193, 33, 320, 96
-0.99701, 257, 1, 500, 64
-0.997013, 263, 241, 278, 304
-0.997026, 77, 1, 108, 64
-0.997039, 433, 273, 496, 336
-0.997075, 163, 185, 178, 248
-0.997091, 241, 281, 368, 344
-0.997097, 425, 73, 488, 136
-0.997107, 109, 73, 124, 136
-0.997119, 177, 297, 304, 360
-0.997123, 235, 169, 250, 232
-0.997134, 265, 1, 328, 128
-0.997148, 1, 97, 128, 128
-0.997149, 69, 73, 100, 136
-0.99718, 29, 41, 60, 104
-0.997182, 37, 121, 68, 184
-0.99719, 49, 129, 112, 375
-0.997193, 421, 145, 452, 272
-0.997194, 465, 1, 496, 64
-0.997194, 97, 109, 224, 140
-0.997203, 161, 185, 416, 248
-0.997204, 137, 81, 152, 144
-0.99721, 1, 341, 128, 372
-0.997213, 89, 161, 104, 224
-0.997219, 151, 81, 166, 144
-0.997235, 171, 153, 186, 216
-0.997239, 249, 185, 264, 248
-0.997251, 193, 257, 448, 320
-0.997256, 393, 241, 424, 304
-0.99726, 109, 1, 140, 128
-0.997266, 225, 161, 240, 224
-0.997283, 281, 217, 312, 280
-0.997284, 277, 209, 308, 336
-0.997284, 189, 241, 220, 368
-0.997285, 1, 209, 32, 272
-0.997297, 181, 65, 212, 192
-0.997305, 117, 97, 132, 160
-0.997308, 273, 233, 288, 296
-0.99731, 133, 97, 148, 128
-0.997311, 177, 249, 304, 280
-0.997333, 337, 97, 368, 224
-0.997342, 193, 81, 256, 208
-0.997347, 417, 145, 448, 208
-0.997353, 95, 161, 110, 224
-0.997361, 29, 97, 60, 224
-0.997378, 225, 241, 256, 368
-0.997383, 85, 209, 116, 336
-0.997393, 93, 145, 124, 272
-0.997396, 193, 249, 208, 312
-0.997396, 369, 209, 432, 336
-0.997396, 243, 177, 258, 240
-0.997397, 321, 1, 352, 128
-0.997398, 369, 1, 496, 32
-0.99741, 225, 177, 352, 208
-0.997412, 57, 49, 88, 112
-0.997412, 29, 49, 60, 176
-0.997416, 269, 209, 284, 272
-0.997445, 257, 221, 384, 252
-0.997464, 33, 49, 160, 80
-0.997469, 81, 121, 208, 152
-0.997475, 215, 153, 230, 216
-0.99748, 21, 313, 52, 375
-0.997485, 359, 1, 374, 64
-0.997489, 57, 97, 88, 224
-0.997493, 155, 97, 170, 128
-0.997525, 77, 113, 108, 176
-0.99753, 193, 225, 208, 288
-0.997538, 65, 177, 192, 208
-0.997539, 49, 1, 64, 64
-0.997546, 97, 49, 128, 112
-0.997553, 147, 101, 162, 132
-0.99757, 49, 209, 80, 336
-0.997592, 127, 73, 142, 136
-0.997595, 49, 17, 176, 48
-0.9976, 111, 97, 126, 160
-0.997609, 255, 193, 270, 256
-0.997617, 417, 193, 480, 320
-0.997635, 13, 177, 44, 304
-0.997658, 397, 161, 428, 224
-0.997661, 37, 217, 68, 280
-0.997662, 145, 81, 160, 144
-0.997667, 301, 1, 332, 128
-0.997669, 97, 209, 128, 336
-0.997682, 147, 113, 162, 176
-0.997685, 67, 1, 82, 64
-0.997692, 209, 105, 336, 168
-0.997702, 33, 1, 288, 64
-0.99771, 263, 273, 278, 336
-0.997717, 139, 97, 154, 128
-0.997718, 225, 241, 256, 304
-0.997727, 155, 105, 170, 168
-0.997735, 417, 169, 448, 232
-0.997752, 385, 1, 416, 64
-0.997752, 5, 41, 36, 104
-0.997755, 123, 101, 138, 132
-0.997786, 33, 265, 288, 328
-0.997795, 317, 65, 348, 192
-0.997803, 241, 237, 368, 268
-0.997809, 441, 1, 472, 64
-0.997812, 145, 265, 272, 296
-0.997814, 17, 57, 48, 120
-0.997814, 81, 193, 208, 224
-0.997815, 257, 97, 500, 160
-0.997818, 257, 233, 500, 296
-0.997818, 157, 161, 172, 224
-0.997821, 113, 253, 240, 284
-0.997826, 145, 89, 160, 120
-0.997827, 81, 161, 96, 224
-0.99783, 365, 97, 396, 160
-0.997832, 1, 321, 128, 352
-0.997837, 95, 137, 110, 200
-0.99784, 93, 65, 124, 192
-0.99784, 81, 141, 208, 172
-0.997844, 257, 249, 384, 280
-0.997845, 1, 145, 128, 176
-0.997857, 401, 177, 432, 304
-0.997858, 225, 161, 352, 192
-0.997872, 65, 165, 192, 196
-0.997876, 385, 89, 416, 152
-0.997876, 21, 97, 52, 160
-0.99788, 421, 1, 436, 64
-0.997897, 1, 109, 128, 140
-0.997915, 89, 137, 104, 200
-0.997916, 169, 177, 184, 240
-0.997921, 25, 161, 56, 288
-0.997926, 1, 1, 128, 32
-0.997928, 177, 129, 192, 192
-0.997932, 273, 169, 400, 232
-0.997945, 1, 277, 128, 308
-0.997946, 199, 257, 214, 320
-0.997961, 273, 129, 400, 160
-0.997967, 57, 201, 88, 264
-0.997986, 257, 25, 500, 88
-0.997987, 361, 193, 392, 320
-0.997989, 81, 213, 208, 244
-0.998001, 71, 129, 86, 192
-0.998003, 187, 233, 202, 296
-0.998005, 1, 1, 500, 64
-0.998008, 217, 129, 248, 375
-0.998009, 337, 141, 464, 172
-0.99801, 297, 1, 360, 375
-0.998031, 241, 261, 368, 292
-0.998034, 141, 109, 156, 140
-0.998036, 1, 33, 256, 96
-0.998037, 197, 145, 212, 208
-0.998038, 1, 153, 500, 216
-0.998039, 257, 161, 288, 224
-0.998041, 93, 33, 124, 288
-0.998043, 257, 57, 500, 120
-0.998051, 349, 97, 380, 224
-0.998054, 337, 129, 464, 160
-0.998059, 317, 1, 332, 64
-0.998065, 33, 37, 160, 68
-0.998073, 151, 85, 166, 116
-0.998081, 191, 193, 206, 256
-0.998081, 209, 97, 240, 224
-0.998088, 261, 217, 276, 280
-0.998088, 241, 201, 368, 232
-0.998098, 461, 1, 492, 128
-0.998102, 207, 265, 222, 328
-0.998104, 43, 1, 58, 64
-0.998104, 337, 25, 464, 56
-0.998112, 105, 97, 120, 160
-0.998114, 103, 93, 118, 124
-0.998115, 329, 129, 392, 375
-0.99812, 485, 1, 500, 64
-0.998126, 251, 289, 266, 352
-0.998132, 209, 153, 224, 216
-0.998133, 49, 5, 176, 36
-0.998135, 5, 233, 20, 296
-0.998135, 281, 113, 344, 240
-0.998136, 1, 201, 500, 264
-0.998138, 269, 257, 284, 320
-0.998139, 1, 25, 128, 56
-0.998139, 21, 185, 52, 248
-0.99814, 103, 73, 118, 136
-0.99814, 77, 137, 92, 200
-0.998151, 135, 109, 150, 140
-0.998154, 273, 121, 304, 184
-0.998154, 1, 61, 128, 92
-0.998158, 97, 297, 352, 360
-0.998162, 289, 337, 416, 368
-0.998177, 193, 261, 320, 292
-0.998177, 285, 161, 316, 288
-0.998191, 61, 1, 76, 64
-0.998196, 225, 189, 352, 220
-0.998208, 115, 101, 130, 132
-0.998209, 157, 81, 172, 144
-0.99821, 461, 1, 476, 64
-0.998212, 177, 201, 192, 264
-0.998213, 1, 177, 500, 240
-0.998214, 1, 305, 128, 336
-0.998223, 273, 25, 400, 56
-0.998223, 141, 113, 156, 176
-0.998228, 1, 265, 128, 296
-0.998228, 45, 25, 76, 88
-0.99824, 241, 129, 272, 375
-0.998244, 193, 129, 224, 375
-0.998246, 141, 41, 156, 104
-0.998246, 255, 257, 270, 320
-0.998253, 117, 25, 132, 88
-0.998253, 279, 217, 294, 280
-0.998257, 89, 341, 120, 356
-0.998257, 41, 219, 72, 234
-0.998257, 165, 203, 196, 218
-0.998258, 301, 25, 332, 40
-0.998259, 17, 319, 48, 334
-0.998259, 13, 291, 44, 306
-0.998259, 1, 323, 32, 338
-0.99826, 89, 95, 120, 110
-0.99826, 437, 153, 468, 168
-0.998261, 37, 339, 68, 354
-0.998261, 163, 161, 178, 224
-0.998261, 245, 307, 276, 322
-0.998262, 5, 265, 36, 280
-0.998263, 237, 167, 268, 182
-0.998263, 269, 273, 300, 288
-0.998264, 245, 201, 276, 216
-0.998264, 269, 255, 300, 270
-0.998264, 69, 111, 100, 126
-0.998264, 89, 53, 120, 68
-0.998264, 245, 237, 276, 252
-0.998265, 1, 13, 32, 28
-0.998265, 241, 293, 272, 308
-0.998265, 249, 275, 280, 290
-0.998265, 253, 259, 284, 274
-0.998266, 169, 213, 200, 228
-0.998266, 405, 23, 436, 38
-0.998267, 49, 61, 176, 92
-0.998267, 77, 181, 108, 196
-0.998267, 45, 41, 76, 56
-0.998267, 249, 215, 280, 230
-0.998267, 365, 125, 396, 140
-0.998267, 129, 55, 160, 70
-0.998268, 37, 151, 68, 166
-0.998268, 421, 145, 452, 160
-0.998269, 73, 23, 104, 38
-0.998269, 421, 1, 452, 16
-0.998269, 209, 167, 240, 182
-0.998269, 173, 223, 204, 238
-0.998269, 161, 185, 192, 200
-0.99827, 131, 49, 146, 112
-0.99827, 73, 173, 104, 188
-0.998272, 401, 3, 432, 18
-0.998273, 301, 35, 332, 50
-0.998273, 165, 253, 196, 268
-0.998273, 325, 179, 356, 194
-0.998274, 265, 215, 296, 230
-0.998274, 169, 179, 200, 194
-0.998274, 245, 209, 276, 224
-0.998274, 157, 165, 188, 180
-0.998275, 101, 95, 132, 110
-0.998275, 109, 63, 140, 78
-0.998275, 93, 115, 124, 130
-0.998275, 117, 77, 148, 92
-0.998275, 253, 251, 284, 266
-0.998276, 253, 265, 284, 280
-0.998277, 157, 131, 188, 146
-0.998277, 307, 25, 322, 88
-0.998278, 197, 155, 228, 170
-0.998278, 133, 81, 164, 96
-0.998279, 1, 359, 32, 374
-0.998279, 37, 135, 68, 150
-0.998279, 1, 153, 16, 216
-0.998281, 109, 101, 124, 132
-0.998281, 189, 285, 220, 300
-0.998282, 57, 13, 88, 28
-0.998285, 265, 249, 296, 264
-0.998285, 169, 113, 200, 128
-0.998285, 17, 325, 48, 340
-0.998286, 53, 29, 84, 44
-0.998286, 185, 155, 216, 170
-0.998286, 125, 61, 156, 76
-0.998286, 9, 259, 40, 274
-0.998286, 61, 101, 92, 116
-0.998286, 41, 23, 72, 38
-0.998286, 1, 207, 32, 222
-0.998287, 57, 93, 88, 108
-0.998287, 49, 77, 80, 92
-0.998288, 57, 133, 88, 148
-0.998289, 437, 141, 468, 156
-0.998289, 157, 103, 188, 118
-0.998289, 249, 245, 280, 260
-0.998291, 253, 283, 284, 298
-0.998292, 53, 7, 84, 22
-0.998292, 161, 101, 176, 132
-0.998293, 169, 159, 200, 174
-0.998295, 33, 1, 64, 16
-0.998296, 13, 11, 44, 26
-0.998296, 149, 179, 180, 194
-0.998296, 17, 349, 48, 364
-0.998299, 37, 9, 68, 24
-0.998299, 113, 71, 144, 86
-0.998299, 167, 209, 182, 272
-0.9983, 245, 175, 276, 190
-0.998303, 209, 161, 240, 176
-0.998305, 305, 3, 336, 18
-0.998305, 117, 53, 148, 68
-0.998306, 221, 171, 252, 186
-0.998307, 385, 5, 416, 20
-0.998309, 53, 19, 84, 34
-0.998309, 93, 173, 124, 188
-0.998311, 57, 339, 88, 354
-0.998311, 149, 185, 180, 200
-0.998312, 109, 117, 140, 132
-0.998312, 89, 101, 120, 116
-0.998313, 157, 125, 188, 140
-0.998313, 153, 95, 184, 110
-0.998313, 121, 119, 152, 134
-0.998316, 325, 185, 356, 200
-0.998317, 73, 165, 104, 180
-0.998318, 113, 91, 144, 106
-0.998318, 89, 157, 120, 172
-0.998321, 237, 193, 268, 208
-0.998321, 265, 237, 296, 252
-0.998322, 265, 221, 296, 236
-0.998325, 101, 101, 132, 116
-0.998326, 265, 243, 296, 258
-0.998333, 313, 185, 344, 200
-0.998336, 1, 353, 32, 368
-0.998343, 177, 251, 208, 266
-0.99835, 81, 113, 112, 128
-0.998351, 229, 181, 260, 196
-0.998351, 165, 113, 180, 144
-0.998356, 233, 187, 264, 202
-0.998357, 249, 289, 280, 352
-0.998357, 157, 185, 172, 248
-0.998359, 137, 91, 168, 106
-0.998361, 45, 345, 76, 360
-0.998361, 153, 119, 184, 134
-0.998367, 265, 231, 296, 246
-0.998367, 261, 193, 276, 256
-0.998373, 113, 49, 128, 112
-0.998374, 63, 25, 78, 88
-0.998377, 81, 233, 208, 264
-0.998379, 113, 99, 144, 114
-0.998389, 113, 111, 144, 126
-0.998389, 239, 177, 254, 208
-0.998392, 93, 163, 124, 178
-0.998395, 147, 49, 162, 112
-0.998397, 1, 221, 128, 252
-0.998398, 121, 9, 152, 72
-0.998403, 101, 107, 132, 122
-0.998408, 257, 209, 500, 272
-0.998409, 379, 121, 394, 184
-0.998414, 1, 233, 128, 264
-0.998416, 129, 229, 256, 260
-0.998416, 19, 1, 34, 64
-0.998416, 233, 145, 248, 208
-0.998417, 385, 225, 416, 352
-0.998417, 317, 25, 348, 88
-0.998417, 55, 17, 70, 80
-0.998418, 203, 153, 218, 216
-0.998422, 241, 1, 256, 64
-0.998423, 135, 113, 150, 176
-0.998426, 229, 129, 260, 375
-0.998427, 165, 97, 196, 352
-0.998432, 193, 97, 224, 224
-0.998433, 89, 107, 120, 122
-0.998434, 145, 113, 176, 128
-0.998437, 225, 57, 352, 120
-0.99844, 113, 101, 176, 116
-0.998441, 63, 81, 78, 144
-0.998445, 125, 49, 140, 112
-0.998445, 477, 1, 492, 64
-0.998446, 163, 81, 178, 144
-0.998447, 71, 97, 86, 160
-0.998448, 145, 103, 176, 118
-0.998448, 1, 81, 500, 144
-0.99845, 337, 329, 464, 360
-0.998451, 125, 95, 156, 110
-0.998454, 165, 137, 180, 200
-0.998458, 209, 233, 240, 296
-0.998459, 145, 105, 272, 136
-0.998466, 249, 185, 264, 216
-0.998469, 19, 257, 34, 320
-0.998469, 155, 109, 170, 140
-0.99847, 129, 109, 144, 140
-0.99847, 289, 309, 416, 340
-0.998471, 133, 111, 164, 126
-0.998474, 375, 89, 390, 152
-0.998475, 241, 153, 256, 216
-0.998477, 337, 153, 464, 184
-0.998484, 273, 57, 400, 88
-0.998486, 89, 105, 152, 120
-0.998487, 77, 33, 108, 288
-0.998488, 281, 129, 344, 375
-0.99849, 73, 17, 88, 80
-0.998503, 113, 105, 144, 120
-0.998505, 81, 153, 208, 184
-0.998509, 125, 101, 156, 116
-0.998509, 121, 111, 184, 126
-0.998512, 209, 149, 336, 180
-0.998513, 305, 261, 432, 292
-0.998513, 199, 225, 214, 288
-0.998515, 239, 241, 254, 304
-0.998518, 17, 133, 144, 164
-0.99852, 71, 73, 86, 136
-0.998522, 3, 177, 18, 240
-0.998523, 439, 121, 454, 184
-0.998523, 205, 129, 236, 375
-0.998542, 201, 281, 216, 344
-0.998544, 309, 1, 324, 64
-0.998547, 193, 273, 320, 304
-0.99855, 103, 105, 118, 136
-0.998551, 167, 181, 182, 212
-0.998554, 101, 153, 116, 216
-0.998556, 337, 13, 464, 44
-0.998566, 323, 1, 338, 64
-0.998571, 105, 95, 168, 110
-0.998575, 57, 185, 72, 248
-0.99858, 229, 169, 244, 200
-0.998584, 73, 113, 136, 128
-0.998585, 209, 213, 336, 244
-0.99859, 251, 289, 266, 320
-0.99859, 185, 153, 200, 216
-0.99859, 245, 273, 260, 336
-0.998594, 305, 1, 432, 32
-0.998595, 193, 313, 448, 375
-0.998596, 103, 157, 118, 188
-0.998603, 43, 209, 58, 272
-0.998607, 177, 105, 208, 168
-0.998612, 9, 9, 24, 72
-0.998612, 1, 253, 128, 284
-0.998613, 337, 37, 464, 68
-0.998613, 97, 111, 160, 126
-0.998615, 129, 117, 192, 132
-0.998617, 129, 217, 256, 248
-0.998619, 353, 117, 480, 148
-0.998626, 17, 313, 32, 375
-0.998626, 51, 65, 66, 128
-0.998627, 437, 97, 452, 160
-0.998627, 113, 181, 240, 212
-0.998631, 209, 187, 272, 202
-0.998632, 321, 1, 336, 32
-0.998633, 177, 157, 240, 172
-0.998636, 231, 233, 246, 296
-0.998636, 161, 177, 176, 208
-0.998637, 171, 121, 186, 152
-0.998638, 177, 153, 192, 216
-0.998639, 129, 95, 192, 110
-0.998642, 245, 249, 260, 312
-0.998645, 137, 101, 200, 116
-0.998647, 131, 81, 146, 112
-0.99865, 97, 105, 112, 136
-0.99865, 163, 161, 178, 192
-0.998651, 201, 181, 264, 196
-0.998653, 257, 193, 272, 224
-0.998653, 377, 1, 440, 16
-0.998653, 353, 1, 416, 16
-0.998654, 169, 89, 184, 152
-0.998654, 65, 107, 128, 122
-0.998657, 137, 97, 168, 112
-0.998661, 231, 265, 246, 328
-0.998662, 13, 233, 28, 296
-0.998664, 129, 123, 192, 138
-0.998666, 393, 145, 456, 160
-0.998666, 147, 113, 162, 144
-0.998666, 289, 185, 352, 200
-0.998666, 185, 271, 248, 286
-0.998666, 1, 313, 256, 375
-0.998667, 153, 255, 216, 270
-0.998668, 225, 267, 288, 282
-0.998668, 217, 203, 280, 218
-0.998668, 97, 117, 160, 132
-0.998668, 105, 163, 168, 178
-0.998668, 49, 341, 112, 356
-0.99867, 223, 165, 238, 196
-0.99867, 425, 151, 488, 166
-0.998671, 105, 53, 168, 68
-0.998672, 65, 165, 128, 180
-0.998673, 141, 177, 172, 304
-0.998675, 83, 137, 98, 200
-0.998675, 1, 209, 16, 272
-0.998676, 377, 23, 440, 38
-0.998677, 81, 97, 144, 112
-0.998677, 153, 107, 216, 122
-0.998678, 233, 175, 296, 190
-0.998678, 265, 253, 328, 268
-0.998679, 241, 185, 304, 200
-0.998679, 187, 257, 202, 320
-0.99868, 9, 343, 72, 358
-0.998681, 49, 185, 64, 248
-0.998683, 193, 171, 256, 186
-0.998683, 265, 257, 280, 288
-0.998684, 209, 193, 272, 208
-0.998687, 97, 61, 224, 92
-0.998687, 425, 145, 488, 160
-0.998687, 369, 11, 432, 26
-0.998687, 395, 241, 410, 304
-0.998688, 1, 85, 128, 116
-0.99869, 191, 145, 206, 208
-0.998691, 365, 1, 380, 64
-0.998691, 359, 25, 374, 88
-0.998691, 81, 55, 144, 70
-0.998691, 297, 37, 360, 52
-0.998692, 377, 17, 440, 32
-0.998692, 225, 249, 288, 264
-0.998692, 257, 231, 320, 246
-0.998692, 9, 335, 72, 350
-0.998692, 9, 329, 72, 344
-0.998693, 217, 209, 280, 224
-0.998693, 249, 191, 312, 206
-0.998694, 57, 101, 120, 116
-0.998695, 105, 61, 168, 76
-0.998695, 145, 167, 208, 182
-0.998698, 105, 73, 168, 88
-0.998699, 225, 257, 288, 272
-0.9987, 207, 177, 222, 240
-0.998701, 129, 121, 256, 152
-0.998701, 33, 135, 96, 150
-0.998702, 41, 173, 104, 188
-0.998703, 289, 141, 416, 172
-0.998703, 9, 349, 72, 364
-0.998704, 353, 25, 416, 40
-0.998704, 161, 219, 224, 234
-0.998704, 161, 211, 224, 226
-0.998706, 305, 165, 432, 196
-0.998707, 105, 169, 168, 184
-0.998707, 297, 31, 360, 46
-0.998707, 9, 5, 72, 20
-0.998707, 257, 237, 320, 252
-0.998707, 433, 127, 496, 142
-0.998707, 313, 25, 376, 40
-0.998707, 1, 259, 64, 274
-0.998708, 65, 159, 128, 174
-0.998708, 257, 247, 320, 262
-0.998708, 33, 1, 96, 16
-0.998709, 161, 217, 192, 280
-0.998709, 425, 137, 488, 152
-0.998709, 217, 231, 280, 246
-0.99871, 353, 17, 416, 32
-0.99871, 257, 207, 320, 222
-0.99871, 263, 281, 278, 312
-0.99871, 353, 149, 416, 164
-0.99871, 1, 271, 64, 286
-0.998711, 73, 171, 136, 186
-0.998711, 33, 121, 96, 136
-0.998711, 49, 113, 112, 128
-0.998711, 251, 161, 266, 224
-0.998712, 425, 43, 488, 58
-0.998712, 49, 337, 176, 368
-0.998713, 1, 145, 64, 160
-0.998713, 33, 107, 96, 122
-0.998714, 9, 11, 72, 26
-0.998714, 137, 151, 200, 166
-0.998715, 153, 95, 216, 110
-0.998715, 409, 161, 472, 176
-0.998715, 305, 361, 368, 375
-0.998716, 225, 273, 288, 288
-0.998716, 393, 127, 456, 142
-0.998716, 81, 75, 144, 90
-0.998716, 161, 265, 224, 280
-0.998717, 313, 1, 376, 16
-0.998717, 177, 235, 240, 250
-0.998717, 273, 179, 336, 194
-0.998717, 105, 89, 168, 104
-0.998718, 17, 289, 32, 352
-0.998718, 79, 1, 94, 64
-0.998719, 217, 215, 280, 230
-0.998719, 153, 121, 216, 136
-0.998719, 217, 237, 280, 252
-0.998719, 97, 93, 112, 124
-0.998719, 185, 165, 248, 180
-0.99872, 161, 187, 224, 202
-0.99872, 49, 47, 112, 62
-0.99872, 49, 129, 112, 144
-0.99872, 257, 215, 320, 230
-0.99872, 429, 193, 460, 320
-0.998721, 59, 161, 74, 224
-0.998721, 137, 129, 200, 144
-0.998722, 409, 11, 472, 26
-0.998722, 401, 241, 464, 256
-0.998722, 393, 121, 456, 136
-0.998723, 185, 265, 248, 280
-0.998723, 1, 65, 64, 80
-0.998723, 89, 339, 152, 354
-0.998723, 385, 139, 448, 154
-0.998724, 33, 347, 96, 362
-0.998724, 9, 19, 72, 34
-0.998724, 425, 121, 488, 136
-0.998724, 153, 181, 216, 196
-0.998724, 225, 243, 288, 258
-0.998724, 377, 39, 440, 54
-0.998725, 1, 265, 64, 280
-0.998725, 105, 79, 168, 94
-0.998725, 9, 323, 72, 338
-0.998725, 121, 175, 184, 190
-0.998726, 1, 233, 64, 248
-0.998726, 353, 143, 416, 158
-0.998727, 313, 187, 376, 202
-0.998727, 49, 335, 112, 350
-0.998727, 137, 137, 200, 152
-0.998728, 257, 225, 320, 240
-0.998728, 1, 227, 64, 242
-0.998729, 9, 165, 72, 180
-0.998729, 385, 151, 448, 166
-0.998729, 289, 43, 352, 58
-0.998731, 177, 165, 304, 196
-0.998738, 191, 213, 206, 244
-0.998738, 315, 1, 330, 32
-0.99874, 1, 293, 128, 324
-0.998748, 183, 217, 198, 248
-0.998753, 49, 5, 64, 36
-0.998755, 189, 253, 204, 284
-0.998757, 337, 113, 368, 176
-0.99876, 105, 33, 136, 288
-0.998761, 53, 25, 68, 56
-0.998762, 139, 85, 154, 116
-0.998776, 353, 233, 480, 264
-0.998776, 39, 1, 54, 32
-0.998778, 229, 1, 260, 64
-0.998782, 81, 45, 208, 76
-0.998782, 1, 157, 128, 188
-0.998783, 73, 49, 104, 112
-0.998784, 305, 145, 336, 272
-0.998785, 63, 29, 78, 60
-0.998786, 257, 281, 272, 312
-0.998787, 447, 1, 462, 32
-0.998788, 129, 137, 256, 168
-0.998788, 337, 49, 464, 80
-0.998791, 441, 1, 456, 32
-0.998791, 397, 1, 412, 32
-0.998793, 185, 205, 200, 236
-0.998796, 321, 89, 448, 120
-0.998796, 59, 77, 74, 108
-0.998808, 271, 241, 286, 272
-0.998814, 193, 229, 208, 260
-0.998816, 49, 261, 176, 292
-0.998817, 77, 305, 108, 368
-0.998818, 261, 241, 276, 272
-0.998818, 109, 161, 124, 192
-0.998821, 1, 105, 500, 168
-0.998826, 251, 173, 266, 204
-0.998827, 289, 237, 416, 268
-0.998827, 217, 161, 232, 192
-0.998828, 135, 53, 150, 84
-0.998831, 53, 297, 84, 360
-0.998832, 273, 1, 336, 375
-0.998833, 201, 201, 232, 264
-0.998836, 257, 117, 384, 148
-0.998839, 93, 73, 108, 104
-0.998843, 273, 81, 400, 112
-0.998845, 57, 161, 88, 224
-0.998845, 309, 305, 340, 368
-0.998847, 157, 85, 172, 116
-0.998848, 85, 57, 100, 88
-0.998856, 225, 1, 352, 32
-0.998856, 241, 309, 368, 340
-0.998858, 91, 105, 106, 136
-0.998858, 209, 185, 224, 216
-0.998864, 129, 241, 256, 272
-0.998865, 81, 325, 208, 356
-0.998874, 1, 13, 128, 44
-0.998878, 97, 85, 224, 116
-0.998878, 173, 145, 188, 176
-0.998879, 183, 237, 198, 268
-0.998883, 195, 241, 210, 272
-0.998883, 55, 341, 70, 372
-0.998885, 181, 97, 212, 352
-0.998887, 421, 1, 436, 32
-0.998887, 23, 337, 38, 368
-0.998891, 61, 97, 76, 128
-0.998893, 337, 69, 464, 100
-0.998897, 33, 205, 160, 236
-0.998897, 241, 273, 368, 304
-0.998898, 173, 157, 188, 188
-0.998899, 113, 113, 128, 144
-0.998904, 425, 129, 488, 375
-0.99891, 305, 181, 432, 212
-0.998912, 211, 157, 226, 188
-0.998918, 61, 13, 76, 44
-0.998919, 273, 325, 400, 356
-0.998921, 93, 61, 108, 92
-0.998923, 97, 157, 112, 188
-0.998926, 353, 205, 480, 236
-0.998929, 95, 341, 110, 372
-0.998929, 17, 121, 144, 152
-0.99893, 127, 49, 142, 80
-0.998931, 325, 181, 340, 212
-0.998933, 427, 1, 442, 32
-0.998935, 453, 1, 468, 32
-0.998935, 177, 1, 240, 256
-0.998941, 123, 117, 138, 148
-0.998948, 259, 205, 274, 236
-0.998951, 157, 165, 172, 196
-0.998953, 85, 161, 100, 192
-0.998954, 47, 337, 62, 368
-0.998957, 111, 89, 126, 120
-0.998957, 7, 1, 22, 32
-0.998962, 145, 77, 160, 108
-0.998962, 403, 1, 418, 32
-0.998964, 273, 37, 400, 68
-0.998965, 205, 153, 220, 184
-0.998967, 337, 341, 464, 372
-0.998969, 175, 209, 190, 240
-0.998969, 201, 261, 216, 292
-0.99897, 161, 197, 176, 228
-0.998971, 269, 229, 284, 260
-0.998971, 353, 97, 416, 352
-0.998971, 119, 49, 134, 80
-0.998975, 141, 49, 156, 80
-0.998975, 137, 65, 152, 96
-0.998977, 145, 277, 272, 308
-0.998978, 459, 17, 474, 48
-0.998978, 33, 1, 48, 32
-0.998982, 169, 81, 200, 144
-0.998983, 69, 77, 84, 108
-0.998983, 97, 65, 352, 128
-0.998987, 257, 293, 272, 324
-0.998989, 305, 249, 432, 280
-0.998996, 457, 29, 472, 60
-0.998996, 59, 1, 74, 32
-0.998997, 97, 45, 112, 76
-0.999, 121, 85, 136, 116
-0.999002, 1, 177, 128, 208
-0.999002, 437, 141, 452, 172
-0.999006, 337, 317, 464, 348
-0.999011, 53, 89, 68, 120
-0.999013, 189, 153, 204, 184
-0.999013, 199, 277, 214, 308
-0.999015, 279, 225, 294, 256
-0.999018, 289, 1, 320, 64
-0.999018, 87, 69, 102, 100
-0.999019, 261, 229, 276, 260
-0.99902, 85, 217, 116, 280
-0.999021, 139, 1, 154, 32
-0.999023, 387, 1, 402, 32
-0.999024, 273, 69, 400, 100
-0.999026, 73, 169, 88, 200
-0.999026, 17, 345, 32, 375
-0.99903, 139, 121, 154, 152
-0.99903, 1, 25, 500, 88
-0.999031, 121, 189, 136, 220
-0.999032, 333, 1, 364, 64
-0.999032, 209, 269, 224, 300
-0.999032, 1, 305, 500, 368
-0.999033, 67, 5, 82, 36
-0.999037, 305, 109, 432, 140
-0.99904, 49, 249, 176, 280
-0.99904, 49, 293, 176, 324
-0.999041, 305, 281, 432, 312
-0.999046, 41, 97, 72, 160
-0.999049, 1, 73, 128, 104
-0.999051, 395, 149, 410, 180
-0.999051, 465, 9, 480, 40
-0.999054, 339, 337, 354, 368
-0.999055, 15, 325, 30, 356
-0.999056, 361, 25, 376, 56
-0.999056, 235, 165, 250, 196
-0.999057, 13, 1, 28, 32
-0.999059, 177, 237, 192, 268
-0.999062, 289, 13, 416, 44
-0.999065, 65, 173, 80, 204
-0.999069, 197, 217, 212, 248
-0.999085, 1, 129, 500, 192
-0.99909, 89, 129, 120, 375
-0.999091, 193, 137, 320, 168
-0.999094, 241, 337, 368, 368
-0.999095, 113, 9, 240, 40
-0.999103, 437, 97, 468, 224
-0.999104, 353, 217, 480, 248
-0.999113, 369, 177, 496, 208
-0.999115, 321, 193, 384, 320
-0.999123, 337, 193, 464, 224
-0.999132, 257, 185, 500, 248
-0.99914, 241, 97, 368, 128
-0.999146, 153, 97, 184, 352
-0.99915, 145, 25, 272, 88
-0.999151, 65, 313, 192, 344
-0.99917, 113, 169, 240, 200
-0.999176, 1, 193, 128, 224
-0.99918, 369, 165, 496, 196
-0.999192, 1, 265, 500, 328
-0.999195, 249, 33, 312, 288
-0.999199, 349, 145, 380, 272
-0.999212, 33, 1, 64, 256
-0.999236, 259, 193, 274, 320
-0.999237, 49, 273, 176, 304
-0.999248, 365, 65, 396, 192
-0.999266, 163, 97, 178, 224
-0.999282, 177, 1, 208, 256
-0.99929, 251, 177, 266, 304
-0.99931, 325, 113, 356, 240
-0.99931, 9, 129, 40, 375
-0.999316, 401, 1, 432, 256
-0.999319, 45, 1, 76, 256
-0.99932, 129, 25, 384, 88
-0.999327, 437, 145, 468, 272
-0.999349, 417, 33, 448, 288
-0.999374, 1, 289, 256, 352
-0.999375, 155, 81, 170, 208
-0.999376, 261, 129, 292, 375
-0.999377, 117, 33, 148, 288
-0.999377, 1, 233, 500, 296
-0.999402, 265, 241, 280, 368
-0.999413, 243, 161, 258, 288
-0.999414, 193, 281, 448, 344
-0.999421, 3, 1, 18, 128
-0.999441, 183, 145, 198, 272
-0.999448, 171, 113, 186, 240
-0.999457, 225, 145, 240, 272
-0.999463, 161, 49, 192, 176
-0.999467, 161, 1, 416, 64
-0.999467, 53, 1, 68, 128
-0.99947, 175, 161, 190, 288
-0.999472, 121, 33, 136, 160
-0.999477, 5, 203, 20, 218
-0.999477, 425, 1, 440, 16
-0.999477, 257, 229, 272, 244
-0.999478, 65, 95, 80, 110
-0.999479, 263, 259, 278, 274
-0.999479, 129, 91, 144, 106
-0.99948, 81, 159, 96, 174
-0.99948, 83, 59, 98, 74
-0.999481, 175, 117, 190, 132
-0.999481, 337, 127, 352, 142
-0.999481, 3, 263, 18, 278
-0.999481, 59, 93, 74, 108
-0.999482, 121, 191, 136, 206
-0.999482, 321, 177, 336, 192
-0.999482, 195, 221, 210, 236
-0.999483, 129, 53, 144, 68
-0.999483, 133, 63, 148, 78
-0.999484, 185, 215, 200, 230
-0.999484, 265, 269, 280, 284
-0.999484, 267, 281, 282, 296
-0.999484, 281, 233, 296, 248
-0.999485, 161, 187, 176, 202
-0.999485, 401, 1, 416, 16
-0.999485, 171, 111, 186, 126
-0.999486, 463, 17, 478, 32
-0.999486, 117, 117, 132, 132
-0.999486, 255, 285, 270, 300
-0.999486, 127, 71, 142, 86
-0.999487, 203, 185, 218, 200
-0.999488, 115, 99, 130, 114
-0.999488, 259, 235, 274, 250
-0.999488, 265, 205, 280, 220
-0.999488, 253, 297, 268, 312
-0.999489, 81, 111, 96, 126
-0.99949, 163, 97, 178, 112
-0.99949, 89, 179, 104, 194
-0.99949, 269, 239, 284, 254
-0.99949, 99, 337, 114, 352
-0.999491, 143, 55, 158, 70
-0.999493, 83, 177, 98, 192
-0.999493, 435, 143, 450, 158
-0.999493, 397, 149, 412, 164
-0.999494, 9, 259, 24, 274
-0.999494, 55, 197, 70, 212
-0.999495, 63, 33, 78, 48
-0.999495, 39, 3, 54, 18
-0.999496, 63, 101, 78, 116
-0.999497, 59, 83, 74, 98
-0.999497, 161, 181, 176, 196
-0.999497, 131, 121, 146, 136
-0.999497, 49, 7, 64, 22
-0.999497, 213, 159, 228, 174
-0.999498, 433, 353, 448, 368
-0.999498, 135, 105, 150, 120
-0.9995, 169, 123, 184, 138
-0.9995, 123, 95, 138, 110
-0.999501, 167, 187, 182, 202
-0.999501, 19, 349, 34, 364
-0.999501, 53, 23, 68, 38
-0.999502, 169, 359, 184, 374
-0.999502, 107, 165, 122, 180
-0.999503, 59, 27, 74, 42
-0.999504, 53, 77, 68, 92
-0.999504, 257, 201, 272, 216
-0.999504, 13, 353, 28, 368
-0.999505, 317, 3, 332, 18
-0.999506, 163, 103, 178, 118
-0.999506, 249, 289, 264, 304
-0.999506, 255, 195, 270, 210
-0.999506, 377, 123, 392, 138
-0.999506, 251, 177, 266, 192
-0.999506, 109, 99, 124, 114
-0.999507, 191, 215, 206, 230
-0.999507, 65, 25, 80, 40
-0.999509, 93, 173, 108, 188
-0.999509, 163, 165, 178, 180
-0.999509, 255, 291, 270, 306
-0.99951, 123, 119, 138, 134
-0.999511, 41, 219, 56, 234
-0.999511, 269, 249, 284, 264
-0.999512, 177, 253, 192, 268
-0.999514, 331, 129, 346, 144
-0.999514, 109, 111, 124, 126
-0.999514, 185, 209, 200, 336
-0.999515, 105, 159, 120, 174
-0.999517, 101, 129, 132, 375
-0.999517, 219, 163, 234, 178
-0.999517, 167, 181, 182, 196
-0.999519, 47, 1, 62, 16
-0.99952, 257, 207, 272, 222
-0.999521, 131, 33, 146, 160
-0.999521, 225, 167, 240, 182
-0.999521, 191, 225, 206, 352
-0.999522, 161, 161, 176, 288
-0.999522, 265, 193, 280, 320
-0.999522, 103, 95, 118, 110
-0.999523, 189, 253, 204, 268
-0.999525, 209, 187, 224, 202
-0.999527, 97, 107, 112, 122
-0.999528, 153, 93, 168, 108
-0.99953, 233, 161, 248, 288
-0.99953, 49, 345, 64, 360
-0.99953, 333, 161, 364, 288
-0.99953, 117, 105, 132, 120
-0.999531, 157, 113, 172, 128
-0.999533, 93, 163, 108, 178
-0.999534, 87, 113, 102, 128
-0.999534, 123, 111, 138, 126
-0.999535, 103, 101, 118, 116
-0.99954, 87, 171, 102, 186
-0.999542, 233, 173, 248, 188
-0.999542, 115, 111, 130, 126
-0.999543, 91, 107, 106, 122
-0.999544, 329, 185, 344, 200
-0.999547, 417, 65, 448, 192
-0.99955, 441, 1, 456, 128
-0.999551, 193, 145, 208, 272
-0.999553, 55, 343, 70, 358
-0.999554, 211, 145, 226, 272
-0.999556, 183, 249, 198, 264
-0.999558, 85, 165, 100, 180
-0.999559, 135, 93, 150, 108
-0.99956, 243, 185, 258, 200
-0.999562, 25, 1, 56, 128
-0.999562, 141, 97, 172, 352
-0.999563, 67, 1, 82, 128
-0.999563, 91, 161, 106, 288
-0.999563, 259, 241, 274, 368
-0.999565, 57, 1, 88, 256
-0.999568, 249, 189, 264, 204
-0.999568, 129, 97, 144, 112
-0.999569, 239, 179, 254, 194
-0.99957, 123, 103, 138, 118
-0.999577, 249, 113, 264, 240
-0.999577, 273, 193, 288, 320
-0.999577, 103, 107, 118, 122
-0.999579, 145, 1, 176, 256
-0.999581, 87, 1, 102, 128
-0.999582, 1, 209, 16, 336
-0.999583, 165, 117, 180, 132
-0.999585, 323, 183, 338, 198
-0.999586, 147, 111, 162, 126
-0.999589, 133, 113, 148, 128
-0.99959, 139, 49, 154, 176
-0.999591, 149, 65, 164, 192
-0.999593, 3, 145, 18, 272
-0.999596, 111, 105, 126, 120
-0.999596, 141, 109, 156, 124
-0.999601, 197, 193, 212, 320
-0.999606, 217, 145, 232, 272
-0.999608, 157, 105, 172, 120
-0.999609, 1, 81, 32, 208
-0.999611, 251, 241, 266, 368
-0.999615, 147, 95, 162, 110
-0.999616, 155, 129, 170, 256
-0.99962, 141, 101, 156, 116
-0.999621, 129, 103, 144, 118
-0.999625, 59, 17, 74, 144
-0.999626, 77, 129, 108, 375
-0.999628, 1, 1, 32, 256
-0.99963, 167, 161, 182, 288
-0.999632, 203, 129, 218, 256
-0.999639, 9, 1, 24, 128
-0.999641, 345, 33, 376, 160
-0.999648, 147, 101, 162, 116
-0.999649, 79, 145, 94, 272
-0.999653, 245, 241, 260, 368
-0.999655, 13, 1, 44, 256
-0.999656, 433, 1, 448, 128
-0.999656, 395, 1, 410, 128
-0.999662, 165, 1, 196, 256
-0.999663, 105, 97, 136, 224
-0.999666, 381, 33, 412, 288
-0.999669, 115, 17, 130, 144
-0.999669, 217, 209, 232, 336
-0.999676, 153, 99, 168, 114
-0.999682, 73, 145, 88, 272
-0.999685, 447, 1, 462, 128
-0.999687, 161, 49, 176, 176
-0.99969, 141, 95, 156, 110
-0.999691, 101, 209, 116, 336
-0.999691, 203, 209, 218, 336
-0.999692, 37, 1, 52, 128
-0.999693, 7, 225, 22, 352
-0.999702, 97, 129, 112, 256
-0.999703, 53, 49, 68, 176
-0.999706, 45, 193, 60, 320
-0.999709, 135, 99, 150, 114
-0.999714, 255, 129, 270, 256
-0.999714, 283, 209, 298, 336
-0.999716, 225, 241, 240, 368
-0.999718, 89, 65, 104, 192
-0.999718, 9, 145, 24, 272
-0.999718, 29, 65, 44, 192
-0.99972, 233, 209, 248, 336
-0.999723, 179, 209, 194, 336
-0.999724, 209, 193, 224, 320
-0.999726, 67, 113, 82, 240
-0.999727, 267, 145, 282, 272
-0.999727, 93, 1, 108, 128
-0.999727, 319, 1, 334, 128
-0.999729, 241, 113, 256, 240
-0.999729, 427, 1, 442, 128
-0.99973, 59, 145, 74, 272
-0.999731, 169, 209, 184, 336
-0.999742, 223, 193, 238, 320
-0.999742, 39, 193, 54, 320
-0.999744, 131, 97, 146, 224
-0.999747, 29, 97, 60, 352
-0.999749, 177, 113, 192, 240
-0.999753, 309, 1, 324, 128
-0.99976, 189, 65, 204, 192
-0.99976, 401, 1, 416, 128
-0.999761, 209, 241, 224, 368
-0.999763, 123, 97, 138, 224
-0.999768, 95, 209, 110, 336
-0.999769, 201, 33, 264, 288
-0.99977, 271, 241, 286, 368
-0.999771, 143, 97, 158, 224
-0.999771, 351, 241, 366, 368
-0.999775, 49, 145, 64, 272
-0.999776, 171, 65, 186, 192
-0.999777, 149, 129, 164, 256
-0.999779, 103, 161, 118, 288
-0.999781, 433, 33, 464, 288
-0.999781, 47, 65, 62, 192
-0.999782, 235, 113, 250, 240
-0.999783, 239, 241, 254, 368
-0.999787, 35, 97, 50, 224
-0.999787, 443, 209, 458, 336
-0.99979, 215, 97, 230, 224
-0.99979, 59, 65, 74, 192
-0.99979, 47, 1, 62, 128
-0.999791, 465, 1, 480, 128
-0.999793, 67, 161, 82, 288
-0.999793, 421, 1, 436, 128
-0.999796, 301, 1, 332, 256
-0.999797, 261, 145, 276, 272
-0.999797, 137, 1, 152, 128
-0.999798, 439, 145, 454, 272
-0.999798, 85, 161, 100, 288
-0.9998, 319, 65, 334, 192
-0.999801, 1, 49, 16, 176
-0.999802, 35, 145, 50, 272
-0.999802, 65, 209, 80, 336
-0.999803, 213, 1, 244, 256
-0.999804, 73, 193, 88, 320
-0.999805, 117, 97, 132, 224
-0.999807, 13, 193, 28, 320
-0.999807, 107, 17, 122, 144
-0.999807, 343, 97, 358, 224
-0.999808, 35, 49, 50, 176
-0.99981, 155, 177, 170, 304
-0.999811, 223, 97, 238, 224
-0.999813, 155, 33, 170, 160
-0.999813, 57, 97, 88, 352
-0.999814, 407, 193, 422, 320
-0.99982, 337, 113, 352, 240
-0.99982, 197, 65, 212, 192
-0.999821, 65, 193, 96, 320
-0.999822, 355, 193, 370, 320
-0.999825, 479, 1, 494, 128
-0.999825, 333, 65, 348, 192
-0.999826, 145, 17, 160, 144
-0.99983, 359, 97, 374, 224
-0.99983, 69, 65, 84, 192
-0.99983, 197, 241, 212, 368
-0.999831, 1, 57, 500, 120
-0.999832, 383, 17, 398, 144
-0.999833, 1, 97, 16, 224
-0.999857, 129, 33, 160, 288
-0.99987, 341, 241, 372, 368
-0.99988, 449, 1, 480, 256
-0.999883, 13, 1, 44, 128
-0.999883, 37, 193, 68, 320
-0.999901, 225, 1, 288, 256
-0.999912, 305, 49, 336, 176
-0.999942, 321, 241, 352, 368
-0.999948, 45, 97, 76, 352
-0.999948, 369, 1, 400, 256
-0.999951, 337, 1, 368, 256
-1.00001, 229, 1, 260, 256
-1.00004, 461, 1, 492, 256
-1.00008, 201, 33, 232, 288
-1.00011, 285, 129, 316, 375
-1.00012, 17, 113, 48, 240
-1.00013, 113, 129, 144, 375
-1.00014, 425, 129, 456, 375
-1.00021, 281, 33, 312, 288
-1.00023, 145, 49, 272, 112
-1.00023, 357, 65, 388, 320
-1.00034, 337, 129, 368, 375
-1.00036, 313, 1, 344, 256
-1.00038, 261, 33, 292, 288
-1.0004, 437, 129, 468, 375
-1.00041, 405, 97, 436, 352
-1.00041, 325, 1, 356, 256
-1.00045, 385, 129, 416, 375
-1.00048, 273, 129, 304, 375
-1.00049, 189, 1, 220, 256
-1.0005, 325, 129, 356, 375
-1.00051, 257, 113, 288, 240
-1.00052, 469, 129, 500, 375
-1.00053, 133, 1, 164, 128
-1.00053, 13, 225, 44, 352
-1.00054, 313, 129, 344, 375
-1.00055, 273, 65, 304, 192
-1.00057, 241, 33, 272, 288
-1.00058, 385, 177, 416, 304
-1.0006, 333, 1, 364, 128
-1.00062, 369, 17, 400, 144
-1.00063, 121, 209, 152, 336
-1.00065, 297, 129, 328, 375
-1.00068, 289, 1, 320, 128
-1.00069, 77, 113, 108, 240
-1.00074, 405, 1, 436, 128
-1.00081, 69, 241, 100, 368
-1.00081, 193, 1, 256, 128
-1.00084, 221, 97, 252, 224
-1.00084, 457, 129, 488, 375
-1.00085, 125, 129, 156, 375
-1.00092, 369, 97, 400, 352
-1.00104, 297, 225, 328, 352
-1.00108, 373, 241, 404, 368
-1.0011, 293, 97, 324, 224
-1.0011, 449, 145, 480, 272
-1.00113, 397, 113, 428, 240
-1.00132, 105, 161, 136, 288
-1.00136, 241, 65, 304, 192
-1.0014, 109, 225, 140, 352
-1.00141, 349, 193, 380, 320
-1.00154, 409, 225, 440, 352
-1.00154, 441, 225, 472, 352
-1.00157, 353, 241, 384, 368
-1.00165, 289, 49, 320, 176
-1.00168, 313, 193, 344, 320
-1.00176, 25, 225, 56, 352
-1.00183, 397, 65, 428, 192
-1.00184, 81, 193, 144, 320
-1.00186, 305, 97, 336, 224
-1.00189, 273, 1, 304, 128
-1.00197, 305, 129, 368, 375
-1.00199, 273, 113, 304, 240
-1.00202, 153, 241, 184, 368
-1.0021, 361, 113, 392, 240
-1.00277, 217, 65, 280, 192
-1.00343, 417, 241, 480, 368
-1.00405, 241, 17, 304, 144
-1.00544, 161, 1, 288, 128
-1.00625, 169, 17, 232, 144
-1.00898, 217, 17, 280, 144
