1862
-0.431363, 1, 1, 500, 332
-0.452127, 1, 65, 500, 320
-0.512529, 1, 1, 256, 332
-0.585369, 97, 1, 352, 332
-0.611921, 193, 1, 448, 332
-0.694648, 1, 65, 256, 320
-0.724256, 257, 65, 500, 320
-0.735546, 97, 65, 352, 320
-0.873114, 33, 1, 160, 332
-0.875498, 209, 1, 336, 332
-0.877094, 353, 1, 480, 256
-0.878131, 17, 65, 144, 320
-0.890485, 289, 1, 416, 332
-0.896748, 113, 1, 240, 332
-0.897461, 337, 1, 464, 332
-0.900535, 209, 65, 336, 320
-0.901505, 289, 33, 416, 288
-0.9032, 1, 129, 500, 256
-0.906409, 257, 161, 500, 288
-0.908699, 1, 193, 500, 320
-0.909137, 113, 33, 240, 288
-0.922345, 1, 145, 256, 272
-0.928996, 161, 1, 288, 332
-0.929357, 97, 145, 352, 272
-0.930501, 1, 17, 500, 144
-0.931061, 65, 193, 320, 320
-0.93132, 161, 65, 288, 320
-0.934761, 65, 65, 192, 320
-0.938708, 1, 81, 500, 208
-0.939334, 353, 161, 480, 288
-0.941932, 257, 209, 500, 332
-0.944957, 17, 129, 144, 256
-0.946185, 193, 113, 448, 240
-0.947215, 65, 97, 320, 224
-0.947286, 161, 193, 416, 320
-0.948113, 33, 1, 288, 128
-0.949189, 1, 177, 128, 304
-0.950605, 33, 49, 288, 176
-0.953261, 193, 161, 320, 288
-0.953462, 273, 193, 400, 320
-0.953957, 193, 65, 448, 192
-0.955635, 353, 161, 416, 288
-0.956237, 33, 1, 160, 128
-0.956293, 409, 161, 472, 288
-0.957629, 97, 177, 224, 304
-0.95842, 1, 177, 64, 304
-0.959306, 49, 65, 176, 192
-0.961101, 193, 17, 448, 144
-0.961117, 273, 145, 400, 272
-0.961385, 57, 49, 120, 176
-0.963481, 209, 1, 336, 128
-0.963774, 377, 145, 440, 272
-0.965285, 113, 177, 176, 304
-0.965353, 337, 113, 464, 240
-0.965829, 57, 1, 120, 128
-0.965949, 353, 209, 480, 332
-0.965998, 145, 49, 272, 176
-0.966747, 289, 97, 416, 224
-0.966822, 49, 209, 176, 332
-0.967527, 57, 97, 120, 224
-0.967769, 97, 113, 224, 240
-0.967901, 25, 161, 88, 288
-0.968614, 201, 161, 264, 288
-0.969163, 225, 209, 352, 332
-0.969375, 425, 209, 488, 332
-0.969704, 177, 193, 240, 320
-0.969735, 209, 65, 336, 192
-0.970256, 193, 113, 320, 240
-0.970264, 257, 161, 320, 288
-0.97066, 89, 129, 152, 256
-0.970725, 1, 81, 128, 208
-0.971018, 353, 17, 480, 144
-0.971623, 81, 1, 208, 128
-0.971691, 57, 105, 120, 168
-0.971991, 193, 241, 256, 304
-0.972216, 1, 201, 64, 264
-0.972606, 385, 193, 448, 320
-0.972668, 217, 241, 280, 304
-0.972881, 73, 209, 136, 332
-0.973098, 353, 209, 416, 332
-0.973273, 145, 113, 272, 240
-0.973336, 369, 153, 432, 216
-0.97374, 81, 121, 144, 184
-0.97383, 321, 193, 384, 320
-0.974022, 25, 177, 88, 240
-0.974062, 1, 129, 64, 192
-0.974178, 81, 1, 144, 128
-0.974461, 249, 233, 312, 296
-0.974903, 401, 161, 464, 224
-0.97495, 217, 137, 280, 200
-0.974958, 417, 193, 480, 256
-0.97515, 57, 1, 120, 64
-0.97537, 145, 1, 272, 128
-0.975391, 57, 81, 120, 144
-0.975391, 289, 1, 416, 128
-0.975496, 33, 113, 96, 240
-0.975562, 145, 209, 272, 332
-0.975568, 353, 161, 480, 224
-0.975722, 121, 129, 184, 256
-0.975727, 97, 65, 160, 192
-0.976067, 353, 33, 416, 160
-0.9761, 57, 41, 120, 104
-0.976246, 57, 129, 120, 192
-0.976254, 225, 1, 288, 128
-0.976294, 25, 209, 88, 332
-0.976434, 233, 193, 296, 320
-0.976439, 33, 137, 96, 200
-0.976612, 353, 177, 416, 240
-0.976807, 97, 97, 160, 160
-0.976956, 241, 137, 304, 200
-0.977094, 281, 97, 344, 224
-0.977346, 377, 217, 440, 280
-0.977381, 209, 113, 272, 240
-0.977742, 433, 161, 496, 288
-0.977859, 425, 225, 488, 288
-0.977934, 361, 81, 424, 208
-0.977952, 281, 193, 344, 320
-0.978096, 1, 161, 64, 224
-0.9782, 273, 17, 336, 144
-0.978235, 89, 225, 152, 288
-0.978325, 193, 201, 256, 264
-0.978656, 145, 161, 272, 288
-0.978743, 121, 81, 184, 208
-0.978752, 97, 65, 224, 192
-0.979058, 145, 161, 208, 288
-0.97916, 73, 177, 136, 240
-0.979217, 401, 113, 464, 240
-0.979314, 57, 201, 120, 264
-0.979319, 33, 153, 160, 216
-0.979362, 57, 65, 120, 320
-0.97939, 49, 129, 176, 192
-0.979526, 337, 65, 464, 192
-0.979617, 313, 185, 376, 248
-0.979627, 345, 217, 408, 280
-0.979742, 345, 153, 408, 216
-0.979806, 225, 1, 288, 64
-0.979849, 185, 49, 248, 176
-0.979988, 365, 161, 396, 288
-0.98001, 249, 161, 312, 224
-0.980294, 17, 177, 144, 240
-0.980406, 113, 153, 176, 216
-0.980462, 201, 209, 264, 332
-0.98057, 81, 25, 144, 88
-0.980633, 321, 97, 384, 224
-0.980673, 97, 193, 224, 256
-0.980854, 5, 193, 36, 320
-0.980886, 193, 201, 320, 264
-0.981059, 273, 201, 400, 264
-0.981278, 369, 217, 496, 280
-0.981312, 329, 81, 392, 144
-0.981381, 1, 97, 64, 224
-0.981538, 241, 113, 304, 240
-0.981573, 313, 1, 376, 128
-0.981624, 313, 145, 376, 272
-0.981708, 49, 209, 112, 332
-0.981722, 353, 193, 480, 256
-0.981743, 17, 1, 80, 128
-0.981813, 225, 33, 288, 96
-0.981834, 113, 193, 176, 256
-0.981927, 121, 129, 184, 192
-0.981934, 65, 233, 128, 296
-0.98209, 193, 161, 320, 224
-0.982104, 33, 65, 96, 320
-0.982104, 33, 33, 160, 96
-0.98211, 273, 137, 400, 200
-0.982205, 217, 161, 280, 224
-0.982217, 153, 113, 216, 240
-0.982551, 369, 65, 432, 320
-0.982573, 13, 185, 44, 248
-0.982578, 225, 65, 288, 192
-0.982668, 441, 161, 472, 288
-0.982687, 313, 1, 376, 64
-0.982712, 57, 257, 120, 320
-0.982719, 33, 1, 160, 64
-0.982771, 257, 49, 384, 176
-0.982774, 257, 209, 320, 332
-0.982808, 233, 265, 296, 328
-0.982958, 1, 201, 128, 264
-0.982979, 49, 57, 176, 120
-0.983105, 81, 49, 144, 112
-0.983158, 1, 249, 64, 312
-0.983413, 17, 177, 48, 304
-0.983736, 193, 137, 256, 200
-0.983757, 97, 217, 224, 280
-0.983775, 49, 105, 176, 168
-0.983865, 209, 17, 336, 80
-0.98391, 193, 241, 320, 304
-0.98394, 169, 217, 232, 280
-0.984001, 401, 137, 464, 200
-0.98409, 49, 81, 176, 144
-0.984091, 273, 1, 336, 64
-0.984119, 369, 97, 432, 160
-0.98424, 401, 225, 464, 288
-0.984316, 361, 161, 392, 224
-0.984387, 217, 217, 280, 280
-0.984422, 353, 73, 416, 136
-0.984471, 57, 1, 120, 332
-0.984484, 433, 113, 496, 240
-0.984555, 193, 97, 256, 160
-0.984573, 113, 169, 240, 232
-0.984595, 1, 241, 128, 304
-0.984623, 81, 1, 144, 64
-0.98473, 265, 201, 328, 264
-0.984765, 193, 73, 256, 136
-0.984837, 105, 209, 136, 332
-0.984846, 177, 113, 240, 240
-0.98485, 281, 145, 344, 272
-0.98486, 193, 1, 256, 128
-0.984869, 177, 137, 304, 200
-0.984879, 273, 97, 336, 160
-0.985015, 121, 105, 184, 168
-0.985019, 25, 113, 88, 176
-0.985037, 113, 121, 240, 184
-0.985062, 381, 145, 412, 272
-0.985118, 273, 241, 336, 304
-0.98512, 265, 273, 328, 332
-0.985133, 273, 41, 336, 104
-0.985135, 273, 225, 400, 288
-0.985182, 25, 169, 56, 232
-0.985251, 33, 209, 96, 272
-0.985298, 121, 161, 152, 288
-0.985322, 281, 137, 344, 200
-0.985423, 81, 65, 144, 320
-0.985456, 353, 9, 480, 72
-0.985475, 289, 177, 416, 240
-0.985508, 377, 17, 440, 144
-0.985517, 345, 1, 408, 256
-0.985608, 369, 97, 496, 160
-0.985622, 273, 73, 336, 136
-0.985633, 425, 169, 488, 232
-0.985665, 361, 9, 424, 72
-0.985773, 369, 129, 432, 192
-0.985845, 209, 73, 336, 136
-0.985845, 289, 97, 416, 160
-0.985845, 245, 249, 276, 312
-0.985859, 1, 129, 128, 192
-0.985864, 429, 145, 460, 272
-0.985865, 25, 233, 88, 296
-0.98588, 449, 201, 480, 264
-0.985902, 225, 41, 352, 104
-0.98593, 233, 97, 296, 160
-0.985947, 65, 161, 128, 288
-0.985948, 5, 153, 36, 216
-0.986007, 433, 161, 464, 224
-0.986063, 105, 217, 136, 280
-0.986076, 25, 89, 88, 152
-0.986096, 25, 49, 88, 176
-0.986197, 305, 81, 368, 144
-0.9862, 81, 257, 144, 320
-0.986217, 33, 161, 64, 288
-0.986258, 433, 137, 496, 200
-0.986324, 361, 193, 392, 256
-0.986333, 233, 73, 296, 136
-0.986342, 33, 265, 96, 328
-0.986392, 225, 233, 256, 296
-0.986444, 345, 105, 408, 168
-0.986453, 121, 1, 184, 128
-0.986456, 209, 113, 336, 176
-0.986481, 121, 153, 152, 216
-0.986539, 113, 145, 240, 208
-0.986819, 1, 209, 32, 272
-0.986929, 145, 9, 272, 72
-0.986941, 217, 65, 280, 320
-0.986977, 377, 153, 408, 216
-0.987007, 25, 41, 88, 104
-0.987016, 225, 137, 256, 200
-0.98705, 17, 17, 80, 80
-0.98708, 89, 73, 152, 136
-0.987115, 353, 73, 480, 136
-0.987118, 361, 1, 424, 332
-0.987131, 305, 9, 432, 72
-0.987164, 121, 65, 184, 320
-0.98718, 289, 73, 416, 136
-0.98725, 289, 201, 352, 264
-0.987309, 205, 193, 236, 320
-0.98735, 113, 217, 176, 280
-0.98735, 433, 65, 496, 320
-0.987436, 409, 1, 472, 64
-0.987458, 393, 145, 424, 272
-0.987529, 393, 193, 456, 256
-0.987537, 305, 161, 368, 224
-0.987556, 145, 233, 272, 296
-0.987557, 49, 113, 80, 240
-0.987579, 145, 193, 208, 256
-0.987602, 113, 49, 240, 112
-0.987667, 257, 1, 384, 64
-0.98768, 81, 1, 144, 332
-0.987718, 193, 49, 256, 112
-0.987783, 193, 65, 256, 320
-0.987819, 285, 97, 316, 160
-0.987939, 405, 145, 436, 272
-0.987946, 313, 209, 376, 272
-0.987951, 145, 201, 272, 264
-0.987997, 101, 113, 132, 240
-0.988046, 361, 217, 392, 280
-0.988138, 321, 137, 384, 200
-0.988157, 121, 25, 184, 88
-0.98816, 321, 217, 448, 280
-0.988183, 81, 201, 144, 264
-0.988197, 449, 209, 480, 332
-0.988219, 353, 137, 480, 200
-0.98829, 417, 145, 448, 272
-0.988303, 329, 49, 392, 176
-0.988394, 69, 33, 100, 160
-0.988414, 401, 65, 464, 320
-0.988424, 305, 49, 368, 176
-0.988602, 177, 177, 240, 240
-0.988608, 193, 265, 320, 328
-0.98865, 177, 41, 304, 104
-0.988725, 121, 185, 152, 248
-0.988798, 381, 185, 412, 248
-0.988811, 241, 209, 304, 272
-0.988824, 225, 137, 352, 200
-0.988825, 113, 97, 240, 160
-0.988892, 89, 49, 120, 176
-0.988937, 201, 201, 232, 264
-0.988955, 49, 209, 176, 272
-0.98898, 353, 161, 384, 288
-0.989053, 273, 169, 336, 232
-0.98909, 1, 265, 128, 328
-0.98914, 257, 65, 320, 320
-0.989171, 393, 89, 456, 152
-0.989181, 285, 161, 316, 288
-0.989189, 185, 25, 248, 88
-0.989237, 433, 273, 496, 332
-0.98924, 45, 145, 76, 208
-0.989247, 281, 73, 312, 136
-0.989328, 385, 97, 416, 224
-0.989376, 273, 137, 304, 200
-0.989378, 89, 153, 152, 216
-0.989452, 145, 73, 272, 136
-0.989491, 385, 193, 416, 320
-0.989542, 373, 81, 404, 144
-0.98956, 337, 33, 400, 96
-0.989612, 453, 145, 484, 272
-0.989617, 49, 233, 176, 296
-0.989747, 381, 217, 412, 280
-0.989807, 53, 113, 84, 176
-0.989847, 1, 89, 128, 152
-0.989913, 369, 33, 496, 96
-0.989927, 81, 9, 208, 72
-0.989927, 269, 233, 300, 296
-0.99001, 45, 33, 76, 160
-0.990116, 213, 241, 244, 304
-0.990143, 289, 33, 416, 96
-0.990154, 241, 249, 368, 312
-0.99016, 121, 49, 184, 112
-0.990224, 397, 209, 428, 332
-0.990229, 201, 241, 264, 272
-0.990236, 277, 161, 308, 224
-0.990239, 61, 97, 92, 224
-0.990257, 93, 233, 124, 296
-0.990313, 25, 1, 88, 332
-0.990318, 233, 245, 296, 276
-0.990381, 89, 257, 120, 320
-0.990409, 89, 97, 120, 224
-0.990412, 413, 153, 444, 216
-0.990422, 213, 161, 244, 224
-0.990446, 441, 225, 472, 288
-0.990466, 233, 193, 264, 320
-0.9905, 301, 33, 332, 160
-0.990508, 397, 153, 428, 216
-0.990513, 49, 257, 176, 320
-0.990523, 125, 129, 156, 192
-0.990524, 1, 225, 64, 288
-0.990549, 161, 81, 224, 144
-0.990563, 433, 209, 464, 332
-0.990571, 69, 81, 100, 144
-0.990609, 401, 301, 464, 332
-0.990623, 425, 301, 488, 332
-0.990624, 121, 1, 184, 64
-0.990643, 289, 1, 352, 256
-0.990655, 49, 249, 112, 280
-0.990662, 17, 249, 80, 280
-0.990663, 297, 1, 360, 332
-0.990692, 237, 137, 268, 200
-0.990693, 125, 113, 156, 240
-0.990713, 361, 209, 392, 332
-0.990714, 89, 89, 120, 152
-0.990717, 25, 65, 88, 128
-0.990731, 273, 1, 336, 332
-0.990732, 377, 33, 440, 96
-0.990733, 161, 113, 288, 176
-0.990752, 57, 137, 88, 200
-0.99076, 469, 97, 500, 160
-0.990775, 369, 81, 400, 208
-0.990839, 349, 193, 380, 256
-0.99092, 197, 233, 228, 296
-0.990926, 257, 245, 320, 276
-0.99094, 393, 221, 456, 252
-0.990968, 13, 241, 44, 304
-0.991056, 297, 33, 360, 96
-0.991061, 229, 257, 260, 320
-0.991083, 221, 113, 252, 240
-0.991093, 217, 177, 248, 304
-0.991125, 453, 225, 484, 288
-0.991127, 193, 177, 224, 304
-0.991131, 1, 209, 64, 240
-0.991148, 77, 233, 108, 296
-0.991162, 93, 209, 124, 332
-0.991169, 257, 257, 288, 320
-0.991177, 433, 113, 496, 176
-0.991189, 121, 81, 184, 144
-0.991193, 353, 221, 416, 252
-0.991214, 105, 129, 136, 192
-0.991262, 57, 113, 120, 144
-0.991268, 57, 17, 120, 48
-0.99127, 265, 301, 328, 332
-0.991279, 353, 301, 416, 332
-0.991301, 201, 265, 264, 328
-0.991303, 161, 65, 224, 320
-0.991322, 417, 221, 480, 252
-0.991337, 193, 253, 256, 284
-0.991353, 233, 1, 264, 64
-0.991363, 289, 201, 320, 264
-0.991367, 369, 157, 432, 188
-0.991391, 337, 9, 400, 72
-0.991408, 57, 101, 120, 132
-0.991414, 109, 161, 140, 288
-0.991421, 305, 301, 368, 332
-0.991426, 113, 1, 176, 332
-0.991447, 245, 225, 276, 288
-0.991464, 57, 53, 120, 84
-0.99148, 153, 49, 216, 176
-0.991485, 337, 1, 400, 332
-0.99149, 201, 177, 232, 240
-0.9915, 57, 33, 120, 64
-0.991508, 373, 209, 404, 332
-0.991541, 257, 161, 500, 224
-0.991544, 425, 209, 488, 240
-0.991548, 421, 209, 452, 332
-0.991549, 29, 209, 60, 332
-0.991559, 369, 33, 400, 160
-0.991564, 49, 1, 112, 32
-0.99157, 177, 237, 240, 268
-0.991589, 349, 81, 380, 208
-0.99159, 241, 177, 368, 240
-0.991591, 193, 201, 256, 232
-0.991596, 225, 233, 288, 264
-0.991617, 225, 5, 288, 36
-0.991649, 273, 161, 304, 288
-0.991683, 253, 137, 284, 200
-0.991687, 393, 33, 424, 160
-0.991692, 401, 161, 464, 192
-0.9917, 9, 197, 72, 228
-0.991705, 113, 193, 176, 224
-0.991706, 81, 133, 144, 164
-0.991707, 77, 81, 108, 208
-0.991713, 449, 177, 480, 240
-0.991732, 57, 133, 120, 164
-0.991739, 57, 81, 120, 112
-0.991753, 213, 201, 244, 264
-0.991777, 69, 57, 100, 120
-0.991791, 305, 205, 368, 236
-0.9918, 301, 97, 332, 160
-0.991814, 257, 233, 320, 264
-0.991823, 1, 165, 64, 196
-0.991835, 57, 65, 120, 96
-0.991849, 89, 117, 152, 148
-0.991854, 329, 85, 392, 116
-0.991857, 353, 85, 416, 116
-0.991867, 345, 177, 408, 208
-0.991868, 97, 201, 352, 264
-0.991872, 385, 81, 448, 112
-0.991873, 433, 9, 496, 72
-0.991877, 393, 233, 456, 264
-0.991879, 353, 73, 384, 136
-0.991919, 201, 1, 264, 64
-0.991922, 169, 193, 232, 224
-0.99194, 81, 53, 144, 84
-0.991958, 369, 97, 432, 128
-0.991976, 73, 245, 136, 276
-0.991995, 65, 25, 96, 88
-0.992, 113, 149, 176, 180
-0.992024, 1, 145, 64, 176
-0.992027, 345, 129, 408, 192
-0.992034, 437, 185, 468, 248
-0.992071, 193, 61, 256, 92
-0.992075, 353, 209, 416, 240
-0.992085, 81, 1, 144, 32
-0.992087, 405, 81, 436, 208
-0.992102, 25, 169, 88, 200
-0.99211, 385, 65, 448, 192
-0.992114, 257, 193, 500, 256
-0.992131, 425, 233, 488, 264
-0.992149, 193, 93, 256, 124
-0.992151, 249, 161, 312, 192
-0.992161, 409, 181, 472, 212
-0.992165, 9, 185, 72, 216
-0.992166, 73, 193, 136, 224
-0.992169, 97, 241, 160, 272
-0.992177, 217, 161, 280, 192
-0.992179, 385, 113, 416, 176
-0.992192, 329, 297, 392, 328
-0.992202, 417, 217, 448, 280
-0.992211, 81, 65, 144, 96
-0.992229, 61, 201, 92, 264
-0.992233, 113, 177, 176, 208
-0.992236, 81, 13, 144, 44
-0.992247, 81, 29, 144, 60
-0.992255, 341, 73, 372, 136
-0.992258, 25, 121, 88, 152
-0.992267, 257, 233, 288, 296
-0.992282, 261, 193, 292, 320
-0.992286, 89, 129, 120, 192
-0.992292, 89, 1, 120, 128
-0.992294, 289, 169, 320, 232
-0.992311, 193, 225, 256, 256
-0.992312, 113, 165, 176, 196
-0.992314, 321, 1, 384, 256
-0.992323, 81, 41, 144, 72
-0.992335, 225, 21, 288, 52
-0.992354, 225, 137, 288, 168
-0.992354, 113, 209, 176, 240
-0.992359, 329, 97, 392, 128
-0.992363, 57, 261, 120, 292
-0.992378, 425, 1, 488, 332
-0.99238, 193, 81, 256, 112
-0.992385, 313, 17, 376, 48
-0.992395, 281, 237, 344, 268
-0.992399, 153, 209, 216, 332
-0.992406, 53, 209, 84, 332
-0.992416, 33, 157, 96, 188
-0.99242, 305, 93, 368, 124
-0.99242, 393, 93, 456, 124
-0.992423, 313, 185, 376, 216
-0.992434, 129, 129, 192, 160
-0.992438, 117, 209, 148, 332
-0.992451, 117, 209, 148, 272
-0.992456, 9, 237, 72, 268
-0.992473, 9, 133, 72, 164
-0.992474, 33, 261, 96, 292
-0.992492, 281, 233, 312, 296
-0.992496, 89, 97, 152, 128
-0.992504, 353, 233, 416, 264
-0.992525, 417, 193, 480, 224
-0.992536, 329, 209, 392, 240
-0.992538, 233, 1, 264, 128
-0.992539, 225, 41, 288, 72
-0.992541, 265, 97, 328, 128
-0.992542, 105, 221, 168, 252
-0.992559, 193, 1, 256, 332
-0.99256, 81, 257, 144, 288
-0.992564, 377, 301, 440, 332
-0.992574, 377, 57, 440, 120
-0.992582, 233, 81, 296, 112
-0.992584, 221, 241, 252, 272
-0.992584, 153, 113, 216, 176
-0.992585, 249, 145, 312, 176
-0.992588, 257, 257, 320, 288
-0.992596, 97, 241, 224, 304
-0.992601, 41, 145, 104, 176
-0.992601, 225, 257, 288, 288
-0.992608, 433, 177, 496, 208
-0.992627, 345, 189, 408, 220
-0.992627, 153, 205, 216, 236
-0.992642, 185, 49, 248, 80
-0.992645, 73, 209, 136, 240
-0.992652, 401, 217, 432, 280
-0.992663, 1, 129, 256, 192
-0.992664, 369, 273, 496, 332
-0.992673, 273, 85, 336, 116
-0.992674, 345, 161, 408, 192
-0.992674, 17, 21, 80, 52
-0.992684, 409, 17, 472, 48
-0.9927, 313, 1, 376, 32
-0.992703, 265, 245, 296, 276
-0.992707, 273, 113, 304, 240
-0.99271, 137, 181, 200, 212
-0.992714, 453, 301, 484, 332
-0.992721, 281, 189, 344, 220
-0.992731, 81, 77, 144, 108
-0.992731, 281, 153, 344, 184
-0.992734, 273, 29, 336, 60
-0.992734, 121, 117, 184, 148
-0.992739, 425, 81, 488, 112
-0.992739, 265, 205, 328, 236
-0.992764, 305, 217, 368, 248
-0.992771, 185, 129, 248, 160
-0.992774, 433, 137, 464, 200
-0.99278, 377, 209, 440, 240
-0.992781, 281, 165, 344, 196
-0.992782, 1, 185, 32, 248
-0.992783, 273, 9, 336, 40
-0.992785, 361, 17, 424, 48
-0.992795, 233, 1, 296, 332
-0.992798, 369, 69, 432, 100
-0.992799, 225, 69, 288, 100
-0.9928, 209, 241, 240, 272
-0.992815, 153, 217, 216, 248
-0.992815, 225, 161, 256, 224
-0.992833, 193, 1, 256, 32
-0.992834, 25, 69, 88, 100
-0.992838, 225, 53, 288, 84
-0.99284, 245, 193, 276, 320
-0.992848, 429, 301, 460, 332
-0.992896, 401, 89, 432, 152
-0.992897, 293, 209, 324, 332
-0.992901, 409, 193, 440, 320
-0.992924, 465, 301, 496, 332
-0.992957, 289, 273, 416, 332
-0.992965, 13, 193, 44, 224
-0.992977, 425, 73, 488, 136
-0.992986, 253, 245, 284, 276
-0.992986, 1, 273, 64, 332
-0.993002, 141, 169, 172, 232
-0.993016, 53, 249, 84, 280
-0.993019, 13, 209, 44, 272
-0.993033, 233, 245, 264, 276
-0.993043, 217, 193, 280, 256
-0.993048, 361, 209, 392, 240
-0.993053, 21, 249, 52, 280
-0.993061, 277, 241, 308, 272
-0.993064, 69, 105, 100, 168
-0.993064, 385, 1, 448, 332
-0.993071, 81, 245, 112, 276
-0.993071, 377, 101, 408, 132
-0.993095, 65, 225, 320, 288
-0.993096, 369, 221, 400, 252
-0.993099, 397, 301, 428, 332
-0.99311, 257, 225, 500, 288
-0.993136, 285, 33, 316, 160
-0.993138, 81, 193, 112, 320
-0.993143, 341, 301, 372, 332
-0.993144, 357, 177, 388, 208
-0.993152, 377, 301, 408, 332
-0.993157, 353, 297, 384, 328
-0.993161, 9, 205, 40, 236
-0.993162, 289, 241, 320, 272
-0.993162, 41, 249, 72, 280
-0.993165, 285, 301, 316, 332
-0.993167, 453, 213, 484, 244
-0.993172, 369, 113, 400, 176
-0.993175, 345, 209, 376, 332
-0.993179, 205, 229, 236, 260
-0.993179, 341, 85, 372, 116
-0.993179, 1, 245, 32, 276
-0.993181, 401, 93, 432, 124
-0.993186, 421, 221, 452, 252
-0.99319, 45, 145, 76, 176
-0.993193, 377, 157, 408, 188
-0.993193, 89, 65, 120, 128
-0.993193, 201, 205, 232, 236
-0.993195, 441, 301, 472, 332
-0.993197, 353, 89, 384, 120
-0.993202, 381, 221, 412, 252
-0.993207, 1, 241, 32, 304
-0.993214, 361, 165, 392, 196
-0.993215, 69, 249, 100, 280
-0.993216, 281, 101, 312, 132
-0.993218, 233, 5, 264, 36
-0.993218, 125, 193, 156, 224
-0.993219, 245, 233, 276, 264
-0.993224, 365, 301, 396, 332
-0.993228, 417, 301, 448, 332
-0.993232, 433, 165, 464, 196
-0.993236, 273, 301, 304, 332
-0.993241, 69, 77, 100, 108
-0.993244, 125, 145, 156, 176
-0.993249, 401, 221, 432, 252
-0.993249, 369, 233, 400, 264
-0.993251, 305, 301, 336, 332
-0.993258, 121, 181, 152, 212
-0.99326, 105, 225, 136, 256
-0.993264, 201, 253, 232, 284
-0.993268, 1, 189, 32, 220
-0.993277, 193, 137, 448, 200
-0.993278, 369, 85, 400, 116
-0.993283, 89, 113, 120, 144
-0.993297, 389, 233, 420, 264
-0.993298, 69, 97, 100, 128
-0.993299, 277, 161, 308, 192
-0.9933, 29, 169, 60, 200
-0.993301, 297, 105, 360, 168
-0.993304, 1, 149, 32, 180
-0.993304, 277, 253, 308, 284
-0.993305, 361, 189, 392, 220
-0.993307, 325, 297, 356, 328
-0.993308, 57, 141, 88, 172
-0.993315, 73, 117, 104, 148
-0.99332, 445, 201, 476, 232
-0.993322, 113, 133, 144, 164
-0.993325, 205, 193, 236, 224
-0.993328, 105, 241, 136, 272
-0.993336, 121, 205, 152, 236
-0.99334, 221, 253, 252, 284
-0.993341, 9, 165, 40, 196
-0.993349, 433, 217, 464, 248
-0.993354, 453, 225, 484, 256
-0.993358, 17, 177, 48, 208
-0.993369, 285, 229, 316, 260
-0.99337, 225, 141, 256, 172
-0.99337, 89, 257, 120, 288
-0.993371, 217, 165, 248, 196
-0.993373, 389, 81, 420, 112
-0.993373, 441, 185, 472, 216
-0.993374, 289, 253, 320, 284
-0.993384, 281, 89, 312, 120
-0.993389, 441, 229, 472, 260
-0.993391, 193, 225, 224, 256
-0.993393, 321, 85, 352, 116
-0.993395, 345, 177, 376, 208
-0.993398, 265, 233, 296, 264
-0.993404, 65, 29, 96, 60
-0.993407, 241, 257, 272, 288
-0.993407, 301, 189, 332, 220
-0.993408, 341, 205, 372, 236
-0.993408, 117, 217, 148, 248
-0.993409, 401, 233, 432, 264
-0.993411, 181, 193, 212, 224
-0.993415, 93, 241, 124, 272
-0.993418, 89, 73, 120, 104
-0.993422, 37, 157, 68, 188
-0.993423, 1, 221, 32, 252
-0.993425, 453, 181, 484, 212
-0.993428, 85, 21, 116, 52
-0.993428, 413, 89, 444, 120
-0.993431, 89, 101, 120, 132
-0.993434, 89, 61, 120, 92
-0.993436, 349, 217, 380, 248
-0.993436, 121, 161, 152, 192
-0.993439, 69, 61, 100, 92
-0.99344, 301, 101, 332, 132
-0.993445, 221, 153, 252, 184
-0.993446, 349, 193, 380, 224
-0.993451, 469, 117, 500, 148
-0.993456, 105, 241, 136, 304
-0.993457, 373, 209, 404, 240
-0.993458, 357, 229, 388, 260
-0.993465, 385, 181, 416, 212
-0.993465, 193, 193, 224, 224
-0.993466, 181, 49, 212, 80
-0.993467, 285, 53, 316, 84
-0.993476, 301, 245, 332, 276
-0.993479, 461, 193, 492, 224
-0.99348, 233, 161, 264, 192
-0.993487, 409, 77, 440, 108
-0.993487, 73, 129, 104, 160
-0.993494, 185, 205, 216, 236
-0.993496, 25, 189, 56, 220
-0.993499, 233, 233, 264, 264
-0.993499, 5, 261, 36, 292
-0.993501, 89, 89, 120, 120
-0.993535, 49, 57, 80, 120
-0.993536, 145, 257, 272, 320
-0.993548, 297, 57, 360, 120
-0.99357, 13, 129, 44, 256
-0.99359, 65, 193, 96, 320
-0.993616, 25, 249, 56, 312
-0.993681, 357, 33, 388, 160
-0.993748, 445, 137, 476, 200
-0.993763, 33, 73, 288, 136
-0.993787, 433, 17, 496, 144
-0.993808, 89, 41, 120, 104
-0.993822, 233, 113, 264, 240
-0.993823, 153, 169, 216, 232
-0.993879, 153, 57, 216, 120
-0.993905, 33, 17, 288, 80
-0.994007, 33, 97, 288, 160
-0.994009, 41, 121, 72, 184
-0.994022, 1, 225, 500, 288
-0.994028, 1, 161, 256, 224
-0.994039, 257, 65, 320, 192
-0.994057, 293, 233, 324, 296
-0.994094, 353, 161, 480, 192
-0.994098, 285, 121, 316, 184
-0.994119, 213, 137, 244, 200
-0.994138, 429, 225, 460, 288
-0.99415, 97, 73, 224, 136
-0.994166, 205, 145, 236, 272
-0.994199, 289, 273, 352, 332
-0.99421, 181, 185, 212, 248
-0.994223, 169, 241, 232, 304
-0.994239, 461, 185, 492, 248
-0.994254, 313, 17, 344, 144
-0.994275, 329, 73, 360, 136
-0.994275, 1, 65, 128, 128
-0.994282, 97, 161, 352, 224
-0.994282, 301, 193, 332, 256
-0.994286, 1, 193, 256, 256
-0.994389, 97, 137, 352, 200
-0.994392, 49, 89, 80, 152
-0.994459, 417, 81, 448, 208
-0.994466, 1, 201, 500, 264
-0.994504, 281, 209, 312, 332
-0.994539, 289, 249, 416, 312
-0.994562, 265, 97, 296, 160
-0.994562, 137, 113, 168, 176
-0.99458, 9, 65, 72, 320
-0.994587, 169, 1, 232, 332
-0.994602, 33, 41, 288, 104
-0.994615, 249, 33, 312, 96
-0.994643, 385, 9, 448, 72
-0.994652, 45, 249, 76, 312
-0.994705, 301, 41, 332, 104
-0.994715, 37, 97, 68, 224
-0.99475, 381, 33, 412, 160
-0.994765, 85, 17, 116, 80
-0.994769, 321, 81, 352, 208
-0.994844, 465, 145, 496, 272
-0.994856, 465, 193, 496, 320
-0.994873, 137, 113, 168, 240
-0.994896, 69, 265, 100, 328
-0.994909, 233, 33, 264, 96
-0.99491, 369, 273, 432, 332
-0.994973, 321, 57, 384, 120
-0.994983, 217, 73, 248, 136
-0.994983, 109, 153, 140, 216
-0.995004, 289, 81, 320, 208
-0.995004, 1, 1, 64, 332
-0.995019, 409, 113, 472, 176
-0.9951, 133, 177, 164, 304
-0.995183, 161, 233, 416, 296
-0.995199, 145, 1, 208, 332
-0.995271, 37, 169, 68, 232
-0.995273, 289, 145, 320, 208
-0.995277, 33, 133, 160, 164
-0.995287, 357, 137, 388, 200
-0.995296, 57, 265, 88, 328
-0.995325, 301, 73, 332, 136
-0.995359, 337, 241, 464, 304
-0.995387, 265, 33, 296, 160
-0.995395, 117, 97, 148, 160
-0.995402, 61, 1, 92, 64
-0.995418, 185, 217, 216, 280
-0.995419, 305, 177, 336, 304
-0.995447, 193, 241, 320, 272
-0.995448, 133, 65, 164, 192
-0.99547, 269, 265, 300, 328
-0.995478, 353, 97, 384, 160
-0.995478, 349, 217, 380, 280
-0.995495, 217, 65, 248, 192
-0.995503, 13, 129, 44, 192
-0.995503, 109, 177, 140, 240
-0.995534, 25, 201, 56, 264
-0.995548, 193, 89, 448, 152
-0.995555, 113, 193, 240, 224
-0.995567, 225, 113, 256, 176
-0.995608, 33, 249, 288, 312
-0.995628, 341, 129, 372, 256
-0.995629, 45, 17, 76, 80
-0.995632, 397, 129, 428, 192
-0.995642, 285, 257, 316, 320
-0.995724, 217, 1, 248, 128
-0.99575, 433, 97, 464, 224
-0.995752, 393, 1, 424, 64
-0.995758, 45, 161, 76, 288
-0.995781, 369, 221, 496, 252
-0.99581, 425, 65, 488, 192
-0.995811, 273, 229, 400, 260
-0.995811, 453, 97, 484, 224
-0.995814, 337, 81, 368, 208
-0.995869, 1, 145, 32, 272
-0.995879, 241, 273, 368, 332
-0.995882, 41, 209, 72, 332
-0.995898, 249, 1, 312, 128
-0.995901, 369, 301, 496, 332
-0.995908, 97, 213, 224, 244
-0.995932, 1, 205, 128, 236
-0.995932, 465, 33, 496, 160
-0.995938, 29, 177, 44, 240
-0.995972, 417, 129, 448, 192
-0.995987, 105, 65, 136, 192
-0.995988, 1, 245, 128, 276
-0.995988, 73, 129, 104, 192
-0.996004, 297, 129, 328, 256
-0.996014, 289, 101, 416, 132
-0.996017, 461, 1, 492, 64
-0.996029, 137, 137, 168, 200
-0.996029, 89, 209, 120, 272
-0.996034, 217, 17, 248, 80
-0.99604, 9, 265, 40, 328
-0.996057, 193, 113, 448, 176
-0.996117, 185, 33, 216, 160
-0.99612, 289, 209, 416, 240
-0.996132, 261, 113, 292, 240
-0.996143, 193, 9, 448, 72
-0.996157, 117, 217, 132, 280
-0.996162, 3, 217, 18, 280
-0.996194, 49, 73, 176, 104
-0.996195, 1, 153, 500, 216
-0.996216, 193, 257, 320, 288
-0.996246, 33, 9, 160, 40
-0.996267, 193, 33, 448, 96
-0.996271, 33, 149, 160, 180
-0.996404, 353, 93, 480, 124
-0.996405, 209, 141, 336, 172
-0.99642, 127, 153, 142, 216
-0.996431, 49, 85, 176, 116
-0.996452, 33, 45, 160, 76
-0.99646, 353, 181, 480, 212
-0.996491, 33, 61, 160, 92
-0.996516, 153, 1, 216, 128
-0.996519, 33, 33, 160, 64
-0.996532, 233, 65, 264, 192
-0.996557, 17, 185, 32, 248
-0.996577, 305, 89, 432, 120
-0.996587, 17, 185, 144, 216
-0.996602, 363, 201, 378, 264
-0.996609, 461, 209, 476, 272
-0.996634, 33, 21, 160, 52
-0.996636, 113, 113, 144, 240
-0.996646, 289, 301, 416, 332
-0.996674, 455, 193, 470, 256
-0.996693, 17, 257, 144, 288
-0.9967, 35, 169, 50, 232
-0.996742, 273, 149, 400, 180
-0.996747, 193, 205, 320, 236
-0.996751, 129, 125, 256, 156
-0.996753, 353, 193, 480, 224
-0.996779, 97, 225, 224, 256
-0.996787, 235, 137, 250, 200
-0.996788, 185, 129, 216, 256
-0.996801, 17, 173, 144, 204
-0.996819, 161, 57, 416, 120
-0.996834, 225, 5, 352, 36
-0.996843, 353, 9, 480, 40
-0.996856, 229, 137, 244, 200
-0.996867, 49, 109, 176, 140
-0.996873, 209, 53, 336, 84
-0.996879, 357, 185, 372, 248
-0.996885, 11, 209, 26, 272
-0.996891, 383, 185, 398, 248
-0.9969, 7, 145, 22, 208
-0.996906, 145, 161, 176, 288
-0.996913, 383, 153, 398, 216
-0.996967, 303, 97, 318, 160
-0.996974, 249, 249, 264, 312
-0.99698, 273, 241, 400, 272
-0.996981, 337, 17, 368, 144
-0.996981, 369, 233, 496, 264
-0.99699, 95, 89, 110, 152
-0.996992, 1, 145, 16, 208
-0.996993, 273, 197, 400, 228
-0.997, 153, 113, 184, 240
-0.997003, 353, 21, 480, 52
-0.997011, 443, 161, 458, 224
-0.99702, 239, 241, 254, 304
-0.997021, 93, 161, 124, 288
-0.997034, 225, 81, 352, 112
-0.997042, 103, 241, 118, 304
-0.997048, 193, 229, 320, 260
-0.997049, 113, 181, 240, 212
-0.997053, 89, 241, 104, 304
-0.997076, 113, 141, 240, 172
-0.997079, 383, 81, 398, 144
-0.997096, 329, 129, 360, 256
-0.9971, 145, 241, 272, 272
-0.997102, 369, 225, 384, 288
-0.997102, 201, 97, 232, 224
-0.997107, 1, 177, 500, 240
-0.997109, 405, 17, 436, 144
-0.997125, 131, 129, 146, 192
-0.997126, 377, 201, 392, 264
-0.997126, 301, 81, 332, 208
-0.997126, 389, 153, 404, 216
-0.997128, 369, 209, 496, 240
-0.99714, 193, 165, 320, 196
-0.997144, 295, 169, 310, 232
-0.997149, 225, 21, 352, 52
-0.997165, 305, 17, 432, 48
-0.997167, 125, 193, 140, 256
-0.997188, 169, 49, 200, 176
-0.997201, 23, 193, 38, 256
-0.997202, 111, 225, 126, 288
-0.997209, 285, 137, 300, 200
-0.997209, 363, 169, 378, 232
-0.997211, 213, 169, 228, 232
-0.99722, 451, 169, 466, 232
-0.997221, 17, 161, 144, 192
-0.997222, 321, 221, 448, 252
-0.997224, 129, 65, 256, 96
-0.997227, 49, 97, 176, 128
-0.997231, 373, 161, 388, 224
-0.997238, 49, 121, 176, 152
-0.997239, 49, 205, 176, 236
-0.997248, 57, 49, 88, 176
-0.99726, 209, 41, 336, 72
-0.997265, 245, 113, 276, 240
-0.997265, 95, 257, 110, 320
-0.997271, 63, 105, 78, 168
-0.997277, 145, 1, 272, 32
-0.997281, 263, 233, 278, 296
-0.997281, 161, 257, 416, 320
-0.997283, 455, 217, 470, 280
-0.997283, 369, 105, 496, 136
-0.997294, 125, 129, 140, 192
-0.99731, 369, 201, 384, 264
-0.997313, 1, 33, 500, 96
-0.997331, 219, 161, 234, 224
-0.997333, 203, 241, 218, 304
-0.997345, 255, 241, 270, 304
-0.997347, 65, 193, 192, 224
-0.997358, 97, 129, 112, 192
-0.997365, 205, 201, 220, 264
-0.997366, 383, 217, 398, 280
-0.997379, 447, 225, 462, 288
-0.997385, 255, 137, 270, 200
-0.997401, 387, 113, 402, 176
-0.997402, 475, 97, 490, 160
-0.997406, 25, 97, 56, 224
-0.99741, 377, 73, 392, 136
-0.99741, 303, 185, 318, 248
-0.997413, 381, 65, 412, 320
-0.997418, 279, 137, 294, 200
-0.99742, 129, 101, 256, 132
-0.997426, 467, 209, 482, 272
-0.997427, 393, 217, 408, 280
-0.997436, 305, 1, 432, 32
-0.997441, 97, 233, 112, 296
-0.997441, 113, 49, 240, 80
-0.997442, 425, 153, 440, 216
-0.997451, 225, 69, 352, 100
-0.997458, 209, 105, 336, 136
-0.99746, 287, 161, 302, 224
-0.99746, 11, 185, 26, 248
-0.997469, 375, 97, 390, 160
-0.99747, 65, 137, 80, 200
-0.997474, 177, 81, 304, 112
-0.99748, 145, 21, 272, 52
-0.997482, 343, 73, 358, 136
-0.997482, 397, 153, 412, 216
-0.997486, 17, 233, 144, 264
-0.997498, 257, 273, 500, 332
-0.997504, 241, 137, 256, 200
-0.997505, 53, 65, 84, 320
-0.99751, 409, 153, 424, 216
-0.997515, 405, 217, 420, 280
-0.997527, 81, 241, 208, 272
-0.997528, 269, 137, 284, 200
-0.997533, 209, 193, 336, 224
-0.997544, 229, 233, 244, 296
-0.99755, 225, 161, 240, 224
-0.997555, 261, 137, 276, 200
-0.997556, 103, 113, 118, 176
-0.997557, 57, 137, 72, 200
-0.997559, 209, 93, 336, 124
-0.997566, 199, 209, 214, 272
-0.997568, 129, 89, 256, 120
-0.997576, 219, 241, 234, 304
-0.997579, 229, 1, 244, 64
-0.997587, 467, 301, 482, 332
-0.997588, 23, 241, 38, 304
-0.997593, 215, 201, 230, 264
-0.997609, 41, 161, 56, 224
-0.997609, 337, 77, 464, 108
-0.997615, 271, 233, 286, 296
-0.99762, 449, 193, 464, 256
-0.997632, 93, 17, 108, 80
-0.997642, 357, 209, 372, 272
-0.997642, 273, 161, 400, 192
-0.997645, 1, 97, 500, 160
-0.99765, 393, 113, 408, 176
-0.99766, 281, 113, 296, 176
-0.99766, 89, 65, 120, 320
-0.997664, 433, 301, 448, 332
-0.99767, 289, 185, 416, 216
-0.99767, 95, 65, 110, 128
-0.997683, 5, 169, 20, 232
-0.99769, 337, 33, 464, 64
-0.997692, 13, 153, 28, 216
-0.997695, 419, 153, 434, 216
-0.997704, 403, 153, 418, 216
-0.997706, 83, 233, 98, 296
-0.997708, 31, 201, 46, 264
-0.997734, 473, 301, 488, 332
-0.99774, 225, 241, 240, 272
-0.997744, 245, 1, 260, 64
-0.997749, 445, 301, 460, 332
-0.997752, 137, 113, 152, 176
-0.99776, 391, 89, 406, 152
-0.997767, 421, 217, 436, 280
-0.997774, 283, 241, 298, 304
-0.997774, 249, 137, 264, 200
-0.997776, 431, 153, 446, 216
-0.997779, 461, 185, 476, 248
-0.997782, 61, 57, 76, 120
-0.997782, 481, 97, 496, 160
-0.99779, 399, 113, 414, 176
-0.997792, 353, 73, 368, 136
-0.997795, 369, 33, 400, 288
-0.997798, 399, 217, 414, 280
-0.997802, 237, 1, 252, 64
-0.997809, 119, 129, 134, 192
-0.997811, 207, 177, 222, 240
-0.997815, 469, 105, 484, 168
-0.997825, 71, 193, 86, 256
-0.997834, 289, 41, 416, 72
-0.997839, 145, 33, 272, 64
-0.99784, 209, 153, 336, 184
-0.997842, 211, 233, 226, 296
-0.997844, 239, 265, 254, 328
-0.997849, 305, 233, 320, 296
-0.997851, 235, 161, 250, 224
-0.997854, 61, 81, 76, 144
-0.997864, 145, 205, 272, 236
-0.99787, 267, 245, 282, 276
-0.997876, 117, 161, 132, 224
-0.997876, 49, 145, 64, 208
-0.997881, 457, 161, 472, 224
-0.997884, 229, 113, 244, 176
-0.997888, 129, 153, 256, 184
-0.99789, 101, 65, 132, 320
-0.997895, 437, 161, 452, 224
-0.997904, 457, 301, 472, 332
-0.997906, 223, 201, 238, 264
-0.997907, 431, 217, 446, 280
-0.997911, 35, 249, 50, 312
-0.997912, 457, 137, 472, 200
-0.997913, 441, 225, 456, 288
-0.997923, 181, 193, 212, 320
-0.997924, 67, 25, 82, 88
-0.997934, 49, 121, 64, 184
-0.997939, 193, 217, 320, 248
-0.997951, 289, 173, 416, 204
-0.997955, 173, 113, 204, 240
-0.997957, 241, 297, 368, 328
-0.997963, 121, 65, 152, 192
-0.997964, 209, 121, 336, 152
-0.997965, 177, 69, 304, 100
-0.99797, 237, 241, 252, 272
-0.99799, 77, 129, 108, 256
-0.998011, 97, 113, 224, 144
-0.998026, 17, 189, 32, 220
-0.99803, 273, 137, 400, 168
-0.998031, 321, 233, 448, 264
-0.998034, 241, 253, 368, 284
-0.998046, 231, 241, 246, 272
-0.998064, 439, 301, 454, 332
-0.998101, 257, 249, 500, 312
-0.998113, 113, 17, 144, 144
-0.998126, 395, 301, 410, 332
-0.998136, 97, 1, 224, 32
-0.998137, 65, 257, 192, 288
-0.998139, 161, 49, 288, 80
-0.998144, 113, 169, 240, 200
-0.99816, 285, 301, 300, 332
-0.99818, 363, 169, 378, 200
-0.998187, 225, 65, 256, 320
-0.998195, 1, 129, 500, 192
-0.998207, 129, 77, 256, 108
-0.998207, 145, 253, 272, 284
-0.998221, 397, 1, 428, 256
-0.99823, 291, 301, 306, 332
-0.998232, 1, 257, 500, 320
-0.998242, 219, 237, 234, 268
-0.998246, 275, 241, 290, 272
-0.998258, 463, 213, 478, 244
-0.998258, 125, 65, 156, 320
-0.998265, 425, 301, 440, 332
-0.998275, 55, 249, 70, 280
-0.998279, 127, 197, 142, 228
-0.998279, 1, 97, 32, 224
-0.998299, 283, 241, 298, 272
-0.998299, 9, 209, 24, 240
-0.998305, 451, 301, 466, 332
-0.998305, 405, 297, 420, 328
-0.998306, 441, 225, 472, 240
-0.998307, 389, 305, 420, 320
-0.998307, 361, 179, 392, 194
-0.998307, 217, 201, 248, 216
-0.998307, 453, 185, 484, 200
-0.998308, 65, 137, 96, 152
-0.998308, 345, 81, 376, 96
-0.998309, 229, 257, 260, 272
-0.998311, 381, 225, 412, 240
-0.998311, 361, 211, 392, 226
-0.998311, 233, 1, 264, 16
-0.998312, 69, 103, 100, 118
-0.998312, 105, 231, 136, 246
-0.998312, 313, 99, 344, 114
-0.998314, 1, 225, 32, 240
-0.998315, 205, 199, 236, 214
-0.998315, 205, 235, 236, 250
-0.998316, 233, 43, 264, 58
-0.998316, 409, 225, 440, 240
-0.998316, 69, 111, 100, 126
-0.998317, 275, 301, 290, 332
-0.998317, 121, 203, 152, 218
-0.998318, 9, 211, 40, 226
-0.998319, 89, 243, 120, 258
-0.998319, 389, 185, 420, 200
-0.99832, 245, 257, 276, 272
-0.99832, 61, 251, 92, 266
-0.99832, 233, 7, 264, 22
-0.99832, 389, 239, 420, 254
-0.99832, 341, 317, 372, 332
-0.998321, 401, 231, 432, 246
-0.998322, 289, 241, 320, 256
-0.998322, 401, 99, 432, 114
-0.998323, 285, 317, 316, 332
-0.998324, 453, 217, 484, 232
-0.998325, 349, 183, 380, 198
-0.998325, 65, 31, 96, 46
-0.998325, 441, 185, 472, 200
-0.998326, 425, 161, 456, 176
-0.998326, 373, 105, 404, 120
-0.998327, 369, 233, 400, 248
-0.998328, 33, 177, 64, 192
-0.998328, 281, 103, 312, 118
-0.998328, 365, 201, 396, 216
-0.998328, 357, 189, 388, 204
-0.998328, 369, 191, 400, 206
-0.99833, 341, 91, 372, 106
-0.99833, 69, 117, 100, 132
-0.99833, 145, 229, 272, 260
-0.99833, 229, 165, 260, 180
-0.998331, 369, 95, 400, 110
-0.998331, 1, 81, 128, 112
-0.998332, 193, 197, 224, 212
-0.998333, 301, 251, 332, 266
-0.998333, 289, 247, 320, 262
-0.998334, 9, 199, 40, 214
-0.998335, 129, 147, 160, 162
-0.998336, 121, 197, 152, 212
-0.998336, 1, 117, 128, 148
-0.998336, 21, 257, 52, 272
-0.998337, 369, 185, 400, 200
-0.998339, 89, 263, 120, 278
-0.998339, 201, 205, 232, 220
-0.998339, 361, 223, 392, 238
-0.99834, 61, 249, 76, 280
-0.998342, 269, 317, 300, 332
-0.998345, 409, 91, 440, 106
-0.998345, 17, 189, 48, 204
-0.998345, 361, 89, 392, 104
-0.998345, 421, 305, 452, 320
-0.998345, 303, 101, 318, 132
-0.998346, 69, 75, 100, 90
-0.998348, 381, 245, 412, 260
-0.998348, 353, 95, 384, 110
-0.998348, 205, 253, 220, 284
-0.998349, 131, 145, 146, 176
-0.998349, 33, 253, 64, 268
-0.99835, 381, 317, 412, 332
-0.99835, 65, 261, 96, 276
-0.998351, 369, 241, 400, 256
-0.998351, 33, 261, 64, 276
-0.998352, 21, 249, 52, 264
-0.998353, 277, 167, 308, 182
-0.998353, 49, 251, 80, 266
-0.998354, 217, 165, 248, 180
-0.998356, 9, 257, 40, 272
-0.998356, 5, 191, 36, 206
-0.998357, 433, 303, 464, 318
-0.998357, 121, 189, 152, 204
-0.998359, 373, 161, 404, 176
-0.998361, 25, 207, 56, 222
-0.998363, 1, 247, 32, 262
-0.998365, 201, 241, 232, 256
-0.998367, 453, 225, 484, 240
-0.998369, 73, 209, 104, 224
-0.998371, 293, 165, 308, 196
-0.998371, 241, 209, 368, 240
-0.998373, 1, 153, 32, 168
-0.998373, 261, 249, 276, 280
-0.998374, 297, 317, 328, 332
-0.998379, 361, 217, 392, 232
-0.998379, 193, 249, 224, 264
-0.998381, 45, 261, 76, 276
-0.998383, 1, 225, 16, 256
-0.998383, 277, 247, 308, 262
-0.998384, 375, 301, 390, 332
-0.998384, 245, 243, 276, 258
-0.998389, 81, 249, 112, 264
-0.998391, 353, 245, 480, 276
-0.998392, 325, 317, 356, 332
-0.998393, 81, 257, 112, 272
-0.998397, 243, 245, 258, 276
-0.998405, 121, 213, 136, 244
-0.998406, 81, 37, 208, 68
-0.998407, 353, 317, 384, 332
-0.998408, 307, 301, 322, 332
-0.998409, 61, 207, 92, 222
-0.998414, 479, 301, 494, 332
-0.998415, 359, 301, 374, 332
-0.998416, 265, 253, 296, 268
-0.998416, 277, 253, 308, 268
-0.998417, 369, 317, 400, 332
-0.998418, 229, 251, 260, 266
-0.998423, 1, 149, 16, 180
-0.998426, 289, 253, 320, 268
-0.998429, 349, 301, 364, 332
-0.998433, 369, 313, 432, 328
-0.998438, 401, 317, 432, 332
-0.998438, 161, 137, 288, 168
-0.998438, 365, 297, 380, 328
-0.998439, 69, 249, 84, 280
-0.998439, 273, 311, 304, 326
-0.998439, 289, 53, 416, 84
-0.998443, 289, 311, 320, 326
-0.998443, 265, 311, 328, 326
-0.998447, 213, 245, 244, 260
-0.998449, 425, 313, 488, 328
-0.99845, 301, 301, 316, 332
-0.998451, 321, 311, 352, 326
-0.998451, 355, 85, 370, 116
-0.998453, 469, 307, 500, 322
-0.998453, 353, 149, 480, 180
-0.998454, 213, 237, 228, 268
-0.998454, 13, 205, 44, 220
-0.998456, 333, 311, 364, 326
-0.998461, 425, 307, 488, 322
-0.998465, 357, 1, 388, 256
-0.998468, 95, 113, 110, 144
-0.998471, 407, 221, 422, 252
-0.998476, 217, 249, 280, 264
-0.998478, 205, 251, 236, 266
-0.998482, 393, 233, 408, 264
-0.998484, 7, 149, 22, 180
-0.998486, 445, 307, 476, 322
-0.998487, 357, 177, 372, 208
-0.998489, 289, 29, 416, 60
-0.998492, 41, 161, 56, 192
-0.998492, 421, 317, 452, 332
-0.998492, 413, 301, 428, 332
-0.998493, 265, 245, 296, 260
-0.998496, 375, 101, 390, 132
-0.9985, 217, 253, 248, 268
-0.9985, 289, 237, 304, 268
-0.998502, 301, 185, 316, 216
-0.998504, 401, 311, 464, 326
-0.998505, 15, 205, 30, 236
-0.998506, 193, 245, 256, 260
-0.99851, 193, 181, 320, 212
-0.99851, 23, 189, 38, 220
-0.99851, 433, 221, 448, 252
-0.998512, 245, 249, 276, 264
-0.998514, 241, 247, 304, 262
-0.998516, 393, 221, 408, 252
-0.998519, 421, 311, 452, 326
-0.998521, 289, 311, 352, 326
-0.998523, 425, 221, 440, 252
-0.998523, 305, 311, 336, 326
-0.998523, 201, 49, 232, 176
-0.998524, 75, 249, 90, 280
-0.998525, 193, 253, 256, 268
-0.998532, 345, 311, 376, 326
-0.998532, 393, 317, 456, 332
-0.998534, 125, 153, 140, 184
-0.998534, 313, 301, 328, 332
-0.998534, 329, 311, 392, 326
-0.998536, 369, 45, 496, 76
-0.998536, 339, 301, 354, 332
-0.998537, 415, 221, 430, 252
-0.998537, 81, 13, 208, 44
-0.998539, 365, 311, 396, 326
-0.99855, 255, 245, 270, 276
-0.998556, 207, 193, 222, 224
-0.998557, 47, 153, 62, 184
-0.998558, 213, 185, 228, 216
-0.998561, 371, 229, 386, 260
-0.998562, 433, 315, 464, 330
-0.998563, 381, 311, 412, 326
-0.998564, 131, 133, 146, 164
-0.998566, 49, 257, 64, 288
-0.998566, 429, 65, 460, 320
-0.998567, 375, 209, 390, 240
-0.998567, 273, 77, 400, 108
-0.998568, 453, 313, 484, 328
-0.998571, 9, 207, 72, 222
-0.998572, 133, 197, 148, 228
-0.998573, 381, 221, 396, 252
-0.998574, 225, 245, 256, 260
-0.998574, 457, 307, 488, 322
-0.998575, 257, 255, 320, 270
-0.998575, 85, 245, 100, 276
-0.998576, 91, 245, 106, 276
-0.998577, 401, 311, 432, 326
-0.998579, 57, 145, 72, 176
-0.99858, 473, 101, 488, 132
-0.998581, 357, 189, 372, 220
-0.998582, 453, 177, 468, 208
-0.998583, 19, 245, 34, 276
-0.998583, 97, 245, 112, 276
-0.998584, 39, 249, 54, 280
-0.998586, 9, 257, 72, 272
-0.998594, 377, 85, 392, 116
-0.998595, 287, 165, 302, 196
-0.998597, 379, 157, 394, 188
-0.998601, 381, 297, 396, 328
-0.998604, 225, 255, 288, 270
-0.998604, 365, 217, 380, 248
-0.998606, 33, 207, 96, 222
-0.998609, 1, 9, 500, 72
-0.99861, 57, 45, 120, 60
-0.998611, 57, 53, 120, 68
-0.998611, 1, 73, 500, 136
-0.998611, 353, 223, 416, 238
-0.998613, 49, 13, 112, 28
-0.998614, 319, 297, 334, 328
-0.998617, 33, 65, 64, 320
-0.998619, 389, 301, 404, 332
-0.998621, 193, 239, 256, 254
-0.998622, 49, 251, 112, 266
-0.998622, 369, 159, 432, 174
-0.998623, 265, 245, 328, 260
-0.998623, 49, 5, 112, 20
-0.998623, 329, 85, 344, 116
-0.998623, 57, 117, 120, 132
-0.998623, 301, 233, 316, 264
-0.998625, 57, 39, 120, 54
-0.998625, 169, 251, 232, 266
-0.998627, 217, 243, 280, 258
-0.998628, 409, 225, 472, 240
-0.998629, 81, 203, 144, 218
-0.99863, 25, 179, 88, 194
-0.998631, 297, 317, 360, 332
-0.998631, 433, 309, 464, 324
-0.998631, 57, 103, 120, 118
-0.998632, 57, 59, 120, 74
-0.998634, 329, 301, 344, 332
-0.998634, 385, 241, 448, 256
-0.998635, 345, 317, 408, 332
-0.998635, 81, 25, 208, 56
-0.998635, 29, 249, 44, 280
-0.998636, 49, 259, 112, 274
-0.998637, 193, 207, 256, 222
-0.998638, 281, 253, 344, 268
-0.998638, 369, 307, 432, 322
-0.99864, 401, 305, 464, 320
-0.998641, 345, 185, 408, 200
-0.998641, 1, 153, 64, 168
-0.998641, 121, 197, 184, 212
-0.998641, 209, 165, 272, 180
-0.998642, 447, 165, 462, 196
-0.998642, 73, 209, 136, 224
-0.998643, 249, 167, 312, 182
-0.998644, 57, 65, 120, 80
-0.998644, 57, 109, 120, 124
-0.998645, 461, 1, 492, 256
-0.998645, 249, 241, 264, 272
-0.998646, 57, 73, 120, 88
-0.998647, 49, 21, 112, 36
-0.998647, 377, 247, 440, 262
-0.998649, 345, 85, 360, 116
-0.998649, 393, 161, 456, 176
-0.998649, 9, 201, 72, 216
-0.998649, 365, 85, 380, 116
-0.998649, 57, 79, 120, 94
-0.998652, 409, 185, 472, 200
-0.998652, 371, 161, 386, 192
-0.998653, 57, 29, 120, 44
-0.998653, 125, 181, 140, 212
-0.998653, 57, 123, 120, 138
-0.998654, 57, 97, 120, 112
-0.998654, 465, 313, 496, 328
-0.998654, 89, 133, 152, 148
-0.998655, 399, 233, 414, 264
-0.998655, 305, 207, 368, 222
-0.998655, 225, 7, 288, 22
-0.998655, 65, 133, 128, 148
-0.998655, 57, 91, 120, 106
-0.998657, 9, 251, 72, 266
-0.998657, 1, 245, 16, 276
-0.998658, 81, 53, 144, 68
-0.998658, 273, 239, 336, 254
-0.998658, 385, 235, 448, 250
-0.998658, 313, 89, 376, 104
-0.99866, 241, 203, 304, 218
-0.99866, 305, 95, 368, 110
-0.998661, 265, 317, 328, 332
-0.998662, 345, 99, 408, 114
-0.998663, 193, 201, 256, 216
-0.998663, 353, 243, 416, 258
-0.998663, 305, 193, 368, 208
-0.998664, 169, 197, 232, 212
-0.998665, 193, 93, 256, 108
-0.998665, 313, 219, 376, 234
-0.998666, 1, 217, 64, 232
-0.998666, 321, 317, 384, 332
-0.998666, 409, 191, 472, 206
-0.998667, 81, 243, 144, 258
-0.998667, 305, 199, 368, 214
-0.998668, 9, 159, 72, 174
-0.998669, 81, 47, 144, 62
-0.998669, 225, 13, 288, 28
-0.998669, 361, 105, 424, 120
-0.99867, 377, 225, 440, 240
-0.99867, 81, 39, 144, 54
-0.99867, 81, 63, 144, 78
-0.99867, 345, 91, 408, 106
-0.998671, 265, 205, 328, 220
-0.998671, 57, 85, 120, 100
-0.998671, 425, 219, 488, 234
-0.998671, 161, 245, 224, 260
-0.998671, 399, 221, 414, 252
-0.998673, 81, 69, 144, 84
-0.998674, 89, 259, 152, 274
-0.998674, 281, 199, 344, 214
-0.998674, 145, 189, 208, 204
-0.998675, 33, 167, 96, 182
-0.998675, 225, 29, 288, 44
-0.998675, 241, 241, 304, 256
-0.998675, 457, 225, 472, 256
-0.998676, 1, 173, 64, 188
-0.998676, 281, 89, 344, 104
-0.998676, 9, 191, 72, 206
-0.998677, 225, 141, 288, 156
-0.998677, 345, 191, 408, 206
-0.998678, 89, 111, 152, 126
-0.998678, 113, 209, 176, 224
-0.998678, 57, 265, 120, 280
-0.998678, 225, 45, 288, 60
-0.998679, 225, 21, 288, 36
-0.998679, 81, 5, 144, 20
-0.99868, 81, 11, 144, 26
-0.99868, 1, 165, 64, 180
-0.998681, 385, 185, 448, 200
-0.998682, 25, 263, 88, 278
-0.998682, 353, 231, 416, 246
-0.998682, 9, 147, 72, 162
-0.998682, 265, 103, 328, 118
-0.998683, 225, 77, 288, 92
-0.998683, 305, 213, 368, 228
-0.998684, 193, 63, 256, 78
-0.998684, 81, 153, 208, 184
-0.998684, 273, 37, 336, 52
-0.998685, 289, 247, 352, 262
-0.998685, 217, 201, 280, 216
-0.998686, 353, 217, 416, 232
-0.998686, 307, 197, 322, 228
-0.998688, 219, 165, 234, 196
-0.99869, 107, 233, 122, 264
-0.99869, 35, 165, 50, 196
-0.998692, 411, 89, 426, 120
-0.998692, 301, 245, 316, 276
-0.998693, 137, 185, 152, 216
-0.998693, 289, 289, 416, 320
-0.998695, 125, 133, 140, 164
-0.998697, 371, 81, 386, 112
-0.998706, 11, 189, 26, 220
-0.998709, 93, 53, 108, 84
-0.99872, 115, 221, 130, 252
-0.998721, 363, 189, 378, 220
-0.998721, 441, 161, 456, 192
-0.998721, 295, 245, 310, 276
-0.998731, 463, 201, 478, 232
-0.998732, 91, 41, 106, 72
-0.998732, 77, 65, 108, 320
-0.99874, 9, 245, 24, 276
-0.998742, 401, 89, 416, 120
-0.998744, 381, 209, 396, 240
-0.998746, 387, 85, 402, 116
-0.998751, 103, 121, 118, 152
-0.998752, 17, 221, 144, 252
-0.998754, 395, 97, 410, 128
-0.998755, 63, 137, 78, 168
-0.998766, 65, 165, 192, 196
-0.998768, 65, 181, 192, 212
-0.998773, 289, 253, 416, 284
-0.998786, 225, 269, 352, 300
-0.998798, 305, 113, 432, 144
-0.998836, 161, 193, 288, 224
-0.998845, 81, 61, 208, 92
-0.998901, 33, 269, 160, 300
-0.998904, 409, 65, 440, 320
-0.998912, 65, 65, 96, 320
-0.998928, 145, 113, 272, 144
-0.998968, 445, 65, 476, 320
-0.999011, 193, 301, 320, 332
-0.999018, 1, 97, 128, 128
-0.99902, 305, 65, 432, 96
-0.999031, 305, 1, 336, 256
-0.999034, 309, 129, 340, 256
-0.999041, 1, 273, 256, 332
-0.999086, 453, 1, 484, 128
-0.999086, 113, 33, 144, 288
-0.99909, 265, 65, 296, 320
-0.999091, 95, 49, 110, 176
-0.999125, 5, 209, 20, 332
-0.999127, 13, 193, 28, 320
-0.999141, 447, 161, 462, 288
-0.999146, 21, 65, 52, 320
-0.999161, 367, 161, 382, 288
-0.999181, 345, 65, 376, 320
-0.999188, 383, 161, 398, 288
-0.999199, 257, 125, 384, 156
-0.9992, 273, 265, 400, 296
-0.999205, 21, 177, 36, 304
-0.99921, 375, 161, 390, 288
-0.99921, 389, 145, 404, 272
-0.999225, 453, 177, 468, 304
-0.999236, 61, 65, 76, 192
-0.999253, 447, 209, 462, 332
-0.999256, 369, 117, 496, 148
-0.999262, 111, 209, 126, 332
-0.999263, 403, 145, 418, 272
-0.999267, 97, 265, 224, 328
-0.999288, 33, 161, 48, 288
-0.999293, 93, 1, 108, 128
-0.999296, 441, 145, 456, 272
-0.999318, 415, 145, 430, 272
-0.999318, 299, 161, 314, 288
-0.999328, 127, 145, 142, 272
-0.999337, 61, 113, 76, 240
-0.999339, 421, 145, 436, 272
-0.999342, 409, 145, 424, 272
-0.999345, 205, 193, 220, 320
-0.999347, 389, 193, 404, 320
-0.999347, 429, 145, 444, 272
-0.999347, 435, 145, 450, 272
-0.999353, 197, 65, 228, 320
-0.999356, 395, 145, 410, 272
-0.99936, 459, 193, 474, 320
-0.999363, 213, 65, 244, 320
-0.999366, 117, 209, 132, 332
-0.999368, 27, 177, 42, 304
-0.999368, 361, 177, 376, 304
-0.999373, 9, 65, 40, 320
-0.999374, 215, 161, 230, 288
-0.999394, 285, 1, 316, 256
-0.999396, 39, 161, 54, 288
-0.999399, 293, 161, 308, 288
-0.999399, 407, 209, 422, 332
-0.999403, 307, 177, 322, 304
-0.999411, 105, 209, 120, 332
-0.999413, 121, 145, 136, 272
-0.999416, 387, 81, 402, 208
-0.999416, 433, 209, 448, 332
-0.999421, 59, 1, 74, 128
-0.999425, 399, 193, 414, 320
-0.999432, 375, 209, 390, 332
-0.999433, 245, 65, 276, 320
-0.999434, 465, 209, 480, 332
-0.999437, 103, 97, 118, 224
-0.999437, 459, 145, 474, 272
-0.999439, 381, 209, 396, 332
-0.999446, 367, 209, 382, 332
-0.999447, 413, 193, 428, 320
-0.999451, 67, 81, 82, 208
-0.999451, 257, 65, 500, 128
-0.999462, 441, 209, 456, 332
-0.999465, 231, 113, 246, 240
-0.999471, 453, 129, 468, 256
-0.999471, 225, 193, 240, 320
-0.999472, 3, 161, 18, 288
-0.999476, 87, 81, 102, 208
-0.999483, 97, 129, 112, 256
-0.999486, 181, 65, 212, 320
-0.999493, 355, 177, 370, 304
-0.999495, 283, 113, 298, 240
-0.999495, 241, 193, 256, 320
-0.999495, 357, 81, 372, 208
-0.999497, 97, 209, 112, 332
-0.999497, 361, 129, 376, 256
-0.9995, 281, 161, 296, 288
-0.999506, 421, 193, 436, 320
-0.999506, 403, 81, 418, 208
-0.999508, 45, 145, 60, 272
-0.999509, 409, 81, 424, 208
-0.999509, 55, 129, 70, 256
-0.999513, 259, 193, 274, 320
-0.999519, 141, 113, 156, 240
-0.999519, 115, 145, 130, 272
-0.999519, 71, 209, 86, 332
-0.999522, 225, 113, 240, 240
-0.999525, 379, 81, 394, 208
-0.999527, 247, 193, 262, 320
-0.999529, 279, 49, 294, 176
-0.99953, 393, 81, 408, 208
-0.99953, 303, 33, 318, 160
-0.999532, 467, 145, 482, 272
-0.999533, 235, 193, 250, 320
-0.999535, 355, 317, 370, 332
-0.999536, 287, 317, 302, 332
-0.999536, 211, 245, 226, 260
-0.999536, 75, 261, 90, 276
-0.999537, 11, 213, 26, 228
-0.999537, 387, 95, 402, 110
-0.999538, 465, 225, 480, 240
-0.999539, 375, 91, 390, 106
-0.999539, 9, 153, 24, 168
-0.999539, 63, 193, 78, 320
-0.999539, 467, 303, 482, 318
-0.999539, 23, 189, 38, 204
-0.999539, 95, 125, 110, 140
-0.999541, 199, 249, 214, 264
-0.999541, 323, 317, 338, 332
-0.999541, 21, 249, 36, 264
-0.999542, 65, 141, 80, 156
-0.999542, 275, 245, 290, 260
-0.999542, 357, 189, 372, 204
-0.999543, 363, 183, 378, 198
-0.999543, 411, 225, 426, 240
-0.999543, 135, 199, 150, 214
-0.999544, 381, 83, 396, 98
-0.999544, 199, 243, 214, 258
-0.999544, 279, 317, 294, 332
-0.999544, 423, 91, 438, 106
-0.999545, 13, 197, 28, 212
-0.999546, 397, 245, 412, 260
-0.999546, 253, 209, 268, 332
-0.999547, 371, 113, 386, 240
-0.999547, 339, 317, 354, 332
-0.999548, 83, 209, 98, 224
-0.999548, 427, 193, 442, 320
-0.999549, 287, 167, 302, 182
-0.999549, 127, 195, 142, 210
-0.999549, 31, 207, 46, 222
-0.999549, 397, 317, 412, 332
-0.99955, 85, 209, 100, 332
-0.99955, 303, 103, 318, 118
-0.999551, 59, 145, 74, 160
-0.999551, 63, 207, 78, 222
-0.999552, 21, 257, 36, 272
-0.999553, 369, 95, 384, 110
-0.999555, 359, 91, 374, 106
-0.999555, 137, 193, 152, 208
-0.999555, 391, 317, 406, 332
-0.999555, 319, 91, 334, 106
-0.999555, 337, 81, 352, 208
-0.999556, 355, 175, 370, 190
-0.999557, 369, 87, 384, 102
-0.999557, 365, 171, 380, 186
-0.999557, 51, 261, 66, 276
-0.999557, 465, 219, 480, 234
-0.999558, 45, 261, 60, 276
-0.999558, 339, 97, 354, 112
-0.999558, 13, 207, 28, 222
-0.999559, 267, 193, 282, 320
-0.99956, 275, 161, 290, 288
-0.999561, 363, 177, 378, 192
-0.999561, 377, 161, 392, 176
-0.999561, 367, 33, 382, 160
-0.999561, 127, 201, 142, 216
-0.999562, 333, 317, 348, 332
-0.999562, 265, 253, 280, 268
-0.999563, 329, 93, 344, 108
-0.999563, 385, 33, 400, 160
-0.999563, 391, 241, 406, 256
-0.999563, 331, 81, 346, 208
-0.999564, 213, 209, 228, 332
-0.999565, 347, 95, 362, 110
-0.999565, 375, 317, 390, 332
-0.999566, 317, 317, 332, 332
-0.999566, 363, 317, 378, 332
-0.999568, 11, 191, 26, 206
-0.999568, 415, 91, 430, 106
-0.999569, 287, 253, 302, 268
-0.99957, 3, 151, 18, 166
-0.999571, 375, 33, 390, 160
-0.999572, 223, 165, 238, 180
-0.999572, 405, 317, 420, 332
-0.999572, 271, 253, 286, 268
-0.999573, 37, 209, 52, 332
-0.999576, 259, 249, 274, 264
-0.999577, 303, 251, 318, 266
-0.999579, 313, 33, 328, 160
-0.99958, 47, 193, 62, 320
-0.999582, 287, 247, 302, 262
-0.999583, 99, 255, 114, 270
-0.999583, 219, 245, 234, 260
-0.999583, 289, 113, 304, 240
-0.999583, 127, 193, 142, 320
-0.999584, 297, 251, 312, 266
-0.999584, 243, 249, 258, 264
-0.999584, 101, 49, 116, 176
-0.999585, 281, 245, 296, 260
-0.999586, 45, 255, 60, 270
-0.999588, 287, 161, 302, 288
-0.999588, 281, 253, 296, 268
-0.999588, 231, 245, 246, 260
-0.999589, 391, 17, 406, 144
-0.99959, 83, 33, 98, 160
-0.99959, 69, 207, 84, 222
-0.999592, 237, 113, 252, 240
-0.999593, 253, 161, 268, 288
-0.999593, 17, 191, 32, 206
-0.999594, 139, 161, 154, 288
-0.999595, 479, 307, 494, 322
-0.999595, 53, 209, 68, 332
-0.999597, 407, 17, 422, 144
-0.999601, 237, 1, 252, 128
-0.999602, 267, 245, 282, 260
-0.999602, 249, 249, 264, 264
-0.999602, 77, 209, 92, 332
-0.999603, 211, 251, 226, 266
-0.999603, 9, 145, 24, 272
-0.999604, 225, 253, 240, 268
-0.999604, 353, 129, 368, 256
-0.999604, 75, 207, 90, 222
-0.999604, 19, 201, 34, 216
-0.999605, 301, 209, 316, 332
-0.999606, 149, 113, 164, 240
-0.999606, 197, 49, 212, 176
-0.999607, 237, 253, 252, 268
-0.999608, 199, 209, 214, 332
-0.999612, 333, 311, 348, 326
-0.999613, 15, 129, 30, 256
-0.999614, 135, 97, 150, 224
-0.999617, 225, 245, 240, 260
-0.999617, 345, 311, 360, 326
-0.999618, 431, 315, 446, 330
-0.999618, 217, 251, 232, 266
-0.99962, 457, 307, 472, 322
-0.999621, 205, 249, 220, 264
-0.999623, 291, 209, 306, 332
-0.999624, 133, 193, 148, 320
-0.999632, 91, 209, 106, 332
-0.999635, 351, 65, 366, 192
-0.999635, 333, 1, 364, 256
-0.999636, 319, 311, 334, 326
-0.999636, 91, 129, 106, 256
-0.999638, 423, 81, 438, 208
-0.999639, 33, 113, 48, 240
-0.999639, 133, 145, 148, 272
-0.999639, 219, 209, 234, 332
-0.999641, 73, 113, 88, 240
-0.999642, 277, 113, 292, 240
-0.999644, 231, 253, 246, 268
-0.999645, 339, 311, 354, 326
-0.999645, 417, 313, 432, 328
-0.999647, 483, 313, 498, 328
-0.999651, 461, 315, 476, 330
-0.999657, 327, 311, 342, 326
-0.999661, 317, 1, 348, 256
-0.999662, 351, 311, 366, 326
-0.999664, 237, 245, 252, 260
-0.999669, 405, 311, 420, 326
-0.999671, 369, 313, 384, 328
-0.999678, 313, 311, 328, 326
-0.99968, 299, 313, 314, 328
-0.999684, 285, 311, 300, 326
-0.999684, 449, 315, 464, 330
-0.999684, 307, 311, 322, 326
-0.999689, 473, 307, 488, 322
-0.999695, 467, 317, 482, 332
-0.999698, 381, 313, 396, 328
-0.9997, 443, 307, 458, 322
-0.999704, 275, 311, 290, 326
-0.999705, 439, 315, 454, 330
-0.999706, 395, 311, 410, 326
-0.99971, 387, 311, 402, 326
-0.999717, 291, 311, 306, 326
-0.999718, 361, 311, 376, 326
-0.999721, 411, 311, 426, 326
-0.999722, 463, 309, 478, 324
-0.999728, 449, 309, 464, 324
-0.999739, 423, 313, 438, 328
-0.999739, 317, 177, 348, 304
-0.999752, 375, 311, 390, 326
-0.999761, 477, 313, 492, 328
-0.999775, 433, 309, 448, 324
-0.999796, 161, 65, 192, 320
-0.999798, 401, 1, 464, 128
-0.999824, 145, 65, 176, 320
-0.999826, 455, 313, 470, 328
-1.00016, 465, 97, 496, 224
-1.00033, 157, 65, 188, 192
-1.00057, 325, 1, 356, 128
-1.0006, 125, 17, 156, 144
-1.00079, 185, 81, 216, 208
-1.00094, 57, 1, 88, 128
-1.00107, 157, 161, 188, 288
-1.00117, 329, 193, 360, 320
-1.0015, 61, 145, 92, 272
-1.0016, 101, 1, 132, 128
-1.00175, 205, 1, 236, 128
-1.00199, 145, 65, 176, 192
-1.00218, 161, 1, 192, 128
-1.00759, 1, 49, 64, 176
