1997
-0.495735, 1, 161, 375, 416
-0.504678, 1, 1, 375, 500
-0.568201, 1, 65, 375, 320
-0.622199, 1, 1, 256, 500
-0.651765, 1, 257, 375, 500
-0.663978, 97, 1, 352, 500
-0.690789, 1, 161, 256, 416
-0.73508, 129, 161, 375, 416
-0.77577, 33, 65, 288, 320
-0.802992, 129, 65, 375, 320
-0.87615, 17, 161, 144, 416
-0.889304, 241, 161, 368, 416
-0.89737, 1, 177, 375, 304
-0.897422, 17, 1, 144, 500
-0.903362, 161, 161, 288, 416
-0.910217, 81, 65, 208, 320
-0.910818, 65, 1, 192, 500
-0.911995, 193, 65, 320, 320
-0.914258, 65, 161, 192, 416
-0.916446, 1, 65, 128, 320
-0.919678, 129, 1, 256, 500
-0.919915, 241, 1, 368, 500
-0.921277, 177, 1, 304, 500
-0.922242, 241, 65, 368, 320
-0.923245, 1, 225, 375, 352
-0.924112, 1, 257, 128, 500
-0.925189, 33, 177, 288, 304
-0.92533, 113, 161, 240, 416
-0.927893, 33, 257, 288, 500
-0.931197, 17, 177, 80, 304
-0.931781, 129, 161, 375, 288
-0.93207, 145, 65, 272, 320
-0.936824, 17, 193, 144, 320
-0.942428, 1, 113, 375, 240
-0.943687, 25, 225, 88, 352
-0.945461, 65, 177, 192, 304
-0.946664, 225, 161, 352, 288
-0.947767, 25, 185, 88, 248
-0.948081, 25, 257, 88, 320
-0.94817, 9, 273, 72, 400
-0.949397, 65, 177, 128, 304
-0.951639, 289, 161, 352, 288
-0.952163, 49, 257, 176, 500
-0.954363, 145, 161, 272, 288
-0.956973, 33, 225, 288, 352
-0.957286, 33, 129, 288, 256
-0.957554, 1, 273, 128, 400
-0.957963, 313, 145, 375, 272
-0.957982, 57, 185, 120, 248
-0.958812, 265, 161, 328, 288
-0.959601, 1, 273, 375, 400
-0.96005, 25, 233, 88, 296
-0.960592, 129, 209, 375, 336
-0.961224, 209, 161, 272, 288
-0.96159, 169, 177, 232, 304
-0.961691, 145, 177, 208, 304
-0.961698, 241, 161, 304, 288
-0.962479, 41, 177, 104, 304
-0.962654, 1, 225, 64, 352
-0.962833, 129, 113, 375, 240
-0.963831, 17, 209, 80, 272
-0.964058, 1, 329, 64, 392
-0.965621, 1, 145, 128, 272
-0.965832, 81, 185, 144, 248
-0.965881, 1, 185, 128, 248
-0.966361, 313, 193, 375, 320
-0.967065, 49, 273, 112, 400
-0.967769, 193, 257, 320, 500
-0.968323, 49, 129, 112, 256
-0.968713, 57, 209, 120, 272
-0.968778, 241, 209, 368, 336
-0.969273, 17, 161, 80, 416
-0.969953, 1, 185, 64, 248
-0.969954, 33, 177, 64, 240
-0.97054, 1, 321, 375, 448
-0.970583, 121, 177, 184, 304
-0.970831, 129, 257, 256, 500
-0.971527, 25, 313, 88, 376
-0.972074, 105, 177, 168, 240
-0.972246, 241, 257, 368, 500
-0.972377, 25, 281, 88, 344
-0.972634, 25, 321, 88, 448
-0.972662, 33, 177, 64, 304
-0.973248, 1, 257, 64, 320
-0.973425, 1, 65, 375, 192
-0.973753, 65, 129, 192, 256
-0.973993, 1, 217, 128, 280
-0.974288, 193, 209, 320, 336
-0.974477, 49, 185, 176, 248
-0.97467, 89, 177, 152, 304
-0.974703, 209, 113, 336, 240
-0.974775, 49, 249, 80, 312
-0.974905, 1, 289, 64, 352
-0.975344, 289, 161, 352, 224
-0.97548, 1, 233, 64, 296
-0.975567, 49, 241, 176, 368
-0.975907, 29, 257, 60, 320
-0.975982, 145, 193, 208, 256
-0.976382, 73, 185, 104, 248
-0.976473, 85, 185, 116, 248
-0.977099, 49, 225, 80, 352
-0.977165, 21, 193, 52, 320
-0.977243, 49, 209, 176, 272
-0.977301, 313, 161, 375, 224
-0.977306, 185, 129, 248, 256
-0.977323, 41, 161, 104, 224
-0.977326, 1, 321, 128, 448
-0.977336, 257, 169, 320, 232
-0.977386, 41, 273, 72, 336
-0.977417, 1, 241, 128, 304
-0.977496, 61, 185, 92, 248
-0.9777, 313, 201, 375, 264
-0.977759, 25, 129, 88, 256
-0.977791, 289, 209, 352, 336
-0.978224, 105, 201, 168, 264
-0.978548, 1, 305, 256, 432
-0.978892, 41, 193, 104, 448
-0.978961, 65, 161, 128, 416
-0.978962, 313, 161, 344, 288
-0.979058, 297, 161, 328, 288
-0.97921, 97, 129, 160, 256
-0.979249, 169, 193, 232, 256
-0.97931, 1, 369, 375, 496
-0.979329, 13, 329, 44, 392
-0.97943, 1, 17, 375, 144
-0.979431, 49, 225, 112, 352
-0.979506, 49, 241, 112, 304
-0.979603, 25, 233, 56, 296
-0.979778, 49, 297, 80, 360
-0.979779, 265, 113, 328, 240
-0.980092, 1, 257, 64, 500
-0.980243, 97, 177, 224, 240
-0.980249, 193, 169, 256, 232
-0.98031, 233, 169, 296, 232
-0.980542, 145, 113, 272, 240
-0.980969, 25, 337, 88, 400
-0.981015, 289, 113, 352, 240
-0.981179, 13, 201, 44, 264
-0.981306, 1, 265, 128, 328
-0.981344, 45, 185, 76, 248
-0.981409, 49, 273, 80, 400
-0.981695, 241, 169, 368, 232
-0.981716, 37, 257, 68, 384
-0.981766, 169, 169, 232, 232
-0.981768, 337, 145, 368, 272
-0.981819, 5, 193, 36, 320
-0.981866, 285, 161, 316, 288
-0.981902, 305, 129, 368, 384
-0.982063, 41, 209, 72, 272
-0.982135, 201, 209, 264, 336
-0.982217, 289, 193, 352, 256
-0.982269, 29, 329, 60, 392
-0.982337, 169, 161, 232, 416
-0.982343, 145, 129, 208, 256
-0.982416, 1, 353, 64, 416
-0.982501, 129, 225, 256, 352
-0.982552, 49, 273, 112, 336
-0.982557, 41, 321, 72, 384
-0.982622, 45, 177, 76, 304
-0.982643, 61, 209, 92, 272
-0.982695, 17, 313, 144, 376
-0.9827, 1, 129, 64, 256
-0.982842, 233, 193, 296, 256
-0.982967, 25, 201, 56, 264
-0.982999, 265, 161, 296, 288
-0.983023, 173, 177, 204, 304
-0.983039, 65, 177, 96, 304
-0.983168, 29, 297, 60, 360
-0.983191, 257, 201, 320, 264
-0.983334, 233, 161, 264, 288
-0.983337, 17, 257, 48, 320
-0.983482, 25, 273, 56, 400
-0.983523, 101, 193, 132, 256
-0.983584, 325, 145, 356, 272
-0.983605, 193, 193, 256, 256
-0.983774, 1, 161, 64, 224
-0.98403, 273, 161, 336, 416
-0.984193, 221, 161, 252, 288
-0.984211, 249, 209, 312, 336
-0.984503, 1, 337, 64, 464
-0.984512, 1, 329, 32, 392
-0.984533, 345, 201, 375, 264
-0.984573, 129, 169, 192, 232
-0.984715, 1, 289, 128, 352
-0.984854, 161, 177, 192, 304
-0.984855, 161, 177, 288, 240
-0.984886, 81, 209, 144, 272
-0.984943, 245, 161, 276, 288
-0.985027, 209, 161, 272, 416
-0.985161, 25, 1, 88, 500
-0.985238, 209, 113, 272, 240
-0.985269, 89, 177, 120, 304
-0.985309, 13, 241, 44, 368
-0.985434, 241, 201, 368, 264
-0.985478, 313, 241, 375, 368
-0.985482, 21, 177, 52, 240
-0.985604, 185, 177, 216, 304
-0.985661, 13, 225, 44, 288
-0.985843, 337, 193, 368, 320
-0.985995, 209, 161, 240, 288
-0.98601, 249, 161, 312, 416
-0.986437, 1, 337, 128, 400
-0.986483, 225, 209, 288, 336
-0.986497, 49, 65, 112, 320
-0.986508, 1, 201, 32, 264
-0.98653, 65, 161, 128, 224
-0.986557, 53, 161, 84, 224
-0.98669, 49, 313, 112, 376
-0.986747, 313, 225, 375, 288
-0.98679, 113, 177, 144, 240
-0.986803, 97, 201, 224, 264
-0.987053, 145, 201, 272, 264
-0.987164, 149, 177, 180, 304
-0.987183, 325, 193, 356, 320
-0.987189, 77, 177, 108, 304
-0.987283, 233, 113, 296, 240
-0.987479, 121, 129, 184, 256
-0.987741, 61, 257, 92, 320
-0.987839, 193, 201, 320, 264
-0.987843, 61, 225, 92, 352
-0.987872, 17, 161, 144, 224
-0.987893, 173, 193, 204, 256
-0.987951, 249, 65, 312, 320
-0.987998, 157, 193, 188, 256
-0.988049, 293, 161, 324, 224
-0.988049, 317, 161, 348, 224
-0.988079, 25, 261, 88, 292
-0.988126, 25, 193, 88, 224
-0.988135, 253, 169, 284, 232
-0.988137, 125, 177, 156, 240
-0.988211, 265, 169, 296, 232
-0.988211, 345, 177, 375, 240
-0.988538, 49, 257, 176, 320
-0.988574, 197, 145, 228, 272
-0.988604, 329, 161, 360, 224
-0.988633, 49, 305, 176, 432
-0.988732, 57, 321, 88, 384
-0.988868, 305, 161, 336, 224
-0.988881, 17, 205, 80, 236
-0.989017, 73, 129, 136, 256
-0.989047, 197, 193, 228, 320
-0.989141, 193, 241, 320, 304
-0.989181, 65, 193, 128, 224
-0.989264, 49, 233, 176, 296
-0.989268, 185, 65, 248, 320
-0.98932, 265, 249, 328, 312
-0.989339, 25, 65, 88, 320
-0.989405, 1, 305, 32, 432
-0.98943, 281, 169, 312, 232
-0.98948, 289, 249, 352, 312
-0.989557, 1, 65, 64, 320
-0.989581, 25, 273, 88, 304
-0.989617, 17, 249, 80, 280
-0.989746, 281, 65, 344, 320
-0.989777, 241, 241, 304, 304
-0.989829, 1, 97, 128, 224
-0.989885, 313, 249, 375, 312
-0.989963, 1, 353, 32, 416
-0.990031, 201, 233, 264, 296
-0.990038, 17, 341, 80, 372
-0.990062, 33, 81, 288, 208
-0.990079, 1, 193, 64, 224
-0.990106, 241, 249, 368, 312
-0.99011, 25, 285, 88, 316
-0.99014, 53, 129, 84, 256
-0.990188, 161, 225, 224, 288
-0.990202, 17, 217, 80, 248
-0.990209, 57, 213, 120, 244
-0.990248, 281, 201, 312, 264
-0.990259, 1, 1, 64, 500
-0.990285, 225, 65, 288, 320
-0.990367, 121, 201, 152, 264
-0.990412, 33, 181, 96, 212
-0.990427, 137, 225, 200, 288
-0.990495, 137, 177, 168, 304
-0.990515, 1, 353, 64, 384
-0.990545, 17, 229, 80, 260
-0.990553, 289, 217, 352, 280
-0.990619, 61, 273, 92, 400
-0.990632, 137, 201, 168, 264
-0.990667, 321, 201, 352, 264
-0.990682, 57, 1, 120, 500
-0.990855, 145, 177, 176, 240
-0.990908, 313, 97, 375, 224
-0.990912, 313, 33, 375, 288
-0.991045, 97, 225, 224, 288
-0.991056, 1, 269, 64, 300
-0.991071, 181, 169, 212, 232
-0.991076, 169, 225, 232, 352
-0.991082, 145, 233, 272, 296
-0.991085, 313, 209, 344, 336
-0.991149, 241, 257, 368, 384
-0.991166, 185, 193, 216, 256
-0.9912, 89, 201, 152, 232
-0.991255, 333, 201, 364, 264
-0.991272, 129, 65, 192, 320
-0.991367, 241, 177, 272, 240
-0.991391, 169, 197, 232, 228
-0.991397, 17, 325, 80, 356
-0.991478, 9, 145, 40, 272
-0.991486, 105, 185, 168, 216
-0.99149, 249, 201, 280, 264
-0.991508, 201, 169, 232, 232
-0.99155, 49, 321, 112, 448
-0.991607, 49, 277, 112, 308
-0.991673, 129, 201, 192, 232
-0.991684, 25, 297, 88, 328
-0.991693, 21, 129, 52, 256
-0.991779, 41, 333, 104, 364
-0.991784, 265, 225, 328, 288
-0.991788, 101, 177, 132, 304
-0.991817, 1, 281, 64, 312
-0.991857, 9, 181, 72, 212
-0.991911, 97, 65, 160, 320
-0.991918, 305, 225, 368, 480
-0.991929, 81, 129, 112, 256
-0.991933, 313, 113, 344, 240
-0.991942, 65, 181, 128, 212
-0.991946, 145, 161, 208, 416
-0.992005, 241, 225, 368, 288
-0.99202, 37, 185, 68, 216
-0.992026, 269, 201, 300, 264
-0.992059, 129, 185, 192, 216
-0.992061, 81, 153, 208, 216
-0.992135, 81, 213, 144, 244
-0.992148, 49, 229, 112, 260
-0.992177, 25, 309, 88, 340
-0.992181, 49, 253, 112, 284
-0.992194, 17, 281, 48, 344
-0.992248, 73, 209, 104, 272
-0.992262, 57, 241, 120, 272
-0.992272, 97, 177, 352, 240
-0.992282, 293, 209, 324, 336
-0.992286, 29, 269, 60, 300
-0.992302, 161, 129, 192, 256
-0.992319, 25, 361, 88, 424
-0.992341, 229, 169, 260, 232
-0.992352, 305, 165, 368, 196
-0.992358, 1, 369, 128, 496
-0.992381, 161, 1, 224, 500
-0.992403, 233, 201, 296, 232
-0.992404, 209, 193, 272, 224
-0.992407, 1, 189, 128, 220
-0.992448, 33, 285, 64, 316
-0.99245, 249, 189, 312, 220
-0.992459, 105, 213, 168, 244
-0.992461, 289, 205, 352, 236
-0.992465, 169, 181, 232, 212
-0.992473, 1, 293, 64, 324
-0.992477, 49, 257, 80, 288
-0.99248, 293, 113, 324, 240
-0.99248, 177, 153, 304, 216
-0.992483, 57, 265, 120, 296
-0.992487, 25, 353, 88, 384
-0.992488, 209, 193, 240, 256
-0.992505, 305, 201, 336, 264
-0.992507, 41, 321, 104, 352
-0.992507, 265, 201, 328, 232
-0.99251, 61, 209, 92, 240
-0.992536, 125, 177, 156, 304
-0.992547, 21, 257, 52, 288
-0.992553, 41, 269, 72, 300
-0.992555, 209, 1, 272, 500
-0.992586, 21, 205, 52, 236
-0.992587, 225, 217, 288, 280
-0.992596, 5, 305, 36, 368
-0.992602, 273, 169, 336, 200
-0.992603, 1, 309, 64, 340
-0.992612, 229, 193, 260, 256
-0.99262, 161, 65, 224, 320
-0.992636, 53, 193, 84, 224
-0.992636, 73, 193, 104, 224
-0.992637, 37, 305, 68, 432
-0.992653, 41, 129, 72, 256
-0.992665, 249, 249, 312, 280
-0.992671, 33, 197, 64, 228
-0.992673, 85, 189, 116, 220
-0.992693, 5, 341, 36, 372
-0.9927, 173, 129, 204, 256
-0.992762, 313, 201, 375, 232
-0.99279, 49, 281, 80, 312
-0.992806, 193, 177, 256, 208
-0.992807, 101, 169, 132, 232
-0.992809, 101, 201, 132, 232
-0.992814, 49, 309, 80, 340
-0.992818, 13, 289, 44, 416
-0.99282, 41, 209, 72, 240
-0.992829, 41, 297, 72, 328
-0.99283, 97, 1, 160, 500
-0.992844, 249, 237, 312, 268
-0.992844, 29, 341, 60, 372
-0.992849, 61, 297, 92, 360
-0.992857, 13, 273, 44, 304
-0.992858, 273, 185, 336, 216
-0.992867, 289, 241, 352, 272
-0.992872, 233, 173, 296, 204
-0.992876, 49, 305, 112, 336
-0.992881, 289, 257, 352, 288
-0.992882, 49, 281, 176, 344
-0.992886, 13, 229, 44, 260
-0.992899, 113, 225, 176, 256
-0.992908, 289, 1, 352, 500
-0.992909, 41, 337, 72, 368
-0.992914, 5, 357, 36, 388
-0.992917, 97, 153, 160, 216
-0.99292, 209, 241, 272, 272
-0.99293, 49, 321, 80, 352
-0.992945, 1, 201, 32, 232
-0.992945, 185, 1, 248, 500
-0.992946, 21, 193, 52, 224
-0.992949, 33, 237, 64, 268
-0.992952, 21, 245, 52, 276
-0.992962, 25, 365, 88, 396
-0.992987, 53, 181, 84, 212
-0.993021, 217, 169, 248, 232
-0.993025, 313, 245, 375, 276
-0.993041, 1, 365, 64, 396
-0.993052, 113, 205, 144, 236
-0.993052, 33, 217, 288, 280
-0.993054, 53, 269, 84, 300
-0.993068, 57, 345, 120, 376
-0.993098, 313, 257, 375, 288
-0.993103, 173, 197, 204, 228
-0.993103, 21, 285, 52, 316
-0.993109, 265, 209, 296, 336
-0.99311, 177, 237, 240, 268
-0.99312, 45, 221, 76, 252
-0.993133, 17, 353, 48, 384
-0.993141, 17, 337, 48, 368
-0.993144, 29, 353, 60, 384
-0.993145, 49, 245, 80, 276
-0.993149, 33, 249, 64, 280
-0.993151, 129, 213, 192, 244
-0.99317, 61, 221, 92, 252
-0.99317, 109, 185, 140, 216
-0.993173, 137, 1, 200, 500
-0.993188, 33, 225, 64, 256
-0.993192, 33, 213, 160, 244
-0.993192, 1, 201, 128, 232
-0.993195, 193, 205, 256, 236
-0.993201, 53, 293, 84, 324
-0.993201, 65, 269, 96, 300
-0.993209, 89, 201, 120, 232
-0.993214, 313, 1, 375, 500
-0.993215, 129, 205, 160, 236
-0.993218, 21, 217, 52, 248
-0.993221, 49, 289, 112, 320
-0.993244, 45, 361, 76, 392
-0.993258, 313, 233, 375, 264
-0.99326, 37, 321, 68, 352
-0.993274, 145, 229, 208, 260
-0.993281, 53, 349, 84, 380
-0.993288, 1, 193, 256, 256
-0.993291, 61, 233, 92, 264
-0.993304, 97, 189, 128, 220
-0.993311, 73, 209, 104, 240
-0.993312, 61, 245, 92, 276
-0.993315, 157, 201, 188, 232
-0.993322, 201, 225, 264, 256
-0.993328, 9, 257, 40, 288
-0.993328, 49, 233, 80, 264
-0.993335, 9, 245, 40, 276
-0.993336, 61, 257, 92, 288
-0.993338, 141, 205, 172, 236
-0.99335, 93, 129, 124, 256
-0.993353, 9, 217, 40, 248
-0.993363, 29, 297, 60, 328
-0.993379, 13, 297, 44, 328
-0.99339, 9, 285, 40, 316
-0.993395, 93, 213, 124, 244
-0.993409, 185, 197, 216, 228
-0.99341, 173, 181, 204, 212
-0.993414, 157, 169, 188, 232
-0.993421, 5, 189, 36, 220
-0.993422, 113, 225, 176, 288
-0.993425, 153, 181, 184, 212
-0.993428, 233, 193, 264, 224
-0.993431, 293, 201, 324, 264
-0.993437, 225, 229, 288, 260
-0.993441, 29, 309, 60, 340
-0.993441, 253, 201, 284, 232
-0.993444, 277, 205, 308, 236
-0.993444, 61, 281, 92, 312
-0.993447, 221, 193, 252, 224
-0.993456, 345, 209, 375, 240
-0.993456, 309, 201, 340, 232
-0.993461, 121, 193, 152, 224
-0.993466, 97, 173, 160, 204
-0.993467, 265, 205, 296, 236
-0.993471, 261, 189, 292, 220
-0.993478, 61, 309, 92, 340
-0.993482, 241, 1, 304, 500
-0.99349, 313, 165, 344, 196
-0.99349, 249, 189, 280, 220
-0.993491, 321, 205, 352, 236
-0.993492, 169, 225, 232, 256
-0.993493, 113, 177, 144, 304
-0.993498, 89, 161, 152, 416
-0.993502, 237, 205, 268, 236
-0.993503, 293, 201, 324, 232
-0.993504, 33, 369, 64, 400
-0.993504, 81, 177, 112, 208
-0.993506, 273, 189, 304, 220
-0.993514, 297, 181, 360, 212
-0.993516, 1, 329, 32, 360
-0.993516, 65, 293, 96, 324
-0.993519, 61, 329, 92, 360
-0.993523, 85, 209, 116, 272
-0.993524, 1, 177, 32, 240
-0.993536, 289, 253, 320, 284
-0.993543, 345, 161, 375, 192
-0.993549, 209, 201, 240, 232
-0.993549, 25, 181, 56, 212
-0.993551, 237, 209, 268, 336
-0.993552, 197, 201, 228, 232
-0.993553, 133, 193, 164, 224
-0.993555, 333, 205, 364, 236
-0.993555, 293, 169, 324, 200
-0.993562, 265, 245, 296, 276
-0.993572, 25, 325, 56, 356
-0.993572, 325, 165, 356, 196
-0.993573, 281, 169, 312, 200
-0.993574, 37, 173, 68, 204
-0.993578, 145, 193, 176, 224
-0.99358, 193, 177, 224, 208
-0.993582, 1, 369, 32, 400
-0.993587, 41, 169, 104, 200
-0.993589, 41, 349, 72, 380
-0.993591, 301, 245, 332, 276
-0.993598, 277, 249, 308, 280
-0.993603, 317, 257, 348, 288
-0.993604, 293, 185, 324, 216
-0.993606, 265, 173, 296, 204
-0.993607, 241, 173, 272, 204
-0.993613, 317, 245, 348, 276
-0.993616, 313, 213, 375, 244
-0.993618, 253, 173, 284, 204
-0.993618, 345, 197, 375, 228
-0.993619, 297, 137, 360, 200
-0.99362, 277, 237, 308, 268
-0.993621, 25, 201, 40, 264
-0.993627, 221, 205, 252, 236
-0.993639, 221, 241, 252, 272
-0.993645, 245, 233, 276, 264
-0.993647, 345, 253, 375, 284
-0.99365, 137, 225, 168, 256
-0.993653, 201, 237, 232, 268
-0.993657, 101, 173, 132, 204
-0.99366, 289, 241, 320, 272
-0.993661, 197, 189, 228, 220
-0.993666, 333, 245, 364, 276
-0.993671, 1, 233, 32, 264
-0.9937, 305, 337, 368, 368
-0.993734, 37, 233, 68, 296
-0.993736, 25, 225, 40, 288
-0.993737, 65, 33, 320, 160
-0.993746, 153, 213, 216, 244
-0.99375, 265, 1, 328, 500
-0.993786, 265, 317, 328, 348
-0.993797, 289, 325, 352, 356
-0.993804, 209, 449, 272, 480
-0.99381, 41, 345, 72, 408
-0.993838, 1, 377, 64, 408
-0.993864, 65, 233, 96, 296
-0.993873, 281, 229, 344, 260
-0.993925, 209, 293, 272, 324
-0.993937, 137, 457, 200, 488
-0.993937, 241, 305, 304, 336
-0.993953, 177, 413, 240, 444
-0.993961, 45, 257, 60, 320
-0.993988, 197, 193, 228, 256
-0.993997, 145, 225, 208, 352
-0.993997, 89, 225, 152, 256
-0.994008, 57, 357, 120, 388
-0.994015, 225, 437, 288, 468
-0.994024, 1, 185, 375, 248
-0.994036, 241, 457, 304, 488
-0.994037, 249, 225, 312, 256
-0.994041, 65, 317, 128, 348
-0.994056, 217, 213, 280, 244
-0.994062, 265, 213, 328, 244
-0.994062, 169, 397, 232, 428
-0.99407, 137, 469, 200, 500
-0.994075, 185, 465, 248, 496
-0.994083, 161, 429, 224, 460
-0.994088, 201, 421, 264, 452
-0.994091, 289, 153, 352, 184
-0.994091, 217, 405, 280, 436
-0.994099, 105, 469, 168, 500
-0.9941, 73, 65, 136, 320
-0.994101, 209, 165, 272, 196
-0.994124, 257, 441, 320, 472
-0.994143, 185, 281, 248, 312
-0.994151, 153, 165, 216, 196
-0.994158, 221, 209, 252, 336
-0.994169, 153, 265, 216, 296
-0.994177, 105, 449, 168, 480
-0.994184, 313, 149, 375, 180
-0.994187, 161, 441, 224, 472
-0.994197, 249, 161, 312, 192
-0.994203, 289, 469, 352, 500
-0.994204, 9, 169, 72, 200
-0.994213, 161, 469, 224, 500
-0.994215, 13, 353, 44, 416
-0.994226, 161, 249, 224, 280
-0.994226, 49, 321, 80, 448
-0.994228, 185, 449, 248, 480
-0.994236, 65, 333, 128, 364
-0.994236, 41, 177, 56, 240
-0.994247, 41, 465, 104, 496
-0.99426, 201, 393, 264, 424
-0.99426, 233, 425, 296, 456
-0.994265, 121, 413, 184, 444
-0.994283, 225, 469, 288, 500
-0.994286, 137, 429, 200, 460
-0.994286, 185, 165, 248, 196
-0.994291, 25, 377, 88, 408
-0.994299, 201, 437, 264, 468
-0.994301, 273, 301, 336, 332
-0.994304, 153, 413, 216, 444
-0.994307, 33, 453, 96, 484
-0.994309, 81, 457, 144, 488
-0.994326, 185, 129, 216, 256
-0.994398, 75, 185, 90, 248
-0.994432, 51, 273, 66, 336
-0.994442, 149, 129, 180, 256
-0.99446, 73, 161, 104, 224
-0.994476, 1, 353, 32, 480
-0.994585, 345, 153, 375, 216
-0.994626, 277, 209, 308, 336
-0.994647, 277, 113, 308, 240
-0.994668, 59, 249, 74, 312
-0.994732, 1, 233, 32, 296
-0.994753, 1, 169, 256, 232
-0.994799, 55, 193, 70, 256
-0.994811, 289, 257, 352, 384
-0.994822, 49, 337, 112, 400
-0.994853, 25, 257, 40, 320
-0.994878, 25, 353, 56, 416
-0.994879, 47, 177, 62, 240
-0.994953, 33, 241, 48, 304
-0.994961, 1, 329, 16, 392
-0.994972, 49, 329, 64, 392
-0.99498, 61, 273, 76, 336
-0.994987, 37, 273, 52, 336
-0.995075, 55, 305, 70, 368
-0.995081, 49, 197, 176, 228
-0.995125, 93, 177, 108, 240
-0.995131, 1, 353, 256, 480
-0.995157, 1, 229, 128, 260
-0.995179, 29, 329, 44, 392
-0.995204, 1, 241, 32, 368
-0.995232, 85, 185, 100, 248
-0.995282, 31, 201, 46, 264
-0.995287, 169, 169, 200, 232
-0.99534, 341, 225, 372, 288
-0.99536, 177, 289, 304, 416
-0.995389, 177, 433, 304, 496
-0.995419, 101, 185, 116, 248
-0.995423, 1, 245, 128, 276
-0.995433, 209, 209, 240, 336
-0.995496, 29, 161, 60, 416
-0.995498, 61, 297, 76, 360
-0.995509, 81, 185, 208, 216
-0.995539, 9, 329, 24, 392
-0.995554, 19, 209, 34, 272
-0.995564, 43, 289, 58, 352
-0.995589, 1, 257, 128, 288
-0.99569, 37, 297, 52, 360
-0.995702, 67, 201, 82, 264
-0.995727, 1, 269, 128, 300
-0.99573, 45, 193, 76, 448
-0.995739, 241, 137, 368, 200
-0.995744, 201, 417, 264, 480
-0.995768, 1, 233, 375, 296
-0.995777, 217, 113, 248, 240
-0.995801, 137, 129, 168, 256
-0.99583, 65, 233, 80, 296
-0.995836, 35, 177, 50, 240
-0.995853, 129, 201, 375, 264
-0.995868, 19, 329, 34, 392
-0.995875, 97, 201, 224, 232
-0.995916, 129, 289, 375, 416
-0.995929, 129, 233, 375, 296
-0.995929, 105, 129, 136, 256
-0.995932, 13, 353, 44, 480
-0.995945, 107, 193, 122, 256
-0.996012, 129, 153, 256, 216
-0.996034, 297, 241, 328, 304
-0.996066, 65, 129, 96, 256
-0.99612, 73, 225, 136, 352
-0.996165, 43, 313, 58, 376
-0.996166, 89, 161, 120, 224
-0.996207, 81, 425, 208, 488
-0.996255, 57, 225, 72, 288
-0.996261, 61, 185, 76, 248
-0.996284, 359, 201, 374, 264
-0.996323, 35, 329, 50, 392
-0.996326, 161, 289, 288, 352
-0.996349, 19, 241, 34, 304
-0.996384, 253, 113, 284, 240
-0.996426, 321, 233, 352, 296
-0.996483, 241, 409, 368, 472
-0.996487, 31, 305, 46, 368
-0.99651, 145, 409, 272, 472
-0.996533, 241, 305, 368, 432
-0.996577, 277, 241, 308, 304
-0.996586, 25, 337, 56, 464
-0.996606, 233, 113, 264, 240
-0.996615, 341, 241, 372, 368
-0.996642, 1, 285, 128, 316
-0.996654, 69, 265, 84, 328
-0.99666, 309, 249, 340, 312
-0.996672, 49, 305, 64, 368
-0.99668, 161, 197, 288, 228
-0.996682, 1, 265, 256, 328
-0.996691, 257, 241, 288, 304
-0.996692, 59, 329, 74, 392
-0.996696, 1, 361, 128, 424
-0.99672, 327, 161, 342, 224
-0.996724, 253, 209, 284, 336
-0.996734, 173, 225, 204, 288
-0.996751, 209, 305, 336, 368
-0.996752, 265, 113, 296, 240
-0.996779, 41, 153, 72, 216
-0.996782, 65, 305, 192, 368
-0.996848, 25, 233, 40, 264
-0.996865, 49, 225, 176, 256
-0.996891, 281, 169, 296, 232
-0.996893, 27, 281, 42, 344
-0.996894, 359, 177, 374, 240
-0.996918, 353, 201, 368, 264
-0.996918, 25, 257, 56, 500
-0.996919, 113, 193, 128, 256
-0.99692, 321, 161, 336, 224
-0.99694, 1, 353, 16, 416
-0.996955, 5, 193, 36, 448
-0.996979, 123, 177, 138, 240
-0.996982, 13, 201, 28, 264
-0.996993, 333, 161, 348, 224
-0.997005, 293, 161, 308, 224
-0.997013, 225, 433, 352, 496
-0.997016, 271, 169, 286, 232
-0.997038, 1, 297, 128, 328
-0.997049, 263, 169, 278, 232
-0.99705, 175, 193, 190, 256
-0.997053, 347, 177, 362, 240
-0.997068, 25, 249, 40, 280
-0.997078, 313, 161, 328, 224
-0.997083, 37, 217, 52, 280
-0.997096, 5, 257, 36, 320
-0.997116, 49, 201, 64, 264
-0.997124, 301, 161, 316, 224
-0.997129, 341, 161, 356, 224
-0.99714, 249, 145, 312, 208
-0.997143, 287, 169, 302, 232
-0.997144, 353, 177, 368, 240
-0.997176, 181, 185, 196, 248
-0.997185, 307, 161, 322, 224
-0.997185, 17, 305, 48, 368
-0.997186, 341, 201, 356, 264
-0.997225, 325, 241, 356, 368
-0.99723, 37, 289, 52, 320
-0.997252, 225, 205, 352, 236
-0.997256, 163, 177, 178, 240
-0.99726, 7, 353, 22, 416
-0.997261, 345, 257, 375, 320
-0.997284, 129, 177, 144, 240
-0.997288, 329, 193, 344, 256
-0.997293, 255, 169, 270, 232
-0.997307, 157, 185, 172, 248
-0.997312, 1, 337, 256, 400
-0.997332, 141, 177, 156, 240
-0.997334, 39, 249, 54, 312
-0.997356, 129, 265, 256, 328
-0.997359, 51, 249, 66, 312
-0.997368, 39, 185, 54, 216
-0.997382, 43, 269, 58, 300
-0.997401, 169, 185, 184, 248
-0.997407, 151, 177, 166, 240
-0.997414, 217, 233, 248, 296
-0.99742, 347, 201, 362, 264
-0.997422, 1, 433, 128, 496
-0.997426, 1, 193, 16, 256
-0.997435, 289, 201, 304, 264
-0.997444, 1, 349, 128, 380
-0.997449, 177, 241, 304, 272
-0.99745, 65, 81, 192, 208
-0.997453, 153, 425, 216, 488
-0.99746, 65, 321, 80, 384
-0.997463, 135, 177, 150, 240
-0.997477, 57, 193, 88, 448
-0.99748, 335, 201, 350, 264
-0.997487, 1, 209, 375, 272
-0.997489, 49, 285, 64, 316
-0.99749, 43, 337, 58, 400
-0.997491, 145, 201, 160, 264
-0.997494, 241, 253, 368, 284
-0.997494, 1, 345, 16, 376
-0.997499, 51, 341, 66, 372
-0.997499, 73, 209, 88, 272
-0.997503, 193, 193, 208, 256
-0.997529, 55, 169, 70, 232
-0.997531, 65, 257, 80, 288
-0.997539, 17, 321, 144, 352
-0.997539, 65, 205, 80, 236
-0.997542, 243, 169, 258, 232
-0.997561, 139, 201, 154, 264
-0.997562, 161, 177, 288, 208
-0.997569, 49, 253, 176, 284
-0.997585, 117, 129, 148, 256
-0.997589, 75, 193, 90, 224
-0.997592, 45, 181, 60, 212
-0.997609, 17, 309, 144, 340
-0.997611, 345, 161, 375, 416
-0.997617, 277, 201, 292, 264
-0.99763, 233, 201, 248, 264
-0.997633, 7, 305, 22, 368
-0.997636, 209, 189, 336, 220
-0.99764, 131, 201, 146, 264
-0.997641, 67, 289, 82, 352
-0.997644, 321, 201, 336, 264
-0.997646, 29, 169, 44, 232
-0.997658, 203, 169, 218, 232
-0.99766, 21, 153, 52, 216
-0.997664, 1, 333, 128, 364
-0.997666, 265, 257, 328, 384
-0.997675, 19, 265, 34, 328
-0.997676, 197, 169, 212, 232
-0.997678, 269, 201, 284, 264
-0.997691, 187, 193, 202, 256
-0.997706, 185, 225, 216, 352
-0.99771, 209, 169, 336, 200
-0.997716, 151, 201, 166, 264
-0.997734, 329, 97, 360, 224
-0.997736, 55, 201, 70, 232
-0.997747, 301, 201, 316, 264
-0.997747, 69, 161, 100, 416
-0.997756, 121, 161, 184, 416
-0.99776, 49, 265, 176, 296
-0.99777, 193, 129, 320, 192
-0.997775, 49, 241, 176, 272
-0.997781, 313, 185, 328, 248
-0.997781, 41, 97, 72, 352
-0.99779, 17, 177, 144, 208
-0.997791, 35, 269, 50, 300
-0.997791, 191, 169, 206, 232
-0.997792, 209, 281, 336, 344
-0.997801, 25, 261, 40, 292
-0.997801, 121, 201, 136, 264
-0.997804, 59, 317, 74, 348
-0.997806, 237, 169, 252, 232
-0.997809, 249, 193, 264, 256
-0.997809, 249, 169, 264, 232
-0.997811, 223, 193, 238, 256
-0.997812, 45, 233, 60, 296
-0.997817, 99, 209, 114, 272
-0.99782, 207, 193, 222, 256
-0.997835, 105, 217, 136, 280
-0.997836, 229, 169, 244, 232
-0.997839, 59, 277, 74, 308
-0.99785, 83, 209, 98, 272
-0.997852, 33, 257, 48, 288
-0.997855, 43, 289, 58, 320
-0.997859, 45, 341, 60, 372
-0.99787, 199, 193, 214, 256
-0.997872, 57, 213, 72, 244
-0.997873, 217, 169, 232, 232
-0.997882, 49, 337, 176, 400
-0.997886, 7, 201, 22, 264
-0.997887, 295, 201, 310, 264
-0.997896, 241, 329, 368, 392
-0.997899, 243, 193, 258, 256
-0.997901, 47, 353, 62, 384
-0.997902, 27, 281, 42, 312
-0.997908, 113, 229, 240, 260
-0.99791, 49, 297, 64, 328
-0.99791, 111, 169, 126, 232
-0.997913, 59, 289, 74, 320
-0.997918, 325, 129, 356, 384
-0.997924, 213, 193, 228, 256
-0.997928, 33, 197, 48, 228
-0.997938, 81, 213, 208, 244
-0.997942, 255, 193, 270, 256
-0.997942, 283, 201, 298, 264
-0.997942, 63, 193, 78, 224
-0.997944, 209, 169, 224, 232
-0.997959, 163, 201, 178, 264
-0.99796, 225, 289, 288, 352
-0.997976, 25, 205, 40, 236
-0.997985, 73, 225, 104, 352
-0.99799, 307, 201, 322, 264
-0.997993, 11, 341, 26, 372
-0.997993, 67, 177, 82, 240
-0.998012, 51, 189, 66, 220
-0.998017, 113, 289, 240, 352
-0.998017, 67, 269, 82, 300
-0.998022, 61, 321, 92, 448
-0.998028, 49, 273, 64, 304
-0.99803, 297, 161, 328, 416
-0.998037, 23, 341, 38, 372
-0.99804, 103, 193, 118, 224
-0.998055, 309, 129, 340, 384
-0.998058, 233, 161, 264, 416
-0.998076, 181, 161, 212, 416
-0.998096, 59, 305, 74, 336
-0.998102, 345, 97, 375, 224
-0.99811, 55, 329, 70, 360
-0.998115, 33, 241, 288, 304
-0.998139, 121, 201, 136, 232
-0.998141, 37, 341, 52, 372
-0.998151, 57, 349, 72, 380
-0.998151, 25, 217, 40, 248
-0.998153, 7, 357, 22, 388
-0.998155, 29, 341, 44, 372
-0.998156, 31, 237, 46, 268
-0.998166, 113, 369, 240, 496
-0.998167, 49, 329, 64, 360
-0.998168, 109, 201, 124, 232
-0.998169, 39, 301, 54, 332
-0.998183, 57, 225, 72, 256
-0.998189, 71, 205, 86, 236
-0.998189, 59, 245, 74, 276
-0.998201, 205, 393, 236, 456
-0.998203, 221, 161, 252, 416
-0.998205, 93, 185, 108, 216
-0.998208, 65, 217, 80, 248
-0.998226, 1, 361, 16, 392
-0.998231, 245, 161, 276, 416
-0.998254, 73, 257, 136, 320
-0.998257, 51, 309, 66, 340
-0.998264, 69, 193, 84, 224
-0.998265, 1, 377, 32, 392
-0.998267, 241, 203, 272, 218
-0.998268, 345, 261, 375, 276
-0.99827, 127, 201, 142, 232
-0.998271, 345, 205, 375, 220
-0.998272, 73, 215, 104, 230
-0.998273, 17, 187, 48, 202
-0.998273, 83, 193, 98, 224
-0.998274, 61, 341, 92, 356
-0.998275, 121, 199, 152, 214
-0.998276, 105, 195, 136, 210
-0.998277, 37, 317, 68, 332
-0.998278, 165, 205, 196, 220
-0.998278, 221, 425, 252, 488
-0.998278, 57, 265, 72, 296
-0.998279, 115, 201, 130, 232
-0.99828, 65, 283, 96, 298
-0.998282, 225, 425, 288, 488
-0.998283, 53, 353, 84, 368
-0.998288, 29, 367, 60, 382
-0.998293, 129, 433, 256, 496
-0.998293, 5, 225, 36, 240
-0.998294, 13, 303, 44, 318
-0.998294, 5, 215, 36, 230
-0.998298, 45, 235, 76, 250
-0.998301, 13, 369, 44, 384
-0.998301, 153, 205, 184, 220
-0.998302, 61, 255, 92, 270
-0.998303, 53, 347, 84, 362
-0.998303, 1, 161, 375, 224
-0.998307, 25, 309, 56, 324
-0.998307, 197, 199, 228, 214
-0.998308, 65, 245, 80, 276
-0.998309, 53, 303, 84, 318
-0.998309, 61, 239, 92, 254
-0.998311, 185, 201, 216, 216
-0.998311, 33, 181, 64, 196
-0.998313, 193, 161, 224, 416
-0.998314, 45, 241, 76, 256
-0.998315, 65, 271, 96, 286
-0.998316, 113, 211, 144, 226
-0.998316, 85, 213, 116, 228
-0.998317, 25, 227, 56, 242
-0.998317, 5, 267, 36, 282
-0.998317, 21, 297, 52, 312
-0.99832, 17, 161, 48, 416
-0.99832, 97, 213, 128, 228
-0.998322, 73, 197, 104, 212
-0.998322, 109, 201, 140, 216
-0.998324, 133, 207, 164, 222
-0.998326, 1, 209, 32, 224
-0.998327, 53, 183, 84, 198
-0.998327, 25, 375, 56, 390
-0.998328, 37, 325, 68, 340
-0.998328, 19, 265, 34, 296
-0.998328, 105, 189, 136, 204
-0.998329, 73, 209, 104, 224
-0.998333, 13, 259, 44, 274
-0.998336, 161, 199, 192, 214
-0.998337, 53, 309, 84, 324
-0.998337, 9, 281, 40, 296
-0.99834, 61, 249, 92, 264
-0.99834, 45, 229, 76, 244
-0.998343, 61, 229, 92, 244
-0.998344, 1, 401, 128, 464
-0.998345, 65, 277, 96, 292
-0.998345, 33, 233, 64, 248
-0.998346, 41, 369, 72, 384
-0.998349, 33, 207, 64, 222
-0.99835, 17, 193, 48, 208
-0.99835, 61, 261, 92, 276
-0.998354, 37, 331, 68, 346
-0.998354, 49, 315, 80, 330
-0.998357, 309, 225, 340, 288
-0.998358, 13, 359, 44, 374
-0.998358, 25, 361, 56, 376
-0.998364, 89, 197, 120, 212
-0.998369, 33, 241, 64, 256
-0.998371, 261, 161, 292, 416
-0.998371, 41, 215, 72, 230
-0.998375, 45, 223, 76, 238
-0.998375, 9, 275, 40, 290
-0.998377, 45, 251, 76, 266
-0.99838, 23, 353, 38, 384
-0.998382, 13, 231, 44, 246
-0.998384, 13, 253, 44, 268
-0.998385, 69, 203, 100, 218
-0.998388, 43, 257, 58, 288
-0.998389, 15, 205, 30, 236
-0.998391, 25, 195, 88, 210
-0.998392, 45, 285, 76, 300
-0.998395, 49, 363, 80, 378
-0.998395, 1, 365, 32, 380
-0.998396, 101, 207, 132, 222
-0.998398, 145, 385, 272, 448
-0.998398, 29, 337, 60, 352
-0.998399, 51, 365, 66, 396
-0.998399, 273, 313, 336, 376
-0.9984, 33, 247, 64, 262
-0.998405, 13, 243, 44, 258
-0.998406, 21, 213, 52, 228
-0.998406, 49, 297, 80, 312
-0.998407, 41, 351, 72, 366
-0.998408, 17, 265, 48, 280
-0.998409, 17, 199, 48, 214
-0.998409, 21, 221, 52, 236
-0.998411, 41, 307, 72, 322
-0.998412, 19, 221, 34, 252
-0.998413, 21, 287, 52, 302
-0.998413, 121, 205, 152, 220
-0.998414, 25, 203, 88, 218
-0.998414, 33, 185, 48, 216
-0.998415, 53, 189, 84, 204
-0.998415, 61, 223, 92, 238
-0.998416, 49, 339, 80, 354
-0.998418, 173, 199, 204, 214
-0.998419, 1, 337, 32, 352
-0.998419, 25, 257, 56, 272
-0.998422, 49, 257, 80, 272
-0.998425, 63, 229, 78, 260
-0.998428, 53, 203, 84, 218
-0.99843, 13, 237, 44, 252
-0.998432, 45, 279, 76, 294
-0.998436, 85, 189, 116, 204
-0.998437, 193, 393, 320, 456
-0.998438, 25, 189, 88, 204
-0.998439, 21, 207, 52, 222
-0.998439, 33, 301, 64, 316
-0.99844, 49, 291, 80, 306
-0.998441, 53, 273, 84, 288
-0.998444, 37, 359, 68, 374
-0.998445, 281, 161, 312, 416
-0.998447, 49, 321, 80, 336
-0.998448, 57, 189, 72, 220
-0.998448, 19, 245, 34, 276
-0.998449, 17, 353, 48, 368
-0.99845, 1, 197, 16, 228
-0.998452, 61, 215, 92, 230
-0.998453, 1, 353, 64, 368
-0.998454, 17, 341, 32, 372
-0.998457, 65, 321, 80, 352
-0.998457, 5, 97, 36, 352
-0.998457, 19, 233, 34, 264
-0.998457, 17, 211, 80, 226
-0.998457, 273, 137, 336, 200
-0.998458, 25, 269, 88, 284
-0.998458, 41, 271, 72, 286
-0.998458, 5, 203, 36, 218
-0.998462, 21, 281, 52, 296
-0.998465, 73, 191, 104, 206
-0.998465, 21, 275, 52, 290
-0.998466, 345, 65, 375, 320
-0.998468, 49, 209, 80, 224
-0.99847, 225, 229, 352, 260
-0.99847, 17, 341, 48, 356
-0.998472, 241, 241, 368, 272
-0.998472, 25, 275, 88, 290
-0.998472, 37, 343, 68, 358
-0.998473, 1, 371, 32, 386
-0.998474, 17, 217, 80, 232
-0.998475, 17, 261, 80, 276
-0.998475, 177, 193, 192, 224
-0.998475, 69, 281, 84, 312
-0.998479, 1, 197, 64, 212
-0.998483, 237, 217, 268, 280
-0.998484, 29, 351, 60, 366
-0.998489, 49, 263, 80, 278
-0.998492, 65, 195, 128, 210
-0.998495, 33, 295, 64, 310
-0.998495, 79, 209, 94, 240
-0.998497, 33, 201, 64, 216
-0.9985, 1, 313, 256, 376
-0.9985, 33, 279, 64, 294
-0.998501, 49, 329, 80, 344
-0.998508, 9, 347, 40, 362
-0.998508, 5, 333, 20, 364
-0.99851, 33, 145, 288, 208
-0.998512, 35, 225, 50, 256
-0.998512, 161, 225, 192, 288
-0.998519, 129, 153, 375, 216
-0.998521, 1, 361, 128, 392
-0.998523, 17, 225, 80, 240
-0.998524, 65, 293, 80, 324
-0.998525, 25, 253, 88, 268
-0.998525, 33, 285, 64, 300
-0.998527, 29, 263, 60, 278
-0.99853, 53, 195, 84, 210
-0.998531, 25, 285, 88, 300
-0.998533, 209, 161, 240, 416
-0.998538, 1, 355, 32, 370
-0.998538, 65, 201, 128, 216
-0.998539, 137, 205, 152, 236
-0.998542, 49, 213, 112, 228
-0.998543, 1, 345, 64, 360
-0.998545, 33, 195, 64, 210
-0.998546, 61, 209, 92, 224
-0.998554, 1, 205, 64, 220
-0.998554, 43, 321, 58, 352
-0.998559, 21, 277, 36, 308
-0.99856, 25, 293, 88, 308
-0.998561, 55, 193, 70, 320
-0.998569, 9, 245, 72, 260
-0.998571, 25, 351, 88, 366
-0.998577, 169, 201, 232, 216
-0.998578, 9, 359, 72, 374
-0.998578, 61, 333, 76, 364
-0.998578, 39, 197, 54, 228
-0.998584, 81, 129, 112, 384
-0.998587, 9, 237, 72, 252
-0.99859, 49, 207, 112, 222
-0.998592, 25, 303, 88, 318
-0.998592, 17, 339, 80, 354
-0.998595, 53, 97, 84, 352
-0.998598, 9, 231, 72, 246
-0.9986, 49, 189, 112, 204
-0.998603, 111, 189, 126, 220
-0.998606, 1, 283, 64, 298
-0.998611, 33, 137, 160, 200
-0.998612, 57, 219, 120, 234
-0.998615, 17, 353, 32, 384
-0.998616, 325, 137, 356, 200
-0.998616, 53, 345, 84, 408
-0.998617, 33, 231, 96, 246
-0.998619, 33, 247, 96, 262
-0.998619, 1, 365, 64, 380
-0.99862, 25, 345, 88, 360
-0.998626, 33, 239, 96, 254
-0.998628, 29, 269, 60, 284
-0.998628, 33, 183, 96, 198
-0.998632, 1, 191, 64, 206
-0.998634, 33, 309, 96, 324
-0.998635, 137, 203, 200, 218
-0.998639, 1, 269, 64, 284
-0.998641, 73, 189, 136, 204
-0.998641, 1, 277, 64, 292
-0.998642, 297, 65, 328, 320
-0.998647, 97, 203, 160, 218
-0.998648, 97, 189, 160, 204
-0.998649, 37, 187, 68, 202
-0.99865, 25, 331, 88, 346
-0.99865, 241, 401, 304, 464
-0.998651, 65, 309, 80, 340
-0.998654, 1, 291, 64, 306
-0.998659, 41, 263, 104, 278
-0.998659, 49, 279, 112, 294
-0.99866, 1, 255, 64, 270
-0.998661, 99, 209, 114, 240
-0.998666, 105, 211, 168, 226
-0.998667, 33, 315, 96, 330
-0.998668, 73, 207, 136, 222
-0.99867, 49, 253, 112, 268
-0.998672, 1, 297, 64, 312
-0.998675, 41, 339, 104, 354
-0.998676, 45, 193, 60, 224
-0.998677, 49, 225, 112, 240
-0.998677, 177, 221, 304, 252
-0.998679, 65, 273, 128, 288
-0.998682, 85, 209, 100, 240
-0.998684, 27, 193, 42, 224
-0.998684, 33, 193, 48, 320
-0.998686, 143, 205, 158, 236
-0.998686, 1, 185, 64, 200
-0.998687, 73, 213, 136, 228
-0.998688, 193, 199, 256, 214
-0.998694, 41, 357, 104, 372
-0.998695, 297, 167, 360, 182
-0.998696, 1, 371, 64, 386
-0.998697, 113, 225, 176, 240
-0.998698, 137, 197, 200, 212
-0.998699, 9, 313, 72, 328
-0.998701, 97, 197, 160, 212
-0.998703, 189, 193, 204, 224
-0.998703, 273, 255, 336, 270
-0.998705, 169, 195, 232, 210
-0.998705, 233, 205, 296, 220
-0.998707, 49, 285, 112, 300
-0.998709, 1, 333, 64, 348
-0.99871, 57, 247, 120, 262
-0.99871, 241, 249, 304, 264
-0.998713, 171, 201, 186, 232
-0.998714, 57, 241, 120, 256
-0.998714, 145, 231, 208, 246
-0.998716, 273, 201, 336, 216
-0.998716, 65, 265, 128, 280
-0.998717, 25, 373, 88, 388
-0.998718, 209, 243, 272, 258
-0.998718, 1, 289, 256, 352
-0.998719, 313, 205, 375, 220
-0.998719, 57, 231, 120, 246
-0.998719, 25, 365, 88, 380
-0.998719, 49, 205, 64, 236
-0.99872, 89, 221, 152, 236
-0.998721, 25, 325, 88, 340
-0.998723, 177, 239, 240, 254
-0.998726, 31, 297, 46, 328
-0.998727, 129, 209, 192, 224
-0.998728, 1, 319, 64, 334
-0.998728, 169, 161, 200, 416
-0.99873, 289, 209, 352, 224
-0.998732, 313, 261, 375, 276
-0.998734, 1, 303, 64, 318
-0.998735, 1, 377, 64, 392
-0.998735, 161, 181, 224, 196
-0.998737, 57, 183, 120, 198
-0.998738, 209, 205, 272, 220
-0.998738, 265, 207, 328, 222
-0.99874, 195, 197, 210, 228
-0.998741, 65, 301, 128, 316
-0.998743, 183, 197, 198, 228
-0.998743, 57, 351, 120, 366
-0.998744, 273, 171, 336, 186
-0.998744, 137, 183, 200, 198
-0.998745, 65, 259, 128, 274
-0.998748, 201, 237, 264, 252
-0.998749, 1, 327, 64, 342
-0.99875, 49, 293, 112, 308
-0.998751, 313, 255, 375, 270
-0.998751, 177, 65, 208, 320
-0.998751, 289, 249, 352, 264
-0.998752, 217, 177, 280, 192
-0.998752, 185, 179, 248, 194
-0.998752, 313, 211, 375, 226
-0.998752, 233, 199, 296, 214
-0.998752, 65, 307, 128, 322
-0.998753, 249, 173, 312, 188
-0.998754, 193, 193, 256, 208
-0.998754, 57, 333, 120, 348
-0.998754, 241, 239, 304, 254
-0.998756, 265, 249, 328, 264
-0.998756, 49, 323, 112, 338
-0.998759, 29, 353, 44, 384
-0.998762, 145, 223, 208, 238
-0.998762, 313, 239, 375, 254
-0.998763, 57, 345, 120, 360
-0.998764, 297, 183, 360, 198
-0.998765, 249, 255, 312, 270
-0.998766, 313, 249, 375, 264
-0.998767, 169, 233, 232, 248
-0.998767, 113, 217, 176, 232
-0.998769, 233, 193, 296, 208
-0.998769, 97, 183, 160, 198
-0.99877, 23, 193, 38, 320
-0.998771, 49, 365, 112, 380
-0.998776, 273, 185, 336, 200
-0.998782, 277, 65, 308, 320
-0.998786, 77, 181, 92, 212
-0.998788, 89, 197, 104, 228
-0.998789, 61, 225, 76, 352
-0.998796, 7, 197, 22, 228
-0.9988, 45, 309, 60, 340
-0.998808, 93, 213, 108, 244
-0.998811, 245, 193, 260, 224
-0.998812, 99, 181, 114, 212
-0.998817, 245, 65, 276, 320
-0.998819, 177, 181, 192, 212
-0.998819, 19, 193, 34, 224
-0.998829, 145, 209, 272, 240
-0.99883, 323, 205, 338, 236
-0.99883, 53, 253, 68, 284
-0.998835, 231, 193, 246, 224
-0.99884, 313, 201, 328, 232
-0.998846, 117, 189, 132, 220
-0.998857, 257, 201, 272, 232
-0.998858, 297, 305, 360, 432
-0.998866, 97, 197, 112, 228
-0.998871, 49, 257, 64, 384
-0.998871, 27, 329, 42, 360
-0.998872, 37, 329, 52, 360
-0.998875, 251, 193, 266, 224
-0.998881, 359, 209, 374, 240
-0.998883, 233, 65, 264, 320
-0.99889, 167, 181, 182, 212
-0.998891, 197, 65, 228, 320
-0.998892, 73, 265, 88, 296
-0.998895, 105, 213, 120, 244
-0.99891, 25, 65, 56, 320
-0.998916, 349, 205, 364, 236
-0.998922, 185, 181, 200, 212
-0.998924, 259, 189, 274, 220
-0.998927, 65, 401, 192, 464
-0.99893, 39, 273, 54, 400
-0.998931, 337, 205, 352, 236
-0.998932, 237, 193, 252, 224
-0.998933, 27, 241, 42, 368
-0.998934, 221, 65, 252, 320
-0.998935, 283, 189, 298, 220
-0.998936, 315, 161, 330, 288
-0.998936, 125, 189, 140, 220
-0.998939, 131, 213, 146, 244
-0.998967, 261, 65, 292, 320
-0.998988, 309, 161, 324, 288
-0.999002, 55, 273, 70, 400
-0.999015, 225, 369, 352, 496
-0.999019, 45, 161, 60, 288
-0.999036, 321, 161, 336, 288
-0.999054, 303, 161, 318, 288
-0.99906, 193, 369, 320, 432
-0.999061, 49, 297, 176, 328
-0.999069, 297, 161, 312, 288
-0.999069, 1, 321, 16, 448
-0.99908, 329, 161, 344, 288
-0.999084, 49, 285, 176, 316
-0.999091, 39, 161, 54, 288
-0.999097, 17, 193, 32, 320
-0.9991, 33, 289, 48, 416
-0.999101, 129, 321, 256, 384
-0.999105, 93, 129, 124, 384
-0.999108, 289, 161, 304, 288
-0.999132, 177, 417, 240, 480
-0.999134, 335, 161, 350, 288
-0.999138, 105, 409, 168, 472
-0.999139, 279, 161, 294, 288
-0.999143, 357, 161, 372, 288
-0.999156, 345, 145, 360, 272
-0.999159, 177, 177, 192, 304
-0.999161, 65, 173, 192, 204
-0.999163, 235, 161, 250, 288
-0.999172, 243, 161, 258, 288
-0.999179, 269, 161, 284, 288
-0.99918, 67, 257, 82, 384
-0.999181, 67, 193, 82, 320
-0.999185, 201, 281, 264, 344
-0.999188, 33, 241, 48, 368
-0.999189, 257, 161, 272, 288
-0.999189, 329, 33, 360, 288
-0.999193, 241, 361, 368, 424
-0.999196, 217, 145, 280, 208
-0.999198, 209, 65, 240, 320
-0.999207, 309, 33, 340, 288
-0.99921, 249, 161, 264, 288
-0.999213, 225, 161, 240, 288
-0.999221, 351, 145, 366, 272
-0.999232, 263, 161, 278, 288
-0.999233, 49, 353, 176, 480
-0.999237, 191, 177, 206, 304
-0.999238, 193, 253, 320, 284
-0.999246, 213, 161, 228, 288
-0.999247, 7, 305, 22, 432
-0.999248, 219, 161, 234, 288
-0.99925, 183, 177, 198, 304
-0.999252, 99, 177, 114, 304
-0.999257, 45, 305, 60, 432
-0.999257, 129, 241, 256, 272
-0.999268, 333, 225, 364, 480
-0.999274, 89, 161, 104, 288
-0.999278, 305, 329, 368, 392
-0.999278, 47, 209, 62, 336
-0.99929, 169, 177, 184, 304
-0.999296, 265, 289, 328, 352
-0.999297, 97, 377, 224, 440
-0.999302, 351, 193, 366, 320
-0.999302, 61, 177, 76, 304
-0.99931, 61, 289, 76, 416
-0.999314, 49, 337, 176, 368
-0.999315, 73, 193, 88, 320
-0.999337, 79, 177, 94, 304
-0.999344, 153, 65, 184, 320
-0.999344, 65, 65, 96, 320
-0.999351, 241, 217, 368, 248
-0.99936, 197, 177, 212, 304
-0.999363, 21, 241, 36, 368
-0.999364, 141, 225, 172, 288
-0.999365, 157, 177, 172, 304
-0.999375, 39, 225, 54, 352
-0.999378, 343, 193, 358, 320
-0.999379, 205, 177, 220, 304
-0.999383, 163, 177, 178, 304
-0.999396, 27, 289, 42, 416
-0.999397, 13, 337, 28, 464
-0.999399, 151, 177, 166, 304
-0.99941, 105, 65, 136, 320
-0.999413, 361, 209, 375, 336
-0.999415, 105, 177, 120, 304
-0.999422, 25, 145, 40, 272
-0.999436, 333, 249, 364, 312
-0.999446, 143, 177, 158, 304
-0.999452, 7, 353, 22, 480
-0.999455, 323, 113, 338, 240
-0.999461, 319, 209, 334, 336
-0.999464, 5, 193, 20, 320
-0.999472, 313, 209, 328, 336
-0.999481, 49, 377, 176, 440
-0.999483, 95, 129, 110, 256
-0.999485, 335, 113, 350, 240
-0.99949, 133, 177, 148, 304
-0.99949, 49, 361, 176, 392
-0.999494, 329, 113, 344, 240
-0.999503, 357, 113, 372, 240
-0.999507, 309, 225, 340, 480
-0.999507, 293, 209, 308, 336
-0.999508, 145, 361, 272, 424
-0.99951, 31, 145, 46, 272
-0.99951, 11, 193, 26, 320
-0.999513, 73, 257, 88, 384
-0.999514, 83, 129, 98, 256
-0.999516, 307, 209, 322, 336
-0.999518, 51, 145, 66, 272
-0.999518, 317, 113, 332, 240
-0.999532, 167, 129, 182, 256
-0.999533, 321, 225, 352, 480
-0.999534, 177, 129, 192, 256
-0.999536, 45, 203, 60, 218
-0.999536, 79, 211, 94, 226
-0.999538, 19, 237, 34, 252
-0.999539, 83, 191, 98, 206
-0.999539, 45, 337, 60, 352
-0.999541, 89, 33, 120, 288
-0.999541, 325, 209, 340, 336
-0.999543, 61, 239, 76, 254
-0.999543, 301, 209, 316, 336
-0.999543, 51, 321, 66, 336
-0.999543, 27, 199, 42, 214
-0.999543, 183, 129, 198, 256
-0.999543, 65, 249, 80, 264
-0.999543, 25, 227, 40, 242
-0.999543, 51, 321, 66, 448
-0.999544, 55, 309, 70, 324
-0.999544, 45, 299, 60, 314
-0.999544, 165, 65, 196, 320
-0.999545, 25, 213, 40, 228
-0.999545, 183, 199, 198, 214
-0.999545, 19, 231, 34, 246
-0.999547, 101, 191, 116, 206
-0.999548, 19, 243, 34, 258
-0.999548, 61, 201, 76, 216
-0.999549, 65, 319, 80, 334
-0.999549, 191, 199, 206, 214
-0.99955, 241, 337, 368, 368
-0.999551, 63, 309, 78, 324
-0.999554, 49, 263, 64, 278
-0.999555, 57, 223, 72, 238
-0.999555, 19, 349, 34, 364
-0.999555, 29, 193, 44, 208
-0.999556, 17, 337, 32, 352
-0.999556, 103, 197, 118, 212
-0.999556, 25, 219, 40, 234
-0.999557, 7, 203, 22, 218
-0.999557, 35, 311, 50, 326
-0.999557, 35, 243, 50, 258
-0.999559, 131, 205, 146, 220
-0.999559, 7, 365, 22, 380
-0.99956, 41, 371, 56, 386
-0.99956, 137, 205, 152, 220
-0.999561, 309, 113, 324, 240
-0.999562, 61, 303, 76, 318
-0.999563, 3, 339, 18, 354
-0.999563, 189, 129, 204, 256
-0.999565, 39, 191, 54, 206
-0.999565, 53, 333, 68, 348
-0.999566, 19, 253, 34, 268
-0.999566, 331, 209, 346, 336
-0.999566, 113, 273, 240, 400
-0.999567, 43, 281, 58, 296
-0.999568, 65, 327, 80, 342
-0.99957, 7, 347, 22, 362
-0.99957, 123, 203, 138, 218
-0.99957, 57, 257, 72, 272
-0.999571, 241, 209, 256, 336
-0.999573, 1, 201, 16, 216
-0.999574, 55, 275, 70, 290
-0.999574, 29, 337, 44, 464
-0.999576, 33, 275, 48, 290
-0.999577, 45, 359, 60, 374
-0.999578, 33, 199, 48, 214
-0.999578, 31, 251, 46, 266
-0.999578, 101, 129, 116, 256
-0.999578, 67, 145, 82, 272
-0.999578, 241, 153, 272, 216
-0.999579, 57, 245, 72, 260
-0.99958, 61, 339, 76, 354
-0.999581, 55, 195, 70, 210
-0.999581, 59, 327, 74, 342
-0.999582, 17, 207, 32, 222
-0.999583, 59, 315, 74, 330
-0.999584, 61, 297, 76, 312
-0.999585, 57, 129, 72, 256
-0.999587, 19, 273, 34, 288
-0.999588, 33, 267, 48, 282
-0.999588, 95, 187, 110, 202
-0.999588, 65, 271, 80, 286
-0.999589, 19, 355, 34, 370
-0.999589, 63, 213, 78, 228
-0.999589, 39, 351, 54, 366
-0.99959, 63, 221, 78, 236
-0.999591, 25, 353, 40, 368
-0.999592, 19, 145, 34, 272
-0.999593, 49, 327, 64, 342
-0.999594, 29, 339, 44, 354
-0.999595, 57, 229, 72, 244
-0.999596, 31, 237, 46, 252
-0.999597, 177, 199, 192, 214
-0.999599, 59, 281, 74, 296
-0.999601, 169, 225, 200, 352
-0.999601, 35, 281, 50, 296
-0.999601, 241, 1, 368, 128
-0.999602, 235, 209, 250, 336
-0.999604, 53, 303, 68, 318
-0.999607, 111, 177, 126, 304
-0.999608, 59, 321, 74, 336
-0.999609, 33, 205, 48, 220
-0.999609, 49, 195, 64, 210
-0.99961, 77, 129, 92, 256
-0.99961, 43, 345, 58, 360
-0.99961, 193, 437, 320, 468
-0.999611, 119, 177, 134, 304
-0.999611, 55, 347, 70, 362
-0.999611, 11, 339, 26, 354
-0.999611, 47, 371, 62, 386
-0.999613, 125, 177, 140, 304
-0.999614, 1, 361, 16, 376
-0.999615, 21, 321, 36, 448
-0.999615, 23, 279, 38, 294
-0.999617, 43, 305, 58, 320
-0.999618, 1, 369, 16, 496
-0.999619, 71, 205, 86, 220
-0.99962, 65, 277, 80, 292
-0.999621, 337, 209, 352, 336
-0.999621, 43, 263, 58, 278
-0.999622, 57, 213, 72, 228
-0.999622, 33, 351, 48, 366
-0.999623, 63, 255, 78, 270
-0.999623, 39, 197, 54, 212
-0.999623, 303, 113, 318, 240
-0.999624, 51, 201, 66, 216
-0.999626, 47, 187, 62, 202
-0.999626, 37, 301, 52, 316
-0.999627, 51, 363, 66, 378
-0.999628, 11, 357, 26, 372
-0.999628, 41, 113, 56, 240
-0.999631, 287, 209, 302, 336
-0.999632, 77, 191, 92, 206
-0.999633, 13, 347, 28, 362
-0.999634, 35, 345, 50, 360
-0.999635, 51, 353, 66, 368
-0.999635, 39, 287, 54, 302
-0.999636, 249, 209, 264, 336
-0.999636, 107, 129, 122, 256
-0.999638, 53, 207, 68, 222
-0.999638, 45, 275, 60, 290
-0.999639, 13, 289, 28, 416
-0.99964, 49, 285, 64, 300
-0.99964, 59, 289, 74, 304
-0.99964, 159, 129, 174, 256
-0.999641, 27, 207, 42, 222
-0.999641, 43, 293, 58, 308
-0.999642, 27, 285, 42, 300
-0.999643, 45, 351, 60, 366
-0.999644, 279, 113, 294, 240
-0.999645, 1, 371, 16, 386
-0.999648, 25, 267, 40, 282
-0.999652, 51, 341, 66, 356
-0.999653, 201, 129, 216, 256
-0.999655, 23, 343, 38, 358
-0.999655, 193, 329, 320, 392
-0.999655, 293, 113, 308, 240
-0.999655, 37, 293, 52, 308
-0.999655, 59, 333, 74, 348
-0.999655, 227, 209, 242, 336
-0.999661, 25, 233, 40, 248
-0.999663, 49, 293, 64, 308
-0.999664, 35, 259, 50, 274
-0.999668, 273, 113, 288, 240
-0.99967, 217, 209, 232, 336
-0.999671, 29, 345, 44, 360
-0.999671, 267, 113, 282, 240
-0.999671, 287, 113, 302, 240
-0.999672, 5, 257, 20, 384
-0.999677, 151, 129, 166, 256
-0.999678, 207, 129, 222, 256
-0.999679, 63, 207, 78, 222
-0.999684, 195, 129, 210, 256
-0.999684, 65, 261, 80, 276
-0.999685, 39, 185, 54, 200
-0.99969, 49, 349, 176, 380
-0.99969, 353, 241, 368, 368
-0.99969, 279, 209, 294, 336
-0.999693, 5, 355, 20, 370
-0.999695, 43, 269, 58, 284
-0.999696, 211, 209, 226, 336
-0.999697, 157, 161, 188, 416
-0.999701, 89, 113, 104, 240
-0.999703, 1, 145, 16, 272
-0.999707, 1, 345, 16, 360
-0.999715, 77, 33, 108, 288
-0.999717, 209, 157, 336, 188
-0.999724, 25, 253, 40, 268
-0.999735, 161, 301, 288, 332
-0.999747, 201, 233, 232, 296
-0.99975, 25, 261, 40, 276
-0.999752, 25, 245, 40, 260
-0.999754, 193, 313, 320, 344
-0.999754, 209, 469, 336, 500
-0.999754, 25, 239, 40, 254
-0.999759, 161, 161, 288, 192
-0.999767, 113, 173, 240, 204
-0.99979, 185, 225, 216, 288
-0.999792, 129, 465, 256, 496
-0.999796, 65, 257, 128, 500
-0.999797, 161, 417, 288, 448
-0.999801, 145, 445, 272, 476
-0.999807, 33, 417, 288, 480
-0.999834, 105, 161, 136, 416
-0.999855, 129, 289, 375, 352
-0.999861, 65, 317, 192, 348
-0.999868, 241, 441, 368, 472
-0.999877, 1, 373, 128, 404
-0.999877, 241, 453, 368, 484
-0.99988, 49, 73, 176, 136
-0.999901, 1, 257, 375, 320
-0.999933, 97, 49, 224, 112
-0.999945, 209, 325, 336, 356
-0.999945, 33, 429, 160, 460
-0.999946, 1, 113, 128, 176
-0.999958, 241, 301, 368, 332
-0.99996, 193, 449, 320, 480
-0.999964, 1, 305, 375, 368
-0.999966, 129, 129, 375, 192
-0.999972, 1, 89, 128, 152
-0.999989, 145, 429, 272, 460
-0.999992, 33, 405, 160, 436
-0.999999, 113, 277, 240, 308
-0.999999, 121, 65, 152, 320
-1, 225, 421, 352, 452
-1.00002, 33, 445, 160, 476
-1.00003, 113, 409, 240, 440
-1.00005, 161, 145, 224, 208
-1.00005, 241, 17, 368, 80
-1.00006, 81, 421, 208, 452
-1.00007, 133, 97, 164, 352
-1.00007, 241, 385, 368, 448
-1.00007, 1, 385, 128, 416
-1.0001, 113, 261, 240, 292
-1.0001, 241, 285, 368, 316
-1.0001, 193, 273, 320, 304
-1.00011, 177, 49, 304, 112
-1.00011, 129, 313, 375, 376
-1.00011, 193, 397, 320, 428
-1.00011, 97, 437, 224, 468
-1.00012, 129, 409, 375, 472
-1.00013, 161, 289, 288, 320
-1.00013, 65, 385, 320, 448
-1.00014, 313, 137, 344, 200
-1.00015, 229, 241, 260, 304
-1.00015, 65, 389, 192, 420
-1.00016, 241, 313, 368, 344
-1.00016, 65, 457, 192, 488
-1.00016, 209, 409, 336, 440
-1.00017, 49, 469, 176, 500
-1.00017, 53, 1, 84, 256
-1.00018, 113, 353, 240, 384
-1.00018, 97, 377, 224, 408
-1.00018, 129, 409, 192, 472
-1.0002, 81, 97, 208, 160
-1.00022, 241, 377, 368, 408
-1.00022, 113, 397, 240, 428
-1.00023, 121, 161, 152, 416
-1.00024, 97, 353, 224, 416
-1.00025, 193, 145, 256, 208
-1.00026, 17, 417, 144, 448
-1.00028, 49, 377, 176, 408
-1.00028, 145, 385, 272, 416
-1.00028, 345, 257, 375, 500
-1.00028, 197, 97, 228, 224
-1.00028, 161, 353, 288, 480
-1.00029, 289, 257, 320, 384
-1.00029, 145, 161, 176, 416
-1.00029, 169, 257, 232, 320
-1.0003, 177, 353, 304, 384
-1.00031, 113, 129, 240, 192
-1.00031, 85, 225, 116, 480
-1.00031, 129, 365, 256, 396
-1.00032, 229, 257, 260, 500
-1.00033, 33, 361, 288, 424
-1.00034, 241, 265, 368, 296
-1.00035, 217, 369, 280, 496
-1.00036, 1, 465, 128, 496
-1.00036, 1, 1, 32, 256
-1.00036, 161, 341, 288, 372
-1.00036, 129, 433, 375, 496
-1.00037, 145, 81, 272, 144
-1.00037, 41, 1, 72, 256
-1.00037, 133, 1, 164, 256
-1.00038, 213, 257, 244, 500
-1.00039, 209, 417, 240, 480
-1.0004, 177, 365, 304, 396
-1.0004, 129, 313, 256, 344
-1.00045, 193, 25, 320, 88
-1.00045, 97, 329, 224, 360
-1.00045, 13, 1, 44, 256
-1.00046, 241, 365, 368, 396
-1.00046, 193, 385, 320, 416
-1.00046, 37, 353, 68, 480
-1.00048, 113, 293, 240, 324
-1.00049, 225, 353, 352, 384
-1.00049, 97, 73, 224, 136
-1.00051, 113, 161, 240, 192
-1.00052, 161, 329, 288, 360
-1.00054, 129, 257, 375, 320
-1.00054, 241, 145, 368, 176
-1.00055, 129, 361, 375, 424
-1.00055, 49, 361, 112, 424
-1.00055, 25, 369, 88, 496
-1.00056, 241, 389, 368, 420
-1.00056, 201, 393, 264, 456
-1.00057, 69, 257, 100, 500
-1.00058, 1, 137, 375, 200
-1.00059, 193, 257, 224, 500
-1.00059, 113, 341, 240, 372
-1.00059, 157, 225, 188, 352
-1.00061, 289, 257, 320, 500
-1.00063, 17, 165, 144, 196
-1.00063, 1, 105, 128, 136
-1.00064, 133, 193, 164, 448
-1.00066, 257, 257, 288, 500
-1.00067, 145, 105, 272, 168
-1.00069, 97, 337, 352, 400
-1.00069, 1, 9, 128, 40
-1.0007, 241, 89, 368, 152
-1.00072, 1, 81, 256, 144
-1.00072, 161, 257, 192, 500
-1.00072, 241, 13, 368, 44
-1.00073, 321, 257, 352, 320
-1.00074, 17, 85, 144, 116
-1.00075, 241, 257, 272, 500
-1.00075, 241, 1, 368, 32
-1.00076, 1, 401, 375, 464
-1.00077, 49, 97, 176, 128
-1.00077, 249, 425, 312, 488
-1.00077, 17, 49, 144, 176
-1.00079, 113, 125, 240, 156
-1.00079, 129, 53, 256, 84
-1.00079, 181, 433, 212, 496
-1.0008, 81, 81, 208, 112
-1.00081, 1, 21, 128, 52
-1.00081, 1, 121, 128, 152
-1.00082, 181, 257, 212, 500
-1.00082, 81, 65, 208, 96
-1.00083, 97, 97, 224, 128
-1.00084, 65, 137, 192, 168
-1.00085, 1, 105, 256, 168
-1.00086, 49, 121, 176, 152
-1.00088, 65, 161, 192, 192
-1.00088, 1, 137, 128, 168
-1.00088, 145, 113, 272, 144
-1.00088, 241, 25, 368, 56
-1.00089, 193, 145, 320, 176
-1.00089, 1, 281, 375, 344
-1.00089, 149, 257, 180, 500
-1.00089, 97, 41, 352, 104
-1.00089, 97, 73, 352, 136
-1.00091, 49, 53, 176, 84
-1.00091, 193, 105, 320, 136
-1.00091, 193, 73, 320, 136
-1.00092, 161, 93, 288, 124
-1.00094, 113, 49, 240, 176
-1.00094, 281, 417, 344, 480
-1.00095, 97, 337, 352, 464
-1.00096, 1, 41, 256, 104
-1.00097, 121, 145, 184, 208
-1.00099, 277, 257, 308, 500
-1.001, 165, 353, 196, 480
-1.001, 177, 369, 240, 496
-1.001, 145, 25, 272, 88
-1.00101, 121, 257, 152, 500
-1.00103, 137, 257, 200, 320
-1.00103, 241, 41, 368, 104
-1.00103, 245, 241, 276, 304
-1.00104, 301, 137, 332, 200
-1.00105, 129, 225, 160, 288
-1.00106, 209, 257, 272, 500
-1.00108, 97, 97, 352, 160
-1.00109, 129, 17, 375, 80
-1.00109, 1, 65, 128, 128
-1.00112, 221, 393, 252, 456
-1.00114, 233, 417, 264, 480
-1.00116, 193, 97, 320, 160
-1.00119, 1, 1, 128, 64
-1.00121, 97, 225, 160, 352
-1.00121, 1, 1, 256, 64
-1.00123, 289, 281, 352, 344
-1.00124, 105, 257, 136, 500
-1.00126, 89, 433, 152, 496
-1.00126, 145, 369, 208, 496
-1.00127, 1, 377, 375, 440
-1.00129, 73, 289, 104, 352
-1.0013, 161, 33, 288, 160
-1.0013, 121, 225, 184, 352
-1.00131, 249, 313, 312, 376
-1.00135, 193, 257, 256, 320
-1.00141, 49, 49, 176, 112
-1.00147, 101, 145, 132, 208
-1.00148, 1, 25, 128, 88
-1.0015, 81, 1, 208, 128
-1.00151, 309, 257, 340, 384
-1.00153, 1, 1, 128, 128
-1.00153, 69, 321, 100, 384
-1.00154, 113, 433, 176, 496
-1.00156, 73, 409, 136, 472
-1.00157, 185, 393, 216, 456
-1.00158, 305, 305, 368, 368
-1.00161, 193, 1, 320, 64
-1.00162, 1, 329, 375, 392
-1.00169, 81, 233, 144, 296
-1.0017, 97, 25, 224, 88
-1.00171, 1, 425, 375, 488
-1.00175, 241, 113, 368, 176
-1.00175, 301, 313, 332, 376
-1.00176, 225, 265, 288, 328
-1.00178, 273, 145, 304, 208
-1.00178, 141, 225, 172, 352
-1.00181, 73, 297, 136, 360
-1.00182, 113, 321, 240, 448
-1.00187, 177, 369, 208, 496
-1.00193, 241, 65, 368, 192
-1.00193, 1, 73, 375, 136
-1.00195, 289, 137, 320, 200
-1.00197, 81, 369, 144, 432
-1.00199, 169, 409, 200, 472
-1.00202, 177, 281, 240, 344
-1.00202, 17, 409, 80, 472
-1.00203, 241, 65, 368, 128
-1.00209, 1, 353, 375, 416
-1.0021, 133, 153, 164, 216
-1.0021, 5, 281, 36, 344
-1.00211, 161, 393, 224, 456
-1.00213, 129, 1, 256, 64
-1.00217, 249, 425, 280, 488
-1.00219, 49, 1, 176, 64
-1.00221, 229, 369, 260, 496
-1.00223, 197, 425, 228, 488
-1.00224, 45, 81, 76, 208
-1.00228, 285, 305, 316, 368
-1.0023, 49, 25, 176, 88
-1.0023, 101, 417, 132, 480
-1.00233, 277, 257, 308, 384
-1.00236, 1, 49, 375, 112
-1.00237, 25, 81, 56, 208
-1.00239, 281, 353, 344, 416
-1.00244, 73, 265, 104, 328
-1.00245, 273, 425, 304, 488
-1.00246, 169, 337, 232, 400
-1.00252, 49, 369, 80, 496
-1.00252, 41, 137, 104, 200
-1.00253, 193, 353, 224, 480
-1.00257, 1, 97, 375, 160
-1.00263, 1, 1, 375, 64
-1.00269, 257, 369, 320, 496
-1.00272, 121, 353, 184, 480
-1.00273, 1, 377, 64, 440
-1.00274, 241, 257, 272, 384
-1.00279, 333, 321, 364, 448
-1.00279, 313, 1, 375, 128
-1.0028, 1, 25, 375, 88
-1.0028, 105, 385, 168, 448
-1.00284, 177, 257, 240, 500
-1.00285, 309, 305, 340, 432
-1.00285, 137, 369, 200, 432
-1.00285, 273, 321, 336, 448
-1.00287, 241, 377, 304, 440
-1.0029, 137, 305, 200, 368
-1.0029, 229, 273, 260, 400
-1.0029, 145, 369, 176, 496
-1.00293, 129, 225, 160, 352
-1.00296, 257, 273, 288, 400
-1.00299, 225, 313, 288, 376
-1.003, 233, 257, 296, 500
-1.00304, 73, 273, 136, 400
-1.00308, 121, 345, 184, 408
-1.0032, 105, 249, 168, 312
-1.0032, 153, 257, 216, 500
-1.00323, 345, 1, 375, 128
-1.00328, 241, 257, 304, 384
-1.00332, 49, 393, 112, 456
-1.00333, 101, 225, 132, 352
-1.0034, 177, 321, 208, 448
-1.00341, 197, 241, 228, 368
-1.00343, 113, 225, 144, 352
-1.00344, 5, 97, 36, 224
-1.00345, 65, 433, 128, 496
-1.00345, 153, 281, 216, 344
-1.00347, 209, 369, 240, 496
-1.00347, 133, 289, 164, 416
-1.00348, 113, 313, 176, 376
-1.00349, 265, 257, 328, 500
-1.00361, 49, 369, 112, 496
-1.00363, 33, 433, 96, 496
-1.00366, 209, 353, 272, 416
-1.00366, 165, 273, 196, 400
-1.00368, 201, 313, 264, 376
-1.0037, 209, 273, 272, 400
-1.00371, 73, 273, 104, 400
-1.00371, 333, 1, 364, 128
-1.00373, 97, 337, 160, 464
-1.00373, 113, 289, 176, 352
-1.00376, 233, 321, 296, 448
-1.0038, 229, 321, 260, 448
-1.00387, 145, 329, 208, 392
-1.00387, 257, 353, 320, 416
-1.00388, 249, 369, 280, 496
-1.00389, 281, 393, 344, 456
-1.00389, 137, 305, 200, 432
-1.00391, 177, 361, 240, 424
-1.00392, 9, 137, 72, 200
-1.00393, 1, 49, 64, 176
-1.00395, 313, 281, 375, 344
-1.004, 121, 337, 152, 464
-1.00403, 289, 1, 352, 128
-1.00405, 9, 105, 72, 168
-1.00411, 153, 321, 184, 448
-1.00416, 321, 1, 352, 128
-1.00416, 121, 257, 184, 500
-1.00419, 313, 353, 375, 416
-1.00421, 313, 425, 375, 488
-1.00422, 201, 289, 232, 416
-1.00424, 77, 369, 108, 496
-1.00426, 89, 225, 120, 352
-1.00427, 165, 81, 196, 208
-1.00428, 169, 81, 232, 208
-1.00428, 309, 1, 340, 128
-1.00428, 297, 321, 328, 448
-1.00433, 345, 289, 375, 416
-1.00435, 185, 289, 248, 416
-1.00435, 313, 1, 375, 64
-1.00436, 321, 289, 352, 416
-1.00438, 85, 305, 116, 432
-1.0044, 121, 289, 152, 416
-1.00444, 185, 273, 216, 400
-1.00445, 105, 289, 136, 416
-1.00456, 1, 433, 64, 496
-1.00458, 33, 97, 96, 160
-1.0046, 89, 321, 152, 384
-1.00463, 169, 305, 232, 368
-1.00469, 81, 345, 144, 408
-1.00481, 233, 337, 296, 400
-1.00486, 97, 257, 160, 500
-1.00493, 73, 73, 136, 136
-1.005, 289, 65, 352, 192
-1.00516, 289, 369, 352, 496
-1.00522, 129, 257, 375, 500
-1.00542, 161, 321, 224, 448
-1.00561, 33, 81, 96, 208
-1.0059, 73, 65, 136, 192
-1.00636, 265, 1, 328, 128
-1.00649, 161, 273, 224, 400
-1.00665, 129, 33, 192, 160
-1.00688, 97, 49, 160, 176
-1.00691, 1, 1, 64, 128
-1.00695, 201, 17, 264, 144
-1.00704, 313, 353, 375, 480
-1.00705, 97, 273, 160, 400
-1.00708, 73, 353, 136, 480
-1.00714, 225, 1, 288, 128
-1.00721, 177, 33, 240, 160
-1.00737, 153, 33, 216, 160
-1.00756, 145, 81, 208, 208
-1.00759, 25, 17, 88, 144
-1.00789, 209, 321, 272, 448
-1.00805, 97, 1, 160, 128
-1.00829, 209, 65, 272, 192
-1.00884, 121, 81, 184, 208
-1.00893, 49, 17, 112, 144
-1.00931, 233, 49, 296, 176
-1.00997, 73, 1, 136, 128
-1.01013, 265, 65, 328, 192
-1.01242, 313, 49, 375, 176
