1963
-0.329642, 1, 1, 500, 375
-0.333564, 225, 1, 480, 375
-0.357263, 1, 129, 500, 375
-0.429634, 1, 1, 500, 256
-0.452186, 129, 1, 384, 375
-0.555607, 193, 129, 448, 375
-0.560363, 257, 1, 500, 256
-0.576, 33, 1, 288, 375
-0.596361, 65, 129, 320, 375
-0.643215, 161, 1, 416, 256
-0.72517, 65, 33, 320, 288
-0.831977, 337, 1, 464, 375
-0.839114, 321, 1, 448, 256
-0.845703, 241, 1, 368, 375
-0.848283, 65, 1, 192, 375
-0.850915, 1, 241, 500, 368
-0.851774, 177, 129, 304, 375
-0.856234, 65, 129, 192, 375
-0.859776, 113, 1, 240, 256
-0.86335, 145, 1, 272, 375
-0.866203, 289, 129, 416, 375
-0.866221, 257, 33, 384, 288
-0.868514, 289, 1, 416, 375
-0.874377, 369, 1, 496, 256
-0.875422, 353, 129, 480, 375
-0.875787, 193, 1, 320, 375
-0.875983, 1, 193, 500, 320
-0.880054, 225, 129, 352, 375
-0.885756, 161, 177, 416, 304
-0.886869, 113, 129, 240, 375
-0.887078, 1, 65, 500, 192
-0.89398, 1, 145, 500, 272
-0.894062, 65, 193, 320, 320
-0.894721, 17, 129, 144, 375
-0.89529, 161, 1, 288, 256
-0.896591, 65, 1, 192, 256
-0.899042, 257, 225, 500, 352
-0.900007, 257, 177, 500, 304
-0.900575, 209, 33, 336, 288
-0.901335, 1, 17, 500, 144
-0.90134, 1, 241, 256, 368
-0.902612, 17, 1, 144, 375
-0.908512, 161, 225, 416, 352
-0.914312, 17, 241, 144, 368
-0.91507, 65, 145, 320, 272
-0.916584, 161, 129, 416, 256
-0.918734, 257, 177, 384, 304
-0.91962, 161, 161, 224, 288
-0.919812, 17, 33, 144, 288
-0.921544, 145, 161, 272, 288
-0.92213, 273, 225, 400, 352
-0.926026, 41, 225, 104, 352
-0.926078, 257, 1, 500, 128
-0.926221, 281, 225, 344, 352
-0.92701, 313, 177, 376, 304
-0.927166, 65, 97, 320, 224
-0.927317, 209, 177, 336, 304
-0.929016, 273, 177, 336, 304
-0.929413, 65, 241, 128, 368
-0.929443, 305, 225, 368, 352
-0.930402, 161, 17, 416, 144
-0.931246, 209, 129, 336, 256
-0.931497, 65, 177, 192, 304
-0.933131, 185, 177, 248, 304
-0.933995, 81, 241, 208, 368
-0.93492, 329, 1, 392, 128
-0.935991, 177, 225, 304, 352
-0.936348, 329, 225, 392, 352
-0.936939, 225, 81, 480, 208
-0.938194, 321, 225, 448, 352
-0.938579, 289, 1, 416, 128
-0.938583, 17, 241, 80, 368
-0.938985, 305, 177, 432, 304
-0.939294, 385, 1, 448, 128
-0.939824, 161, 225, 224, 352
-0.940017, 353, 225, 416, 352
-0.940505, 337, 1, 464, 128
-0.940935, 161, 185, 224, 248
-0.941546, 257, 97, 384, 224
-0.941659, 257, 129, 500, 256
-0.941853, 89, 241, 152, 368
-0.942546, 73, 161, 136, 288
-0.94262, 113, 1, 240, 128
-0.942628, 241, 193, 304, 320
-0.942724, 65, 113, 192, 240
-0.945121, 337, 177, 400, 304
-0.945297, 369, 145, 496, 272
-0.945497, 353, 1, 416, 128
-0.94598, 273, 129, 336, 256
-0.946095, 225, 241, 352, 368
-0.946519, 225, 145, 288, 272
-0.947464, 337, 49, 464, 176
-0.947564, 297, 129, 360, 256
-0.947722, 289, 49, 416, 176
-0.947854, 337, 241, 400, 304
-0.949028, 49, 249, 112, 312
-0.949218, 249, 241, 312, 368
-0.949241, 97, 113, 160, 240
-0.949313, 73, 313, 136, 375
-0.950258, 273, 177, 336, 240
-0.951042, 425, 177, 488, 304
-0.951186, 313, 241, 376, 304
-0.951337, 113, 65, 240, 192
-0.951462, 241, 17, 368, 144
-0.951781, 17, 129, 144, 256
-0.952011, 305, 113, 432, 240
-0.952132, 161, 153, 224, 216
-0.952345, 345, 17, 408, 80
-0.952538, 265, 217, 328, 280
-0.952931, 137, 161, 200, 288
-0.952997, 369, 49, 432, 176
-0.953054, 9, 313, 72, 375
-0.953608, 65, 49, 320, 176
-0.953673, 281, 249, 344, 312
-0.953734, 297, 177, 360, 240
-0.954256, 169, 233, 232, 296
-0.95438, 185, 201, 248, 264
-0.954452, 161, 113, 224, 240
-0.954959, 257, 81, 320, 208
-0.955017, 385, 225, 448, 352
-0.95522, 129, 209, 256, 336
-0.955406, 137, 241, 200, 368
-0.955687, 145, 113, 272, 240
-0.955863, 185, 161, 248, 224
-0.95603, 81, 289, 144, 352
-0.956526, 137, 81, 200, 208
-0.95659, 369, 193, 496, 320
-0.956783, 385, 177, 448, 304
-0.956937, 369, 241, 496, 368
-0.957063, 369, 97, 496, 224
-0.957533, 225, 161, 288, 224
-0.957655, 409, 97, 472, 224
-0.958084, 193, 1, 320, 128
-0.958593, 313, 209, 376, 272
-0.95864, 185, 129, 248, 256
-0.959039, 161, 265, 224, 328
-0.959174, 161, 1, 224, 128
-0.959265, 409, 49, 472, 176
-0.95933, 73, 113, 136, 240
-0.959542, 201, 225, 264, 352
-0.959924, 49, 313, 112, 375
-0.960085, 97, 313, 160, 375
-0.9601, 249, 185, 312, 248
-0.960167, 81, 233, 144, 296
-0.960607, 297, 153, 360, 216
-0.960693, 289, 273, 352, 336
-0.960777, 313, 25, 376, 88
-0.960795, 89, 137, 152, 200
-0.961031, 225, 249, 288, 312
-0.961259, 329, 49, 392, 176
-0.961644, 113, 65, 176, 192
-0.961779, 1, 297, 128, 360
-0.961867, 153, 305, 216, 368
-0.962036, 65, 1, 192, 128
-0.962043, 193, 65, 320, 192
-0.962171, 161, 209, 224, 272
-0.962237, 249, 257, 312, 320
-0.962421, 121, 313, 184, 375
-0.962521, 177, 161, 304, 224
-0.962626, 401, 65, 464, 128
-0.962761, 25, 281, 88, 344
-0.962829, 409, 225, 472, 352
-0.962916, 409, 1, 472, 128
-0.963194, 393, 41, 456, 104
-0.963573, 289, 1, 352, 128
-0.963577, 313, 1, 376, 64
-0.96368, 313, 273, 376, 336
-0.963718, 121, 89, 184, 152
-0.963725, 297, 81, 360, 208
-0.963874, 113, 1, 176, 128
-0.964208, 361, 257, 424, 320
-0.964396, 145, 185, 272, 248
-0.964399, 1, 193, 128, 320
-0.964638, 193, 225, 256, 288
-0.964884, 257, 177, 384, 240
-0.965011, 165, 185, 196, 248
-0.965025, 81, 241, 112, 368
-0.965108, 81, 169, 144, 232
-0.96512, 65, 209, 128, 272
-0.965231, 173, 233, 204, 296
-0.965387, 361, 41, 424, 104
-0.965424, 305, 193, 336, 320
-0.965642, 65, 65, 192, 192
-0.96572, 257, 129, 320, 192
-0.965918, 93, 241, 124, 368
-0.966427, 361, 233, 424, 296
-0.966515, 81, 257, 144, 320
-0.96655, 49, 113, 112, 240
-0.966652, 289, 201, 352, 264
-0.966725, 145, 233, 208, 296
-0.966734, 137, 1, 200, 128
-0.966822, 285, 225, 316, 352
-0.966825, 337, 57, 400, 120
-0.966891, 321, 169, 384, 232
-0.966997, 265, 281, 328, 344
-0.967103, 433, 241, 496, 368
-0.967189, 49, 177, 112, 304
-0.967205, 145, 225, 272, 288
-0.967329, 49, 305, 176, 368
-0.967333, 113, 161, 176, 224
-0.967411, 173, 161, 204, 288
-0.967441, 273, 153, 336, 216
-0.967665, 433, 129, 496, 256
-0.967669, 17, 265, 144, 328
-0.967771, 297, 241, 328, 368
-0.967791, 57, 289, 120, 352
-0.967791, 329, 113, 392, 240
-0.967936, 225, 193, 288, 256
-0.968145, 77, 297, 108, 360
-0.968407, 249, 145, 312, 272
-0.968498, 105, 289, 168, 352
-0.968505, 89, 289, 120, 352
-0.968682, 361, 161, 424, 288
-0.9687, 369, 1, 432, 64
-0.968719, 325, 161, 356, 288
-0.96888, 249, 17, 312, 144
-0.969013, 273, 241, 400, 304
-0.96905, 121, 217, 184, 280
-0.969314, 113, 161, 176, 288
-0.969317, 65, 1, 320, 128
-0.969413, 97, 217, 224, 280
-0.96944, 225, 241, 288, 368
-0.969635, 393, 241, 456, 304
-0.969666, 193, 145, 224, 272
-0.969921, 161, 25, 224, 88
-0.969946, 137, 153, 200, 216
-0.969995, 101, 297, 132, 360
-0.970014, 433, 201, 496, 264
-0.970014, 161, 65, 224, 192
-0.970064, 153, 57, 216, 120
-0.970084, 277, 177, 308, 304
-0.970103, 341, 225, 372, 352
-0.970119, 209, 97, 272, 224
-0.970128, 25, 249, 88, 312
-0.970132, 273, 313, 336, 375
-0.97019, 337, 201, 400, 264
-0.970226, 317, 225, 348, 352
-0.970231, 201, 249, 264, 312
-0.970392, 129, 41, 192, 104
-0.970457, 121, 65, 184, 128
-0.970508, 357, 209, 388, 336
-0.970509, 281, 185, 312, 248
-0.970545, 205, 161, 236, 288
-0.970556, 57, 161, 120, 224
-0.970602, 341, 177, 372, 304
-0.970685, 65, 225, 96, 352
-0.970717, 433, 89, 496, 152
-0.970859, 365, 241, 396, 304
-0.970892, 345, 1, 408, 256
-0.970967, 393, 17, 456, 80
-0.970977, 393, 1, 456, 256
-0.971014, 65, 241, 192, 304
-0.971174, 97, 161, 128, 224
-0.971257, 113, 305, 240, 368
-0.971439, 177, 249, 304, 312
-0.971493, 201, 161, 232, 224
-0.97153, 433, 1, 496, 128
-0.971807, 289, 225, 352, 288
-0.971931, 225, 225, 288, 288
-0.971941, 313, 305, 376, 368
-0.971945, 225, 201, 352, 264
-0.972033, 65, 169, 192, 232
-0.972065, 385, 129, 448, 256
-0.972243, 17, 81, 144, 208
-0.97225, 329, 225, 360, 352
-0.972312, 337, 281, 400, 344
-0.972405, 69, 241, 100, 304
-0.972407, 161, 65, 224, 320
-0.972414, 41, 241, 72, 368
-0.972449, 89, 129, 152, 375
-0.972479, 225, 153, 352, 216
-0.972486, 361, 1, 392, 128
-0.972506, 81, 113, 144, 176
-0.972533, 341, 241, 372, 304
-0.972602, 309, 249, 340, 312
-0.972645, 425, 57, 488, 120
-0.972667, 137, 17, 200, 80
-0.972675, 89, 161, 120, 288
-0.972788, 97, 241, 128, 304
-0.97294, 373, 1, 404, 128
-0.972948, 137, 193, 200, 256
-0.973024, 369, 225, 400, 352
-0.973045, 169, 1, 232, 64
-0.973271, 305, 153, 336, 216
-0.973333, 409, 105, 472, 168
-0.973376, 361, 73, 424, 136
-0.973397, 89, 65, 152, 192
-0.973429, 273, 25, 400, 88
-0.973454, 265, 185, 296, 248
-0.973455, 433, 81, 496, 208
-0.973479, 193, 193, 224, 320
-0.973533, 313, 33, 376, 288
-0.973653, 177, 313, 240, 375
-0.973687, 321, 241, 352, 304
-0.973765, 289, 257, 320, 320
-0.9738, 173, 209, 204, 336
-0.973893, 25, 177, 88, 304
-0.973922, 357, 17, 388, 80
-0.974083, 289, 17, 352, 80
-0.974153, 305, 145, 336, 272
-0.97417, 97, 193, 224, 256
-0.974206, 289, 177, 320, 304
-0.974382, 273, 241, 304, 368
-0.974465, 185, 193, 216, 256
-0.974497, 129, 161, 256, 224
-0.974499, 85, 217, 116, 280
-0.974519, 257, 273, 384, 336
-0.974541, 137, 113, 200, 176
-0.974577, 113, 137, 176, 200
-0.974658, 225, 313, 288, 375
-0.974829, 185, 81, 248, 208
-0.974864, 17, 241, 144, 304
-0.974953, 121, 1, 184, 256
-0.975015, 293, 177, 324, 240
-0.975022, 121, 97, 184, 352
-0.975034, 353, 113, 416, 240
-0.975072, 29, 241, 60, 368
-0.975099, 121, 1, 152, 128
-0.975144, 253, 161, 284, 224
-0.975153, 277, 257, 308, 320
-0.97518, 369, 1, 432, 256
-0.975232, 249, 153, 312, 216
-0.975237, 353, 249, 384, 312
-0.975273, 57, 137, 120, 200
-0.975366, 289, 49, 416, 112
-0.975379, 161, 81, 224, 144
-0.975522, 409, 1, 440, 128
-0.975589, 113, 241, 176, 368
-0.9757, 385, 265, 448, 328
-0.975789, 113, 313, 144, 375
-0.97579, 393, 129, 456, 375
-0.975798, 353, 9, 480, 72
-0.975811, 385, 89, 448, 152
-0.975828, 201, 129, 264, 375
-0.975848, 121, 249, 184, 312
-0.975895, 249, 129, 312, 375
-0.9759, 145, 313, 176, 375
-0.975979, 409, 281, 472, 344
-0.976002, 41, 225, 104, 288
-0.976009, 1, 177, 64, 304
-0.976055, 129, 289, 192, 352
-0.976099, 325, 209, 356, 272
-0.976111, 257, 89, 320, 152
-0.976193, 321, 241, 448, 304
-0.976258, 65, 265, 192, 328
-0.976302, 305, 177, 336, 240
-0.976307, 289, 209, 416, 272
-0.976353, 113, 1, 240, 64
-0.976455, 305, 177, 432, 240
-0.97646, 17, 313, 48, 375
-0.976477, 161, 161, 192, 288
-0.976681, 85, 265, 116, 328
-0.976701, 337, 1, 368, 128
-0.976928, 113, 33, 240, 96
-0.976939, 317, 177, 348, 240
-0.976951, 373, 1, 404, 64
-0.976987, 213, 201, 244, 264
-0.977013, 65, 129, 128, 375
-0.977109, 341, 209, 372, 272
-0.977116, 273, 129, 336, 375
-0.977233, 209, 137, 272, 200
-0.977351, 181, 153, 212, 216
-0.977408, 53, 241, 84, 368
-0.977424, 237, 241, 268, 304
-0.977425, 289, 49, 352, 112
-0.977467, 345, 1, 376, 64
-0.977517, 321, 265, 448, 328
-0.977579, 209, 225, 240, 288
-0.977595, 1, 113, 64, 240
-0.977603, 265, 193, 296, 320
-0.977604, 113, 9, 176, 72
-0.977702, 29, 265, 60, 328
-0.977769, 193, 217, 224, 280
-0.977778, 85, 161, 116, 224
-0.977847, 185, 1, 248, 128
-0.977894, 341, 169, 372, 232
-0.977914, 249, 57, 312, 120
-0.97794, 141, 1, 172, 128
-0.978038, 1, 113, 64, 176
-0.978101, 369, 209, 432, 272
-0.978152, 417, 65, 480, 320
-0.978228, 313, 129, 376, 375
-0.97831, 161, 225, 192, 352
-0.978327, 157, 305, 188, 368
-0.978344, 305, 201, 336, 264
-0.978358, 201, 313, 264, 375
-0.978358, 361, 161, 392, 288
-0.978368, 381, 209, 412, 336
-0.978405, 225, 129, 288, 375
-0.978464, 225, 249, 352, 312
-0.978486, 425, 225, 488, 288
-0.978596, 369, 49, 496, 112
-0.978607, 33, 129, 96, 375
-0.978627, 97, 137, 224, 200
-0.978655, 345, 273, 376, 336
-0.978656, 313, 49, 376, 112
-0.978728, 321, 81, 448, 144
-0.978748, 101, 145, 132, 272
-0.978807, 297, 97, 360, 160
-0.97881, 25, 121, 88, 184
-0.978824, 209, 225, 336, 288
-0.978837, 169, 305, 200, 368
-0.97886, 409, 137, 472, 200
-0.978892, 273, 1, 400, 64
-0.978906, 249, 17, 312, 80
-0.97895, 113, 281, 240, 344
-0.978975, 217, 161, 248, 288
-0.979024, 337, 313, 400, 375
-0.979135, 369, 129, 432, 375
-0.979177, 113, 241, 144, 368
-0.979221, 297, 73, 360, 136
-0.979307, 161, 225, 192, 288
-0.979389, 397, 1, 428, 128
-0.979407, 113, 257, 240, 320
-0.97943, 221, 249, 252, 312
-0.979457, 369, 161, 432, 224
-0.979634, 273, 209, 304, 272
-0.979672, 213, 177, 244, 240
-0.979706, 353, 1, 416, 375
-0.979766, 273, 145, 400, 208
-0.979785, 361, 281, 424, 344
-0.979854, 433, 177, 496, 240
-0.979863, 77, 161, 108, 288
-0.979867, 341, 25, 372, 88
-0.979871, 17, 161, 144, 224
-0.979874, 105, 33, 168, 96
-0.979901, 345, 169, 408, 232
-0.97991, 385, 49, 416, 112
-0.980028, 261, 233, 292, 296
-0.980184, 193, 241, 224, 304
-0.980257, 241, 81, 368, 144
-0.9803, 45, 249, 76, 312
-0.980335, 113, 65, 240, 128
-0.980363, 169, 1, 232, 375
-0.980378, 161, 161, 192, 224
-0.980383, 33, 129, 160, 192
-0.980422, 369, 225, 496, 288
-0.980432, 317, 281, 348, 344
-0.980473, 197, 193, 228, 256
-0.980548, 1, 177, 64, 240
-0.980571, 377, 241, 408, 304
-0.98062, 337, 201, 464, 264
-0.980677, 133, 305, 164, 368
-0.980714, 353, 161, 480, 224
-0.980727, 373, 41, 404, 104
-0.980736, 33, 145, 96, 208
-0.980846, 393, 1, 456, 375
-0.980911, 301, 273, 332, 336
-0.980924, 193, 1, 224, 128
-0.980932, 101, 193, 132, 320
-0.980958, 397, 225, 428, 352
-0.981024, 385, 17, 416, 144
-0.981047, 253, 145, 284, 272
-0.981116, 281, 281, 312, 344
-0.981177, 257, 33, 320, 288
-0.981263, 145, 1, 208, 375
-0.981287, 1, 265, 64, 328
-0.981346, 89, 1, 152, 128
-0.981373, 265, 257, 296, 320
-0.981375, 177, 273, 304, 336
-0.981381, 349, 1, 380, 128
-0.981399, 161, 313, 288, 375
-0.981533, 121, 33, 152, 96
-0.981546, 1, 289, 64, 352
-0.981589, 89, 209, 152, 272
-0.981603, 109, 97, 140, 224
-0.981621, 345, 129, 408, 375
-0.981739, 229, 217, 260, 280
-0.981791, 89, 113, 120, 240
-0.981813, 97, 185, 128, 248
-0.981863, 225, 313, 352, 375
-0.981894, 149, 177, 180, 304
-0.981898, 425, 193, 456, 320
-0.981988, 201, 289, 264, 352
-0.981996, 305, 1, 368, 375
-0.981997, 329, 1, 392, 375
-0.982064, 369, 265, 496, 328
-0.982066, 9, 129, 72, 375
-0.982086, 161, 41, 192, 104
-0.982105, 177, 137, 304, 200
-0.982119, 117, 137, 148, 200
-0.982127, 125, 1, 156, 64
-0.982171, 57, 185, 120, 248
-0.982172, 417, 81, 448, 208
-0.9822, 297, 129, 360, 192
-0.982204, 329, 177, 360, 240
-0.982254, 189, 241, 220, 368
-0.982329, 193, 9, 320, 72
-0.982332, 429, 49, 460, 176
-0.982387, 157, 1, 188, 128
-0.982389, 337, 305, 368, 368
-0.982394, 97, 1, 160, 256
-0.982426, 329, 273, 360, 336
-0.982517, 141, 17, 172, 80
-0.982582, 213, 209, 244, 336
-0.982588, 105, 113, 168, 176
-0.982588, 433, 289, 496, 352
-0.982598, 373, 161, 404, 288
-0.982679, 357, 281, 388, 344
-0.982695, 461, 177, 492, 304
-0.982711, 169, 1, 200, 64
-0.982718, 273, 297, 400, 360
-0.982758, 369, 97, 496, 160
-0.982761, 97, 137, 128, 200
-0.982844, 469, 201, 500, 264
-0.982861, 129, 73, 160, 136
-0.982869, 121, 1, 184, 375
-0.982943, 121, 49, 152, 176
-0.982972, 161, 81, 192, 208
-0.982974, 257, 105, 384, 168
-0.983009, 409, 193, 472, 256
-0.983092, 161, 41, 288, 104
-0.983132, 309, 225, 340, 288
-0.983134, 429, 65, 460, 128
-0.983143, 249, 249, 280, 312
-0.983144, 293, 217, 324, 280
-0.983204, 357, 217, 388, 280
-0.983224, 401, 217, 464, 280
-0.983254, 169, 257, 200, 320
-0.983266, 81, 241, 112, 304
-0.983295, 177, 97, 208, 224
-0.983337, 321, 313, 448, 375
-0.983517, 277, 233, 308, 296
-0.98361, 161, 81, 288, 144
-0.983617, 149, 73, 180, 136
-0.983638, 377, 265, 408, 328
-0.983646, 181, 1, 212, 64
-0.983744, 373, 49, 404, 176
-0.983781, 21, 289, 52, 352
-0.983782, 113, 105, 240, 168
-0.983812, 73, 217, 104, 280
-0.98396, 113, 289, 144, 352
-0.983995, 17, 33, 144, 160
-0.984018, 325, 1, 356, 128
-0.984046, 57, 233, 88, 296
-0.984086, 65, 313, 96, 375
-0.984158, 149, 209, 180, 272
-0.984186, 229, 145, 260, 272
-0.984187, 89, 313, 120, 375
-0.984258, 353, 289, 480, 352
-0.984283, 421, 1, 452, 128
-0.984342, 257, 1, 320, 375
-0.984356, 9, 113, 40, 176
-0.9844, 73, 265, 104, 328
-0.984409, 161, 73, 192, 136
-0.984417, 177, 65, 208, 128
-0.984465, 357, 177, 388, 240
-0.984533, 241, 161, 272, 224
-0.98468, 265, 161, 296, 224
-0.98468, 25, 129, 88, 256
-0.984747, 81, 129, 112, 192
-0.984787, 265, 145, 296, 272
-0.984801, 205, 113, 236, 240
-0.984873, 17, 113, 48, 240
-0.984941, 193, 305, 224, 368
-0.984943, 361, 49, 392, 176
-0.984995, 409, 65, 440, 128
-0.985022, 5, 313, 36, 375
-0.985031, 209, 257, 240, 320
-0.985033, 441, 97, 472, 224
-0.985065, 397, 41, 428, 104
-0.985095, 469, 225, 500, 352
-0.985105, 209, 57, 336, 120
-0.985113, 181, 33, 212, 96
-0.98512, 309, 305, 340, 368
-0.985161, 173, 1, 204, 128
-0.985209, 165, 281, 196, 344
-0.985287, 37, 177, 68, 304
-0.985289, 437, 193, 468, 320
-0.985308, 281, 33, 344, 288
-0.985458, 49, 209, 176, 272
-0.985489, 233, 97, 296, 224
-0.985507, 385, 161, 416, 288
-0.985624, 217, 33, 280, 288
-0.985655, 385, 65, 416, 192
-0.985671, 325, 313, 356, 375
-0.985795, 149, 81, 180, 208
-0.985845, 193, 9, 224, 72
-0.985856, 397, 81, 428, 208
-0.985884, 17, 185, 144, 248
-0.985926, 397, 233, 428, 296
-0.985946, 109, 169, 140, 232
-0.985948, 225, 161, 256, 224
-0.985979, 225, 129, 352, 192
-0.986015, 389, 257, 420, 320
-0.986037, 137, 65, 168, 192
-0.98605, 357, 57, 388, 120
-0.986097, 97, 217, 128, 280
-0.986144, 109, 49, 140, 176
-0.986171, 321, 113, 352, 240
-0.986184, 193, 81, 224, 208
-0.986204, 413, 209, 444, 336
-0.986211, 65, 25, 192, 88
-0.986216, 417, 97, 448, 160
-0.986228, 189, 265, 220, 328
-0.986297, 129, 137, 160, 200
-0.986333, 173, 209, 204, 272
-0.986338, 249, 225, 280, 288
-0.986373, 421, 217, 452, 280
-0.986394, 141, 41, 172, 104
-0.986396, 309, 97, 340, 224
-0.986417, 261, 241, 292, 368
-0.986429, 433, 97, 464, 160
-0.98648, 181, 313, 212, 375
-0.986563, 77, 113, 108, 240
-0.986574, 33, 65, 96, 192
-0.986668, 305, 121, 432, 184
-0.986689, 449, 177, 480, 304
-0.986708, 417, 1, 480, 375
-0.986757, 441, 49, 472, 176
-0.986849, 401, 177, 432, 304
-0.986885, 341, 129, 372, 256
-0.986965, 109, 1, 140, 128
-0.987036, 217, 1, 280, 128
-0.987144, 177, 105, 304, 168
-0.987172, 453, 97, 484, 224
-0.987227, 293, 129, 324, 256
-0.98734, 49, 1, 176, 64
-0.98736, 433, 241, 464, 368
-0.987422, 433, 1, 464, 128
-0.987456, 313, 245, 376, 276
-0.987482, 293, 1, 324, 128
-0.987547, 281, 1, 344, 375
-0.98758, 53, 193, 84, 320
-0.987706, 153, 193, 216, 224
-0.987747, 225, 225, 256, 352
-0.987752, 369, 313, 496, 375
-0.987959, 125, 129, 156, 256
-0.988083, 65, 249, 320, 312
-0.988109, 209, 49, 272, 176
-0.988122, 125, 241, 156, 368
-0.98814, 457, 225, 488, 352
-0.988189, 193, 33, 256, 288
-0.988268, 413, 161, 444, 288
-0.988369, 65, 49, 192, 112
-0.988416, 1, 217, 128, 280
-0.988417, 161, 249, 224, 280
-0.988426, 273, 257, 336, 288
-0.988431, 265, 189, 328, 220
-0.988456, 49, 249, 112, 280
-0.988599, 129, 177, 384, 240
-0.988616, 201, 241, 232, 368
-0.988736, 73, 301, 136, 332
-0.988746, 161, 209, 224, 240
-0.988747, 161, 237, 224, 268
-0.988749, 241, 145, 272, 272
-0.988764, 289, 177, 352, 208
-0.988779, 345, 253, 408, 284
-0.98883, 141, 129, 172, 256
-0.988875, 217, 253, 280, 284
-0.988922, 161, 249, 416, 312
-0.988968, 73, 237, 136, 268
-0.989003, 113, 161, 144, 288
-0.989078, 161, 225, 224, 256
-0.989081, 193, 1, 256, 375
-0.989142, 57, 321, 120, 352
-0.989166, 65, 217, 320, 280
-0.9892, 9, 329, 72, 360
-0.98922, 193, 201, 448, 264
-0.989249, 289, 193, 352, 224
-0.989266, 257, 241, 500, 304
-0.989267, 349, 49, 380, 176
-0.989275, 17, 105, 144, 168
-0.989296, 241, 261, 304, 292
-0.989302, 65, 177, 96, 304
-0.989305, 1, 257, 500, 320
-0.989402, 97, 1, 160, 375
-0.989406, 313, 193, 376, 224
-0.989422, 369, 73, 496, 136
-0.989509, 65, 305, 320, 368
-0.989518, 169, 265, 232, 296
-0.989605, 337, 241, 400, 272
-0.98962, 177, 49, 208, 176
-0.989652, 225, 197, 288, 228
-0.989662, 313, 209, 376, 240
-0.989675, 153, 337, 216, 368
-0.989678, 41, 261, 104, 292
-0.989686, 17, 241, 48, 368
-0.989688, 185, 213, 248, 244
-0.989704, 97, 317, 160, 348
-0.989704, 253, 193, 284, 320
-0.989747, 81, 253, 144, 284
-0.989748, 353, 137, 480, 200
-0.989758, 89, 165, 152, 196
-0.989781, 81, 289, 144, 320
-0.989787, 281, 129, 312, 256
-0.989801, 345, 21, 408, 52
-0.98984, 193, 253, 256, 284
-0.989909, 241, 273, 304, 304
-0.989933, 185, 193, 248, 224
-0.989937, 65, 105, 192, 168
-0.989954, 153, 181, 216, 212
-0.989958, 429, 113, 460, 240
-0.98998, 345, 33, 408, 64
-0.989986, 113, 329, 176, 360
-0.990017, 353, 49, 416, 80
-0.990049, 161, 157, 224, 188
-0.99005, 185, 225, 248, 256
-0.990077, 149, 225, 180, 352
-0.990116, 225, 33, 352, 96
-0.990148, 65, 73, 192, 136
-0.990162, 177, 173, 240, 204
-0.99017, 185, 241, 248, 272
-0.990172, 257, 161, 320, 192
-0.990213, 281, 209, 344, 240
-0.990216, 273, 273, 336, 304
-0.990254, 313, 257, 376, 288
-0.99026, 65, 165, 128, 196
-0.990291, 97, 153, 352, 216
-0.990294, 313, 29, 376, 60
-0.990297, 9, 317, 72, 348
-0.990303, 329, 5, 392, 36
-0.990306, 409, 85, 472, 116
-0.990312, 305, 41, 368, 72
-0.990315, 121, 97, 184, 128
-0.990317, 385, 69, 448, 100
-0.990324, 25, 281, 88, 312
-0.99033, 369, 249, 432, 280
-0.990333, 297, 165, 360, 196
-0.990345, 313, 181, 376, 212
-0.990348, 153, 1, 216, 32
-0.990354, 121, 345, 184, 375
-0.990368, 113, 301, 176, 332
-0.990375, 121, 77, 184, 108
-0.990376, 1, 185, 256, 248
-0.99039, 137, 313, 200, 344
-0.99039, 353, 265, 416, 296
-0.990408, 65, 333, 128, 364
-0.990418, 137, 233, 200, 264
-0.990427, 33, 337, 96, 368
-0.990446, 273, 285, 336, 316
-0.990446, 89, 337, 152, 368
-0.990446, 313, 17, 376, 48
-0.99046, 289, 245, 352, 276
-0.990461, 329, 61, 392, 92
-0.990472, 1, 281, 256, 344
-0.990488, 245, 97, 276, 224
-0.990489, 161, 89, 224, 120
-0.990504, 145, 57, 208, 88
-0.990532, 241, 245, 304, 276
-0.990567, 313, 233, 376, 264
-0.99057, 9, 301, 72, 332
-0.990586, 321, 277, 384, 308
-0.990589, 121, 217, 184, 248
-0.990597, 193, 265, 256, 296
-0.990627, 241, 185, 304, 216
-0.990635, 217, 265, 280, 296
-0.990643, 345, 201, 408, 232
-0.990645, 161, 325, 224, 356
-0.990655, 377, 265, 440, 296
-0.990667, 9, 345, 72, 375
-0.990685, 145, 77, 208, 108
-0.99069, 393, 37, 456, 68
-0.990697, 297, 277, 360, 308
-0.99071, 49, 273, 112, 304
-0.99073, 33, 1, 96, 375
-0.990777, 265, 177, 328, 208
-0.990782, 73, 1, 136, 375
-0.990788, 73, 33, 136, 288
-0.990801, 225, 1, 288, 375
-0.99081, 177, 341, 240, 372
-0.990819, 281, 221, 344, 252
-0.990841, 369, 5, 432, 36
-0.990843, 121, 109, 184, 140
-0.990845, 377, 237, 440, 268
-0.990854, 289, 329, 352, 360
-0.990884, 185, 325, 248, 356
-0.990892, 145, 21, 208, 52
-0.990896, 337, 229, 400, 260
-0.990915, 249, 201, 312, 232
-0.990974, 297, 149, 360, 180
-0.990986, 361, 61, 424, 92
-0.990992, 41, 293, 104, 324
-0.990999, 73, 181, 136, 212
-0.991002, 257, 149, 320, 180
-0.991023, 417, 225, 480, 256
-0.991026, 161, 313, 224, 344
-0.991028, 289, 9, 352, 40
-0.991037, 425, 97, 488, 128
-0.991038, 329, 49, 392, 80
-0.991038, 89, 265, 152, 296
-0.991046, 393, 253, 456, 284
-0.991056, 161, 105, 224, 136
-0.991057, 129, 257, 192, 288
-0.99108, 105, 153, 168, 184
-0.991083, 289, 25, 352, 56
-0.991088, 281, 317, 344, 348
-0.991088, 89, 277, 152, 308
-0.991104, 161, 277, 224, 308
-0.991119, 265, 241, 328, 272
-0.991122, 49, 237, 112, 268
-0.991143, 217, 185, 280, 216
-0.991158, 401, 53, 464, 84
-0.991163, 233, 169, 296, 200
-0.991166, 73, 133, 136, 164
-0.991171, 121, 173, 184, 204
-0.991176, 225, 209, 288, 240
-0.9912, 161, 273, 416, 336
-0.9912, 169, 37, 232, 68
-0.991206, 369, 17, 432, 48
-0.991291, 401, 129, 432, 256
-0.991426, 285, 81, 316, 208
-0.991482, 257, 265, 500, 328
-0.991572, 257, 169, 500, 232
-0.99162, 161, 313, 416, 375
-0.991636, 1, 313, 500, 375
-0.991642, 321, 65, 352, 192
-0.99173, 445, 241, 476, 368
-0.991793, 89, 297, 120, 328
-0.991807, 25, 193, 56, 320
-0.991928, 169, 233, 200, 264
-0.99193, 357, 113, 388, 240
-0.991957, 5, 97, 36, 224
-0.991992, 349, 241, 380, 272
-0.991996, 1, 317, 128, 348
-0.99203, 165, 181, 196, 212
-0.992049, 285, 273, 316, 304
-0.992055, 225, 1, 480, 64
-0.992068, 353, 25, 384, 56
-0.992091, 321, 241, 352, 272
-0.992115, 97, 165, 128, 196
-0.992125, 145, 201, 272, 232
-0.992157, 277, 261, 308, 292
-0.992174, 85, 241, 116, 272
-0.992204, 337, 245, 368, 276
-0.992238, 361, 249, 392, 280
-0.992242, 1, 169, 500, 232
-0.992242, 65, 245, 96, 276
-0.992249, 305, 173, 336, 204
-0.992252, 273, 189, 304, 220
-0.992253, 161, 253, 288, 284
-0.992271, 297, 257, 328, 288
-0.992308, 181, 185, 212, 216
-0.992347, 77, 317, 108, 348
-0.992366, 253, 253, 284, 284
-0.992378, 33, 337, 160, 368
-0.99239, 169, 245, 200, 276
-0.992397, 289, 249, 416, 280
-0.992412, 265, 261, 296, 292
-0.99242, 285, 189, 316, 220
-0.992422, 229, 253, 260, 284
-0.992437, 241, 253, 272, 284
-0.992439, 1, 201, 500, 264
-0.992446, 89, 253, 120, 284
-0.992459, 1, 269, 128, 300
-0.992461, 161, 193, 192, 224
-0.992466, 17, 337, 48, 368
-0.99247, 377, 249, 408, 280
-0.992495, 185, 221, 216, 252
-0.992533, 265, 97, 296, 224
-0.992533, 269, 205, 300, 236
-0.992538, 165, 209, 196, 240
-0.992551, 309, 245, 340, 276
-0.992552, 217, 113, 248, 240
-0.992564, 185, 153, 216, 184
-0.992574, 65, 113, 320, 176
-0.992598, 329, 209, 360, 240
-0.992603, 317, 193, 348, 224
-0.99261, 1, 281, 128, 312
-0.99261, 105, 317, 136, 348
-0.992621, 305, 33, 336, 160
-0.992627, 121, 41, 152, 72
-0.992629, 213, 205, 244, 236
-0.99263, 377, 265, 408, 296
-0.992635, 225, 81, 480, 144
-0.992638, 241, 209, 272, 336
-0.992646, 197, 221, 228, 252
-0.992649, 357, 37, 388, 68
-0.992655, 173, 261, 204, 292
-0.992656, 89, 285, 120, 316
-0.992661, 177, 333, 208, 364
-0.992661, 157, 337, 188, 368
-0.99267, 185, 197, 216, 228
-0.992672, 65, 241, 192, 272
-0.992686, 205, 253, 236, 284
-0.992687, 225, 137, 480, 200
-0.992688, 57, 333, 88, 364
-0.992689, 125, 325, 156, 356
-0.99269, 341, 9, 372, 40
-0.992696, 269, 273, 300, 304
-0.992699, 373, 9, 404, 40
-0.992701, 317, 205, 348, 236
-0.992713, 133, 13, 164, 44
-0.992714, 189, 169, 220, 200
-0.992715, 297, 285, 328, 316
-0.992721, 1, 281, 500, 344
-0.992725, 1, 297, 128, 328
-0.992729, 349, 257, 380, 288
-0.992731, 77, 253, 108, 284
-0.992732, 185, 237, 216, 268
-0.992733, 101, 241, 132, 272
-0.992736, 281, 285, 312, 316
-0.992736, 173, 221, 204, 252
-0.992742, 77, 301, 108, 332
-0.992749, 309, 149, 340, 180
-0.99275, 197, 241, 228, 272
-0.992754, 393, 253, 424, 284
-0.992757, 161, 225, 416, 288
-0.992758, 45, 253, 76, 284
-0.992759, 305, 205, 336, 236
-0.992764, 341, 229, 372, 260
-0.992764, 33, 345, 64, 375
-0.992765, 45, 341, 76, 372
-0.992768, 181, 97, 212, 128
-0.992772, 145, 333, 176, 364
-0.992772, 157, 313, 188, 344
-0.992776, 97, 265, 128, 296
-0.992782, 17, 313, 48, 344
-0.992785, 285, 201, 316, 232
-0.992787, 121, 13, 152, 44
-0.992793, 121, 25, 152, 56
-0.9928, 185, 209, 216, 240
-0.992805, 357, 1, 388, 32
-0.992809, 193, 97, 224, 128
-0.992814, 77, 281, 108, 312
-0.992815, 81, 253, 208, 284
-0.992822, 341, 209, 372, 240
-0.992823, 397, 69, 428, 100
-0.992824, 25, 293, 56, 324
-0.992826, 101, 281, 132, 312
-0.992827, 217, 257, 248, 288
-0.992828, 29, 281, 60, 312
-0.992828, 197, 325, 228, 356
-0.992828, 297, 273, 328, 304
-0.992833, 369, 237, 400, 268
-0.992837, 289, 177, 320, 208
-0.992838, 181, 249, 212, 280
-0.992841, 149, 89, 180, 120
-0.992841, 277, 249, 308, 280
-0.992844, 97, 329, 128, 360
-0.992859, 373, 21, 404, 52
-0.992864, 365, 261, 396, 292
-0.992866, 121, 1, 152, 32
-0.99287, 229, 193, 260, 224
-0.992871, 201, 337, 232, 368
-0.992874, 201, 181, 232, 212
-0.992874, 329, 193, 360, 224
-0.992875, 385, 45, 416, 76
-0.992879, 257, 193, 288, 224
-0.99288, 197, 201, 228, 232
-0.992887, 157, 229, 188, 260
-0.992888, 325, 325, 356, 356
-0.992891, 357, 285, 388, 316
-0.992893, 173, 1, 204, 32
-0.992898, 17, 325, 48, 356
-0.9929, 157, 57, 188, 88
-0.992902, 189, 45, 220, 76
-0.992903, 69, 329, 100, 360
-0.992905, 177, 53, 208, 84
-0.992908, 177, 33, 208, 64
-0.99291, 341, 45, 372, 76
-0.992911, 85, 229, 116, 260
-0.992911, 381, 237, 412, 268
-0.992912, 101, 305, 132, 336
-0.992913, 73, 233, 104, 264
-0.992914, 385, 57, 416, 88
-0.992914, 33, 269, 64, 300
-0.992914, 337, 257, 368, 288
-0.992915, 149, 77, 180, 108
-0.992915, 361, 13, 392, 44
-0.992916, 313, 257, 344, 288
-0.992924, 169, 17, 200, 48
-0.992925, 177, 273, 208, 304
-0.992985, 65, 65, 128, 192
-0.992993, 49, 321, 176, 352
-0.993002, 129, 189, 256, 220
-0.993033, 225, 205, 352, 236
-0.993042, 225, 193, 352, 224
-0.993101, 97, 161, 112, 224
-0.993124, 97, 229, 224, 260
-0.99325, 83, 297, 98, 360
-0.993252, 205, 1, 236, 128
-0.993279, 103, 161, 118, 224
-0.993283, 161, 25, 416, 88
-0.993333, 29, 113, 60, 240
-0.993341, 465, 65, 496, 192
-0.993375, 1, 161, 256, 224
-0.993385, 283, 257, 298, 320
-0.993411, 257, 33, 500, 96
-0.993428, 65, 301, 192, 332
-0.993434, 1, 1, 64, 375
-0.99347, 33, 253, 160, 284
-0.993536, 167, 185, 182, 248
-0.993546, 177, 173, 304, 204
-0.993555, 291, 257, 306, 320
-0.993566, 177, 265, 304, 296
-0.993566, 355, 241, 370, 304
-0.993581, 277, 177, 292, 240
-0.993598, 91, 273, 106, 336
-0.993642, 105, 297, 120, 360
-0.993649, 81, 177, 208, 208
-0.993683, 303, 177, 318, 240
-0.993722, 257, 297, 500, 360
-0.993773, 97, 313, 224, 344
-0.993783, 175, 225, 190, 288
-0.993783, 321, 241, 336, 304
-0.99379, 273, 177, 400, 208
-0.993845, 377, 241, 392, 304
-0.993896, 129, 73, 384, 136
-0.993897, 241, 253, 368, 284
-0.993899, 145, 233, 272, 264
-0.993913, 99, 289, 114, 352
-0.993963, 97, 217, 224, 248
-0.99399, 113, 1, 240, 32
-0.993991, 371, 241, 386, 304
-0.993993, 289, 265, 416, 296
-0.993997, 185, 193, 200, 256
-0.994067, 21, 313, 36, 375
-0.994079, 241, 157, 368, 188
-0.99409, 363, 25, 378, 88
-0.994092, 283, 185, 298, 248
-0.994104, 301, 249, 316, 312
-0.994118, 89, 297, 104, 360
-0.994182, 333, 241, 348, 304
-0.994236, 311, 249, 326, 312
-0.994276, 113, 325, 240, 356
-0.994283, 189, 233, 204, 296
-0.994332, 1, 81, 500, 144
-0.994386, 297, 185, 312, 248
-0.994395, 225, 57, 480, 120
-0.994418, 273, 37, 400, 68
-0.994438, 117, 313, 132, 375
-0.99444, 111, 305, 126, 368
-0.994454, 193, 185, 208, 248
-0.994536, 319, 177, 334, 240
-0.994565, 113, 37, 240, 68
-0.994569, 341, 241, 356, 304
-0.994576, 229, 225, 244, 288
-0.994587, 145, 221, 272, 252
-0.994596, 97, 257, 112, 320
-0.994611, 273, 189, 400, 220
-0.994614, 87, 233, 102, 296
-0.994614, 347, 241, 362, 304
-0.994619, 327, 241, 342, 304
-0.994621, 145, 341, 272, 372
-0.994636, 1, 145, 500, 208
-0.994651, 177, 189, 304, 220
-0.994652, 207, 161, 222, 224
-0.994699, 1, 105, 500, 168
-0.994702, 1, 233, 500, 296
-0.99474, 273, 277, 400, 308
-0.994742, 337, 29, 464, 60
-0.994743, 171, 273, 186, 336
-0.99476, 113, 157, 240, 188
-0.994774, 177, 169, 192, 232
-0.994775, 325, 185, 340, 248
-0.99478, 1, 1, 128, 64
-0.994791, 65, 285, 192, 316
-0.994793, 45, 257, 60, 320
-0.994796, 353, 269, 480, 300
-0.994796, 305, 153, 320, 216
-0.994797, 81, 265, 208, 296
-0.994805, 273, 201, 400, 232
-0.994806, 199, 193, 214, 256
-0.994824, 163, 305, 178, 368
-0.99483, 341, 209, 356, 272
-0.994834, 97, 49, 352, 112
-0.994841, 1, 17, 500, 80
-0.994851, 123, 313, 138, 375
-0.994862, 29, 273, 44, 336
-0.994865, 213, 161, 228, 224
-0.994877, 129, 1, 384, 64
-0.994891, 225, 113, 480, 176
-0.994905, 101, 233, 116, 296
-0.994905, 49, 33, 112, 288
-0.994911, 353, 233, 480, 264
-0.994911, 365, 249, 380, 312
-0.994912, 129, 173, 256, 204
-0.99492, 77, 233, 92, 296
-0.994927, 95, 233, 110, 296
-0.994945, 35, 265, 50, 328
-0.99495, 1, 137, 256, 200
-0.994969, 357, 17, 372, 80
-0.99497, 183, 225, 198, 288
-0.994988, 259, 153, 274, 216
-0.995011, 329, 209, 344, 272
-0.995013, 287, 281, 302, 344
-0.995015, 81, 337, 208, 368
-0.995064, 265, 161, 280, 224
-0.995065, 109, 161, 124, 224
-0.995067, 273, 25, 400, 56
-0.995067, 97, 201, 224, 232
-0.995071, 319, 209, 334, 272
-0.995077, 209, 237, 336, 268
-0.995088, 305, 237, 432, 268
-0.995116, 185, 153, 200, 216
-0.99513, 55, 249, 70, 312
-0.99514, 25, 33, 88, 288
-0.995143, 81, 189, 208, 220
-0.995146, 1, 49, 500, 112
-0.995146, 383, 233, 398, 296
-0.995147, 161, 157, 288, 188
-0.995168, 313, 145, 328, 208
-0.995174, 165, 225, 180, 288
-0.995183, 221, 193, 236, 256
-0.995185, 89, 209, 104, 272
-0.995186, 97, 185, 112, 248
-0.995198, 123, 17, 138, 80
-0.995199, 201, 153, 216, 216
-0.995217, 225, 217, 352, 248
-0.995259, 369, 77, 496, 108
-0.995269, 17, 241, 144, 272
-0.995287, 113, 25, 240, 56
-0.995287, 321, 89, 448, 120
-0.995288, 333, 177, 348, 240
-0.995294, 347, 209, 362, 272
-0.995301, 289, 165, 416, 196
-0.995302, 291, 185, 306, 248
-0.995303, 225, 177, 352, 208
-0.995308, 277, 257, 292, 320
-0.995325, 311, 169, 326, 232
-0.995328, 91, 161, 106, 224
-0.995328, 23, 289, 38, 352
-0.995328, 17, 169, 144, 200
-0.995348, 337, 41, 464, 72
-0.99537, 335, 209, 350, 272
-0.995386, 387, 41, 402, 104
-0.995406, 361, 225, 376, 288
-0.995421, 243, 241, 258, 304
-0.995425, 349, 169, 364, 232
-0.995429, 129, 85, 256, 116
-0.995443, 77, 297, 92, 360
-0.995448, 355, 273, 370, 336
-0.995468, 123, 89, 138, 152
-0.995471, 273, 9, 400, 40
-0.995493, 1, 25, 128, 88
-0.995508, 273, 201, 288, 264
-0.995514, 147, 1, 162, 64
-0.995531, 225, 273, 352, 304
-0.995539, 191, 1, 206, 64
-0.995542, 373, 1, 388, 64
-0.995543, 99, 137, 114, 200
-0.995546, 177, 313, 192, 375
-0.995548, 113, 13, 240, 44
-0.995549, 171, 161, 186, 224
-0.995569, 123, 41, 138, 104
-0.995581, 65, 165, 192, 196
-0.995582, 117, 9, 132, 72
-0.995583, 369, 33, 384, 96
-0.995593, 271, 177, 286, 240
-0.995604, 227, 201, 242, 264
-0.995604, 195, 241, 210, 304
-0.995619, 293, 281, 308, 344
-0.995633, 191, 33, 206, 96
-0.995634, 103, 257, 118, 320
-0.995635, 139, 305, 154, 368
-0.995645, 85, 257, 100, 320
-0.995646, 219, 169, 234, 232
-0.995647, 131, 297, 146, 360
-0.995665, 95, 313, 110, 375
-0.995667, 321, 73, 448, 104
-0.99567, 355, 177, 370, 240
-0.995686, 321, 17, 448, 48
-0.99569, 315, 273, 330, 336
-0.995695, 171, 81, 186, 144
-0.995704, 173, 201, 188, 264
-0.995711, 215, 217, 230, 280
-0.995713, 343, 169, 358, 232
-0.99572, 289, 213, 416, 244
-0.995725, 177, 329, 304, 360
-0.995731, 171, 313, 186, 375
-0.99574, 113, 297, 240, 328
-0.995742, 225, 249, 240, 312
-0.995745, 405, 1, 436, 256
-0.995752, 1, 33, 64, 288
-0.995754, 273, 233, 288, 296
-0.995758, 237, 241, 252, 304
-0.995761, 181, 249, 196, 312
-0.995766, 257, 229, 384, 260
-0.995772, 119, 65, 134, 128
-0.995773, 289, 145, 416, 176
-0.995775, 355, 209, 370, 272
-0.995783, 103, 209, 118, 272
-0.995791, 361, 273, 376, 336
-0.995799, 337, 273, 352, 336
-0.995824, 273, 49, 400, 80
-0.995828, 281, 217, 296, 280
-0.995831, 129, 265, 256, 296
-0.995844, 299, 273, 314, 336
-0.995859, 33, 137, 160, 168
-0.995881, 309, 273, 324, 336
-0.995882, 195, 153, 210, 216
-0.995888, 485, 209, 500, 272
-0.995898, 105, 137, 120, 200
-0.995901, 253, 241, 268, 304
-0.995915, 257, 289, 384, 320
-0.995918, 1, 81, 128, 144
-0.99602, 113, 57, 240, 88
-0.996042, 321, 53, 448, 84
-0.996079, 113, 73, 240, 104
-0.996101, 241, 89, 368, 120
-0.996104, 353, 5, 480, 36
-0.996134, 257, 321, 384, 352
-0.99614, 337, 193, 464, 224
-0.996183, 353, 249, 480, 280
-0.996191, 365, 1, 396, 256
-0.9962, 1, 89, 256, 152
-0.996213, 33, 185, 160, 216
-0.996235, 257, 101, 384, 132
-0.99626, 353, 281, 480, 312
-0.996317, 145, 313, 272, 344
-0.996322, 241, 77, 368, 108
-0.996328, 273, 61, 400, 92
-0.996346, 161, 37, 288, 68
-0.996363, 289, 273, 304, 304
-0.99637, 129, 97, 256, 128
-0.996398, 321, 317, 448, 348
-0.996404, 177, 105, 304, 136
-0.99641, 193, 21, 320, 52
-0.996414, 369, 165, 496, 196
-0.996418, 385, 33, 416, 288
-0.996426, 177, 277, 304, 308
-0.996429, 209, 145, 336, 176
-0.996468, 337, 205, 464, 236
-0.996547, 337, 177, 464, 208
-0.99659, 97, 113, 224, 144
-0.996613, 369, 65, 496, 96
-0.996642, 161, 53, 288, 84
-0.996646, 113, 277, 240, 308
-0.996655, 193, 317, 320, 348
-0.996671, 283, 261, 298, 292
-0.996675, 225, 337, 352, 368
-0.996722, 257, 113, 384, 144
-0.996725, 177, 129, 208, 375
-0.99673, 49, 201, 176, 232
-0.996738, 17, 153, 144, 184
-0.996769, 33, 225, 160, 256
-0.99677, 65, 25, 320, 88
-0.996791, 359, 241, 374, 272
-0.996791, 273, 305, 400, 336
-0.996794, 417, 1, 448, 256
-0.996803, 261, 129, 292, 375
-0.996804, 193, 73, 320, 104
-0.99681, 185, 1, 216, 256
-0.996831, 65, 149, 192, 180
-0.996837, 161, 97, 192, 352
-0.996851, 241, 133, 368, 164
-0.996855, 181, 181, 196, 212
-0.996857, 353, 221, 480, 252
-0.996857, 33, 17, 160, 48
-0.996858, 87, 241, 102, 272
-0.996858, 17, 125, 144, 156
-0.996879, 367, 245, 382, 276
-0.996879, 97, 165, 112, 196
-0.99689, 277, 189, 292, 220
-0.996912, 183, 233, 198, 264
-0.996923, 305, 225, 432, 256
-0.996926, 429, 97, 460, 352
-0.996954, 441, 97, 472, 352
-0.996959, 81, 129, 112, 375
-0.996969, 369, 101, 496, 132
-0.996971, 205, 129, 236, 375
-0.996972, 327, 241, 342, 272
-0.996973, 29, 129, 60, 375
-0.99698, 189, 185, 204, 216
-0.996981, 91, 297, 106, 328
-0.996985, 353, 293, 480, 324
-0.996992, 177, 93, 304, 124
-0.996995, 337, 1, 368, 256
-0.997, 197, 1, 228, 256
-0.997036, 85, 301, 100, 332
-0.997042, 299, 257, 314, 288
-0.99705, 321, 305, 448, 336
-0.997052, 397, 129, 428, 375
-0.997052, 165, 189, 180, 220
-0.997073, 349, 33, 380, 288
-0.997079, 193, 5, 320, 36
-0.997088, 193, 129, 224, 375
-0.997105, 289, 261, 304, 292
-0.997111, 33, 5, 160, 36
-0.997111, 295, 269, 310, 300
-0.997132, 65, 37, 192, 68
-0.997139, 333, 129, 364, 375
-0.99715, 175, 181, 190, 212
-0.997162, 1, 1, 256, 64
-0.997171, 339, 245, 354, 276
-0.997171, 321, 101, 448, 132
-0.997174, 369, 153, 496, 184
-0.99718, 97, 285, 112, 316
-0.997183, 289, 133, 416, 164
-0.997208, 249, 129, 280, 375
-0.99721, 271, 261, 286, 292
-0.997211, 277, 129, 308, 375
-0.997214, 369, 17, 496, 48
-0.99722, 353, 245, 368, 276
-0.99722, 279, 273, 294, 304
-0.997227, 377, 129, 408, 375
-0.997228, 175, 229, 190, 260
-0.997248, 129, 1, 160, 256
-0.997259, 17, 49, 144, 112
-0.997312, 305, 289, 432, 320
-0.99732, 321, 245, 336, 276
-0.997328, 57, 129, 88, 375
-0.997348, 153, 1, 184, 256
-0.99735, 255, 253, 270, 284
-0.99735, 303, 177, 318, 208
-0.997354, 377, 249, 392, 280
-0.997363, 233, 253, 248, 284
-0.997391, 81, 245, 96, 276
-0.997392, 103, 165, 118, 196
-0.997393, 95, 253, 110, 284
-0.997406, 173, 241, 188, 272
-0.997414, 191, 245, 206, 276
-0.99742, 187, 217, 202, 248
-0.997421, 291, 189, 306, 220
-0.997424, 117, 1, 148, 256
-0.997432, 361, 257, 376, 288
-0.997434, 243, 245, 258, 276
-0.997435, 277, 261, 292, 292
-0.997442, 191, 197, 206, 228
-0.99745, 189, 233, 204, 264
-0.997468, 93, 129, 124, 375
-0.9975, 93, 321, 108, 352
-0.997501, 355, 25, 370, 56
-0.997511, 333, 241, 348, 272
-0.997516, 1, 49, 256, 112
-0.997521, 113, 97, 144, 352
-0.997564, 457, 97, 488, 352
-0.997581, 297, 185, 312, 216
-0.997581, 19, 337, 34, 368
-0.997582, 283, 209, 298, 240
-0.99759, 365, 25, 380, 56
-0.997597, 301, 277, 316, 308
-0.997598, 249, 253, 264, 284
-0.9976, 141, 97, 172, 352
-0.997606, 105, 1, 136, 256
-0.997623, 101, 329, 116, 360
-0.997626, 173, 257, 188, 288
-0.997629, 325, 209, 340, 240
-0.99763, 123, 45, 138, 76
-0.997631, 79, 301, 94, 332
-0.997633, 309, 129, 340, 375
-0.997649, 261, 253, 276, 284
-0.997651, 33, 273, 48, 304
-0.997659, 225, 261, 240, 292
-0.997671, 393, 253, 408, 284
-0.99768, 141, 1, 172, 256
-0.997685, 313, 149, 328, 180
-0.997699, 211, 221, 226, 252
-0.997712, 195, 225, 210, 256
-0.997716, 347, 245, 362, 276
-0.997718, 165, 1, 196, 256
-0.997719, 173, 1, 188, 32
-0.997721, 273, 205, 288, 236
-0.997738, 167, 337, 182, 368
-0.99774, 287, 285, 302, 316
-0.997748, 243, 257, 258, 288
-0.997749, 349, 129, 380, 375
-0.997751, 345, 29, 360, 60
-0.997752, 331, 257, 346, 288
-0.997756, 195, 185, 210, 216
-0.997757, 201, 169, 216, 200
-0.99776, 393, 265, 408, 296
-0.997762, 75, 241, 90, 272
-0.997763, 163, 229, 178, 260
-0.997764, 201, 217, 216, 248
-0.997764, 97, 237, 112, 268
-0.99777, 181, 169, 196, 200
-0.99777, 117, 317, 132, 348
-0.997787, 41, 265, 56, 296
-0.997795, 309, 253, 324, 284
-0.997801, 371, 21, 386, 52
-0.997802, 129, 325, 144, 356
-0.997804, 311, 169, 326, 200
-0.997804, 399, 253, 414, 284
-0.997811, 183, 193, 198, 224
-0.997812, 387, 265, 402, 296
-0.997812, 227, 209, 242, 240
-0.997815, 197, 205, 212, 236
-0.997816, 181, 221, 196, 252
-0.99782, 119, 97, 134, 128
-0.997825, 103, 241, 118, 272
-0.997827, 191, 33, 206, 64
-0.997831, 161, 337, 176, 368
-0.997833, 83, 313, 98, 344
-0.997838, 207, 161, 222, 192
-0.997843, 367, 265, 382, 296
-0.997844, 353, 209, 368, 240
-0.997849, 85, 229, 100, 260
-0.99785, 197, 153, 212, 184
-0.997853, 127, 93, 142, 124
-0.997855, 49, 341, 64, 372
-0.997857, 279, 249, 294, 280
-0.997859, 355, 257, 370, 288
-0.997866, 145, 21, 160, 52
-0.997868, 123, 321, 138, 352
-0.997876, 183, 21, 198, 52
-0.997882, 203, 205, 218, 236
-0.997887, 173, 337, 188, 368
-0.9979, 167, 317, 182, 348
-0.997903, 299, 197, 314, 228
-0.997909, 171, 49, 186, 80
-0.997912, 199, 261, 214, 292
-0.997915, 199, 241, 214, 272
-0.997918, 383, 241, 398, 272
-0.997919, 331, 229, 346, 260
-0.997919, 97, 297, 112, 328
-0.997921, 91, 281, 106, 312
-0.997923, 233, 193, 248, 224
-0.997927, 225, 129, 256, 375
-0.997932, 283, 189, 298, 220
-0.997938, 219, 253, 234, 284
-0.997939, 295, 281, 310, 312
-0.997941, 191, 173, 206, 204
-0.997941, 167, 297, 182, 328
-0.997942, 383, 253, 398, 284
-0.997943, 361, 13, 376, 44
-0.997945, 71, 329, 86, 360
-0.997948, 167, 37, 182, 68
-0.99795, 123, 81, 138, 112
-0.997953, 323, 193, 338, 224
-0.99797, 317, 33, 348, 288
-0.998016, 441, 1, 472, 256
-0.998021, 289, 65, 320, 320
-0.998063, 361, 129, 392, 375
-0.998121, 17, 97, 48, 352
-0.998123, 69, 129, 100, 375
-0.998145, 417, 97, 448, 352
-0.998241, 249, 33, 280, 288
-0.998256, 429, 1, 460, 256
-0.998305, 129, 97, 160, 352
-0.998332, 265, 195, 328, 210
-0.998349, 153, 201, 216, 216
-0.998359, 313, 245, 376, 260
-0.998391, 273, 279, 336, 294
-0.998393, 153, 193, 216, 208
-0.998398, 305, 251, 368, 266
-0.998409, 41, 259, 104, 274
-0.998416, 65, 245, 128, 260
-0.998419, 49, 253, 112, 268
-0.998421, 337, 247, 400, 262
-0.998424, 153, 187, 216, 202
-0.998425, 73, 317, 136, 332
-0.998426, 161, 253, 224, 268
-0.998426, 217, 257, 280, 272
-0.998427, 65, 331, 128, 346
-0.998438, 41, 129, 72, 375
-0.998439, 337, 281, 368, 296
-0.99844, 265, 267, 296, 282
-0.99844, 153, 351, 184, 366
-0.99844, 181, 59, 212, 74
-0.99844, 381, 253, 412, 268
-0.99844, 189, 187, 220, 202
-0.998442, 365, 265, 396, 280
-0.998443, 177, 333, 208, 348
-0.998443, 101, 285, 132, 300
-0.998444, 297, 273, 328, 288
-0.998444, 61, 337, 92, 352
-0.998445, 381, 245, 412, 260
-0.998445, 285, 209, 316, 224
-0.998445, 101, 319, 132, 334
-0.998445, 249, 169, 280, 184
-0.998446, 297, 185, 328, 200
-0.998446, 29, 287, 60, 302
-0.998446, 341, 239, 372, 254
-0.998447, 265, 261, 328, 276
-0.998447, 173, 161, 188, 288
-0.998448, 301, 241, 316, 368
-0.998448, 201, 197, 232, 212
-0.998448, 85, 293, 116, 308
-0.998449, 341, 11, 372, 26
-0.998449, 265, 201, 328, 216
-0.998449, 209, 1, 240, 256
-0.99845, 89, 305, 120, 320
-0.998451, 291, 193, 306, 320
-0.998451, 177, 179, 208, 194
-0.998451, 217, 169, 248, 184
-0.998451, 161, 221, 224, 236
-0.998452, 17, 319, 48, 334
-0.998452, 121, 35, 152, 50
-0.998453, 221, 263, 252, 278
-0.998454, 201, 203, 232, 218
-0.998454, 153, 215, 216, 230
-0.998454, 125, 137, 156, 152
-0.998455, 341, 211, 372, 226
-0.998456, 181, 251, 212, 266
-0.998457, 289, 187, 352, 202
-0.998459, 273, 213, 304, 228
-0.998459, 309, 197, 340, 212
-0.998459, 193, 221, 256, 236
-0.998459, 129, 109, 160, 124
-0.99846, 161, 237, 224, 252
-0.99846, 193, 161, 208, 288
-0.99846, 365, 285, 396, 300
-0.998461, 169, 259, 200, 274
-0.998461, 201, 345, 232, 360
-0.998462, 121, 11, 152, 26
-0.998462, 161, 247, 224, 262
-0.998463, 313, 289, 344, 304
-0.998463, 213, 213, 244, 228
-0.998464, 153, 207, 216, 222
-0.998464, 337, 257, 400, 272
-0.998464, 125, 29, 156, 44
-0.998465, 161, 231, 224, 246
-0.998466, 325, 281, 356, 296
-0.998467, 181, 199, 212, 214
-0.998467, 289, 181, 352, 196
-0.998467, 221, 251, 252, 266
-0.998468, 265, 191, 296, 206
-0.998469, 365, 243, 396, 258
-0.998469, 281, 285, 344, 300
-0.99847, 101, 335, 132, 350
-0.99847, 29, 351, 60, 366
-0.998472, 21, 303, 52, 318
-0.998472, 321, 281, 384, 296
-0.998473, 161, 267, 224, 282
-0.998474, 283, 241, 298, 368
-0.998475, 309, 203, 340, 218
-0.998475, 173, 267, 204, 282
-0.998476, 89, 263, 120, 278
-0.998476, 9, 335, 72, 350
-0.998477, 17, 347, 48, 362
-0.998477, 281, 289, 312, 304
-0.998477, 353, 37, 384, 52
-0.998478, 193, 167, 224, 182
-0.998478, 241, 263, 304, 278
-0.998479, 313, 257, 376, 272
-0.998481, 133, 21, 164, 36
-0.998481, 345, 263, 408, 278
-0.998482, 169, 229, 200, 244
-0.998482, 77, 253, 108, 268
-0.998482, 189, 243, 220, 258
-0.998483, 253, 201, 284, 216
-0.998483, 165, 181, 196, 196
-0.998483, 205, 171, 236, 186
-0.998485, 185, 229, 216, 244
-0.998485, 161, 203, 192, 218
-0.998487, 121, 109, 184, 124
-0.998487, 285, 215, 316, 230
-0.998489, 301, 287, 332, 302
-0.99849, 93, 241, 124, 256
-0.99849, 185, 259, 248, 274
-0.998491, 173, 277, 204, 292
-0.998492, 369, 265, 432, 280
-0.998492, 79, 225, 94, 352
-0.998492, 353, 17, 384, 32
-0.998493, 121, 23, 152, 38
-0.998493, 97, 325, 160, 340
-0.998493, 121, 45, 152, 60
-0.998493, 161, 209, 192, 224
-0.998494, 91, 225, 106, 352
-0.998497, 165, 217, 196, 232
-0.998497, 73, 253, 136, 268
-0.998498, 37, 345, 68, 360
-0.998498, 305, 205, 368, 220
-0.9985, 249, 275, 312, 290
-0.998501, 385, 271, 448, 286
-0.998501, 273, 271, 336, 286
-0.998506, 273, 273, 304, 288
-0.998507, 329, 9, 392, 24
-0.998507, 349, 281, 380, 296
-0.998509, 237, 129, 268, 375
-0.99851, 185, 243, 248, 258
-0.998511, 89, 291, 152, 306
-0.998512, 241, 201, 304, 216
-0.998512, 289, 191, 320, 206
-0.998512, 273, 207, 304, 222
-0.998513, 345, 23, 376, 38
-0.998515, 257, 189, 320, 204
-0.998516, 297, 279, 360, 294
-0.998516, 379, 225, 394, 352
-0.998517, 65, 325, 128, 340
-0.998517, 177, 167, 240, 182
-0.998517, 329, 19, 392, 34
-0.998518, 217, 265, 280, 280
-0.998518, 313, 197, 376, 212
-0.998518, 81, 297, 144, 312
-0.998519, 289, 257, 352, 272
-0.998519, 333, 257, 364, 272
-0.998519, 185, 231, 248, 246
-0.99852, 205, 259, 236, 274
-0.99852, 309, 153, 340, 168
-0.99852, 321, 205, 352, 220
-0.998521, 305, 193, 320, 320
-0.998521, 337, 247, 368, 262
-0.998521, 233, 251, 264, 266
-0.998521, 357, 259, 388, 274
-0.998522, 177, 209, 240, 224
-0.998524, 205, 165, 236, 180
-0.998524, 169, 333, 232, 348
-0.998524, 353, 19, 416, 34
-0.998527, 217, 169, 280, 184
-0.998529, 193, 215, 256, 230
-0.998529, 201, 251, 264, 266
-0.998529, 113, 313, 176, 328
-0.998529, 353, 51, 416, 66
-0.99853, 73, 311, 136, 326
-0.99853, 49, 341, 80, 356
-0.99853, 369, 259, 400, 274
-0.99853, 291, 241, 306, 368
-0.998531, 217, 257, 248, 272
-0.998531, 49, 319, 112, 334
-0.998532, 73, 305, 136, 320
-0.998532, 289, 197, 352, 212
-0.998533, 9, 345, 72, 360
-0.998533, 161, 277, 224, 292
-0.998534, 161, 259, 224, 274
-0.998534, 73, 239, 136, 254
-0.998534, 177, 185, 208, 200
-0.998534, 397, 263, 428, 278
-0.998535, 241, 195, 304, 210
-0.998535, 89, 339, 152, 354
-0.998536, 129, 349, 192, 364
-0.998536, 217, 201, 280, 216
-0.998537, 93, 167, 124, 182
-0.998537, 161, 111, 224, 126
-0.998538, 265, 207, 328, 222
-0.998539, 261, 259, 292, 274
-0.998539, 385, 79, 448, 94
-0.998539, 153, 343, 216, 358
-0.998541, 241, 257, 304, 272
-0.998541, 9, 317, 72, 332
-0.998542, 121, 223, 184, 238
-0.998542, 89, 257, 120, 272
-0.998542, 317, 251, 348, 266
-0.998543, 313, 279, 344, 294
-0.998543, 41, 265, 104, 280
-0.998543, 49, 341, 112, 356
-0.998543, 81, 171, 144, 186
-0.998544, 253, 265, 284, 280
-0.998544, 337, 241, 400, 256
-0.998545, 121, 103, 184, 118
-0.998546, 193, 197, 256, 212
-0.998548, 249, 269, 312, 284
-0.998548, 257, 161, 320, 176
-0.998549, 181, 193, 212, 208
-0.998549, 273, 197, 304, 212
-0.998549, 81, 165, 144, 180
-0.998549, 161, 197, 192, 212
-0.99855, 85, 247, 116, 262
-0.99855, 145, 65, 208, 80
-0.99855, 177, 191, 240, 206
-0.998551, 353, 31, 384, 46
-0.998552, 345, 41, 408, 56
-0.998552, 377, 265, 408, 280
-0.998552, 17, 289, 80, 304
-0.998552, 73, 241, 104, 256
-0.998552, 57, 299, 120, 314
-0.998553, 217, 163, 280, 178
-0.998553, 289, 259, 320, 274
-0.998553, 361, 253, 424, 268
-0.998554, 297, 175, 360, 190
-0.998554, 9, 325, 72, 340
-0.998554, 185, 267, 248, 282
-0.998555, 73, 259, 136, 274
-0.998555, 201, 221, 232, 236
-0.998555, 329, 25, 392, 40
-0.998555, 313, 239, 376, 254
-0.998556, 77, 319, 108, 334
-0.998557, 345, 207, 408, 222
-0.998557, 305, 41, 368, 56
-0.998558, 169, 349, 232, 364
-0.998558, 113, 331, 176, 346
-0.998559, 161, 97, 224, 112
-0.998559, 361, 243, 424, 258
-0.998561, 297, 165, 360, 180
-0.998563, 121, 89, 184, 104
-0.998563, 265, 255, 328, 270
-0.998564, 257, 155, 320, 170
-0.998564, 129, 319, 192, 334
-0.998565, 257, 167, 320, 182
-0.998565, 57, 285, 120, 300
-0.998566, 305, 289, 368, 304
-0.998566, 193, 173, 256, 188
-0.998567, 361, 61, 424, 76
-0.998567, 265, 173, 328, 188
-0.998568, 161, 89, 224, 104
-0.998568, 25, 283, 88, 298
-0.998569, 121, 95, 184, 110
-0.998569, 321, 225, 336, 352
-0.998569, 17, 295, 80, 310
-0.998569, 137, 239, 200, 254
-0.99857, 329, 3, 392, 18
-0.998572, 9, 309, 72, 324
-0.998575, 349, 253, 380, 268
-0.998577, 309, 241, 324, 368
-0.998577, 169, 241, 200, 256
-0.998581, 289, 197, 320, 212
-0.998581, 285, 273, 316, 288
-0.998583, 311, 193, 326, 320
-0.998584, 305, 177, 336, 192
-0.998585, 297, 281, 328, 296
-0.998585, 249, 257, 280, 272
-0.998588, 101, 241, 116, 368
-0.998591, 321, 129, 352, 375
-0.998592, 169, 247, 200, 262
-0.998605, 85, 241, 100, 368
-0.998607, 279, 177, 294, 304
-0.998607, 229, 257, 260, 272
-0.998611, 165, 187, 196, 202
-0.998614, 305, 255, 336, 270
-0.998618, 349, 161, 364, 288
-0.998626, 361, 249, 392, 264
-0.998626, 469, 97, 500, 352
-0.998626, 273, 261, 304, 276
-0.998629, 187, 161, 202, 288
-0.998633, 277, 191, 308, 206
-0.998634, 85, 299, 116, 314
-0.998637, 355, 177, 370, 304
-0.998643, 323, 177, 338, 304
-0.998658, 173, 235, 204, 250
-0.998664, 327, 225, 342, 352
-0.998665, 65, 247, 96, 262
-0.998671, 51, 241, 66, 368
-0.998673, 163, 193, 178, 320
-0.998682, 285, 193, 300, 320
-0.998684, 357, 225, 372, 352
-0.998691, 321, 245, 352, 260
-0.998695, 101, 129, 116, 256
-0.998698, 107, 241, 122, 368
-0.998699, 285, 281, 316, 296
-0.998705, 203, 161, 218, 288
-0.998706, 277, 267, 308, 282
-0.998711, 341, 161, 356, 288
-0.998718, 329, 177, 344, 304
-0.998727, 371, 1, 386, 128
-0.998737, 349, 245, 380, 260
-0.998741, 45, 241, 60, 368
-0.998744, 333, 225, 348, 352
-0.998752, 351, 225, 366, 352
-0.998754, 363, 225, 378, 352
-0.998771, 315, 241, 330, 368
-0.998778, 39, 241, 54, 368
-0.99878, 461, 1, 492, 256
-0.998785, 299, 161, 314, 288
-0.998811, 179, 161, 194, 288
-0.998811, 73, 225, 88, 352
-0.998812, 169, 225, 184, 352
-0.998813, 391, 1, 406, 128
-0.998814, 95, 177, 110, 304
-0.998833, 301, 33, 332, 288
-0.998833, 371, 225, 386, 352
-0.998834, 317, 177, 332, 304
-0.998836, 175, 209, 190, 336
-0.99884, 95, 129, 110, 256
-0.998861, 209, 145, 224, 272
-0.998868, 185, 225, 200, 352
-0.998872, 335, 177, 350, 304
-0.998876, 277, 33, 308, 288
-0.998884, 57, 241, 72, 368
-0.998885, 361, 177, 376, 304
-0.998885, 341, 225, 356, 352
-0.998886, 221, 177, 236, 304
-0.998888, 377, 1, 392, 128
-0.998896, 101, 177, 116, 304
-0.998915, 429, 209, 444, 336
-0.998931, 107, 129, 122, 256
-0.998947, 305, 145, 320, 272
-0.998951, 413, 1, 428, 128
-0.998953, 113, 241, 128, 368
-0.99896, 277, 225, 292, 352
-0.99896, 143, 1, 158, 128
-0.998967, 121, 17, 136, 144
-0.998968, 135, 1, 150, 128
-0.99897, 363, 1, 378, 128
-0.998972, 67, 225, 82, 352
-0.998991, 211, 193, 226, 320
-0.999009, 89, 161, 104, 288
-0.999014, 385, 33, 400, 160
-0.999019, 385, 225, 400, 352
-0.999023, 271, 161, 286, 288
-0.999026, 123, 81, 138, 208
-0.999028, 113, 113, 128, 240
-0.999028, 31, 241, 46, 368
-0.999034, 313, 129, 328, 256
-0.999034, 265, 33, 296, 288
-0.999037, 421, 1, 436, 128
-0.999037, 215, 145, 230, 272
-0.999044, 227, 161, 242, 288
-0.999045, 1, 65, 64, 192
-0.999049, 207, 1, 222, 128
-0.99905, 397, 17, 412, 144
-0.999071, 389, 161, 404, 288
-0.999079, 435, 177, 450, 304
-0.999079, 471, 177, 486, 304
-0.999086, 167, 145, 182, 272
-0.999092, 193, 113, 208, 240
-0.999095, 263, 145, 278, 272
-0.999104, 351, 1, 366, 128
-0.999108, 375, 177, 390, 304
-0.999109, 127, 1, 142, 128
-0.999109, 201, 113, 216, 240
-0.999115, 197, 209, 212, 336
-0.999118, 51, 193, 66, 320
-0.999119, 93, 1, 124, 256
-0.999121, 157, 1, 172, 128
-0.999122, 395, 225, 410, 352
-0.999139, 149, 1, 164, 128
-0.999143, 367, 177, 382, 304
-0.99915, 479, 193, 494, 320
-0.999152, 345, 17, 360, 144
-0.999158, 441, 193, 456, 320
-0.999159, 381, 177, 396, 304
-0.999161, 177, 97, 192, 224
-0.999161, 113, 1, 128, 128
-0.999165, 85, 113, 100, 240
-0.999166, 271, 225, 286, 352
-0.999167, 107, 177, 122, 304
-0.999167, 427, 1, 442, 128
-0.99917, 357, 1, 372, 128
-0.999176, 319, 129, 334, 256
-0.999182, 169, 1, 184, 128
-0.999182, 177, 1, 192, 128
-0.999183, 191, 225, 206, 352
-0.999186, 31, 113, 46, 240
-0.999196, 371, 49, 386, 176
-0.999201, 233, 161, 248, 288
-0.999201, 183, 1, 198, 128
-0.999207, 183, 113, 198, 240
-0.99921, 379, 49, 394, 176
-0.999211, 81, 177, 96, 304
-0.999213, 421, 177, 436, 304
-0.999217, 143, 49, 158, 176
-0.99922, 431, 81, 446, 208
-0.999222, 433, 33, 448, 160
-0.999227, 401, 225, 416, 352
-0.999228, 485, 193, 500, 320
-0.999229, 77, 33, 108, 288
-0.99923, 427, 161, 442, 288
-0.999232, 57, 193, 72, 320
-0.999233, 163, 1, 178, 128
-0.999235, 201, 1, 216, 128
-0.999237, 113, 49, 128, 176
-0.999335, 1, 97, 32, 352
-0.999434, 225, 33, 256, 288
-0.999605, 9, 1, 40, 256
-0.999634, 349, 25, 364, 40
-0.999635, 297, 215, 312, 230
-0.999635, 401, 263, 416, 278
-0.999636, 269, 203, 284, 218
-0.999636, 81, 309, 96, 324
-0.999636, 41, 349, 56, 364
-0.999636, 143, 19, 158, 34
-0.999636, 95, 261, 110, 276
-0.999637, 103, 163, 118, 178
-0.999637, 301, 185, 316, 200
-0.999638, 353, 211, 368, 226
-0.999638, 369, 259, 384, 274
-0.999639, 185, 223, 200, 238
-0.999639, 283, 269, 298, 284
-0.999639, 195, 203, 210, 218
-0.999639, 301, 287, 316, 302
-0.999639, 201, 201, 216, 216
-0.99964, 313, 289, 328, 304
-0.999641, 389, 273, 404, 288
-0.999641, 355, 33, 370, 48
-0.999641, 201, 257, 216, 272
-0.999642, 165, 197, 180, 212
-0.999642, 273, 261, 288, 276
-0.999643, 123, 89, 138, 104
-0.999644, 165, 191, 180, 206
-0.999645, 121, 5, 136, 20
-0.999645, 211, 221, 226, 236
-0.999645, 355, 257, 370, 272
-0.999646, 285, 213, 300, 228
-0.999646, 91, 255, 106, 270
-0.999648, 199, 263, 214, 278
-0.999648, 329, 187, 344, 202
-0.999649, 371, 285, 386, 300
-0.999649, 287, 191, 302, 206
-0.99965, 369, 27, 384, 42
-0.99965, 121, 19, 136, 34
-0.999651, 189, 231, 204, 246
-0.999652, 95, 289, 110, 304
-0.999653, 261, 257, 276, 272
-0.999654, 101, 299, 116, 314
-0.999655, 47, 261, 62, 276
-0.999655, 333, 205, 348, 220
-0.999655, 55, 343, 70, 358
-0.999656, 25, 121, 40, 136
-0.999659, 223, 265, 238, 280
-0.99966, 195, 241, 210, 256
-0.99966, 385, 267, 400, 282
-0.999661, 101, 291, 116, 306
-0.999662, 319, 279, 334, 294
-0.999663, 203, 165, 218, 180
-0.999664, 293, 285, 308, 300
-0.999664, 267, 259, 282, 274
-0.999665, 165, 229, 180, 244
-0.999665, 103, 331, 118, 346
-0.999667, 293, 195, 308, 210
-0.999667, 307, 255, 322, 270
-0.999667, 311, 153, 326, 168
-0.999667, 377, 251, 392, 266
-0.999668, 269, 267, 284, 282
-0.999668, 479, 245, 494, 260
-0.999669, 361, 29, 376, 44
-0.999671, 363, 263, 378, 278
-0.999671, 123, 55, 138, 70
-0.999671, 143, 139, 158, 154
-0.999672, 195, 191, 210, 206
-0.999672, 87, 249, 102, 264
-0.999674, 347, 249, 362, 264
-0.999674, 173, 185, 188, 200
-0.999674, 313, 255, 328, 270
-0.999675, 291, 213, 306, 228
-0.999676, 173, 247, 188, 262
-0.999676, 319, 253, 334, 268
-0.999676, 243, 251, 258, 266
-0.999677, 79, 237, 94, 252
-0.999678, 187, 183, 202, 198
-0.99968, 313, 171, 328, 186
-0.99968, 207, 173, 222, 188
-0.99968, 203, 221, 218, 236
-0.999681, 279, 263, 294, 278
-0.999681, 97, 165, 112, 180
-0.999681, 49, 345, 64, 360
-0.999685, 371, 245, 386, 260
-0.999686, 89, 305, 104, 320
-0.999687, 187, 245, 202, 260
-0.999689, 81, 249, 96, 264
-0.99969, 295, 187, 310, 202
-0.999691, 285, 289, 300, 304
-0.999691, 313, 281, 328, 296
-0.999695, 287, 281, 302, 296
-0.999695, 283, 207, 298, 222
-0.999697, 187, 237, 202, 252
-0.999701, 235, 251, 250, 266
-0.999701, 307, 285, 322, 300
-0.999703, 295, 269, 310, 284
-0.999703, 195, 197, 210, 212
-0.999704, 279, 275, 294, 290
-0.999704, 173, 241, 188, 256
-0.999704, 327, 205, 342, 220
-0.999705, 299, 281, 314, 296
-0.999706, 185, 195, 200, 210
-0.999708, 299, 259, 314, 274
-0.99971, 83, 315, 98, 330
-0.999711, 339, 245, 354, 260
-0.999712, 209, 167, 224, 182
-0.999716, 245, 257, 260, 272
-0.999718, 329, 259, 344, 274
-0.99972, 289, 269, 304, 284
-0.99972, 227, 257, 242, 272
-0.999724, 179, 181, 194, 196
-0.999725, 221, 259, 236, 274
-0.999725, 95, 295, 110, 310
-0.999726, 331, 243, 346, 258
-0.999727, 251, 255, 266, 270
-0.999729, 189, 189, 204, 204
-0.999729, 281, 189, 296, 204
-0.999729, 307, 279, 322, 294
-0.999736, 85, 299, 100, 314
-0.999738, 239, 259, 254, 274
-0.999739, 371, 251, 386, 266
-0.999751, 75, 243, 90, 258
-0.999752, 175, 231, 190, 246
-0.999753, 289, 261, 304, 276
-0.999754, 391, 267, 406, 282
-0.999761, 325, 245, 340, 260
-0.999762, 361, 255, 376, 270
-0.999767, 233, 257, 248, 272
-0.999788, 85, 243, 100, 258
-0.999796, 355, 245, 370, 260
-0.999817, 365, 245, 380, 260
-0.99982, 291, 275, 306, 290
-0.999863, 237, 33, 268, 288
-0.999987, 37, 33, 68, 288
-1.00028, 21, 1, 52, 256
-1.00044, 57, 33, 88, 288
-1.00511, 65, 17, 128, 144
-1.00518, 9, 1, 72, 128
-1.0115, 33, 17, 96, 144
