1975
-0.447717, 1, 1, 480, 380
-0.462806, 1, 97, 480, 352
-0.478178, 1, 1, 480, 256
-0.578552, 161, 1, 416, 380
-0.643438, 129, 1, 384, 256
-0.645746, 1, 1, 256, 380
-0.709924, 161, 97, 416, 352
-0.791046, 1, 33, 256, 288
-0.836731, 225, 1, 480, 256
-0.843008, 33, 129, 288, 380
-0.865788, 113, 1, 240, 256
-0.874085, 241, 1, 368, 256
-0.884686, 161, 1, 288, 256
-0.885253, 113, 1, 240, 380
-0.886827, 321, 1, 448, 380
-0.89323, 321, 33, 448, 288
-0.89811, 273, 1, 400, 380
-0.900358, 145, 97, 272, 352
-0.902304, 1, 1, 480, 128
-0.907213, 257, 97, 384, 352
-0.912732, 225, 1, 352, 380
-0.914351, 1, 145, 480, 272
-0.915444, 65, 33, 192, 288
-0.915444, 193, 97, 320, 352
-0.919011, 1, 49, 480, 176
-0.919017, 97, 129, 224, 380
-0.919433, 1, 97, 480, 224
-0.91959, 129, 113, 384, 240
-0.924269, 161, 1, 288, 380
-0.926479, 65, 1, 192, 380
-0.929431, 129, 1, 384, 128
-0.933493, 17, 1, 144, 380
-0.936109, 97, 49, 352, 176
-0.937249, 1, 257, 480, 380
-0.944456, 121, 49, 184, 176
-0.945689, 1, 65, 256, 192
-0.945912, 353, 129, 480, 380
-0.945933, 97, 65, 224, 192
-0.949256, 145, 97, 272, 224
-0.950063, 49, 129, 176, 380
-0.950418, 225, 49, 480, 176
-0.952031, 137, 97, 200, 224
-0.952972, 193, 97, 320, 224
-0.953464, 225, 257, 480, 380
-0.953519, 161, 81, 224, 208
-0.954434, 273, 49, 400, 176
-0.95593, 1, 193, 480, 320
-0.956827, 313, 33, 376, 160
-0.957147, 305, 129, 432, 380
-0.95727, 1, 145, 256, 272
-0.95957, 289, 65, 352, 192
-0.959759, 17, 1, 144, 256
-0.959804, 153, 33, 216, 160
-0.959841, 185, 113, 248, 240
-0.962794, 321, 49, 448, 176
-0.962867, 145, 17, 272, 144
-0.962886, 137, 137, 200, 200
-0.964576, 161, 129, 224, 256
-0.964894, 161, 97, 224, 160
-0.965682, 209, 97, 272, 224
-0.965754, 121, 97, 184, 160
-0.965922, 113, 65, 176, 128
-0.966747, 49, 81, 176, 208
-0.967403, 185, 121, 248, 184
-0.967858, 1, 129, 128, 380
-0.96788, 257, 1, 384, 128
-0.967945, 129, 145, 192, 272
-0.968454, 241, 113, 368, 240
-0.968985, 113, 97, 176, 224
-0.969236, 225, 49, 352, 176
-0.96937, 129, 161, 384, 288
-0.969437, 225, 97, 480, 224
-0.969485, 177, 1, 240, 128
-0.969754, 97, 113, 224, 240
-0.969786, 225, 1, 480, 128
-0.969981, 305, 1, 432, 128
-0.970142, 225, 145, 480, 272
-0.970826, 185, 65, 248, 192
-0.970962, 225, 105, 288, 168
-0.970991, 337, 33, 400, 160
-0.971815, 313, 81, 376, 208
-0.972036, 97, 17, 224, 144
-0.972251, 273, 129, 336, 256
-0.972284, 129, 257, 384, 380
-0.972297, 289, 97, 416, 224
-0.972355, 321, 41, 384, 104
-0.973098, 225, 33, 288, 160
-0.973533, 113, 97, 240, 160
-0.97356, 161, 1, 224, 256
-0.973616, 161, 129, 224, 192
-0.973751, 97, 161, 224, 288
-0.973856, 233, 97, 296, 224
-0.974173, 297, 321, 360, 380
-0.974896, 193, 1, 320, 128
-0.974952, 97, 49, 160, 176
-0.975093, 337, 225, 464, 352
-0.975133, 313, 1, 376, 256
-0.975401, 89, 73, 152, 136
-0.975676, 185, 89, 248, 152
-0.976151, 137, 57, 200, 120
-0.976184, 265, 49, 328, 176
-0.976198, 177, 105, 304, 168
-0.97695, 289, 17, 352, 80
-0.977788, 289, 137, 352, 200
-0.977942, 153, 33, 216, 96
-0.978032, 185, 1, 248, 64
-0.978086, 289, 257, 416, 380
-0.978201, 113, 121, 176, 184
-0.978217, 257, 113, 320, 176
-0.978312, 1, 17, 256, 144
-0.978403, 33, 17, 160, 144
-0.978502, 353, 57, 416, 120
-0.978535, 141, 81, 172, 208
-0.978564, 225, 209, 480, 336
-0.978922, 113, 129, 240, 192
-0.979035, 129, 49, 160, 176
-0.979441, 297, 129, 360, 256
-0.979458, 137, 1, 200, 256
-0.979583, 289, 89, 352, 152
-0.979697, 337, 81, 400, 208
-0.979812, 145, 145, 272, 272
-0.980254, 97, 57, 224, 120
-0.980372, 125, 65, 156, 128
-0.980428, 361, 321, 424, 380
-0.980474, 177, 97, 208, 224
-0.980537, 289, 1, 352, 128
-0.980556, 353, 1, 480, 128
-0.980675, 1, 257, 256, 380
-0.980814, 337, 41, 368, 104
-0.981135, 157, 49, 188, 176
-0.981146, 249, 1, 312, 128
-0.981699, 129, 209, 384, 336
-0.981828, 225, 81, 288, 144
-0.981981, 177, 97, 240, 352
-0.982077, 321, 257, 384, 380
-0.982135, 225, 105, 352, 168
-0.98219, 105, 161, 168, 224
-0.982209, 337, 33, 368, 160
-0.982259, 49, 129, 176, 256
-0.982335, 337, 33, 400, 288
-0.982336, 89, 97, 152, 224
-0.982351, 289, 1, 352, 256
-0.982378, 177, 97, 208, 160
-0.982446, 161, 129, 192, 256
-0.982476, 241, 1, 368, 64
-0.982477, 257, 209, 384, 336
-0.982576, 89, 97, 152, 160
-0.982828, 161, 129, 192, 192
-0.982853, 241, 257, 368, 380
-0.982887, 241, 321, 368, 380
-0.983034, 313, 113, 376, 176
-0.983035, 305, 49, 432, 112
-0.983145, 361, 49, 424, 176
-0.983176, 145, 169, 208, 232
-0.983293, 65, 97, 192, 160
-0.983387, 257, 33, 384, 96
-0.983518, 113, 1, 176, 128
-0.983568, 289, 145, 416, 272
-0.983751, 257, 1, 320, 64
-0.983859, 105, 145, 168, 272
-0.983902, 325, 1, 356, 128
-0.983947, 257, 81, 384, 144
-0.984044, 305, 65, 368, 128
-0.984065, 137, 57, 168, 120
-0.984472, 89, 129, 152, 192
-0.984497, 197, 129, 228, 192
-0.984501, 117, 65, 148, 192
-0.984523, 321, 305, 384, 368
-0.984544, 241, 161, 368, 288
-0.984618, 289, 321, 416, 380
-0.984678, 217, 1, 280, 256
-0.984685, 193, 129, 320, 192
-0.98491, 177, 9, 304, 72
-0.984976, 177, 25, 240, 88
-0.985004, 137, 1, 200, 380
-0.985086, 417, 209, 480, 336
-0.98512, 249, 89, 312, 152
-0.985289, 289, 257, 352, 380
-0.985321, 273, 105, 400, 168
-0.985368, 417, 233, 480, 296
-0.9854, 185, 1, 248, 256
-0.985474, 141, 97, 172, 160
-0.985611, 97, 161, 224, 224
-0.985626, 145, 33, 272, 96
-0.98564, 33, 73, 160, 136
-0.985758, 313, 17, 376, 80
-0.985777, 161, 105, 192, 168
-0.985792, 313, 65, 344, 192
-0.98589, 193, 113, 224, 240
-0.985907, 241, 1, 304, 256
-0.986106, 329, 1, 392, 380
-0.986162, 113, 33, 176, 288
-0.986208, 201, 97, 264, 352
-0.986257, 145, 33, 176, 160
-0.986296, 209, 97, 240, 224
-0.986328, 145, 137, 176, 200
-0.986565, 417, 257, 480, 380
-0.986586, 249, 313, 312, 376
-0.986614, 209, 121, 240, 184
-0.986649, 393, 49, 456, 176
-0.986743, 409, 321, 472, 380
-0.986845, 177, 121, 208, 184
-0.986895, 197, 97, 228, 160
-0.986919, 289, 113, 352, 176
-0.987068, 113, 89, 144, 152
-0.987073, 289, 97, 352, 352
-0.987105, 177, 81, 304, 144
-0.987134, 137, 129, 200, 380
-0.987146, 337, 321, 464, 380
-0.987406, 281, 129, 312, 192
-0.987411, 353, 33, 416, 96
-0.987457, 125, 97, 156, 160
-0.987489, 337, 89, 400, 152
-0.98749, 265, 1, 328, 256
-0.987594, 121, 129, 152, 192
-0.987749, 293, 105, 324, 168
-0.987762, 169, 33, 200, 160
-0.987765, 337, 177, 464, 304
-0.987809, 321, 297, 448, 360
-0.987912, 257, 65, 320, 128
-0.987942, 297, 65, 328, 192
-0.987965, 209, 1, 272, 64
-0.987977, 241, 129, 368, 192
-0.987988, 193, 257, 320, 380
-0.987997, 345, 257, 408, 380
-0.988062, 353, 249, 480, 312
-0.988101, 325, 1, 356, 64
-0.988121, 333, 97, 364, 224
-0.988131, 257, 57, 384, 120
-0.988142, 185, 145, 248, 208
-0.988172, 361, 1, 424, 128
-0.988199, 353, 57, 480, 120
-0.98827, 193, 1, 224, 128
-0.988315, 65, 137, 192, 200
-0.988382, 417, 297, 480, 360
-0.988396, 1, 225, 128, 352
-0.988435, 409, 57, 472, 120
-0.988463, 181, 1, 212, 128
-0.988487, 33, 193, 288, 320
-0.988519, 197, 65, 228, 192
-0.988532, 309, 321, 340, 380
-0.988601, 273, 321, 336, 380
-0.988771, 173, 25, 204, 88
-0.988802, 193, 313, 320, 376
-0.988805, 349, 33, 380, 160
-0.988832, 201, 1, 264, 128
-0.988854, 145, 129, 176, 256
-0.989112, 305, 193, 368, 320
-0.989143, 305, 1, 368, 380
-0.989151, 325, 49, 356, 176
-0.98919, 129, 97, 160, 224
-0.989418, 161, 73, 224, 136
-0.989434, 393, 241, 456, 368
-0.989434, 337, 25, 464, 88
-0.989448, 281, 97, 312, 160
-0.98948, 121, 153, 152, 216
-0.989547, 185, 65, 248, 128
-0.989575, 129, 33, 192, 96
-0.989616, 265, 137, 328, 200
-0.989631, 281, 41, 344, 104
-0.98967, 225, 1, 288, 380
-0.98969, 97, 33, 224, 96
-0.989718, 33, 33, 160, 96
-0.989776, 233, 109, 296, 140
-0.989778, 201, 1, 232, 64
-0.989844, 305, 129, 336, 256
-0.989902, 305, 73, 432, 136
-0.989918, 81, 49, 144, 112
-0.989974, 377, 297, 440, 360
-0.990049, 221, 97, 252, 224
-0.990068, 265, 105, 296, 168
-0.990158, 129, 129, 384, 192
-0.990171, 209, 89, 240, 152
-0.990176, 297, 129, 328, 192
-0.990201, 321, 1, 448, 64
-0.990204, 393, 1, 456, 380
-0.990206, 329, 281, 392, 344
-0.990209, 221, 113, 252, 176
-0.990248, 89, 1, 152, 128
-0.990281, 329, 137, 392, 200
-0.990292, 417, 49, 480, 176
-0.990392, 385, 321, 448, 380
-0.990434, 137, 149, 200, 180
-0.99048, 149, 57, 180, 120
-0.990488, 49, 257, 176, 380
-0.990563, 133, 153, 164, 216
-0.990581, 377, 57, 440, 120
-0.990581, 297, 161, 360, 224
-0.990582, 173, 161, 204, 224
-0.99061, 345, 177, 408, 304
-0.99062, 153, 129, 216, 160
-0.99068, 153, 97, 216, 128
-0.990731, 337, 273, 464, 336
-0.990787, 265, 97, 328, 352
-0.990839, 145, 153, 272, 216
-0.990923, 177, 129, 240, 160
-0.990939, 313, 89, 376, 152
-0.990939, 273, 289, 336, 352
-0.990967, 137, 1, 200, 64
-0.990985, 193, 117, 256, 148
-0.991011, 277, 113, 308, 240
-0.99103, 161, 117, 224, 148
-0.991032, 361, 57, 392, 120
-0.991046, 349, 49, 380, 112
-0.991075, 321, 349, 384, 380
-0.991099, 121, 101, 184, 132
-0.991109, 249, 25, 312, 88
-0.991156, 337, 193, 400, 256
-0.991158, 321, 209, 448, 272
-0.991202, 313, 233, 376, 296
-0.991213, 281, 1, 344, 380
-0.99126, 185, 17, 216, 80
-0.991282, 177, 1, 240, 380
-0.991317, 49, 161, 176, 224
-0.991363, 185, 105, 248, 136
-0.991377, 113, 77, 176, 108
-0.991396, 281, 349, 344, 380
-0.991404, 81, 9, 208, 72
-0.991416, 309, 17, 340, 144
-0.991497, 129, 53, 192, 84
-0.991549, 329, 45, 392, 76
-0.991602, 313, 97, 376, 352
-0.99162, 97, 157, 160, 188
-0.991672, 297, 337, 360, 368
-0.991673, 97, 105, 352, 168
-0.991682, 225, 289, 352, 352
-0.991684, 417, 257, 480, 320
-0.991698, 265, 129, 328, 160
-0.991706, 329, 129, 392, 256
-0.991714, 289, 129, 320, 256
-0.991731, 177, 321, 240, 380
-0.991737, 305, 129, 432, 192
-0.99174, 345, 345, 408, 376
-0.991759, 169, 169, 232, 232
-0.991767, 257, 233, 384, 296
-0.991785, 113, 129, 176, 160
-0.991821, 281, 113, 344, 144
-0.991924, 289, 1, 352, 32
-0.991925, 121, 161, 184, 192
-0.991937, 161, 37, 224, 68
-0.99194, 297, 125, 360, 156
-0.99197, 253, 97, 284, 160
-0.991971, 329, 57, 392, 88
-0.99199, 353, 57, 416, 88
-0.992017, 321, 105, 448, 168
-0.992026, 417, 1, 480, 380
-0.992073, 89, 89, 152, 120
-0.992085, 257, 1, 288, 128
-0.992108, 113, 65, 176, 96
-0.992129, 161, 141, 224, 172
-0.99214, 297, 33, 360, 64
-0.992148, 113, 89, 176, 120
-0.992156, 209, 57, 336, 120
-0.992167, 265, 101, 328, 132
-0.992176, 233, 105, 264, 168
-0.992182, 153, 49, 216, 80
-0.992193, 289, 137, 352, 168
-0.992203, 1, 321, 128, 380
-0.992212, 361, 329, 424, 360
-0.992231, 121, 113, 184, 144
-0.992237, 241, 121, 304, 152
-0.992247, 321, 113, 352, 240
-0.992258, 201, 129, 264, 160
-0.992262, 321, 13, 384, 44
-0.992284, 129, 1, 256, 64
-0.99229, 105, 1, 168, 380
-0.992297, 173, 145, 204, 272
-0.992305, 185, 49, 216, 176
-0.992375, 185, 145, 216, 208
-0.99239, 217, 1, 280, 32
-0.992411, 145, 169, 208, 200
-0.992417, 105, 33, 168, 96
-0.99243, 317, 121, 348, 184
-0.992439, 305, 325, 368, 356
-0.992445, 241, 337, 304, 368
-0.99245, 285, 65, 316, 192
-0.992453, 177, 25, 240, 56
-0.992464, 185, 89, 248, 120
-0.992466, 297, 201, 360, 264
-0.992483, 137, 85, 200, 116
-0.992492, 257, 5, 320, 36
-0.992501, 289, 21, 352, 52
-0.992513, 177, 161, 240, 192
-0.992526, 97, 49, 160, 80
-0.992532, 213, 49, 244, 176
-0.992559, 305, 89, 368, 120
-0.992581, 305, 89, 336, 152
-0.99259, 33, 241, 96, 368
-0.992591, 233, 97, 296, 128
-0.992601, 337, 105, 400, 136
-0.992604, 321, 69, 384, 100
-0.992629, 417, 241, 480, 272
-0.99265, 81, 77, 144, 108
-0.992662, 97, 101, 160, 132
-0.992664, 233, 97, 264, 224
-0.992664, 117, 113, 148, 240
-0.992666, 265, 317, 328, 348
-0.992677, 49, 193, 176, 320
-0.992678, 353, 41, 416, 72
-0.992688, 145, 321, 272, 380
-0.992705, 329, 1, 392, 32
-0.992721, 193, 9, 256, 40
-0.992734, 177, 73, 208, 136
-0.992743, 241, 169, 368, 232
-0.99275, 393, 61, 456, 92
-0.992752, 89, 113, 152, 144
-0.992773, 81, 145, 144, 176
-0.992784, 321, 169, 448, 232
-0.992797, 257, 89, 320, 120
-0.992811, 161, 129, 192, 160
-0.992816, 209, 125, 240, 156
-0.992819, 73, 65, 136, 96
-0.992825, 185, 149, 248, 180
-0.992853, 305, 45, 368, 76
-0.992863, 101, 81, 132, 144
-0.992865, 181, 93, 212, 124
-0.992876, 209, 105, 272, 136
-0.992878, 109, 121, 140, 184
-0.992884, 341, 45, 372, 76
-0.992898, 281, 125, 312, 156
-0.992918, 209, 93, 272, 124
-0.992926, 337, 333, 400, 364
-0.992929, 329, 117, 392, 148
-0.992948, 353, 77, 416, 108
-0.992951, 89, 65, 152, 320
-0.992952, 385, 321, 448, 352
-0.99296, 117, 73, 148, 104
-0.992978, 377, 349, 440, 380
-0.993005, 417, 321, 480, 352
-0.993011, 113, 141, 176, 172
-0.993015, 249, 33, 312, 64
-0.993015, 337, 349, 368, 380
-0.993029, 121, 157, 152, 188
-0.99303, 345, 93, 408, 124
-0.993031, 293, 121, 324, 152
-0.993033, 305, 113, 368, 144
-0.993033, 321, 129, 384, 160
-0.993037, 133, 61, 164, 92
-0.993056, 181, 125, 212, 156
-0.993062, 257, 17, 320, 48
-0.993064, 137, 97, 168, 128
-0.993069, 329, 169, 392, 232
-0.99307, 113, 65, 144, 128
-0.993071, 125, 101, 156, 132
-0.993082, 161, 17, 416, 80
-0.993096, 229, 109, 260, 140
-0.993097, 249, 105, 280, 136
-0.993098, 345, 29, 408, 60
-0.99311, 197, 113, 228, 144
-0.993114, 325, 33, 356, 96
-0.993116, 121, 33, 184, 64
-0.993116, 297, 101, 360, 132
-0.993131, 313, 313, 376, 344
-0.993134, 185, 77, 248, 108
-0.993138, 261, 105, 292, 136
-0.99314, 329, 149, 392, 180
-0.993145, 265, 333, 328, 364
-0.993145, 289, 149, 352, 180
-0.993147, 173, 165, 204, 196
-0.993149, 297, 161, 360, 192
-0.993149, 169, 173, 232, 204
-0.993163, 145, 53, 176, 84
-0.993165, 269, 121, 300, 152
-0.993165, 417, 33, 480, 96
-0.993177, 401, 345, 464, 376
-0.993178, 125, 113, 156, 144
-0.993179, 17, 289, 144, 352
-0.993179, 217, 325, 280, 356
-0.993185, 297, 137, 328, 168
-0.993193, 97, 257, 224, 380
-0.993199, 161, 85, 224, 116
-0.993201, 305, 233, 368, 264
-0.993201, 281, 113, 312, 144
-0.993202, 417, 257, 480, 288
-0.993215, 225, 349, 288, 380
-0.993216, 89, 125, 152, 156
-0.993217, 197, 129, 228, 160
-0.993223, 177, 137, 208, 168
-0.993229, 97, 169, 160, 200
-0.993231, 109, 89, 140, 120
-0.993237, 337, 225, 400, 256
-0.993245, 445, 257, 476, 380
-0.993254, 169, 93, 200, 124
-0.993257, 133, 157, 164, 188
-0.993257, 385, 309, 448, 340
-0.993257, 281, 301, 344, 332
-0.993263, 349, 345, 380, 376
-0.993263, 273, 297, 400, 360
-0.993263, 1, 145, 128, 272
-0.993274, 121, 173, 184, 204
-0.99328, 181, 29, 212, 60
-0.993282, 129, 169, 160, 200
-0.993292, 157, 49, 188, 80
-0.993293, 273, 73, 336, 104
-0.993299, 97, 313, 224, 376
-0.993305, 329, 161, 392, 192
-0.993305, 169, 37, 200, 68
-0.993306, 161, 149, 192, 180
-0.993308, 329, 37, 360, 68
-0.993321, 377, 33, 440, 288
-0.99333, 233, 17, 296, 48
-0.993332, 293, 109, 324, 140
-0.993338, 297, 213, 360, 244
-0.993338, 221, 121, 252, 152
-0.993339, 349, 257, 380, 380
-0.993343, 145, 149, 176, 180
-0.993344, 125, 85, 156, 116
-0.993348, 265, 97, 296, 224
-0.993362, 393, 49, 456, 80
-0.993366, 325, 9, 356, 40
-0.993372, 149, 97, 180, 128
-0.993375, 313, 17, 344, 80
-0.993382, 417, 57, 480, 88
-0.993382, 337, 193, 400, 224
-0.993398, 161, 173, 192, 204
-0.993399, 185, 157, 216, 188
-0.993401, 169, 13, 232, 44
-0.99341, 325, 349, 356, 380
-0.993412, 309, 141, 340, 172
-0.993413, 201, 1, 264, 380
-0.993429, 409, 333, 472, 364
-0.993432, 361, 57, 392, 88
-0.993437, 117, 129, 148, 160
-0.993445, 105, 77, 136, 108
-0.993446, 321, 21, 352, 52
-0.993447, 417, 269, 480, 300
-0.99345, 313, 257, 376, 288
-0.993455, 9, 313, 72, 344
-0.993459, 277, 101, 308, 132
-0.99346, 305, 117, 336, 148
-0.993465, 109, 145, 140, 176
-0.993466, 113, 113, 144, 144
-0.993467, 145, 25, 208, 56
-0.993467, 309, 129, 340, 160
-0.993467, 177, 105, 208, 136
-0.993468, 161, 33, 192, 96
-0.993474, 313, 273, 376, 304
-0.993475, 161, 105, 192, 136
-0.993478, 145, 161, 176, 192
-0.993483, 313, 1, 344, 32
-0.993486, 157, 85, 188, 116
-0.99349, 145, 137, 176, 168
-0.993492, 113, 101, 144, 132
-0.993493, 209, 105, 240, 136
-0.993494, 281, 53, 344, 84
-0.993496, 417, 309, 480, 340
-0.993496, 317, 33, 348, 64
-0.993499, 321, 129, 352, 160
-0.9935, 193, 13, 224, 44
-0.99351, 197, 101, 228, 132
-0.993513, 361, 333, 392, 364
-0.993515, 337, 209, 400, 240
-0.993524, 301, 329, 332, 360
-0.993525, 217, 337, 280, 368
-0.99353, 361, 41, 392, 72
-0.993534, 181, 17, 212, 48
-0.993535, 241, 325, 304, 356
-0.993535, 197, 85, 228, 116
-0.993539, 313, 321, 344, 352
-0.993539, 33, 325, 96, 356
-0.993543, 385, 333, 448, 364
-0.993547, 249, 1, 280, 32
-0.993551, 237, 97, 268, 128
-0.993551, 317, 153, 348, 184
-0.993552, 337, 109, 368, 140
-0.993552, 257, 45, 320, 76
-0.993552, 209, 1, 240, 32
-0.993561, 257, 17, 288, 48
-0.993561, 193, 105, 448, 168
-0.993565, 193, 41, 256, 72
-0.993565, 337, 241, 400, 272
-0.993582, 337, 129, 464, 256
-0.993585, 309, 21, 340, 52
-0.993585, 297, 201, 360, 232
-0.993588, 401, 297, 464, 328
-0.993592, 329, 337, 360, 368
-0.993593, 249, 89, 280, 120
-0.993595, 449, 257, 480, 320
-0.993596, 313, 349, 344, 380
-0.993596, 197, 141, 228, 172
-0.9936, 373, 329, 404, 360
-0.99361, 269, 5, 300, 36
-0.993613, 1, 65, 128, 192
-0.993616, 301, 9, 332, 40
-0.993616, 345, 97, 376, 128
-0.993617, 137, 125, 168, 156
-0.993618, 109, 157, 140, 188
-0.993622, 349, 333, 380, 364
-0.993629, 433, 305, 464, 336
-0.993635, 177, 81, 208, 112
-0.993636, 221, 1, 252, 32
-0.993636, 353, 85, 384, 116
-0.993637, 157, 161, 188, 192
-0.993641, 425, 317, 456, 348
-0.993642, 417, 61, 448, 92
-0.993644, 285, 341, 316, 372
-0.993644, 441, 289, 472, 320
-0.993646, 309, 85, 340, 116
-0.993648, 65, 289, 128, 352
-0.993648, 9, 305, 72, 368
-0.993651, 317, 117, 348, 148
-0.993652, 345, 33, 376, 64
-0.993655, 337, 1, 368, 32
-0.993657, 397, 61, 428, 92
-0.993657, 449, 237, 480, 268
-0.993659, 113, 209, 240, 272
-0.993665, 321, 309, 352, 340
-0.993666, 129, 145, 160, 176
-0.993667, 265, 93, 296, 124
-0.993668, 141, 173, 172, 204
-0.993668, 169, 49, 200, 80
-0.993672, 145, 85, 176, 116
-0.993673, 257, 257, 320, 380
-0.993677, 445, 57, 476, 88
-0.99368, 337, 153, 368, 184
-0.993684, 113, 53, 144, 84
-0.993694, 245, 325, 276, 356
-0.993695, 289, 5, 320, 36
-0.993695, 409, 345, 440, 376
-0.993698, 353, 1, 416, 380
-0.993705, 433, 61, 464, 92
-0.993707, 333, 297, 364, 328
-0.99371, 413, 333, 444, 364
-0.993711, 241, 25, 272, 56
-0.993716, 449, 261, 480, 292
-0.993718, 309, 57, 340, 88
-0.993718, 273, 349, 304, 380
-0.993719, 105, 125, 136, 156
-0.993719, 393, 349, 424, 380
-0.993721, 297, 345, 328, 376
-0.993722, 157, 25, 188, 56
-0.993722, 257, 337, 288, 368
-0.993722, 285, 137, 316, 168
-0.993727, 157, 1, 188, 128
-0.993785, 321, 313, 352, 376
-0.993788, 233, 97, 296, 352
-0.993788, 273, 201, 400, 264
-0.993837, 17, 121, 144, 184
-0.993855, 225, 33, 288, 96
-0.99388, 257, 257, 384, 320
-0.993953, 237, 33, 268, 160
-0.993962, 153, 177, 216, 304
-0.994, 1, 193, 128, 256
-0.994064, 133, 145, 164, 272
-0.994076, 437, 289, 468, 352
-0.994111, 273, 49, 304, 176
-0.994111, 377, 33, 440, 96
-0.99414, 49, 321, 176, 380
-0.994151, 337, 217, 400, 280
-0.994162, 341, 321, 372, 380
-0.99417, 393, 265, 456, 328
-0.99424, 1, 97, 256, 160
-0.994244, 305, 257, 368, 320
-0.994272, 97, 81, 352, 144
-0.994316, 305, 233, 432, 296
-0.994337, 33, 313, 96, 376
-0.994367, 1, 265, 128, 328
-0.994426, 161, 73, 192, 136
-0.994438, 417, 321, 448, 380
-0.994462, 97, 49, 352, 112
-0.994491, 361, 33, 392, 160
-0.994502, 97, 209, 224, 336
-0.994508, 433, 225, 464, 352
-0.994627, 133, 1, 164, 128
-0.994695, 345, 9, 408, 72
-0.994719, 193, 113, 320, 144
-0.994771, 401, 1, 464, 128
-0.99483, 257, 9, 288, 72
-0.99483, 233, 81, 264, 144
-0.994833, 197, 73, 228, 136
-0.994933, 145, 297, 272, 360
-0.994962, 249, 97, 280, 224
-0.994971, 345, 89, 376, 152
-0.994988, 65, 49, 128, 176
-0.994991, 129, 321, 384, 380
-0.994995, 209, 57, 272, 120
-0.995019, 161, 169, 192, 232
-0.995029, 57, 321, 120, 380
-0.995032, 133, 121, 164, 184
-0.995072, 329, 65, 392, 128
-0.995072, 201, 305, 264, 368
-0.995075, 209, 33, 336, 96
-0.99508, 193, 125, 320, 156
-0.995112, 225, 321, 288, 380
-0.99512, 257, 49, 288, 176
-0.995128, 377, 113, 440, 240
-0.995134, 117, 41, 148, 104
-0.995137, 233, 1, 296, 64
-0.995187, 1, 33, 480, 96
-0.995244, 317, 73, 348, 136
-0.995293, 345, 81, 376, 208
-0.995307, 225, 313, 480, 376
-0.995309, 177, 225, 304, 288
-0.995311, 1, 217, 64, 280
-0.995313, 317, 153, 348, 216
-0.995322, 145, 177, 272, 240
-0.995369, 129, 101, 256, 132
-0.995395, 117, 17, 148, 144
-0.995433, 109, 145, 140, 208
-0.995437, 213, 1, 244, 64
-0.995442, 129, 233, 256, 296
-0.995465, 249, 1, 312, 380
-0.995472, 113, 209, 176, 272
-0.995481, 285, 1, 316, 64
-0.995502, 33, 129, 288, 192
-0.995536, 153, 313, 216, 376
-0.995576, 57, 257, 120, 380
-0.995583, 153, 201, 216, 264
-0.995587, 205, 1, 236, 128
-0.995622, 97, 137, 224, 168
-0.995649, 145, 209, 272, 336
-0.995664, 145, 57, 272, 120
-0.995685, 129, 153, 384, 216
-0.995685, 265, 81, 296, 144
-0.995703, 445, 209, 476, 336
-0.99572, 131, 65, 146, 128
-0.995742, 133, 33, 164, 96
-0.99577, 49, 265, 176, 328
-0.995785, 341, 17, 372, 80
-0.995787, 373, 321, 404, 380
-0.995826, 321, 349, 448, 380
-0.995838, 381, 49, 412, 176
-0.995876, 113, 149, 240, 180
-0.995877, 169, 105, 184, 168
-0.995886, 65, 289, 192, 352
-0.995947, 121, 73, 136, 136
-0.995964, 353, 81, 480, 144
-0.995994, 401, 33, 464, 288
-0.996004, 105, 65, 136, 192
-0.996011, 325, 161, 356, 288
-0.996019, 329, 257, 392, 320
-0.996043, 209, 129, 272, 192
-0.996047, 1, 73, 256, 136
-0.996059, 1, 73, 480, 136
-0.996079, 221, 89, 252, 152
-0.996087, 65, 185, 192, 248
-0.99609, 241, 337, 368, 368
-0.996099, 65, 225, 192, 288
-0.996115, 49, 265, 112, 328
-0.996123, 113, 113, 240, 144
-0.996152, 193, 201, 320, 264
-0.99616, 273, 349, 400, 380
-0.996206, 97, 77, 224, 108
-0.996209, 225, 33, 256, 160
-0.996233, 169, 129, 184, 192
-0.996238, 137, 65, 152, 128
-0.996256, 1, 321, 480, 380
-0.99626, 225, 281, 480, 344
-0.996273, 329, 241, 360, 368
-0.996285, 129, 89, 144, 152
-0.996305, 1, 153, 256, 216
-0.996316, 273, 113, 400, 144
-0.996318, 337, 113, 400, 176
-0.996331, 193, 177, 320, 304
-0.996359, 177, 1, 208, 256
-0.99636, 33, 1, 96, 128
-0.996403, 113, 129, 176, 380
-0.996407, 305, 57, 432, 88
-0.996424, 163, 105, 178, 168
-0.99643, 273, 45, 400, 76
-0.996437, 339, 33, 354, 96
-0.996498, 143, 57, 158, 120
-0.996527, 353, 313, 384, 376
-0.996529, 145, 129, 272, 160
-0.996545, 193, 101, 320, 132
-0.996558, 297, 65, 328, 128
-0.996563, 333, 1, 364, 256
-0.996578, 149, 57, 164, 120
-0.996586, 393, 49, 424, 176
-0.996587, 329, 113, 360, 176
-0.996606, 329, 65, 360, 128
-0.996609, 349, 41, 364, 104
-0.996622, 385, 321, 416, 380
-0.996629, 97, 265, 224, 328
-0.996642, 241, 101, 368, 132
-0.996643, 17, 1, 80, 380
-0.996652, 203, 105, 218, 168
-0.996656, 241, 1, 368, 32
-0.996659, 81, 97, 208, 128
-0.996661, 25, 281, 88, 344
-0.996679, 133, 129, 148, 192
-0.996683, 213, 121, 228, 184
-0.996683, 201, 129, 216, 192
-0.996683, 97, 125, 224, 156
-0.996704, 161, 37, 288, 68
-0.996717, 163, 129, 178, 192
-0.996735, 81, 1, 144, 380
-0.996749, 433, 57, 464, 120
-0.996752, 175, 137, 190, 200
-0.996782, 397, 57, 428, 120
-0.996782, 105, 313, 168, 376
-0.996798, 1, 129, 480, 192
-0.996807, 425, 297, 456, 360
-0.996809, 289, 337, 416, 368
-0.996809, 137, 153, 152, 216
-0.996811, 357, 49, 372, 112
-0.996811, 127, 129, 142, 192
-0.996822, 201, 25, 264, 88
-0.996829, 81, 153, 144, 216
-0.99685, 361, 33, 392, 96
-0.996854, 393, 89, 456, 152
-0.996859, 385, 57, 416, 120
-0.996861, 1, 41, 256, 104
-0.996863, 193, 81, 448, 144
-0.996868, 97, 65, 224, 96
-0.996874, 405, 49, 436, 176
-0.996875, 185, 225, 248, 288
-0.996886, 293, 113, 308, 176
-0.996904, 193, 257, 256, 380
-0.996908, 9, 225, 72, 352
-0.996931, 301, 1, 332, 64
-0.996954, 17, 97, 144, 160
-0.996962, 1, 97, 480, 160
-0.996968, 369, 153, 432, 216
-0.996971, 9, 57, 72, 120
-0.996993, 281, 233, 344, 296
-0.996993, 421, 241, 452, 368
-0.996997, 225, 349, 352, 380
-0.996999, 207, 129, 222, 192
-0.99703, 219, 121, 234, 184
-0.997077, 331, 9, 346, 72
-0.99708, 1, 9, 480, 72
-0.997107, 121, 97, 136, 160
-0.997118, 449, 57, 480, 120
-0.997137, 297, 297, 360, 360
-0.997138, 225, 41, 480, 104
-0.997139, 257, 33, 384, 64
-0.997145, 145, 257, 272, 380
-0.997146, 65, 1, 320, 64
-0.997176, 191, 89, 206, 152
-0.997193, 81, 321, 144, 380
-0.997194, 145, 25, 176, 88
-0.997211, 157, 97, 172, 160
-0.997226, 129, 53, 256, 84
-0.997237, 225, 121, 240, 184
-0.997259, 413, 57, 444, 120
-0.997262, 143, 161, 158, 224
-0.997268, 145, 89, 272, 120
-0.997268, 303, 113, 318, 176
-0.997273, 241, 17, 272, 80
-0.997294, 97, 169, 224, 200
-0.997294, 197, 97, 212, 160
-0.997304, 289, 325, 416, 356
-0.997305, 195, 9, 210, 72
-0.997343, 1, 161, 480, 224
-0.997348, 233, 105, 248, 168
-0.997353, 33, 81, 160, 112
-0.997361, 17, 193, 80, 256
-0.997361, 161, 225, 416, 288
-0.997369, 17, 1, 144, 64
-0.997378, 257, 89, 384, 120
-0.99738, 155, 57, 170, 120
-0.997382, 177, 1, 304, 32
-0.997385, 273, 125, 400, 156
-0.997393, 353, 129, 480, 192
-0.997416, 313, 137, 328, 200
-0.997424, 141, 97, 156, 160
-0.997425, 337, 45, 464, 76
-0.997431, 369, 161, 432, 288
-0.997435, 115, 81, 130, 144
-0.997436, 65, 157, 192, 188
-0.997446, 225, 257, 480, 320
-0.997446, 353, 61, 480, 92
-0.997447, 209, 249, 336, 312
-0.997457, 189, 1, 220, 256
-0.997457, 337, 337, 464, 368
-0.997462, 287, 113, 302, 176
-0.997489, 131, 153, 146, 216
-0.997519, 145, 169, 176, 232
-0.99752, 189, 17, 204, 80
-0.997538, 157, 129, 172, 192
-0.99754, 241, 13, 368, 44
-0.997542, 321, 1, 352, 256
-0.997549, 1, 169, 128, 232
-0.997559, 279, 121, 294, 184
-0.997575, 135, 97, 150, 160
-0.997581, 209, 97, 224, 160
-0.997586, 309, 97, 324, 160
-0.997604, 1, 241, 128, 304
-0.997609, 129, 297, 384, 360
-0.997618, 161, 1, 192, 256
-0.997628, 241, 325, 368, 356
-0.997637, 257, 97, 272, 160
-0.997639, 269, 1, 300, 64
-0.997655, 305, 5, 432, 36
-0.997674, 179, 97, 194, 160
-0.997676, 281, 97, 296, 160
-0.997687, 337, 1, 352, 64
-0.997699, 273, 321, 304, 380
-0.9977, 257, 73, 384, 104
-0.997703, 33, 93, 160, 124
-0.997704, 321, 309, 448, 340
-0.997706, 121, 121, 136, 184
-0.997723, 177, 273, 304, 336
-0.997725, 223, 97, 238, 160
-0.997738, 297, 321, 328, 380
-0.997754, 195, 121, 210, 184
-0.997754, 181, 137, 196, 200
-0.997757, 33, 53, 160, 84
-0.99776, 1, 145, 128, 208
-0.997769, 177, 337, 304, 368
-0.99778, 161, 21, 288, 52
-0.997786, 49, 129, 176, 160
-0.997797, 179, 161, 194, 224
-0.997806, 161, 165, 288, 196
-0.997807, 205, 1, 220, 64
-0.997809, 363, 49, 378, 112
-0.997816, 211, 1, 226, 64
-0.997819, 305, 77, 432, 108
-0.997822, 151, 97, 166, 160
-0.997823, 161, 193, 416, 256
-0.997823, 321, 321, 336, 380
-0.997824, 183, 25, 198, 88
-0.997841, 121, 49, 136, 112
-0.997855, 1, 297, 480, 360
-0.997864, 463, 249, 478, 312
-0.997867, 325, 121, 340, 184
-0.997889, 185, 161, 200, 224
-0.997895, 317, 257, 348, 380
-0.997897, 263, 97, 278, 160
-0.997916, 217, 1, 232, 64
-0.997946, 297, 121, 312, 152
-0.997956, 191, 153, 206, 216
-0.997959, 269, 105, 284, 168
-0.997965, 245, 1, 276, 256
-0.997969, 441, 233, 472, 296
-0.997973, 319, 129, 334, 192
-0.997985, 145, 233, 208, 296
-0.997988, 139, 129, 154, 192
-0.997993, 269, 1, 300, 128
-0.997997, 189, 65, 204, 128
-0.99802, 217, 97, 232, 160
-0.998037, 137, 157, 152, 188
-0.998061, 353, 245, 480, 276
-0.998062, 333, 33, 348, 96
-0.998069, 161, 141, 288, 172
-0.998091, 199, 73, 214, 136
-0.998094, 201, 97, 232, 352
-0.998095, 177, 33, 192, 96
-0.998113, 291, 117, 306, 148
-0.998116, 253, 73, 284, 136
-0.998132, 171, 41, 186, 104
-0.998133, 113, 29, 240, 60
-0.998143, 225, 169, 480, 232
-0.998144, 353, 325, 480, 356
-0.998154, 341, 41, 356, 72
-0.998154, 161, 49, 176, 112
-0.998156, 239, 105, 254, 168
-0.998159, 177, 153, 304, 184
-0.998159, 275, 97, 290, 160
-0.998167, 209, 193, 272, 256
-0.998172, 353, 257, 480, 288
-0.998174, 457, 257, 472, 320
-0.99818, 303, 125, 318, 156
-0.998183, 331, 121, 346, 184
-0.998184, 327, 153, 342, 216
-0.998186, 257, 61, 384, 92
-0.998186, 81, 41, 208, 72
-0.998187, 369, 257, 432, 380
-0.998188, 1, 313, 256, 376
-0.998195, 209, 313, 336, 344
-0.998196, 209, 129, 224, 160
-0.998198, 351, 321, 366, 380
-0.998202, 305, 17, 432, 48
-0.998203, 169, 129, 184, 160
-0.998207, 261, 9, 276, 72
-0.998211, 65, 105, 128, 168
-0.998228, 119, 77, 134, 108
-0.99823, 355, 49, 370, 80
-0.998231, 185, 89, 200, 152
-0.998232, 377, 327, 408, 342
-0.998232, 141, 141, 172, 156
-0.998233, 397, 63, 428, 78
-0.998234, 257, 19, 288, 34
-0.998234, 193, 155, 224, 170
-0.998234, 193, 17, 224, 32
-0.998235, 137, 51, 168, 66
-0.998235, 5, 217, 36, 232
-0.998236, 129, 153, 160, 168
-0.998237, 197, 115, 228, 130
-0.998237, 321, 7, 352, 22
-0.998237, 197, 89, 228, 104
-0.998237, 285, 113, 300, 144
-0.998238, 249, 339, 280, 354
-0.998238, 317, 135, 348, 150
-0.998239, 141, 173, 172, 188
-0.998241, 217, 107, 248, 122
-0.998241, 357, 45, 388, 60
-0.998243, 301, 137, 316, 200
-0.998243, 177, 173, 208, 188
-0.998243, 341, 33, 372, 48
-0.998244, 309, 365, 340, 380
-0.998244, 289, 115, 320, 130
-0.998244, 137, 129, 168, 144
-0.998245, 265, 363, 296, 378
-0.998245, 17, 65, 144, 96
-0.998246, 321, 17, 352, 32
-0.998247, 109, 65, 140, 80
-0.998247, 353, 81, 368, 144
-0.998248, 277, 109, 308, 124
-0.998248, 161, 165, 192, 180
-0.99825, 417, 61, 448, 76
-0.998251, 257, 115, 288, 130
-0.998251, 197, 11, 228, 26
-0.998252, 305, 27, 336, 42
-0.998252, 433, 61, 464, 76
-0.998253, 153, 105, 184, 120
-0.998253, 337, 113, 368, 128
-0.998254, 313, 327, 344, 342
-0.998254, 349, 39, 380, 54
-0.998254, 125, 57, 156, 72
-0.998255, 253, 1, 284, 16
-0.998256, 317, 161, 348, 176
-0.998256, 269, 103, 300, 118
-0.998257, 347, 17, 362, 80
-0.998258, 209, 7, 240, 22
-0.998258, 157, 149, 188, 164
-0.998258, 337, 5, 368, 20
-0.99826, 269, 81, 284, 144
-0.99826, 357, 341, 388, 356
-0.99826, 353, 53, 384, 68
-0.998261, 273, 137, 400, 168
-0.998262, 129, 273, 384, 336
-0.998262, 117, 125, 148, 140
-0.998263, 261, 109, 292, 124
-0.998263, 291, 89, 306, 152
-0.998264, 105, 79, 136, 94
-0.998264, 181, 107, 212, 122
-0.998264, 177, 89, 208, 104
-0.998265, 109, 99, 140, 114
-0.998265, 273, 9, 304, 24
-0.998265, 181, 27, 212, 42
-0.998266, 305, 141, 336, 156
-0.998267, 117, 131, 148, 146
-0.998267, 197, 103, 228, 118
-0.998267, 313, 355, 344, 370
-0.998268, 173, 149, 204, 164
-0.998268, 249, 101, 280, 116
-0.998269, 321, 23, 352, 38
-0.998274, 105, 123, 136, 138
-0.998275, 225, 297, 288, 360
-0.998276, 329, 343, 360, 358
-0.998277, 433, 305, 448, 368
-0.99828, 197, 137, 228, 152
-0.998285, 321, 33, 352, 48
-0.998285, 185, 127, 216, 142
-0.998286, 117, 157, 148, 172
-0.998287, 177, 41, 208, 56
-0.998287, 189, 97, 220, 352
-0.998288, 117, 87, 148, 102
-0.998288, 333, 11, 364, 26
-0.998288, 191, 93, 206, 124
-0.998288, 97, 87, 128, 102
-0.998292, 185, 161, 216, 176
-0.998294, 125, 93, 156, 108
-0.998295, 165, 101, 196, 116
-0.998297, 161, 129, 192, 144
-0.9983, 361, 59, 392, 74
-0.9983, 165, 47, 196, 62
-0.9983, 81, 53, 208, 84
-0.9983, 113, 163, 144, 178
-0.9983, 145, 167, 176, 182
-0.998301, 193, 89, 320, 120
-0.998301, 129, 71, 160, 86
-0.998302, 169, 153, 184, 216
-0.998302, 321, 363, 352, 378
-0.998303, 129, 171, 160, 186
-0.998306, 261, 121, 292, 136
-0.998306, 305, 119, 336, 134
-0.998307, 297, 109, 328, 124
-0.998308, 117, 81, 148, 96
-0.998309, 125, 103, 156, 118
-0.99831, 321, 349, 352, 364
-0.998312, 225, 121, 256, 136
-0.998312, 177, 143, 208, 158
-0.998314, 321, 1, 352, 16
-0.998315, 345, 33, 376, 288
-0.998316, 121, 119, 152, 134
-0.998319, 309, 1, 340, 256
-0.998319, 131, 157, 146, 188
-0.998322, 281, 265, 344, 328
-0.998325, 129, 1, 160, 256
-0.998325, 197, 131, 228, 146
-0.998325, 121, 113, 152, 128
-0.998326, 325, 17, 340, 80
-0.998326, 305, 131, 336, 146
-0.998329, 157, 141, 188, 156
-0.998329, 157, 53, 188, 68
-0.998329, 353, 269, 480, 300
-0.99833, 105, 93, 136, 108
-0.99833, 349, 347, 380, 362
-0.998332, 229, 115, 260, 130
-0.998333, 117, 75, 148, 90
-0.998334, 149, 1, 180, 256
-0.998336, 133, 65, 164, 80
-0.998337, 181, 35, 212, 50
-0.998338, 189, 97, 220, 112
-0.998338, 125, 165, 156, 180
-0.99834, 165, 171, 196, 186
-0.998345, 181, 133, 212, 148
-0.998345, 141, 59, 172, 74
-0.998349, 163, 129, 178, 160
-0.998349, 177, 101, 208, 116
-0.998351, 327, 321, 342, 380
-0.998354, 197, 121, 228, 136
-0.998356, 177, 167, 208, 182
-0.998356, 329, 357, 360, 372
-0.998357, 277, 115, 308, 130
-0.998361, 209, 131, 240, 146
-0.998361, 293, 137, 324, 152
-0.998362, 225, 129, 480, 192
-0.998362, 203, 133, 218, 164
-0.998363, 145, 99, 176, 114
-0.998365, 329, 39, 360, 54
-0.998365, 321, 97, 448, 128
-0.998366, 311, 321, 326, 380
-0.998366, 337, 351, 368, 366
-0.998368, 237, 109, 268, 124
-0.99837, 41, 1, 104, 380
-0.998371, 293, 133, 308, 164
-0.998371, 321, 81, 336, 144
-0.998372, 217, 125, 232, 156
-0.998374, 341, 51, 372, 66
-0.998374, 225, 49, 352, 80
-0.998379, 127, 101, 142, 132
-0.998383, 113, 9, 176, 72
-0.998384, 281, 131, 312, 146
-0.998384, 225, 137, 352, 168
-0.998386, 49, 145, 176, 176
-0.998387, 201, 113, 216, 144
-0.99839, 129, 159, 160, 174
-0.998391, 307, 137, 322, 200
-0.998391, 341, 321, 356, 380
-0.998394, 297, 1, 328, 256
-0.998396, 199, 97, 214, 128
-0.9984, 341, 201, 372, 264
-0.998404, 249, 107, 280, 122
-0.998407, 161, 95, 192, 110
-0.998407, 337, 45, 368, 60
-0.998407, 209, 1, 240, 256
-0.998408, 213, 125, 244, 140
-0.998408, 273, 125, 304, 140
-0.998415, 273, 1, 304, 256
-0.99842, 161, 321, 288, 352
-0.99842, 355, 25, 370, 88
-0.998422, 295, 137, 310, 200
-0.998423, 225, 121, 240, 152
-0.998426, 349, 45, 364, 76
-0.998426, 149, 169, 164, 232
-0.998431, 333, 233, 364, 296
-0.998432, 333, 1, 348, 32
-0.998443, 121, 97, 136, 128
-0.998444, 251, 97, 266, 160
-0.998449, 161, 135, 192, 150
-0.99845, 133, 33, 148, 96
-0.998464, 417, 33, 448, 160
-0.998464, 293, 127, 324, 142
-0.998464, 177, 95, 208, 110
-0.998468, 125, 73, 140, 104
-0.998471, 235, 109, 250, 140
-0.998482, 285, 121, 316, 136
-0.998483, 33, 289, 288, 352
-0.998488, 193, 153, 320, 216
-0.998489, 285, 313, 316, 376
-0.998489, 185, 161, 200, 192
-0.998494, 341, 349, 356, 380
-0.998499, 287, 1, 302, 64
-0.998499, 279, 117, 294, 148
-0.998502, 321, 113, 448, 144
-0.998503, 333, 313, 348, 376
-0.998503, 167, 81, 182, 144
-0.998506, 229, 81, 244, 144
-0.998508, 443, 289, 458, 352
-0.99851, 97, 57, 128, 120
-0.998516, 183, 93, 198, 124
-0.998516, 193, 177, 320, 240
-0.998518, 189, 49, 220, 112
-0.998523, 287, 129, 302, 160
-0.998524, 285, 1, 316, 256
-0.998529, 337, 33, 464, 64
-0.998531, 135, 65, 150, 96
-0.998533, 337, 297, 464, 328
-0.998534, 129, 113, 144, 144
-0.998539, 143, 161, 158, 192
-0.998545, 347, 349, 362, 380
-0.998549, 309, 297, 340, 360
-0.998551, 233, 109, 296, 124
-0.998554, 133, 101, 148, 132
-0.998557, 353, 249, 416, 312
-0.99856, 269, 129, 300, 192
-0.99856, 153, 95, 216, 110
-0.998561, 411, 57, 426, 120
-0.998563, 343, 97, 358, 160
-0.998568, 337, 113, 352, 176
-0.998568, 179, 165, 194, 196
-0.998569, 257, 245, 384, 276
-0.998571, 153, 133, 216, 148
-0.998572, 451, 265, 466, 328
-0.998578, 255, 9, 270, 72
-0.99858, 423, 321, 438, 380
-0.998581, 329, 65, 344, 128
-0.998583, 137, 163, 200, 178
-0.998584, 173, 97, 204, 352
-0.998587, 235, 81, 250, 144
-0.998588, 289, 127, 352, 142
-0.998592, 161, 127, 224, 142
-0.998598, 337, 351, 400, 366
-0.998598, 153, 139, 216, 154
-0.998598, 49, 169, 176, 200
-0.9986, 263, 105, 278, 136
-0.998603, 229, 1, 260, 256
-0.998603, 249, 209, 312, 272
-0.998605, 233, 115, 296, 130
-0.998607, 361, 113, 424, 176
-0.998607, 121, 101, 184, 116
-0.998612, 333, 161, 348, 224
-0.998616, 137, 169, 152, 200
-0.998616, 273, 313, 400, 344
-0.998616, 193, 115, 256, 130
-0.998619, 321, 229, 448, 260
-0.99862, 141, 97, 156, 128
-0.99862, 141, 61, 156, 92
-0.998621, 281, 121, 344, 136
-0.998621, 449, 57, 464, 120
-0.998624, 223, 1, 238, 64
-0.998625, 161, 101, 224, 116
-0.998626, 449, 49, 480, 176
-0.998627, 201, 129, 264, 144
-0.998629, 177, 133, 240, 148
-0.99863, 257, 125, 320, 140
-0.998632, 329, 357, 392, 372
-0.998636, 261, 73, 276, 136
-0.998636, 289, 5, 352, 20
-0.998638, 145, 137, 160, 200
-0.998641, 321, 53, 384, 68
-0.998642, 153, 145, 216, 160
-0.998643, 309, 129, 324, 160
-0.998643, 185, 123, 248, 138
-0.998645, 357, 321, 372, 380
-0.998645, 147, 33, 162, 96
-0.998646, 253, 105, 268, 136
-0.998649, 1, 217, 480, 280
-0.99865, 257, 131, 320, 146
-0.998651, 193, 107, 256, 122
-0.998651, 353, 345, 368, 376
-0.998652, 153, 53, 216, 68
-0.998652, 177, 95, 240, 110
-0.998653, 281, 357, 344, 372
-0.998654, 359, 73, 374, 136
-0.998654, 353, 281, 480, 312
-0.998654, 313, 47, 376, 62
-0.998657, 265, 365, 328, 380
-0.998658, 265, 113, 328, 128
-0.998659, 145, 169, 208, 184
-0.99866, 1, 185, 480, 248
-0.99866, 289, 351, 352, 366
-0.99866, 113, 127, 176, 142
-0.998664, 329, 13, 344, 44
-0.998664, 353, 59, 416, 74
-0.998666, 177, 165, 240, 180
-0.998666, 81, 93, 144, 108
-0.998667, 97, 159, 160, 174
-0.998668, 305, 41, 368, 56
-0.998669, 163, 153, 178, 216
-0.99867, 97, 165, 160, 180
-0.998671, 129, 67, 192, 82
-0.998671, 137, 61, 200, 76
-0.998673, 225, 121, 288, 136
-0.998674, 273, 137, 336, 152
-0.998674, 113, 77, 176, 92
-0.998676, 177, 349, 304, 380
-0.998679, 399, 57, 414, 120
-0.99868, 345, 345, 408, 360
-0.99868, 195, 49, 210, 112
-0.998681, 329, 59, 392, 74
-0.998681, 113, 85, 176, 100
-0.998681, 151, 137, 166, 200
-0.998683, 113, 95, 176, 110
-0.998686, 177, 35, 240, 50
-0.998686, 225, 1, 288, 16
-0.998689, 121, 169, 184, 184
-0.998689, 297, 345, 360, 360
-0.99869, 153, 107, 216, 122
-0.998691, 169, 43, 232, 58
-0.998691, 265, 107, 328, 122
-0.998692, 129, 141, 192, 156
-0.998693, 313, 81, 376, 96
-0.998694, 161, 25, 176, 88
-0.998694, 321, 363, 384, 378
-0.998695, 321, 65, 384, 80
-0.998696, 297, 133, 360, 148
-0.998697, 129, 133, 192, 148
-0.998697, 297, 11, 360, 26
-0.998698, 271, 109, 286, 140
-0.998698, 145, 151, 208, 166
-0.998699, 297, 115, 360, 130
-0.998699, 417, 251, 480, 266
-0.998699, 183, 65, 198, 128
-0.9987, 265, 101, 328, 116
-0.998701, 329, 5, 392, 20
-0.998703, 177, 139, 240, 154
-0.998705, 73, 81, 136, 96
-0.998705, 169, 171, 232, 186
-0.998706, 321, 73, 384, 88
-0.998706, 137, 175, 200, 190
-0.998706, 161, 129, 192, 380
-0.998707, 313, 351, 376, 366
-0.998707, 121, 147, 184, 162
-0.998707, 321, 129, 352, 380
-0.998707, 377, 329, 440, 344
-0.998708, 97, 119, 160, 134
-0.998709, 369, 359, 432, 374
-0.998709, 161, 121, 224, 136
-0.99871, 241, 103, 304, 118
-0.99871, 305, 89, 368, 104
-0.998711, 305, 95, 368, 110
-0.998711, 73, 87, 136, 102
-0.998711, 409, 61, 472, 76
-0.998712, 353, 47, 416, 62
-0.998713, 193, 101, 256, 116
-0.998713, 297, 109, 360, 124
-0.998714, 249, 7, 312, 22
-0.998714, 289, 33, 352, 48
-0.998715, 331, 345, 346, 376
-0.998715, 81, 67, 144, 82
-0.998715, 153, 57, 168, 88
-0.998716, 137, 157, 200, 172
-0.998716, 281, 27, 344, 42
-0.998716, 129, 55, 192, 70
-0.998718, 321, 11, 384, 26
-0.998718, 97, 57, 160, 72
-0.998719, 249, 337, 312, 352
-0.998719, 353, 53, 416, 68
-0.998721, 257, 119, 320, 134
-0.998722, 97, 113, 160, 128
-0.998722, 241, 301, 368, 332
-0.998722, 321, 345, 384, 360
-0.998723, 313, 23, 376, 38
-0.998723, 185, 89, 248, 104
-0.998723, 201, 135, 264, 150
-0.998724, 321, 17, 384, 32
-0.998725, 305, 101, 368, 116
-0.998725, 177, 29, 240, 44
-0.998725, 361, 339, 424, 354
-0.998726, 257, 1, 320, 16
-0.998726, 185, 159, 248, 174
-0.998726, 337, 109, 400, 124
-0.998727, 417, 257, 480, 272
-0.998728, 121, 121, 184, 136
-0.998728, 305, 329, 368, 344
-0.998729, 193, 9, 256, 24
-0.998729, 385, 323, 448, 338
-0.998729, 89, 125, 152, 140
-0.99873, 305, 237, 368, 252
-0.998731, 153, 33, 216, 48
-0.998731, 369, 349, 432, 364
-0.998731, 305, 357, 368, 372
-0.998731, 329, 159, 392, 174
-0.998731, 289, 17, 352, 32
-0.998731, 353, 65, 416, 80
-0.998732, 177, 145, 240, 160
-0.998732, 105, 51, 168, 66
-0.998733, 337, 39, 400, 54
-0.998733, 353, 79, 416, 94
-0.998735, 321, 209, 448, 240
-0.998735, 305, 339, 368, 354
-0.998736, 329, 119, 392, 134
-0.998737, 281, 143, 344, 158
-0.998737, 257, 13, 320, 28
-0.998738, 185, 15, 248, 30
-0.998747, 281, 65, 344, 128
-0.998754, 335, 37, 350, 68
-0.998754, 161, 53, 176, 84
-0.998758, 299, 137, 314, 168
-0.998759, 373, 33, 404, 96
-0.998759, 81, 17, 208, 48
-0.998762, 49, 117, 176, 148
-0.998763, 243, 109, 258, 140
-0.99877, 117, 1, 148, 256
-0.998771, 153, 97, 168, 128
-0.998774, 147, 57, 162, 88
-0.998776, 257, 261, 384, 292
-0.998777, 327, 153, 342, 184
-0.998779, 161, 1, 224, 64
-0.998782, 345, 209, 376, 336
-0.998786, 191, 153, 206, 184
-0.998789, 191, 105, 206, 136
-0.998792, 25, 25, 88, 88
-0.998803, 277, 105, 292, 136
-0.998808, 17, 317, 144, 348
-0.998813, 325, 349, 340, 380
-0.998822, 125, 153, 140, 184
-0.998823, 327, 1, 342, 32
-0.998825, 147, 97, 162, 128
-0.998826, 173, 169, 188, 200
-0.998831, 297, 109, 312, 140
-0.998837, 273, 213, 400, 244
-0.998839, 259, 93, 274, 124
-0.998841, 161, 101, 176, 132
-0.998849, 171, 149, 186, 180
-0.99885, 305, 97, 336, 352
-0.998852, 175, 37, 190, 68
-0.998852, 321, 197, 448, 228
-0.998855, 195, 125, 210, 156
-0.998858, 177, 209, 240, 336
-0.998864, 169, 45, 184, 76
-0.998869, 339, 1, 354, 32
-0.998871, 119, 121, 134, 152
-0.998872, 97, 349, 224, 380
-0.998879, 463, 253, 478, 284
-0.998882, 137, 289, 200, 352
-0.998883, 359, 341, 374, 372
-0.998885, 257, 229, 384, 260
-0.998888, 113, 81, 128, 112
-0.998889, 253, 321, 284, 380
-0.998895, 195, 13, 210, 44
-0.9989, 323, 21, 338, 52
-0.998901, 177, 97, 192, 128
-0.998902, 175, 133, 190, 164
-0.998911, 185, 21, 200, 52
-0.998913, 189, 81, 204, 112
-0.998914, 127, 89, 142, 120
-0.998915, 1, 201, 256, 264
-0.99892, 361, 53, 376, 84
-0.998925, 177, 297, 240, 360
-0.998932, 321, 125, 448, 156
-0.998933, 319, 145, 334, 176
-0.998936, 65, 177, 320, 240
-0.99894, 65, 73, 128, 136
-0.998942, 241, 153, 368, 184
-0.99895, 343, 337, 358, 368
-0.998951, 171, 93, 186, 124
-0.998952, 209, 117, 224, 148
-0.998954, 113, 209, 240, 240
-0.998959, 9, 1, 72, 128
-0.998964, 157, 137, 172, 168
-0.998965, 129, 249, 384, 312
-0.998972, 281, 25, 312, 88
-0.998973, 321, 177, 448, 208
-0.998975, 307, 333, 322, 364
-0.998978, 385, 209, 448, 272
-0.998985, 209, 25, 336, 56
-0.998987, 197, 141, 212, 172
-0.998987, 313, 141, 328, 172
-0.998988, 227, 105, 242, 136
-0.998988, 181, 33, 196, 64
-0.998989, 1, 281, 64, 344
-0.998992, 1, 213, 128, 244
-0.998994, 169, 1, 200, 64
-0.999004, 253, 93, 268, 124
-0.999013, 65, 29, 192, 60
-0.999023, 135, 145, 150, 176
-0.999028, 219, 1, 234, 32
-0.999032, 221, 109, 236, 140
-0.999033, 281, 73, 312, 136
-0.999034, 321, 161, 448, 192
-0.999035, 273, 165, 400, 196
-0.999035, 231, 121, 246, 152
-0.99904, 33, 105, 160, 136
-0.999042, 305, 257, 336, 380
-0.999042, 105, 185, 168, 248
-0.999043, 323, 77, 338, 108
-0.999047, 273, 201, 400, 232
-0.99905, 167, 173, 182, 204
-0.99905, 353, 33, 368, 64
-0.99905, 133, 53, 148, 84
-0.999051, 133, 49, 148, 176
-0.999052, 213, 97, 244, 352
-0.999054, 163, 149, 178, 180
-0.999057, 141, 97, 172, 352
-0.999058, 127, 57, 142, 88
-0.999058, 315, 129, 330, 160
-0.999062, 201, 85, 216, 116
-0.999062, 129, 9, 256, 40
-0.999063, 113, 321, 240, 352
-0.999067, 215, 113, 230, 144
-0.999068, 177, 145, 192, 176
-0.999069, 347, 29, 362, 60
-0.999071, 133, 89, 148, 120
-0.999071, 17, 217, 144, 280
-0.999072, 187, 33, 202, 64
-0.999076, 341, 25, 356, 56
-0.999077, 147, 49, 162, 176
-0.999077, 349, 333, 364, 364
-0.999083, 301, 337, 316, 368
-0.999087, 333, 161, 348, 192
-0.999092, 17, 333, 144, 364
-0.999094, 141, 49, 156, 176
-0.999096, 313, 329, 328, 360
-0.999098, 329, 33, 344, 64
-0.9991, 339, 109, 354, 140
-0.9991, 305, 113, 320, 144
-0.9991, 163, 89, 178, 120
-0.999103, 283, 101, 298, 132
-0.999107, 433, 57, 448, 88
-0.999108, 341, 33, 356, 160
-0.99911, 125, 133, 140, 164
-0.99911, 157, 49, 172, 176
-0.999118, 327, 313, 342, 344
-0.999119, 193, 29, 208, 60
-0.999119, 365, 41, 380, 72
-0.999125, 397, 305, 428, 368
-0.999126, 317, 85, 332, 116
-0.999129, 337, 337, 352, 368
-0.999129, 171, 105, 186, 136
-0.999132, 129, 321, 192, 380
-0.999132, 115, 93, 130, 124
-0.999132, 305, 149, 432, 180
-0.999133, 141, 49, 156, 80
-0.999138, 417, 81, 480, 144
-0.999157, 25, 257, 88, 320
-0.999159, 349, 33, 364, 160
-0.999168, 167, 81, 182, 208
-0.99918, 273, 277, 400, 308
-0.999191, 333, 97, 364, 352
-0.999193, 129, 181, 256, 212
-0.999195, 209, 73, 336, 104
-0.999196, 353, 73, 480, 104
-0.999196, 257, 189, 384, 220
-0.999201, 185, 161, 216, 288
-0.999203, 1, 265, 128, 296
-0.999213, 1, 241, 480, 304
-0.999215, 241, 289, 368, 320
-0.999222, 137, 97, 152, 224
-0.999223, 355, 33, 370, 160
-0.999224, 1, 305, 128, 336
-0.999231, 81, 333, 208, 364
-0.999231, 357, 1, 388, 256
-0.999234, 169, 129, 184, 256
-0.999234, 289, 17, 320, 144
-0.999244, 49, 345, 176, 376
-0.999253, 209, 217, 272, 280
-0.999266, 49, 193, 176, 224
-0.999276, 327, 65, 342, 192
-0.999281, 345, 129, 408, 380
-0.999283, 449, 281, 480, 344
-0.999285, 241, 177, 368, 208
-0.999286, 1, 273, 480, 336
-0.999289, 81, 221, 208, 252
-0.999289, 193, 1, 208, 128
-0.999291, 305, 241, 432, 272
-0.999292, 179, 81, 194, 208
-0.999298, 209, 113, 224, 240
-0.999299, 369, 89, 432, 152
-0.999301, 261, 1, 292, 256
-0.999302, 163, 33, 178, 160
-0.999303, 333, 1, 348, 128
-0.999303, 163, 129, 178, 256
-0.999308, 293, 97, 324, 352
-0.999314, 305, 257, 432, 288
-0.999317, 161, 305, 288, 336
-0.999319, 33, 265, 288, 328
-0.999321, 173, 81, 188, 208
-0.999325, 317, 65, 332, 192
-0.999328, 161, 77, 288, 108
-0.999332, 191, 97, 206, 224
-0.999333, 129, 333, 256, 364
-0.999339, 289, 297, 416, 328
-0.999343, 357, 81, 388, 144
-0.999345, 127, 65, 142, 192
-0.999346, 81, 269, 208, 300
-0.999352, 105, 17, 136, 144
-0.999355, 201, 65, 216, 192
-0.999358, 309, 81, 324, 208
-0.999364, 183, 17, 198, 144
-0.999367, 269, 97, 300, 352
-0.999375, 17, 285, 144, 316
-0.999379, 233, 57, 296, 120
-0.999381, 203, 113, 218, 240
-0.999384, 209, 225, 336, 256
-0.999386, 215, 81, 230, 208
-0.999387, 169, 33, 184, 160
-0.999397, 233, 257, 296, 380
-0.999399, 175, 129, 190, 256
-0.999405, 229, 17, 260, 80
-0.999411, 81, 145, 144, 272
-0.999412, 157, 97, 172, 224
-0.999416, 199, 1, 214, 128
-0.999419, 143, 97, 158, 224
-0.999419, 161, 233, 288, 264
-0.99942, 327, 1, 342, 128
-0.999421, 225, 97, 256, 352
-0.999434, 221, 113, 236, 240
-0.999441, 97, 193, 224, 224
-0.999442, 229, 97, 244, 224
-0.999447, 17, 157, 144, 188
-0.999448, 209, 65, 224, 192
-0.999453, 365, 51, 380, 66
-0.999453, 315, 129, 330, 256
-0.999454, 199, 117, 214, 132
-0.999454, 215, 121, 230, 136
-0.999454, 323, 33, 338, 48
-0.999455, 325, 355, 340, 370
-0.999455, 221, 65, 236, 192
-0.999456, 341, 35, 356, 50
-0.999456, 339, 345, 354, 360
-0.999456, 329, 15, 344, 30
-0.999457, 171, 149, 186, 164
-0.999457, 317, 145, 332, 160
-0.999457, 465, 251, 480, 266
-0.999457, 325, 153, 340, 168
-0.999458, 165, 143, 180, 158
-0.999458, 121, 89, 136, 104
-0.999458, 179, 143, 194, 158
-0.999459, 181, 163, 196, 178
-0.999459, 273, 123, 288, 138
-0.99946, 321, 323, 336, 338
-0.99946, 1, 145, 128, 176
-0.999461, 175, 103, 190, 118
-0.999462, 307, 335, 322, 350
-0.999462, 169, 167, 184, 182
-0.999463, 417, 161, 480, 288
-0.999465, 145, 173, 160, 188
-0.999465, 137, 101, 152, 116
-0.999466, 195, 135, 210, 150
-0.999467, 167, 105, 182, 120
-0.999467, 275, 105, 290, 120
-0.999467, 193, 33, 208, 48
-0.999468, 81, 25, 144, 88
-0.999468, 435, 61, 450, 76
-0.999469, 445, 61, 460, 76
-0.999469, 123, 103, 138, 118
-0.999469, 333, 349, 348, 364
-0.999471, 339, 5, 354, 20
-0.999471, 193, 107, 208, 122
-0.999472, 271, 365, 286, 380
-0.999472, 125, 77, 140, 92
-0.999472, 465, 257, 480, 272
-0.999472, 175, 135, 190, 150
-0.999473, 179, 37, 194, 52
-0.999473, 301, 111, 316, 126
-0.999474, 127, 121, 142, 136
-0.999474, 321, 365, 336, 380
-0.999475, 131, 129, 146, 256
-0.999475, 313, 331, 328, 346
-0.999476, 325, 21, 340, 36
-0.999477, 183, 31, 198, 46
-0.999478, 173, 45, 188, 60
-0.999478, 329, 37, 344, 52
-0.999478, 169, 175, 184, 190
-0.999479, 303, 65, 318, 192
-0.99948, 147, 99, 162, 114
-0.999481, 279, 111, 294, 126
-0.999484, 109, 85, 124, 100
-0.999484, 131, 97, 146, 112
-0.999485, 365, 57, 380, 72
-0.999486, 359, 343, 374, 358
-0.999486, 329, 159, 344, 174
-0.999486, 285, 113, 300, 240
-0.999487, 123, 157, 138, 172
-0.999487, 151, 1, 166, 128
-0.999489, 119, 125, 134, 140
-0.99949, 333, 297, 364, 360
-0.99949, 175, 33, 190, 160
-0.999492, 145, 167, 160, 182
-0.999493, 185, 81, 200, 208
-0.999493, 327, 113, 342, 240
-0.999493, 305, 123, 320, 138
-0.999494, 191, 159, 206, 174
-0.999495, 119, 83, 134, 98
-0.999496, 161, 103, 176, 118
-0.999496, 373, 297, 404, 360
-0.999496, 335, 11, 350, 26
-0.999496, 235, 97, 250, 224
-0.999498, 65, 321, 192, 352
-0.999499, 175, 165, 190, 180
-0.9995, 183, 101, 198, 116
-0.999501, 199, 105, 214, 120
-0.999501, 167, 49, 182, 64
-0.999501, 313, 133, 328, 148
-0.999502, 115, 91, 130, 106
-0.999503, 131, 111, 146, 126
-0.999503, 173, 97, 188, 112
-0.999503, 251, 107, 266, 122
-0.999505, 129, 103, 144, 118
-0.999507, 405, 33, 436, 288
-0.999507, 81, 257, 144, 380
-0.999507, 163, 133, 178, 148
-0.999507, 233, 119, 248, 134
-0.999509, 327, 363, 342, 378
-0.99951, 311, 141, 326, 156
-0.99951, 307, 107, 322, 122
-0.99951, 269, 111, 284, 126
-0.999512, 361, 49, 376, 176
-0.999512, 197, 129, 212, 256
-0.999512, 295, 115, 310, 130
-0.999512, 155, 99, 170, 114
-0.999515, 353, 347, 368, 362
-0.999515, 275, 117, 290, 132
-0.999519, 283, 129, 298, 144
-0.999519, 127, 163, 142, 178
-0.99952, 401, 1, 432, 128
-0.99952, 169, 131, 184, 146
-0.999521, 209, 1, 224, 128
-0.999521, 141, 63, 156, 78
-0.999521, 303, 139, 318, 154
-0.999521, 161, 53, 176, 68
-0.999523, 209, 61, 336, 92
-0.999524, 139, 171, 154, 186
-0.999524, 333, 1, 348, 16
-0.999525, 243, 109, 258, 124
-0.999526, 265, 1, 280, 128
-0.999527, 121, 97, 136, 112
-0.999527, 175, 171, 190, 186
-0.999527, 157, 1, 172, 128
-0.999528, 149, 59, 164, 74
-0.999528, 227, 121, 242, 136
-0.999529, 187, 165, 202, 180
-0.999532, 203, 135, 218, 150
-0.999534, 295, 129, 310, 256
-0.999535, 335, 97, 350, 224
-0.999535, 333, 359, 348, 374
-0.999535, 133, 167, 148, 182
-0.999537, 155, 57, 170, 72
-0.999537, 151, 97, 166, 224
-0.999538, 285, 115, 300, 130
-0.999542, 199, 129, 214, 144
-0.999542, 261, 105, 276, 120
-0.999543, 183, 95, 198, 110
-0.999545, 121, 65, 136, 192
-0.999546, 347, 351, 362, 366
-0.999546, 341, 355, 356, 370
-0.999548, 201, 99, 216, 114
-0.999548, 335, 37, 350, 52
-0.99955, 297, 65, 312, 192
-0.999551, 237, 113, 252, 128
-0.999552, 129, 71, 144, 86
-0.999553, 301, 117, 316, 132
-0.999554, 321, 113, 336, 240
-0.999554, 295, 135, 310, 150
-0.999557, 135, 67, 150, 82
-0.999559, 119, 77, 134, 92
-0.999559, 341, 97, 356, 224
-0.99956, 33, 241, 288, 304
-0.999561, 221, 125, 236, 140
-0.999562, 347, 45, 362, 60
-0.999563, 355, 51, 370, 66
-0.999564, 289, 131, 304, 146
-0.999566, 193, 49, 208, 176
-0.999567, 279, 113, 294, 240
-0.999568, 369, 33, 400, 288
-0.99957, 137, 145, 152, 272
-0.999571, 279, 123, 294, 138
-0.999571, 281, 33, 296, 160
-0.999574, 259, 1, 274, 128
-0.999574, 305, 131, 320, 146
-0.999575, 215, 127, 230, 142
-0.999577, 181, 169, 196, 184
-0.999579, 309, 129, 324, 256
-0.99958, 281, 97, 312, 352
-0.999586, 269, 97, 284, 224
-0.999587, 133, 157, 148, 172
-0.999588, 393, 33, 424, 288
-0.999589, 139, 161, 154, 176
-0.999589, 303, 113, 318, 240
-0.999595, 341, 41, 356, 56
-0.999597, 335, 49, 350, 176
-0.999598, 1, 177, 64, 304
-0.9996, 227, 33, 242, 160
-0.999602, 287, 65, 302, 192
-0.999605, 157, 145, 172, 272
-0.999607, 361, 257, 392, 380
-0.999607, 209, 131, 224, 146
-0.999608, 351, 257, 366, 380
-0.999609, 139, 1, 154, 128
-0.999611, 321, 1, 336, 128
-0.999611, 191, 95, 206, 110
-0.999612, 351, 81, 366, 208
-0.999616, 157, 177, 188, 304
-0.999619, 125, 113, 140, 240
-0.999622, 145, 1, 160, 128
-0.999626, 317, 97, 348, 160
-0.999628, 215, 33, 230, 160
-0.999629, 287, 121, 302, 136
-0.999631, 457, 257, 472, 380
-0.999635, 143, 145, 158, 272
-0.999637, 253, 33, 284, 96
-0.999637, 193, 313, 224, 376
-0.999638, 249, 33, 264, 160
-0.999641, 463, 241, 478, 368
-0.999642, 439, 225, 454, 352
-0.999652, 299, 127, 314, 142
-0.999655, 243, 17, 258, 144
-0.999656, 181, 161, 196, 288
-0.999665, 315, 1, 330, 128
-0.999677, 271, 33, 286, 160
-0.999678, 233, 33, 248, 160
-0.999678, 453, 209, 468, 336
-0.99968, 251, 97, 266, 224
-0.999686, 451, 257, 466, 380
-0.999689, 241, 97, 256, 224
-0.999694, 293, 123, 308, 138
-0.999694, 129, 97, 160, 352
-0.999699, 261, 97, 276, 224
-0.999702, 133, 177, 164, 240
-0.999703, 177, 49, 208, 112
-0.999705, 127, 17, 142, 144
-0.99971, 333, 145, 348, 272
-0.99971, 381, 33, 412, 288
-0.999715, 399, 49, 414, 176
-0.999718, 191, 145, 206, 272
-0.999723, 415, 49, 430, 176
-0.999727, 391, 49, 406, 176
-0.999728, 309, 41, 340, 104
-0.999729, 363, 1, 378, 128
-0.999733, 445, 257, 460, 380
-0.999736, 261, 49, 276, 176
-0.999736, 409, 49, 424, 176
-0.999739, 447, 209, 462, 336
-0.99974, 433, 241, 448, 368
-0.99974, 115, 81, 130, 208
-0.999742, 429, 49, 460, 176
-0.999762, 465, 49, 480, 176
-0.999772, 133, 1, 148, 128
-0.999773, 415, 1, 430, 128
-0.999776, 121, 161, 152, 288
-0.999779, 381, 49, 396, 176
-0.999781, 309, 1, 324, 128
-0.999782, 325, 257, 340, 380
-0.999783, 105, 1, 136, 256
-0.999787, 149, 161, 164, 288
-0.999787, 461, 193, 476, 320
-0.999793, 421, 1, 452, 256
-0.999794, 373, 49, 388, 176
-0.999795, 449, 1, 480, 256
-0.9998, 121, 17, 136, 144
-0.9998, 345, 241, 360, 368
-0.999801, 353, 193, 368, 320
-0.999807, 365, 257, 380, 380
-0.999807, 449, 33, 480, 96
-0.999807, 255, 49, 270, 176
-0.999809, 425, 33, 440, 160
-0.999814, 215, 129, 230, 256
-0.999815, 427, 241, 442, 368
-0.99982, 367, 49, 382, 176
-0.999821, 105, 113, 136, 240
-0.999822, 301, 257, 316, 380
-0.999824, 237, 97, 268, 352
-0.999833, 449, 49, 464, 176
-0.999838, 129, 193, 192, 320
-0.999841, 319, 241, 334, 368
-0.999857, 291, 257, 306, 380
-0.999858, 339, 225, 354, 352
-0.999859, 333, 257, 348, 380
-0.999859, 357, 257, 372, 380
-0.999859, 441, 49, 456, 176
-0.999866, 437, 129, 468, 380
-0.999868, 33, 49, 96, 176
-0.999889, 65, 1, 128, 128
-0.999893, 409, 257, 440, 380
-0.999912, 433, 1, 464, 256
-0.999957, 257, 97, 288, 352
-0.999983, 145, 177, 176, 304
-0.999991, 333, 137, 364, 200
-1.00004, 117, 97, 148, 352
-1.00006, 373, 57, 404, 120
-1.00007, 325, 209, 356, 272
-1.00007, 1, 201, 32, 264
-1.00011, 289, 257, 320, 380
-1.00013, 401, 97, 464, 224
-1.00014, 409, 129, 472, 380
-1.00015, 157, 9, 188, 72
-1.00015, 265, 57, 296, 120
-1.00016, 449, 129, 480, 380
-1.00018, 429, 249, 460, 312
-1.00019, 329, 161, 360, 224
-1.00022, 153, 257, 216, 380
-1.00028, 5, 193, 36, 320
-1.0003, 177, 313, 208, 376
-1.00032, 49, 313, 80, 376
-1.00035, 61, 321, 92, 380
-1.00038, 425, 129, 456, 380
-1.00044, 425, 33, 456, 96
-1.00044, 273, 257, 304, 380
-1.00047, 93, 33, 124, 288
-1.00049, 37, 241, 68, 368
-1.00054, 413, 33, 444, 96
-1.00055, 97, 137, 128, 200
-1.00056, 105, 97, 136, 352
-1.00057, 133, 209, 164, 272
-1.00061, 345, 225, 376, 288
-1.00062, 77, 129, 108, 380
-1.00063, 65, 129, 128, 380
-1.00068, 361, 129, 392, 380
-1.00068, 57, 241, 88, 368
-1.00072, 405, 129, 436, 380
-1.00074, 89, 129, 120, 380
-1.00074, 57, 129, 88, 380
-1.00079, 25, 97, 56, 352
-1.0008, 345, 129, 376, 380
-1.00082, 345, 161, 376, 288
-1.00084, 381, 129, 412, 380
-1.00087, 9, 49, 72, 176
-1.0009, 37, 97, 68, 352
-1.00091, 373, 1, 404, 128
-1.00091, 369, 177, 400, 304
-1.00093, 81, 209, 144, 336
-1.00097, 81, 1, 112, 256
-1.00099, 433, 1, 464, 128
-1.00101, 13, 97, 44, 352
-1.00106, 1, 129, 32, 380
-1.00109, 73, 257, 104, 380
-1.00109, 85, 257, 116, 380
-1.00114, 17, 1, 48, 256
-1.00115, 69, 33, 100, 288
-1.00116, 385, 1, 416, 128
-1.00117, 357, 113, 388, 240
-1.00124, 5, 1, 36, 256
-1.00125, 29, 1, 60, 256
-1.00129, 41, 193, 104, 320
-1.0013, 57, 97, 120, 224
-1.00133, 57, 33, 88, 288
-1.00133, 449, 1, 480, 128
-1.00135, 393, 129, 424, 380
-1.00138, 281, 209, 344, 336
-1.00138, 369, 97, 400, 224
-1.0014, 25, 1, 56, 128
-1.00142, 41, 1, 72, 256
-1.00148, 389, 129, 420, 256
-1.00149, 21, 257, 52, 380
-1.00153, 53, 1, 84, 128
-1.00157, 393, 193, 456, 320
-1.00158, 385, 129, 448, 380
-1.00164, 1, 241, 32, 368
-1.0017, 209, 257, 240, 380
-1.00213, 181, 257, 212, 380
-1.00216, 93, 81, 124, 208
-1.00225, 37, 1, 68, 128
-1.00227, 357, 193, 388, 320
-1.00243, 373, 257, 404, 380
-1.00243, 41, 145, 104, 272
-1.00254, 257, 257, 288, 380
-1.00255, 397, 257, 428, 380
-1.00256, 17, 209, 48, 336
-1.00257, 449, 161, 480, 288
-1.00258, 169, 257, 200, 380
-1.00262, 113, 257, 176, 380
-1.00263, 409, 97, 440, 224
-1.00269, 97, 257, 128, 380
-1.0028, 305, 209, 336, 336
-1.0028, 417, 161, 448, 288
-1.0028, 381, 177, 412, 304
-1.00281, 93, 1, 124, 128
-1.00281, 249, 209, 312, 336
-1.00283, 229, 241, 260, 368
-1.00286, 201, 209, 232, 336
-1.00292, 241, 161, 304, 288
-1.00295, 65, 1, 128, 256
-1.00295, 9, 97, 72, 352
-1.00297, 193, 257, 224, 380
-1.00298, 177, 209, 208, 336
-1.00301, 25, 161, 56, 288
-1.00302, 217, 161, 280, 288
-1.00304, 37, 193, 68, 320
-1.00309, 65, 1, 96, 128
-1.00323, 13, 1, 44, 128
-1.00326, 445, 97, 476, 224
-1.00334, 185, 161, 248, 288
-1.00334, 41, 129, 104, 380
-1.00339, 73, 193, 104, 320
-1.0034, 433, 177, 464, 304
-1.00341, 93, 129, 124, 256
-1.00341, 85, 209, 116, 336
-1.00344, 105, 193, 168, 320
-1.00349, 73, 49, 104, 176
-1.00352, 1, 145, 32, 272
-1.0036, 53, 193, 84, 320
-1.00372, 189, 209, 220, 336
-1.00408, 201, 209, 264, 336
-1.00437, 369, 209, 432, 336
-1.00488, 41, 33, 104, 288
-1.00489, 225, 209, 288, 336
-1.00493, 1, 129, 64, 256
-1.00581, 33, 97, 96, 224
-1.00636, 1, 1, 64, 256
