1954
-0.308328, 1, 65, 500, 320
-0.376303, 33, 1, 288, 375
-0.394543, 1, 1, 500, 375
-0.540812, 129, 1, 384, 375
-0.550881, 257, 1, 500, 375
-0.552067, 33, 33, 288, 288
-0.576183, 129, 1, 384, 256
-0.597, 257, 97, 500, 352
-0.660299, 33, 129, 288, 375
-0.666417, 129, 97, 384, 352
-0.698315, 257, 1, 500, 256
-0.853335, 129, 33, 256, 288
-0.855819, 273, 97, 400, 352
-0.858245, 81, 1, 208, 256
-0.859213, 145, 1, 272, 375
-0.859285, 81, 1, 208, 375
-0.8633, 209, 1, 336, 256
-0.864911, 1, 97, 500, 224
-0.865793, 337, 65, 464, 320
-0.866397, 33, 1, 160, 375
-0.873327, 65, 97, 192, 352
-0.873516, 17, 33, 144, 288
-0.877103, 209, 97, 336, 352
-0.880618, 257, 1, 384, 256
-0.882122, 369, 1, 496, 375
-0.884046, 1, 49, 500, 176
-0.887315, 1, 145, 500, 272
-0.887354, 129, 129, 256, 375
-0.888846, 1, 1, 500, 128
-0.890235, 17, 129, 144, 375
-0.89368, 321, 1, 448, 375
-0.894783, 225, 1, 352, 375
-0.900798, 33, 97, 288, 224
-0.90156, 273, 1, 400, 375
-0.90575, 1, 193, 500, 320
-0.907791, 97, 49, 352, 176
-0.9098, 1, 241, 500, 368
-0.915048, 257, 65, 500, 192
-0.918729, 97, 49, 224, 176
-0.922872, 129, 65, 192, 192
-0.923627, 153, 33, 216, 160
-0.924598, 105, 49, 168, 176
-0.92469, 193, 17, 448, 144
-0.925091, 33, 145, 288, 272
-0.928671, 193, 161, 448, 288
-0.929681, 161, 97, 288, 224
-0.929917, 81, 49, 144, 176
-0.929979, 65, 129, 192, 256
-0.930614, 161, 97, 416, 224
-0.9315, 1, 49, 256, 176
-0.931637, 33, 1, 288, 128
-0.931861, 257, 209, 500, 336
-0.934321, 273, 97, 400, 224
-0.935081, 49, 65, 176, 192
-0.935835, 65, 1, 128, 128
-0.937479, 145, 33, 272, 160
-0.938595, 81, 1, 208, 128
-0.939054, 257, 113, 500, 240
-0.940195, 89, 113, 152, 240
-0.941545, 153, 81, 216, 208
-0.942029, 225, 177, 352, 304
-0.94209, 337, 81, 464, 208
-0.942625, 353, 209, 480, 336
-0.944086, 177, 49, 240, 176
-0.944652, 201, 97, 264, 224
-0.944875, 17, 145, 144, 272
-0.945609, 241, 33, 368, 160
-0.946624, 425, 65, 488, 192
-0.947081, 297, 17, 360, 144
-0.948813, 225, 113, 352, 240
-0.949027, 113, 97, 240, 224
-0.949567, 49, 145, 112, 272
-0.949976, 305, 97, 368, 224
-0.950081, 177, 97, 240, 224
-0.950102, 113, 113, 176, 240
-0.950615, 273, 17, 336, 144
-0.950706, 97, 209, 352, 336
-0.95161, 153, 41, 216, 104
-0.951849, 305, 177, 368, 304
-0.95215, 57, 81, 120, 208
-0.953022, 417, 209, 480, 336
-0.953129, 433, 73, 496, 136
-0.95329, 81, 137, 144, 200
-0.953475, 241, 97, 304, 224
-0.953941, 65, 49, 128, 112
-0.954251, 177, 97, 240, 160
-0.954329, 113, 57, 176, 120
-0.954829, 153, 17, 216, 80
-0.954854, 289, 17, 416, 144
-0.955212, 273, 177, 400, 304
-0.955487, 193, 49, 320, 176
-0.956158, 273, 97, 336, 224
-0.956202, 129, 17, 192, 144
-0.956378, 281, 225, 344, 288
-0.957123, 265, 177, 328, 304
-0.957515, 153, 65, 216, 128
-0.957659, 161, 145, 288, 272
-0.957689, 89, 57, 152, 120
-0.95769, 1, 1, 128, 128
-0.958399, 401, 81, 464, 208
-0.958602, 89, 1, 152, 128
-0.958665, 193, 49, 256, 112
-0.958742, 201, 49, 264, 176
-0.958903, 201, 121, 264, 184
-0.959018, 153, 113, 216, 176
-0.959477, 1, 193, 256, 320
-0.959687, 377, 65, 440, 192
-0.959884, 105, 129, 168, 192
-0.960051, 273, 113, 336, 176
-0.960235, 193, 1, 320, 128
-0.960858, 209, 161, 272, 288
-0.960963, 433, 17, 496, 144
-0.961068, 377, 193, 440, 320
-0.961171, 329, 161, 392, 288
-0.961215, 233, 177, 296, 304
-0.961616, 369, 17, 496, 144
-0.961703, 321, 161, 448, 288
-0.96176, 409, 273, 472, 336
-0.961942, 409, 225, 472, 288
-0.962351, 345, 81, 408, 208
-0.962838, 281, 201, 344, 264
-0.962897, 369, 145, 496, 272
-0.962916, 385, 217, 448, 280
-0.96337, 25, 145, 88, 272
-0.963457, 433, 145, 496, 272
-0.963491, 81, 193, 208, 320
-0.963494, 425, 249, 488, 312
-0.963513, 41, 153, 104, 216
-0.964115, 1, 81, 128, 208
-0.964299, 177, 1, 240, 128
-0.964747, 129, 129, 192, 192
-0.964785, 185, 73, 248, 136
-0.964823, 177, 121, 240, 184
-0.964871, 141, 65, 172, 192
-0.964985, 137, 129, 200, 256
-0.9653, 409, 81, 472, 144
-0.965324, 105, 49, 136, 176
-0.96542, 117, 49, 148, 176
-0.965572, 433, 201, 496, 264
-0.965844, 65, 25, 128, 88
-0.966008, 57, 1, 120, 64
-0.966013, 201, 97, 264, 160
-0.966136, 153, 1, 216, 256
-0.966239, 129, 49, 160, 176
-0.966327, 273, 225, 400, 352
-0.966798, 425, 313, 488, 375
-0.966974, 1, 161, 64, 288
-0.967, 257, 217, 320, 280
-0.967205, 353, 193, 416, 320
-0.967541, 185, 17, 248, 80
-0.96773, 393, 241, 456, 368
-0.967877, 17, 193, 144, 320
-0.967941, 113, 145, 240, 272
-0.968134, 65, 57, 192, 120
-0.968148, 233, 49, 296, 176
-0.968218, 385, 241, 448, 304
-0.968733, 129, 81, 192, 144
-0.968831, 377, 81, 440, 144
-0.969242, 57, 185, 120, 248
-0.969244, 305, 201, 368, 264
-0.9693, 225, 41, 288, 104
-0.969477, 297, 113, 360, 176
-0.969638, 217, 233, 280, 296
-0.969968, 57, 33, 120, 288
-0.970049, 241, 129, 304, 192
-0.970118, 429, 89, 460, 152
-0.970168, 65, 137, 192, 200
-0.970172, 161, 49, 192, 176
-0.970348, 201, 209, 264, 336
-0.970378, 73, 161, 136, 288
-0.970406, 189, 65, 220, 192
-0.970524, 17, 161, 80, 224
-0.970536, 433, 225, 496, 288
-0.970591, 273, 33, 336, 96
-0.970602, 89, 201, 152, 264
-0.970949, 89, 81, 120, 208
-0.970952, 41, 1, 104, 128
-0.971001, 305, 225, 368, 352
-0.971159, 129, 193, 256, 320
-0.971374, 125, 129, 156, 192
-0.971391, 177, 209, 304, 336
-0.971404, 321, 33, 384, 160
-0.971654, 161, 113, 288, 176
-0.971926, 297, 33, 360, 96
-0.971968, 153, 89, 216, 152
-0.972008, 305, 17, 336, 144
-0.972017, 81, 1, 144, 256
-0.972074, 225, 89, 288, 152
-0.972104, 249, 1, 312, 128
-0.972191, 185, 81, 216, 144
-0.972435, 353, 81, 480, 144
-0.972562, 305, 225, 368, 288
-0.972634, 425, 97, 488, 352
-0.972682, 217, 1, 280, 256
-0.972705, 361, 217, 424, 280
-0.972914, 217, 97, 280, 352
-0.972972, 113, 33, 176, 288
-0.973094, 433, 273, 496, 336
-0.973213, 185, 65, 248, 320
-0.973396, 145, 41, 272, 104
-0.973421, 85, 129, 116, 256
-0.97345, 257, 241, 320, 304
-0.97359, 461, 65, 492, 192
-0.973595, 289, 1, 352, 64
-0.973634, 89, 25, 152, 88
-0.973737, 361, 241, 424, 304
-0.973913, 225, 241, 352, 368
-0.973952, 321, 97, 384, 352
-0.97404, 201, 145, 264, 208
-0.974381, 409, 129, 472, 256
-0.974451, 153, 137, 216, 200
-0.974488, 393, 49, 456, 112
-0.974524, 273, 177, 336, 240
-0.974535, 97, 161, 160, 288
-0.974638, 425, 81, 456, 208
-0.974698, 81, 97, 144, 352
-0.974859, 85, 1, 116, 128
-0.97495, 289, 249, 352, 312
-0.975005, 337, 49, 400, 112
-0.975008, 33, 81, 96, 208
-0.97501, 125, 57, 156, 120
-0.975023, 265, 1, 328, 64
-0.975049, 197, 89, 228, 152
-0.975051, 337, 233, 400, 296
-0.97512, 105, 57, 136, 120
-0.975159, 433, 97, 496, 160
-0.975261, 313, 1, 376, 64
-0.975272, 57, 209, 120, 336
-0.975325, 73, 129, 104, 256
-0.975406, 137, 57, 168, 120
-0.975415, 97, 129, 128, 256
-0.975472, 289, 201, 320, 264
-0.975536, 185, 161, 248, 288
-0.975559, 137, 97, 200, 352
-0.97556, 409, 201, 472, 264
-0.975575, 225, 225, 288, 352
-0.975692, 345, 65, 408, 320
-0.975732, 345, 33, 408, 160
-0.97575, 249, 33, 312, 96
-0.97577, 229, 113, 260, 176
-0.975797, 261, 137, 292, 200
-0.975887, 241, 113, 368, 176
-0.975955, 97, 25, 224, 88
-0.975973, 113, 73, 240, 136
-0.976232, 185, 217, 248, 280
-0.976232, 177, 57, 208, 120
-0.976262, 89, 89, 152, 152
-0.976275, 461, 73, 492, 136
-0.97633, 129, 33, 192, 96
-0.976347, 145, 17, 272, 80
-0.976356, 113, 121, 240, 184
-0.976368, 369, 57, 432, 120
-0.97642, 273, 225, 336, 352
-0.976461, 177, 145, 240, 208
-0.976553, 441, 313, 472, 375
-0.976747, 281, 1, 344, 256
-0.976836, 1, 161, 128, 224
-0.97691, 301, 201, 332, 264
-0.976922, 149, 49, 180, 112
-0.976924, 273, 97, 336, 352
-0.976931, 369, 225, 496, 288
-0.976957, 297, 97, 360, 352
-0.976974, 401, 97, 464, 352
-0.977065, 317, 217, 348, 280
-0.977082, 209, 177, 336, 240
-0.977086, 409, 105, 472, 168
-0.977122, 233, 185, 296, 248
-0.977131, 265, 129, 296, 256
-0.977299, 225, 65, 256, 192
-0.977318, 409, 129, 472, 192
-0.97732, 393, 17, 456, 144
-0.977365, 469, 193, 500, 320
-0.977458, 69, 81, 100, 208
-0.977479, 49, 33, 176, 96
-0.977482, 217, 121, 248, 184
-0.977505, 209, 113, 240, 240
-0.977583, 321, 105, 384, 168
-0.977659, 121, 113, 152, 240
-0.977742, 237, 97, 268, 224
-0.977767, 89, 137, 120, 200
-0.977869, 241, 217, 368, 280
-0.977881, 65, 217, 128, 280
-0.977929, 281, 113, 312, 176
-0.977958, 449, 241, 480, 368
-0.978, 181, 17, 212, 144
-0.978069, 161, 145, 224, 272
-0.978145, 321, 241, 448, 304
-0.978192, 165, 1, 196, 128
-0.978195, 329, 225, 392, 352
-0.978337, 241, 1, 304, 256
-0.978353, 65, 89, 128, 152
-0.978418, 249, 129, 280, 192
-0.978487, 161, 137, 288, 200
-0.978516, 81, 1, 208, 64
-0.978522, 193, 49, 320, 112
-0.978704, 377, 145, 440, 272
-0.978853, 345, 73, 408, 136
-0.978855, 281, 97, 312, 224
-0.978943, 241, 161, 304, 224
-0.979005, 137, 129, 168, 192
-0.979061, 413, 217, 444, 280
-0.979144, 445, 73, 476, 136
-0.979189, 361, 241, 424, 368
-0.979239, 437, 225, 468, 288
-0.979304, 129, 105, 192, 168
-0.979321, 433, 1, 496, 256
-0.979463, 297, 225, 328, 288
-0.979528, 273, 145, 336, 208
-0.979544, 225, 145, 352, 208
-0.979564, 293, 17, 324, 144
-0.979592, 393, 297, 456, 360
-0.979645, 93, 57, 124, 120
-0.97972, 313, 249, 376, 312
-0.979725, 317, 17, 348, 144
-0.979765, 65, 89, 192, 152
-0.979774, 249, 97, 280, 224
-0.979818, 433, 49, 496, 112
-0.979908, 305, 1, 368, 256
-0.979908, 33, 65, 96, 320
-0.980024, 193, 233, 320, 296
-0.980029, 193, 89, 320, 152
-0.980069, 325, 177, 356, 304
-0.980358, 297, 177, 360, 240
-0.980415, 337, 97, 368, 224
-0.980502, 345, 97, 408, 160
-0.980504, 329, 201, 392, 264
-0.980505, 449, 65, 480, 192
-0.980541, 369, 65, 432, 320
-0.980574, 273, 57, 400, 120
-0.980655, 249, 105, 312, 168
-0.980748, 465, 145, 496, 272
-0.980777, 353, 281, 480, 344
-0.980791, 113, 129, 176, 375
-0.980827, 137, 217, 200, 280
-0.980843, 25, 193, 88, 320
-0.98085, 149, 17, 180, 144
-0.980867, 241, 33, 368, 96
-0.980943, 81, 161, 208, 224
-0.981091, 289, 201, 416, 264
-0.981091, 109, 129, 140, 256
-0.981098, 281, 225, 312, 288
-0.981229, 369, 233, 400, 296
-0.98126, 113, 129, 144, 192
-0.981301, 81, 201, 208, 264
-0.981382, 389, 217, 420, 280
-0.981469, 161, 97, 224, 352
-0.981485, 305, 57, 368, 120
-0.981544, 369, 33, 496, 96
-0.981571, 177, 65, 208, 192
-0.981602, 201, 169, 264, 232
-0.98167, 297, 89, 360, 152
-0.981686, 85, 185, 116, 248
-0.981807, 465, 17, 496, 144
-0.981815, 145, 113, 176, 240
-0.981829, 57, 1, 120, 375
-0.981841, 273, 137, 400, 200
-0.981845, 369, 201, 496, 264
-0.981854, 417, 89, 448, 152
-0.98187, 33, 161, 64, 224
-0.981909, 121, 193, 184, 320
-0.981916, 165, 81, 196, 144
-0.981937, 69, 145, 100, 208
-0.982095, 241, 97, 304, 352
-0.982103, 161, 161, 288, 224
-0.982104, 273, 1, 400, 64
-0.98213, 13, 169, 44, 232
-0.982131, 437, 65, 468, 192
-0.982156, 273, 89, 336, 152
-0.982179, 85, 177, 116, 304
-0.982179, 337, 177, 368, 304
-0.982212, 165, 17, 196, 80
-0.982216, 113, 97, 240, 160
-0.982263, 305, 137, 368, 200
-0.982295, 161, 41, 192, 104
-0.982459, 229, 41, 260, 104
-0.982501, 17, 137, 144, 200
-0.982561, 165, 121, 196, 184
-0.982567, 185, 113, 216, 176
-0.98258, 325, 97, 356, 224
-0.982612, 433, 281, 464, 344
-0.982636, 261, 161, 292, 224
-0.982648, 265, 177, 296, 304
-0.982663, 105, 153, 168, 216
-0.982678, 233, 209, 296, 272
-0.98271, 289, 105, 416, 168
-0.982774, 413, 241, 444, 304
-0.982787, 41, 209, 104, 272
-0.982826, 425, 217, 456, 280
-0.98283, 201, 113, 232, 176
-0.982831, 337, 105, 464, 168
-0.982856, 305, 177, 336, 304
-0.982885, 313, 185, 344, 248
-0.982901, 433, 137, 496, 200
-0.982913, 353, 57, 480, 120
-0.982939, 369, 257, 496, 320
-0.982941, 33, 145, 64, 272
-0.982965, 257, 241, 384, 304
-0.982987, 385, 265, 448, 328
-0.982999, 241, 9, 304, 72
-0.983014, 153, 121, 184, 184
-0.98305, 421, 113, 452, 176
-0.983074, 361, 33, 424, 96
-0.983079, 449, 249, 480, 312
-0.983087, 353, 145, 416, 272
-0.983163, 329, 177, 392, 240
-0.983311, 169, 225, 232, 352
-0.983404, 133, 113, 164, 240
-0.983418, 385, 193, 416, 320
-0.98351, 285, 1, 316, 64
-0.983522, 225, 161, 256, 288
-0.983526, 233, 257, 296, 320
-0.983584, 201, 65, 232, 192
-0.983603, 449, 289, 480, 352
-0.983605, 85, 25, 116, 88
-0.983634, 161, 217, 224, 280
-0.983673, 73, 1, 104, 128
-0.983691, 1, 9, 128, 72
-0.983696, 401, 217, 432, 280
-0.9837, 165, 113, 196, 240
-0.98371, 57, 129, 120, 375
-0.983719, 301, 113, 332, 176
-0.983854, 465, 201, 496, 264
-0.983913, 97, 1, 128, 128
-0.983962, 193, 241, 256, 304
-0.983989, 177, 33, 208, 96
-0.984046, 221, 113, 252, 240
-0.98409, 81, 209, 144, 336
-0.984106, 45, 145, 76, 272
-0.984132, 169, 1, 232, 375
-0.984146, 377, 193, 440, 256
-0.98421, 233, 233, 264, 296
-0.984228, 305, 177, 432, 240
-0.984231, 241, 89, 368, 152
-0.984289, 81, 1, 144, 375
-0.984308, 309, 33, 340, 96
-0.984357, 145, 81, 176, 144
-0.984363, 81, 177, 144, 240
-0.984365, 9, 129, 72, 375
-0.98437, 297, 33, 328, 96
-0.984458, 249, 225, 312, 352
-0.984477, 193, 201, 320, 264
-0.984515, 461, 265, 492, 328
-0.984543, 33, 65, 96, 128
-0.984571, 253, 161, 284, 288
-0.984577, 425, 241, 456, 304
-0.984637, 225, 89, 256, 152
-0.984649, 433, 113, 464, 176
-0.984651, 273, 57, 336, 120
-0.984653, 269, 113, 300, 176
-0.984659, 77, 49, 108, 112
-0.984687, 413, 193, 444, 320
-0.984694, 129, 153, 192, 216
-0.984699, 421, 241, 452, 368
-0.984715, 209, 1, 336, 64
-0.984754, 421, 65, 452, 128
-0.984798, 269, 1, 300, 128
-0.98481, 81, 113, 144, 176
-0.98484, 461, 241, 492, 368
-0.984846, 369, 17, 432, 144
-0.984869, 249, 153, 280, 216
-0.984873, 1, 161, 32, 288
-0.984904, 113, 209, 176, 272
-0.984919, 289, 33, 416, 96
-0.984958, 293, 177, 324, 304
-0.98496, 145, 193, 208, 320
-0.985073, 301, 177, 332, 240
-0.985081, 269, 241, 300, 304
-0.985082, 109, 89, 140, 152
-0.985173, 57, 129, 120, 192
-0.985209, 49, 161, 80, 224
-0.985244, 161, 177, 224, 240
-0.985245, 17, 209, 144, 272
-0.985247, 121, 89, 152, 152
-0.985275, 9, 185, 72, 248
-0.985281, 273, 137, 304, 200
-0.985375, 257, 169, 384, 232
-0.985385, 17, 185, 144, 248
-0.985437, 401, 193, 432, 320
-0.985651, 317, 113, 348, 176
-0.985658, 73, 177, 104, 240
-0.985671, 241, 41, 272, 104
-0.985743, 413, 81, 444, 208
-0.985809, 373, 193, 404, 320
-0.985852, 89, 1, 152, 64
-0.985863, 205, 193, 236, 320
-0.985867, 225, 1, 288, 128
-0.985874, 33, 129, 96, 192
-0.985911, 293, 97, 324, 224
-0.985923, 121, 9, 184, 72
-0.985941, 313, 97, 344, 224
-0.985963, 277, 201, 308, 264
-0.985969, 17, 161, 48, 288
-0.985975, 265, 217, 296, 280
-0.986015, 337, 113, 368, 176
-0.986059, 61, 145, 92, 272
-0.986089, 197, 113, 228, 240
-0.98609, 17, 57, 144, 120
-0.986108, 189, 57, 220, 120
-0.986112, 437, 209, 468, 336
-0.986129, 381, 241, 412, 304
-0.986147, 329, 129, 392, 192
-0.986174, 1, 33, 128, 96
-0.986249, 453, 145, 484, 272
-0.986284, 461, 225, 492, 288
-0.986433, 229, 153, 260, 216
-0.986446, 245, 233, 276, 296
-0.986517, 285, 33, 316, 96
-0.986531, 325, 33, 356, 96
-0.986535, 113, 1, 176, 375
-0.986549, 133, 89, 164, 152
-0.986573, 209, 209, 272, 272
-0.986579, 153, 145, 184, 208
-0.986672, 117, 1, 148, 128
-0.986704, 377, 209, 408, 272
-0.986711, 205, 137, 236, 200
-0.986735, 33, 1, 96, 375
-0.986822, 129, 193, 256, 256
-0.986858, 217, 17, 280, 80
-0.986871, 353, 177, 384, 304
-0.986912, 337, 1, 368, 64
-0.986977, 221, 225, 252, 288
-0.986987, 305, 81, 432, 144
-0.986989, 241, 177, 272, 304
-0.987001, 337, 49, 368, 176
-0.98707, 145, 225, 272, 288
-0.987072, 273, 33, 304, 96
-0.987144, 357, 233, 388, 296
-0.987158, 41, 25, 104, 88
-0.987161, 97, 201, 128, 264
-0.987192, 137, 1, 200, 375
-0.9872, 81, 1, 112, 64
-0.987228, 381, 81, 412, 208
-0.987252, 453, 201, 484, 264
-0.987291, 213, 49, 244, 176
-0.987307, 277, 161, 308, 224
-0.987362, 1, 169, 32, 232
-0.987372, 261, 65, 292, 192
-0.987399, 361, 81, 392, 208
-0.987415, 329, 209, 360, 272
-0.987446, 369, 137, 496, 200
-0.987463, 437, 249, 468, 312
-0.987486, 249, 57, 312, 120
-0.987488, 257, 33, 288, 96
-0.987517, 265, 185, 296, 248
-0.98754, 449, 225, 480, 288
-0.987561, 317, 1, 348, 64
-0.987612, 457, 193, 488, 320
-0.98764, 129, 185, 192, 248
-0.987654, 297, 1, 328, 64
-0.987661, 401, 241, 432, 304
-0.987716, 377, 57, 408, 120
-0.987741, 177, 1, 208, 64
-0.987743, 401, 73, 432, 136
-0.987749, 369, 305, 496, 368
-0.987886, 101, 137, 132, 200
-0.987902, 321, 25, 384, 88
-0.987988, 321, 249, 352, 312
-0.98806, 257, 241, 288, 304
-0.988077, 337, 33, 368, 96
-0.988118, 273, 1, 336, 375
-0.98819, 269, 9, 300, 72
-0.988217, 209, 257, 336, 320
-0.988247, 277, 177, 308, 304
-0.988259, 333, 241, 364, 304
-0.988288, 345, 233, 376, 296
-0.988302, 401, 65, 432, 192
-0.988394, 321, 81, 384, 144
-0.988465, 185, 193, 248, 256
-0.988539, 353, 33, 384, 96
-0.988606, 237, 17, 268, 144
-0.98867, 177, 117, 240, 148
-0.988734, 445, 17, 476, 144
-0.98874, 217, 145, 248, 208
-0.988765, 337, 1, 400, 375
-0.988799, 281, 205, 344, 236
-0.988831, 333, 185, 364, 248
-0.988855, 197, 17, 228, 144
-0.988877, 201, 113, 264, 144
-0.988899, 377, 105, 440, 168
-0.988901, 217, 1, 280, 375
-0.988908, 77, 89, 108, 152
-0.98895, 53, 1, 84, 128
-0.988952, 281, 17, 312, 144
-0.989001, 153, 1, 216, 32
-0.989059, 421, 281, 452, 344
-0.989067, 437, 113, 468, 240
-0.989104, 237, 89, 268, 152
-0.989125, 153, 21, 216, 52
-0.989146, 153, 37, 216, 68
-0.98915, 17, 89, 144, 152
-0.989164, 69, 1, 100, 64
-0.989169, 185, 137, 216, 200
-0.989174, 113, 133, 176, 164
-0.989243, 457, 97, 488, 160
-0.989307, 281, 1, 344, 32
-0.989316, 357, 225, 388, 352
-0.989317, 129, 1, 160, 128
-0.989325, 1, 113, 64, 240
-0.989325, 33, 185, 96, 248
-0.989352, 65, 49, 320, 112
-0.989358, 349, 81, 380, 208
-0.989375, 41, 161, 104, 192
-0.989384, 369, 33, 400, 96
-0.989386, 381, 33, 412, 96
-0.989432, 297, 1, 360, 375
-0.989445, 153, 85, 216, 116
-0.989459, 153, 49, 216, 80
-0.989493, 193, 1, 256, 375
-0.989508, 433, 77, 496, 108
-0.989533, 65, 53, 128, 84
-0.989536, 73, 177, 104, 304
-0.989538, 425, 329, 488, 360
-0.989543, 433, 1, 496, 375
-0.989561, 177, 105, 240, 136
-0.989639, 185, 45, 248, 76
-0.989645, 433, 229, 496, 260
-0.989658, 153, 129, 216, 160
-0.989729, 305, 1, 368, 32
-0.98973, 233, 225, 264, 352
-0.98974, 329, 249, 392, 280
-0.989789, 417, 89, 480, 120
-0.989792, 377, 85, 440, 116
-0.98984, 273, 249, 336, 280
-0.989844, 393, 1, 456, 256
-0.989859, 97, 193, 128, 320
-0.98986, 433, 161, 464, 288
-0.98986, 1, 241, 256, 368
-0.989868, 273, 121, 336, 152
-0.989888, 221, 209, 252, 336
-0.989895, 89, 137, 152, 168
-0.989924, 369, 1, 432, 375
-0.989925, 97, 121, 352, 184
-0.989951, 305, 249, 368, 280
-0.989985, 317, 225, 348, 352
-0.990055, 177, 137, 240, 168
-0.990075, 65, 113, 192, 176
-0.99011, 217, 129, 280, 160
-0.990115, 73, 149, 136, 180
-0.99013, 57, 1, 120, 32
-0.990167, 305, 117, 368, 148
-0.990184, 193, 25, 320, 88
-0.990192, 409, 237, 472, 268
-0.990281, 369, 9, 496, 72
-0.9903, 201, 101, 264, 132
-0.990301, 65, 41, 128, 72
-0.99035, 153, 69, 216, 100
-0.990357, 17, 165, 80, 196
-0.990372, 241, 1, 304, 375
-0.990393, 193, 57, 448, 120
-0.990409, 97, 209, 160, 240
-0.990428, 201, 89, 264, 120
-0.990467, 433, 269, 496, 300
-0.990471, 233, 245, 296, 276
-0.990486, 217, 41, 280, 72
-0.990506, 113, 145, 176, 176
-0.990516, 113, 57, 176, 88
-0.990517, 57, 197, 120, 228
-0.990521, 181, 113, 212, 240
-0.990523, 129, 241, 256, 368
-0.990525, 193, 161, 224, 288
-0.990529, 353, 45, 416, 76
-0.990542, 345, 225, 376, 352
-0.990554, 289, 37, 352, 68
-0.990562, 137, 145, 200, 176
-0.990614, 361, 245, 424, 276
-0.99062, 425, 345, 488, 375
-0.990643, 57, 13, 120, 44
-0.990644, 337, 237, 400, 268
-0.990646, 1, 57, 500, 120
-0.990651, 321, 41, 384, 72
-0.990655, 185, 77, 248, 108
-0.990657, 305, 273, 432, 336
-0.990729, 129, 85, 192, 116
-0.990729, 289, 217, 352, 248
-0.99075, 305, 237, 368, 268
-0.990752, 89, 57, 152, 88
-0.990755, 65, 77, 128, 108
-0.99078, 265, 217, 328, 248
-0.990799, 385, 241, 448, 272
-0.990866, 193, 57, 256, 88
-0.990879, 177, 93, 240, 124
-0.99088, 209, 233, 272, 264
-0.990883, 409, 101, 472, 132
-0.990884, 377, 225, 440, 256
-0.990894, 409, 289, 472, 320
-0.990896, 353, 77, 416, 108
-0.990901, 409, 77, 472, 108
-0.990949, 49, 149, 112, 180
-0.99098, 265, 229, 328, 260
-0.990981, 57, 25, 120, 56
-0.990996, 225, 85, 288, 116
-0.990999, 433, 317, 496, 348
-0.991002, 97, 225, 224, 288
-0.991089, 153, 101, 216, 132
-0.99109, 177, 33, 240, 64
-0.991103, 225, 113, 288, 144
-0.991127, 241, 125, 304, 156
-0.991178, 153, 117, 216, 148
-0.991204, 217, 149, 280, 180
-0.991205, 409, 309, 472, 340
-0.991223, 257, 205, 320, 236
-0.991242, 65, 209, 128, 240
-0.991244, 409, 253, 472, 284
-0.991258, 273, 169, 336, 200
-0.991267, 49, 185, 112, 216
-0.991279, 249, 49, 280, 176
-0.991299, 185, 221, 248, 252
-0.991306, 89, 45, 152, 76
-0.991316, 401, 269, 464, 300
-0.991331, 377, 73, 440, 104
-0.991355, 409, 145, 472, 176
-0.991359, 257, 113, 500, 176
-0.991371, 257, 1, 320, 32
-0.991378, 97, 89, 160, 120
-0.991402, 433, 305, 496, 336
-0.991408, 401, 221, 464, 252
-0.991419, 257, 225, 500, 288
-0.991438, 289, 261, 352, 292
-0.991447, 33, 145, 288, 208
-0.991478, 409, 129, 472, 160
-0.991484, 1, 137, 500, 200
-0.99152, 417, 129, 448, 256
-0.991525, 421, 33, 452, 160
-0.991529, 1, 1, 64, 375
-0.991558, 49, 173, 112, 204
-0.991587, 249, 45, 312, 76
-0.991591, 305, 225, 336, 352
-0.991634, 233, 217, 296, 248
-0.991643, 89, 221, 152, 252
-0.991653, 41, 213, 104, 244
-0.991655, 65, 65, 128, 96
-0.991695, 265, 261, 328, 292
-0.991697, 321, 129, 384, 160
-0.991699, 129, 45, 192, 76
-0.99171, 113, 69, 176, 100
-0.99171, 321, 129, 448, 192
-0.991718, 233, 169, 296, 200
-0.991727, 369, 177, 496, 240
-0.991732, 65, 93, 128, 124
-0.991734, 17, 201, 80, 232
-0.991748, 233, 257, 296, 288
-0.991748, 313, 213, 376, 244
-0.99177, 401, 325, 464, 356
-0.991778, 409, 1, 472, 375
-0.991788, 1, 177, 64, 208
-0.991794, 241, 189, 304, 220
-0.991808, 393, 345, 456, 375
-0.991815, 33, 73, 288, 136
-0.991816, 245, 225, 276, 352
-0.99182, 285, 241, 316, 368
-0.991822, 329, 77, 392, 108
-0.991836, 185, 245, 248, 276
-0.991841, 121, 213, 184, 244
-0.991863, 65, 221, 128, 252
-0.99188, 177, 149, 240, 180
-0.991882, 13, 113, 44, 240
-0.991885, 273, 137, 336, 168
-0.991896, 153, 229, 216, 260
-0.991961, 129, 117, 192, 148
-0.992002, 241, 137, 304, 168
-0.99204, 321, 1, 448, 64
-0.992071, 233, 233, 296, 264
-0.992071, 177, 21, 240, 52
-0.992075, 53, 193, 84, 320
-0.992094, 377, 97, 440, 128
-0.992096, 337, 97, 400, 128
-0.992104, 385, 253, 448, 284
-0.992108, 241, 153, 304, 184
-0.992113, 161, 257, 288, 320
-0.99222, 373, 241, 404, 368
-0.99226, 349, 33, 380, 160
-0.99227, 425, 85, 456, 116
-0.992299, 125, 133, 156, 164
-0.992308, 257, 201, 500, 264
-0.992338, 329, 1, 360, 128
-0.992342, 305, 209, 336, 240
-0.992342, 285, 1, 316, 32
-0.99238, 129, 81, 384, 144
-0.99239, 161, 209, 416, 272
-0.992392, 189, 85, 220, 116
-0.992404, 189, 101, 220, 132
-0.992419, 261, 133, 292, 164
-0.992422, 285, 205, 316, 236
-0.992422, 209, 117, 240, 148
-0.992434, 325, 253, 356, 284
-0.992461, 445, 321, 476, 352
-0.992476, 257, 89, 500, 152
-0.992483, 261, 149, 292, 180
-0.992517, 209, 133, 240, 164
-0.99254, 57, 65, 88, 192
-0.992558, 225, 117, 256, 148
-0.992571, 253, 245, 284, 276
-0.992571, 305, 249, 336, 280
-0.992611, 49, 161, 80, 192
-0.992618, 193, 33, 448, 96
-0.992622, 293, 245, 324, 276
-0.992624, 281, 121, 312, 152
-0.992626, 429, 97, 460, 128
-0.992627, 249, 133, 280, 164
-0.992629, 309, 1, 340, 32
-0.992643, 297, 1, 328, 32
-0.992655, 261, 169, 292, 200
-0.992663, 321, 1, 352, 32
-0.99269, 445, 77, 476, 108
-0.992697, 337, 1, 368, 32
-0.992706, 137, 141, 168, 172
-0.992714, 197, 113, 228, 144
-0.99272, 229, 129, 260, 160
-0.992721, 429, 109, 460, 140
-0.992725, 273, 249, 304, 280
-0.992733, 321, 313, 448, 375
-0.992749, 229, 41, 260, 72
-0.992764, 373, 241, 404, 272
-0.992765, 181, 57, 212, 88
-0.992771, 29, 169, 60, 200
-0.992775, 181, 73, 212, 104
-0.992778, 289, 217, 320, 248
-0.992792, 181, 113, 212, 144
-0.992802, 445, 233, 476, 264
-0.992803, 273, 209, 304, 240
-0.992804, 417, 101, 448, 132
-0.992809, 357, 237, 388, 268
-0.992812, 165, 85, 196, 116
-0.992815, 249, 145, 280, 176
-0.992836, 417, 113, 448, 144
-0.992842, 397, 241, 428, 368
-0.992848, 165, 45, 196, 76
-0.992856, 309, 37, 340, 68
-0.992859, 153, 53, 184, 84
-0.992872, 317, 213, 348, 244
-0.992877, 329, 41, 360, 72
-0.992877, 429, 121, 460, 152
-0.992881, 165, 25, 196, 56
-0.992883, 69, 153, 100, 184
-0.992883, 309, 261, 340, 292
-0.992884, 445, 309, 476, 340
-0.992886, 305, 229, 336, 260
-0.992891, 89, 49, 120, 80
-0.992892, 81, 145, 112, 176
-0.992893, 421, 73, 452, 104
-0.992894, 177, 45, 208, 76
-0.992897, 437, 341, 468, 372
-0.992898, 101, 57, 132, 88
-0.992903, 189, 125, 220, 156
-0.992905, 413, 89, 444, 120
-0.992909, 341, 249, 372, 280
-0.992912, 105, 137, 136, 168
-0.992913, 177, 101, 208, 132
-0.992921, 169, 65, 200, 96
-0.992923, 5, 177, 36, 208
-0.992926, 381, 45, 412, 76
-0.992934, 73, 177, 104, 208
-0.992939, 241, 241, 272, 272
-0.992943, 457, 301, 488, 332
-0.992945, 317, 241, 348, 272
-0.992949, 313, 117, 344, 148
-0.992952, 137, 57, 168, 88
-0.992953, 17, 173, 48, 204
-0.992955, 465, 229, 496, 260
-0.992978, 113, 57, 144, 88
-0.992979, 353, 249, 384, 280
-0.992979, 457, 265, 488, 296
-0.992981, 217, 105, 248, 136
-0.992984, 165, 13, 196, 44
-0.992984, 361, 45, 392, 76
-0.992989, 177, 85, 208, 116
-0.99299, 345, 45, 376, 76
-0.992991, 409, 241, 440, 368
-0.992992, 97, 217, 128, 248
-0.992994, 273, 145, 304, 176
-0.992994, 293, 117, 324, 148
-0.992999, 125, 57, 156, 88
-0.993001, 421, 225, 452, 256
-0.99301, 377, 77, 408, 108
-0.99301, 337, 117, 368, 148
-0.993015, 237, 85, 268, 116
-0.993016, 145, 129, 176, 160
-0.99302, 273, 221, 304, 252
-0.99302, 421, 237, 452, 268
-0.993025, 93, 137, 124, 168
-0.993031, 457, 77, 488, 108
-0.993035, 169, 117, 200, 148
-0.993041, 89, 201, 120, 232
-0.993046, 65, 169, 320, 232
-0.993046, 433, 225, 464, 256
-0.993049, 401, 241, 432, 272
-0.993055, 409, 221, 440, 252
-0.993061, 265, 237, 296, 268
-0.993062, 441, 253, 472, 284
-0.993063, 337, 237, 368, 268
-0.993064, 381, 229, 412, 260
-0.993068, 77, 77, 108, 108
-0.99307, 237, 117, 268, 148
-0.993074, 125, 145, 156, 176
-0.993077, 325, 117, 356, 148
-0.993077, 261, 181, 292, 212
-0.993078, 453, 253, 484, 284
-0.993082, 425, 285, 456, 316
-0.993089, 273, 261, 304, 292
-0.993098, 149, 145, 180, 176
-0.9931, 205, 101, 236, 132
-0.993101, 385, 245, 416, 276
-0.993104, 353, 89, 480, 120
-0.993104, 445, 265, 476, 296
-0.993105, 81, 1, 112, 32
-0.993105, 165, 1, 196, 32
-0.993113, 101, 45, 132, 76
-0.993114, 33, 17, 288, 80
-0.993115, 85, 37, 116, 68
-0.993116, 297, 37, 328, 68
-0.993124, 273, 241, 304, 368
-0.993124, 201, 89, 232, 120
-0.993126, 177, 25, 208, 56
-0.993126, 229, 157, 260, 188
-0.993128, 85, 21, 116, 52
-0.993134, 357, 129, 388, 256
-0.993253, 373, 145, 404, 272
-0.993256, 145, 161, 176, 288
-0.993322, 405, 145, 436, 272
-0.993324, 257, 1, 500, 64
-0.993397, 157, 161, 188, 288
-0.993508, 329, 241, 360, 368
-0.993705, 161, 113, 288, 144
-0.993735, 65, 201, 320, 264
-0.993829, 385, 241, 416, 368
-0.993865, 393, 145, 424, 272
-0.993883, 33, 97, 288, 160
-0.993906, 257, 265, 384, 328
-0.993954, 1, 33, 64, 288
-0.993972, 377, 33, 408, 160
-0.99398, 129, 145, 384, 208
-0.993989, 185, 225, 216, 352
-0.993995, 65, 145, 192, 176
-0.994033, 161, 185, 416, 248
-0.994056, 145, 49, 272, 80
-0.994083, 241, 245, 368, 276
-0.99409, 1, 249, 500, 312
-0.994097, 225, 17, 256, 144
-0.994097, 201, 1, 264, 128
-0.994105, 433, 89, 448, 152
-0.994145, 97, 57, 224, 88
-0.994183, 161, 233, 416, 296
-0.994208, 121, 57, 136, 120
-0.994247, 1, 169, 128, 200
-0.994262, 17, 113, 144, 176
-0.994268, 1, 1, 500, 64
-0.994271, 257, 1, 384, 32
-0.9943, 129, 125, 256, 156
-0.994308, 105, 57, 120, 120
-0.994313, 257, 249, 500, 312
-0.994375, 115, 57, 130, 120
-0.9944, 273, 117, 400, 148
-0.994401, 147, 129, 162, 192
-0.994412, 425, 105, 440, 168
-0.994418, 265, 137, 280, 200
-0.994472, 193, 125, 320, 156
-0.994486, 133, 129, 148, 192
-0.994495, 97, 85, 224, 116
-0.994512, 139, 57, 154, 120
-0.994522, 1, 185, 500, 248
-0.994529, 477, 73, 492, 136
-0.994545, 241, 225, 368, 256
-0.994553, 127, 129, 142, 192
-0.994556, 485, 73, 500, 136
-0.994577, 273, 41, 400, 72
-0.99459, 467, 73, 482, 136
-0.9946, 421, 81, 436, 144
-0.994622, 145, 57, 160, 120
-0.994636, 257, 177, 500, 240
-0.994657, 129, 57, 144, 120
-0.994658, 81, 37, 208, 68
-0.9947, 299, 201, 314, 264
-0.994712, 151, 49, 166, 112
-0.994712, 1, 113, 500, 176
-0.994718, 337, 77, 464, 108
-0.99473, 361, 33, 392, 160
-0.994739, 161, 137, 288, 168
-0.994745, 209, 97, 224, 160
-0.994745, 197, 81, 212, 144
-0.994814, 129, 73, 256, 104
-0.99482, 305, 245, 432, 276
-0.994846, 117, 193, 148, 320
-0.994846, 239, 89, 254, 152
-0.994856, 65, 225, 320, 288
-0.994887, 291, 201, 306, 264
-0.994893, 49, 57, 176, 88
-0.994895, 49, 69, 176, 100
-0.994906, 257, 137, 500, 200
-0.994949, 427, 81, 442, 144
-0.994965, 209, 41, 336, 72
-0.994976, 141, 129, 156, 192
-0.994988, 427, 217, 442, 280
-0.994997, 231, 113, 246, 176
-0.995002, 289, 209, 416, 240
-0.995021, 439, 81, 454, 144
-0.995025, 305, 201, 320, 264
-0.995027, 81, 21, 208, 52
-0.995035, 1, 81, 500, 144
-0.995038, 129, 193, 160, 320
-0.995051, 65, 133, 192, 164
-0.995053, 209, 209, 336, 240
-0.995068, 419, 217, 434, 280
-0.99507, 159, 49, 174, 112
-0.995096, 113, 113, 240, 144
-0.995111, 315, 201, 330, 264
-0.995153, 241, 133, 368, 164
-0.995179, 1, 33, 500, 96
-0.99519, 85, 145, 100, 208
-0.995197, 161, 1, 416, 64
-0.995232, 445, 73, 460, 136
-0.995237, 353, 233, 480, 264
-0.99524, 223, 121, 238, 184
-0.995247, 321, 153, 448, 216
-0.995256, 193, 57, 208, 120
-0.995263, 369, 221, 496, 252
-0.995274, 81, 1, 208, 32
-0.995277, 233, 41, 248, 104
-0.995281, 113, 145, 240, 176
-0.995286, 401, 17, 432, 144
-0.99533, 451, 313, 466, 375
-0.99533, 177, 61, 304, 92
-0.995332, 285, 225, 300, 288
-0.995417, 177, 237, 304, 268
-0.995431, 33, 157, 160, 188
-0.995466, 281, 113, 296, 176
-0.995473, 165, 41, 180, 104
-0.995481, 457, 297, 472, 360
-0.995487, 461, 73, 476, 136
-0.995488, 193, 153, 320, 184
-0.995524, 157, 145, 172, 208
-0.995541, 137, 89, 152, 152
-0.995542, 187, 89, 202, 152
-0.995552, 257, 281, 500, 344
-0.995553, 95, 25, 110, 88
-0.995559, 453, 225, 468, 288
-0.995569, 99, 57, 114, 120
-0.995575, 101, 185, 116, 248
-0.995584, 239, 113, 254, 176
-0.995593, 323, 217, 338, 280
-0.995598, 273, 137, 288, 200
-0.995601, 1, 217, 500, 280
-0.995624, 193, 165, 320, 196
-0.995629, 203, 81, 218, 144
-0.995633, 427, 241, 442, 304
-0.995634, 91, 137, 106, 200
-0.995652, 313, 225, 328, 288
-0.99567, 79, 145, 94, 208
-0.995674, 145, 37, 272, 68
-0.995694, 17, 233, 144, 296
-0.995713, 279, 233, 294, 296
-0.995715, 289, 229, 416, 260
-0.995732, 177, 81, 192, 144
-0.995733, 37, 161, 52, 224
-0.995755, 17, 201, 144, 232
-0.995781, 161, 85, 288, 116
-0.995804, 297, 225, 312, 288
-0.995804, 175, 57, 190, 120
-0.995805, 243, 41, 258, 104
-0.995817, 131, 89, 146, 152
-0.995824, 481, 201, 496, 264
-0.995824, 379, 225, 394, 288
-0.99586, 445, 233, 460, 296
-0.995868, 121, 129, 136, 192
-0.995879, 437, 241, 452, 304
-0.995882, 241, 145, 368, 176
-0.995895, 215, 105, 230, 168
-0.995901, 81, 185, 208, 216
-0.995913, 69, 33, 100, 288
-0.99593, 203, 105, 218, 168
-0.995936, 329, 209, 344, 272
-0.995941, 225, 177, 352, 208
-0.995941, 161, 101, 288, 132
-0.995946, 85, 1, 116, 256
-0.995959, 17, 1, 80, 128
-0.995971, 407, 217, 422, 280
-0.996002, 95, 193, 110, 256
-0.996003, 481, 233, 496, 296
-0.996005, 113, 249, 240, 312
-0.996008, 437, 217, 452, 280
-0.99602, 243, 233, 258, 296
-0.996027, 161, 1, 192, 256
-0.996034, 1, 161, 500, 224
-0.996053, 393, 241, 408, 304
-0.996054, 311, 33, 326, 96
-0.996062, 291, 225, 306, 288
-0.996066, 17, 169, 32, 232
-0.996068, 53, 153, 68, 216
-0.996103, 353, 285, 480, 316
-0.996104, 337, 105, 464, 136
-0.99612, 303, 113, 318, 176
-0.996122, 17, 45, 144, 76
-0.996132, 227, 225, 242, 288
-0.996136, 93, 1, 108, 64
-0.996136, 89, 177, 104, 240
-0.996143, 209, 97, 240, 352
-0.996146, 459, 233, 474, 296
-0.99617, 321, 45, 448, 76
-0.996174, 1, 185, 128, 216
-0.996202, 297, 113, 312, 176
-0.996206, 217, 1, 248, 256
-0.996206, 317, 33, 332, 96
-0.996206, 323, 185, 338, 248
-0.996208, 145, 1, 272, 32
-0.996221, 397, 217, 412, 280
-0.996222, 81, 161, 208, 192
-0.996224, 241, 261, 368, 292
-0.996235, 315, 113, 330, 176
-0.996244, 413, 217, 428, 280
-0.996258, 305, 33, 320, 96
-0.996266, 171, 81, 186, 144
-0.996269, 47, 161, 62, 224
-0.996292, 181, 57, 196, 120
-0.996301, 273, 113, 288, 176
-0.996307, 465, 225, 480, 288
-0.996311, 475, 201, 490, 264
-0.996321, 143, 89, 158, 152
-0.996322, 435, 265, 450, 328
-0.996329, 309, 113, 324, 176
-0.99633, 353, 113, 368, 176
-0.996332, 193, 249, 320, 280
-0.996341, 187, 113, 202, 176
-0.996358, 455, 73, 470, 136
-0.996358, 23, 169, 38, 232
-0.996363, 181, 121, 196, 184
-0.996375, 413, 241, 428, 304
-0.996378, 81, 213, 208, 244
-0.996384, 49, 93, 176, 124
-0.996384, 469, 265, 484, 328
-0.996387, 433, 113, 448, 176
-0.99639, 101, 33, 132, 288
-0.996392, 145, 25, 272, 56
-0.996394, 97, 137, 112, 200
-0.996401, 255, 129, 270, 192
-0.996404, 305, 257, 432, 288
-0.996406, 65, 241, 192, 368
-0.996417, 261, 233, 276, 296
-0.996419, 397, 57, 412, 120
-0.996422, 285, 201, 300, 264
-0.996434, 121, 89, 136, 152
-0.996436, 299, 177, 314, 240
-0.996442, 103, 209, 118, 272
-0.996445, 389, 73, 404, 136
-0.996446, 445, 313, 460, 375
-0.996451, 325, 33, 340, 96
-0.996457, 307, 225, 322, 288
-0.996469, 385, 217, 400, 280
-0.996471, 369, 45, 496, 76
-0.996475, 295, 1, 310, 64
-0.996482, 391, 217, 406, 280
-0.996485, 1, 1, 128, 32
-0.996487, 353, 249, 480, 280
-0.996489, 289, 1, 304, 64
-0.996492, 257, 305, 500, 368
-0.996503, 201, 57, 216, 120
-0.996506, 421, 97, 452, 352
-0.99651, 1, 121, 256, 184
-0.99651, 213, 129, 228, 192
-0.996515, 177, 177, 304, 208
-0.996518, 463, 289, 478, 352
-0.996538, 181, 33, 212, 288
-0.996552, 369, 269, 496, 300
-0.996618, 321, 97, 352, 352
-0.99662, 461, 129, 492, 375
-0.996635, 337, 97, 368, 352
-0.996642, 193, 189, 320, 220
-0.99668, 257, 165, 384, 196
-0.996681, 49, 81, 176, 112
-0.99671, 273, 77, 400, 108
-0.996732, 225, 113, 352, 144
-0.996742, 17, 33, 144, 64
-0.996782, 353, 65, 480, 96
-0.99679, 145, 157, 272, 188
-0.996799, 1, 17, 128, 48
-0.996802, 49, 257, 176, 320
-0.99681, 433, 97, 464, 352
-0.996828, 229, 97, 260, 352
-0.996836, 281, 97, 312, 352
-0.996849, 81, 97, 112, 352
-0.996864, 149, 1, 180, 256
-0.996867, 229, 1, 260, 256
-0.996875, 81, 197, 208, 228
-0.996899, 145, 13, 272, 44
-0.996928, 145, 97, 176, 352
-0.99693, 33, 213, 160, 244
-0.996932, 193, 1, 320, 32
-0.996934, 193, 65, 224, 320
-0.996965, 353, 301, 480, 332
-0.996968, 129, 221, 256, 252
-0.996972, 65, 249, 320, 312
-0.997038, 265, 129, 296, 375
-0.997051, 201, 89, 216, 120
-0.997072, 161, 97, 192, 352
-0.997077, 121, 1, 152, 256
-0.997094, 281, 1, 312, 256
-0.997097, 305, 1, 432, 32
-0.997133, 309, 97, 340, 352
-0.997143, 427, 85, 442, 116
-0.997165, 257, 189, 384, 220
-0.997165, 177, 73, 304, 104
-0.997173, 445, 129, 476, 375
-0.997175, 273, 105, 400, 136
-0.997181, 177, 225, 304, 256
-0.997206, 369, 33, 496, 64
-0.997211, 129, 129, 144, 160
-0.997213, 113, 101, 240, 132
-0.997254, 273, 177, 400, 208
-0.997276, 431, 105, 446, 136
-0.997277, 353, 317, 480, 348
-0.997277, 161, 257, 416, 320
-0.997288, 423, 97, 438, 128
-0.997305, 1, 273, 500, 336
-0.997309, 285, 209, 300, 240
-0.997313, 81, 173, 208, 204
-0.997315, 353, 141, 480, 172
-0.997343, 337, 329, 464, 360
-0.997343, 377, 65, 408, 320
-0.997352, 193, 81, 208, 112
-0.997356, 289, 57, 416, 88
-0.997379, 209, 85, 336, 116
-0.997384, 315, 249, 330, 280
-0.997394, 57, 33, 88, 288
-0.9974, 263, 133, 278, 164
-0.997406, 209, 105, 224, 136
-0.997452, 193, 109, 208, 140
-0.997453, 211, 117, 226, 148
-0.997457, 437, 93, 452, 124
-0.997465, 295, 1, 310, 32
-0.997466, 307, 209, 322, 240
-0.997466, 305, 29, 432, 60
-0.997473, 269, 1, 300, 256
-0.997488, 453, 313, 468, 344
-0.997497, 1, 81, 128, 112
-0.997503, 433, 81, 448, 112
-0.997513, 129, 181, 256, 212
-0.997519, 65, 225, 192, 256
-0.997533, 129, 205, 256, 236
-0.997537, 389, 65, 420, 320
-0.997545, 229, 41, 244, 72
-0.997551, 325, 1, 356, 256
-0.997552, 321, 117, 448, 148
-0.99756, 337, 1, 368, 256
-0.997566, 337, 345, 464, 375
-0.997567, 421, 85, 436, 116
-0.99757, 295, 249, 310, 280
-0.997579, 203, 105, 218, 136
-0.997584, 289, 1, 304, 32
-0.997585, 239, 117, 254, 148
-0.997589, 301, 1, 316, 32
-0.997589, 307, 1, 322, 32
-0.997594, 321, 1, 336, 32
-0.997597, 245, 65, 276, 320
-0.997606, 409, 97, 440, 352
-0.99761, 321, 129, 448, 160
-0.997615, 279, 249, 294, 280
-0.99762, 205, 121, 220, 152
-0.997627, 327, 1, 342, 32
-0.997629, 321, 253, 336, 284
-0.997632, 315, 1, 330, 32
-0.99764, 357, 65, 388, 320
-0.997646, 319, 209, 334, 240
-0.997647, 297, 1, 328, 256
-0.997662, 333, 249, 348, 280
-0.997662, 193, 97, 208, 128
-0.997664, 333, 1, 348, 32
-0.997675, 147, 133, 162, 164
-0.997681, 97, 129, 128, 375
-0.997683, 187, 101, 202, 132
-0.997686, 427, 117, 442, 148
-0.997694, 379, 241, 394, 272
-0.997699, 293, 97, 324, 352
-0.997704, 209, 29, 336, 60
-0.997708, 341, 1, 356, 32
-0.997711, 133, 33, 164, 288
-0.997718, 17, 141, 144, 172
-0.997719, 273, 89, 400, 120
-0.997725, 193, 261, 320, 292
-0.997739, 243, 245, 258, 276
-0.997741, 351, 1, 366, 32
-0.997741, 209, 101, 336, 132
-0.997742, 229, 117, 244, 148
-0.997775, 183, 85, 198, 116
-0.997778, 231, 129, 246, 160
-0.997783, 209, 93, 224, 124
-0.997785, 129, 169, 256, 200
-0.997787, 305, 197, 432, 228
-0.99779, 327, 245, 342, 276
-0.997793, 339, 253, 354, 284
-0.997795, 297, 205, 312, 236
-0.997812, 313, 209, 328, 240
-0.997819, 199, 69, 214, 100
-0.997821, 291, 205, 306, 236
-0.997825, 113, 97, 144, 352
-0.997827, 217, 117, 232, 148
-0.99784, 445, 77, 460, 108
-0.997857, 461, 33, 492, 288
-0.997859, 369, 209, 496, 240
-0.997864, 253, 241, 268, 272
-0.997868, 309, 1, 340, 256
-0.997868, 265, 145, 280, 176
-0.997874, 407, 241, 422, 272
-0.997875, 113, 245, 240, 276
-0.997877, 441, 341, 456, 372
-0.997881, 53, 157, 68, 188
-0.997883, 271, 137, 286, 168
-0.997897, 265, 245, 280, 276
-0.997912, 257, 1, 288, 256
-0.997916, 135, 133, 150, 164
-0.997916, 103, 205, 118, 236
-0.99792, 285, 249, 300, 280
-0.997929, 369, 1, 496, 32
-0.997932, 31, 169, 46, 200
-0.997934, 265, 169, 280, 200
-0.997936, 25, 129, 56, 375
-0.997938, 223, 133, 238, 164
-0.997939, 153, 141, 168, 172
-0.997944, 373, 233, 388, 264
-0.997947, 241, 81, 256, 112
-0.997955, 305, 249, 320, 280
-0.997958, 21, 173, 36, 204
-0.997959, 333, 41, 348, 72
-0.997969, 281, 121, 296, 152
-0.99798, 141, 129, 156, 160
-0.997983, 149, 57, 164, 88
-0.997989, 273, 13, 400, 44
-0.997992, 45, 165, 60, 196
-0.998001, 191, 121, 206, 152
-0.998011, 161, 53, 176, 84
-0.998016, 439, 81, 454, 112
-0.998017, 105, 57, 120, 88
-0.99802, 327, 37, 342, 68
-0.998022, 325, 209, 340, 240
-0.998028, 389, 77, 404, 108
-0.998041, 185, 121, 200, 152
-0.998041, 271, 245, 286, 276
-0.998042, 461, 329, 476, 360
-0.99805, 433, 117, 448, 148
-0.998053, 457, 301, 472, 332
-0.998057, 321, 273, 448, 304
-0.998059, 223, 121, 238, 152
-0.998059, 463, 257, 478, 288
-0.99806, 395, 45, 410, 76
-0.998061, 447, 321, 462, 352
-0.998064, 381, 229, 396, 260
-0.998075, 193, 69, 208, 100
-0.998083, 449, 257, 464, 288
-0.998083, 279, 209, 294, 240
-0.998087, 225, 61, 352, 92
-0.998089, 217, 133, 232, 164
-0.998089, 175, 65, 190, 96
-0.998094, 367, 237, 382, 268
-0.998101, 259, 245, 274, 276
-0.998104, 265, 157, 280, 188
-0.998106, 321, 117, 336, 148
-0.998117, 273, 149, 288, 180
-0.998118, 423, 237, 438, 268
-0.998118, 443, 93, 458, 124
-0.99812, 233, 249, 248, 280
-0.99812, 155, 57, 170, 88
-0.998121, 355, 45, 370, 76
-0.998125, 345, 249, 360, 280
-0.998127, 465, 77, 480, 108
-0.998128, 461, 233, 476, 264
-0.998132, 83, 173, 98, 204
-0.998134, 273, 165, 288, 196
-0.998135, 363, 45, 378, 76
-0.998136, 119, 137, 134, 168
-0.998137, 389, 45, 404, 76
-0.998138, 377, 45, 392, 76
-0.998138, 383, 45, 398, 76
-0.998139, 425, 73, 440, 104
-0.998148, 369, 45, 384, 76
-0.998151, 59, 161, 74, 192
-0.998152, 17, 281, 144, 344
-0.998153, 483, 81, 498, 112
-0.998156, 419, 221, 434, 252
-0.998159, 443, 225, 458, 256
-0.998159, 347, 45, 362, 76
-0.998178, 341, 45, 356, 76
-0.998179, 37, 169, 52, 200
-0.998181, 365, 249, 380, 280
-0.998184, 95, 41, 110, 72
-0.998193, 337, 185, 464, 216
-0.998194, 49, 129, 80, 375
-0.998194, 205, 1, 236, 256
-0.998214, 69, 129, 100, 375
-0.998221, 37, 129, 68, 375
-0.998235, 353, 153, 480, 184
-0.998254, 1, 57, 128, 88
-0.998255, 401, 1, 432, 256
-0.998255, 17, 225, 144, 256
-0.998275, 289, 141, 416, 172
-0.998298, 129, 233, 256, 264
-0.998306, 105, 49, 120, 176
-0.998323, 129, 193, 256, 224
-0.998346, 133, 129, 164, 375
-0.998356, 131, 49, 146, 176
-0.998356, 145, 49, 160, 176
-0.998369, 153, 49, 168, 176
-0.998398, 117, 49, 132, 176
-0.998398, 273, 139, 304, 154
-0.998399, 89, 61, 120, 76
-0.998401, 269, 213, 300, 228
-0.998402, 205, 113, 236, 128
-0.998402, 65, 157, 96, 172
-0.998403, 441, 315, 472, 330
-0.998404, 109, 217, 140, 232
-0.998405, 133, 59, 164, 74
-0.998406, 453, 315, 484, 330
-0.998407, 413, 99, 444, 114
-0.998407, 465, 81, 496, 96
-0.998408, 77, 151, 108, 166
-0.998408, 113, 133, 144, 148
-0.998409, 165, 41, 196, 56
-0.998409, 273, 183, 304, 198
-0.998409, 437, 355, 468, 370
-0.99841, 429, 287, 460, 302
-0.99841, 165, 21, 196, 36
-0.998411, 229, 167, 260, 182
-0.998412, 369, 47, 400, 62
-0.998412, 181, 99, 212, 114
-0.998412, 417, 119, 448, 134
-0.998413, 181, 79, 212, 94
-0.998413, 141, 133, 172, 148
-0.998413, 33, 169, 64, 184
-0.998413, 133, 85, 164, 100
-0.998416, 465, 237, 496, 252
-0.998417, 105, 139, 136, 154
-0.998418, 233, 233, 264, 248
-0.998418, 169, 87, 200, 102
-0.998418, 369, 121, 496, 152
-0.99842, 245, 165, 276, 180
-0.998422, 165, 35, 196, 50
-0.998422, 429, 131, 460, 146
-0.998424, 193, 97, 224, 112
-0.998426, 437, 345, 468, 360
-0.998426, 305, 119, 336, 134
-0.998427, 249, 147, 280, 162
-0.998427, 73, 183, 104, 198
-0.998428, 161, 81, 192, 96
-0.998429, 261, 187, 292, 202
-0.99843, 145, 147, 176, 162
-0.998433, 181, 123, 212, 138
-0.998433, 85, 55, 116, 70
-0.998434, 317, 207, 348, 222
-0.998435, 417, 239, 448, 254
-0.998437, 153, 49, 216, 64
-0.998437, 429, 361, 460, 375
-0.998437, 241, 251, 272, 266
-0.998438, 249, 153, 280, 168
-0.998439, 317, 221, 348, 236
-0.998439, 425, 101, 456, 116
-0.99844, 417, 113, 448, 128
-0.998441, 121, 59, 152, 74
-0.998441, 153, 15, 216, 30
-0.998442, 111, 49, 126, 176
-0.998442, 293, 121, 324, 136
-0.998443, 153, 1, 216, 16
-0.998443, 293, 227, 324, 242
-0.998444, 177, 113, 240, 128
-0.998444, 465, 231, 496, 246
-0.998444, 453, 271, 484, 286
-0.998445, 281, 211, 344, 226
-0.998446, 297, 41, 328, 56
-0.998446, 189, 115, 220, 130
-0.998446, 149, 83, 180, 98
-0.998446, 269, 261, 300, 276
-0.998447, 153, 27, 216, 42
-0.998451, 165, 27, 196, 42
-0.998452, 165, 51, 196, 66
-0.998452, 153, 9, 216, 24
-0.998453, 201, 119, 264, 134
-0.998454, 361, 245, 392, 260
-0.998454, 265, 217, 328, 232
-0.998454, 445, 327, 476, 342
-0.998454, 153, 55, 216, 70
-0.998454, 153, 21, 216, 36
-0.998455, 181, 61, 212, 76
-0.998456, 393, 245, 424, 260
-0.998456, 305, 251, 336, 266
-0.998456, 17, 177, 48, 192
-0.998457, 253, 239, 284, 254
-0.998457, 337, 119, 368, 134
-0.99846, 317, 119, 348, 134
-0.998461, 153, 35, 216, 50
-0.998466, 225, 45, 256, 60
-0.998466, 217, 111, 248, 126
-0.998467, 381, 47, 412, 62
-0.998468, 177, 121, 240, 136
-0.998469, 229, 117, 260, 132
-0.998469, 101, 61, 132, 76
-0.99847, 285, 3, 316, 18
-0.998472, 289, 251, 352, 266
-0.998472, 233, 245, 264, 260
-0.998473, 305, 261, 336, 276
-0.998477, 425, 107, 456, 122
-0.998478, 125, 143, 156, 158
-0.998478, 433, 81, 496, 96
-0.998478, 153, 41, 216, 56
-0.99848, 429, 119, 460, 134
-0.998481, 145, 59, 176, 74
-0.998482, 269, 249, 300, 264
-0.998484, 209, 121, 240, 136
-0.998485, 393, 85, 456, 100
-0.998486, 305, 257, 368, 272
-0.998487, 305, 227, 336, 242
-0.998487, 65, 57, 128, 72
-0.998488, 429, 113, 460, 128
-0.998488, 273, 219, 304, 234
-0.998489, 253, 245, 284, 260
-0.99849, 445, 81, 476, 96
-0.99849, 273, 121, 336, 136
-0.998491, 429, 125, 460, 140
-0.998491, 357, 239, 388, 254
-0.998492, 333, 255, 364, 270
-0.998492, 197, 107, 228, 122
-0.998493, 41, 165, 104, 180
-0.998495, 293, 263, 324, 278
-0.998495, 261, 173, 292, 188
-0.998496, 297, 119, 360, 134
-0.998497, 229, 127, 260, 142
-0.998497, 433, 235, 496, 250
-0.998499, 217, 131, 248, 146
-0.998499, 293, 251, 324, 266
-0.998499, 145, 87, 208, 102
-0.998501, 233, 239, 264, 254
-0.998501, 261, 181, 292, 196
-0.998502, 105, 137, 168, 152
-0.998504, 137, 49, 152, 176
-0.998504, 209, 137, 240, 152
-0.998505, 261, 137, 292, 152
-0.998505, 265, 257, 328, 272
-0.998505, 185, 55, 248, 70
-0.998506, 313, 213, 344, 228
-0.998506, 329, 251, 392, 266
-0.998507, 445, 321, 476, 336
-0.998507, 317, 257, 348, 272
-0.998509, 21, 171, 52, 186
-0.998509, 293, 205, 324, 220
-0.998509, 121, 131, 184, 146
-0.99851, 265, 251, 328, 266
-0.998511, 113, 59, 176, 74
-0.998513, 261, 163, 292, 178
-0.998514, 329, 249, 360, 264
-0.998514, 57, 1, 120, 16
-0.998515, 185, 45, 248, 60
-0.998515, 225, 243, 288, 258
-0.998518, 201, 113, 264, 128
-0.998518, 297, 211, 328, 226
-0.99852, 353, 253, 384, 268
-0.998522, 369, 197, 496, 228
-0.998522, 261, 143, 292, 158
-0.998523, 373, 247, 404, 262
-0.998524, 409, 97, 472, 112
-0.998526, 309, 39, 340, 54
-0.998527, 181, 85, 212, 100
-0.998528, 45, 163, 76, 178
-0.998529, 73, 151, 136, 166
-0.99853, 353, 247, 416, 262
-0.99853, 345, 247, 376, 262
-0.998531, 425, 349, 488, 364
-0.998531, 353, 47, 416, 62
-0.998533, 273, 223, 336, 238
-0.998534, 449, 1, 480, 256
-0.998536, 217, 133, 280, 148
-0.998536, 193, 13, 320, 44
-0.998536, 57, 7, 120, 22
-0.998536, 425, 339, 488, 354
-0.998538, 97, 143, 160, 158
-0.998538, 89, 61, 152, 76
-0.998539, 281, 205, 344, 220
-0.998541, 123, 49, 138, 176
-0.998541, 425, 329, 488, 344
-0.998541, 153, 61, 216, 76
-0.998542, 289, 221, 320, 236
-0.998542, 425, 91, 456, 106
-0.998542, 153, 81, 216, 96
-0.998542, 289, 217, 352, 232
-0.998543, 289, 41, 352, 56
-0.998544, 261, 155, 292, 170
-0.998544, 329, 241, 392, 256
-0.998545, 185, 95, 248, 110
-0.998547, 305, 219, 336, 234
-0.998549, 121, 143, 184, 158
-0.998549, 57, 51, 120, 66
-0.998549, 97, 215, 160, 230
-0.998549, 369, 21, 496, 52
-0.998551, 73, 89, 136, 104
-0.998553, 145, 139, 208, 154
-0.998553, 377, 91, 440, 106
-0.998553, 57, 13, 120, 28
-0.998554, 25, 171, 88, 186
-0.998555, 305, 245, 368, 260
-0.998555, 201, 87, 264, 102
-0.998556, 185, 81, 248, 96
-0.998556, 153, 127, 216, 142
-0.998558, 57, 45, 120, 60
-0.998559, 261, 149, 292, 164
-0.998559, 97, 289, 224, 352
-0.998559, 417, 91, 480, 106
-0.99856, 201, 125, 264, 140
-0.99856, 201, 107, 264, 122
-0.998561, 289, 263, 352, 278
-0.998562, 225, 73, 352, 104
-0.998563, 233, 263, 296, 278
-0.998564, 161, 107, 224, 122
-0.998565, 281, 211, 312, 226
-0.998566, 433, 271, 496, 286
-0.998566, 317, 251, 348, 266
-0.998567, 225, 257, 288, 272
-0.998568, 113, 149, 176, 164
-0.998568, 217, 45, 280, 60
-0.998569, 233, 125, 296, 140
-0.998569, 417, 289, 480, 304
-0.998569, 177, 143, 240, 158
-0.998573, 409, 307, 472, 322
-0.998573, 281, 5, 344, 20
-0.998573, 409, 239, 472, 254
-0.998573, 41, 159, 104, 174
-0.998574, 321, 119, 384, 134
-0.998574, 57, 21, 120, 36
-0.998574, 65, 63, 128, 78
-0.998575, 153, 115, 216, 130
-0.998577, 281, 121, 312, 136
-0.998578, 185, 61, 248, 76
-0.998578, 73, 145, 136, 160
-0.998578, 253, 255, 284, 270
-0.998579, 421, 83, 452, 98
-0.99858, 249, 245, 312, 260
-0.99858, 57, 39, 120, 54
-0.998581, 417, 359, 480, 374
-0.998582, 177, 127, 240, 142
-0.998583, 433, 321, 496, 336
-0.998585, 401, 263, 464, 278
-0.998585, 201, 239, 264, 254
-0.998585, 57, 207, 120, 222
-0.998586, 57, 27, 120, 42
-0.998588, 145, 257, 272, 288
-0.998589, 233, 183, 296, 198
-0.998589, 189, 91, 220, 106
-0.998589, 409, 299, 472, 314
-0.998589, 153, 121, 216, 136
-0.99859, 257, 263, 320, 278
-0.998591, 125, 133, 156, 148
-0.998592, 225, 117, 288, 132
-0.998593, 145, 147, 208, 162
-0.998594, 377, 79, 440, 94
-0.998595, 297, 223, 360, 238
-0.998595, 377, 241, 440, 256
-0.998595, 409, 323, 472, 338
-0.998596, 353, 235, 416, 250
-0.998598, 57, 33, 120, 48
-0.998598, 89, 53, 152, 68
-0.998599, 185, 249, 248, 264
-0.998599, 193, 137, 256, 152
-0.9986, 201, 101, 264, 116
-0.9986, 161, 101, 224, 116
-0.998601, 377, 97, 440, 112
-0.998601, 49, 181, 112, 196
-0.998602, 113, 91, 176, 106
-0.998603, 177, 39, 240, 54
-0.998605, 417, 103, 480, 118
-0.998605, 153, 67, 216, 82
-0.998608, 241, 133, 304, 148
-0.998608, 9, 177, 72, 192
-0.998608, 265, 129, 328, 144
-0.998609, 161, 93, 224, 108
-0.99861, 337, 81, 400, 96
-0.99861, 329, 257, 392, 272
-0.998611, 65, 213, 128, 228
-0.998612, 401, 283, 464, 298
-0.998629, 321, 173, 448, 204
-0.99863, 89, 129, 104, 256
-0.998631, 161, 49, 176, 176
-0.998671, 173, 129, 204, 375
-0.998679, 485, 65, 500, 192
-0.998688, 479, 65, 494, 192
-0.998717, 99, 49, 114, 176
-0.998717, 95, 1, 110, 128
-0.998717, 199, 65, 214, 192
-0.998727, 311, 17, 326, 144
-0.998731, 93, 81, 108, 208
-0.998736, 193, 49, 208, 176
-0.998736, 99, 129, 114, 256
-0.998737, 429, 1, 460, 256
-0.998741, 469, 65, 484, 192
-0.99876, 79, 81, 94, 208
-0.998765, 85, 81, 100, 208
-0.998777, 317, 17, 332, 144
-0.998788, 1, 129, 32, 375
-0.998793, 1, 93, 128, 124
-0.998794, 223, 113, 238, 240
-0.998811, 13, 129, 44, 375
-0.998841, 459, 241, 474, 368
-0.998846, 239, 81, 254, 208
-0.998859, 289, 153, 416, 184
-0.99889, 305, 17, 320, 144
-0.998892, 83, 129, 98, 256
-0.998893, 483, 193, 498, 320
-0.998907, 167, 33, 182, 160
-0.998913, 265, 129, 280, 256
-0.998917, 175, 49, 190, 176
-0.998924, 469, 17, 484, 144
-0.998936, 231, 65, 246, 192
-0.998936, 111, 129, 126, 256
-0.998949, 463, 65, 478, 192
-0.998955, 323, 17, 338, 144
-0.998956, 209, 281, 336, 344
-0.998956, 157, 129, 172, 256
-0.998971, 425, 81, 440, 208
-0.998975, 1, 69, 128, 100
-0.998988, 133, 97, 148, 224
-0.998988, 181, 49, 196, 176
-0.998996, 217, 113, 232, 240
-0.998996, 127, 113, 142, 240
-0.998997, 187, 65, 202, 192
-0.999008, 283, 97, 298, 224
-0.999017, 437, 81, 452, 208
-0.999038, 149, 97, 164, 224
-0.999039, 167, 81, 182, 208
-0.999043, 161, 1, 176, 128
-0.999046, 431, 193, 446, 320
-0.999049, 465, 225, 480, 352
-0.99905, 229, 161, 244, 288
-0.999051, 205, 65, 220, 192
-0.999064, 121, 113, 136, 240
-0.999069, 105, 97, 120, 224
-0.99907, 1, 305, 500, 368
-0.999072, 325, 177, 340, 304
-0.999072, 453, 225, 468, 352
-0.999079, 247, 97, 262, 224
-0.99908, 93, 177, 108, 304
-0.99908, 421, 193, 436, 320
-0.999085, 431, 81, 446, 208
-0.999086, 485, 145, 500, 272
-0.999089, 211, 113, 226, 240
-0.999095, 395, 193, 410, 320
-0.999095, 37, 145, 52, 272
-0.999104, 477, 193, 492, 320
-0.999105, 279, 1, 294, 128
-0.999106, 353, 97, 368, 224
-0.999112, 311, 177, 326, 304
-0.999114, 457, 65, 472, 192
-0.999146, 127, 1, 142, 128
-0.999151, 343, 97, 358, 224
-0.999152, 327, 97, 342, 224
-0.999157, 77, 129, 92, 256
-0.999158, 477, 145, 492, 272
-0.999159, 333, 97, 348, 224
-0.999168, 101, 1, 116, 128
-0.999169, 191, 1, 206, 128
-0.999169, 401, 193, 416, 320
-0.999171, 85, 1, 100, 128
-0.999175, 7, 161, 22, 288
-0.999178, 329, 17, 344, 144
-0.999179, 431, 241, 446, 368
-0.999179, 339, 177, 354, 304
-0.99918, 47, 145, 62, 272
-0.999181, 331, 177, 346, 304
-0.999184, 299, 17, 314, 144
-0.999184, 139, 113, 154, 240
-0.999184, 415, 193, 430, 320
-0.999185, 445, 65, 460, 192
-0.999185, 419, 65, 434, 192
-0.999186, 55, 145, 70, 272
-0.999189, 389, 193, 404, 320
-0.99919, 99, 177, 114, 304
-0.999191, 273, 97, 288, 224
-0.999193, 193, 305, 320, 368
-0.9992, 387, 65, 402, 192
-0.999204, 255, 97, 270, 224
-0.999207, 407, 193, 422, 320
-0.999218, 181, 97, 196, 224
-0.999219, 281, 177, 296, 304
-0.999221, 275, 177, 290, 304
-0.999223, 471, 241, 486, 368
-0.999224, 349, 177, 364, 304
-0.999231, 289, 193, 304, 320
-0.999234, 215, 193, 230, 320
-0.999236, 437, 241, 452, 368
-0.999246, 45, 33, 76, 288
-0.999251, 13, 161, 28, 288
-0.999252, 301, 97, 316, 224
-0.999258, 317, 177, 332, 304
-0.999258, 273, 305, 400, 368
-0.999263, 335, 49, 350, 176
-0.999264, 239, 129, 254, 256
-0.999268, 313, 97, 328, 224
-0.999271, 239, 33, 254, 160
-0.999273, 475, 17, 490, 144
-0.999273, 319, 97, 334, 224
-0.999274, 73, 65, 88, 192
-0.999274, 199, 17, 214, 144
-0.999275, 163, 129, 178, 256
-0.999278, 107, 1, 122, 128
-0.999281, 21, 161, 36, 288
-0.999287, 79, 1, 94, 128
-0.999293, 471, 193, 486, 320
-0.999297, 425, 241, 440, 368
-0.999298, 203, 113, 218, 240
-0.999302, 461, 17, 476, 144
-0.999303, 213, 65, 228, 192
-0.999303, 61, 145, 76, 272
-0.999308, 443, 241, 458, 368
-0.99931, 29, 161, 44, 288
-0.999312, 87, 177, 102, 304
-0.999313, 13, 33, 44, 288
-0.99932, 413, 1, 444, 256
-0.999429, 33, 33, 64, 288
-0.999602, 411, 241, 426, 256
-0.999603, 249, 249, 264, 264
-0.999603, 167, 57, 182, 72
-0.999603, 419, 239, 434, 254
-0.999604, 241, 241, 256, 256
-0.999605, 383, 47, 398, 62
-0.999605, 295, 251, 310, 266
-0.999605, 389, 47, 404, 62
-0.999606, 431, 351, 446, 366
-0.999606, 433, 361, 448, 375
-0.999606, 479, 235, 494, 250
-0.999607, 139, 59, 154, 74
-0.999608, 273, 163, 288, 178
-0.999609, 265, 181, 280, 196
-0.999609, 265, 161, 280, 176
-0.999609, 287, 261, 302, 276
-0.99961, 423, 113, 438, 128
-0.99961, 323, 213, 338, 228
-0.99961, 407, 249, 422, 264
-0.999611, 341, 119, 356, 134
-0.999611, 209, 99, 224, 114
-0.999611, 309, 209, 324, 224
-0.999612, 273, 153, 288, 168
-0.999614, 239, 85, 254, 100
-0.999614, 305, 39, 320, 54
-0.999615, 153, 83, 168, 98
-0.999616, 265, 149, 280, 164
-0.999618, 315, 265, 330, 280
-0.999618, 267, 247, 282, 262
-0.999619, 275, 181, 290, 196
-0.999619, 385, 247, 400, 262
-0.999619, 275, 135, 290, 150
-0.999619, 147, 143, 162, 158
-0.99962, 377, 247, 392, 262
-0.99962, 299, 213, 314, 228
-0.999622, 329, 119, 344, 134
-0.999623, 105, 61, 120, 76
-0.999624, 41, 167, 56, 182
-0.999624, 235, 239, 250, 254
-0.999624, 423, 81, 438, 96
-0.999625, 133, 133, 148, 148
-0.999625, 265, 143, 280, 158
-0.999625, 239, 123, 254, 138
-0.999625, 427, 127, 442, 142
-0.999625, 445, 81, 460, 96
-0.999627, 265, 167, 280, 182
-0.999627, 317, 229, 332, 244
-0.999629, 261, 253, 276, 268
-0.999629, 367, 253, 382, 268
-0.999629, 375, 235, 390, 250
-0.999629, 273, 147, 288, 162
-0.99963, 297, 207, 312, 222
-0.99963, 203, 123, 218, 138
-0.99963, 293, 221, 308, 236
-0.99963, 197, 91, 212, 106
-0.999632, 305, 263, 320, 278
-0.999633, 327, 221, 342, 236
-0.999635, 19, 175, 34, 190
-0.999635, 275, 141, 290, 156
-0.999637, 253, 243, 268, 258
-0.999637, 315, 251, 330, 266
-0.999637, 115, 61, 130, 76
-0.999638, 425, 107, 440, 122
-0.99964, 31, 171, 46, 186
-0.99964, 335, 119, 350, 134
-0.999641, 189, 103, 204, 118
-0.999641, 209, 105, 224, 120
-0.999642, 103, 221, 118, 236
-0.999642, 299, 121, 314, 136
-0.999642, 195, 109, 210, 124
-0.999643, 265, 155, 280, 170
-0.999644, 229, 45, 244, 60
-0.999645, 381, 241, 396, 256
-0.999645, 343, 255, 358, 270
-0.999645, 229, 131, 244, 146
-0.999645, 215, 115, 230, 130
-0.999646, 289, 1, 304, 16
-0.999647, 187, 125, 202, 140
-0.999648, 299, 221, 314, 236
-0.999649, 199, 79, 214, 94
-0.999649, 397, 47, 412, 62
-0.99965, 321, 39, 336, 54
-0.99965, 223, 135, 238, 150
-0.999651, 331, 257, 346, 272
-0.999651, 419, 91, 434, 106
-0.999651, 369, 245, 384, 260
-0.999652, 369, 237, 384, 252
-0.999652, 433, 121, 448, 136
-0.999654, 261, 245, 276, 260
-0.999655, 429, 95, 444, 110
-0.999655, 351, 247, 366, 262
-0.999656, 345, 249, 360, 264
-0.999658, 25, 173, 40, 188
-0.999658, 161, 57, 176, 72
-0.999658, 359, 251, 374, 266
-0.999658, 293, 215, 308, 230
-0.999661, 427, 121, 442, 136
-0.999662, 193, 97, 208, 112
-0.999663, 293, 121, 308, 136
-0.999663, 451, 311, 466, 326
-0.999663, 307, 223, 322, 238
-0.999664, 313, 257, 328, 272
-0.999671, 143, 133, 158, 148
-0.999671, 283, 213, 298, 228
-0.999671, 311, 39, 326, 54
-0.999672, 209, 119, 224, 134
-0.999672, 273, 261, 288, 276
-0.999673, 429, 101, 444, 116
-0.999677, 53, 161, 68, 176
-0.999678, 285, 221, 300, 236
-0.999678, 431, 115, 446, 130
-0.99968, 423, 101, 438, 116
-0.999683, 267, 257, 282, 272
-0.999683, 247, 243, 262, 258
-0.999684, 255, 251, 270, 266
-0.999685, 435, 83, 450, 98
-0.999686, 263, 137, 278, 152
-0.999689, 321, 257, 336, 272
-0.999692, 327, 251, 342, 266
-0.999693, 283, 121, 298, 136
-0.999694, 277, 217, 292, 232
-0.999697, 431, 107, 446, 122
-0.999701, 289, 209, 304, 224
-0.999702, 425, 87, 440, 102
-0.999703, 193, 85, 208, 100
-0.999716, 337, 251, 352, 266
-0.999716, 321, 251, 336, 266
-0.99972, 127, 131, 142, 146
-0.99972, 203, 89, 218, 104
-0.999757, 455, 317, 470, 332
-0.999876, 1, 33, 32, 288
-0.999903, 129, 241, 192, 368
-0.99996, 145, 297, 272, 360
-1.00017, 65, 273, 320, 336
-1.00037, 97, 313, 224, 375
-1.00041, 1, 257, 128, 320
-1.00057, 65, 297, 320, 360
-1.00064, 161, 281, 416, 344
-1.0007, 49, 305, 176, 368
-1.00094, 161, 305, 416, 368
-1.00153, 17, 241, 144, 368
-1.0026, 1, 313, 128, 375
-1.00289, 105, 241, 168, 368
-1.00458, 1, 209, 64, 336
-1.00513, 33, 241, 96, 368
-1.00772, 9, 65, 72, 192
