1988
-0.506847, 1, 129, 500, 375
-0.6301, 129, 129, 384, 375
-0.667057, 1, 1, 500, 256
-0.696458, 1, 1, 500, 375
-0.704061, 129, 1, 384, 375
-0.714986, 225, 1, 480, 375
-0.730342, 225, 129, 480, 375
-0.793449, 257, 1, 500, 256
-0.812736, 33, 1, 288, 375
-0.841776, 161, 33, 416, 288
-0.868378, 193, 129, 320, 375
-0.893226, 145, 129, 272, 375
-0.894682, 193, 1, 320, 375
-0.898978, 337, 129, 464, 375
-0.900416, 369, 33, 496, 288
-0.904381, 241, 1, 368, 375
-0.906229, 1, 241, 500, 368
-0.910756, 241, 129, 368, 375
-0.912946, 193, 145, 448, 272
-0.916189, 1, 129, 256, 375
-0.917236, 1, 161, 500, 288
-0.917694, 289, 129, 416, 375
-0.921426, 145, 1, 272, 375
-0.921532, 97, 129, 224, 375
-0.923287, 209, 33, 336, 288
-0.925567, 289, 1, 416, 375
-0.927188, 369, 1, 496, 375
-0.928563, 257, 33, 384, 288
-0.931009, 129, 193, 384, 320
-0.934491, 65, 33, 320, 288
-0.93608, 193, 145, 320, 272
-0.936126, 145, 209, 208, 336
-0.936274, 145, 33, 272, 288
-0.938242, 65, 241, 320, 368
-0.939198, 129, 209, 256, 336
-0.940027, 169, 209, 232, 336
-0.941203, 97, 1, 224, 375
-0.946009, 49, 129, 176, 375
-0.946358, 321, 33, 448, 288
-0.948199, 97, 145, 352, 272
-0.951579, 81, 209, 208, 336
-0.952435, 121, 209, 184, 336
-0.95298, 201, 161, 264, 288
-0.953126, 49, 1, 176, 375
-0.95375, 153, 225, 216, 288
-0.95632, 257, 97, 500, 224
-0.957511, 153, 161, 216, 288
-0.957865, 145, 161, 272, 288
-0.95804, 33, 193, 288, 320
-0.958112, 273, 161, 400, 288
-0.959228, 129, 257, 192, 320
-0.959379, 225, 145, 288, 272
-0.960154, 161, 241, 416, 368
-0.960246, 369, 129, 496, 256
-0.962495, 1, 313, 64, 375
-0.963577, 321, 129, 448, 256
-0.963758, 257, 145, 320, 272
-0.965264, 281, 161, 344, 288
-0.967136, 177, 209, 304, 336
-0.967139, 157, 209, 188, 336
-0.967427, 305, 161, 368, 288
-0.96823, 1, 81, 500, 208
-0.968346, 329, 161, 392, 288
-0.96889, 353, 129, 416, 256
-0.969051, 377, 129, 440, 256
-0.969933, 233, 41, 296, 104
-0.970887, 81, 289, 144, 352
-0.970917, 41, 297, 104, 360
-0.970982, 1, 129, 256, 256
-0.971301, 153, 265, 216, 328
-0.971341, 441, 25, 472, 88
-0.971409, 217, 153, 280, 216
-0.971495, 177, 161, 240, 288
-0.971649, 241, 113, 368, 240
-0.971677, 1, 1, 128, 375
-0.972535, 169, 209, 200, 336
-0.972842, 1, 129, 128, 375
-0.973042, 161, 265, 192, 328
-0.973068, 433, 129, 496, 256
-0.973434, 97, 145, 224, 272
-0.973694, 257, 1, 500, 128
-0.973865, 185, 201, 248, 264
-0.973873, 369, 17, 496, 144
-0.974241, 145, 201, 208, 264
-0.974511, 433, 25, 496, 88
-0.974514, 313, 177, 376, 240
-0.974529, 241, 145, 304, 208
-0.975026, 81, 257, 208, 320
-0.975185, 401, 25, 464, 88
-0.975235, 129, 225, 256, 288
-0.975281, 65, 33, 192, 288
-0.975314, 137, 289, 200, 352
-0.97536, 145, 97, 272, 224
-0.97551, 401, 113, 464, 240
-0.975582, 233, 1, 296, 256
-0.97559, 17, 241, 144, 368
-0.975632, 209, 153, 336, 216
-0.975802, 185, 209, 216, 336
-0.97633, 129, 225, 192, 288
-0.976504, 161, 97, 416, 224
-0.976618, 145, 209, 176, 336
-0.976984, 161, 225, 192, 288
-0.977018, 105, 289, 168, 352
-0.977583, 177, 257, 240, 320
-0.977611, 177, 153, 240, 216
-0.977672, 241, 65, 304, 192
-0.977849, 225, 193, 480, 320
-0.977853, 281, 169, 344, 232
-0.977879, 149, 257, 180, 320
-0.978037, 217, 129, 280, 375
-0.978298, 265, 33, 296, 96
-0.978325, 201, 177, 264, 240
-0.978659, 73, 241, 136, 368
-0.978783, 173, 225, 204, 288
-0.979012, 1, 297, 128, 360
-0.979016, 177, 113, 240, 240
-0.979131, 417, 33, 480, 288
-0.979231, 337, 161, 400, 224
-0.979606, 289, 113, 352, 240
-0.979689, 433, 153, 496, 216
-0.979732, 329, 313, 392, 375
-0.979802, 433, 17, 496, 144
-0.98027, 377, 137, 440, 200
-0.980373, 321, 177, 448, 304
-0.980506, 201, 193, 232, 320
-0.980819, 9, 289, 72, 352
-0.980883, 129, 273, 256, 336
-0.980913, 213, 161, 244, 288
-0.980961, 161, 177, 224, 240
-0.98098, 205, 201, 236, 264
-0.981018, 81, 289, 208, 352
-0.981098, 17, 305, 48, 368
-0.981272, 81, 233, 208, 296
-0.981378, 249, 129, 312, 375
-0.981427, 97, 265, 160, 328
-0.981461, 409, 33, 472, 160
-0.981708, 193, 177, 320, 240
-0.981839, 321, 113, 384, 240
-0.981859, 313, 145, 376, 208
-0.982095, 369, 81, 496, 208
-0.982315, 429, 25, 460, 88
-0.982457, 149, 225, 180, 288
-0.982462, 65, 265, 128, 328
-0.982463, 289, 81, 416, 208
-0.982512, 401, 145, 464, 208
-0.982923, 33, 297, 64, 360
-0.98307, 225, 145, 256, 272
-0.983076, 337, 241, 464, 368
-0.983127, 353, 313, 416, 375
-0.983299, 145, 201, 272, 264
-0.983357, 417, 49, 480, 112
-0.983394, 353, 153, 480, 216
-0.983409, 33, 241, 96, 368
-0.983411, 173, 273, 204, 336
-0.98356, 193, 129, 256, 375
-0.98365, 169, 161, 200, 288
-0.983697, 273, 169, 400, 232
-0.983798, 161, 289, 224, 352
-0.983991, 105, 217, 168, 280
-0.984045, 265, 97, 328, 224
-0.984101, 217, 97, 280, 224
-0.984165, 265, 33, 328, 96
-0.984179, 249, 1, 312, 375
-0.984325, 353, 129, 416, 375
-0.98445, 241, 241, 368, 368
-0.984479, 129, 129, 192, 256
-0.984507, 153, 129, 216, 375
-0.984564, 193, 201, 320, 264
-0.984659, 289, 137, 352, 200
-0.984778, 409, 161, 472, 288
-0.984781, 157, 161, 188, 288
-0.984869, 129, 153, 256, 216
-0.984951, 193, 209, 256, 336
-0.984962, 177, 225, 240, 288
-0.984985, 217, 177, 248, 240
-0.985066, 313, 161, 344, 288
-0.985082, 249, 65, 312, 128
-0.985151, 257, 33, 320, 288
-0.985285, 5, 313, 36, 375
-0.985374, 289, 241, 416, 368
-0.985685, 301, 161, 332, 288
-0.985746, 97, 209, 160, 336
-0.985759, 161, 249, 288, 312
-0.985874, 185, 225, 216, 288
-0.985921, 425, 81, 488, 208
-0.986008, 265, 145, 328, 208
-0.986091, 245, 129, 276, 256
-0.98616, 441, 1, 472, 128
-0.986185, 369, 33, 496, 96
-0.986218, 393, 313, 456, 375
-0.986227, 281, 313, 344, 375
-0.986231, 257, 241, 500, 368
-0.986234, 269, 65, 300, 192
-0.986261, 209, 201, 272, 264
-0.986291, 385, 129, 448, 375
-0.986326, 225, 153, 256, 216
-0.986468, 433, 313, 496, 375
-0.986618, 181, 201, 212, 264
-0.986792, 185, 161, 216, 288
-0.986793, 361, 161, 424, 224
-0.986815, 269, 65, 300, 128
-0.98684, 193, 97, 320, 224
-0.98702, 433, 129, 496, 375
-0.987084, 257, 145, 384, 208
-0.98709, 41, 265, 104, 328
-0.987105, 425, 129, 488, 192
-0.987239, 257, 169, 320, 232
-0.987341, 329, 161, 360, 288
-0.987345, 273, 129, 336, 375
-0.987362, 89, 289, 120, 352
-0.987425, 437, 49, 468, 112
-0.987433, 353, 177, 416, 304
-0.987437, 329, 129, 392, 375
-0.987451, 241, 313, 368, 375
-0.987452, 289, 161, 320, 288
-0.987459, 297, 129, 360, 375
-0.987479, 193, 49, 448, 176
-0.987504, 233, 313, 296, 375
-0.987507, 117, 289, 148, 352
-0.98753, 113, 177, 240, 240
-0.987561, 49, 297, 80, 360
-0.987657, 365, 145, 396, 272
-0.987671, 453, 17, 484, 80
-0.98778, 237, 145, 268, 208
-0.987787, 1, 241, 64, 368
-0.987828, 305, 145, 432, 208
-0.987842, 369, 129, 496, 192
-0.988114, 269, 129, 300, 256
-0.988211, 257, 129, 288, 256
-0.988228, 185, 249, 216, 312
-0.988236, 393, 33, 456, 288
-0.988299, 217, 9, 280, 72
-0.988328, 369, 313, 496, 375
-0.988356, 345, 161, 376, 288
-0.988484, 209, 33, 272, 288
-0.98858, 253, 33, 284, 96
-0.988606, 361, 161, 392, 224
-0.988723, 129, 289, 160, 352
-0.988744, 341, 177, 372, 240
-0.988769, 313, 169, 344, 232
-0.988786, 305, 313, 432, 375
-0.988901, 193, 201, 224, 264
-0.988957, 353, 137, 416, 200
-0.989043, 33, 273, 160, 336
-0.989055, 429, 153, 460, 216
-0.989163, 105, 289, 136, 352
-0.989229, 377, 81, 440, 208
-0.989229, 177, 273, 304, 336
-0.989343, 233, 17, 296, 144
-0.989348, 153, 225, 216, 256
-0.989361, 409, 129, 472, 375
-0.989459, 425, 129, 456, 256
-0.989508, 273, 1, 336, 375
-0.989517, 329, 177, 360, 240
-0.989559, 133, 209, 164, 336
-0.989589, 281, 57, 312, 120
-0.9896, 377, 129, 408, 256
-0.989739, 129, 129, 192, 375
-0.989759, 161, 289, 192, 352
-0.989803, 69, 297, 100, 360
-0.9899, 185, 129, 248, 192
-0.989901, 273, 1, 336, 128
-0.989915, 353, 9, 480, 72
-0.989923, 457, 129, 488, 256
-0.989984, 49, 161, 176, 288
-0.990056, 145, 129, 272, 192
-0.990085, 277, 153, 308, 216
-0.990118, 125, 265, 156, 328
-0.990161, 249, 145, 280, 208
-0.990208, 441, 1, 472, 64
-0.990263, 241, 65, 368, 192
-0.990311, 433, 1, 496, 64
-0.990346, 329, 241, 392, 368
-0.990352, 145, 153, 208, 216
-0.990362, 301, 169, 332, 232
-0.990416, 241, 241, 304, 368
-0.990447, 217, 129, 280, 192
-0.990447, 353, 241, 416, 368
-0.990453, 137, 265, 200, 296
-0.990478, 169, 281, 232, 312
-0.99049, 425, 33, 488, 64
-0.990513, 49, 313, 176, 375
-0.990522, 129, 297, 256, 360
-0.990527, 1, 329, 64, 360
-0.990587, 385, 241, 448, 368
-0.99061, 193, 169, 448, 232
-0.990695, 201, 273, 264, 336
-0.990735, 429, 33, 460, 160
-0.990821, 81, 293, 144, 324
-0.990843, 321, 177, 448, 240
-0.990854, 9, 309, 72, 340
-0.990887, 1, 289, 256, 352
-0.990921, 137, 257, 168, 320
-0.990984, 401, 33, 464, 64
-0.990997, 81, 313, 144, 375
-0.99101, 265, 9, 328, 72
-0.991102, 453, 1, 484, 128
-0.991128, 137, 277, 200, 308
-0.991186, 145, 237, 208, 268
-0.991203, 201, 205, 264, 236
-0.991255, 201, 225, 232, 288
-0.991337, 265, 1, 296, 128
-0.991366, 313, 177, 376, 208
-0.991372, 49, 345, 112, 375
-0.991392, 89, 257, 120, 320
-0.991422, 105, 293, 168, 324
-0.991437, 177, 217, 240, 248
-0.991437, 113, 253, 176, 284
-0.991458, 241, 45, 304, 76
-0.991473, 169, 201, 200, 264
-0.991489, 193, 313, 256, 375
-0.991506, 321, 345, 384, 375
-0.991531, 433, 241, 496, 368
-0.99155, 289, 173, 352, 204
-0.991559, 225, 153, 288, 184
-0.991568, 137, 289, 200, 320
-0.991574, 153, 249, 216, 280
-0.991576, 201, 161, 232, 224
-0.991592, 177, 269, 240, 300
-0.991609, 177, 165, 240, 196
-0.991627, 265, 49, 328, 176
-0.991661, 217, 177, 280, 208
-0.991663, 273, 57, 336, 120
-0.991663, 425, 45, 488, 76
-0.991666, 33, 301, 96, 332
-0.991669, 409, 169, 472, 232
-0.991688, 1, 341, 64, 372
-0.991689, 113, 313, 176, 375
-0.99169, 273, 121, 400, 184
-0.991722, 437, 145, 468, 272
-0.991831, 145, 213, 208, 244
-0.991843, 197, 145, 228, 272
-0.991861, 361, 337, 424, 368
-0.991898, 445, 169, 476, 232
-0.991943, 233, 65, 296, 96
-0.991959, 393, 113, 456, 176
-0.991969, 57, 297, 120, 328
-0.991988, 281, 241, 344, 368
-0.992023, 261, 153, 292, 216
-0.992023, 281, 113, 312, 240
-0.992055, 265, 257, 328, 320
-0.992091, 345, 169, 408, 200
-0.992126, 137, 301, 200, 332
-0.992129, 1, 1, 500, 128
-0.992142, 217, 165, 280, 196
-0.992165, 425, 21, 488, 52
-0.992171, 249, 153, 312, 184
-0.992176, 209, 193, 272, 224
-0.99218, 409, 241, 472, 368
-0.992181, 393, 1, 456, 64
-0.992184, 433, 329, 496, 360
-0.992188, 437, 29, 468, 60
-0.99219, 113, 265, 144, 328
-0.992194, 113, 233, 176, 264
-0.992202, 321, 333, 384, 364
-0.992212, 265, 69, 328, 100
-0.992216, 433, 161, 496, 192
-0.99222, 129, 217, 384, 280
-0.992234, 233, 341, 296, 372
-0.992251, 73, 341, 136, 372
-0.992281, 209, 249, 336, 312
-0.992284, 377, 141, 440, 172
-0.992287, 337, 185, 400, 248
-0.99229, 41, 329, 104, 360
-0.992294, 177, 225, 304, 288
-0.992337, 65, 209, 192, 272
-0.992361, 385, 333, 448, 364
-0.992364, 177, 185, 240, 216
-0.992366, 141, 289, 172, 352
-0.992373, 389, 129, 420, 256
-0.992391, 469, 145, 500, 272
-0.992403, 81, 281, 144, 312
-0.992404, 65, 81, 320, 208
-0.992414, 265, 345, 328, 375
-0.992417, 169, 293, 232, 324
-0.992427, 209, 129, 336, 192
-0.992432, 225, 1, 288, 375
-0.992432, 265, 33, 328, 64
-0.992437, 265, 169, 328, 200
-0.992477, 25, 345, 88, 375
-0.99248, 373, 153, 404, 216
-0.99249, 165, 269, 196, 300
-0.992496, 113, 281, 176, 312
-0.992513, 445, 41, 476, 72
-0.992527, 185, 229, 248, 260
-0.992533, 157, 201, 188, 264
-0.99258, 209, 345, 272, 375
-0.992597, 401, 45, 464, 76
-0.992617, 461, 145, 492, 208
-0.99262, 305, 313, 368, 375
-0.992646, 365, 313, 396, 375
-0.99265, 273, 57, 336, 88
-0.992666, 33, 289, 96, 320
-0.992668, 433, 173, 496, 204
-0.992689, 41, 317, 104, 348
-0.992709, 293, 113, 324, 240
-0.992726, 225, 33, 288, 64
-0.992728, 445, 25, 460, 88
-0.99273, 289, 345, 352, 375
-0.992734, 169, 205, 232, 236
-0.992743, 449, 29, 480, 60
-0.992754, 185, 153, 248, 184
-0.992756, 153, 225, 184, 256
-0.992758, 433, 41, 464, 72
-0.992787, 273, 1, 400, 128
-0.992791, 289, 161, 352, 192
-0.992799, 313, 161, 376, 192
-0.992807, 1, 313, 32, 344
-0.992815, 177, 313, 304, 375
-0.992817, 281, 329, 344, 360
-0.992819, 409, 333, 472, 364
-0.99282, 101, 265, 132, 328
-0.992825, 209, 137, 272, 168
-0.992834, 69, 265, 100, 328
-0.992838, 105, 345, 168, 375
-0.992838, 145, 345, 208, 375
-0.992847, 265, 45, 328, 76
-0.992865, 173, 229, 204, 260
-0.992893, 417, 149, 480, 180
-0.992896, 425, 313, 456, 375
-0.992898, 257, 49, 288, 80
-0.992915, 177, 257, 240, 288
-0.992926, 277, 65, 308, 96
-0.992931, 185, 1, 248, 375
-0.992935, 145, 157, 208, 188
-0.992937, 201, 217, 264, 248
-0.992937, 149, 257, 180, 288
-0.99294, 417, 1, 480, 375
-0.992945, 193, 221, 224, 252
-0.992947, 21, 309, 52, 340
-0.992967, 281, 49, 312, 176
-0.992979, 401, 165, 464, 196
-0.992979, 165, 289, 196, 320
-0.992994, 121, 221, 184, 252
-0.993001, 181, 281, 212, 312
-0.993011, 329, 321, 392, 352
-0.993012, 393, 17, 456, 48
-0.993016, 209, 205, 240, 236
-0.993016, 337, 313, 368, 375
-0.993028, 361, 157, 424, 188
-0.993033, 57, 285, 120, 316
-0.993035, 329, 289, 392, 352
-0.99305, 269, 37, 300, 68
-0.993062, 413, 129, 444, 256
-0.993063, 9, 297, 72, 328
-0.993073, 253, 37, 284, 68
-0.993077, 177, 345, 240, 375
-0.993081, 241, 121, 304, 184
-0.993085, 265, 65, 296, 96
-0.993088, 33, 329, 64, 360
-0.993094, 13, 325, 44, 356
-0.993096, 193, 145, 448, 208
-0.993098, 33, 301, 64, 332
-0.993098, 425, 29, 456, 60
-0.993103, 101, 289, 132, 320
-0.993105, 145, 245, 176, 276
-0.993107, 393, 345, 456, 375
-0.993114, 417, 137, 480, 168
-0.99312, 189, 209, 220, 240
-0.993126, 193, 233, 224, 264
-0.99313, 117, 293, 148, 324
-0.993145, 377, 129, 440, 160
-0.993145, 153, 281, 184, 312
-0.993158, 249, 141, 312, 172
-0.993163, 381, 337, 412, 368
-0.993182, 45, 345, 76, 375
-0.993183, 81, 341, 112, 372
-0.993185, 269, 49, 300, 80
-0.993192, 321, 177, 352, 208
-0.993195, 433, 341, 496, 372
-0.993214, 309, 173, 340, 204
-0.993218, 185, 141, 248, 172
-0.993236, 289, 161, 320, 224
-0.993238, 465, 333, 496, 364
-0.993245, 185, 241, 248, 272
-0.993249, 225, 177, 256, 208
-0.993249, 85, 293, 116, 324
-0.993251, 341, 181, 372, 212
-0.993254, 73, 257, 136, 288
-0.993256, 205, 217, 236, 248
-0.993256, 285, 1, 316, 128
-0.99326, 33, 341, 64, 372
-0.993267, 173, 217, 204, 248
-0.993268, 209, 285, 272, 316
-0.993291, 113, 265, 176, 296
-0.993293, 361, 325, 424, 356
-0.993294, 229, 97, 260, 224
-0.9933, 85, 241, 116, 368
-0.993302, 365, 345, 396, 375
-0.993305, 409, 321, 472, 352
-0.993307, 433, 17, 464, 48
-0.993307, 45, 305, 76, 336
-0.993308, 457, 41, 488, 72
-0.993308, 233, 329, 296, 360
-0.993308, 133, 297, 164, 328
-0.99331, 141, 233, 172, 264
-0.993316, 213, 193, 244, 224
-0.993322, 273, 153, 304, 184
-0.993322, 229, 153, 260, 184
-0.993323, 433, 177, 496, 240
-0.993335, 209, 161, 240, 192
-0.993339, 117, 345, 148, 375
-0.993341, 357, 173, 388, 204
-0.993344, 433, 317, 496, 348
-0.993346, 245, 149, 276, 180
-0.99335, 329, 341, 360, 372
-0.993371, 57, 273, 120, 304
-0.993381, 153, 213, 184, 244
-0.993382, 289, 149, 352, 180
-0.993385, 209, 273, 272, 304
-0.993386, 229, 165, 260, 196
-0.993388, 205, 229, 236, 260
-0.993389, 297, 173, 328, 204
-0.99339, 249, 237, 312, 268
-0.993393, 421, 41, 452, 72
-0.993397, 385, 321, 448, 352
-0.993402, 185, 33, 248, 288
-0.993403, 65, 301, 96, 332
-0.993403, 21, 345, 52, 375
-0.993416, 1, 341, 32, 372
-0.993421, 149, 297, 180, 328
-0.993424, 397, 341, 428, 372
-0.993425, 401, 113, 432, 240
-0.993429, 437, 53, 468, 84
-0.993431, 185, 269, 216, 300
-0.993431, 157, 245, 188, 276
-0.993436, 281, 317, 344, 348
-0.99344, 337, 181, 400, 212
-0.99344, 241, 269, 304, 300
-0.99344, 289, 225, 352, 288
-0.993442, 417, 125, 480, 156
-0.993447, 93, 341, 124, 372
-0.993448, 409, 333, 440, 364
-0.993453, 145, 145, 208, 176
-0.993454, 289, 57, 320, 88
-0.993461, 281, 253, 344, 284
-0.993462, 437, 341, 468, 372
-0.993472, 281, 169, 312, 200
-0.993473, 297, 161, 328, 192
-0.993474, 409, 177, 472, 208
-0.993474, 153, 269, 184, 300
-0.993475, 361, 161, 392, 192
-0.993481, 237, 345, 268, 375
-0.993482, 161, 301, 192, 332
-0.993485, 225, 345, 256, 375
-0.993486, 177, 293, 208, 324
-0.993486, 193, 197, 224, 228
-0.993488, 265, 1, 328, 32
-0.993493, 1, 329, 32, 360
-0.993494, 433, 161, 464, 192
-0.993494, 213, 181, 244, 212
-0.993494, 161, 257, 192, 288
-0.993496, 353, 345, 384, 375
-0.993497, 445, 137, 476, 200
-0.993499, 257, 329, 320, 360
-0.993504, 201, 181, 232, 212
-0.993505, 189, 177, 220, 240
-0.993507, 369, 333, 400, 364
-0.993509, 129, 249, 384, 312
-0.993513, 421, 333, 452, 364
-0.993518, 141, 285, 172, 316
-0.993518, 137, 257, 168, 288
-0.99352, 241, 257, 304, 288
-0.993523, 357, 333, 388, 364
-0.993529, 457, 161, 488, 192
-0.993533, 453, 41, 484, 104
-0.993536, 449, 17, 480, 48
-0.993539, 161, 149, 192, 180
-0.993545, 105, 345, 136, 375
-0.993548, 217, 137, 248, 168
-0.993549, 393, 153, 456, 184
-0.993549, 397, 329, 428, 360
-0.99355, 137, 345, 168, 375
-0.993551, 89, 281, 120, 312
-0.993557, 333, 169, 364, 200
-0.993559, 101, 277, 132, 308
-0.993559, 189, 245, 220, 276
-0.993565, 373, 157, 404, 188
-0.993568, 153, 169, 216, 200
-0.99357, 317, 345, 348, 375
-0.993571, 257, 153, 288, 184
-0.993574, 157, 345, 188, 375
-0.993578, 121, 281, 152, 312
-0.993579, 177, 161, 208, 192
-0.993586, 341, 345, 372, 375
-0.993589, 197, 289, 228, 320
-0.993591, 229, 141, 260, 172
-0.993594, 273, 77, 304, 108
-0.993598, 225, 257, 288, 320
-0.9936, 449, 337, 480, 368
-0.993604, 297, 1, 360, 375
-0.993606, 425, 149, 456, 180
-0.993611, 309, 161, 340, 192
-0.993611, 445, 173, 476, 204
-0.993615, 385, 325, 416, 356
-0.993622, 321, 165, 352, 196
-0.993622, 241, 305, 304, 336
-0.993623, 201, 345, 232, 375
-0.993624, 69, 341, 100, 372
-0.993625, 33, 317, 64, 348
-0.993631, 273, 345, 304, 375
-0.993632, 253, 341, 284, 372
-0.993633, 213, 341, 244, 372
-0.993633, 193, 81, 256, 112
-0.993634, 381, 145, 412, 176
-0.993634, 57, 345, 88, 375
-0.993634, 445, 145, 476, 176
-0.993635, 405, 133, 436, 164
-0.993645, 265, 265, 328, 296
-0.99365, 329, 309, 392, 340
-0.993659, 241, 293, 304, 324
-0.99366, 241, 77, 304, 108
-0.993663, 137, 217, 168, 280
-0.993675, 233, 1, 296, 32
-0.993678, 241, 165, 304, 196
-0.993679, 81, 329, 144, 360
-0.993694, 173, 265, 188, 328
-0.993713, 353, 145, 416, 176
-0.993716, 249, 225, 312, 288
-0.993723, 241, 317, 304, 348
-0.993733, 121, 209, 184, 240
-0.993734, 185, 281, 216, 344
-0.99375, 305, 113, 336, 240
-0.993781, 281, 1, 344, 256
-0.993831, 161, 1, 224, 375
-0.993851, 225, 177, 288, 240
-0.993863, 1, 265, 256, 328
-0.993885, 409, 313, 440, 375
-0.993887, 385, 145, 416, 208
-0.993947, 385, 313, 416, 375
-0.993962, 385, 177, 448, 304
-0.993977, 271, 33, 286, 96
-0.993987, 201, 225, 264, 288
-0.994011, 257, 273, 384, 336
-0.994014, 105, 241, 168, 304
-0.994103, 451, 25, 466, 88
-0.994105, 337, 153, 368, 216
-0.994198, 257, 65, 288, 192
-0.994205, 445, 97, 476, 224
-0.994208, 369, 177, 496, 304
-0.994227, 393, 1, 456, 375
-0.994264, 241, 225, 368, 288
-0.994269, 97, 273, 352, 336
-0.994283, 167, 265, 182, 328
-0.994291, 173, 153, 204, 216
-0.994337, 321, 1, 384, 375
-0.994381, 305, 209, 432, 272
-0.994419, 317, 113, 348, 240
-0.994449, 337, 113, 368, 240
-0.994461, 161, 193, 416, 256
-0.994473, 313, 33, 376, 288
-0.994499, 105, 129, 168, 375
-0.994519, 305, 289, 432, 352
-0.994521, 1, 249, 128, 312
-0.994539, 101, 241, 132, 368
-0.994548, 1, 289, 500, 352
-0.994681, 145, 161, 176, 288
-0.994709, 209, 113, 240, 240
-0.994723, 241, 289, 304, 352
-0.994735, 169, 313, 232, 375
-0.994747, 81, 293, 208, 324
-0.994749, 349, 313, 380, 375
-0.994765, 129, 233, 256, 264
-0.994766, 439, 25, 454, 88
-0.994769, 193, 1, 320, 128
-0.994794, 129, 245, 256, 276
-0.994815, 33, 241, 64, 368
-0.994833, 269, 9, 300, 72
-0.994906, 269, 129, 300, 192
-0.994911, 209, 157, 336, 188
-0.994914, 105, 161, 168, 288
-0.994927, 159, 257, 174, 320
-0.994931, 369, 1, 432, 375
-0.994967, 433, 177, 496, 304
-0.994976, 241, 193, 368, 256
-0.995004, 161, 145, 192, 208
-0.995013, 137, 313, 200, 375
-0.995016, 325, 153, 356, 216
-0.995066, 417, 105, 480, 168
-0.995094, 305, 281, 368, 344
-0.995109, 289, 233, 416, 296
-0.995117, 353, 33, 416, 288
-0.995127, 193, 73, 320, 136
-0.995132, 353, 113, 384, 240
-0.995143, 281, 65, 296, 128
-0.995144, 161, 225, 176, 288
-0.99517, 167, 225, 182, 288
-0.995178, 179, 265, 194, 328
-0.995221, 1, 241, 256, 304
-0.995265, 97, 153, 352, 216
-0.995268, 209, 169, 336, 200
-0.99528, 413, 137, 444, 200
-0.995351, 121, 241, 152, 368
-0.995381, 137, 177, 200, 240
-0.995381, 1, 313, 500, 375
-0.995384, 441, 49, 472, 176
-0.995403, 161, 285, 288, 316
-0.995431, 33, 217, 288, 280
-0.995448, 345, 1, 408, 375
-0.995477, 209, 209, 224, 272
-0.995586, 305, 145, 336, 208
-0.995587, 257, 25, 500, 88
-0.995601, 1, 313, 256, 375
-0.995634, 145, 221, 272, 252
-0.99565, 81, 269, 208, 300
-0.995651, 187, 225, 202, 288
-0.995652, 173, 225, 188, 288
-0.995679, 53, 241, 84, 368
-0.995679, 397, 313, 428, 375
-0.995703, 155, 225, 170, 288
-0.995707, 249, 193, 312, 320
-0.995736, 65, 253, 192, 284
-0.995743, 93, 313, 124, 375
-0.995747, 21, 281, 52, 344
-0.995835, 161, 313, 416, 375
-0.99586, 337, 265, 464, 328
-0.995874, 293, 137, 324, 200
-0.995901, 195, 209, 210, 272
-0.995942, 1, 305, 128, 336
-0.995942, 305, 345, 432, 375
-0.995943, 437, 313, 468, 375
-0.995964, 369, 37, 496, 68
-0.995966, 281, 289, 344, 352
-0.995972, 465, 313, 496, 375
-0.995979, 113, 281, 240, 312
-0.996032, 33, 185, 288, 248
-0.996035, 265, 33, 280, 96
-0.996038, 5, 313, 20, 375
-0.996044, 213, 145, 244, 208
-0.996049, 225, 345, 352, 375
-0.996056, 429, 1, 460, 64
-0.996111, 201, 225, 216, 288
-0.996156, 457, 25, 472, 88
-0.996158, 181, 225, 196, 288
-0.996176, 353, 81, 416, 208
-0.996179, 337, 241, 464, 304
-0.996184, 33, 293, 160, 324
-0.996193, 39, 297, 54, 360
-0.996201, 225, 177, 240, 240
-0.99621, 33, 345, 160, 375
-0.996214, 277, 33, 308, 96
-0.99622, 353, 289, 480, 352
-0.996228, 241, 81, 272, 208
-0.996234, 349, 241, 380, 368
-0.996254, 417, 9, 448, 72
-0.996338, 445, 49, 460, 112
-0.996338, 29, 305, 44, 368
-0.996365, 437, 1, 468, 256
-0.996388, 137, 1, 200, 375
-0.996396, 45, 297, 60, 360
-0.996431, 129, 161, 256, 192
-0.996434, 217, 193, 232, 256
-0.996444, 81, 145, 208, 208
-0.996452, 401, 129, 432, 192
-0.996465, 349, 145, 380, 208
-0.996484, 225, 193, 352, 320
-0.996508, 445, 1, 460, 64
-0.996547, 177, 205, 304, 236
-0.996551, 257, 1, 288, 256
-0.996555, 129, 173, 256, 204
-0.996566, 193, 193, 320, 224
-0.996597, 289, 193, 352, 256
-0.996642, 1, 289, 32, 352
-0.996644, 277, 33, 292, 96
-0.996651, 273, 173, 400, 204
-0.996671, 235, 153, 250, 216
-0.996684, 23, 305, 38, 368
-0.996691, 11, 313, 26, 375
-0.996691, 161, 269, 288, 300
-0.996698, 65, 281, 192, 312
-0.996705, 217, 241, 280, 368
-0.996724, 441, 33, 456, 64
-0.99674, 321, 121, 448, 184
-0.996747, 193, 181, 320, 212
-0.996779, 449, 29, 464, 60
-0.996806, 273, 149, 400, 180
-0.996816, 317, 169, 332, 232
-0.996817, 153, 257, 168, 320
-0.996819, 257, 313, 320, 375
-0.99683, 177, 345, 304, 375
-0.996856, 369, 105, 496, 168
-0.996861, 257, 313, 500, 375
-0.996864, 51, 297, 66, 360
-0.996885, 197, 249, 228, 312
-0.996897, 289, 249, 352, 312
-0.996902, 345, 177, 360, 240
-0.996904, 197, 89, 228, 152
-0.996905, 17, 305, 32, 368
-0.996926, 129, 209, 256, 240
-0.996943, 287, 57, 302, 120
-0.996948, 451, 49, 466, 112
-0.996955, 353, 337, 480, 368
-0.997015, 117, 289, 132, 352
-0.997029, 363, 169, 378, 232
-0.997035, 1, 217, 500, 280
-0.997048, 89, 289, 104, 352
-0.997048, 369, 177, 496, 240
-0.997056, 105, 1, 168, 375
-0.99706, 179, 289, 194, 352
-0.99707, 273, 161, 400, 192
-0.997072, 113, 193, 176, 256
-0.997089, 259, 145, 274, 208
-0.997104, 65, 233, 192, 264
-0.997104, 325, 169, 340, 232
-0.997107, 281, 65, 296, 96
-0.997118, 195, 241, 210, 304
-0.997127, 73, 241, 104, 368
-0.997137, 169, 289, 184, 352
-0.997143, 267, 37, 282, 68
-0.997144, 353, 25, 480, 56
-0.997148, 1, 265, 500, 328
-0.997159, 243, 145, 258, 208
-0.997163, 353, 157, 480, 188
-0.997165, 205, 273, 236, 336
-0.997174, 197, 241, 228, 368
-0.997175, 129, 185, 256, 216
-0.997178, 331, 177, 346, 240
-0.997178, 339, 177, 354, 240
-0.997181, 127, 273, 142, 336
-0.997184, 135, 289, 150, 352
-0.997194, 189, 201, 204, 264
-0.997203, 97, 1, 352, 128
-0.997203, 313, 201, 376, 264
-0.997217, 225, 1, 256, 64
-0.997226, 441, 145, 456, 208
-0.997229, 253, 145, 268, 208
-0.997234, 369, 241, 400, 368
-0.99724, 149, 289, 164, 352
-0.997257, 229, 153, 244, 216
-0.997286, 337, 113, 400, 176
-0.997314, 357, 169, 372, 232
-0.997316, 143, 289, 158, 352
-0.997324, 101, 289, 116, 352
-0.997343, 167, 201, 182, 264
-0.997346, 447, 41, 462, 72
-0.997355, 257, 333, 384, 364
-0.997355, 203, 201, 218, 264
-0.997363, 307, 169, 322, 232
-0.997371, 111, 281, 126, 344
-0.997379, 185, 273, 200, 336
-0.997384, 149, 233, 164, 296
-0.997387, 175, 269, 190, 300
-0.997411, 81, 297, 96, 360
-0.997411, 155, 297, 170, 360
-0.997418, 369, 141, 496, 172
-0.997423, 429, 81, 460, 208
-0.997427, 299, 169, 314, 232
-0.997433, 177, 201, 192, 264
-0.997434, 193, 49, 320, 112
-0.997467, 211, 185, 226, 248
-0.997474, 161, 289, 176, 352
-0.997475, 265, 145, 280, 208
-0.997482, 161, 149, 288, 180
-0.997489, 257, 41, 384, 104
-0.997503, 351, 177, 366, 240
-0.997508, 275, 65, 290, 128
-0.997526, 449, 1, 480, 256
-0.997532, 17, 241, 48, 368
-0.997538, 95, 289, 110, 352
-0.997544, 103, 257, 118, 320
-0.997546, 121, 145, 184, 208
-0.997548, 73, 241, 136, 304
-0.997551, 281, 145, 296, 208
-0.997557, 289, 145, 304, 208
-0.997566, 229, 129, 260, 375
-0.997573, 129, 297, 256, 328
-0.997575, 141, 265, 156, 328
-0.997577, 241, 1, 256, 64
-0.997583, 269, 33, 300, 288
-0.997583, 433, 9, 448, 72
-0.997594, 245, 9, 276, 72
-0.997603, 209, 145, 336, 176
-0.997606, 145, 257, 272, 288
-0.997608, 129, 197, 256, 228
-0.997608, 439, 49, 454, 112
-0.997614, 385, 169, 448, 232
-0.997616, 65, 221, 192, 252
-0.997623, 275, 137, 290, 200
-0.997636, 257, 201, 320, 264
-0.997642, 379, 153, 394, 216
-0.997643, 1, 241, 500, 304
-0.997658, 449, 313, 480, 375
-0.997658, 193, 217, 320, 248
-0.997663, 129, 89, 256, 152
-0.997664, 61, 297, 76, 360
-0.997666, 281, 129, 312, 192
-0.997676, 33, 333, 160, 364
-0.997679, 413, 81, 444, 208
-0.997685, 369, 161, 384, 224
-0.997702, 305, 333, 432, 364
-0.997705, 173, 249, 204, 312
-0.997706, 133, 265, 148, 328
-0.997709, 455, 1, 470, 64
-0.997723, 285, 33, 300, 96
-0.997724, 95, 265, 110, 328
-0.997733, 1, 185, 500, 248
-0.997743, 183, 201, 198, 264
-0.997762, 1, 317, 128, 348
-0.997763, 321, 169, 448, 200
-0.997768, 121, 265, 136, 328
-0.997768, 165, 265, 180, 296
-0.997772, 257, 121, 500, 184
-0.997781, 455, 37, 470, 68
-0.997785, 469, 169, 500, 232
-0.997796, 165, 129, 196, 375
-0.997797, 295, 145, 310, 208
-0.997802, 219, 169, 234, 232
-0.997807, 221, 313, 252, 375
-0.997807, 155, 201, 170, 264
-0.997808, 235, 1, 250, 64
-0.99784, 377, 313, 392, 375
-0.997845, 211, 209, 226, 240
-0.997853, 435, 33, 450, 64
-0.997857, 109, 257, 124, 320
-0.997867, 269, 129, 300, 375
-0.997874, 267, 1, 282, 64
-0.99788, 449, 169, 464, 232
-0.99788, 197, 221, 212, 252
-0.997889, 361, 185, 424, 248
-0.997892, 179, 289, 194, 320
-0.997894, 17, 265, 80, 328
-0.997898, 281, 129, 312, 375
-0.997917, 267, 49, 282, 80
-0.997917, 193, 73, 256, 136
-0.997932, 435, 153, 450, 216
-0.99794, 385, 145, 400, 208
-0.99794, 435, 313, 450, 375
-0.997954, 161, 193, 176, 256
-0.997971, 193, 233, 320, 264
-0.997971, 217, 129, 248, 375
-0.997975, 41, 273, 72, 336
-0.998005, 433, 177, 464, 240
-0.998007, 187, 225, 202, 256
-0.998007, 167, 281, 182, 312
-0.998007, 67, 297, 82, 360
-0.998009, 387, 313, 402, 375
-0.99801, 473, 137, 488, 200
-0.99801, 83, 265, 98, 328
-0.998014, 257, 129, 288, 375
-0.998015, 257, 57, 288, 120
-0.998018, 97, 345, 224, 375
-0.998027, 289, 33, 320, 96
-0.998034, 199, 233, 214, 264
-0.998048, 441, 49, 456, 80
-0.998056, 249, 121, 280, 184
-0.998059, 439, 1, 454, 64
-0.998064, 259, 17, 274, 80
-0.998082, 293, 129, 324, 375
-0.998083, 159, 261, 174, 292
-0.998086, 193, 49, 320, 176
-0.998091, 147, 265, 162, 328
-0.998093, 273, 45, 288, 76
-0.998097, 183, 277, 198, 308
-0.998099, 233, 121, 264, 184
-0.998101, 433, 33, 448, 96
-0.998107, 425, 33, 456, 288
-0.998113, 145, 137, 272, 168
-0.998115, 1, 161, 256, 224
-0.998117, 201, 177, 216, 240
-0.998127, 363, 313, 378, 375
-0.998129, 275, 9, 290, 72
-0.998136, 193, 25, 320, 88
-0.998149, 287, 65, 302, 96
-0.998151, 429, 241, 460, 368
-0.998159, 301, 145, 316, 208
-0.998181, 275, 65, 290, 96
-0.998184, 371, 305, 386, 368
-0.99819, 225, 217, 480, 280
-0.99819, 241, 129, 272, 375
-0.998194, 341, 313, 356, 375
-0.998196, 23, 309, 38, 340
-0.998196, 245, 33, 276, 288
-0.998201, 289, 249, 320, 312
-0.998207, 189, 249, 204, 312
-0.998208, 65, 185, 192, 248
-0.998213, 29, 309, 44, 340
-0.998215, 397, 241, 428, 368
-0.998216, 75, 297, 90, 360
-0.998218, 305, 321, 432, 352
-0.998224, 33, 281, 48, 344
-0.99823, 151, 241, 166, 272
-0.99823, 437, 21, 452, 52
-0.998231, 307, 145, 322, 208
-0.998235, 211, 89, 226, 152
-0.998235, 369, 129, 400, 375
-0.99825, 333, 153, 348, 216
-0.998253, 423, 313, 438, 375
-0.998254, 201, 249, 264, 312
-0.998262, 157, 245, 172, 276
-0.998262, 177, 145, 192, 208
-0.998274, 161, 257, 192, 272
-0.998275, 225, 181, 240, 212
-0.998276, 209, 161, 240, 176
-0.998276, 141, 265, 172, 280
-0.998276, 217, 353, 248, 368
-0.998277, 29, 321, 60, 336
-0.998277, 77, 265, 92, 328
-0.998277, 463, 25, 478, 88
-0.998278, 365, 341, 396, 356
-0.998279, 17, 307, 48, 322
-0.998279, 185, 271, 216, 286
-0.998279, 229, 155, 260, 170
-0.99828, 293, 167, 324, 182
-0.99828, 153, 239, 184, 254
-0.99828, 337, 173, 368, 188
-0.998281, 381, 347, 412, 362
-0.998281, 225, 11, 256, 26
-0.998282, 461, 43, 492, 58
-0.998283, 49, 351, 80, 366
-0.998284, 137, 233, 168, 248
-0.998284, 153, 271, 184, 286
-0.998284, 425, 137, 440, 200
-0.998285, 73, 361, 104, 375
-0.998287, 97, 129, 352, 192
-0.998287, 229, 175, 260, 190
-0.998287, 465, 333, 496, 348
-0.998288, 453, 51, 484, 66
-0.99829, 409, 341, 440, 356
-0.99829, 1, 1, 128, 256
-0.99829, 85, 339, 116, 354
-0.998291, 209, 199, 240, 214
-0.998291, 13, 331, 44, 346
-0.998291, 177, 225, 208, 240
-0.998291, 245, 153, 276, 168
-0.998292, 273, 359, 304, 374
-0.998293, 45, 305, 76, 320
-0.998293, 445, 343, 476, 358
-0.998294, 17, 361, 48, 375
-0.998294, 213, 169, 244, 184
-0.998294, 177, 265, 208, 280
-0.998295, 15, 313, 30, 344
-0.998295, 229, 177, 260, 240
-0.998296, 433, 343, 464, 358
-0.998297, 221, 191, 252, 206
-0.998297, 421, 339, 452, 354
-0.998298, 51, 345, 66, 375
-0.998298, 33, 335, 64, 350
-0.998298, 153, 361, 184, 375
-0.998299, 193, 207, 224, 222
-0.9983, 361, 175, 392, 190
-0.9983, 277, 43, 308, 58
-0.9983, 349, 179, 380, 194
-0.998302, 177, 129, 208, 375
-0.998304, 29, 355, 60, 370
-0.998305, 205, 189, 236, 204
-0.998305, 117, 353, 148, 368
-0.998306, 177, 279, 208, 294
-0.998307, 289, 67, 320, 82
-0.998307, 157, 225, 172, 256
-0.998307, 85, 359, 116, 374
-0.998308, 193, 243, 224, 258
-0.998312, 273, 37, 304, 52
-0.998314, 137, 239, 168, 254
-0.998314, 321, 361, 352, 375
-0.998315, 221, 181, 252, 196
-0.998315, 161, 299, 192, 314
-0.998317, 1, 343, 32, 358
-0.998318, 353, 349, 384, 364
-0.998319, 205, 225, 236, 240
-0.99832, 33, 341, 64, 356
-0.99832, 157, 251, 188, 266
-0.998321, 469, 339, 500, 354
-0.998321, 209, 205, 240, 220
-0.998323, 265, 73, 296, 88
-0.998323, 167, 225, 182, 256
-0.998324, 133, 299, 164, 314
-0.998324, 173, 219, 204, 234
-0.998324, 329, 181, 360, 196
-0.998325, 65, 303, 96, 318
-0.998326, 33, 347, 64, 362
-0.998329, 309, 175, 340, 190
-0.99833, 123, 293, 138, 324
-0.99833, 205, 233, 236, 248
-0.998331, 357, 129, 388, 375
-0.998331, 365, 347, 396, 362
-0.998331, 253, 359, 284, 374
-0.998332, 189, 213, 220, 228
-0.998333, 153, 233, 184, 248
-0.998333, 29, 327, 60, 342
-0.998334, 165, 267, 196, 282
-0.998335, 121, 359, 152, 374
-0.998336, 61, 361, 92, 375
-0.998337, 85, 297, 116, 312
-0.998343, 269, 49, 300, 64
-0.998346, 245, 47, 276, 62
-0.998346, 281, 53, 296, 84
-0.99835, 161, 293, 192, 308
-0.99835, 137, 253, 168, 268
-0.998351, 145, 245, 176, 260
-0.998352, 441, 53, 472, 68
-0.998352, 205, 217, 236, 232
-0.998356, 261, 45, 276, 76
-0.998357, 177, 291, 208, 306
-0.99836, 33, 305, 64, 320
-0.998364, 209, 211, 240, 226
-0.998365, 189, 219, 220, 234
-0.998366, 13, 313, 44, 328
-0.99837, 117, 295, 148, 310
-0.99837, 165, 227, 196, 242
-0.998371, 97, 357, 128, 372
-0.998371, 425, 35, 456, 50
-0.998371, 345, 265, 408, 328
-0.998372, 181, 237, 212, 252
-0.998372, 321, 129, 352, 375
-0.998373, 369, 325, 496, 356
-0.998376, 153, 221, 184, 236
-0.998377, 257, 49, 288, 64
-0.998377, 455, 21, 470, 52
-0.998377, 381, 341, 412, 356
-0.99838, 277, 73, 308, 88
-0.998383, 425, 47, 456, 62
-0.998388, 105, 293, 136, 308
-0.99839, 35, 305, 50, 336
-0.99839, 193, 237, 224, 252
-0.998392, 137, 359, 168, 374
-0.998392, 217, 197, 232, 228
-0.998394, 445, 29, 476, 44
-0.998396, 161, 285, 192, 300
-0.998397, 181, 231, 212, 246
-0.9984, 225, 241, 480, 304
-0.998401, 205, 221, 220, 252
-0.998406, 433, 29, 464, 44
-0.998409, 145, 259, 176, 274
-0.99841, 193, 231, 224, 246
-0.99841, 17, 325, 48, 340
-0.998411, 41, 357, 72, 372
-0.998411, 29, 361, 60, 375
-0.998412, 181, 285, 212, 300
-0.998412, 1, 317, 16, 348
-0.998413, 193, 233, 208, 264
-0.998414, 153, 129, 184, 375
-0.998414, 163, 209, 178, 336
-0.998415, 25, 321, 40, 352
-0.998423, 369, 289, 432, 352
-0.998429, 425, 41, 456, 56
-0.998435, 477, 333, 492, 364
-0.998436, 7, 317, 22, 348
-0.998436, 1, 319, 32, 334
-0.998438, 189, 225, 220, 240
-0.998441, 171, 209, 186, 336
-0.998446, 153, 227, 184, 242
-0.99845, 153, 265, 184, 280
-0.998454, 257, 289, 500, 352
-0.998457, 181, 217, 196, 248
-0.998459, 449, 45, 480, 60
-0.998462, 173, 217, 188, 248
-0.998464, 265, 67, 296, 82
-0.998464, 165, 273, 196, 288
-0.998466, 305, 209, 368, 336
-0.99847, 145, 231, 208, 246
-0.99848, 449, 37, 480, 52
-0.998487, 425, 35, 488, 50
-0.998489, 365, 97, 396, 224
-0.998489, 193, 245, 320, 276
-0.99849, 461, 33, 476, 64
-0.998493, 117, 289, 132, 320
-0.998499, 253, 41, 284, 56
-0.998505, 437, 47, 468, 62
-0.998508, 425, 41, 488, 56
-0.998512, 323, 173, 338, 204
-0.998514, 265, 43, 296, 58
-0.998516, 449, 53, 464, 84
-0.998518, 353, 217, 480, 280
-0.998518, 89, 341, 104, 372
-0.998528, 325, 313, 356, 375
-0.998537, 277, 67, 308, 82
-0.998541, 359, 173, 374, 204
-0.998542, 169, 291, 232, 306
-0.998544, 177, 209, 192, 336
-0.998546, 173, 289, 188, 320
-0.998548, 259, 33, 274, 64
-0.998548, 145, 225, 208, 240
-0.998551, 81, 295, 144, 310
-0.998554, 157, 209, 172, 336
-0.998557, 161, 281, 176, 312
-0.998557, 145, 237, 208, 252
-0.998558, 381, 129, 412, 375
-0.998562, 273, 33, 288, 64
-0.998573, 9, 327, 72, 342
-0.998573, 165, 279, 196, 294
-0.998574, 161, 219, 224, 234
-0.998579, 195, 245, 210, 276
-0.998585, 177, 279, 240, 294
-0.998586, 401, 41, 464, 56
-0.998587, 417, 289, 480, 352
-0.998587, 169, 285, 232, 300
-0.998587, 137, 271, 200, 286
-0.998588, 149, 297, 164, 328
-0.998588, 213, 33, 244, 288
-0.99859, 129, 293, 192, 308
-0.998591, 425, 47, 488, 62
-0.998592, 3, 341, 18, 372
-0.998594, 197, 209, 212, 240
-0.998595, 437, 35, 468, 50
-0.998597, 145, 249, 208, 264
-0.998601, 153, 257, 168, 288
-0.998601, 139, 297, 154, 328
-0.998603, 281, 77, 296, 108
-0.998604, 241, 67, 304, 82
-0.998604, 265, 69, 328, 84
-0.998606, 129, 265, 192, 280
-0.998607, 337, 177, 352, 208
-0.998608, 81, 121, 208, 184
-0.998612, 137, 277, 200, 292
-0.998616, 401, 33, 464, 48
-0.998617, 425, 129, 456, 375
-0.998618, 57, 273, 88, 336
-0.998619, 249, 43, 312, 58
-0.998622, 225, 43, 288, 58
-0.998625, 369, 169, 496, 200
-0.998625, 205, 233, 220, 264
-0.998625, 113, 259, 176, 274
-0.998627, 321, 181, 448, 212
-0.998628, 89, 359, 152, 374
-0.998629, 41, 361, 104, 375
-0.99863, 33, 305, 96, 320
-0.99863, 425, 29, 488, 44
-0.998631, 113, 359, 176, 374
-0.998633, 111, 289, 126, 320
-0.998634, 201, 213, 264, 228
-0.998634, 1, 339, 64, 354
-0.998634, 237, 345, 252, 375
-0.998635, 149, 229, 164, 260
-0.998635, 225, 321, 352, 352
-0.998636, 249, 49, 312, 64
-0.998637, 387, 337, 402, 368
-0.998637, 177, 225, 240, 240
-0.998639, 1, 281, 128, 312
-0.99864, 105, 297, 168, 312
-0.998641, 253, 17, 284, 144
-0.998643, 313, 359, 376, 374
-0.998643, 217, 179, 280, 194
-0.998645, 177, 273, 240, 288
-0.998645, 437, 41, 468, 56
-0.998646, 185, 171, 248, 186
-0.998646, 9, 333, 72, 348
-0.998647, 265, 361, 328, 375
-0.998648, 65, 359, 128, 374
-0.998648, 137, 301, 200, 316
-0.998649, 41, 337, 104, 352
-0.998649, 145, 243, 208, 258
-0.99865, 289, 175, 352, 190
-0.99865, 9, 311, 72, 326
-0.99865, 145, 283, 208, 298
-0.998651, 401, 47, 464, 62
-0.998652, 9, 345, 72, 360
-0.998653, 145, 255, 208, 270
-0.998653, 113, 253, 176, 268
-0.998655, 321, 141, 448, 172
-0.998655, 193, 219, 256, 234
-0.998655, 25, 355, 88, 370
-0.998657, 321, 351, 384, 366
-0.998657, 201, 207, 264, 222
-0.998658, 161, 213, 224, 228
-0.998658, 43, 301, 58, 332
-0.998659, 1, 317, 64, 332
-0.998659, 385, 339, 448, 354
-0.998661, 113, 235, 176, 250
-0.998661, 201, 129, 232, 375
-0.998661, 131, 293, 146, 324
-0.998663, 113, 247, 176, 262
-0.998663, 369, 49, 496, 80
-0.998664, 321, 181, 384, 196
-0.998664, 113, 241, 176, 256
-0.998664, 329, 175, 392, 190
-0.998666, 57, 299, 120, 314
-0.998668, 163, 297, 178, 328
-0.99867, 169, 267, 232, 282
-0.99867, 185, 165, 248, 180
-0.998672, 45, 345, 60, 375
-0.998672, 209, 197, 272, 212
-0.998673, 225, 33, 256, 288
-0.998673, 217, 153, 280, 168
-0.998674, 169, 231, 232, 246
-0.998674, 177, 187, 240, 202
-0.998675, 41, 331, 104, 346
-0.998676, 457, 129, 488, 375
-0.998676, 361, 343, 424, 358
-0.998677, 225, 361, 288, 375
-0.998679, 225, 351, 288, 366
-0.99868, 185, 179, 248, 194
-0.99868, 1, 351, 64, 366
-0.99868, 217, 173, 280, 188
-0.998681, 43, 325, 58, 356
-0.998681, 121, 287, 184, 302
-0.998681, 433, 169, 496, 184
-0.998682, 241, 153, 304, 168
-0.998682, 321, 341, 384, 356
-0.998683, 433, 333, 496, 348
-0.998685, 281, 355, 344, 370
-0.998687, 217, 185, 280, 200
-0.998689, 1, 359, 64, 374
-0.99869, 433, 161, 496, 176
-0.99869, 177, 197, 240, 212
-0.998692, 209, 191, 272, 206
-0.998694, 89, 353, 152, 368
-0.998695, 217, 159, 280, 174
-0.998695, 153, 355, 216, 370
-0.998695, 243, 341, 258, 372
-0.998697, 145, 361, 208, 375
-0.998697, 113, 229, 176, 244
-0.998698, 153, 261, 216, 276
-0.998698, 353, 173, 416, 188
-0.998699, 49, 353, 112, 368
-0.998699, 169, 297, 232, 312
-0.998699, 329, 177, 344, 208
-0.998699, 353, 181, 368, 212
-0.998702, 297, 181, 360, 196
-0.998702, 185, 239, 248, 254
-0.998703, 345, 349, 408, 364
-0.998704, 377, 143, 440, 158
-0.998704, 49, 343, 112, 358
-0.998705, 425, 341, 488, 356
-0.998707, 169, 205, 232, 220
-0.998707, 233, 345, 296, 360
-0.998707, 241, 73, 304, 88
-0.998708, 49, 305, 64, 336
-0.998709, 313, 169, 376, 184
-0.998709, 225, 49, 288, 64
-0.99871, 201, 353, 264, 368
-0.998712, 249, 161, 312, 176
-0.998713, 289, 167, 352, 182
-0.998713, 217, 281, 248, 344
-0.998714, 185, 159, 248, 174
-0.998714, 81, 289, 144, 304
-0.998715, 145, 159, 208, 174
-0.998715, 289, 361, 352, 375
-0.998715, 187, 213, 202, 244
-0.998715, 483, 337, 498, 368
-0.998716, 209, 333, 336, 364
-0.998716, 385, 345, 448, 360
-0.998716, 113, 353, 176, 368
-0.998716, 223, 193, 238, 224
-0.998717, 273, 349, 336, 364
-0.998717, 281, 63, 344, 78
-0.998717, 393, 333, 456, 348
-0.998719, 217, 165, 280, 180
-0.998721, 417, 53, 480, 68
-0.998723, 281, 333, 344, 348
-0.998723, 145, 193, 176, 256
-0.998723, 281, 325, 344, 340
-0.998724, 273, 43, 336, 58
-0.998725, 337, 335, 400, 350
-0.998726, 265, 1, 328, 16
-0.998726, 265, 171, 328, 186
-0.998727, 163, 249, 178, 280
-0.998727, 177, 355, 240, 370
-0.998727, 201, 233, 264, 248
-0.998737, 345, 181, 360, 212
-0.998741, 231, 173, 246, 204
-0.998741, 307, 173, 322, 204
-0.998741, 367, 345, 382, 375
-0.998746, 443, 21, 458, 52
-0.998747, 189, 269, 204, 300
-0.998751, 281, 33, 312, 288
-0.998758, 31, 321, 46, 352
-0.998761, 455, 49, 470, 80
-0.998763, 233, 153, 248, 184
-0.998765, 87, 293, 102, 324
-0.998769, 435, 329, 450, 360
-0.998772, 189, 209, 204, 336
-0.998777, 301, 173, 316, 204
-0.99878, 257, 185, 384, 216
-0.998781, 381, 337, 396, 368
-0.998784, 365, 169, 380, 200
-0.998789, 289, 53, 304, 84
-0.998793, 155, 297, 170, 328
-0.998794, 439, 341, 454, 372
-0.998798, 93, 293, 108, 324
-0.998799, 61, 301, 76, 332
-0.998799, 203, 209, 218, 240
-0.9988, 167, 213, 182, 244
-0.9988, 317, 173, 332, 204
-0.99881, 161, 213, 176, 244
-0.99881, 471, 329, 486, 360
-0.998814, 83, 341, 98, 372
-0.998816, 401, 97, 432, 352
-0.998818, 261, 149, 276, 180
-0.998825, 95, 341, 110, 372
-0.998829, 101, 293, 116, 324
-0.99883, 435, 45, 450, 76
-0.998831, 421, 329, 436, 360
-0.998837, 257, 1, 500, 64
-0.998845, 11, 329, 26, 360
-0.998845, 183, 209, 198, 336
-0.998851, 253, 149, 268, 180
-0.998852, 441, 149, 456, 180
-0.998853, 225, 65, 288, 128
-0.998854, 429, 29, 444, 60
-0.998856, 469, 129, 500, 375
-0.998859, 171, 257, 186, 288
-0.998861, 175, 229, 190, 260
-0.998861, 225, 265, 480, 328
-0.998864, 399, 341, 414, 372
-0.998866, 309, 129, 340, 375
-0.998868, 297, 161, 312, 192
-0.998872, 247, 153, 262, 184
-0.998882, 209, 69, 336, 100
-0.998888, 327, 345, 342, 375
-0.99889, 241, 65, 368, 128
-0.998894, 341, 129, 372, 375
-0.998896, 55, 305, 70, 336
-0.998901, 81, 209, 208, 240
-0.998902, 225, 165, 240, 196
-0.998903, 185, 289, 200, 320
-0.998904, 81, 297, 96, 328
-0.998908, 181, 229, 196, 260
-0.99891, 181, 265, 196, 296
-0.998912, 287, 153, 302, 184
-0.998914, 229, 141, 244, 172
-0.998922, 413, 129, 444, 375
-0.998926, 81, 165, 208, 196
-0.998938, 209, 257, 336, 288
-0.998942, 357, 193, 388, 320
-0.998947, 265, 313, 296, 375
-0.998949, 433, 129, 464, 192
-0.998953, 457, 81, 488, 208
-0.998963, 437, 129, 468, 375
-0.998977, 209, 193, 224, 320
-0.998986, 151, 209, 166, 336
-0.998989, 153, 129, 216, 192
-0.998995, 469, 241, 500, 368
-0.999009, 209, 289, 336, 320
-0.999032, 369, 113, 432, 176
-0.999037, 241, 229, 368, 260
-0.999067, 447, 1, 462, 128
-0.999068, 217, 81, 248, 144
-0.999094, 241, 309, 368, 340
-0.999096, 381, 81, 412, 208
-0.999107, 257, 281, 384, 312
-0.999116, 441, 1, 456, 128
-0.999119, 171, 161, 186, 288
-0.999133, 237, 313, 268, 375
-0.999135, 209, 273, 336, 304
-0.999136, 455, 1, 470, 128
-0.999136, 369, 129, 496, 160
-0.999138, 213, 113, 244, 176
-0.999138, 223, 161, 238, 288
-0.999148, 273, 293, 400, 324
-0.999149, 273, 137, 400, 168
-0.999155, 189, 97, 220, 352
-0.99917, 305, 161, 320, 288
-0.999184, 401, 161, 432, 288
-0.999205, 217, 177, 232, 304
-0.999207, 281, 49, 296, 176
-0.999217, 313, 161, 328, 288
-0.999218, 163, 161, 178, 288
-0.999218, 229, 145, 244, 272
-0.999234, 201, 209, 216, 336
-0.999235, 413, 113, 444, 176
-0.999257, 273, 245, 400, 276
-0.999263, 299, 161, 314, 288
-0.999267, 157, 161, 172, 288
-0.999277, 241, 129, 256, 256
-0.999281, 225, 133, 352, 164
-0.999281, 329, 161, 344, 288
-0.999285, 271, 1, 286, 128
-0.999285, 319, 161, 334, 288
-0.999286, 195, 209, 210, 336
-0.999295, 275, 65, 290, 192
-0.999297, 259, 129, 274, 256
-0.9993, 235, 145, 250, 272
-0.999302, 257, 57, 384, 88
-0.999311, 335, 161, 350, 288
-0.999316, 353, 313, 480, 344
-0.999316, 347, 161, 362, 288
-0.999319, 253, 129, 268, 256
-0.999323, 193, 65, 256, 192
-0.999324, 177, 161, 192, 288
-0.999327, 321, 193, 448, 224
-0.999331, 247, 129, 262, 256
-0.999336, 361, 137, 392, 200
-0.999337, 357, 161, 372, 288
-0.999345, 281, 129, 296, 256
-0.999346, 271, 145, 286, 272
-0.999347, 353, 185, 384, 248
-0.999358, 183, 161, 198, 288
-0.999359, 363, 161, 378, 288
-0.999359, 377, 145, 392, 272
-0.999361, 81, 153, 208, 184
-0.999367, 337, 209, 400, 272
-0.999373, 265, 129, 280, 256
-0.999378, 193, 81, 320, 112
-0.999381, 289, 213, 416, 244
-0.999383, 385, 129, 400, 256
-0.999387, 337, 273, 464, 304
-0.999388, 161, 333, 288, 364
-0.99939, 341, 161, 356, 288
-0.999394, 81, 1, 144, 375
-0.999401, 197, 161, 212, 288
-0.999416, 273, 17, 400, 80
-0.999418, 305, 309, 432, 340
-0.999418, 173, 177, 204, 240
-0.999429, 289, 145, 304, 272
-0.99943, 1, 153, 500, 216
-0.999437, 439, 129, 454, 256
-0.999455, 209, 145, 224, 272
-0.99946, 161, 113, 192, 240
-0.99947, 395, 129, 410, 256
-0.99947, 369, 161, 384, 288
-0.999473, 145, 225, 160, 352
-0.999475, 289, 1, 304, 128
-0.999476, 377, 33, 408, 288
-0.999476, 203, 145, 218, 272
-0.999482, 353, 281, 384, 344
-0.999483, 189, 161, 204, 288
-0.999489, 417, 241, 448, 368
-0.999491, 471, 129, 486, 256
-0.999497, 287, 65, 302, 192
-0.999499, 21, 313, 36, 328
-0.9995, 35, 305, 50, 320
-0.9995, 445, 145, 460, 272
-0.9995, 147, 299, 162, 314
-0.999501, 387, 337, 402, 352
-0.999501, 403, 345, 418, 360
-0.999501, 177, 321, 304, 352
-0.999501, 45, 347, 60, 362
-0.999502, 153, 359, 168, 374
-0.999502, 217, 115, 232, 130
-0.999502, 347, 185, 362, 200
-0.999502, 149, 235, 164, 250
-0.999502, 89, 297, 104, 312
-0.999503, 435, 337, 450, 352
-0.999503, 123, 361, 138, 375
-0.999503, 227, 187, 242, 202
-0.999503, 217, 189, 232, 204
-0.999504, 361, 349, 376, 364
-0.999504, 393, 339, 408, 354
-0.999505, 257, 49, 500, 112
-0.999505, 77, 361, 92, 375
-0.999505, 235, 97, 250, 224
-0.999505, 261, 51, 276, 66
-0.999506, 17, 257, 144, 288
-0.999507, 175, 267, 190, 282
-0.999507, 443, 27, 458, 42
-0.999507, 363, 175, 378, 190
-0.999508, 439, 343, 454, 358
-0.999508, 357, 179, 372, 194
-0.999508, 63, 361, 78, 375
-0.999508, 91, 361, 106, 375
-0.999508, 115, 359, 130, 374
-0.99951, 91, 337, 106, 352
-0.999511, 269, 35, 284, 50
-0.999511, 155, 241, 170, 256
-0.999511, 173, 221, 188, 236
-0.999512, 237, 353, 252, 368
-0.999512, 335, 181, 350, 196
-0.999513, 295, 113, 310, 240
-0.999513, 461, 1, 476, 128
-0.999513, 273, 1, 288, 16
-0.999514, 83, 301, 98, 316
-0.999515, 305, 225, 432, 256
-0.999516, 183, 225, 198, 240
-0.999516, 165, 285, 180, 300
-0.999516, 189, 225, 204, 240
-0.999516, 455, 25, 470, 40
-0.999517, 99, 359, 114, 374
-0.999517, 483, 337, 498, 352
-0.999518, 201, 211, 216, 226
-0.999519, 207, 231, 222, 246
-0.999519, 477, 333, 492, 348
-0.999519, 45, 303, 60, 318
-0.99952, 191, 237, 206, 252
-0.99952, 283, 1, 298, 128
-0.99952, 435, 1, 450, 128
-0.99952, 39, 355, 54, 370
-0.999523, 131, 297, 146, 312
-0.999524, 433, 45, 448, 60
-0.999524, 463, 129, 478, 256
-0.999524, 43, 329, 58, 344
-0.999524, 209, 223, 224, 238
-0.999524, 449, 49, 464, 176
-0.999525, 113, 291, 128, 306
-0.999526, 173, 227, 188, 242
-0.999526, 221, 197, 236, 212
-0.999527, 193, 301, 320, 332
-0.999527, 227, 181, 242, 196
-0.999527, 85, 337, 100, 352
-0.999528, 265, 359, 280, 374
-0.999528, 437, 27, 452, 42
-0.999529, 451, 161, 466, 288
-0.999529, 367, 347, 382, 362
-0.999529, 129, 361, 144, 375
-0.99953, 281, 61, 296, 76
-0.999531, 135, 359, 150, 374
-0.999531, 141, 357, 156, 372
-0.999532, 153, 227, 168, 242
-0.999532, 155, 235, 170, 250
-0.999532, 321, 129, 448, 160
-0.999535, 223, 113, 238, 240
-0.999535, 167, 219, 182, 234
-0.999535, 253, 313, 284, 375
-0.999535, 237, 11, 252, 26
-0.999536, 163, 273, 178, 288
-0.999536, 51, 357, 66, 372
-0.999537, 31, 361, 46, 375
-0.999537, 125, 295, 140, 310
-0.999538, 439, 51, 454, 66
-0.999538, 149, 257, 164, 272
-0.999538, 451, 97, 466, 224
-0.999538, 3, 343, 18, 358
-0.999539, 341, 281, 372, 344
-0.999541, 429, 129, 444, 256
-0.999543, 401, 129, 416, 256
-0.999544, 107, 355, 122, 370
-0.999544, 187, 283, 202, 298
-0.999545, 267, 53, 282, 68
-0.999547, 149, 249, 164, 264
-0.999547, 133, 313, 164, 375
-0.999548, 307, 113, 322, 240
-0.999548, 203, 237, 218, 252
-0.999548, 367, 113, 382, 240
-0.999548, 259, 39, 274, 54
-0.999549, 459, 31, 474, 46
-0.999549, 277, 75, 292, 90
-0.999551, 5, 319, 20, 334
-0.999551, 119, 293, 134, 308
-0.999552, 157, 221, 172, 236
-0.999555, 187, 231, 202, 246
-0.999556, 49, 305, 176, 336
-0.999556, 241, 205, 368, 236
-0.999556, 215, 129, 230, 256
-0.999556, 15, 315, 30, 330
-0.999557, 275, 41, 290, 56
-0.99956, 175, 293, 190, 308
-0.99956, 211, 209, 226, 224
-0.999561, 217, 201, 248, 264
-0.999562, 281, 241, 312, 368
-0.999564, 337, 13, 464, 44
-0.999565, 149, 241, 164, 256
-0.999571, 445, 53, 460, 68
-0.999575, 155, 249, 170, 264
-0.999576, 459, 39, 474, 54
-0.999576, 293, 33, 324, 288
-0.999578, 431, 39, 446, 54
-0.999579, 159, 229, 174, 244
-0.99958, 451, 51, 466, 66
-0.99958, 199, 221, 214, 236
-0.999581, 193, 53, 320, 84
-0.999581, 209, 217, 224, 232
-0.999585, 197, 243, 212, 258
-0.999587, 275, 69, 290, 84
-0.999587, 23, 323, 38, 338
-0.999587, 169, 279, 184, 294
-0.999587, 273, 47, 288, 62
-0.999589, 161, 265, 176, 280
-0.99959, 179, 279, 194, 294
-0.999591, 457, 129, 472, 256
-0.999591, 241, 217, 368, 248
-0.999592, 289, 69, 304, 84
-0.999594, 459, 45, 474, 60
-0.999598, 181, 289, 196, 304
-0.999598, 167, 225, 182, 240
-0.999603, 37, 361, 52, 375
-0.999603, 407, 113, 422, 240
-0.999603, 45, 357, 60, 372
-0.999604, 339, 113, 354, 240
-0.999604, 329, 113, 344, 240
-0.999604, 113, 65, 240, 128
-0.999606, 155, 259, 170, 274
-0.999609, 283, 73, 298, 88
-0.999609, 261, 45, 276, 60
-0.99961, 481, 145, 496, 272
-0.999611, 43, 241, 58, 368
-0.999615, 101, 193, 132, 320
-0.999619, 413, 113, 428, 240
-0.999622, 437, 49, 452, 176
-0.999623, 355, 113, 370, 240
-0.999625, 439, 45, 454, 60
-0.999626, 301, 113, 316, 240
-0.999626, 449, 31, 464, 46
-0.999628, 319, 113, 334, 240
-0.999638, 257, 261, 384, 292
-0.999639, 101, 225, 116, 352
-0.99964, 113, 241, 128, 368
-0.999641, 423, 129, 438, 256
-0.999641, 265, 1, 280, 128
-0.999644, 337, 241, 368, 368
-0.999645, 317, 33, 348, 288
-0.999648, 321, 37, 448, 68
-0.999649, 161, 33, 224, 288
-0.999649, 197, 237, 212, 252
-0.999651, 121, 241, 136, 368
-0.999653, 245, 81, 260, 208
-0.999657, 197, 231, 212, 246
-0.999657, 267, 47, 282, 62
-0.999657, 443, 49, 458, 176
-0.999659, 169, 269, 184, 284
-0.999659, 313, 113, 328, 240
-0.999666, 457, 241, 488, 368
-0.999666, 451, 45, 466, 60
-0.999669, 451, 37, 466, 52
-0.999669, 49, 321, 176, 352
-0.99967, 437, 33, 452, 48
-0.999674, 369, 185, 496, 216
-0.999675, 257, 193, 500, 256
-0.999676, 305, 33, 336, 288
-0.999679, 229, 97, 244, 224
-0.999679, 389, 33, 420, 288
-0.999683, 375, 97, 390, 224
-0.999684, 443, 33, 458, 48
-0.999684, 129, 97, 256, 128
-0.999686, 277, 1, 292, 128
-0.999689, 139, 241, 154, 368
-0.999692, 259, 81, 274, 208
-0.999693, 251, 81, 266, 208
-0.999693, 361, 113, 376, 240
-0.999697, 93, 241, 108, 368
-0.999701, 361, 33, 392, 288
-0.999706, 175, 273, 190, 288
-0.999706, 345, 33, 376, 288
-0.999707, 33, 241, 48, 368
-0.999707, 349, 113, 364, 240
-0.999709, 107, 241, 122, 368
-0.999709, 55, 241, 70, 368
-0.999712, 269, 81, 284, 208
-0.999717, 305, 97, 432, 160
-0.999718, 337, 297, 464, 328
-0.999722, 441, 39, 456, 54
-0.999724, 81, 241, 96, 368
-0.999731, 87, 241, 102, 368
-0.999736, 445, 97, 460, 224
-0.999738, 75, 241, 90, 368
-0.999743, 127, 241, 142, 368
-0.999743, 363, 241, 378, 368
-0.999746, 461, 1, 492, 256
-0.999751, 419, 81, 434, 208
-0.999752, 469, 97, 500, 224
-0.999753, 351, 241, 366, 368
-0.999758, 141, 129, 172, 375
-0.999761, 455, 49, 470, 176
-0.999767, 461, 81, 476, 208
-0.999773, 377, 241, 392, 368
-0.999773, 401, 241, 416, 368
-0.999775, 385, 241, 416, 368
-0.999775, 431, 241, 446, 368
-0.999775, 151, 161, 166, 288
-0.999777, 133, 209, 148, 336
-0.999779, 69, 241, 84, 368
-0.999781, 27, 241, 42, 368
-0.999784, 425, 81, 440, 208
-0.999786, 129, 309, 256, 340
-0.99979, 357, 241, 372, 368
-0.999791, 449, 177, 480, 304
-0.999791, 413, 241, 428, 368
-0.999792, 475, 241, 490, 368
-0.999795, 481, 241, 496, 368
-0.999799, 391, 81, 406, 208
-0.999805, 209, 41, 336, 72
-0.999811, 445, 45, 460, 60
-0.999812, 167, 113, 182, 240
-0.999814, 421, 241, 436, 368
-0.999814, 177, 93, 304, 124
-0.999815, 431, 81, 446, 208
-0.999815, 97, 333, 224, 364
-0.999833, 337, 285, 464, 316
-0.999859, 267, 41, 282, 56
-0.999861, 353, 261, 480, 292
-0.999885, 281, 67, 296, 82
-0.999889, 225, 233, 288, 296
-0.999893, 337, 241, 464, 272
-0.999901, 33, 269, 160, 300
-0.999913, 153, 113, 216, 240
-0.999935, 281, 113, 344, 176
-0.999959, 129, 129, 160, 375
-0.999974, 5, 241, 36, 368
-0.999977, 113, 85, 240, 116
-0.999978, 369, 117, 496, 148
-0.999986, 161, 1, 288, 64
-0.999989, 257, 45, 384, 76
-1.00001, 337, 205, 464, 236
-1.00001, 277, 257, 308, 320
-1.00001, 257, 69, 384, 100
-1.00005, 413, 33, 444, 288
-1.00005, 81, 141, 208, 172
-1.00006, 105, 313, 136, 375
-1.00007, 129, 73, 256, 104
-1.00007, 73, 129, 136, 375
-1.00008, 433, 225, 496, 288
-1.00009, 333, 33, 364, 288
-1.00009, 209, 121, 336, 152
-1.0001, 369, 229, 496, 260
-1.0001, 81, 313, 112, 375
-1.00012, 209, 1, 336, 64
-1.00013, 193, 97, 320, 160
-1.00013, 353, 217, 480, 248
-1.00014, 129, 125, 256, 156
-1.00014, 121, 193, 152, 320
-1.00015, 201, 313, 232, 375
-1.00015, 393, 289, 456, 352
-1.00017, 97, 321, 224, 352
-1.00018, 269, 241, 300, 368
-1.0002, 81, 193, 208, 224
-1.0002, 277, 177, 308, 304
-1.0002, 321, 113, 448, 144
-1.00021, 41, 1, 104, 375
-1.00021, 273, 33, 400, 64
-1.00022, 313, 257, 376, 320
-1.00023, 193, 1, 320, 32
-1.00024, 401, 1, 432, 256
-1.00024, 193, 1, 256, 64
-1.00025, 105, 129, 136, 375
-1.00025, 145, 61, 272, 92
-1.00028, 369, 105, 496, 136
-1.00029, 305, 261, 432, 292
-1.00031, 213, 209, 244, 336
-1.00033, 93, 129, 124, 375
-1.00037, 209, 29, 336, 60
-1.00038, 161, 49, 416, 112
-1.00038, 201, 33, 232, 288
-1.00041, 1, 225, 128, 288
-1.00041, 17, 245, 144, 276
-1.00044, 73, 129, 104, 375
-1.00049, 157, 33, 188, 288
-1.00053, 81, 181, 208, 212
-1.00055, 257, 1, 384, 32
-1.00056, 1, 137, 256, 200
-1.00058, 241, 1, 304, 64
-1.0006, 169, 33, 200, 288
-1.00064, 321, 33, 448, 96
-1.00068, 377, 177, 408, 304
-1.00072, 61, 129, 92, 375
-1.00073, 389, 177, 420, 304
-1.00078, 113, 1, 240, 64
-1.00086, 161, 73, 416, 136
-1.00089, 193, 97, 448, 160
-1.00093, 385, 193, 448, 256
-1.00094, 369, 73, 496, 136
-1.00094, 117, 129, 148, 375
-1.00096, 393, 49, 456, 112
-1.00096, 45, 129, 76, 375
-1.00103, 433, 249, 496, 312
-1.00103, 145, 41, 272, 104
-1.00105, 97, 17, 352, 80
-1.00106, 417, 1, 448, 128
-1.00109, 17, 129, 48, 375
-1.00111, 97, 97, 352, 160
-1.00113, 293, 225, 324, 352
-1.00114, 145, 33, 176, 288
-1.00124, 1, 129, 500, 192
-1.00128, 65, 49, 320, 112
-1.00135, 33, 129, 64, 375
-1.00139, 445, 241, 476, 368
-1.0014, 385, 233, 448, 296
-1.0014, 409, 241, 472, 304
-1.00141, 1, 81, 256, 144
-1.00146, 253, 241, 284, 368
-1.00149, 409, 193, 472, 256
-1.00153, 417, 81, 480, 144
-1.00154, 257, 73, 500, 136
-1.00155, 5, 129, 36, 375
-1.00155, 313, 233, 376, 296
-1.00162, 1, 17, 500, 80
-1.0017, 189, 1, 220, 256
-1.00174, 169, 89, 232, 152
-1.00176, 33, 137, 160, 200
-1.00178, 321, 1, 448, 128
-1.00179, 133, 33, 164, 288
-1.0018, 89, 193, 120, 320
-1.00183, 1, 97, 500, 160
-1.00184, 9, 1, 40, 256
-1.00184, 21, 1, 52, 256
-1.00184, 33, 1, 64, 256
-1.00184, 45, 1, 76, 256
-1.00185, 49, 193, 112, 320
-1.00186, 241, 241, 272, 368
-1.00188, 93, 1, 124, 256
-1.00188, 121, 1, 152, 256
-1.00189, 77, 1, 108, 256
-1.00189, 57, 1, 88, 256
-1.0019, 17, 201, 144, 264
-1.00191, 401, 265, 464, 328
-1.00191, 109, 1, 140, 256
-1.00194, 413, 177, 444, 304
-1.00199, 321, 73, 448, 136
-1.00201, 1, 1, 256, 64
-1.00203, 265, 177, 296, 304
-1.00203, 1, 25, 256, 88
-1.00204, 1, 105, 256, 168
-1.00214, 161, 1, 224, 64
-1.0022, 185, 113, 216, 240
-1.0022, 317, 241, 348, 368
-1.0022, 241, 89, 368, 152
-1.00221, 65, 81, 192, 208
-1.00227, 133, 161, 164, 288
-1.00242, 65, 57, 192, 120
-1.00252, 401, 65, 432, 192
-1.00264, 361, 225, 424, 288
-1.00264, 17, 177, 144, 240
-1.00271, 65, 33, 192, 96
-1.00273, 433, 201, 496, 264
-1.00276, 1, 65, 500, 128
-1.00279, 81, 89, 208, 152
-1.00279, 73, 193, 136, 320
-1.00279, 201, 105, 264, 168
-1.0028, 237, 177, 268, 304
-1.00289, 209, 33, 272, 96
-1.00291, 17, 17, 144, 80
-1.00291, 17, 41, 144, 104
-1.00291, 17, 65, 144, 128
-1.00291, 17, 89, 144, 152
-1.00291, 17, 113, 144, 176
-1.00297, 65, 1, 192, 64
-1.00298, 1, 41, 500, 104
-1.00301, 225, 193, 288, 320
-1.00301, 249, 193, 280, 320
-1.00307, 17, 1, 80, 375
-1.00317, 425, 177, 456, 304
-1.00323, 149, 113, 180, 240
-1.00327, 1, 129, 64, 375
-1.00329, 225, 241, 256, 368
-1.00329, 33, 225, 96, 288
-1.00333, 41, 129, 104, 375
-1.00335, 369, 265, 432, 328
-1.00346, 305, 1, 336, 128
-1.00349, 385, 1, 448, 128
-1.00349, 377, 25, 440, 88
-1.00361, 469, 193, 500, 320
-1.00368, 177, 49, 240, 112
-1.00368, 137, 33, 200, 288
-1.00397, 173, 113, 204, 240
-1.00405, 213, 65, 244, 192
-1.00412, 465, 1, 496, 128
-1.00413, 317, 1, 348, 128
-1.00417, 305, 209, 336, 336
-1.00447, 1, 193, 128, 320
-1.00451, 77, 193, 108, 320
-1.00454, 437, 193, 468, 320
-1.00487, 145, 49, 272, 176
-1.00488, 161, 65, 192, 192
-1.00495, 225, 193, 256, 320
-1.00518, 217, 1, 248, 128
-1.00596, 65, 193, 96, 320
-1.00639, 209, 1, 272, 128
-1.0064, 177, 65, 208, 192
-1.00654, 225, 49, 256, 176
-1.00659, 293, 65, 324, 192
-1.00661, 361, 33, 424, 160
-1.00666, 197, 97, 228, 224
-1.00671, 233, 1, 264, 128
-1.00679, 205, 1, 236, 128
-1.00684, 137, 113, 168, 240
-1.00695, 113, 81, 176, 208
-1.00695, 145, 1, 272, 128
-1.00716, 337, 1, 368, 128
-1.00747, 145, 65, 176, 192
-1.00766, 53, 193, 84, 320
-1.00769, 329, 65, 392, 192
-1.0077, 373, 1, 404, 128
-1.00776, 41, 193, 72, 320
-1.00783, 185, 1, 248, 128
-1.00791, 25, 193, 56, 320
-1.00796, 305, 65, 336, 192
-1.00823, 145, 65, 208, 192
-1.00861, 329, 1, 392, 128
-1.0091, 81, 33, 208, 160
-1.00916, 169, 65, 232, 192
-1.00929, 113, 33, 176, 288
-1.00966, 1, 1, 256, 128
-1.01002, 33, 1, 160, 128
-1.01019, 289, 65, 352, 192
-1.01023, 25, 193, 88, 320
-1.01032, 1, 97, 128, 224
-1.01038, 17, 49, 144, 176
-1.01086, 17, 1, 80, 256
-1.01087, 65, 1, 128, 256
-1.01116, 1, 145, 128, 272
-1.01135, 89, 33, 152, 288
-1.01136, 297, 1, 360, 128
-1.01153, 41, 1, 104, 256
-1.01367, 153, 17, 216, 144
-1.01373, 65, 145, 128, 272
-1.0139, 129, 17, 192, 144
-1.01442, 65, 1, 128, 128
-1.01442, 89, 1, 152, 128
-1.01461, 33, 145, 96, 272
-1.01471, 89, 49, 152, 176
-1.01471, 65, 97, 128, 224
-1.01471, 89, 97, 152, 224
-1.01471, 1, 145, 64, 272
-1.01478, 9, 1, 72, 128
-1.01478, 33, 1, 96, 128
-1.01478, 17, 49, 80, 176
-1.01478, 41, 49, 104, 176
-1.01478, 65, 49, 128, 176
-1.01478, 17, 97, 80, 224
-1.01478, 41, 97, 104, 224
-1.01757, 1, 193, 64, 320
