1887
-0.4206, 1, 65, 500, 320
-0.428096, 1, 1, 500, 333
-0.513612, 161, 1, 416, 333
-0.632998, 193, 65, 448, 320
-0.653788, 257, 1, 500, 333
-0.739101, 97, 65, 352, 320
-0.756607, 65, 1, 320, 333
-0.844889, 241, 1, 368, 333
-0.856652, 1, 161, 500, 288
-0.863618, 257, 65, 384, 320
-0.871324, 305, 65, 432, 320
-0.894148, 209, 65, 336, 320
-0.895024, 1, 209, 500, 333
-0.897835, 161, 65, 288, 320
-0.900945, 369, 65, 496, 320
-0.901551, 321, 1, 448, 333
-0.906412, 193, 177, 448, 304
-0.910317, 193, 1, 320, 333
-0.910874, 33, 161, 288, 288
-0.917214, 1, 65, 256, 320
-0.917441, 1, 113, 500, 240
-0.918103, 1, 65, 500, 192
-0.922428, 273, 193, 400, 320
-0.928605, 369, 1, 496, 333
-0.92981, 225, 177, 352, 304
-0.931184, 161, 129, 416, 256
-0.931335, 177, 193, 304, 320
-0.931885, 129, 1, 256, 333
-0.933531, 193, 65, 448, 192
-0.93367, 297, 161, 360, 288
-0.936749, 321, 177, 448, 304
-0.937335, 249, 177, 312, 304
-0.937337, 97, 65, 224, 320
-0.938933, 321, 193, 384, 320
-0.940493, 97, 145, 224, 272
-0.941469, 97, 209, 352, 333
-0.942136, 1, 65, 128, 320
-0.942323, 17, 1, 144, 333
-0.942415, 289, 209, 352, 333
-0.94263, 81, 161, 144, 288
-0.943317, 273, 145, 400, 272
-0.943348, 257, 113, 500, 240
-0.943477, 81, 1, 208, 333
-0.944506, 49, 161, 176, 288
-0.94574, 321, 65, 448, 192
-0.946069, 145, 145, 272, 272
-0.948034, 257, 49, 384, 176
-0.949509, 353, 177, 416, 304
-0.949637, 401, 209, 464, 333
-0.949649, 65, 113, 320, 240
-0.949681, 81, 169, 144, 232
-0.95065, 377, 193, 440, 320
-0.951222, 225, 129, 352, 256
-0.951525, 273, 161, 336, 288
-0.951625, 249, 225, 312, 288
-0.951851, 369, 209, 496, 333
-0.952369, 217, 177, 280, 304
-0.95322, 289, 169, 352, 232
-0.953308, 337, 129, 464, 256
-0.955034, 49, 65, 176, 320
-0.955712, 257, 201, 320, 264
-0.955999, 337, 129, 400, 256
-0.956764, 401, 257, 464, 320
-0.957138, 369, 81, 496, 208
-0.957163, 121, 145, 184, 272
-0.957518, 289, 225, 352, 288
-0.957765, 1, 17, 500, 144
-0.957977, 177, 145, 240, 272
-0.958486, 297, 49, 360, 176
-0.959632, 209, 81, 336, 208
-0.959692, 361, 257, 424, 320
-0.960109, 185, 193, 248, 320
-0.96048, 57, 161, 120, 288
-0.960842, 321, 233, 384, 296
-0.961708, 233, 257, 296, 320
-0.961935, 1, 145, 128, 272
-0.962027, 305, 113, 368, 240
-0.962038, 313, 185, 376, 248
-0.962315, 273, 97, 400, 224
-0.962733, 129, 193, 256, 320
-0.963525, 1, 209, 256, 333
-0.963723, 153, 145, 216, 272
-0.963769, 313, 161, 376, 224
-0.963862, 225, 193, 288, 256
-0.964134, 401, 209, 464, 272
-0.96418, 281, 249, 344, 312
-0.964399, 257, 177, 320, 240
-0.964835, 201, 129, 264, 256
-0.964926, 41, 177, 104, 240
-0.965819, 113, 161, 176, 224
-0.966139, 1, 193, 128, 320
-0.966169, 217, 217, 280, 280
-0.966949, 257, 1, 500, 128
-0.967744, 361, 233, 424, 296
-0.967845, 273, 33, 336, 160
-0.968479, 353, 65, 416, 192
-0.968536, 353, 169, 416, 232
-0.968621, 345, 73, 408, 136
-0.968675, 33, 145, 96, 272
-0.969224, 81, 193, 144, 256
-0.96932, 425, 97, 488, 160
-0.969618, 257, 1, 384, 128
-0.969742, 145, 161, 208, 224
-0.970009, 113, 193, 176, 320
-0.970112, 433, 97, 496, 224
-0.970271, 201, 169, 264, 232
-0.970393, 257, 233, 384, 296
-0.97047, 241, 177, 368, 240
-0.970485, 337, 201, 400, 264
-0.970536, 289, 193, 352, 256
-0.970653, 145, 193, 208, 320
-0.971008, 241, 129, 304, 256
-0.971015, 17, 193, 80, 256
-0.97102, 113, 193, 176, 256
-0.971349, 405, 249, 436, 312
-0.971606, 257, 249, 320, 312
-0.971873, 401, 89, 464, 152
-0.972176, 297, 57, 360, 120
-0.972415, 233, 169, 296, 232
-0.97251, 393, 81, 456, 208
-0.972755, 321, 65, 384, 128
-0.972823, 129, 17, 384, 144
-0.972842, 273, 193, 304, 320
-0.973023, 401, 233, 464, 296
-0.973278, 349, 193, 380, 320
-0.9733, 281, 145, 344, 208
-0.973497, 329, 65, 392, 320
-0.973525, 401, 129, 464, 256
-0.973535, 337, 257, 464, 320
-0.973586, 377, 193, 440, 256
-0.973793, 297, 33, 360, 288
-0.973863, 329, 81, 392, 208
-0.97397, 301, 161, 332, 288
-0.974094, 81, 113, 144, 240
-0.974279, 377, 81, 440, 144
-0.974307, 113, 161, 240, 224
-0.974533, 65, 169, 192, 232
-0.974597, 49, 201, 112, 264
-0.974827, 257, 153, 320, 216
-0.974829, 273, 97, 336, 224
-0.974843, 425, 209, 488, 333
-0.974912, 337, 193, 368, 320
-0.974943, 257, 273, 320, 333
-0.974966, 209, 33, 336, 160
-0.975045, 317, 161, 348, 288
-0.975288, 177, 161, 240, 224
-0.975301, 169, 193, 232, 256
-0.975419, 321, 193, 448, 256
-0.975474, 433, 225, 496, 288
-0.975481, 289, 169, 416, 232
-0.975704, 361, 129, 424, 256
-0.975852, 241, 209, 368, 272
-0.975856, 209, 249, 336, 312
-0.975887, 17, 185, 144, 248
-0.975954, 161, 97, 288, 224
-0.976128, 25, 193, 88, 320
-0.976234, 353, 33, 416, 288
-0.976299, 313, 137, 376, 200
-0.9763, 433, 273, 496, 333
-0.976348, 193, 209, 320, 272
-0.976396, 253, 217, 284, 280
-0.976442, 397, 193, 428, 320
-0.976493, 245, 193, 276, 256
-0.976496, 49, 209, 176, 333
-0.976769, 233, 177, 264, 240
-0.977035, 301, 209, 332, 333
-0.977036, 161, 169, 288, 232
-0.977041, 313, 209, 376, 272
-0.977089, 253, 241, 284, 304
-0.977229, 349, 201, 380, 264
-0.977401, 161, 241, 288, 304
-0.97747, 321, 81, 448, 144
-0.977525, 297, 177, 328, 240
-0.977556, 297, 1, 360, 128
-0.977568, 193, 233, 256, 296
-0.977589, 281, 201, 312, 264
-0.977911, 193, 209, 256, 272
-0.977936, 237, 217, 268, 280
-0.978052, 241, 153, 368, 216
-0.978159, 369, 97, 496, 160
-0.978213, 353, 217, 480, 280
-0.978262, 273, 257, 400, 320
-0.978427, 241, 65, 304, 320
-0.978609, 393, 249, 424, 312
-0.978656, 265, 33, 328, 288
-0.978782, 401, 185, 464, 248
-0.978861, 269, 233, 300, 296
-0.978956, 49, 113, 176, 240
-0.978999, 289, 273, 352, 333
-0.979067, 313, 257, 376, 320
-0.979172, 257, 49, 384, 112
-0.979289, 261, 209, 292, 333
-0.979376, 249, 177, 280, 304
-0.979466, 145, 201, 208, 264
-0.979471, 305, 233, 432, 296
-0.97948, 97, 169, 128, 232
-0.979675, 285, 177, 316, 304
-0.979699, 313, 209, 344, 333
-0.979766, 201, 145, 232, 272
-0.979798, 25, 217, 88, 280
-0.979957, 425, 249, 488, 312
-0.979989, 301, 225, 332, 288
-0.980082, 145, 201, 272, 264
-0.980158, 193, 137, 320, 200
-0.98018, 65, 193, 192, 256
-0.980186, 289, 145, 416, 208
-0.980273, 329, 145, 360, 272
-0.980348, 89, 161, 120, 288
-0.980537, 337, 17, 400, 144
-0.98057, 257, 49, 320, 112
-0.980703, 9, 145, 72, 272
-0.981042, 349, 241, 380, 304
-0.98139, 1, 217, 64, 280
-0.981414, 209, 273, 336, 333
-0.981435, 201, 137, 264, 200
-0.981449, 365, 193, 396, 320
-0.981464, 121, 161, 152, 224
-0.981652, 337, 257, 400, 320
-0.981745, 237, 193, 268, 320
-0.981762, 101, 161, 132, 288
-0.981794, 417, 257, 448, 320
-0.9818, 209, 169, 240, 232
-0.981825, 337, 233, 368, 296
-0.981877, 41, 153, 104, 216
-0.98194, 269, 177, 300, 240
-0.981956, 425, 193, 456, 320
-0.981957, 341, 177, 372, 240
-0.981962, 133, 145, 164, 272
-0.982023, 169, 257, 232, 320
-0.982167, 305, 153, 336, 216
-0.982176, 349, 65, 380, 128
-0.982249, 57, 209, 120, 333
-0.982297, 325, 185, 356, 248
-0.982386, 257, 193, 288, 256
-0.98239, 385, 177, 416, 304
-0.982524, 345, 129, 376, 256
-0.982598, 345, 129, 408, 192
-0.982602, 181, 161, 212, 224
-0.98264, 77, 161, 108, 288
-0.982643, 153, 145, 184, 272
-0.982681, 69, 177, 100, 240
-0.982759, 413, 209, 444, 333
-0.982784, 361, 241, 392, 304
-0.982785, 397, 273, 428, 333
-0.982918, 305, 17, 432, 144
-0.98311, 121, 161, 152, 288
-0.983205, 241, 241, 272, 304
-0.983249, 221, 177, 252, 240
-0.983282, 429, 249, 460, 312
-0.983312, 197, 153, 228, 216
-0.983402, 325, 153, 356, 216
-0.983581, 273, 1, 336, 333
-0.983642, 181, 145, 212, 272
-0.983703, 277, 257, 308, 320
-0.983723, 17, 161, 144, 224
-0.983744, 85, 169, 116, 232
-0.983814, 201, 65, 264, 320
-0.983842, 293, 257, 324, 320
-0.983976, 377, 233, 408, 296
-0.983986, 209, 257, 272, 320
-0.984127, 153, 161, 184, 224
-0.984142, 325, 209, 356, 333
-0.984227, 241, 81, 304, 208
-0.984241, 369, 33, 496, 160
-0.984354, 257, 105, 384, 168
-0.98438, 429, 201, 460, 264
-0.984404, 433, 121, 496, 184
-0.984446, 269, 209, 300, 272
-0.984463, 249, 17, 312, 144
-0.984468, 297, 1, 360, 333
-0.984531, 1, 209, 128, 272
-0.984653, 377, 65, 440, 320
-0.984734, 297, 113, 360, 176
-0.984783, 217, 193, 248, 320
-0.984882, 249, 1, 312, 333
-0.984906, 217, 81, 280, 208
-0.985016, 213, 129, 244, 256
-0.985083, 321, 1, 352, 128
-0.985382, 285, 177, 316, 240
-0.985393, 337, 169, 464, 232
-0.985525, 361, 217, 392, 280
-0.985561, 309, 185, 340, 248
-0.985621, 313, 217, 344, 280
-0.985644, 329, 49, 360, 176
-0.985724, 433, 1, 496, 64
-0.985773, 409, 193, 440, 256
-0.985775, 21, 201, 52, 264
-0.985856, 393, 33, 456, 160
-0.98586, 433, 49, 496, 176
-0.9859, 325, 217, 356, 280
-0.986091, 337, 129, 464, 192
-0.986158, 357, 145, 388, 272
-0.986181, 377, 265, 408, 328
-0.986241, 173, 193, 204, 320
-0.986241, 49, 193, 80, 256
-0.986249, 225, 209, 256, 272
-0.986431, 169, 145, 200, 272
-0.986495, 65, 161, 96, 288
-0.986499, 161, 265, 288, 328
-0.98652, 197, 193, 228, 320
-0.986643, 457, 97, 488, 160
-0.986649, 465, 273, 496, 333
-0.986694, 361, 169, 392, 232
-0.986707, 293, 153, 324, 216
-0.986873, 257, 129, 320, 192
-0.986887, 341, 153, 372, 216
-0.987039, 393, 193, 424, 256
-0.98707, 273, 73, 400, 136
-0.987084, 213, 201, 244, 264
-0.987111, 225, 73, 288, 136
-0.987123, 229, 145, 260, 272
-0.987352, 185, 193, 216, 320
-0.987378, 33, 193, 64, 256
-0.987387, 245, 169, 276, 232
-0.987416, 121, 201, 152, 264
-0.987535, 433, 161, 496, 288
-0.987574, 385, 65, 416, 192
-0.98759, 261, 161, 292, 288
-0.987603, 273, 25, 336, 88
-0.987612, 289, 233, 320, 296
-0.987804, 169, 137, 232, 200
-0.987845, 441, 97, 472, 224
-0.987867, 137, 161, 168, 224
-0.987938, 97, 97, 224, 224
-0.987981, 325, 57, 356, 120
-0.987991, 401, 65, 464, 320
-0.98811, 73, 201, 104, 264
-0.988143, 169, 161, 200, 224
-0.988218, 109, 177, 140, 240
-0.988225, 273, 97, 336, 160
-0.988233, 97, 65, 352, 192
-0.988284, 425, 225, 456, 288
-0.988293, 285, 129, 316, 256
-0.988322, 73, 145, 136, 208
-0.988328, 257, 169, 288, 232
-0.988347, 1, 209, 64, 333
-0.98845, 173, 257, 204, 320
-0.988501, 209, 81, 336, 144
-0.988527, 429, 81, 460, 208
-0.988534, 53, 161, 84, 288
-0.988548, 289, 177, 352, 208
-0.988621, 225, 153, 256, 216
-0.988627, 145, 257, 208, 320
-0.988711, 405, 81, 436, 144
-0.988721, 249, 245, 312, 276
-0.988743, 433, 193, 496, 256
-0.988796, 337, 201, 368, 264
-0.988802, 433, 89, 464, 152
-0.988808, 233, 137, 296, 200
-0.988823, 433, 65, 496, 320
-0.988847, 225, 185, 480, 248
-0.988868, 409, 225, 440, 288
-0.988911, 241, 129, 368, 192
-0.988955, 257, 1, 384, 64
-0.989032, 393, 113, 456, 176
-0.989089, 57, 113, 120, 240
-0.989175, 37, 217, 68, 280
-0.989218, 297, 225, 360, 256
-0.989219, 141, 193, 172, 256
-0.989265, 393, 253, 456, 284
-0.989276, 293, 201, 324, 264
-0.989318, 33, 177, 64, 304
-0.989355, 249, 181, 312, 212
-0.98937, 309, 1, 340, 128
-0.989421, 337, 41, 400, 104
-0.989422, 361, 65, 392, 128
-0.989512, 361, 193, 392, 256
-0.989539, 313, 113, 344, 240
-0.989546, 401, 201, 464, 232
-0.989568, 317, 49, 348, 176
-0.989596, 81, 169, 144, 200
-0.989622, 161, 193, 192, 320
-0.989646, 433, 73, 496, 136
-0.989656, 265, 213, 328, 244
-0.989662, 373, 65, 404, 192
-0.989666, 81, 189, 144, 220
-0.989714, 209, 49, 336, 112
-0.98973, 249, 233, 312, 264
-0.989767, 149, 193, 180, 320
-0.989817, 185, 185, 216, 248
-0.989822, 361, 261, 424, 292
-0.989852, 193, 249, 448, 312
-0.989886, 373, 73, 404, 136
-0.989928, 233, 49, 296, 112
-0.989947, 337, 73, 400, 104
-0.989967, 257, 265, 288, 328
-0.98997, 277, 33, 308, 160
-0.98998, 297, 33, 328, 160
-0.989989, 97, 161, 352, 224
-0.990056, 233, 193, 296, 224
-0.990109, 433, 101, 496, 132
-0.990158, 321, 105, 448, 168
-0.990197, 81, 137, 208, 200
-0.990198, 217, 129, 248, 192
-0.9902, 297, 89, 360, 152
-0.990233, 401, 213, 464, 244
-0.990298, 173, 193, 204, 256
-0.99032, 145, 137, 272, 200
-0.990322, 281, 153, 312, 216
-0.990329, 385, 81, 416, 144
-0.99033, 257, 193, 320, 224
-0.990353, 361, 241, 424, 272
-0.990358, 241, 257, 304, 288
-0.990376, 313, 177, 376, 208
-0.990389, 249, 81, 312, 144
-0.990422, 321, 257, 352, 320
-0.990428, 273, 145, 304, 272
-0.990459, 381, 129, 412, 256
-0.990459, 225, 225, 480, 288
-0.990497, 69, 153, 100, 216
-0.990503, 217, 97, 280, 160
-0.990537, 113, 189, 176, 220
-0.99056, 449, 1, 480, 64
-0.990563, 265, 49, 296, 112
-0.990568, 369, 81, 432, 112
-0.990617, 297, 161, 360, 192
-0.990619, 273, 225, 336, 256
-0.990647, 353, 189, 416, 220
-0.990649, 393, 273, 456, 304
-0.990654, 321, 165, 384, 196
-0.990659, 329, 245, 392, 276
-0.990708, 241, 221, 304, 252
-0.990758, 241, 205, 304, 236
-0.990764, 345, 221, 408, 252
-0.990781, 409, 93, 472, 124
-0.990797, 41, 185, 104, 216
-0.990799, 397, 225, 428, 288
-0.990818, 313, 189, 376, 220
-0.990828, 281, 277, 344, 308
-0.990836, 81, 201, 144, 232
-0.990857, 337, 1, 400, 333
-0.99086, 417, 261, 480, 292
-0.990913, 105, 165, 168, 196
-0.990957, 437, 209, 468, 333
-0.99096, 113, 137, 176, 200
-0.990982, 445, 97, 476, 160
-0.990989, 209, 181, 272, 212
-0.991032, 365, 265, 396, 328
-0.991036, 281, 249, 344, 280
-0.991054, 225, 245, 288, 276
-0.991066, 453, 81, 484, 208
-0.991075, 201, 237, 264, 268
-0.991105, 313, 65, 376, 96
-0.991109, 321, 105, 384, 168
-0.991109, 369, 145, 400, 272
-0.991123, 281, 289, 344, 320
-0.991147, 1, 97, 128, 224
-0.99116, 337, 177, 400, 208
-0.991192, 33, 217, 96, 248
-0.991193, 9, 213, 72, 244
-0.991203, 177, 157, 240, 188
-0.991218, 337, 57, 464, 120
-0.99122, 265, 261, 328, 292
-0.99124, 257, 281, 320, 312
-0.99126, 233, 269, 296, 300
-0.991302, 433, 289, 496, 320
-0.991325, 193, 169, 256, 200
-0.991346, 169, 197, 232, 228
-0.991355, 217, 257, 280, 288
-0.991382, 369, 201, 432, 232
-0.991389, 321, 233, 384, 264
-0.991393, 17, 201, 80, 232
-0.991394, 289, 189, 352, 220
-0.991414, 113, 201, 176, 232
-0.991415, 297, 149, 360, 180
-0.991418, 201, 193, 232, 256
-0.99143, 57, 209, 120, 240
-0.991451, 265, 169, 328, 200
-0.991469, 289, 213, 352, 244
-0.99147, 369, 57, 432, 120
-0.991477, 1, 169, 500, 232
-0.991481, 97, 217, 224, 280
-0.991481, 361, 273, 424, 304
-0.991485, 305, 289, 368, 320
-0.991502, 337, 57, 368, 120
-0.991504, 313, 213, 376, 244
-0.991531, 241, 169, 304, 200
-0.991537, 433, 249, 496, 280
-0.991558, 33, 201, 288, 264
-0.991558, 441, 265, 472, 328
-0.991563, 193, 205, 256, 236
-0.991614, 277, 49, 308, 112
-0.991641, 425, 209, 488, 240
-0.991675, 433, 121, 496, 152
-0.991693, 109, 201, 140, 264
-0.991696, 289, 237, 352, 268
-0.991704, 393, 105, 456, 136
-0.991709, 401, 285, 464, 316
-0.991731, 369, 137, 432, 200
-0.99177, 329, 97, 360, 224
-0.99177, 301, 113, 332, 240
-0.991789, 121, 113, 152, 240
-0.991793, 209, 193, 272, 224
-0.99181, 137, 193, 168, 320
-0.991813, 361, 81, 392, 208
-0.991861, 377, 213, 440, 244
-0.991868, 321, 201, 384, 232
-0.991891, 137, 201, 200, 232
-0.991894, 433, 1, 496, 32
-0.991902, 161, 185, 224, 216
-0.991907, 217, 221, 280, 252
-0.991907, 341, 49, 372, 176
-0.991912, 113, 177, 176, 208
-0.991944, 49, 217, 80, 280
-0.991966, 137, 189, 200, 220
-0.991968, 417, 89, 448, 152
-0.991975, 161, 97, 224, 224
-0.991975, 137, 161, 200, 192
-0.991997, 329, 257, 392, 288
-0.991999, 433, 221, 496, 252
-0.992001, 1, 169, 256, 232
-0.99203, 1, 65, 256, 192
-0.992033, 409, 145, 440, 272
-0.992042, 169, 233, 232, 296
-0.992073, 289, 261, 352, 292
-0.992095, 321, 277, 384, 308
-0.992179, 21, 129, 52, 256
-0.992184, 309, 265, 340, 328
-0.992203, 265, 49, 328, 80
-0.992221, 405, 253, 436, 284
-0.992232, 337, 133, 400, 164
-0.992235, 401, 225, 464, 256
-0.992269, 321, 153, 384, 184
-0.992278, 57, 173, 120, 204
-0.992282, 369, 193, 496, 256
-0.992294, 85, 193, 116, 256
-0.992297, 161, 137, 416, 200
-0.992302, 393, 57, 456, 120
-0.992339, 401, 241, 464, 272
-0.992416, 385, 93, 448, 124
-0.992421, 217, 205, 280, 236
-0.992427, 397, 273, 428, 304
-0.992429, 289, 53, 352, 84
-0.992431, 225, 233, 288, 264
-0.992432, 281, 201, 344, 232
-0.992436, 265, 157, 328, 188
-0.99244, 41, 197, 104, 228
-0.992453, 253, 245, 284, 276
-0.992484, 345, 85, 408, 116
-0.992485, 297, 137, 360, 168
-0.992486, 201, 149, 264, 180
-0.992503, 185, 185, 248, 216
-0.992505, 269, 189, 300, 220
-0.992525, 361, 69, 424, 100
-0.992532, 281, 217, 312, 248
-0.992532, 345, 209, 408, 240
-0.992537, 161, 261, 224, 292
-0.992547, 325, 177, 356, 208
-0.992549, 145, 173, 208, 204
-0.99255, 49, 217, 176, 280
-0.992552, 313, 33, 376, 96
-0.992559, 361, 285, 424, 316
-0.992567, 349, 129, 380, 192
-0.99258, 153, 201, 184, 264
-0.992582, 345, 69, 376, 100
-0.992585, 305, 173, 336, 204
-0.992586, 401, 133, 464, 164
-0.992588, 297, 117, 360, 148
-0.992601, 193, 161, 448, 224
-0.992611, 281, 181, 312, 212
-0.992614, 333, 225, 364, 256
-0.992615, 209, 105, 336, 168
-0.992619, 409, 117, 472, 148
-0.992627, 353, 241, 384, 272
-0.992643, 409, 1, 472, 64
-0.992645, 177, 293, 240, 324
-0.992646, 409, 273, 440, 304
-0.992648, 381, 185, 412, 248
-0.992648, 333, 257, 364, 320
-0.992657, 433, 277, 496, 308
-0.99266, 433, 205, 464, 236
-0.992666, 225, 73, 480, 136
-0.992677, 225, 173, 256, 204
-0.99268, 253, 221, 284, 252
-0.992682, 413, 201, 444, 232
-0.992687, 289, 65, 352, 96
-0.992698, 429, 265, 460, 296
-0.992701, 249, 25, 312, 88
-0.992707, 249, 257, 280, 288
-0.99273, 301, 225, 332, 256
-0.99274, 49, 157, 112, 188
-0.992741, 37, 217, 68, 248
-0.992742, 345, 181, 376, 212
-0.992744, 249, 197, 280, 228
-0.992763, 313, 81, 376, 112
-0.992763, 329, 289, 392, 320
-0.992765, 265, 209, 296, 240
-0.992773, 177, 277, 240, 308
-0.992778, 265, 133, 328, 164
-0.99278, 241, 181, 272, 212
-0.992793, 337, 61, 400, 92
-0.992795, 461, 1, 492, 64
-0.9928, 89, 169, 120, 200
-0.992801, 69, 181, 100, 212
-0.992809, 177, 241, 240, 272
-0.992831, 385, 1, 448, 333
-0.992833, 349, 197, 380, 228
-0.992834, 309, 49, 340, 112
-0.992837, 113, 257, 240, 320
-0.992838, 401, 81, 464, 112
-0.992845, 357, 73, 388, 104
-0.992853, 293, 181, 324, 212
-0.992859, 197, 153, 228, 184
-0.992859, 137, 189, 168, 220
-0.992866, 217, 169, 280, 200
-0.992866, 1, 137, 128, 200
-0.992869, 369, 1, 496, 64
-0.992869, 393, 257, 424, 288
-0.992877, 401, 189, 464, 220
-0.992879, 281, 197, 312, 228
-0.992887, 369, 77, 400, 108
-0.992888, 101, 169, 132, 200
-0.992892, 421, 145, 452, 272
-0.992894, 461, 105, 492, 136
-0.9929, 357, 217, 388, 248
-0.992905, 277, 229, 308, 260
-0.992924, 329, 65, 360, 96
-0.992924, 381, 249, 412, 280
-0.992926, 381, 81, 412, 112
-0.99294, 349, 229, 380, 260
-0.992947, 169, 169, 232, 200
-0.992965, 361, 177, 424, 208
-0.992967, 249, 129, 280, 256
-0.99297, 397, 285, 428, 316
-0.992971, 425, 133, 488, 164
-0.992971, 337, 213, 368, 244
-0.992979, 333, 189, 364, 220
-0.992981, 117, 165, 148, 196
-0.992983, 233, 237, 264, 268
-0.992994, 209, 129, 272, 160
-0.993003, 21, 205, 52, 236
-0.993004, 321, 221, 352, 252
-0.993006, 121, 189, 152, 220
-0.993008, 373, 233, 404, 264
-0.993009, 257, 185, 288, 216
-0.993014, 273, 257, 304, 288
-0.993014, 441, 97, 472, 128
-0.993015, 309, 285, 340, 316
-0.993019, 409, 89, 440, 120
-0.993022, 413, 213, 444, 244
-0.993025, 61, 209, 92, 272
-0.993028, 185, 189, 216, 220
-0.99304, 429, 93, 460, 124
-0.993042, 237, 193, 268, 224
-0.99305, 277, 281, 308, 312
-0.99305, 293, 169, 324, 200
-0.993053, 405, 97, 436, 224
-0.993067, 397, 85, 428, 116
-0.993069, 293, 193, 324, 224
-0.993086, 305, 185, 336, 216
-0.993087, 393, 197, 424, 228
-0.993089, 265, 241, 296, 272
-0.993105, 293, 253, 324, 284
-0.993106, 365, 261, 396, 292
-0.993107, 205, 189, 236, 220
-0.993108, 121, 177, 152, 208
-0.993114, 69, 209, 100, 240
-0.993123, 417, 257, 448, 288
-0.993124, 445, 225, 476, 288
-0.99313, 365, 249, 396, 280
-0.993132, 121, 201, 152, 232
-0.993134, 253, 233, 284, 264
-0.993134, 281, 1, 344, 64
-0.993134, 393, 245, 424, 276
-0.993136, 277, 269, 308, 300
-0.993136, 293, 269, 324, 300
-0.993137, 49, 205, 80, 236
-0.993139, 381, 265, 412, 296
-0.993147, 97, 241, 352, 304
-0.993149, 265, 229, 296, 260
-0.99315, 333, 165, 364, 196
-0.993152, 217, 201, 248, 232
-0.993152, 145, 137, 208, 200
-0.993154, 237, 249, 268, 280
-0.993156, 429, 217, 460, 248
-0.993164, 285, 241, 316, 272
-0.993169, 257, 25, 384, 88
-0.993175, 81, 65, 144, 320
-0.993187, 25, 221, 56, 252
-0.993198, 305, 157, 336, 188
-0.993199, 297, 241, 328, 272
-0.9932, 297, 281, 328, 312
-0.993214, 429, 253, 460, 284
-0.993215, 337, 237, 368, 268
-0.993219, 225, 185, 256, 216
-0.993222, 81, 201, 112, 232
-0.993225, 329, 289, 360, 320
-0.993227, 321, 165, 352, 196
-0.993227, 149, 161, 180, 192
-0.993229, 253, 173, 284, 204
-0.99323, 149, 189, 180, 220
-0.993243, 53, 217, 84, 248
-0.993243, 157, 201, 188, 232
-0.993257, 469, 281, 500, 312
-0.993267, 385, 185, 416, 216
-0.993269, 33, 205, 64, 236
-0.993272, 213, 169, 244, 200
-0.993272, 177, 157, 208, 188
-0.993273, 237, 217, 268, 248
-0.993276, 173, 193, 204, 224
-0.993278, 137, 201, 168, 232
-0.993282, 429, 105, 460, 136
-0.993283, 301, 213, 332, 244
-0.993284, 21, 193, 52, 320
-0.993285, 445, 213, 476, 244
-0.993288, 201, 165, 232, 196
-0.993292, 105, 193, 136, 224
-0.993309, 241, 169, 272, 200
-0.993313, 413, 285, 444, 316
-0.993318, 229, 161, 260, 192
-0.993321, 345, 81, 376, 112
-0.993322, 445, 1, 476, 32
-0.993327, 253, 209, 284, 240
-0.993328, 213, 153, 244, 184
-0.993329, 225, 213, 256, 244
-0.993331, 169, 261, 200, 292
-0.993332, 357, 169, 388, 200
-0.993333, 89, 189, 120, 220
-0.993336, 401, 209, 432, 240
-0.993343, 345, 165, 376, 196
-0.993353, 265, 273, 296, 304
-0.993358, 109, 205, 140, 236
-0.993468, 241, 181, 368, 212
-0.993484, 89, 113, 120, 240
-0.993516, 225, 233, 256, 296
-0.993521, 257, 273, 500, 333
-0.993532, 193, 189, 320, 220
-0.993537, 257, 229, 384, 260
-0.993575, 469, 1, 500, 128
-0.993584, 129, 185, 384, 248
-0.993585, 193, 113, 256, 176
-0.993687, 1, 193, 500, 256
-0.993709, 17, 145, 80, 208
-0.993833, 105, 65, 168, 320
-0.993866, 337, 205, 464, 236
-0.993877, 469, 105, 500, 168
-0.993915, 225, 245, 352, 276
-0.993964, 465, 209, 496, 333
-0.994004, 425, 1, 488, 128
-0.994019, 257, 97, 500, 160
-0.99402, 113, 97, 176, 224
-0.994103, 337, 257, 464, 288
-0.994147, 249, 177, 264, 240
-0.994182, 65, 189, 192, 220
-0.994232, 255, 217, 270, 280
-0.994245, 201, 129, 232, 192
-0.994285, 273, 241, 400, 272
-0.994286, 417, 65, 448, 192
-0.994296, 409, 257, 424, 320
-0.994301, 289, 49, 320, 112
-0.994371, 289, 129, 320, 192
-0.994383, 129, 217, 384, 280
-0.994406, 419, 249, 434, 312
-0.994416, 321, 85, 448, 116
-0.994454, 137, 225, 200, 288
-0.994462, 255, 185, 270, 248
-0.994474, 105, 113, 136, 240
-0.994521, 65, 177, 192, 208
-0.994536, 389, 57, 420, 120
-0.994547, 373, 209, 404, 272
-0.994553, 105, 1, 168, 333
-0.99457, 269, 153, 300, 216
-0.994576, 273, 169, 400, 200
-0.994609, 273, 73, 336, 136
-0.994643, 285, 17, 316, 80
-0.994678, 1, 145, 500, 208
-0.994681, 241, 193, 368, 224
-0.994753, 225, 1, 288, 333
-0.994766, 17, 189, 144, 220
-0.994774, 69, 209, 100, 333
-0.994779, 355, 201, 370, 264
-0.994783, 41, 129, 72, 256
-0.994829, 225, 49, 480, 112
-0.994869, 97, 161, 224, 192
-0.994891, 401, 257, 416, 320
-0.9949, 261, 225, 276, 288
-0.994907, 89, 209, 152, 333
-0.994942, 417, 1, 480, 333
-0.994957, 273, 253, 400, 284
-0.99499, 193, 25, 320, 88
-0.99499, 1, 249, 500, 312
-0.994991, 265, 201, 280, 264
-0.994993, 217, 81, 248, 208
-0.995022, 321, 193, 448, 224
-0.995029, 225, 165, 352, 196
-0.995032, 241, 209, 368, 240
-0.995037, 285, 81, 316, 208
-0.995045, 113, 193, 240, 224
-0.995062, 225, 89, 256, 152
-0.995066, 393, 129, 424, 256
-0.995076, 225, 257, 352, 288
-0.99509, 247, 217, 262, 280
-0.995093, 445, 121, 476, 184
-0.995162, 337, 217, 464, 248
-0.995166, 309, 129, 340, 192
-0.995174, 65, 241, 192, 304
-0.995191, 9, 217, 40, 280
-0.995231, 265, 33, 296, 160
-0.995242, 243, 169, 258, 232
-0.995248, 345, 97, 408, 160
-0.995253, 65, 201, 192, 232
-0.995264, 73, 113, 104, 240
-0.995266, 177, 237, 304, 268
-0.995267, 345, 193, 360, 256
-0.995271, 85, 145, 116, 208
-0.995282, 57, 209, 88, 333
-0.995321, 301, 225, 316, 288
-0.995364, 193, 177, 320, 208
-0.995367, 255, 241, 270, 304
-0.995394, 209, 281, 336, 312
-0.995427, 363, 241, 378, 304
-0.995431, 161, 113, 288, 176
-0.995447, 301, 185, 316, 248
-0.995456, 83, 169, 98, 232
-0.995469, 221, 169, 236, 232
-0.995482, 273, 225, 288, 288
-0.995491, 189, 249, 220, 312
-0.995499, 307, 153, 322, 216
-0.995512, 253, 57, 284, 120
-0.995514, 267, 233, 282, 296
-0.995528, 369, 241, 496, 272
-0.995534, 45, 209, 76, 333
-0.995561, 193, 1, 256, 333
-0.995562, 225, 33, 288, 160
-0.995573, 337, 269, 464, 300
-0.99558, 33, 65, 96, 320
-0.995627, 369, 101, 496, 132
-0.995632, 417, 65, 448, 128
-0.995644, 173, 137, 204, 200
-0.995657, 289, 181, 416, 212
-0.995658, 161, 249, 288, 280
-0.995682, 429, 273, 460, 333
-0.995688, 21, 225, 52, 288
-0.995696, 209, 221, 336, 252
-0.995733, 17, 201, 144, 232
-0.995751, 271, 201, 286, 264
-0.995757, 351, 233, 366, 296
-0.995811, 241, 105, 304, 168
-0.995831, 301, 161, 316, 224
-0.995833, 197, 161, 212, 224
-0.995842, 351, 177, 366, 240
-0.995844, 307, 225, 322, 288
-0.995856, 361, 201, 376, 264
-0.995869, 321, 245, 448, 276
-0.995882, 161, 261, 288, 292
-0.995903, 281, 201, 296, 264
-0.995906, 145, 181, 272, 212
-0.995908, 369, 105, 432, 168
-0.995917, 113, 177, 128, 240
-0.995928, 93, 169, 108, 232
-0.995945, 289, 217, 416, 248
-0.995952, 161, 201, 288, 232
-0.995975, 337, 229, 464, 260
-0.995986, 191, 161, 206, 224
-0.995989, 257, 121, 500, 184
-0.995999, 229, 81, 260, 208
-0.996052, 377, 225, 392, 288
-0.996056, 307, 185, 322, 248
-0.996061, 273, 69, 400, 100
-0.99607, 341, 153, 356, 216
-0.99607, 345, 225, 360, 288
-0.996071, 65, 1, 128, 333
-0.996094, 291, 201, 306, 264
-0.996116, 333, 185, 348, 248
-0.996127, 129, 273, 384, 333
-0.996127, 283, 177, 298, 240
-0.996143, 273, 157, 400, 188
-0.996143, 1, 145, 32, 272
-0.996157, 305, 285, 432, 316
-0.996172, 317, 177, 332, 240
-0.996181, 253, 65, 284, 192
-0.996186, 291, 177, 306, 240
-0.996214, 85, 193, 100, 256
-0.996218, 273, 265, 400, 296
-0.996259, 369, 241, 384, 304
-0.996281, 215, 169, 230, 232
-0.996296, 439, 201, 454, 264
-0.996303, 305, 1, 368, 64
-0.996314, 261, 249, 276, 312
-0.99632, 65, 137, 320, 200
-0.996323, 425, 249, 440, 312
-0.996325, 241, 57, 368, 88
-0.996337, 357, 169, 372, 232
-0.996342, 123, 161, 138, 224
-0.996355, 209, 269, 336, 300
-0.996359, 321, 33, 448, 96
-0.99636, 1, 217, 500, 280
-0.996371, 169, 161, 184, 224
-0.996371, 141, 161, 156, 224
-0.996372, 241, 217, 256, 280
-0.996376, 295, 241, 310, 304
-0.996379, 261, 113, 292, 240
-0.996383, 145, 169, 272, 200
-0.996395, 483, 257, 498, 320
-0.996406, 129, 33, 192, 288
-0.996417, 335, 153, 350, 216
-0.996418, 339, 185, 354, 248
-0.996424, 265, 177, 280, 240
-0.996428, 161, 113, 416, 176
-0.996435, 237, 177, 252, 240
-0.996435, 149, 161, 164, 224
-0.996435, 1, 273, 500, 333
-0.996439, 353, 65, 368, 128
-0.99645, 227, 169, 242, 232
-0.996462, 421, 273, 436, 333
-0.996468, 449, 209, 480, 333
-0.996471, 477, 273, 492, 333
-0.996471, 177, 65, 240, 320
-0.996484, 431, 249, 446, 312
-0.99649, 395, 249, 410, 312
-0.996493, 397, 49, 428, 176
-0.996498, 359, 65, 374, 128
-0.99652, 339, 225, 354, 288
-0.996539, 193, 149, 320, 180
-0.996559, 185, 161, 200, 224
-0.996563, 313, 225, 328, 288
-0.996564, 321, 73, 448, 104
-0.996569, 361, 1, 424, 333
-0.996569, 145, 157, 272, 188
-0.996575, 161, 65, 288, 128
-0.996589, 415, 273, 430, 333
-0.996596, 325, 185, 340, 248
-0.9966, 33, 193, 48, 256
-0.9966, 249, 241, 264, 304
-0.996621, 225, 201, 240, 264
-0.99663, 433, 169, 496, 232
-0.996633, 271, 177, 286, 240
-0.996642, 407, 233, 422, 296
-0.996649, 439, 257, 454, 320
-0.996649, 367, 209, 382, 272
-0.996658, 43, 193, 58, 256
-0.996667, 369, 89, 496, 120
-0.996704, 129, 49, 384, 112
-0.996751, 321, 133, 448, 164
-0.996751, 401, 153, 464, 216
-0.996759, 27, 201, 42, 264
-0.996762, 17, 213, 144, 244
-0.996777, 413, 81, 428, 144
-0.996778, 211, 145, 226, 208
-0.996785, 107, 169, 122, 232
-0.996786, 177, 161, 192, 224
-0.996794, 357, 241, 372, 304
-0.996822, 347, 153, 362, 216
-0.996836, 243, 193, 258, 256
-0.996841, 331, 217, 346, 280
-0.996859, 287, 241, 302, 304
-0.996864, 403, 193, 418, 256
-0.996864, 469, 97, 484, 160
-0.996876, 411, 193, 426, 256
-0.996877, 17, 173, 144, 204
-0.996882, 49, 225, 112, 288
-0.996884, 315, 145, 330, 208
-0.996895, 289, 265, 304, 328
-0.996897, 433, 201, 448, 264
-0.996899, 375, 257, 390, 320
-0.996905, 385, 73, 400, 136
-0.996907, 123, 201, 138, 264
-0.996917, 387, 241, 402, 304
-0.996939, 1, 73, 500, 136
-0.99695, 205, 153, 220, 216
-0.996952, 353, 65, 384, 320
-0.996955, 51, 193, 66, 256
-0.996977, 151, 193, 166, 256
-0.99698, 41, 1, 104, 333
-0.996986, 277, 177, 292, 240
-0.996996, 21, 201, 36, 264
-0.996997, 161, 89, 288, 152
-0.996998, 219, 201, 234, 264
-0.997001, 413, 233, 428, 296
-0.997002, 131, 161, 146, 224
-0.99701, 57, 65, 120, 320
-0.99702, 325, 33, 356, 288
-0.997032, 369, 113, 496, 144
-0.997048, 159, 161, 174, 224
-0.997056, 305, 33, 336, 288
-0.997059, 257, 277, 384, 308
-0.99707, 333, 257, 348, 320
-0.997075, 433, 145, 464, 272
-0.997075, 57, 193, 72, 256
-0.997088, 321, 97, 448, 128
-0.997101, 447, 225, 462, 288
-0.997101, 81, 209, 112, 333
-0.997106, 319, 217, 334, 280
-0.997113, 267, 257, 282, 320
-0.997128, 365, 169, 380, 232
-0.99713, 259, 161, 274, 224
-0.997131, 459, 1, 474, 64
-0.997138, 439, 89, 454, 152
-0.997145, 161, 213, 288, 244
-0.99715, 91, 193, 106, 256
-0.997156, 235, 209, 250, 272
-0.99716, 389, 265, 404, 328
-0.997174, 77, 177, 92, 240
-0.997178, 365, 65, 380, 128
-0.997188, 329, 153, 344, 216
-0.997205, 145, 1, 208, 333
-0.99722, 353, 17, 384, 144
-0.997224, 321, 145, 448, 176
-0.997227, 1, 233, 128, 296
-0.997248, 41, 217, 56, 280
-0.997254, 295, 265, 310, 328
-0.997265, 407, 81, 422, 144
-0.997266, 339, 65, 354, 128
-0.997269, 461, 97, 476, 160
-0.997282, 207, 193, 222, 256
-0.997284, 295, 153, 310, 216
-0.997291, 209, 137, 336, 168
-0.997294, 369, 289, 496, 320
-0.997299, 113, 205, 240, 236
-0.997315, 161, 273, 288, 304
-0.997316, 337, 181, 464, 212
-0.997321, 373, 65, 404, 320
-0.997321, 255, 245, 270, 276
-0.997386, 445, 209, 460, 240
-0.997386, 253, 181, 268, 212
-0.997412, 409, 273, 424, 304
-0.997414, 89, 217, 152, 280
-0.99743, 257, 289, 384, 320
-0.997441, 257, 145, 384, 176
-0.997472, 193, 89, 256, 152
-0.997479, 321, 169, 448, 200
-0.997483, 341, 65, 372, 320
-0.997533, 193, 81, 256, 208
-0.997555, 299, 177, 314, 208
-0.997575, 1, 225, 256, 288
-0.997582, 289, 185, 304, 216
-0.997584, 273, 81, 400, 112
-0.997585, 437, 33, 468, 160
-0.9976, 257, 1, 384, 32
-0.997627, 355, 201, 370, 232
-0.997639, 401, 269, 416, 300
-0.997643, 249, 65, 280, 320
-0.997649, 289, 205, 416, 236
-0.997649, 257, 117, 384, 148
-0.997673, 343, 225, 358, 256
-0.99771, 261, 245, 276, 276
-0.997716, 353, 225, 368, 256
-0.997723, 265, 189, 280, 220
-0.99773, 349, 69, 364, 100
-0.997757, 257, 129, 384, 160
-0.997764, 257, 97, 384, 128
-0.997769, 409, 253, 424, 284
-0.997771, 271, 189, 286, 220
-0.997774, 305, 225, 320, 256
-0.997787, 275, 209, 290, 240
-0.997792, 283, 185, 298, 216
-0.997797, 359, 189, 374, 220
-0.997799, 245, 177, 260, 208
-0.99781, 419, 253, 434, 284
-0.997813, 437, 205, 452, 236
-0.997814, 209, 93, 336, 124
-0.997819, 281, 1, 312, 256
-0.99782, 17, 169, 80, 232
-0.997826, 369, 125, 496, 156
-0.997842, 259, 189, 274, 220
-0.997855, 291, 201, 306, 232
-0.997864, 129, 289, 256, 320
-0.997881, 369, 73, 384, 104
-0.997884, 413, 201, 428, 232
-0.997884, 153, 65, 216, 320
-0.997889, 429, 201, 444, 232
-0.997892, 305, 173, 320, 204
-0.997901, 401, 281, 416, 312
-0.997916, 145, 189, 160, 220
-0.99792, 285, 197, 300, 228
-0.997921, 355, 69, 370, 100
-0.997922, 427, 257, 442, 288
-0.997932, 367, 245, 382, 276
-0.997933, 263, 201, 278, 232
-0.99794, 345, 177, 360, 208
-0.997945, 399, 249, 414, 280
-0.997956, 421, 273, 436, 304
-0.997958, 335, 177, 350, 208
-0.997971, 193, 97, 224, 224
-0.997975, 17, 161, 144, 192
-0.997982, 369, 1, 496, 32
-0.997988, 351, 181, 366, 212
-0.997996, 277, 189, 292, 220
-0.997996, 363, 73, 378, 104
-0.998011, 407, 197, 422, 228
-0.998015, 301, 189, 316, 220
-0.99802, 361, 201, 376, 232
-0.998021, 421, 201, 436, 232
-0.998026, 267, 225, 282, 256
-0.998027, 375, 77, 390, 108
-0.998036, 151, 193, 166, 224
-0.99804, 327, 173, 342, 204
-0.998041, 85, 185, 100, 216
-0.998047, 381, 77, 396, 108
-0.998055, 223, 173, 238, 204
-0.998059, 385, 65, 416, 320
-0.998062, 209, 121, 336, 152
-0.998064, 253, 197, 268, 228
-0.998064, 317, 173, 332, 204
-0.998066, 233, 169, 248, 200
-0.998068, 347, 193, 362, 224
-0.998068, 341, 65, 356, 96
-0.998071, 49, 129, 112, 192
-0.998089, 43, 213, 58, 244
-0.998106, 267, 241, 282, 272
-0.998116, 475, 105, 490, 136
-0.998123, 351, 213, 366, 244
-0.998134, 161, 225, 288, 256
-0.998135, 191, 189, 206, 220
-0.998136, 107, 165, 122, 196
-0.998151, 395, 261, 410, 292
-0.998154, 53, 213, 68, 244
-0.998162, 269, 209, 284, 240
-0.998163, 129, 89, 384, 152
-0.998167, 321, 285, 336, 316
-0.998171, 483, 301, 498, 332
-0.998172, 249, 245, 264, 276
-0.998172, 441, 221, 456, 252
-0.998174, 407, 285, 422, 316
-0.998191, 275, 229, 290, 260
-0.998193, 245, 193, 260, 224
-0.998203, 255, 257, 270, 288
-0.998207, 229, 65, 260, 320
-0.99821, 359, 225, 374, 256
-0.998222, 435, 217, 450, 248
-0.99823, 341, 189, 356, 220
-0.998254, 305, 1, 432, 64
-0.998256, 225, 45, 352, 76
-0.998258, 351, 237, 366, 268
-0.99826, 397, 81, 412, 112
-0.998261, 93, 173, 108, 204
-0.998262, 429, 213, 444, 244
-0.998276, 295, 189, 310, 220
-0.998281, 415, 273, 430, 304
-0.998287, 293, 33, 324, 288
-0.9983, 429, 65, 460, 320
-0.998304, 369, 77, 496, 108
-0.998306, 359, 241, 374, 272
-0.998308, 427, 269, 442, 300
-0.99831, 147, 177, 162, 208
-0.998313, 263, 257, 278, 288
-0.99832, 451, 97, 466, 128
-0.998324, 345, 213, 360, 244
-0.998325, 311, 181, 326, 212
-0.998329, 337, 225, 352, 256
-0.998334, 409, 85, 424, 116
-0.998338, 381, 17, 412, 144
-0.998345, 413, 269, 444, 284
-0.998345, 157, 197, 188, 212
-0.998346, 441, 215, 472, 230
-0.998347, 329, 221, 344, 252
-0.998348, 417, 285, 448, 300
-0.998348, 37, 217, 52, 248
-0.998348, 25, 217, 40, 248
-0.998349, 269, 239, 300, 254
-0.998349, 209, 81, 336, 112
-0.998349, 205, 205, 236, 220
-0.998349, 29, 211, 60, 226
-0.99835, 305, 169, 336, 184
-0.99835, 265, 255, 296, 270
-0.998351, 139, 185, 154, 216
-0.998351, 149, 203, 180, 218
-0.998351, 301, 233, 332, 248
-0.998351, 299, 245, 314, 276
-0.998353, 285, 251, 316, 266
-0.998353, 229, 203, 260, 218
-0.998357, 401, 193, 416, 224
-0.998357, 225, 191, 256, 206
-0.998357, 273, 261, 304, 276
-0.998358, 329, 289, 360, 304
-0.998359, 345, 81, 376, 96
-0.998359, 449, 101, 480, 116
-0.99836, 335, 65, 350, 96
-0.99836, 169, 1, 232, 333
-0.998361, 125, 201, 156, 216
-0.998361, 37, 225, 68, 240
-0.998362, 273, 273, 304, 288
-0.998362, 17, 215, 48, 230
-0.998362, 289, 193, 320, 208
-0.998363, 249, 201, 280, 216
-0.998363, 189, 191, 220, 206
-0.998366, 229, 201, 244, 232
-0.998367, 201, 163, 232, 178
-0.998367, 289, 187, 320, 202
-0.998368, 437, 97, 468, 112
-0.998368, 223, 189, 238, 220
-0.99837, 389, 81, 404, 112
-0.998371, 121, 249, 184, 312
-0.998372, 77, 207, 108, 222
-0.998373, 209, 169, 240, 184
-0.998374, 337, 197, 368, 212
-0.998374, 277, 285, 308, 300
-0.998374, 213, 175, 244, 190
-0.998375, 253, 253, 284, 268
-0.998375, 349, 205, 380, 220
-0.998375, 421, 93, 452, 108
-0.998375, 113, 173, 128, 204
-0.998376, 377, 245, 408, 260
-0.998377, 401, 87, 432, 102
-0.998378, 259, 177, 274, 208
-0.998378, 213, 153, 228, 184
-0.99838, 233, 253, 264, 268
-0.998381, 17, 209, 32, 240
-0.998383, 257, 211, 288, 226
-0.998384, 137, 185, 168, 200
-0.998384, 319, 221, 334, 252
-0.998385, 217, 205, 248, 220
-0.998386, 421, 203, 452, 218
-0.998388, 397, 273, 428, 288
-0.998389, 333, 67, 364, 82
-0.998389, 81, 175, 112, 190
-0.99839, 277, 233, 308, 248
-0.99839, 273, 267, 304, 282
-0.99839, 207, 153, 222, 184
-0.998392, 311, 225, 326, 256
-0.998392, 49, 213, 80, 228
-0.998392, 397, 257, 428, 272
-0.998392, 281, 209, 296, 240
-0.998393, 433, 221, 464, 236
-0.998394, 297, 285, 328, 300
-0.998395, 85, 201, 100, 232
-0.998395, 353, 211, 384, 226
-0.998395, 349, 223, 380, 238
-0.998396, 241, 195, 272, 210
-0.998396, 333, 233, 364, 248
-0.998397, 253, 241, 284, 256
-0.998397, 337, 217, 368, 232
-0.998398, 373, 251, 404, 266
-0.998398, 293, 257, 324, 272
-0.998399, 465, 107, 496, 122
-0.998399, 173, 161, 204, 176
-0.9984, 209, 197, 240, 212
-0.998402, 113, 167, 144, 182
-0.998404, 197, 155, 228, 170
-0.998404, 261, 205, 292, 220
-0.998404, 225, 185, 256, 200
-0.998405, 261, 65, 292, 320
-0.998405, 121, 165, 136, 196
-0.998405, 365, 261, 396, 276
-0.998406, 197, 193, 212, 224
-0.998407, 461, 117, 492, 132
-0.998408, 417, 89, 432, 120
-0.998409, 265, 197, 296, 212
-0.998409, 413, 213, 444, 228
-0.998411, 117, 177, 148, 192
-0.998412, 431, 93, 446, 124
-0.998414, 197, 153, 212, 184
-0.998414, 203, 189, 218, 220
-0.998414, 345, 187, 376, 202
-0.998415, 145, 197, 176, 212
-0.998417, 13, 221, 44, 236
-0.998418, 443, 97, 458, 128
-0.998418, 185, 197, 216, 212
-0.99842, 123, 205, 138, 236
-0.998422, 221, 169, 252, 184
-0.998423, 237, 177, 268, 192
-0.998423, 69, 183, 100, 198
-0.998423, 299, 233, 314, 264
-0.998424, 245, 165, 260, 196
-0.998424, 317, 223, 348, 238
-0.998424, 325, 189, 356, 204
-0.998424, 311, 169, 326, 200
-0.998424, 441, 115, 472, 130
-0.998425, 405, 263, 436, 278
-0.998425, 425, 261, 456, 276
-0.998428, 241, 213, 256, 244
-0.998428, 433, 257, 448, 288
-0.99843, 397, 251, 428, 266
-0.99843, 157, 161, 188, 176
-0.99843, 317, 175, 348, 190
-0.998432, 257, 225, 288, 240
-0.998432, 277, 221, 308, 236
-0.998435, 409, 275, 440, 290
-0.998435, 265, 191, 296, 206
-0.998436, 281, 199, 312, 214
-0.998437, 253, 191, 284, 206
-0.998438, 385, 83, 416, 98
-0.998441, 357, 75, 388, 90
-0.998443, 345, 71, 376, 86
-0.998444, 261, 217, 292, 232
-0.998444, 369, 239, 400, 254
-0.998445, 461, 101, 476, 132
-0.998447, 121, 185, 152, 200
-0.998448, 385, 259, 448, 274
-0.998449, 25, 221, 56, 236
-0.99845, 373, 79, 404, 94
-0.99845, 385, 267, 416, 282
-0.998451, 289, 183, 352, 198
-0.998451, 297, 213, 312, 244
-0.998452, 409, 201, 440, 216
-0.998454, 281, 227, 312, 242
-0.998454, 337, 181, 368, 196
-0.998459, 17, 225, 144, 256
-0.99846, 353, 243, 384, 258
-0.99846, 277, 187, 308, 202
-0.998461, 191, 157, 206, 188
-0.998461, 369, 65, 496, 96
-0.998462, 305, 187, 336, 202
-0.998462, 245, 185, 276, 200
-0.998463, 157, 193, 172, 224
-0.998465, 289, 181, 320, 196
-0.998465, 385, 257, 416, 272
-0.998466, 171, 197, 186, 228
-0.998468, 297, 227, 360, 242
-0.998472, 301, 227, 332, 242
-0.998474, 249, 247, 312, 262
-0.998475, 305, 175, 336, 190
-0.998476, 249, 259, 280, 274
-0.998479, 277, 207, 308, 222
-0.998481, 393, 265, 456, 280
-0.998481, 297, 177, 360, 192
-0.998481, 429, 267, 460, 282
-0.998487, 273, 215, 304, 230
-0.998487, 297, 191, 360, 206
-0.998489, 209, 105, 336, 136
-0.998495, 317, 181, 348, 196
-0.998496, 249, 189, 312, 204
-0.998497, 301, 181, 332, 196
-0.998498, 93, 169, 124, 184
-0.9985, 249, 253, 312, 268
-0.998501, 41, 219, 72, 234
-0.998501, 341, 239, 372, 254
-0.998504, 321, 109, 448, 140
-0.998506, 309, 291, 340, 306
-0.998507, 249, 241, 312, 256
-0.998507, 265, 219, 328, 234
-0.998508, 333, 227, 364, 242
-0.998509, 401, 213, 464, 228
-0.998512, 81, 199, 144, 214
-0.998515, 9, 209, 40, 333
-0.998516, 265, 229, 328, 244
-0.998518, 225, 175, 256, 190
-0.998518, 349, 233, 380, 248
-0.99852, 241, 261, 304, 276
-0.99852, 73, 175, 136, 190
-0.998523, 409, 255, 440, 270
-0.998527, 321, 157, 448, 188
-0.998529, 397, 285, 428, 300
-0.998531, 65, 265, 192, 328
-0.998531, 313, 183, 376, 198
-0.998532, 369, 253, 432, 268
-0.998533, 353, 265, 416, 280
-0.998535, 289, 291, 352, 306
-0.998541, 337, 233, 400, 248
-0.998542, 233, 197, 296, 212
-0.998543, 81, 187, 144, 202
-0.998548, 433, 209, 464, 224
-0.998551, 113, 277, 240, 308
-0.998552, 161, 199, 224, 214
-0.998555, 297, 233, 360, 248
-0.998556, 81, 193, 144, 208
-0.998558, 337, 77, 400, 92
-0.998559, 393, 253, 456, 268
-0.998559, 81, 205, 144, 220
-0.998561, 361, 247, 424, 262
-0.998562, 265, 235, 328, 250
-0.998563, 113, 199, 176, 214
-0.998564, 353, 259, 416, 274
-0.998565, 225, 205, 288, 220
-0.998566, 393, 201, 456, 216
-0.998567, 257, 195, 320, 210
-0.998568, 209, 175, 272, 190
-0.998573, 253, 247, 284, 262
-0.998574, 433, 111, 496, 126
-0.998576, 233, 183, 296, 198
-0.998577, 153, 161, 216, 176
-0.99858, 369, 83, 432, 98
-0.998581, 281, 257, 344, 272
-0.998581, 9, 219, 72, 234
-0.998581, 401, 207, 464, 222
-0.998582, 313, 165, 376, 180
-0.998582, 73, 181, 136, 196
-0.998584, 329, 255, 392, 270
-0.998584, 105, 165, 168, 180
-0.998587, 209, 195, 272, 210
-0.998587, 289, 171, 352, 186
-0.998589, 113, 185, 176, 200
-0.99859, 409, 95, 472, 110
-0.99859, 297, 159, 360, 174
-0.99859, 361, 241, 424, 256
-0.998594, 193, 1, 320, 64
-0.998594, 465, 97, 496, 224
-0.998596, 353, 191, 416, 206
-0.998597, 321, 241, 384, 256
-0.998599, 1, 249, 256, 312
-0.998599, 425, 263, 488, 278
-0.998601, 249, 211, 312, 226
-0.998601, 329, 71, 392, 86
-0.998603, 393, 285, 456, 300
-0.998604, 265, 183, 328, 198
-0.998604, 257, 1, 500, 64
-0.998606, 417, 269, 480, 284
-0.998607, 233, 225, 296, 240
-0.998607, 217, 261, 280, 276
-0.998608, 257, 267, 320, 282
-0.998609, 425, 117, 488, 132
-0.998609, 393, 89, 456, 104
-0.998609, 49, 187, 112, 202
-0.99861, 33, 219, 96, 234
-0.99861, 321, 191, 384, 206
-0.99861, 145, 41, 272, 104
-0.998611, 73, 169, 136, 184
-0.998612, 281, 285, 344, 300
-0.998614, 217, 255, 280, 270
-0.998614, 241, 177, 304, 192
-0.998617, 177, 167, 240, 182
-0.998618, 337, 221, 400, 236
-0.99862, 257, 205, 320, 220
-0.998621, 433, 105, 496, 120
-0.998621, 113, 193, 176, 208
-0.998622, 321, 171, 384, 186
-0.998622, 329, 261, 392, 276
-0.998623, 329, 247, 392, 262
-0.998623, 185, 201, 248, 216
-0.998623, 273, 177, 336, 192
-0.998624, 401, 219, 464, 234
-0.998624, 321, 287, 384, 302
-0.998625, 121, 205, 184, 220
-0.998628, 361, 197, 424, 212
-0.998628, 385, 273, 448, 288
-0.99863, 305, 221, 368, 236
-0.99863, 265, 273, 328, 288
-0.998632, 17, 1, 80, 333
-0.998632, 345, 185, 408, 200
-0.998633, 281, 263, 344, 278
-0.998635, 273, 189, 336, 204
-0.998636, 225, 249, 288, 264
-0.998637, 313, 293, 376, 308
-0.998637, 225, 219, 288, 234
-0.998639, 49, 193, 112, 208
-0.99864, 433, 257, 496, 272
-0.99864, 225, 237, 288, 252
-0.99864, 225, 267, 288, 282
-0.998641, 217, 189, 280, 204
-0.998642, 361, 271, 424, 286
-0.998642, 17, 225, 80, 240
-0.998643, 337, 227, 400, 242
-0.998644, 297, 153, 360, 168
-0.998644, 233, 231, 296, 246
-0.998644, 129, 163, 192, 178
-0.998645, 225, 211, 288, 226
-0.998645, 337, 83, 400, 98
-0.998646, 361, 285, 424, 300
-0.998647, 9, 213, 72, 228
-0.998649, 361, 205, 424, 220
-0.998649, 105, 179, 168, 194
-0.998649, 257, 285, 320, 300
-0.99865, 193, 207, 256, 222
-0.99865, 425, 219, 488, 234
-0.998654, 177, 161, 240, 176
-0.998654, 401, 117, 464, 132
-0.998654, 281, 251, 344, 266
-0.998654, 425, 213, 488, 228
-0.998655, 369, 137, 496, 168
-0.998657, 249, 279, 312, 294
-0.998657, 329, 177, 392, 192
-0.998657, 65, 211, 128, 226
-0.998657, 305, 67, 368, 82
-0.998658, 273, 279, 336, 294
-0.998658, 297, 239, 360, 254
-0.998659, 33, 213, 96, 228
-0.998659, 201, 235, 264, 250
-0.998659, 433, 123, 496, 138
-0.998661, 117, 209, 148, 333
-0.998663, 65, 149, 192, 180
-0.998681, 457, 33, 488, 160
-0.998682, 129, 237, 256, 268
-0.998706, 305, 161, 320, 288
-0.998725, 97, 25, 352, 88
-0.998764, 369, 301, 496, 332
-0.998787, 145, 145, 272, 176
-0.998796, 65, 213, 192, 244
-0.998853, 299, 177, 314, 304
-0.998859, 305, 297, 432, 328
-0.998866, 97, 225, 224, 256
-0.998874, 305, 121, 432, 152
-0.998882, 249, 177, 264, 304
-0.998903, 319, 161, 334, 288
-0.998909, 193, 293, 320, 324
-0.998918, 321, 49, 448, 80
-0.998922, 359, 177, 374, 304
-0.998926, 207, 145, 222, 272
-0.998927, 311, 161, 326, 288
-0.998934, 353, 161, 368, 288
-0.998936, 273, 81, 304, 208
-0.998944, 263, 193, 278, 320
-0.998947, 325, 161, 340, 288
-0.998948, 217, 65, 248, 320
-0.998965, 279, 193, 294, 320
-0.998971, 341, 177, 356, 304
-0.998976, 331, 177, 346, 304
-0.998984, 413, 209, 428, 333
-0.999002, 33, 113, 288, 176
-0.999006, 273, 193, 288, 320
-0.999021, 213, 145, 228, 272
-0.999037, 369, 193, 496, 224
-0.99904, 153, 97, 184, 224
-0.999045, 285, 193, 300, 320
-0.999046, 419, 193, 434, 320
-0.999053, 365, 177, 380, 304
-0.999065, 315, 209, 330, 333
-0.999067, 257, 301, 384, 332
-0.999067, 347, 161, 362, 288
-0.999069, 291, 193, 306, 320
-0.999072, 33, 273, 288, 333
-0.999087, 403, 193, 418, 320
-0.999093, 325, 209, 340, 333
-0.9991, 193, 145, 208, 272
-0.999101, 93, 161, 108, 288
-0.999103, 199, 145, 214, 272
-0.999106, 243, 193, 258, 320
-0.999115, 87, 161, 102, 288
-0.99912, 155, 145, 170, 272
-0.999125, 145, 145, 160, 272
-0.999129, 409, 65, 440, 320
-0.999133, 113, 161, 128, 288
-0.999137, 1, 49, 500, 112
-0.999147, 123, 161, 138, 288
-0.99915, 255, 177, 270, 304
-0.99915, 309, 209, 324, 333
-0.999157, 33, 97, 96, 224
-0.999163, 225, 193, 240, 320
-0.99917, 353, 209, 368, 333
-0.999173, 169, 145, 184, 272
-0.999173, 377, 209, 392, 333
-0.999179, 321, 61, 448, 92
-0.999183, 81, 161, 96, 288
-0.999188, 129, 145, 144, 272
-0.999199, 121, 65, 152, 320
-0.999202, 163, 145, 178, 272
-0.999212, 223, 113, 238, 240
-0.999223, 325, 1, 340, 128
-0.999224, 1, 149, 128, 180
-0.999233, 99, 161, 114, 288
-0.999237, 161, 121, 288, 152
-0.999241, 425, 193, 440, 320
-0.999241, 81, 261, 208, 292
-0.999243, 359, 129, 374, 256
-0.999244, 193, 33, 320, 64
-0.999246, 235, 161, 250, 288
-0.99925, 81, 245, 208, 276
-0.999252, 187, 145, 202, 272
-0.999252, 273, 33, 400, 64
-0.999259, 97, 65, 128, 320
-0.999259, 209, 69, 336, 100
-0.99926, 347, 209, 362, 333
-0.999263, 107, 161, 122, 288
-0.999268, 371, 209, 386, 333
-0.999272, 175, 161, 190, 288
-0.999276, 187, 193, 202, 320
-0.999277, 321, 1, 448, 32
-0.999279, 197, 193, 212, 320
-0.999284, 219, 161, 234, 288
-0.999289, 181, 145, 196, 272
-0.999295, 135, 145, 150, 272
-0.999312, 241, 145, 256, 272
-0.999316, 69, 161, 84, 288
-0.999323, 483, 1, 498, 128
-0.999324, 231, 209, 246, 333
-0.999324, 133, 97, 164, 224
-0.999325, 341, 49, 356, 176
-0.999327, 447, 81, 462, 208
-0.999341, 371, 161, 386, 288
-0.999343, 61, 113, 92, 240
-0.999346, 431, 193, 446, 320
-0.999349, 337, 129, 352, 256
-0.999349, 205, 193, 220, 320
-0.999358, 293, 145, 308, 272
-0.999368, 395, 177, 410, 304
-0.999372, 1, 113, 500, 176
-0.999373, 441, 81, 456, 208
-0.999374, 213, 193, 228, 320
-0.999376, 161, 193, 176, 320
-0.999387, 321, 49, 336, 176
-0.999388, 181, 193, 196, 320
-0.999388, 387, 177, 402, 304
-0.999392, 57, 145, 72, 272
-0.999393, 219, 209, 234, 333
-0.999408, 331, 129, 346, 256
-0.999408, 297, 33, 312, 160
-0.99941, 331, 1, 346, 128
-0.999411, 155, 193, 170, 320
-0.999414, 365, 129, 380, 256
-0.999418, 257, 25, 500, 88
-0.99942, 285, 1, 300, 128
-0.999423, 313, 113, 328, 240
-0.999425, 275, 145, 290, 272
-0.999429, 273, 45, 400, 76
-0.999429, 75, 161, 90, 288
-0.999432, 9, 65, 72, 320
-0.999434, 377, 161, 392, 288
-0.999435, 51, 145, 66, 272
-0.999435, 445, 193, 460, 320
-0.999436, 169, 193, 184, 320
-0.999438, 291, 33, 306, 160
-0.999439, 331, 49, 346, 176
-0.999439, 45, 145, 60, 272
-0.999441, 375, 65, 390, 192
-0.999449, 113, 105, 240, 168
-0.999454, 437, 193, 452, 320
-0.999455, 453, 81, 468, 208
-0.99946, 385, 49, 400, 176
-0.99946, 63, 177, 78, 304
-0.999461, 135, 193, 150, 320
-0.999463, 351, 113, 366, 240
-0.999464, 287, 145, 302, 272
-0.999465, 347, 49, 362, 176
-0.999467, 281, 145, 296, 272
-0.999468, 229, 145, 244, 272
-0.999469, 405, 145, 420, 272
-0.99947, 257, 13, 384, 44
-0.99947, 305, 97, 320, 224
-0.999477, 319, 1, 334, 128
-0.999481, 129, 193, 144, 320
-0.999482, 321, 113, 336, 240
-0.999484, 39, 177, 54, 304
-0.999484, 237, 209, 252, 333
-0.999485, 303, 33, 318, 160
-0.999489, 435, 97, 450, 224
-0.99949, 313, 33, 328, 160
-0.999492, 393, 49, 408, 176
-0.999494, 345, 113, 360, 240
-0.999496, 399, 65, 414, 192
-0.999504, 367, 81, 382, 208
-0.999511, 369, 149, 496, 180
-0.999513, 429, 145, 444, 272
-0.999514, 299, 129, 314, 256
-0.999515, 429, 65, 444, 192
-0.999519, 25, 177, 40, 304
-0.999523, 141, 193, 156, 320
-0.999526, 269, 145, 284, 272
-0.999528, 445, 145, 476, 272
-0.999528, 193, 21, 320, 52
-0.999528, 253, 129, 268, 256
-0.999542, 161, 133, 288, 164
-0.999552, 397, 129, 412, 256
-0.999555, 383, 129, 398, 256
-0.999559, 477, 109, 492, 124
-0.999559, 359, 237, 374, 252
-0.99956, 413, 213, 428, 228
-0.99956, 329, 223, 344, 238
-0.999561, 461, 117, 476, 132
-0.999561, 481, 315, 496, 330
-0.999561, 431, 203, 446, 218
-0.999561, 85, 65, 116, 320
-0.999562, 291, 219, 306, 234
-0.999562, 319, 177, 334, 192
-0.999563, 281, 217, 296, 232
-0.999564, 355, 187, 370, 202
-0.999564, 263, 145, 278, 272
-0.999565, 201, 191, 216, 206
-0.999566, 441, 129, 456, 256
-0.999567, 429, 269, 444, 284
-0.999568, 473, 119, 488, 134
-0.999568, 313, 225, 328, 240
-0.999568, 355, 227, 370, 242
-0.999568, 319, 225, 334, 240
-0.999568, 209, 155, 224, 170
-0.999569, 245, 193, 260, 208
-0.999569, 267, 213, 282, 228
-0.999569, 175, 161, 190, 176
-0.999569, 445, 223, 460, 238
-0.99957, 87, 175, 102, 190
-0.99957, 263, 197, 278, 212
-0.999571, 253, 199, 268, 214
-0.999572, 101, 169, 116, 184
-0.999572, 403, 195, 418, 210
-0.999572, 151, 191, 166, 206
-0.999573, 19, 223, 34, 238
-0.999573, 325, 175, 340, 190
-0.999573, 345, 181, 360, 196
-0.999573, 359, 205, 374, 220
-0.999574, 249, 255, 264, 270
-0.999574, 359, 243, 374, 258
-0.999575, 391, 83, 406, 98
-0.999576, 247, 213, 262, 228
-0.999577, 147, 199, 162, 214
-0.999577, 217, 167, 232, 182
-0.999578, 285, 211, 300, 226
-0.999578, 139, 181, 154, 196
-0.999579, 281, 197, 296, 212
-0.999579, 359, 193, 374, 208
-0.999579, 353, 221, 368, 236
-0.99958, 337, 67, 352, 82
-0.99958, 53, 217, 68, 232
-0.999581, 343, 193, 358, 208
-0.999581, 437, 219, 452, 234
-0.999582, 81, 183, 96, 198
-0.999583, 385, 81, 400, 96
-0.999583, 261, 203, 276, 218
-0.999584, 275, 223, 290, 238
-0.999584, 225, 205, 240, 220
-0.999585, 337, 177, 352, 192
-0.999586, 303, 189, 318, 204
-0.999588, 411, 275, 426, 290
-0.999589, 117, 167, 132, 182
-0.99959, 191, 189, 206, 204
-0.999591, 143, 187, 158, 202
-0.999593, 243, 187, 258, 202
-0.999593, 451, 113, 466, 128
-0.999593, 431, 261, 446, 276
-0.999594, 401, 285, 416, 300
-0.999595, 293, 197, 308, 212
-0.999596, 395, 269, 410, 284
-0.999598, 205, 197, 220, 212
-0.999598, 419, 277, 434, 292
-0.999599, 443, 111, 458, 126
-0.999599, 153, 197, 168, 212
-0.999599, 411, 285, 426, 300
-0.999599, 223, 177, 238, 192
-0.9996, 287, 187, 302, 202
-0.9996, 371, 77, 386, 92
-0.9996, 261, 261, 276, 276
-0.999602, 365, 243, 380, 258
-0.999602, 399, 255, 414, 270
-0.999603, 291, 211, 306, 226
-0.999605, 351, 197, 366, 212
-0.999606, 169, 161, 184, 176
-0.999606, 363, 75, 378, 90
-0.999607, 357, 73, 372, 88
-0.999607, 349, 71, 364, 86
-0.999607, 377, 79, 392, 94
-0.999608, 407, 259, 422, 274
-0.999608, 405, 273, 420, 288
-0.999609, 343, 237, 358, 252
-0.99961, 343, 69, 358, 84
-0.999612, 437, 207, 452, 222
-0.999612, 307, 175, 322, 190
-0.999613, 333, 183, 348, 198
-0.999613, 349, 227, 364, 242
-0.999614, 269, 227, 284, 242
-0.999614, 145, 181, 160, 196
-0.999614, 409, 199, 424, 214
-0.999614, 337, 189, 352, 204
-0.999617, 369, 161, 496, 192
-0.999619, 437, 263, 452, 278
-0.99962, 313, 181, 328, 196
-0.99962, 425, 259, 440, 274
-0.999623, 265, 191, 280, 206
-0.999625, 27, 221, 42, 236
-0.999625, 271, 199, 286, 214
-0.999628, 249, 179, 264, 194
-0.999629, 195, 195, 210, 210
-0.999629, 223, 171, 238, 186
-0.99963, 233, 175, 248, 190
-0.99963, 287, 201, 302, 216
-0.999631, 323, 293, 338, 308
-0.999631, 255, 193, 270, 208
-0.999632, 293, 185, 308, 200
-0.999632, 343, 227, 358, 242
-0.999632, 43, 219, 58, 234
-0.999633, 405, 253, 420, 268
-0.999635, 395, 261, 410, 276
-0.999636, 301, 181, 316, 196
-0.999636, 401, 263, 416, 278
-0.999638, 415, 253, 430, 268
-0.99964, 269, 219, 284, 234
-0.999641, 197, 157, 212, 172
-0.999641, 281, 205, 296, 220
-0.999647, 307, 229, 322, 244
-0.999648, 107, 169, 122, 184
-0.999653, 255, 259, 270, 274
-0.999654, 327, 181, 342, 196
-0.999659, 275, 207, 290, 222
-0.99966, 333, 1, 364, 128
-0.999665, 249, 185, 264, 200
-0.99967, 447, 213, 462, 228
-0.999675, 243, 175, 258, 190
-0.999677, 275, 217, 290, 232
-0.99968, 353, 233, 368, 248
-0.99968, 97, 209, 128, 333
-0.999685, 255, 247, 270, 262
-0.999687, 349, 239, 364, 254
-0.999712, 145, 105, 272, 136
-0.999719, 81, 289, 208, 320
-0.999735, 193, 9, 320, 40
-0.999742, 453, 65, 484, 320
-0.999758, 397, 65, 428, 320
-0.999768, 153, 33, 184, 288
-0.999771, 113, 133, 240, 164
-0.999778, 469, 65, 500, 320
-0.999785, 161, 73, 288, 104
-0.999826, 133, 33, 164, 288
-0.999831, 109, 33, 140, 288
-0.999846, 441, 33, 472, 288
-0.999874, 161, 93, 288, 124
-0.999893, 241, 81, 272, 208
-0.999912, 25, 65, 56, 320
-0.999932, 193, 57, 320, 88
-0.999948, 189, 33, 220, 288
-0.999989, 173, 65, 204, 320
-1, 137, 97, 200, 224
-1.00002, 369, 17, 432, 144
-1.00004, 177, 45, 304, 76
-1.00005, 65, 273, 192, 304
-1.00006, 173, 97, 204, 224
-1.00008, 1, 97, 64, 224
-1.00011, 13, 65, 44, 320
-1.00011, 205, 65, 236, 320
-1.00012, 73, 65, 104, 320
-1.00012, 33, 237, 160, 268
-1.00015, 33, 137, 160, 168
-1.00018, 61, 65, 92, 320
-1.00027, 97, 1, 352, 64
-1.00027, 33, 57, 288, 120
-1.0003, 129, 301, 256, 332
-1.00032, 145, 57, 272, 88
-1.00035, 41, 65, 72, 320
-1.00036, 113, 117, 240, 148
-1.00042, 49, 113, 176, 176
-1.0005, 433, 145, 496, 208
-1.0005, 369, 13, 496, 44
-1.00053, 33, 89, 288, 152
-1.00069, 1, 65, 32, 320
-1.00095, 249, 1, 312, 64
-1.00107, 121, 273, 184, 333
-1.00137, 369, 17, 400, 144
-1.00138, 369, 33, 496, 96
-1.00138, 377, 169, 440, 232
-1.00142, 113, 225, 176, 288
-1.00154, 385, 1, 448, 64
-1.00156, 1, 257, 128, 320
-1.00171, 225, 17, 288, 80
-1.00175, 241, 33, 272, 160
-1.00177, 113, 65, 240, 128
-1.00184, 229, 33, 260, 160
-1.00188, 209, 41, 272, 104
-1.00189, 205, 65, 236, 192
-1.00197, 1, 25, 500, 88
-1.00201, 1, 1, 500, 64
-1.00209, 33, 17, 288, 144
-1.00211, 161, 113, 224, 176
-1.00214, 129, 33, 256, 160
-1.00219, 1, 33, 256, 96
-1.00221, 1, 9, 256, 72
-1.00228, 1, 113, 128, 176
-1.00229, 1, 113, 64, 176
-1.00257, 469, 145, 500, 272
-1.00257, 201, 65, 264, 128
-1.00271, 1, 1, 128, 64
-1.0028, 1, 89, 128, 152
-1.00291, 49, 17, 176, 80
-1.00291, 97, 17, 224, 80
-1.00291, 33, 41, 160, 104
-1.00291, 81, 41, 208, 104
-1.00291, 17, 65, 144, 128
-1.00291, 65, 65, 192, 128
-1.00291, 65, 89, 192, 152
-1.00295, 425, 17, 456, 144
-1.00297, 145, 17, 272, 80
-1.00325, 469, 49, 500, 176
-1.0035, 73, 241, 136, 304
-1.00359, 405, 1, 436, 128
-1.0039, 253, 17, 284, 144
-1.00447, 1, 97, 32, 224
-1.00448, 169, 81, 232, 144
-1.00469, 177, 57, 240, 120
-1.0047, 17, 241, 80, 304
-1.00474, 393, 1, 424, 128
-1.0049, 21, 65, 52, 192
-1.00507, 73, 121, 136, 184
-1.00512, 433, 49, 496, 112
-1.00529, 25, 121, 88, 184
-1.00564, 49, 65, 176, 192
-1.00566, 457, 161, 488, 288
-1.00592, 97, 265, 160, 328
-1.00597, 73, 265, 136, 328
-1.00605, 41, 81, 72, 208
-1.00661, 177, 33, 240, 160
-1.00666, 213, 17, 244, 144
-1.00691, 361, 33, 424, 96
-1.00818, 9, 49, 40, 176
-1.00859, 1, 1, 32, 128
-1.00861, 65, 65, 96, 192
-1.00863, 201, 17, 264, 144
-1.00872, 53, 65, 84, 192
-1.00888, 113, 65, 144, 192
-1.0091, 193, 49, 224, 176
-1.01038, 33, 1, 160, 128
-1.01038, 81, 17, 208, 144
-1.01145, 25, 49, 88, 176
-1.0119, 1, 49, 128, 176
-1.01363, 89, 65, 152, 192
-1.01393, 1, 1, 64, 128
-1.0145, 1, 49, 64, 176
-1.01478, 25, 1, 88, 128
-1.01478, 49, 17, 112, 144
-1.01478, 73, 17, 136, 144
-1.01478, 97, 17, 160, 144
-1.01478, 121, 17, 184, 144
-1.01478, 145, 17, 208, 144
-1.01562, 57, 65, 120, 192
