1966
-0.431558, 1, 1, 500, 375
-0.45757, 65, 1, 320, 375
-0.462119, 1, 129, 500, 375
-0.487254, 1, 1, 500, 256
-0.614176, 257, 1, 500, 375
-0.631845, 65, 65, 320, 320
-0.642897, 161, 1, 416, 375
-0.719741, 257, 1, 500, 256
-0.737212, 193, 129, 448, 375
-0.801488, 161, 33, 416, 288
-0.876937, 113, 1, 240, 375
-0.886263, 177, 1, 304, 375
-0.887651, 289, 1, 416, 375
-0.887919, 113, 33, 240, 288
-0.888096, 337, 1, 464, 375
-0.897672, 161, 33, 288, 288
-0.897778, 289, 65, 416, 320
-0.899544, 1, 209, 500, 336
-0.903232, 1, 129, 500, 256
-0.903959, 1, 81, 500, 208
-0.903984, 369, 1, 496, 256
-0.904143, 209, 97, 336, 352
-0.904421, 65, 97, 192, 352
-0.904553, 337, 129, 464, 375
-0.906303, 65, 1, 192, 375
-0.917514, 225, 1, 352, 375
-0.923433, 113, 129, 240, 375
-0.925692, 65, 81, 320, 208
-0.926512, 65, 1, 192, 256
-0.930751, 17, 129, 144, 375
-0.931607, 161, 129, 288, 375
-0.933176, 1, 33, 500, 160
-0.934016, 161, 241, 416, 368
-0.93766, 193, 193, 448, 320
-0.938821, 33, 177, 288, 304
-0.93997, 97, 33, 352, 160
-0.940076, 209, 1, 336, 256
-0.943311, 193, 129, 448, 256
-0.947163, 33, 129, 288, 256
-0.948144, 1, 33, 128, 288
-0.950056, 193, 17, 448, 144
-0.951462, 241, 193, 368, 320
-0.951746, 185, 241, 248, 368
-0.952549, 17, 1, 144, 375
-0.953075, 1, 241, 256, 368
-0.953826, 1, 33, 256, 160
-0.954089, 337, 209, 464, 336
-0.954598, 161, 81, 416, 208
-0.954739, 161, 241, 288, 368
-0.95723, 289, 145, 416, 272
-0.957972, 353, 193, 416, 320
-0.958165, 257, 65, 500, 192
-0.958724, 145, 33, 272, 160
-0.960721, 81, 241, 208, 368
-0.960938, 49, 113, 176, 240
-0.961051, 97, 49, 224, 176
-0.961161, 289, 193, 416, 320
-0.961243, 337, 161, 464, 288
-0.961935, 305, 33, 432, 160
-0.962166, 353, 241, 416, 304
-0.962787, 377, 65, 440, 192
-0.963256, 305, 193, 368, 320
-0.96397, 377, 113, 440, 240
-0.964094, 193, 81, 320, 208
-0.964205, 177, 17, 240, 144
-0.964702, 233, 193, 296, 320
-0.965158, 129, 305, 192, 368
-0.965358, 369, 97, 496, 224
-0.965433, 353, 49, 416, 176
-0.965946, 209, 225, 272, 352
-0.966349, 201, 257, 264, 320
-0.966722, 329, 225, 392, 352
-0.967089, 161, 241, 224, 368
-0.967406, 289, 97, 416, 224
-0.967574, 329, 145, 392, 272
-0.96794, 89, 113, 152, 240
-0.968318, 329, 225, 392, 288
-0.968521, 41, 305, 104, 368
-0.968534, 33, 241, 160, 368
-0.968868, 305, 225, 368, 288
-0.969431, 257, 241, 500, 368
-0.969512, 353, 17, 480, 144
-0.969526, 289, 241, 416, 368
-0.970401, 113, 193, 240, 320
-0.970548, 209, 33, 272, 160
-0.970589, 193, 1, 320, 128
-0.970847, 193, 193, 320, 320
-0.971484, 129, 65, 192, 192
-0.971575, 337, 97, 400, 224
-0.971621, 241, 145, 368, 272
-0.972158, 281, 193, 344, 320
-0.972158, 177, 273, 240, 336
-0.972264, 209, 241, 336, 368
-0.972272, 225, 81, 288, 208
-0.972367, 353, 217, 416, 280
-0.972519, 273, 209, 336, 272
-0.972681, 97, 97, 224, 224
-0.972693, 249, 217, 312, 280
-0.972776, 257, 193, 320, 320
-0.973209, 177, 33, 240, 96
-0.973351, 329, 249, 392, 312
-0.973355, 393, 17, 456, 144
-0.973459, 73, 313, 136, 375
-0.973576, 289, 145, 352, 272
-0.973581, 97, 49, 160, 176
-0.973821, 265, 145, 328, 272
-0.973854, 193, 129, 320, 256
-0.974087, 65, 129, 128, 256
-0.974443, 341, 225, 372, 288
-0.974668, 241, 97, 368, 224
-0.974857, 365, 241, 396, 304
-0.975005, 153, 305, 216, 368
-0.975032, 257, 33, 384, 160
-0.975083, 153, 33, 216, 160
-0.975208, 49, 161, 176, 288
-0.975386, 201, 177, 264, 304
-0.975522, 113, 241, 176, 368
-0.975867, 417, 97, 480, 224
-0.976053, 305, 241, 368, 368
-0.976168, 377, 73, 440, 136
-0.976296, 145, 145, 272, 272
-0.976333, 377, 1, 440, 256
-0.97634, 161, 193, 224, 320
-0.976345, 377, 161, 440, 288
-0.976759, 353, 249, 384, 312
-0.976793, 241, 217, 368, 280
-0.977057, 305, 249, 368, 312
-0.977132, 225, 233, 288, 296
-0.977417, 49, 65, 176, 192
-0.977849, 377, 97, 440, 160
-0.977989, 225, 89, 288, 152
-0.978069, 273, 49, 336, 176
-0.978169, 113, 113, 176, 240
-0.978508, 45, 313, 76, 375
-0.978729, 73, 241, 136, 368
-0.978763, 197, 241, 228, 368
-0.978801, 329, 201, 392, 264
-0.978804, 233, 17, 296, 144
-0.978863, 129, 49, 192, 112
-0.978961, 81, 289, 144, 352
-0.978998, 65, 313, 192, 375
-0.979089, 81, 145, 144, 208
-0.979119, 57, 305, 88, 368
-0.979123, 337, 97, 400, 352
-0.97914, 249, 81, 312, 208
-0.979226, 1, 81, 128, 208
-0.979275, 185, 65, 248, 192
-0.979339, 81, 121, 144, 184
-0.979453, 377, 209, 440, 272
-0.97976, 353, 89, 416, 152
-0.97976, 105, 105, 168, 168
-0.979916, 305, 225, 432, 288
-0.98021, 353, 241, 416, 368
-0.980303, 297, 201, 360, 264
-0.980439, 325, 249, 356, 312
-0.980487, 17, 313, 144, 375
-0.980489, 201, 233, 264, 296
-0.980598, 297, 49, 360, 176
-0.980692, 249, 97, 312, 352
-0.980753, 145, 81, 272, 208
-0.98082, 353, 41, 416, 104
-0.980847, 345, 209, 376, 336
-0.980974, 377, 177, 440, 240
-0.980999, 361, 225, 392, 352
-0.981032, 353, 145, 416, 272
-0.981105, 49, 153, 112, 216
-0.981259, 161, 65, 224, 128
-0.98137, 193, 209, 256, 272
-0.981587, 265, 185, 328, 248
-0.98176, 105, 313, 168, 375
-0.981806, 137, 241, 200, 368
-0.981864, 73, 65, 136, 192
-0.981866, 177, 1, 240, 256
-0.981948, 361, 129, 424, 192
-0.982076, 337, 249, 368, 312
-0.982095, 317, 225, 348, 288
-0.982147, 113, 313, 240, 375
-0.982202, 345, 161, 408, 224
-0.982215, 209, 257, 240, 320
-0.982226, 401, 177, 464, 304
-0.982227, 65, 177, 128, 240
-0.982242, 217, 241, 248, 368
-0.982341, 97, 65, 160, 128
-0.982366, 361, 129, 424, 375
-0.982422, 385, 241, 448, 368
-0.982424, 73, 265, 136, 328
-0.98243, 377, 217, 408, 280
-0.982495, 225, 209, 288, 272
-0.982684, 353, 65, 416, 128
-0.982883, 385, 249, 448, 312
-0.982892, 161, 305, 192, 368
-0.982894, 289, 201, 416, 264
-0.983057, 185, 241, 216, 368
-0.983059, 249, 113, 312, 176
-0.983078, 225, 65, 288, 320
-0.983079, 305, 249, 432, 312
-0.983123, 193, 249, 320, 312
-0.983129, 373, 193, 404, 320
-0.983138, 17, 313, 80, 375
-0.983248, 377, 33, 408, 160
-0.983318, 33, 241, 96, 368
-0.983357, 297, 97, 360, 352
-0.98342, 377, 41, 440, 104
-0.983492, 389, 81, 420, 208
-0.983501, 201, 89, 264, 152
-0.983652, 353, 225, 480, 288
-0.983679, 197, 257, 228, 320
-0.983742, 337, 1, 400, 256
-0.983845, 417, 33, 480, 160
-0.984008, 209, 17, 240, 144
-0.984027, 353, 1, 416, 128
-0.984054, 417, 129, 480, 192
-0.984066, 177, 233, 240, 296
-0.984187, 153, 33, 216, 96
-0.984221, 353, 145, 480, 208
-0.984301, 221, 249, 252, 312
-0.984348, 289, 153, 416, 216
-0.984351, 193, 57, 256, 120
-0.984367, 97, 161, 160, 288
-0.984372, 393, 121, 456, 184
-0.984421, 177, 297, 240, 360
-0.984444, 113, 281, 176, 344
-0.984479, 329, 49, 392, 176
-0.984505, 97, 97, 160, 352
-0.984513, 153, 281, 216, 344
-0.984604, 249, 217, 280, 280
-0.984627, 153, 1, 216, 256
-0.984661, 1, 193, 128, 320
-0.984765, 217, 65, 280, 128
-0.984773, 113, 233, 240, 296
-0.98482, 377, 153, 440, 216
-0.98483, 49, 161, 176, 224
-0.98487, 129, 1, 192, 375
-0.984879, 137, 73, 200, 136
-0.984899, 329, 225, 360, 352
-0.984909, 353, 193, 416, 256
-0.984919, 129, 65, 256, 128
-0.984922, 393, 33, 424, 160
-0.98511, 129, 33, 192, 288
-0.985146, 69, 297, 100, 360
-0.985164, 33, 289, 160, 352
-0.985176, 153, 249, 216, 312
-0.985179, 289, 121, 352, 184
-0.985193, 229, 241, 260, 368
-0.985225, 145, 273, 272, 336
-0.985273, 337, 201, 464, 264
-0.985287, 17, 289, 80, 352
-0.985349, 97, 145, 224, 272
-0.985395, 273, 97, 336, 352
-0.985426, 81, 97, 144, 160
-0.985455, 173, 297, 204, 360
-0.985464, 297, 97, 360, 224
-0.98548, 49, 185, 176, 248
-0.985596, 85, 281, 116, 344
-0.985607, 97, 1, 224, 128
-0.985633, 365, 217, 396, 280
-0.98564, 281, 97, 344, 160
-0.985652, 193, 113, 320, 176
-0.985756, 41, 281, 104, 344
-0.985769, 321, 41, 448, 104
-0.985829, 401, 225, 464, 288
-0.985845, 161, 33, 288, 96
-0.985882, 81, 257, 208, 320
-0.985932, 149, 305, 180, 368
-0.985934, 393, 113, 424, 176
-0.985947, 369, 177, 496, 240
-0.985974, 297, 209, 328, 272
-0.98606, 329, 225, 360, 288
-0.986072, 145, 201, 272, 264
-0.986081, 293, 193, 324, 320
-0.986125, 145, 185, 208, 248
-0.986158, 49, 137, 176, 200
-0.986176, 1, 145, 128, 272
-0.986219, 385, 129, 416, 256
-0.986222, 233, 233, 264, 296
-0.986243, 177, 89, 304, 152
-0.986318, 57, 177, 120, 304
-0.986347, 229, 1, 260, 128
-0.986382, 253, 193, 284, 320
-0.986424, 193, 225, 320, 288
-0.986456, 353, 249, 480, 312
-0.986466, 73, 97, 136, 352
-0.986518, 161, 81, 224, 208
-0.986521, 1, 33, 128, 160
-0.986679, 273, 121, 400, 184
-0.986707, 89, 169, 152, 232
-0.986737, 345, 1, 408, 375
-0.986775, 209, 1, 272, 64
-0.986835, 433, 241, 496, 368
-0.986888, 97, 113, 224, 176
-0.987021, 369, 41, 496, 104
-0.987047, 337, 113, 400, 176
-0.987092, 133, 305, 164, 368
-0.987244, 49, 17, 176, 144
-0.98725, 209, 185, 272, 248
-0.987285, 317, 193, 348, 320
-0.987295, 369, 121, 496, 184
-0.987334, 201, 1, 264, 256
-0.987344, 201, 129, 264, 256
-0.987345, 381, 89, 412, 152
-0.987349, 377, 1, 440, 375
-0.987355, 401, 89, 464, 152
-0.987448, 385, 177, 416, 304
-0.987458, 145, 129, 208, 256
-0.987463, 381, 193, 412, 256
-0.98749, 305, 177, 432, 240
-0.987518, 369, 145, 400, 272
-0.98752, 113, 41, 240, 104
-0.987548, 81, 81, 208, 144
-0.987593, 241, 185, 304, 248
-0.987594, 425, 145, 488, 272
-0.987618, 209, 57, 336, 120
-0.987713, 97, 289, 224, 352
-0.987718, 1, 105, 128, 168
-0.987782, 169, 241, 200, 368
-0.98781, 121, 161, 184, 288
-0.987907, 425, 313, 488, 375
-0.987961, 217, 41, 280, 104
-0.987976, 297, 145, 328, 272
-0.987993, 409, 33, 472, 96
-0.987994, 393, 241, 424, 304
-0.988001, 385, 129, 448, 375
-0.988018, 113, 185, 176, 248
-0.98805, 193, 185, 320, 248
-0.988096, 257, 257, 384, 320
-0.988097, 49, 129, 112, 192
-0.988122, 233, 1, 296, 375
-0.988129, 201, 305, 264, 368
-0.988167, 313, 273, 376, 336
-0.988178, 373, 41, 404, 104
-0.988178, 121, 137, 184, 200
-0.988199, 385, 153, 416, 216
-0.988205, 241, 193, 368, 256
-0.988214, 241, 129, 304, 256
-0.988242, 381, 65, 412, 128
-0.988372, 97, 161, 224, 224
-0.988412, 33, 313, 64, 375
-0.98845, 121, 17, 184, 144
-0.988454, 337, 273, 464, 336
-0.988503, 357, 145, 388, 272
-0.988581, 265, 193, 296, 320
-0.988655, 373, 97, 404, 224
-0.988661, 97, 185, 224, 248
-0.988661, 185, 273, 216, 336
-0.988679, 353, 225, 384, 288
-0.988739, 257, 97, 384, 160
-0.98879, 49, 113, 176, 176
-0.988828, 281, 153, 344, 216
-0.988829, 185, 33, 216, 96
-0.988884, 229, 65, 260, 192
-0.988953, 101, 121, 132, 184
-0.98896, 337, 137, 400, 200
-0.988976, 237, 193, 268, 320
-0.989012, 181, 17, 212, 144
-0.989026, 285, 217, 316, 280
-0.98903, 185, 1, 248, 375
-0.989083, 289, 177, 352, 240
-0.9891, 425, 289, 488, 352
-0.989165, 161, 297, 288, 360
-0.989259, 257, 1, 320, 128
-0.989294, 265, 1, 328, 256
-0.989328, 129, 97, 192, 160
-0.989368, 249, 81, 312, 144
-0.989369, 89, 1, 152, 128
-0.989375, 433, 105, 496, 168
-0.989387, 129, 89, 256, 152
-0.989395, 161, 49, 192, 176
-0.989403, 153, 1, 216, 375
-0.989418, 185, 97, 248, 352
-0.989424, 401, 201, 464, 264
-0.9895, 209, 233, 240, 296
-0.98952, 41, 317, 104, 348
-0.989585, 133, 49, 164, 176
-0.989595, 49, 81, 112, 208
-0.989646, 185, 9, 248, 72
-0.989666, 353, 249, 416, 280
-0.989706, 365, 17, 396, 144
-0.989709, 337, 273, 400, 336
-0.989732, 337, 65, 464, 128
-0.989779, 45, 289, 76, 352
-0.989802, 321, 241, 384, 272
-0.989814, 417, 57, 480, 120
-0.989814, 57, 97, 120, 160
-0.989822, 85, 129, 116, 256
-0.989852, 105, 65, 136, 192
-0.989906, 373, 129, 404, 192
-0.989927, 261, 209, 292, 272
-0.989931, 433, 177, 496, 240
-0.98996, 393, 81, 424, 144
-0.989975, 113, 105, 144, 168
-0.99001, 33, 217, 160, 280
-0.990014, 277, 193, 308, 320
-0.990021, 305, 145, 368, 208
-0.990031, 297, 1, 360, 375
-0.990044, 285, 129, 316, 256
-0.990074, 401, 1, 464, 375
-0.990103, 317, 201, 348, 264
-0.990105, 393, 41, 424, 104
-0.99011, 281, 233, 344, 296
-0.990117, 225, 257, 288, 320
-0.990148, 281, 241, 344, 368
-0.990173, 321, 229, 384, 260
-0.990218, 105, 1, 168, 375
-0.990221, 101, 257, 132, 320
-0.990228, 273, 73, 336, 136
-0.990244, 257, 73, 384, 136
-0.990289, 157, 241, 188, 368
-0.990345, 153, 129, 216, 192
-0.990377, 209, 1, 272, 375
-0.990377, 241, 1, 272, 128
-0.990392, 405, 33, 436, 160
-0.990478, 81, 241, 144, 304
-0.990492, 1, 129, 128, 192
-0.99053, 105, 81, 136, 144
-0.990544, 345, 237, 408, 268
-0.990574, 117, 113, 148, 240
-0.990599, 41, 177, 104, 240
-0.990608, 321, 1, 384, 375
-0.990614, 81, 313, 112, 375
-0.990626, 249, 241, 312, 368
-0.990632, 105, 113, 136, 240
-0.990639, 313, 253, 376, 284
-0.990681, 309, 129, 340, 256
-0.990762, 121, 49, 152, 176
-0.99077, 33, 333, 96, 364
-0.990805, 209, 341, 272, 372
-0.990859, 201, 265, 264, 296
-0.990903, 113, 333, 176, 364
-0.990955, 401, 81, 432, 208
-0.991011, 97, 1, 160, 256
-0.991012, 93, 241, 124, 368
-0.991018, 169, 145, 232, 272
-0.991058, 33, 193, 96, 320
-0.991059, 353, 261, 416, 292
-0.991065, 209, 253, 272, 284
-0.991071, 173, 33, 204, 96
-0.991084, 177, 105, 240, 168
-0.9911, 373, 153, 404, 216
-0.991115, 177, 9, 304, 72
-0.991121, 401, 1, 464, 256
-0.99117, 17, 321, 80, 352
-0.991174, 189, 193, 220, 320
-0.991194, 305, 193, 336, 320
-0.99121, 81, 145, 112, 208
-0.991211, 33, 249, 160, 312
-0.991231, 193, 277, 256, 308
-0.991237, 153, 341, 216, 372
-0.991257, 49, 257, 112, 320
-0.991291, 345, 161, 376, 288
-0.991314, 345, 273, 376, 336
-0.991363, 121, 161, 184, 224
-0.991388, 201, 113, 264, 176
-0.991401, 161, 293, 224, 324
-0.991403, 145, 161, 208, 224
-0.991448, 169, 65, 200, 128
-0.991454, 273, 209, 304, 272
-0.991477, 169, 185, 232, 248
-0.991482, 185, 341, 248, 372
-0.991498, 209, 33, 336, 96
-0.991507, 121, 257, 184, 320
-0.991511, 377, 85, 440, 116
-0.991516, 329, 209, 392, 240
-0.991519, 353, 225, 416, 256
-0.991523, 137, 53, 200, 84
-0.991527, 9, 241, 72, 368
-0.991528, 265, 1, 328, 375
-0.991529, 377, 121, 440, 152
-0.991533, 329, 265, 392, 296
-0.991585, 73, 325, 136, 356
-0.991601, 297, 241, 360, 272
-0.991621, 377, 101, 440, 132
-0.991635, 241, 225, 304, 256
-0.991636, 49, 305, 112, 336
-0.991655, 209, 193, 240, 320
-0.99166, 213, 65, 244, 192
-0.991672, 169, 329, 232, 360
-0.991682, 249, 337, 312, 368
-0.991688, 233, 81, 264, 144
-0.991703, 353, 69, 416, 100
-0.991709, 249, 137, 312, 200
-0.991738, 281, 185, 312, 248
-0.991772, 281, 217, 344, 248
-0.991799, 121, 217, 184, 280
-0.991801, 65, 337, 128, 368
-0.991803, 89, 125, 152, 156
-0.991811, 81, 149, 144, 180
-0.991835, 161, 273, 224, 304
-0.991841, 65, 57, 192, 120
-0.991858, 369, 237, 432, 268
-0.991903, 97, 345, 160, 375
-0.991905, 297, 229, 360, 260
-0.991916, 129, 317, 192, 348
-0.991935, 353, 89, 416, 120
-0.991949, 225, 313, 352, 375
-0.991951, 177, 41, 240, 72
-0.991953, 353, 41, 416, 72
-0.991953, 177, 261, 240, 292
-0.991956, 225, 313, 288, 375
-0.991958, 97, 137, 224, 200
-0.991963, 401, 169, 464, 232
-0.991968, 353, 105, 416, 136
-0.991974, 393, 137, 456, 168
-0.991975, 377, 73, 440, 104
-0.991991, 353, 117, 416, 148
-0.991993, 333, 201, 364, 264
-0.991999, 97, 109, 160, 140
-0.992025, 81, 161, 144, 192
-0.992041, 49, 149, 112, 180
-0.992071, 185, 237, 248, 268
-0.992092, 169, 209, 232, 272
-0.992093, 9, 333, 72, 364
-0.992101, 353, 145, 416, 176
-0.992119, 221, 217, 252, 280
-0.992137, 89, 137, 152, 168
-0.992145, 401, 313, 464, 375
-0.992149, 225, 241, 288, 272
-0.992159, 49, 161, 112, 192
-0.992163, 45, 321, 76, 352
-0.992182, 97, 93, 160, 124
-0.992184, 65, 177, 128, 208
-0.992199, 41, 345, 104, 375
-0.9922, 177, 61, 240, 92
-0.99221, 377, 161, 440, 192
-0.992211, 193, 145, 320, 208
-0.992221, 353, 129, 416, 160
-0.992234, 297, 65, 360, 128
-0.992239, 377, 57, 440, 88
-0.992242, 97, 261, 160, 292
-0.99228, 137, 329, 200, 360
-0.992286, 65, 193, 128, 224
-0.992291, 137, 193, 200, 224
-0.992299, 193, 233, 448, 296
-0.992307, 265, 81, 296, 208
-0.992316, 81, 313, 144, 344
-0.99232, 161, 73, 224, 104
-0.992321, 305, 265, 368, 296
-0.992323, 105, 305, 168, 336
-0.992353, 73, 301, 136, 332
-0.992354, 65, 137, 128, 168
-0.992358, 289, 137, 352, 168
-0.992362, 129, 65, 192, 96
-0.992372, 41, 177, 104, 208
-0.992384, 185, 289, 248, 320
-0.992387, 133, 57, 164, 120
-0.992392, 41, 129, 104, 375
-0.992395, 377, 41, 440, 72
-0.992398, 281, 125, 344, 156
-0.992406, 81, 277, 144, 308
-0.992408, 281, 109, 344, 140
-0.992408, 369, 205, 432, 236
-0.992409, 129, 305, 192, 336
-0.992409, 61, 241, 92, 368
-0.99242, 453, 81, 484, 208
-0.992445, 297, 185, 328, 248
-0.992445, 129, 345, 192, 375
-0.992449, 289, 205, 352, 236
-0.992455, 345, 189, 408, 220
-0.99246, 385, 189, 448, 220
-0.99246, 137, 181, 200, 212
-0.992461, 337, 169, 400, 200
-0.992471, 225, 101, 288, 132
-0.992477, 17, 81, 144, 144
-0.992478, 113, 293, 176, 324
-0.992487, 341, 257, 372, 288
-0.992491, 161, 185, 224, 216
-0.992503, 321, 177, 384, 240
-0.992522, 153, 261, 216, 292
-0.992525, 169, 249, 232, 280
-0.992528, 377, 149, 440, 180
-0.992528, 105, 317, 168, 348
-0.992533, 217, 81, 280, 112
-0.992536, 353, 57, 416, 88
-0.992537, 225, 113, 288, 176
-0.992541, 73, 109, 136, 140
-0.992543, 193, 329, 256, 360
-0.992551, 401, 45, 464, 76
-0.992557, 241, 113, 304, 144
-0.99256, 361, 249, 392, 280
-0.992568, 105, 65, 168, 96
-0.992575, 393, 245, 456, 276
-0.992588, 341, 245, 372, 276
-0.992596, 153, 309, 216, 340
-0.992598, 241, 145, 368, 208
-0.992612, 1, 177, 128, 240
-0.992617, 45, 333, 76, 364
-0.992619, 173, 265, 204, 328
-0.992627, 305, 149, 368, 180
-0.992634, 105, 81, 168, 112
-0.992642, 73, 1, 136, 375
-0.992648, 249, 313, 312, 375
-0.99265, 125, 105, 156, 168
-0.992656, 185, 73, 248, 104
-0.992663, 145, 169, 208, 200
-0.992664, 201, 93, 264, 124
-0.992666, 209, 217, 272, 248
-0.992668, 1, 305, 64, 336
-0.992676, 145, 161, 272, 224
-0.992677, 369, 237, 400, 268
-0.992681, 249, 213, 312, 244
-0.992686, 433, 121, 496, 152
-0.992687, 209, 205, 272, 236
-0.992696, 405, 233, 436, 296
-0.992702, 321, 121, 448, 184
-0.992705, 17, 345, 80, 375
-0.992713, 169, 201, 232, 232
-0.992714, 313, 277, 376, 308
-0.992715, 329, 37, 392, 68
-0.992729, 249, 125, 312, 156
-0.992734, 357, 261, 388, 292
-0.992744, 305, 217, 368, 248
-0.992744, 201, 61, 264, 92
-0.992747, 433, 157, 496, 188
-0.992752, 193, 25, 256, 56
-0.992755, 41, 189, 104, 220
-0.992757, 265, 93, 328, 124
-0.992766, 97, 145, 128, 208
-0.992766, 409, 249, 472, 312
-0.992768, 77, 169, 108, 232
-0.992775, 377, 173, 440, 204
-0.992804, 401, 265, 464, 296
-0.992804, 61, 309, 92, 340
-0.992813, 137, 121, 200, 152
-0.992831, 249, 49, 312, 112
-0.992851, 325, 257, 356, 288
-0.992853, 97, 185, 128, 248
-0.992862, 341, 233, 372, 264
-0.992872, 273, 49, 400, 112
-0.992874, 329, 65, 392, 128
-0.992881, 357, 225, 388, 256
-0.992882, 389, 129, 420, 160
-0.992901, 57, 337, 88, 368
-0.992908, 341, 273, 372, 304
-0.992908, 193, 273, 224, 304
-0.992917, 433, 81, 496, 144
-0.992923, 33, 329, 64, 360
-0.992923, 205, 265, 236, 296
-0.992927, 321, 41, 384, 104
-0.99294, 353, 237, 384, 268
-0.992956, 325, 241, 356, 272
-0.992959, 57, 321, 88, 352
-0.992977, 73, 73, 136, 136
-0.992979, 229, 241, 260, 272
-0.99298, 193, 137, 256, 200
-0.992992, 229, 57, 260, 120
-0.992993, 321, 229, 352, 260
-0.992997, 385, 157, 416, 188
-0.992998, 145, 217, 208, 280
-0.992998, 389, 113, 420, 144
-0.993, 121, 57, 152, 120
-0.993007, 313, 1, 376, 256
-0.993027, 241, 345, 272, 375
-0.993033, 121, 81, 152, 144
-0.993037, 377, 125, 408, 156
-0.99304, 129, 97, 160, 224
-0.993044, 193, 285, 224, 316
-0.99305, 137, 317, 168, 348
-0.993052, 393, 101, 424, 132
-0.993063, 425, 153, 488, 216
-0.993072, 185, 249, 216, 312
-0.993072, 149, 49, 180, 176
-0.993076, 149, 309, 180, 340
-0.993082, 365, 37, 396, 68
-0.993082, 157, 345, 188, 375
-0.993091, 65, 201, 128, 264
-0.993094, 221, 341, 252, 372
-0.993104, 409, 241, 472, 368
-0.993108, 229, 253, 260, 284
-0.993109, 177, 293, 208, 324
-0.993116, 273, 113, 304, 176
-0.993118, 377, 221, 408, 252
-0.993119, 381, 101, 412, 132
-0.99312, 389, 69, 420, 100
-0.993132, 1, 305, 256, 368
-0.993134, 217, 261, 248, 292
-0.993135, 193, 329, 224, 360
-0.993146, 373, 249, 404, 280
-0.993156, 253, 81, 284, 208
-0.993196, 69, 297, 100, 328
-0.993198, 393, 241, 424, 272
-0.993203, 377, 41, 408, 72
-0.993205, 329, 65, 360, 192
-0.993206, 65, 81, 320, 144
-0.993208, 333, 221, 364, 252
-0.993211, 161, 301, 192, 332
-0.993217, 381, 89, 412, 120
-0.993217, 453, 129, 484, 256
-0.99322, 49, 309, 80, 340
-0.993221, 205, 277, 236, 308
-0.993223, 393, 89, 424, 120
-0.99323, 377, 137, 408, 168
-0.993232, 249, 221, 280, 252
-0.993232, 389, 141, 420, 172
-0.993235, 129, 25, 192, 88
-0.993235, 385, 169, 416, 200
-0.993239, 361, 213, 392, 244
-0.99324, 169, 329, 200, 360
-0.993243, 45, 345, 76, 375
-0.993244, 169, 341, 200, 372
-0.993244, 185, 33, 216, 64
-0.993244, 121, 313, 152, 375
-0.993247, 217, 249, 248, 280
-0.993254, 305, 97, 432, 160
-0.993255, 321, 217, 352, 248
-0.993259, 89, 277, 120, 308
-0.993261, 373, 169, 404, 200
-0.993262, 377, 57, 408, 88
-0.993264, 205, 337, 236, 368
-0.993266, 121, 325, 152, 356
-0.993267, 241, 241, 272, 272
-0.99327, 377, 209, 408, 240
-0.993272, 381, 197, 412, 228
-0.993273, 381, 233, 412, 264
-0.993278, 69, 321, 100, 352
-0.993294, 105, 261, 136, 292
-0.993296, 393, 257, 424, 288
-0.993297, 181, 281, 212, 312
-0.993302, 353, 273, 384, 304
-0.993304, 109, 341, 140, 372
-0.993304, 389, 41, 420, 72
-0.993306, 373, 153, 404, 184
-0.993313, 169, 49, 200, 80
-0.993314, 377, 113, 408, 144
-0.993317, 93, 133, 124, 164
-0.993319, 185, 341, 216, 372
-0.993322, 181, 329, 212, 360
-0.993338, 257, 337, 288, 368
-0.993339, 389, 57, 420, 88
-0.993345, 373, 181, 404, 212
-0.993347, 329, 269, 360, 300
-0.993357, 73, 309, 104, 340
-0.99336, 149, 57, 180, 88
-0.993365, 309, 221, 340, 252
-0.993366, 49, 241, 80, 368
-0.993367, 385, 181, 416, 212
-0.993367, 369, 197, 400, 228
-0.993372, 105, 93, 136, 124
-0.993375, 133, 57, 164, 88
-0.993376, 25, 317, 56, 348
-0.993377, 213, 237, 244, 268
-0.993386, 401, 113, 432, 144
-0.993386, 101, 273, 132, 304
-0.99339, 377, 69, 408, 100
-0.993392, 213, 65, 244, 128
-0.993398, 257, 209, 288, 240
-0.993399, 269, 209, 300, 240
-0.993405, 149, 177, 180, 208
-0.993406, 257, 89, 288, 152
-0.993416, 193, 273, 320, 336
-0.99342, 301, 209, 332, 240
-0.993431, 257, 209, 500, 272
-0.993442, 85, 317, 116, 348
-0.993444, 169, 185, 200, 216
-0.993447, 73, 345, 104, 375
-0.993447, 169, 69, 200, 100
-0.993448, 229, 89, 260, 120
-0.993449, 93, 261, 124, 292
-0.993449, 109, 149, 140, 180
-0.993453, 33, 341, 64, 372
-0.993456, 145, 345, 176, 375
-0.993458, 141, 329, 172, 360
-0.993459, 237, 229, 268, 260
-0.99346, 121, 337, 152, 368
-0.993462, 241, 333, 272, 364
-0.993463, 313, 245, 344, 276
-0.993464, 157, 193, 188, 224
-0.993465, 405, 245, 436, 276
-0.993466, 85, 297, 116, 328
-0.993467, 37, 305, 68, 336
-0.993468, 93, 113, 124, 144
-0.993469, 157, 333, 188, 364
-0.99347, 217, 89, 248, 120
-0.993472, 389, 209, 420, 240
-0.993474, 125, 109, 156, 140
-0.993475, 93, 329, 124, 360
-0.993475, 105, 125, 136, 156
-0.993476, 405, 261, 436, 292
-0.993477, 209, 41, 240, 72
-0.993478, 389, 217, 420, 280
-0.993507, 273, 97, 336, 224
-0.993521, 425, 17, 456, 144
-0.993527, 177, 193, 208, 320
-0.993531, 353, 17, 480, 80
-0.993534, 145, 121, 272, 184
-0.993591, 41, 129, 104, 256
-0.993596, 425, 1, 488, 256
-0.993641, 185, 313, 216, 375
-0.993711, 1, 217, 500, 280
-0.993733, 57, 281, 88, 344
-0.993775, 193, 17, 224, 144
-0.993783, 333, 177, 364, 304
-0.993828, 193, 257, 448, 320
-0.993858, 381, 249, 412, 312
-0.993874, 81, 209, 208, 272
-0.993878, 205, 297, 236, 360
-0.993885, 153, 49, 184, 112
-0.993936, 61, 129, 92, 256
-0.993959, 209, 33, 240, 96
-0.994039, 97, 1, 224, 64
-0.994072, 81, 241, 112, 368
-0.994134, 369, 97, 496, 160
-0.994156, 65, 25, 192, 88
-0.99422, 89, 89, 120, 152
-0.994247, 85, 257, 116, 320
-0.99425, 145, 341, 272, 372
-0.994264, 273, 129, 304, 256
-0.994266, 101, 313, 132, 375
-0.994324, 33, 137, 288, 200
-0.994326, 405, 81, 436, 144
-0.99438, 269, 185, 300, 248
-0.994452, 89, 113, 120, 176
-0.994455, 65, 249, 320, 312
-0.994458, 1, 249, 500, 312
-0.994475, 353, 201, 384, 264
-0.994479, 365, 185, 396, 248
-0.994538, 441, 81, 472, 208
-0.994545, 253, 33, 284, 160
-0.99455, 433, 1, 496, 375
-0.994555, 293, 81, 324, 208
-0.994595, 229, 145, 260, 272
-0.994596, 237, 1, 268, 64
-0.994621, 333, 273, 364, 336
-0.994627, 245, 81, 276, 144
-0.994671, 373, 233, 388, 296
-0.994679, 221, 89, 252, 152
-0.994713, 97, 193, 128, 320
-0.99473, 89, 65, 120, 192
-0.994733, 405, 225, 436, 352
-0.994737, 453, 121, 484, 184
-0.994763, 405, 49, 436, 112
-0.994786, 273, 25, 400, 88
-0.994794, 241, 65, 272, 192
-0.994799, 57, 137, 88, 200
-0.994802, 237, 209, 268, 272
-0.994804, 217, 297, 248, 360
-0.99481, 433, 129, 496, 375
-0.994813, 33, 225, 288, 288
-0.994847, 297, 153, 328, 216
-0.994855, 361, 249, 376, 312
-0.994857, 169, 177, 200, 240
-0.994867, 73, 273, 104, 336
-0.994867, 145, 241, 176, 368
-0.994869, 321, 145, 352, 272
-0.994871, 349, 33, 380, 160
-0.994873, 397, 137, 428, 200
-0.994873, 77, 81, 108, 208
-0.994917, 241, 221, 368, 252
-0.994923, 343, 249, 358, 312
-0.994938, 469, 49, 500, 176
-0.994946, 37, 241, 68, 368
-0.995, 257, 185, 500, 248
-0.995001, 1, 153, 128, 216
-0.995005, 97, 57, 352, 120
-0.995009, 393, 241, 424, 368
-0.995011, 337, 249, 352, 312
-0.995018, 1, 137, 500, 200
-0.995026, 65, 185, 320, 248
-0.995036, 173, 65, 204, 192
-0.995048, 17, 329, 144, 360
-0.995087, 367, 249, 382, 312
-0.995108, 393, 177, 424, 240
-0.995143, 317, 49, 348, 176
-0.99516, 405, 257, 436, 320
-0.99516, 353, 313, 480, 375
-0.995175, 331, 225, 346, 288
-0.995183, 51, 313, 66, 375
-0.995196, 161, 273, 192, 336
-0.995215, 69, 113, 100, 176
-0.995226, 109, 161, 140, 288
-0.995228, 33, 161, 288, 224
-0.995269, 225, 193, 256, 320
-0.995285, 193, 41, 448, 104
-0.995373, 337, 225, 352, 288
-0.995379, 257, 153, 500, 216
-0.995385, 141, 177, 172, 240
-0.995397, 225, 33, 256, 96
-0.995402, 113, 249, 144, 312
-0.995432, 1, 113, 500, 176
-0.995433, 33, 273, 288, 336
-0.995451, 305, 65, 336, 192
-0.995466, 381, 217, 396, 280
-0.995472, 89, 233, 120, 296
-0.995481, 385, 193, 400, 256
-0.995494, 65, 105, 320, 168
-0.9955, 397, 129, 428, 256
-0.995557, 249, 145, 280, 272
-0.995564, 241, 169, 368, 232
-0.995587, 395, 121, 410, 184
-0.995619, 305, 241, 432, 272
-0.99563, 57, 313, 72, 375
-0.995653, 337, 253, 464, 284
-0.99566, 153, 161, 184, 288
-0.995679, 349, 249, 364, 312
-0.99569, 173, 113, 204, 240
-0.995698, 333, 129, 364, 256
-0.995708, 361, 33, 392, 96
-0.995715, 391, 65, 406, 128
-0.995736, 97, 313, 352, 375
-0.995743, 257, 281, 384, 344
-0.995744, 63, 305, 78, 368
-0.995767, 193, 65, 448, 128
-0.995768, 197, 17, 228, 80
-0.995773, 461, 153, 492, 216
-0.995804, 97, 33, 352, 96
-0.995809, 49, 341, 176, 372
-0.995817, 1, 57, 128, 120
-0.995824, 321, 1, 384, 128
-0.995824, 165, 193, 196, 320
-0.995837, 109, 241, 140, 368
-0.995843, 149, 281, 180, 344
-0.995852, 355, 249, 370, 312
-0.995862, 33, 317, 160, 348
-0.99587, 221, 273, 252, 336
-0.995876, 225, 1, 256, 64
-0.995882, 277, 65, 308, 192
-0.995945, 163, 305, 178, 368
-0.995948, 153, 97, 216, 352
-0.995959, 213, 257, 228, 320
-0.995976, 141, 1, 172, 128
-0.995984, 367, 225, 382, 288
-0.995988, 417, 41, 448, 104
-0.996005, 441, 177, 472, 240
-0.996027, 97, 281, 128, 344
-0.99604, 129, 289, 384, 352
-0.996053, 391, 145, 406, 208
-0.996073, 9, 81, 72, 208
-0.996079, 109, 145, 140, 208
-0.996081, 181, 177, 212, 240
-0.996098, 395, 97, 410, 160
-0.996098, 225, 237, 352, 268
-0.996124, 49, 33, 112, 160
-0.996128, 73, 1, 136, 256
-0.996136, 97, 329, 224, 360
-0.996144, 161, 201, 192, 264
-0.99616, 345, 225, 360, 288
-0.996161, 387, 41, 402, 104
-0.996163, 129, 73, 256, 104
-0.996187, 309, 113, 340, 176
-0.996187, 257, 97, 500, 160
-0.99619, 357, 225, 372, 288
-0.99622, 129, 129, 160, 192
-0.99625, 421, 193, 452, 320
-0.99626, 161, 185, 416, 248
-0.996265, 223, 249, 238, 312
-0.996291, 289, 229, 416, 260
-0.996307, 141, 97, 172, 224
-0.996312, 197, 65, 228, 192
-0.996388, 203, 265, 218, 328
-0.996389, 49, 1, 112, 375
-0.996402, 137, 97, 168, 160
-0.996406, 449, 33, 480, 160
-0.996418, 1, 49, 256, 112
-0.99642, 401, 89, 416, 152
-0.996438, 73, 145, 104, 272
-0.996444, 121, 241, 152, 368
-0.996467, 241, 249, 368, 280
-0.996486, 251, 217, 266, 280
-0.99652, 1, 89, 500, 152
-0.996551, 381, 33, 396, 96
-0.996556, 213, 9, 244, 72
-0.996556, 181, 57, 212, 120
-0.996593, 129, 137, 384, 200
-0.996613, 257, 121, 500, 184
-0.996624, 193, 261, 320, 292
-0.996632, 169, 305, 184, 368
-0.996637, 429, 41, 460, 104
-0.996648, 229, 249, 244, 312
-0.996649, 409, 97, 472, 352
-0.996652, 257, 281, 500, 344
-0.996656, 157, 305, 172, 368
-0.996661, 383, 161, 398, 224
-0.996677, 1, 33, 64, 160
-0.996679, 373, 209, 388, 272
-0.996681, 65, 293, 192, 324
-0.996684, 129, 45, 256, 76
-0.996686, 1, 193, 500, 256
-0.996706, 129, 129, 192, 375
-0.996738, 49, 165, 176, 196
-0.996747, 425, 193, 456, 256
-0.996751, 387, 105, 402, 168
-0.996761, 153, 161, 184, 224
-0.996773, 437, 145, 468, 208
-0.996775, 397, 65, 412, 128
-0.996783, 353, 177, 480, 208
-0.996793, 241, 341, 368, 372
-0.996804, 161, 209, 416, 272
-0.996809, 71, 305, 86, 368
-0.996817, 175, 297, 190, 360
-0.996823, 289, 1, 352, 256
-0.996841, 97, 345, 224, 375
-0.996843, 353, 161, 480, 192
-0.996873, 305, 157, 432, 188
-0.996894, 185, 33, 200, 96
-0.996895, 303, 209, 318, 272
-0.996902, 353, 241, 480, 272
-0.996913, 81, 121, 208, 152
-0.996919, 349, 81, 380, 208
-0.996919, 179, 41, 194, 104
-0.996922, 289, 205, 416, 236
-0.99693, 235, 233, 250, 296
-0.996934, 193, 121, 320, 152
-0.996934, 433, 145, 464, 272
-0.996946, 17, 25, 144, 88
-0.996952, 351, 225, 366, 288
-0.996958, 353, 145, 480, 176
-0.996958, 305, 265, 432, 296
-0.996959, 49, 181, 176, 212
-0.996972, 391, 169, 406, 232
-0.99698, 407, 233, 422, 296
-0.996985, 377, 1, 408, 256
-0.996985, 337, 229, 464, 260
-0.996986, 1, 341, 128, 372
-0.997, 257, 261, 384, 292
-0.997011, 97, 277, 224, 308
-0.997014, 45, 313, 60, 375
-0.997015, 113, 265, 240, 296
-0.997022, 353, 57, 480, 88
-0.997037, 51, 321, 66, 352
-0.997045, 129, 161, 384, 224
-0.997051, 295, 217, 310, 280
-0.99706, 225, 9, 352, 72
-0.997061, 325, 217, 340, 280
-0.997083, 145, 297, 272, 328
-0.997096, 257, 217, 272, 280
-0.997097, 351, 273, 366, 336
-0.997102, 369, 245, 384, 276
-0.99711, 263, 209, 278, 272
-0.997113, 49, 1, 112, 256
-0.997117, 129, 61, 256, 92
-0.997118, 161, 113, 416, 176
-0.997123, 161, 33, 288, 64
-0.997126, 243, 225, 258, 288
-0.997136, 149, 305, 164, 368
-0.997146, 305, 145, 432, 176
-0.997148, 181, 297, 196, 360
-0.99717, 113, 245, 240, 276
-0.997175, 193, 341, 320, 372
-0.997177, 1, 161, 500, 224
-0.997179, 379, 193, 394, 256
-0.997184, 65, 149, 192, 180
-0.997186, 91, 281, 106, 344
-0.997187, 195, 273, 210, 336
-0.997191, 241, 241, 272, 368
-0.9972, 369, 193, 496, 224
-0.997202, 161, 281, 288, 312
-0.997206, 209, 77, 336, 108
-0.99721, 145, 229, 272, 260
-0.997211, 33, 305, 160, 336
-0.997232, 65, 109, 192, 140
-0.99724, 397, 1, 428, 256
-0.99725, 1, 273, 500, 336
-0.99725, 261, 145, 292, 272
-0.997252, 185, 65, 216, 192
-0.997253, 311, 209, 326, 272
-0.99727, 385, 137, 400, 200
-0.997274, 345, 273, 360, 336
-0.997276, 81, 317, 208, 348
-0.997286, 283, 209, 298, 272
-0.997295, 145, 217, 272, 248
-0.997312, 169, 1, 200, 128
-0.997316, 363, 241, 378, 272
-0.997318, 1, 125, 128, 156
-0.997324, 85, 193, 116, 320
-0.997326, 225, 209, 352, 240
-0.997335, 397, 145, 412, 208
-0.997345, 49, 333, 64, 364
-0.997349, 393, 33, 408, 96
-0.997356, 193, 249, 320, 280
-0.997359, 363, 257, 378, 288
-0.997366, 337, 209, 464, 240
-0.997369, 129, 85, 256, 116
-0.997383, 33, 1, 160, 64
-0.997392, 389, 97, 420, 352
-0.997402, 111, 121, 126, 184
-0.997406, 391, 193, 406, 256
-0.997408, 49, 193, 176, 224
-0.997425, 81, 289, 96, 352
-0.997438, 289, 181, 416, 212
-0.99744, 265, 33, 296, 160
-0.997451, 57, 321, 72, 352
-0.997456, 133, 313, 148, 375
-0.997459, 289, 209, 304, 272
-0.997463, 145, 329, 272, 360
-0.997467, 193, 17, 448, 80
-0.997477, 81, 133, 208, 164
-0.997478, 401, 113, 416, 176
-0.997486, 233, 49, 248, 112
-0.99751, 353, 261, 368, 292
-0.997512, 385, 81, 400, 144
-0.997514, 401, 233, 416, 296
-0.997521, 177, 105, 304, 136
-0.997522, 305, 41, 432, 72
-0.997522, 181, 1, 212, 256
-0.997545, 377, 129, 408, 375
-0.997553, 375, 233, 390, 264
-0.997558, 187, 289, 202, 352
-0.997575, 291, 185, 306, 248
-0.99758, 215, 233, 230, 296
-0.99758, 1, 313, 500, 375
-0.997584, 329, 193, 344, 256
-0.997591, 345, 261, 360, 292
-0.997594, 339, 249, 354, 280
-0.997605, 331, 229, 346, 260
-0.997617, 241, 121, 368, 152
-0.997618, 353, 45, 480, 76
-0.99762, 257, 105, 384, 136
-0.997625, 225, 313, 480, 375
-0.997663, 117, 105, 132, 168
-0.997663, 105, 97, 120, 160
-0.997677, 141, 305, 156, 368
-0.997685, 65, 61, 192, 92
-0.997686, 399, 41, 414, 104
-0.997688, 383, 217, 398, 248
-0.997689, 57, 289, 72, 352
-0.997689, 81, 313, 96, 375
-0.997696, 99, 273, 114, 336
-0.997708, 277, 209, 292, 272
-0.997709, 161, 89, 416, 152
-0.99771, 229, 225, 244, 288
-0.997723, 337, 277, 464, 308
-0.997724, 193, 249, 208, 312
-0.997731, 17, 281, 144, 312
-0.997735, 81, 77, 208, 108
-0.997739, 317, 241, 348, 368
-0.997742, 395, 101, 410, 132
-0.997742, 303, 185, 318, 248
-0.997745, 191, 33, 206, 96
-0.99775, 253, 65, 284, 320
-0.997766, 177, 21, 304, 52
-0.997774, 271, 217, 286, 280
-0.997778, 437, 33, 468, 160
-0.997779, 177, 61, 304, 92
-0.997782, 357, 129, 388, 375
-0.997783, 225, 153, 352, 184
-0.997785, 101, 137, 116, 200
-0.997785, 335, 201, 350, 264
-0.997788, 1, 49, 500, 112
-0.997793, 33, 137, 160, 168
-0.997797, 273, 97, 304, 352
-0.997805, 341, 201, 356, 264
-0.997805, 137, 57, 152, 120
-0.997808, 121, 161, 152, 288
-0.997809, 95, 137, 110, 200
-0.997809, 317, 209, 332, 272
-0.997812, 17, 293, 144, 324
-0.997818, 247, 81, 262, 144
-0.997824, 289, 193, 416, 224
-0.997824, 1, 25, 256, 88
-0.997825, 237, 89, 252, 152
-0.997838, 201, 273, 216, 304
-0.997845, 87, 153, 102, 216
-0.997854, 387, 217, 402, 280
-0.997854, 297, 185, 312, 248
-0.997857, 469, 97, 500, 224
-0.997869, 379, 241, 394, 304
-0.997882, 113, 157, 240, 188
-0.997885, 309, 185, 324, 248
-0.997894, 305, 65, 432, 96
-0.997895, 241, 201, 256, 264
-0.997903, 33, 261, 160, 292
-0.997905, 393, 133, 408, 164
-0.997906, 145, 117, 272, 148
-0.997906, 173, 49, 188, 112
-0.997916, 409, 177, 440, 304
-0.997921, 111, 177, 126, 240
-0.997926, 359, 273, 374, 336
-0.997928, 123, 97, 138, 160
-0.997933, 379, 137, 394, 200
-0.997936, 111, 81, 126, 144
-0.997938, 177, 205, 304, 236
-0.997938, 217, 297, 232, 360
-0.997938, 413, 81, 444, 208
-0.99794, 163, 185, 178, 248
-0.997941, 223, 273, 238, 336
-0.997942, 323, 193, 338, 256
-0.997957, 81, 305, 208, 336
-0.997958, 193, 225, 320, 256
-0.997963, 289, 217, 416, 248
-0.997963, 359, 269, 374, 300
-0.997969, 289, 169, 416, 200
-0.997971, 223, 225, 238, 288
-0.997973, 193, 185, 208, 248
-0.997983, 109, 257, 124, 320
-0.997983, 209, 141, 336, 172
-0.997988, 153, 161, 168, 224
-0.99799, 369, 233, 384, 264
-0.997998, 51, 289, 66, 352
-0.998, 331, 249, 346, 312
-0.998, 391, 117, 406, 148
-0.998001, 227, 33, 242, 96
-0.998009, 393, 145, 408, 176
-0.99801, 187, 265, 202, 328
-0.998012, 87, 305, 102, 368
-0.998016, 337, 237, 352, 268
-0.998017, 169, 1, 200, 256
-0.998021, 127, 313, 142, 375
-0.998022, 189, 313, 204, 375
-0.998022, 57, 337, 72, 368
-0.998023, 1, 113, 128, 144
-0.998025, 41, 325, 56, 356
-0.998025, 81, 97, 208, 128
-0.998029, 389, 165, 404, 196
-0.998033, 349, 273, 364, 304
-0.998039, 407, 257, 422, 320
-0.998042, 211, 297, 226, 360
-0.998042, 399, 209, 414, 272
-0.998042, 339, 261, 354, 292
-0.998045, 203, 241, 218, 304
-0.998045, 345, 129, 376, 375
-0.99806, 413, 217, 428, 280
-0.998084, 65, 281, 80, 344
-0.998126, 289, 77, 416, 108
-0.998142, 177, 93, 304, 124
-0.998152, 97, 181, 224, 212
-0.998155, 113, 97, 144, 352
-0.998155, 129, 313, 256, 344
-0.998161, 387, 201, 402, 232
-0.998164, 129, 101, 256, 132
-0.998165, 209, 33, 336, 64
-0.998169, 241, 241, 256, 272
-0.99821, 231, 249, 246, 280
-0.998216, 99, 277, 114, 308
-0.998222, 257, 273, 384, 304
-0.998225, 209, 269, 224, 300
-0.998237, 333, 217, 348, 248
-0.99824, 305, 133, 432, 164
-0.99824, 97, 65, 128, 320
-0.998253, 401, 89, 416, 120
-0.998256, 353, 133, 480, 164
-0.998262, 241, 197, 368, 228
-0.998264, 125, 1, 156, 256
-0.998268, 63, 321, 78, 352
-0.99827, 223, 257, 238, 288
-0.998274, 49, 129, 80, 256
-0.998279, 357, 249, 372, 280
-0.998281, 137, 33, 168, 288
-0.998283, 393, 89, 408, 120
-0.998286, 97, 193, 224, 224
-0.99829, 385, 41, 400, 72
-0.998294, 301, 97, 332, 352
-0.998301, 257, 93, 384, 124
-0.998303, 43, 337, 58, 368
-0.998303, 185, 281, 216, 296
-0.998303, 345, 235, 376, 250
-0.998303, 401, 253, 432, 268
-0.998303, 185, 337, 216, 352
-0.998304, 369, 45, 400, 60
-0.998305, 249, 227, 280, 242
-0.998307, 93, 151, 124, 166
-0.998308, 153, 311, 184, 326
-0.998309, 393, 91, 424, 106
-0.998309, 229, 229, 260, 244
-0.998309, 105, 117, 136, 132
-0.99831, 377, 149, 408, 164
-0.998311, 385, 253, 416, 268
-0.998311, 145, 351, 176, 366
-0.998312, 407, 261, 422, 292
-0.998312, 57, 309, 72, 340
-0.998314, 377, 223, 408, 238
-0.998314, 389, 151, 420, 166
-0.998314, 189, 293, 220, 308
-0.998315, 53, 311, 84, 326
-0.998315, 341, 279, 372, 294
-0.998315, 213, 247, 244, 262
-0.998316, 105, 271, 136, 286
-0.998316, 385, 195, 416, 210
-0.998316, 257, 141, 384, 172
-0.998317, 93, 139, 124, 154
-0.998318, 395, 157, 410, 188
-0.998319, 353, 33, 480, 64
-0.998319, 49, 347, 80, 362
-0.99832, 209, 339, 240, 354
-0.99832, 217, 257, 248, 272
-0.99832, 57, 329, 88, 344
-0.998322, 245, 349, 276, 364
-0.998322, 373, 221, 388, 252
-0.998324, 377, 231, 408, 246
-0.998324, 389, 79, 420, 94
-0.998325, 129, 329, 160, 344
-0.998326, 197, 281, 228, 296
-0.998327, 333, 249, 348, 280
-0.998327, 305, 53, 432, 84
-0.998327, 33, 323, 64, 338
-0.998328, 373, 157, 404, 172
-0.998328, 265, 217, 296, 232
-0.998329, 389, 67, 420, 82
-0.99833, 353, 265, 480, 296
-0.99833, 73, 303, 104, 318
-0.99833, 81, 283, 112, 298
-0.998331, 237, 245, 268, 260
-0.998331, 381, 93, 412, 108
-0.998332, 373, 199, 404, 214
-0.998333, 77, 277, 108, 292
-0.998335, 389, 85, 420, 100
-0.998335, 173, 339, 204, 354
-0.998335, 381, 217, 412, 232
-0.998335, 197, 337, 228, 352
-0.998336, 253, 221, 284, 236
-0.998337, 249, 339, 280, 354
-0.998337, 381, 43, 412, 58
-0.998337, 225, 247, 256, 262
-0.998337, 189, 343, 220, 358
-0.998338, 161, 113, 192, 240
-0.998338, 405, 241, 420, 272
-0.998339, 385, 157, 416, 172
-0.998339, 373, 191, 404, 206
-0.99834, 385, 201, 416, 216
-0.99834, 373, 181, 404, 196
-0.998341, 177, 297, 208, 312
-0.998342, 385, 185, 416, 200
-0.998344, 357, 229, 388, 244
-0.998344, 381, 207, 412, 222
-0.998346, 217, 241, 248, 256
-0.998346, 381, 101, 412, 116
-0.998347, 369, 207, 400, 222
-0.998347, 377, 61, 408, 76
-0.998347, 401, 101, 416, 132
-0.998348, 169, 345, 200, 360
-0.998348, 113, 29, 240, 60
-0.998349, 385, 179, 416, 194
-0.998349, 377, 141, 408, 156
-0.99835, 209, 263, 240, 278
-0.998354, 33, 341, 64, 356
-0.998357, 397, 247, 428, 262
-0.998357, 375, 37, 390, 68
-0.998359, 229, 255, 260, 270
-0.99836, 1, 1, 64, 375
-0.998361, 389, 141, 420, 156
-0.998361, 205, 269, 236, 284
-0.998361, 377, 209, 392, 240
-0.998362, 373, 253, 404, 268
-0.998364, 393, 97, 424, 112
-0.998366, 317, 223, 348, 238
-0.998366, 57, 339, 88, 354
-0.998367, 361, 269, 392, 284
-0.998367, 65, 309, 96, 324
-0.998368, 387, 153, 402, 184
-0.998371, 373, 171, 404, 186
-0.998372, 381, 107, 412, 122
-0.998373, 93, 277, 124, 292
-0.998373, 197, 1, 228, 256
-0.998374, 353, 241, 384, 256
-0.998377, 373, 163, 404, 178
-0.998377, 333, 271, 364, 286
-0.998377, 241, 65, 272, 320
-0.998378, 401, 113, 416, 144
-0.998379, 389, 57, 404, 88
-0.998381, 399, 129, 414, 160
-0.998382, 61, 321, 92, 336
-0.998383, 381, 121, 412, 136
-0.998384, 385, 163, 416, 178
-0.998386, 285, 97, 316, 352
-0.998386, 369, 237, 400, 252
-0.998388, 341, 241, 372, 256
-0.998389, 343, 229, 358, 260
-0.998389, 97, 265, 112, 296
-0.998389, 375, 245, 390, 276
-0.99839, 133, 321, 164, 336
-0.998391, 67, 309, 82, 340
-0.998393, 157, 349, 188, 364
-0.998393, 221, 343, 252, 358
-0.998394, 329, 261, 360, 276
-0.998395, 329, 225, 360, 240
-0.998396, 321, 247, 352, 262
-0.998397, 65, 315, 96, 330
-0.998398, 385, 169, 416, 184
-0.998398, 193, 287, 224, 302
-0.998399, 197, 275, 228, 290
-0.998401, 393, 111, 424, 126
-0.998402, 393, 117, 424, 132
-0.998404, 215, 265, 230, 296
-0.998405, 325, 255, 356, 270
-0.998405, 233, 345, 264, 360
-0.998405, 345, 249, 360, 280
-0.998406, 357, 263, 388, 278
-0.998406, 29, 329, 60, 344
-0.998408, 45, 341, 76, 356
-0.998408, 393, 103, 424, 118
-0.998408, 393, 69, 408, 100
-0.998409, 377, 129, 408, 144
-0.998412, 33, 335, 64, 350
-0.998414, 321, 241, 352, 256
-0.998415, 369, 257, 384, 288
-0.998416, 345, 273, 376, 288
-0.99842, 381, 113, 412, 128
-0.998424, 45, 317, 76, 332
-0.998424, 361, 39, 392, 54
-0.998425, 341, 247, 372, 262
-0.998427, 389, 127, 420, 142
-0.998427, 377, 135, 408, 150
-0.99843, 197, 329, 212, 360
-0.998433, 369, 243, 400, 258
-0.998435, 33, 249, 160, 280
-0.998436, 425, 193, 488, 320
-0.998436, 357, 235, 388, 250
-0.998438, 209, 49, 336, 80
-0.998438, 333, 231, 364, 246
-0.998441, 387, 133, 402, 164
-0.998444, 157, 33, 188, 288
-0.998448, 383, 165, 398, 196
-0.998449, 389, 135, 420, 150
-0.998453, 381, 233, 396, 264
-0.998454, 49, 205, 176, 236
-0.998457, 113, 1, 144, 128
-0.998459, 357, 247, 388, 262
-0.998461, 321, 233, 352, 248
-0.998462, 45, 329, 76, 344
-0.998465, 289, 345, 416, 375
-0.998466, 387, 101, 402, 132
-0.998467, 161, 141, 288, 172
-0.998469, 167, 345, 182, 375
-0.99847, 237, 341, 252, 372
-0.99847, 361, 257, 392, 272
-0.998474, 351, 249, 366, 280
-0.998476, 345, 267, 376, 282
-0.998477, 81, 301, 96, 332
-0.998489, 213, 281, 228, 312
-0.998492, 257, 217, 272, 248
-0.998493, 357, 237, 372, 268
-0.998496, 155, 313, 170, 344
-0.998501, 245, 345, 260, 375
-0.998502, 17, 153, 144, 184
-0.998505, 369, 345, 496, 375
-0.998513, 305, 313, 432, 375
-0.998515, 195, 281, 210, 312
-0.998518, 41, 321, 104, 336
-0.998522, 345, 255, 376, 270
-0.998523, 209, 329, 336, 360
-0.998524, 353, 121, 480, 152
-0.998525, 89, 281, 104, 312
-0.998527, 387, 89, 402, 120
-0.998529, 387, 181, 402, 212
-0.998533, 41, 335, 104, 350
-0.998534, 325, 221, 340, 252
-0.998536, 429, 81, 460, 208
-0.998537, 305, 113, 432, 144
-0.998541, 337, 289, 464, 320
-0.998542, 329, 239, 392, 254
-0.998547, 45, 335, 76, 350
-0.998548, 321, 247, 384, 262
-0.998555, 329, 231, 392, 246
-0.998555, 95, 125, 110, 156
-0.998556, 1, 181, 128, 212
-0.998557, 321, 257, 384, 272
-0.998558, 145, 317, 160, 348
-0.998563, 353, 69, 480, 100
-0.998564, 165, 305, 180, 336
-0.998565, 353, 247, 416, 262
-0.998566, 33, 229, 160, 260
-0.998572, 229, 65, 260, 320
-0.998575, 1, 89, 128, 120
-0.998576, 189, 341, 204, 372
-0.998578, 45, 323, 76, 338
-0.998579, 159, 345, 174, 375
-0.998581, 193, 343, 256, 358
-0.998581, 333, 129, 364, 375
-0.998585, 251, 345, 266, 375
-0.998587, 81, 45, 208, 76
-0.99859, 213, 337, 228, 368
-0.99859, 353, 241, 416, 256
-0.998595, 41, 327, 104, 342
-0.998597, 343, 273, 358, 304
-0.998597, 161, 345, 224, 360
-0.998601, 353, 253, 416, 268
-0.998603, 363, 225, 378, 256
-0.998605, 41, 315, 104, 330
-0.998605, 297, 247, 360, 262
-0.998606, 105, 347, 168, 362
-0.998607, 81, 233, 208, 264
-0.998607, 341, 261, 372, 276
-0.998609, 353, 261, 416, 276
-0.998611, 313, 263, 376, 278
-0.998611, 63, 333, 78, 364
-0.998612, 377, 119, 440, 134
-0.998612, 193, 271, 256, 286
-0.998617, 297, 239, 360, 254
-0.998617, 329, 225, 392, 240
-0.998618, 241, 341, 304, 356
-0.998624, 353, 235, 416, 250
-0.998627, 337, 267, 400, 282
-0.99863, 113, 341, 176, 356
-0.998631, 353, 113, 416, 128
-0.998633, 89, 149, 152, 164
-0.998636, 201, 265, 264, 280
-0.998636, 169, 339, 232, 354
-0.998636, 377, 113, 440, 128
-0.998637, 25, 1, 88, 128
-0.998637, 17, 329, 80, 344
-0.998638, 139, 321, 154, 352
-0.998638, 81, 155, 144, 170
-0.998639, 133, 145, 164, 272
-0.998639, 17, 323, 80, 338
-0.998642, 209, 1, 240, 256
-0.998643, 377, 129, 440, 144
-0.998644, 109, 257, 124, 288
-0.998645, 185, 287, 248, 302
-0.998645, 185, 277, 248, 292
-0.998646, 169, 297, 232, 312
-0.998647, 377, 97, 440, 112
-0.998648, 231, 341, 246, 372
-0.998649, 345, 201, 408, 216
-0.99865, 401, 253, 416, 284
-0.99865, 17, 337, 80, 352
-0.99865, 353, 121, 416, 136
-0.99865, 41, 343, 104, 358
-0.998651, 289, 221, 352, 236
-0.998652, 137, 61, 200, 76
-0.998652, 297, 233, 360, 248
-0.998655, 337, 81, 464, 112
-0.998656, 377, 141, 440, 156
-0.998656, 353, 127, 416, 142
-0.998659, 321, 97, 352, 352
-0.998659, 377, 87, 440, 102
-0.99866, 193, 337, 256, 352
-0.99866, 137, 349, 200, 364
-0.99866, 217, 349, 280, 364
-0.998661, 9, 343, 72, 358
-0.998661, 49, 147, 112, 162
-0.998661, 201, 259, 264, 274
-0.998662, 377, 135, 440, 150
-0.998662, 17, 217, 144, 248
-0.998663, 173, 345, 188, 375
-0.998664, 57, 307, 120, 322
-0.998664, 129, 329, 192, 344
-0.998664, 377, 103, 440, 118
-0.998664, 191, 329, 206, 360
-0.998664, 89, 143, 152, 158
-0.998664, 161, 279, 224, 294
-0.998665, 353, 135, 416, 150
-0.998665, 337, 273, 400, 288
-0.998665, 385, 245, 448, 260
-0.998665, 263, 217, 278, 248
-0.998668, 385, 201, 448, 216
-0.998668, 17, 315, 80, 330
-0.998669, 297, 257, 360, 272
-0.998669, 187, 293, 202, 324
-0.998669, 409, 1, 440, 256
-0.998669, 225, 341, 240, 372
-0.998669, 217, 247, 280, 262
-0.99867, 377, 79, 440, 94
-0.998671, 81, 277, 144, 292
-0.998671, 345, 207, 408, 222
-0.998672, 313, 271, 376, 286
-0.998672, 177, 67, 240, 82
-0.998673, 97, 99, 160, 114
-0.998674, 129, 319, 192, 334
-0.998674, 225, 255, 288, 270
-0.998674, 353, 97, 416, 112
-0.998674, 251, 225, 266, 256
-0.998675, 177, 265, 240, 280
-0.998676, 73, 349, 136, 364
-0.998676, 51, 309, 66, 340
-0.998676, 377, 177, 440, 192
-0.998676, 377, 69, 440, 84
-0.998677, 97, 119, 160, 134
-0.998677, 345, 41, 408, 56
-0.998677, 225, 241, 288, 256
-0.998677, 345, 195, 408, 210
-0.998677, 233, 219, 296, 234
-0.998678, 177, 39, 240, 54
-0.998678, 241, 227, 304, 242
-0.998678, 49, 153, 112, 168
-0.998679, 369, 207, 432, 222
-0.998679, 49, 345, 64, 375
-0.99868, 89, 135, 152, 150
-0.99868, 353, 105, 416, 120
-0.99868, 217, 343, 280, 358
-0.99868, 185, 243, 248, 258
-0.998681, 65, 337, 128, 352
-0.998681, 65, 313, 128, 328
-0.998681, 183, 41, 198, 72
-0.998681, 273, 113, 336, 128
-0.998682, 377, 185, 440, 200
-0.998683, 81, 165, 144, 180
-0.998683, 193, 251, 256, 266
-0.998684, 409, 129, 440, 256
-0.998684, 353, 87, 416, 102
-0.998684, 281, 129, 344, 144
-0.998684, 137, 185, 200, 200
-0.998686, 369, 45, 432, 60
-0.998686, 73, 331, 136, 346
-0.998686, 97, 185, 160, 200
-0.998687, 73, 343, 136, 358
-0.998688, 65, 361, 128, 375
-0.998688, 161, 287, 224, 302
-0.998689, 305, 153, 368, 168
-0.998689, 129, 67, 192, 82
-0.998689, 161, 75, 224, 90
-0.99869, 339, 217, 354, 248
-0.998692, 89, 125, 152, 140
-0.998693, 115, 341, 130, 372
-0.998693, 337, 169, 400, 184
-0.998693, 65, 189, 128, 204
-0.998694, 137, 55, 200, 70
-0.998694, 97, 353, 160, 368
-0.998694, 257, 215, 320, 230
-0.998694, 77, 329, 92, 360
-0.998694, 169, 45, 232, 60
-0.998695, 169, 271, 232, 286
-0.998695, 89, 319, 152, 334
-0.998695, 353, 227, 416, 242
-0.998695, 377, 167, 440, 182
-0.998697, 97, 105, 160, 120
-0.998697, 353, 141, 416, 156
-0.998697, 249, 351, 312, 366
-0.998697, 97, 93, 160, 108
-0.998698, 41, 197, 104, 212
-0.998698, 201, 237, 264, 252
-0.998699, 385, 195, 448, 210
-0.998699, 65, 203, 128, 218
-0.998701, 381, 197, 396, 228
-0.998709, 391, 41, 406, 72
-0.998713, 219, 341, 234, 372
-0.998714, 1, 101, 128, 132
-0.998714, 231, 237, 246, 268
-0.998716, 91, 173, 106, 204
-0.99872, 399, 141, 414, 172
-0.998721, 105, 269, 120, 300
-0.998725, 133, 321, 148, 352
-0.998726, 389, 213, 404, 244
-0.998734, 191, 29, 206, 60
-0.998738, 169, 193, 184, 224
-0.998738, 365, 269, 380, 300
-0.998739, 171, 301, 186, 332
-0.99874, 387, 69, 402, 100
-0.998741, 161, 153, 288, 184
-0.998741, 181, 293, 196, 324
-0.998741, 225, 241, 240, 272
-0.998745, 183, 333, 198, 364
-0.998762, 383, 57, 398, 88
-0.998763, 201, 113, 232, 240
-0.998764, 225, 285, 352, 316
-0.998766, 175, 329, 190, 360
-0.99877, 73, 309, 88, 340
-0.998775, 91, 297, 106, 328
-0.998778, 227, 37, 242, 68
-0.998778, 113, 145, 240, 176
-0.998778, 123, 337, 138, 368
-0.99878, 333, 261, 348, 292
-0.99878, 207, 329, 222, 360
-0.998782, 161, 165, 288, 196
-0.998782, 241, 185, 368, 216
-0.998791, 117, 109, 132, 140
-0.998797, 257, 65, 384, 96
-0.998802, 421, 129, 452, 256
-0.99881, 65, 81, 96, 208
-0.998818, 391, 113, 406, 240
-0.998829, 145, 189, 272, 220
-0.998831, 391, 33, 406, 160
-0.998836, 321, 101, 448, 132
-0.998852, 85, 65, 116, 320
-0.998856, 365, 33, 396, 288
-0.998874, 273, 1, 304, 256
-0.998889, 361, 81, 392, 208
-0.998913, 65, 1, 320, 64
-0.998962, 339, 225, 354, 352
-0.99898, 73, 193, 104, 320
-0.99901, 201, 241, 216, 368
-0.999021, 125, 97, 156, 352
-0.999049, 387, 177, 402, 304
-0.99906, 113, 1, 144, 256
-0.999061, 397, 81, 412, 208
-0.999069, 349, 193, 364, 320
-0.999073, 325, 1, 356, 256
-0.999083, 195, 241, 210, 368
-0.999086, 373, 209, 388, 336
-0.999088, 397, 33, 412, 160
-0.999095, 385, 49, 400, 176
-0.9991, 441, 225, 472, 352
-0.999107, 207, 241, 222, 368
-0.999111, 367, 225, 382, 352
-0.999115, 157, 1, 188, 128
-0.999144, 223, 1, 238, 128
-0.999168, 213, 241, 228, 368
-0.999174, 185, 97, 216, 352
-0.999188, 385, 129, 400, 256
-0.99919, 257, 241, 288, 368
-0.999195, 231, 241, 246, 368
-0.999196, 355, 193, 370, 320
-0.999196, 381, 193, 396, 320
-0.999208, 221, 241, 236, 368
-0.999209, 305, 241, 336, 368
-0.999215, 349, 1, 380, 256
-0.999225, 285, 1, 316, 256
-0.999237, 229, 17, 244, 144
-0.999251, 185, 241, 200, 368
-0.99927, 171, 241, 186, 368
-0.999282, 265, 193, 280, 320
-0.999293, 1, 33, 32, 160
-0.999313, 377, 145, 392, 272
-0.999314, 345, 241, 360, 368
-0.99933, 259, 193, 274, 320
-0.999333, 241, 1, 256, 128
-0.999338, 361, 193, 376, 320
-0.999338, 421, 1, 452, 256
-0.99934, 397, 129, 412, 256
-0.999342, 197, 97, 228, 352
-0.999343, 359, 241, 374, 368
-0.999347, 305, 193, 320, 320
-0.999353, 337, 1, 368, 256
-0.99936, 403, 33, 418, 160
-0.999369, 297, 1, 328, 256
-0.999374, 333, 209, 348, 336
-0.999375, 251, 193, 266, 320
-0.999384, 351, 241, 366, 368
-0.999389, 469, 1, 500, 256
-0.999389, 469, 145, 500, 272
-0.9994, 247, 1, 262, 128
-0.999403, 231, 65, 246, 192
-0.999404, 341, 177, 356, 304
-0.999421, 313, 193, 328, 320
-0.999422, 191, 17, 206, 144
-0.999423, 313, 145, 328, 272
-0.999424, 135, 49, 150, 176
-0.999426, 111, 65, 126, 192
-0.999426, 279, 193, 294, 320
-0.999427, 237, 241, 252, 368
-0.999431, 299, 193, 314, 320
-0.999434, 461, 81, 476, 208
-0.999437, 295, 129, 310, 256
-0.999443, 57, 129, 88, 375
-0.999446, 177, 241, 192, 368
-0.999447, 393, 177, 408, 304
-0.999459, 73, 129, 104, 375
-0.999459, 373, 17, 388, 144
-0.999466, 285, 193, 300, 320
-0.999466, 371, 145, 386, 272
-0.999469, 125, 113, 140, 240
-0.999477, 235, 1, 250, 128
-0.999479, 197, 17, 212, 144
-0.99948, 293, 193, 308, 320
-0.999481, 271, 193, 286, 320
-0.999484, 285, 113, 300, 240
-0.999485, 243, 241, 258, 368
-0.999487, 305, 145, 320, 272
-0.999495, 217, 97, 248, 352
-0.999496, 25, 1, 88, 375
-0.999503, 379, 97, 394, 224
-0.999511, 365, 145, 380, 272
-0.999512, 183, 33, 198, 160
-0.999513, 401, 97, 432, 352
-0.999516, 437, 33, 468, 288
-0.99952, 223, 65, 238, 192
-0.99952, 403, 81, 418, 208
-0.999523, 191, 177, 206, 304
-0.999523, 415, 17, 430, 144
-0.999524, 265, 81, 280, 208
-0.999524, 97, 113, 112, 240
-0.999524, 225, 193, 240, 320
-0.999524, 87, 145, 102, 272
-0.999525, 373, 225, 388, 240
-0.999525, 91, 277, 106, 292
-0.999525, 397, 149, 412, 164
-0.999526, 341, 225, 356, 240
-0.999527, 325, 219, 340, 234
-0.999528, 63, 319, 78, 334
-0.999528, 165, 347, 180, 362
-0.999529, 383, 231, 398, 246
-0.999529, 201, 335, 216, 350
-0.99953, 231, 241, 246, 256
-0.99953, 395, 79, 410, 94
-0.99953, 229, 343, 244, 358
-0.999532, 145, 321, 160, 336
-0.999532, 351, 255, 366, 270
-0.999532, 387, 57, 402, 72
-0.999533, 399, 137, 414, 152
-0.999533, 387, 91, 402, 106
-0.999534, 253, 349, 268, 364
-0.999534, 133, 331, 148, 346
-0.999534, 401, 121, 416, 136
-0.999535, 255, 33, 270, 160
-0.999536, 331, 259, 346, 274
-0.999536, 167, 161, 182, 288
-0.999536, 217, 1, 232, 128
-0.999536, 203, 193, 218, 320
-0.999537, 211, 337, 226, 352
-0.999537, 223, 261, 238, 276
-0.999537, 385, 161, 400, 176
-0.999538, 407, 261, 422, 276
-0.999539, 119, 65, 134, 192
-0.999539, 93, 285, 108, 300
-0.999539, 401, 115, 416, 130
-0.999539, 391, 191, 406, 206
-0.99954, 159, 349, 174, 364
-0.999541, 105, 113, 120, 240
-0.999541, 321, 193, 336, 320
-0.999542, 73, 305, 88, 320
-0.999543, 319, 129, 334, 256
-0.999543, 359, 239, 374, 254
-0.999544, 329, 251, 344, 266
-0.999545, 339, 241, 354, 256
-0.999546, 379, 41, 394, 56
-0.999546, 41, 341, 56, 356
-0.999546, 385, 203, 400, 218
-0.999547, 51, 349, 66, 364
-0.999548, 409, 33, 424, 160
-0.999548, 237, 81, 252, 208
-0.999549, 365, 239, 380, 254
-0.999549, 243, 161, 258, 288
-0.999551, 243, 243, 258, 258
-0.999551, 375, 219, 390, 234
-0.999551, 371, 259, 386, 274
-0.999551, 327, 193, 342, 320
-0.999552, 451, 81, 466, 208
-0.999553, 265, 219, 280, 234
-0.999553, 335, 219, 350, 234
-0.999553, 241, 345, 256, 360
-0.999554, 209, 273, 224, 288
-0.999554, 165, 49, 180, 176
-0.999554, 55, 331, 70, 346
-0.999554, 361, 273, 376, 288
-0.999555, 67, 311, 82, 326
-0.999557, 391, 149, 406, 164
-0.999557, 369, 231, 384, 246
-0.999558, 97, 273, 112, 288
-0.999558, 53, 341, 68, 356
-0.999559, 243, 65, 258, 192
-0.999559, 119, 113, 134, 240
-0.999559, 247, 347, 262, 362
-0.99956, 143, 49, 158, 176
-0.999561, 235, 343, 250, 358
-0.999561, 259, 221, 274, 236
-0.999564, 49, 317, 64, 332
-0.999564, 69, 241, 84, 368
-0.999565, 85, 81, 100, 208
-0.999565, 423, 33, 438, 160
-0.999565, 387, 113, 402, 128
-0.999566, 57, 325, 72, 340
-0.999566, 201, 279, 216, 294
-0.999567, 139, 323, 154, 338
-0.999567, 379, 237, 394, 252
-0.999568, 63, 241, 78, 368
-0.999569, 377, 243, 392, 258
-0.999569, 393, 65, 408, 80
-0.99957, 391, 97, 406, 112
-0.99957, 387, 139, 402, 154
-0.99957, 381, 225, 396, 240
-0.999571, 229, 255, 244, 270
-0.999571, 175, 49, 190, 176
-0.999571, 397, 95, 412, 110
-0.999572, 337, 259, 352, 274
-0.999574, 391, 171, 406, 186
-0.999575, 165, 241, 180, 368
-0.999575, 387, 197, 402, 212
-0.999576, 383, 217, 398, 232
-0.999576, 97, 279, 112, 294
-0.999577, 457, 1, 488, 256
-0.999577, 235, 249, 250, 264
-0.999578, 395, 179, 410, 194
-0.999579, 383, 209, 398, 224
-0.99958, 367, 33, 382, 160
-0.999581, 373, 253, 388, 268
-0.999582, 389, 179, 404, 194
-0.999583, 361, 251, 376, 266
-0.999584, 467, 81, 482, 208
-0.999584, 363, 245, 378, 260
-0.999585, 79, 145, 94, 272
-0.999585, 395, 89, 410, 104
-0.999585, 329, 225, 344, 240
-0.999585, 129, 49, 144, 176
-0.999585, 131, 113, 146, 240
-0.999586, 389, 125, 404, 140
-0.999586, 47, 343, 62, 358
-0.999586, 219, 193, 234, 320
-0.999587, 391, 105, 406, 120
-0.999587, 339, 267, 354, 282
-0.999588, 209, 193, 224, 320
-0.999589, 375, 231, 390, 246
-0.99959, 385, 43, 400, 58
-0.99959, 401, 129, 416, 144
-0.999591, 261, 1, 276, 128
-0.999593, 385, 167, 400, 182
-0.999595, 385, 191, 400, 206
-0.999595, 57, 315, 72, 330
-0.999596, 345, 129, 360, 256
-0.999597, 343, 273, 358, 288
-0.999599, 137, 113, 152, 240
-0.999603, 389, 185, 404, 200
-0.999605, 249, 65, 264, 192
-0.999605, 347, 265, 362, 280
-0.999605, 391, 165, 406, 180
-0.999605, 59, 339, 74, 354
-0.999606, 359, 267, 374, 282
-0.999606, 397, 101, 412, 116
-0.999608, 105, 65, 120, 192
-0.999608, 391, 159, 406, 174
-0.999608, 393, 143, 408, 158
-0.999609, 273, 81, 288, 208
-0.999611, 401, 177, 416, 304
-0.999612, 339, 49, 354, 176
-0.999613, 111, 241, 126, 368
-0.999613, 389, 131, 404, 146
-0.999614, 53, 241, 68, 368
-0.999614, 329, 49, 344, 176
-0.999614, 395, 119, 410, 134
-0.999617, 47, 329, 62, 344
-0.999618, 159, 241, 174, 368
-0.999619, 337, 231, 352, 246
-0.99962, 373, 39, 388, 54
-0.999621, 269, 145, 284, 272
-0.999621, 237, 193, 252, 320
-0.999623, 73, 33, 104, 288
-0.999623, 357, 145, 372, 272
-0.999625, 385, 173, 400, 188
-0.999626, 259, 81, 274, 208
-0.999626, 349, 275, 364, 290
-0.999626, 161, 161, 176, 288
-0.999627, 409, 225, 424, 352
-0.999629, 181, 193, 196, 320
-0.999631, 41, 327, 56, 342
-0.999631, 371, 237, 386, 252
-0.999632, 111, 113, 126, 240
-0.999632, 149, 49, 164, 176
-0.999633, 395, 125, 410, 140
-0.999633, 273, 1, 400, 64
-0.999633, 197, 193, 212, 320
-0.999634, 457, 33, 472, 160
-0.999636, 359, 49, 374, 176
-0.999636, 365, 263, 380, 278
-0.999636, 79, 97, 94, 224
-0.999637, 351, 65, 366, 192
-0.999639, 451, 33, 466, 160
-0.999643, 353, 267, 368, 282
-0.999644, 333, 241, 348, 256
-0.99965, 397, 107, 412, 122
-0.999652, 355, 273, 370, 288
-0.999653, 395, 113, 410, 128
-0.999654, 393, 137, 408, 152
-0.999655, 343, 259, 358, 274
-0.999659, 357, 261, 372, 276
-0.999659, 337, 247, 352, 262
-0.999661, 413, 129, 444, 375
-0.999665, 335, 225, 350, 240
-0.999668, 331, 231, 346, 246
-0.999675, 395, 131, 410, 146
-0.99968, 369, 245, 384, 260
-0.99968, 367, 251, 382, 266
-0.999691, 363, 257, 378, 272
-0.999704, 339, 253, 354, 268
-0.999704, 51, 323, 66, 338
-0.999724, 425, 97, 456, 352
-0.999773, 49, 335, 64, 350
-0.999776, 313, 1, 344, 256
-0.999802, 469, 129, 500, 375
-0.999843, 437, 129, 468, 375
-0.999912, 173, 129, 204, 375
-1.00002, 45, 129, 76, 375
-1.00005, 137, 129, 168, 375
-1.0002, 161, 129, 192, 375
-1.00027, 457, 129, 488, 375
-1.00028, 297, 1, 360, 128
-1.0003, 61, 1, 92, 256
-1.00043, 17, 97, 80, 352
-1.00054, 1, 25, 500, 88
-1.00061, 17, 145, 80, 272
-1.00062, 1, 65, 32, 320
-1.00067, 149, 129, 180, 375
-1.00075, 49, 1, 80, 256
-1.0009, 13, 33, 44, 288
-1.00098, 33, 97, 64, 352
-1.00102, 25, 1, 56, 256
-1.00119, 37, 1, 68, 256
-1.00124, 17, 129, 48, 375
-1.00252, 1, 1, 64, 256
-1.00322, 1, 1, 500, 64
-1.00362, 1, 193, 64, 320
-1.00437, 25, 1, 88, 256
