1969
-0.35675, 1, 225, 375, 480
-0.438413, 1, 65, 375, 320
-0.470281, 1, 1, 375, 500
-0.54887, 65, 1, 320, 500
-0.630132, 65, 193, 320, 448
-0.768324, 65, 97, 320, 352
-0.858749, 129, 1, 375, 256
-0.877851, 1, 225, 375, 352
-0.877853, 193, 225, 320, 480
-0.883137, 1, 305, 375, 432
-0.887842, 1, 177, 375, 304
-0.889314, 81, 1, 208, 500
-0.892551, 145, 1, 272, 500
-0.894809, 49, 225, 176, 480
-0.904699, 177, 129, 304, 384
-0.906719, 129, 161, 256, 416
-0.909401, 17, 1, 144, 500
-0.910861, 241, 1, 368, 500
-0.913991, 97, 209, 352, 336
-0.914033, 145, 257, 272, 500
-0.914964, 97, 257, 224, 500
-0.915912, 241, 97, 368, 352
-0.916199, 241, 225, 368, 480
-0.917425, 113, 65, 240, 320
-0.921457, 33, 1, 288, 256
-0.92213, 193, 1, 320, 500
-0.924199, 97, 273, 352, 400
-0.926057, 1, 113, 375, 240
-0.927963, 17, 65, 144, 320
-0.929424, 1, 353, 375, 480
-0.92974, 129, 321, 375, 448
-0.934646, 1, 225, 128, 480
-0.93686, 209, 1, 336, 256
-0.937774, 65, 65, 192, 320
-0.940254, 1, 65, 375, 192
-0.941175, 193, 209, 320, 336
-0.943703, 97, 161, 352, 288
-0.94402, 161, 1, 288, 256
-0.947089, 1, 241, 256, 368
-0.947786, 193, 273, 320, 400
-0.950675, 33, 321, 288, 448
-0.95177, 249, 209, 312, 336
-0.952534, 241, 353, 368, 480
-0.955582, 1, 113, 256, 240
-0.956124, 65, 369, 320, 496
-0.956409, 225, 193, 288, 320
-0.957028, 1, 193, 256, 320
-0.957826, 145, 193, 272, 320
-0.958679, 145, 273, 272, 400
-0.960985, 65, 273, 192, 400
-0.961368, 129, 81, 375, 208
-0.961724, 185, 177, 248, 304
-0.963025, 281, 273, 344, 400
-0.963406, 97, 225, 224, 352
-0.964281, 65, 321, 192, 448
-0.964929, 193, 161, 320, 288
-0.964952, 145, 321, 272, 448
-0.965625, 97, 145, 224, 272
-0.966403, 161, 225, 224, 352
-0.966557, 265, 337, 328, 464
-0.96659, 1, 65, 256, 192
-0.966661, 257, 225, 320, 288
-0.966768, 1, 17, 375, 144
-0.967271, 161, 305, 224, 432
-0.967342, 209, 113, 336, 240
-0.967457, 201, 257, 264, 384
-0.968341, 289, 353, 352, 480
-0.968593, 209, 201, 272, 264
-0.969224, 49, 209, 176, 336
-0.969723, 241, 225, 368, 352
-0.969755, 249, 289, 312, 416
-0.970278, 281, 225, 344, 352
-0.970613, 313, 369, 375, 496
-0.970672, 129, 17, 375, 144
-0.970862, 281, 273, 344, 336
-0.971057, 121, 257, 184, 384
-0.971218, 265, 161, 328, 288
-0.971648, 289, 353, 352, 416
-0.972531, 209, 225, 336, 288
-0.97262, 97, 65, 224, 192
-0.972735, 185, 225, 248, 288
-0.972965, 145, 145, 272, 272
-0.973014, 193, 321, 320, 448
-0.973943, 17, 369, 144, 496
-0.974054, 289, 257, 320, 384
-0.974315, 185, 249, 248, 312
-0.97433, 65, 321, 128, 448
-0.97439, 217, 145, 280, 272
-0.974501, 233, 209, 296, 272
-0.974822, 161, 161, 224, 288
-0.974882, 137, 177, 200, 304
-0.974899, 185, 129, 248, 256
-0.974957, 97, 209, 160, 336
-0.975133, 145, 81, 272, 208
-0.975714, 81, 369, 208, 496
-0.975944, 153, 225, 216, 288
-0.975947, 17, 257, 144, 384
-0.975953, 153, 81, 216, 208
-0.976655, 145, 369, 272, 496
-0.976962, 289, 273, 320, 336
-0.976987, 129, 249, 256, 312
-0.977046, 313, 369, 375, 432
-0.977352, 241, 305, 368, 432
-0.977447, 161, 273, 224, 336
-0.97764, 1, 177, 128, 304
-0.977657, 177, 161, 240, 224
-0.977847, 225, 241, 288, 368
-0.977868, 241, 369, 304, 496
-0.977943, 65, 369, 128, 496
-0.978039, 57, 241, 120, 368
-0.978084, 281, 209, 312, 336
-0.978086, 193, 265, 320, 328
-0.978096, 145, 249, 208, 312
-0.978206, 161, 193, 288, 256
-0.978762, 241, 161, 368, 288
-0.978841, 285, 225, 316, 288
-0.978914, 193, 289, 320, 352
-0.979184, 97, 257, 160, 384
-0.979246, 73, 201, 136, 264
-0.979262, 257, 225, 320, 480
-0.979528, 169, 201, 232, 264
-0.979545, 1, 321, 128, 448
-0.979653, 73, 177, 136, 304
-0.979692, 121, 265, 184, 328
-0.979846, 265, 337, 328, 400
-0.979985, 145, 201, 208, 264
-0.980273, 249, 281, 312, 344
-0.980542, 153, 137, 216, 200
-0.980916, 225, 193, 288, 448
-0.98092, 49, 65, 176, 192
-0.980964, 241, 185, 304, 248
-0.980969, 281, 97, 344, 224
-0.981123, 209, 265, 272, 328
-0.981129, 137, 321, 200, 448
-0.981251, 177, 81, 240, 208
-0.981356, 25, 337, 88, 464
-0.98136, 209, 241, 240, 368
-0.981395, 249, 313, 312, 376
-0.981411, 217, 185, 248, 248
-0.981422, 49, 161, 176, 288
-0.98146, 209, 225, 272, 288
-0.981692, 281, 305, 344, 368
-0.98172, 169, 313, 232, 376
-0.981759, 1, 129, 128, 256
-0.981778, 97, 65, 160, 192
-0.981783, 313, 97, 375, 224
-0.981883, 241, 361, 368, 424
-0.98189, 217, 193, 248, 320
-0.98197, 57, 321, 120, 384
-0.982126, 137, 129, 200, 256
-0.982149, 105, 225, 168, 288
-0.982505, 129, 153, 192, 216
-0.982505, 57, 233, 120, 296
-0.982644, 281, 249, 344, 312
-0.982694, 257, 377, 320, 440
-0.982818, 213, 249, 244, 312
-0.982876, 65, 401, 128, 464
-0.983073, 185, 129, 248, 384
-0.983074, 129, 225, 256, 288
-0.983197, 269, 209, 300, 336
-0.983537, 65, 369, 128, 432
-0.983773, 257, 249, 320, 312
-0.98378, 121, 49, 184, 176
-0.983819, 185, 305, 248, 432
-0.983884, 121, 201, 184, 264
-0.983968, 269, 217, 300, 280
-0.983997, 57, 225, 120, 480
-0.983997, 33, 17, 288, 144
-0.984169, 129, 329, 192, 392
-0.984237, 57, 345, 120, 408
-0.984358, 145, 49, 208, 112
-0.984553, 153, 161, 216, 416
-0.984564, 193, 313, 320, 376
-0.984679, 193, 289, 256, 352
-0.984718, 81, 209, 208, 272
-0.984724, 113, 145, 176, 272
-0.984757, 145, 33, 272, 160
-0.98483, 49, 345, 176, 408
-0.98484, 33, 313, 96, 376
-0.98487, 129, 225, 192, 288
-0.984876, 289, 145, 352, 272
-0.984881, 273, 305, 304, 432
-0.984979, 285, 249, 316, 312
-0.985029, 145, 273, 272, 336
-0.985067, 241, 97, 304, 224
-0.985143, 253, 209, 284, 272
-0.985151, 209, 65, 336, 192
-0.985222, 129, 305, 192, 368
-0.985292, 201, 225, 264, 480
-0.985325, 129, 73, 192, 136
-0.985346, 49, 385, 176, 448
-0.985445, 249, 129, 312, 384
-0.985451, 233, 233, 296, 296
-0.985541, 49, 113, 176, 240
-0.985565, 229, 193, 260, 320
-0.985625, 49, 193, 112, 320
-0.985627, 281, 225, 344, 480
-0.985673, 209, 337, 336, 400
-0.985782, 177, 257, 240, 500
-0.985849, 201, 177, 264, 240
-0.98587, 25, 273, 88, 400
-0.985914, 81, 17, 208, 144
-0.985965, 121, 1, 184, 128
-0.986041, 225, 169, 352, 232
-0.986123, 81, 233, 208, 296
-0.98625, 145, 169, 272, 232
-0.986411, 49, 257, 176, 320
-0.986479, 145, 305, 272, 368
-0.98656, 97, 273, 224, 336
-0.986565, 241, 401, 304, 464
-0.98662, 281, 337, 312, 400
-0.986632, 1, 65, 128, 192
-0.986632, 33, 233, 96, 296
-0.986679, 137, 369, 200, 496
-0.986711, 197, 209, 228, 272
-0.986752, 289, 337, 320, 464
-0.986786, 269, 281, 300, 344
-0.986915, 205, 193, 236, 320
-0.987036, 229, 201, 260, 264
-0.987137, 145, 433, 272, 496
-0.987142, 201, 233, 232, 296
-0.987223, 113, 305, 176, 432
-0.987229, 153, 161, 216, 224
-0.987264, 281, 97, 344, 352
-0.987352, 269, 161, 300, 288
-0.987378, 269, 305, 300, 368
-0.987418, 305, 113, 368, 176
-0.987492, 273, 97, 336, 160
-0.987507, 65, 257, 128, 320
-0.987571, 217, 97, 280, 352
-0.987593, 265, 169, 328, 232
-0.987659, 209, 337, 272, 464
-0.98785, 209, 209, 240, 272
-0.987857, 17, 281, 80, 344
-0.987872, 65, 297, 192, 360
-0.987874, 97, 193, 160, 448
-0.987894, 145, 377, 272, 440
-0.987894, 49, 433, 176, 496
-0.987974, 153, 73, 216, 136
-0.987976, 221, 257, 252, 384
-0.98798, 209, 201, 336, 264
-0.987993, 121, 49, 184, 112
-0.988011, 65, 49, 128, 176
-0.988117, 33, 321, 160, 384
-0.988236, 145, 329, 272, 392
-0.988236, 97, 337, 224, 400
-0.988243, 33, 209, 96, 272
-0.988268, 345, 385, 375, 448
-0.988274, 169, 49, 232, 112
-0.988283, 97, 193, 160, 256
-0.98833, 33, 17, 160, 144
-0.988359, 113, 1, 176, 500
-0.98839, 301, 353, 332, 416
-0.988441, 81, 185, 208, 248
-0.988453, 225, 377, 288, 440
-0.988459, 17, 193, 144, 256
-0.988528, 105, 425, 168, 488
-0.988529, 161, 33, 224, 160
-0.988579, 153, 1, 216, 500
-0.988601, 257, 185, 288, 248
-0.988632, 41, 273, 104, 336
-0.988642, 257, 209, 288, 336
-0.988654, 153, 417, 216, 480
-0.988672, 281, 161, 312, 288
-0.98876, 161, 353, 224, 480
-0.988767, 113, 81, 240, 144
-0.98878, 193, 369, 320, 496
-0.988858, 289, 329, 352, 392
-0.988876, 305, 97, 368, 352
-0.988886, 305, 305, 368, 432
-0.98895, 241, 337, 304, 400
-0.988975, 225, 153, 288, 216
-0.988986, 297, 249, 328, 312
-0.988988, 33, 369, 96, 432
-0.989032, 129, 401, 192, 464
-0.989079, 337, 369, 368, 496
-0.989112, 305, 33, 368, 160
-0.989139, 233, 257, 296, 320
-0.989154, 241, 145, 304, 272
-0.989176, 273, 257, 304, 384
-0.989229, 57, 297, 120, 360
-0.989235, 173, 321, 204, 384
-0.989285, 65, 425, 128, 488
-0.989303, 97, 401, 224, 464
-0.989336, 241, 113, 368, 176
-0.98935, 201, 385, 264, 448
-0.989385, 241, 257, 368, 320
-0.989413, 273, 241, 304, 304
-0.989443, 121, 225, 184, 480
-0.989458, 201, 153, 232, 216
-0.98946, 89, 1, 152, 500
-0.989467, 201, 129, 264, 192
-0.989476, 169, 321, 200, 448
-0.989502, 225, 1, 288, 500
-0.989542, 209, 417, 272, 480
-0.989557, 1, 345, 128, 408
-0.989601, 265, 1, 328, 500
-0.989665, 81, 145, 208, 208
-0.989681, 97, 249, 160, 312
-0.98972, 129, 129, 256, 192
-0.989773, 189, 241, 220, 368
-0.989782, 137, 65, 200, 320
-0.989848, 97, 273, 160, 336
-0.989939, 233, 225, 264, 288
-0.98995, 145, 409, 272, 472
-0.989978, 33, 337, 96, 400
-0.989987, 185, 33, 248, 160
-0.990006, 97, 233, 352, 296
-0.990035, 1, 409, 128, 472
-0.990103, 33, 233, 160, 296
-0.99013, 273, 361, 304, 424
-0.990138, 181, 225, 212, 288
-0.99014, 69, 321, 100, 448
-0.990145, 61, 313, 92, 376
-0.990153, 241, 433, 304, 496
-0.990193, 225, 401, 352, 464
-0.990226, 153, 273, 184, 400
-0.990246, 297, 217, 360, 280
-0.990288, 225, 257, 256, 320
-0.990291, 289, 313, 320, 376
-0.990291, 49, 1, 112, 500
-0.990312, 189, 257, 220, 320
-0.990367, 89, 393, 152, 456
-0.990377, 297, 161, 360, 224
-0.990379, 49, 409, 176, 472
-0.990389, 1, 369, 128, 432
-0.990395, 161, 353, 224, 416
-0.99043, 97, 425, 224, 488
-0.990479, 249, 225, 312, 256
-0.990479, 281, 49, 344, 176
-0.990502, 225, 209, 288, 240
-0.990516, 25, 257, 88, 500
-0.990534, 253, 385, 284, 448
-0.990577, 25, 401, 88, 464
-0.990614, 89, 369, 152, 496
-0.990637, 289, 1, 352, 500
-0.990649, 105, 73, 168, 136
-0.990671, 209, 281, 240, 344
-0.990738, 65, 73, 192, 136
-0.990759, 177, 145, 304, 208
-0.990806, 97, 1, 160, 128
-0.990806, 25, 193, 88, 320
-0.99081, 9, 65, 72, 192
-0.99085, 325, 369, 356, 432
-0.99085, 317, 353, 348, 480
-0.990881, 249, 369, 280, 496
-0.990886, 161, 229, 224, 260
-0.990897, 45, 289, 76, 416
-0.990988, 313, 89, 375, 152
-0.990997, 169, 241, 200, 368
-0.991023, 241, 281, 368, 344
-0.99103, 185, 221, 248, 252
-0.991031, 129, 177, 192, 240
-0.991059, 177, 1, 240, 500
-0.991063, 177, 165, 240, 196
-0.991063, 105, 353, 168, 416
-0.991077, 185, 261, 248, 292
-0.991116, 161, 225, 192, 288
-0.991193, 145, 353, 272, 416
-0.991194, 301, 337, 332, 464
-0.991202, 289, 361, 352, 392
-0.991215, 201, 145, 232, 272
-0.991218, 241, 433, 368, 496
-0.991226, 189, 161, 220, 288
-0.991235, 81, 225, 144, 288
-0.991269, 281, 285, 344, 316
-0.991292, 217, 353, 280, 416
-0.991351, 257, 237, 320, 268
-0.991393, 153, 113, 216, 176
-0.991415, 113, 369, 176, 496
-0.991427, 145, 265, 176, 328
-0.991456, 313, 1, 375, 500
-0.99146, 153, 153, 216, 184
-0.991517, 1, 233, 375, 296
-0.991525, 205, 97, 236, 224
-0.991534, 297, 373, 360, 404
-0.991545, 81, 313, 144, 376
-0.991553, 153, 257, 216, 500
-0.991581, 281, 193, 344, 256
-0.991654, 89, 65, 152, 320
-0.991655, 265, 357, 328, 388
-0.991668, 177, 241, 240, 272
-0.991684, 25, 425, 88, 488
-0.991717, 269, 185, 300, 248
-0.991724, 201, 205, 264, 236
-0.991727, 265, 121, 328, 184
-0.991747, 193, 273, 256, 304
-0.991776, 217, 229, 280, 260
-0.991788, 301, 97, 332, 224
-0.991804, 97, 361, 224, 424
-0.991809, 289, 273, 352, 304
-0.991809, 129, 345, 375, 408
-0.991843, 109, 193, 140, 320
-0.991888, 153, 265, 216, 296
-0.991896, 137, 77, 200, 108
-0.991912, 193, 189, 256, 220
-0.991925, 145, 49, 272, 112
-0.991985, 249, 293, 312, 324
-0.991993, 65, 129, 128, 256
-0.991999, 17, 169, 144, 232
-0.992021, 49, 185, 112, 248
-0.992037, 97, 257, 352, 320
-0.992038, 177, 201, 208, 264
-0.992068, 137, 65, 168, 128
-0.992081, 249, 337, 312, 368
-0.992085, 161, 177, 192, 304
-0.99209, 1, 337, 375, 400
-0.992105, 241, 201, 272, 264
-0.992105, 217, 97, 280, 224
-0.992107, 73, 209, 104, 272
-0.992116, 313, 361, 344, 424
-0.992119, 173, 433, 204, 496
-0.992123, 265, 249, 328, 280
-0.992151, 217, 277, 280, 308
-0.992167, 313, 385, 375, 416
-0.992171, 153, 241, 216, 272
-0.992178, 137, 221, 200, 252
-0.992181, 313, 1, 375, 256
-0.992208, 129, 341, 192, 372
-0.992236, 169, 177, 232, 208
-0.992248, 161, 249, 192, 312
-0.992273, 249, 325, 312, 356
-0.992286, 153, 209, 216, 240
-0.992291, 249, 273, 312, 304
-0.992299, 145, 25, 208, 88
-0.992304, 57, 257, 120, 288
-0.992313, 49, 245, 112, 276
-0.992313, 249, 305, 312, 336
-0.992315, 129, 237, 192, 268
-0.992323, 225, 241, 288, 272
-0.992324, 177, 137, 240, 200
-0.992343, 257, 261, 320, 292
-0.992343, 197, 289, 228, 352
-0.992348, 65, 381, 128, 412
-0.992349, 257, 385, 320, 416
-0.992359, 1, 241, 64, 368
-0.992369, 217, 113, 248, 240
-0.992382, 25, 1, 88, 500
-0.992383, 281, 317, 344, 348
-0.992406, 129, 161, 192, 192
-0.992423, 9, 305, 72, 368
-0.992441, 73, 221, 136, 252
-0.992442, 297, 249, 360, 280
-0.992453, 121, 273, 184, 304
-0.992461, 217, 117, 280, 148
-0.992463, 169, 297, 232, 328
-0.992465, 297, 261, 360, 292
-0.992487, 245, 193, 276, 320
-0.992534, 161, 81, 224, 112
-0.992555, 105, 437, 168, 468
-0.992559, 97, 49, 224, 112
-0.992581, 153, 253, 216, 284
-0.992582, 65, 209, 128, 240
-0.992589, 177, 205, 240, 236
-0.992607, 49, 333, 112, 364
-0.992611, 57, 241, 88, 368
-0.992614, 161, 277, 224, 308
-0.992616, 285, 285, 316, 316
-0.992632, 49, 317, 112, 348
-0.992633, 161, 321, 224, 352
-0.992648, 161, 169, 192, 232
-0.992651, 209, 89, 336, 152
-0.992655, 217, 97, 280, 160
-0.992658, 153, 165, 216, 196
-0.992667, 105, 169, 168, 232
-0.992671, 73, 393, 136, 424
-0.992675, 137, 309, 200, 340
-0.992679, 281, 305, 344, 336
-0.992679, 249, 469, 312, 500
-0.992692, 65, 349, 128, 380
-0.992698, 249, 213, 312, 244
-0.9927, 297, 237, 360, 268
-0.992719, 65, 441, 128, 472
-0.992719, 97, 265, 160, 296
-0.99272, 281, 333, 344, 364
-0.992726, 181, 305, 212, 432
-0.992728, 81, 233, 144, 264
-0.992728, 265, 1, 328, 256
-0.992728, 169, 193, 232, 224
-0.992758, 137, 241, 168, 304
-0.992759, 217, 181, 280, 212
-0.99276, 145, 445, 208, 476
-0.99276, 265, 373, 328, 404
-0.992763, 201, 157, 264, 188
-0.992765, 201, 245, 264, 276
-0.99277, 97, 297, 352, 360
-0.992771, 65, 425, 128, 456
-0.992776, 277, 229, 308, 260
-0.992784, 137, 185, 200, 216
-0.992789, 217, 197, 248, 228
-0.992794, 169, 333, 232, 364
-0.992795, 241, 189, 304, 220
-0.992803, 153, 313, 184, 376
-0.992804, 25, 317, 88, 348
-0.992809, 49, 225, 112, 256
-0.992812, 137, 457, 200, 488
-0.992813, 53, 273, 84, 336
-0.992819, 105, 233, 168, 264
-0.992823, 217, 269, 248, 300
-0.992825, 233, 389, 296, 420
-0.992851, 129, 261, 192, 292
-0.992865, 237, 177, 268, 240
-0.992868, 89, 129, 152, 256
-0.992877, 169, 465, 232, 496
-0.992885, 137, 1, 200, 32
-0.992898, 289, 221, 352, 252
-0.992902, 293, 273, 324, 304
-0.992913, 145, 197, 208, 228
-0.992917, 285, 249, 316, 280
-0.992927, 129, 353, 192, 416
-0.99293, 261, 217, 292, 248
-0.99294, 73, 269, 136, 300
-0.99294, 153, 141, 216, 172
-0.992941, 105, 253, 168, 284
-0.992949, 97, 209, 352, 272
-0.992951, 193, 221, 224, 252
-0.992954, 129, 105, 256, 168
-0.992974, 269, 297, 300, 328
-0.992982, 1, 273, 128, 336
-0.992983, 105, 209, 168, 240
-0.992985, 93, 209, 124, 272
-0.992992, 201, 289, 264, 320
-0.992994, 57, 369, 120, 400
-0.992995, 281, 117, 344, 148
-0.992995, 141, 257, 172, 384
-0.992998, 281, 345, 344, 376
-0.993, 257, 117, 320, 148
-0.993002, 185, 313, 248, 344
-0.99301, 225, 401, 288, 432
-0.993017, 65, 121, 192, 184
-0.993017, 205, 245, 236, 276
-0.993018, 41, 273, 104, 304
-0.993023, 225, 373, 288, 404
-0.993027, 209, 261, 272, 292
-0.993031, 185, 73, 248, 104
-0.993033, 241, 313, 368, 376
-0.993036, 113, 77, 176, 108
-0.99306, 161, 309, 224, 340
-0.993062, 25, 341, 88, 372
-0.993079, 93, 193, 124, 320
-0.993081, 129, 353, 192, 384
-0.993085, 285, 353, 316, 384
-0.993085, 249, 457, 312, 488
-0.99309, 145, 433, 208, 464
-0.993092, 129, 257, 160, 384
-0.993093, 209, 453, 272, 484
-0.993099, 213, 257, 244, 288
-0.993104, 241, 417, 304, 448
-0.993108, 273, 209, 336, 240
-0.993111, 65, 413, 128, 444
-0.993116, 129, 149, 192, 180
-0.993123, 237, 209, 268, 240
-0.993125, 305, 361, 336, 392
-0.993127, 169, 33, 232, 288
-0.993129, 209, 213, 240, 244
-0.993131, 281, 169, 344, 200
-0.993137, 181, 225, 212, 256
-0.99315, 313, 105, 375, 136
-0.993151, 33, 381, 96, 412
-0.993152, 345, 389, 375, 420
-0.993154, 313, 117, 375, 148
-0.993156, 97, 277, 160, 308
-0.993157, 113, 221, 176, 252
-0.993159, 217, 129, 280, 160
-0.993161, 137, 469, 200, 500
-0.993164, 249, 213, 280, 244
-0.993168, 321, 369, 352, 400
-0.993169, 25, 233, 88, 264
-0.993169, 113, 449, 176, 480
-0.993171, 57, 305, 120, 336
-0.993172, 161, 93, 224, 124
-0.993183, 177, 161, 208, 288
-0.993183, 209, 17, 336, 144
-0.993192, 241, 361, 304, 392
-0.993204, 209, 469, 272, 500
-0.993205, 177, 153, 240, 184
-0.993208, 189, 165, 220, 196
-0.993211, 217, 185, 248, 216
-0.993219, 189, 269, 220, 300
-0.993221, 289, 237, 320, 268
-0.993229, 333, 377, 364, 408
-0.993233, 185, 17, 248, 80
-0.993237, 69, 229, 100, 260
-0.993244, 165, 229, 196, 260
-0.993247, 201, 165, 232, 196
-0.993254, 289, 341, 320, 372
-0.993256, 221, 281, 252, 312
-0.993269, 269, 325, 300, 356
-0.993274, 65, 1, 128, 128
-0.993276, 289, 309, 320, 340
-0.993284, 345, 113, 375, 176
-0.993288, 201, 265, 232, 296
-0.993289, 205, 281, 236, 312
-0.993289, 97, 321, 352, 384
-0.993294, 273, 377, 304, 408
-0.993297, 285, 261, 316, 292
-0.993316, 305, 261, 336, 292
-0.993338, 181, 253, 212, 284
-0.993345, 141, 273, 172, 304
-0.993355, 269, 313, 300, 344
-0.993361, 181, 209, 212, 240
-0.993364, 113, 1, 176, 256
-0.993366, 181, 85, 212, 116
-0.993369, 73, 65, 136, 128
-0.99337, 49, 277, 80, 308
-0.993373, 169, 453, 200, 484
-0.993376, 173, 321, 204, 352
-0.993376, 289, 1, 352, 256
-0.99338, 209, 293, 240, 324
-0.993383, 229, 197, 260, 228
-0.993384, 201, 153, 232, 184
-0.993389, 217, 225, 248, 256
-0.993395, 41, 145, 104, 272
-0.993396, 177, 469, 208, 500
-0.993399, 269, 389, 300, 420
-0.993408, 89, 245, 120, 276
-0.993408, 137, 73, 168, 104
-0.99341, 169, 1, 200, 128
-0.993411, 229, 237, 260, 268
-0.993418, 201, 233, 232, 264
-0.993422, 277, 365, 308, 396
-0.993428, 17, 137, 144, 200
-0.993433, 141, 161, 172, 192
-0.993436, 289, 329, 320, 360
-0.993438, 77, 209, 108, 240
-0.993438, 265, 229, 296, 260
-0.993439, 273, 277, 304, 308
-0.99344, 149, 241, 180, 272
-0.993441, 89, 261, 120, 292
-0.993445, 273, 217, 304, 248
-0.993452, 181, 241, 212, 272
-0.993458, 257, 397, 288, 428
-0.993466, 157, 189, 188, 220
-0.993468, 125, 233, 156, 296
-0.99347, 1, 209, 375, 272
-0.993472, 137, 193, 168, 320
-0.993473, 217, 245, 248, 276
-0.993473, 181, 153, 212, 184
-0.993478, 193, 121, 320, 184
-0.99348, 169, 81, 200, 112
-0.99348, 161, 261, 192, 292
-0.993481, 333, 97, 364, 224
-0.993484, 273, 341, 304, 372
-0.993485, 229, 269, 260, 300
-0.993485, 249, 225, 280, 256
-0.993485, 61, 317, 92, 348
-0.993486, 225, 257, 256, 288
-0.993487, 161, 157, 192, 188
-0.993487, 241, 393, 272, 424
-0.993489, 265, 369, 296, 496
-0.993499, 249, 197, 280, 228
-0.993499, 69, 241, 100, 272
-0.993506, 169, 245, 200, 276
-0.993507, 161, 69, 192, 100
-0.993508, 161, 325, 192, 356
-0.993513, 197, 209, 228, 240
-0.993513, 153, 341, 184, 372
-0.993515, 165, 441, 196, 472
-0.993515, 169, 305, 200, 336
-0.993517, 141, 149, 172, 180
-0.993523, 137, 65, 168, 192
-0.993525, 169, 217, 200, 248
-0.993533, 225, 209, 256, 240
-0.993534, 129, 237, 160, 268
-0.993537, 89, 213, 120, 244
-0.993538, 305, 249, 336, 280
-0.99354, 65, 217, 96, 248
-0.993545, 153, 225, 184, 256
-0.993545, 185, 317, 216, 348
-0.993548, 57, 229, 88, 260
-0.993552, 257, 385, 288, 416
-0.993554, 77, 257, 108, 288
-0.993556, 185, 369, 248, 496
-0.99356, 149, 69, 180, 100
-0.993563, 1, 257, 375, 320
-0.993564, 205, 181, 236, 212
-0.993566, 53, 289, 84, 320
-0.993571, 129, 261, 160, 292
-0.993576, 129, 277, 160, 308
-0.993577, 281, 297, 312, 328
-0.993578, 237, 469, 268, 500
-0.993579, 153, 445, 184, 476
-0.993581, 273, 353, 304, 384
-0.993593, 229, 225, 260, 256
-0.993595, 113, 229, 144, 260
-0.993596, 301, 229, 332, 260
-0.9936, 61, 337, 92, 368
-0.993601, 205, 185, 236, 248
-0.993602, 57, 305, 88, 432
-0.993608, 173, 265, 204, 296
-0.993611, 285, 381, 316, 412
-0.993616, 49, 265, 80, 296
-0.993617, 49, 317, 80, 348
-0.99362, 305, 273, 336, 304
-0.993621, 45, 305, 76, 336
-0.993626, 113, 269, 144, 300
-0.993628, 197, 197, 228, 228
-0.993629, 169, 201, 200, 232
-0.99363, 157, 129, 188, 256
-0.99363, 93, 225, 124, 256
-0.99363, 141, 445, 172, 476
-0.993631, 173, 341, 204, 372
-0.993632, 249, 373, 280, 404
-0.993632, 165, 277, 196, 308
-0.993632, 141, 225, 172, 256
-0.993634, 153, 145, 184, 176
-0.993634, 157, 313, 188, 344
-0.993634, 81, 233, 112, 264
-0.993635, 233, 457, 264, 488
-0.99368, 1, 161, 64, 416
-0.993691, 41, 17, 104, 144
-0.993691, 257, 33, 320, 160
-0.993705, 177, 57, 208, 120
-0.993785, 157, 193, 188, 256
-0.993789, 141, 145, 172, 208
-0.993808, 145, 201, 176, 264
-0.993815, 289, 137, 352, 200
-0.993851, 1, 145, 64, 208
-0.993878, 81, 193, 112, 320
-0.993891, 101, 273, 132, 336
-0.993921, 117, 257, 148, 384
-0.993927, 9, 1, 72, 128
-0.993938, 129, 433, 192, 496
-0.993944, 177, 89, 240, 152
-0.993957, 1, 313, 375, 376
-0.993987, 65, 161, 128, 224
-0.994014, 157, 73, 188, 136
-0.994053, 53, 241, 84, 304
-0.994055, 177, 113, 240, 176
-0.99408, 305, 241, 368, 304
-0.994158, 17, 65, 144, 128
-0.994164, 297, 233, 312, 296
-0.994177, 237, 241, 268, 368
-0.994198, 97, 49, 160, 112
-0.994216, 121, 377, 184, 440
-0.994222, 157, 1, 188, 128
-0.994229, 153, 49, 184, 112
-0.994274, 1, 313, 256, 376
-0.994304, 329, 113, 360, 176
-0.994314, 193, 369, 320, 432
-0.994318, 197, 289, 228, 416
-0.994353, 189, 313, 220, 376
-0.99443, 165, 49, 196, 112
-0.994438, 113, 225, 144, 288
-0.994454, 293, 161, 324, 288
-0.994457, 153, 49, 184, 176
-0.994461, 89, 305, 152, 432
-0.994469, 149, 225, 180, 288
-0.994484, 193, 425, 320, 488
-0.994493, 121, 209, 152, 336
-0.994559, 289, 73, 352, 136
-0.99456, 321, 97, 352, 224
-0.99456, 281, 201, 312, 264
-0.994565, 1, 433, 128, 496
-0.994587, 9, 257, 72, 320
-0.994593, 181, 145, 212, 208
-0.994606, 33, 185, 288, 248
-0.994629, 89, 257, 120, 320
-0.994636, 1, 129, 64, 256
-0.994643, 345, 97, 375, 224
-0.994672, 293, 209, 324, 336
-0.994673, 241, 33, 368, 96
-0.994682, 161, 73, 288, 136
-0.994687, 129, 369, 375, 432
-0.994711, 209, 265, 336, 296
-0.994715, 257, 161, 288, 288
-0.99472, 49, 305, 80, 368
-0.99473, 265, 25, 328, 88
-0.994733, 137, 145, 168, 272
-0.994745, 177, 81, 208, 208
-0.994755, 1, 209, 256, 272
-0.994759, 169, 273, 200, 336
-0.994782, 249, 417, 280, 480
-0.994822, 105, 121, 168, 184
-0.994834, 177, 433, 240, 496
-0.994847, 265, 385, 296, 448
-0.994856, 1, 273, 256, 336
-0.994875, 185, 289, 216, 352
-0.994905, 209, 237, 336, 268
-0.994905, 221, 225, 252, 288
-0.994926, 1, 33, 64, 288
-0.994937, 177, 17, 304, 80
-0.994951, 1, 337, 256, 400
-0.994965, 313, 137, 375, 200
-0.994979, 1, 289, 375, 352
-0.995008, 269, 329, 300, 392
-0.995014, 225, 289, 288, 416
-0.995058, 201, 257, 232, 320
-0.995072, 153, 145, 184, 208
-0.995094, 217, 289, 280, 352
-0.995103, 145, 1, 176, 128
-0.995153, 69, 337, 100, 400
-0.995165, 189, 169, 220, 232
-0.995207, 237, 113, 268, 240
-0.99523, 93, 233, 124, 296
-0.995232, 17, 297, 144, 360
-0.995237, 289, 273, 304, 336
-0.995249, 177, 213, 304, 244
-0.995255, 81, 337, 144, 400
-0.995265, 101, 385, 132, 448
-0.995295, 117, 65, 148, 192
-0.995325, 193, 277, 320, 308
-0.99534, 85, 297, 116, 360
-0.995372, 129, 129, 192, 192
-0.995397, 9, 225, 72, 288
-0.995402, 33, 377, 288, 440
-0.995416, 81, 337, 112, 400
-0.995416, 285, 113, 316, 240
-0.995433, 229, 369, 260, 496
-0.995434, 313, 345, 375, 408
-0.995435, 313, 97, 344, 160
-0.995451, 157, 337, 188, 464
-0.995456, 305, 257, 368, 500
-0.995469, 193, 293, 320, 324
-0.995507, 73, 233, 104, 296
-0.995508, 249, 81, 312, 144
-0.995511, 305, 193, 368, 320
-0.995538, 265, 113, 296, 240
-0.995543, 193, 41, 320, 104
-0.995551, 217, 161, 248, 224
-0.99556, 193, 225, 320, 256
-0.995561, 217, 1, 280, 64
-0.995572, 217, 49, 280, 176
-0.995577, 89, 241, 120, 368
-0.995584, 81, 1, 208, 64
-0.995634, 97, 89, 352, 152
-0.995645, 65, 129, 128, 384
-0.995656, 305, 225, 336, 288
-0.995658, 129, 261, 256, 292
-0.995659, 209, 249, 336, 280
-0.995669, 1, 1, 64, 500
-0.9957, 65, 97, 192, 160
-0.995737, 161, 425, 192, 488
-0.995769, 165, 49, 196, 176
-0.995789, 233, 385, 264, 448
-0.99579, 161, 377, 224, 440
-0.995835, 129, 185, 375, 248
-0.995848, 25, 65, 88, 320
-0.995858, 193, 49, 256, 112
-0.995863, 1, 401, 256, 464
-0.995876, 41, 161, 104, 224
-0.995879, 185, 409, 248, 472
-0.995884, 49, 41, 176, 104
-0.995897, 189, 81, 220, 208
-0.995897, 209, 289, 240, 416
-0.995911, 225, 33, 288, 96
-0.995929, 145, 321, 176, 448
-0.995947, 305, 193, 336, 320
-0.995947, 337, 321, 368, 448
-0.995976, 193, 89, 224, 152
-0.995989, 241, 65, 368, 128
-0.996017, 165, 297, 196, 360
-0.996019, 193, 313, 256, 376
-0.99602, 227, 257, 242, 320
-0.996044, 1, 361, 375, 424
-0.99606, 299, 265, 314, 328
-0.996063, 249, 361, 280, 424
-0.996071, 65, 161, 320, 224
-0.996083, 283, 305, 298, 368
-0.996085, 69, 225, 100, 352
-0.996127, 89, 185, 120, 248
-0.996138, 283, 217, 298, 280
-0.996161, 291, 225, 306, 288
-0.996162, 181, 81, 212, 144
-0.996162, 301, 97, 332, 160
-0.996218, 141, 41, 172, 104
-0.996224, 113, 97, 176, 352
-0.996228, 249, 321, 280, 448
-0.996228, 277, 353, 308, 480
-0.996242, 1, 113, 128, 176
-0.99625, 101, 257, 132, 384
-0.99625, 227, 185, 242, 248
-0.996257, 161, 201, 288, 232
-0.996266, 329, 89, 360, 152
-0.996266, 193, 33, 256, 288
-0.996266, 129, 425, 375, 488
-0.996276, 129, 225, 256, 256
-0.996326, 129, 129, 375, 192
-0.996331, 181, 17, 212, 144
-0.996343, 287, 249, 302, 312
-0.996378, 313, 305, 344, 432
-0.996402, 1, 233, 256, 296
-0.996417, 337, 361, 368, 424
-0.996421, 37, 281, 68, 344
-0.996425, 1, 177, 375, 240
-0.996466, 283, 281, 298, 344
-0.99647, 89, 337, 120, 464
-0.996513, 167, 313, 182, 376
-0.996536, 133, 17, 164, 144
-0.996573, 241, 369, 368, 400
-0.996574, 121, 41, 152, 104
-0.996576, 129, 249, 256, 280
-0.996583, 129, 273, 256, 304
-0.996599, 193, 305, 320, 336
-0.99661, 289, 369, 320, 432
-0.996612, 97, 25, 224, 88
-0.99662, 125, 265, 156, 328
-0.996621, 313, 145, 375, 272
-0.996649, 133, 201, 164, 264
-0.996655, 303, 241, 318, 304
-0.996666, 61, 217, 92, 280
-0.996678, 201, 1, 264, 500
-0.996688, 289, 345, 304, 408
-0.996692, 89, 289, 120, 416
-0.996701, 149, 433, 180, 496
-0.996703, 113, 273, 144, 336
-0.996725, 1, 433, 256, 496
-0.996728, 265, 209, 280, 272
-0.996733, 129, 401, 375, 464
-0.996739, 81, 233, 208, 264
-0.996767, 241, 381, 368, 412
-0.996778, 69, 417, 100, 480
-0.99682, 37, 241, 68, 368
-0.996823, 255, 209, 270, 272
-0.996835, 105, 193, 136, 256
-0.996836, 221, 185, 236, 248
-0.996846, 283, 345, 298, 408
-0.996852, 233, 433, 264, 496
-0.996863, 301, 273, 332, 400
-0.996871, 321, 337, 352, 400
-0.996883, 345, 89, 375, 152
-0.996892, 81, 345, 208, 376
-0.996912, 211, 233, 226, 296
-0.996919, 49, 273, 176, 304
-0.996952, 285, 225, 316, 480
-0.996976, 113, 393, 144, 456
-0.996983, 209, 209, 224, 272
-0.997003, 65, 33, 128, 288
-0.997012, 49, 393, 176, 424
-0.997014, 239, 201, 254, 264
-0.997015, 65, 221, 192, 252
-0.99704, 211, 281, 226, 344
-0.997041, 209, 357, 336, 388
-0.997045, 221, 65, 252, 192
-0.997061, 81, 209, 208, 240
-0.997062, 177, 317, 304, 348
-0.997063, 153, 289, 184, 352
-0.997087, 273, 217, 288, 280
-0.997096, 65, 281, 96, 344
-0.997101, 69, 385, 100, 448
-0.997107, 309, 33, 340, 160
-0.997146, 1, 73, 256, 136
-0.997178, 49, 361, 176, 392
-0.997193, 101, 65, 132, 192
-0.997196, 125, 65, 156, 128
-0.997212, 145, 237, 272, 268
-0.997226, 269, 193, 300, 448
-0.997235, 249, 201, 264, 264
-0.99724, 261, 361, 292, 424
-0.997244, 145, 189, 272, 220
-0.997248, 233, 265, 248, 328
-0.997277, 289, 321, 304, 384
-0.997282, 113, 337, 144, 464
-0.997284, 65, 369, 96, 496
-0.997296, 233, 201, 248, 264
-0.9973, 77, 257, 108, 320
-0.997312, 81, 145, 112, 272
-0.997312, 149, 193, 180, 320
-0.997314, 161, 297, 176, 360
-0.997318, 357, 385, 372, 448
-0.997328, 241, 9, 368, 72
-0.997329, 329, 33, 360, 160
-0.99733, 33, 345, 160, 376
-0.997334, 219, 209, 234, 272
-0.997365, 161, 465, 288, 496
-0.997365, 157, 265, 172, 328
-0.997365, 299, 345, 314, 408
-0.997366, 305, 329, 336, 392
-0.997376, 223, 233, 238, 296
-0.997381, 89, 377, 120, 440
-0.997391, 193, 329, 320, 360
-0.997393, 261, 321, 292, 448
-0.997393, 267, 185, 282, 248
-0.997396, 49, 381, 176, 412
-0.9974, 165, 361, 196, 424
-0.997408, 175, 321, 190, 384
-0.99742, 57, 193, 88, 320
-0.997422, 145, 445, 272, 476
-0.997431, 33, 161, 96, 416
-0.997434, 1, 1, 128, 64
-0.997436, 241, 461, 368, 492
-0.997436, 259, 185, 274, 248
-0.997461, 225, 197, 352, 228
-0.99747, 65, 405, 192, 436
-0.997472, 1, 153, 375, 216
-0.997475, 1, 393, 375, 456
-0.997481, 49, 441, 176, 472
-0.997507, 345, 377, 360, 440
-0.997515, 349, 113, 364, 176
-0.997515, 201, 129, 232, 192
-0.997527, 271, 369, 286, 432
-0.997543, 105, 17, 136, 144
-0.997551, 113, 249, 144, 312
-0.997572, 17, 221, 144, 252
-0.997578, 1, 41, 128, 104
-0.997591, 129, 49, 375, 112
-0.997592, 113, 81, 240, 112
-0.997593, 59, 241, 74, 304
-0.997596, 173, 297, 188, 360
-0.997598, 33, 329, 160, 360
-0.997598, 93, 337, 124, 400
-0.997605, 79, 201, 94, 264
-0.997606, 65, 305, 80, 368
-0.99762, 193, 345, 320, 376
-0.997651, 197, 225, 212, 288
-0.997657, 241, 137, 368, 200
-0.997659, 203, 257, 218, 320
-0.997662, 153, 145, 168, 208
-0.99767, 69, 209, 84, 272
-0.997675, 145, 289, 272, 320
-0.997678, 203, 209, 218, 272
-0.997684, 81, 245, 208, 276
-0.99769, 205, 281, 220, 344
-0.997692, 337, 369, 352, 432
-0.997704, 305, 353, 320, 416
-0.997709, 103, 257, 118, 320
-0.99771, 17, 261, 144, 292
-0.997716, 53, 353, 84, 480
-0.997727, 343, 113, 358, 176
-0.997743, 289, 285, 304, 316
-0.997746, 81, 49, 112, 176
-0.997763, 189, 217, 204, 280
-0.997764, 235, 241, 250, 304
-0.997776, 135, 233, 150, 296
-0.997805, 325, 361, 340, 424
-0.997807, 73, 361, 104, 424
-0.997809, 167, 249, 182, 312
-0.997809, 177, 249, 208, 312
-0.997818, 41, 65, 104, 192
-0.997825, 229, 225, 244, 288
-0.997827, 81, 157, 208, 188
-0.99783, 91, 209, 106, 272
-0.997833, 295, 233, 310, 264
-0.99784, 313, 353, 328, 416
-0.997856, 145, 337, 272, 368
-0.997862, 241, 221, 368, 252
-0.997865, 281, 297, 296, 328
-0.99787, 59, 305, 74, 368
-0.997883, 173, 73, 188, 136
-0.997889, 1, 113, 256, 176
-0.997891, 161, 173, 288, 204
-0.997892, 155, 65, 170, 128
-0.997911, 97, 449, 224, 480
-0.997912, 253, 97, 284, 224
-0.997913, 145, 393, 272, 424
-0.997914, 221, 161, 236, 224
-0.997915, 165, 225, 180, 288
-0.997919, 199, 57, 214, 120
-0.99792, 97, 285, 224, 316
-0.997922, 355, 113, 370, 176
-0.997923, 229, 265, 244, 296
-0.997925, 175, 209, 190, 272
-0.997934, 181, 313, 196, 376
-0.997936, 281, 81, 312, 144
-0.997938, 193, 33, 224, 160
-0.997939, 277, 281, 292, 344
-0.997944, 281, 177, 312, 240
-0.997944, 81, 197, 208, 228
-0.997949, 209, 1, 272, 128
-0.997955, 1, 137, 32, 200
-0.997958, 289, 229, 304, 260
-0.997959, 209, 173, 336, 204
-0.997962, 265, 385, 280, 448
-0.997963, 215, 185, 230, 248
-0.997967, 237, 409, 268, 472
-0.997979, 141, 233, 156, 296
-0.997985, 361, 113, 375, 176
-0.99799, 101, 369, 132, 496
-0.997995, 197, 145, 212, 208
-0.997997, 293, 201, 308, 264
-0.997999, 241, 449, 368, 480
-0.997999, 65, 225, 96, 480
-0.998, 181, 433, 196, 496
-0.998002, 217, 233, 232, 296
-0.998007, 81, 257, 208, 288
-0.998008, 17, 209, 144, 240
-0.998013, 351, 377, 366, 440
-0.998021, 177, 161, 304, 192
-0.998029, 1, 89, 375, 152
-0.998041, 149, 65, 164, 128
-0.998047, 293, 273, 308, 304
-0.998051, 117, 17, 148, 144
-0.99806, 45, 329, 76, 392
-0.998062, 141, 65, 156, 128
-0.998063, 1, 357, 128, 388
-0.998063, 205, 161, 236, 416
-0.998081, 69, 177, 100, 304
-0.998091, 97, 301, 224, 332
-0.998094, 93, 145, 124, 272
-0.998095, 331, 361, 346, 424
-0.998098, 17, 249, 144, 280
-0.998101, 85, 217, 100, 280
-0.998103, 239, 177, 254, 240
-0.998107, 65, 281, 80, 344
-0.99811, 97, 433, 224, 464
-0.998113, 71, 305, 86, 368
-0.998125, 153, 233, 168, 296
-0.998127, 283, 321, 298, 352
-0.998133, 59, 265, 74, 328
-0.998134, 129, 1, 256, 64
-0.998134, 159, 153, 174, 216
-0.998138, 123, 49, 138, 112
-0.998142, 227, 189, 242, 220
-0.998144, 305, 265, 320, 328
-0.998145, 1, 373, 128, 404
-0.998146, 217, 281, 232, 344
-0.998147, 267, 217, 282, 248
-0.998147, 187, 313, 202, 376
-0.998155, 241, 277, 368, 308
-0.998155, 359, 89, 374, 152
-0.998155, 183, 217, 198, 280
-0.99816, 1, 129, 375, 192
-0.998161, 49, 429, 176, 460
-0.998162, 53, 289, 68, 352
-0.998166, 1, 137, 256, 200
-0.998168, 65, 77, 192, 108
-0.998185, 275, 185, 290, 248
-0.99819, 167, 49, 182, 112
-0.998192, 1, 129, 32, 256
-0.998207, 319, 89, 334, 152
-0.998211, 183, 57, 198, 120
-0.998213, 147, 233, 162, 296
-0.998222, 97, 297, 112, 360
-0.998225, 113, 169, 240, 200
-0.998228, 203, 233, 218, 296
-0.99823, 281, 185, 296, 248
-0.998235, 319, 353, 334, 416
-0.998238, 17, 89, 144, 152
-0.99824, 157, 193, 172, 256
-0.998246, 245, 433, 260, 496
-0.998247, 33, 233, 160, 264
-0.998249, 221, 245, 236, 276
-0.998249, 91, 185, 106, 248
-0.99825, 169, 369, 200, 496
-0.998254, 225, 413, 352, 444
-0.998256, 191, 1, 206, 64
-0.998257, 281, 129, 312, 384
-0.998261, 299, 277, 314, 308
-0.998262, 237, 195, 268, 210
-0.998263, 181, 485, 212, 500
-0.998264, 73, 245, 104, 260
-0.998264, 237, 481, 268, 496
-0.998265, 61, 239, 92, 254
-0.998266, 135, 65, 150, 128
-0.998267, 301, 237, 332, 252
-0.998268, 205, 285, 236, 300
-0.998268, 305, 273, 336, 288
-0.998269, 189, 171, 220, 186
-0.998269, 145, 405, 272, 436
-0.998269, 89, 261, 120, 276
-0.998269, 109, 277, 140, 292
-0.99827, 185, 319, 216, 334
-0.998271, 335, 113, 350, 176
-0.998271, 1, 177, 64, 304
-0.998271, 121, 235, 152, 250
-0.998271, 289, 335, 320, 350
-0.998272, 301, 245, 332, 260
-0.998272, 173, 223, 204, 238
-0.998273, 225, 127, 256, 142
-0.998274, 281, 225, 312, 240
-0.998274, 153, 41, 168, 104
-0.998274, 289, 321, 320, 336
-0.998275, 177, 479, 208, 494
-0.998276, 77, 215, 108, 230
-0.998276, 73, 255, 104, 270
-0.998277, 201, 157, 232, 172
-0.998278, 165, 81, 196, 96
-0.998278, 177, 471, 208, 486
-0.998278, 165, 203, 196, 218
-0.998279, 269, 343, 300, 358
-0.99828, 221, 257, 236, 320
-0.99828, 161, 183, 192, 198
-0.998281, 181, 225, 212, 480
-0.998282, 229, 201, 260, 216
-0.998282, 253, 227, 284, 242
-0.998283, 171, 1, 186, 64
-0.998284, 57, 317, 88, 332
-0.998285, 281, 349, 312, 364
-0.998286, 157, 341, 188, 356
-0.998286, 217, 185, 248, 200
-0.998286, 153, 239, 184, 254
-0.998286, 33, 317, 160, 348
-0.998286, 189, 273, 220, 288
-0.998287, 169, 315, 200, 330
-0.998287, 65, 223, 96, 238
-0.998288, 205, 293, 236, 308
-0.998288, 57, 233, 88, 248
-0.998288, 257, 399, 288, 414
-0.998289, 289, 315, 320, 330
-0.99829, 221, 243, 252, 258
-0.998291, 237, 281, 268, 296
-0.998291, 273, 337, 304, 352
-0.998291, 253, 387, 284, 402
-0.998292, 93, 271, 124, 286
-0.998292, 289, 329, 320, 344
-0.998293, 203, 169, 218, 232
-0.998293, 145, 161, 176, 176
-0.998293, 305, 253, 336, 268
-0.998293, 197, 261, 228, 276
-0.998293, 269, 309, 300, 324
-0.998294, 173, 321, 204, 336
-0.998295, 153, 153, 184, 168
-0.998295, 113, 201, 128, 264
-0.998296, 185, 217, 216, 232
-0.998296, 89, 251, 120, 266
-0.998296, 233, 269, 264, 284
-0.998296, 177, 85, 208, 100
-0.998297, 257, 393, 288, 408
-0.998298, 305, 261, 336, 276
-0.998298, 229, 275, 260, 290
-0.998298, 49, 417, 176, 448
-0.998298, 209, 257, 224, 320
-0.998299, 281, 279, 312, 294
-0.998299, 199, 289, 214, 352
-0.998299, 145, 305, 272, 336
-0.998301, 73, 231, 104, 246
-0.998303, 209, 223, 240, 238
-0.998303, 197, 241, 228, 256
-0.998304, 269, 319, 300, 334
-0.998304, 305, 267, 336, 282
-0.998304, 225, 185, 352, 216
-0.998304, 81, 333, 208, 364
-0.998305, 161, 65, 176, 128
-0.998305, 217, 211, 248, 226
-0.998307, 53, 281, 84, 296
-0.998307, 215, 257, 230, 320
-0.998308, 201, 313, 216, 376
-0.99831, 73, 209, 104, 224
-0.998311, 49, 453, 176, 484
-0.998311, 289, 341, 320, 356
-0.998312, 217, 161, 248, 416
-0.998313, 241, 395, 272, 410
-0.998313, 289, 263, 320, 278
-0.998314, 329, 381, 360, 396
-0.998314, 161, 159, 192, 174
-0.998314, 269, 287, 300, 302
-0.998316, 337, 387, 368, 402
-0.998316, 289, 257, 320, 272
-0.998317, 201, 169, 232, 184
-0.998317, 201, 267, 232, 282
-0.998318, 289, 309, 320, 324
-0.998318, 185, 265, 216, 280
-0.998319, 67, 233, 82, 296
-0.99832, 205, 273, 236, 288
-0.998321, 273, 379, 304, 394
-0.998323, 185, 225, 216, 240
-0.998323, 181, 259, 212, 274
-0.998325, 217, 285, 248, 300
-0.998326, 249, 217, 280, 232
-0.998326, 193, 305, 208, 368
-0.998329, 325, 113, 340, 176
-0.998329, 205, 279, 236, 294
-0.998331, 269, 297, 300, 312
-0.998331, 165, 235, 196, 250
-0.998331, 175, 425, 190, 488
-0.998332, 213, 253, 244, 268
-0.998332, 269, 391, 300, 406
-0.998333, 109, 273, 124, 336
-0.998334, 273, 325, 304, 340
-0.998334, 321, 375, 352, 390
-0.998334, 97, 209, 112, 272
-0.998335, 73, 237, 104, 252
-0.998336, 259, 393, 274, 456
-0.998336, 221, 185, 236, 216
-0.998336, 141, 277, 172, 292
-0.998337, 273, 331, 304, 346
-0.998337, 107, 217, 122, 280
-0.998338, 207, 217, 222, 248
-0.998339, 139, 273, 154, 336
-0.998339, 269, 385, 300, 400
-0.99834, 299, 245, 314, 276
-0.99834, 313, 369, 344, 384
-0.99834, 141, 153, 172, 168
-0.998343, 305, 363, 336, 378
-0.998343, 293, 271, 324, 286
-0.998344, 209, 125, 336, 156
-0.998344, 241, 211, 272, 226
-0.998352, 283, 225, 298, 256
-0.998352, 285, 355, 316, 370
-0.998352, 153, 149, 168, 180
-0.998353, 213, 261, 244, 276
-0.998353, 145, 417, 272, 448
-0.998353, 181, 165, 212, 180
-0.998355, 1, 421, 128, 452
-0.998359, 177, 231, 208, 246
-0.99836, 345, 395, 375, 410
-0.998367, 211, 285, 226, 316
-0.998369, 213, 267, 244, 282
-0.998373, 201, 221, 216, 252
-0.998375, 275, 221, 290, 252
-0.99838, 217, 191, 248, 206
-0.99838, 281, 237, 312, 252
-0.998383, 145, 433, 272, 464
-0.998383, 293, 277, 324, 292
-0.998383, 197, 163, 228, 178
-0.998384, 1, 385, 128, 416
-0.998384, 185, 129, 216, 384
-0.998386, 209, 217, 240, 232
-0.998388, 229, 207, 260, 222
-0.99839, 269, 303, 300, 318
-0.998393, 289, 285, 320, 300
-0.998393, 217, 279, 248, 294
-0.998394, 145, 365, 272, 396
-0.998401, 261, 219, 292, 234
-0.998403, 129, 145, 256, 176
-0.998407, 33, 285, 160, 316
-0.998408, 205, 247, 236, 262
-0.998409, 285, 245, 316, 260
-0.998409, 217, 205, 248, 220
-0.99841, 197, 223, 228, 238
-0.998415, 281, 293, 312, 308
-0.998423, 79, 221, 94, 252
-0.998425, 217, 197, 248, 212
-0.998426, 113, 93, 240, 124
-0.99843, 277, 231, 308, 246
-0.998432, 129, 133, 256, 164
-0.998432, 285, 251, 316, 266
-0.998435, 299, 257, 314, 288
-0.998447, 291, 309, 306, 340
-0.998448, 269, 225, 300, 240
-0.998448, 217, 273, 248, 288
-0.99845, 241, 289, 368, 320
-0.99845, 201, 165, 216, 196
-0.998457, 257, 213, 272, 244
-0.998464, 341, 49, 372, 176
-0.998476, 253, 193, 284, 448
-0.998478, 357, 393, 372, 424
-0.998482, 81, 185, 208, 216
-0.998495, 293, 129, 324, 384
-0.998509, 291, 349, 306, 380
-0.998511, 297, 33, 328, 160
-0.998521, 229, 201, 244, 232
-0.99855, 249, 229, 312, 244
-0.998555, 89, 241, 104, 272
-0.998556, 227, 253, 242, 284
-0.998575, 1, 433, 128, 464
-0.998581, 177, 225, 240, 240
-0.998588, 293, 337, 308, 368
-0.998588, 1, 417, 375, 480
-0.99859, 209, 209, 272, 224
-0.998592, 69, 49, 100, 176
-0.998598, 129, 157, 256, 188
-0.998599, 193, 273, 256, 288
-0.998609, 245, 49, 276, 176
-0.998611, 317, 145, 348, 272
-0.998612, 257, 237, 320, 252
-0.998613, 153, 157, 216, 172
-0.998617, 191, 225, 206, 256
-0.998623, 289, 373, 352, 388
-0.998624, 153, 163, 216, 178
-0.998628, 297, 379, 360, 394
-0.998629, 257, 243, 320, 258
-0.99863, 193, 267, 256, 282
-0.998635, 283, 309, 298, 340
-0.998637, 233, 223, 296, 238
-0.998637, 177, 243, 240, 258
-0.998637, 273, 295, 336, 310
-0.998638, 217, 281, 232, 312
-0.998639, 97, 377, 224, 408
-0.99864, 235, 273, 250, 304
-0.99864, 351, 389, 366, 420
-0.998641, 193, 203, 256, 218
-0.998642, 225, 217, 288, 232
-0.998644, 161, 233, 224, 248
-0.998644, 177, 165, 240, 180
-0.998644, 161, 161, 192, 416
-0.998647, 261, 257, 292, 384
-0.998653, 193, 261, 256, 276
-0.998654, 201, 233, 264, 248
-0.998655, 217, 209, 232, 240
-0.998656, 281, 365, 344, 380
-0.998657, 281, 287, 344, 302
-0.998657, 193, 279, 256, 294
-0.998657, 229, 193, 260, 448
-0.998659, 241, 297, 304, 312
-0.998659, 257, 353, 320, 368
-0.99866, 289, 281, 352, 296
-0.99866, 283, 333, 298, 364
-0.998661, 273, 359, 336, 374
-0.998661, 265, 249, 328, 264
-0.998662, 283, 285, 298, 316
-0.998665, 209, 191, 272, 206
-0.998666, 129, 229, 192, 244
-0.998667, 153, 269, 216, 284
-0.998668, 281, 315, 344, 330
-0.998669, 249, 279, 312, 294
-0.998669, 179, 229, 194, 260
-0.99867, 225, 401, 352, 432
-0.99867, 159, 153, 174, 184
-0.998671, 235, 205, 250, 236
-0.998671, 297, 273, 360, 288
-0.998672, 281, 325, 344, 340
-0.998672, 129, 79, 192, 94
-0.998673, 77, 225, 108, 480
-0.998675, 129, 343, 192, 358
-0.998675, 233, 201, 296, 216
-0.998675, 249, 337, 312, 352
-0.998677, 313, 391, 375, 406
-0.998679, 217, 281, 280, 296
-0.998679, 249, 317, 312, 332
-0.998679, 257, 285, 320, 300
-0.998681, 121, 277, 184, 292
-0.998681, 265, 259, 328, 274
-0.998681, 69, 273, 100, 400
-0.998681, 249, 347, 312, 362
-0.998682, 341, 381, 356, 412
-0.998682, 65, 389, 128, 404
-0.998683, 297, 259, 360, 274
-0.998683, 257, 273, 320, 288
-0.998683, 201, 221, 264, 236
-0.998685, 105, 271, 168, 286
-0.998685, 185, 251, 248, 266
-0.998685, 177, 171, 240, 186
-0.998686, 297, 251, 360, 266
-0.998686, 153, 275, 216, 290
-0.998686, 281, 309, 344, 324
-0.998687, 217, 239, 280, 254
-0.998687, 169, 179, 232, 194
-0.998688, 65, 219, 128, 234
-0.998688, 331, 373, 346, 404
-0.998688, 297, 267, 360, 282
-0.998688, 129, 159, 192, 174
-0.998688, 137, 235, 200, 250
-0.998689, 305, 357, 320, 388
-0.99869, 81, 229, 144, 244
-0.998691, 297, 241, 360, 256
-0.998691, 217, 245, 280, 260
-0.998693, 233, 97, 264, 352
-0.998694, 257, 389, 320, 404
-0.998694, 33, 319, 96, 334
-0.998694, 249, 307, 312, 322
-0.998694, 193, 159, 256, 174
-0.998695, 249, 323, 312, 338
-0.998695, 265, 265, 328, 280
-0.998696, 153, 221, 216, 236
-0.998697, 257, 223, 320, 238
-0.998699, 289, 235, 352, 250
-0.9987, 169, 205, 232, 220
-0.998701, 49, 243, 112, 258
-0.998701, 305, 385, 368, 400
-0.998702, 33, 197, 160, 228
-0.998702, 65, 383, 128, 398
-0.998702, 65, 445, 128, 460
-0.998703, 153, 261, 216, 276
-0.998704, 153, 83, 216, 98
-0.998704, 129, 241, 192, 256
-0.998705, 319, 365, 334, 396
-0.998705, 249, 329, 312, 344
-0.998705, 85, 229, 100, 260
-0.998705, 281, 331, 344, 346
-0.998705, 193, 197, 256, 212
-0.998706, 249, 485, 312, 500
-0.998707, 137, 315, 200, 330
-0.998708, 49, 237, 112, 252
-0.998709, 81, 277, 144, 292
-0.998709, 239, 189, 254, 220
-0.998709, 169, 321, 184, 352
-0.998709, 145, 203, 208, 218
-0.99871, 177, 185, 240, 200
-0.998711, 223, 273, 238, 304
-0.998711, 201, 227, 264, 242
-0.998711, 177, 319, 240, 334
-0.998711, 65, 209, 128, 224
-0.998711, 145, 447, 208, 462
-0.998711, 49, 255, 112, 270
-0.998712, 97, 235, 160, 250
-0.998712, 281, 345, 344, 360
-0.998712, 217, 395, 280, 410
-0.998712, 73, 395, 136, 410
-0.998714, 137, 183, 200, 198
-0.998714, 113, 153, 176, 168
-0.998714, 57, 347, 120, 362
-0.998714, 161, 309, 224, 324
-0.998714, 217, 131, 280, 146
-0.998715, 65, 439, 128, 454
-0.998716, 145, 151, 208, 166
-0.998716, 153, 169, 216, 184
-0.998717, 169, 303, 232, 318
-0.998717, 129, 353, 192, 368
-0.998717, 265, 379, 328, 394
-0.998718, 105, 443, 168, 458
-0.998718, 49, 231, 112, 246
-0.998719, 49, 341, 112, 356
-0.998719, 161, 69, 288, 100
-0.99872, 311, 361, 326, 392
-0.998721, 185, 285, 248, 300
-0.998721, 41, 283, 104, 298
-0.998721, 217, 275, 280, 290
-0.998722, 217, 185, 280, 200
-0.998722, 185, 83, 248, 98
-0.998723, 289, 229, 352, 244
-0.998723, 49, 335, 112, 350
-0.998723, 169, 473, 232, 488
-0.998724, 281, 337, 344, 352
-0.998724, 57, 377, 120, 392
-0.998724, 201, 165, 264, 180
-0.998725, 225, 229, 288, 244
-0.998725, 97, 361, 224, 392
-0.998725, 41, 211, 104, 226
-0.998725, 41, 273, 104, 288
-0.998727, 251, 209, 266, 240
-0.998728, 281, 301, 344, 316
-0.998728, 177, 217, 240, 232
-0.998729, 305, 269, 320, 300
-0.998732, 129, 105, 256, 136
-0.998733, 101, 321, 132, 448
-0.998735, 271, 385, 286, 416
-0.998738, 241, 33, 304, 288
-0.998741, 209, 113, 336, 144
-0.998741, 145, 377, 272, 408
-0.998741, 305, 97, 336, 352
-0.998747, 211, 241, 226, 272
-0.998749, 69, 217, 84, 248
-0.99875, 325, 369, 340, 400
-0.998751, 221, 197, 236, 228
-0.998755, 201, 265, 216, 296
-0.998755, 269, 97, 300, 352
-0.998761, 195, 165, 210, 196
-0.998761, 1, 49, 256, 112
-0.998766, 185, 225, 200, 256
-0.998766, 129, 317, 256, 348
-0.998767, 93, 17, 124, 144
-0.998767, 95, 245, 110, 276
-0.99877, 227, 229, 242, 260
-0.998774, 261, 397, 276, 428
-0.998777, 165, 233, 180, 264
-0.998778, 205, 49, 236, 176
-0.998781, 113, 469, 240, 500
-0.998783, 295, 225, 310, 352
-0.998783, 297, 353, 312, 384
-0.998784, 205, 257, 236, 500
-0.998784, 285, 349, 300, 380
-0.998787, 129, 213, 256, 244
-0.998791, 65, 465, 192, 496
-0.998798, 241, 209, 368, 240
-0.998801, 17, 185, 144, 216
-0.998802, 289, 209, 304, 336
-0.998808, 155, 269, 170, 300
-0.99881, 173, 229, 188, 260
-0.998816, 245, 209, 260, 240
-0.99882, 181, 81, 196, 112
-0.998821, 175, 325, 190, 356
-0.998823, 145, 349, 272, 380
-0.998828, 241, 329, 368, 360
-0.99883, 291, 297, 306, 328
-0.99883, 65, 129, 192, 160
-0.998833, 287, 273, 302, 304
-0.99884, 49, 65, 176, 96
-0.99884, 193, 81, 208, 112
-0.998843, 1, 405, 128, 436
-0.998848, 205, 277, 220, 308
-0.998853, 163, 305, 178, 336
-0.998862, 203, 153, 218, 184
-0.998867, 49, 297, 176, 328
-0.998873, 293, 273, 308, 400
-0.998876, 297, 225, 328, 480
-0.998877, 219, 221, 234, 252
-0.998879, 77, 209, 92, 240
-0.998879, 289, 253, 304, 284
-0.998887, 225, 425, 352, 456
-0.99889, 69, 317, 84, 348
-0.998891, 33, 169, 160, 200
-0.998896, 89, 213, 104, 244
-0.998899, 129, 193, 160, 448
-0.9989, 185, 213, 200, 244
-0.998903, 215, 269, 230, 300
-0.998906, 213, 229, 228, 260
-0.998914, 173, 309, 188, 340
-0.998918, 181, 321, 196, 352
-0.998918, 193, 225, 224, 480
-0.99892, 85, 257, 100, 288
-0.998921, 147, 149, 162, 180
-0.998924, 33, 17, 288, 80
-0.998925, 241, 305, 368, 336
-0.998926, 153, 161, 168, 192
-0.998927, 173, 77, 188, 108
-0.998929, 73, 233, 88, 264
-0.998929, 129, 121, 256, 152
-0.998935, 101, 257, 116, 288
-0.998936, 211, 157, 226, 188
-0.998936, 79, 233, 94, 264
-0.998939, 161, 445, 176, 476
-0.99894, 259, 197, 274, 228
-0.998943, 249, 233, 264, 264
-0.998944, 261, 225, 276, 256
-0.998944, 147, 73, 162, 104
-0.998955, 159, 77, 174, 108
-0.998955, 159, 237, 174, 268
-0.998955, 241, 437, 368, 468
-0.998956, 167, 337, 182, 368
-0.998957, 219, 233, 234, 264
-0.998958, 281, 213, 296, 244
-0.998959, 185, 69, 200, 100
-0.998959, 67, 229, 82, 260
-0.998964, 93, 161, 124, 416
-0.998968, 305, 145, 336, 272
-0.998968, 225, 213, 240, 244
-0.998976, 241, 317, 368, 348
-0.998976, 179, 201, 194, 232
-0.998979, 293, 369, 308, 400
-0.998979, 167, 77, 182, 108
-0.99898, 217, 1, 280, 256
-0.998982, 53, 225, 84, 480
-0.998985, 195, 213, 210, 244
-0.998989, 161, 85, 288, 116
-0.998991, 207, 257, 222, 288
-0.998992, 61, 281, 76, 312
-0.998992, 273, 373, 288, 404
-0.998992, 65, 141, 192, 172
-0.998996, 137, 69, 152, 100
-0.998996, 99, 301, 114, 332
-0.998997, 153, 77, 168, 108
-0.998997, 229, 277, 244, 308
-0.998997, 185, 457, 200, 488
-0.998997, 157, 65, 172, 96
-0.998999, 309, 257, 324, 288
-0.999009, 205, 65, 236, 320
-0.999012, 193, 369, 320, 400
-0.999013, 187, 85, 202, 116
-0.999015, 197, 153, 212, 184
-0.999015, 95, 257, 110, 288
-0.999015, 163, 317, 178, 348
-0.99902, 177, 65, 192, 96
-0.999026, 289, 217, 304, 248
-0.999027, 45, 193, 76, 320
-0.999029, 109, 225, 140, 480
-0.999032, 193, 257, 208, 288
-0.999034, 1, 301, 128, 332
-0.999034, 231, 241, 246, 272
-0.99905, 81, 1, 208, 32
-0.999052, 129, 57, 256, 88
-0.999052, 81, 313, 208, 344
-0.999083, 241, 193, 272, 448
-0.999091, 229, 193, 244, 320
-0.9991, 1, 157, 128, 188
-0.999104, 105, 65, 136, 320
-0.999108, 225, 241, 240, 368
-0.999111, 17, 469, 144, 500
-0.999113, 193, 453, 320, 484
-0.999123, 81, 117, 208, 148
-0.999129, 283, 209, 298, 336
-0.999137, 257, 97, 288, 352
-0.999139, 97, 389, 224, 420
-0.999144, 245, 65, 276, 320
-0.999145, 1, 137, 128, 168
-0.999148, 41, 257, 72, 500
-0.999151, 241, 345, 368, 376
-0.999155, 141, 161, 172, 416
-0.999172, 287, 273, 302, 400
-0.999176, 97, 421, 224, 452
-0.999194, 215, 193, 230, 320
-0.999196, 193, 97, 320, 128
-0.999211, 219, 241, 234, 368
-0.99923, 299, 273, 314, 400
-0.999244, 277, 65, 308, 192
-0.99925, 1, 453, 128, 484
-0.999276, 129, 305, 160, 432
-0.99929, 277, 209, 292, 336
-0.999292, 89, 257, 120, 500
-0.999293, 337, 97, 368, 352
-0.999305, 283, 161, 298, 288
-0.999316, 235, 193, 250, 320
-0.999326, 201, 161, 216, 288
-0.999331, 291, 337, 306, 464
-0.999331, 221, 193, 236, 320
-0.999345, 271, 193, 286, 320
-0.999349, 217, 65, 248, 320
-0.999379, 301, 225, 316, 352
-0.999384, 205, 225, 220, 352
-0.999389, 351, 369, 366, 496
-0.999393, 231, 241, 246, 368
-0.999394, 277, 161, 292, 288
-0.999396, 281, 257, 296, 384
-0.999401, 217, 257, 248, 500
-0.999407, 157, 257, 188, 500
-0.999407, 211, 241, 226, 368
-0.999414, 295, 177, 310, 304
-0.999419, 117, 145, 148, 272
-0.99942, 289, 161, 304, 288
-0.999421, 297, 337, 312, 464
-0.999423, 165, 289, 180, 416
-0.99943, 325, 97, 356, 352
-0.999442, 263, 177, 278, 304
-0.999447, 93, 65, 124, 320
-0.999456, 199, 225, 214, 352
-0.999457, 81, 65, 112, 320
-0.999461, 93, 193, 108, 320
-0.999477, 285, 321, 300, 448
-0.999478, 159, 273, 174, 400
-0.999478, 1, 129, 32, 384
-0.999482, 277, 219, 292, 234
-0.999483, 89, 245, 104, 260
-0.999483, 195, 161, 210, 288
-0.999483, 275, 229, 290, 244
-0.999483, 151, 161, 166, 176
-0.999484, 189, 87, 204, 102
-0.999484, 103, 193, 118, 320
-0.999484, 293, 329, 308, 344
-0.999486, 71, 213, 86, 228
-0.999486, 215, 279, 230, 294
-0.999487, 69, 281, 84, 296
-0.999487, 179, 235, 194, 250
-0.999487, 307, 273, 322, 288
-0.999487, 155, 275, 170, 290
-0.999487, 231, 263, 246, 278
-0.999487, 293, 335, 308, 350
-0.999488, 249, 233, 264, 248
-0.999488, 79, 237, 94, 252
-0.999488, 65, 317, 80, 332
-0.999488, 289, 279, 304, 294
-0.999488, 179, 83, 194, 98
-0.999488, 297, 357, 312, 372
-0.999488, 229, 189, 244, 204
-0.999489, 171, 181, 186, 196
-0.999489, 175, 75, 190, 90
-0.999489, 251, 211, 266, 226
-0.999489, 283, 347, 298, 362
-0.999489, 177, 227, 192, 242
-0.999489, 77, 209, 92, 224
-0.99949, 303, 337, 318, 464
-0.99949, 227, 229, 242, 244
-0.99949, 165, 239, 180, 254
-0.999491, 177, 201, 192, 216
-0.999491, 209, 215, 224, 230
-0.999491, 91, 261, 106, 276
-0.999493, 263, 393, 278, 408
-0.999493, 173, 235, 188, 250
-0.999494, 189, 231, 204, 246
-0.999494, 177, 179, 192, 194
-0.999496, 189, 223, 204, 238
-0.999497, 99, 301, 114, 316
-0.999497, 215, 239, 230, 254
-0.999498, 163, 159, 178, 174
-0.999499, 357, 369, 372, 496
-0.9995, 223, 113, 238, 240
-0.999501, 69, 231, 84, 246
-0.999501, 303, 359, 318, 374
-0.999501, 245, 209, 260, 224
-0.999501, 73, 219, 88, 234
-0.999501, 261, 399, 276, 414
-0.999502, 225, 223, 240, 238
-0.999502, 175, 321, 190, 448
-0.999503, 91, 251, 106, 266
-0.999503, 283, 337, 298, 352
-0.999503, 273, 385, 288, 400
-0.999503, 183, 225, 198, 240
-0.999504, 333, 353, 348, 480
-0.999504, 301, 259, 316, 274
-0.999505, 225, 245, 240, 260
-0.999505, 287, 253, 302, 268
-0.999505, 203, 265, 218, 280
-0.999506, 207, 287, 222, 302
-0.999506, 293, 341, 308, 356
-0.999506, 313, 1, 344, 256
-0.999507, 269, 391, 284, 406
-0.999507, 283, 309, 298, 324
-0.999508, 83, 211, 98, 226
-0.999508, 301, 275, 316, 290
-0.999509, 53, 273, 68, 400
-0.999509, 159, 153, 174, 168
-0.99951, 195, 1, 210, 128
-0.999511, 195, 169, 210, 184
-0.999511, 61, 283, 76, 298
-0.999512, 195, 221, 210, 236
-0.999512, 225, 279, 240, 294
-0.999513, 221, 183, 236, 198
-0.999513, 237, 281, 252, 296
-0.999514, 209, 161, 224, 288
-0.999514, 89, 239, 104, 254
-0.999514, 291, 309, 306, 324
-0.999516, 309, 361, 324, 376
-0.999517, 17, 145, 48, 272
-0.999519, 299, 251, 314, 266
-0.999521, 67, 305, 82, 432
-0.999521, 79, 223, 94, 238
-0.999523, 279, 297, 294, 312
-0.999524, 219, 209, 234, 224
-0.999524, 229, 207, 244, 222
-0.999524, 195, 227, 210, 242
-0.999524, 317, 365, 332, 380
-0.999525, 291, 347, 306, 362
-0.999527, 221, 195, 236, 210
-0.999527, 333, 1, 364, 256
-0.999527, 201, 219, 216, 234
-0.999529, 193, 163, 208, 178
-0.999529, 171, 241, 186, 368
-0.999529, 347, 387, 362, 402
-0.99953, 339, 381, 354, 396
-0.999531, 81, 231, 96, 246
-0.999532, 225, 263, 240, 278
-0.999533, 281, 1, 344, 128
-0.999533, 257, 193, 272, 320
-0.999533, 283, 331, 298, 346
-0.999534, 205, 273, 220, 400
-0.999534, 213, 245, 228, 260
-0.999535, 207, 163, 222, 178
-0.999535, 259, 215, 274, 230
-0.999535, 157, 159, 172, 174
-0.999536, 145, 257, 176, 500
-0.999536, 173, 319, 188, 334
-0.999536, 299, 281, 314, 296
-0.999536, 217, 285, 232, 300
-0.999537, 239, 209, 254, 224
-0.999537, 333, 375, 348, 390
-0.999537, 295, 239, 310, 254
-0.999537, 325, 97, 340, 224
-0.999538, 183, 161, 198, 288
-0.99954, 239, 203, 254, 218
-0.999541, 287, 287, 302, 302
-0.999542, 325, 369, 340, 384
-0.999544, 291, 315, 306, 330
-0.999545, 355, 393, 370, 408
-0.999546, 211, 293, 226, 308
-0.999547, 17, 65, 48, 192
-0.999548, 269, 369, 284, 496
-0.99955, 215, 215, 230, 230
-0.999551, 167, 1, 182, 128
-0.999551, 161, 65, 192, 320
-0.999551, 283, 325, 298, 340
-0.999552, 265, 219, 280, 234
-0.999553, 221, 253, 236, 268
-0.999553, 271, 145, 286, 272
-0.999554, 299, 269, 314, 284
-0.999554, 201, 169, 216, 184
-0.999555, 227, 195, 242, 210
-0.999558, 347, 97, 362, 224
-0.999558, 361, 397, 375, 412
-0.999559, 341, 369, 356, 496
-0.999559, 201, 225, 216, 240
-0.999561, 133, 65, 164, 320
-0.999563, 183, 273, 198, 400
-0.999563, 153, 153, 168, 168
-0.999565, 293, 285, 308, 300
-0.999566, 229, 201, 244, 216
-0.999568, 357, 97, 372, 224
-0.999573, 281, 319, 296, 334
-0.999575, 149, 65, 164, 192
-0.999575, 245, 369, 260, 496
-0.999578, 291, 233, 306, 248
-0.99958, 311, 97, 326, 224
-0.999581, 33, 289, 64, 416
-0.999582, 113, 209, 128, 336
-0.999582, 295, 245, 310, 260
-0.999584, 327, 353, 342, 480
-0.999584, 289, 353, 304, 368
-0.999584, 191, 241, 206, 368
-0.999584, 133, 225, 148, 352
-0.999585, 309, 337, 324, 464
-0.999588, 229, 269, 244, 284
-0.99959, 211, 97, 226, 224
-0.99959, 207, 221, 222, 236
-0.999592, 219, 247, 234, 262
-0.999593, 147, 257, 162, 384
-0.999593, 315, 353, 330, 480
-0.999594, 285, 293, 300, 308
-0.999595, 319, 97, 334, 224
-0.999597, 295, 275, 310, 290
-0.999597, 223, 189, 238, 204
-0.999599, 241, 193, 256, 320
-0.999601, 103, 241, 118, 368
-0.999602, 205, 81, 220, 208
-0.999602, 185, 17, 200, 144
-0.999604, 287, 227, 302, 242
-0.999604, 59, 289, 74, 416
-0.999611, 281, 303, 296, 318
-0.999612, 199, 305, 214, 432
-0.999613, 271, 221, 286, 236
-0.999613, 169, 337, 184, 464
-0.999614, 187, 65, 202, 192
-0.999615, 201, 163, 216, 178
-0.999618, 321, 353, 336, 480
-0.999619, 281, 33, 312, 288
-0.99962, 157, 65, 172, 192
-0.999621, 231, 275, 246, 290
-0.999623, 265, 225, 280, 352
-0.999626, 281, 225, 296, 240
-0.999628, 139, 257, 154, 384
-0.99963, 73, 321, 88, 448
-0.999631, 189, 161, 204, 288
-0.999632, 127, 209, 142, 336
-0.999633, 301, 161, 316, 288
-0.999634, 237, 113, 252, 240
-0.999635, 229, 145, 244, 272
-0.999636, 345, 1, 375, 256
-0.999637, 177, 257, 192, 384
-0.999638, 275, 353, 290, 480
-0.999639, 59, 225, 74, 352
-0.999641, 151, 145, 166, 272
-0.999646, 153, 257, 168, 384
-0.999647, 81, 177, 96, 304
-0.999649, 181, 321, 196, 448
-0.999649, 173, 49, 188, 176
-0.99965, 143, 17, 158, 144
-0.99965, 203, 17, 218, 144
-0.99965, 143, 65, 158, 192
-0.999656, 331, 97, 346, 224
-0.999657, 185, 225, 200, 352
-0.999658, 337, 97, 352, 224
-0.999658, 305, 273, 320, 400
-0.999659, 175, 177, 190, 304
-0.999661, 85, 321, 100, 448
-0.999661, 135, 17, 150, 144
-0.999661, 265, 129, 280, 256
-0.999663, 69, 1, 100, 128
-0.999663, 149, 17, 164, 144
-0.999663, 215, 145, 230, 272
-0.999664, 267, 321, 282, 448
-0.999665, 189, 305, 204, 432
-0.999666, 99, 49, 114, 176
-0.999668, 289, 97, 304, 224
-0.999673, 303, 97, 318, 224
-0.999674, 157, 1, 172, 128
-0.999675, 109, 257, 124, 384
-0.999676, 109, 17, 124, 144
-0.999679, 119, 209, 134, 336
-0.999681, 263, 369, 278, 496
-0.999682, 185, 33, 216, 288
-0.999683, 79, 321, 94, 448
-0.999683, 107, 65, 122, 192
-0.999685, 153, 193, 168, 320
-0.999685, 341, 321, 356, 448
-0.999686, 361, 321, 375, 448
-0.999688, 129, 1, 144, 128
-0.999688, 295, 113, 310, 240
-0.999689, 173, 1, 188, 128
-0.99969, 17, 65, 48, 320
-0.999691, 237, 241, 252, 368
-0.999692, 127, 257, 142, 384
-0.999693, 193, 81, 208, 208
-0.999697, 249, 193, 264, 320
-0.999697, 33, 161, 64, 416
-0.999698, 233, 1, 296, 128
-0.999699, 179, 49, 194, 176
-0.999701, 169, 257, 200, 500
-0.999725, 49, 145, 80, 272
-0.999738, 117, 33, 148, 288
-0.99975, 5, 33, 36, 288
-0.999776, 293, 33, 324, 288
-0.999801, 57, 49, 88, 176
-0.999817, 53, 129, 84, 384
-0.999826, 129, 25, 375, 88
-0.999831, 149, 65, 180, 320
-0.999837, 129, 1, 375, 64
-0.999838, 325, 305, 356, 432
-0.999872, 309, 257, 340, 500
-0.999908, 173, 129, 204, 384
-0.999919, 233, 1, 264, 256
-0.999935, 65, 65, 96, 320
-0.999941, 21, 161, 52, 416
-0.999947, 213, 369, 244, 496
-1, 205, 1, 236, 128
-1.00003, 321, 257, 352, 500
-1.00005, 345, 257, 375, 500
-1.00015, 333, 257, 364, 500
-1.00015, 29, 257, 60, 500
-1.00016, 1, 353, 64, 480
-1.00016, 29, 33, 60, 288
-1.00021, 1, 33, 375, 96
-1.00023, 173, 1, 204, 256
-1.00024, 69, 129, 100, 256
-1.00028, 265, 1, 296, 256
-1.00033, 117, 129, 148, 384
-1.00036, 45, 33, 76, 288
-1.00056, 1, 65, 375, 128
-1.00079, 9, 225, 40, 480
-1.00093, 1, 257, 64, 500
-1.00135, 1, 9, 375, 72
-1.00398, 1, 305, 64, 432
-1.00429, 305, 257, 368, 384
