1914
-0.28605, 1, 1, 332, 500
-0.357977, 1, 1, 332, 256
-0.39657, 1, 193, 332, 448
-0.431403, 65, 1, 320, 500
-0.448095, 1, 97, 332, 352
-0.595464, 65, 193, 320, 448
-0.611348, 33, 1, 288, 256
-0.697115, 65, 97, 320, 352
-0.834175, 209, 1, 332, 500
-0.841898, 145, 1, 272, 256
-0.844765, 97, 1, 224, 256
-0.845766, 193, 161, 320, 416
-0.854223, 97, 1, 224, 500
-0.856952, 161, 1, 288, 500
-0.857001, 193, 33, 320, 288
-0.863053, 145, 161, 272, 416
-0.864963, 97, 161, 224, 416
-0.881646, 193, 257, 320, 500
-0.883415, 129, 257, 256, 500
-0.889598, 49, 1, 176, 500
-0.890561, 49, 225, 176, 480
-0.891779, 33, 129, 160, 384
-0.897768, 1, 17, 332, 144
-0.899269, 49, 1, 176, 256
-0.902167, 1, 305, 332, 432
-0.903002, 1, 1, 128, 500
-0.907032, 1, 225, 332, 352
-0.908784, 1, 225, 128, 480
-0.91407, 1, 113, 332, 240
-0.916215, 1, 65, 332, 192
-0.92302, 1, 353, 332, 480
-0.925013, 1, 177, 332, 304
-0.926075, 65, 17, 320, 144
-0.928276, 33, 209, 288, 336
-0.931148, 1, 1, 128, 256
-0.931197, 249, 129, 312, 256
-0.932977, 161, 161, 288, 288
-0.933672, 65, 161, 320, 288
-0.933852, 193, 113, 320, 240
-0.938138, 161, 1, 288, 128
-0.939278, 65, 273, 320, 400
-0.941594, 1, 321, 256, 448
-0.94238, 193, 1, 256, 128
-0.94283, 33, 97, 288, 224
-0.944461, 161, 113, 224, 240
-0.944567, 129, 113, 256, 240
-0.945355, 65, 369, 320, 496
-0.946341, 201, 369, 264, 496
-0.94712, 193, 353, 320, 480
-0.947298, 201, 113, 264, 240
-0.94746, 193, 257, 320, 384
-0.948323, 97, 33, 224, 160
-0.949201, 201, 321, 264, 448
-0.94978, 161, 177, 224, 304
-0.949866, 209, 161, 272, 288
-0.950612, 49, 241, 176, 368
-0.950856, 113, 305, 240, 432
-0.95149, 169, 321, 232, 448
-0.95176, 249, 193, 312, 320
-0.95228, 97, 225, 224, 352
-0.953573, 249, 129, 312, 192
-0.953817, 193, 209, 320, 336
-0.953832, 273, 177, 332, 304
-0.954028, 169, 17, 232, 144
-0.954633, 193, 305, 320, 432
-0.954634, 97, 1, 160, 128
-0.95487, 209, 161, 332, 288
-0.955077, 249, 1, 312, 128
-0.95533, 161, 65, 288, 192
-0.955441, 201, 241, 264, 368
-0.955515, 209, 161, 272, 224
-0.955661, 185, 193, 248, 320
-0.955744, 201, 377, 264, 440
-0.955943, 161, 65, 224, 192
-0.9562, 169, 369, 232, 496
-0.956683, 145, 257, 272, 384
-0.957185, 185, 9, 248, 72
-0.957555, 265, 337, 328, 464
-0.957606, 161, 273, 224, 400
-0.957884, 161, 225, 224, 352
-0.958007, 257, 377, 320, 440
-0.958665, 145, 369, 272, 496
-0.958696, 145, 209, 272, 336
-0.958736, 185, 137, 248, 200
-0.959611, 81, 113, 208, 240
-0.959757, 129, 33, 192, 160
-0.961644, 241, 241, 304, 304
-0.961745, 161, 105, 224, 168
-0.96187, 145, 369, 208, 496
-0.961959, 137, 113, 200, 240
-0.961961, 209, 1, 332, 128
-0.962367, 233, 369, 296, 496
-0.962613, 97, 177, 224, 304
-0.962727, 249, 153, 312, 216
-0.962795, 249, 201, 312, 264
-0.962799, 121, 225, 184, 352
-0.963188, 49, 1, 176, 128
-0.963482, 217, 17, 280, 144
-0.963634, 265, 65, 328, 192
-0.963886, 273, 129, 332, 256
-0.964359, 201, 1, 264, 256
-0.964464, 161, 1, 224, 256
-0.965231, 209, 113, 272, 176
-0.965246, 1, 81, 64, 208
-0.965262, 273, 201, 332, 264
-0.965395, 161, 281, 224, 344
-0.965405, 153, 137, 216, 200
-0.965498, 233, 321, 296, 448
-0.965844, 161, 401, 224, 464
-0.966021, 137, 33, 200, 96
-0.966207, 1, 225, 128, 352
-0.966433, 225, 113, 288, 240
-0.966543, 225, 241, 288, 368
-0.966608, 169, 169, 232, 232
-0.966829, 209, 49, 332, 176
-0.967082, 217, 65, 280, 192
-0.967156, 113, 129, 176, 256
-0.967304, 217, 233, 280, 296
-0.967378, 185, 401, 248, 464
-0.967439, 209, 9, 272, 72
-0.967579, 249, 17, 312, 80
-0.967946, 169, 337, 232, 400
-0.9681, 249, 177, 312, 240
-0.968127, 25, 225, 88, 352
-0.968127, 49, 225, 112, 352
-0.968297, 89, 241, 152, 368
-0.968378, 129, 1, 192, 256
-0.968586, 121, 225, 184, 288
-0.969081, 225, 393, 288, 456
-0.969319, 257, 241, 320, 368
-0.969373, 233, 129, 296, 384
-0.969421, 65, 305, 192, 432
-0.96945, 145, 321, 208, 448
-0.969582, 161, 305, 224, 368
-0.969942, 137, 273, 200, 400
-0.970195, 169, 97, 232, 352
-0.9704, 201, 337, 264, 400
-0.970516, 225, 33, 288, 96
-0.970544, 33, 369, 160, 496
-0.970764, 225, 1, 288, 256
-0.970781, 17, 289, 144, 416
-0.971103, 121, 281, 184, 344
-0.971171, 225, 361, 288, 424
-0.971224, 153, 425, 216, 488
-0.971276, 17, 129, 144, 256
-0.971298, 161, 17, 224, 80
-0.971337, 161, 169, 288, 232
-0.971373, 105, 17, 168, 80
-0.971381, 209, 185, 272, 248
-0.9714, 249, 1, 312, 256
-0.971456, 193, 265, 256, 328
-0.971826, 209, 257, 272, 500
-0.971924, 161, 105, 288, 168
-0.972208, 97, 353, 224, 480
-0.972601, 257, 289, 320, 416
-0.972631, 137, 177, 200, 304
-0.972892, 193, 161, 256, 416
-0.972998, 129, 425, 192, 488
-0.973096, 193, 377, 320, 440
-0.973112, 49, 225, 112, 288
-0.973153, 229, 1, 260, 64
-0.973159, 177, 369, 240, 432
-0.973233, 161, 249, 224, 312
-0.973255, 185, 305, 248, 368
-0.973278, 273, 353, 332, 416
-0.973285, 209, 369, 240, 432
-0.973511, 1, 1, 64, 128
-0.973591, 177, 425, 240, 488
-0.973755, 225, 137, 288, 200
-0.973789, 17, 177, 144, 304
-0.974188, 273, 1, 332, 256
-0.974225, 89, 369, 152, 496
-0.974286, 161, 17, 288, 80
-0.974312, 273, 401, 332, 464
-0.974398, 273, 297, 332, 360
-0.974437, 193, 65, 256, 192
-0.97449, 145, 401, 272, 464
-0.974565, 25, 289, 88, 416
-0.974594, 81, 241, 144, 304
-0.974655, 201, 433, 264, 496
-0.974957, 1, 1, 128, 128
-0.975155, 185, 113, 248, 176
-0.975237, 1, 281, 64, 344
-0.975304, 129, 305, 192, 368
-0.97544, 105, 249, 168, 312
-0.975579, 197, 113, 228, 240
-0.975596, 1, 241, 64, 368
-0.975687, 273, 1, 332, 128
-0.975759, 189, 1, 220, 128
-0.97579, 161, 129, 288, 192
-0.975855, 273, 169, 332, 232
-0.975886, 257, 97, 320, 352
-0.97595, 169, 193, 232, 448
-0.975967, 73, 1, 136, 128
-0.97604, 273, 17, 332, 80
-0.976079, 17, 129, 80, 256
-0.976087, 105, 1, 168, 256
-0.976158, 73, 425, 136, 488
-0.97622, 281, 193, 312, 320
-0.976239, 233, 225, 296, 480
-0.976278, 241, 121, 272, 184
-0.976377, 109, 1, 140, 128
-0.976401, 265, 105, 328, 168
-0.976489, 81, 1, 144, 64
-0.976507, 137, 113, 200, 176
-0.976532, 41, 129, 104, 256
-0.976634, 209, 161, 332, 224
-0.976789, 1, 81, 64, 144
-0.976849, 289, 145, 320, 272
-0.976968, 177, 193, 240, 256
-0.977011, 25, 289, 88, 352
-0.977051, 169, 81, 232, 144
-0.977126, 205, 337, 236, 464
-0.977256, 49, 65, 176, 192
-0.97729, 113, 273, 176, 400
-0.977412, 257, 113, 288, 240
-0.97754, 217, 209, 280, 272
-0.977551, 41, 177, 104, 304
-0.977558, 273, 321, 332, 384
-0.977579, 221, 385, 252, 448
-0.977581, 113, 81, 176, 208
-0.977735, 209, 121, 332, 184
-0.977789, 97, 33, 224, 96
-0.97796, 253, 121, 284, 184
-0.978008, 25, 81, 88, 208
-0.978026, 205, 1, 236, 128
-0.978146, 241, 49, 304, 176
-0.978204, 145, 185, 208, 248
-0.978239, 185, 305, 216, 432
-0.978265, 73, 129, 136, 256
-0.978305, 145, 97, 208, 352
-0.978318, 161, 193, 288, 256
-0.978368, 113, 161, 176, 416
-0.978392, 193, 353, 224, 480
-0.978426, 221, 1, 252, 128
-0.978487, 25, 17, 88, 144
-0.978525, 33, 249, 160, 312
-0.978587, 209, 233, 332, 296
-0.978628, 49, 313, 112, 376
-0.978631, 49, 305, 112, 432
-0.978699, 33, 369, 96, 496
-0.978801, 273, 225, 332, 288
-0.97881, 25, 417, 88, 480
-0.978853, 233, 153, 264, 216
-0.978958, 201, 89, 264, 152
-0.979089, 137, 1, 200, 64
-0.9791, 225, 417, 288, 480
-0.979132, 41, 249, 104, 312
-0.979233, 241, 337, 304, 400
-0.979417, 257, 225, 320, 480
-0.979432, 97, 137, 224, 200
-0.979451, 185, 97, 216, 224
-0.979477, 233, 385, 264, 448
-0.97949, 221, 353, 252, 480
-0.979569, 173, 17, 204, 144
-0.97958, 1, 81, 128, 208
-0.979604, 113, 401, 176, 464
-0.97965, 273, 273, 332, 336
-0.979904, 105, 433, 168, 496
-0.97996, 265, 425, 328, 488
-0.98014, 1, 177, 64, 304
-0.980192, 113, 313, 240, 376
-0.98021, 233, 1, 264, 128
-0.980372, 129, 425, 256, 488
-0.980414, 1, 313, 64, 376
-0.980477, 161, 33, 192, 160
-0.980538, 41, 393, 104, 456
-0.980563, 169, 41, 232, 104
-0.980659, 121, 145, 184, 208
-0.980666, 209, 345, 240, 408
-0.980712, 177, 25, 208, 88
-0.980712, 189, 345, 220, 408
-0.980742, 145, 209, 208, 272
-0.980742, 249, 401, 312, 464
-0.98082, 145, 329, 208, 392
-0.980902, 81, 225, 144, 480
-0.980915, 241, 1, 272, 64
-0.980951, 113, 241, 240, 304
-0.981, 169, 321, 200, 448
-0.981007, 189, 105, 220, 168
-0.981045, 225, 361, 256, 424
-0.981052, 189, 385, 220, 448
-0.981098, 221, 153, 252, 216
-0.98112, 1, 337, 64, 464
-0.981135, 149, 33, 180, 96
-0.981148, 97, 321, 160, 384
-0.981151, 89, 129, 152, 384
-0.98117, 33, 73, 96, 136
-0.981172, 289, 161, 320, 224
-0.981217, 97, 289, 224, 352
-0.981231, 193, 265, 320, 328
-0.981246, 193, 145, 224, 208
-0.981277, 89, 281, 152, 344
-0.981301, 145, 289, 272, 352
-0.981345, 1, 417, 64, 480
-0.981419, 49, 9, 176, 72
-0.981496, 137, 249, 200, 312
-0.981597, 213, 9, 244, 72
-0.981613, 249, 1, 312, 500
-0.981624, 217, 257, 280, 320
-0.98165, 153, 369, 216, 432
-0.981669, 185, 305, 216, 368
-0.981696, 241, 225, 272, 288
-0.981717, 1, 57, 64, 120
-0.98175, 209, 1, 332, 64
-0.981765, 157, 417, 188, 480
-0.98178, 209, 193, 332, 256
-0.981804, 81, 305, 144, 432
-0.981819, 185, 145, 216, 272
-0.981825, 281, 201, 312, 264
-0.981832, 237, 129, 268, 256
-0.981928, 153, 1, 216, 500
-0.981931, 49, 401, 176, 464
-0.981973, 25, 313, 88, 376
-0.982074, 209, 401, 240, 464
-0.982105, 145, 129, 176, 256
-0.982129, 65, 129, 128, 384
-0.982182, 121, 321, 184, 448
-0.982193, 205, 177, 236, 304
-0.9822, 165, 33, 196, 96
-0.982221, 273, 1, 332, 500
-0.982229, 221, 161, 252, 288
-0.982288, 137, 401, 200, 464
-0.982385, 49, 225, 112, 480
-0.982403, 209, 313, 272, 376
-0.982495, 273, 249, 332, 312
-0.982518, 237, 33, 268, 96
-0.98253, 117, 17, 148, 80
-0.982567, 161, 113, 192, 240
-0.982569, 97, 193, 160, 320
-0.982598, 161, 105, 192, 168
-0.9826, 193, 169, 224, 232
-0.982657, 193, 65, 320, 128
-0.982693, 121, 1, 184, 500
-0.982787, 17, 145, 80, 208
-0.982851, 177, 337, 304, 400
-0.982882, 41, 129, 104, 384
-0.982896, 145, 17, 176, 144
-0.982983, 253, 201, 284, 264
-0.982985, 289, 409, 320, 472
-0.983, 177, 313, 304, 376
-0.983052, 97, 113, 224, 176
-0.983052, 201, 33, 264, 96
-0.983095, 121, 201, 184, 264
-0.983124, 281, 385, 312, 448
-0.983131, 145, 81, 272, 144
-0.98317, 245, 385, 276, 448
-0.98318, 145, 425, 176, 488
-0.983196, 145, 241, 176, 368
-0.983201, 49, 281, 176, 344
-0.983263, 209, 257, 240, 384
-0.983272, 217, 1, 280, 500
-0.983304, 121, 369, 184, 496
-0.983345, 17, 257, 80, 320
-0.983348, 1, 1, 64, 256
-0.983439, 165, 161, 196, 288
-0.983473, 249, 41, 312, 104
-0.983473, 161, 241, 192, 368
-0.983497, 301, 201, 332, 264
-0.983533, 101, 1, 132, 64
-0.983534, 185, 241, 248, 304
-0.983576, 253, 145, 284, 208
-0.983641, 181, 161, 212, 224
-0.98365, 33, 1, 96, 256
-0.98371, 301, 177, 332, 304
-0.983715, 129, 25, 160, 88
-0.983754, 269, 385, 300, 448
-0.983771, 81, 1, 144, 256
-0.983825, 193, 9, 224, 72
-0.983912, 9, 393, 72, 456
-0.983937, 241, 369, 272, 496
-0.983953, 113, 361, 240, 424
-0.983962, 161, 217, 288, 280
-0.983967, 113, 105, 176, 168
-0.984018, 173, 113, 204, 240
-0.984019, 81, 425, 208, 488
-0.984125, 145, 225, 208, 480
-0.984159, 169, 217, 232, 280
-0.984237, 233, 409, 264, 472
-0.984245, 189, 193, 220, 320
-0.984311, 97, 145, 160, 208
-0.984311, 177, 425, 304, 488
-0.984338, 145, 265, 272, 328
-0.984406, 273, 145, 332, 208
-0.984419, 81, 209, 144, 272
-0.984419, 25, 345, 88, 408
-0.984471, 81, 217, 208, 280
-0.984498, 89, 65, 152, 192
-0.984542, 49, 433, 112, 496
-0.984645, 181, 137, 212, 200
-0.984687, 257, 161, 288, 288
-0.984715, 273, 41, 332, 104
-0.984818, 65, 145, 128, 208
-0.984847, 265, 337, 296, 464
-0.984873, 9, 233, 72, 296
-0.984928, 133, 17, 164, 144
-0.984931, 169, 409, 200, 472
-0.984935, 193, 401, 320, 464
-0.984948, 189, 73, 220, 136
-0.984969, 65, 393, 128, 456
-0.984978, 253, 65, 284, 192
-0.98501, 221, 409, 252, 472
-0.98509, 249, 265, 312, 328
-0.985166, 245, 177, 276, 304
-0.985178, 277, 353, 308, 416
-0.985231, 229, 121, 260, 184
-0.985248, 129, 337, 256, 400
-0.985259, 285, 337, 316, 464
-0.98526, 65, 313, 192, 376
-0.985276, 57, 1, 120, 256
-0.985341, 105, 241, 136, 368
-0.985383, 145, 161, 208, 224
-0.985401, 161, 41, 288, 104
-0.98545, 113, 177, 240, 240
-0.985466, 209, 177, 240, 240
-0.985503, 297, 377, 328, 440
-0.985519, 145, 65, 208, 128
-0.985588, 21, 81, 52, 144
-0.98564, 245, 1, 276, 128
-0.985671, 189, 409, 220, 472
-0.985798, 197, 257, 228, 384
-0.985816, 17, 433, 144, 496
-0.98583, 65, 65, 128, 192
-0.985862, 121, 377, 184, 440
-0.985926, 1, 145, 128, 208
-0.985947, 1, 281, 128, 344
-0.986019, 1, 105, 64, 168
-0.986037, 277, 145, 308, 272
-0.986047, 205, 65, 236, 192
-0.986118, 253, 233, 284, 296
-0.986138, 273, 257, 304, 384
-0.986187, 237, 225, 268, 352
-0.986248, 65, 177, 128, 304
-0.986259, 121, 1, 152, 128
-0.986264, 161, 241, 288, 304
-0.986329, 193, 57, 256, 120
-0.986365, 169, 145, 200, 208
-0.986398, 217, 305, 248, 432
-0.986409, 269, 65, 300, 192
-0.986424, 97, 57, 224, 120
-0.986433, 293, 1, 324, 64
-0.986477, 201, 273, 232, 336
-0.986487, 233, 105, 296, 168
-0.98651, 157, 129, 188, 192
-0.98652, 269, 193, 300, 320
-0.98661, 25, 225, 88, 480
-0.986636, 209, 33, 332, 96
-0.986651, 17, 17, 80, 80
-0.986663, 169, 177, 200, 240
-0.986667, 177, 1, 240, 500
-0.986693, 297, 257, 328, 384
-0.986715, 1, 337, 64, 400
-0.986726, 105, 257, 168, 500
-0.98674, 269, 17, 300, 144
-0.986763, 249, 33, 280, 96
-0.98679, 9, 369, 72, 432
-0.98679, 1, 73, 32, 136
-0.9868, 153, 241, 184, 304
-0.9868, 101, 433, 132, 496
-0.986819, 261, 353, 292, 416
-0.986826, 1, 289, 64, 416
-0.986901, 73, 313, 136, 376
-0.987003, 253, 97, 284, 160
-0.987015, 97, 1, 224, 64
-0.987019, 33, 209, 160, 272
-0.987051, 29, 265, 60, 328
-0.987056, 129, 225, 160, 352
-0.987068, 229, 233, 260, 296
-0.987082, 149, 217, 180, 280
-0.987108, 257, 225, 288, 352
-0.987115, 169, 321, 200, 384
-0.987159, 297, 337, 328, 464
-0.987168, 113, 41, 176, 104
-0.987179, 13, 81, 44, 208
-0.987193, 97, 401, 224, 464
-0.987223, 273, 121, 304, 184
-0.987234, 221, 257, 252, 384
-0.987374, 177, 113, 208, 176
-0.987411, 89, 401, 152, 464
-0.987431, 209, 289, 332, 352
-0.987441, 285, 289, 316, 416
-0.987443, 145, 193, 176, 320
-0.987454, 49, 337, 112, 400
-0.98748, 9, 1, 40, 128
-0.987507, 93, 225, 124, 352
-0.987511, 257, 385, 288, 448
-0.987515, 265, 233, 296, 296
-0.987518, 9, 129, 72, 384
-0.987558, 169, 297, 200, 360
-0.987577, 301, 129, 332, 256
-0.987608, 77, 241, 108, 368
-0.987622, 49, 145, 176, 208
-0.98765, 293, 345, 324, 408
-0.987671, 17, 65, 144, 128
-0.987714, 293, 137, 324, 200
-0.987727, 57, 369, 120, 496
-0.987742, 41, 145, 104, 208
-0.987779, 53, 241, 84, 368
-0.987908, 245, 361, 276, 424
-0.987982, 173, 241, 204, 368
-0.988003, 33, 241, 64, 368
-0.98802, 121, 233, 152, 296
-0.988104, 53, 225, 84, 288
-0.988161, 105, 241, 136, 304
-0.98825, 17, 313, 144, 376
-0.988251, 185, 257, 216, 384
-0.988257, 189, 273, 220, 336
-0.988314, 97, 1, 128, 128
-0.988319, 249, 81, 312, 144
-0.988351, 249, 297, 312, 360
-0.988359, 209, 89, 332, 152
-0.988369, 25, 65, 56, 192
-0.988377, 137, 225, 168, 288
-0.988401, 149, 289, 180, 416
-0.988412, 277, 17, 308, 80
-0.988422, 205, 145, 236, 208
-0.988458, 205, 81, 236, 144
-0.988487, 225, 113, 256, 240
-0.988489, 201, 389, 264, 420
-0.988499, 197, 321, 228, 384
-0.988541, 241, 249, 272, 312
-0.988639, 97, 265, 224, 328
-0.988649, 97, 89, 224, 152
-0.988697, 181, 185, 212, 248
-0.988714, 81, 433, 112, 496
-0.988826, 185, 49, 216, 176
-0.988901, 277, 225, 308, 288
-0.988903, 161, 209, 192, 272
-0.989144, 149, 289, 180, 352
-0.989148, 97, 401, 128, 464
-0.989179, 177, 73, 208, 136
-0.989185, 53, 305, 84, 432
-0.989226, 233, 185, 264, 248
-0.989276, 225, 25, 256, 88
-0.989351, 285, 433, 316, 496
-0.98943, 221, 257, 252, 320
-0.989438, 49, 33, 176, 96
-0.989454, 133, 433, 164, 496
-0.989461, 161, 273, 192, 336
-0.989473, 157, 393, 188, 456
-0.989506, 89, 1, 152, 500
-0.989582, 33, 1, 96, 500
-0.989583, 253, 337, 284, 464
-0.989583, 193, 13, 256, 44
-0.989591, 241, 49, 272, 176
-0.989633, 205, 241, 236, 304
-0.989639, 201, 377, 264, 408
-0.989728, 33, 289, 64, 416
-0.989761, 241, 305, 272, 432
-0.989808, 233, 389, 296, 420
-0.98981, 241, 225, 304, 256
-0.989836, 33, 289, 64, 352
-0.989838, 169, 185, 232, 216
-0.989842, 253, 1, 284, 64
-0.989859, 225, 125, 288, 156
-0.98986, 301, 401, 332, 464
-0.989913, 209, 425, 240, 488
-0.989923, 137, 401, 168, 464
-0.989935, 65, 1, 128, 500
-0.989939, 193, 177, 256, 208
-0.989963, 241, 241, 304, 272
-0.989985, 265, 425, 296, 488
-0.990007, 161, 105, 224, 136
-0.99002, 273, 209, 332, 240
-0.990046, 217, 237, 280, 268
-0.990059, 225, 209, 256, 336
-0.990096, 289, 17, 320, 144
-0.990107, 9, 1, 72, 500
-0.99013, 209, 189, 272, 220
-0.990134, 185, 409, 248, 440
-0.990155, 117, 241, 148, 368
-0.990225, 141, 369, 172, 496
-0.990236, 49, 377, 176, 440
-0.99024, 65, 9, 320, 72
-0.990281, 65, 241, 96, 368
-0.990333, 249, 137, 312, 168
-0.990339, 49, 1, 112, 128
-0.990343, 257, 393, 320, 424
-0.990361, 217, 173, 280, 204
-0.990384, 249, 205, 312, 236
-0.990388, 165, 369, 196, 496
-0.990434, 249, 149, 312, 180
-0.990503, 185, 165, 248, 196
-0.990552, 301, 321, 332, 384
-0.990565, 249, 125, 312, 156
-0.990566, 225, 405, 288, 436
-0.990576, 249, 165, 312, 196
-0.990604, 153, 137, 216, 168
-0.990608, 137, 37, 200, 68
-0.990623, 1, 409, 128, 472
-0.990627, 249, 177, 312, 208
-0.990635, 201, 365, 264, 396
-0.990639, 49, 113, 176, 176
-0.990646, 229, 305, 260, 432
-0.990669, 157, 313, 188, 376
-0.990681, 29, 1, 60, 128
-0.990705, 217, 161, 280, 192
-0.990728, 161, 305, 224, 336
-0.990739, 301, 177, 332, 240
-0.990763, 241, 13, 304, 44
-0.990801, 177, 373, 240, 404
-0.990805, 301, 1, 332, 128
-0.990809, 225, 377, 288, 408
-0.990829, 121, 321, 152, 384
-0.99083, 253, 177, 284, 240
-0.990834, 205, 113, 236, 176
-0.99087, 193, 421, 256, 452
-0.990882, 177, 141, 240, 172
-0.990886, 201, 113, 264, 144
-0.990888, 177, 377, 208, 440
-0.990934, 145, 425, 208, 456
-0.990937, 17, 281, 48, 344
-0.990939, 273, 221, 332, 252
-0.990959, 301, 265, 332, 328
-0.99097, 161, 121, 224, 152
-0.99099, 169, 325, 232, 356
-0.991025, 169, 337, 232, 368
-0.991042, 257, 1, 288, 128
-0.991082, 161, 401, 224, 432
-0.991083, 185, 461, 248, 492
-0.991088, 145, 465, 208, 496
-0.991091, 41, 233, 104, 264
-0.991098, 129, 441, 192, 472
-0.991104, 225, 1, 288, 32
-0.991112, 137, 281, 168, 344
-0.991129, 297, 433, 328, 496
-0.991158, 169, 353, 232, 384
-0.99118, 249, 193, 312, 224
-0.991185, 209, 129, 240, 256
-0.99119, 201, 125, 264, 156
-0.991203, 257, 381, 320, 412
-0.991214, 21, 145, 52, 208
-0.991217, 201, 341, 264, 372
-0.991219, 1, 81, 32, 208
-0.991219, 105, 469, 168, 500
-0.991239, 265, 25, 296, 88
-0.991253, 133, 129, 164, 256
-0.991267, 165, 241, 196, 304
-0.991273, 129, 237, 192, 268
-0.99128, 89, 457, 152, 488
-0.991311, 105, 265, 168, 296
-0.991323, 285, 241, 316, 368
-0.991337, 137, 17, 200, 48
-0.991346, 185, 153, 248, 184
-0.991348, 233, 417, 296, 448
-0.99136, 217, 137, 280, 168
-0.99136, 233, 361, 296, 392
-0.99139, 1, 25, 128, 88
-0.9914, 161, 413, 224, 444
-0.991407, 181, 353, 212, 480
-0.991429, 129, 285, 192, 316
-0.991443, 105, 25, 168, 56
-0.991447, 249, 25, 312, 56
-0.991459, 1, 337, 128, 400
-0.991467, 209, 353, 272, 384
-0.991469, 1, 1, 128, 64
-0.991471, 1, 121, 128, 184
-0.991473, 65, 465, 128, 496
-0.991491, 265, 241, 328, 272
-0.991497, 273, 21, 332, 52
-0.991506, 145, 145, 176, 208
-0.99152, 113, 453, 176, 484
-0.991524, 161, 29, 224, 60
-0.991525, 89, 13, 152, 44
-0.991534, 209, 321, 240, 384
-0.991538, 41, 369, 72, 496
-0.991555, 281, 65, 312, 192
-0.991581, 273, 197, 332, 228
-0.991585, 105, 233, 168, 264
-0.991597, 177, 385, 240, 416
-0.991622, 145, 333, 208, 364
-0.991632, 161, 285, 224, 316
-0.991632, 73, 245, 136, 276
-0.991636, 1, 257, 256, 320
-0.991659, 93, 249, 124, 312
-0.99166, 273, 9, 332, 40
-0.991666, 129, 321, 192, 352
-0.99168, 65, 185, 192, 248
-0.991681, 121, 369, 152, 496
-0.991695, 201, 25, 264, 56
-0.991697, 113, 145, 144, 208
-0.991705, 73, 1, 136, 32
-0.991713, 145, 181, 208, 212
-0.991715, 113, 253, 176, 284
-0.991715, 185, 293, 248, 324
-0.991716, 241, 261, 304, 292
-0.991725, 217, 249, 280, 280
-0.991736, 221, 177, 252, 240
-0.991753, 153, 153, 216, 184
-0.99176, 173, 433, 204, 496
-0.991764, 217, 225, 280, 256
-0.991765, 1, 85, 64, 116
-0.991784, 157, 9, 188, 72
-0.991786, 249, 1, 312, 32
-0.991798, 153, 273, 216, 304
-0.991802, 169, 449, 232, 480
-0.991811, 37, 129, 68, 256
-0.991811, 49, 129, 80, 256
-0.991818, 177, 201, 240, 232
-0.991832, 169, 241, 232, 272
-0.991835, 201, 269, 264, 300
-0.991855, 273, 369, 332, 400
-0.991858, 109, 265, 140, 328
-0.991861, 81, 437, 144, 468
-0.991862, 265, 413, 328, 444
-0.991863, 57, 453, 120, 484
-0.991867, 217, 201, 280, 232
-0.991874, 185, 433, 248, 464
-0.991881, 1, 153, 64, 184
-0.991886, 25, 269, 88, 300
-0.991887, 217, 149, 280, 180
-0.991889, 33, 149, 96, 180
-0.991897, 273, 277, 332, 308
-0.99191, 33, 145, 64, 208
-0.991912, 129, 225, 192, 256
-0.991921, 1, 281, 64, 312
-0.991961, 241, 37, 304, 68
-0.991983, 273, 353, 332, 384
-0.991989, 65, 33, 320, 96
-0.991995, 273, 129, 332, 160
-0.991997, 177, 73, 240, 104
-0.991998, 153, 437, 216, 468
-0.991999, 209, 325, 272, 356
-0.992041, 209, 37, 272, 68
-0.992046, 105, 437, 168, 468
-0.992048, 217, 13, 280, 44
-0.992054, 249, 457, 312, 488
-0.992065, 249, 113, 312, 144
-0.992099, 73, 261, 136, 292
-0.992103, 153, 389, 216, 420
-0.992106, 249, 445, 312, 476
-0.992108, 41, 245, 104, 276
-0.992116, 17, 345, 80, 376
-0.99214, 9, 293, 72, 324
-0.992156, 201, 101, 264, 132
-0.99216, 65, 233, 128, 264
-0.992173, 113, 149, 176, 180
-0.992177, 113, 37, 176, 68
-0.992187, 241, 273, 304, 304
-0.992215, 109, 129, 140, 256
-0.992224, 49, 353, 176, 416
-0.992243, 89, 305, 120, 432
-0.99229, 141, 81, 172, 208
-0.992308, 253, 121, 284, 152
-0.992369, 69, 321, 100, 448
-0.992422, 229, 5, 260, 36
-0.992426, 173, 65, 204, 192
-0.992466, 209, 381, 240, 412
-0.992548, 197, 185, 228, 216
-0.992605, 229, 393, 260, 424
-0.992672, 249, 385, 280, 416
-0.992687, 229, 381, 260, 412
-0.992696, 1, 313, 256, 376
-0.992715, 185, 173, 216, 204
-0.992717, 225, 17, 256, 48
-0.992746, 241, 9, 272, 40
-0.992766, 173, 181, 204, 212
-0.992771, 285, 205, 316, 236
-0.992771, 297, 205, 328, 236
-0.992773, 289, 157, 320, 188
-0.992773, 213, 413, 244, 444
-0.992803, 233, 121, 264, 152
-0.992808, 209, 369, 240, 400
-0.992813, 53, 193, 84, 320
-0.99282, 213, 173, 244, 204
-0.992825, 269, 389, 300, 420
-0.992832, 161, 137, 192, 168
-0.992843, 261, 273, 292, 400
-0.992843, 225, 409, 256, 440
-0.992852, 41, 1, 72, 128
-0.992852, 133, 273, 164, 400
-0.992855, 149, 37, 180, 68
-0.992862, 245, 237, 276, 268
-0.992863, 185, 105, 216, 136
-0.992869, 213, 349, 244, 380
-0.992872, 201, 341, 232, 372
-0.992878, 209, 13, 240, 44
-0.992886, 289, 393, 320, 424
-0.992888, 193, 353, 224, 384
-0.99289, 253, 145, 284, 176
-0.992892, 185, 17, 216, 48
-0.992899, 241, 21, 272, 52
-0.992902, 237, 161, 268, 192
-0.992906, 233, 33, 264, 64
-0.992914, 1, 145, 256, 208
-0.992921, 257, 237, 288, 268
-0.992925, 197, 13, 228, 44
-0.992925, 197, 145, 228, 176
-0.992925, 201, 393, 232, 424
-0.992944, 181, 405, 212, 436
-0.992949, 217, 393, 248, 424
-0.99295, 1, 385, 128, 448
-0.992957, 121, 21, 152, 52
-0.992961, 277, 217, 308, 248
-0.992967, 209, 185, 240, 216
-0.992976, 189, 325, 220, 356
-0.992979, 285, 405, 316, 436
-0.99298, 17, 89, 144, 152
-0.992982, 193, 405, 224, 436
-0.992992, 53, 233, 84, 264
-0.992995, 233, 233, 264, 264
-0.993007, 249, 33, 280, 64
-0.993009, 173, 33, 204, 64
-0.993011, 161, 41, 192, 72
-0.993019, 209, 425, 240, 456
-0.99302, 181, 313, 212, 344
-0.99302, 145, 429, 176, 460
-0.993032, 169, 329, 200, 360
-0.993037, 257, 133, 288, 164
-0.993048, 181, 141, 212, 172
-0.993049, 133, 229, 164, 260
-0.993055, 249, 405, 280, 436
-0.993057, 185, 189, 216, 220
-0.993059, 253, 249, 284, 280
-0.993059, 133, 33, 164, 64
-0.99306, 301, 401, 332, 432
-0.993061, 197, 157, 228, 188
-0.993068, 225, 173, 256, 204
-0.993068, 101, 261, 132, 292
-0.993071, 261, 377, 292, 408
-0.993071, 189, 129, 220, 160
-0.993075, 217, 157, 248, 188
-0.99308, 105, 469, 136, 500
-0.993087, 149, 445, 180, 476
-0.993089, 197, 365, 228, 396
-0.993092, 161, 421, 192, 452
-0.993094, 137, 441, 168, 472
-0.993102, 273, 401, 304, 432
-0.993104, 237, 133, 268, 164
-0.993107, 109, 13, 140, 44
-0.993111, 25, 273, 56, 304
-0.993112, 25, 289, 56, 320
-0.993118, 181, 341, 212, 372
-0.993126, 157, 465, 188, 496
-0.993133, 193, 417, 224, 448
-0.993134, 285, 193, 316, 224
-0.993135, 25, 89, 56, 120
-0.993139, 241, 149, 272, 180
-0.993141, 221, 369, 252, 400
-0.993142, 233, 369, 264, 400
-0.993147, 301, 345, 332, 376
-0.993147, 197, 173, 228, 204
-0.993153, 21, 149, 52, 180
-0.993157, 221, 189, 252, 220
-0.993157, 177, 389, 208, 420
-0.993158, 277, 229, 308, 260
-0.993159, 185, 93, 216, 124
-0.993159, 161, 437, 192, 468
-0.99316, 161, 285, 192, 316
-0.993161, 165, 105, 196, 136
-0.993161, 97, 245, 128, 276
-0.993167, 189, 393, 220, 424
-0.99318, 177, 393, 304, 424
-0.993183, 13, 277, 44, 308
-0.993187, 237, 413, 268, 444
-0.993187, 293, 357, 324, 388
-0.99319, 277, 25, 308, 56
-0.993191, 245, 225, 276, 256
-0.993192, 237, 185, 268, 216
-0.993194, 301, 5, 332, 36
-0.993196, 189, 289, 220, 320
-0.993198, 161, 117, 192, 148
-0.993201, 117, 249, 148, 280
-0.993203, 125, 469, 156, 500
-0.993205, 269, 241, 300, 272
-0.993206, 277, 353, 308, 384
-0.993209, 141, 461, 172, 492
-0.99321, 285, 381, 316, 412
-0.993218, 197, 381, 228, 412
-0.993219, 165, 449, 196, 480
-0.993219, 117, 269, 148, 300
-0.99322, 173, 153, 204, 184
-0.99322, 213, 1, 244, 32
-0.993221, 1, 281, 256, 344
-0.993222, 257, 225, 288, 256
-0.993223, 301, 273, 332, 304
-0.993224, 97, 5, 128, 36
-0.993225, 173, 425, 204, 456
-0.993225, 289, 17, 320, 48
-0.993228, 301, 221, 332, 252
-0.993231, 189, 117, 220, 148
-0.993231, 153, 273, 184, 304
-0.993232, 289, 169, 320, 200
-0.993235, 205, 97, 236, 128
-0.993243, 261, 401, 292, 432
-0.993267, 21, 241, 52, 368
-0.993282, 65, 425, 320, 488
-0.993294, 117, 193, 148, 320
-0.99334, 1, 233, 256, 296
-0.993357, 1, 1, 332, 64
-0.993405, 177, 193, 208, 320
-0.993457, 97, 65, 128, 192
-0.993602, 177, 173, 304, 204
-0.993649, 245, 1, 260, 64
-0.993661, 177, 17, 304, 48
-0.993733, 177, 125, 304, 156
-0.993735, 227, 385, 242, 448
-0.993792, 9, 241, 40, 368
-0.993813, 293, 81, 324, 208
-0.993837, 25, 113, 56, 240
-0.993847, 89, 369, 120, 496
-0.993921, 9, 145, 40, 272
-0.993931, 93, 177, 124, 304
-0.993988, 1, 393, 256, 456
-0.993997, 65, 121, 320, 184
-0.994049, 77, 129, 108, 256
-0.994062, 13, 369, 44, 496
-0.994082, 61, 369, 92, 496
-0.994168, 109, 369, 140, 496
-0.994182, 33, 361, 288, 424
-0.994229, 33, 209, 288, 272
-0.994244, 1, 361, 128, 424
-0.994245, 161, 185, 288, 216
-0.994254, 65, 177, 320, 240
-0.994286, 61, 1, 92, 128
-0.994352, 49, 81, 80, 208
-0.994412, 13, 321, 44, 448
-0.99445, 217, 65, 248, 192
-0.994521, 121, 129, 152, 256
-0.994543, 259, 121, 274, 184
-0.994571, 145, 109, 272, 140
-0.994583, 161, 137, 288, 168
-0.994587, 209, 5, 332, 36
-0.994597, 205, 385, 220, 448
-0.994612, 1, 257, 64, 500
-0.994657, 153, 369, 184, 496
-0.994748, 1, 265, 332, 328
-0.994752, 129, 81, 160, 208
-0.994761, 251, 113, 266, 176
-0.99497, 185, 1, 216, 256
-0.995002, 121, 289, 152, 416
-0.995022, 77, 369, 108, 496
-0.99504, 233, 385, 248, 448
-0.995115, 65, 129, 96, 256
-0.99512, 1, 385, 332, 448
-0.99512, 221, 385, 236, 448
-0.995143, 65, 337, 320, 400
-0.995162, 89, 129, 120, 256
-0.995277, 107, 1, 122, 64
-0.99529, 1, 73, 256, 136
-0.995312, 161, 29, 288, 60
-0.995337, 161, 237, 288, 268
-0.995347, 245, 33, 260, 96
-0.99537, 177, 405, 304, 436
-0.995376, 1, 217, 332, 280
-0.995384, 199, 385, 214, 448
-0.995388, 247, 161, 262, 224
-0.995392, 205, 329, 220, 392
-0.995438, 263, 385, 278, 448
-0.995448, 237, 9, 252, 72
-0.995465, 205, 1, 236, 256
-0.995488, 129, 409, 256, 440
-0.995492, 211, 369, 226, 432
-0.995495, 177, 161, 304, 192
-0.995522, 247, 225, 262, 288
-0.995529, 1, 169, 128, 232
-0.995532, 213, 401, 228, 464
-0.995548, 129, 425, 256, 456
-0.995559, 125, 17, 140, 80
-0.995566, 215, 161, 230, 224
-0.995586, 199, 97, 214, 160
-0.995643, 165, 1, 196, 256
-0.995644, 235, 153, 250, 216
-0.995662, 1, 73, 16, 136
-0.995693, 251, 137, 266, 200
-0.995703, 183, 25, 198, 88
-0.995734, 193, 161, 208, 224
-0.995745, 161, 205, 288, 236
-0.995759, 159, 33, 174, 96
-0.995759, 237, 1, 268, 256
-0.995761, 175, 33, 190, 96
-0.99577, 165, 105, 180, 168
-0.995799, 155, 425, 170, 488
-0.995806, 141, 1, 172, 256
-0.995817, 245, 121, 260, 184
-0.995828, 209, 241, 332, 272
-0.995834, 129, 17, 256, 48
-0.995836, 193, 373, 320, 404
-0.995856, 117, 9, 132, 72
-0.995865, 1, 145, 332, 208
-0.995888, 113, 441, 240, 472
-0.995897, 1, 241, 332, 304
-0.995901, 257, 393, 272, 456
-0.995905, 203, 353, 218, 416
-0.995907, 113, 37, 240, 68
-0.99591, 189, 17, 204, 80
-0.995926, 129, 397, 256, 428
-0.995926, 251, 1, 266, 64
-0.995926, 153, 1, 184, 256
-0.995933, 193, 289, 208, 352
-0.995958, 225, 409, 240, 472
-0.995962, 265, 121, 280, 184
-0.995962, 257, 97, 288, 352
-0.995966, 187, 137, 202, 200
-0.995978, 209, 185, 332, 216
-0.995984, 233, 361, 248, 424
-0.995984, 1, 25, 332, 88
-0.995988, 181, 145, 196, 208
-0.995989, 135, 25, 150, 88
-0.995991, 181, 409, 196, 472
-0.995995, 209, 205, 332, 236
-0.996017, 17, 273, 144, 304
-0.996022, 165, 33, 180, 96
-0.996031, 297, 145, 312, 208
-0.996039, 213, 345, 228, 408
-0.996042, 239, 385, 254, 448
-0.996044, 33, 13, 160, 44
-0.996053, 81, 453, 208, 484
-0.996078, 151, 33, 166, 96
-0.996106, 149, 417, 164, 480
-0.996113, 97, 245, 224, 276
-0.996117, 207, 417, 222, 480
-0.996128, 81, 25, 208, 56
-0.996134, 247, 401, 262, 464
-0.996155, 125, 1, 156, 256
-0.996169, 223, 9, 238, 72
-0.996172, 223, 169, 238, 232
-0.996176, 193, 149, 320, 180
-0.996182, 207, 177, 222, 240
-0.996206, 253, 25, 268, 88
-0.996217, 1, 313, 332, 376
-0.99622, 259, 145, 274, 208
-0.996222, 195, 345, 210, 408
-0.996241, 193, 97, 224, 352
-0.996261, 255, 201, 270, 264
-0.996263, 33, 81, 48, 144
-0.996268, 47, 425, 62, 488
-0.996269, 145, 33, 160, 96
-0.996273, 81, 233, 208, 264
-0.996275, 307, 193, 322, 256
-0.996275, 229, 153, 244, 216
-0.996279, 253, 233, 268, 296
-0.996286, 303, 1, 318, 64
-0.996289, 313, 305, 328, 368
-0.996295, 197, 313, 212, 376
-0.9963, 251, 377, 266, 440
-0.99631, 235, 409, 250, 472
-0.996311, 1, 177, 332, 240
-0.996322, 97, 293, 224, 324
-0.996332, 139, 433, 154, 496
-0.996342, 215, 9, 230, 72
-0.996343, 113, 129, 240, 160
-0.996345, 209, 137, 332, 168
-0.99635, 199, 9, 214, 72
-0.996356, 145, 465, 272, 496
-0.996371, 193, 361, 320, 392
-0.996379, 199, 409, 214, 472
-0.996389, 161, 225, 288, 256
-0.996392, 97, 149, 224, 180
-0.996394, 227, 345, 242, 408
-0.996407, 17, 253, 144, 284
-0.99641, 97, 5, 224, 36
-0.996419, 271, 233, 286, 296
-0.996419, 177, 417, 304, 448
-0.996422, 161, 417, 176, 480
-0.996429, 283, 377, 298, 440
-0.996433, 241, 153, 256, 216
-0.996448, 1, 113, 332, 176
-0.996457, 65, 437, 192, 468
-0.99646, 219, 361, 234, 424
-0.996471, 193, 257, 320, 288
-0.996477, 129, 165, 256, 196
-0.99648, 65, 421, 192, 452
-0.996482, 209, 273, 332, 304
-0.996488, 209, 9, 224, 72
-0.99649, 209, 257, 240, 500
-0.996497, 129, 281, 256, 312
-0.996514, 123, 241, 138, 304
-0.996515, 1, 409, 332, 472
-0.996526, 231, 1, 246, 64
-0.99653, 113, 241, 128, 304
-0.996562, 293, 393, 308, 456
-0.996583, 245, 377, 260, 440
-0.996586, 311, 369, 326, 432
-0.996596, 205, 73, 220, 136
-0.996597, 129, 257, 256, 288
-0.996597, 49, 465, 176, 496
-0.996604, 99, 433, 114, 496
-0.996606, 317, 401, 332, 464
-0.996617, 199, 73, 214, 136
-0.996626, 269, 377, 284, 440
-0.996631, 219, 337, 234, 400
-0.996636, 113, 1, 144, 256
-0.996646, 33, 241, 160, 272
-0.99665, 201, 145, 216, 208
-0.996666, 145, 309, 272, 340
-0.996669, 199, 281, 214, 344
-0.996672, 17, 1, 144, 32
-0.996672, 277, 225, 292, 288
-0.996674, 291, 153, 306, 216
-0.996682, 187, 177, 202, 240
-0.996685, 283, 201, 298, 264
-0.996686, 185, 113, 200, 176
-0.996687, 257, 369, 272, 432
-0.99669, 283, 417, 298, 480
-0.996691, 113, 185, 240, 216
-0.996712, 97, 325, 224, 356
-0.996718, 177, 97, 304, 128
-0.996744, 171, 409, 186, 472
-0.996748, 193, 469, 320, 500
-0.996749, 179, 329, 194, 392
-0.996754, 191, 73, 206, 136
-0.996754, 305, 321, 320, 384
-0.99677, 177, 453, 304, 484
-0.996777, 217, 1, 248, 256
-0.996784, 249, 201, 264, 264
-0.996788, 7, 73, 22, 136
-0.996797, 209, 161, 240, 416
-0.996806, 23, 73, 38, 136
-0.99682, 287, 353, 302, 416
-0.996821, 313, 185, 328, 248
-0.996833, 175, 105, 190, 168
-0.996834, 265, 241, 280, 304
-0.996846, 187, 337, 202, 400
-0.996854, 219, 409, 234, 472
-0.996859, 181, 297, 196, 360
-0.996861, 271, 121, 286, 184
-0.996865, 41, 265, 56, 328
-0.996872, 205, 273, 220, 336
-0.996878, 209, 345, 332, 376
-0.996878, 161, 333, 288, 364
-0.996883, 275, 393, 290, 456
-0.996883, 17, 149, 144, 180
-0.996884, 1, 97, 256, 160
-0.996903, 309, 1, 324, 64
-0.996909, 129, 381, 256, 412
-0.996909, 315, 329, 330, 392
-0.996917, 87, 433, 102, 496
-0.996918, 189, 393, 204, 456
-0.996921, 209, 329, 332, 360
-0.996921, 209, 437, 332, 468
-0.996924, 287, 177, 302, 240
-0.996926, 193, 193, 224, 448
-0.99693, 47, 257, 62, 320
-0.996938, 145, 269, 272, 300
-0.99694, 253, 169, 268, 232
-0.99694, 193, 137, 208, 200
-0.996942, 113, 341, 240, 372
-0.996945, 281, 353, 296, 416
-0.996953, 259, 233, 274, 296
-0.996964, 273, 25, 288, 88
-0.99697, 97, 105, 224, 136
-0.996992, 177, 73, 304, 104
-0.997036, 129, 81, 256, 112
-0.997076, 177, 85, 304, 116
-0.997088, 97, 117, 224, 148
-0.997103, 245, 1, 260, 32
-0.997105, 245, 129, 276, 384
-0.997115, 145, 129, 176, 384
-0.997116, 49, 285, 176, 316
-0.997136, 97, 305, 224, 336
-0.997151, 209, 225, 332, 256
-0.997163, 289, 1, 320, 256
-0.997203, 269, 1, 300, 256
-0.997211, 1, 57, 332, 120
-0.997222, 145, 293, 272, 324
-0.997224, 49, 305, 176, 336
-0.997249, 249, 1, 280, 256
-0.997251, 181, 129, 212, 384
-0.997268, 145, 149, 272, 180
-0.997269, 97, 465, 224, 496
-0.997278, 1, 465, 128, 496
-0.997279, 285, 129, 316, 384
-0.99728, 169, 97, 200, 352
-0.997287, 1, 289, 332, 352
-0.997289, 221, 129, 252, 384
-0.997316, 33, 221, 160, 252
-0.997346, 259, 125, 274, 156
-0.997348, 161, 53, 288, 84
-0.997368, 129, 353, 256, 384
-0.997381, 33, 25, 160, 56
-0.997399, 161, 5, 288, 36
-0.997428, 221, 257, 252, 500
-0.997434, 193, 113, 320, 144
-0.997437, 129, 453, 256, 484
-0.997452, 65, 37, 192, 68
-0.997497, 247, 233, 262, 264
-0.997529, 281, 257, 312, 500
-0.997542, 113, 221, 240, 252
-0.997556, 81, 269, 208, 300
-0.997559, 265, 225, 296, 480
-0.997566, 219, 161, 234, 192
-0.99757, 1, 313, 128, 344
-0.997572, 117, 129, 148, 384
-0.997577, 93, 129, 124, 384
-0.997579, 209, 317, 332, 348
-0.997601, 229, 413, 244, 444
-0.997615, 211, 181, 226, 212
-0.997621, 235, 373, 250, 404
-0.997632, 229, 385, 244, 416
-0.997643, 129, 93, 256, 124
-0.997649, 161, 41, 288, 72
-0.997685, 241, 385, 256, 416
-0.997691, 233, 257, 264, 500
-0.997718, 233, 97, 264, 352
-0.99774, 249, 121, 264, 152
-0.997763, 97, 69, 224, 100
-0.997765, 245, 37, 260, 68
-0.997769, 1, 397, 128, 428
-0.99777, 235, 389, 250, 420
-0.997781, 113, 265, 128, 296
-0.997782, 65, 405, 192, 436
-0.9978, 221, 377, 236, 408
-0.997812, 269, 125, 284, 156
-0.997832, 33, 453, 160, 484
-0.997837, 101, 1, 132, 256
-0.997842, 203, 393, 218, 424
-0.997851, 235, 21, 250, 52
-0.997853, 245, 13, 260, 44
-0.997861, 223, 393, 238, 424
-0.997867, 307, 205, 322, 236
-0.997869, 301, 97, 332, 352
-0.997883, 193, 285, 320, 316
-0.997906, 213, 369, 228, 400
-0.997935, 181, 257, 212, 500
-0.997947, 17, 441, 144, 472
-0.997957, 1, 289, 128, 320
-0.997966, 179, 33, 194, 64
-0.997971, 57, 129, 88, 384
-0.997972, 81, 257, 208, 288
-0.997989, 1, 433, 332, 496
-0.99799, 223, 409, 238, 440
-0.997993, 145, 369, 272, 400
-0.997996, 209, 37, 332, 68
-0.997996, 223, 13, 238, 44
-0.998001, 97, 225, 128, 480
-0.998003, 157, 129, 188, 384
-0.998006, 189, 21, 204, 52
-0.998027, 145, 321, 272, 352
-0.998028, 199, 105, 214, 136
-0.998028, 49, 317, 176, 348
-0.998032, 295, 149, 310, 180
-0.998033, 251, 33, 266, 64
-0.998046, 65, 133, 192, 164
-0.998047, 301, 193, 332, 448
-0.998057, 217, 173, 232, 204
-0.998058, 253, 237, 268, 268
-0.99806, 159, 37, 174, 68
-0.998069, 271, 237, 286, 268
-0.998069, 301, 1, 332, 256
-0.99807, 249, 389, 264, 420
-0.998071, 161, 437, 288, 468
-0.998076, 257, 385, 272, 416
-0.998077, 185, 181, 200, 212
-0.998078, 205, 357, 220, 388
-0.998078, 1, 77, 128, 108
-0.998084, 193, 173, 208, 204
-0.998094, 159, 437, 174, 468
-0.998098, 105, 129, 136, 384
-0.998101, 233, 1, 248, 32
-0.998109, 1, 1, 32, 256
-0.998109, 45, 129, 76, 384
-0.998114, 283, 205, 298, 236
-0.998121, 195, 17, 210, 48
-0.998123, 193, 405, 208, 436
-0.99813, 113, 197, 240, 228
-0.99813, 169, 41, 184, 72
-0.998141, 301, 9, 316, 40
-0.998146, 263, 389, 278, 420
-0.99815, 205, 185, 220, 216
-0.998153, 189, 305, 204, 336
-0.998154, 251, 165, 266, 196
-0.998155, 1, 425, 128, 456
-0.99816, 139, 33, 154, 64
-0.998165, 291, 405, 306, 436
-0.998166, 293, 353, 308, 384
-0.99817, 271, 393, 286, 424
-0.998171, 31, 277, 46, 308
-0.998173, 251, 185, 266, 216
-0.998176, 153, 433, 168, 464
-0.998178, 177, 333, 192, 364
-0.998179, 293, 205, 308, 236
-0.998184, 301, 205, 316, 236
-0.998185, 163, 449, 178, 480
-0.99819, 299, 397, 314, 428
-0.99819, 77, 225, 108, 480
-0.998192, 317, 213, 332, 244
-0.998195, 275, 125, 290, 156
-0.998197, 239, 33, 254, 64
-0.998202, 17, 413, 144, 444
-0.998204, 227, 173, 242, 204
-0.998205, 211, 413, 226, 444
-0.998208, 73, 1, 104, 256
-0.998209, 191, 293, 206, 324
-0.998214, 241, 229, 256, 260
-0.998218, 249, 133, 264, 164
-0.998219, 125, 21, 140, 52
-0.998225, 163, 421, 178, 452
-0.998227, 1, 301, 128, 332
-0.998229, 207, 381, 222, 412
-0.998232, 113, 225, 144, 480
-0.998236, 309, 397, 324, 428
-0.998237, 175, 137, 190, 168
-0.99824, 259, 237, 274, 268
-0.998241, 77, 129, 108, 384
-0.998254, 25, 277, 40, 308
-0.998265, 129, 161, 160, 416
-0.998269, 229, 13, 244, 44
-0.998269, 283, 389, 298, 420
-0.998269, 153, 37, 168, 68
-0.998273, 247, 221, 262, 252
-0.998277, 191, 189, 206, 220
-0.998277, 147, 37, 162, 68
-0.998278, 215, 13, 230, 44
-0.99828, 229, 397, 244, 428
-0.998284, 1, 353, 332, 416
-0.998285, 185, 337, 200, 368
-0.998287, 239, 413, 254, 444
-0.998292, 209, 341, 224, 372
-0.998298, 65, 201, 192, 232
-0.998298, 243, 117, 258, 148
-0.998299, 255, 149, 270, 180
-0.9983, 133, 441, 148, 472
-0.998307, 193, 297, 320, 328
-0.998307, 131, 25, 146, 56
-0.998309, 115, 13, 130, 44
-0.998315, 143, 441, 158, 472
-0.998319, 187, 141, 202, 172
-0.998319, 305, 353, 320, 384
-0.99832, 229, 161, 244, 192
-0.998323, 209, 97, 224, 128
-0.998328, 137, 257, 168, 500
-0.998331, 39, 89, 54, 120
-0.998333, 115, 253, 130, 284
-0.998334, 281, 225, 296, 256
-0.998336, 81, 93, 208, 124
-0.998336, 57, 233, 72, 264
-0.998338, 217, 413, 232, 444
-0.998342, 317, 393, 332, 424
-0.998345, 35, 149, 50, 180
-0.998349, 315, 405, 330, 436
-0.99835, 199, 93, 214, 124
-0.998354, 245, 25, 260, 56
-0.998355, 223, 149, 238, 180
-0.998356, 103, 1, 118, 32
-0.998359, 17, 349, 144, 380
-0.998359, 229, 373, 244, 404
-0.998359, 197, 393, 212, 424
-0.99836, 165, 137, 180, 168
-0.99836, 155, 465, 170, 496
-0.998362, 277, 237, 292, 268
-0.998366, 233, 415, 264, 430
-0.998366, 197, 157, 212, 188
-0.998366, 193, 169, 224, 184
-0.998366, 225, 373, 256, 388
-0.998367, 225, 409, 256, 424
-0.998367, 281, 407, 312, 422
-0.998368, 185, 137, 216, 152
-0.998369, 253, 401, 284, 416
-0.998369, 145, 455, 176, 470
-0.998369, 81, 249, 112, 264
-0.998369, 129, 467, 160, 482
-0.998369, 197, 159, 228, 174
-0.99837, 45, 229, 60, 260
-0.99837, 145, 441, 176, 456
-0.99837, 205, 191, 236, 206
-0.99837, 205, 463, 236, 478
-0.998371, 283, 401, 298, 432
-0.998372, 309, 189, 324, 220
-0.998372, 17, 137, 144, 168
-0.998372, 185, 395, 216, 410
-0.998373, 253, 149, 284, 164
-0.998374, 169, 339, 200, 354
-0.998374, 193, 355, 224, 370
-0.998375, 237, 195, 268, 210
-0.998375, 229, 425, 260, 440
-0.998375, 291, 393, 306, 424
-0.998375, 269, 243, 300, 258
-0.998376, 223, 1, 238, 32
-0.998376, 245, 247, 276, 262
-0.998376, 165, 333, 196, 348
-0.998376, 165, 35, 196, 50
-0.998376, 217, 9, 248, 24
-0.998377, 229, 37, 260, 52
-0.998377, 113, 209, 240, 240
-0.998377, 189, 121, 220, 136
-0.998378, 209, 367, 240, 382
-0.998378, 149, 279, 180, 294
-0.998378, 269, 127, 300, 142
-0.998379, 229, 171, 260, 186
-0.998381, 233, 131, 264, 146
-0.998381, 193, 419, 224, 434
-0.998381, 121, 27, 152, 42
-0.998381, 25, 91, 56, 106
-0.998382, 53, 235, 84, 250
-0.998383, 197, 153, 228, 168
-0.998383, 41, 1, 72, 256
-0.998383, 53, 225, 84, 480
-0.998383, 105, 269, 136, 284
-0.998383, 189, 409, 220, 424
-0.998384, 105, 17, 136, 32
-0.998384, 229, 29, 260, 44
-0.998384, 241, 185, 272, 200
-0.998384, 181, 31, 212, 46
-0.998385, 213, 167, 244, 182
-0.998386, 101, 247, 132, 262
-0.998386, 89, 483, 120, 498
-0.998387, 209, 373, 240, 388
-0.998387, 121, 245, 136, 276
-0.998388, 189, 21, 220, 36
-0.998388, 189, 175, 220, 190
-0.998388, 27, 149, 42, 180
-0.998388, 25, 289, 56, 304
-0.998388, 245, 241, 276, 256
-0.998389, 161, 421, 192, 436
-0.998389, 221, 191, 252, 206
-0.99839, 293, 387, 324, 402
-0.998391, 13, 1, 44, 256
-0.998392, 213, 177, 244, 192
-0.998392, 201, 413, 232, 428
-0.998394, 245, 225, 276, 480
-0.998394, 241, 165, 272, 180
-0.998395, 233, 395, 264, 410
-0.998396, 297, 223, 328, 238
-0.998396, 193, 341, 224, 356
-0.998396, 253, 225, 268, 256
-0.998396, 233, 231, 264, 246
-0.998397, 265, 383, 296, 398
-0.998397, 249, 149, 264, 180
-0.998397, 111, 465, 126, 496
-0.998398, 277, 219, 308, 234
-0.998398, 83, 441, 98, 472
-0.998399, 1, 83, 32, 98
-0.9984, 161, 139, 192, 154
-0.9984, 189, 145, 220, 160
-0.998401, 209, 419, 240, 434
-0.998401, 25, 279, 56, 294
-0.998401, 301, 213, 332, 228
-0.998404, 129, 473, 160, 488
-0.998405, 181, 309, 212, 324
-0.998405, 201, 13, 216, 44
-0.998407, 13, 87, 44, 102
-0.998407, 241, 409, 272, 424
-0.998407, 193, 73, 208, 104
-0.998407, 255, 113, 270, 144
-0.998408, 201, 393, 264, 408
-0.998408, 171, 441, 186, 472
-0.998408, 161, 117, 192, 132
-0.998409, 133, 445, 164, 460
-0.998409, 309, 1, 324, 32
-0.99841, 169, 225, 200, 480
-0.998411, 101, 479, 132, 494
-0.998413, 245, 383, 276, 398
-0.998414, 149, 467, 180, 482
-0.998418, 269, 389, 300, 404
-0.998419, 169, 415, 200, 430
-0.998421, 301, 405, 332, 420
-0.998421, 57, 1, 88, 256
-0.998424, 241, 29, 272, 44
-0.998425, 189, 335, 220, 350
-0.998425, 237, 123, 268, 138
-0.998426, 157, 41, 188, 56
-0.998426, 241, 13, 272, 28
-0.998427, 257, 129, 288, 144
-0.998428, 253, 143, 284, 158
-0.998429, 101, 471, 132, 486
-0.998432, 233, 237, 264, 252
-0.998435, 189, 115, 220, 130
-0.998436, 221, 415, 252, 430
-0.998437, 245, 231, 276, 246
-0.998437, 213, 15, 244, 30
-0.998439, 241, 7, 272, 22
-0.998442, 253, 137, 284, 152
-0.998443, 221, 395, 252, 410
-0.998445, 145, 39, 176, 54
-0.998447, 49, 389, 176, 420
-0.998449, 225, 21, 256, 36
-0.99845, 185, 107, 216, 122
-0.998452, 301, 207, 332, 222
-0.998453, 201, 385, 264, 400
-0.998453, 281, 391, 312, 406
-0.998455, 189, 187, 220, 202
-0.998456, 241, 37, 272, 52
-0.998457, 201, 15, 232, 30
-0.998458, 293, 399, 324, 414
-0.99846, 241, 19, 272, 34
-0.998461, 209, 185, 240, 200
-0.998464, 241, 391, 304, 406
-0.998465, 229, 383, 260, 398
-0.998467, 257, 389, 288, 404
-0.998469, 229, 163, 260, 178
-0.99847, 209, 379, 240, 394
-0.99847, 257, 241, 288, 256
-0.998473, 265, 399, 296, 414
-0.998473, 189, 181, 220, 196
-0.998475, 281, 207, 312, 222
-0.998475, 169, 185, 200, 200
-0.998477, 185, 181, 248, 196
-0.998477, 193, 17, 256, 32
-0.998478, 281, 213, 312, 228
-0.998481, 193, 193, 224, 208
-0.998482, 205, 391, 236, 406
-0.998489, 217, 161, 248, 176
-0.998493, 245, 395, 276, 410
-0.998496, 1, 89, 128, 120
-0.998497, 289, 161, 320, 176
-0.998502, 193, 163, 256, 178
-0.998503, 85, 1, 116, 256
-0.998508, 241, 239, 304, 254
-0.998515, 249, 205, 312, 220
-0.998515, 241, 231, 304, 246
-0.998518, 29, 1, 60, 256
-0.998519, 169, 187, 232, 202
-0.998519, 241, 125, 304, 140
-0.998524, 209, 121, 272, 136
-0.998527, 273, 207, 332, 222
-0.99853, 225, 15, 256, 30
-0.998534, 1, 325, 128, 356
-0.998536, 185, 175, 248, 190
-0.998537, 105, 475, 168, 490
-0.998539, 269, 97, 300, 352
-0.998544, 229, 1, 260, 16
-0.998544, 249, 211, 312, 226
-0.998544, 265, 401, 328, 416
-0.998546, 209, 133, 272, 148
-0.998547, 229, 389, 260, 404
-0.998548, 217, 177, 280, 192
-0.998551, 209, 195, 272, 210
-0.998551, 249, 169, 312, 184
-0.998554, 153, 141, 216, 156
-0.998555, 249, 123, 280, 138
-0.998556, 161, 109, 224, 124
-0.998558, 241, 397, 304, 412
-0.998559, 81, 481, 144, 496
-0.99856, 217, 171, 280, 186
-0.998562, 193, 411, 256, 426
-0.998563, 177, 387, 240, 402
-0.998563, 201, 189, 264, 204
-0.998565, 249, 141, 312, 156
-0.998565, 257, 177, 320, 192
-0.998566, 209, 385, 240, 400
-0.998567, 241, 245, 304, 260
-0.998568, 241, 385, 304, 400
-0.998568, 193, 157, 256, 172
-0.998569, 273, 217, 332, 232
-0.998571, 193, 399, 256, 414
-0.998572, 161, 127, 224, 142
-0.998575, 249, 199, 312, 214
-0.998576, 209, 237, 272, 252
-0.998577, 169, 147, 232, 162
-0.998579, 217, 247, 280, 262
-0.99858, 161, 121, 224, 136
-0.99858, 161, 307, 224, 322
-0.998581, 193, 419, 256, 434
-0.998582, 233, 23, 296, 38
-0.998582, 245, 389, 276, 404
-0.998583, 249, 217, 312, 232
-0.998584, 209, 127, 272, 142
-0.998584, 129, 455, 192, 470
-0.998585, 249, 159, 312, 174
-0.998586, 233, 409, 296, 424
-0.998587, 201, 379, 264, 394
-0.998588, 169, 461, 232, 476
-0.998589, 33, 129, 64, 384
-0.998589, 137, 39, 200, 54
-0.99859, 169, 415, 232, 430
-0.998592, 265, 135, 328, 150
-0.998592, 257, 409, 320, 424
-0.998593, 137, 27, 200, 42
-0.998593, 193, 23, 256, 38
-0.998594, 209, 139, 272, 154
-0.998594, 185, 343, 248, 358
-0.998594, 241, 223, 304, 238
-0.998596, 169, 327, 232, 342
-0.998597, 229, 9, 260, 24
-0.998598, 249, 149, 312, 164
-0.998598, 273, 223, 332, 238
-0.998598, 249, 183, 312, 198
-0.9986, 161, 135, 224, 150
-0.9986, 137, 467, 200, 482
-0.9986, 41, 239, 104, 254
-0.998601, 65, 473, 128, 488
-0.998602, 161, 395, 224, 410
-0.998603, 153, 433, 216, 448
-0.998604, 177, 193, 240, 208
-0.998605, 113, 469, 176, 484
-0.998605, 233, 133, 296, 148
-0.998606, 1, 89, 64, 104
-0.998606, 193, 427, 256, 442
-0.998607, 65, 225, 96, 480
-0.998607, 17, 279, 80, 294
-0.998608, 193, 349, 256, 364
-0.998609, 233, 417, 296, 432
-0.998609, 1, 385, 128, 416
-0.99861, 185, 141, 248, 156
-0.99861, 225, 11, 288, 26
-0.99861, 273, 383, 332, 398
-0.99861, 241, 189, 304, 204
-0.998611, 161, 115, 224, 130
-0.998613, 137, 33, 200, 48
-0.998614, 209, 201, 272, 216
-0.998614, 97, 29, 160, 44
-0.998616, 49, 485, 112, 500
-0.998616, 153, 427, 216, 442
-0.998616, 209, 147, 272, 162
-0.998616, 265, 389, 328, 404
-0.998617, 201, 369, 264, 384
-0.998618, 113, 243, 176, 258
-0.998619, 249, 5, 312, 20
-0.998619, 121, 279, 184, 294
-0.998619, 169, 321, 232, 336
-0.99862, 161, 353, 224, 368
-0.99862, 185, 169, 248, 184
-0.998621, 161, 181, 224, 196
-0.998622, 161, 199, 224, 214
-0.998622, 193, 363, 256, 378
-0.998622, 193, 405, 256, 420
-0.998622, 201, 469, 264, 484
-0.998623, 161, 35, 224, 50
-0.998623, 145, 285, 208, 300
-0.998623, 129, 475, 192, 490
-0.998623, 161, 439, 224, 454
-0.998624, 201, 253, 264, 268
-0.998625, 169, 337, 232, 352
-0.998625, 121, 483, 184, 498
-0.998625, 89, 443, 152, 458
-0.998625, 113, 35, 176, 50
-0.998626, 273, 415, 332, 430
-0.998626, 209, 183, 272, 198
-0.998626, 233, 373, 296, 388
-0.998627, 153, 421, 216, 436
-0.998627, 201, 355, 264, 370
-0.998627, 169, 409, 232, 424
-0.998628, 161, 157, 224, 172
-0.998628, 249, 39, 312, 54
-0.998628, 217, 163, 280, 178
-0.99863, 153, 473, 216, 488
-0.99863, 89, 453, 152, 468
-0.99863, 121, 445, 184, 460
-0.99863, 273, 235, 332, 250
-0.99863, 273, 325, 332, 340
-0.998631, 177, 379, 240, 394
-0.998631, 273, 363, 332, 378
-0.998632, 145, 147, 208, 162
-0.998632, 97, 463, 160, 478
-0.998653, 157, 225, 188, 480
-0.998653, 81, 169, 208, 200
-0.998666, 209, 61, 332, 92
-0.998709, 49, 361, 176, 392
-0.998715, 49, 373, 176, 404
-0.998737, 203, 113, 218, 240
-0.998749, 49, 105, 176, 136
-0.998784, 209, 49, 332, 80
-0.998785, 41, 225, 72, 480
-0.998836, 81, 57, 208, 88
-0.998848, 49, 333, 176, 364
-0.998882, 167, 33, 182, 160
-0.998887, 205, 353, 220, 480
-0.998892, 97, 365, 224, 396
-0.998894, 1, 37, 128, 68
-0.998895, 121, 1, 136, 128
-0.998901, 201, 1, 216, 128
-0.998907, 195, 1, 210, 128
-0.99894, 293, 129, 308, 256
-0.998943, 173, 33, 188, 160
-0.998953, 211, 1, 226, 128
-0.998963, 195, 97, 210, 224
-0.998969, 183, 17, 198, 144
-0.99897, 219, 1, 234, 128
-0.998994, 111, 1, 126, 128
-0.998995, 201, 305, 216, 432
-0.999018, 211, 321, 226, 448
-0.999024, 247, 145, 262, 272
-0.999027, 189, 1, 204, 128
-0.999039, 259, 113, 274, 240
-0.999047, 159, 33, 174, 160
-0.999049, 261, 65, 276, 192
-0.999054, 13, 129, 44, 384
-0.999059, 245, 1, 260, 128
-0.999061, 253, 113, 268, 240
-0.999062, 227, 337, 242, 464
-0.999066, 227, 1, 242, 128
-0.999083, 249, 193, 264, 320
-0.999096, 195, 305, 210, 432
-0.999104, 235, 353, 250, 480
-0.999115, 299, 129, 314, 256
-0.999119, 287, 161, 302, 288
-0.999128, 1, 89, 332, 152
-0.999132, 317, 177, 332, 304
-0.999134, 199, 369, 214, 496
-0.999136, 197, 145, 212, 272
-0.999142, 159, 241, 174, 368
-0.99915, 279, 193, 294, 320
-0.999155, 217, 337, 232, 464
-0.999161, 241, 353, 256, 480
-0.999161, 187, 113, 202, 240
-0.999164, 151, 17, 166, 144
-0.99917, 113, 241, 128, 368
-0.999172, 315, 321, 330, 448
-0.999172, 165, 241, 180, 368
-0.999175, 209, 97, 224, 224
-0.999177, 143, 17, 158, 144
-0.999182, 25, 65, 40, 192
-0.999195, 251, 1, 266, 128
-0.999198, 163, 113, 178, 240
-0.999202, 289, 1, 304, 128
-0.999208, 283, 337, 298, 464
-0.999212, 221, 161, 236, 288
-0.999213, 203, 193, 218, 320
-0.999215, 227, 161, 242, 288
-0.999215, 211, 369, 226, 496
-0.999219, 237, 161, 252, 288
-0.999219, 137, 17, 152, 144
-0.99922, 229, 257, 244, 384
-0.999225, 205, 257, 220, 384
-0.999231, 165, 177, 180, 304
-0.999231, 307, 337, 322, 464
-0.999231, 129, 17, 144, 144
-0.999233, 251, 369, 266, 496
-0.999234, 313, 257, 328, 384
-0.999236, 157, 113, 172, 240
-0.999238, 213, 145, 228, 272
-0.99924, 309, 193, 324, 320
-0.99924, 1, 65, 16, 192
-0.999246, 237, 1, 252, 128
-0.999249, 181, 321, 196, 448
-0.999252, 243, 225, 258, 352
-0.99926, 175, 321, 190, 448
-0.999265, 267, 65, 282, 192
-0.999271, 291, 209, 306, 336
-0.999272, 285, 257, 300, 384
-0.999274, 211, 257, 226, 384
-0.999277, 175, 113, 190, 240
-0.99928, 265, 113, 280, 240
-0.999283, 17, 1, 32, 128
-0.999283, 295, 337, 310, 464
-0.999286, 45, 241, 60, 368
-0.999288, 197, 193, 212, 320
-0.99929, 199, 49, 214, 176
-0.999291, 19, 65, 34, 192
-0.999295, 125, 257, 156, 500
-0.9993, 169, 97, 184, 224
-0.999301, 85, 241, 100, 368
-0.999304, 181, 97, 196, 224
-0.999312, 189, 321, 204, 448
-0.999316, 281, 1, 296, 128
-0.999316, 183, 161, 198, 288
-0.999324, 53, 225, 68, 352
-0.999325, 289, 337, 304, 464
-0.999325, 1, 257, 32, 500
-0.999329, 303, 177, 318, 304
-0.99933, 121, 241, 136, 368
-0.99933, 191, 177, 206, 304
-0.999335, 107, 225, 122, 352
-0.999336, 209, 193, 224, 320
-0.999336, 301, 337, 316, 464
-0.999339, 269, 321, 284, 448
-0.99934, 221, 257, 236, 384
-0.999348, 305, 129, 320, 256
-0.999348, 175, 241, 190, 368
-0.99935, 295, 1, 310, 128
-0.999352, 25, 1, 40, 128
-0.999354, 255, 65, 270, 192
-0.999354, 295, 257, 310, 384
-0.999355, 277, 337, 292, 464
-0.999355, 309, 1, 324, 128
-0.999359, 263, 337, 278, 464
-0.999359, 279, 273, 294, 400
-0.999364, 153, 209, 168, 336
-0.999366, 251, 241, 266, 368
-0.99937, 317, 1, 332, 128
-0.999371, 191, 257, 206, 384
-0.999372, 255, 177, 270, 304
-0.999379, 51, 289, 66, 416
-0.999381, 145, 369, 160, 496
-0.999381, 187, 369, 202, 496
-0.999381, 151, 129, 166, 256
-0.999384, 167, 321, 182, 448
-0.999384, 177, 161, 192, 288
-0.99939, 9, 65, 24, 192
-0.999391, 239, 113, 254, 240
-0.999391, 209, 49, 224, 176
-0.999392, 229, 113, 244, 240
-0.999396, 237, 257, 252, 384
-0.999397, 215, 193, 230, 320
-0.999403, 193, 369, 208, 496
-0.999403, 233, 305, 248, 432
-0.999407, 275, 1, 290, 128
-0.999408, 197, 257, 212, 384
-0.999409, 1, 1, 16, 128
-0.999412, 303, 289, 318, 416
-0.999488, 29, 225, 60, 480
-0.999566, 163, 431, 178, 446
-0.999567, 221, 465, 236, 480
-0.999567, 307, 393, 322, 408
-0.999567, 267, 417, 282, 432
-0.999568, 195, 19, 210, 34
-0.999568, 183, 341, 198, 356
-0.999568, 193, 183, 208, 198
-0.999568, 209, 101, 224, 116
-0.999568, 265, 127, 280, 142
-0.999569, 179, 419, 194, 434
-0.999569, 137, 459, 152, 474
-0.999569, 233, 377, 248, 392
-0.99957, 253, 409, 268, 424
-0.99957, 223, 9, 238, 24
-0.999571, 115, 273, 130, 288
-0.999573, 289, 393, 304, 408
-0.999573, 307, 403, 322, 418
-0.999573, 189, 25, 204, 40
-0.999573, 183, 31, 198, 46
-0.999573, 207, 185, 222, 200
-0.999574, 277, 241, 292, 256
-0.999574, 289, 443, 304, 458
-0.999574, 309, 219, 324, 234
-0.999575, 299, 357, 314, 372
-0.999575, 29, 289, 44, 304
-0.999575, 109, 263, 124, 278
-0.999576, 253, 237, 268, 252
-0.999577, 249, 245, 264, 260
-0.999577, 225, 379, 240, 394
-0.999577, 105, 5, 120, 20
-0.999577, 115, 13, 130, 28
-0.999578, 245, 121, 260, 136
-0.999578, 313, 407, 328, 422
-0.999578, 125, 21, 140, 36
-0.999579, 233, 5, 248, 20
-0.999579, 231, 171, 246, 186
-0.999579, 193, 397, 208, 412
-0.999579, 261, 401, 276, 416
-0.999579, 23, 87, 38, 102
-0.99958, 173, 331, 188, 346
-0.99958, 29, 281, 44, 296
-0.999581, 165, 41, 180, 56
-0.999581, 205, 359, 220, 374
-0.999582, 201, 191, 216, 206
-0.999582, 153, 39, 168, 54
-0.999583, 241, 163, 256, 178
-0.999584, 193, 391, 208, 406
-0.999584, 185, 417, 200, 432
-0.999584, 225, 395, 240, 410
-0.999584, 221, 163, 236, 178
-0.999585, 151, 455, 166, 470
-0.999585, 307, 355, 322, 370
-0.999586, 211, 363, 226, 378
-0.999586, 79, 483, 94, 498
-0.999587, 239, 33, 254, 48
-0.999588, 293, 209, 308, 224
-0.999588, 305, 205, 320, 220
-0.999588, 179, 335, 194, 350
-0.999588, 225, 415, 240, 430
-0.999588, 119, 477, 134, 492
-0.999589, 159, 41, 174, 56
-0.99959, 215, 379, 230, 394
-0.99959, 293, 161, 308, 176
-0.99959, 159, 437, 174, 452
-0.999591, 157, 143, 172, 158
-0.999591, 89, 481, 104, 496
-0.999591, 257, 145, 272, 160
-0.999592, 235, 19, 250, 34
-0.999593, 191, 191, 206, 206
-0.999593, 185, 471, 200, 486
-0.999594, 133, 29, 148, 44
-0.999594, 215, 413, 230, 428
-0.999595, 83, 445, 98, 460
-0.999595, 317, 213, 332, 228
-0.999596, 235, 415, 250, 430
-0.9996, 203, 381, 218, 396
-0.999601, 143, 463, 158, 478
-0.999603, 249, 187, 264, 202
-0.999603, 245, 17, 260, 32
-0.999605, 235, 27, 250, 42
-0.999605, 213, 369, 228, 384
-0.999605, 271, 239, 286, 254
-0.999605, 151, 463, 166, 478
-0.999606, 103, 481, 118, 496
-0.999607, 299, 149, 314, 164
-0.999607, 255, 395, 270, 410
-0.999608, 269, 391, 284, 406
-0.999608, 283, 389, 298, 404
-0.999609, 245, 27, 260, 42
-0.999609, 257, 125, 272, 140
-0.99961, 285, 205, 300, 220
-0.999611, 183, 183, 198, 198
-0.999613, 211, 191, 226, 206
-0.999613, 237, 385, 252, 400
-0.999614, 229, 165, 244, 180
-0.999615, 143, 37, 158, 52
-0.999615, 231, 395, 246, 410
-0.999616, 267, 399, 282, 414
-0.999618, 223, 15, 238, 30
-0.99962, 243, 239, 258, 254
-0.999621, 271, 127, 286, 142
-0.999621, 159, 485, 174, 500
-0.999621, 283, 215, 298, 230
-0.999622, 251, 37, 266, 52
-0.999624, 161, 461, 176, 476
-0.999626, 115, 471, 130, 486
-0.999626, 241, 233, 256, 248
-0.999629, 1, 83, 16, 98
-0.999631, 191, 309, 206, 324
-0.999631, 201, 107, 216, 122
-0.999631, 203, 391, 218, 406
-0.999632, 217, 173, 232, 188
-0.999634, 251, 389, 266, 404
-0.999644, 235, 13, 250, 28
-0.999644, 247, 229, 262, 244
-0.999646, 115, 267, 130, 282
-0.999647, 215, 179, 230, 194
-0.999648, 245, 37, 260, 52
-0.999655, 225, 385, 240, 400
-0.999655, 245, 389, 260, 404
-0.999657, 245, 11, 260, 26
-0.999659, 259, 389, 274, 404
-0.999663, 295, 155, 310, 170
-0.999665, 223, 157, 238, 172
-0.999667, 237, 391, 252, 406
-0.999678, 213, 185, 228, 200
-0.999684, 251, 121, 266, 136
-0.999701, 231, 389, 246, 404
-0.999711, 235, 163, 250, 178
-0.999743, 245, 5, 260, 20
-0.999932, 13, 225, 44, 480
-0.999965, 1, 161, 32, 416
