1952
-0.114844, 1, 1, 500, 375
-0.271663, 1, 1, 500, 256
-0.315501, 1, 97, 500, 352
-0.422138, 225, 1, 480, 375
-0.456837, 129, 1, 384, 375
-0.508545, 33, 65, 288, 320
-0.521445, 1, 1, 256, 375
-0.542461, 257, 1, 500, 256
-0.565983, 161, 97, 416, 352
-0.644976, 257, 129, 500, 375
-0.717499, 129, 1, 384, 256
-0.829238, 65, 1, 192, 256
-0.830985, 129, 97, 256, 352
-0.832677, 129, 1, 256, 375
-0.832912, 321, 1, 448, 256
-0.836322, 273, 1, 400, 375
-0.838172, 81, 1, 208, 375
-0.839988, 369, 1, 496, 256
-0.841808, 17, 1, 144, 375
-0.846697, 65, 97, 192, 352
-0.849546, 209, 97, 336, 352
-0.85443, 1, 33, 500, 160
-0.858245, 129, 1, 256, 256
-0.859555, 17, 97, 144, 352
-0.860517, 273, 1, 400, 256
-0.863684, 17, 1, 144, 256
-0.863783, 193, 1, 320, 375
-0.864, 369, 1, 496, 375
-0.867924, 1, 113, 500, 240
-0.877853, 321, 97, 448, 352
-0.879044, 273, 97, 400, 352
-0.879067, 321, 1, 448, 375
-0.883803, 369, 97, 496, 352
-0.889044, 177, 1, 304, 256
-0.89392, 1, 225, 500, 352
-0.895766, 225, 65, 480, 192
-0.90602, 97, 81, 352, 208
-0.906093, 1, 65, 256, 192
-0.90674, 97, 225, 352, 352
-0.908072, 1, 161, 500, 288
-0.916219, 225, 17, 480, 144
-0.917456, 225, 1, 352, 256
-0.917756, 393, 1, 456, 128
-0.917816, 257, 145, 500, 272
-0.919069, 65, 1, 192, 128
-0.919069, 97, 129, 352, 256
-0.922362, 1, 49, 128, 176
-0.925281, 49, 33, 112, 160
-0.926164, 1, 1, 256, 128
-0.926585, 369, 17, 496, 144
-0.926639, 1, 161, 256, 288
-0.927292, 225, 193, 480, 320
-0.927605, 321, 1, 448, 128
-0.927851, 129, 225, 256, 352
-0.928079, 113, 65, 240, 192
-0.928288, 65, 81, 192, 208
-0.928617, 145, 65, 208, 192
-0.930931, 17, 49, 80, 176
-0.932076, 129, 33, 384, 160
-0.932774, 329, 1, 392, 128
-0.933554, 161, 65, 288, 192
-0.93433, 425, 17, 488, 144
-0.934757, 369, 97, 496, 224
-0.934886, 1, 209, 256, 336
-0.936112, 393, 65, 456, 192
-0.936653, 17, 97, 144, 224
-0.93689, 209, 241, 336, 368
-0.938632, 81, 81, 144, 208
-0.938893, 305, 49, 432, 176
-0.93949, 57, 89, 120, 152
-0.940277, 81, 161, 208, 288
-0.941357, 145, 73, 208, 136
-0.941779, 41, 97, 104, 224
-0.941818, 225, 209, 288, 336
-0.942186, 393, 9, 456, 72
-0.94224, 185, 209, 248, 336
-0.942322, 209, 97, 336, 224
-0.942546, 273, 97, 336, 224
-0.942996, 129, 113, 256, 240
-0.94326, 361, 17, 424, 144
-0.944331, 113, 1, 176, 128
-0.94448, 1, 89, 64, 152
-0.944561, 153, 225, 216, 352
-0.945013, 81, 241, 208, 368
-0.945407, 257, 81, 384, 208
-0.945442, 273, 1, 400, 128
-0.945487, 193, 241, 448, 368
-0.945513, 41, 65, 104, 128
-0.946444, 177, 193, 304, 320
-0.946463, 321, 97, 448, 224
-0.946724, 425, 129, 488, 256
-0.946785, 73, 1, 136, 128
-0.946785, 65, 161, 128, 288
-0.946873, 169, 81, 232, 208
-0.947041, 249, 113, 312, 240
-0.947261, 1, 113, 256, 240
-0.947347, 185, 105, 248, 168
-0.947361, 113, 113, 176, 240
-0.947594, 425, 65, 488, 192
-0.947996, 337, 25, 400, 88
-0.94819, 145, 97, 208, 160
-0.948375, 33, 193, 160, 320
-0.948823, 305, 145, 432, 272
-0.94911, 361, 129, 424, 256
-0.949444, 369, 65, 432, 192
-0.949463, 129, 225, 192, 352
-0.949631, 297, 1, 360, 64
-0.950182, 129, 177, 384, 304
-0.950636, 145, 17, 272, 144
-0.950729, 225, 81, 288, 208
-0.950829, 385, 41, 448, 104
-0.951228, 17, 97, 80, 224
-0.951251, 353, 241, 480, 368
-0.951306, 145, 1, 208, 128
-0.951811, 257, 129, 384, 256
-0.952054, 353, 1, 416, 64
-0.952166, 313, 113, 376, 240
-0.952188, 209, 105, 272, 168
-0.952812, 249, 49, 312, 176
-0.952822, 305, 1, 368, 128
-0.953183, 305, 49, 368, 176
-0.953277, 97, 113, 160, 176
-0.953475, 73, 161, 136, 224
-0.95348, 249, 209, 312, 336
-0.95389, 193, 81, 256, 208
-0.953924, 425, 33, 488, 96
-0.954665, 137, 113, 200, 240
-0.954673, 25, 97, 88, 160
-0.954795, 17, 1, 144, 128
-0.954798, 393, 113, 456, 240
-0.954819, 425, 89, 488, 152
-0.954872, 233, 233, 296, 296
-0.955147, 81, 1, 144, 64
-0.95522, 17, 65, 80, 128
-0.955631, 41, 41, 104, 104
-0.956105, 401, 65, 464, 128
-0.956153, 121, 65, 184, 192
-0.956271, 129, 177, 256, 304
-0.956426, 41, 121, 104, 184
-0.956669, 17, 1, 80, 128
-0.956776, 393, 209, 456, 336
-0.956888, 257, 161, 320, 288
-0.957002, 369, 145, 496, 272
-0.957157, 105, 137, 168, 200
-0.957198, 329, 1, 392, 64
-0.957458, 145, 49, 208, 112
-0.957679, 105, 1, 168, 64
-0.957755, 169, 49, 232, 112
-0.957923, 41, 161, 104, 288
-0.958136, 65, 209, 128, 272
-0.95814, 177, 33, 240, 160
-0.958461, 257, 105, 320, 168
-0.95852, 17, 145, 144, 272
-0.958643, 137, 121, 200, 184
-0.9587, 337, 129, 400, 256
-0.958767, 185, 225, 248, 288
-0.959118, 337, 193, 464, 320
-0.959276, 281, 49, 344, 176
-0.9594, 105, 225, 168, 352
-0.959428, 377, 65, 440, 128
-0.959611, 361, 25, 424, 88
-0.959624, 425, 137, 488, 200
-0.959864, 65, 65, 128, 128
-0.959869, 105, 81, 168, 144
-0.959971, 73, 1, 136, 256
-0.959995, 137, 177, 200, 304
-0.960009, 433, 177, 496, 304
-0.960184, 9, 137, 72, 200
-0.960245, 145, 241, 208, 304
-0.960616, 169, 129, 232, 192
-0.960689, 41, 169, 104, 232
-0.961082, 17, 241, 144, 368
-0.961371, 417, 241, 480, 368
-0.961397, 425, 1, 456, 128
-0.961462, 225, 193, 352, 320
-0.961483, 209, 49, 336, 176
-0.961741, 233, 113, 296, 176
-0.961859, 401, 233, 464, 296
-0.962006, 369, 1, 432, 256
-0.962109, 73, 185, 136, 248
-0.962152, 113, 273, 176, 336
-0.962155, 41, 209, 104, 336
-0.962372, 105, 161, 168, 288
-0.962399, 1, 113, 64, 176
-0.962585, 137, 33, 200, 288
-0.962668, 393, 161, 456, 288
-0.963003, 209, 145, 336, 272
-0.963175, 433, 9, 496, 72
-0.963176, 385, 129, 448, 192
-0.963185, 41, 1, 104, 256
-0.963213, 425, 57, 488, 120
-0.963592, 193, 97, 224, 160
-0.96367, 65, 25, 128, 88
-0.964084, 425, 113, 488, 176
-0.96423, 121, 33, 184, 96
-0.964399, 193, 1, 320, 128
-0.964501, 1, 73, 128, 136
-0.964677, 73, 129, 136, 192
-0.964691, 33, 193, 96, 256
-0.965368, 193, 129, 256, 192
-0.965373, 409, 1, 440, 128
-0.965486, 9, 161, 72, 224
-0.965489, 225, 129, 288, 256
-0.965498, 289, 145, 352, 272
-0.965701, 337, 49, 400, 176
-0.965724, 73, 209, 136, 336
-0.965742, 369, 33, 496, 96
-0.965759, 89, 265, 152, 328
-0.965846, 81, 73, 208, 136
-0.965938, 217, 81, 280, 144
-0.965982, 105, 97, 168, 352
-0.966031, 185, 81, 248, 144
-0.966054, 329, 137, 392, 200
-0.966061, 329, 49, 392, 112
-0.966101, 201, 257, 264, 320
-0.966205, 385, 97, 448, 160
-0.966314, 33, 233, 96, 296
-0.96639, 353, 9, 480, 72
-0.966608, 9, 265, 72, 328
-0.96665, 169, 129, 232, 256
-0.966722, 233, 209, 296, 272
-0.966725, 201, 297, 264, 360
-0.96684, 105, 161, 168, 224
-0.967121, 9, 161, 72, 288
-0.967151, 313, 25, 376, 88
-0.967166, 105, 241, 168, 304
-0.967256, 53, 33, 84, 160
-0.967398, 329, 1, 392, 256
-0.967414, 81, 89, 144, 152
-0.967439, 273, 145, 336, 208
-0.967464, 369, 153, 432, 216
-0.967774, 329, 169, 392, 232
-0.967968, 225, 33, 288, 160
-0.967974, 249, 137, 312, 200
-0.968091, 49, 97, 112, 352
-0.968188, 273, 1, 336, 64
-0.968283, 209, 217, 272, 280
-0.968317, 73, 33, 104, 160
-0.96837, 41, 65, 72, 128
-0.968397, 137, 265, 200, 328
-0.968482, 353, 49, 416, 112
-0.968518, 297, 65, 360, 128
-0.968574, 225, 305, 288, 368
-0.968735, 129, 97, 256, 160
-0.968778, 201, 33, 264, 160
-0.96878, 273, 225, 400, 352
-0.968818, 57, 233, 120, 296
-0.968839, 153, 129, 216, 375
-0.968854, 137, 1, 200, 64
-0.968901, 369, 177, 432, 304
-0.968941, 33, 145, 96, 208
-0.969085, 53, 97, 84, 160
-0.969093, 153, 289, 216, 352
-0.969126, 241, 81, 304, 144
-0.969143, 81, 297, 144, 360
-0.969353, 393, 33, 456, 288
-0.969384, 1, 241, 64, 368
-0.969428, 225, 257, 288, 320
-0.969573, 145, 233, 272, 296
-0.969676, 369, 241, 432, 368
-0.969698, 193, 57, 256, 120
-0.969786, 417, 305, 480, 368
-0.969787, 169, 25, 232, 88
-0.969936, 81, 97, 144, 352
-0.96995, 425, 273, 488, 336
-0.970037, 165, 57, 196, 120
-0.970102, 425, 1, 488, 256
-0.97011, 257, 209, 320, 272
-0.97037, 337, 281, 400, 344
-0.97042, 297, 153, 360, 216
-0.970539, 281, 105, 344, 168
-0.970552, 81, 105, 208, 168
-0.970675, 361, 121, 424, 184
-0.970806, 5, 105, 36, 168
-0.970831, 113, 297, 176, 360
-0.970857, 209, 105, 336, 168
-0.970992, 393, 153, 456, 216
-0.971073, 217, 97, 280, 352
-0.971113, 417, 65, 448, 192
-0.9713, 157, 33, 188, 160
-0.971429, 97, 57, 160, 120
-0.971486, 201, 129, 264, 256
-0.971493, 65, 41, 96, 104
-0.971554, 1, 97, 128, 160
-0.971563, 273, 81, 336, 144
-0.971577, 281, 1, 344, 128
-0.971603, 413, 49, 444, 112
-0.971603, 177, 281, 240, 344
-0.971729, 153, 41, 184, 104
-0.971792, 401, 209, 464, 272
-0.971795, 297, 313, 360, 375
-0.971801, 213, 209, 244, 336
-0.971838, 97, 1, 160, 256
-0.972107, 33, 17, 96, 80
-0.97218, 53, 33, 84, 96
-0.972189, 405, 1, 436, 64
-0.972254, 425, 9, 456, 72
-0.972411, 205, 113, 236, 176
-0.972429, 173, 49, 204, 176
-0.972461, 369, 57, 496, 120
-0.97255, 21, 89, 52, 152
-0.972608, 249, 97, 312, 352
-0.972691, 101, 161, 132, 224
-0.972732, 273, 209, 336, 336
-0.972739, 17, 129, 144, 192
-0.972784, 209, 241, 336, 304
-0.972799, 193, 129, 320, 192
-0.972833, 181, 73, 212, 136
-0.972963, 49, 265, 112, 328
-0.972966, 81, 129, 208, 192
-0.97297, 161, 177, 224, 304
-0.972985, 265, 241, 328, 304
-0.973017, 277, 81, 308, 208
-0.973035, 57, 1, 120, 64
-0.973053, 161, 1, 224, 64
-0.973129, 421, 73, 452, 136
-0.973137, 49, 9, 176, 72
-0.973151, 61, 73, 92, 136
-0.973224, 77, 145, 108, 272
-0.973269, 389, 1, 420, 64
-0.973329, 161, 33, 224, 288
-0.973484, 73, 65, 104, 128
-0.973557, 81, 153, 112, 216
-0.973582, 145, 121, 272, 184
-0.973639, 241, 1, 368, 64
-0.973694, 85, 1, 116, 128
-0.973731, 369, 249, 432, 312
-0.973736, 337, 137, 464, 200
-0.973736, 397, 1, 428, 128
-0.973737, 405, 97, 436, 224
-0.973795, 297, 129, 360, 192
-0.973834, 305, 1, 368, 256
-0.973893, 237, 209, 268, 336
-0.973928, 433, 209, 496, 272
-0.974026, 161, 225, 192, 352
-0.974027, 257, 105, 384, 168
-0.974063, 229, 105, 260, 168
-0.974066, 133, 1, 164, 128
-0.974108, 129, 73, 256, 136
-0.974123, 1, 297, 64, 360
-0.974141, 349, 25, 380, 88
-0.974148, 273, 281, 336, 344
-0.974163, 321, 33, 448, 96
-0.974203, 17, 41, 80, 104
-0.974207, 9, 1, 72, 256
-0.974386, 313, 241, 376, 368
-0.974387, 297, 81, 328, 208
-0.974418, 129, 145, 192, 208
-0.974441, 49, 41, 176, 104
-0.974498, 237, 241, 268, 304
-0.97452, 361, 1, 392, 128
-0.974586, 193, 81, 224, 208
-0.974628, 197, 209, 228, 336
-0.974698, 61, 81, 92, 208
-0.974699, 41, 113, 72, 176
-0.974726, 245, 217, 276, 280
-0.974833, 361, 1, 392, 64
-0.974837, 377, 193, 440, 256
-0.97497, 369, 273, 432, 336
-0.975013, 173, 225, 204, 352
-0.975101, 109, 137, 140, 200
-0.975121, 273, 129, 400, 192
-0.975129, 1, 161, 128, 224
-0.975205, 353, 81, 416, 144
-0.975215, 49, 297, 112, 360
-0.97529, 309, 73, 340, 136
-0.975316, 289, 33, 352, 96
-0.975336, 65, 17, 96, 80
-0.975341, 145, 313, 208, 375
-0.975355, 369, 97, 432, 352
-0.975436, 209, 81, 336, 144
-0.97547, 397, 25, 428, 88
-0.975487, 377, 313, 440, 375
-0.975488, 337, 17, 368, 80
-0.975555, 425, 161, 488, 224
-0.975632, 97, 241, 224, 304
-0.975716, 217, 113, 248, 176
-0.975727, 341, 1, 372, 128
-0.975818, 225, 225, 256, 352
-0.975865, 41, 33, 72, 160
-0.975898, 89, 129, 120, 192
-0.975975, 421, 113, 452, 176
-0.976028, 65, 161, 192, 224
-0.97605, 353, 177, 416, 240
-0.976082, 253, 113, 284, 240
-0.976115, 337, 105, 464, 168
-0.97612, 249, 209, 280, 336
-0.97613, 97, 97, 128, 160
-0.976133, 325, 1, 356, 64
-0.976141, 25, 65, 56, 192
-0.976265, 337, 305, 400, 368
-0.976278, 101, 97, 132, 224
-0.976283, 369, 81, 496, 144
-0.976366, 241, 65, 272, 192
-0.976406, 145, 1, 176, 128
-0.976423, 9, 185, 72, 248
-0.976423, 313, 1, 344, 64
-0.976458, 289, 1, 416, 64
-0.976479, 137, 17, 168, 80
-0.976616, 141, 265, 172, 328
-0.976651, 217, 265, 248, 328
-0.97667, 165, 249, 196, 312
-0.976714, 209, 217, 336, 280
-0.976862, 77, 193, 108, 320
-0.976865, 249, 305, 312, 368
-0.976902, 429, 49, 460, 176
-0.976902, 329, 113, 392, 176
-0.976931, 421, 129, 452, 256
-0.97695, 249, 1, 312, 64
-0.977015, 193, 121, 224, 184
-0.97705, 425, 41, 456, 104
-0.977101, 141, 225, 172, 352
-0.977162, 249, 1, 312, 128
-0.977236, 185, 97, 248, 352
-0.977245, 289, 97, 320, 160
-0.977316, 433, 233, 464, 296
-0.977317, 289, 65, 416, 128
-0.977418, 1, 49, 128, 112
-0.977435, 89, 81, 120, 208
-0.977551, 129, 265, 256, 328
-0.977559, 265, 1, 328, 256
-0.977685, 125, 1, 156, 64
-0.977694, 145, 49, 176, 176
-0.977718, 29, 137, 60, 200
-0.977987, 89, 177, 120, 304
-0.978041, 257, 105, 288, 168
-0.978114, 81, 1, 112, 64
-0.978118, 17, 137, 48, 200
-0.978161, 409, 105, 440, 168
-0.97817, 97, 1, 128, 64
-0.978174, 85, 73, 116, 136
-0.978193, 273, 105, 304, 168
-0.978195, 297, 193, 360, 320
-0.978393, 221, 225, 252, 288
-0.978407, 321, 305, 448, 368
-0.978453, 153, 73, 184, 136
-0.978478, 245, 89, 276, 152
-0.978513, 49, 233, 176, 296
-0.978526, 337, 177, 400, 304
-0.978638, 297, 73, 328, 136
-0.978648, 37, 81, 68, 208
-0.97871, 53, 121, 84, 184
-0.978714, 29, 65, 60, 128
-0.978725, 97, 1, 128, 128
-0.978824, 377, 25, 408, 88
-0.978826, 349, 1, 380, 64
-0.978826, 129, 289, 256, 352
-0.978849, 273, 153, 400, 216
-0.978851, 325, 1, 356, 128
-0.978934, 369, 137, 400, 200
-0.978968, 177, 113, 208, 176
-0.979007, 381, 33, 412, 160
-0.979073, 265, 81, 296, 208
-0.979138, 77, 201, 108, 264
-0.97917, 33, 89, 64, 152
-0.97917, 145, 241, 176, 304
-0.979317, 205, 289, 236, 352
-0.979366, 65, 273, 192, 336
-0.979453, 177, 265, 304, 328
-0.979508, 369, 161, 496, 224
-0.979525, 89, 177, 120, 240
-0.979663, 5, 81, 36, 208
-0.979744, 157, 81, 188, 208
-0.979857, 393, 81, 424, 208
-0.979862, 129, 129, 192, 375
-0.980033, 365, 25, 396, 88
-0.98008, 369, 289, 496, 352
-0.980088, 109, 113, 140, 176
-0.980099, 113, 113, 144, 240
-0.980103, 49, 1, 112, 375
-0.98013, 405, 49, 436, 176
-0.980149, 33, 161, 64, 224
-0.980161, 285, 129, 316, 256
-0.980176, 1, 129, 32, 192
-0.98021, 65, 161, 96, 288
-0.980218, 273, 97, 336, 352
-0.980257, 133, 113, 164, 240
-0.98029, 313, 97, 376, 352
-0.98029, 393, 1, 456, 375
-0.980334, 337, 41, 368, 104
-0.980337, 177, 233, 208, 296
-0.980344, 185, 209, 216, 336
-0.980358, 369, 129, 400, 256
-0.980358, 277, 249, 308, 312
-0.980374, 41, 41, 72, 104
-0.980417, 9, 81, 40, 144
-0.980438, 409, 145, 440, 272
-0.980491, 293, 1, 324, 64
-0.980493, 33, 305, 160, 368
-0.980646, 169, 81, 200, 144
-0.980672, 109, 161, 140, 288
-0.980699, 65, 209, 96, 336
-0.980759, 17, 185, 144, 248
-0.98076, 93, 233, 124, 296
-0.980771, 177, 289, 304, 352
-0.980803, 145, 145, 272, 208
-0.980804, 193, 313, 320, 375
-0.980892, 257, 233, 384, 296
-0.980927, 185, 33, 216, 160
-0.981072, 97, 313, 224, 375
-0.981114, 129, 281, 160, 344
-0.981208, 161, 209, 288, 272
-0.981241, 129, 137, 160, 200
-0.981255, 253, 129, 284, 192
-0.981272, 177, 113, 208, 240
-0.981283, 369, 265, 496, 328
-0.981465, 73, 1, 136, 375
-0.981509, 49, 97, 80, 224
-0.981514, 261, 233, 292, 296
-0.981548, 433, 97, 464, 224
-0.981614, 205, 81, 236, 208
-0.981626, 401, 129, 464, 375
-0.981642, 369, 233, 496, 296
-0.981677, 129, 49, 256, 112
-0.981734, 229, 129, 260, 192
-0.981742, 229, 81, 260, 208
-0.981749, 353, 1, 416, 375
-0.981779, 241, 113, 272, 176
-0.981781, 425, 97, 488, 352
-0.981815, 137, 113, 168, 176
-0.981848, 141, 289, 172, 352
-0.981859, 269, 225, 300, 352
-0.98196, 297, 129, 328, 256
-0.981964, 421, 137, 452, 200
-0.981965, 429, 209, 460, 336
-0.981973, 149, 113, 180, 176
-0.982005, 325, 49, 356, 176
-0.982012, 257, 265, 384, 328
-0.982131, 157, 273, 188, 336
-0.982148, 73, 105, 104, 168
-0.982148, 229, 297, 260, 360
-0.98221, 153, 1, 216, 375
-0.982275, 313, 1, 376, 375
-0.982276, 145, 97, 176, 224
-0.982276, 321, 161, 448, 224
-0.982287, 1, 305, 32, 368
-0.982294, 381, 153, 412, 216
-0.98234, 1, 281, 128, 344
-0.982376, 425, 1, 488, 375
-0.982413, 345, 225, 408, 352
-0.982442, 417, 225, 448, 288
-0.982457, 433, 89, 464, 152
-0.982518, 185, 145, 216, 208
-0.982522, 81, 209, 208, 272
-0.982571, 325, 41, 356, 104
-0.982583, 149, 1, 180, 64
-0.982612, 1, 25, 128, 88
-0.982667, 17, 97, 80, 352
-0.982679, 277, 137, 308, 200
-0.982701, 65, 177, 96, 240
-0.982701, 225, 289, 352, 352
-0.982768, 213, 137, 244, 200
-0.98278, 17, 289, 48, 352
-0.982802, 265, 129, 296, 256
-0.982905, 217, 81, 248, 208
-0.982937, 113, 1, 240, 64
-0.982972, 337, 209, 464, 272
-0.982996, 129, 225, 160, 352
-0.983003, 185, 49, 216, 112
-0.983021, 205, 89, 236, 152
-0.983052, 357, 161, 388, 224
-0.983092, 173, 33, 204, 96
-0.983103, 297, 145, 328, 208
-0.983116, 309, 65, 340, 192
-0.983129, 185, 273, 216, 336
-0.98313, 17, 113, 48, 176
-0.983163, 425, 201, 456, 264
-0.983178, 257, 209, 288, 272
-0.98319, 77, 25, 108, 88
-0.983211, 233, 217, 264, 280
-0.983224, 217, 89, 248, 152
-0.98324, 385, 145, 416, 272
-0.98326, 257, 1, 320, 375
-0.983284, 273, 305, 400, 368
-0.983296, 177, 57, 304, 120
-0.983325, 197, 33, 228, 160
-0.98333, 53, 161, 84, 288
-0.983331, 409, 25, 440, 88
-0.983364, 417, 209, 448, 336
-0.983456, 469, 1, 500, 128
-0.983464, 153, 177, 184, 304
-0.983524, 105, 241, 136, 304
-0.983557, 1, 217, 128, 280
-0.983588, 409, 137, 440, 200
-0.983665, 389, 73, 420, 136
-0.983713, 465, 97, 496, 160
-0.983748, 229, 265, 260, 328
-0.983749, 401, 65, 432, 128
-0.983773, 17, 1, 80, 375
-0.983814, 169, 1, 200, 128
-0.983965, 101, 185, 132, 248
-0.983976, 281, 161, 312, 224
-0.983986, 201, 225, 232, 288
-0.984041, 185, 1, 248, 375
-0.984056, 29, 113, 60, 176
-0.984074, 369, 49, 400, 112
-0.984108, 385, 49, 416, 112
-0.984194, 77, 97, 108, 224
-0.984194, 89, 129, 120, 256
-0.984276, 225, 1, 288, 375
-0.984368, 353, 113, 384, 240
-0.984415, 253, 65, 284, 192
-0.984433, 437, 1, 468, 128
-0.984465, 1, 1, 128, 64
-0.984527, 465, 65, 496, 192
-0.984591, 433, 145, 464, 272
-0.984652, 125, 65, 156, 192
-0.984807, 321, 281, 448, 344
-0.984904, 337, 97, 400, 352
-0.984937, 185, 1, 248, 256
-0.984987, 121, 1, 184, 375
-0.985091, 313, 129, 344, 256
-0.98515, 145, 313, 272, 375
-0.985169, 217, 1, 280, 256
-0.985233, 25, 1, 56, 128
-0.985244, 17, 257, 144, 320
-0.985256, 369, 313, 496, 375
-0.985272, 273, 177, 304, 304
-0.985317, 273, 177, 400, 240
-0.985357, 209, 193, 336, 256
-0.98546, 241, 113, 272, 240
-0.985471, 333, 97, 364, 224
-0.985482, 369, 49, 400, 176
-0.985526, 441, 241, 472, 368
-0.985586, 281, 1, 344, 375
-0.985708, 405, 209, 436, 336
-0.985756, 273, 41, 400, 104
-0.98583, 173, 177, 204, 304
-0.985831, 225, 161, 352, 224
-0.985886, 93, 225, 124, 352
-0.985919, 321, 233, 448, 296
-0.985951, 265, 33, 296, 160
-0.985956, 361, 225, 392, 352
-0.986131, 201, 129, 232, 256
-0.986139, 229, 129, 260, 256
-0.98615, 397, 145, 428, 272
-0.986323, 157, 129, 188, 256
-0.98642, 469, 145, 500, 272
-0.986464, 129, 25, 256, 88
-0.986731, 217, 33, 248, 160
-0.986848, 241, 1, 304, 256
-0.986872, 353, 185, 480, 248
-0.987346, 65, 185, 192, 248
-0.987382, 305, 1, 336, 128
-0.987426, 381, 81, 412, 208
-0.987555, 225, 49, 352, 112
-0.987557, 41, 161, 72, 288
-0.987565, 393, 9, 456, 40
-0.987674, 213, 129, 244, 256
-0.987747, 65, 89, 320, 152
-0.987856, 261, 177, 292, 304
-0.988014, 57, 81, 120, 112
-0.988043, 97, 137, 352, 200
-0.988045, 25, 73, 88, 104
-0.988046, 37, 225, 68, 352
-0.988048, 145, 73, 208, 104
-0.988087, 469, 193, 500, 320
-0.988107, 49, 65, 112, 96
-0.988108, 321, 257, 448, 320
-0.988127, 145, 169, 272, 232
-0.988159, 457, 1, 488, 128
-0.988212, 393, 73, 456, 104
-0.988355, 17, 89, 80, 120
-0.988513, 145, 89, 208, 120
-0.988557, 17, 241, 48, 368
-0.988597, 329, 41, 392, 72
-0.988611, 1, 129, 256, 192
-0.988618, 285, 17, 316, 144
-0.988671, 225, 177, 256, 304
-0.988727, 13, 17, 44, 144
-0.988752, 433, 37, 496, 68
-0.988771, 105, 49, 136, 176
-0.988823, 345, 241, 376, 368
-0.988834, 33, 53, 96, 84
-0.988854, 89, 1, 152, 32
-0.988902, 189, 129, 220, 256
-0.988949, 57, 101, 120, 132
-0.988954, 185, 121, 248, 152
-0.988996, 141, 161, 172, 288
-0.989007, 73, 161, 136, 192
-0.989027, 377, 49, 440, 80
-0.989028, 9, 117, 72, 148
-0.989054, 233, 237, 296, 268
-0.989096, 33, 233, 288, 296
-0.989098, 369, 9, 432, 40
-0.989114, 53, 209, 84, 336
-0.989125, 193, 113, 448, 176
-0.989136, 353, 161, 384, 288
-0.989139, 401, 37, 464, 68
-0.98914, 217, 125, 280, 156
-0.989153, 73, 173, 136, 204
-0.989163, 193, 229, 256, 260
-0.989186, 369, 37, 432, 68
-0.989203, 425, 69, 488, 100
-0.989254, 337, 5, 400, 36
-0.989282, 145, 101, 208, 132
-0.989285, 97, 121, 160, 152
-0.989339, 361, 25, 424, 56
-0.989341, 113, 225, 144, 352
-0.989351, 281, 225, 312, 352
-0.989366, 241, 161, 272, 288
-0.989379, 433, 17, 496, 48
-0.989392, 209, 109, 272, 140
-0.989406, 425, 53, 488, 84
-0.989472, 145, 113, 208, 144
-0.989473, 257, 105, 320, 136
-0.98948, 353, 49, 384, 176
-0.989506, 401, 25, 464, 56
-0.989511, 377, 61, 440, 92
-0.989516, 49, 113, 112, 144
-0.989523, 25, 101, 88, 132
-0.989551, 297, 5, 360, 36
-0.989559, 97, 273, 160, 304
-0.989626, 337, 25, 400, 56
-0.989643, 177, 133, 240, 164
-0.989648, 401, 49, 464, 80
-0.989648, 1, 105, 500, 168
-0.989664, 1, 153, 64, 184
-0.989683, 73, 185, 136, 216
-0.989697, 305, 65, 368, 96
-0.98971, 57, 125, 120, 156
-0.989725, 185, 109, 248, 140
-0.989731, 393, 241, 424, 368
-0.989751, 425, 145, 488, 176
-0.989763, 145, 17, 208, 48
-0.989767, 105, 169, 168, 200
-0.989768, 425, 81, 488, 112
-0.989768, 401, 85, 464, 116
-0.989768, 121, 285, 184, 316
-0.989776, 273, 1, 336, 32
-0.989838, 105, 241, 168, 272
-0.989841, 185, 89, 248, 120
-0.989844, 161, 233, 416, 296
-0.98986, 1, 33, 32, 160
-0.989865, 1, 41, 256, 104
-0.989865, 225, 73, 480, 136
-0.989871, 137, 125, 200, 156
-0.989875, 1, 105, 64, 136
-0.989914, 341, 49, 372, 176
-0.989958, 441, 49, 472, 176
-0.989983, 89, 137, 152, 168
-0.989994, 233, 249, 296, 280
-0.990011, 41, 185, 104, 216
-0.990029, 329, 53, 392, 84
-0.990103, 105, 109, 168, 140
-0.990146, 433, 117, 496, 148
-0.990155, 249, 1, 312, 32
-0.990165, 105, 309, 168, 340
-0.990177, 121, 297, 184, 328
-0.990178, 425, 93, 488, 124
-0.990192, 169, 69, 232, 100
-0.9902, 97, 113, 352, 176
-0.9902, 217, 137, 280, 168
-0.990203, 97, 89, 160, 120
-0.990217, 289, 89, 352, 120
-0.990238, 137, 5, 200, 36
-0.990253, 97, 73, 160, 104
-0.990272, 433, 225, 496, 256
-0.990298, 73, 17, 136, 48
-0.990301, 329, 173, 392, 204
-0.990306, 433, 1, 496, 32
-0.990319, 209, 301, 272, 332
-0.99034, 233, 225, 296, 256
-0.99035, 225, 261, 288, 292
-0.990351, 153, 277, 216, 308
-0.990358, 145, 53, 208, 84
-0.990408, 209, 217, 272, 248
-0.990409, 41, 37, 104, 68
-0.990426, 97, 13, 160, 44
-0.990426, 233, 113, 296, 144
-0.99046, 225, 137, 480, 200
-0.990475, 65, 29, 128, 60
-0.990476, 409, 213, 472, 244
-0.990477, 249, 209, 312, 240
-0.99048, 241, 125, 304, 156
-0.990487, 305, 33, 368, 64
-0.990488, 225, 97, 288, 128
-0.99052, 129, 233, 192, 264
-0.990545, 41, 197, 104, 228
-0.990561, 129, 273, 192, 304
-0.99057, 57, 53, 120, 84
-0.990576, 281, 57, 344, 88
-0.990579, 1, 1, 500, 64
-0.990589, 65, 221, 128, 252
-0.990596, 281, 101, 344, 132
-0.990605, 257, 201, 384, 264
-0.99061, 9, 57, 72, 88
-0.990615, 225, 1, 288, 32
-0.99063, 249, 93, 312, 124
-0.990643, 193, 1, 320, 64
-0.990653, 129, 33, 192, 64
-0.990653, 49, 173, 112, 204
-0.990659, 425, 157, 488, 188
-0.990665, 425, 129, 488, 160
-0.990672, 161, 237, 224, 268
-0.990676, 113, 133, 176, 164
-0.990688, 305, 17, 368, 48
-0.990694, 393, 137, 456, 168
-0.990707, 361, 153, 424, 184
-0.990715, 233, 313, 296, 344
-0.990725, 393, 241, 456, 272
-0.990731, 33, 125, 96, 156
-0.990733, 353, 61, 416, 92
-0.99074, 345, 289, 408, 320
-0.990746, 185, 325, 248, 356
-0.990749, 153, 29, 216, 60
-0.990765, 65, 137, 128, 168
-0.99077, 305, 77, 368, 108
-0.990783, 49, 5, 112, 36
-0.99079, 89, 261, 152, 292
-0.990803, 57, 209, 120, 240
-0.990803, 41, 149, 104, 180
-0.990821, 97, 185, 160, 216
-0.990821, 369, 277, 432, 308
-0.990829, 385, 105, 448, 136
-0.990832, 153, 137, 216, 168
-0.990855, 1, 65, 256, 128
-0.990916, 1, 57, 500, 120
-0.990986, 1, 81, 500, 144
-0.991131, 97, 1, 160, 375
-0.991243, 129, 265, 384, 328
-0.991651, 33, 265, 288, 328
-0.991924, 225, 17, 480, 80
-0.99194, 49, 69, 80, 100
-0.992007, 65, 209, 320, 272
-0.992071, 161, 73, 192, 104
-0.992089, 193, 105, 224, 136
-0.992102, 405, 45, 436, 76
-0.992129, 425, 61, 456, 92
-0.992187, 49, 89, 176, 120
-0.992188, 61, 61, 92, 92
-0.992193, 217, 113, 248, 144
-0.992203, 77, 65, 108, 96
-0.992209, 177, 81, 208, 112
-0.992221, 177, 69, 208, 100
-0.992228, 229, 125, 260, 156
-0.992256, 185, 93, 216, 124
-0.992264, 217, 125, 248, 156
-0.992277, 241, 245, 272, 276
-0.992287, 325, 61, 356, 92
-0.992293, 61, 81, 92, 112
-0.992293, 129, 121, 256, 152
-0.992303, 421, 49, 452, 80
-0.992318, 209, 25, 336, 88
-0.992338, 205, 117, 236, 148
-0.992348, 349, 37, 380, 68
-0.992371, 165, 61, 196, 92
-0.992375, 409, 9, 440, 40
-0.992383, 149, 73, 180, 104
-0.992387, 49, 57, 80, 88
-0.992396, 89, 157, 120, 188
-0.992396, 81, 125, 208, 156
-0.992397, 69, 17, 100, 48
-0.992402, 17, 105, 144, 136
-0.992408, 37, 77, 68, 108
-0.992409, 1, 93, 128, 124
-0.992411, 53, 105, 84, 136
-0.992425, 369, 29, 496, 60
-0.992426, 397, 33, 428, 64
-0.992438, 149, 285, 180, 316
-0.992444, 129, 285, 160, 316
-0.992445, 61, 49, 92, 80
-0.992451, 9, 105, 40, 136
-0.992455, 293, 97, 324, 128
-0.992455, 425, 9, 456, 40
-0.992463, 333, 49, 364, 80
-0.992463, 429, 37, 460, 68
-0.992465, 81, 5, 112, 36
-0.992474, 193, 117, 224, 148
-0.992487, 129, 109, 256, 140
-0.992494, 225, 201, 480, 264
-0.992495, 101, 121, 132, 152
-0.992501, 29, 157, 60, 188
-0.992505, 149, 1, 180, 32
-0.992512, 301, 1, 332, 32
-0.992516, 81, 77, 208, 108
-0.992517, 137, 265, 168, 296
-0.992517, 205, 129, 236, 160
-0.992529, 149, 41, 180, 72
-0.992534, 345, 25, 376, 56
-0.992549, 369, 29, 400, 60
-0.992552, 413, 61, 444, 92
-0.99256, 361, 17, 392, 48
-0.992566, 133, 81, 164, 112
-0.99257, 413, 81, 444, 112
-0.992573, 229, 105, 260, 136
-0.992576, 225, 229, 256, 260
-0.992579, 129, 49, 384, 112
-0.99258, 313, 73, 344, 104
-0.992584, 317, 1, 348, 32
-0.992597, 425, 73, 456, 104
-0.992598, 1, 153, 32, 184
-0.992606, 17, 93, 48, 124
-0.992607, 129, 13, 160, 44
-0.992607, 353, 5, 384, 36
-0.992616, 289, 1, 320, 32
-0.992618, 137, 25, 168, 56
-0.992618, 81, 173, 112, 204
-0.992621, 221, 293, 252, 324
-0.992623, 253, 229, 284, 260
-0.992626, 385, 13, 416, 44
-0.992626, 265, 1, 296, 32
-0.992627, 161, 49, 192, 80
-0.99263, 5, 93, 36, 124
-0.992638, 13, 153, 44, 184
-0.992639, 413, 321, 444, 352
-0.992641, 381, 45, 412, 76
-0.992643, 205, 285, 236, 316
-0.992653, 333, 17, 364, 48
-0.992661, 85, 89, 116, 120
-0.992673, 217, 101, 248, 132
-0.992674, 189, 81, 220, 112
-0.992677, 265, 109, 296, 140
-0.992678, 149, 29, 180, 60
-0.992679, 105, 169, 136, 200
-0.992679, 125, 1, 156, 32
-0.99268, 1, 305, 256, 368
-0.992682, 245, 213, 276, 244
-0.992684, 129, 1, 384, 64
-0.992688, 9, 121, 40, 152
-0.992689, 413, 33, 444, 64
-0.992691, 37, 61, 68, 92
-0.992694, 189, 133, 220, 164
-0.992696, 249, 117, 280, 148
-0.992702, 37, 117, 68, 148
-0.992702, 441, 225, 472, 256
-0.992703, 369, 57, 496, 88
-0.992709, 301, 85, 332, 116
-0.99271, 281, 105, 312, 136
-0.992722, 357, 285, 388, 316
-0.992723, 365, 49, 396, 80
-0.99273, 57, 29, 88, 60
-0.992733, 393, 85, 424, 116
-0.992745, 177, 121, 208, 152
-0.99275, 93, 1, 124, 32
-0.992751, 469, 125, 500, 156
-0.992752, 153, 61, 184, 92
-0.992759, 93, 181, 124, 212
-0.99276, 265, 241, 296, 272
-0.992766, 453, 333, 484, 364
-0.992767, 149, 85, 180, 116
-0.992768, 85, 17, 116, 48
-0.992769, 173, 133, 204, 164
-0.99277, 237, 233, 268, 264
-0.992774, 401, 69, 432, 100
-0.992775, 17, 81, 48, 112
-0.992781, 177, 237, 208, 268
-0.992781, 425, 225, 456, 256
-0.992783, 397, 9, 428, 40
-0.992786, 53, 125, 84, 156
-0.992789, 33, 93, 64, 124
-0.99279, 117, 277, 148, 308
-0.992791, 429, 241, 460, 272
-0.992794, 101, 261, 132, 292
-0.992796, 81, 77, 112, 108
-0.992797, 201, 297, 232, 328
-0.992797, 277, 245, 308, 276
-0.992797, 425, 97, 456, 128
-0.992805, 49, 41, 80, 72
-0.992807, 277, 1, 308, 32
-0.99281, 405, 105, 436, 136
-0.992815, 177, 57, 208, 88
-0.992822, 61, 93, 92, 124
-0.992823, 137, 297, 168, 328
-0.992825, 313, 61, 344, 92
-0.992831, 113, 237, 144, 268
-0.992835, 165, 245, 196, 276
-0.992835, 81, 137, 112, 168
-0.992841, 1, 129, 500, 192
-0.992841, 257, 161, 500, 224
-0.992846, 1, 25, 500, 88
-0.992936, 1, 153, 500, 216
-0.992964, 81, 113, 208, 144
-0.993014, 225, 49, 480, 112
-0.993068, 369, 41, 496, 72
-0.993135, 169, 41, 184, 104
-0.993138, 423, 41, 438, 104
-0.993138, 337, 9, 464, 40
-0.99315, 213, 105, 228, 168
-0.993152, 321, 21, 448, 52
-0.993207, 209, 109, 336, 140
-0.993218, 1, 265, 500, 328
-0.993242, 177, 125, 304, 156
-0.993248, 1, 161, 256, 224
-0.993257, 97, 97, 224, 128
-0.993269, 129, 297, 384, 360
-0.993313, 413, 1, 428, 64
-0.993332, 321, 53, 448, 84
-0.993355, 63, 81, 78, 144
-0.993366, 257, 233, 500, 296
-0.993387, 1, 73, 128, 104
-0.993396, 191, 73, 206, 136
-0.993397, 33, 161, 160, 192
-0.993415, 197, 81, 212, 144
-0.993454, 129, 85, 256, 116
-0.993458, 129, 245, 256, 276
-0.993462, 1, 233, 500, 296
-0.993477, 161, 229, 288, 260
-0.993478, 175, 49, 190, 112
-0.993504, 257, 305, 500, 368
-0.993524, 1, 173, 128, 204
-0.993537, 49, 61, 176, 92
-0.993578, 141, 1, 156, 64
-0.993578, 429, 49, 444, 112
-0.993583, 61, 33, 76, 96
-0.993591, 45, 137, 60, 200
-0.99361, 185, 65, 200, 128
-0.993645, 401, 1, 416, 64
-0.993687, 241, 1, 368, 32
-0.993694, 221, 113, 236, 176
-0.993695, 1, 1, 256, 64
-0.993717, 67, 57, 82, 120
-0.993728, 57, 97, 72, 160
-0.993754, 129, 133, 256, 164
-0.993759, 245, 217, 260, 280
-0.993774, 129, 73, 256, 104
-0.993809, 437, 57, 452, 120
-0.993822, 417, 33, 432, 96
-0.993832, 53, 73, 68, 136
-0.993868, 481, 113, 496, 176
-0.993869, 177, 89, 304, 120
-0.993891, 209, 245, 336, 276
-0.99393, 101, 121, 116, 184
-0.993933, 33, 129, 160, 160
-0.993968, 407, 1, 422, 64
-0.993994, 15, 97, 30, 160
-0.994004, 347, 17, 362, 80
-0.994039, 227, 105, 242, 168
-0.994076, 73, 49, 88, 112
-0.994098, 57, 1, 88, 256
-0.994104, 97, 161, 352, 224
-0.994105, 7, 105, 22, 168
-0.994111, 419, 1, 434, 64
-0.994139, 163, 33, 178, 96
-0.994148, 321, 41, 448, 72
-0.994152, 1, 117, 128, 148
-0.994162, 45, 49, 60, 112
-0.994164, 151, 17, 166, 80
-0.994171, 371, 9, 386, 72
-0.994226, 107, 105, 122, 168
-0.994268, 369, 73, 496, 104
-0.99427, 77, 17, 92, 80
-0.994276, 431, 129, 446, 192
-0.994277, 111, 137, 126, 200
-0.994297, 105, 1, 120, 64
-0.994326, 25, 73, 40, 136
-0.994354, 425, 313, 440, 375
-0.994369, 341, 9, 356, 72
-0.994382, 157, 25, 172, 88
-0.994399, 479, 9, 494, 72
-0.994402, 305, 65, 432, 96
-0.994421, 439, 9, 454, 72
-0.994436, 203, 89, 218, 152
-0.994449, 49, 17, 176, 48
-0.99445, 299, 89, 314, 152
-0.994451, 105, 161, 120, 224
-0.994478, 209, 257, 336, 288
-0.994531, 67, 25, 82, 88
-0.994531, 55, 41, 70, 104
-0.994536, 205, 129, 220, 192
-0.994594, 377, 17, 392, 80
-0.994608, 31, 65, 46, 128
-0.99461, 225, 257, 480, 320
-0.994614, 209, 225, 336, 256
-0.994615, 177, 137, 304, 168
-0.994621, 11, 129, 26, 192
-0.994651, 61, 57, 76, 120
-0.99466, 369, 85, 496, 116
-0.99467, 91, 1, 106, 64
-0.994682, 89, 65, 104, 128
-0.994687, 341, 41, 356, 104
-0.994693, 255, 209, 270, 272
-0.994693, 337, 125, 464, 156
-0.994708, 383, 25, 398, 88
-0.994713, 101, 97, 116, 160
-0.994715, 215, 129, 230, 192
-0.994717, 335, 9, 350, 72
-0.99472, 423, 113, 438, 176
-0.994727, 21, 105, 36, 168
-0.994757, 53, 121, 68, 184
-0.994762, 147, 73, 162, 136
-0.994763, 309, 73, 324, 136
-0.994763, 185, 89, 200, 152
-0.994768, 97, 145, 224, 176
-0.99477, 291, 97, 306, 160
-0.994784, 89, 65, 120, 320
-0.994789, 85, 1, 100, 64
-0.994793, 81, 233, 208, 264
-0.994804, 99, 185, 114, 248
-0.994815, 129, 25, 384, 88
-0.994823, 81, 157, 208, 188
-0.994844, 195, 105, 210, 168
-0.994859, 231, 129, 246, 192
-0.994867, 177, 241, 192, 304
-0.99488, 79, 57, 94, 120
-0.994882, 35, 137, 50, 200
-0.994889, 335, 49, 350, 112
-0.994894, 177, 73, 192, 136
-0.99491, 231, 265, 246, 328
-0.994918, 289, 137, 304, 200
-0.994919, 325, 1, 340, 64
-0.99492, 1, 313, 500, 375
-0.994927, 411, 25, 426, 88
-0.994929, 41, 113, 56, 176
-0.99493, 129, 265, 256, 296
-0.994935, 163, 241, 178, 304
-0.994961, 391, 41, 406, 104
-0.994965, 77, 65, 108, 320
-0.99497, 169, 241, 184, 304
-0.994997, 195, 129, 210, 192
-0.995002, 111, 161, 126, 224
-0.995009, 409, 33, 440, 288
-0.995009, 133, 1, 148, 64
-0.99501, 233, 225, 248, 288
-0.995011, 37, 73, 52, 136
-0.99503, 83, 33, 98, 96
-0.995038, 257, 113, 384, 144
-0.995047, 33, 309, 160, 340
-0.995054, 149, 113, 164, 176
-0.995062, 63, 105, 78, 168
-0.99508, 49, 265, 176, 296
-0.995084, 267, 105, 282, 168
-0.995091, 273, 133, 400, 164
-0.995106, 1, 113, 16, 176
-0.995107, 153, 1, 184, 256
-0.995111, 303, 65, 318, 128
-0.995112, 21, 129, 36, 192
-0.995133, 129, 289, 256, 320
-0.995134, 157, 249, 172, 312
-0.995141, 81, 5, 208, 36
-0.995144, 353, 33, 368, 96
-0.995149, 239, 97, 254, 160
-0.995165, 273, 105, 288, 168
-0.995171, 419, 313, 434, 375
-0.995173, 423, 65, 438, 128
-0.995173, 321, 65, 336, 128
-0.995178, 311, 1, 326, 64
-0.995202, 425, 1, 440, 64
-0.995203, 33, 185, 288, 248
-0.995216, 47, 113, 62, 176
-0.995217, 237, 121, 252, 184
-0.995232, 397, 1, 428, 256
-0.995241, 127, 137, 142, 200
-0.995243, 33, 141, 160, 172
-0.995245, 49, 281, 176, 312
-0.995266, 1, 289, 500, 352
-0.99527, 85, 161, 100, 224
-0.995279, 95, 81, 110, 144
-0.995281, 373, 289, 388, 352
-0.995282, 449, 217, 464, 280
-0.995283, 327, 57, 342, 120
-0.995299, 239, 225, 254, 288
-0.9953, 155, 81, 170, 144
-0.995301, 233, 97, 248, 160
-0.995302, 49, 245, 176, 276
-0.995315, 113, 113, 128, 176
-0.995316, 273, 241, 288, 304
-0.995327, 47, 81, 62, 144
-0.995333, 1, 193, 500, 256
-0.995342, 297, 1, 312, 64
-0.995343, 365, 1, 380, 64
-0.995349, 31, 97, 46, 160
-0.995354, 305, 1, 320, 64
-0.995367, 81, 173, 208, 204
-0.99538, 391, 121, 406, 184
-0.995385, 289, 1, 416, 32
-0.995391, 93, 193, 108, 256
-0.995395, 399, 49, 414, 112
-0.995405, 353, 9, 368, 72
-0.995413, 177, 313, 304, 344
-0.995463, 273, 153, 400, 184
-0.995469, 65, 293, 192, 324
-0.995504, 49, 29, 176, 60
-0.995509, 353, 257, 480, 288
-0.995511, 305, 77, 432, 108
-0.99552, 369, 137, 496, 168
-0.995541, 113, 329, 240, 360
-0.995545, 289, 165, 416, 196
-0.995552, 213, 97, 244, 352
-0.995572, 289, 89, 416, 120
-0.99558, 369, 149, 496, 180
-0.995591, 65, 49, 192, 80
-0.995601, 193, 1, 320, 32
-0.995619, 225, 97, 352, 128
-0.995619, 33, 189, 160, 220
-0.995646, 289, 277, 416, 308
-0.995668, 225, 293, 352, 324
-0.995673, 145, 277, 272, 308
-0.995696, 169, 33, 200, 288
-0.995705, 145, 61, 272, 92
-0.995732, 241, 73, 368, 104
-0.995743, 369, 293, 496, 324
-0.995754, 177, 77, 304, 108
-0.995757, 209, 213, 336, 244
-0.995772, 177, 325, 304, 356
-0.995788, 321, 109, 448, 140
-0.995826, 273, 49, 400, 80
-0.995836, 1, 297, 128, 328
-0.995866, 369, 317, 496, 348
-0.995893, 1, 61, 128, 92
-0.995895, 373, 1, 404, 256
-0.995918, 305, 305, 432, 336
-0.995918, 225, 281, 480, 344
-0.995919, 209, 281, 336, 312
-0.995933, 145, 345, 272, 375
-0.995939, 209, 269, 336, 300
-0.995966, 225, 125, 352, 156
-0.995969, 1, 49, 128, 80
-0.995971, 97, 221, 224, 252
-0.995986, 17, 229, 144, 260
-0.996007, 369, 101, 496, 132
-0.996026, 337, 173, 464, 204
-0.99606, 97, 305, 224, 336
-0.996069, 241, 17, 368, 48
-0.99611, 33, 321, 160, 352
-0.996119, 257, 177, 384, 208
-0.996127, 17, 337, 144, 368
-0.996141, 257, 241, 384, 272
-0.996144, 177, 165, 304, 196
-0.996215, 337, 161, 464, 192
-0.996253, 321, 141, 448, 172
-0.996254, 385, 1, 416, 256
-0.996262, 97, 277, 224, 308
-0.996302, 177, 293, 304, 324
-0.996304, 149, 97, 180, 352
-0.996305, 421, 33, 452, 288
-0.996327, 337, 281, 464, 312
-0.996328, 241, 97, 272, 352
-0.996361, 1, 277, 128, 308
-0.996368, 337, 241, 464, 272
-0.996371, 225, 149, 352, 180
-0.996392, 353, 1, 384, 256
-0.996398, 1, 1, 128, 32
-0.996402, 253, 97, 284, 352
-0.996407, 145, 37, 272, 68
-0.996426, 105, 97, 136, 352
-0.996436, 289, 289, 416, 320
-0.996462, 225, 97, 256, 352
-0.996469, 333, 1, 364, 256
-0.996473, 257, 33, 384, 64
-0.996479, 241, 345, 368, 375
-0.996518, 53, 97, 84, 352
-0.996549, 29, 1, 60, 256
-0.99655, 181, 33, 212, 288
-0.996561, 241, 85, 368, 116
-0.996562, 353, 305, 480, 336
-0.996569, 225, 329, 352, 360
-0.996591, 41, 1, 72, 256
-0.996599, 1, 37, 128, 68
-0.996603, 225, 137, 352, 168
-0.996606, 161, 149, 288, 180
-0.996612, 321, 1, 352, 256
-0.996618, 173, 129, 204, 375
-0.996655, 193, 97, 224, 352
-0.996656, 97, 341, 224, 372
-0.996658, 129, 17, 256, 48
-0.996666, 273, 321, 400, 352
-0.996731, 129, 1, 160, 256
-0.99675, 225, 53, 352, 84
-0.996783, 65, 97, 96, 352
-0.996786, 147, 73, 162, 104
-0.996786, 353, 225, 480, 256
-0.996789, 17, 217, 144, 248
-0.996803, 419, 41, 434, 72
-0.996804, 429, 129, 460, 375
-0.996826, 289, 265, 416, 296
-0.996837, 101, 1, 132, 256
-0.99684, 245, 225, 260, 256
-0.996859, 321, 317, 448, 348
-0.996859, 57, 69, 72, 100
-0.99686, 129, 1, 256, 32
-0.99686, 273, 101, 400, 132
-0.996868, 425, 49, 440, 80
-0.996903, 63, 65, 78, 96
-0.996943, 303, 93, 318, 124
-0.996951, 245, 237, 260, 268
-0.99697, 195, 85, 210, 116
-0.99698, 431, 53, 446, 84
-0.997018, 63, 85, 78, 116
-0.997024, 477, 13, 492, 44
-0.997041, 193, 1, 224, 256
-0.997061, 481, 117, 496, 148
-0.997079, 161, 129, 192, 375
-0.997081, 89, 5, 104, 36
-0.997106, 79, 17, 94, 48
-0.99711, 181, 65, 196, 96
-0.997111, 431, 65, 446, 96
-0.997128, 341, 41, 356, 72
-0.997147, 117, 97, 148, 352
-0.997152, 133, 97, 164, 352
-0.997181, 403, 9, 418, 40
-0.997191, 315, 73, 330, 104
-0.997201, 69, 49, 84, 80
-0.997202, 479, 129, 494, 160
-0.997206, 225, 113, 240, 144
-0.99721, 219, 117, 234, 148
-0.997218, 351, 29, 366, 60
-0.99722, 437, 77, 452, 108
-0.997225, 69, 69, 84, 100
-0.997231, 437, 9, 452, 40
-0.997235, 189, 81, 204, 112
-0.997235, 413, 33, 428, 64
-0.997246, 297, 97, 312, 128
-0.997246, 277, 65, 308, 320
-0.997279, 71, 25, 86, 56
-0.99728, 393, 97, 424, 352
-0.997282, 141, 1, 172, 256
-0.997289, 333, 53, 348, 84
-0.99729, 175, 53, 190, 84
-0.997303, 45, 157, 60, 188
-0.997329, 153, 69, 168, 100
-0.997333, 195, 125, 210, 156
-0.997334, 225, 125, 240, 156
-0.997342, 345, 21, 360, 52
-0.997349, 213, 117, 228, 148
-0.997361, 153, 281, 168, 312
-0.997365, 325, 61, 340, 92
-0.997375, 209, 101, 224, 132
-0.99738, 409, 9, 424, 40
-0.997386, 327, 5, 342, 36
-0.997389, 301, 33, 332, 288
-0.99739, 187, 113, 202, 144
-0.9974, 13, 65, 44, 320
-0.997407, 293, 1, 308, 32
-0.997411, 143, 9, 158, 40
-0.997412, 63, 53, 78, 84
-0.997427, 357, 37, 372, 68
-0.997431, 13, 153, 28, 184
-0.997435, 153, 89, 168, 120
-0.997438, 159, 29, 174, 60
-0.997438, 75, 41, 90, 72
-0.997443, 23, 105, 38, 136
-0.997445, 197, 97, 212, 128
-0.997448, 265, 97, 296, 352
-0.997461, 105, 121, 120, 152
-0.997461, 43, 57, 58, 88
-0.997462, 57, 57, 72, 88
-0.997462, 171, 65, 186, 96
-0.997468, 309, 81, 324, 112
-0.99747, 85, 65, 100, 96
-0.99747, 433, 1, 464, 256
-0.997472, 57, 93, 72, 124
-0.997482, 159, 285, 174, 316
-0.997483, 41, 97, 72, 352
-0.997487, 213, 1, 244, 256
-0.997488, 405, 21, 420, 52
-0.997494, 65, 33, 80, 64
-0.9975, 347, 41, 362, 72
-0.997506, 187, 93, 202, 124
-0.997507, 73, 81, 88, 112
-0.997508, 339, 53, 354, 84
-0.997508, 183, 77, 198, 108
-0.997509, 231, 129, 246, 160
-0.997509, 99, 125, 114, 156
-0.99751, 103, 157, 118, 188
-0.997516, 305, 1, 320, 32
-0.997518, 151, 17, 166, 48
-0.997525, 147, 85, 162, 116
-0.99753, 437, 61, 452, 92
-0.997531, 95, 1, 110, 32
-0.997538, 165, 37, 180, 68
-0.997541, 425, 225, 440, 256
-0.997542, 23, 153, 38, 184
-0.997559, 263, 1, 278, 32
-0.997566, 209, 133, 224, 164
-0.997567, 51, 69, 66, 100
-0.997568, 87, 29, 102, 60
-0.997576, 203, 93, 218, 124
-0.99758, 421, 109, 436, 140
-0.997581, 57, 105, 72, 136
-0.997582, 105, 1, 120, 32
-0.997583, 235, 229, 250, 260
-0.997584, 415, 53, 430, 84
-0.997588, 9, 121, 24, 152
-0.997592, 287, 1, 302, 32
-0.997595, 363, 37, 378, 68
-0.997595, 85, 17, 100, 48
-0.997598, 371, 9, 386, 40
-0.997599, 243, 249, 258, 280
-0.997602, 225, 293, 240, 324
-0.997604, 97, 17, 112, 48
-0.997613, 465, 65, 496, 320
-0.997617, 281, 1, 296, 32
-0.997619, 381, 97, 412, 352
-0.997629, 427, 321, 442, 352
-0.997635, 411, 97, 426, 128
-0.99764, 299, 1, 314, 32
-0.997641, 147, 285, 162, 316
-0.997642, 317, 1, 332, 32
-0.997649, 273, 1, 288, 32
-0.99765, 405, 129, 436, 375
-0.99765, 91, 69, 106, 100
-0.997655, 5, 109, 20, 140
-0.997662, 231, 105, 246, 136
-0.997664, 49, 113, 64, 144
-0.997667, 233, 117, 248, 148
-0.997669, 57, 41, 72, 72
-0.997669, 415, 9, 430, 40
-0.997669, 65, 101, 80, 132
-0.99767, 23, 89, 38, 120
-0.997671, 253, 213, 268, 244
-0.997673, 409, 45, 424, 76
-0.997676, 311, 1, 326, 32
-0.997678, 31, 97, 46, 128
-0.997682, 29, 153, 44, 184
-0.997684, 321, 73, 336, 104
-0.9977, 99, 137, 114, 168
-0.997707, 437, 49, 452, 80
-0.99771, 1, 65, 32, 320
-0.997714, 31, 81, 46, 112
-0.997721, 267, 109, 282, 140
-0.997724, 271, 237, 286, 268
-0.997726, 381, 281, 396, 312
-0.997737, 239, 125, 254, 156
-0.997741, 135, 1, 150, 32
-0.997863, 233, 1, 264, 256
-0.997874, 289, 97, 320, 352
-0.998001, 261, 1, 292, 256
-0.998049, 369, 129, 400, 375
-0.998107, 417, 129, 448, 375
-0.998118, 341, 97, 372, 352
-0.99826, 129, 185, 384, 248
-0.998277, 249, 1, 280, 256
-0.998303, 289, 1, 320, 256
-0.998327, 429, 1, 444, 128
-0.998327, 393, 11, 456, 26
-0.998336, 313, 97, 344, 352
-0.99835, 83, 1, 98, 128
-0.99838, 49, 77, 112, 92
-0.998385, 113, 1, 144, 256
-0.998392, 185, 125, 248, 140
-0.998399, 479, 1, 494, 128
-0.998405, 57, 91, 120, 106
-0.998407, 433, 49, 496, 64
-0.998414, 41, 67, 104, 82
-0.998416, 393, 75, 456, 90
-0.998422, 25, 77, 88, 92
-0.998423, 57, 83, 120, 98
-0.998424, 17, 87, 80, 102
-0.998426, 153, 79, 216, 94
-0.998429, 97, 123, 160, 138
-0.99843, 401, 51, 464, 66
-0.998434, 401, 19, 464, 34
-0.998436, 329, 97, 360, 352
-0.998438, 393, 81, 456, 96
-0.99844, 81, 161, 144, 176
-0.998442, 49, 131, 112, 146
-0.998443, 433, 41, 496, 56
-0.998444, 73, 1, 88, 128
-0.998444, 17, 107, 80, 122
-0.998444, 439, 1, 454, 128
-0.998445, 433, 35, 496, 50
-0.998445, 89, 1, 152, 16
-0.998448, 57, 99, 120, 114
-0.998451, 425, 87, 488, 102
-0.998452, 9, 97, 72, 112
-0.998453, 177, 137, 240, 152
-0.998453, 137, 73, 200, 88
-0.998454, 137, 85, 200, 100
-0.998455, 89, 139, 152, 154
-0.998458, 145, 97, 208, 112
-0.998458, 401, 25, 464, 40
-0.998459, 193, 231, 256, 246
-0.99846, 329, 13, 392, 28
-0.998463, 33, 61, 96, 76
-0.998464, 237, 299, 268, 314
-0.998464, 401, 91, 464, 106
-0.998464, 321, 7, 384, 22
-0.998464, 421, 235, 452, 250
-0.998464, 17, 83, 48, 98
-0.998465, 333, 21, 364, 36
-0.998465, 173, 245, 204, 260
-0.998465, 29, 81, 60, 96
-0.998465, 145, 135, 208, 150
-0.998466, 113, 137, 144, 152
-0.998466, 1, 123, 64, 138
-0.998466, 81, 135, 112, 150
-0.998467, 145, 125, 208, 140
-0.998468, 109, 169, 140, 184
-0.998468, 433, 27, 496, 42
-0.998468, 433, 15, 496, 30
-0.998469, 153, 49, 184, 64
-0.998469, 129, 15, 160, 30
-0.998469, 133, 21, 164, 36
-0.99847, 281, 5, 344, 20
-0.998471, 233, 241, 296, 256
-0.998471, 9, 123, 40, 138
-0.998471, 185, 119, 248, 134
-0.998472, 429, 83, 460, 98
-0.998472, 385, 19, 416, 34
-0.998472, 361, 17, 424, 32
-0.998473, 369, 9, 432, 24
-0.998473, 1, 157, 64, 172
-0.998473, 125, 7, 156, 22
-0.998473, 237, 1, 268, 16
-0.998473, 369, 35, 400, 50
-0.998474, 137, 1, 168, 16
-0.998476, 177, 97, 208, 112
-0.998476, 13, 99, 44, 114
-0.998476, 121, 1, 152, 16
-0.998477, 209, 139, 240, 154
-0.998477, 145, 35, 176, 50
-0.998477, 337, 31, 368, 46
-0.998477, 237, 255, 268, 270
-0.998477, 73, 173, 136, 188
-0.998478, 313, 77, 344, 92
-0.998478, 53, 117, 84, 132
-0.998478, 205, 127, 236, 142
-0.998478, 213, 295, 244, 310
-0.998479, 413, 319, 444, 334
-0.998479, 121, 1, 184, 16
-0.998479, 385, 59, 416, 74
-0.998479, 401, 31, 464, 46
-0.99848, 277, 3, 308, 18
-0.998481, 85, 95, 116, 110
-0.998481, 173, 91, 204, 106
-0.998481, 433, 225, 464, 240
-0.998481, 225, 231, 256, 246
-0.998482, 217, 137, 280, 152
-0.998482, 53, 131, 84, 146
-0.998482, 209, 131, 272, 146
-0.998483, 397, 37, 428, 52
-0.998484, 105, 109, 168, 124
-0.998484, 329, 47, 392, 62
-0.998484, 301, 91, 332, 106
-0.998484, 49, 55, 80, 70
-0.998486, 401, 37, 464, 52
-0.998486, 409, 63, 440, 78
-0.998486, 145, 105, 208, 120
-0.998487, 233, 235, 296, 250
-0.998487, 1, 113, 32, 128
-0.998487, 433, 67, 496, 82
-0.998487, 433, 55, 496, 70
-0.998487, 413, 57, 444, 72
-0.998487, 37, 91, 68, 106
-0.998488, 337, 43, 368, 58
-0.998488, 401, 45, 464, 60
-0.998489, 257, 111, 320, 126
-0.998489, 81, 9, 144, 24
-0.99849, 389, 25, 420, 40
-0.99849, 145, 119, 208, 134
-0.99849, 377, 49, 408, 64
-0.99849, 209, 107, 272, 122
-0.998491, 209, 103, 240, 118
-0.998491, 157, 283, 188, 298
-0.998491, 53, 43, 84, 58
-0.998491, 73, 187, 136, 202
-0.998492, 101, 119, 132, 134
-0.998492, 329, 61, 360, 76
-0.998492, 13, 157, 44, 172
-0.998492, 73, 179, 136, 194
-0.998493, 105, 101, 168, 116
-0.998493, 401, 57, 464, 72
-0.998495, 177, 131, 240, 146
-0.998495, 433, 21, 496, 36
-0.998495, 33, 73, 64, 88
-0.998496, 85, 161, 116, 176
-0.998496, 145, 91, 208, 106
-0.998496, 57, 105, 120, 120
-0.998496, 149, 291, 180, 306
-0.998497, 81, 87, 112, 102
-0.998497, 73, 67, 104, 82
-0.998498, 337, 23, 400, 38
-0.998499, 369, 53, 432, 68
-0.998499, 377, 67, 440, 82
-0.998499, 257, 1, 288, 16
-0.9985, 113, 287, 176, 302
-0.9985, 61, 35, 92, 50
-0.9985, 289, 105, 320, 120
-0.998501, 249, 215, 280, 230
-0.998502, 333, 55, 364, 70
-0.998502, 233, 247, 296, 262
-0.998502, 113, 161, 144, 176
-0.998503, 185, 101, 248, 116
-0.998503, 73, 133, 136, 148
-0.998503, 133, 85, 164, 100
-0.998504, 193, 121, 224, 136
-0.998504, 193, 129, 224, 144
-0.998504, 361, 283, 392, 298
-0.998504, 425, 139, 488, 154
-0.998506, 113, 133, 176, 148
-0.998506, 321, 1, 384, 16
-0.998507, 225, 109, 256, 124
-0.998509, 345, 37, 408, 52
-0.998509, 397, 47, 428, 62
-0.998509, 57, 123, 120, 138
-0.998512, 63, 33, 78, 160
-0.998512, 97, 15, 160, 30
-0.998512, 421, 69, 452, 84
-0.998515, 433, 75, 496, 90
-0.998515, 369, 25, 432, 40
-0.998515, 209, 125, 272, 140
-0.998516, 321, 39, 384, 54
-0.998516, 433, 81, 496, 96
-0.998517, 169, 67, 200, 82
-0.998519, 49, 195, 112, 210
-0.998519, 113, 241, 144, 256
-0.99852, 73, 193, 136, 208
-0.998521, 193, 113, 256, 128
-0.998521, 257, 3, 320, 18
-0.998521, 241, 241, 272, 256
-0.998522, 53, 109, 84, 124
-0.998522, 417, 225, 480, 240
-0.998522, 361, 31, 424, 46
-0.998523, 129, 79, 192, 94
-0.998524, 297, 11, 360, 26
-0.998524, 153, 279, 216, 294
-0.998525, 361, 43, 424, 58
-0.998525, 193, 139, 224, 154
-0.998525, 425, 93, 488, 108
-0.998526, 73, 199, 136, 214
-0.998526, 317, 71, 348, 86
-0.998527, 425, 45, 456, 60
-0.998527, 329, 53, 392, 68
-0.998528, 217, 119, 280, 134
-0.998528, 105, 171, 168, 186
-0.998528, 305, 69, 368, 84
-0.998528, 25, 129, 88, 144
-0.998528, 433, 235, 496, 250
-0.998529, 421, 11, 452, 26
-0.998529, 169, 113, 232, 128
-0.998529, 301, 129, 332, 375
-0.998529, 121, 281, 184, 296
-0.99853, 49, 201, 112, 216
-0.99853, 57, 29, 120, 44
-0.99853, 41, 35, 104, 50
-0.99853, 17, 115, 80, 130
-0.998531, 337, 49, 368, 64
-0.998531, 81, 167, 144, 182
-0.998531, 105, 117, 168, 132
-0.998532, 45, 61, 76, 76
-0.998532, 233, 1, 296, 16
-0.998532, 221, 121, 252, 136
-0.998533, 97, 185, 160, 200
-0.998534, 185, 91, 216, 106
-0.998534, 233, 225, 296, 240
-0.998535, 105, 165, 168, 180
-0.998535, 113, 139, 176, 154
-0.998536, 177, 89, 240, 104
-0.998536, 253, 233, 284, 248
-0.998536, 369, 59, 432, 74
-0.998536, 101, 125, 132, 140
-0.998537, 61, 89, 92, 104
-0.998537, 17, 71, 80, 86
-0.998539, 105, 241, 168, 256
-0.998539, 97, 77, 160, 92
-0.998539, 73, 21, 104, 36
-0.99854, 41, 165, 104, 180
-0.99854, 425, 77, 456, 92
-0.99854, 25, 55, 88, 70
-0.99854, 409, 45, 440, 60
-0.99854, 213, 115, 244, 130
-0.99854, 401, 97, 464, 112
-0.998541, 425, 51, 456, 66
-0.998541, 217, 307, 280, 322
-0.998541, 1, 79, 64, 94
-0.998543, 197, 111, 228, 126
-0.998543, 161, 83, 192, 98
-0.998545, 241, 247, 272, 262
-0.998545, 233, 137, 264, 152
-0.998545, 401, 11, 432, 26
-0.998545, 313, 5, 344, 20
-0.998548, 65, 29, 96, 44
-0.998548, 141, 79, 172, 94
-0.998549, 61, 83, 92, 98
-0.99855, 109, 1, 140, 16
-0.998551, 353, 45, 384, 60
-0.998551, 401, 53, 432, 68
-0.998552, 173, 73, 204, 88
-0.998552, 89, 1, 120, 16
-0.998554, 33, 159, 64, 174
-0.998555, 53, 103, 84, 118
-0.998556, 81, 11, 112, 26
-0.998557, 145, 285, 176, 300
-0.998566, 187, 81, 202, 208
-0.998568, 45, 83, 76, 98
-0.998568, 77, 77, 108, 92
-0.99857, 41, 67, 72, 82
-0.998571, 161, 77, 192, 92
-0.998571, 97, 133, 128, 148
-0.998573, 177, 79, 208, 94
-0.99858, 413, 51, 444, 66
-0.99858, 229, 131, 260, 146
-0.998593, 421, 63, 452, 78
-0.998594, 149, 73, 180, 88
-0.998595, 217, 127, 248, 142
-0.9986, 423, 65, 438, 192
-0.998601, 57, 71, 88, 86
-0.998601, 193, 105, 224, 120
-0.99861, 425, 57, 456, 72
-0.998613, 61, 65, 92, 80
-0.998616, 209, 133, 240, 148
-0.998618, 357, 129, 388, 375
-0.998618, 423, 1, 438, 128
-0.998619, 349, 39, 380, 54
-0.998625, 189, 99, 220, 114
-0.998627, 181, 85, 212, 100
-0.998649, 241, 209, 256, 336
-0.998657, 49, 77, 80, 92
-0.998673, 47, 49, 62, 176
-0.99868, 415, 1, 430, 128
-0.998686, 231, 209, 246, 336
-0.998688, 163, 1, 178, 128
-0.998693, 291, 81, 306, 208
-0.998707, 195, 49, 210, 176
-0.998713, 97, 1, 112, 128
-0.998715, 149, 1, 164, 128
-0.998717, 79, 49, 94, 176
-0.998721, 57, 33, 72, 160
-0.998758, 411, 81, 426, 208
-0.998763, 95, 161, 110, 288
-0.998764, 87, 145, 102, 272
-0.998767, 341, 1, 356, 128
-0.998771, 155, 65, 170, 192
-0.998774, 183, 33, 198, 160
-0.998778, 431, 129, 446, 256
-0.998782, 297, 81, 312, 208
-0.99879, 157, 17, 172, 144
-0.998798, 429, 81, 444, 208
-0.998798, 91, 65, 106, 192
-0.998799, 417, 97, 432, 224
-0.9988, 219, 209, 234, 336
-0.998805, 435, 65, 450, 192
-0.998805, 91, 17, 106, 144
-0.998805, 163, 225, 178, 352
-0.998809, 69, 49, 84, 176
-0.998812, 305, 97, 320, 224
-0.998813, 201, 209, 216, 336
-0.998814, 155, 225, 170, 352
-0.998822, 79, 145, 94, 272
-0.998828, 149, 65, 164, 192
-0.99883, 99, 81, 114, 208
-0.998839, 403, 81, 418, 208
-0.998842, 189, 225, 204, 352
-0.998845, 249, 193, 264, 320
-0.998854, 225, 209, 240, 336
-0.998857, 441, 129, 472, 375
-0.998858, 169, 225, 184, 352
-0.998864, 371, 1, 386, 128
-0.998872, 407, 1, 422, 128
-0.998876, 179, 225, 194, 352
-0.998878, 335, 1, 350, 128
-0.998882, 417, 49, 432, 176
-0.998883, 275, 81, 290, 208
-0.998884, 411, 129, 426, 256
-0.998887, 139, 1, 154, 128
-0.998888, 57, 97, 72, 224
-0.998892, 21, 81, 36, 208
-0.998902, 25, 97, 56, 352
-0.998907, 453, 65, 484, 320
-0.998909, 93, 113, 108, 240
-0.99891, 125, 113, 140, 240
-0.998922, 177, 49, 192, 176
-0.99893, 207, 65, 222, 192
-0.998932, 477, 97, 492, 224
-0.998933, 355, 1, 370, 128
-0.998934, 103, 1, 118, 128
-0.998936, 485, 1, 500, 128
-0.998943, 211, 209, 226, 336
-0.998951, 161, 65, 176, 192
-0.998954, 169, 33, 184, 160
-0.998958, 299, 129, 314, 256
-0.998965, 103, 177, 118, 304
-0.998967, 349, 1, 364, 128
-0.998967, 201, 81, 216, 208
-0.998971, 255, 113, 270, 240
-0.998973, 265, 81, 280, 208
-0.998974, 117, 97, 132, 224
-0.998975, 147, 225, 162, 352
-0.998981, 283, 81, 298, 208
-0.998983, 239, 81, 254, 208
-0.998991, 385, 17, 400, 144
-0.999001, 233, 49, 248, 176
-0.999002, 377, 1, 392, 128
-0.999007, 85, 49, 100, 176
-0.999009, 303, 49, 318, 176
-0.99901, 255, 193, 270, 320
-0.999022, 15, 81, 30, 208
-0.999027, 401, 17, 416, 144
-0.99903, 105, 81, 120, 208
-0.999032, 317, 129, 332, 256
-0.999033, 45, 1, 60, 128
-0.999043, 325, 49, 340, 176
-0.999045, 195, 209, 210, 336
-0.999046, 267, 209, 282, 336
-0.999047, 379, 129, 394, 256
-0.999047, 319, 49, 334, 176
-0.999052, 311, 81, 326, 208
-0.999052, 255, 65, 270, 192
-0.999053, 401, 129, 416, 256
-0.999054, 51, 97, 66, 224
-0.999058, 441, 81, 456, 208
-0.999059, 423, 113, 438, 240
-0.999064, 217, 81, 232, 208
-0.999074, 431, 209, 446, 336
-0.999075, 205, 1, 220, 128
-0.999078, 379, 49, 394, 176
-0.999079, 39, 81, 54, 208
-0.999086, 245, 65, 260, 192
-0.999087, 61, 161, 76, 288
-0.999088, 289, 129, 304, 256
-0.99909, 133, 1, 148, 128
-0.999096, 227, 49, 242, 176
-0.9991, 63, 81, 78, 208
-0.999106, 263, 33, 278, 160
-0.999107, 191, 1, 206, 128
-0.999108, 143, 49, 158, 176
-0.99911, 147, 113, 162, 240
-0.999113, 153, 113, 168, 240
-0.999114, 167, 81, 182, 208
-0.999117, 141, 225, 156, 352
-0.999126, 395, 65, 410, 192
-0.999126, 135, 113, 150, 240
-0.999128, 85, 97, 100, 224
-0.999129, 31, 49, 46, 176
-0.999133, 389, 129, 404, 256
-0.999135, 89, 193, 104, 320
-0.999146, 477, 49, 492, 176
-0.999148, 51, 1, 66, 128
-0.999154, 485, 129, 500, 256
-0.999155, 297, 33, 312, 160
-0.99916, 177, 1, 192, 128
-0.999652, 337, 15, 352, 30
-0.999654, 67, 37, 82, 52
-0.999655, 37, 77, 52, 92
-0.999657, 267, 1, 282, 16
-0.999657, 59, 105, 74, 120
-0.999658, 193, 137, 208, 152
-0.999658, 99, 7, 114, 22
-0.99966, 91, 3, 106, 18
-0.99966, 67, 103, 82, 118
-0.99966, 89, 13, 104, 28
-0.999661, 183, 67, 198, 82
-0.999661, 291, 171, 306, 186
-0.999662, 423, 59, 438, 74
-0.999662, 371, 287, 386, 302
-0.999663, 279, 3, 294, 18
-0.999663, 439, 53, 454, 68
-0.999664, 57, 53, 72, 68
-0.999664, 29, 99, 44, 114
-0.999664, 301, 97, 316, 112
-0.999665, 479, 121, 494, 136
-0.999665, 189, 89, 204, 104
-0.999665, 65, 89, 80, 104
-0.999665, 109, 5, 124, 20
-0.999665, 321, 75, 336, 90
-0.999666, 145, 93, 160, 108
-0.999666, 197, 107, 212, 122
-0.999667, 83, 25, 98, 40
-0.999667, 309, 5, 324, 20
-0.999667, 217, 135, 232, 150
-0.999667, 193, 95, 208, 110
-0.999668, 31, 83, 46, 98
-0.999668, 121, 135, 136, 150
-0.999669, 363, 287, 378, 302
-0.999669, 411, 47, 426, 62
-0.99967, 1, 155, 16, 170
-0.99967, 73, 37, 88, 52
-0.999671, 409, 29, 424, 44
-0.999671, 351, 31, 366, 46
-0.999672, 179, 245, 194, 260
-0.999672, 485, 123, 500, 138
-0.999672, 191, 79, 206, 94
-0.999673, 173, 67, 188, 82
-0.999673, 155, 87, 170, 102
-0.999673, 253, 1, 268, 16
-0.999674, 187, 117, 202, 132
-0.999674, 167, 75, 182, 90
-0.999674, 259, 1, 274, 16
-0.999674, 87, 159, 102, 174
-0.999676, 247, 1, 262, 16
-0.999677, 149, 19, 164, 34
-0.999677, 103, 125, 118, 140
-0.999678, 77, 31, 92, 46
-0.999679, 47, 65, 62, 80
-0.999679, 311, 87, 326, 102
-0.99968, 71, 65, 86, 80
-0.99968, 107, 161, 122, 176
-0.999681, 289, 103, 304, 118
-0.999681, 81, 65, 96, 80
-0.999681, 175, 55, 190, 70
-0.999681, 71, 71, 86, 86
-0.999683, 343, 51, 358, 66
-0.999686, 113, 119, 128, 134
-0.999686, 231, 135, 246, 150
-0.999686, 153, 25, 168, 40
-0.999686, 413, 35, 428, 50
-0.999686, 431, 71, 446, 86
-0.999687, 417, 53, 432, 68
-0.999688, 185, 83, 200, 98
-0.999689, 327, 5, 342, 20
-0.999689, 169, 47, 184, 62
-0.99969, 143, 11, 158, 26
-0.99969, 339, 57, 354, 72
-0.999691, 67, 43, 82, 58
-0.999692, 187, 73, 202, 88
-0.999692, 225, 123, 240, 138
-0.999692, 439, 65, 454, 80
-0.999693, 133, 135, 148, 150
-0.999693, 179, 61, 194, 76
-0.999694, 155, 283, 170, 298
-0.999695, 329, 67, 344, 82
-0.999695, 427, 323, 442, 338
-0.999696, 333, 61, 348, 76
-0.999696, 177, 73, 192, 88
-0.999697, 109, 111, 124, 126
-0.999697, 157, 31, 172, 46
-0.999697, 163, 39, 178, 54
-0.999698, 61, 95, 76, 110
-0.9997, 101, 133, 116, 148
-0.999701, 349, 45, 364, 60
-0.999702, 45, 157, 60, 172
-0.999702, 233, 125, 248, 140
-0.999703, 153, 73, 168, 88
-0.999703, 245, 241, 260, 256
-0.999704, 207, 121, 222, 136
-0.999704, 243, 253, 258, 268
-0.999707, 415, 41, 430, 56
-0.999708, 153, 79, 168, 94
-0.999708, 53, 59, 68, 74
-0.999709, 151, 289, 166, 304
-0.999709, 421, 45, 436, 60
-0.99971, 139, 5, 154, 20
-0.99971, 245, 247, 260, 262
-0.999714, 437, 11, 452, 26
-0.999715, 55, 71, 70, 86
-0.999717, 357, 39, 372, 54
-0.999717, 433, 59, 448, 74
-0.999717, 239, 133, 254, 148
-0.999717, 65, 61, 80, 76
-0.999718, 213, 109, 228, 124
-0.999718, 107, 119, 122, 134
-0.999719, 295, 105, 310, 120
-0.99972, 427, 51, 442, 66
-0.99972, 63, 73, 78, 88
-0.999722, 403, 9, 418, 24
-0.999723, 205, 99, 220, 114
-0.999726, 149, 85, 164, 100
-0.999727, 479, 131, 494, 146
-0.999728, 427, 65, 442, 80
-0.99973, 69, 79, 84, 94
-0.99973, 199, 89, 214, 104
-0.999734, 195, 101, 210, 116
-0.999735, 207, 139, 222, 154
-0.999739, 477, 13, 492, 28
-0.999741, 147, 77, 162, 92
-0.999744, 245, 227, 260, 242
-0.999746, 245, 235, 260, 250
-0.999773, 227, 129, 242, 144
-0.999775, 219, 119, 234, 134
-0.999777, 215, 129, 230, 144
-0.999784, 61, 67, 76, 82
