1958
-0.415852, 1, 1, 500, 375
-0.466973, 1, 97, 500, 352
-0.467062, 33, 1, 288, 375
-0.509453, 193, 1, 448, 375
-0.593904, 1, 1, 500, 256
-0.605695, 97, 97, 352, 352
-0.634199, 257, 65, 500, 320
-0.689444, 97, 1, 352, 256
-0.730886, 1, 97, 256, 352
-0.827365, 1, 1, 256, 256
-0.840111, 193, 97, 320, 352
-0.849526, 161, 1, 288, 375
-0.874523, 113, 1, 240, 375
-0.877284, 145, 1, 272, 256
-0.878691, 273, 97, 400, 352
-0.878694, 209, 1, 336, 375
-0.879143, 273, 1, 400, 375
-0.892017, 97, 97, 224, 352
-0.898898, 145, 129, 272, 375
-0.900156, 193, 1, 320, 256
-0.900291, 321, 1, 448, 375
-0.901288, 369, 1, 496, 375
-0.901861, 65, 1, 192, 375
-0.903481, 1, 193, 500, 320
-0.905272, 17, 129, 144, 375
-0.911612, 1, 81, 500, 208
-0.919606, 65, 113, 320, 240
-0.924289, 273, 1, 400, 256
-0.926029, 225, 81, 480, 208
-0.927677, 217, 113, 280, 240
-0.928407, 97, 65, 352, 192
-0.928576, 1, 129, 500, 256
-0.929649, 1, 241, 500, 368
-0.930134, 353, 65, 480, 320
-0.931402, 241, 129, 304, 256
-0.931662, 129, 193, 384, 320
-0.932051, 1, 1, 128, 375
-0.932952, 1, 65, 256, 192
-0.934614, 193, 129, 320, 256
-0.935191, 193, 81, 320, 208
-0.938105, 185, 129, 248, 256
-0.938479, 97, 1, 224, 256
-0.939401, 49, 33, 176, 288
-0.93971, 217, 65, 280, 192
-0.940862, 249, 81, 312, 208
-0.941823, 177, 193, 304, 320
-0.941938, 161, 145, 416, 272
-0.944192, 241, 81, 368, 208
-0.944729, 145, 129, 272, 256
-0.94507, 193, 81, 256, 208
-0.947429, 129, 81, 256, 208
-0.949288, 209, 193, 272, 320
-0.949362, 1, 33, 500, 160
-0.950405, 1, 193, 256, 320
-0.951436, 113, 209, 240, 336
-0.95206, 97, 241, 352, 368
-0.952165, 225, 177, 352, 304
-0.952211, 1, 1, 128, 256
-0.952293, 225, 193, 480, 320
-0.9524, 185, 193, 248, 320
-0.952402, 161, 33, 288, 160
-0.953424, 249, 193, 312, 320
-0.954003, 193, 241, 448, 368
-0.954715, 249, 161, 312, 224
-0.955661, 161, 145, 224, 272
-0.957072, 281, 81, 344, 208
-0.957382, 241, 129, 304, 192
-0.957543, 129, 17, 384, 144
-0.957937, 161, 209, 224, 336
-0.958353, 193, 193, 256, 256
-0.958731, 97, 145, 224, 272
-0.959104, 217, 105, 280, 168
-0.959346, 169, 81, 232, 208
-0.960185, 1, 1, 256, 128
-0.961188, 225, 169, 288, 232
-0.961404, 241, 129, 304, 375
-0.961576, 145, 49, 208, 176
-0.962006, 161, 241, 288, 368
-0.962186, 33, 209, 160, 336
-0.962617, 137, 209, 200, 336
-0.963309, 257, 89, 320, 152
-0.963695, 233, 81, 296, 144
-0.9643, 289, 81, 416, 208
-0.964885, 177, 153, 240, 216
-0.965041, 185, 17, 248, 144
-0.965104, 1, 241, 256, 368
-0.965108, 193, 121, 256, 184
-0.965246, 241, 241, 304, 368
-0.965281, 185, 241, 248, 368
-0.965482, 217, 97, 280, 352
-0.965693, 185, 89, 248, 152
-0.965949, 225, 241, 352, 368
-0.967643, 201, 153, 264, 216
-0.968323, 209, 33, 336, 160
-0.968715, 153, 1, 216, 128
-0.968808, 65, 81, 192, 208
-0.968907, 193, 161, 320, 224
-0.96894, 369, 241, 496, 368
-0.969688, 241, 201, 304, 264
-0.970033, 49, 129, 176, 256
-0.970206, 153, 121, 216, 184
-0.970495, 145, 97, 208, 224
-0.970564, 169, 193, 232, 256
-0.970625, 81, 193, 144, 320
-0.970926, 217, 241, 280, 368
-0.971001, 121, 81, 184, 208
-0.971016, 337, 81, 464, 208
-0.971397, 265, 145, 328, 272
-0.971457, 249, 129, 280, 256
-0.97171, 241, 129, 368, 256
-0.971781, 269, 113, 300, 240
-0.97184, 265, 185, 328, 248
-0.971929, 217, 113, 248, 240
-0.972169, 265, 129, 296, 192
-0.972235, 225, 33, 480, 160
-0.972241, 257, 65, 288, 192
-0.972263, 201, 217, 264, 280
-0.972327, 321, 241, 448, 368
-0.972684, 273, 97, 336, 352
-0.973156, 217, 129, 280, 192
-0.973258, 185, 273, 248, 336
-0.973303, 241, 33, 304, 288
-0.973416, 225, 249, 288, 312
-0.973568, 113, 33, 240, 160
-0.973662, 193, 129, 320, 192
-0.973739, 305, 81, 368, 208
-0.973763, 1, 129, 128, 256
-0.97379, 249, 273, 312, 336
-0.973817, 225, 57, 288, 120
-0.974029, 273, 193, 336, 320
-0.974147, 229, 81, 260, 208
-0.974178, 273, 241, 400, 368
-0.974269, 145, 65, 208, 128
-0.974423, 225, 193, 256, 256
-0.974509, 257, 145, 500, 272
-0.97465, 145, 153, 272, 216
-0.974677, 153, 241, 216, 304
-0.974729, 273, 193, 400, 320
-0.97488, 329, 81, 392, 208
-0.974917, 281, 241, 344, 368
-0.975031, 193, 105, 320, 168
-0.975086, 277, 153, 308, 216
-0.975106, 253, 105, 284, 168
-0.975197, 185, 249, 248, 312
-0.975288, 425, 241, 488, 368
-0.975298, 113, 225, 176, 352
-0.975393, 261, 81, 292, 144
-0.975568, 409, 81, 472, 208
-0.975648, 233, 289, 264, 352
-0.975771, 401, 241, 464, 368
-0.975863, 237, 129, 268, 256
-0.975911, 169, 217, 232, 280
-0.976011, 193, 1, 256, 256
-0.976136, 105, 249, 168, 312
-0.976151, 153, 145, 216, 208
-0.976312, 353, 81, 416, 208
-0.976448, 237, 225, 268, 352
-0.976562, 137, 161, 200, 288
-0.976625, 241, 89, 368, 152
-0.976678, 225, 281, 288, 344
-0.976797, 169, 129, 232, 375
-0.976804, 237, 313, 268, 375
-0.97685, 233, 97, 264, 160
-0.97725, 253, 129, 284, 192
-0.977287, 385, 81, 448, 208
-0.977299, 281, 89, 344, 152
-0.977306, 393, 81, 456, 144
-0.977353, 433, 81, 496, 208
-0.977444, 217, 193, 280, 256
-0.977459, 145, 129, 272, 192
-0.977491, 417, 81, 480, 144
-0.977747, 41, 113, 104, 240
-0.977868, 129, 249, 192, 312
-0.977908, 49, 1, 176, 128
-0.977916, 177, 185, 304, 248
-0.977965, 193, 129, 256, 375
-0.97802, 1, 257, 64, 320
-0.978187, 277, 193, 308, 320
-0.978279, 129, 89, 192, 152
-0.978397, 205, 129, 236, 256
-0.978399, 105, 273, 168, 336
-0.978442, 257, 33, 384, 160
-0.978507, 177, 73, 304, 136
-0.978552, 225, 161, 256, 288
-0.978575, 197, 81, 228, 208
-0.978592, 161, 33, 224, 288
-0.978638, 273, 273, 336, 336
-0.978638, 257, 33, 320, 160
-0.978818, 369, 241, 432, 368
-0.978905, 225, 193, 352, 256
-0.978944, 337, 241, 400, 368
-0.978962, 281, 81, 312, 208
-0.979073, 249, 185, 280, 248
-0.979413, 129, 81, 256, 144
-0.979497, 313, 241, 376, 368
-0.979562, 213, 153, 244, 216
-0.979641, 197, 193, 228, 320
-0.979649, 209, 129, 240, 192
-0.97966, 153, 169, 216, 232
-0.97973, 245, 49, 276, 176
-0.979774, 233, 17, 296, 144
-0.979932, 189, 145, 220, 272
-0.98003, 305, 89, 368, 152
-0.980154, 1, 241, 64, 368
-0.98016, 237, 145, 268, 208
-0.980297, 225, 209, 256, 336
-0.980452, 297, 265, 360, 328
-0.980462, 49, 193, 112, 320
-0.980472, 97, 145, 160, 272
-0.980526, 261, 153, 292, 216
-0.980762, 81, 257, 144, 320
-0.980773, 201, 1, 264, 375
-0.980773, 225, 1, 288, 375
-0.980857, 145, 193, 208, 256
-0.980882, 201, 41, 264, 104
-0.980957, 209, 17, 272, 144
-0.981007, 205, 201, 236, 264
-0.981127, 145, 209, 272, 272
-0.98116, 245, 65, 276, 128
-0.981203, 265, 121, 328, 184
-0.981278, 209, 65, 240, 192
-0.981296, 201, 161, 232, 224
-0.981423, 329, 265, 392, 328
-0.981481, 185, 193, 216, 320
-0.981579, 361, 89, 424, 152
-0.981598, 145, 129, 208, 375
-0.981627, 137, 217, 200, 280
-0.981763, 129, 153, 192, 216
-0.981907, 209, 81, 272, 144
-0.981943, 329, 89, 392, 152
-0.982116, 153, 265, 216, 328
-0.982166, 433, 257, 496, 320
-0.982249, 189, 153, 220, 216
-0.982268, 1, 281, 64, 344
-0.982366, 97, 185, 160, 248
-0.982457, 113, 241, 240, 304
-0.982675, 269, 65, 300, 192
-0.982732, 241, 169, 368, 232
-0.98278, 289, 161, 352, 224
-0.982835, 169, 1, 232, 375
-0.982836, 261, 193, 292, 320
-0.983071, 257, 241, 288, 368
-0.983116, 229, 33, 260, 160
-0.983284, 257, 281, 288, 344
-0.983332, 145, 1, 208, 375
-0.983363, 113, 105, 240, 168
-0.983368, 25, 257, 88, 320
-0.983396, 177, 257, 304, 320
-0.983706, 221, 113, 252, 176
-0.983733, 225, 153, 256, 216
-0.98375, 369, 81, 496, 144
-0.983814, 241, 265, 272, 328
-0.983959, 185, 201, 216, 264
-0.984115, 81, 241, 144, 368
-0.984152, 145, 41, 272, 104
-0.984318, 209, 225, 240, 352
-0.984331, 185, 65, 248, 128
-0.984376, 353, 265, 416, 328
-0.984469, 197, 129, 228, 192
-0.98448, 225, 225, 288, 288
-0.984555, 129, 273, 192, 336
-0.984559, 153, 49, 184, 176
-0.984588, 269, 177, 300, 240
-0.984593, 321, 33, 448, 160
-0.984626, 97, 177, 224, 240
-0.984707, 277, 121, 308, 184
-0.984749, 273, 89, 304, 152
-0.984794, 257, 249, 288, 312
-0.984827, 249, 249, 312, 312
-0.98484, 401, 257, 464, 320
-0.984843, 177, 49, 208, 176
-0.984861, 285, 89, 316, 152
-0.985008, 237, 225, 268, 288
-0.98501, 173, 177, 204, 240
-0.985019, 213, 281, 244, 344
-0.985058, 41, 97, 104, 352
-0.985081, 5, 257, 36, 320
-0.985109, 369, 33, 432, 160
-0.985116, 161, 89, 224, 152
-0.985137, 1, 193, 64, 320
-0.985215, 293, 81, 324, 208
-0.985312, 97, 217, 160, 280
-0.985368, 377, 265, 440, 328
-0.985374, 237, 177, 268, 304
-0.98543, 289, 137, 352, 200
-0.985433, 25, 193, 88, 320
-0.985473, 1, 1, 64, 128
-0.985477, 369, 33, 496, 160
-0.985493, 129, 265, 256, 328
-0.985554, 97, 145, 224, 208
-0.985566, 393, 33, 456, 160
-0.985693, 225, 305, 288, 368
-0.985767, 241, 265, 368, 328
-0.98578, 289, 1, 352, 375
-0.985817, 289, 185, 352, 248
-0.98587, 249, 177, 280, 304
-0.985937, 281, 145, 312, 272
-0.985956, 25, 281, 88, 344
-0.985983, 129, 129, 192, 192
-0.985996, 65, 129, 128, 256
-0.986014, 121, 97, 184, 352
-0.986033, 289, 265, 416, 328
-0.986094, 81, 201, 208, 264
-0.986148, 89, 129, 152, 375
-0.9862, 257, 1, 320, 375
-0.986292, 181, 121, 212, 184
-0.986329, 57, 185, 120, 248
-0.986399, 17, 81, 144, 208
-0.986521, 337, 193, 464, 320
-0.986562, 125, 265, 156, 328
-0.986578, 289, 89, 416, 152
-0.986599, 169, 129, 200, 256
-0.98668, 177, 145, 208, 208
-0.986687, 281, 193, 312, 256
-0.986796, 33, 129, 96, 192
-0.986875, 25, 241, 88, 368
-0.986888, 169, 209, 200, 336
-0.98689, 25, 257, 56, 320
-0.986896, 161, 233, 288, 296
-0.9871, 1, 1, 64, 64
-0.987125, 241, 65, 368, 128
-0.987131, 353, 265, 480, 328
-0.987167, 141, 257, 172, 320
-0.987172, 289, 193, 320, 320
-0.987354, 49, 273, 176, 336
-0.987367, 201, 241, 232, 304
-0.987598, 241, 129, 368, 192
-0.987687, 297, 65, 360, 320
-0.987694, 65, 113, 192, 176
-0.987746, 273, 65, 336, 128
-0.987776, 17, 97, 80, 224
-0.987804, 1, 1, 128, 128
-0.987806, 217, 1, 280, 256
-0.987987, 65, 129, 128, 375
-0.988007, 209, 177, 240, 304
-0.988018, 73, 217, 136, 280
-0.988086, 21, 281, 52, 344
-0.988177, 369, 1, 432, 375
-0.988199, 49, 249, 176, 312
-0.988233, 145, 41, 208, 104
-0.988292, 189, 249, 220, 312
-0.988331, 81, 281, 144, 344
-0.988346, 213, 81, 244, 144
-0.988348, 225, 217, 256, 280
-0.98835, 393, 1, 456, 375
-0.988369, 193, 49, 320, 112
-0.988412, 213, 177, 244, 240
-0.988454, 97, 97, 160, 224
-0.988503, 41, 1, 104, 128
-0.988625, 289, 129, 352, 256
-0.988681, 5, 225, 36, 352
-0.988762, 237, 169, 268, 232
-0.988802, 1, 249, 128, 312
-0.988847, 121, 1, 184, 375
-0.988881, 177, 281, 304, 344
-0.988892, 329, 1, 392, 375
-0.988916, 449, 81, 480, 144
-0.988975, 237, 193, 268, 256
-0.989013, 369, 57, 432, 120
-0.989053, 273, 249, 336, 312
-0.989056, 49, 137, 176, 200
-0.989061, 177, 241, 208, 304
-0.98908, 49, 89, 176, 152
-0.989081, 129, 225, 160, 352
-0.989151, 413, 81, 444, 144
-0.989151, 269, 209, 300, 272
-0.989196, 297, 33, 360, 160
-0.989208, 73, 81, 136, 208
-0.989245, 213, 249, 244, 312
-0.989327, 417, 33, 480, 160
-0.989363, 189, 177, 220, 240
-0.989381, 113, 257, 144, 320
-0.98944, 229, 249, 260, 312
-0.989448, 241, 121, 272, 184
-0.989486, 121, 193, 184, 256
-0.989499, 129, 1, 192, 128
-0.989513, 225, 113, 288, 144
-0.989568, 161, 137, 192, 200
-0.989591, 201, 89, 232, 152
-0.989599, 249, 169, 312, 200
-0.989627, 241, 145, 304, 176
-0.989643, 245, 289, 276, 352
-0.989663, 409, 57, 472, 120
-0.989727, 33, 177, 160, 240
-0.989754, 341, 81, 372, 208
-0.989768, 337, 89, 368, 152
-0.989781, 157, 193, 188, 320
-0.989893, 365, 89, 396, 152
-0.989898, 225, 241, 352, 304
-0.98991, 329, 33, 392, 160
-0.989934, 209, 125, 272, 156
-0.989948, 285, 273, 316, 336
-0.989963, 49, 257, 112, 320
-0.989965, 197, 241, 228, 368
-0.99, 433, 1, 496, 375
-0.990023, 241, 133, 304, 164
-0.990074, 233, 57, 264, 120
-0.990122, 209, 153, 272, 184
-0.990135, 105, 137, 168, 200
-0.990137, 309, 81, 340, 208
-0.99014, 233, 201, 296, 232
-0.990179, 125, 241, 156, 304
-0.990201, 329, 81, 360, 208
-0.990219, 1, 129, 128, 192
-0.990246, 193, 209, 256, 240
-0.990285, 193, 193, 256, 224
-0.990305, 461, 241, 492, 368
-0.990314, 413, 81, 444, 208
-0.990364, 73, 153, 136, 216
-0.990395, 93, 193, 124, 320
-0.990418, 57, 241, 120, 368
-0.990456, 185, 157, 248, 188
-0.990461, 337, 193, 400, 320
-0.990462, 241, 189, 304, 220
-0.990483, 201, 225, 264, 256
-0.990491, 165, 49, 196, 176
-0.990522, 385, 81, 416, 208
-0.990522, 241, 213, 304, 244
-0.990536, 249, 57, 312, 120
-0.990537, 241, 157, 304, 188
-0.990603, 297, 89, 328, 152
-0.99062, 121, 65, 184, 128
-0.990636, 165, 1, 196, 128
-0.990648, 361, 81, 392, 208
-0.99067, 169, 17, 232, 80
-0.990687, 313, 193, 376, 320
-0.990705, 321, 65, 384, 128
-0.99071, 25, 105, 88, 168
-0.990712, 1, 1, 128, 64
-0.990717, 193, 137, 256, 168
-0.990717, 25, 241, 56, 368
-0.990728, 5, 281, 36, 344
-0.990737, 249, 93, 312, 124
-0.990752, 117, 241, 148, 368
-0.990771, 137, 1, 200, 256
-0.990775, 285, 241, 316, 368
-0.990775, 469, 89, 500, 152
-0.990785, 273, 93, 336, 124
-0.990798, 49, 65, 176, 128
-0.990808, 437, 81, 468, 208
-0.990902, 265, 197, 328, 228
-0.990903, 81, 193, 112, 320
-0.990912, 49, 281, 112, 344
-0.990918, 193, 1, 224, 128
-0.990924, 225, 77, 288, 108
-0.99094, 409, 241, 440, 368
-0.990941, 249, 121, 312, 152
-0.990951, 425, 81, 456, 208
-0.990952, 265, 185, 328, 216
-0.990958, 349, 89, 380, 152
-0.99096, 181, 97, 212, 224
-0.990963, 185, 101, 248, 132
-0.990963, 209, 101, 272, 132
-0.990966, 169, 185, 232, 216
-0.990974, 425, 81, 456, 144
-0.990989, 353, 65, 416, 320
-0.990995, 105, 193, 136, 320
-0.991014, 185, 285, 248, 316
-0.991016, 217, 189, 280, 220
-0.991058, 409, 65, 472, 320
-0.991059, 113, 269, 176, 300
-0.991097, 169, 221, 232, 252
-0.991101, 161, 145, 224, 176
-0.991119, 181, 241, 212, 368
-0.991127, 325, 89, 356, 152
-0.991129, 273, 241, 400, 304
-0.991133, 317, 265, 348, 328
-0.991134, 225, 173, 288, 204
-0.991134, 61, 129, 92, 256
-0.991169, 301, 273, 332, 336
-0.991181, 193, 273, 224, 336
-0.991201, 177, 173, 240, 204
-0.991203, 149, 57, 180, 120
-0.991217, 297, 241, 360, 304
-0.991224, 141, 209, 172, 336
-0.991225, 241, 285, 304, 316
-0.991234, 177, 113, 240, 144
-0.991243, 273, 265, 304, 328
-0.991301, 401, 81, 432, 208
-0.99134, 297, 93, 360, 124
-0.991373, 297, 65, 360, 128
-0.991429, 305, 65, 432, 128
-0.991444, 345, 65, 408, 128
-0.991449, 161, 209, 224, 240
-0.991456, 17, 97, 80, 352
-0.991483, 97, 153, 352, 216
-0.991489, 97, 57, 224, 120
-0.991496, 97, 73, 352, 136
-0.99151, 209, 217, 336, 280
-0.991517, 201, 177, 264, 208
-0.991534, 273, 1, 336, 256
-0.991541, 417, 193, 480, 320
-0.991545, 265, 157, 328, 188
-0.991548, 161, 125, 224, 156
-0.991548, 385, 89, 416, 152
-0.991552, 137, 81, 168, 144
-0.99157, 161, 233, 224, 264
-0.991588, 373, 81, 404, 208
-0.991589, 297, 241, 328, 368
-0.991624, 173, 201, 204, 264
-0.991631, 213, 17, 244, 144
-0.991637, 309, 89, 340, 152
-0.991656, 113, 281, 144, 344
-0.99167, 141, 65, 172, 192
-0.991675, 449, 241, 480, 368
-0.991678, 193, 89, 256, 120
-0.991681, 249, 109, 312, 140
-0.99169, 425, 241, 456, 368
-0.991691, 169, 197, 232, 228
-0.991691, 289, 129, 416, 256
-0.991692, 433, 89, 496, 120
-0.9917, 337, 241, 368, 368
-0.991702, 153, 1, 184, 128
-0.991748, 465, 81, 496, 208
-0.99175, 173, 57, 204, 120
-0.991754, 377, 65, 440, 320
-0.991762, 113, 285, 176, 316
-0.991773, 321, 65, 384, 320
-0.991782, 149, 81, 180, 144
-0.991787, 185, 241, 248, 272
-0.991788, 393, 89, 456, 120
-0.991788, 185, 269, 248, 300
-0.991794, 85, 193, 116, 256
-0.991797, 225, 89, 288, 120
-0.991843, 361, 93, 424, 124
-0.99185, 437, 241, 468, 368
-0.991862, 433, 65, 496, 320
-0.991871, 137, 281, 168, 344
-0.991879, 217, 65, 280, 96
-0.991891, 449, 81, 480, 208
-0.99191, 397, 241, 428, 368
-0.991933, 137, 277, 200, 308
-0.991954, 145, 77, 208, 108
-0.991958, 377, 193, 440, 320
-0.991958, 209, 285, 272, 316
-0.99196, 33, 1, 96, 375
-0.991962, 153, 157, 216, 188
-0.991978, 1, 1, 32, 128
-0.991984, 89, 269, 152, 300
-0.991996, 137, 93, 200, 124
-0.992013, 289, 193, 352, 224
-0.992038, 1, 273, 128, 336
-0.992039, 217, 253, 280, 284
-0.992058, 201, 113, 264, 144
-0.992066, 1, 285, 64, 316
-0.992095, 1, 201, 128, 264
-0.992095, 349, 265, 380, 328
-0.992103, 161, 113, 192, 176
-0.992114, 453, 257, 484, 320
-0.992121, 1, 269, 64, 300
-0.992132, 161, 89, 224, 120
-0.992138, 257, 305, 288, 368
-0.99214, 369, 265, 400, 328
-0.992143, 217, 137, 280, 168
-0.992152, 25, 285, 88, 316
-0.992159, 137, 265, 200, 296
-0.992192, 129, 225, 192, 256
-0.992203, 209, 241, 272, 272
-0.992209, 289, 181, 352, 212
-0.992214, 273, 273, 336, 304
-0.992218, 289, 165, 352, 196
-0.992233, 217, 213, 280, 244
-0.992234, 105, 89, 168, 152
-0.992236, 269, 241, 300, 368
-0.992239, 145, 177, 208, 208
-0.99224, 289, 161, 416, 224
-0.992249, 253, 133, 284, 164
-0.992275, 249, 273, 312, 304
-0.992318, 161, 273, 224, 304
-0.99232, 145, 113, 208, 144
-0.992325, 97, 205, 160, 236
-0.992327, 73, 113, 136, 176
-0.992344, 225, 273, 288, 304
-0.992348, 273, 157, 304, 188
-0.992354, 153, 245, 216, 276
-0.992356, 293, 177, 324, 240
-0.992359, 97, 177, 352, 240
-0.992391, 321, 93, 384, 124
-0.992399, 225, 297, 288, 328
-0.9924, 145, 193, 208, 224
-0.992412, 265, 133, 328, 164
-0.992418, 385, 241, 416, 368
-0.992424, 337, 241, 464, 304
-0.992426, 25, 269, 88, 300
-0.99245, 313, 241, 344, 368
-0.992478, 185, 257, 248, 288
-0.992478, 65, 213, 128, 244
-0.99248, 297, 273, 360, 304
-0.992487, 261, 113, 292, 144
-0.992501, 237, 105, 268, 136
-0.992509, 225, 333, 288, 364
-0.99251, 345, 269, 408, 300
-0.992518, 249, 81, 312, 112
-0.99252, 97, 217, 160, 248
-0.99253, 89, 281, 152, 312
-0.992539, 233, 301, 264, 332
-0.992542, 401, 81, 432, 144
-0.992543, 185, 125, 248, 156
-0.992557, 237, 289, 268, 320
-0.992557, 265, 145, 296, 176
-0.992569, 225, 345, 288, 375
-0.99257, 233, 313, 264, 344
-0.992575, 249, 153, 280, 216
-0.99258, 129, 205, 192, 236
-0.992583, 1, 13, 64, 44
-0.992583, 273, 81, 336, 112
-0.992594, 257, 169, 288, 200
-0.992608, 157, 97, 188, 224
-0.992627, 225, 89, 480, 152
-0.99263, 225, 193, 256, 224
-0.992637, 97, 1, 160, 375
-0.992657, 437, 81, 468, 144
-0.992663, 137, 137, 200, 168
-0.992669, 273, 193, 400, 256
-0.99268, 265, 209, 328, 240
-0.992695, 65, 225, 192, 288
-0.992696, 321, 273, 384, 304
-0.992707, 393, 265, 456, 296
-0.992712, 17, 49, 80, 176
-0.992712, 201, 53, 264, 84
-0.992718, 193, 69, 256, 100
-0.992726, 269, 129, 300, 160
-0.992742, 113, 89, 176, 120
-0.992742, 65, 273, 128, 304
-0.992762, 465, 257, 496, 320
-0.992767, 57, 197, 120, 228
-0.992769, 369, 241, 400, 368
-0.992774, 37, 265, 68, 328
-0.992786, 121, 105, 184, 136
-0.992794, 269, 193, 300, 224
-0.992803, 277, 177, 308, 208
-0.992805, 197, 157, 228, 188
-0.992805, 337, 81, 400, 112
-0.99282, 249, 145, 280, 176
-0.992824, 437, 257, 468, 320
-0.992826, 9, 269, 40, 300
-0.992832, 197, 141, 228, 172
-0.992849, 329, 265, 360, 328
-0.992853, 213, 285, 244, 316
-0.992856, 273, 121, 336, 152
-0.992858, 97, 193, 160, 224
-0.99286, 245, 185, 276, 216
-0.992861, 25, 125, 88, 156
-0.992875, 97, 229, 160, 260
-0.992876, 237, 325, 268, 356
-0.99288, 321, 241, 384, 304
-0.99288, 353, 241, 416, 304
-0.992895, 217, 157, 248, 188
-0.992903, 33, 137, 96, 168
-0.992904, 225, 217, 256, 248
-0.992907, 129, 253, 192, 284
-0.992908, 97, 245, 160, 276
-0.992908, 257, 157, 288, 188
-0.992914, 237, 173, 268, 204
-0.992915, 237, 277, 268, 308
-0.992916, 125, 269, 156, 300
-0.992924, 201, 241, 232, 272
-0.992929, 213, 197, 244, 228
-0.992932, 237, 153, 268, 184
-0.992938, 161, 285, 224, 316
-0.99294, 225, 309, 288, 340
-0.992944, 249, 285, 280, 316
-0.992952, 205, 229, 236, 260
-0.992959, 145, 65, 208, 96
-0.992967, 265, 145, 328, 176
-0.992971, 417, 265, 480, 296
-0.992976, 113, 145, 176, 176
-0.992984, 369, 269, 432, 300
-0.992986, 237, 229, 268, 260
-0.992988, 189, 181, 220, 212
-0.992994, 225, 229, 288, 260
-0.992998, 185, 153, 216, 184
-0.993001, 289, 153, 352, 184
-0.993006, 385, 265, 416, 328
-0.993018, 73, 225, 136, 256
-0.993022, 189, 233, 220, 264
-0.99303, 129, 237, 192, 268
-0.993032, 21, 273, 52, 304
-0.993046, 121, 193, 184, 224
-0.993051, 289, 93, 320, 124
-0.993056, 233, 117, 264, 148
-0.993057, 249, 201, 280, 232
-0.993065, 265, 101, 296, 132
-0.993067, 241, 65, 272, 96
-0.993068, 221, 273, 252, 304
-0.99307, 121, 125, 184, 156
-0.993071, 277, 205, 308, 236
-0.993077, 185, 169, 216, 200
-0.99308, 221, 229, 252, 260
-0.993091, 65, 185, 128, 216
-0.993091, 189, 225, 220, 288
-0.993098, 205, 209, 236, 240
-0.993099, 201, 297, 264, 328
-0.993105, 393, 77, 456, 108
-0.993105, 213, 177, 244, 208
-0.993106, 277, 93, 308, 124
-0.993108, 137, 273, 168, 304
-0.993109, 377, 241, 440, 304
-0.993111, 249, 121, 280, 152
-0.993138, 257, 85, 288, 116
-0.993145, 245, 337, 276, 368
-0.993145, 29, 285, 60, 316
-0.99315, 185, 221, 216, 252
-0.993161, 173, 189, 204, 220
-0.993167, 209, 137, 240, 168
-0.99317, 225, 181, 256, 212
-0.993172, 189, 73, 220, 136
-0.993181, 225, 285, 256, 316
-0.993182, 329, 93, 360, 124
-0.993184, 217, 97, 248, 128
-0.993188, 373, 93, 404, 124
-0.993191, 457, 89, 488, 120
-0.993192, 17, 285, 48, 316
-0.993196, 245, 313, 276, 344
-0.993198, 325, 241, 356, 368
-0.993202, 405, 89, 436, 120
-0.993205, 257, 181, 288, 212
-0.993212, 281, 121, 312, 152
-0.993222, 249, 301, 280, 332
-0.993234, 149, 85, 180, 116
-0.993236, 125, 285, 156, 316
-0.993238, 253, 73, 284, 104
-0.99324, 289, 197, 320, 228
-0.993241, 1, 285, 32, 316
-0.993246, 193, 269, 224, 300
-0.993258, 181, 133, 212, 164
-0.99326, 201, 197, 232, 228
-0.993269, 221, 301, 252, 332
-0.993273, 313, 89, 344, 120
-0.993274, 249, 273, 280, 304
-0.993275, 217, 125, 248, 156
-0.993276, 33, 153, 96, 216
-0.993277, 469, 93, 500, 124
-0.993283, 181, 201, 212, 232
-0.993285, 97, 161, 160, 224
-0.993285, 385, 93, 416, 124
-0.993299, 237, 217, 268, 248
-0.9933, 301, 93, 332, 124
-0.993309, 281, 133, 312, 164
-0.993312, 205, 253, 236, 284
-0.993323, 169, 141, 200, 172
-0.993325, 297, 185, 328, 216
-0.993326, 137, 285, 168, 316
-0.993331, 233, 337, 264, 368
-0.993339, 225, 205, 256, 236
-0.993343, 33, 113, 288, 176
-0.993343, 37, 273, 68, 304
-0.993345, 173, 161, 204, 192
-0.993351, 113, 269, 144, 300
-0.993352, 189, 245, 220, 276
-0.993355, 157, 97, 188, 128
-0.99336, 85, 209, 116, 240
-0.993368, 1, 17, 32, 48
-0.99337, 201, 177, 232, 208
-0.99337, 209, 109, 240, 140
-0.993373, 169, 217, 200, 248
-0.993376, 113, 285, 144, 316
-0.993379, 173, 173, 204, 204
-0.993379, 341, 93, 372, 124
-0.993379, 157, 133, 188, 164
-0.993381, 361, 93, 392, 124
-0.993382, 297, 173, 328, 204
-0.993383, 429, 89, 460, 120
-0.993384, 213, 241, 244, 272
-0.993386, 149, 277, 180, 308
-0.993387, 441, 89, 472, 120
-0.993388, 209, 269, 240, 300
-0.993389, 257, 213, 288, 244
-0.993394, 301, 273, 332, 304
-0.993397, 289, 273, 320, 304
-0.993404, 225, 245, 256, 276
-0.993411, 425, 257, 456, 320
-0.993413, 241, 93, 272, 124
-0.993413, 173, 229, 204, 260
-0.993414, 237, 265, 268, 296
-0.993416, 193, 125, 224, 156
-0.993416, 277, 81, 308, 112
-0.993417, 417, 89, 448, 120
-0.993433, 201, 285, 232, 316
-0.993438, 185, 285, 216, 316
-0.993439, 237, 53, 268, 84
-0.993441, 257, 261, 288, 292
-0.993449, 145, 97, 176, 128
-0.993453, 221, 317, 252, 348
-0.993458, 85, 221, 116, 252
-0.993509, 193, 161, 320, 192
-0.993538, 49, 113, 80, 240
-0.993555, 25, 1, 88, 64
-0.993556, 1, 137, 256, 200
-0.993586, 433, 57, 496, 120
-0.993598, 357, 241, 388, 368
-0.993646, 405, 33, 436, 160
-0.993702, 1, 153, 128, 216
-0.993716, 201, 297, 264, 360
-0.993716, 73, 1, 136, 375
-0.993722, 1, 145, 64, 272
-0.993751, 353, 57, 480, 120
-0.993777, 97, 249, 352, 312
-0.99381, 93, 217, 124, 280
-0.993811, 129, 17, 256, 80
-0.993827, 257, 209, 288, 272
-0.993845, 271, 129, 286, 192
-0.993852, 161, 241, 192, 304
-0.993852, 105, 1, 168, 128
-0.993898, 49, 209, 112, 272
-0.993912, 25, 193, 56, 320
-0.993972, 1, 129, 64, 192
-0.99398, 277, 121, 292, 184
-0.993996, 213, 225, 244, 288
-0.994094, 177, 1, 208, 128
-0.994113, 129, 113, 384, 176
-0.994131, 81, 1, 208, 64
-0.994167, 409, 257, 440, 320
-0.994181, 397, 265, 428, 328
-0.994217, 243, 281, 258, 344
-0.994218, 101, 241, 132, 304
-0.994221, 193, 193, 320, 224
-0.994251, 129, 201, 384, 264
-0.994256, 241, 93, 368, 124
-0.994305, 225, 169, 480, 232
-0.994318, 101, 145, 132, 272
-0.99435, 401, 281, 464, 344
-0.994363, 49, 41, 176, 104
-0.994393, 433, 281, 496, 344
-0.994397, 57, 129, 88, 192
-0.994481, 73, 145, 104, 272
-0.994494, 209, 173, 336, 204
-0.994563, 261, 161, 276, 224
-0.994567, 221, 305, 252, 368
-0.994597, 49, 1, 112, 64
-0.994658, 101, 273, 132, 336
-0.994664, 149, 105, 180, 168
-0.994712, 393, 33, 424, 160
-0.994779, 1, 89, 256, 152
-0.994784, 193, 17, 256, 80
-0.994837, 105, 113, 168, 176
-0.994842, 177, 125, 304, 156
-0.994867, 113, 145, 240, 176
-0.994874, 237, 193, 252, 256
-0.994877, 177, 41, 240, 104
-0.99488, 213, 129, 228, 192
-0.994893, 129, 81, 160, 208
-0.994894, 153, 265, 184, 328
-0.994911, 1, 1, 64, 375
-0.994914, 253, 273, 268, 336
-0.994923, 281, 33, 312, 160
-0.994943, 1, 249, 256, 312
-0.994952, 45, 113, 76, 176
-0.994953, 273, 129, 304, 375
-0.994971, 273, 65, 304, 128
-0.994989, 105, 241, 136, 368
-0.994993, 259, 113, 274, 176
-0.995008, 297, 153, 328, 216
-0.995017, 263, 137, 278, 200
-0.995036, 193, 137, 320, 168
-0.99504, 177, 149, 304, 180
-0.995056, 157, 241, 188, 368
-0.995084, 161, 273, 416, 336
-0.995101, 265, 209, 328, 272
-0.995109, 229, 153, 244, 216
-0.995115, 141, 129, 172, 256
-0.995116, 291, 161, 306, 224
-0.995155, 1, 1, 64, 256
-0.995178, 205, 137, 220, 200
-0.995249, 289, 249, 320, 312
-0.99525, 1, 97, 128, 160
-0.995254, 161, 105, 288, 136
-0.995254, 225, 289, 352, 352
-0.995266, 117, 193, 148, 320
-0.995288, 279, 89, 294, 152
-0.995333, 137, 1, 200, 64
-0.995354, 149, 145, 180, 208
-0.995361, 269, 161, 284, 224
-0.995376, 257, 265, 500, 328
-0.995402, 109, 201, 140, 264
-0.995443, 259, 281, 274, 344
-0.995503, 201, 65, 232, 128
-0.995548, 161, 65, 192, 128
-0.995551, 221, 41, 252, 104
-0.995552, 97, 49, 352, 112
-0.995559, 293, 129, 324, 256
-0.995579, 219, 129, 234, 192
-0.995599, 1, 161, 256, 224
-0.995642, 249, 1, 280, 128
-0.99565, 221, 153, 236, 216
-0.995659, 97, 289, 224, 352
-0.995672, 229, 185, 244, 248
-0.995679, 161, 217, 192, 280
-0.995696, 145, 217, 272, 248
-0.995719, 177, 205, 304, 236
-0.99572, 161, 173, 288, 204
-0.995723, 177, 73, 304, 104
-0.995734, 249, 305, 264, 368
-0.995759, 185, 97, 216, 160
-0.995779, 267, 81, 282, 144
-0.995789, 1, 9, 32, 72
-0.995804, 301, 249, 332, 312
-0.995806, 1, 241, 500, 304
-0.995811, 235, 153, 250, 216
-0.995822, 251, 129, 266, 192
-0.995835, 37, 241, 68, 368
-0.995841, 213, 153, 228, 216
-0.99586, 237, 289, 252, 352
-0.99587, 209, 113, 336, 144
-0.995873, 405, 57, 436, 120
-0.995881, 255, 65, 270, 128
-0.995892, 273, 89, 288, 152
-0.995913, 369, 89, 496, 120
-0.99594, 181, 273, 212, 336
-0.995966, 65, 281, 96, 344
-0.995974, 277, 145, 292, 208
-0.995975, 33, 177, 96, 240
-0.995978, 25, 1, 88, 256
-0.995989, 193, 241, 448, 304
-0.995993, 193, 145, 208, 208
-0.99601, 241, 153, 256, 216
-0.996021, 97, 273, 224, 304
-0.996028, 1, 185, 500, 248
-0.996031, 227, 121, 242, 184
-0.996037, 197, 209, 212, 272
-0.996049, 259, 257, 274, 320
-0.99605, 261, 185, 276, 248
-0.996053, 285, 89, 300, 152
-0.996127, 265, 17, 296, 144
-0.996127, 249, 97, 280, 352
-0.996141, 161, 185, 192, 248
-0.996154, 145, 161, 272, 192
-0.996161, 9, 161, 72, 224
-0.996178, 229, 281, 244, 344
-0.996181, 225, 137, 480, 200
-0.99619, 261, 97, 292, 352
-0.996203, 129, 93, 256, 124
-0.996207, 283, 121, 298, 184
-0.996216, 1, 89, 500, 152
-0.996255, 129, 257, 144, 320
-0.996259, 241, 25, 304, 88
-0.996259, 219, 177, 234, 240
-0.996286, 241, 41, 368, 104
-0.996293, 137, 265, 152, 328
-0.996314, 247, 217, 262, 280
-0.996323, 145, 185, 272, 216
-0.996329, 247, 97, 262, 160
-0.996351, 41, 65, 104, 192
-0.996358, 233, 97, 264, 352
-0.996363, 283, 153, 298, 216
-0.996363, 65, 209, 96, 336
-0.996369, 45, 193, 76, 320
-0.996388, 33, 201, 288, 264
-0.996411, 207, 193, 222, 256
-0.996426, 225, 149, 352, 180
-0.996426, 235, 257, 250, 320
-0.996427, 197, 249, 212, 312
-0.996428, 177, 85, 304, 116
-0.996429, 177, 265, 304, 296
-0.996437, 261, 73, 276, 136
-0.996457, 33, 273, 288, 336
-0.996458, 247, 57, 262, 120
-0.996476, 113, 125, 240, 156
-0.996482, 97, 205, 224, 236
-0.99653, 239, 313, 254, 375
-0.996532, 257, 305, 320, 368
-0.996548, 239, 217, 254, 280
-0.996559, 201, 161, 216, 224
-0.996561, 285, 97, 316, 352
-0.996568, 291, 89, 306, 152
-0.996575, 81, 217, 208, 248
-0.996583, 1, 1, 256, 64
-0.99661, 225, 193, 480, 256
-0.996611, 145, 229, 272, 260
-0.99662, 241, 161, 368, 192
-0.996621, 289, 137, 416, 200
-0.996632, 291, 201, 306, 264
-0.996634, 129, 241, 256, 272
-0.996635, 233, 113, 248, 176
-0.996655, 129, 81, 256, 112
-0.996658, 221, 201, 236, 264
-0.996666, 225, 65, 480, 128
-0.996699, 49, 273, 176, 304
-0.9967, 241, 185, 368, 216
-0.996713, 17, 257, 32, 320
-0.996741, 1, 225, 256, 288
-0.996742, 189, 185, 204, 248
-0.996801, 153, 145, 184, 272
-0.996802, 181, 177, 196, 240
-0.996816, 89, 129, 120, 256
-0.996823, 1, 49, 256, 112
-0.99683, 17, 225, 144, 288
-0.99683, 145, 249, 160, 312
-0.996837, 193, 217, 320, 248
-0.99685, 1, 73, 64, 136
-0.996856, 199, 129, 214, 192
-0.996875, 225, 205, 352, 236
-0.996883, 235, 81, 250, 144
-0.996899, 195, 177, 210, 240
-0.996915, 5, 249, 20, 312
-0.996923, 225, 113, 480, 176
-0.996932, 297, 177, 312, 240
-0.996959, 113, 113, 240, 144
-0.996967, 215, 201, 230, 264
-0.996971, 113, 173, 240, 204
-0.996971, 23, 273, 38, 336
-0.996976, 289, 93, 416, 124
-0.996994, 123, 257, 138, 320
-0.996996, 33, 257, 48, 320
-0.996998, 225, 89, 240, 152
-0.997001, 255, 305, 270, 368
-0.997001, 129, 69, 256, 100
-0.997005, 317, 33, 348, 160
-0.997026, 209, 129, 240, 375
-0.99703, 271, 185, 286, 248
-0.997039, 297, 89, 312, 152
-0.997059, 203, 241, 218, 304
-0.99706, 255, 161, 270, 224
-0.997062, 265, 105, 280, 168
-0.997068, 243, 193, 258, 256
-0.997069, 349, 33, 380, 160
-0.99707, 191, 241, 206, 304
-0.997086, 197, 97, 228, 352
-0.997097, 121, 41, 184, 104
-0.997111, 285, 201, 300, 264
-0.997114, 207, 113, 222, 176
-0.997115, 241, 313, 368, 375
-0.997116, 7, 273, 22, 336
-0.997124, 419, 81, 434, 144
-0.997133, 329, 33, 360, 160
-0.997136, 463, 81, 478, 144
-0.997138, 245, 257, 260, 320
-0.997159, 225, 125, 352, 156
-0.997159, 211, 249, 226, 312
-0.997162, 181, 145, 196, 208
-0.997165, 425, 33, 456, 160
-0.997167, 485, 89, 500, 152
-0.997175, 217, 249, 232, 312
-0.997179, 351, 89, 366, 152
-0.997182, 187, 145, 202, 208
-0.997189, 201, 185, 216, 248
-0.997201, 27, 249, 42, 312
-0.997212, 381, 33, 412, 160
-0.99722, 1, 233, 64, 296
-0.997234, 243, 289, 258, 320
-0.997248, 285, 273, 300, 336
-0.997251, 97, 229, 224, 260
-0.997252, 207, 169, 222, 232
-0.997255, 131, 281, 146, 344
-0.997257, 139, 241, 154, 304
-0.997258, 229, 233, 244, 296
-0.997263, 177, 285, 304, 316
-0.997264, 367, 89, 382, 152
-0.997265, 97, 65, 160, 128
-0.997267, 217, 105, 232, 168
-0.997273, 253, 97, 268, 160
-0.997317, 221, 129, 252, 375
-0.997319, 279, 209, 294, 272
-0.997327, 151, 257, 166, 320
-0.997328, 361, 89, 376, 152
-0.99734, 123, 281, 138, 344
-0.997342, 299, 273, 314, 336
-0.997342, 97, 49, 160, 176
-0.997355, 1, 265, 500, 328
-0.997373, 113, 1, 176, 256
-0.99738, 265, 249, 280, 312
-0.997386, 257, 273, 384, 304
-0.997392, 309, 89, 324, 152
-0.997394, 97, 225, 352, 288
-0.997404, 453, 33, 484, 160
-0.997407, 317, 89, 332, 152
-0.997407, 335, 89, 350, 152
-0.99741, 113, 129, 144, 256
-0.99741, 399, 89, 414, 152
-0.997411, 271, 129, 286, 160
-0.997411, 309, 273, 324, 336
-0.997419, 305, 33, 336, 160
-0.997425, 303, 89, 318, 152
-0.997436, 437, 33, 468, 160
-0.997449, 177, 313, 304, 375
-0.997449, 345, 89, 360, 152
-0.997451, 203, 273, 218, 336
-0.997456, 1, 281, 16, 344
-0.997457, 229, 257, 244, 320
-0.997458, 457, 81, 472, 144
-0.99746, 65, 285, 192, 316
-0.997464, 65, 137, 192, 168
-0.997467, 329, 89, 344, 152
-0.997468, 437, 81, 452, 144
-0.997473, 39, 257, 54, 320
-0.997479, 241, 77, 368, 108
-0.997482, 73, 1, 136, 64
-0.997482, 293, 273, 308, 336
-0.997483, 49, 125, 176, 156
-0.997485, 319, 273, 334, 336
-0.997489, 143, 273, 158, 336
-0.99749, 1, 137, 500, 200
-0.997495, 241, 97, 256, 160
-0.997498, 273, 33, 304, 288
-0.997498, 29, 281, 44, 344
-0.997501, 323, 89, 338, 152
-0.997502, 297, 65, 328, 320
-0.997513, 183, 201, 198, 264
-0.997521, 57, 89, 120, 152
-0.997521, 9, 185, 72, 248
-0.997524, 241, 73, 256, 136
-0.99753, 413, 81, 428, 144
-0.997532, 161, 57, 288, 88
-0.997545, 249, 177, 264, 240
-0.997556, 377, 89, 392, 152
-0.997559, 431, 81, 446, 144
-0.997579, 97, 157, 224, 188
-0.997584, 229, 1, 260, 256
-0.997596, 273, 149, 288, 180
-0.997604, 1, 73, 128, 136
-0.997621, 49, 89, 176, 120
-0.997623, 113, 261, 240, 292
-0.997635, 243, 301, 258, 332
-0.997643, 259, 169, 274, 200
-0.997648, 253, 285, 268, 316
-0.997665, 1, 265, 128, 296
-0.997675, 277, 137, 292, 168
-0.997699, 273, 173, 400, 204
-0.9977, 273, 197, 400, 228
-0.997707, 353, 193, 384, 320
-0.997723, 361, 33, 392, 160
-0.997728, 263, 153, 278, 184
-0.997732, 337, 269, 464, 300
-0.997746, 181, 129, 212, 375
-0.997762, 113, 285, 240, 316
-0.997768, 1, 25, 256, 88
-0.997774, 291, 177, 306, 208
-0.997818, 33, 193, 160, 224
-0.997826, 41, 233, 104, 296
-0.997831, 33, 217, 160, 248
-0.99784, 233, 157, 248, 188
-0.997864, 289, 81, 416, 112
-0.997868, 279, 125, 294, 156
-0.997885, 177, 253, 304, 284
-0.997904, 45, 65, 76, 192
-0.997909, 17, 285, 144, 316
-0.997918, 245, 313, 260, 344
-0.99792, 287, 161, 302, 192
-0.997928, 247, 221, 262, 252
-0.997937, 203, 145, 218, 176
-0.997958, 33, 205, 160, 236
-0.997959, 207, 157, 222, 188
-0.997974, 217, 33, 248, 288
-0.997982, 239, 193, 254, 224
-0.997998, 441, 193, 472, 320
-0.998003, 229, 285, 244, 316
-0.998004, 259, 189, 274, 220
-0.998005, 263, 113, 278, 144
-0.998006, 1, 161, 500, 224
-0.998008, 253, 301, 268, 332
-0.99801, 237, 289, 252, 320
-0.998013, 469, 193, 500, 320
-0.998026, 465, 33, 496, 160
-0.998033, 267, 141, 282, 172
-0.998041, 187, 161, 202, 192
-0.998043, 223, 157, 238, 188
-0.998047, 231, 185, 246, 216
-0.998053, 49, 105, 176, 136
-0.998061, 81, 193, 208, 224
-0.998069, 197, 145, 212, 176
-0.998077, 425, 193, 456, 320
-0.99808, 211, 193, 226, 224
-0.998081, 33, 129, 64, 256
-0.998096, 289, 205, 304, 236
-0.998098, 197, 157, 212, 188
-0.998098, 57, 1, 88, 128
-0.998101, 279, 149, 294, 180
-0.998106, 241, 65, 368, 96
-0.99811, 237, 301, 252, 332
-0.998114, 213, 137, 228, 168
-0.998114, 259, 285, 274, 316
-0.99812, 253, 105, 268, 136
-0.998133, 245, 1, 276, 256
-0.998139, 251, 313, 266, 344
-0.998139, 289, 289, 416, 352
-0.998142, 193, 229, 320, 260
-0.998148, 93, 241, 124, 368
-0.998156, 257, 125, 272, 156
-0.998166, 267, 165, 282, 196
-0.99817, 135, 269, 150, 300
-0.998171, 239, 317, 254, 348
-0.998179, 169, 129, 200, 375
-0.99818, 49, 77, 176, 108
-0.998212, 257, 105, 384, 136
-0.998216, 267, 177, 282, 208
-0.998219, 157, 97, 188, 352
-0.998226, 291, 93, 306, 124
-0.998227, 193, 1, 224, 256
-0.998234, 293, 165, 308, 196
-0.998235, 141, 273, 156, 304
-0.998239, 213, 157, 228, 188
-0.998239, 195, 181, 210, 212
-0.998246, 173, 33, 204, 288
-0.998247, 17, 277, 32, 308
-0.998258, 369, 289, 496, 352
-0.998266, 239, 277, 254, 308
-0.998269, 25, 273, 40, 304
-0.998276, 1, 9, 128, 40
-0.998276, 247, 277, 262, 308
-0.99828, 277, 93, 292, 124
-0.998286, 53, 97, 84, 352
-0.998288, 209, 17, 336, 80
-0.998293, 217, 185, 232, 216
-0.998299, 413, 193, 444, 320
-0.998299, 225, 285, 352, 316
-0.998317, 177, 241, 304, 272
-0.998317, 219, 197, 234, 228
-0.998321, 1, 209, 500, 272
-0.998323, 225, 193, 240, 224
-0.998325, 257, 321, 272, 352
-0.99833, 17, 137, 144, 168
-0.998332, 145, 95, 176, 110
-0.998333, 213, 281, 244, 296
-0.998333, 221, 307, 252, 322
-0.998333, 185, 217, 216, 232
-0.998335, 297, 181, 328, 196
-0.998336, 209, 135, 240, 150
-0.998336, 205, 225, 236, 240
-0.998336, 217, 239, 248, 254
-0.998336, 237, 345, 268, 360
-0.998336, 201, 251, 232, 266
-0.998337, 173, 189, 204, 204
-0.998338, 239, 329, 254, 360
-0.998339, 201, 257, 232, 272
-0.998339, 149, 283, 180, 298
-0.998341, 445, 89, 476, 104
-0.998341, 253, 85, 284, 100
-0.998342, 293, 169, 324, 184
-0.998343, 237, 223, 268, 238
-0.998344, 221, 297, 252, 312
-0.998344, 249, 305, 280, 320
-0.998344, 213, 255, 244, 270
-0.998345, 177, 151, 208, 166
-0.998345, 245, 77, 276, 92
-0.998345, 219, 229, 234, 260
-0.998346, 245, 333, 276, 348
-0.998346, 237, 65, 268, 80
-0.998347, 203, 233, 218, 264
-0.998347, 133, 287, 164, 302
-0.998347, 249, 311, 280, 326
-0.998347, 309, 93, 340, 108
-0.998347, 281, 123, 312, 138
-0.998347, 225, 207, 256, 222
-0.998348, 137, 279, 168, 294
-0.998348, 421, 89, 452, 104
-0.998348, 185, 227, 216, 242
-0.998349, 269, 197, 300, 212
-0.998351, 297, 197, 328, 212
-0.998351, 239, 157, 254, 188
-0.998351, 189, 241, 220, 256
-0.998352, 181, 173, 212, 188
-0.998352, 213, 247, 244, 262
-0.998352, 281, 189, 312, 204
-0.998355, 249, 195, 280, 210
-0.998355, 211, 181, 226, 212
-0.998356, 237, 237, 268, 252
-0.998357, 201, 263, 232, 278
-0.998357, 201, 189, 232, 204
-0.998359, 385, 95, 416, 110
-0.998359, 277, 97, 308, 112
-0.99836, 237, 103, 268, 118
-0.998361, 245, 339, 276, 354
-0.998361, 261, 209, 292, 224
-0.998362, 173, 195, 204, 210
-0.998362, 289, 185, 416, 216
-0.998362, 261, 157, 292, 172
-0.998363, 237, 177, 268, 192
-0.998363, 285, 207, 316, 222
-0.998365, 213, 181, 244, 196
-0.998366, 241, 137, 368, 168
-0.998366, 185, 233, 216, 248
-0.998367, 181, 165, 212, 180
-0.998367, 245, 201, 276, 216
-0.998368, 177, 145, 208, 160
-0.998369, 197, 151, 228, 166
-0.99837, 185, 181, 216, 196
-0.998372, 469, 93, 500, 108
-0.998372, 225, 223, 256, 238
-0.998373, 241, 71, 272, 86
-0.998373, 185, 157, 216, 172
-0.998377, 201, 181, 232, 196
-0.998378, 225, 283, 256, 298
-0.99838, 257, 183, 288, 198
-0.998381, 221, 231, 252, 246
-0.998382, 225, 189, 256, 204
-0.998382, 249, 153, 280, 168
-0.998383, 1, 21, 16, 52
-0.998385, 209, 203, 240, 218
-0.998385, 333, 95, 364, 110
-0.998385, 209, 159, 240, 174
-0.998385, 205, 239, 236, 254
-0.998387, 365, 97, 396, 112
-0.998388, 237, 157, 268, 172
-0.998388, 405, 91, 436, 106
-0.998391, 205, 231, 236, 246
-0.998391, 273, 151, 304, 166
-0.998391, 189, 187, 220, 202
-0.998395, 289, 95, 320, 110
-0.998396, 457, 89, 488, 104
-0.998396, 237, 231, 268, 246
-0.998398, 195, 213, 210, 244
-0.998399, 233, 335, 264, 350
-0.9984, 21, 287, 52, 302
-0.998401, 23, 285, 38, 316
-0.998402, 267, 81, 282, 112
-0.998404, 273, 209, 304, 224
-0.998404, 193, 197, 224, 212
-0.998405, 247, 209, 262, 240
-0.998409, 237, 185, 268, 200
-0.99841, 249, 207, 280, 222
-0.99841, 223, 177, 238, 208
-0.998411, 197, 157, 228, 172
-0.998412, 277, 177, 308, 192
-0.998412, 193, 175, 224, 190
-0.998412, 453, 193, 484, 320
-0.998413, 147, 277, 162, 308
-0.998414, 21, 281, 52, 296
-0.998414, 237, 283, 268, 298
-0.998416, 321, 93, 352, 108
-0.998417, 257, 165, 288, 180
-0.998418, 253, 123, 284, 138
-0.998418, 201, 245, 232, 260
-0.998419, 243, 101, 258, 132
-0.998421, 265, 135, 296, 150
-0.998423, 265, 145, 296, 160
-0.998425, 401, 193, 432, 320
-0.998425, 233, 173, 248, 204
-0.998426, 323, 89, 338, 120
-0.998426, 249, 287, 280, 302
-0.998426, 269, 129, 300, 144
-0.998427, 209, 241, 224, 272
-0.998432, 253, 273, 268, 304
-0.998433, 345, 93, 360, 124
-0.998434, 281, 183, 312, 198
-0.998437, 261, 115, 292, 130
-0.998437, 317, 193, 348, 320
-0.998438, 193, 167, 224, 182
-0.998438, 233, 329, 264, 344
-0.998438, 269, 203, 300, 218
-0.998441, 193, 169, 208, 200
-0.998442, 237, 229, 252, 260
-0.998447, 259, 73, 274, 104
-0.99845, 251, 145, 266, 176
-0.998451, 221, 159, 252, 174
-0.998451, 213, 287, 244, 302
-0.998454, 253, 65, 268, 96
-0.998464, 251, 325, 266, 356
-0.998466, 273, 169, 304, 184
-0.998469, 213, 187, 244, 202
-0.998469, 257, 171, 288, 186
-0.99847, 237, 295, 268, 310
-0.99847, 237, 303, 268, 318
-0.998471, 9, 281, 40, 296
-0.998471, 409, 89, 424, 120
-0.998473, 241, 109, 272, 124
-0.998473, 181, 177, 196, 208
-0.998474, 283, 209, 298, 240
-0.998477, 261, 151, 292, 166
-0.998479, 233, 323, 264, 338
-0.998481, 277, 113, 292, 144
-0.998482, 295, 197, 310, 228
-0.998482, 225, 201, 256, 216
-0.998483, 249, 147, 280, 162
-0.998491, 197, 203, 228, 218
-0.998491, 241, 147, 304, 162
-0.998492, 257, 129, 288, 144
-0.998492, 273, 157, 304, 172
-0.998494, 257, 177, 288, 192
-0.998495, 9, 273, 24, 304
-0.998495, 285, 93, 300, 124
-0.998501, 233, 311, 264, 326
-0.998502, 49, 1, 112, 256
-0.998505, 217, 127, 280, 142
-0.998506, 249, 141, 280, 156
-0.998508, 241, 203, 304, 218
-0.998508, 481, 93, 496, 124
-0.998508, 145, 41, 272, 72
-0.998509, 31, 273, 46, 304
-0.99851, 153, 277, 168, 308
-0.99851, 49, 65, 176, 96
-0.998515, 249, 163, 312, 178
-0.998516, 205, 201, 220, 232
-0.998517, 5, 285, 20, 316
-0.998519, 65, 129, 96, 375
-0.99852, 139, 285, 154, 316
-0.998521, 241, 133, 304, 148
-0.998521, 233, 289, 264, 304
-0.998521, 129, 265, 144, 296
-0.998523, 285, 117, 300, 148
-0.998525, 233, 317, 264, 332
-0.998525, 225, 195, 256, 210
-0.998526, 249, 177, 312, 192
-0.998527, 65, 169, 192, 200
-0.99853, 259, 333, 274, 364
-0.998533, 209, 135, 272, 150
-0.998534, 471, 89, 486, 120
-0.998537, 233, 209, 296, 224
-0.998539, 217, 209, 232, 240
-0.99854, 271, 189, 286, 220
-0.998544, 217, 121, 280, 136
-0.998545, 249, 171, 312, 186
-0.998545, 29, 285, 44, 316
-0.998546, 273, 163, 304, 178
-0.998547, 265, 197, 280, 228
-0.998547, 1, 269, 16, 300
-0.998549, 257, 195, 320, 210
-0.99855, 229, 217, 244, 248
-0.998551, 297, 93, 312, 124
-0.998551, 257, 185, 320, 200
-0.998551, 245, 149, 260, 180
-0.998552, 197, 229, 212, 260
-0.998553, 225, 115, 288, 130
-0.998554, 239, 341, 254, 372
-0.998555, 253, 135, 284, 150
-0.998555, 225, 197, 288, 212
-0.998563, 225, 157, 288, 172
-0.998564, 275, 201, 290, 232
-0.998567, 201, 197, 264, 212
-0.998567, 169, 187, 232, 202
-0.998568, 241, 125, 304, 140
-0.998568, 209, 197, 240, 212
-0.998568, 73, 97, 104, 224
-0.998568, 297, 93, 360, 108
-0.998569, 193, 159, 256, 174
-0.998569, 201, 207, 264, 222
-0.998571, 217, 109, 280, 124
-0.998572, 273, 149, 400, 180
-0.998575, 145, 65, 176, 320
-0.998578, 201, 221, 264, 236
-0.998578, 199, 169, 214, 200
-0.99858, 241, 215, 304, 230
-0.998582, 201, 189, 216, 220
-0.998583, 265, 207, 328, 222
-0.998584, 185, 287, 248, 302
-0.998587, 265, 201, 328, 216
-0.998588, 49, 153, 176, 184
-0.998589, 241, 141, 304, 156
-0.998591, 433, 91, 496, 106
-0.998592, 237, 105, 252, 136
-0.998596, 233, 91, 296, 106
-0.998596, 229, 269, 244, 300
-0.998597, 161, 229, 224, 244
-0.998601, 33, 181, 160, 212
-0.998601, 193, 215, 256, 230
-0.998602, 225, 169, 288, 184
-0.998602, 161, 217, 224, 232
-0.998602, 113, 129, 144, 375
-0.998604, 225, 187, 288, 202
-0.998604, 301, 181, 316, 212
-0.998607, 201, 231, 264, 246
-0.998608, 385, 93, 400, 124
-0.998608, 191, 193, 206, 224
-0.998609, 379, 93, 394, 124
-0.998613, 1, 281, 64, 296
-0.998613, 393, 91, 456, 106
-0.998615, 389, 193, 420, 320
-0.998616, 273, 95, 336, 110
-0.998616, 177, 199, 240, 214
-0.998618, 261, 1, 292, 256
-0.998619, 193, 149, 256, 164
-0.99862, 161, 243, 224, 258
-0.99862, 249, 157, 312, 172
-0.998621, 315, 93, 330, 124
-0.998622, 361, 95, 424, 110
-0.998622, 169, 193, 232, 208
-0.998623, 225, 81, 288, 96
-0.998623, 177, 167, 240, 182
-0.998625, 131, 285, 146, 316
-0.998625, 161, 235, 224, 250
-0.998627, 201, 245, 264, 260
-0.998627, 201, 191, 264, 206
-0.998628, 249, 113, 312, 128
-0.998628, 113, 279, 176, 294
-0.998628, 185, 123, 248, 138
-0.998629, 225, 229, 240, 260
-0.99863, 185, 111, 248, 126
-0.99863, 215, 241, 230, 272
-0.99863, 153, 151, 216, 166
-0.998631, 201, 141, 264, 156
-0.998632, 217, 73, 280, 88
-0.998633, 177, 181, 240, 196
-0.998633, 145, 283, 208, 298
-0.998634, 161, 223, 224, 238
-0.998634, 169, 157, 232, 172
-0.998634, 123, 269, 138, 300
-0.998637, 289, 285, 416, 316
-0.998637, 241, 287, 304, 302
-0.998637, 205, 1, 236, 256
-0.998638, 201, 181, 264, 196
-0.99864, 303, 93, 318, 124
-0.99864, 125, 285, 140, 316
-0.998641, 185, 239, 248, 254
-0.998641, 169, 175, 232, 190
-0.998642, 9, 287, 72, 302
-0.998642, 153, 165, 216, 180
-0.998643, 225, 181, 288, 196
-0.998643, 185, 117, 248, 132
-0.998643, 105, 287, 168, 302
-0.998644, 185, 105, 248, 120
-0.998646, 209, 287, 272, 302
-0.998646, 233, 103, 296, 118
-0.998646, 145, 193, 208, 208
-0.998647, 265, 87, 328, 102
-0.998647, 373, 193, 404, 320
-0.998648, 281, 171, 344, 186
-0.998648, 153, 201, 216, 216
-0.99865, 273, 165, 288, 196
-0.99865, 169, 131, 232, 146
-0.998652, 281, 163, 344, 178
-0.998652, 289, 197, 352, 212
-0.998653, 337, 97, 400, 112
-0.998654, 309, 93, 324, 124
-0.998655, 105, 273, 168, 288
-0.998655, 97, 213, 112, 244
-0.998656, 331, 93, 346, 124
-0.998657, 161, 95, 224, 110
-0.99866, 281, 157, 344, 172
-0.998661, 17, 169, 144, 200
-0.998661, 215, 269, 230, 300
-0.998662, 245, 53, 260, 84
-0.998662, 225, 163, 288, 178
-0.998662, 289, 183, 352, 198
-0.998662, 145, 101, 208, 116
-0.998663, 185, 265, 248, 280
-0.998664, 125, 145, 156, 272
-0.998664, 225, 175, 288, 190
-0.998665, 37, 285, 52, 316
-0.998666, 217, 151, 280, 166
-0.998666, 363, 97, 378, 128
-0.998666, 201, 167, 264, 182
-0.998666, 249, 97, 312, 112
-0.998668, 289, 189, 352, 204
-0.998669, 185, 251, 248, 266
-0.99867, 249, 119, 312, 134
-0.998672, 153, 211, 216, 226
-0.998673, 73, 279, 136, 294
-0.998674, 217, 253, 280, 268
-0.998675, 193, 173, 256, 188
-0.998675, 201, 281, 264, 296
-0.998675, 153, 139, 216, 154
-0.998676, 97, 221, 160, 236
-0.998677, 225, 297, 288, 312
-0.998678, 209, 237, 272, 252
-0.99868, 145, 129, 208, 144
-0.99868, 137, 89, 200, 104
-0.99868, 337, 89, 400, 104
-0.99868, 235, 145, 250, 272
-0.99868, 97, 215, 160, 230
-0.99868, 225, 281, 288, 296
-0.998682, 289, 177, 352, 192
-0.998686, 137, 95, 200, 110
-0.998686, 129, 227, 192, 242
-0.998686, 201, 99, 264, 114
-0.998688, 145, 183, 208, 198
-0.998689, 129, 233, 192, 248
-0.998689, 433, 233, 496, 296
-0.99869, 1, 21, 64, 36
-0.998691, 121, 101, 184, 116
-0.998693, 225, 361, 288, 375
-0.998693, 225, 261, 288, 276
-0.998693, 25, 281, 88, 296
-0.998694, 193, 259, 256, 274
-0.998694, 57, 217, 120, 232
-0.998695, 225, 303, 288, 318
-0.998695, 209, 67, 272, 82
-0.998695, 129, 211, 192, 226
-0.998696, 193, 75, 256, 90
-0.998697, 217, 215, 280, 230
-0.998697, 265, 129, 328, 144
-0.998697, 33, 287, 96, 302
-0.998698, 145, 123, 208, 138
-0.998703, 369, 77, 496, 108
-0.998711, 221, 113, 236, 240
-0.998712, 1, 113, 500, 176
-0.998733, 273, 81, 288, 208
-0.998734, 1, 65, 500, 128
-0.998738, 369, 285, 496, 316
-0.998747, 49, 1, 176, 32
-0.998751, 263, 113, 278, 240
-0.998756, 229, 113, 244, 240
-0.998779, 225, 41, 480, 104
-0.99881, 287, 145, 302, 272
-0.998824, 279, 129, 294, 256
-0.998827, 49, 229, 176, 260
-0.998833, 81, 241, 208, 272
-0.998837, 49, 261, 176, 292
-0.998844, 177, 341, 304, 372
-0.998857, 225, 341, 352, 372
-0.998864, 253, 97, 268, 224
-0.998882, 247, 129, 262, 256
-0.998888, 241, 145, 256, 272
-0.998891, 141, 1, 172, 128
-0.998897, 125, 129, 156, 375
-0.998897, 469, 65, 500, 320
-0.998914, 253, 49, 268, 176
-0.998922, 239, 97, 254, 224
-0.998924, 267, 65, 282, 192
-0.998925, 211, 193, 226, 320
-0.998928, 1, 149, 128, 180
-0.998935, 245, 49, 260, 176
-0.998937, 93, 129, 124, 375
-0.998943, 457, 65, 488, 320
-0.998944, 291, 193, 306, 320
-0.998945, 285, 81, 300, 208
-0.998946, 353, 65, 384, 320
-0.998958, 261, 65, 276, 192
-0.998965, 273, 129, 288, 256
-0.998972, 161, 1, 192, 256
-0.998972, 289, 161, 416, 192
-0.998976, 445, 65, 476, 320
-0.99899, 281, 193, 296, 320
-0.998996, 237, 225, 252, 352
-0.998998, 259, 161, 274, 288
-0.998998, 207, 81, 222, 208
-0.998999, 373, 65, 404, 320
-0.999009, 213, 129, 228, 256
-0.999015, 291, 81, 306, 208
-0.999016, 77, 97, 108, 352
-0.999024, 413, 65, 444, 320
-0.999029, 385, 65, 416, 320
-0.99903, 285, 1, 316, 256
-0.999032, 333, 65, 364, 320
-0.999045, 245, 209, 260, 336
-0.99905, 225, 65, 240, 192
-0.999054, 401, 233, 464, 296
-0.999072, 1, 113, 128, 144
-0.999075, 197, 145, 212, 272
-0.999082, 273, 193, 288, 320
-0.999091, 203, 145, 218, 272
-0.999094, 97, 57, 224, 88
-0.999097, 205, 193, 220, 320
-0.999102, 259, 241, 274, 368
-0.999103, 433, 65, 464, 320
-0.999104, 229, 193, 244, 320
-0.999106, 215, 81, 230, 208
-0.999112, 73, 1, 136, 256
-0.999118, 309, 65, 340, 320
-0.999122, 279, 65, 294, 192
-0.999123, 273, 257, 400, 288
-0.999127, 221, 193, 236, 320
-0.999159, 189, 193, 204, 320
-0.999177, 265, 161, 280, 288
-0.999189, 321, 65, 352, 320
-0.999214, 195, 193, 210, 320
-0.999221, 197, 65, 212, 192
-0.999222, 397, 1, 428, 256
-0.999224, 13, 129, 44, 375
-0.999225, 25, 209, 88, 272
-0.999228, 297, 81, 312, 208
-0.999231, 17, 249, 144, 280
-0.999233, 253, 225, 268, 352
-0.999233, 239, 49, 254, 176
-0.999236, 171, 49, 186, 176
-0.999265, 293, 145, 308, 272
-0.999271, 273, 209, 400, 240
-0.999284, 161, 289, 224, 352
-0.999293, 225, 253, 352, 284
-0.999299, 231, 65, 246, 192
-0.999333, 1, 229, 128, 260
-0.999336, 165, 49, 180, 176
-0.999339, 397, 97, 428, 352
-0.999345, 369, 257, 496, 288
-0.999345, 9, 49, 72, 112
-0.999352, 191, 113, 206, 240
-0.999363, 183, 225, 198, 352
-0.999367, 227, 241, 242, 368
-0.99937, 323, 81, 338, 208
-0.999372, 175, 193, 190, 320
-0.999378, 159, 49, 174, 176
-0.999379, 187, 49, 202, 176
-0.999381, 1, 1, 16, 128
-0.999384, 297, 193, 312, 320
-0.999385, 177, 49, 192, 176
-0.999387, 29, 225, 44, 352
-0.999391, 17, 225, 32, 352
-0.999396, 125, 241, 140, 368
-0.999399, 315, 81, 330, 208
-0.9994, 305, 81, 320, 208
-0.999401, 225, 53, 352, 84
-0.999403, 1, 125, 128, 156
-0.999407, 265, 241, 280, 368
-0.999407, 333, 81, 348, 208
-0.999409, 183, 161, 198, 288
-0.99942, 167, 1, 182, 128
-0.999429, 33, 97, 64, 352
-0.999432, 5, 225, 20, 352
-0.999433, 371, 81, 386, 208
-0.999435, 399, 81, 414, 208
-0.999439, 149, 65, 164, 192
-0.99944, 485, 241, 500, 368
-0.999441, 213, 241, 228, 368
-0.999442, 341, 81, 356, 208
-0.999442, 351, 81, 366, 208
-0.999445, 193, 241, 208, 368
-0.999446, 203, 33, 218, 160
-0.999447, 475, 241, 490, 368
-0.999448, 169, 209, 184, 336
-0.999453, 433, 81, 448, 208
-0.999453, 131, 241, 146, 368
-0.999454, 427, 81, 442, 208
-0.999457, 161, 1, 176, 128
-0.999459, 469, 241, 484, 368
-0.999463, 141, 225, 156, 352
-0.999465, 357, 81, 372, 208
-0.999466, 463, 241, 478, 368
-0.999467, 393, 81, 408, 208
-0.999467, 365, 81, 380, 208
-0.999467, 177, 129, 192, 256
-0.999468, 447, 81, 462, 208
-0.999469, 1, 129, 32, 375
-0.999469, 419, 81, 434, 208
-0.999469, 439, 81, 454, 208
-0.999471, 453, 81, 468, 208
-0.999474, 95, 193, 110, 320
-0.999476, 377, 81, 392, 208
-0.99948, 463, 81, 478, 208
-0.999481, 413, 81, 428, 208
-0.999483, 321, 253, 448, 284
-0.999483, 289, 241, 304, 368
-0.999484, 253, 145, 268, 272
-0.999485, 457, 241, 472, 368
-0.99949, 271, 241, 286, 368
-0.999495, 441, 241, 456, 368
-0.999497, 385, 81, 400, 208
-0.999497, 431, 241, 446, 368
-0.999498, 117, 209, 132, 336
-0.999499, 277, 241, 292, 368
-0.999499, 417, 241, 432, 368
-0.9995, 173, 1, 188, 128
-0.999503, 451, 241, 466, 368
-0.999505, 301, 241, 316, 368
-0.999507, 307, 241, 322, 368
-0.999507, 407, 81, 422, 208
-0.999507, 423, 241, 438, 368
-0.99951, 479, 81, 494, 208
-0.999511, 469, 81, 484, 208
-0.999512, 295, 241, 310, 368
-0.999513, 407, 241, 422, 368
-0.999514, 1, 21, 128, 52
-0.999519, 283, 241, 298, 368
-0.999519, 409, 33, 424, 160
-0.999521, 11, 225, 26, 352
-0.999521, 341, 241, 356, 368
-0.999523, 353, 241, 368, 368
-0.999525, 485, 81, 500, 208
-0.999528, 313, 241, 328, 368
-0.999528, 401, 241, 416, 368
-0.99953, 387, 241, 402, 368
-0.999531, 227, 17, 242, 144
-0.999532, 171, 97, 186, 224
-0.999535, 331, 241, 346, 368
-0.999535, 23, 241, 38, 368
-0.999537, 225, 217, 480, 280
-0.999541, 257, 217, 384, 280
-0.999542, 289, 171, 304, 186
-0.999542, 239, 343, 254, 358
-0.999542, 271, 159, 286, 174
-0.999542, 223, 231, 238, 246
-0.999542, 253, 281, 268, 296
-0.999542, 331, 93, 346, 108
-0.999543, 243, 229, 258, 244
-0.999543, 141, 287, 156, 302
-0.999544, 301, 95, 316, 110
-0.999544, 267, 167, 282, 182
-0.999544, 415, 91, 430, 106
-0.999545, 475, 93, 490, 108
-0.999546, 195, 165, 210, 180
-0.999547, 261, 77, 276, 92
-0.999547, 281, 97, 296, 112
-0.999547, 277, 141, 292, 156
-0.999548, 373, 97, 388, 112
-0.999548, 349, 97, 364, 112
-0.999549, 197, 217, 212, 232
-0.999549, 485, 97, 500, 112
-0.999549, 283, 213, 298, 228
-0.99955, 467, 91, 482, 106
-0.999552, 257, 133, 272, 148
-0.999552, 295, 95, 310, 110
-0.999552, 207, 141, 222, 156
-0.999553, 189, 175, 204, 190
-0.999553, 295, 203, 310, 218
-0.999554, 209, 157, 224, 172
-0.999554, 247, 217, 262, 232
-0.999554, 217, 157, 232, 172
-0.999554, 1, 287, 16, 302
-0.999554, 1, 27, 16, 42
-0.999555, 409, 91, 424, 106
-0.999556, 255, 323, 270, 338
-0.999556, 199, 235, 214, 250
-0.999556, 259, 287, 274, 302
-0.999557, 213, 139, 228, 154
-0.999558, 367, 97, 382, 112
-0.999558, 27, 287, 42, 302
-0.999558, 257, 329, 272, 344
-0.999559, 239, 337, 254, 352
-0.999559, 287, 163, 302, 178
-0.99956, 263, 159, 278, 174
-0.999561, 245, 319, 260, 334
-0.999561, 203, 203, 218, 218
-0.999561, 211, 183, 226, 198
-0.999561, 11, 283, 26, 298
-0.999562, 267, 83, 282, 98
-0.999563, 5, 1, 36, 256
-0.999563, 257, 181, 272, 196
-0.999564, 343, 95, 358, 110
-0.999565, 257, 107, 272, 122
-0.999565, 249, 229, 264, 244
-0.999565, 279, 121, 294, 136
-0.999566, 177, 329, 304, 360
-0.999566, 301, 195, 316, 210
-0.999566, 239, 201, 254, 216
-0.999567, 275, 93, 290, 108
-0.999567, 287, 97, 302, 112
-0.999567, 205, 245, 220, 260
-0.999568, 219, 179, 234, 194
-0.999568, 211, 203, 226, 218
-0.999569, 189, 165, 204, 180
-0.99957, 225, 159, 240, 174
-0.99957, 203, 155, 218, 170
-0.99957, 21, 289, 36, 304
-0.99957, 225, 181, 240, 196
-0.99957, 247, 283, 262, 298
-0.999571, 269, 139, 284, 154
-0.999571, 267, 179, 282, 194
-0.999573, 201, 167, 216, 182
-0.999573, 323, 93, 338, 108
-0.999575, 191, 181, 206, 196
-0.999577, 261, 191, 276, 206
-0.999577, 207, 191, 222, 206
-0.999577, 265, 113, 280, 128
-0.999578, 239, 325, 254, 340
-0.999578, 239, 331, 254, 346
-0.999579, 239, 319, 254, 334
-0.999581, 461, 89, 476, 104
-0.999582, 255, 317, 270, 332
-0.999585, 219, 191, 234, 206
-0.999585, 269, 201, 284, 216
-0.999585, 261, 169, 276, 184
-0.999586, 271, 153, 286, 168
-0.999588, 233, 159, 248, 174
-0.99959, 239, 313, 254, 328
-0.99959, 49, 49, 176, 80
-0.99959, 213, 253, 228, 268
-0.999595, 283, 157, 298, 172
-0.999596, 235, 283, 250, 298
-0.999596, 275, 209, 290, 224
-0.999597, 195, 171, 210, 186
-0.999597, 227, 203, 242, 218
-0.999598, 199, 147, 214, 162
-0.999598, 213, 247, 228, 262
-0.999602, 29, 281, 44, 296
-0.999604, 237, 297, 252, 312
-0.999604, 239, 159, 254, 174
-0.999605, 97, 25, 352, 88
-0.999605, 267, 173, 282, 188
-0.999608, 229, 287, 244, 302
-0.999608, 289, 207, 304, 222
-0.99961, 253, 307, 268, 322
-0.999611, 251, 297, 266, 312
-0.999613, 237, 303, 252, 318
-0.999616, 217, 205, 232, 220
-0.999617, 265, 151, 280, 166
-0.999617, 19, 283, 34, 298
-0.999617, 229, 187, 244, 202
-0.999619, 275, 147, 290, 162
-0.999623, 235, 189, 250, 204
-0.999626, 197, 159, 212, 174
-0.999628, 263, 185, 278, 200
-0.999629, 247, 223, 262, 238
-0.99963, 291, 177, 306, 192
-0.999632, 293, 183, 308, 198
-0.999635, 253, 287, 268, 302
-0.999636, 225, 329, 352, 360
-0.999636, 237, 289, 252, 304
-0.999637, 243, 301, 258, 316
-0.999638, 217, 199, 232, 214
-0.999641, 245, 313, 260, 328
-0.999646, 259, 175, 274, 190
-0.999654, 211, 197, 226, 212
-0.999657, 243, 307, 258, 322
-0.999658, 273, 121, 400, 152
-0.999668, 1, 49, 128, 112
-0.999669, 271, 133, 286, 148
-0.999676, 243, 295, 258, 310
-0.999677, 277, 153, 292, 168
-0.999678, 269, 145, 284, 160
-0.99968, 241, 241, 368, 272
-0.999688, 275, 127, 290, 142
-0.999692, 1, 25, 128, 88
-0.999693, 223, 197, 238, 212
-0.999694, 237, 195, 252, 210
-0.999714, 243, 289, 258, 304
-0.999717, 229, 193, 244, 208
-0.999735, 97, 13, 224, 44
-0.999741, 97, 1, 224, 32
-0.999743, 129, 29, 256, 60
-0.999744, 133, 33, 164, 288
-0.999862, 17, 33, 144, 64
-0.99989, 225, 41, 352, 72
-0.999905, 61, 1, 92, 256
-0.999912, 33, 1, 64, 256
-0.999916, 225, 301, 352, 332
-0.999922, 49, 13, 176, 44
-0.999956, 193, 313, 448, 375
-0.999971, 45, 1, 76, 256
-1, 161, 1, 288, 32
-1.00002, 257, 289, 500, 352
-1.00002, 161, 17, 288, 48
-1.00008, 209, 29, 336, 60
-1.00009, 1, 101, 128, 132
-1.00011, 1, 85, 128, 116
-1.00011, 1, 45, 128, 76
-1.00011, 225, 313, 352, 344
-1.00013, 321, 69, 448, 100
-1.00013, 97, 313, 352, 375
-1.00016, 1, 61, 128, 92
-1.00021, 21, 1, 52, 256
-1.00023, 337, 101, 464, 132
-1.00025, 129, 313, 256, 375
-1.00025, 1, 73, 128, 104
-1.00026, 97, 45, 224, 76
-1.00028, 177, 305, 304, 336
-1.00031, 289, 301, 416, 332
-1.00031, 177, 317, 304, 348
-1.00038, 369, 245, 496, 276
-1.00041, 73, 1, 104, 256
-1.00047, 121, 33, 152, 288
-1.00049, 193, 17, 448, 80
-1.00056, 109, 1, 140, 256
-1.00062, 1, 1, 500, 64
-1.00068, 289, 113, 416, 176
-1.0007, 97, 1, 128, 256
-1.00087, 85, 1, 116, 256
-1.00112, 97, 1, 352, 64
-1.00124, 321, 185, 448, 248
-1.00129, 1, 41, 500, 104
-1.0015, 1, 289, 500, 352
-1.00156, 1, 297, 256, 360
-1.00157, 289, 313, 416, 375
-1.0017, 337, 121, 464, 184
-1.00171, 305, 41, 432, 104
-1.00173, 353, 161, 480, 224
-1.00185, 337, 217, 464, 280
-1.00213, 49, 297, 176, 360
-1.00233, 1, 297, 128, 360
-1.00235, 369, 25, 496, 88
-1.00243, 73, 1, 136, 128
-1.00256, 337, 313, 464, 375
-1.00263, 369, 185, 496, 248
-1.00268, 369, 1, 496, 64
-1.00274, 289, 17, 416, 80
-1.00364, 1, 313, 500, 375
-1.00643, 313, 129, 376, 256
-1.00959, 337, 129, 464, 256
-1.01254, 337, 129, 400, 256
-1.01348, 369, 129, 432, 256
-1.01432, 401, 129, 464, 256
-1.01691, 425, 129, 488, 256
