1902
-0.685989, 1, 65, 500, 320
-0.789661, 1, 1, 256, 334
-0.791916, 129, 1, 384, 334
-0.829359, 225, 1, 480, 334
-0.847004, 1, 1, 500, 334
-0.87883, 129, 65, 384, 320
-0.896207, 161, 65, 288, 320
-0.923242, 129, 1, 256, 334
-0.928998, 1, 65, 256, 320
-0.929137, 145, 145, 272, 272
-0.934778, 153, 129, 216, 256
-0.934787, 177, 1, 304, 334
-0.937309, 225, 33, 480, 288
-0.941064, 129, 129, 384, 256
-0.941818, 65, 1, 192, 334
-0.941916, 177, 129, 240, 256
-0.9435, 201, 129, 264, 256
-0.945043, 209, 65, 336, 320
-0.945586, 113, 65, 240, 320
-0.946581, 217, 161, 280, 224
-0.946629, 1, 161, 500, 288
-0.949906, 33, 145, 288, 272
-0.954649, 209, 129, 336, 256
-0.955612, 257, 65, 384, 320
-0.958614, 225, 129, 288, 256
-0.958711, 185, 137, 248, 200
-0.959481, 145, 145, 208, 208
-0.959631, 241, 145, 304, 208
-0.960897, 65, 1, 192, 256
-0.961001, 241, 1, 368, 334
-0.961177, 169, 177, 232, 304
-0.961241, 97, 129, 224, 256
-0.962008, 129, 129, 192, 256
-0.963878, 145, 97, 272, 224
-0.966395, 193, 169, 256, 232
-0.967595, 233, 153, 264, 216
-0.968121, 245, 161, 276, 224
-0.968616, 161, 145, 288, 208
-0.968937, 241, 177, 304, 240
-0.969655, 161, 193, 288, 320
-0.970206, 129, 177, 384, 304
-0.970254, 145, 169, 208, 232
-0.97078, 161, 129, 192, 256
-0.971306, 217, 129, 248, 256
-0.971467, 225, 177, 288, 304
-0.972678, 189, 129, 220, 256
-0.973046, 145, 169, 272, 232
-0.973296, 209, 137, 272, 200
-0.973756, 17, 1, 144, 334
-0.974471, 145, 193, 208, 256
-0.974975, 149, 129, 180, 256
-0.975309, 1, 113, 500, 240
-0.975316, 145, 193, 208, 320
-0.975438, 225, 113, 480, 240
-0.975772, 169, 185, 232, 248
-0.976475, 153, 137, 184, 200
-0.976955, 221, 161, 252, 224
-0.977073, 173, 129, 204, 256
-0.977431, 201, 145, 232, 272
-0.977997, 97, 177, 224, 304
-0.978071, 249, 129, 312, 256
-0.978081, 121, 169, 184, 232
-0.978616, 209, 169, 336, 232
-0.979014, 217, 65, 280, 320
-0.979024, 217, 185, 280, 248
-0.979502, 213, 137, 244, 200
-0.979614, 145, 121, 208, 184
-0.979745, 161, 193, 288, 256
-0.979797, 193, 177, 256, 304
-0.979943, 233, 177, 264, 240
-0.980462, 229, 129, 260, 256
-0.980651, 193, 193, 256, 256
-0.980664, 153, 161, 184, 224
-0.981084, 169, 65, 232, 320
-0.981372, 245, 137, 276, 200
-0.981474, 145, 65, 208, 320
-0.981569, 121, 137, 184, 200
-0.981776, 1, 65, 500, 192
-0.982778, 33, 97, 288, 224
-0.982829, 113, 145, 240, 208
-0.982908, 289, 1, 416, 334
-0.982967, 257, 145, 288, 208
-0.983028, 193, 65, 256, 320
-0.983375, 337, 1, 464, 334
-0.984152, 209, 145, 336, 208
-0.984379, 193, 81, 256, 208
-0.984454, 145, 81, 208, 208
-0.984617, 257, 177, 288, 240
-0.984622, 145, 121, 272, 184
-0.985003, 241, 113, 272, 240
-0.98501, 169, 145, 200, 208
-0.985241, 209, 177, 336, 304
-0.985572, 33, 193, 288, 320
-0.985641, 253, 129, 284, 256
-0.985702, 201, 145, 232, 208
-0.985812, 169, 161, 232, 224
-0.986004, 185, 145, 216, 208
-0.98613, 237, 177, 268, 304
-0.986182, 81, 169, 208, 232
-0.986295, 221, 185, 252, 248
-0.98661, 189, 185, 220, 248
-0.986823, 189, 177, 220, 304
-0.986885, 161, 193, 192, 256
-0.986982, 433, 209, 496, 334
-0.9871, 265, 169, 328, 232
-0.987161, 269, 169, 300, 232
-0.987658, 165, 169, 196, 232
-0.987694, 121, 177, 184, 304
-0.987785, 229, 129, 260, 192
-0.987797, 433, 273, 496, 334
-0.987857, 121, 193, 184, 256
-0.987897, 433, 1, 496, 128
-0.987909, 157, 177, 188, 304
-0.988314, 433, 161, 496, 288
-0.988336, 141, 161, 172, 224
-0.988502, 145, 185, 176, 248
-0.988563, 141, 137, 172, 200
-0.988564, 105, 113, 168, 240
-0.988566, 269, 145, 300, 208
-0.988624, 173, 193, 204, 256
-0.988816, 65, 145, 192, 208
-0.988836, 201, 97, 232, 224
-0.988949, 145, 141, 208, 172
-0.988998, 113, 193, 240, 256
-0.989005, 209, 169, 240, 232
-0.989303, 177, 177, 208, 304
-0.989374, 225, 161, 288, 192
-0.989386, 433, 233, 496, 296
-0.98949, 233, 81, 296, 208
-0.989512, 217, 177, 280, 208
-0.989929, 153, 193, 216, 224
-0.990042, 161, 1, 224, 334
-0.990069, 433, 65, 496, 192
-0.990122, 217, 113, 280, 176
-0.990184, 185, 145, 248, 176
-0.990211, 469, 265, 500, 328
-0.990265, 433, 113, 496, 240
-0.990286, 265, 137, 328, 200
-0.990288, 145, 177, 208, 208
-0.990292, 241, 145, 304, 176
-0.990311, 97, 145, 352, 208
-0.99033, 169, 81, 232, 208
-0.990421, 177, 193, 240, 224
-0.990565, 249, 173, 312, 204
-0.990622, 209, 145, 272, 176
-0.990769, 257, 145, 384, 272
-0.99091, 469, 209, 500, 334
-0.99108, 1, 1, 500, 128
-0.991093, 433, 209, 496, 272
-0.991135, 49, 113, 176, 240
-0.991183, 217, 1, 280, 334
-0.99124, 193, 173, 256, 204
-0.991265, 137, 129, 168, 256
-0.991276, 245, 193, 276, 256
-0.991276, 469, 241, 500, 304
-0.991344, 113, 185, 176, 216
-0.991393, 433, 185, 496, 248
-0.991395, 185, 1, 248, 334
-0.991417, 433, 1, 496, 64
-0.991433, 217, 189, 280, 220
-0.991439, 433, 153, 496, 216
-0.991504, 145, 177, 176, 304
-0.991515, 217, 133, 280, 164
-0.991519, 205, 193, 236, 256
-0.991531, 249, 185, 312, 216
-0.991594, 249, 177, 312, 304
-0.991613, 469, 145, 500, 272
-0.991656, 225, 161, 480, 288
-0.991671, 433, 57, 496, 120
-0.991755, 209, 201, 272, 232
-0.991756, 121, 141, 184, 172
-0.991786, 145, 153, 208, 184
-0.991805, 469, 1, 500, 128
-0.991887, 249, 177, 280, 304
-0.991898, 113, 161, 176, 192
-0.991975, 129, 81, 384, 208
-0.991984, 169, 113, 232, 176
-0.99204, 249, 157, 312, 188
-0.992055, 153, 113, 184, 176
-0.992103, 169, 133, 232, 164
-0.992177, 97, 169, 352, 232
-0.992178, 433, 33, 496, 96
-0.992178, 433, 129, 496, 192
-0.992272, 153, 165, 216, 196
-0.992284, 469, 9, 500, 72
-0.992294, 193, 81, 320, 208
-0.992296, 193, 113, 256, 176
-0.992299, 469, 65, 500, 192
-0.992306, 145, 129, 208, 160
-0.992319, 233, 165, 264, 196
-0.992333, 201, 161, 264, 192
-0.992366, 113, 173, 176, 204
-0.992372, 129, 205, 192, 236
-0.992406, 469, 209, 500, 272
-0.992468, 469, 153, 500, 216
-0.992478, 433, 81, 496, 144
-0.992532, 249, 173, 280, 204
-0.99257, 149, 137, 180, 168
-0.992581, 161, 177, 192, 208
-0.992592, 469, 33, 500, 96
-0.992607, 265, 141, 328, 172
-0.992607, 469, 177, 500, 240
-0.992646, 213, 145, 244, 176
-0.992669, 469, 57, 500, 120
-0.992698, 225, 149, 256, 180
-0.992719, 245, 145, 276, 176
-0.992749, 149, 169, 180, 200
-0.992755, 217, 193, 248, 320
-0.992763, 273, 173, 304, 204
-0.992789, 273, 173, 336, 204
-0.992792, 229, 181, 260, 212
-0.992806, 141, 181, 172, 212
-0.992813, 189, 145, 220, 176
-0.992824, 17, 65, 144, 320
-0.992835, 257, 153, 288, 184
-0.992836, 261, 185, 292, 216
-0.992837, 157, 189, 188, 220
-0.992852, 433, 273, 496, 304
-0.992865, 261, 173, 292, 204
-0.99291, 217, 181, 248, 212
-0.99292, 221, 169, 252, 200
-0.992944, 257, 141, 288, 172
-0.99295, 161, 201, 192, 232
-0.992953, 245, 161, 276, 192
-0.99296, 181, 193, 212, 224
-0.992985, 433, 105, 496, 168
-0.993016, 433, 285, 496, 316
-0.993025, 209, 193, 336, 256
-0.99305, 193, 133, 256, 164
-0.993056, 257, 153, 384, 216
-0.993068, 161, 145, 192, 176
-0.993069, 233, 161, 248, 224
-0.993071, 469, 121, 500, 184
-0.993076, 433, 261, 496, 292
-0.993083, 241, 161, 256, 224
-0.993083, 193, 193, 224, 224
-0.993098, 241, 197, 304, 228
-0.993102, 241, 185, 272, 216
-0.993125, 241, 65, 304, 320
-0.993136, 433, 297, 496, 328
-0.993137, 241, 197, 272, 228
-0.993149, 177, 161, 240, 192
-0.993165, 433, 225, 496, 256
-0.993168, 177, 141, 208, 172
-0.993177, 433, 249, 496, 280
-0.993203, 201, 141, 232, 172
-0.993204, 145, 193, 176, 224
-0.993216, 225, 201, 256, 232
-0.993222, 433, 237, 496, 268
-0.993227, 433, 173, 496, 204
-0.993227, 433, 185, 496, 216
-0.993237, 213, 197, 244, 228
-0.993241, 469, 97, 500, 160
-0.99325, 433, 1, 496, 32
-0.99325, 433, 161, 496, 192
-0.99325, 433, 209, 496, 240
-0.993253, 165, 121, 196, 184
-0.993261, 433, 197, 496, 228
-0.993261, 153, 205, 216, 236
-0.993266, 269, 145, 300, 176
-0.993301, 137, 149, 168, 180
-0.993308, 433, 149, 496, 180
-0.993309, 469, 273, 500, 304
-0.993315, 149, 157, 180, 188
-0.99332, 197, 129, 228, 160
-0.993323, 433, 13, 496, 44
-0.993323, 433, 69, 496, 100
-0.993323, 433, 81, 496, 112
-0.993325, 469, 293, 500, 324
-0.993342, 433, 137, 496, 168
-0.993345, 149, 209, 180, 240
-0.993347, 433, 57, 496, 88
-0.993348, 469, 261, 500, 292
-0.993352, 433, 33, 496, 64
-0.993352, 433, 45, 496, 76
-0.993352, 433, 101, 496, 132
-0.993352, 433, 113, 496, 144
-0.993352, 433, 125, 496, 156
-0.993353, 241, 121, 304, 184
-0.993362, 469, 249, 500, 280
-0.993366, 1, 209, 500, 334
-0.993366, 469, 193, 500, 224
-0.993369, 469, 221, 500, 252
-0.993372, 469, 57, 500, 88
-0.99338, 469, 237, 500, 268
-0.993394, 469, 169, 500, 200
-0.993394, 469, 181, 500, 212
-0.993396, 469, 305, 500, 334
-0.993398, 241, 121, 368, 184
-0.993398, 469, 45, 500, 76
-0.993398, 469, 209, 500, 240
-0.9934, 469, 157, 500, 188
-0.993402, 469, 73, 500, 104
-0.993407, 469, 85, 500, 116
-0.993419, 469, 29, 500, 60
-0.993426, 137, 165, 168, 196
-0.993435, 469, 141, 500, 172
-0.993438, 469, 105, 500, 136
-0.993438, 469, 129, 500, 160
-0.99344, 217, 133, 248, 164
-0.99344, 469, 17, 500, 48
-0.99344, 469, 117, 500, 148
-0.993447, 245, 133, 276, 164
-0.993449, 201, 181, 232, 212
-0.993455, 181, 181, 212, 212
-0.993457, 169, 129, 200, 160
-0.993458, 469, 5, 500, 36
-0.993463, 209, 169, 240, 200
-0.993463, 229, 137, 260, 168
-0.99349, 137, 137, 168, 168
-0.99351, 281, 161, 344, 192
-0.993513, 273, 161, 304, 192
-0.993522, 169, 181, 232, 212
-0.993522, 105, 129, 168, 160
-0.993523, 253, 197, 284, 228
-0.993558, 285, 173, 316, 204
-0.993598, 253, 161, 268, 224
-0.993606, 213, 157, 244, 188
-0.993611, 257, 129, 288, 160
-0.993613, 201, 153, 232, 184
-0.993661, 169, 189, 200, 220
-0.993689, 161, 161, 192, 192
-0.993709, 149, 125, 180, 156
-0.993725, 173, 153, 204, 184
-0.993748, 269, 133, 300, 164
-0.993776, 233, 201, 264, 264
-0.993786, 281, 141, 312, 172
-0.993829, 193, 121, 224, 184
-0.99384, 181, 129, 212, 160
-0.993842, 293, 161, 324, 192
-0.993854, 257, 97, 384, 224
-0.993863, 161, 173, 288, 204
-0.993864, 129, 177, 160, 208
-0.993887, 241, 133, 304, 164
-0.993903, 145, 145, 272, 176
-0.993928, 125, 133, 156, 164
-0.99394, 173, 169, 204, 200
-0.993943, 241, 209, 272, 240
-0.993965, 281, 129, 312, 160
-0.99398, 137, 205, 168, 236
-0.993991, 273, 185, 304, 216
-0.99402, 137, 125, 168, 156
-0.994038, 185, 157, 216, 188
-0.994039, 229, 125, 260, 156
-0.994056, 197, 169, 228, 200
-0.994074, 125, 165, 156, 196
-0.994093, 133, 193, 164, 224
-0.99414, 157, 145, 172, 208
-0.994148, 173, 205, 204, 236
-0.994152, 125, 145, 156, 176
-0.994185, 161, 213, 192, 244
-0.994194, 257, 209, 288, 240
-0.994215, 161, 117, 192, 148
-0.99422, 265, 197, 296, 228
-0.994233, 97, 141, 160, 172
-0.994249, 273, 129, 336, 160
-0.994262, 453, 273, 484, 304
-0.994265, 93, 237, 124, 268
-0.994269, 137, 253, 168, 284
-0.99427, 213, 117, 244, 148
-0.994275, 301, 301, 332, 332
-0.994284, 297, 173, 328, 204
-0.994284, 281, 293, 312, 324
-0.994284, 289, 305, 320, 334
-0.994286, 457, 1, 488, 32
-0.994287, 81, 241, 112, 272
-0.994291, 185, 169, 216, 200
-0.994293, 269, 121, 300, 152
-0.994295, 9, 57, 40, 88
-0.994295, 21, 57, 52, 88
-0.994295, 145, 241, 176, 272
-0.994295, 125, 253, 156, 284
-0.994295, 445, 261, 476, 292
-0.994295, 245, 297, 276, 328
-0.994296, 293, 149, 324, 180
-0.994297, 289, 253, 320, 284
-0.994297, 325, 253, 356, 284
-0.994297, 185, 113, 216, 144
-0.994298, 81, 225, 112, 256
-0.994299, 305, 289, 336, 320
-0.994303, 25, 45, 56, 76
-0.994303, 101, 225, 132, 256
-0.994303, 125, 241, 156, 272
-0.994303, 257, 285, 288, 316
-0.994304, 313, 253, 344, 284
-0.994309, 105, 197, 168, 228
-0.994347, 161, 193, 288, 224
-0.994427, 243, 137, 258, 200
-0.994516, 221, 81, 252, 208
-0.994633, 263, 161, 278, 224
-0.994648, 181, 121, 212, 184
-0.994677, 233, 209, 296, 240
-0.994715, 209, 177, 336, 208
-0.994783, 247, 161, 262, 224
-0.994802, 235, 137, 250, 200
-0.994835, 169, 121, 232, 152
-0.994844, 249, 137, 264, 200
-0.994859, 89, 173, 152, 204
-0.994957, 105, 117, 168, 148
-0.994998, 227, 161, 242, 224
-0.995005, 257, 289, 320, 320
-0.995033, 241, 117, 304, 148
-0.995034, 257, 305, 320, 334
-0.995059, 169, 81, 200, 208
-0.995062, 289, 301, 352, 332
-0.995072, 217, 121, 280, 152
-0.995072, 257, 177, 384, 240
-0.995073, 97, 241, 160, 272
-0.995073, 289, 253, 352, 284
-0.995073, 217, 293, 280, 324
-0.995078, 73, 241, 136, 272
-0.995101, 321, 241, 384, 272
-0.995107, 121, 253, 184, 284
-0.99512, 273, 241, 336, 272
-0.995125, 313, 253, 376, 284
-0.99513, 377, 157, 440, 188
-0.99513, 401, 161, 464, 192
-0.99513, 145, 245, 208, 276
-0.995135, 113, 229, 176, 260
-0.995135, 249, 257, 312, 288
-0.995135, 153, 297, 216, 328
-0.995148, 129, 109, 192, 140
-0.995148, 297, 289, 360, 320
-0.99515, 89, 161, 152, 192
-0.995153, 377, 145, 440, 176
-0.995153, 73, 229, 136, 260
-0.995153, 201, 277, 264, 308
-0.995153, 233, 305, 296, 334
-0.995158, 289, 141, 352, 172
-0.995158, 297, 173, 360, 204
-0.995159, 193, 293, 256, 324
-0.995159, 193, 305, 256, 334
-0.995161, 163, 169, 178, 232
-0.995161, 193, 161, 448, 224
-0.995164, 41, 229, 104, 260
-0.995164, 49, 241, 112, 272
-0.995164, 233, 245, 296, 276
-0.995164, 9, 261, 72, 292
-0.995164, 393, 281, 456, 312
-0.995164, 409, 293, 472, 324
-0.995172, 409, 141, 472, 172
-0.995172, 97, 217, 160, 248
-0.995172, 409, 265, 472, 296
-0.995174, 273, 113, 336, 144
-0.995177, 145, 233, 208, 264
-0.995177, 241, 277, 304, 308
-0.995187, 57, 217, 120, 248
-0.995187, 17, 249, 80, 280
-0.995187, 97, 253, 160, 284
-0.995187, 337, 253, 400, 284
-0.995193, 73, 21, 136, 52
-0.995193, 121, 21, 184, 52
-0.995193, 89, 33, 152, 64
-0.995193, 113, 33, 176, 64
-0.995193, 129, 217, 192, 248
-0.995193, 153, 217, 216, 248
-0.995193, 369, 245, 432, 276
-0.995193, 401, 253, 464, 284
-0.995193, 361, 257, 424, 288
-0.995193, 265, 269, 328, 300
-0.995193, 289, 269, 352, 300
-0.995193, 161, 281, 224, 312
-0.9952, 305, 229, 368, 260
-0.995205, 185, 109, 248, 140
-0.995205, 209, 109, 272, 140
-0.995211, 9, 237, 72, 268
-0.995211, 201, 265, 264, 296
-0.995233, 153, 169, 168, 232
-0.995259, 369, 1, 496, 256
-0.995403, 255, 137, 270, 200
-0.995432, 151, 137, 166, 200
-0.995434, 433, 1, 496, 334
-0.9955, 49, 121, 176, 184
-0.995547, 121, 65, 184, 320
-0.995637, 97, 193, 352, 256
-0.995722, 113, 1, 176, 334
-0.995768, 145, 161, 272, 192
-0.995827, 223, 137, 238, 200
-0.995862, 193, 121, 320, 184
-0.995894, 201, 145, 216, 208
-0.995915, 1, 161, 256, 224
-0.99597, 163, 137, 178, 200
-0.995974, 137, 1, 200, 334
-0.996048, 243, 185, 258, 248
-0.996151, 113, 113, 176, 176
-0.996268, 209, 161, 336, 192
-0.996298, 263, 185, 278, 248
-0.996312, 193, 137, 208, 200
-0.996354, 433, 65, 496, 320
-0.996419, 207, 145, 222, 208
-0.996434, 113, 193, 240, 224
-0.996452, 273, 161, 288, 224
-0.996474, 199, 185, 214, 248
-0.996475, 229, 137, 244, 200
-0.996496, 235, 185, 250, 248
-0.996526, 169, 137, 184, 200
-0.996578, 265, 129, 296, 256
-0.996623, 369, 1, 496, 64
-0.996673, 193, 149, 320, 180
-0.996689, 157, 173, 172, 204
-0.996695, 161, 201, 176, 264
-0.996786, 155, 193, 170, 256
-0.996793, 241, 145, 368, 176
-0.996793, 169, 201, 184, 264
-0.996818, 261, 137, 276, 200
-0.996872, 183, 193, 198, 256
-0.996911, 1, 137, 256, 200
-0.996943, 81, 181, 208, 212
-0.996962, 205, 185, 220, 248
-0.996969, 169, 177, 184, 240
-0.996991, 157, 81, 188, 208
-0.997007, 145, 145, 160, 208
-0.997061, 65, 141, 192, 172
-0.997064, 65, 193, 192, 256
-0.997072, 187, 145, 202, 208
-0.997073, 215, 137, 230, 200
-0.99708, 225, 137, 480, 200
-0.997108, 65, 165, 192, 196
-0.997118, 181, 153, 196, 216
-0.997131, 229, 185, 244, 248
-0.997147, 189, 185, 204, 248
-0.997184, 249, 185, 264, 248
-0.99719, 279, 145, 294, 208
-0.997212, 177, 193, 192, 256
-0.99722, 209, 189, 336, 220
-0.997231, 205, 193, 236, 320
-0.997256, 177, 169, 208, 232
-0.997316, 161, 193, 176, 224
-0.997357, 481, 49, 496, 112
-0.997385, 153, 65, 184, 320
-0.997395, 175, 145, 190, 208
-0.997406, 249, 65, 280, 320
-0.997407, 157, 121, 172, 184
-0.99741, 215, 193, 230, 256
-0.997431, 267, 137, 282, 200
-0.997438, 481, 265, 496, 328
-0.997442, 481, 73, 496, 136
-0.997447, 251, 145, 266, 176
-0.997454, 163, 177, 178, 208
-0.997478, 481, 161, 496, 224
-0.997497, 481, 1, 496, 64
-0.997503, 153, 161, 168, 192
-0.997506, 237, 165, 252, 196
-0.997519, 239, 149, 254, 180
-0.997519, 129, 145, 160, 208
-0.997522, 257, 173, 384, 204
-0.99753, 229, 169, 244, 200
-0.997547, 271, 173, 286, 204
-0.997603, 153, 137, 168, 168
-0.997606, 481, 129, 496, 192
-0.997608, 223, 193, 238, 256
-0.997612, 481, 209, 496, 272
-0.997615, 305, 1, 432, 256
-0.997621, 481, 25, 496, 88
-0.997627, 481, 241, 496, 304
-0.997629, 249, 161, 264, 192
-0.997655, 261, 153, 276, 184
-0.997663, 217, 141, 232, 172
-0.997664, 229, 149, 244, 180
-0.997671, 145, 133, 272, 164
-0.997676, 97, 105, 224, 168
-0.997679, 221, 169, 236, 232
-0.997686, 263, 173, 278, 204
-0.997707, 181, 121, 196, 184
-0.997709, 151, 177, 166, 208
-0.997737, 481, 105, 496, 168
-0.997761, 481, 185, 496, 248
-0.997761, 257, 185, 272, 248
-0.997773, 261, 141, 276, 172
-0.997774, 153, 189, 168, 220
-0.997794, 147, 169, 162, 232
-0.997815, 177, 65, 208, 320
-0.997818, 197, 65, 228, 320
-0.99785, 265, 65, 328, 320
-0.997853, 193, 141, 208, 172
-0.99787, 277, 169, 292, 200
-0.997871, 159, 161, 174, 192
-0.997874, 257, 173, 272, 204
-0.997879, 233, 181, 248, 212
-0.997886, 225, 65, 256, 320
-0.997898, 65, 193, 192, 224
-0.997898, 263, 189, 278, 220
-0.997903, 245, 149, 260, 180
-0.997963, 1, 185, 256, 248
-0.997978, 215, 169, 230, 232
-0.998006, 267, 141, 282, 172
-0.998012, 243, 161, 258, 192
-0.998029, 1, 145, 500, 208
-0.998076, 261, 121, 292, 184
-0.998081, 205, 121, 220, 184
-0.998082, 255, 157, 270, 188
-0.998091, 193, 185, 448, 248
-0.9981, 273, 137, 288, 200
-0.998125, 237, 65, 268, 320
-0.998127, 269, 185, 284, 248
-0.998131, 283, 169, 298, 200
-0.998139, 187, 193, 202, 224
-0.99815, 171, 201, 186, 232
-0.998154, 239, 185, 254, 216
-0.998177, 283, 169, 298, 232
-0.99819, 129, 121, 384, 184
-0.998207, 149, 149, 164, 180
-0.998225, 273, 141, 288, 172
-0.998231, 177, 187, 208, 202
-0.998232, 221, 187, 252, 202
-0.998232, 293, 169, 324, 184
-0.998233, 217, 193, 248, 208
-0.998234, 229, 175, 260, 190
-0.998235, 269, 153, 300, 168
-0.998235, 261, 181, 292, 196
-0.99824, 257, 159, 288, 174
-0.998243, 253, 169, 284, 184
-0.99825, 181, 193, 196, 224
-0.998252, 163, 113, 178, 176
-0.998253, 249, 141, 280, 156
-0.998253, 273, 167, 304, 182
-0.998255, 197, 135, 228, 150
-0.998256, 237, 143, 268, 158
-0.998262, 241, 187, 272, 202
-0.998265, 233, 155, 264, 170
-0.998269, 205, 165, 236, 180
-0.998269, 193, 161, 208, 224
-0.99827, 255, 197, 270, 228
-0.998273, 469, 1, 500, 16
-0.998274, 229, 193, 260, 208
-0.998276, 137, 171, 168, 186
-0.998279, 193, 187, 224, 202
-0.998279, 223, 169, 238, 200
-0.99828, 153, 153, 184, 168
-0.998281, 149, 135, 180, 150
-0.998281, 469, 7, 500, 22
-0.998285, 217, 161, 248, 176
-0.998288, 469, 13, 500, 28
-0.998292, 469, 131, 500, 146
-0.998292, 149, 195, 180, 210
-0.998293, 129, 143, 160, 158
-0.998294, 469, 125, 500, 140
-0.998295, 469, 21, 500, 36
-0.998295, 469, 137, 500, 152
-0.998296, 469, 149, 500, 164
-0.998297, 469, 101, 500, 116
-0.998297, 469, 107, 500, 122
-0.998297, 469, 113, 500, 128
-0.998297, 469, 119, 500, 134
-0.9983, 469, 27, 500, 42
-0.9983, 469, 91, 500, 106
-0.9983, 469, 143, 500, 158
-0.9983, 469, 43, 500, 58
-0.9983, 469, 317, 500, 332
-0.998302, 469, 35, 500, 50
-0.998303, 469, 83, 500, 98
-0.998303, 229, 201, 260, 216
-0.998304, 137, 151, 168, 166
-0.998304, 469, 193, 500, 208
-0.998305, 469, 157, 500, 172
-0.998305, 253, 201, 284, 216
-0.998306, 469, 49, 500, 64
-0.998306, 469, 213, 500, 228
-0.998307, 469, 171, 500, 186
-0.998307, 469, 205, 500, 220
-0.998307, 469, 163, 500, 178
-0.998307, 469, 199, 500, 214
-0.998307, 469, 219, 500, 234
-0.998308, 225, 139, 256, 154
-0.998308, 469, 77, 500, 92
-0.998309, 469, 179, 500, 194
-0.99831, 469, 311, 500, 326
-0.99831, 173, 137, 204, 152
-0.998313, 469, 225, 500, 240
-0.998313, 469, 261, 500, 276
-0.998314, 469, 185, 500, 200
-0.998314, 65, 153, 192, 184
-0.998314, 469, 245, 500, 260
-0.998315, 261, 187, 292, 202
-0.998315, 469, 255, 500, 270
-0.998315, 469, 59, 500, 74
-0.998316, 469, 69, 500, 84
-0.998317, 245, 181, 260, 212
-0.998318, 469, 239, 500, 254
-0.998318, 265, 1, 328, 334
-0.998318, 137, 165, 168, 180
-0.998319, 165, 187, 196, 202
-0.998319, 469, 305, 500, 320
-0.998321, 469, 267, 500, 282
-0.998321, 469, 231, 500, 246
-0.998323, 149, 147, 180, 162
-0.998323, 469, 273, 500, 288
-0.998323, 469, 299, 500, 314
-0.998326, 189, 151, 220, 166
-0.998326, 261, 141, 292, 156
-0.998326, 469, 285, 500, 300
-0.998326, 469, 293, 500, 308
-0.998327, 469, 279, 500, 294
-0.998329, 149, 209, 180, 224
-0.998331, 211, 145, 226, 176
-0.998334, 225, 65, 480, 192
-0.998334, 149, 169, 180, 184
-0.998335, 267, 153, 282, 184
-0.998336, 217, 177, 248, 192
-0.998337, 241, 175, 272, 190
-0.998338, 161, 175, 192, 190
-0.998339, 245, 157, 276, 172
-0.99834, 277, 145, 308, 160
-0.998344, 201, 149, 232, 164
-0.998344, 261, 193, 292, 208
-0.998349, 241, 201, 272, 216
-0.998349, 225, 147, 256, 162
-0.998351, 169, 203, 200, 218
-0.998355, 137, 179, 168, 194
-0.998358, 161, 143, 192, 158
-0.998361, 285, 175, 316, 190
-0.998361, 161, 181, 192, 196
-0.998366, 173, 149, 204, 164
-0.998368, 157, 163, 188, 178
-0.99837, 213, 149, 244, 164
-0.998371, 213, 171, 244, 186
-0.998371, 205, 195, 236, 210
-0.998372, 209, 193, 224, 224
-0.998373, 145, 201, 176, 216
-0.998374, 229, 181, 260, 196
-0.998375, 137, 157, 168, 172
-0.998381, 199, 121, 214, 184
-0.998382, 217, 199, 248, 214
-0.998386, 245, 181, 276, 196
-0.998402, 151, 113, 166, 176
-0.998411, 173, 197, 204, 212
-0.998413, 177, 143, 208, 158
-0.998417, 141, 187, 172, 202
-0.998425, 237, 163, 268, 178
-0.99843, 145, 143, 208, 158
-0.998434, 225, 197, 240, 228
-0.998441, 237, 201, 252, 232
-0.998447, 159, 137, 174, 168
-0.998448, 257, 153, 288, 168
-0.998448, 265, 147, 296, 162
-0.998449, 199, 145, 214, 176
-0.998453, 177, 195, 240, 210
-0.998455, 177, 143, 240, 158
-0.998455, 237, 149, 268, 164
-0.998457, 159, 209, 174, 240
-0.998461, 241, 175, 304, 190
-0.998464, 195, 193, 210, 224
-0.998467, 265, 173, 296, 188
-0.998469, 167, 141, 182, 172
-0.998473, 273, 179, 304, 194
-0.998475, 149, 181, 180, 196
-0.998478, 157, 203, 188, 218
-0.99848, 175, 145, 190, 176
-0.998481, 229, 169, 260, 184
-0.998485, 241, 195, 272, 210
-0.998486, 161, 193, 192, 208
-0.99849, 217, 147, 280, 162
-0.99849, 261, 65, 292, 320
-0.998492, 251, 177, 266, 208
-0.998496, 223, 145, 238, 176
-0.998504, 201, 141, 232, 156
-0.99851, 249, 147, 280, 162
-0.998511, 189, 193, 220, 208
-0.998514, 227, 181, 242, 212
-0.998535, 183, 149, 198, 180
-0.998545, 217, 179, 280, 194
-0.998554, 217, 167, 280, 182
-0.998554, 153, 199, 216, 214
-0.998556, 219, 197, 234, 228
-0.998557, 217, 193, 280, 208
-0.998558, 153, 193, 216, 208
-0.998559, 189, 145, 220, 160
-0.998561, 145, 149, 208, 164
-0.998574, 273, 153, 288, 184
-0.998576, 203, 193, 218, 224
-0.998577, 149, 175, 180, 190
-0.998583, 201, 141, 264, 156
-0.998584, 247, 193, 262, 224
-0.998585, 213, 143, 244, 158
-0.998587, 241, 147, 304, 162
-0.998587, 277, 181, 292, 212
-0.998588, 149, 141, 180, 156
-0.99859, 253, 175, 284, 190
-0.998593, 145, 177, 208, 192
-0.998595, 205, 149, 220, 180
-0.9986, 217, 173, 280, 188
-0.998605, 481, 65, 496, 96
-0.998611, 175, 169, 190, 232
-0.998611, 165, 205, 180, 236
-0.998611, 213, 65, 244, 320
-0.998612, 481, 77, 496, 108
-0.998616, 225, 141, 288, 156
-0.998618, 185, 149, 248, 164
-0.998619, 153, 183, 216, 198
-0.998623, 481, 49, 496, 80
-0.998623, 129, 195, 192, 210
-0.998626, 121, 141, 184, 156
-0.998628, 113, 187, 176, 202
-0.998629, 241, 181, 304, 196
-0.998634, 249, 153, 312, 168
-0.998635, 209, 187, 272, 202
-0.998637, 265, 145, 328, 160
-0.998638, 265, 175, 328, 190
-0.998641, 121, 171, 184, 186
-0.998642, 207, 133, 222, 164
-0.998648, 185, 173, 248, 188
-0.998648, 209, 199, 272, 214
-0.99865, 145, 155, 208, 170
-0.998653, 145, 205, 208, 220
-0.998653, 233, 159, 296, 174
-0.998658, 219, 181, 234, 212
-0.998659, 169, 137, 232, 152
-0.998659, 145, 163, 208, 178
-0.99866, 481, 233, 496, 264
-0.998667, 187, 121, 202, 184
-0.998669, 265, 181, 328, 196
-0.998674, 121, 201, 184, 216
-0.998675, 113, 155, 176, 170
-0.998676, 481, 217, 496, 248
-0.998678, 481, 205, 496, 236
-0.99868, 193, 133, 320, 164
-0.998686, 249, 189, 312, 204
-0.998686, 145, 137, 208, 152
-0.998686, 193, 159, 256, 174
-0.998686, 121, 181, 184, 196
-0.998686, 249, 195, 312, 210
-0.998689, 161, 205, 288, 236
-0.998689, 185, 179, 248, 194
-0.998693, 481, 93, 496, 124
-0.998696, 197, 181, 212, 212
-0.998699, 105, 149, 168, 164
-0.998701, 279, 141, 294, 172
-0.998702, 481, 293, 496, 324
-0.998707, 113, 161, 176, 176
-0.998707, 481, 305, 496, 334
-0.998708, 261, 177, 292, 304
-0.998709, 481, 161, 496, 192
-0.99871, 285, 145, 300, 208
-0.998711, 369, 25, 496, 88
-0.998712, 195, 129, 210, 256
-0.998713, 481, 37, 496, 68
-0.998717, 161, 171, 224, 186
-0.99872, 249, 169, 312, 184
-0.998721, 481, 181, 496, 212
-0.998723, 225, 153, 288, 168
-0.998723, 433, 277, 496, 292
-0.998725, 231, 201, 246, 232
-0.998726, 481, 269, 496, 300
-0.998727, 161, 129, 176, 256
-0.998727, 433, 271, 496, 286
-0.998728, 233, 201, 296, 216
-0.998728, 433, 283, 496, 298
-0.998734, 269, 185, 284, 216
-0.998735, 433, 289, 496, 304
-0.998737, 175, 121, 190, 184
-0.998737, 433, 265, 496, 280
-0.998739, 481, 253, 496, 284
-0.998739, 433, 295, 496, 310
-0.998741, 433, 235, 496, 250
-0.998741, 433, 241, 496, 256
-0.998741, 433, 301, 496, 316
-0.998741, 433, 307, 496, 322
-0.998742, 433, 253, 496, 268
-0.998742, 433, 259, 496, 274
-0.998744, 433, 229, 496, 244
-0.998744, 433, 247, 496, 262
-0.998744, 433, 183, 496, 198
-0.998744, 433, 189, 496, 204
-0.998744, 433, 313, 496, 328
-0.998746, 245, 205, 260, 236
-0.998746, 221, 129, 236, 256
-0.998746, 177, 165, 240, 180
-0.998747, 433, 161, 496, 176
-0.998748, 433, 9, 496, 24
-0.998748, 433, 177, 496, 192
-0.998748, 433, 197, 496, 212
-0.998748, 433, 171, 496, 186
-0.998749, 433, 203, 496, 218
-0.998749, 433, 209, 496, 224
-0.998749, 433, 319, 496, 334
-0.99875, 433, 3, 496, 18
-0.99875, 433, 223, 496, 238
-0.99875, 433, 155, 496, 170
-0.998751, 433, 15, 496, 30
-0.998751, 433, 73, 496, 88
-0.998751, 433, 79, 496, 94
-0.998752, 433, 149, 496, 164
-0.998752, 481, 149, 496, 180
-0.998752, 433, 67, 496, 82
-0.998752, 433, 217, 496, 232
-0.998753, 433, 25, 496, 40
-0.998753, 433, 31, 496, 46
-0.998753, 433, 37, 496, 52
-0.998753, 433, 43, 496, 58
-0.998753, 433, 49, 496, 64
-0.998753, 433, 55, 496, 70
-0.998753, 433, 61, 496, 76
-0.998753, 433, 89, 496, 104
-0.998753, 433, 95, 496, 110
-0.998753, 433, 101, 496, 116
-0.998753, 433, 107, 496, 122
-0.998753, 433, 113, 496, 128
-0.998753, 433, 119, 496, 134
-0.998753, 433, 125, 496, 140
-0.998753, 433, 131, 496, 146
-0.998753, 433, 137, 496, 152
-0.998753, 433, 143, 496, 158
-0.998755, 121, 207, 184, 222
-0.998755, 481, 281, 496, 312
-0.998756, 153, 201, 168, 232
-0.998757, 481, 105, 496, 136
-0.998758, 185, 189, 248, 204
-0.998761, 481, 193, 496, 224
-0.998763, 281, 169, 344, 184
-0.998764, 173, 129, 188, 256
-0.998764, 289, 173, 304, 204
-0.998765, 209, 201, 336, 232
-0.998766, 273, 139, 336, 154
-0.998769, 209, 205, 272, 220
-0.998772, 105, 135, 168, 150
-0.998774, 481, 17, 496, 48
-0.99878, 97, 143, 160, 158
-0.998781, 97, 179, 160, 194
-0.998786, 145, 177, 160, 208
-0.998792, 257, 185, 384, 216
-0.998794, 105, 195, 168, 210
-0.998799, 217, 135, 280, 150
-0.9988, 481, 121, 496, 152
-0.998806, 165, 65, 196, 320
-0.998809, 185, 201, 248, 216
-0.998809, 481, 137, 496, 168
-0.99881, 169, 155, 232, 170
-0.998815, 249, 139, 312, 154
-0.998816, 289, 175, 352, 190
-0.998817, 185, 181, 200, 212
-0.998826, 201, 129, 216, 256
-0.998828, 145, 211, 208, 226
-0.998834, 153, 129, 168, 256
-0.998836, 159, 149, 174, 180
-0.998837, 167, 189, 182, 220
-0.998837, 257, 201, 320, 216
-0.998841, 215, 129, 230, 256
-0.998842, 193, 113, 208, 176
-0.998843, 183, 133, 198, 164
-0.998843, 153, 131, 216, 146
-0.998844, 149, 209, 180, 272
-0.998847, 223, 157, 238, 188
-0.998849, 97, 173, 160, 188
-0.99885, 203, 181, 218, 212
-0.998852, 273, 151, 336, 166
-0.998853, 233, 207, 296, 222
-0.998859, 193, 135, 256, 150
-0.99886, 189, 129, 204, 256
-0.998863, 97, 201, 160, 216
-0.998867, 97, 167, 160, 182
-0.998868, 105, 129, 168, 144
-0.99887, 121, 213, 184, 228
-0.99887, 143, 141, 158, 172
-0.998872, 481, 5, 496, 36
-0.998872, 257, 301, 320, 316
-0.998873, 241, 133, 304, 148
-0.998873, 201, 129, 264, 144
-0.998873, 215, 113, 230, 176
-0.998875, 297, 303, 360, 318
-0.998892, 179, 129, 194, 256
-0.998894, 167, 129, 182, 256
-0.998896, 235, 129, 250, 256
-0.998908, 261, 201, 276, 232
-0.998913, 227, 129, 242, 256
-0.998921, 97, 205, 224, 236
-0.998927, 175, 185, 190, 216
-0.998931, 219, 129, 234, 160
-0.998931, 207, 145, 222, 272
-0.998955, 191, 181, 206, 212
-0.998958, 241, 129, 256, 256
-0.998958, 213, 181, 228, 212
-0.998963, 181, 81, 212, 208
-0.998963, 469, 33, 500, 288
-0.998973, 169, 113, 184, 176
-0.998978, 223, 113, 238, 176
-0.998988, 201, 133, 216, 164
-0.99899, 275, 185, 290, 248
-0.998991, 257, 185, 272, 216
-0.998991, 231, 113, 246, 176
-0.998994, 255, 133, 270, 164
-0.999005, 165, 165, 180, 196
-0.999015, 227, 133, 242, 164
-0.99905, 283, 181, 298, 212
-0.999062, 273, 129, 288, 160
-0.999071, 237, 137, 252, 168
-0.999077, 247, 113, 262, 240
-0.999085, 1, 177, 500, 240
-0.999146, 151, 125, 166, 156
-0.999146, 177, 133, 192, 164
-0.99915, 167, 129, 182, 160
-0.999151, 169, 177, 184, 208
-0.999158, 245, 137, 260, 168
-0.999159, 289, 169, 304, 232
-0.999188, 243, 113, 258, 176
-0.999216, 147, 161, 162, 192
-0.999221, 237, 113, 252, 176
-0.999233, 247, 161, 262, 288
-0.999241, 289, 161, 304, 192
-0.999254, 193, 129, 208, 160
-0.999258, 253, 209, 268, 272
-0.999263, 207, 97, 222, 224
-0.999268, 171, 165, 186, 196
-0.999269, 273, 161, 400, 192
-0.999283, 185, 177, 200, 304
-0.99929, 159, 125, 174, 156
-0.999291, 243, 209, 258, 272
-0.999294, 141, 129, 156, 160
-0.999296, 253, 113, 268, 240
-0.999338, 157, 177, 172, 304
-0.999338, 217, 177, 232, 304
-0.99935, 191, 177, 206, 304
-0.999352, 217, 161, 232, 192
-0.999358, 173, 193, 188, 320
-0.999359, 261, 129, 276, 160
-0.999365, 213, 129, 228, 160
-0.99938, 253, 177, 268, 304
-0.999381, 273, 97, 336, 224
-0.999393, 481, 1, 496, 128
-0.999407, 259, 113, 274, 240
-0.999408, 285, 137, 300, 168
-0.99942, 241, 1, 304, 334
-0.999423, 257, 113, 272, 176
-0.999424, 281, 169, 312, 232
-0.999425, 201, 177, 216, 304
-0.999429, 481, 49, 496, 176
-0.999444, 481, 209, 496, 334
-0.999446, 267, 113, 282, 240
-0.999454, 179, 177, 194, 304
-0.999463, 49, 129, 176, 160
-0.999467, 295, 173, 310, 204
-0.99947, 165, 177, 180, 304
-0.999474, 267, 129, 282, 160
-0.999485, 481, 145, 496, 272
-0.999489, 279, 157, 294, 188
-0.999501, 481, 137, 496, 152
-0.999502, 141, 65, 172, 320
-0.999503, 163, 167, 178, 182
-0.999504, 249, 113, 264, 176
-0.999506, 277, 151, 292, 166
-0.999506, 481, 113, 496, 128
-0.999508, 481, 13, 496, 28
-0.999508, 481, 119, 496, 134
-0.999509, 481, 125, 496, 140
-0.999511, 481, 149, 496, 164
-0.999511, 481, 261, 496, 276
-0.999511, 481, 275, 496, 290
-0.999511, 481, 21, 496, 36
-0.999511, 481, 287, 496, 302
-0.999512, 481, 31, 496, 46
-0.999512, 481, 319, 496, 334
-0.999513, 215, 147, 230, 162
-0.999513, 481, 177, 496, 192
-0.999513, 481, 131, 496, 146
-0.999513, 269, 141, 284, 156
-0.999514, 481, 143, 496, 158
-0.999514, 481, 313, 496, 328
-0.999514, 245, 197, 260, 212
-0.999515, 481, 157, 496, 172
-0.999515, 481, 267, 496, 282
-0.999516, 155, 147, 170, 162
-0.999516, 143, 143, 158, 158
-0.999516, 241, 157, 256, 172
-0.999516, 151, 177, 166, 304
-0.999517, 481, 107, 496, 122
-0.999517, 481, 199, 496, 214
-0.999517, 481, 253, 496, 268
-0.999517, 481, 281, 496, 296
-0.999518, 481, 209, 496, 224
-0.999518, 189, 187, 204, 202
-0.999518, 481, 239, 496, 254
-0.999519, 223, 193, 238, 320
-0.999519, 481, 247, 496, 262
-0.99952, 481, 97, 496, 224
-0.99952, 481, 189, 496, 204
-0.99952, 481, 225, 496, 240
-0.99952, 481, 97, 496, 112
-0.999521, 257, 133, 384, 164
-0.999521, 481, 171, 496, 186
-0.999521, 229, 149, 244, 164
-0.999521, 481, 307, 496, 322
-0.999521, 481, 299, 496, 314
-0.999522, 481, 183, 496, 198
-0.999522, 481, 91, 496, 106
-0.999522, 481, 163, 496, 178
-0.999522, 159, 139, 174, 154
-0.999523, 481, 37, 496, 52
-0.999523, 481, 293, 496, 308
-0.999523, 197, 187, 212, 202
-0.999523, 151, 165, 166, 180
-0.999524, 481, 219, 496, 234
-0.999526, 219, 165, 234, 180
-0.999527, 481, 75, 496, 90
-0.999528, 481, 47, 496, 62
-0.999528, 481, 67, 496, 82
-0.999528, 481, 233, 496, 248
-0.999532, 481, 81, 496, 96
-0.999533, 249, 155, 264, 170
-0.999533, 481, 53, 496, 68
-0.999536, 147, 179, 162, 194
-0.999536, 481, 59, 496, 74
-0.999536, 149, 185, 164, 200
-0.999537, 145, 113, 160, 176
-0.999538, 167, 143, 182, 158
-0.999538, 243, 149, 258, 164
-0.999539, 155, 205, 170, 220
-0.999539, 239, 183, 254, 198
-0.99954, 283, 143, 298, 158
-0.999543, 161, 209, 176, 224
-0.999544, 249, 203, 264, 218
-0.999545, 229, 161, 244, 176
-0.999546, 185, 143, 200, 158
-0.999547, 217, 113, 248, 176
-0.999548, 245, 179, 260, 194
-0.999554, 157, 167, 172, 182
-0.999555, 235, 159, 250, 174
-0.999555, 231, 179, 246, 194
-0.999555, 145, 149, 160, 164
-0.999557, 159, 81, 174, 208
-0.999558, 239, 203, 254, 218
-0.999558, 211, 195, 226, 210
-0.99956, 225, 199, 240, 214
-0.999561, 173, 145, 188, 160
-0.999561, 369, 1, 496, 32
-0.999561, 241, 177, 256, 304
-0.999562, 231, 201, 246, 216
-0.999563, 209, 149, 224, 164
-0.999564, 255, 157, 270, 172
-0.999564, 163, 193, 178, 208
-0.999564, 205, 193, 220, 208
-0.999565, 267, 187, 282, 202
-0.999568, 217, 197, 232, 212
-0.999569, 183, 149, 198, 164
-0.99957, 223, 145, 238, 160
-0.999573, 177, 199, 192, 214
-0.999574, 201, 147, 216, 162
-0.999576, 267, 153, 282, 168
-0.999578, 283, 179, 298, 194
-0.999581, 231, 193, 246, 320
-0.999584, 237, 167, 252, 182
-0.999587, 255, 203, 270, 218
-0.999587, 151, 157, 166, 172
-0.999587, 263, 193, 278, 208
-0.999591, 291, 175, 306, 190
-0.999591, 165, 183, 180, 198
-0.999591, 199, 193, 214, 208
-0.999591, 263, 175, 278, 190
-0.999594, 235, 149, 250, 164
-0.999596, 255, 175, 270, 190
-0.999598, 183, 195, 198, 210
-0.9996, 259, 177, 274, 304
-0.9996, 223, 173, 238, 188
-0.9996, 291, 145, 306, 208
-0.999601, 235, 81, 250, 208
-0.999612, 207, 143, 222, 158
-0.999615, 247, 163, 262, 178
-0.999616, 171, 203, 186, 218
-0.999616, 165, 177, 180, 192
-0.99962, 189, 193, 204, 208
-0.999627, 275, 181, 290, 196
-0.999629, 261, 155, 276, 170
-0.999634, 277, 145, 292, 160
-0.999637, 147, 129, 162, 256
-0.99964, 157, 161, 172, 176
-0.999641, 273, 129, 288, 256
-0.999647, 253, 147, 268, 162
-0.999649, 269, 175, 284, 190
-0.999651, 253, 197, 268, 212
-0.999662, 159, 181, 174, 196
-0.999663, 277, 175, 292, 190
-0.999665, 231, 169, 246, 184
-0.99967, 153, 173, 168, 188
-0.999673, 271, 147, 286, 162
-0.999684, 285, 173, 300, 188
-0.999686, 151, 139, 166, 154
-0.999689, 155, 189, 170, 204
-0.999693, 241, 81, 256, 208
-0.999694, 169, 81, 184, 208
-0.999702, 263, 147, 278, 162
-0.999716, 229, 81, 244, 208
-0.99972, 161, 199, 176, 214
-0.999724, 185, 81, 200, 208
-0.999725, 213, 81, 228, 208
-0.999739, 217, 141, 232, 156
-0.999742, 195, 81, 210, 208
-0.999743, 193, 145, 208, 160
-0.999745, 153, 179, 168, 194
-0.99975, 159, 173, 174, 188
-0.999759, 219, 81, 234, 208
-0.999762, 97, 129, 224, 160
-0.999797, 153, 81, 168, 208
-0.999801, 271, 177, 286, 304
-0.999803, 201, 81, 216, 208
-0.99981, 265, 177, 280, 304
-0.999813, 279, 145, 294, 272
-0.999828, 273, 65, 304, 320
-0.999836, 145, 49, 272, 176
-0.999854, 175, 81, 190, 208
-0.999896, 369, 29, 496, 60
-0.999911, 145, 177, 160, 304
-0.999912, 209, 193, 224, 320
-0.999937, 247, 209, 262, 334
-0.999953, 283, 121, 298, 184
-0.999956, 147, 81, 162, 208
-0.99997, 141, 81, 172, 208
-0.999973, 281, 97, 296, 224
-0.999976, 141, 97, 156, 224
-0.999978, 369, 13, 496, 44
-1.00001, 247, 65, 262, 192
-1.00002, 273, 81, 288, 208
-1.00003, 129, 1, 160, 256
-1.00004, 263, 49, 278, 176
-1.00005, 257, 49, 272, 176
-1.00006, 265, 113, 280, 176
-1.00006, 241, 201, 304, 264
-1.00008, 149, 193, 164, 256
-1.00009, 275, 105, 290, 168
-1.00014, 157, 97, 172, 160
-1.00014, 133, 113, 164, 176
-1.00014, 207, 49, 222, 176
-1.00014, 253, 81, 284, 208
-1.00015, 279, 49, 294, 176
-1.00015, 49, 205, 176, 236
-1.00016, 237, 209, 252, 272
-1.00018, 433, 209, 448, 334
-1.00018, 439, 209, 454, 334
-1.00018, 445, 209, 460, 334
-1.00019, 475, 1, 490, 128
-1.00019, 427, 209, 442, 334
-1.00019, 451, 209, 466, 334
-1.00019, 457, 209, 472, 334
-1.0002, 283, 193, 298, 320
-1.0002, 427, 161, 442, 288
-1.0002, 421, 209, 436, 334
-1.0002, 463, 209, 478, 334
-1.0002, 277, 193, 292, 320
-1.0002, 81, 1, 96, 128
-1.00021, 287, 97, 302, 224
-1.00021, 469, 209, 484, 334
-1.00021, 55, 1, 70, 128
-1.00021, 187, 1, 202, 128
-1.00021, 123, 33, 138, 160
-1.00021, 295, 193, 310, 320
-1.00021, 93, 209, 108, 334
-1.00021, 109, 209, 124, 334
-1.00021, 413, 209, 428, 334
-1.00022, 285, 145, 300, 272
-1.00022, 289, 193, 304, 320
-1.00022, 103, 209, 118, 334
-1.00022, 87, 209, 102, 334
-1.00022, 269, 33, 284, 160
-1.00022, 117, 17, 132, 144
-1.00022, 75, 1, 90, 128
-1.00022, 469, 1, 484, 128
-1.00022, 61, 1, 76, 128
-1.00022, 139, 161, 154, 288
-1.00022, 439, 161, 454, 288
-1.00022, 445, 161, 460, 288
-1.00022, 421, 161, 436, 288
-1.00022, 301, 193, 316, 320
-1.00022, 405, 209, 420, 334
-1.00022, 75, 177, 90, 304
-1.00022, 13, 193, 28, 320
-1.00022, 475, 129, 490, 256
-1.00023, 89, 1, 104, 128
-1.00023, 69, 193, 84, 320
-1.00023, 133, 193, 148, 320
-1.00023, 69, 1, 84, 128
-1.00023, 433, 161, 448, 288
-1.00023, 87, 161, 102, 288
-1.00023, 3, 193, 18, 320
-1.00023, 107, 161, 122, 288
-1.00023, 377, 209, 392, 334
-1.00023, 475, 209, 490, 334
-1.00023, 93, 161, 108, 288
-1.00023, 119, 177, 134, 304
-1.00023, 419, 113, 434, 240
-1.00023, 385, 209, 400, 334
-1.00023, 81, 209, 96, 334
-1.00023, 95, 1, 110, 128
-1.00023, 181, 1, 196, 128
-1.00023, 193, 1, 208, 128
-1.00023, 127, 193, 142, 320
-1.00024, 81, 161, 96, 288
-1.00024, 101, 145, 116, 272
-1.00024, 455, 161, 470, 288
-1.00029, 259, 209, 274, 272
-1.0003, 65, 65, 192, 192
-1.00031, 369, 41, 496, 72
-1.00031, 97, 1, 160, 256
-1.00037, 97, 145, 160, 208
-1.00038, 139, 113, 154, 176
-1.00038, 33, 113, 288, 176
-1.00038, 277, 145, 308, 272
-1.00039, 225, 113, 480, 176
-1.0004, 281, 145, 312, 208
-1.00041, 133, 185, 164, 248
-1.00047, 369, 57, 496, 88
-1.00047, 155, 217, 170, 280
-1.00047, 447, 265, 462, 328
-1.00049, 209, 97, 224, 160
-1.00054, 461, 265, 476, 328
-1.00054, 237, 65, 268, 192
-1.00054, 185, 97, 200, 160
-1.00059, 455, 265, 470, 328
-1.00059, 201, 97, 216, 160
-1.00061, 289, 121, 304, 184
-1.00062, 369, 49, 496, 112
-1.00063, 193, 297, 320, 328
-1.00064, 467, 265, 482, 328
-1.00067, 217, 209, 280, 272
-1.00068, 297, 153, 312, 216
-1.00068, 257, 197, 384, 228
-1.00069, 441, 265, 456, 328
-1.0007, 33, 181, 160, 212
-1.00071, 97, 233, 112, 296
-1.00071, 283, 97, 298, 160
-1.00072, 141, 249, 156, 312
-1.00073, 17, 257, 32, 320
-1.00074, 435, 265, 450, 328
-1.00074, 25, 49, 40, 112
-1.00075, 369, 69, 496, 100
-1.00076, 369, 273, 496, 304
-1.00076, 65, 117, 192, 148
-1.00077, 19, 49, 34, 112
-1.00077, 177, 97, 192, 160
-1.00078, 457, 233, 472, 296
-1.00078, 91, 233, 106, 296
-1.00078, 33, 241, 160, 272
-1.00079, 89, 1, 152, 334
-1.00079, 161, 121, 288, 152
-1.00079, 329, 249, 344, 312
-1.0008, 149, 241, 164, 304
-1.00081, 369, 193, 496, 224
-1.00081, 369, 297, 496, 328
-1.00081, 29, 25, 44, 88
-1.00081, 369, 213, 496, 244
-1.00081, 295, 177, 310, 240
-1.00081, 369, 157, 496, 188
-1.00082, 473, 1, 488, 64
-1.00082, 369, 109, 496, 140
-1.00082, 465, 241, 480, 304
-1.00083, 369, 285, 496, 316
-1.00083, 141, 169, 156, 232
-1.00083, 451, 225, 466, 288
-1.00083, 197, 265, 212, 328
-1.00084, 203, 273, 218, 334
-1.00084, 209, 273, 224, 334
-1.00084, 369, 257, 496, 320
-1.00085, 369, 145, 496, 176
-1.00085, 369, 129, 496, 160
-1.00086, 193, 285, 320, 316
-1.00086, 369, 89, 496, 120
-1.00087, 145, 289, 272, 320
-1.00088, 241, 305, 368, 334
-1.00089, 161, 17, 288, 48
-1.00089, 369, 177, 496, 208
-1.00089, 289, 297, 416, 328
-1.00089, 257, 253, 384, 284
-1.0009, 369, 261, 496, 292
-1.0009, 241, 289, 368, 320
-1.00092, 97, 253, 224, 284
-1.00092, 129, 305, 256, 334
-1.00092, 113, 117, 240, 148
-1.00093, 113, 233, 240, 264
-1.00093, 113, 25, 240, 56
-1.00094, 161, 5, 288, 36
-1.00094, 65, 13, 192, 44
-1.00094, 17, 229, 144, 260
-1.00095, 369, 241, 496, 272
-1.00095, 49, 253, 176, 284
-1.00096, 17, 57, 144, 88
-1.00096, 145, 245, 272, 276
-1.00096, 113, 273, 240, 304
-1.00096, 17, 169, 144, 200
-1.00097, 193, 269, 320, 300
-1.00098, 97, 217, 224, 248
-1.00099, 81, 1, 208, 32
-1.00099, 209, 241, 336, 272
-1.00099, 321, 281, 448, 312
-1.00099, 97, 293, 224, 324
-1.00099, 305, 173, 432, 204
-1.00099, 305, 197, 432, 228
-1.00099, 305, 241, 432, 272
-1.00099, 193, 257, 320, 288
-1.001, 17, 45, 144, 76
-1.001, 17, 77, 144, 108
-1.001, 321, 145, 448, 176
-1.001, 321, 157, 448, 188
-1.00101, 65, 229, 192, 260
-1.00101, 17, 217, 144, 248
-1.00101, 241, 277, 368, 308
-1.00102, 257, 241, 384, 272
-1.00102, 321, 269, 448, 300
-1.00102, 1, 281, 128, 312
-1.00103, 369, 229, 496, 260
-1.00103, 65, 25, 192, 56
-1.00103, 145, 257, 272, 288
-1.00103, 321, 257, 448, 288
-1.00103, 289, 29, 416, 60
-1.00103, 321, 41, 448, 72
-1.00103, 145, 217, 272, 248
-1.00104, 113, 13, 240, 44
-1.00105, 17, 157, 144, 188
-1.00105, 209, 229, 336, 260
-1.00105, 289, 229, 416, 260
-1.00106, 321, 133, 448, 164
-1.00106, 1, 269, 128, 300
-1.00106, 81, 305, 208, 334
-1.00106, 205, 105, 236, 168
-1.00106, 305, 17, 432, 48
-1.00106, 17, 33, 144, 64
-1.00106, 321, 185, 448, 216
-1.00106, 1, 297, 128, 328
-1.00107, 129, 105, 256, 136
-1.00107, 17, 109, 144, 140
-1.00107, 177, 109, 304, 140
-1.00107, 321, 109, 448, 140
-1.00107, 225, 113, 352, 144
-1.00107, 273, 113, 400, 144
-1.00107, 1, 121, 128, 152
-1.00107, 321, 121, 448, 152
-1.00107, 1, 133, 128, 164
-1.00107, 1, 145, 128, 176
-1.00107, 17, 193, 144, 224
-1.00107, 1, 205, 128, 236
-1.00107, 225, 217, 352, 248
-1.00107, 273, 217, 400, 248
-1.00107, 321, 217, 448, 248
-1.00107, 1, 257, 128, 288
-1.00107, 273, 265, 400, 296
-1.00107, 65, 269, 192, 300
-1.00107, 65, 281, 192, 312
-1.00107, 49, 293, 176, 324
-1.00115, 1, 233, 128, 296
-1.00125, 1, 209, 256, 272
-1.00128, 113, 217, 240, 280
-1.00129, 285, 33, 316, 288
-1.00137, 65, 217, 192, 280
-1.00138, 177, 97, 304, 160
-1.00139, 369, 145, 496, 208
-1.00144, 109, 1, 140, 256
-1.00146, 193, 209, 448, 272
-1.00147, 129, 97, 384, 160
-1.00151, 193, 257, 448, 320
-1.00152, 249, 113, 280, 176
-1.00153, 97, 1, 128, 256
-1.00154, 49, 97, 176, 160
-1.00155, 85, 1, 116, 256
-1.00161, 193, 273, 320, 334
-1.00161, 129, 1, 384, 64
-1.00162, 33, 241, 288, 304
-1.00165, 277, 97, 308, 224
-1.00167, 65, 241, 192, 304
-1.00168, 441, 65, 472, 320
-1.00169, 97, 217, 352, 280
-1.0017, 421, 65, 452, 320
-1.00171, 33, 273, 288, 334
-1.00171, 457, 33, 488, 288
-1.00171, 257, 233, 500, 296
-1.00172, 1, 41, 256, 104
-1.00172, 73, 1, 104, 256
-1.00175, 385, 65, 416, 320
-1.00175, 49, 65, 80, 320
-1.00175, 29, 65, 60, 320
-1.00175, 361, 65, 392, 320
-1.00178, 1, 17, 256, 80
-1.00178, 401, 65, 432, 320
-1.00179, 61, 33, 92, 288
-1.00179, 373, 65, 404, 320
-1.00179, 333, 65, 364, 320
-1.00179, 345, 65, 376, 320
-1.0018, 1, 33, 32, 288
-1.00181, 369, 233, 496, 296
-1.00181, 273, 249, 400, 312
-1.00182, 13, 65, 44, 320
-1.00183, 369, 81, 496, 144
-1.00184, 297, 33, 328, 288
-1.00184, 309, 33, 340, 288
-1.00184, 321, 33, 352, 288
-1.00186, 145, 97, 208, 160
-1.00191, 369, 121, 496, 184
-1.00192, 225, 1, 480, 64
-1.00195, 1, 73, 256, 136
-1.00195, 369, 1, 496, 128
-1.00196, 129, 25, 384, 88
-1.00196, 353, 177, 480, 240
-1.00196, 113, 249, 240, 312
-1.00197, 265, 113, 328, 176
-1.00199, 1, 209, 128, 272
-1.002, 161, 65, 416, 128
-1.00203, 33, 169, 160, 232
-1.00205, 225, 33, 480, 96
-1.0021, 321, 217, 448, 280
-1.00212, 257, 73, 500, 136
-1.00216, 201, 49, 232, 176
-1.00216, 97, 81, 224, 144
-1.00221, 209, 241, 336, 304
-1.00225, 145, 9, 272, 72
-1.00225, 273, 225, 400, 288
-1.00227, 1, 121, 500, 184
-1.00229, 321, 249, 448, 312
-1.00229, 145, 273, 272, 334
-1.0023, 97, 25, 224, 88
-1.0023, 1, 265, 128, 328
-1.00232, 289, 1, 352, 334
-1.00233, 305, 193, 432, 256
-1.00237, 65, 1, 128, 334
-1.00239, 321, 145, 448, 208
-1.00239, 49, 273, 176, 334
-1.00239, 289, 273, 416, 334
-1.00242, 65, 1, 192, 64
-1.00243, 97, 273, 224, 334
-1.00244, 225, 97, 352, 160
-1.00244, 17, 9, 144, 72
-1.00244, 241, 273, 368, 334
-1.00245, 369, 209, 496, 272
-1.00253, 257, 201, 288, 264
-1.00254, 177, 217, 304, 280
-1.00259, 321, 121, 448, 184
-1.00261, 113, 65, 176, 192
-1.00262, 33, 41, 160, 104
-1.00262, 1, 65, 128, 128
-1.00267, 273, 145, 336, 272
-1.00274, 41, 1, 104, 334
-1.00274, 33, 49, 288, 176
-1.00276, 209, 41, 336, 104
-1.00276, 145, 65, 272, 128
-1.00276, 193, 65, 320, 128
-1.00276, 225, 217, 352, 280
-1.00277, 161, 249, 288, 312
-1.00286, 409, 1, 472, 334
-1.00286, 1, 1, 64, 334
-1.00287, 1, 201, 500, 264
-1.00288, 209, 17, 336, 80
-1.00288, 145, 33, 272, 96
-1.00288, 97, 57, 224, 120
-1.00288, 49, 65, 176, 128
-1.00291, 273, 1, 400, 64
-1.00291, 321, 1, 448, 64
-1.00291, 273, 25, 400, 88
-1.00291, 321, 25, 448, 88
-1.00291, 273, 49, 400, 112
-1.00291, 321, 49, 448, 112
-1.00291, 273, 73, 400, 136
-1.00291, 321, 73, 448, 136
-1.00291, 1, 97, 128, 160
-1.00291, 321, 97, 448, 160
-1.00291, 1, 121, 128, 184
-1.00291, 1, 145, 128, 208
-1.00291, 305, 169, 432, 232
-1.00291, 361, 1, 424, 334
-1.00292, 49, 161, 176, 288
-1.0031, 97, 177, 160, 240
-1.00314, 1, 25, 500, 88
-1.00318, 1, 89, 500, 152
-1.00322, 321, 1, 384, 334
-1.00323, 1, 249, 500, 312
-1.00327, 229, 105, 260, 168
-1.00329, 385, 1, 448, 334
-1.00343, 281, 121, 312, 184
-1.00343, 1, 65, 500, 128
-1.00364, 289, 153, 352, 216
-1.00364, 1, 273, 500, 334
-1.00373, 1, 1, 500, 64
-1.00375, 1, 225, 500, 288
-1.00387, 133, 177, 164, 304
-1.00415, 129, 81, 160, 208
-1.00441, 1, 1, 256, 128
-1.00458, 173, 97, 204, 160
-1.00493, 273, 97, 400, 160
-1.00524, 257, 49, 384, 176
-1.00545, 293, 153, 324, 216
-1.00556, 125, 129, 156, 256
-1.00569, 113, 217, 176, 280
-1.00583, 265, 65, 296, 192
-1.00585, 145, 217, 208, 280
-1.0059, 261, 97, 292, 160
-1.00616, 369, 161, 496, 288
-1.00624, 129, 17, 384, 144
-1.00626, 369, 209, 496, 334
-1.00643, 193, 97, 224, 160
-1.00664, 409, 257, 472, 320
-1.00685, 369, 113, 496, 240
-1.00697, 277, 49, 308, 176
-1.00707, 289, 249, 352, 312
-1.00708, 9, 49, 40, 112
-1.00708, 21, 49, 52, 112
-1.00711, 445, 265, 476, 328
-1.00715, 321, 209, 448, 334
-1.00726, 113, 249, 176, 312
-1.00733, 81, 233, 144, 296
-1.00734, 161, 217, 192, 280
-1.00734, 433, 265, 464, 328
-1.00737, 57, 233, 120, 296
-1.00754, 33, 1, 160, 128
-1.00762, 429, 209, 460, 334
-1.00763, 25, 25, 56, 88
-1.00765, 257, 209, 500, 334
-1.00774, 97, 1, 224, 128
-1.00781, 281, 97, 312, 160
-1.00784, 257, 265, 320, 328
-1.00788, 5, 25, 36, 88
-1.00788, 385, 257, 448, 320
-1.00789, 457, 265, 488, 328
-1.00791, 121, 121, 152, 184
-1.00793, 313, 249, 376, 312
-1.00795, 209, 273, 272, 334
-1.00797, 249, 33, 280, 160
-1.00797, 289, 225, 352, 288
-1.008, 89, 209, 152, 272
-1.008, 441, 209, 472, 334
-1.00804, 409, 225, 472, 288
-1.00806, 417, 209, 448, 334
-1.00818, 241, 97, 304, 160
-1.00818, 385, 225, 448, 288
-1.00819, 137, 249, 168, 312
-1.0082, 89, 105, 152, 168
-1.0082, 169, 273, 232, 334
-1.00822, 321, 249, 352, 312
-1.00822, 33, 209, 160, 334
-1.00823, 401, 161, 464, 224
-1.00826, 9, 209, 40, 334
-1.00827, 453, 209, 484, 334
-1.0083, 425, 161, 456, 288
-1.00833, 93, 233, 124, 296
-1.00839, 329, 225, 392, 288
-1.00839, 145, 1, 272, 128
-1.0084, 409, 161, 440, 288
-1.0084, 85, 209, 116, 334
-1.00842, 273, 209, 400, 334
-1.00843, 405, 209, 436, 334
-1.00844, 49, 209, 112, 272
-1.00845, 449, 241, 480, 304
-1.00848, 77, 1, 108, 128
-1.00848, 457, 1, 488, 128
-1.00848, 381, 209, 412, 334
-1.00848, 409, 201, 472, 264
-1.00848, 33, 233, 96, 296
-1.0085, 81, 233, 112, 296
-1.0085, 301, 241, 332, 304
-1.0085, 137, 241, 200, 304
-1.00851, 65, 1, 96, 128
-1.00853, 169, 1, 232, 64
-1.00855, 409, 113, 472, 176
-1.00855, 145, 273, 208, 334
-1.00859, 121, 193, 152, 320
-1.00859, 125, 249, 156, 312
-1.00861, 421, 257, 452, 320
-1.00862, 197, 273, 228, 334
-1.00862, 73, 209, 104, 334
-1.00862, 273, 193, 304, 320
-1.00864, 241, 233, 304, 296
-1.00864, 201, 249, 264, 312
-1.00865, 73, 1, 136, 256
-1.00865, 321, 161, 448, 288
-1.00867, 457, 1, 488, 64
-1.00867, 289, 241, 320, 304
-1.00867, 289, 265, 320, 328
-1.00867, 97, 209, 128, 334
-1.00869, 49, 1, 80, 128
-1.00869, 109, 17, 140, 144
-1.00869, 377, 153, 440, 216
-1.00869, 305, 273, 368, 334
-1.0087, 265, 49, 328, 176
-1.00871, 289, 121, 352, 184
-1.00873, 137, 225, 168, 288
-1.00873, 313, 225, 344, 288
-1.00873, 269, 249, 300, 312
-1.00873, 333, 249, 364, 312
-1.00873, 285, 193, 316, 320
-1.00873, 17, 33, 80, 96
-1.00873, 361, 265, 424, 328
-1.00875, 437, 161, 468, 288
-1.00876, 105, 241, 136, 304
-1.00878, 9, 161, 40, 288
-1.00878, 145, 17, 208, 80
-1.00878, 73, 25, 136, 88
-1.00878, 401, 33, 464, 96
-1.00878, 1, 57, 64, 120
-1.00878, 409, 57, 472, 120
-1.00878, 9, 217, 72, 280
-1.00878, 265, 241, 328, 304
-1.00881, 117, 225, 148, 288
-1.00882, 209, 273, 240, 334
-1.00882, 185, 81, 248, 144
-1.00885, 265, 209, 328, 272
-1.00885, 177, 249, 240, 312
-1.00886, 185, 1, 216, 128
-1.00887, 97, 209, 128, 272
-1.00887, 289, 97, 352, 160
-1.00887, 385, 129, 448, 192
-1.00888, 173, 273, 204, 334
-1.0089, 17, 9, 80, 72
-1.0089, 385, 201, 448, 264
-1.0089, 413, 153, 444, 216
-1.0089, 149, 249, 180, 312
-1.00891, 209, 17, 336, 144
-1.00891, 81, 161, 112, 288
-1.00891, 185, 273, 216, 334
-1.00893, 77, 209, 108, 272
-1.00893, 277, 225, 308, 288
-1.00894, 97, 161, 128, 288
-1.00894, 297, 193, 328, 320
-1.00894, 121, 9, 184, 72
-1.00894, 409, 137, 472, 200
-1.00894, 337, 249, 400, 312
-1.00897, 65, 161, 96, 288
-1.00897, 109, 193, 140, 320
-1.00897, 365, 193, 396, 320
-1.00899, 73, 1, 136, 64
-1.00899, 41, 9, 104, 72
-1.00899, 393, 9, 456, 72
-1.00899, 361, 233, 424, 296
-1.00899, 25, 273, 88, 334
-1.00901, 289, 97, 320, 224
-1.00902, 437, 225, 468, 288
-1.00903, 345, 9, 408, 72
-1.00903, 169, 25, 232, 88
-1.00903, 113, 33, 176, 96
-1.00903, 353, 33, 416, 96
-1.00903, 377, 33, 440, 96
-1.00903, 41, 49, 104, 112
-1.00903, 65, 49, 128, 112
-1.00903, 361, 129, 424, 192
-1.00903, 97, 273, 160, 334
-1.00903, 281, 273, 344, 334
-1.00904, 341, 225, 372, 288
-1.00904, 257, 257, 288, 320
-1.00905, 269, 193, 300, 256
-1.00906, 297, 201, 360, 264
-1.00906, 321, 201, 384, 264
-1.00908, 385, 161, 416, 288
-1.0091, 181, 1, 212, 64
-1.0091, 13, 257, 44, 320
-1.00912, 289, 217, 320, 280
-1.00912, 425, 113, 456, 240
-1.00912, 289, 177, 352, 240
-1.00913, 425, 137, 456, 200
-1.00913, 325, 225, 356, 288
-1.00915, 393, 209, 424, 334
-1.00915, 17, 193, 80, 256
-1.00915, 73, 273, 136, 334
-1.00916, 293, 177, 324, 240
-1.00918, 9, 1, 40, 64
-1.00918, 21, 1, 52, 64
-1.00918, 221, 273, 252, 334
-1.00918, 277, 273, 308, 334
-1.00918, 97, 17, 128, 144
-1.00918, 321, 193, 352, 320
-1.00919, 225, 33, 256, 160
-1.0092, 113, 145, 144, 272
-1.0092, 397, 161, 428, 288
-1.0092, 65, 177, 128, 240
-1.0092, 361, 209, 424, 272
-1.0092, 233, 265, 296, 328
-1.0092, 369, 65, 496, 192
-1.00921, 401, 137, 432, 200
-1.00921, 301, 217, 332, 280
-1.00921, 37, 1, 68, 128
-1.00921, 173, 1, 204, 128
-1.00921, 121, 33, 152, 160
-1.00921, 457, 97, 488, 224
-1.00921, 405, 113, 436, 240
-1.00921, 345, 209, 376, 334
-1.00924, 209, 81, 240, 144
-1.00924, 1, 233, 32, 296
-1.00924, 21, 233, 52, 296
-1.00924, 69, 233, 100, 296
-1.00924, 309, 273, 340, 334
-1.00924, 113, 73, 176, 136
-1.00924, 137, 73, 200, 136
-1.00924, 89, 81, 152, 144
-1.00924, 385, 97, 448, 160
-1.00924, 361, 105, 424, 168
-1.00924, 1, 169, 64, 232
-1.00924, 169, 225, 232, 288
-1.00924, 193, 225, 256, 288
-1.00924, 49, 257, 112, 320
-1.00924, 121, 273, 184, 334
-1.00925, 193, 249, 224, 312
-1.00927, 121, 97, 152, 160
-1.00927, 169, 17, 200, 80
-1.00927, 413, 121, 444, 184
-1.00927, 449, 129, 480, 192
-1.00927, 449, 153, 480, 216
-1.00927, 433, 161, 464, 224
-1.00927, 221, 209, 252, 272
-1.00927, 369, 265, 400, 328
-1.00927, 381, 265, 412, 328
-1.00927, 233, 273, 264, 334
-1.00927, 409, 273, 440, 334
-1.00929, 361, 185, 424, 248
-1.00929, 9, 241, 72, 304
-1.00929, 1, 265, 64, 328
-1.00929, 337, 273, 400, 334
-1.00929, 53, 161, 84, 288
-1.00929, 37, 209, 68, 334
-1.00932, 425, 225, 456, 288
-1.00932, 29, 161, 60, 288
-1.00932, 309, 177, 340, 304
-1.00934, 321, 113, 448, 240
-1.00935, 61, 209, 92, 334
-1.00936, 437, 49, 468, 176
-1.00936, 453, 49, 484, 176
-1.00936, 365, 145, 396, 272
-1.00936, 345, 161, 376, 288
-1.00937, 453, 161, 484, 288
-1.00939, 433, 1, 464, 128
-1.00939, 445, 113, 476, 240
-1.00943, 409, 65, 440, 192
-1.00943, 293, 145, 324, 272
-1.00947, 289, 49, 320, 176
-1.0095, 373, 97, 404, 224
-1.0095, 385, 113, 416, 240
-1.0095, 321, 145, 352, 272
-1.0095, 41, 161, 72, 288
-1.0095, 333, 161, 364, 288
-1.00953, 133, 1, 164, 128
-1.00953, 425, 49, 456, 176
-1.00953, 333, 209, 364, 334
-1.00956, 41, 65, 72, 192
-1.00956, 53, 65, 84, 192
-1.00956, 65, 65, 96, 192
-1.00956, 305, 65, 336, 192
-1.00956, 317, 65, 348, 192
-1.00956, 349, 65, 380, 192
-1.00956, 361, 65, 392, 192
-1.00956, 389, 65, 420, 192
-1.00956, 77, 97, 108, 224
-1.00956, 89, 97, 120, 224
-1.00956, 101, 97, 132, 224
-1.00956, 113, 97, 144, 224
-1.00956, 329, 97, 360, 224
-1.00956, 5, 113, 36, 240
-1.00956, 17, 113, 48, 240
-1.00956, 29, 113, 60, 240
-1.00956, 41, 113, 72, 240
-1.00956, 53, 113, 84, 240
-1.00956, 65, 113, 96, 240
-1.00956, 309, 113, 340, 240
-1.00956, 341, 113, 372, 240
-1.00956, 353, 113, 384, 240
-1.00966, 321, 1, 448, 128
-1.00966, 1, 81, 128, 208
-1.0097, 1, 161, 128, 288
-1.00983, 225, 1, 480, 128
-1.00984, 409, 65, 472, 320
-1.00989, 321, 65, 448, 192
-1.00995, 377, 65, 440, 320
-1.01004, 289, 33, 352, 288
-1.01025, 49, 65, 112, 320
-1.01029, 17, 65, 80, 320
-1.01029, 337, 65, 400, 320
-1.01032, 273, 1, 400, 128
-1.01068, 313, 65, 376, 320
-1.01156, 97, 177, 160, 304
-1.01156, 393, 209, 456, 334
-1.01156, 49, 1, 112, 128
-1.01189, 361, 209, 424, 334
-1.01218, 385, 161, 448, 288
-1.01237, 73, 1, 136, 128
-1.0125, 289, 193, 352, 320
-1.01299, 337, 193, 400, 320
-1.01322, 409, 113, 472, 240
-1.01325, 409, 161, 472, 288
-1.01327, 129, 17, 192, 144
-1.01328, 65, 209, 128, 334
-1.01351, 65, 161, 128, 288
-1.01364, 169, 1, 232, 128
-1.01367, 409, 65, 472, 192
-1.0137, 89, 49, 152, 176
-1.01377, 33, 209, 96, 334
-1.0138, 369, 113, 432, 240
-1.01393, 25, 1, 88, 128
-1.01403, 329, 145, 392, 272
-1.01403, 361, 161, 424, 288
-1.01406, 393, 1, 456, 128
-1.01409, 33, 161, 96, 288
-1.01416, 313, 209, 376, 334
-1.01422, 105, 1, 168, 128
-1.01429, 369, 65, 432, 192
-1.01435, 9, 193, 72, 320
-1.01442, 217, 1, 280, 128
-1.01442, 241, 1, 304, 128
-1.01442, 1, 33, 64, 160
-1.01442, 25, 81, 88, 208
-1.01442, 49, 81, 112, 208
-1.01442, 81, 97, 144, 224
-1.01458, 289, 49, 352, 176
-1.01458, 9, 145, 72, 272
-1.01458, 297, 145, 360, 272
-1.01471, 313, 97, 376, 224
-1.01471, 345, 97, 408, 224
-1.01478, 273, 1, 336, 128
-1.01478, 297, 1, 360, 128
-1.01478, 321, 1, 384, 128
-1.01478, 345, 1, 408, 128
-1.01478, 369, 17, 432, 144
-1.01478, 321, 49, 384, 176
-1.01478, 345, 49, 408, 176
-1.01478, 1, 97, 64, 224
-1.01517, 193, 33, 256, 160
