1942
-0.48159, 1, 129, 500, 375
-0.540719, 1, 1, 500, 375
-0.57953, 225, 1, 480, 375
-0.584879, 65, 1, 320, 375
-0.622396, 1, 33, 500, 288
-0.722767, 161, 129, 416, 375
-0.737739, 65, 97, 320, 352
-0.752728, 257, 129, 500, 375
-0.774969, 225, 1, 480, 256
-0.802512, 65, 1, 320, 256
-0.858191, 177, 1, 304, 375
-0.864262, 193, 129, 320, 375
-0.872379, 177, 33, 304, 288
-0.881316, 257, 129, 384, 375
-0.892458, 225, 1, 352, 256
-0.894682, 241, 1, 368, 375
-0.903015, 1, 209, 500, 336
-0.903746, 145, 129, 272, 375
-0.906675, 321, 65, 448, 320
-0.908981, 113, 1, 240, 375
-0.91218, 129, 33, 256, 288
-0.91708, 161, 177, 416, 304
-0.918051, 369, 129, 496, 375
-0.920208, 289, 1, 416, 375
-0.920713, 337, 1, 464, 375
-0.924198, 1, 161, 500, 288
-0.927769, 273, 33, 400, 288
-0.928968, 257, 225, 500, 352
-0.929014, 249, 145, 312, 272
-0.929054, 257, 145, 500, 272
-0.929869, 257, 145, 384, 272
-0.930999, 193, 145, 320, 272
-0.931855, 273, 129, 336, 256
-0.932673, 97, 113, 352, 240
-0.933128, 65, 1, 192, 375
-0.933221, 369, 33, 496, 288
-0.933327, 97, 129, 224, 375
-0.939109, 177, 97, 304, 224
-0.945212, 257, 193, 384, 320
-0.945907, 1, 113, 500, 240
-0.945938, 1, 1, 128, 375
-0.946164, 1, 49, 500, 176
-0.946673, 65, 49, 320, 176
-0.946685, 65, 1, 320, 128
-0.94705, 65, 33, 192, 288
-0.948325, 161, 65, 416, 192
-0.94852, 145, 49, 272, 176
-0.948907, 281, 145, 344, 208
-0.950366, 225, 97, 352, 224
-0.950629, 65, 161, 320, 288
-0.950976, 193, 193, 320, 320
-0.951077, 225, 1, 480, 128
-0.951745, 145, 1, 272, 128
-0.951956, 297, 161, 360, 288
-0.952346, 353, 241, 480, 368
-0.953072, 129, 225, 384, 352
-0.953717, 257, 137, 320, 200
-0.954378, 257, 193, 320, 320
-0.95494, 257, 169, 320, 232
-0.955404, 209, 161, 272, 288
-0.955799, 145, 145, 272, 272
-0.956062, 49, 129, 176, 375
-0.956252, 1, 65, 128, 320
-0.956554, 225, 49, 352, 176
-0.956682, 249, 97, 312, 224
-0.957441, 145, 193, 272, 320
-0.958138, 401, 241, 464, 368
-0.95915, 297, 113, 360, 240
-0.959556, 1, 209, 256, 336
-0.961819, 289, 177, 352, 240
-0.962246, 209, 49, 272, 176
-0.962363, 225, 97, 288, 224
-0.96359, 257, 217, 320, 280
-0.963892, 273, 97, 400, 224
-0.963962, 193, 1, 320, 128
-0.964035, 277, 129, 308, 256
-0.964618, 321, 161, 384, 288
-0.964623, 233, 217, 296, 280
-0.964745, 257, 97, 500, 224
-0.965332, 337, 177, 464, 304
-0.966079, 233, 153, 296, 216
-0.966352, 169, 49, 232, 176
-0.966643, 233, 209, 296, 336
-0.967147, 209, 1, 272, 128
-0.967446, 265, 241, 328, 304
-0.967459, 1, 1, 500, 128
-0.968243, 177, 241, 304, 368
-0.968458, 353, 225, 416, 352
-0.968472, 209, 185, 272, 248
-0.969032, 241, 193, 304, 256
-0.969123, 289, 241, 416, 368
-0.969303, 185, 193, 248, 320
-0.969487, 393, 249, 456, 312
-0.970439, 377, 241, 440, 368
-0.970748, 225, 153, 352, 216
-0.970921, 285, 137, 316, 200
-0.971084, 209, 153, 272, 216
-0.971217, 433, 225, 496, 288
-0.971621, 129, 97, 256, 224
-0.971734, 313, 153, 376, 216
-0.971747, 241, 249, 304, 312
-0.971766, 425, 241, 488, 368
-0.971848, 257, 49, 320, 176
-0.972132, 169, 97, 232, 224
-0.972198, 305, 225, 368, 288
-0.972805, 193, 185, 320, 248
-0.973047, 265, 145, 296, 272
-0.973156, 209, 209, 272, 272
-0.973459, 193, 113, 256, 240
-0.973499, 241, 177, 368, 240
-0.973531, 249, 129, 312, 375
-0.973667, 369, 249, 432, 312
-0.973873, 225, 129, 288, 192
-0.973972, 261, 161, 292, 224
-0.974012, 169, 1, 232, 128
-0.974648, 257, 209, 384, 272
-0.974752, 321, 225, 384, 352
-0.97488, 265, 193, 328, 256
-0.974952, 257, 113, 320, 176
-0.975235, 289, 129, 320, 256
-0.975522, 337, 129, 464, 256
-0.975695, 177, 137, 304, 200
-0.975741, 161, 209, 224, 336
-0.975832, 249, 161, 280, 288
-0.975833, 273, 145, 304, 208
-0.97584, 169, 97, 232, 160
-0.9759, 277, 177, 308, 240
-0.975912, 177, 209, 304, 272
-0.975932, 385, 177, 448, 304
-0.976058, 169, 145, 232, 272
-0.976108, 209, 9, 272, 72
-0.976115, 257, 49, 500, 176
-0.976178, 265, 217, 296, 280
-0.976198, 209, 105, 272, 168
-0.976245, 273, 129, 336, 375
-0.976569, 209, 33, 272, 96
-0.976884, 345, 161, 408, 288
-0.977026, 209, 81, 272, 144
-0.977061, 169, 65, 232, 128
-0.977148, 345, 249, 408, 312
-0.977283, 297, 121, 360, 184
-0.977332, 433, 193, 496, 320
-0.977403, 145, 105, 272, 168
-0.977443, 241, 1, 368, 128
-0.977593, 329, 225, 392, 288
-0.977687, 177, 161, 304, 224
-0.977782, 377, 1, 440, 128
-0.978186, 281, 217, 344, 280
-0.978539, 97, 209, 224, 336
-0.97864, 209, 57, 272, 120
-0.978699, 169, 121, 232, 184
-0.978991, 321, 249, 384, 312
-0.979156, 145, 81, 272, 144
-0.979176, 225, 129, 352, 192
-0.979293, 313, 129, 376, 375
-0.979463, 185, 217, 248, 280
-0.979597, 281, 225, 344, 352
-0.979631, 293, 161, 324, 224
-0.979787, 337, 249, 464, 312
-0.979844, 313, 145, 344, 208
-0.97985, 257, 233, 384, 296
-0.97991, 209, 209, 272, 336
-0.97997, 169, 153, 232, 216
-0.980084, 433, 289, 496, 352
-0.980108, 145, 33, 272, 96
-0.980267, 169, 41, 232, 104
-0.980272, 265, 193, 296, 320
-0.980409, 169, 9, 232, 72
-0.98042, 97, 49, 224, 176
-0.980569, 145, 57, 272, 120
-0.980763, 249, 1, 312, 128
-0.980804, 225, 97, 352, 160
-0.980848, 409, 273, 472, 336
-0.98091, 385, 225, 448, 288
-0.980924, 261, 81, 292, 208
-0.980953, 145, 9, 272, 72
-0.981142, 273, 137, 400, 200
-0.981176, 337, 113, 400, 240
-0.981365, 273, 241, 304, 304
-0.981405, 297, 137, 328, 200
-0.981407, 301, 161, 332, 288
-0.98142, 321, 177, 384, 240
-0.981634, 193, 233, 320, 296
-0.98166, 209, 65, 272, 320
-0.981673, 169, 177, 232, 240
-0.981954, 253, 225, 284, 288
-0.982093, 233, 33, 296, 288
-0.982108, 277, 177, 308, 304
-0.982209, 217, 249, 280, 312
-0.982315, 281, 65, 344, 192
-0.98254, 297, 249, 360, 312
-0.982565, 321, 145, 352, 272
-0.98262, 193, 129, 256, 192
-0.982849, 113, 209, 176, 336
-0.982862, 241, 241, 368, 368
-0.982974, 1, 97, 256, 224
-0.983037, 257, 65, 320, 128
-0.983052, 145, 185, 272, 248
-0.983108, 289, 225, 320, 288
-0.98327, 321, 33, 448, 160
-0.983296, 305, 201, 368, 264
-0.983438, 289, 169, 416, 232
-0.983569, 333, 145, 364, 272
-0.983579, 301, 113, 332, 240
-0.983751, 97, 161, 224, 288
-0.983847, 337, 225, 464, 288
-0.983859, 249, 185, 280, 248
-0.983875, 185, 241, 248, 368
-0.984001, 233, 105, 296, 168
-0.984019, 277, 217, 308, 280
-0.984152, 257, 89, 320, 152
-0.984155, 417, 249, 448, 312
-0.984185, 261, 193, 292, 256
-0.984227, 233, 49, 296, 176
-0.984246, 261, 249, 292, 312
-0.98435, 193, 57, 320, 120
-0.98443, 461, 297, 492, 360
-0.984482, 425, 241, 456, 368
-0.984729, 409, 193, 472, 320
-0.984807, 169, 33, 232, 288
-0.984873, 337, 153, 400, 216
-0.984951, 249, 1, 312, 64
-0.985076, 325, 169, 356, 232
-0.985087, 337, 201, 464, 264
-0.985087, 161, 201, 224, 264
-0.985176, 353, 225, 416, 288
-0.985317, 365, 249, 396, 312
-0.985322, 161, 233, 224, 296
-0.98535, 241, 209, 272, 272
-0.985422, 193, 33, 320, 96
-0.98545, 245, 97, 276, 224
-0.985501, 145, 233, 272, 296
-0.985576, 97, 1, 224, 128
-0.985615, 409, 225, 472, 288
-0.985656, 49, 209, 176, 336
-0.985672, 429, 257, 460, 320
-0.985677, 469, 209, 500, 336
-0.985839, 289, 177, 320, 304
-0.985858, 381, 249, 412, 312
-0.985915, 245, 153, 276, 216
-0.985979, 369, 1, 496, 128
-0.986022, 437, 241, 468, 368
-0.986056, 193, 1, 320, 64
-0.986095, 397, 241, 428, 368
-0.986196, 341, 193, 372, 320
-0.986386, 249, 129, 280, 192
-0.986399, 393, 249, 424, 312
-0.986473, 249, 249, 280, 312
-0.986536, 369, 273, 496, 336
-0.986555, 213, 161, 244, 288
-0.986618, 129, 49, 192, 176
-0.986657, 369, 81, 496, 208
-0.986772, 353, 129, 416, 375
-0.986873, 369, 225, 400, 352
-0.986917, 161, 265, 224, 328
-0.986945, 281, 81, 312, 208
-0.986975, 289, 33, 352, 288
-0.987011, 257, 33, 320, 288
-0.98707, 241, 57, 368, 120
-0.987104, 137, 241, 200, 368
-0.987297, 321, 113, 384, 176
-0.987306, 345, 233, 376, 296
-0.987414, 249, 25, 312, 88
-0.987514, 261, 129, 292, 192
-0.987557, 369, 1, 432, 64
-0.987598, 197, 209, 228, 336
-0.987702, 253, 209, 284, 336
-0.987719, 249, 1, 312, 375
-0.987727, 129, 129, 256, 192
-0.987734, 457, 225, 488, 352
-0.987764, 413, 241, 444, 368
-0.987783, 381, 241, 412, 368
-0.987797, 441, 273, 472, 336
-0.987954, 337, 177, 464, 240
-0.988104, 345, 177, 408, 240
-0.988185, 417, 97, 480, 160
-0.988299, 129, 265, 192, 328
-0.988305, 213, 193, 244, 256
-0.988406, 129, 209, 256, 272
-0.988412, 313, 233, 344, 296
-0.988413, 257, 169, 320, 200
-0.988513, 225, 1, 288, 375
-0.988559, 193, 129, 224, 256
-0.988577, 405, 249, 436, 312
-0.988608, 377, 129, 440, 375
-0.988628, 333, 145, 364, 208
-0.988636, 261, 105, 292, 168
-0.988649, 257, 145, 320, 176
-0.988728, 409, 185, 472, 248
-0.98879, 1, 225, 128, 352
-0.988803, 357, 225, 388, 352
-0.988839, 433, 249, 496, 312
-0.988862, 417, 225, 448, 288
-0.989007, 193, 249, 256, 312
-0.989027, 213, 49, 244, 176
-0.98917, 409, 129, 472, 375
-0.98935, 289, 313, 352, 375
-0.989362, 301, 241, 332, 304
-0.989411, 265, 157, 328, 188
-0.989436, 289, 161, 352, 192
-0.989555, 337, 153, 464, 216
-0.989587, 305, 177, 336, 240
-0.989595, 377, 25, 440, 88
-0.989612, 281, 177, 344, 208
-0.989635, 233, 273, 296, 336
-0.989735, 385, 97, 448, 224
-0.989767, 241, 33, 368, 96
-0.989841, 241, 33, 272, 160
-0.98986, 393, 89, 456, 152
-0.989906, 313, 193, 344, 320
-0.989939, 193, 185, 224, 248
-0.98994, 433, 193, 496, 256
-0.989987, 129, 161, 256, 224
-0.990018, 385, 253, 448, 284
-0.990038, 249, 189, 312, 220
-0.990102, 281, 145, 344, 176
-0.990143, 425, 145, 488, 272
-0.990166, 321, 97, 352, 224
-0.990168, 257, 257, 384, 320
-0.990177, 289, 189, 352, 220
-0.990186, 169, 129, 232, 375
-0.990204, 237, 193, 268, 320
-0.990217, 241, 1, 368, 64
-0.990238, 129, 73, 192, 136
-0.990244, 337, 209, 368, 272
-0.99025, 357, 225, 388, 288
-0.990278, 145, 265, 272, 328
-0.990288, 345, 17, 408, 144
-0.990414, 129, 129, 192, 256
-0.990427, 213, 97, 244, 224
-0.990453, 213, 89, 244, 152
-0.990476, 213, 1, 244, 128
-0.990478, 197, 1, 228, 128
-0.990488, 193, 49, 224, 176
-0.990516, 213, 113, 244, 176
-0.990543, 257, 225, 320, 256
-0.990577, 241, 237, 304, 268
-0.990614, 409, 57, 472, 120
-0.990624, 233, 65, 296, 128
-0.990628, 265, 237, 328, 268
-0.990668, 289, 201, 320, 264
-0.990719, 305, 173, 368, 204
-0.990728, 233, 169, 296, 200
-0.990737, 301, 113, 332, 176
-0.99075, 197, 105, 228, 168
-0.990776, 225, 225, 480, 288
-0.990781, 241, 97, 272, 160
-0.9908, 345, 253, 408, 284
-0.990806, 209, 213, 272, 244
-0.990807, 49, 65, 176, 192
-0.990813, 201, 197, 264, 228
-0.990851, 209, 185, 272, 216
-0.990855, 213, 145, 244, 208
-0.990892, 193, 289, 320, 352
-0.990905, 241, 73, 272, 136
-0.990922, 137, 193, 200, 320
-0.990944, 213, 169, 244, 232
-0.990994, 249, 201, 312, 232
-0.991047, 297, 1, 360, 375
-0.991057, 201, 1, 264, 375
-0.991195, 241, 249, 304, 280
-0.991214, 333, 233, 364, 296
-0.991221, 233, 153, 296, 184
-0.991256, 353, 1, 480, 64
-0.991269, 257, 133, 320, 164
-0.991275, 209, 165, 272, 196
-0.991318, 401, 265, 464, 296
-0.991334, 213, 57, 244, 120
-0.99134, 217, 229, 280, 260
-0.991347, 169, 1, 232, 375
-0.991354, 409, 33, 472, 160
-0.991371, 209, 1, 272, 32
-0.991403, 329, 193, 360, 320
-0.991433, 289, 133, 352, 164
-0.991439, 209, 13, 272, 44
-0.991444, 209, 133, 272, 164
-0.991444, 197, 1, 228, 64
-0.99145, 169, 117, 232, 148
-0.991453, 169, 105, 232, 136
-0.991462, 209, 37, 272, 68
-0.991484, 217, 249, 280, 280
-0.991504, 469, 233, 500, 296
-0.991509, 209, 25, 272, 56
-0.991513, 233, 137, 296, 168
-0.991527, 433, 73, 496, 136
-0.991537, 197, 153, 228, 216
-0.991543, 209, 117, 272, 148
-0.991543, 289, 113, 416, 176
-0.991551, 381, 33, 412, 160
-0.991584, 209, 93, 272, 124
-0.991606, 169, 89, 232, 120
-0.991652, 209, 49, 272, 80
-0.991666, 129, 129, 192, 192
-0.991673, 209, 145, 272, 176
-0.991677, 169, 69, 232, 100
-0.991693, 433, 241, 496, 272
-0.991698, 169, 129, 232, 160
-0.991704, 209, 105, 272, 136
-0.991708, 313, 249, 376, 280
-0.991715, 209, 61, 272, 92
-0.991722, 213, 33, 244, 96
-0.991723, 305, 229, 368, 260
-0.991737, 305, 149, 368, 180
-0.991738, 197, 49, 228, 112
-0.991761, 393, 193, 424, 320
-0.991763, 273, 249, 336, 280
-0.991795, 265, 213, 328, 244
-0.9918, 197, 129, 228, 192
-0.99181, 169, 1, 232, 32
-0.991816, 209, 81, 272, 112
-0.991846, 1, 209, 64, 336
-0.991875, 169, 173, 232, 204
-0.991892, 257, 1, 288, 64
-0.991892, 313, 185, 376, 216
-0.991901, 169, 189, 232, 220
-0.991902, 377, 1, 440, 375
-0.991908, 197, 25, 228, 88
-0.991909, 169, 205, 232, 236
-0.991925, 357, 177, 388, 304
-0.991929, 169, 161, 232, 192
-0.991941, 129, 97, 192, 160
-0.991945, 81, 113, 208, 240
-0.991953, 321, 41, 448, 104
-0.991956, 233, 217, 296, 248
-0.991984, 169, 145, 232, 176
-0.991997, 169, 53, 232, 84
-0.991999, 257, 313, 384, 375
-0.992001, 97, 65, 224, 128
-0.992001, 429, 233, 460, 296
-0.99201, 161, 193, 416, 256
-0.99202, 225, 201, 288, 232
-0.99202, 197, 209, 228, 272
-0.992022, 433, 253, 496, 284
-0.992042, 377, 49, 440, 176
-0.992044, 169, 13, 232, 44
-0.992052, 169, 37, 232, 68
-0.992064, 241, 33, 272, 96
-0.992077, 185, 221, 248, 252
-0.992102, 169, 25, 232, 56
-0.992148, 273, 265, 336, 328
-0.992155, 237, 145, 268, 272
-0.992186, 329, 169, 392, 200
-0.992191, 345, 1, 408, 375
-0.992195, 185, 233, 248, 264
-0.992205, 345, 241, 408, 272
-0.992216, 433, 313, 496, 375
-0.992239, 297, 97, 360, 160
-0.992248, 197, 81, 228, 144
-0.992294, 277, 149, 308, 180
-0.992305, 81, 225, 208, 288
-0.992326, 425, 293, 488, 324
-0.992338, 81, 265, 208, 328
-0.992356, 281, 225, 344, 256
-0.992359, 301, 149, 332, 180
-0.992359, 225, 249, 480, 312
-0.992375, 385, 1, 416, 64
-0.992382, 265, 169, 296, 200
-0.992393, 1, 81, 128, 208
-0.9924, 313, 137, 376, 168
-0.992401, 409, 277, 472, 308
-0.992409, 345, 33, 408, 288
-0.992416, 213, 9, 244, 72
-0.992429, 433, 49, 496, 176
-0.992443, 297, 173, 328, 204
-0.992453, 257, 97, 320, 128
-0.992463, 249, 1, 312, 32
-0.992468, 289, 249, 320, 312
-0.992473, 445, 233, 476, 296
-0.992486, 161, 217, 224, 248
-0.992497, 425, 217, 488, 248
-0.992502, 153, 265, 216, 296
-0.992509, 417, 193, 448, 320
-0.992509, 121, 233, 184, 296
-0.992513, 369, 9, 432, 40
-0.992516, 97, 105, 224, 168
-0.992517, 325, 121, 356, 184
-0.992518, 321, 213, 384, 244
-0.99252, 337, 185, 400, 216
-0.992552, 281, 321, 344, 352
-0.992556, 269, 237, 300, 268
-0.992567, 225, 149, 352, 180
-0.992598, 233, 185, 264, 248
-0.9926, 229, 209, 260, 272
-0.992605, 281, 189, 312, 220
-0.992607, 257, 121, 320, 152
-0.992614, 185, 345, 248, 375
-0.992618, 289, 141, 320, 172
-0.99262, 433, 49, 496, 112
-0.992624, 305, 201, 368, 232
-0.992627, 385, 45, 448, 76
-0.992653, 433, 309, 496, 340
-0.992678, 313, 165, 344, 196
-0.992687, 297, 333, 360, 364
-0.992696, 269, 225, 300, 256
-0.992712, 241, 1, 272, 64
-0.992732, 433, 81, 496, 112
-0.992737, 465, 273, 496, 336
-0.992747, 257, 85, 320, 116
-0.992752, 249, 17, 312, 48
-0.992754, 289, 161, 320, 192
-0.992756, 25, 225, 88, 352
-0.992768, 121, 265, 184, 296
-0.992771, 393, 329, 456, 360
-0.99278, 257, 233, 288, 264
-0.992791, 261, 157, 292, 188
-0.992793, 425, 69, 488, 100
-0.992795, 429, 193, 460, 320
-0.992799, 417, 253, 448, 284
-0.9928, 153, 345, 216, 375
-0.992805, 185, 209, 216, 336
-0.992807, 277, 173, 308, 204
-0.992808, 297, 185, 328, 216
-0.992829, 377, 241, 440, 272
-0.992839, 313, 261, 376, 292
-0.99284, 289, 225, 320, 352
-0.992846, 249, 37, 312, 68
-0.992849, 425, 265, 488, 296
-0.99285, 369, 249, 400, 280
-0.992858, 409, 253, 472, 284
-0.992864, 249, 57, 312, 88
-0.992867, 345, 201, 408, 264
-0.992868, 329, 157, 392, 188
-0.992869, 257, 109, 320, 140
-0.99288, 461, 305, 492, 336
-0.992885, 233, 101, 296, 132
-0.992891, 233, 289, 296, 320
-0.992894, 193, 253, 256, 284
-0.992897, 337, 97, 368, 224
-0.992921, 401, 65, 464, 96
-0.992923, 425, 57, 488, 88
-0.992931, 469, 237, 500, 268
-0.992937, 249, 161, 280, 192
-0.992937, 381, 253, 412, 284
-0.99294, 321, 341, 384, 372
-0.992946, 357, 253, 388, 284
-0.99295, 409, 85, 472, 116
-0.992952, 241, 305, 304, 368
-0.992955, 257, 73, 320, 104
-0.992964, 249, 149, 280, 180
-0.992966, 425, 97, 488, 128
-0.992976, 273, 1, 336, 375
-0.99298, 429, 265, 460, 296
-0.992991, 97, 41, 224, 104
-0.992997, 281, 237, 312, 268
-0.993001, 245, 181, 276, 212
-0.993006, 245, 213, 276, 244
-0.99301, 353, 337, 416, 368
-0.993019, 433, 129, 496, 375
-0.993028, 385, 117, 448, 148
-0.993029, 325, 185, 356, 216
-0.993034, 377, 29, 440, 60
-0.993034, 289, 261, 352, 292
-0.993043, 321, 81, 448, 208
-0.993052, 393, 253, 424, 284
-0.993068, 261, 249, 292, 280
-0.993071, 277, 201, 308, 232
-0.993071, 233, 125, 296, 156
-0.993074, 329, 229, 392, 260
-0.99308, 257, 137, 288, 168
-0.993081, 325, 173, 356, 204
-0.993092, 209, 341, 272, 372
-0.993097, 345, 17, 408, 80
-0.993102, 405, 253, 436, 284
-0.993104, 385, 97, 448, 128
-0.993106, 337, 201, 400, 232
-0.993108, 273, 249, 304, 280
-0.99311, 129, 277, 192, 308
-0.993112, 241, 245, 272, 276
-0.993127, 193, 257, 320, 320
-0.993127, 409, 109, 472, 140
-0.993137, 225, 169, 480, 232
-0.993139, 213, 217, 244, 248
-0.993152, 245, 193, 276, 224
-0.993156, 409, 197, 472, 228
-0.993161, 345, 249, 376, 280
-0.993166, 153, 253, 216, 284
-0.993168, 245, 229, 276, 260
-0.993172, 209, 217, 240, 280
-0.993173, 273, 201, 336, 232
-0.993181, 269, 213, 300, 244
-0.993185, 337, 269, 400, 300
-0.993187, 261, 201, 292, 232
-0.993187, 257, 221, 288, 252
-0.993192, 333, 157, 364, 188
-0.993192, 345, 217, 408, 248
-0.993193, 257, 185, 288, 216
-0.993195, 405, 193, 436, 320
-0.993199, 409, 237, 472, 268
-0.993202, 281, 225, 312, 256
-0.993203, 213, 209, 244, 336
-0.993203, 229, 193, 260, 224
-0.99321, 257, 341, 320, 372
-0.993213, 257, 1, 288, 128
-0.993226, 313, 189, 344, 220
-0.993228, 213, 205, 244, 236
-0.993238, 293, 229, 324, 260
-0.993239, 305, 137, 336, 168
-0.993246, 213, 193, 244, 224
-0.99325, 449, 81, 480, 112
-0.993253, 213, 173, 244, 204
-0.993259, 241, 121, 272, 152
-0.993275, 213, 149, 244, 180
-0.993275, 213, 161, 244, 192
-0.993277, 449, 289, 480, 320
-0.99328, 385, 113, 448, 176
-0.993282, 313, 153, 344, 184
-0.993283, 337, 169, 368, 200
-0.993284, 213, 113, 244, 144
-0.993284, 193, 221, 224, 252
-0.993284, 213, 125, 244, 156
-0.99329, 213, 137, 244, 168
-0.993291, 393, 41, 424, 72
-0.993291, 241, 105, 272, 136
-0.993293, 229, 233, 260, 264
-0.993303, 369, 57, 496, 120
-0.993304, 197, 1, 228, 32
-0.993305, 301, 249, 332, 280
-0.993309, 213, 101, 244, 132
-0.993314, 229, 253, 260, 284
-0.993316, 193, 205, 224, 236
-0.993324, 197, 117, 228, 148
-0.993325, 197, 17, 228, 48
-0.993326, 197, 157, 228, 188
-0.993329, 197, 29, 228, 60
-0.99333, 197, 173, 228, 204
-0.993331, 289, 249, 320, 280
-0.993332, 357, 241, 388, 272
-0.993332, 469, 293, 500, 324
-0.993333, 317, 137, 348, 168
-0.993334, 241, 93, 272, 124
-0.993334, 213, 49, 244, 80
-0.993334, 213, 89, 244, 120
-0.993335, 197, 57, 228, 88
-0.993335, 197, 133, 228, 164
-0.993337, 193, 105, 224, 136
-0.993338, 257, 1, 288, 32
-0.993345, 437, 277, 468, 308
-0.993346, 229, 233, 260, 296
-0.993348, 261, 101, 292, 132
-0.993351, 197, 45, 228, 76
-0.993352, 197, 145, 228, 176
-0.993352, 197, 189, 228, 220
-0.993353, 441, 253, 472, 284
-0.993357, 213, 65, 244, 96
-0.993363, 213, 1, 244, 32
-0.993364, 241, 57, 272, 88
-0.993369, 213, 13, 244, 44
-0.99337, 193, 93, 224, 124
-0.99337, 213, 77, 244, 108
-0.993374, 213, 25, 244, 56
-0.993376, 461, 65, 492, 96
-0.993381, 193, 69, 224, 100
-0.993382, 313, 249, 344, 280
-0.993382, 269, 189, 300, 220
-0.993384, 213, 37, 244, 68
-0.993385, 241, 133, 272, 164
-0.993387, 193, 81, 224, 112
-0.993387, 461, 81, 492, 112
-0.993388, 437, 89, 468, 120
-0.993394, 373, 45, 404, 76
-0.993396, 241, 1, 272, 32
-0.993402, 241, 45, 272, 76
-0.993412, 241, 25, 272, 56
-0.993419, 145, 65, 208, 320
-0.993419, 165, 261, 196, 292
-0.993421, 241, 13, 272, 44
-0.993422, 329, 145, 360, 176
-0.993433, 345, 145, 376, 272
-0.993434, 341, 221, 372, 252
-0.993437, 233, 205, 264, 236
-0.993441, 97, 17, 224, 80
-0.993442, 153, 265, 184, 328
-0.993446, 277, 137, 308, 168
-0.993448, 333, 249, 364, 280
-0.993451, 381, 241, 412, 272
-0.993452, 241, 81, 272, 112
-0.993457, 469, 225, 500, 256
-0.993462, 313, 177, 344, 208
-0.993464, 469, 249, 500, 280
-0.993464, 401, 325, 432, 356
-0.993465, 429, 253, 460, 284
-0.993471, 345, 181, 376, 212
-0.993473, 241, 69, 272, 100
-0.993475, 385, 1, 416, 32
-0.993507, 97, 233, 352, 296
-0.993517, 313, 121, 344, 184
-0.993555, 337, 169, 368, 232
-0.993626, 385, 65, 448, 128
-0.993636, 405, 225, 436, 288
-0.993652, 33, 161, 160, 288
-0.993674, 129, 129, 384, 192
-0.993684, 161, 209, 192, 336
-0.993686, 465, 209, 496, 272
-0.993714, 283, 145, 298, 208
-0.993726, 381, 177, 412, 304
-0.993739, 97, 185, 224, 248
-0.993824, 193, 165, 320, 196
-0.993832, 275, 145, 290, 208
-0.993916, 261, 65, 292, 128
-0.993917, 369, 297, 496, 360
-0.993935, 449, 297, 480, 360
-0.993981, 193, 313, 320, 375
-0.993983, 57, 209, 120, 336
-0.994029, 369, 177, 400, 304
-0.994039, 177, 149, 304, 180
-0.994084, 337, 253, 464, 284
-0.994119, 369, 113, 496, 176
-0.99413, 225, 145, 480, 208
-0.994145, 393, 1, 424, 128
-0.994158, 305, 81, 432, 144
-0.994174, 225, 89, 480, 152
-0.994174, 65, 65, 320, 128
-0.994182, 295, 137, 310, 200
-0.994197, 257, 201, 500, 264
-0.994203, 225, 177, 352, 208
-0.994241, 275, 217, 290, 280
-0.994267, 267, 217, 282, 280
-0.994274, 409, 81, 472, 208
-0.994279, 241, 189, 368, 220
-0.994353, 177, 137, 304, 168
-0.994367, 193, 189, 320, 220
-0.994377, 345, 129, 408, 192
-0.994392, 257, 25, 288, 88
-0.994452, 193, 201, 320, 232
-0.994467, 401, 1, 464, 375
-0.994479, 369, 185, 432, 248
-0.994492, 437, 89, 468, 152
-0.994492, 65, 209, 320, 272
-0.994503, 433, 1, 496, 375
-0.994516, 169, 313, 232, 375
-0.994524, 369, 33, 496, 96
-0.99453, 113, 289, 240, 352
-0.994571, 193, 233, 224, 296
-0.994644, 1, 241, 500, 304
-0.994657, 257, 161, 384, 192
-0.994673, 285, 169, 300, 232
-0.994705, 297, 65, 360, 128
-0.994711, 273, 49, 400, 176
-0.994721, 65, 1, 320, 64
-0.994748, 129, 169, 384, 232
-0.994787, 257, 273, 500, 336
-0.994841, 65, 105, 320, 168
-0.994844, 457, 65, 488, 128
-0.994875, 65, 137, 192, 200
-0.99489, 229, 161, 260, 224
-0.994904, 281, 225, 296, 288
-0.994906, 393, 25, 424, 88
-0.99492, 65, 25, 320, 88
-0.994928, 129, 1, 192, 128
-0.99493, 149, 209, 180, 336
-0.99493, 321, 313, 384, 375
-0.994933, 393, 313, 456, 375
-0.994934, 289, 145, 304, 208
-0.994936, 301, 137, 316, 200
-0.994937, 129, 209, 192, 272
-0.994965, 49, 225, 112, 288
-0.994982, 225, 9, 480, 72
-0.995024, 177, 217, 304, 248
-0.995041, 145, 121, 272, 152
-0.995066, 321, 1, 384, 375
-0.995068, 1, 225, 128, 288
-0.995079, 97, 233, 160, 296
-0.995095, 369, 89, 496, 152
-0.995121, 261, 217, 276, 280
-0.995125, 281, 113, 312, 176
-0.995157, 373, 33, 404, 96
-0.995167, 269, 161, 284, 224
-0.995176, 225, 65, 480, 128
-0.995184, 193, 297, 256, 360
-0.9952, 145, 109, 272, 140
-0.995254, 89, 209, 152, 336
-0.995259, 381, 225, 412, 288
-0.995268, 185, 273, 248, 336
-0.995279, 33, 249, 160, 312
-0.995299, 257, 229, 384, 260
-0.995311, 241, 201, 368, 232
-0.995313, 177, 177, 304, 208
-0.995314, 225, 137, 352, 168
-0.995314, 361, 49, 424, 112
-0.995356, 145, 93, 272, 124
-0.995391, 279, 193, 294, 256
-0.995398, 321, 305, 448, 368
-0.995401, 1, 217, 500, 280
-0.995437, 303, 169, 318, 232
-0.995437, 173, 265, 204, 328
-0.995441, 291, 177, 306, 240
-0.995457, 369, 225, 400, 288
-0.995465, 161, 289, 224, 352
-0.995481, 433, 1, 496, 128
-0.995506, 145, 65, 272, 96
-0.995589, 173, 225, 204, 352
-0.995591, 389, 49, 420, 112
-0.995592, 329, 241, 360, 368
-0.99564, 305, 1, 432, 64
-0.995649, 145, 45, 272, 76
-0.995653, 341, 241, 372, 368
-0.995684, 349, 257, 380, 320
-0.995703, 145, 29, 272, 60
-0.995703, 145, 81, 272, 112
-0.995715, 441, 193, 472, 320
-0.995721, 389, 1, 404, 64
-0.995725, 257, 217, 384, 248
-0.995781, 275, 169, 290, 232
-0.995792, 145, 17, 272, 48
-0.995804, 261, 273, 292, 336
-0.995805, 145, 1, 272, 32
-0.995816, 393, 225, 424, 288
-0.995835, 373, 1, 404, 64
-0.995863, 225, 113, 480, 176
-0.995875, 385, 249, 400, 312
-0.995879, 177, 229, 304, 260
-0.995883, 261, 193, 276, 256
-0.995908, 385, 161, 448, 224
-0.995921, 145, 1, 208, 375
-0.995927, 225, 125, 352, 156
-0.995947, 301, 225, 332, 352
-0.995956, 273, 177, 400, 208
-0.995973, 273, 149, 400, 180
-0.995975, 377, 137, 440, 200
-0.996, 129, 49, 192, 112
-0.996019, 257, 241, 384, 272
-0.996034, 277, 313, 308, 375
-0.996044, 145, 193, 272, 224
-0.99606, 273, 241, 288, 304
-0.996067, 121, 1, 184, 375
-0.996082, 377, 249, 392, 312
-0.996089, 121, 129, 184, 375
-0.996098, 293, 217, 308, 280
-0.996138, 287, 241, 302, 304
-0.996158, 225, 101, 352, 132
-0.996158, 261, 249, 276, 312
-0.996214, 1, 313, 128, 375
-0.996223, 337, 161, 352, 224
-0.996243, 225, 33, 480, 96
-0.996247, 307, 145, 322, 208
-0.99628, 313, 33, 376, 288
-0.996281, 129, 313, 256, 375
-0.996286, 261, 137, 276, 200
-0.996292, 145, 165, 272, 196
-0.996294, 261, 169, 276, 232
-0.996309, 431, 249, 446, 312
-0.996324, 89, 1, 152, 375
-0.996325, 287, 217, 302, 280
-0.996326, 301, 65, 332, 192
-0.996328, 145, 205, 272, 236
-0.996335, 255, 225, 270, 288
-0.996336, 225, 113, 352, 144
-0.996348, 209, 249, 336, 280
-0.996353, 305, 65, 368, 192
-0.996376, 267, 193, 282, 256
-0.996389, 353, 265, 480, 296
-0.996418, 25, 233, 88, 296
-0.996453, 395, 249, 410, 312
-0.996464, 463, 297, 478, 360
-0.996468, 289, 253, 416, 284
-0.996481, 165, 233, 196, 296
-0.996497, 273, 193, 288, 256
-0.996513, 485, 233, 500, 296
-0.996514, 233, 257, 264, 320
-0.996524, 33, 1, 96, 375
-0.996537, 433, 209, 464, 272
-0.99654, 267, 249, 282, 312
-0.996562, 409, 33, 472, 288
-0.996568, 371, 249, 386, 312
-0.99657, 369, 33, 432, 288
-0.996579, 225, 193, 256, 320
-0.996585, 289, 137, 416, 168
-0.996592, 437, 257, 452, 320
-0.996597, 453, 265, 484, 328
-0.996646, 357, 233, 372, 296
-0.996652, 281, 249, 296, 312
-0.996653, 233, 81, 264, 208
-0.996669, 327, 153, 342, 216
-0.996682, 249, 185, 264, 248
-0.996697, 229, 241, 260, 368
-0.996699, 153, 65, 184, 192
-0.996741, 421, 249, 436, 312
-0.996775, 225, 89, 352, 120
-0.996799, 193, 1, 320, 32
-0.996813, 317, 145, 332, 208
-0.996819, 281, 289, 344, 352
-0.996848, 403, 249, 418, 312
-0.996851, 363, 249, 378, 312
-0.996853, 33, 89, 160, 152
-0.99686, 325, 97, 356, 160
-0.996866, 309, 177, 324, 240
-0.996867, 9, 1, 72, 375
-0.996888, 193, 57, 320, 88
-0.996889, 311, 241, 326, 304
-0.99689, 449, 89, 480, 152
-0.996892, 281, 129, 312, 375
-0.996902, 425, 49, 456, 176
-0.996911, 439, 233, 454, 296
-0.996916, 193, 77, 320, 108
-0.996917, 217, 249, 248, 312
-0.99692, 313, 209, 344, 272
-0.996922, 137, 289, 200, 352
-0.996934, 275, 153, 290, 184
-0.996935, 255, 249, 270, 312
-0.996938, 1, 161, 500, 224
-0.996939, 257, 241, 320, 368
-0.996939, 193, 45, 320, 76
-0.996966, 405, 1, 436, 128
-0.996976, 469, 161, 500, 288
-0.996978, 255, 185, 270, 248
-0.996986, 1, 313, 64, 375
-0.996994, 409, 249, 424, 312
-0.997007, 455, 281, 470, 344
-0.997008, 351, 233, 366, 296
-0.997017, 277, 225, 308, 352
-0.997036, 405, 89, 436, 152
-0.997066, 383, 9, 398, 72
-0.997067, 297, 161, 312, 224
-0.99707, 257, 97, 288, 352
-0.997091, 193, 13, 320, 44
-0.997091, 193, 25, 320, 56
-0.997092, 237, 121, 268, 184
-0.997104, 265, 313, 328, 375
-0.997109, 433, 225, 448, 288
-0.99711, 209, 273, 272, 336
-0.997118, 425, 89, 456, 152
-0.997121, 1, 185, 500, 248
-0.997124, 249, 209, 264, 272
-0.997126, 273, 289, 400, 352
-0.997139, 285, 193, 300, 256
-0.997162, 337, 205, 464, 236
-0.997169, 387, 33, 402, 96
-0.997192, 337, 105, 368, 168
-0.997192, 453, 193, 484, 256
-0.997196, 337, 189, 464, 220
-0.997215, 305, 249, 320, 312
-0.997221, 473, 305, 488, 368
-0.997232, 145, 265, 272, 296
-0.997249, 443, 265, 458, 328
-0.997261, 415, 249, 430, 312
-0.997262, 245, 97, 276, 352
-0.997266, 1, 265, 256, 328
-0.997275, 337, 237, 464, 268
-0.997287, 161, 313, 416, 375
-0.997289, 17, 289, 80, 352
-0.997293, 409, 1, 472, 64
-0.997297, 57, 1, 120, 375
-0.997301, 137, 209, 168, 336
-0.997309, 173, 177, 204, 304
-0.997345, 425, 225, 440, 288
-0.997354, 129, 133, 256, 164
-0.997368, 261, 229, 276, 260
-0.99739, 209, 217, 224, 280
-0.997397, 305, 161, 432, 192
-0.997405, 321, 313, 352, 375
-0.997422, 25, 313, 88, 375
-0.997423, 261, 89, 276, 152
-0.997435, 305, 145, 320, 176
-0.997436, 315, 185, 330, 248
-0.997438, 293, 129, 324, 375
-0.997441, 325, 121, 340, 184
-0.997442, 289, 201, 416, 232
-0.997442, 269, 157, 284, 188
-0.997475, 1, 233, 256, 296
-0.99748, 241, 61, 368, 92
-0.997486, 349, 177, 380, 240
-0.997487, 97, 289, 352, 352
-0.997491, 479, 305, 494, 368
-0.997497, 129, 257, 384, 320
-0.997505, 365, 225, 380, 288
-0.997508, 253, 33, 268, 96
-0.997509, 33, 1, 160, 128
-0.99751, 253, 161, 268, 224
-0.997517, 253, 81, 268, 144
-0.997522, 329, 185, 344, 248
-0.997524, 289, 177, 304, 208
-0.997535, 49, 201, 176, 264
-0.997541, 261, 57, 276, 120
-0.99756, 65, 313, 192, 375
-0.997564, 469, 281, 484, 344
-0.997574, 301, 169, 316, 200
-0.997578, 253, 9, 268, 72
-0.997585, 357, 209, 372, 272
-0.997588, 225, 345, 352, 375
-0.997594, 485, 305, 500, 368
-0.997605, 269, 129, 300, 375
-0.997608, 325, 129, 356, 375
-0.997612, 353, 277, 480, 308
-0.997627, 209, 193, 224, 256
-0.997632, 241, 77, 368, 108
-0.997641, 295, 141, 310, 172
-0.997658, 321, 217, 448, 248
-0.99766, 477, 225, 492, 288
-0.997661, 267, 169, 282, 200
-0.997665, 121, 33, 184, 288
-0.997666, 253, 57, 268, 120
-0.997675, 209, 97, 224, 160
-0.997679, 433, 161, 496, 224
-0.99769, 209, 169, 224, 232
-0.997697, 253, 105, 268, 168
-0.99771, 73, 233, 136, 296
-0.997715, 113, 217, 240, 248
-0.997718, 17, 145, 80, 272
-0.997719, 271, 217, 286, 248
-0.997722, 285, 229, 300, 260
-0.997727, 289, 189, 416, 220
-0.997728, 281, 149, 296, 180
-0.99773, 261, 1, 276, 64
-0.997731, 465, 49, 496, 176
-0.997735, 385, 113, 416, 240
-0.997745, 319, 225, 334, 288
-0.997746, 267, 233, 282, 264
-0.997748, 369, 293, 496, 324
-0.997758, 309, 121, 324, 184
-0.99776, 297, 185, 312, 248
-0.997765, 145, 25, 208, 88
-0.997765, 337, 137, 352, 200
-0.997767, 445, 241, 460, 304
-0.997768, 345, 313, 408, 375
-0.997776, 247, 249, 262, 312
-0.997781, 389, 121, 420, 184
-0.997793, 433, 257, 448, 288
-0.997797, 485, 237, 500, 268
-0.997805, 331, 129, 346, 192
-0.997814, 333, 249, 348, 312
-0.997817, 17, 289, 144, 352
-0.997824, 393, 25, 408, 88
-0.997824, 257, 297, 500, 360
-0.997833, 209, 25, 224, 88
-0.99784, 345, 233, 360, 296
-0.997851, 113, 345, 240, 375
-0.99786, 129, 145, 256, 176
-0.997879, 293, 241, 308, 304
-0.997887, 337, 129, 368, 375
-0.997895, 169, 265, 184, 328
-0.997909, 265, 217, 280, 248
-0.997911, 409, 161, 472, 224
-0.997919, 317, 241, 348, 368
-0.997919, 323, 185, 338, 248
-0.99792, 129, 181, 256, 212
-0.997921, 209, 65, 224, 128
-0.997921, 153, 129, 184, 256
-0.997922, 445, 65, 476, 128
-0.997924, 185, 209, 216, 272
-0.997925, 483, 281, 498, 344
-0.997929, 261, 113, 276, 176
-0.997931, 285, 121, 300, 184
-0.997936, 387, 225, 402, 288
-0.997938, 475, 281, 490, 344
-0.99794, 449, 273, 464, 336
-0.997943, 273, 237, 288, 268
-0.997955, 337, 257, 368, 320
-0.997957, 1, 289, 500, 352
-0.997957, 209, 1, 224, 64
-0.997957, 209, 145, 224, 208
-0.997958, 9, 81, 72, 208
-0.997958, 419, 225, 434, 288
-0.997968, 277, 169, 292, 200
-0.997973, 261, 33, 276, 96
-0.997991, 209, 121, 224, 184
-0.998008, 273, 321, 400, 352
-0.99801, 1, 97, 64, 352
-0.998022, 261, 153, 276, 184
-0.998031, 33, 1, 160, 64
-0.998035, 345, 65, 408, 192
-0.99804, 439, 265, 454, 296
-0.998042, 383, 249, 398, 280
-0.998043, 375, 225, 390, 288
-0.998052, 199, 201, 214, 264
-0.998061, 161, 245, 288, 276
-0.998065, 283, 173, 298, 204
-0.998066, 321, 177, 448, 208
-0.998072, 351, 209, 366, 272
-0.998073, 345, 145, 376, 208
-0.998078, 309, 217, 324, 280
-0.998084, 241, 49, 368, 80
-0.998094, 241, 1, 368, 32
-0.998095, 463, 273, 478, 336
-0.998096, 405, 97, 436, 224
-0.9981, 389, 1, 404, 32
-0.9981, 261, 169, 276, 200
-0.998105, 299, 209, 314, 272
-0.998107, 305, 341, 432, 372
-0.998121, 255, 137, 270, 200
-0.998128, 279, 229, 294, 260
-0.998132, 49, 65, 176, 128
-0.998136, 225, 333, 352, 364
-0.998143, 335, 225, 350, 288
-0.998145, 49, 225, 80, 352
-0.998149, 299, 233, 314, 296
-0.998153, 295, 161, 310, 192
-0.99816, 49, 113, 176, 176
-0.998168, 393, 49, 408, 112
-0.998177, 465, 301, 480, 332
-0.998177, 241, 249, 256, 312
-0.99818, 285, 313, 300, 375
-0.998181, 307, 173, 322, 204
-0.998181, 369, 329, 496, 360
-0.998187, 233, 249, 248, 312
-0.998193, 369, 49, 496, 80
-0.998197, 399, 253, 414, 284
-0.9982, 241, 261, 368, 292
-0.998204, 395, 225, 410, 288
-0.998207, 377, 253, 392, 284
-0.998214, 305, 157, 320, 188
-0.998216, 389, 129, 420, 375
-0.998217, 261, 249, 276, 280
-0.998219, 203, 225, 218, 288
-0.99822, 371, 253, 386, 284
-0.998221, 1, 289, 256, 352
-0.998225, 333, 105, 348, 168
-0.998226, 485, 249, 500, 280
-0.998232, 89, 209, 152, 272
-0.998233, 175, 265, 190, 328
-0.998233, 257, 213, 272, 244
-0.998242, 353, 37, 480, 68
-0.998243, 129, 233, 256, 264
-0.998252, 405, 253, 420, 284
-0.998253, 311, 145, 326, 176
-0.998255, 359, 253, 374, 284
-0.998266, 283, 189, 298, 220
-0.998267, 427, 253, 442, 284
-0.998268, 287, 145, 302, 176
-0.998276, 469, 65, 500, 128
-0.998278, 401, 25, 464, 88
-0.998279, 1, 265, 500, 328
-0.998281, 301, 201, 332, 264
-0.998289, 1, 137, 256, 200
-0.998291, 241, 241, 272, 368
-0.998297, 185, 265, 216, 328
-0.998297, 353, 1, 480, 32
-0.998303, 337, 169, 352, 200
-0.998307, 389, 253, 404, 284
-0.998308, 33, 161, 288, 224
-0.998313, 241, 37, 368, 68
-0.998314, 197, 191, 228, 206
-0.998314, 193, 89, 224, 104
-0.998314, 313, 189, 344, 204
-0.998314, 213, 65, 244, 320
-0.998315, 213, 43, 244, 58
-0.998315, 213, 87, 244, 102
-0.998315, 213, 37, 244, 52
-0.998315, 213, 93, 244, 108
-0.998316, 197, 141, 228, 156
-0.998316, 261, 185, 292, 200
-0.998316, 193, 147, 224, 162
-0.998317, 241, 99, 272, 114
-0.998317, 213, 65, 244, 80
-0.998317, 213, 75, 244, 90
-0.998318, 421, 253, 436, 284
-0.998318, 213, 57, 244, 72
-0.998318, 249, 203, 280, 218
-0.998318, 241, 1, 272, 16
-0.998318, 241, 63, 272, 78
-0.998319, 197, 101, 228, 116
-0.998319, 381, 253, 412, 268
-0.998319, 213, 49, 244, 64
-0.998319, 161, 267, 192, 282
-0.99832, 197, 57, 228, 72
-0.99832, 213, 13, 244, 28
-0.99832, 229, 197, 260, 212
-0.99832, 385, 39, 416, 54
-0.998321, 213, 5, 244, 20
-0.998321, 25, 225, 56, 352
-0.998321, 241, 55, 272, 70
-0.998321, 213, 29, 244, 44
-0.998321, 241, 143, 272, 158
-0.998321, 213, 117, 244, 132
-0.998321, 257, 237, 288, 252
-0.998321, 197, 43, 228, 58
-0.998322, 193, 115, 224, 130
-0.998323, 213, 111, 244, 126
-0.998323, 197, 33, 228, 48
-0.998323, 213, 143, 244, 158
-0.998323, 197, 163, 228, 178
-0.998323, 377, 49, 408, 64
-0.998323, 197, 205, 228, 220
-0.998324, 193, 133, 224, 148
-0.998324, 333, 165, 364, 180
-0.998324, 197, 179, 228, 194
-0.998324, 197, 197, 228, 212
-0.998325, 197, 49, 228, 64
-0.998325, 389, 55, 420, 70
-0.998325, 241, 113, 272, 128
-0.998325, 197, 15, 228, 30
-0.998326, 213, 99, 244, 114
-0.998327, 197, 169, 228, 184
-0.998327, 321, 165, 352, 180
-0.998327, 197, 107, 228, 122
-0.998327, 197, 121, 228, 136
-0.998328, 213, 151, 244, 166
-0.998328, 197, 7, 228, 22
-0.998328, 197, 23, 228, 38
-0.998329, 197, 127, 228, 142
-0.99833, 261, 201, 292, 216
-0.99833, 293, 237, 324, 252
-0.99833, 241, 107, 272, 122
-0.998331, 241, 137, 272, 152
-0.998331, 261, 251, 292, 266
-0.998331, 469, 237, 500, 252
-0.998331, 293, 189, 308, 220
-0.998331, 213, 105, 244, 120
-0.998332, 197, 1, 228, 16
-0.998332, 213, 123, 244, 138
-0.998333, 241, 129, 272, 144
-0.998334, 193, 65, 224, 320
-0.998335, 277, 217, 292, 248
-0.998335, 213, 133, 244, 148
-0.998337, 273, 251, 304, 266
-0.998338, 213, 165, 244, 180
-0.998339, 213, 187, 244, 202
-0.99834, 241, 119, 272, 134
-0.99834, 469, 253, 500, 268
-0.998341, 317, 153, 348, 168
-0.998341, 193, 215, 224, 230
-0.998341, 213, 157, 244, 172
-0.998342, 249, 217, 280, 232
-0.998343, 145, 313, 208, 375
-0.998344, 333, 173, 364, 188
-0.998344, 267, 249, 282, 280
-0.998344, 213, 171, 244, 186
-0.998346, 213, 177, 244, 192
-0.998346, 233, 203, 264, 218
-0.998347, 389, 47, 420, 62
-0.998348, 213, 193, 244, 208
-0.998349, 277, 179, 308, 194
-0.99835, 291, 217, 306, 248
-0.99835, 309, 167, 340, 182
-0.998352, 285, 249, 300, 280
-0.998352, 213, 199, 244, 214
-0.998355, 261, 193, 292, 208
-0.998356, 377, 129, 408, 375
-0.998356, 349, 253, 380, 268
-0.998356, 213, 209, 244, 224
-0.998358, 241, 21, 368, 52
-0.998358, 265, 205, 280, 236
-0.998359, 245, 225, 276, 240
-0.998359, 429, 275, 460, 290
-0.998359, 255, 229, 270, 260
-0.99836, 213, 219, 244, 234
-0.998362, 333, 181, 364, 196
-0.998364, 245, 187, 276, 202
-0.998365, 325, 193, 356, 256
-0.998367, 411, 253, 426, 284
-0.998372, 353, 249, 368, 280
-0.998373, 261, 143, 292, 158
-0.998375, 313, 175, 344, 190
-0.998377, 469, 243, 500, 258
-0.998378, 369, 253, 400, 268
-0.99838, 245, 161, 276, 176
-0.99838, 297, 191, 328, 206
-0.998381, 329, 169, 344, 200
-0.998389, 289, 243, 320, 258
-0.998391, 261, 155, 292, 170
-0.998392, 479, 241, 494, 272
-0.998392, 471, 309, 486, 340
-0.998395, 325, 187, 356, 202
-0.998396, 1, 201, 128, 264
-0.998399, 277, 201, 308, 216
-0.9984, 261, 231, 292, 246
-0.9984, 181, 233, 212, 296
-0.998401, 281, 185, 312, 200
-0.998402, 289, 141, 320, 156
-0.998407, 365, 253, 380, 284
-0.998408, 257, 149, 288, 164
-0.998409, 249, 155, 280, 170
-0.998412, 313, 181, 344, 196
-0.998413, 305, 265, 432, 296
-0.998414, 245, 193, 276, 208
-0.998416, 417, 255, 448, 270
-0.998419, 301, 161, 332, 176
-0.998419, 277, 249, 292, 280
-0.998422, 425, 265, 456, 280
-0.998423, 461, 309, 492, 324
-0.998425, 97, 77, 224, 108
-0.998426, 257, 173, 320, 188
-0.99843, 269, 161, 300, 176
-0.998432, 173, 65, 204, 192
-0.998435, 265, 147, 328, 162
-0.998437, 327, 157, 342, 188
-0.998441, 305, 149, 336, 164
-0.998441, 257, 161, 288, 176
-0.998443, 269, 237, 300, 252
-0.998451, 481, 313, 496, 344
-0.998454, 249, 231, 280, 246
-0.998455, 255, 181, 270, 212
-0.998457, 281, 191, 312, 206
-0.998457, 387, 45, 402, 76
-0.998463, 265, 225, 296, 240
-0.998464, 285, 165, 316, 180
-0.998465, 393, 37, 408, 68
-0.998468, 305, 105, 432, 136
-0.998471, 129, 1, 192, 64
-0.998479, 293, 177, 324, 192
-0.998484, 369, 221, 496, 252
-0.998485, 277, 153, 308, 168
-0.998489, 459, 293, 474, 324
-0.998492, 281, 179, 344, 194
-0.998494, 321, 49, 448, 80
-0.998494, 161, 345, 288, 375
-0.998497, 405, 129, 436, 375
-0.998502, 177, 293, 304, 324
-0.998502, 249, 167, 280, 182
-0.998503, 289, 187, 352, 202
-0.998505, 321, 153, 336, 184
-0.998507, 265, 157, 328, 172
-0.998508, 295, 229, 310, 260
-0.99851, 257, 167, 320, 182
-0.998513, 297, 185, 328, 200
-0.998514, 281, 169, 344, 184
-0.998518, 301, 133, 316, 164
-0.998527, 153, 73, 184, 136
-0.998529, 249, 185, 264, 216
-0.998531, 305, 177, 368, 192
-0.998531, 301, 155, 332, 170
-0.998534, 289, 129, 304, 256
-0.998535, 257, 179, 320, 194
-0.998536, 255, 249, 270, 280
-0.998541, 289, 171, 320, 186
-0.998547, 445, 269, 460, 300
-0.998548, 283, 129, 298, 256
-0.998549, 249, 187, 312, 202
-0.998551, 369, 121, 496, 152
-0.998551, 289, 163, 352, 178
-0.998556, 241, 193, 304, 208
-0.998561, 265, 171, 296, 186
-0.998561, 297, 153, 360, 168
-0.998563, 257, 1, 288, 256
-0.998566, 473, 297, 488, 328
-0.998567, 385, 255, 448, 270
-0.998568, 261, 101, 276, 132
-0.99857, 393, 265, 456, 280
-0.998571, 281, 243, 344, 258
-0.998571, 285, 147, 316, 162
-0.998575, 397, 49, 428, 176
-0.998575, 257, 141, 320, 156
-0.998579, 209, 209, 272, 224
-0.998581, 209, 203, 272, 218
-0.998581, 209, 191, 272, 206
-0.998581, 329, 185, 344, 216
-0.998582, 309, 129, 340, 375
-0.998585, 241, 237, 304, 252
-0.998586, 305, 171, 368, 186
-0.998588, 327, 141, 342, 172
-0.998589, 313, 183, 376, 198
-0.998591, 201, 197, 264, 212
-0.998591, 209, 185, 272, 200
-0.998592, 209, 1, 272, 16
-0.998594, 233, 169, 296, 184
-0.998594, 225, 153, 288, 168
-0.998596, 241, 199, 304, 214
-0.998602, 209, 215, 272, 230
-0.998603, 289, 193, 352, 208
-0.998605, 209, 11, 272, 26
-0.998606, 233, 145, 296, 160
-0.998608, 217, 227, 280, 242
-0.998609, 275, 201, 290, 232
-0.998609, 257, 225, 320, 240
-0.998609, 289, 147, 352, 162
-0.99861, 169, 131, 232, 146
-0.99861, 345, 253, 408, 268
-0.998611, 225, 163, 288, 178
-0.998611, 209, 147, 272, 162
-0.998613, 209, 17, 272, 32
-0.998618, 169, 123, 232, 138
-0.998618, 209, 37, 272, 52
-0.99862, 209, 23, 272, 38
-0.998621, 209, 45, 272, 60
-0.998621, 209, 31, 272, 46
-0.998621, 209, 51, 272, 66
-0.998622, 169, 111, 232, 126
-0.998622, 209, 221, 272, 236
-0.998623, 369, 305, 496, 336
-0.998623, 209, 123, 272, 138
-0.998624, 401, 275, 464, 290
-0.998625, 169, 95, 232, 110
-0.998625, 1, 137, 500, 200
-0.998625, 209, 117, 272, 132
-0.998625, 169, 103, 232, 118
-0.998626, 209, 133, 272, 148
-0.998626, 209, 179, 272, 194
-0.998626, 169, 117, 232, 132
-0.998626, 209, 109, 272, 124
-0.998627, 257, 243, 320, 258
-0.998628, 251, 213, 266, 244
-0.99863, 209, 101, 272, 116
-0.99863, 235, 253, 250, 284
-0.99863, 169, 89, 232, 104
-0.99863, 209, 139, 272, 154
-0.998631, 1, 89, 500, 152
-0.998632, 281, 249, 344, 264
-0.998635, 249, 205, 312, 220
-0.998635, 209, 57, 272, 72
-0.998636, 209, 169, 272, 184
-0.998637, 257, 251, 320, 266
-0.998637, 209, 63, 272, 78
-0.998637, 169, 137, 232, 152
-0.998638, 291, 241, 306, 272
-0.998638, 169, 5, 232, 20
-0.998638, 281, 237, 344, 252
-0.998641, 281, 141, 344, 156
-0.998642, 169, 81, 232, 96
-0.998642, 169, 11, 232, 26
-0.998643, 169, 75, 232, 90
-0.998643, 313, 189, 376, 204
-0.998644, 305, 243, 368, 258
-0.998645, 209, 69, 272, 84
-0.998647, 335, 157, 350, 188
-0.998647, 169, 205, 232, 220
-0.998648, 169, 173, 232, 188
-0.998648, 169, 181, 232, 196
-0.998648, 311, 157, 326, 188
-0.998648, 209, 87, 272, 102
-0.998648, 265, 193, 328, 208
-0.998649, 169, 193, 232, 208
-0.998649, 169, 51, 232, 66
-0.99865, 209, 95, 272, 110
-0.99865, 217, 245, 280, 260
-0.99865, 169, 57, 232, 72
-0.99865, 433, 255, 496, 270
-0.998651, 169, 145, 232, 160
-0.998651, 169, 187, 232, 202
-0.998652, 233, 217, 296, 232
-0.998652, 209, 79, 272, 94
-0.998652, 169, 199, 232, 214
-0.998653, 217, 233, 280, 248
-0.998654, 169, 155, 232, 170
-0.998654, 383, 1, 398, 32
-0.998654, 169, 167, 232, 182
-0.998655, 169, 17, 232, 32
-0.998655, 241, 231, 304, 246
-0.998655, 153, 267, 216, 282
-0.998656, 169, 161, 232, 176
-0.998657, 169, 45, 232, 60
-0.998657, 169, 217, 232, 232
-0.998657, 169, 211, 232, 226
-0.998658, 225, 251, 288, 266
-0.998659, 193, 161, 256, 176
-0.998659, 169, 39, 232, 54
-0.998661, 361, 237, 376, 268
-0.998661, 249, 211, 312, 226
-0.998662, 169, 69, 232, 84
-0.998662, 193, 155, 256, 170
-0.998663, 169, 23, 232, 38
-0.998664, 321, 159, 384, 174
-0.998665, 97, 65, 160, 320
-0.998666, 169, 29, 232, 44
-0.998666, 321, 253, 384, 268
-0.998668, 81, 253, 208, 284
-0.998668, 169, 63, 232, 78
-0.998669, 433, 271, 496, 286
-0.998673, 433, 309, 496, 324
-0.998675, 305, 235, 368, 250
-0.998677, 337, 179, 400, 194
-0.998678, 265, 231, 328, 246
-0.998679, 185, 223, 248, 238
-0.998681, 233, 175, 296, 190
-0.998682, 255, 161, 270, 192
-0.998684, 249, 1, 312, 16
-0.998684, 257, 103, 320, 118
-0.998685, 305, 141, 368, 156
-0.998685, 257, 135, 320, 150
-0.998686, 321, 165, 384, 180
-0.998686, 253, 93, 268, 124
-0.998687, 209, 225, 224, 256
-0.998689, 377, 49, 440, 64
-0.998689, 253, 45, 268, 76
-0.99869, 185, 233, 248, 248
-0.99869, 97, 265, 224, 296
-0.998692, 337, 187, 400, 202
-0.998697, 245, 1, 276, 256
-0.998699, 253, 13, 268, 44
-0.998699, 1, 233, 64, 296
-0.9987, 209, 205, 224, 236
-0.998704, 253, 29, 268, 60
-0.998716, 257, 201, 272, 232
-0.998722, 253, 109, 268, 140
-0.998724, 97, 49, 224, 80
-0.998726, 383, 33, 398, 64
-0.998728, 313, 181, 328, 212
-0.998732, 277, 129, 292, 256
-0.998734, 481, 297, 496, 328
-0.998734, 299, 129, 314, 256
-0.998735, 233, 65, 264, 320
-0.998738, 281, 137, 296, 168
-0.998739, 469, 129, 500, 375
-0.998746, 271, 145, 286, 272
-0.998746, 209, 1, 224, 32
-0.998748, 253, 57, 268, 88
-0.998748, 449, 89, 464, 120
-0.998749, 97, 137, 160, 200
-0.998756, 249, 201, 264, 232
-0.998757, 141, 257, 172, 320
-0.998757, 65, 221, 192, 252
-0.998765, 393, 53, 408, 84
-0.998766, 389, 21, 404, 52
-0.998767, 421, 185, 452, 248
-0.998772, 465, 289, 480, 320
-0.998773, 253, 1, 268, 32
-0.998774, 349, 129, 380, 375
-0.998777, 451, 281, 466, 312
-0.998778, 475, 65, 490, 96
-0.998779, 193, 269, 320, 300
-0.99878, 417, 1, 448, 128
-0.998781, 309, 133, 324, 164
-0.998781, 369, 69, 496, 100
-0.998785, 209, 93, 224, 124
-0.998787, 335, 181, 350, 212
-0.998787, 97, 121, 224, 152
-0.998788, 97, 109, 224, 140
-0.998788, 209, 113, 224, 144
-0.998789, 209, 141, 224, 172
-0.99879, 469, 69, 484, 100
-0.998791, 433, 57, 464, 120
-0.998794, 97, 97, 224, 128
-0.998797, 357, 213, 372, 244
-0.998798, 369, 105, 496, 136
-0.9988, 253, 121, 268, 152
-0.998804, 193, 321, 320, 352
-0.998804, 145, 169, 208, 232
-0.998806, 289, 125, 416, 156
-0.998807, 281, 33, 312, 288
-0.998807, 337, 89, 400, 152
-0.998811, 475, 229, 490, 260
-0.998813, 209, 153, 224, 184
-0.998814, 97, 65, 224, 96
-0.998814, 483, 61, 498, 92
-0.998814, 315, 249, 330, 280
-0.998817, 287, 133, 302, 164
-0.998817, 285, 161, 300, 192
-0.998819, 321, 137, 336, 168
-0.998823, 253, 81, 268, 112
-0.998826, 97, 205, 224, 236
-0.998827, 299, 185, 314, 216
-0.99883, 307, 249, 322, 280
-0.998832, 209, 25, 224, 56
-0.998834, 241, 253, 256, 284
-0.998836, 97, 25, 224, 56
-0.998839, 347, 249, 362, 280
-0.99884, 209, 13, 224, 44
-0.998841, 33, 185, 288, 248
-0.998842, 209, 125, 224, 156
-0.998847, 261, 141, 276, 172
-0.998848, 209, 37, 224, 68
-0.998849, 337, 149, 464, 180
-0.99885, 209, 189, 224, 220
-0.998851, 261, 161, 276, 288
-0.99886, 401, 313, 432, 375
-0.998863, 25, 65, 88, 320
-0.998868, 89, 81, 152, 208
-0.998874, 369, 177, 496, 208
-0.99888, 177, 333, 304, 364
-0.998897, 369, 313, 432, 375
-0.998906, 97, 9, 224, 40
-0.998907, 289, 37, 416, 68
-0.998908, 417, 65, 448, 128
-0.99891, 173, 105, 204, 168
-0.998914, 305, 1, 432, 32
-0.998916, 145, 277, 272, 308
-0.998925, 97, 37, 224, 68
-0.998949, 81, 277, 208, 308
-0.998949, 361, 113, 424, 240
-0.998968, 49, 81, 112, 208
-0.999003, 271, 193, 286, 320
-0.999022, 353, 165, 480, 196
-0.99903, 81, 233, 208, 264
-0.99903, 301, 33, 332, 288
-0.999043, 97, 193, 224, 224
-0.999053, 445, 65, 476, 192
-0.999059, 193, 305, 320, 336
-0.999071, 421, 97, 452, 224
-0.999072, 329, 33, 360, 288
-0.999082, 361, 129, 392, 375
-0.999094, 353, 341, 480, 372
-0.9991, 291, 177, 306, 304
-0.999103, 13, 209, 44, 336
-0.999121, 353, 25, 480, 56
-0.99913, 1, 113, 500, 176
-0.999133, 485, 241, 500, 368
-0.999133, 113, 289, 240, 320
-0.999138, 105, 257, 168, 320
-0.999146, 261, 97, 276, 224
-0.999155, 321, 73, 448, 104
-0.999167, 57, 129, 120, 375
-0.99917, 437, 129, 468, 375
-0.999189, 321, 329, 448, 360
-0.999197, 425, 97, 456, 352
-0.999199, 255, 161, 270, 288
-0.9992, 369, 89, 496, 120
-0.999202, 97, 165, 224, 196
-0.999202, 337, 145, 352, 272
-0.999205, 287, 81, 302, 208
-0.999234, 17, 145, 144, 208
-0.99924, 281, 177, 296, 304
-0.999241, 37, 209, 68, 336
-0.999242, 269, 33, 300, 288
-0.99925, 397, 33, 428, 288
-0.999253, 385, 1, 400, 128
-0.999257, 33, 237, 160, 268
-0.999261, 293, 81, 308, 208
-0.999269, 437, 241, 452, 368
-0.99928, 413, 241, 428, 368
-0.999283, 457, 129, 488, 375
-0.999284, 225, 145, 256, 272
-0.999285, 209, 209, 224, 336
-0.999292, 257, 273, 384, 304
-0.999294, 319, 129, 334, 256
-0.999295, 1, 57, 500, 120
-0.999302, 421, 241, 436, 368
-0.999304, 385, 225, 400, 352
-0.999305, 265, 209, 280, 336
-0.999308, 325, 177, 340, 304
-0.999309, 311, 161, 326, 288
-0.999321, 305, 129, 320, 256
-0.999334, 427, 241, 442, 368
-0.999336, 65, 313, 320, 375
-0.999336, 297, 177, 312, 304
-0.999336, 467, 225, 482, 352
-0.999336, 399, 241, 414, 368
-0.99934, 1, 325, 128, 356
-0.999344, 331, 145, 346, 272
-0.999349, 305, 89, 432, 120
-0.999352, 33, 249, 160, 280
-0.999354, 479, 241, 494, 368
-0.999357, 407, 241, 422, 368
-0.999366, 225, 289, 352, 320
-0.999367, 299, 81, 314, 208
-0.999369, 391, 241, 406, 368
-0.999372, 253, 17, 268, 144
-0.999374, 261, 49, 276, 176
-0.999374, 443, 241, 458, 368
-0.99938, 379, 225, 394, 352
-0.999382, 359, 193, 374, 320
-0.999389, 369, 89, 432, 152
-0.999389, 125, 209, 156, 336
-0.99939, 457, 225, 472, 352
-0.999393, 367, 225, 382, 352
-0.999393, 349, 193, 364, 320
-0.999394, 33, 89, 160, 120
-0.999395, 319, 177, 334, 304
-0.999399, 373, 241, 388, 368
-0.999404, 113, 209, 144, 336
-0.999408, 433, 33, 496, 288
-0.999417, 271, 97, 286, 224
-0.999424, 391, 49, 406, 176
-0.999424, 313, 113, 328, 240
-0.999425, 255, 225, 270, 352
-0.999427, 281, 81, 296, 208
-0.999441, 251, 81, 266, 208
-0.999442, 249, 161, 264, 288
-0.999449, 209, 129, 224, 256
-0.999455, 449, 241, 464, 368
-0.999458, 343, 177, 358, 304
-0.999462, 473, 225, 488, 352
-0.999468, 325, 113, 340, 240
-0.999473, 287, 225, 302, 352
-0.999486, 203, 209, 218, 336
-0.999487, 305, 81, 320, 208
-0.999491, 163, 209, 178, 336
-0.9995, 431, 193, 446, 320
-0.999503, 273, 237, 288, 252
-0.999503, 209, 7, 224, 22
-0.999503, 209, 99, 224, 114
-0.999504, 251, 241, 266, 256
-0.999504, 261, 153, 276, 168
-0.999504, 209, 111, 224, 126
-0.999504, 297, 185, 312, 200
-0.999504, 327, 155, 342, 170
-0.999504, 321, 129, 336, 144
-0.999505, 387, 55, 402, 70
-0.999505, 209, 41, 224, 56
-0.999506, 209, 131, 224, 146
-0.999506, 209, 1, 224, 16
-0.999506, 209, 51, 224, 66
-0.999506, 267, 251, 282, 266
-0.999507, 253, 129, 268, 144
-0.999507, 261, 1, 276, 128
-0.999507, 387, 13, 402, 28
-0.999507, 253, 27, 268, 42
-0.999508, 155, 267, 170, 282
-0.999508, 209, 105, 224, 120
-0.999508, 303, 161, 318, 176
-0.999509, 409, 255, 424, 270
-0.999509, 291, 177, 306, 192
-0.99951, 353, 247, 368, 262
-0.99951, 253, 65, 268, 80
-0.999511, 335, 225, 350, 352
-0.999511, 295, 161, 310, 176
-0.999511, 253, 21, 268, 36
-0.999512, 457, 293, 472, 308
-0.999512, 251, 115, 266, 130
-0.999512, 359, 253, 374, 268
-0.999512, 277, 251, 292, 266
-0.999513, 253, 123, 268, 138
-0.999513, 391, 37, 406, 52
-0.999513, 307, 183, 322, 198
-0.999513, 209, 81, 224, 208
-0.999514, 419, 255, 434, 270
-0.999514, 369, 253, 384, 268
-0.999515, 253, 33, 268, 48
-0.999515, 437, 1, 468, 128
-0.999516, 167, 267, 182, 282
-0.999517, 253, 105, 268, 120
-0.999517, 161, 267, 176, 282
-0.999517, 253, 15, 268, 30
-0.999518, 403, 255, 418, 270
-0.999519, 253, 39, 268, 54
-0.99952, 285, 251, 300, 266
-0.999521, 253, 9, 268, 24
-0.999521, 295, 169, 310, 184
-0.999521, 253, 97, 268, 112
-0.999521, 321, 151, 336, 166
-0.999521, 377, 253, 392, 268
-0.999522, 461, 299, 476, 314
-0.999522, 209, 215, 224, 230
-0.999522, 389, 253, 404, 268
-0.999523, 393, 43, 408, 58
-0.999524, 329, 167, 344, 182
-0.999524, 253, 45, 268, 60
-0.999525, 385, 49, 400, 64
-0.999525, 291, 195, 306, 210
-0.999525, 391, 193, 406, 320
-0.999526, 249, 207, 264, 222
-0.999526, 261, 103, 276, 118
-0.999527, 253, 51, 268, 66
-0.999528, 323, 163, 338, 178
-0.999528, 25, 209, 88, 272
-0.999528, 295, 241, 310, 256
-0.999528, 469, 297, 484, 312
-0.999529, 249, 193, 264, 208
-0.999529, 261, 251, 276, 266
-0.999529, 329, 189, 344, 204
-0.999529, 253, 1, 268, 16
-0.99953, 279, 237, 294, 252
-0.99953, 255, 229, 270, 244
-0.999531, 291, 141, 306, 156
-0.999532, 337, 181, 352, 196
-0.999532, 255, 167, 270, 182
-0.999533, 485, 255, 500, 270
-0.999533, 271, 219, 286, 234
-0.999534, 253, 57, 268, 72
-0.999536, 255, 183, 270, 198
-0.999537, 285, 227, 300, 242
-0.999538, 393, 57, 408, 72
-0.99954, 285, 243, 300, 258
-0.999541, 215, 193, 230, 320
-0.999541, 383, 1, 398, 16
-0.999542, 319, 157, 334, 172
-0.999544, 373, 193, 388, 320
-0.999544, 387, 7, 402, 22
-0.999544, 337, 171, 352, 186
-0.999545, 409, 193, 424, 320
-0.999545, 313, 33, 344, 288
-0.999546, 305, 177, 320, 192
-0.999547, 209, 1, 224, 128
-0.999547, 485, 313, 500, 328
-0.999548, 329, 161, 344, 176
-0.999549, 425, 255, 440, 270
-0.99955, 329, 225, 344, 352
-0.999551, 421, 177, 436, 304
-0.999553, 275, 227, 290, 242
-0.999555, 335, 165, 350, 180
-0.99956, 261, 219, 276, 234
-0.999562, 485, 235, 500, 250
-0.999563, 291, 189, 306, 204
-0.999565, 337, 97, 352, 224
-0.999566, 353, 253, 368, 268
-0.999566, 475, 313, 490, 328
-0.999567, 283, 191, 298, 206
-0.999567, 315, 151, 330, 166
-0.999568, 297, 139, 312, 154
-0.999569, 393, 49, 408, 64
-0.99957, 267, 235, 282, 250
-0.999571, 281, 197, 296, 212
-0.999572, 383, 253, 398, 268
-0.999573, 283, 145, 298, 160
-0.999573, 301, 171, 316, 186
-0.999574, 289, 147, 304, 162
-0.999575, 481, 249, 496, 264
-0.999577, 399, 193, 414, 320
-0.999577, 479, 241, 494, 256
-0.999579, 441, 273, 456, 288
-0.999582, 261, 225, 276, 240
-0.999585, 349, 145, 364, 272
-0.999587, 279, 171, 294, 186
-0.999587, 433, 259, 448, 274
-0.999588, 261, 159, 276, 174
-0.999591, 305, 155, 320, 170
-0.999592, 361, 241, 376, 368
-0.999597, 299, 145, 314, 160
-0.9996, 285, 237, 300, 252
-0.999604, 261, 173, 276, 188
-0.999606, 309, 149, 324, 164
-0.999608, 467, 307, 482, 322
-0.999611, 273, 171, 288, 186
-0.999612, 285, 175, 300, 190
-0.999613, 249, 209, 264, 336
-0.999616, 195, 209, 210, 336
-0.999619, 185, 241, 200, 368
-0.999619, 281, 151, 296, 166
-0.999623, 305, 177, 320, 304
-0.999628, 437, 265, 452, 280
-0.999628, 279, 225, 294, 352
-0.999629, 343, 113, 358, 240
-0.999629, 81, 313, 144, 375
-0.99963, 331, 97, 346, 224
-0.99963, 367, 177, 382, 304
-0.999634, 291, 183, 306, 198
-0.999636, 269, 225, 284, 240
-0.999636, 445, 193, 460, 320
-0.999636, 275, 155, 290, 170
-0.999638, 293, 225, 308, 352
-0.999639, 391, 1, 406, 128
-0.99964, 385, 177, 400, 304
-0.999641, 389, 1, 404, 16
-0.999644, 415, 193, 430, 320
-0.999644, 379, 177, 394, 304
-0.999644, 453, 177, 484, 304
-0.999645, 217, 145, 232, 272
-0.999651, 341, 33, 372, 288
-0.999653, 235, 161, 250, 288
-0.999656, 437, 193, 452, 320
-0.999658, 261, 167, 276, 182
-0.999661, 199, 161, 214, 288
-0.999661, 169, 225, 184, 352
-0.999669, 377, 33, 408, 288
-0.99967, 485, 241, 500, 256
-0.999673, 341, 225, 356, 352
-0.999674, 243, 193, 258, 320
-0.999675, 233, 225, 248, 352
-0.999677, 175, 241, 190, 368
-0.999679, 227, 241, 242, 368
-0.99968, 157, 129, 188, 375
-0.999681, 271, 161, 286, 176
-0.999681, 353, 241, 368, 368
-0.999684, 267, 171, 282, 186
-0.999688, 157, 209, 172, 336
-0.99969, 429, 33, 444, 160
-0.999692, 261, 231, 276, 246
-0.999693, 219, 33, 234, 160
-0.999706, 355, 145, 370, 272
-0.999713, 219, 81, 234, 208
-0.999717, 49, 33, 176, 96
-0.999721, 65, 161, 192, 224
-0.999725, 319, 225, 334, 352
-0.999729, 313, 225, 328, 352
-0.999733, 151, 209, 166, 336
-0.999735, 413, 1, 428, 128
-0.999735, 395, 113, 410, 240
-0.999744, 397, 17, 412, 144
-0.999745, 215, 241, 230, 368
-0.999747, 349, 97, 364, 224
-0.999748, 227, 193, 242, 320
-0.999751, 163, 65, 178, 192
-0.999751, 199, 33, 214, 160
-0.999757, 301, 225, 316, 352
-0.999762, 485, 193, 500, 320
-0.999765, 435, 49, 450, 176
-0.999766, 423, 33, 438, 160
-0.999774, 221, 241, 236, 368
-0.999774, 421, 97, 436, 224
-0.999776, 189, 193, 204, 320
-0.99978, 169, 177, 184, 304
-0.999788, 241, 241, 256, 368
-0.999792, 197, 81, 212, 208
-0.999796, 471, 49, 486, 176
-0.999798, 385, 49, 400, 176
-0.999801, 307, 225, 322, 352
-0.999829, 325, 49, 356, 176
-0.999848, 141, 129, 172, 256
-0.99986, 137, 129, 168, 375
-0.999912, 417, 1, 448, 256
-0.999934, 1, 209, 32, 336
-0.999983, 9, 65, 40, 320
-0.999998, 173, 65, 204, 320
-1.00007, 149, 33, 180, 288
-1.0001, 21, 65, 52, 320
-1.0001, 73, 65, 104, 320
-1.00013, 265, 241, 296, 368
-1.00015, 121, 97, 152, 352
-1.00015, 41, 65, 72, 320
-1.00019, 449, 33, 480, 288
-1.00023, 97, 65, 128, 320
-1.00026, 85, 65, 116, 320
-1.00028, 369, 1, 400, 128
-1.00028, 61, 65, 92, 320
-1.00034, 1, 1, 500, 64
-1.00035, 469, 33, 500, 288
-1.00036, 109, 129, 140, 375
-1.00036, 1, 121, 128, 184
-1.00041, 97, 129, 160, 256
-1.00043, 1, 33, 500, 96
-1.00043, 429, 1, 460, 256
-1.00046, 1, 65, 128, 128
-1.0005, 121, 1, 152, 256
-1.00054, 357, 33, 388, 288
-1.00054, 137, 33, 168, 288
-1.00056, 413, 49, 444, 176
-1.0006, 65, 289, 192, 352
-1.00065, 141, 65, 172, 192
-1.00066, 109, 33, 140, 288
-1.00067, 161, 33, 192, 288
-1.00077, 1, 313, 500, 375
-1.00077, 57, 145, 120, 272
-1.00082, 321, 273, 448, 336
-1.00082, 173, 17, 204, 144
-1.0009, 61, 209, 92, 336
-1.00103, 433, 97, 496, 224
-1.0011, 173, 129, 204, 256
-1.00115, 17, 81, 48, 208
-1.00117, 93, 225, 124, 352
-1.00124, 129, 129, 160, 256
-1.00127, 41, 145, 72, 272
-1.00129, 185, 1, 216, 128
-1.00133, 229, 33, 260, 160
-1.00141, 433, 97, 464, 224
-1.00151, 77, 225, 108, 352
-1.00155, 41, 81, 72, 208
-1.00159, 153, 1, 184, 128
-1.00159, 73, 177, 104, 304
-1.00163, 457, 1, 488, 128
-1.00167, 53, 81, 84, 208
-1.0017, 453, 129, 484, 256
-1.00171, 1, 169, 128, 232
-1.0019, 349, 97, 380, 224
-1.00197, 13, 145, 44, 272
-1.00213, 5, 81, 36, 208
-1.00213, 433, 145, 464, 272
-1.00215, 25, 145, 56, 272
-1.00215, 409, 145, 440, 272
-1.00217, 29, 81, 60, 208
-1.00218, 121, 49, 152, 176
-1.00229, 101, 177, 132, 304
-1.00235, 1, 41, 128, 104
-1.0024, 1, 145, 32, 272
-1.00246, 65, 33, 128, 288
-1.00253, 53, 145, 84, 272
-1.00254, 313, 49, 344, 176
-1.00266, 121, 1, 152, 128
-1.00266, 73, 81, 104, 208
-1.00344, 97, 17, 160, 144
-1.0045, 1, 1, 64, 256
-1.00551, 281, 1, 344, 128
-1.00655, 73, 1, 136, 128
-1.00685, 9, 1, 72, 128
-1.00769, 49, 1, 112, 128
-1.00833, 313, 17, 376, 144
