1877
-0.424794, 33, 1, 288, 333
-0.443391, 1, 1, 500, 333
-0.500697, 1, 65, 500, 320
-0.543679, 129, 1, 384, 333
-0.630835, 225, 1, 480, 333
-0.647105, 1, 1, 256, 256
-0.698891, 161, 33, 416, 288
-0.790534, 257, 33, 500, 288
-0.839496, 145, 1, 272, 333
-0.857628, 145, 65, 272, 320
-0.871514, 193, 1, 320, 333
-0.872291, 97, 1, 224, 333
-0.878091, 209, 65, 336, 320
-0.878739, 97, 65, 224, 320
-0.889131, 17, 1, 144, 333
-0.893723, 241, 1, 368, 333
-0.89728, 33, 129, 288, 256
-0.900769, 1, 97, 500, 224
-0.901152, 49, 65, 176, 320
-0.903804, 1, 1, 128, 256
-0.906117, 289, 1, 416, 333
-0.911238, 1, 161, 500, 288
-0.916512, 257, 33, 384, 288
-0.917481, 1, 33, 500, 160
-0.921867, 1, 193, 256, 320
-0.924454, 33, 81, 288, 208
-0.926951, 65, 161, 192, 288
-0.927028, 97, 177, 352, 304
-0.928491, 337, 1, 464, 333
-0.928828, 321, 33, 448, 288
-0.92947, 1, 113, 128, 240
-0.93126, 129, 97, 384, 224
-0.931307, 169, 193, 232, 320
-0.934049, 161, 161, 288, 288
-0.934197, 57, 113, 120, 240
-0.935987, 129, 97, 256, 224
-0.936686, 225, 177, 288, 304
-0.937675, 161, 129, 224, 256
-0.93859, 81, 113, 144, 240
-0.939124, 201, 161, 264, 288
-0.939863, 33, 97, 96, 224
-0.940491, 369, 1, 496, 256
-0.94164, 193, 49, 448, 176
-0.941898, 161, 209, 288, 333
-0.942572, 1, 209, 500, 333
-0.943817, 81, 113, 208, 240
-0.945593, 161, 81, 224, 208
-0.947504, 177, 65, 304, 192
-0.948368, 1, 33, 256, 160
-0.948593, 113, 49, 240, 176
-0.950117, 1, 161, 128, 288
-0.950556, 113, 209, 240, 333
-0.950738, 161, 209, 224, 272
-0.952299, 161, 73, 224, 136
-0.952455, 185, 89, 248, 152
-0.952498, 113, 161, 240, 288
-0.952684, 129, 145, 192, 272
-0.952708, 185, 97, 248, 224
-0.952888, 177, 113, 304, 240
-0.952927, 145, 193, 208, 320
-0.95312, 89, 161, 152, 288
-0.95382, 57, 161, 120, 288
-0.954454, 97, 33, 352, 160
-0.955336, 225, 193, 480, 320
-0.955546, 57, 65, 120, 192
-0.955577, 217, 97, 280, 224
-0.955602, 169, 33, 232, 160
-0.955839, 209, 193, 336, 320
-0.956353, 9, 129, 72, 256
-0.956613, 201, 209, 264, 333
-0.957604, 193, 1, 448, 128
-0.958421, 185, 265, 248, 328
-0.959064, 201, 177, 264, 240
-0.959081, 225, 97, 480, 224
-0.959089, 217, 265, 280, 328
-0.960153, 65, 65, 192, 192
-0.960368, 89, 121, 152, 184
-0.960744, 177, 17, 304, 144
-0.960772, 65, 209, 192, 333
-0.960909, 137, 81, 200, 208
-0.961607, 33, 145, 96, 272
-0.961619, 249, 193, 312, 320
-0.961778, 201, 225, 264, 288
-0.961793, 97, 65, 160, 192
-0.962396, 161, 185, 224, 248
-0.962963, 225, 97, 352, 224
-0.963479, 97, 185, 160, 248
-0.963788, 57, 177, 120, 240
-0.963791, 97, 1, 224, 128
-0.963856, 225, 145, 480, 272
-0.963981, 289, 33, 416, 160
-0.963991, 193, 49, 256, 176
-0.964323, 65, 113, 128, 176
-0.964376, 161, 113, 224, 176
-0.965198, 121, 105, 184, 168
-0.965318, 105, 113, 168, 240
-0.965454, 1, 177, 64, 240
-0.965496, 241, 209, 304, 272
-0.965619, 97, 17, 160, 144
-0.965804, 17, 129, 80, 192
-0.966369, 185, 177, 216, 304
-0.966508, 257, 113, 320, 240
-0.966989, 137, 201, 200, 264
-0.967183, 97, 153, 160, 216
-0.96736, 185, 113, 248, 176
-0.968265, 169, 65, 232, 320
-0.9683, 57, 17, 120, 144
-0.968508, 17, 65, 144, 192
-0.96852, 177, 233, 240, 296
-0.969018, 65, 89, 128, 152
-0.969328, 97, 97, 160, 160
-0.969405, 9, 81, 72, 208
-0.969795, 177, 177, 304, 240
-0.969895, 297, 81, 360, 208
-0.970153, 225, 233, 288, 296
-0.970246, 161, 137, 224, 200
-0.970278, 25, 177, 88, 240
-0.970382, 81, 169, 208, 232
-0.970532, 165, 201, 196, 264
-0.970642, 1, 97, 64, 160
-0.970731, 69, 113, 100, 240
-0.970791, 257, 33, 320, 160
-0.970818, 57, 153, 120, 216
-0.970949, 233, 185, 296, 248
-0.970981, 17, 209, 144, 333
-0.971265, 209, 161, 240, 288
-0.971399, 253, 177, 284, 304
-0.971502, 97, 113, 128, 240
-0.971631, 145, 1, 208, 128
-0.971766, 201, 65, 264, 320
-0.971794, 177, 65, 208, 128
-0.971837, 225, 49, 352, 176
-0.971963, 145, 233, 208, 296
-0.972132, 85, 113, 116, 240
-0.972163, 41, 113, 104, 176
-0.972239, 1, 33, 64, 160
-0.972287, 105, 169, 136, 232
-0.97241, 81, 1, 144, 64
-0.972717, 17, 153, 80, 216
-0.972782, 241, 145, 368, 272
-0.973002, 321, 17, 384, 144
-0.973166, 177, 49, 208, 176
-0.973384, 177, 113, 208, 240
-0.973432, 121, 33, 184, 160
-0.973477, 153, 33, 216, 96
-0.973588, 193, 201, 256, 264
-0.973664, 173, 193, 204, 320
-0.973665, 193, 81, 224, 144
-0.973671, 37, 113, 68, 240
-0.973686, 189, 129, 220, 256
-0.974301, 237, 193, 268, 320
-0.974437, 137, 65, 200, 320
-0.974438, 209, 97, 272, 160
-0.974696, 345, 33, 408, 160
-0.974726, 1, 177, 128, 240
-0.974849, 145, 201, 272, 264
-0.974899, 153, 273, 216, 333
-0.975046, 289, 81, 416, 208
-0.975069, 113, 9, 176, 72
-0.975104, 241, 265, 304, 328
-0.975524, 197, 105, 228, 168
-0.975622, 217, 33, 280, 160
-0.975644, 177, 193, 208, 256
-0.975677, 185, 105, 216, 168
-0.975733, 353, 1, 480, 128
-0.975761, 97, 145, 224, 208
-0.97579, 113, 41, 176, 104
-0.975934, 257, 209, 288, 272
-0.976079, 89, 1, 152, 256
-0.976091, 225, 65, 288, 320
-0.976129, 81, 193, 208, 256
-0.976161, 193, 145, 256, 208
-0.976169, 121, 161, 184, 224
-0.976209, 201, 57, 264, 120
-0.976264, 145, 233, 272, 296
-0.976297, 217, 97, 248, 224
-0.976318, 129, 129, 192, 192
-0.976357, 189, 185, 220, 248
-0.9764, 85, 161, 116, 288
-0.976415, 1, 177, 64, 304
-0.976522, 137, 57, 200, 120
-0.976633, 137, 81, 200, 144
-0.976649, 189, 209, 220, 272
-0.97673, 73, 209, 136, 333
-0.976784, 121, 193, 184, 320
-0.97683, 161, 209, 192, 333
-0.97706, 49, 97, 80, 224
-0.977132, 73, 33, 136, 96
-0.977151, 177, 217, 208, 280
-0.977183, 161, 97, 288, 160
-0.977528, 281, 17, 344, 144
-0.977595, 209, 89, 240, 152
-0.97771, 57, 65, 120, 320
-0.977767, 241, 1, 368, 128
-0.977801, 177, 49, 240, 112
-0.97805, 113, 209, 176, 272
-0.978081, 289, 97, 352, 160
-0.978143, 113, 137, 144, 200
-0.978221, 201, 177, 232, 240
-0.978459, 33, 49, 96, 176
-0.978459, 197, 81, 228, 208
-0.978565, 109, 113, 140, 240
-0.978621, 257, 209, 384, 333
-0.978865, 113, 97, 240, 160
-0.978894, 213, 257, 244, 320
-0.97891, 197, 177, 228, 304
-0.978942, 165, 129, 196, 256
-0.978953, 37, 185, 68, 248
-0.978973, 221, 177, 252, 304
-0.9791, 25, 113, 56, 240
-0.979158, 33, 137, 160, 200
-0.979209, 85, 65, 116, 192
-0.979212, 33, 65, 96, 320
-0.979229, 253, 185, 284, 248
-0.97925, 113, 73, 240, 136
-0.979307, 101, 161, 132, 288
-0.979309, 17, 209, 80, 272
-0.979325, 17, 113, 144, 176
-0.979577, 57, 201, 120, 264
-0.979578, 237, 225, 268, 288
-0.979628, 165, 49, 196, 176
-0.979686, 85, 169, 116, 232
-0.979947, 145, 129, 272, 192
-0.979999, 9, 65, 72, 320
-0.980188, 165, 81, 196, 144
-0.980225, 117, 1, 148, 128
-0.980231, 201, 257, 232, 320
-0.980287, 253, 249, 284, 312
-0.980339, 193, 217, 320, 280
-0.980379, 17, 177, 48, 240
-0.980406, 173, 113, 204, 176
-0.980409, 265, 201, 328, 264
-0.980431, 161, 273, 288, 333
-0.980488, 97, 129, 128, 192
-0.980592, 345, 65, 408, 128
-0.980711, 281, 65, 344, 320
-0.980795, 169, 1, 232, 333
-0.980826, 97, 217, 224, 280
-0.980833, 337, 49, 464, 176
-0.980968, 49, 185, 80, 248
-0.980981, 81, 57, 144, 120
-0.981009, 121, 17, 152, 80
-0.981052, 161, 57, 288, 120
-0.981062, 201, 233, 232, 296
-0.981069, 233, 273, 264, 333
-0.981071, 165, 57, 196, 120
-0.981082, 265, 177, 296, 304
-0.98109, 33, 201, 160, 264
-0.981202, 157, 233, 188, 296
-0.981261, 229, 113, 260, 240
-0.98133, 49, 1, 176, 128
-0.981335, 97, 209, 160, 333
-0.981375, 173, 1, 204, 128
-0.981401, 65, 105, 192, 168
-0.981677, 305, 73, 368, 136
-0.981717, 25, 193, 88, 320
-0.98176, 25, 161, 56, 288
-0.981769, 321, 81, 384, 208
-0.981863, 113, 65, 176, 320
-0.98192, 37, 113, 68, 176
-0.982004, 5, 177, 36, 240
-0.982034, 189, 241, 220, 304
-0.982094, 209, 81, 336, 144
-0.982233, 233, 97, 296, 160
-0.98232, 249, 273, 280, 333
-0.982565, 117, 113, 148, 176
-0.982732, 117, 161, 148, 288
-0.982762, 353, 81, 416, 208
-0.98278, 353, 41, 416, 104
-0.98283, 261, 273, 292, 333
-0.98311, 61, 161, 92, 288
-0.983199, 97, 49, 224, 112
-0.983228, 153, 65, 184, 192
-0.983285, 173, 33, 204, 96
-0.983302, 153, 145, 184, 272
-0.983322, 81, 209, 144, 272
-0.983437, 153, 105, 184, 168
-0.983605, 269, 201, 300, 264
-0.983634, 185, 1, 248, 64
-0.983655, 69, 153, 100, 216
-0.983683, 233, 249, 264, 312
-0.983773, 1, 1, 64, 64
-0.983804, 221, 233, 252, 296
-0.983885, 181, 265, 212, 328
-0.983955, 189, 33, 220, 160
-0.984051, 265, 105, 328, 168
-0.984064, 209, 1, 272, 333
-0.984094, 89, 105, 120, 168
-0.984233, 97, 65, 128, 192
-0.984267, 25, 89, 88, 152
-0.984353, 129, 177, 256, 240
-0.98439, 233, 177, 264, 240
-0.984454, 145, 1, 208, 333
-0.984467, 45, 137, 76, 200
-0.984553, 249, 65, 312, 320
-0.98464, 241, 193, 368, 256
-0.984651, 313, 17, 376, 80
-0.984654, 385, 73, 448, 136
-0.98466, 209, 105, 336, 168
-0.984666, 281, 73, 344, 136
-0.984674, 161, 33, 288, 96
-0.984683, 49, 177, 80, 304
-0.984715, 121, 233, 184, 296
-0.984825, 121, 1, 184, 333
-0.984855, 393, 1, 456, 128
-0.984946, 137, 113, 168, 240
-0.98499, 217, 121, 280, 184
-0.985072, 13, 113, 44, 176
-0.985108, 153, 1, 216, 64
-0.985149, 153, 49, 184, 112
-0.985155, 249, 1, 312, 64
-0.985196, 137, 121, 168, 184
-0.985216, 193, 57, 224, 120
-0.985243, 113, 265, 240, 328
-0.985295, 49, 1, 112, 333
-0.985348, 105, 73, 168, 136
-0.985358, 101, 193, 132, 256
-0.985386, 329, 1, 392, 256
-0.985478, 85, 193, 116, 256
-0.985587, 1, 73, 64, 136
-0.985609, 265, 169, 328, 232
-0.985639, 193, 241, 320, 304
-0.985704, 297, 17, 328, 144
-0.985721, 25, 113, 56, 176
-0.985765, 273, 209, 336, 333
-0.985774, 21, 153, 52, 216
-0.985779, 145, 153, 272, 216
-0.985786, 353, 257, 416, 320
-0.985828, 193, 145, 224, 208
-0.985844, 249, 241, 312, 304
-0.985937, 97, 1, 160, 333
-0.985993, 345, 97, 408, 160
-0.985996, 377, 49, 440, 176
-0.98602, 249, 129, 280, 256
-0.986057, 305, 1, 368, 256
-0.986057, 41, 1, 104, 64
-0.98607, 209, 273, 336, 333
-0.986102, 161, 161, 224, 224
-0.98611, 61, 185, 92, 248
-0.986245, 1, 1, 128, 128
-0.986306, 261, 113, 292, 240
-0.986408, 101, 105, 132, 168
-0.986464, 109, 65, 140, 192
-0.986543, 69, 65, 100, 192
-0.986546, 117, 161, 148, 224
-0.986571, 81, 1, 208, 64
-0.98662, 53, 113, 84, 176
-0.986638, 305, 1, 432, 64
-0.986736, 289, 97, 416, 160
-0.98675, 69, 97, 100, 160
-0.98678, 41, 209, 72, 272
-0.986829, 289, 161, 416, 288
-0.986881, 33, 89, 64, 152
-0.986892, 257, 1, 384, 64
-0.986904, 257, 81, 320, 144
-0.986913, 289, 65, 416, 128
-0.986956, 73, 1, 136, 333
-0.986994, 185, 17, 216, 80
-0.987113, 193, 1, 256, 128
-0.987123, 121, 81, 152, 208
-0.987165, 209, 49, 240, 176
-0.987262, 225, 73, 288, 136
-0.987279, 209, 113, 240, 176
-0.987305, 313, 81, 344, 208
-0.987319, 369, 25, 400, 88
-0.987438, 285, 49, 316, 176
-0.987449, 13, 97, 44, 224
-0.987475, 369, 1, 432, 128
-0.987481, 97, 241, 224, 304
-0.987557, 217, 153, 280, 216
-0.987581, 353, 1, 416, 256
-0.987583, 205, 137, 236, 200
-0.987613, 217, 145, 248, 208
-0.987669, 257, 257, 384, 320
-0.987714, 361, 17, 424, 80
-0.987726, 241, 161, 304, 224
-0.987772, 85, 145, 116, 208
-0.98778, 5, 1, 36, 64
-0.987782, 313, 97, 376, 160
-0.987882, 385, 1, 448, 64
-0.987938, 373, 249, 404, 312
-0.987948, 225, 105, 256, 168
-0.988029, 353, 9, 480, 72
-0.988072, 73, 161, 104, 288
-0.988197, 153, 209, 184, 272
-0.988211, 13, 161, 44, 288
-0.988349, 209, 209, 240, 333
-0.988365, 9, 89, 40, 152
-0.988371, 1, 129, 32, 256
-0.988403, 5, 153, 36, 216
-0.988453, 385, 1, 448, 256
-0.988476, 161, 217, 224, 248
-0.988481, 129, 1, 256, 64
-0.988485, 269, 249, 300, 312
-0.988574, 233, 33, 296, 96
-0.988616, 317, 89, 348, 152
-0.988617, 37, 177, 68, 304
-0.988623, 369, 17, 400, 144
-0.988698, 289, 25, 416, 88
-0.988709, 229, 49, 260, 176
-0.98877, 101, 81, 132, 144
-0.988822, 49, 161, 80, 224
-0.988878, 193, 153, 320, 216
-0.988927, 101, 209, 132, 333
-0.98901, 225, 1, 288, 64
-0.989049, 241, 89, 272, 152
-0.989133, 185, 25, 248, 88
-0.989145, 129, 97, 160, 160
-0.989172, 97, 25, 224, 88
-0.989239, 41, 41, 104, 104
-0.989275, 225, 57, 352, 120
-0.989363, 73, 117, 136, 148
-0.989373, 157, 17, 188, 80
-0.989445, 201, 209, 232, 272
-0.989446, 289, 17, 352, 80
-0.989452, 1, 1, 32, 128
-0.989476, 25, 1, 88, 333
-0.989505, 185, 105, 248, 136
-0.989513, 113, 41, 144, 104
-0.989532, 337, 1, 400, 64
-0.989553, 65, 185, 320, 248
-0.989554, 265, 265, 328, 328
-0.989573, 157, 169, 188, 232
-0.989573, 369, 73, 496, 136
-0.989593, 281, 97, 312, 224
-0.989622, 25, 125, 88, 156
-0.989638, 1, 121, 64, 152
-0.989655, 33, 137, 64, 200
-0.989681, 65, 129, 128, 160
-0.989699, 161, 69, 224, 100
-0.989734, 209, 1, 336, 64
-0.989746, 265, 177, 296, 240
-0.989776, 73, 177, 136, 208
-0.989779, 193, 177, 256, 208
-0.9898, 33, 1, 160, 64
-0.989805, 185, 265, 248, 296
-0.989821, 41, 113, 104, 144
-0.989838, 241, 213, 304, 244
-0.98987, 129, 61, 192, 92
-0.989918, 209, 277, 272, 308
-0.989931, 393, 49, 456, 112
-0.989975, 141, 201, 172, 264
-0.99001, 1, 181, 64, 212
-0.990031, 161, 125, 224, 156
-0.990036, 57, 65, 120, 128
-0.990049, 169, 93, 232, 124
-0.99005, 1, 153, 256, 216
-0.990097, 161, 129, 192, 192
-0.990103, 153, 205, 216, 236
-0.990109, 193, 289, 256, 320
-0.990116, 265, 1, 328, 333
-0.99013, 113, 193, 144, 256
-0.990136, 105, 121, 168, 152
-0.99015, 257, 169, 384, 232
-0.990163, 265, 49, 328, 112
-0.9902, 177, 241, 208, 304
-0.990204, 277, 209, 308, 333
-0.990213, 289, 1, 352, 333
-0.990245, 169, 81, 232, 112
-0.990249, 169, 229, 232, 260
-0.990268, 169, 289, 232, 320
-0.990307, 297, 97, 328, 224
-0.990332, 85, 17, 116, 144
-0.990346, 193, 93, 256, 124
-0.990399, 329, 1, 392, 333
-0.99042, 89, 49, 120, 112
-0.990443, 145, 113, 208, 144
-0.990448, 201, 237, 264, 268
-0.990454, 9, 49, 40, 176
-0.990475, 201, 225, 264, 256
-0.990523, 65, 129, 96, 192
-0.990545, 225, 293, 288, 324
-0.990568, 185, 277, 248, 308
-0.990582, 193, 129, 320, 192
-0.990583, 129, 13, 192, 44
-0.990588, 185, 125, 248, 156
-0.990603, 89, 141, 152, 172
-0.990626, 353, 49, 384, 176
-0.990699, 17, 81, 144, 144
-0.990708, 337, 41, 464, 104
-0.990722, 25, 181, 88, 212
-0.990747, 217, 253, 280, 284
-0.990762, 161, 1, 192, 128
-0.99081, 73, 97, 136, 128
-0.99086, 17, 209, 80, 240
-0.990872, 129, 217, 192, 248
-0.990892, 245, 81, 276, 208
-0.990903, 149, 193, 180, 320
-0.990905, 97, 217, 128, 280
-0.990921, 17, 137, 80, 168
-0.990923, 97, 109, 160, 140
-0.990924, 161, 193, 224, 224
-0.990928, 225, 265, 288, 296
-0.990994, 97, 193, 160, 224
-0.990999, 145, 101, 208, 132
-0.991, 89, 81, 120, 144
-0.991002, 153, 277, 216, 308
-0.991006, 1, 109, 64, 140
-0.991011, 25, 201, 56, 264
-0.991044, 129, 133, 192, 164
-0.991053, 33, 101, 96, 132
-0.991057, 233, 281, 296, 312
-0.991106, 305, 97, 336, 160
-0.991109, 241, 121, 304, 184
-0.991114, 177, 253, 240, 284
-0.991131, 133, 1, 164, 64
-0.991175, 217, 181, 280, 212
-0.991179, 137, 229, 200, 260
-0.991198, 113, 209, 144, 333
-0.991211, 193, 213, 256, 244
-0.991252, 369, 233, 432, 296
-0.991255, 233, 229, 296, 260
-0.991258, 433, 17, 496, 144
-0.991283, 97, 177, 160, 208
-0.991309, 17, 225, 144, 288
-0.991314, 49, 177, 112, 208
-0.991322, 253, 97, 284, 160
-0.991327, 169, 265, 200, 328
-0.991328, 81, 41, 144, 72
-0.991329, 121, 105, 184, 136
-0.991342, 129, 161, 160, 288
-0.991364, 129, 145, 192, 176
-0.991371, 33, 161, 64, 224
-0.991402, 209, 105, 272, 136
-0.991407, 81, 5, 144, 36
-0.991425, 73, 189, 136, 220
-0.991429, 153, 45, 216, 76
-0.99145, 129, 73, 192, 104
-0.991452, 129, 265, 192, 328
-0.991454, 1, 1, 64, 333
-0.991456, 153, 57, 216, 88
-0.991468, 233, 1, 296, 333
-0.991468, 169, 137, 232, 168
-0.991472, 113, 229, 176, 260
-0.991489, 217, 93, 280, 124
-0.991496, 113, 205, 176, 236
-0.991534, 81, 217, 144, 248
-0.991546, 153, 29, 216, 60
-0.991566, 113, 49, 176, 80
-0.991574, 129, 1, 192, 32
-0.991582, 1, 193, 64, 224
-0.991583, 193, 81, 256, 112
-0.991583, 33, 97, 288, 160
-0.991592, 361, 265, 392, 328
-0.991605, 221, 81, 252, 144
-0.991613, 89, 153, 152, 184
-0.991615, 121, 193, 184, 224
-0.991624, 377, 97, 440, 224
-0.991631, 1, 41, 64, 104
-0.991647, 73, 17, 136, 48
-0.991649, 193, 301, 256, 332
-0.991654, 97, 97, 160, 128
-0.991659, 101, 49, 132, 112
-0.991715, 57, 209, 120, 240
-0.991724, 385, 81, 416, 208
-0.99173, 305, 101, 368, 132
-0.991749, 261, 33, 292, 160
-0.991755, 73, 29, 136, 60
-0.991757, 41, 137, 104, 168
-0.991768, 233, 193, 296, 224
-0.991782, 1, 93, 64, 124
-0.9918, 81, 65, 144, 96
-0.99183, 177, 13, 240, 44
-0.991831, 145, 89, 208, 120
-0.991837, 281, 129, 344, 256
-0.991895, 101, 17, 132, 80
-0.991898, 89, 165, 152, 196
-0.99194, 105, 217, 168, 248
-0.991945, 257, 201, 320, 232
-0.99195, 153, 169, 216, 200
-0.991973, 45, 49, 76, 176
-0.991984, 433, 49, 496, 112
-0.991986, 1, 209, 256, 272
-0.991986, 205, 65, 236, 128
-0.991987, 369, 97, 432, 160
-0.991991, 273, 49, 304, 176
-0.992005, 221, 209, 252, 272
-0.992017, 73, 53, 136, 84
-0.992036, 57, 165, 120, 196
-0.992037, 49, 189, 112, 220
-0.992042, 353, 1, 416, 333
-0.99205, 77, 121, 108, 184
-0.992051, 257, 273, 320, 304
-0.992056, 105, 1, 168, 32
-0.992061, 209, 117, 272, 148
-0.992071, 217, 169, 248, 232
-0.992087, 201, 165, 264, 196
-0.992094, 185, 61, 248, 92
-0.992106, 17, 149, 80, 180
-0.992111, 113, 165, 176, 196
-0.992115, 169, 181, 232, 212
-0.99215, 177, 241, 240, 272
-0.992159, 33, 221, 96, 252
-0.99217, 329, 249, 392, 312
-0.992172, 153, 241, 216, 272
-0.992186, 105, 61, 168, 92
-0.992194, 129, 181, 192, 212
-0.992205, 153, 9, 216, 40
-0.992216, 25, 193, 88, 224
-0.992222, 17, 169, 80, 200
-0.992224, 261, 1, 292, 64
-0.992224, 97, 21, 160, 52
-0.992238, 105, 181, 136, 212
-0.992276, 281, 197, 344, 228
-0.99228, 233, 105, 296, 136
-0.992282, 113, 37, 176, 68
-0.992284, 217, 81, 280, 112
-0.992289, 17, 193, 48, 224
-0.992297, 385, 81, 448, 112
-0.992303, 209, 25, 336, 88
-0.992304, 129, 121, 384, 184
-0.992308, 173, 65, 204, 96
-0.992316, 57, 225, 120, 256
-0.992331, 5, 185, 36, 216
-0.992351, 193, 109, 224, 140
-0.992371, 225, 241, 288, 272
-0.992373, 65, 153, 128, 184
-0.992379, 257, 233, 384, 296
-0.992381, 25, 181, 56, 212
-0.992381, 173, 169, 204, 232
-0.992414, 273, 109, 336, 140
-0.992418, 189, 217, 220, 248
-0.992419, 197, 85, 228, 116
-0.992431, 1, 81, 64, 112
-0.992434, 305, 85, 368, 116
-0.992447, 169, 301, 232, 332
-0.992463, 129, 17, 160, 144
-0.992465, 265, 181, 328, 212
-0.992468, 33, 209, 64, 240
-0.992471, 265, 213, 328, 244
-0.992478, 297, 33, 328, 96
-0.992478, 1, 129, 256, 192
-0.99248, 109, 217, 140, 280
-0.992481, 217, 213, 280, 244
-0.992482, 185, 97, 216, 128
-0.992484, 337, 97, 464, 224
-0.992486, 181, 77, 212, 108
-0.992491, 321, 9, 384, 40
-0.992492, 353, 45, 416, 76
-0.992492, 241, 33, 272, 96
-0.992502, 249, 293, 312, 324
-0.99253, 85, 117, 116, 148
-0.99256, 161, 213, 192, 244
-0.992573, 217, 241, 248, 272
-0.992575, 93, 173, 124, 204
-0.992577, 177, 125, 208, 156
-0.992588, 33, 109, 64, 140
-0.992596, 53, 117, 84, 148
-0.992604, 73, 185, 104, 248
-0.992605, 169, 77, 200, 108
-0.99262, 325, 97, 356, 224
-0.992621, 117, 141, 148, 172
-0.992635, 49, 213, 80, 244
-0.992641, 69, 117, 100, 148
-0.992641, 253, 213, 284, 244
-0.992643, 1, 129, 32, 192
-0.992652, 153, 61, 184, 92
-0.992653, 29, 193, 60, 224
-0.992657, 213, 253, 244, 284
-0.992669, 193, 281, 224, 312
-0.992674, 37, 121, 68, 152
-0.992676, 261, 193, 292, 224
-0.99268, 69, 17, 100, 144
-0.9927, 233, 233, 264, 264
-0.992707, 233, 285, 264, 316
-0.992721, 173, 197, 204, 228
-0.992736, 177, 113, 208, 144
-0.99274, 245, 277, 276, 308
-0.99274, 201, 261, 232, 292
-0.992743, 137, 145, 168, 208
-0.992748, 209, 105, 240, 136
-0.99275, 9, 173, 40, 204
-0.992751, 213, 269, 244, 300
-0.992753, 141, 57, 172, 120
-0.992755, 101, 129, 132, 160
-0.992757, 41, 185, 72, 216
-0.992762, 201, 177, 232, 208
-0.992772, 293, 81, 324, 144
-0.992777, 213, 281, 244, 312
-0.992779, 253, 261, 284, 292
-0.992779, 57, 49, 88, 176
-0.992791, 205, 125, 236, 156
-0.9928, 213, 293, 244, 324
-0.992803, 53, 129, 84, 160
-0.992824, 81, 177, 112, 208
-0.992826, 69, 129, 100, 160
-0.992842, 189, 181, 220, 212
-0.992854, 157, 237, 188, 268
-0.9929, 185, 65, 216, 96
-0.992902, 257, 277, 288, 308
-0.992904, 169, 25, 200, 56
-0.992909, 305, 209, 432, 333
-0.992919, 193, 125, 224, 156
-0.99292, 209, 229, 240, 260
-0.992927, 117, 89, 148, 152
-0.992935, 197, 73, 228, 104
-0.992936, 161, 125, 192, 156
-0.992952, 269, 205, 300, 236
-0.992956, 105, 169, 136, 200
-0.992965, 177, 229, 208, 260
-0.992965, 41, 133, 72, 164
-0.992969, 245, 289, 276, 320
-0.992971, 113, 117, 144, 148
-0.992971, 317, 97, 348, 128
-0.992988, 181, 277, 212, 308
-0.992989, 173, 89, 204, 120
-0.992994, 5, 197, 36, 228
-0.992998, 25, 129, 56, 160
-0.993007, 185, 257, 216, 288
-0.993013, 209, 93, 240, 124
-0.993013, 69, 101, 100, 132
-0.993014, 97, 109, 128, 140
-0.993017, 37, 97, 68, 128
-0.993022, 213, 169, 244, 200
-0.993023, 165, 53, 196, 84
-0.993026, 229, 261, 260, 292
-0.993027, 49, 105, 80, 136
-0.993028, 101, 193, 132, 224
-0.993031, 373, 257, 404, 288
-0.993034, 197, 237, 228, 268
-0.993053, 21, 205, 52, 236
-0.99306, 233, 273, 264, 304
-0.993062, 153, 113, 184, 144
-0.993066, 185, 21, 216, 52
-0.993075, 121, 105, 152, 136
-0.993075, 121, 129, 152, 160
-0.993077, 85, 201, 116, 232
-0.993081, 161, 225, 192, 256
-0.993084, 253, 249, 284, 280
-0.993086, 13, 109, 44, 140
-0.993087, 381, 17, 412, 144
-0.993088, 121, 21, 152, 52
-0.99309, 205, 137, 236, 168
-0.993098, 193, 293, 224, 324
-0.993101, 141, 53, 172, 84
-0.993112, 257, 237, 288, 268
-0.993113, 153, 81, 184, 144
-0.993119, 229, 181, 260, 212
-0.993125, 157, 73, 188, 104
-0.993126, 121, 33, 152, 64
-0.993132, 137, 129, 168, 160
-0.993134, 241, 221, 272, 252
-0.993138, 169, 101, 200, 132
-0.993144, 229, 109, 260, 140
-0.993148, 261, 5, 292, 36
-0.993151, 133, 101, 164, 132
-0.993154, 125, 9, 156, 40
-0.99316, 353, 65, 384, 128
-0.993168, 265, 265, 296, 296
-0.993172, 89, 133, 120, 164
-0.993174, 197, 249, 228, 280
-0.993179, 241, 181, 272, 212
-0.99318, 65, 81, 192, 144
-0.993187, 173, 13, 204, 44
-0.993189, 101, 97, 132, 128
-0.993189, 233, 245, 264, 276
-0.993191, 157, 13, 188, 44
-0.993198, 217, 117, 248, 148
-0.993198, 193, 137, 224, 168
-0.9932, 369, 25, 400, 56
-0.993204, 169, 269, 200, 300
-0.993206, 257, 289, 288, 320
-0.993207, 69, 213, 100, 244
-0.993215, 117, 165, 148, 196
-0.993223, 221, 97, 252, 128
-0.993225, 233, 297, 264, 328
-0.993226, 1, 5, 32, 36
-0.993232, 89, 81, 120, 112
-0.993233, 145, 221, 176, 252
-0.993236, 117, 177, 148, 208
-0.993238, 257, 225, 288, 256
-0.993239, 177, 217, 208, 248
-0.993247, 53, 141, 84, 172
-0.99325, 197, 97, 228, 128
-0.993338, 337, 97, 464, 160
-0.993364, 97, 209, 352, 272
-0.993406, 381, 89, 412, 152
-0.993428, 101, 17, 132, 144
-0.993432, 85, 209, 116, 333
-0.993436, 97, 65, 352, 128
-0.993458, 13, 201, 44, 264
-0.993492, 97, 145, 352, 208
-0.99352, 321, 41, 384, 104
-0.99362, 145, 213, 272, 244
-0.993626, 273, 113, 304, 176
-0.993672, 293, 105, 324, 168
-0.993694, 9, 65, 40, 128
-0.993715, 85, 1, 116, 64
-0.993729, 49, 33, 176, 96
-0.993765, 49, 225, 112, 288
-0.993845, 141, 97, 172, 160
-0.993852, 1, 185, 128, 216
-0.99388, 1, 33, 32, 96
-0.993907, 241, 33, 272, 160
-0.993921, 161, 277, 288, 308
-0.993945, 191, 185, 206, 248
-0.993947, 69, 209, 100, 333
-0.993947, 177, 181, 304, 212
-0.993959, 179, 193, 194, 256
-0.993978, 199, 97, 214, 160
-0.993987, 161, 185, 416, 248
-0.994021, 193, 65, 208, 128
-0.994229, 345, 97, 376, 224
-0.994258, 81, 193, 208, 224
-0.994272, 289, 185, 352, 248
-0.994292, 267, 193, 282, 256
-0.994307, 105, 177, 120, 240
-0.994308, 171, 201, 186, 264
-0.994317, 205, 81, 220, 144
-0.994364, 65, 217, 192, 248
-0.994375, 49, 57, 176, 120
-0.994405, 97, 165, 224, 196
-0.994409, 1, 41, 256, 104
-0.994433, 65, 177, 192, 208
-0.994465, 33, 265, 160, 328
-0.994492, 193, 33, 448, 96
-0.994498, 409, 1, 472, 64
-0.994498, 241, 145, 368, 208
-0.994504, 129, 101, 256, 132
-0.994553, 149, 1, 180, 128
-0.994567, 257, 121, 384, 184
-0.994577, 329, 33, 360, 160
-0.994579, 1, 133, 128, 164
-0.994641, 177, 57, 192, 120
-0.994654, 193, 65, 448, 128
-0.994657, 277, 1, 308, 128
-0.994663, 185, 81, 200, 144
-0.994664, 365, 65, 396, 192
-0.994691, 13, 1, 44, 128
-0.994737, 1, 233, 256, 296
-0.994744, 201, 177, 216, 240
-0.994751, 163, 209, 178, 272
-0.994791, 197, 209, 212, 272
-0.994794, 369, 241, 496, 304
-0.994801, 185, 185, 200, 248
-0.994818, 183, 49, 198, 112
-0.994836, 65, 205, 192, 236
-0.994846, 39, 113, 54, 176
-0.994858, 65, 113, 192, 144
-0.994863, 1, 1, 256, 64
-0.994906, 145, 233, 272, 264
-0.994908, 321, 225, 384, 288
-0.994912, 255, 257, 270, 320
-0.994935, 259, 185, 274, 248
-0.994946, 207, 113, 222, 176
-0.994954, 179, 81, 194, 144
-0.994971, 131, 1, 146, 64
-0.994975, 1, 65, 500, 128
-0.994985, 1, 105, 500, 168
-0.995015, 305, 273, 432, 333
-0.995033, 409, 73, 472, 136
-0.995033, 73, 233, 136, 296
-0.99506, 193, 97, 448, 160
-0.995065, 161, 249, 416, 312
-0.995074, 81, 125, 208, 156
-0.995101, 145, 289, 272, 320
-0.995116, 247, 217, 262, 280
-0.995123, 199, 145, 214, 208
-0.995162, 119, 177, 134, 240
-0.995162, 137, 209, 168, 333
-0.995179, 1, 1, 16, 64
-0.995252, 45, 185, 60, 248
-0.995277, 193, 221, 320, 252
-0.995308, 1, 177, 32, 304
-0.995335, 1, 57, 128, 120
-0.995338, 183, 225, 198, 288
-0.995351, 111, 169, 126, 232
-0.995354, 273, 193, 288, 256
-0.995366, 161, 193, 288, 224
-0.995366, 93, 169, 108, 232
-0.995387, 1, 65, 256, 128
-0.995399, 1, 173, 128, 204
-0.995409, 137, 65, 168, 192
-0.995413, 17, 205, 144, 236
-0.995427, 217, 1, 248, 128
-0.995427, 225, 273, 240, 333
-0.995432, 193, 289, 320, 320
-0.995446, 401, 65, 464, 192
-0.995459, 1, 25, 128, 88
-0.99546, 257, 209, 272, 272
-0.995471, 225, 209, 480, 272
-0.995482, 207, 169, 222, 232
-0.995482, 65, 273, 320, 333
-0.99549, 425, 153, 488, 216
-0.995491, 19, 177, 34, 240
-0.995509, 191, 217, 206, 280
-0.995513, 251, 185, 266, 248
-0.995533, 47, 113, 62, 176
-0.995548, 33, 65, 64, 192
-0.99555, 193, 89, 208, 152
-0.995567, 255, 89, 270, 152
-0.995572, 271, 233, 286, 296
-0.995607, 51, 185, 66, 248
-0.995611, 377, 209, 440, 333
-0.995634, 185, 105, 200, 168
-0.995642, 385, 1, 448, 333
-0.995643, 119, 33, 134, 96
-0.99565, 37, 89, 52, 152
-0.995655, 209, 225, 224, 288
-0.995672, 273, 241, 336, 304
-0.995686, 17, 121, 144, 152
-0.995687, 109, 145, 124, 208
-0.9957, 97, 233, 160, 296
-0.995712, 117, 105, 132, 168
-0.995719, 213, 97, 228, 160
-0.995743, 125, 17, 140, 80
-0.995757, 261, 265, 276, 328
-0.995761, 113, 137, 240, 168
-0.995763, 171, 57, 186, 120
-0.995764, 233, 241, 248, 304
-0.995776, 371, 25, 386, 88
-0.9958, 241, 225, 256, 288
-0.99581, 33, 113, 48, 176
-0.995815, 177, 77, 304, 108
-0.99583, 13, 185, 28, 248
-0.995854, 99, 161, 114, 224
-0.995856, 197, 249, 212, 312
-0.995864, 97, 273, 160, 333
-0.995869, 173, 233, 188, 296
-0.99587, 269, 265, 284, 328
-0.995875, 17, 109, 144, 140
-0.995884, 223, 249, 238, 312
-0.995887, 179, 113, 194, 176
-0.995916, 127, 137, 142, 200
-0.99592, 185, 65, 216, 320
-0.995941, 321, 137, 448, 200
-0.995945, 233, 265, 248, 328
-0.995948, 319, 81, 334, 144
-0.995951, 97, 65, 224, 96
-0.995969, 201, 41, 216, 104
-0.995973, 113, 65, 128, 128
-0.995979, 249, 257, 264, 320
-0.995993, 171, 81, 186, 144
-0.996, 321, 121, 384, 184
-0.996009, 1, 169, 500, 232
-0.996013, 183, 25, 198, 88
-0.996013, 209, 265, 224, 328
-0.996074, 145, 65, 272, 96
-0.996084, 279, 201, 294, 264
-0.996089, 65, 141, 192, 172
-0.996092, 199, 73, 214, 136
-0.996099, 59, 185, 74, 248
-0.996099, 193, 1, 448, 64
-0.996125, 113, 85, 240, 116
-0.99613, 289, 41, 352, 104
-0.996139, 217, 257, 232, 320
-0.996139, 433, 73, 496, 136
-0.996142, 129, 177, 256, 208
-0.996149, 203, 217, 218, 280
-0.996152, 203, 257, 218, 320
-0.996161, 257, 65, 288, 320
-0.996164, 103, 129, 118, 192
-0.996192, 193, 1, 208, 64
-0.996197, 205, 65, 236, 320
-0.996216, 33, 177, 48, 240
-0.99623, 19, 153, 34, 216
-0.996257, 17, 233, 80, 296
-0.996262, 377, 249, 392, 312
-0.996263, 193, 273, 208, 333
-0.996271, 169, 33, 200, 288
-0.996282, 227, 113, 242, 176
-0.996295, 145, 265, 272, 296
-0.996301, 353, 209, 480, 333
-0.99631, 219, 89, 234, 152
-0.996322, 63, 121, 78, 184
-0.996351, 205, 137, 220, 200
-0.996356, 39, 137, 54, 200
-0.996358, 129, 121, 256, 152
-0.996376, 33, 65, 96, 128
-0.996389, 1, 17, 500, 80
-0.996395, 215, 233, 230, 296
-0.996398, 165, 49, 180, 112
-0.996401, 117, 153, 132, 216
-0.996403, 1, 193, 500, 256
-0.996411, 161, 301, 288, 332
-0.996437, 39, 169, 54, 232
-0.996447, 195, 41, 210, 104
-0.996448, 27, 177, 42, 240
-0.996467, 71, 105, 86, 168
-0.99647, 401, 1, 432, 128
-0.996479, 133, 105, 148, 168
-0.996489, 225, 273, 480, 333
-0.996501, 193, 237, 320, 268
-0.996515, 115, 129, 130, 192
-0.996537, 65, 153, 192, 184
-0.996539, 167, 105, 182, 168
-0.99657, 91, 113, 106, 176
-0.996576, 161, 17, 288, 48
-0.996587, 173, 25, 188, 88
-0.996593, 97, 53, 224, 84
-0.996599, 261, 81, 276, 144
-0.996602, 87, 177, 102, 240
-0.996604, 253, 233, 268, 296
-0.996607, 39, 193, 54, 256
-0.996616, 167, 233, 182, 296
-0.996627, 3, 49, 18, 112
-0.99663, 209, 89, 336, 120
-0.99664, 1, 161, 128, 192
-0.996643, 53, 209, 68, 272
-0.996655, 177, 105, 304, 136
-0.996663, 243, 177, 258, 240
-0.996679, 397, 49, 428, 176
-0.996682, 233, 65, 264, 320
-0.996684, 193, 209, 320, 240
-0.996696, 361, 121, 424, 184
-0.996704, 191, 113, 206, 176
-0.996707, 161, 233, 176, 296
-0.996719, 179, 265, 194, 328
-0.996748, 81, 229, 208, 260
-0.996753, 193, 265, 320, 296
-0.996754, 57, 105, 72, 168
-0.996759, 289, 193, 416, 256
-0.996776, 169, 129, 184, 192
-0.996777, 217, 65, 248, 320
-0.99678, 235, 105, 250, 168
-0.996785, 157, 193, 172, 256
-0.996789, 63, 161, 78, 224
-0.99679, 7, 1, 22, 64
-0.996797, 193, 117, 320, 148
-0.996799, 105, 105, 120, 168
-0.996807, 209, 277, 336, 308
-0.996808, 321, 193, 384, 320
-0.996811, 213, 169, 228, 232
-0.996817, 97, 113, 112, 176
-0.996823, 189, 241, 204, 304
-0.996824, 189, 33, 204, 96
-0.996825, 39, 113, 54, 144
-0.996833, 367, 57, 382, 120
-0.996834, 113, 217, 128, 280
-0.996835, 147, 113, 162, 176
-0.996837, 337, 217, 464, 280
-0.996846, 139, 121, 154, 184
-0.996872, 97, 1, 224, 32
-0.996885, 17, 217, 144, 248
-0.99689, 173, 73, 188, 104
-0.996892, 369, 161, 496, 288
-0.996903, 5, 73, 20, 136
-0.996904, 265, 169, 280, 232
-0.996914, 257, 201, 384, 232
-0.996919, 7, 185, 22, 248
-0.996931, 1, 41, 500, 104
-0.996948, 241, 213, 368, 244
-0.996949, 69, 153, 84, 216
-0.996958, 385, 25, 448, 88
-0.99696, 49, 165, 176, 196
-0.99696, 417, 1, 480, 256
-0.996971, 97, 1, 352, 64
-0.996989, 17, 97, 144, 128
-0.997012, 153, 33, 184, 288
-0.997023, 193, 93, 208, 124
-0.997055, 129, 149, 256, 180
-0.997072, 345, 209, 408, 272
-0.99708, 117, 1, 148, 256
-0.997082, 161, 89, 288, 120
-0.997088, 113, 277, 240, 308
-0.9971, 345, 1, 376, 128
-0.997116, 21, 185, 36, 216
-0.99712, 51, 213, 66, 244
-0.997134, 425, 65, 488, 192
-0.997143, 185, 65, 200, 96
-0.997147, 313, 17, 344, 144
-0.99716, 111, 173, 126, 204
-0.997168, 97, 65, 128, 320
-0.997171, 193, 81, 208, 112
-0.997184, 13, 181, 28, 212
-0.997187, 145, 165, 272, 196
-0.997223, 117, 177, 132, 208
-0.997243, 33, 65, 64, 320
-0.997254, 177, 53, 304, 84
-0.997286, 145, 253, 272, 284
-0.997289, 39, 205, 54, 236
-0.997311, 169, 61, 184, 92
-0.997313, 81, 65, 112, 320
-0.997327, 69, 65, 100, 320
-0.997355, 31, 181, 46, 212
-0.997363, 201, 85, 216, 116
-0.997373, 65, 13, 192, 44
-0.99738, 19, 173, 34, 204
-0.997384, 7, 185, 22, 216
-0.997396, 185, 77, 200, 108
-0.997407, 97, 41, 352, 104
-0.997428, 209, 253, 336, 284
-0.997451, 257, 9, 384, 40
-0.997455, 209, 13, 336, 44
-0.997473, 33, 109, 48, 140
-0.997475, 289, 161, 352, 224
-0.99748, 201, 1, 232, 128
-0.997481, 179, 65, 194, 96
-0.997487, 45, 65, 76, 320
-0.997497, 379, 257, 394, 288
-0.9975, 1, 13, 16, 44
-0.997501, 33, 121, 48, 152
-0.997506, 273, 21, 400, 52
-0.99751, 277, 161, 308, 288
-0.997527, 225, 161, 480, 224
-0.997532, 209, 165, 336, 196
-0.99755, 233, 237, 248, 268
-0.997551, 337, 13, 464, 44
-0.997553, 241, 177, 368, 208
-0.997557, 241, 69, 368, 100
-0.997563, 105, 173, 120, 204
-0.997564, 33, 1, 96, 128
-0.997567, 45, 209, 60, 240
-0.997573, 241, 109, 368, 140
-0.997582, 241, 289, 368, 320
-0.997585, 305, 77, 432, 108
-0.997597, 71, 117, 86, 148
-0.997601, 369, 77, 496, 108
-0.997602, 49, 121, 64, 152
-0.997611, 433, 1, 496, 64
-0.997614, 321, 273, 384, 333
-0.997619, 289, 101, 416, 132
-0.997621, 41, 193, 56, 224
-0.997622, 185, 113, 200, 144
-0.997623, 179, 77, 194, 108
-0.997626, 305, 1, 432, 32
-0.997633, 57, 213, 72, 244
-0.997634, 1, 145, 128, 176
-0.997665, 195, 105, 210, 136
-0.997666, 17, 229, 144, 260
-0.997685, 393, 225, 456, 288
-0.99769, 97, 173, 112, 204
-0.997709, 193, 61, 208, 92
-0.997727, 41, 125, 56, 156
-0.997731, 183, 25, 198, 56
-0.997737, 29, 193, 44, 224
-0.997753, 1, 137, 500, 200
-0.997761, 211, 173, 226, 204
-0.997773, 57, 117, 72, 148
-0.997775, 289, 121, 352, 184
-0.997787, 209, 289, 224, 320
-0.997788, 187, 97, 202, 128
-0.997798, 79, 117, 94, 148
-0.9978, 109, 129, 124, 160
-0.997801, 33, 1, 160, 32
-0.997805, 253, 281, 268, 312
-0.997814, 117, 117, 132, 148
-0.997817, 81, 101, 208, 132
-0.997819, 13, 1, 44, 256
-0.997824, 113, 21, 240, 52
-0.99784, 163, 217, 178, 248
-0.997859, 273, 197, 288, 228
-0.997859, 199, 281, 214, 312
-0.997862, 65, 117, 80, 148
-0.997867, 369, 61, 496, 92
-0.997868, 171, 201, 186, 232
-0.997884, 183, 193, 198, 224
-0.997886, 207, 109, 222, 140
-0.997888, 57, 65, 88, 320
-0.997888, 163, 65, 178, 96
-0.997888, 203, 181, 218, 212
-0.997897, 163, 53, 178, 84
-0.997904, 37, 97, 52, 128
-0.997908, 161, 137, 176, 168
-0.997908, 137, 65, 168, 320
-0.997909, 253, 241, 268, 272
-0.997915, 1, 233, 500, 296
-0.99792, 91, 117, 106, 148
-0.99792, 199, 213, 214, 244
-0.997924, 241, 265, 368, 296
-0.997924, 267, 273, 282, 304
-0.99793, 219, 245, 234, 276
-0.997934, 221, 101, 236, 132
-0.997935, 321, 161, 448, 224
-0.997937, 23, 197, 38, 228
-0.997943, 63, 133, 78, 164
-0.997944, 193, 65, 320, 96
-0.997949, 49, 209, 112, 333
-0.99795, 39, 181, 54, 212
-0.997951, 361, 209, 392, 333
-0.997952, 217, 293, 232, 324
-0.997962, 353, 265, 480, 328
-0.997962, 259, 277, 274, 308
-0.997963, 115, 57, 130, 88
-0.997963, 233, 105, 248, 136
-0.997963, 117, 141, 132, 172
-0.997965, 119, 189, 134, 220
-0.997965, 15, 193, 30, 224
-0.997973, 227, 241, 242, 272
-0.997976, 209, 125, 224, 156
-0.997978, 267, 193, 282, 224
-0.99798, 125, 181, 140, 212
-0.997991, 103, 185, 118, 216
-0.997993, 305, 89, 432, 120
-0.997993, 97, 289, 224, 320
-0.997994, 201, 73, 216, 104
-0.997997, 227, 281, 242, 312
-0.997998, 179, 117, 194, 148
-0.998, 279, 201, 294, 232
-0.998, 49, 133, 64, 164
-0.998003, 183, 225, 198, 256
-0.998004, 193, 277, 208, 308
-0.99801, 35, 193, 50, 224
-0.998013, 203, 125, 218, 156
-0.998014, 129, 5, 144, 36
-0.998015, 239, 289, 254, 320
-0.998027, 289, 61, 416, 92
-0.998029, 249, 217, 264, 248
-0.998031, 273, 249, 400, 280
-0.998037, 189, 189, 204, 220
-0.998041, 173, 25, 188, 56
-0.998041, 229, 293, 244, 324
-0.998048, 217, 261, 232, 292
-0.99806, 129, 141, 144, 172
-0.99806, 257, 213, 272, 244
-0.998063, 141, 105, 156, 136
-0.998065, 213, 105, 228, 136
-0.998069, 225, 301, 352, 332
-0.99807, 85, 117, 100, 148
-0.998073, 71, 105, 86, 136
-0.998082, 245, 285, 260, 316
-0.998083, 271, 233, 286, 264
-0.998083, 47, 185, 62, 216
-0.998089, 55, 129, 70, 160
-0.998095, 129, 17, 144, 48
-0.998097, 275, 213, 290, 244
-0.9981, 321, 177, 384, 240
-0.998104, 63, 217, 78, 248
-0.998104, 177, 53, 192, 84
-0.998108, 177, 197, 192, 228
-0.99811, 161, 29, 288, 60
-0.998112, 111, 185, 126, 216
-0.998113, 225, 253, 240, 284
-0.998117, 223, 293, 238, 324
-0.998118, 267, 213, 282, 244
-0.99812, 53, 105, 68, 136
-0.998122, 271, 249, 286, 280
-0.998126, 243, 229, 258, 260
-0.99813, 3, 77, 18, 108
-0.998134, 123, 33, 138, 64
-0.998136, 209, 193, 336, 224
-0.998139, 245, 33, 276, 288
-0.998146, 119, 45, 134, 76
-0.998146, 197, 133, 212, 164
-0.998146, 313, 145, 376, 208
-0.998151, 269, 1, 284, 32
-0.998155, 213, 233, 228, 264
-0.998162, 173, 85, 188, 116
-0.998173, 1, 257, 500, 320
-0.998178, 111, 69, 126, 100
-0.998178, 213, 93, 228, 124
-0.998178, 153, 53, 168, 84
-0.998178, 193, 129, 320, 160
-0.998179, 227, 117, 242, 148
-0.998181, 201, 97, 216, 128
-0.998185, 171, 237, 186, 268
-0.998185, 337, 25, 464, 56
-0.998201, 201, 109, 216, 140
-0.99821, 257, 189, 384, 220
-0.998226, 65, 241, 192, 272
-0.998227, 125, 209, 156, 333
-0.998235, 113, 301, 240, 332
-0.99826, 97, 257, 224, 288
-0.998275, 417, 161, 480, 288
-0.998282, 385, 193, 448, 256
-0.998284, 145, 1, 272, 32
-0.998353, 465, 33, 496, 160
-0.998354, 269, 65, 300, 320
-0.99836, 369, 89, 496, 120
-0.99838, 281, 65, 312, 320
-0.99838, 173, 201, 204, 216
-0.99838, 157, 73, 188, 88
-0.998381, 149, 111, 180, 126
-0.998381, 225, 295, 256, 310
-0.998382, 193, 259, 224, 274
-0.998384, 237, 299, 268, 314
-0.998384, 189, 225, 220, 240
-0.998385, 173, 85, 204, 100
-0.998385, 129, 117, 160, 132
-0.998385, 189, 25, 220, 40
-0.998385, 229, 247, 260, 262
-0.998387, 245, 293, 276, 308
-0.998387, 69, 123, 100, 138
-0.998388, 153, 53, 184, 68
-0.998388, 265, 275, 296, 290
-0.998388, 233, 277, 264, 292
-0.998388, 69, 109, 100, 124
-0.998388, 81, 117, 112, 132
-0.998389, 229, 181, 260, 196
-0.99839, 177, 235, 208, 250
-0.99839, 45, 141, 76, 156
-0.998391, 85, 181, 116, 196
-0.998391, 65, 25, 192, 56
-0.998391, 205, 137, 236, 152
-0.998391, 205, 263, 236, 278
-0.998392, 173, 101, 204, 116
-0.998392, 185, 281, 216, 296
-0.998394, 217, 173, 248, 188
-0.998396, 257, 25, 320, 88
-0.998398, 129, 111, 160, 126
-0.998398, 373, 263, 404, 278
-0.9984, 313, 103, 344, 118
-0.998401, 13, 193, 44, 208
-0.998401, 269, 207, 300, 222
-0.998402, 205, 127, 236, 142
-0.998403, 61, 215, 92, 230
-0.998403, 197, 109, 228, 124
-0.998403, 205, 235, 236, 250
-0.998403, 241, 185, 272, 200
-0.998404, 213, 119, 244, 134
-0.998404, 53, 101, 84, 116
-0.998406, 13, 127, 44, 142
-0.998406, 177, 131, 208, 146
-0.998408, 269, 215, 300, 230
-0.998409, 41, 101, 72, 116
-0.99841, 365, 257, 396, 272
-0.998411, 217, 181, 248, 196
-0.998413, 49, 57, 176, 88
-0.998413, 25, 203, 56, 218
-0.998414, 9, 181, 40, 196
-0.998414, 89, 127, 120, 142
-0.99842, 181, 195, 212, 210
-0.998421, 213, 283, 244, 298
-0.998422, 213, 247, 244, 262
-0.998424, 169, 95, 200, 110
-0.998425, 181, 71, 212, 86
-0.998425, 205, 255, 236, 270
-0.998425, 173, 21, 204, 36
-0.998427, 161, 81, 192, 96
-0.998428, 29, 129, 60, 144
-0.998429, 193, 115, 224, 130
-0.99843, 97, 113, 128, 128
-0.99843, 289, 269, 416, 300
-0.998431, 229, 111, 260, 126
-0.998432, 225, 25, 352, 56
-0.998433, 189, 187, 220, 202
-0.998433, 253, 273, 284, 288
-0.998433, 49, 213, 80, 228
-0.998436, 81, 209, 112, 224
-0.998437, 117, 113, 148, 128
-0.998438, 33, 131, 96, 146
-0.998438, 69, 117, 100, 132
-0.998438, 237, 237, 268, 252
-0.998438, 337, 41, 464, 72
-0.998439, 229, 117, 260, 132
-0.998443, 169, 211, 200, 226
-0.998444, 193, 127, 224, 142
-0.998445, 221, 241, 252, 256
-0.998445, 197, 89, 228, 104
-0.998446, 177, 119, 208, 134
-0.998446, 197, 143, 228, 158
-0.998447, 233, 289, 264, 304
-0.998448, 45, 119, 76, 134
-0.998448, 165, 59, 196, 74
-0.998451, 201, 293, 264, 308
-0.998453, 149, 65, 180, 80
-0.998456, 197, 287, 228, 302
-0.998457, 1, 125, 64, 140
-0.998462, 77, 133, 108, 148
-0.998463, 157, 239, 188, 254
-0.998463, 177, 95, 240, 110
-0.998463, 173, 27, 204, 42
-0.998463, 17, 111, 48, 126
-0.998464, 193, 77, 224, 92
-0.998465, 1, 111, 64, 126
-0.998467, 157, 229, 188, 244
-0.998467, 53, 131, 84, 146
-0.998468, 181, 91, 212, 106
-0.998469, 117, 119, 148, 134
-0.998472, 29, 181, 60, 196
-0.998474, 161, 75, 224, 90
-0.998475, 113, 179, 144, 194
-0.998476, 193, 181, 256, 196
-0.998479, 13, 199, 44, 214
-0.998479, 161, 223, 192, 238
-0.99848, 321, 1, 352, 256
-0.998481, 213, 295, 244, 310
-0.998483, 101, 191, 132, 206
-0.998484, 157, 135, 188, 150
-0.998486, 57, 125, 88, 140
-0.998486, 253, 215, 284, 230
-0.998486, 161, 221, 224, 236
-0.998486, 57, 131, 120, 146
-0.998487, 25, 125, 88, 140
-0.998487, 165, 217, 196, 232
-0.998487, 213, 105, 244, 120
-0.998493, 41, 113, 72, 128
-0.998494, 177, 125, 208, 140
-0.998495, 241, 215, 304, 230
-0.998495, 185, 85, 216, 100
-0.998496, 381, 193, 412, 320
-0.998496, 29, 209, 60, 224
-0.998496, 41, 185, 72, 200
-0.998501, 169, 229, 232, 244
-0.998501, 173, 65, 204, 80
-0.998502, 245, 281, 276, 296
-0.998504, 153, 215, 216, 230
-0.998507, 177, 89, 240, 104
-0.998508, 1, 185, 64, 200
-0.998508, 185, 285, 248, 300
-0.998511, 161, 137, 224, 152
-0.998516, 193, 99, 224, 114
-0.998517, 169, 73, 200, 88
-0.998518, 73, 137, 136, 152
-0.998518, 217, 255, 248, 270
-0.998518, 205, 177, 236, 192
-0.998518, 209, 233, 272, 248
-0.998518, 97, 133, 128, 148
-0.998519, 185, 107, 248, 122
-0.99852, 49, 219, 80, 234
-0.998523, 29, 111, 60, 126
-0.998524, 65, 131, 96, 146
-0.998525, 45, 125, 76, 140
-0.998526, 81, 113, 144, 128
-0.998528, 161, 101, 224, 116
-0.998528, 89, 175, 152, 190
-0.998529, 117, 143, 148, 158
-0.998531, 185, 137, 216, 152
-0.998532, 201, 225, 264, 240
-0.998532, 145, 227, 208, 242
-0.998533, 353, 1, 480, 32
-0.998533, 153, 69, 216, 84
-0.998534, 17, 217, 80, 232
-0.998534, 1, 33, 32, 288
-0.998535, 169, 235, 232, 250
-0.998535, 105, 113, 168, 128
-0.998538, 185, 105, 216, 120
-0.998538, 1, 131, 64, 146
-0.99854, 185, 101, 248, 116
-0.998541, 1, 187, 32, 202
-0.998542, 81, 185, 144, 200
-0.998543, 25, 113, 88, 128
-0.998543, 25, 191, 56, 206
-0.998547, 201, 219, 264, 234
-0.998548, 129, 65, 192, 80
-0.998548, 129, 139, 192, 154
-0.998549, 153, 83, 216, 98
-0.998551, 1, 193, 64, 208
-0.998553, 9, 211, 72, 226
-0.998556, 25, 185, 88, 200
-0.998556, 209, 285, 272, 300
-0.998558, 29, 117, 60, 132
-0.99856, 189, 219, 220, 234
-0.99856, 187, 177, 202, 304
-0.998561, 161, 129, 224, 144
-0.998561, 161, 209, 224, 224
-0.998562, 57, 181, 120, 196
-0.998563, 93, 175, 124, 190
-0.998564, 1, 119, 64, 134
-0.998566, 145, 113, 208, 128
-0.998568, 41, 131, 72, 146
-0.99857, 17, 85, 144, 116
-0.998574, 365, 1, 396, 256
-0.998579, 65, 123, 128, 138
-0.998579, 217, 267, 280, 282
-0.99858, 201, 303, 264, 318
-0.99858, 161, 143, 224, 158
-0.998581, 33, 123, 64, 138
-0.998582, 145, 237, 208, 252
-0.998583, 41, 119, 104, 134
-0.998583, 25, 141, 88, 156
-0.998584, 65, 175, 128, 190
-0.998584, 137, 75, 200, 90
-0.998586, 137, 221, 200, 236
-0.998587, 217, 99, 280, 114
-0.998587, 161, 123, 224, 138
-0.998588, 81, 131, 144, 146
-0.998589, 185, 275, 248, 290
-0.998591, 209, 105, 272, 120
-0.998591, 173, 79, 204, 94
-0.998592, 161, 63, 224, 78
-0.998592, 193, 129, 208, 256
-0.998592, 225, 279, 288, 294
-0.998593, 425, 1, 488, 333
-0.998595, 177, 83, 240, 98
-0.998598, 193, 239, 256, 254
-0.998598, 105, 131, 168, 146
-0.998598, 41, 103, 104, 118
-0.998598, 37, 215, 68, 230
-0.998599, 113, 145, 176, 160
-0.9986, 217, 273, 280, 288
-0.998602, 113, 59, 176, 74
-0.998603, 177, 299, 240, 314
-0.998603, 113, 233, 176, 248
-0.998604, 113, 217, 176, 232
-0.998605, 121, 107, 184, 122
-0.998606, 1, 137, 64, 152
-0.998606, 177, 269, 240, 284
-0.998606, 185, 263, 248, 278
-0.998606, 57, 211, 120, 226
-0.998606, 201, 257, 264, 272
-0.998607, 233, 231, 296, 246
-0.998607, 57, 189, 120, 204
-0.998608, 89, 193, 152, 208
-0.998609, 185, 113, 248, 128
-0.998609, 333, 1, 364, 256
-0.99861, 161, 289, 224, 304
-0.99861, 153, 93, 216, 108
-0.99861, 113, 179, 176, 194
-0.998611, 169, 201, 232, 216
-0.998612, 1, 97, 64, 112
-0.998612, 129, 19, 192, 34
-0.998613, 381, 1, 412, 256
-0.998613, 233, 295, 296, 310
-0.998615, 201, 213, 264, 228
-0.998616, 73, 19, 136, 34
-0.998617, 1, 205, 64, 220
-0.998617, 177, 191, 240, 206
-0.998619, 153, 177, 216, 192
-0.998619, 185, 123, 248, 138
-0.99862, 217, 241, 280, 256
-0.99862, 241, 221, 304, 236
-0.998621, 153, 107, 216, 122
-0.998621, 41, 217, 104, 232
-0.998621, 81, 39, 144, 54
-0.998621, 73, 9, 136, 24
-0.998622, 113, 173, 176, 188
-0.998623, 185, 139, 248, 154
-0.998624, 89, 143, 152, 158
-0.998627, 185, 133, 248, 148
-0.998627, 57, 109, 120, 124
-0.998629, 217, 93, 280, 108
-0.998629, 193, 175, 256, 190
-0.99863, 217, 183, 280, 198
-0.998631, 121, 205, 184, 220
-0.998631, 81, 47, 144, 62
-0.998632, 1, 179, 64, 194
-0.998632, 241, 273, 304, 288
-0.998634, 81, 71, 144, 86
-0.998635, 113, 13, 176, 28
-0.998635, 177, 257, 240, 272
-0.998635, 97, 119, 160, 134
-0.998635, 13, 187, 44, 202
-0.998635, 145, 57, 208, 72
-0.998635, 25, 193, 88, 208
-0.998636, 113, 223, 176, 238
-0.998636, 233, 285, 296, 300
-0.998636, 1, 103, 64, 118
-0.998637, 1, 193, 32, 208
-0.998637, 297, 17, 360, 32
-0.998639, 97, 151, 160, 166
-0.99864, 81, 33, 144, 48
-0.998641, 129, 153, 192, 168
-0.998642, 89, 1, 152, 16
-0.998642, 169, 27, 232, 42
-0.998642, 305, 103, 368, 118
-0.998645, 173, 193, 188, 320
-0.998646, 261, 177, 276, 304
-0.998646, 193, 177, 208, 304
-0.998649, 199, 129, 214, 256
-0.998651, 369, 153, 496, 216
-0.998658, 83, 113, 98, 240
-0.998662, 353, 193, 480, 256
-0.998662, 305, 249, 432, 312
-0.998672, 107, 113, 122, 240
-0.998674, 105, 185, 136, 200
-0.998682, 197, 49, 212, 176
-0.998682, 211, 161, 226, 288
-0.998694, 225, 121, 480, 184
-0.998699, 309, 65, 340, 320
-0.998702, 337, 129, 400, 256
-0.998702, 181, 177, 196, 304
-0.998713, 251, 177, 266, 304
-0.998717, 193, 1, 320, 32
-0.998726, 353, 261, 480, 292
-0.99873, 273, 49, 400, 80
-0.998736, 161, 41, 288, 72
-0.998744, 101, 113, 116, 240
-0.998757, 199, 177, 214, 304
-0.99876, 185, 49, 200, 176
-0.998768, 113, 37, 240, 68
-0.998813, 1, 17, 128, 48
-0.998836, 267, 177, 282, 304
-0.998845, 1, 1, 16, 128
-0.998849, 257, 185, 500, 248
-0.998856, 273, 33, 400, 64
-0.99886, 111, 65, 126, 192
-0.998872, 71, 113, 86, 240
-0.998877, 43, 113, 58, 240
-0.998888, 175, 49, 190, 176
-0.998892, 35, 97, 50, 224
-0.998896, 113, 113, 128, 240
-0.998901, 205, 129, 220, 256
-0.998912, 257, 81, 384, 112
-0.998912, 127, 1, 142, 128
-0.998913, 17, 45, 144, 76
-0.998915, 227, 97, 242, 224
-0.998923, 77, 113, 92, 240
-0.998925, 91, 161, 106, 288
-0.998925, 165, 145, 180, 272
-0.998933, 65, 97, 80, 224
-0.99895, 237, 177, 252, 304
-0.998953, 91, 113, 106, 240
-0.998973, 203, 81, 218, 208
-0.998976, 223, 161, 238, 288
-0.998983, 225, 37, 352, 68
-0.998991, 231, 177, 246, 304
-0.998993, 1, 73, 128, 104
-0.999007, 205, 177, 220, 304
-0.999008, 173, 113, 188, 240
-0.999023, 191, 49, 206, 176
-0.999025, 117, 161, 132, 288
-0.999036, 107, 161, 122, 288
-0.999038, 169, 65, 184, 192
-0.999044, 185, 113, 200, 240
-0.999047, 57, 113, 72, 240
-0.999049, 235, 97, 250, 224
-0.999052, 243, 177, 258, 304
-0.999054, 219, 81, 234, 208
-0.999059, 357, 1, 388, 128
-0.999068, 65, 41, 192, 72
-0.999068, 179, 113, 194, 240
-0.999081, 167, 193, 182, 320
-0.999103, 29, 113, 44, 240
-0.999105, 289, 177, 320, 304
-0.999111, 77, 161, 92, 288
-0.999129, 85, 161, 100, 288
-0.999129, 247, 97, 262, 224
-0.999132, 273, 177, 288, 304
-0.999134, 1, 29, 128, 60
-0.999139, 241, 121, 368, 152
-0.999145, 65, 77, 192, 108
-0.999147, 295, 49, 310, 176
-0.999151, 187, 1, 202, 128
-0.999151, 49, 129, 64, 256
-0.999152, 177, 153, 304, 184
-0.999154, 25, 209, 56, 333
-0.999158, 209, 81, 224, 208
-0.999165, 293, 65, 324, 320
-0.999169, 217, 161, 232, 288
-0.999177, 261, 113, 276, 240
-0.999179, 175, 1, 190, 128
-0.999184, 373, 113, 404, 240
-0.999187, 337, 101, 464, 132
-0.999189, 33, 161, 48, 288
-0.999189, 97, 161, 112, 288
-0.999191, 353, 1, 384, 256
-0.999194, 51, 177, 66, 304
-0.999205, 373, 17, 388, 144
-0.999209, 51, 81, 66, 208
-0.999211, 105, 65, 120, 192
-0.999213, 119, 113, 134, 240
-0.999215, 127, 145, 142, 272
-0.999226, 41, 161, 56, 288
-0.999227, 7, 65, 22, 192
-0.999229, 267, 113, 282, 240
-0.999239, 63, 161, 78, 288
-0.99924, 91, 65, 106, 192
-0.999246, 255, 129, 270, 256
-0.999252, 7, 1, 22, 128
-0.999255, 65, 89, 192, 120
-0.999255, 241, 49, 256, 176
-0.999262, 365, 49, 380, 176
-0.999268, 181, 1, 196, 128
-0.999279, 195, 1, 210, 128
-0.999281, 241, 97, 256, 224
-0.999289, 257, 137, 384, 168
-0.999296, 393, 1, 424, 256
-0.999296, 117, 49, 132, 176
-0.999299, 33, 17, 64, 144
-0.9993, 9, 113, 24, 240
-0.999306, 301, 17, 316, 144
-0.999312, 81, 65, 96, 192
-0.999318, 21, 161, 36, 288
-0.999319, 289, 49, 304, 176
-0.999324, 353, 153, 480, 184
-0.999346, 289, 297, 416, 328
-0.999346, 337, 201, 464, 232
-0.999347, 27, 161, 42, 288
-0.99935, 275, 113, 290, 240
-0.999358, 225, 209, 240, 333
-0.999359, 203, 33, 218, 160
-0.999367, 115, 209, 130, 333
-0.999367, 233, 49, 248, 176
-0.999372, 337, 229, 464, 260
-0.999372, 57, 177, 72, 304
-0.999373, 221, 33, 236, 160
-0.999386, 163, 65, 178, 192
-0.999388, 15, 129, 30, 256
-0.99939, 133, 145, 148, 272
-0.999397, 123, 193, 138, 320
-0.999399, 121, 1, 136, 128
-0.999402, 69, 161, 84, 288
-0.999403, 159, 161, 174, 288
-0.999405, 353, 249, 480, 280
-0.99941, 255, 81, 270, 208
-0.999413, 323, 81, 338, 208
-0.999414, 139, 81, 154, 208
-0.999417, 279, 193, 294, 320
-0.999419, 177, 141, 304, 172
-0.999419, 309, 97, 324, 224
-0.999419, 99, 65, 114, 192
-0.999426, 337, 273, 464, 304
-0.999429, 83, 209, 98, 333
-0.999429, 133, 1, 148, 128
-0.999434, 317, 65, 332, 192
-0.999439, 23, 113, 38, 240
-0.999442, 247, 33, 262, 160
-0.999458, 305, 137, 432, 168
-0.999459, 303, 97, 318, 224
-0.99946, 103, 209, 118, 333
-0.999463, 133, 97, 148, 224
-0.999473, 211, 209, 226, 333
-0.999477, 209, 33, 224, 160
-0.99948, 231, 1, 246, 128
-0.999494, 285, 97, 300, 224
-0.999496, 43, 209, 58, 333
-0.999499, 73, 65, 88, 192
-0.999503, 109, 209, 124, 333
-0.999505, 273, 225, 400, 256
-0.999517, 81, 17, 96, 144
-0.999518, 353, 213, 480, 244
-0.999518, 219, 209, 234, 333
-0.999523, 1, 49, 16, 176
-0.999524, 333, 97, 348, 224
-0.999524, 161, 1, 176, 128
-0.999524, 91, 17, 106, 144
-0.999532, 63, 49, 78, 176
-0.999542, 127, 97, 142, 224
-0.999592, 219, 117, 234, 132
-0.999592, 219, 295, 234, 310
-0.999592, 233, 247, 248, 262
-0.999594, 253, 283, 268, 298
-0.999594, 169, 67, 184, 82
-0.999595, 1, 19, 16, 34
-0.999596, 207, 141, 222, 156
-0.999597, 239, 285, 254, 300
-0.999598, 183, 59, 198, 74
-0.999599, 187, 105, 202, 120
-0.999599, 199, 145, 214, 160
-0.999599, 211, 293, 226, 308
-0.9996, 153, 55, 168, 70
-0.9996, 215, 105, 230, 120
-0.999601, 161, 231, 176, 246
-0.999601, 163, 137, 178, 152
-0.999601, 169, 213, 184, 228
-0.999601, 39, 191, 54, 206
-0.999601, 121, 111, 136, 126
-0.999602, 269, 265, 284, 280
-0.999603, 13, 209, 44, 333
-0.999603, 187, 269, 202, 284
-0.999604, 283, 207, 298, 222
-0.999606, 131, 1, 146, 16
-0.999606, 125, 181, 140, 196
-0.999608, 183, 193, 198, 208
-0.999608, 177, 27, 192, 42
-0.999608, 177, 125, 192, 140
-0.999608, 109, 137, 124, 152
-0.99961, 173, 207, 188, 222
-0.99961, 67, 133, 82, 148
-0.99961, 163, 59, 178, 74
-0.999611, 225, 257, 240, 272
-0.999611, 221, 105, 236, 120
-0.999611, 91, 133, 106, 148
-0.999611, 33, 195, 48, 210
-0.999612, 201, 79, 216, 94
-0.999612, 83, 117, 98, 132
-0.999614, 113, 69, 128, 84
-0.999614, 199, 285, 214, 300
-0.999615, 195, 139, 210, 154
-0.999616, 253, 249, 268, 264
-0.999616, 259, 281, 274, 296
-0.999616, 369, 129, 496, 192
-0.999618, 371, 267, 386, 282
-0.999618, 77, 131, 92, 146
-0.999619, 171, 237, 186, 252
-0.999619, 105, 187, 120, 202
-0.999622, 191, 277, 206, 292
-0.999622, 53, 221, 68, 236
-0.999624, 173, 87, 188, 102
-0.999624, 65, 219, 80, 234
-0.999625, 201, 99, 216, 114
-0.999625, 185, 21, 200, 36
-0.999629, 105, 173, 120, 188
-0.99963, 37, 99, 52, 114
-0.999632, 1, 13, 16, 28
-0.999634, 119, 117, 134, 132
-0.999635, 163, 65, 178, 80
-0.999636, 193, 187, 208, 202
-0.999636, 185, 69, 200, 84
-0.999637, 257, 215, 272, 230
-0.999637, 263, 275, 278, 290
-0.999641, 107, 131, 122, 146
-0.999642, 57, 125, 72, 140
-0.999643, 31, 203, 46, 218
-0.999646, 47, 111, 62, 126
-0.999647, 225, 245, 240, 260
-0.999647, 199, 183, 214, 198
-0.999647, 25, 193, 40, 208
-0.999648, 119, 187, 134, 202
-0.999649, 83, 131, 98, 146
-0.999649, 111, 175, 126, 190
-0.99965, 175, 73, 190, 88
-0.999652, 201, 85, 216, 100
-0.999653, 29, 111, 44, 126
-0.999654, 193, 63, 208, 78
-0.999654, 19, 199, 34, 214
-0.999656, 23, 179, 38, 194
-0.999657, 237, 109, 252, 124
-0.999657, 199, 133, 214, 148
-0.999657, 193, 85, 208, 100
-0.999657, 41, 109, 56, 124
-0.99966, 35, 119, 50, 134
-0.999661, 41, 117, 56, 132
-0.999661, 231, 241, 246, 256
-0.999662, 177, 63, 192, 78
-0.999666, 183, 27, 198, 42
-0.999667, 219, 247, 234, 262
-0.999668, 169, 61, 184, 76
-0.999669, 35, 129, 50, 144
-0.99967, 29, 181, 44, 196
-0.999671, 61, 133, 76, 148
-0.999672, 131, 145, 146, 160
-0.999672, 187, 99, 202, 114
-0.999673, 187, 89, 202, 104
-0.999673, 3, 193, 18, 208
-0.999675, 45, 131, 60, 146
-0.99968, 39, 211, 54, 226
-0.999682, 35, 107, 50, 122
-0.999683, 119, 143, 134, 158
-0.999686, 45, 185, 60, 200
-0.999688, 193, 105, 208, 120
-0.999689, 185, 115, 200, 130
-0.999692, 179, 81, 194, 96
-0.999693, 25, 199, 40, 214
-0.999694, 209, 177, 224, 192
-0.999697, 193, 77, 208, 92
-0.999698, 201, 139, 216, 154
-0.999698, 297, 177, 360, 304
-0.999699, 47, 125, 62, 140
-0.9997, 173, 79, 188, 94
-0.999701, 33, 189, 48, 204
-0.999709, 199, 215, 214, 230
-0.999709, 15, 193, 30, 208
-0.99971, 37, 183, 52, 198
-0.999719, 9, 187, 24, 202
-0.999724, 111, 183, 126, 198
-0.999724, 9, 193, 24, 208
-0.999725, 377, 257, 392, 272
-0.999725, 187, 79, 202, 94
-0.999726, 193, 97, 208, 112
-0.999726, 119, 179, 134, 194
-0.999728, 47, 213, 62, 228
-0.999728, 193, 91, 208, 106
-0.999737, 17, 187, 32, 202
-0.999739, 53, 215, 68, 230
-0.999746, 51, 131, 66, 146
-0.999747, 35, 113, 50, 128
-0.999748, 59, 217, 74, 232
-0.999767, 169, 73, 184, 88
-0.999772, 257, 249, 500, 312
-0.999783, 23, 187, 38, 202
-0.999794, 41, 123, 56, 138
-0.999863, 461, 1, 492, 256
-0.999885, 409, 1, 440, 256
-1.0001, 429, 1, 460, 256
-1.00012, 341, 49, 372, 176
-1.00027, 229, 1, 260, 128
-1.00036, 449, 1, 480, 256
-1.00055, 453, 49, 484, 176
-1.00057, 325, 161, 356, 288
-1.00072, 425, 177, 456, 304
-1.00088, 365, 161, 396, 288
-1.00125, 21, 49, 52, 176
-1.00142, 413, 1, 444, 128
-1.00146, 361, 145, 424, 272
-1.00169, 413, 193, 444, 320
-1.00173, 361, 113, 392, 240
-1.00181, 313, 129, 376, 256
-1.00194, 453, 1, 484, 128
-1.0021, 397, 97, 428, 224
-1.00221, 337, 145, 368, 272
-1.00242, 313, 193, 344, 320
-1.00285, 409, 145, 440, 272
-1.0029, 313, 129, 344, 256
-1.00306, 441, 17, 472, 144
-1.00314, 333, 209, 364, 333
-1.00318, 345, 209, 408, 333
-1.0032, 393, 209, 424, 333
-1.00338, 393, 161, 456, 288
-1.00344, 301, 177, 332, 304
-1.00384, 437, 97, 468, 224
-1.00389, 429, 17, 460, 144
-1.00519, 425, 113, 488, 240
-1.00561, 401, 209, 464, 333
-1.00827, 401, 113, 464, 240
-1.0087, 425, 209, 488, 333
