1875
-0.543877, 1, 1, 500, 333
-0.563252, 1, 1, 500, 256
-0.596591, 65, 1, 320, 333
-0.616781, 161, 1, 416, 333
-0.664205, 257, 1, 500, 333
-0.805329, 65, 1, 320, 256
-0.813096, 257, 1, 500, 256
-0.845843, 161, 1, 416, 256
-0.888847, 193, 1, 320, 333
-0.894478, 129, 1, 256, 333
-0.900265, 241, 1, 368, 333
-0.90276, 289, 1, 416, 333
-0.904882, 369, 1, 496, 333
-0.908332, 81, 1, 208, 333
-0.908539, 17, 1, 144, 333
-0.91053, 209, 1, 336, 256
-0.913971, 97, 1, 224, 256
-0.922961, 353, 1, 480, 256
-0.923742, 305, 1, 432, 256
-0.923848, 161, 1, 288, 256
-0.926945, 1, 161, 500, 288
-0.927954, 1, 81, 500, 208
-0.931199, 257, 97, 500, 224
-0.935538, 1, 33, 500, 160
-0.939461, 33, 97, 288, 224
-0.941561, 161, 97, 416, 224
-0.942791, 201, 129, 264, 256
-0.943256, 49, 1, 176, 256
-0.943808, 257, 1, 384, 256
-0.944019, 161, 49, 416, 176
-0.944131, 193, 129, 320, 256
-0.945347, 1, 1, 128, 256
-0.946918, 1, 49, 256, 176
-0.947148, 161, 145, 416, 272
-0.947331, 65, 177, 320, 304
-0.95214, 145, 97, 272, 224
-0.952745, 369, 33, 496, 160
-0.954161, 201, 145, 264, 208
-0.95542, 225, 97, 288, 224
-0.955784, 249, 129, 312, 256
-0.957629, 433, 97, 496, 224
-0.957854, 193, 177, 320, 304
-0.957929, 217, 113, 280, 176
-0.958821, 177, 129, 240, 256
-0.959676, 257, 33, 500, 160
-0.959797, 281, 97, 344, 224
-0.960162, 193, 81, 320, 208
-0.960558, 1, 49, 128, 176
-0.961039, 305, 81, 432, 208
-0.961166, 257, 97, 384, 224
-0.961291, 233, 145, 296, 208
-0.961783, 369, 81, 496, 208
-0.962834, 81, 49, 208, 176
-0.963638, 113, 161, 240, 288
-0.964117, 1, 209, 500, 333
-0.964994, 145, 49, 272, 176
-0.965012, 257, 129, 320, 192
-0.965027, 201, 81, 264, 208
-0.965647, 193, 177, 256, 304
-0.966276, 193, 121, 256, 184
-0.96651, 201, 177, 264, 240
-0.967258, 97, 113, 224, 240
-0.968488, 153, 113, 216, 240
-0.96871, 425, 97, 488, 160
-0.968759, 321, 81, 384, 208
-0.968764, 225, 33, 352, 160
-0.969121, 161, 1, 416, 128
-0.969151, 361, 81, 424, 208
-0.969986, 305, 33, 432, 160
-0.970005, 225, 177, 288, 304
-0.970468, 241, 105, 304, 168
-0.970674, 385, 65, 448, 192
-0.970915, 213, 145, 244, 208
-0.970973, 433, 121, 496, 184
-0.971661, 177, 145, 304, 208
-0.971709, 385, 89, 448, 152
-0.971852, 225, 169, 288, 232
-0.971906, 417, 33, 480, 160
-0.971987, 345, 89, 408, 152
-0.972152, 213, 129, 244, 256
-0.972214, 265, 137, 296, 200
-0.972219, 161, 161, 224, 224
-0.972359, 321, 89, 384, 152
-0.973033, 273, 49, 336, 176
-0.97338, 177, 49, 240, 176
-0.973552, 281, 113, 344, 176
-0.973555, 329, 33, 392, 160
-0.973695, 169, 177, 232, 304
-0.974727, 65, 1, 320, 128
-0.974888, 225, 121, 256, 184
-0.975092, 41, 49, 104, 176
-0.975475, 257, 153, 320, 216
-0.975528, 249, 177, 312, 304
-0.975619, 169, 105, 232, 168
-0.975972, 237, 145, 268, 208
-0.976053, 193, 121, 320, 184
-0.976091, 225, 49, 288, 176
-0.97669, 213, 121, 244, 184
-0.977003, 353, 33, 416, 160
-0.977194, 177, 169, 304, 232
-0.977365, 161, 193, 416, 320
-0.977463, 265, 129, 296, 256
-0.977686, 409, 81, 472, 208
-0.977781, 17, 97, 144, 224
-0.977853, 401, 129, 464, 192
-0.977971, 369, 89, 496, 152
-0.978007, 281, 137, 344, 200
-0.978545, 277, 129, 308, 192
-0.978574, 225, 145, 256, 208
-0.978726, 241, 145, 368, 272
-0.978789, 145, 121, 272, 184
-0.978885, 161, 129, 224, 192
-0.979177, 249, 81, 312, 208
-0.979212, 145, 1, 272, 128
-0.97928, 273, 145, 336, 272
-0.979627, 169, 193, 232, 256
-0.979691, 305, 89, 432, 152
-0.979844, 469, 89, 500, 152
-0.979854, 65, 33, 128, 160
-0.980563, 297, 89, 360, 152
-0.981076, 393, 17, 456, 144
-0.981291, 249, 145, 280, 208
-0.981387, 81, 1, 208, 128
-0.981546, 145, 209, 272, 333
-0.981675, 225, 97, 352, 160
-0.981725, 201, 89, 264, 152
-0.981743, 65, 177, 192, 304
-0.981828, 265, 113, 296, 176
-0.981952, 329, 25, 392, 88
-0.982186, 225, 145, 352, 208
-0.982305, 129, 145, 256, 208
-0.982404, 229, 97, 260, 224
-0.982435, 209, 177, 240, 240
-0.982678, 241, 1, 304, 128
-0.982789, 193, 129, 224, 256
-0.982954, 129, 49, 192, 176
-0.982984, 305, 33, 368, 160
-0.983012, 153, 41, 216, 104
-0.983126, 281, 1, 344, 128
-0.983291, 369, 113, 432, 176
-0.983449, 1, 1, 128, 128
-0.983538, 289, 121, 320, 184
-0.983682, 273, 89, 336, 152
-0.983773, 257, 121, 384, 184
-0.983815, 205, 177, 236, 304
-0.983835, 277, 129, 308, 256
-0.983922, 253, 121, 284, 184
-0.983962, 213, 81, 244, 208
-0.984048, 281, 25, 344, 88
-0.984288, 237, 121, 268, 184
-0.98449, 65, 41, 128, 104
-0.984503, 73, 97, 136, 224
-0.984675, 201, 33, 264, 160
-0.984699, 177, 81, 240, 144
-0.984765, 369, 9, 432, 72
-0.984858, 305, 113, 368, 176
-0.9849, 145, 89, 272, 152
-0.985115, 25, 97, 88, 160
-0.985168, 17, 33, 80, 160
-0.985232, 345, 113, 408, 176
-0.985243, 201, 137, 232, 200
-0.985396, 249, 177, 312, 240
-0.985399, 253, 129, 284, 256
-0.985433, 253, 169, 284, 232
-0.985508, 461, 81, 492, 208
-0.985599, 153, 1, 216, 256
-0.985619, 369, 89, 400, 152
-0.985668, 241, 25, 304, 88
-0.985739, 417, 25, 480, 88
-0.985809, 89, 49, 152, 176
-0.986033, 81, 97, 208, 160
-0.986046, 189, 161, 220, 224
-0.986096, 369, 113, 496, 176
-0.986191, 277, 153, 308, 216
-0.986234, 277, 105, 308, 168
-0.986266, 17, 81, 80, 208
-0.986376, 129, 169, 256, 232
-0.986404, 17, 33, 80, 96
-0.986518, 105, 25, 168, 88
-0.986594, 217, 177, 248, 304
-0.986622, 225, 169, 256, 232
-0.986632, 1, 105, 128, 168
-0.986696, 241, 97, 272, 224
-0.986992, 469, 33, 500, 160
-0.987225, 393, 89, 424, 152
-0.987283, 145, 161, 208, 288
-0.98729, 325, 89, 356, 152
-0.987401, 217, 1, 280, 256
-0.987488, 269, 81, 300, 208
-0.987514, 49, 97, 112, 160
-0.987589, 449, 81, 480, 208
-0.987614, 433, 1, 496, 256
-0.987615, 345, 65, 408, 128
-0.987684, 153, 1, 216, 128
-0.987759, 441, 89, 472, 152
-0.987907, 137, 97, 200, 160
-0.987935, 17, 49, 144, 112
-0.988037, 169, 1, 232, 333
-0.988051, 121, 177, 184, 304
-0.988054, 193, 65, 256, 320
-0.988128, 189, 121, 220, 184
-0.988133, 353, 17, 480, 80
-0.98823, 417, 73, 480, 136
-0.988299, 1, 97, 64, 160
-0.988342, 453, 97, 484, 160
-0.988372, 113, 193, 240, 256
-0.988375, 201, 105, 232, 168
-0.98845, 313, 65, 376, 128
-0.988459, 65, 49, 192, 112
-0.988467, 233, 161, 264, 288
-0.988534, 401, 153, 464, 216
-0.98873, 129, 113, 192, 240
-0.98876, 321, 1, 384, 256
-0.988786, 193, 177, 224, 304
-0.988884, 305, 113, 432, 176
-0.988934, 421, 121, 452, 184
-0.988951, 217, 125, 280, 156
-0.989, 401, 129, 464, 256
-0.989032, 49, 73, 112, 136
-0.989049, 253, 177, 284, 304
-0.98907, 265, 177, 296, 240
-0.989087, 225, 97, 256, 160
-0.989094, 165, 121, 196, 184
-0.989138, 289, 113, 320, 240
-0.989146, 381, 97, 412, 160
-0.989178, 273, 25, 400, 88
-0.989231, 49, 25, 176, 88
-0.98925, 153, 65, 216, 192
-0.989254, 381, 81, 412, 208
-0.989287, 257, 145, 500, 272
-0.98942, 241, 169, 272, 232
-0.989573, 349, 89, 380, 152
-0.989587, 201, 145, 264, 176
-0.98959, 329, 1, 392, 333
-0.989602, 365, 33, 396, 160
-0.989665, 225, 169, 352, 232
-0.989703, 281, 161, 344, 224
-0.989838, 129, 57, 192, 120
-0.989848, 193, 201, 256, 264
-0.989851, 265, 133, 328, 164
-0.989872, 433, 49, 496, 112
-0.989873, 325, 81, 356, 208
-0.989897, 225, 169, 288, 200
-0.989914, 233, 137, 296, 168
-0.989919, 217, 1, 280, 333
-0.989953, 385, 65, 448, 128
-0.989984, 145, 41, 272, 104
-0.989985, 313, 97, 376, 128
-0.989987, 361, 81, 392, 208
-0.989995, 445, 33, 476, 160
-0.99001, 433, 1, 496, 333
-0.990037, 197, 185, 228, 248
-0.990064, 97, 25, 224, 88
-0.990066, 81, 193, 144, 320
-0.990072, 241, 121, 304, 152
-0.990088, 385, 105, 448, 136
-0.990095, 137, 185, 200, 248
-0.990096, 345, 93, 408, 124
-0.990107, 421, 89, 452, 152
-0.990108, 17, 193, 144, 320
-0.990172, 169, 97, 200, 224
-0.990219, 81, 121, 208, 184
-0.990223, 385, 1, 448, 256
-0.99024, 185, 133, 248, 164
-0.990246, 417, 109, 480, 140
-0.990274, 197, 49, 228, 176
-0.990295, 225, 65, 352, 128
-0.9903, 305, 97, 336, 160
-0.990324, 137, 121, 200, 184
-0.990337, 345, 109, 408, 140
-0.990356, 249, 149, 312, 180
-0.990361, 369, 1, 432, 333
-0.990428, 1, 25, 128, 88
-0.99044, 105, 1, 168, 128
-0.99046, 89, 65, 152, 128
-0.990485, 273, 113, 336, 144
-0.990497, 217, 113, 280, 144
-0.990497, 65, 73, 192, 136
-0.990497, 305, 129, 432, 256
-0.990611, 453, 121, 484, 184
-0.990645, 49, 113, 112, 240
-0.990645, 193, 25, 256, 88
-0.990672, 225, 49, 256, 176
-0.990685, 201, 181, 264, 212
-0.990685, 53, 49, 84, 176
-0.990708, 193, 193, 320, 256
-0.990718, 241, 1, 304, 256
-0.99072, 349, 81, 380, 208
-0.990723, 73, 105, 136, 168
-0.990736, 305, 1, 368, 333
-0.990764, 385, 93, 448, 124
-0.990779, 65, 1, 128, 333
-0.990856, 217, 201, 280, 264
-0.990877, 409, 1, 472, 64
-0.990888, 313, 109, 376, 140
-0.990949, 97, 89, 160, 152
-0.990972, 169, 105, 232, 136
-0.990974, 393, 81, 424, 208
-0.990991, 417, 93, 480, 124
-0.990995, 145, 65, 272, 128
-0.991115, 345, 33, 376, 160
-0.991179, 325, 33, 356, 160
-0.99118, 281, 1, 344, 333
-0.991248, 201, 225, 264, 288
-0.991267, 249, 1, 312, 333
-0.991271, 305, 57, 432, 120
-0.991315, 201, 157, 264, 188
-0.991381, 249, 169, 312, 200
-0.991384, 425, 81, 456, 208
-0.991397, 425, 121, 488, 152
-0.991406, 369, 65, 496, 128
-0.991444, 241, 49, 272, 176
-0.991454, 241, 81, 304, 144
-0.991487, 225, 17, 352, 80
-0.991491, 201, 169, 264, 200
-0.991508, 225, 149, 288, 180
-0.991527, 177, 121, 240, 152
-0.991537, 1, 81, 128, 144
-0.991551, 241, 105, 304, 136
-0.991582, 401, 129, 464, 160
-0.991585, 465, 121, 496, 184
-0.991588, 65, 49, 128, 80
-0.991606, 377, 33, 408, 160
-0.991613, 257, 89, 500, 152
-0.991673, 457, 33, 488, 160
-0.991684, 153, 45, 216, 76
-0.991728, 281, 49, 312, 176
-0.991762, 169, 169, 232, 200
-0.991769, 193, 1, 256, 333
-0.991789, 265, 1, 328, 256
-0.991799, 281, 65, 344, 128
-0.991832, 193, 109, 256, 140
-0.991842, 281, 101, 344, 132
-0.991865, 385, 117, 448, 148
-0.991881, 393, 1, 456, 333
-0.991885, 321, 1, 384, 64
-0.991885, 57, 17, 120, 80
-0.991906, 17, 101, 80, 132
-0.991957, 409, 1, 472, 256
-0.991963, 169, 217, 232, 280
-0.991971, 169, 189, 232, 220
-0.991976, 193, 41, 320, 104
-0.991991, 393, 25, 456, 88
-0.992, 161, 157, 224, 188
-0.992023, 225, 181, 288, 212
-0.992025, 313, 97, 344, 224
-0.992047, 49, 113, 112, 144
-0.992119, 49, 97, 112, 128
-0.992123, 409, 33, 472, 64
-0.992132, 161, 137, 224, 168
-0.992143, 145, 1, 208, 333
-0.992178, 177, 233, 304, 296
-0.992184, 25, 113, 88, 144
-0.992185, 193, 49, 256, 112
-0.992187, 281, 29, 344, 60
-0.992238, 137, 161, 200, 224
-0.992258, 241, 41, 304, 72
-0.992258, 217, 125, 248, 156
-0.99229, 209, 97, 272, 128
-0.992291, 305, 121, 368, 152
-0.992333, 269, 129, 300, 160
-0.992365, 201, 193, 264, 224
-0.99237, 281, 133, 312, 164
-0.992376, 273, 165, 336, 196
-0.99238, 329, 37, 392, 68
-0.992391, 401, 141, 464, 172
-0.992395, 25, 73, 88, 136
-0.992408, 105, 49, 168, 80
-0.992412, 249, 185, 312, 216
-0.992413, 289, 145, 320, 208
-0.992419, 245, 97, 276, 160
-0.992426, 169, 93, 232, 124
-0.992437, 217, 145, 248, 176
-0.992447, 129, 109, 192, 140
-0.992458, 237, 165, 268, 196
-0.992468, 441, 129, 472, 192
-0.99247, 273, 153, 336, 184
-0.992478, 201, 45, 264, 76
-0.992483, 261, 145, 292, 176
-0.992488, 257, 81, 288, 208
-0.992517, 89, 1, 152, 333
-0.992526, 289, 41, 352, 72
-0.99254, 17, 49, 80, 80
-0.992555, 105, 113, 168, 240
-0.992578, 161, 201, 224, 232
-0.992593, 257, 193, 500, 320
-0.992614, 229, 113, 260, 144
-0.992623, 205, 133, 236, 164
-0.992667, 281, 1, 344, 64
-0.992683, 185, 81, 216, 208
-0.992695, 153, 17, 216, 80
-0.9927, 177, 17, 304, 80
-0.99271, 153, 125, 216, 156
-0.99271, 177, 89, 208, 152
-0.992713, 361, 121, 424, 152
-0.992718, 469, 97, 500, 128
-0.992756, 241, 93, 304, 124
-0.99276, 89, 109, 152, 140
-0.992765, 237, 149, 268, 180
-0.992775, 337, 81, 368, 208
-0.992778, 265, 177, 296, 304
-0.992786, 121, 1, 184, 256
-0.992788, 289, 1, 352, 256
-0.9928, 401, 153, 464, 184
-0.992824, 229, 125, 260, 156
-0.992828, 273, 177, 336, 208
-0.992831, 269, 117, 300, 148
-0.992837, 257, 125, 288, 156
-0.992837, 421, 33, 452, 160
-0.992849, 205, 185, 236, 216
-0.992853, 369, 29, 432, 60
-0.992863, 205, 145, 236, 176
-0.992865, 281, 121, 312, 152
-0.992869, 177, 213, 240, 244
-0.992893, 241, 113, 272, 144
-0.992904, 273, 145, 304, 176
-0.992911, 89, 97, 152, 128
-0.992918, 217, 181, 248, 212
-0.992926, 257, 113, 288, 144
-0.992943, 425, 133, 488, 164
-0.992952, 349, 105, 380, 136
-0.992965, 273, 169, 304, 200
-0.992982, 193, 137, 224, 168
-0.992986, 225, 121, 480, 184
-0.992987, 241, 133, 272, 164
-0.992994, 213, 113, 244, 144
-0.993002, 313, 85, 376, 116
-0.993006, 33, 1, 96, 333
-0.993012, 329, 25, 392, 56
-0.993014, 365, 93, 396, 124
-0.993023, 29, 97, 60, 160
-0.993037, 325, 93, 356, 124
-0.99304, 129, 97, 192, 128
-0.99305, 161, 97, 416, 160
-0.993073, 273, 89, 336, 120
-0.993076, 201, 113, 232, 144
-0.993079, 345, 93, 376, 124
-0.993096, 249, 165, 280, 196
-0.993101, 409, 21, 472, 52
-0.993103, 289, 137, 352, 168
-0.993131, 453, 117, 484, 148
-0.993133, 65, 61, 128, 92
-0.993138, 421, 117, 452, 148
-0.993141, 437, 81, 468, 208
-0.993143, 225, 165, 256, 196
-0.993148, 273, 1, 400, 64
-0.993151, 285, 145, 316, 176
-0.993157, 249, 145, 280, 176
-0.993165, 305, 33, 368, 96
-0.993178, 441, 97, 472, 128
-0.993182, 261, 169, 292, 200
-0.993187, 17, 61, 80, 92
-0.993193, 205, 169, 236, 200
-0.993195, 193, 125, 224, 156
-0.993208, 425, 149, 488, 180
-0.993209, 397, 93, 428, 124
-0.99321, 105, 37, 168, 68
-0.993219, 17, 125, 80, 156
-0.993223, 129, 217, 256, 280
-0.993231, 257, 181, 288, 212
-0.993233, 377, 13, 440, 44
-0.993235, 393, 105, 424, 136
-0.993236, 417, 105, 448, 136
-0.993237, 377, 109, 408, 140
-0.993242, 377, 93, 408, 124
-0.99325, 469, 49, 500, 112
-0.99325, 161, 57, 224, 88
-0.99326, 193, 225, 256, 256
-0.993281, 229, 137, 260, 168
-0.993281, 201, 205, 264, 236
-0.993287, 185, 149, 216, 180
-0.993293, 293, 125, 324, 156
-0.993294, 377, 41, 440, 72
-0.993295, 201, 57, 264, 88
-0.993295, 193, 181, 224, 212
-0.993295, 305, 105, 336, 136
-0.993301, 245, 101, 276, 132
-0.993315, 217, 233, 280, 264
-0.993355, 265, 157, 296, 188
-0.993356, 193, 165, 224, 196
-0.99336, 425, 129, 456, 160
-0.993365, 365, 105, 396, 136
-0.993371, 189, 197, 220, 228
-0.993371, 305, 17, 368, 48
-0.993372, 465, 109, 496, 140
-0.993379, 321, 105, 352, 136
-0.993385, 337, 105, 368, 136
-0.99339, 177, 153, 208, 216
-0.99339, 417, 93, 448, 124
-0.993393, 129, 189, 192, 220
-0.993393, 65, 193, 192, 256
-0.993398, 241, 53, 304, 84
-0.9934, 269, 105, 300, 136
-0.993404, 277, 181, 308, 212
-0.993408, 29, 101, 60, 132
-0.99341, 53, 113, 84, 144
-0.993412, 345, 81, 408, 112
-0.993418, 221, 93, 252, 124
-0.993421, 309, 117, 340, 148
-0.993424, 433, 37, 496, 68
-0.993426, 285, 161, 316, 192
-0.993428, 205, 157, 236, 188
-0.99343, 329, 49, 392, 80
-0.993431, 381, 121, 412, 152
-0.993437, 165, 121, 196, 152
-0.993439, 229, 177, 260, 208
-0.993449, 193, 149, 320, 180
-0.993451, 281, 17, 344, 48
-0.993453, 129, 61, 192, 92
-0.993458, 429, 157, 460, 188
-0.993458, 245, 177, 276, 208
-0.99347, 173, 153, 204, 184
-0.993472, 113, 1, 176, 333
-0.993476, 257, 25, 320, 56
-0.993478, 421, 21, 452, 52
-0.993483, 69, 49, 100, 80
-0.993485, 345, 117, 376, 148
-0.993497, 457, 97, 488, 128
-0.993497, 193, 213, 224, 244
-0.993507, 281, 109, 312, 140
-0.993524, 437, 125, 468, 156
-0.993524, 465, 125, 496, 156
-0.993525, 421, 141, 452, 172
-0.993533, 377, 137, 440, 200
-0.993536, 289, 97, 320, 160
-0.993537, 301, 93, 332, 124
-0.99354, 157, 109, 188, 140
-0.993545, 301, 137, 332, 168
-0.993546, 425, 33, 456, 64
-0.993546, 105, 193, 168, 224
-0.993553, 469, 57, 500, 88
-0.993553, 205, 221, 236, 252
-0.993554, 337, 37, 368, 68
-0.993555, 89, 65, 152, 96
-0.993556, 209, 197, 240, 228
-0.993559, 437, 109, 468, 140
-0.993562, 77, 97, 108, 128
-0.993562, 293, 29, 324, 60
-0.993563, 449, 85, 480, 116
-0.993566, 177, 97, 208, 128
-0.993568, 329, 125, 392, 156
-0.99357, 377, 145, 440, 176
-0.993573, 273, 145, 400, 208
-0.993575, 81, 113, 112, 144
-0.993576, 233, 101, 264, 132
-0.993579, 393, 121, 424, 152
-0.993582, 365, 25, 396, 56
-0.993584, 9, 117, 40, 148
-0.993585, 53, 97, 84, 128
-0.993586, 161, 45, 192, 76
-0.993593, 1, 113, 64, 144
-0.993595, 429, 93, 460, 124
-0.993602, 357, 37, 388, 68
-0.993602, 385, 81, 448, 112
-0.993604, 289, 173, 320, 204
-0.99361, 97, 101, 128, 132
-0.99361, 225, 233, 256, 264
-0.993617, 277, 17, 308, 48
-0.993617, 121, 221, 184, 252
-0.993617, 205, 101, 236, 132
-0.993619, 49, 53, 80, 84
-0.993619, 153, 65, 216, 128
-0.99362, 165, 141, 196, 172
-0.993633, 321, 121, 352, 152
-0.993634, 215, 137, 230, 200
-0.993637, 369, 41, 496, 104
-0.993638, 445, 33, 476, 64
-0.993642, 65, 37, 128, 68
-0.993645, 441, 137, 472, 168
-0.993647, 273, 41, 304, 72
-0.993651, 93, 49, 124, 80
-0.993654, 469, 45, 500, 76
-0.993656, 409, 117, 440, 148
-0.993656, 313, 93, 344, 124
-0.993657, 249, 41, 280, 72
-0.993659, 181, 45, 212, 76
-0.993661, 25, 113, 56, 144
-0.993663, 353, 25, 384, 56
-0.993664, 21, 125, 52, 156
-0.993667, 469, 85, 500, 116
-0.993668, 293, 41, 324, 72
-0.993675, 65, 125, 128, 156
-0.993677, 377, 133, 440, 164
-0.99368, 361, 1, 424, 256
-0.993681, 425, 9, 488, 40
-0.993681, 301, 17, 332, 48
-0.993681, 93, 121, 124, 152
-0.993686, 57, 65, 88, 96
-0.993694, 41, 49, 104, 112
-0.993698, 289, 53, 352, 84
-0.993703, 41, 65, 104, 96
-0.993708, 41, 53, 104, 84
-0.993719, 241, 237, 304, 268
-0.993731, 17, 37, 80, 68
-0.993734, 265, 41, 328, 72
-0.993739, 193, 33, 256, 64
-0.993763, 409, 45, 472, 76
-0.993769, 353, 17, 416, 48
-0.993775, 233, 29, 296, 60
-0.993778, 433, 21, 496, 52
-0.99378, 279, 137, 294, 200
-0.99378, 329, 13, 392, 44
-0.993786, 137, 153, 200, 184
-0.993795, 201, 85, 264, 116
-0.993796, 153, 217, 216, 248
-0.99382, 401, 165, 464, 196
-0.993821, 169, 285, 232, 316
-0.993836, 305, 29, 368, 60
-0.993843, 129, 49, 192, 80
-0.993852, 81, 197, 144, 228
-0.993856, 157, 49, 188, 176
-0.993864, 89, 121, 152, 152
-0.993872, 161, 233, 224, 264
-0.993875, 277, 177, 308, 240
-0.993927, 227, 145, 242, 208
-0.99397, 65, 97, 320, 160
-0.993993, 401, 1, 432, 128
-0.994027, 173, 33, 204, 160
-0.994048, 97, 1, 160, 256
-0.994076, 209, 217, 240, 280
-0.994097, 305, 129, 368, 256
-0.994121, 181, 145, 212, 272
-0.994152, 265, 145, 280, 208
-0.994167, 337, 25, 368, 88
-0.99417, 73, 33, 104, 160
-0.994176, 369, 33, 432, 96
-0.994176, 1, 73, 64, 136
-0.994194, 353, 25, 384, 88
-0.994216, 249, 49, 312, 112
-0.994311, 161, 153, 416, 216
-0.994312, 433, 1, 496, 64
-0.994354, 73, 1, 136, 256
-0.994422, 177, 1, 240, 128
-0.994429, 257, 89, 288, 152
-0.994436, 153, 257, 216, 320
-0.994453, 193, 169, 320, 200
-0.994458, 105, 193, 168, 256
-0.994485, 221, 121, 236, 184
-0.9945, 193, 125, 320, 156
-0.99455, 337, 89, 368, 152
-0.994611, 277, 177, 308, 304
-0.994656, 241, 145, 256, 208
-0.994661, 369, 109, 496, 140
-0.994678, 353, 129, 480, 256
-0.994689, 285, 129, 300, 192
-0.99469, 9, 121, 72, 184
-0.994722, 105, 49, 136, 176
-0.994734, 1, 1, 64, 333
-0.994762, 281, 1, 312, 128
-0.994804, 65, 121, 320, 184
-0.99483, 193, 137, 320, 168
-0.994844, 301, 129, 332, 192
-0.994897, 93, 49, 124, 176
-0.994927, 247, 145, 262, 208
-0.994995, 211, 177, 226, 240
-0.995033, 425, 145, 488, 208
-0.995037, 321, 121, 352, 184
-0.995098, 413, 81, 444, 208
-0.995126, 425, 145, 456, 208
-0.995144, 227, 121, 242, 184
-0.995172, 225, 233, 288, 296
-0.995265, 445, 25, 476, 88
-0.995279, 273, 145, 288, 208
-0.995284, 369, 97, 496, 128
-0.995303, 33, 193, 288, 256
-0.995314, 207, 153, 222, 216
-0.995372, 217, 49, 280, 112
-0.995373, 177, 181, 304, 212
-0.995375, 221, 145, 236, 208
-0.995377, 209, 33, 240, 160
-0.995391, 29, 65, 60, 192
-0.995419, 305, 33, 336, 160
-0.995433, 279, 113, 294, 176
-0.995433, 235, 145, 250, 208
-0.995433, 293, 1, 324, 128
-0.995442, 253, 145, 268, 208
-0.995463, 169, 161, 200, 288
-0.995474, 289, 105, 416, 136
-0.995492, 241, 193, 368, 320
-0.995505, 405, 89, 436, 152
-0.99551, 289, 25, 320, 88
-0.99551, 69, 33, 100, 96
-0.995531, 73, 97, 104, 160
-0.995556, 237, 121, 252, 184
-0.995586, 365, 25, 396, 88
-0.995586, 365, 65, 396, 128
-0.995605, 305, 93, 432, 124
-0.995658, 157, 113, 188, 240
-0.995681, 1, 89, 500, 152
-0.995685, 469, 25, 500, 88
-0.995685, 261, 1, 292, 128
-0.995697, 129, 129, 256, 160
-0.995698, 209, 113, 336, 144
-0.995745, 273, 113, 288, 176
-0.995756, 161, 97, 192, 160
-0.995758, 397, 121, 428, 184
-0.995759, 257, 193, 384, 256
-0.995771, 215, 113, 230, 176
-0.995784, 273, 169, 400, 232
-0.995806, 417, 25, 448, 88
-0.995825, 13, 105, 44, 168
-0.995838, 149, 177, 180, 304
-0.995864, 161, 177, 416, 240
-0.995869, 243, 121, 258, 184
-0.99592, 145, 113, 272, 144
-0.995977, 81, 169, 208, 232
-0.996004, 73, 97, 104, 224
-0.996008, 473, 89, 488, 152
-0.996032, 291, 129, 306, 192
-0.996078, 259, 145, 274, 208
-0.996084, 153, 161, 184, 224
-0.996087, 85, 97, 116, 224
-0.99611, 225, 101, 352, 132
-0.996127, 65, 145, 320, 208
-0.996127, 65, 169, 320, 232
-0.996129, 157, 65, 188, 128
-0.996152, 467, 89, 482, 152
-0.99616, 197, 209, 228, 272
-0.996162, 433, 17, 464, 144
-0.996203, 9, 49, 40, 176
-0.996233, 219, 185, 234, 248
-0.996252, 145, 149, 272, 180
-0.996274, 1, 129, 64, 256
-0.996301, 257, 117, 384, 148
-0.996305, 389, 1, 420, 128
-0.996326, 17, 201, 144, 264
-0.996353, 209, 129, 224, 192
-0.996357, 145, 33, 176, 160
-0.996361, 227, 177, 242, 240
-0.996364, 81, 101, 208, 132
-0.996369, 249, 121, 264, 184
-0.99638, 85, 105, 116, 168
-0.996384, 285, 105, 300, 168
-0.99639, 185, 193, 216, 256
-0.996391, 161, 73, 416, 136
-0.996395, 1, 129, 128, 192
-0.996427, 283, 161, 298, 224
-0.996438, 429, 9, 460, 72
-0.996459, 97, 249, 224, 312
-0.996513, 1, 53, 128, 84
-0.996562, 73, 73, 104, 136
-0.996573, 1, 109, 128, 140
-0.996587, 265, 177, 280, 240
-0.996596, 161, 41, 192, 104
-0.996626, 213, 89, 244, 152
-0.996643, 65, 41, 320, 104
-0.996643, 177, 273, 304, 333
-0.996653, 241, 137, 368, 168
-0.99667, 221, 225, 252, 288
-0.996683, 255, 121, 270, 184
-0.996701, 279, 137, 294, 168
-0.99673, 215, 137, 230, 168
-0.996748, 1, 97, 128, 128
-0.996753, 33, 73, 288, 136
-0.996761, 337, 153, 464, 216
-0.996762, 161, 25, 416, 88
-0.996785, 223, 125, 238, 156
-0.996787, 97, 49, 224, 80
-0.996794, 101, 49, 132, 112
-0.996796, 485, 89, 500, 152
-0.996807, 443, 129, 458, 192
-0.996821, 49, 49, 176, 80
-0.996824, 257, 17, 500, 80
-0.996833, 145, 101, 272, 132
-0.99684, 177, 41, 208, 104
-0.996881, 145, 165, 272, 196
-0.996898, 461, 97, 476, 160
-0.996919, 237, 169, 252, 232
-0.996921, 141, 113, 172, 240
-0.99694, 267, 121, 282, 184
-0.996991, 61, 65, 92, 128
-0.997016, 185, 145, 200, 208
-0.997038, 391, 89, 406, 152
-0.997045, 109, 177, 140, 304
-0.997064, 81, 113, 208, 144
-0.997072, 289, 169, 320, 232
-0.997076, 369, 121, 496, 152
-0.997093, 257, 169, 272, 232
-0.997161, 285, 129, 300, 160
-0.997163, 437, 129, 452, 192
-0.99717, 201, 161, 216, 224
-0.997172, 113, 193, 240, 224
-0.997196, 371, 89, 386, 152
-0.997203, 369, 121, 400, 184
-0.997203, 381, 121, 412, 184
-0.997203, 41, 121, 104, 184
-0.997206, 479, 89, 494, 152
-0.997227, 203, 193, 218, 256
-0.99724, 113, 121, 176, 184
-0.997245, 243, 169, 258, 232
-0.997256, 361, 89, 376, 152
-0.997261, 317, 9, 348, 72
-0.997263, 291, 105, 306, 168
-0.997267, 369, 85, 496, 116
-0.997277, 353, 25, 480, 56
-0.997284, 467, 121, 482, 184
-0.997292, 277, 169, 292, 232
-0.997292, 293, 65, 324, 192
-0.997296, 385, 89, 400, 152
-0.997317, 279, 125, 294, 156
-0.997318, 113, 177, 240, 208
-0.997318, 379, 89, 394, 152
-0.997324, 185, 33, 216, 160
-0.997338, 257, 145, 500, 208
-0.997339, 253, 165, 268, 196
-0.997345, 89, 25, 120, 88
-0.99735, 405, 17, 436, 80
-0.997368, 129, 177, 160, 304
-0.997381, 145, 49, 176, 112
-0.997391, 271, 177, 286, 240
-0.997391, 177, 49, 304, 80
-0.997395, 261, 121, 276, 184
-0.997405, 301, 73, 332, 136
-0.997407, 305, 121, 432, 152
-0.997411, 271, 125, 286, 156
-0.997418, 1, 121, 128, 152
-0.99742, 329, 89, 344, 152
-0.997424, 377, 25, 408, 88
-0.997434, 239, 165, 254, 196
-0.99745, 1, 185, 500, 248
-0.997457, 217, 125, 232, 156
-0.997467, 161, 1, 192, 128
-0.997478, 397, 89, 412, 152
-0.99748, 241, 165, 368, 196
-0.997487, 89, 1, 120, 128
-0.9975, 201, 265, 264, 328
-0.997526, 81, 225, 208, 288
-0.997529, 221, 97, 236, 160
-0.997543, 53, 113, 84, 176
-0.997544, 273, 37, 400, 68
-0.997556, 1, 121, 500, 184
-0.997585, 41, 33, 72, 160
-0.997599, 245, 145, 260, 176
-0.997604, 441, 153, 456, 216
-0.997604, 377, 57, 408, 120
-0.997607, 247, 89, 262, 152
-0.997618, 179, 121, 194, 184
-0.997625, 409, 121, 440, 184
-0.997626, 241, 1, 304, 64
-0.997632, 437, 89, 452, 152
-0.997659, 227, 89, 242, 152
-0.997666, 165, 145, 196, 208
-0.997675, 81, 125, 208, 156
-0.997675, 17, 225, 144, 288
-0.997679, 177, 241, 240, 304
-0.997689, 85, 65, 116, 128
-0.997704, 423, 89, 438, 152
-0.997716, 229, 125, 244, 156
-0.997716, 325, 65, 356, 128
-0.997729, 289, 141, 304, 172
-0.997734, 423, 129, 438, 192
-0.997736, 355, 89, 370, 152
-0.997736, 145, 89, 272, 120
-0.997737, 249, 169, 264, 232
-0.997745, 177, 193, 304, 224
-0.997746, 241, 181, 368, 212
-0.997749, 189, 49, 220, 112
-0.997757, 225, 89, 352, 120
-0.997764, 321, 37, 448, 68
-0.997766, 113, 273, 240, 333
-0.997769, 17, 65, 144, 96
-0.99777, 417, 129, 432, 192
-0.99777, 289, 161, 304, 224
-0.997772, 455, 89, 470, 152
-0.997775, 81, 193, 144, 256
-0.997787, 239, 89, 254, 152
-0.997796, 65, 61, 192, 92
-0.997797, 269, 25, 300, 88
-0.997802, 437, 129, 468, 256
-0.997802, 161, 49, 416, 112
-0.99782, 209, 105, 224, 168
-0.997823, 431, 89, 446, 152
-0.997828, 173, 185, 204, 248
-0.997829, 301, 113, 332, 240
-0.997835, 443, 89, 458, 152
-0.99784, 369, 37, 496, 68
-0.997846, 137, 209, 200, 272
-0.997847, 325, 33, 356, 96
-0.997849, 163, 153, 178, 216
-0.997856, 337, 89, 352, 152
-0.997866, 225, 41, 352, 72
-0.997868, 321, 97, 336, 160
-0.997869, 41, 1, 104, 256
-0.997872, 191, 121, 206, 184
-0.997877, 485, 49, 500, 112
-0.997884, 65, 17, 320, 80
-0.997885, 209, 181, 224, 212
-0.997902, 243, 113, 258, 144
-0.997903, 347, 89, 362, 152
-0.997913, 341, 25, 356, 88
-0.997916, 253, 153, 268, 184
-0.997926, 221, 137, 236, 168
-0.997929, 417, 89, 432, 152
-0.997936, 241, 201, 304, 264
-0.997939, 113, 241, 176, 304
-0.997941, 211, 217, 226, 280
-0.99795, 49, 57, 80, 120
-0.997953, 209, 133, 224, 164
-0.997956, 229, 113, 244, 144
-0.997961, 281, 149, 296, 180
-0.99797, 249, 113, 264, 144
-0.997977, 305, 25, 432, 56
-0.997981, 101, 89, 132, 152
-0.997983, 241, 149, 368, 180
-0.997997, 467, 97, 482, 128
-0.997998, 29, 17, 60, 144
-0.998, 353, 65, 384, 128
-0.998, 145, 129, 176, 192
-0.998001, 359, 105, 374, 136
-0.99801, 427, 25, 442, 88
-0.998012, 411, 121, 426, 184
-0.998013, 1, 153, 500, 216
-0.998013, 237, 133, 252, 164
-0.998019, 289, 161, 320, 288
-0.998022, 239, 149, 254, 180
-0.998022, 229, 145, 244, 176
-0.998025, 225, 1, 256, 128
-0.998027, 337, 57, 368, 120
-0.998031, 225, 233, 352, 296
-0.998039, 209, 153, 224, 184
-0.998041, 275, 113, 290, 144
-0.998042, 461, 109, 476, 140
-0.998046, 233, 89, 248, 152
-0.998062, 197, 1, 228, 128
-0.998062, 261, 145, 276, 176
-0.998064, 359, 93, 374, 124
-0.99807, 17, 145, 144, 272
-0.99807, 221, 193, 252, 256
-0.998075, 153, 185, 184, 248
-0.99808, 297, 113, 312, 176
-0.998093, 253, 133, 268, 164
-0.998095, 129, 217, 256, 248
-0.998113, 431, 129, 446, 192
-0.998133, 61, 113, 92, 240
-0.99814, 409, 89, 424, 152
-0.998147, 353, 105, 368, 136
-0.998149, 303, 129, 318, 192
-0.998166, 397, 65, 428, 128
-0.998168, 445, 1, 476, 64
-0.998168, 203, 129, 218, 192
-0.998179, 269, 113, 284, 144
-0.998185, 221, 181, 236, 212
-0.998195, 113, 1, 240, 64
-0.998203, 49, 249, 176, 312
-0.998207, 403, 89, 418, 152
-0.998207, 481, 121, 496, 184
-0.998226, 277, 173, 292, 204
-0.998228, 353, 13, 480, 44
-0.99823, 389, 105, 404, 136
-0.998238, 73, 33, 88, 96
-0.998238, 247, 133, 262, 164
-0.998238, 273, 137, 288, 168
-0.998244, 353, 93, 368, 124
-0.998248, 215, 173, 230, 204
-0.99825, 449, 129, 464, 192
-0.998251, 215, 113, 230, 144
-0.998254, 237, 113, 252, 144
-0.998254, 215, 89, 230, 152
-0.998255, 289, 167, 320, 182
-0.998255, 157, 47, 188, 62
-0.998256, 369, 103, 400, 118
-0.998256, 469, 91, 500, 106
-0.998257, 253, 155, 284, 170
-0.998257, 173, 157, 204, 172
-0.998259, 269, 159, 300, 174
-0.998259, 413, 127, 444, 142
-0.998259, 161, 201, 416, 264
-0.998259, 161, 119, 192, 134
-0.998259, 397, 127, 428, 142
-0.99826, 321, 119, 352, 134
-0.998261, 245, 143, 276, 158
-0.998261, 393, 121, 424, 136
-0.998261, 197, 167, 228, 182
-0.998262, 205, 155, 236, 170
-0.998262, 185, 197, 216, 212
-0.998262, 273, 167, 304, 182
-0.998264, 457, 9, 488, 72
-0.998264, 473, 129, 488, 192
-0.998265, 357, 95, 388, 110
-0.998266, 357, 33, 388, 48
-0.998267, 453, 109, 484, 124
-0.998267, 233, 111, 264, 126
-0.998268, 191, 153, 206, 216
-0.998268, 189, 179, 220, 194
-0.998269, 353, 127, 384, 142
-0.998269, 441, 109, 472, 124
-0.99827, 469, 61, 500, 76
-0.998271, 31, 97, 46, 160
-0.998272, 273, 191, 304, 206
-0.998273, 189, 203, 220, 218
-0.998273, 381, 125, 412, 140
-0.998274, 165, 151, 196, 166
-0.998274, 201, 117, 232, 132
-0.998274, 249, 111, 280, 126
-0.998274, 209, 229, 240, 244
-0.998275, 229, 155, 260, 170
-0.998275, 193, 213, 224, 228
-0.998275, 337, 39, 368, 54
-0.998277, 325, 95, 356, 110
-0.998278, 345, 1, 408, 64
-0.998279, 397, 95, 428, 110
-0.99828, 293, 143, 324, 158
-0.998281, 257, 135, 288, 150
-0.998281, 425, 129, 456, 144
-0.998282, 113, 161, 176, 224
-0.998284, 301, 111, 332, 126
-0.998284, 233, 143, 264, 158
-0.998284, 229, 181, 260, 196
-0.998285, 449, 115, 480, 130
-0.998286, 205, 203, 236, 218
-0.998286, 369, 25, 384, 88
-0.998287, 201, 223, 232, 238
-0.998287, 457, 127, 488, 142
-0.998287, 237, 131, 268, 146
-0.998287, 81, 89, 208, 120
-0.998288, 227, 181, 242, 212
-0.998289, 469, 115, 500, 130
-0.99829, 257, 141, 288, 156
-0.998291, 23, 105, 38, 168
-0.998291, 97, 225, 352, 288
-0.998291, 285, 117, 300, 148
-0.998292, 217, 187, 248, 202
-0.998292, 205, 107, 236, 122
-0.998292, 291, 129, 306, 160
-0.998294, 241, 161, 272, 176
-0.998296, 365, 109, 396, 124
-0.998298, 417, 119, 448, 134
-0.998298, 465, 121, 496, 136
-0.998298, 425, 153, 456, 168
-0.998299, 321, 105, 352, 120
-0.998301, 205, 197, 236, 212
-0.998302, 205, 161, 236, 176
-0.998303, 185, 167, 216, 182
-0.998306, 289, 127, 320, 142
-0.998308, 293, 137, 324, 152
-0.998309, 393, 105, 424, 120
-0.998309, 273, 49, 400, 80
-0.998311, 269, 113, 300, 128
-0.998312, 185, 157, 216, 172
-0.998317, 265, 133, 280, 164
-0.998319, 349, 117, 380, 132
-0.998321, 469, 129, 500, 144
-0.998321, 381, 119, 412, 134
-0.998323, 305, 117, 336, 132
-0.998325, 193, 185, 224, 200
-0.998325, 369, 49, 496, 80
-0.998326, 429, 159, 460, 174
-0.998327, 193, 129, 224, 144
-0.998329, 221, 113, 236, 144
-0.998329, 249, 179, 280, 194
-0.998332, 253, 169, 284, 184
-0.998332, 163, 41, 178, 104
-0.998333, 225, 175, 256, 190
-0.998335, 225, 167, 256, 182
-0.998335, 193, 137, 224, 152
-0.998336, 449, 97, 480, 112
-0.998336, 193, 149, 224, 164
-0.998337, 183, 89, 198, 152
-0.998338, 201, 173, 232, 188
-0.998339, 53, 113, 84, 128
-0.998342, 79, 65, 94, 128
-0.998343, 285, 181, 316, 196
-0.998343, 241, 155, 272, 170
-0.998344, 387, 113, 402, 176
-0.998349, 469, 99, 500, 114
-0.99835, 241, 117, 272, 132
-0.998352, 281, 151, 312, 166
-0.99836, 249, 129, 280, 144
-0.99836, 205, 123, 236, 138
-0.998363, 377, 95, 408, 110
-0.998365, 417, 109, 448, 124
-0.998365, 453, 121, 484, 136
-0.998366, 225, 117, 256, 132
-0.998374, 281, 121, 312, 136
-0.998374, 221, 143, 252, 158
-0.998374, 201, 179, 232, 194
-0.998375, 225, 257, 352, 320
-0.998375, 227, 225, 242, 288
-0.998377, 273, 185, 304, 200
-0.998379, 225, 149, 256, 164
-0.998383, 211, 193, 226, 224
-0.998384, 111, 57, 126, 120
-0.998385, 173, 97, 188, 160
-0.998385, 261, 119, 292, 134
-0.998386, 261, 177, 292, 192
-0.998388, 465, 109, 496, 124
-0.998395, 197, 143, 228, 158
-0.998396, 105, 49, 120, 112
-0.998396, 317, 105, 332, 136
-0.998398, 273, 173, 304, 188
-0.998398, 437, 125, 452, 156
-0.998399, 209, 129, 240, 144
-0.998399, 441, 9, 456, 72
-0.998401, 113, 205, 240, 236
-0.998404, 473, 97, 488, 128
-0.998407, 261, 183, 292, 198
-0.998408, 247, 165, 262, 196
-0.998409, 237, 173, 268, 188
-0.998412, 217, 137, 248, 152
-0.998413, 273, 127, 304, 142
-0.998414, 269, 181, 284, 212
-0.998419, 213, 175, 244, 190
-0.998421, 369, 93, 384, 124
-0.998422, 395, 105, 410, 136
-0.998431, 49, 1, 176, 64
-0.998433, 205, 191, 236, 206
-0.998436, 63, 49, 78, 112
-0.998438, 221, 123, 252, 138
-0.99844, 253, 149, 284, 164
-0.998443, 273, 179, 304, 194
-0.998445, 249, 123, 280, 138
-0.998448, 417, 153, 432, 216
-0.99845, 237, 149, 268, 164
-0.998451, 461, 25, 476, 88
-0.998451, 97, 193, 128, 320
-0.998453, 283, 173, 298, 204
-0.998453, 205, 185, 236, 200
-0.998453, 215, 149, 230, 180
-0.998454, 233, 125, 264, 140
-0.998454, 155, 49, 170, 112
-0.998458, 95, 105, 110, 168
-0.998461, 209, 169, 224, 200
-0.998463, 433, 9, 448, 72
-0.998464, 233, 127, 296, 142
-0.998466, 345, 107, 376, 122
-0.998469, 451, 25, 466, 88
-0.99847, 217, 181, 248, 196
-0.998471, 201, 149, 264, 164
-0.998472, 189, 1, 220, 256
-0.998476, 281, 145, 312, 160
-0.998482, 237, 167, 268, 182
-0.998483, 449, 89, 464, 152
-0.998484, 205, 137, 236, 152
-0.998489, 165, 129, 180, 192
-0.998491, 281, 133, 312, 148
-0.998492, 233, 149, 296, 164
-0.998496, 221, 129, 252, 144
-0.9985, 177, 61, 304, 92
-0.998502, 269, 139, 300, 154
-0.998504, 247, 101, 262, 132
-0.998508, 313, 107, 376, 122
-0.998508, 181, 193, 212, 320
-0.99851, 1, 41, 128, 72
-0.998511, 457, 1, 472, 64
-0.998511, 461, 121, 476, 184
-0.998512, 265, 133, 328, 148
-0.998515, 431, 105, 446, 136
-0.998519, 389, 93, 404, 124
-0.998521, 283, 17, 298, 80
-0.998522, 201, 129, 264, 144
-0.998526, 395, 93, 410, 124
-0.998527, 283, 41, 298, 104
-0.998529, 193, 205, 320, 236
-0.998531, 261, 129, 292, 144
-0.998532, 365, 109, 380, 140
-0.998535, 265, 139, 328, 154
-0.998537, 337, 1, 368, 64
-0.998538, 217, 181, 280, 196
-0.998538, 265, 165, 280, 196
-0.998541, 281, 139, 312, 154
-0.998542, 209, 143, 240, 158
-0.998543, 441, 157, 456, 188
-0.998551, 1, 1, 128, 64
-0.998555, 467, 117, 482, 148
-0.998557, 417, 17, 432, 80
-0.998557, 381, 25, 396, 88
-0.998557, 259, 133, 274, 164
-0.998562, 233, 165, 248, 196
-0.998563, 217, 141, 280, 156
-0.998564, 225, 171, 288, 186
-0.998569, 345, 109, 408, 124
-0.998571, 57, 193, 120, 320
-0.998573, 385, 107, 448, 122
-0.998573, 255, 113, 270, 144
-0.998574, 257, 149, 320, 164
-0.998577, 225, 133, 288, 148
-0.998579, 185, 143, 248, 158
-0.99858, 417, 117, 480, 132
-0.998581, 281, 119, 344, 134
-0.998583, 213, 149, 244, 164
-0.998583, 267, 145, 282, 176
-0.998584, 209, 123, 272, 138
-0.998584, 1, 97, 32, 160
-0.99859, 327, 93, 342, 124
-0.998591, 417, 111, 480, 126
-0.998595, 249, 173, 312, 188
-0.998595, 443, 129, 458, 160
-0.998598, 241, 121, 304, 136
-0.998598, 273, 127, 336, 142
-0.9986, 425, 125, 488, 140
-0.9986, 323, 121, 338, 184
-0.998601, 291, 117, 306, 148
-0.998604, 401, 143, 464, 158
-0.998605, 265, 149, 296, 164
-0.998605, 375, 25, 390, 88
-0.998609, 461, 93, 476, 124
-0.99861, 485, 97, 500, 128
-0.998611, 241, 181, 304, 196
-0.998611, 425, 145, 488, 272
-0.998611, 201, 135, 264, 150
-0.998613, 193, 173, 256, 188
-0.998615, 177, 123, 240, 138
-0.998617, 345, 95, 408, 110
-0.998619, 263, 181, 278, 212
-0.99862, 287, 157, 302, 188
-0.998622, 177, 37, 304, 68
-0.998623, 201, 197, 216, 228
-0.998624, 71, 65, 86, 128
-0.998624, 217, 217, 232, 280
-0.998625, 193, 181, 256, 196
-0.998626, 427, 1, 442, 64
-0.998626, 363, 25, 378, 88
-0.998628, 177, 129, 240, 144
-0.99863, 177, 137, 240, 152
-0.998631, 313, 115, 376, 130
-0.998632, 193, 159, 256, 174
-0.998632, 273, 113, 336, 128
-0.998634, 225, 53, 352, 84
-0.998636, 187, 153, 202, 184
-0.998637, 193, 167, 256, 182
-0.998639, 241, 115, 304, 130
-0.998639, 177, 149, 240, 164
-0.998639, 169, 107, 232, 122
-0.998641, 193, 189, 256, 204
-0.998642, 313, 101, 376, 116
-0.998643, 233, 155, 296, 170
-0.998643, 321, 95, 384, 110
-0.998646, 385, 127, 448, 142
-0.998647, 345, 115, 408, 130
-0.998647, 265, 179, 328, 194
-0.998648, 209, 117, 272, 132
-0.998648, 385, 119, 448, 134
-0.998649, 261, 121, 276, 152
-0.998649, 249, 165, 312, 180
-0.99865, 169, 185, 232, 200
-0.998652, 241, 143, 304, 158
-0.998653, 49, 113, 112, 128
-0.998653, 425, 97, 488, 112
-0.998654, 17, 113, 80, 128
-0.998656, 65, 51, 128, 66
-0.998659, 169, 115, 232, 130
-0.998661, 385, 97, 448, 112
-0.998662, 347, 93, 362, 124
-0.998662, 417, 103, 480, 118
-0.998664, 169, 179, 232, 194
-0.998666, 97, 97, 128, 224
-0.998667, 385, 113, 448, 128
-0.998671, 345, 103, 408, 118
-0.998671, 161, 165, 224, 180
-0.998673, 153, 157, 216, 172
-0.998676, 425, 129, 456, 256
-0.998677, 409, 35, 472, 50
-0.998677, 305, 127, 368, 142
-0.998678, 153, 47, 216, 62
-0.998679, 201, 107, 264, 122
-0.99868, 421, 109, 436, 140
-0.998682, 289, 133, 352, 148
-0.998682, 281, 37, 344, 52
-0.998682, 347, 105, 362, 136
-0.998683, 393, 117, 408, 148
-0.998684, 329, 39, 392, 54
-0.998689, 361, 123, 424, 138
-0.998689, 105, 49, 168, 64
-0.99869, 273, 107, 336, 122
-0.99869, 401, 137, 464, 152
-0.998691, 401, 149, 464, 164
-0.998691, 161, 199, 224, 214
-0.998693, 65, 57, 128, 72
-0.998694, 241, 43, 304, 58
-0.998696, 183, 141, 198, 172
-0.998698, 249, 189, 312, 204
-0.9987, 273, 185, 336, 200
-0.998702, 233, 109, 296, 124
-0.998702, 105, 57, 168, 72
-0.998704, 225, 165, 288, 180
-0.998705, 153, 127, 216, 142
-0.998707, 25, 121, 88, 136
-0.998708, 169, 213, 232, 228
-0.998708, 281, 95, 344, 110
-0.998708, 129, 111, 192, 126
-0.998708, 17, 51, 80, 66
-0.998708, 273, 155, 336, 170
-0.998709, 49, 119, 112, 134
-0.998709, 225, 29, 352, 60
-0.998709, 273, 173, 336, 188
-0.998711, 161, 191, 224, 206
-0.998711, 161, 143, 224, 158
-0.998712, 113, 65, 176, 80
-0.998712, 273, 101, 336, 116
-0.998712, 161, 171, 224, 186
-0.998712, 401, 159, 464, 174
-0.998712, 305, 121, 368, 136
-0.998713, 201, 53, 264, 68
-0.998714, 153, 151, 216, 166
-0.998714, 281, 43, 344, 58
-0.998716, 25, 101, 88, 116
-0.998716, 89, 111, 152, 126
-0.998717, 193, 45, 256, 60
-0.998717, 289, 81, 416, 112
-0.998719, 169, 101, 232, 116
-0.99872, 425, 149, 488, 164
-0.998721, 417, 131, 480, 146
-0.998722, 65, 63, 128, 78
-0.998722, 129, 117, 192, 132
-0.998723, 369, 37, 432, 52
-0.998725, 425, 143, 488, 158
-0.998725, 145, 229, 272, 260
-0.998726, 161, 205, 224, 220
-0.998728, 193, 203, 256, 218
-0.998728, 169, 223, 232, 238
-0.998728, 49, 101, 112, 116
-0.998728, 193, 197, 256, 212
-0.998728, 259, 169, 274, 200
-0.998731, 153, 53, 216, 68
-0.998732, 185, 229, 248, 244
-0.998733, 241, 101, 304, 116
-0.998733, 377, 143, 440, 158
-0.998734, 369, 31, 432, 46
-0.998734, 289, 139, 352, 154
-0.998734, 17, 65, 80, 80
-0.998735, 281, 145, 344, 160
-0.998736, 281, 167, 344, 182
-0.998736, 17, 59, 80, 74
-0.998737, 207, 121, 222, 152
-0.998737, 425, 155, 488, 170
-0.998738, 17, 107, 80, 122
-0.998739, 425, 137, 488, 152
-0.998747, 65, 193, 192, 224
-0.998748, 129, 61, 256, 92
-0.998751, 443, 145, 458, 176
-0.998757, 203, 161, 218, 192
-0.998757, 413, 125, 428, 156
-0.998766, 431, 93, 446, 124
-0.998769, 49, 33, 80, 96
-0.998774, 201, 181, 216, 212
-0.998776, 271, 169, 286, 200
-0.998777, 383, 93, 398, 124
-0.998782, 227, 169, 242, 200
-0.998797, 233, 177, 248, 208
-0.998805, 221, 169, 236, 200
-0.998806, 437, 109, 452, 140
-0.998807, 341, 93, 356, 124
-0.998808, 189, 141, 204, 172
-0.998813, 97, 37, 224, 68
-0.99882, 257, 17, 384, 48
-0.998821, 441, 1, 472, 256
-0.998823, 305, 13, 432, 44
-0.998824, 423, 125, 438, 156
-0.998825, 217, 1, 248, 256
-0.998829, 465, 33, 496, 288
-0.998831, 95, 113, 110, 144
-0.998834, 437, 141, 452, 172
-0.998836, 425, 93, 440, 124
-0.998842, 49, 37, 176, 68
-0.998845, 485, 49, 500, 80
-0.998847, 425, 21, 440, 52
-0.99885, 193, 233, 320, 264
-0.99885, 215, 129, 230, 256
-0.998853, 485, 77, 500, 108
-0.998853, 455, 97, 470, 128
-0.998853, 431, 117, 446, 148
-0.998856, 301, 121, 316, 152
-0.998856, 243, 177, 258, 208
-0.998859, 241, 1, 272, 128
-0.998863, 191, 129, 206, 160
-0.998868, 387, 117, 402, 148
-0.998874, 321, 117, 336, 148
-0.998885, 201, 65, 232, 320
-0.998886, 269, 1, 300, 256
-0.998899, 299, 25, 314, 56
-0.9989, 277, 189, 292, 220
-0.998902, 323, 105, 338, 136
-0.998903, 273, 217, 400, 280
-0.998905, 221, 129, 236, 256
-0.998906, 97, 145, 224, 176
-0.998907, 241, 101, 256, 132
-0.998922, 63, 109, 78, 140
-0.998924, 209, 129, 224, 256
-0.998926, 179, 121, 194, 152
-0.998927, 105, 49, 120, 80
-0.998929, 65, 273, 192, 333
-0.998931, 163, 153, 178, 184
-0.998933, 369, 1, 400, 256
-0.998934, 261, 109, 276, 140
-0.998936, 427, 33, 442, 64
-0.998938, 21, 117, 36, 148
-0.998943, 287, 185, 302, 216
-0.998954, 289, 169, 304, 200
-0.998956, 249, 241, 312, 304
-0.998957, 71, 49, 86, 80
-0.998957, 207, 209, 222, 240
-0.998961, 321, 93, 336, 124
-0.998991, 437, 153, 468, 216
-0.998998, 97, 157, 224, 188
-0.999018, 281, 129, 296, 256
-0.999032, 365, 1, 396, 64
-0.999044, 453, 57, 484, 120
-0.999046, 417, 1, 448, 64
-0.999049, 113, 33, 144, 96
-0.999062, 1, 265, 128, 328
-0.999063, 357, 113, 388, 176
-0.999069, 1, 33, 500, 96
-0.999073, 321, 49, 448, 80
-0.999083, 227, 97, 242, 224
-0.999083, 109, 1, 140, 128
-0.999092, 401, 129, 432, 256
-0.999098, 421, 1, 452, 256
-0.999114, 177, 273, 240, 333
-0.999116, 235, 129, 250, 256
-0.999121, 275, 129, 290, 256
-0.999148, 65, 145, 192, 208
-0.99915, 265, 129, 280, 256
-0.999157, 217, 17, 280, 80
-0.999159, 325, 1, 356, 256
-0.999166, 245, 1, 276, 256
-0.999174, 149, 1, 180, 256
-0.999181, 161, 1, 192, 256
-0.99919, 213, 177, 228, 304
-0.999205, 473, 81, 488, 208
-0.999205, 17, 65, 80, 320
-0.999209, 467, 81, 482, 208
-0.99921, 349, 1, 380, 256
-0.999218, 201, 81, 232, 144
-0.999224, 485, 65, 500, 192
-0.999229, 241, 129, 256, 256
-0.999233, 161, 1, 416, 64
-0.999238, 65, 205, 192, 236
-0.999242, 221, 177, 236, 304
-0.999244, 33, 169, 160, 232
-0.999248, 215, 81, 230, 208
-0.99926, 257, 57, 500, 120
-0.99926, 337, 177, 464, 240
-0.999269, 479, 81, 494, 208
-0.99927, 177, 1, 208, 256
-0.999273, 289, 1, 320, 256
-0.999276, 65, 221, 192, 252
-0.999294, 273, 81, 304, 144
-0.9993, 177, 25, 304, 56
-0.999308, 207, 177, 222, 304
-0.999308, 253, 129, 268, 256
-0.999309, 281, 81, 296, 208
-0.999316, 229, 161, 244, 288
-0.999325, 369, 129, 432, 256
-0.999332, 287, 129, 302, 256
-0.999343, 53, 89, 84, 152
-0.999343, 137, 193, 168, 256
-0.99935, 235, 81, 250, 208
-0.999352, 81, 129, 144, 192
-0.999354, 373, 81, 388, 208
-0.999354, 259, 129, 274, 256
-0.999362, 447, 81, 462, 208
-0.999366, 201, 161, 216, 288
-0.999372, 177, 121, 208, 184
-0.999376, 353, 157, 480, 188
-0.999389, 243, 81, 258, 208
-0.999403, 467, 33, 482, 160
-0.999404, 367, 81, 382, 208
-0.999406, 193, 221, 320, 252
-0.999408, 1, 133, 128, 164
-0.999412, 221, 81, 236, 208
-0.999417, 373, 33, 388, 160
-0.999425, 261, 177, 276, 304
-0.999436, 247, 129, 262, 256
-0.999437, 1, 65, 500, 128
-0.99944, 461, 81, 476, 208
-0.999444, 273, 241, 400, 304
-0.999447, 409, 49, 472, 112
-0.999448, 379, 81, 394, 208
-0.999449, 207, 81, 222, 208
-0.99945, 473, 33, 488, 160
-0.999456, 461, 33, 476, 160
-0.999458, 243, 177, 258, 304
-0.999462, 329, 81, 344, 208
-0.999465, 379, 33, 394, 160
-0.999468, 437, 81, 452, 208
-0.99947, 229, 209, 260, 333
-0.999471, 387, 65, 402, 192
-0.999475, 361, 81, 376, 208
-0.999477, 49, 233, 176, 264
-0.999479, 367, 33, 382, 160
-0.999486, 233, 1, 264, 256
-0.999488, 227, 49, 242, 176
-0.999493, 331, 33, 346, 160
-0.999494, 237, 159, 252, 174
-0.999494, 57, 113, 72, 128
-0.999494, 217, 113, 232, 128
-0.999494, 351, 33, 366, 160
-0.999494, 275, 81, 290, 208
-0.999495, 277, 171, 292, 186
-0.999495, 183, 141, 198, 156
-0.999495, 321, 105, 336, 120
-0.999496, 243, 179, 258, 194
-0.999496, 443, 141, 458, 156
-0.999496, 431, 119, 446, 134
-0.999496, 303, 131, 318, 146
-0.999496, 421, 119, 436, 134
-0.999497, 235, 119, 250, 134
-0.999497, 415, 127, 430, 142
-0.999497, 263, 175, 278, 190
-0.999498, 281, 157, 296, 172
-0.999498, 227, 169, 242, 184
-0.9995, 389, 113, 404, 128
-0.9995, 479, 33, 494, 160
-0.9995, 161, 157, 176, 172
-0.9995, 275, 177, 290, 304
-0.999501, 421, 127, 436, 142
-0.999502, 235, 177, 250, 304
-0.999502, 327, 95, 342, 110
-0.999502, 271, 117, 286, 132
-0.999502, 229, 115, 244, 130
-0.999503, 187, 147, 202, 162
-0.999503, 235, 179, 250, 194
-0.999504, 471, 125, 486, 140
-0.999504, 401, 95, 416, 110
-0.999504, 289, 127, 304, 142
-0.999506, 199, 201, 214, 216
-0.999507, 243, 113, 258, 128
-0.999507, 1, 85, 128, 116
-0.999507, 283, 1, 298, 128
-0.999508, 319, 117, 334, 132
-0.999508, 285, 171, 300, 186
-0.999511, 149, 89, 180, 152
-0.999511, 261, 181, 276, 196
-0.999511, 161, 129, 176, 256
-0.999512, 393, 81, 408, 208
-0.999512, 279, 189, 294, 204
-0.999512, 437, 127, 452, 142
-0.999512, 443, 147, 458, 162
-0.999513, 209, 159, 224, 174
-0.999514, 243, 173, 258, 188
-0.999514, 359, 33, 374, 160
-0.999514, 341, 81, 356, 208
-0.999515, 221, 189, 236, 204
-0.999515, 273, 61, 400, 92
-0.999516, 437, 147, 452, 162
-0.999517, 257, 155, 272, 170
-0.999517, 265, 169, 280, 184
-0.999517, 41, 105, 72, 168
-0.999518, 269, 177, 284, 304
-0.999518, 227, 143, 242, 158
-0.999519, 257, 117, 272, 132
-0.999519, 269, 141, 284, 156
-0.999519, 431, 109, 446, 124
-0.99952, 249, 177, 264, 304
-0.999521, 269, 177, 284, 192
-0.999522, 229, 177, 244, 192
-0.999524, 283, 121, 298, 136
-0.999524, 187, 157, 202, 172
-0.999525, 243, 157, 258, 172
-0.999525, 453, 33, 484, 288
-0.999529, 351, 81, 366, 208
-0.999529, 221, 175, 236, 190
-0.999531, 485, 129, 500, 144
-0.999531, 287, 187, 302, 202
-0.999531, 369, 169, 496, 200
-0.999531, 293, 139, 308, 154
-0.999532, 391, 119, 406, 134
-0.999533, 341, 33, 356, 160
-0.999534, 255, 177, 270, 304
-0.999534, 237, 153, 252, 168
-0.999535, 221, 33, 236, 160
-0.999536, 287, 151, 302, 166
-0.999537, 263, 121, 278, 136
-0.999538, 335, 81, 350, 208
-0.999538, 461, 111, 476, 126
-0.999539, 207, 175, 222, 190
-0.99954, 351, 107, 366, 122
-0.999542, 209, 133, 224, 148
-0.999545, 391, 95, 406, 110
-0.999546, 439, 153, 454, 168
-0.999547, 455, 65, 470, 192
-0.999547, 409, 81, 424, 208
-0.999547, 199, 113, 214, 240
-0.999548, 291, 145, 306, 160
-0.999549, 249, 117, 264, 132
-0.999549, 209, 151, 224, 166
-0.99955, 249, 157, 264, 172
-0.999551, 253, 145, 268, 160
-0.999551, 393, 105, 408, 120
-0.999551, 463, 97, 478, 112
-0.999556, 337, 145, 464, 176
-0.999558, 243, 167, 258, 182
-0.999558, 259, 149, 274, 164
-0.999559, 443, 129, 458, 256
-0.999564, 1, 29, 128, 60
-0.999564, 215, 125, 230, 140
-0.999564, 249, 129, 264, 144
-0.999564, 271, 149, 286, 164
-0.999565, 253, 173, 268, 188
-0.999568, 287, 81, 302, 208
-0.999569, 243, 129, 258, 144
-0.999569, 269, 129, 284, 144
-0.99957, 287, 181, 302, 196
-0.999572, 227, 183, 242, 198
-0.999574, 273, 185, 336, 248
-0.999574, 67, 49, 82, 176
-0.999576, 237, 173, 252, 188
-0.999576, 187, 145, 202, 272
-0.999577, 237, 147, 252, 162
-0.99958, 323, 81, 338, 208
-0.999581, 257, 5, 384, 36
-0.999581, 447, 33, 462, 160
-0.999581, 267, 183, 282, 198
-0.999581, 259, 81, 274, 208
-0.999582, 441, 159, 456, 174
-0.999584, 259, 127, 274, 142
-0.999584, 253, 123, 268, 138
-0.999584, 485, 17, 500, 144
-0.999587, 225, 121, 240, 136
-0.999587, 473, 97, 488, 112
-0.999588, 467, 107, 482, 122
-0.999588, 221, 147, 236, 162
-0.999589, 293, 113, 308, 240
-0.99959, 215, 189, 230, 204
-0.999591, 273, 185, 288, 200
-0.999593, 399, 65, 414, 192
-0.999593, 167, 113, 182, 240
-0.999594, 81, 73, 208, 104
-0.999594, 221, 135, 236, 150
-0.999596, 209, 145, 224, 160
-0.999598, 281, 177, 296, 304
-0.999599, 359, 107, 374, 122
-0.999601, 289, 133, 304, 148
-0.999602, 215, 177, 230, 192
-0.999602, 463, 119, 478, 134
-0.999603, 281, 151, 296, 166
-0.999603, 249, 49, 264, 176
-0.999604, 177, 97, 192, 224
-0.999604, 9, 65, 40, 128
-0.999605, 237, 125, 252, 140
-0.999607, 417, 97, 432, 224
-0.999607, 227, 127, 242, 142
-0.999608, 275, 177, 290, 192
-0.999609, 433, 33, 448, 160
-0.99961, 249, 151, 264, 166
-0.999612, 209, 191, 224, 206
-0.999616, 415, 1, 430, 128
-0.999619, 287, 139, 302, 154
-0.999621, 193, 145, 208, 272
-0.999622, 283, 127, 298, 142
-0.999626, 423, 33, 438, 160
-0.999626, 209, 139, 224, 154
-0.999627, 207, 181, 222, 196
-0.99963, 247, 123, 262, 138
-0.99963, 221, 183, 236, 198
-0.99963, 107, 49, 122, 176
-0.999631, 41, 81, 72, 208
-0.999639, 243, 151, 258, 166
-0.999639, 163, 33, 178, 160
-0.999639, 237, 167, 252, 182
-0.99964, 319, 33, 334, 160
-0.999643, 225, 65, 352, 96
-0.999643, 441, 33, 456, 160
-0.999644, 385, 1, 400, 128
-0.999645, 227, 149, 242, 164
-0.999645, 215, 131, 230, 146
-0.999645, 269, 81, 284, 208
-0.999652, 201, 65, 216, 192
-0.999653, 265, 149, 280, 164
-0.999656, 97, 17, 112, 144
-0.999659, 189, 97, 204, 224
-0.999663, 399, 1, 414, 128
-0.999663, 21, 49, 36, 176
-0.999663, 281, 183, 296, 198
-0.999664, 393, 33, 408, 160
-0.999664, 253, 167, 268, 182
-0.999666, 275, 129, 290, 144
-0.999666, 85, 65, 116, 320
-0.999667, 73, 33, 88, 160
-0.999669, 313, 33, 344, 288
-0.99967, 183, 49, 198, 176
-0.999671, 221, 129, 236, 144
-0.999671, 193, 245, 320, 276
-0.999674, 285, 145, 300, 160
-0.999674, 79, 49, 94, 176
-0.999677, 407, 1, 422, 128
-0.999678, 165, 177, 180, 304
-0.999679, 275, 139, 290, 154
-0.999679, 325, 33, 340, 160
-0.999681, 169, 49, 184, 176
-0.999682, 307, 113, 322, 240
-0.999684, 43, 65, 58, 192
-0.999686, 175, 33, 190, 160
-0.999686, 59, 33, 74, 160
-0.999687, 485, 113, 500, 240
-0.99969, 75, 113, 90, 240
-0.999692, 183, 97, 198, 224
-0.999693, 215, 149, 230, 164
-0.999694, 277, 1, 292, 128
-0.999697, 431, 81, 446, 208
-0.999698, 243, 33, 258, 160
-0.999698, 423, 81, 438, 208
-0.999699, 211, 33, 226, 160
-0.999703, 155, 49, 170, 176
-0.999705, 337, 1, 464, 32
-0.999705, 453, 17, 468, 144
-0.999707, 277, 145, 292, 160
-0.999709, 85, 49, 100, 176
-0.99971, 195, 49, 210, 176
-0.99971, 221, 141, 236, 156
-0.999711, 289, 1, 304, 128
-0.999714, 65, 249, 320, 312
-0.999714, 33, 81, 48, 208
-0.999716, 101, 65, 116, 192
-0.999716, 155, 113, 170, 240
-0.999718, 437, 129, 452, 256
-0.999725, 1, 221, 128, 252
-0.999728, 1, 217, 256, 280
-0.999729, 295, 1, 310, 128
-0.999729, 283, 133, 298, 148
-0.999729, 195, 193, 210, 320
-0.999729, 159, 177, 174, 304
-0.999734, 233, 33, 248, 160
-0.99975, 215, 137, 230, 152
-0.999751, 213, 183, 228, 198
-0.999756, 129, 73, 256, 104
-0.999767, 281, 139, 296, 154
-0.999767, 257, 193, 384, 224
-0.999767, 225, 77, 352, 108
-0.999769, 1, 209, 500, 272
-0.99978, 321, 61, 448, 92
-0.999786, 257, 1, 288, 256
-0.999794, 381, 33, 412, 288
-0.999794, 215, 143, 230, 158
-0.999801, 301, 1, 332, 256
-0.999821, 101, 1, 132, 256
-0.999843, 1, 233, 128, 264
-0.99985, 145, 245, 272, 276
-0.999852, 137, 1, 168, 256
-0.999862, 17, 197, 144, 228
-0.999863, 337, 1, 368, 256
-0.999878, 33, 181, 160, 212
-0.999879, 353, 1, 384, 64
-0.999915, 289, 133, 416, 164
-0.999915, 273, 49, 304, 112
-0.999915, 209, 13, 336, 44
-0.999919, 1, 209, 128, 240
-0.999936, 393, 1, 424, 256
-0.999944, 337, 113, 368, 176
-0.999945, 241, 225, 368, 256
-0.999949, 85, 193, 116, 320
-0.999956, 49, 25, 176, 56
-0.999958, 177, 257, 304, 288
-0.999977, 193, 269, 320, 300
-0.999981, 1, 97, 32, 224
-0.999992, 137, 233, 200, 296
-0.999992, 81, 245, 208, 276
-0.999994, 289, 149, 416, 180
-1, 193, 241, 448, 304
-1, 145, 273, 272, 304
-1, 273, 193, 336, 320
-1.00001, 129, 33, 192, 96
-1.00002, 129, 1, 192, 128
-1.00002, 73, 1, 104, 256
-1.00003, 369, 133, 496, 164
-1.00003, 321, 169, 448, 200
-1.00006, 409, 1, 440, 256
-1.00006, 13, 113, 44, 240
-1.00007, 241, 241, 368, 272
-1.00008, 29, 1, 60, 256
-1.00008, 209, 1, 336, 32
-1.00008, 57, 209, 120, 272
-1.00008, 97, 25, 224, 56
-1.00011, 109, 129, 140, 256
-1.00011, 1, 9, 500, 72
-1.00011, 65, 257, 192, 288
-1.00011, 225, 257, 352, 288
-1.00013, 125, 1, 156, 256
-1.00013, 1, 233, 500, 296
-1.00013, 97, 273, 224, 304
-1.00014, 305, 185, 432, 216
-1.00015, 113, 13, 240, 44
-1.00016, 113, 285, 240, 316
-1.00016, 225, 265, 288, 328
-1.00016, 97, 233, 224, 264
-1.00017, 129, 257, 256, 288
-1.00018, 49, 13, 176, 44
-1.00018, 177, 301, 304, 332
-1.0002, 257, 169, 500, 232
-1.00021, 53, 1, 84, 256
-1.00022, 73, 145, 136, 272
-1.00024, 89, 217, 152, 280
-1.00025, 89, 249, 152, 312
-1.00025, 425, 169, 488, 232
-1.00025, 113, 65, 144, 320
-1.00029, 33, 1, 96, 64
-1.0003, 241, 205, 368, 236
-1.00031, 161, 13, 288, 44
-1.00033, 177, 1, 240, 64
-1.00033, 129, 301, 256, 332
-1.00034, 177, 285, 304, 316
-1.00034, 61, 1, 92, 128
-1.00034, 33, 1, 160, 32
-1.00034, 1, 257, 128, 288
-1.00035, 49, 277, 176, 308
-1.00037, 257, 209, 500, 272
-1.00038, 369, 61, 496, 92
-1.00042, 41, 65, 72, 320
-1.00043, 113, 265, 176, 328
-1.00043, 97, 273, 352, 333
-1.00048, 5, 1, 36, 256
-1.00053, 17, 1, 48, 128
-1.00056, 17, 33, 48, 288
-1.00059, 241, 209, 272, 333
-1.00063, 81, 17, 144, 80
-1.00064, 465, 129, 496, 256
-1.0007, 129, 113, 160, 240
-1.00071, 225, 265, 480, 328
-1.00077, 1, 273, 256, 333
-1.0008, 413, 129, 444, 256
-1.00102, 1, 9, 64, 72
-1.00111, 129, 33, 160, 160
-1.00117, 329, 129, 392, 256
-1.0014, 65, 233, 128, 296
-1.00148, 321, 201, 448, 264
-1.00152, 1, 257, 500, 320
-1.00153, 129, 1, 192, 64
-1.00156, 305, 161, 368, 224
-1.00163, 5, 1, 36, 128
-1.00164, 449, 129, 480, 256
-1.00165, 169, 209, 200, 333
-1.00165, 377, 161, 440, 224
-1.00167, 353, 257, 480, 320
-1.00172, 25, 129, 88, 256
-1.00177, 89, 169, 152, 232
-1.00178, 353, 233, 480, 296
-1.00179, 33, 193, 96, 320
-1.00181, 97, 145, 128, 272
-1.00188, 301, 161, 332, 288
-1.0019, 29, 129, 60, 256
-1.00191, 273, 265, 400, 328
-1.00196, 329, 129, 360, 256
-1.00202, 57, 185, 120, 248
-1.00211, 265, 209, 328, 272
-1.00215, 117, 49, 148, 176
-1.00223, 113, 217, 176, 280
-1.00223, 369, 201, 496, 264
-1.00229, 305, 137, 368, 200
-1.00231, 365, 129, 396, 256
-1.00232, 249, 265, 312, 328
-1.00234, 313, 145, 344, 272
-1.00246, 65, 265, 128, 328
-1.00258, 41, 1, 104, 128
-1.0026, 33, 201, 96, 264
-1.00261, 145, 209, 208, 333
-1.00262, 273, 241, 336, 304
-1.00275, 85, 145, 116, 272
-1.00294, 73, 193, 104, 320
-1.00304, 401, 177, 464, 240
-1.00315, 41, 257, 104, 320
-1.00346, 289, 193, 416, 320
-1.00359, 353, 129, 384, 256
-1.00377, 61, 193, 92, 320
-1.00402, 41, 129, 72, 256
-1.00418, 337, 177, 464, 304
-1.00465, 377, 129, 408, 256
-1.00467, 341, 129, 372, 256
-1.00468, 73, 145, 104, 272
-1.00473, 389, 129, 420, 256
-1.00487, 49, 193, 80, 320
-1.00528, 313, 193, 344, 320
-1.00529, 37, 193, 68, 320
-1.00596, 25, 193, 56, 320
-1.00612, 289, 209, 320, 333
-1.00614, 9, 193, 72, 320
-1.00618, 1, 145, 32, 272
-1.00625, 413, 177, 444, 304
-1.00654, 433, 177, 464, 304
-1.00687, 325, 177, 356, 304
-1.00822, 297, 193, 360, 320
-1.00874, 393, 177, 456, 304
-1.01069, 369, 177, 432, 304
-1.0112, 321, 177, 384, 304
-1.01247, 345, 193, 408, 320
-1.01264, 417, 193, 480, 320
